OFF
214 414 0
-8.32545 5.84966 -12.0471
-8.01145 5.51866 -11.4611
-8.19245 6.11516 -11.8561
-8.58545 6.18276 -12.2641
-8.33145 6.42736 -11.6791
-8.58545 6.55376 -11.9851
-8.84045 6.44176 -12.1911
-8.68545 5.74336 -12.1921
-8.52545 6.21856 -10.9031
-8.97745 6.60656 -11.5301
-9.09145 6.57196 -11.9601
-9.33345 6.43366 -11.5901
-9.61545 5.93566 -11.1331
-9.53445 6.09176 -11.7011
-9.32945 5.92846 -12.0491
-9.09045 6.20546 -12.2461
-8.97445 5.35236 -11.8621
-5.71045 -8.79446 0.86692
-5.42245 -7.09014 0.79492
-5.69645 -7.46994 1.05392
-6.04445 -8.52434 1.24592
-5.96445 -7.18964 1.19292
-6.31645 -7.24684 1.26992
-6.62245 -7.15144 1.21092
-6.77945 -8.43644 1.38192
-6.17745 -8.92273 -0.26008
-5.75945 -8.09234 -0.00208031
-5.98645 -9.36907 -0.14108
-5.77845 -9.20072 0.18592
-6.30845 -9.51576 -0.39208
-5.66945 -8.9602 0.54492
-6.75445 -8.37824 -0.17108
-6.78245 -9.50252 -0.41308
-7.39345 -9.35004 -0.0610803
-7.06645 -8.35184 -0.00608031
-7.39245 -8.83267 0.19792
-6.41445 -8.39484 -0.24308
-6.92845 -7.35884 1.05092
-7.20245 -8.60774 1.13592
-7.09245 -7.41784 0.80392
-7.41545 -8.82068 0.85292
-7.51145 -8.99689 0.51592
-4.87845 -3.69294 0.27292
-4.72345 -3.81424 0.16192
-4.30545 -2.29154 -0.46708
-4.44445 -2.19414 -0.39408
-3.94145 -0.861338 -1.40708
-4.06345 -0.790738 -1.36608
-4.25145 -0.742638 -1.33908
-4.65945 -2.12744 -0.34408
-5.11845 -3.60964 0.34892
-3.77845 0.247262 -2.70208
-4.02545 1.12966 -4.21808
-3.88345 0.290862 -2.68308
-4.38045 1.14076 -4.17908
-4.11145 0.321862 -2.65408
-4.47745 0.326562 -2.68008
-4.69045 -0.737838 -1.33208
-4.47145 -0.723138 -1.32608
-5.16145 -2.12064 -0.33508
-5.67845 -3.60124 0.36192
-5.39945 -3.57584 0.38192
-4.91145 -2.10034 -0.32308
-4.94445 -4.24094 -0.25708
-5.17745 -4.32754 -0.34708
-4.71245 -2.70894 -0.80008
-4.50345 -2.63804 -0.74208
-4.29745 -1.16724 -1.59008
-4.11445 -1.11484 -1.55808
-3.98345 -1.03744 -1.51008
-4.35345 -2.53294 -0.65608
-4.77645 -4.11224 -0.12608
-4.03545 0.054062 -2.77508
-4.37945 1.00786 -4.21308
-4.07045 1.02276 -4.19208
-3.81445 0.137562 -2.74908
-3.94645 1.07676 -4.19808
-3.75945 0.193162 -2.72508
-3.92045 -0.948238 -1.45708
-4.69645 -3.96204 0.0209197
-4.28145 -2.41094 -0.55908
-5.97745 -4.24534 -0.24808
-6.13345 -4.13134 -0.12908
-5.56845 -2.54824 -0.65508
-5.42945 -2.64134 -0.73408
-5.04645 -1.04864 -1.50608
-4.92445 -1.11724 -1.55108
-4.73645 -1.16314 -1.58208
-5.21445 -2.70354 -0.78908
-5.73845 -4.32104 -0.33208
-4.73345 0.130162 -2.74408
-4.73445 1.02066 -4.18208
-4.62845 0.087262 -2.76508
-4.40145 0.057462 -2.79408
-4.51645 -1.18154 -1.59708
-5.45645 -4.35134 -0.36808
-4.96245 -2.72844 -0.81408
-5.91245 -3.69594 0.28192
-5.37045 -2.19644 -0.38708
-4.87345 -0.792538 -1.36008
-5.00445 -0.872338 -1.40308
-5.52045 -2.30664 -0.46608
-6.07945 -3.83314 0.15992
-4.68645 1.12186 -4.19308
-4.69745 0.239962 -2.69608
-4.81245 1.07156 -4.19208
-4.75145 0.183962 -2.72008
-5.06745 -0.962338 -1.45408
-6.16045 -3.98614 0.0149197
-5.59245 -2.43034 -0.56008
-4.65545 1.76546 -5.71108
-4.85445 1.76476 -5.72008
-5.61745 2.35286 -7.09708
-5.96745 2.34216 -7.13508
-6.60145 3.07276 -8.22908
-7.86045 4.04636 -9.44608
-7.97645 3.96336 -9.47908
-6.73545 3.00966 -8.23508
-8.02545 3.78936 -9.32808
-7.11445 3.02256 -8.28508
-5.15745 1.76396 -5.71808
-4.88745 1.76446 -5.69908
-5.96345 2.45196 -7.06008
-5.70145 2.44396 -7.09508
-6.81445 3.21116 -8.14708
-7.87545 3.91626 -8.87008
-7.53945 3.86026 -8.92808
-6.60745 3.14086 -8.19208
-7.42445 3.75686 -8.99008
-5.58045 2.39786 -7.10208
-5.37145 1.74916 -5.67508
-5.18945 1.76346 -5.69708
-6.30645 2.44016 -7.09208
-7.40645 3.14666 -8.18508
-8.28945 3.85286 -8.92508
-7.16945 3.20866 -8.13508
-6.22645 2.34966 -7.09508
-7.37445 3.09286 -8.28708
-8.33145 3.75896 -8.97908
-6.35045 2.39736 -7.09408
-8.05945 4.38356 -9.81508
-8.44845 4.22656 -9.91508
-7.95145 4.84096 -10.5291
-8.14845 4.63846 -10.5591
-8.41045 4.59336 -10.7111
-8.75245 4.50646 -10.6621
-9.06045 4.38376 -10.3351
-8.76945 4.14556 -9.82908
-8.15945 4.37396 -9.28308
-8.60245 4.84456 -9.51308
-8.19445 4.64636 -9.56908
-7.88845 4.22876 -9.39608
-8.48445 5.45966 -10.0461
-8.22645 5.29156 -10.0561
-8.01145 5.18926 -10.2591
-7.92745 4.95596 -10.3151
-9.35445 4.80226 -9.62008
-8.54245 4.38316 -9.26008
-8.86945 4.26316 -9.31508
-9.62145 5.19846 -10.2361
-9.42045 5.27946 -10.0491
-9.16345 5.44016 -10.0501
-8.81745 5.41936 -9.95808
-9.04245 4.19296 -9.66508
-9.39745 4.47206 -10.1221
-9.57145 4.71276 -9.95708
-9.31545 4.45046 -9.66908
-8.18845 5.28996 -11.5341
-8.45845 5.27426 -11.7221
-9.09045 4.84206 -11.1681
-8.77145 4.96046 -11.3991
-8.26245 6.06696 -10.9351
-8.07445 5.98356 -11.2221
-7.96345 5.68106 -11.2481
-9.43345 6.07376 -10.9431
-9.17145 6.26636 -10.9821
-8.84745 6.21406 -10.8191
-9.38945 5.02526 -11.1541
-9.57745 5.13576 -10.9521
-9.47145 5.62666 -11.7071
-9.68245 5.41276 -10.8671
-6.38345 -6.12494 1.04392
-6.65145 -6.24424 0.90792
-6.84245 -6.41594 0.70192
-6.08145 -4.95554 0.79392
-6.33345 -5.06454 0.68492
-6.51545 -5.22184 0.51892
-6.57345 -5.56094 0.12992
-6.60245 -5.39614 0.32392
-7.05345 -7.35714 0.24892
-6.98945 -6.80764 0.47892
-6.72645 -6.92084 0.0219197
-6.45145 -7.01134 -0.11508
-6.40545 -5.68934 -0.0300803
-6.14545 -5.77414 -0.14208
-5.53945 -5.78114 -0.16008
-5.84145 -5.80794 -0.19008
-5.81045 -7.01854 -0.13708
-6.13045 -7.04734 -0.17408
-6.00545 -7.98864 -0.17308
-5.54345 -6.91464 0.0119197
-5.35145 -6.75894 0.22992
-5.52845 -7.71844 0.25192
-5.28645 -5.68394 -0.0400803
-5.10545 -5.53894 0.13692
-5.04745 -5.19994 0.52492
-5.01845 -5.36844 0.33492
-5.30345 -6.80714 0.49892
-5.46745 -6.24034 0.89792
-5.74245 -6.13554 1.02492
-5.21545 -5.06104 0.67592
-5.47445 -4.96524 0.77792
-5.77945 -4.92634 0.82092
-6.06445 -6.09284 1.07792
3 0 1 2
3 0 2 3
3 2 4 5
3 2 5 3
3 5 6 3
3 3 7 0
3 4 8 9
3 4 9 5
3 9 10 5
3 10 6 5
3 11 12 13
3 11 13 10
3 13 14 15
3 13 15 10
3 15 6 10
3 10 9 11
3 14 16 7
3 14 7 15
3 7 3 15
3 3 6 15
3 17 18 19
3 17 19 20
3 19 21 20
3 22 23 24
3 20 21 22
3 20 22 24
3 25 26 27
3 26 28 27
3 27 29 25
3 30 18 17
3 31 32 33
3 31 33 34
3 33 35 34
3 25 29 32
3 25 32 36
3 32 31 36
3 24 23 37
3 24 37 38
3 37 39 40
3 37 40 38
3 40 39 41
3 41 35 33
3 42 43 44
3 42 44 45
3 44 46 47
3 44 47 45
3 47 48 49
3 47 49 45
3 49 50 42
3 49 42 45
3 51 52 53
3 52 54 55
3 52 55 53
3 55 48 47
3 55 47 53
3 47 46 51
3 47 51 53
3 54 56 55
3 56 57 58
3 56 58 55
3 58 48 55
3 59 60 61
3 59 61 62
3 61 50 49
3 61 49 62
3 49 48 58
3 49 58 62
3 58 57 59
3 58 59 62
3 63 64 65
3 63 65 66
3 65 67 68
3 65 68 66
3 68 69 70
3 68 70 66
3 70 71 63
3 70 63 66
3 72 73 74
3 74 75 72
3 75 69 68
3 75 68 72
3 68 67 72
3 76 52 51
3 76 51 77
3 51 46 78
3 51 78 77
3 78 69 75
3 78 75 77
3 75 74 76
3 75 76 77
3 44 43 79
3 44 79 80
3 79 71 70
3 79 70 80
3 70 69 78
3 70 78 80
3 78 46 44
3 78 44 80
3 81 82 83
3 81 83 84
3 83 85 86
3 83 86 84
3 86 87 88
3 86 88 84
3 88 89 81
3 88 81 84
3 90 91 92
3 91 73 93
3 91 93 92
3 93 87 86
3 93 86 92
3 86 85 90
3 86 90 92
3 73 72 93
3 72 67 94
3 72 94 93
3 94 87 93
3 65 64 95
3 65 95 96
3 95 89 88
3 95 88 96
3 88 87 94
3 88 94 96
3 94 67 65
3 94 65 96
3 97 60 59
3 97 59 98
3 59 57 99
3 59 99 98
3 99 100 101
3 99 101 98
3 101 102 97
3 101 97 98
3 56 54 103
3 103 104 56
3 104 100 99
3 104 99 56
3 99 57 56
3 105 91 90
3 105 90 106
3 90 85 107
3 90 107 106
3 107 100 104
3 107 104 106
3 104 103 105
3 104 105 106
3 83 82 108
3 83 108 109
3 108 102 101
3 108 101 109
3 101 100 107
3 101 107 109
3 107 85 83
3 107 83 109
3 52 110 111
3 110 112 111
3 112 113 111
3 111 54 52
3 114 115 116
3 114 116 117
3 116 118 117
3 117 113 112
3 112 114 117
3 113 117 119
3 117 118 119
3 120 54 111
3 113 120 111
3 74 73 121
3 121 122 123
3 123 110 121
3 110 74 121
3 124 125 126
3 126 127 124
3 127 123 124
3 123 122 124
3 128 115 114
3 128 114 127
3 114 112 129
3 114 129 127
3 129 123 127
3 127 126 128
3 110 52 76
3 76 74 110
3 110 123 129
3 129 112 110
3 91 130 131
3 130 132 131
3 132 122 131
3 131 73 91
3 133 134 135
3 134 125 135
3 135 122 132
3 132 133 135
3 125 124 135
3 124 122 135
3 73 131 121
3 131 122 121
3 103 54 120
3 120 113 136
3 136 130 120
3 130 103 120
3 136 113 119
3 136 119 137
3 138 134 133
3 133 132 139
3 139 136 137
3 139 137 133
3 137 138 133
3 130 91 105
3 105 103 130
3 130 136 139
3 139 132 130
3 115 140 116
3 140 141 118
3 140 118 116
3 140 142 143
3 143 144 141
3 143 141 140
3 145 146 147
3 141 144 145
3 141 145 147
3 147 119 118
3 118 141 147
3 126 125 148
3 148 149 150
3 150 151 148
3 151 126 148
3 149 152 153
3 149 153 150
3 153 154 150
3 155 142 140
3 150 154 155
3 150 155 140
3 115 128 151
3 128 126 151
3 151 150 140
3 140 115 151
3 156 157 158
3 157 125 134
3 157 134 158
3 156 159 160
3 160 161 156
3 162 152 149
3 156 161 162
3 156 162 149
3 148 125 157
3 157 156 149
3 149 148 157
3 137 119 147
3 137 147 163
3 163 147 146
3 163 146 164
3 165 159 156
3 156 166 165
3 166 163 164
3 166 164 165
3 158 134 138
3 158 138 166
3 138 137 163
3 138 163 166
3 166 156 158
3 142 1 167
3 142 167 143
3 167 168 144
3 167 144 143
3 1 0 167
3 0 7 168
3 0 168 167
3 16 169 170
3 170 168 16
3 168 7 16
3 169 146 145
3 144 168 170
3 144 170 145
3 170 169 145
3 152 8 171
3 152 171 153
3 171 172 154
3 171 154 153
3 8 4 171
3 4 172 171
3 2 1 173
3 172 4 2
3 172 2 173
3 154 172 173
3 154 173 155
3 173 1 142
3 173 142 155
3 159 12 174
3 159 174 160
3 174 175 161
3 174 161 160
3 12 11 174
3 11 9 175
3 11 175 174
3 9 8 176
3 175 9 176
3 161 175 176
3 161 176 162
3 176 8 152
3 176 152 162
3 164 146 169
3 164 169 177
3 178 164 177
3 16 14 179
3 179 178 177
3 177 169 16
3 177 16 179
3 12 180 13
3 180 178 179
3 180 179 13
3 179 14 13
3 159 165 180
3 165 164 178
3 165 178 180
3 180 12 159
3 23 181 182
3 23 182 37
3 182 183 39
3 182 39 37
3 184 60 97
3 184 97 185
3 97 102 186
3 97 186 185
3 186 183 182
3 186 182 185
3 182 181 184
3 182 184 185
3 108 82 187
3 108 187 188
3 187 189 190
3 187 190 188
3 190 183 186
3 190 186 188
3 186 102 108
3 186 108 188
3 189 35 41
3 189 41 190
3 41 39 190
3 39 183 190
3 34 35 189
3 189 191 34
3 191 192 31
3 191 31 34
3 187 82 81
3 187 81 193
3 81 89 194
3 81 194 193
3 194 192 191
3 194 191 193
3 191 189 187
3 191 187 193
3 95 64 195
3 95 195 196
3 195 197 198
3 195 198 196
3 198 192 194
3 198 194 196
3 194 89 95
3 194 95 196
3 199 25 36
3 31 192 198
3 31 198 36
3 198 197 199
3 198 199 36
3 26 25 199
3 199 197 200
3 199 200 26
3 200 201 202
3 200 202 26
3 202 28 26
3 195 64 63
3 195 63 203
3 63 71 204
3 63 204 203
3 204 201 200
3 204 200 203
3 200 197 195
3 200 195 203
3 79 43 205
3 79 205 206
3 205 18 207
3 205 207 206
3 207 201 204
3 207 204 206
3 204 71 79
3 204 79 206
3 18 30 207
3 30 28 202
3 30 202 207
3 202 201 207
3 18 208 19
3 208 209 21
3 208 21 19
3 205 43 42
3 205 42 210
3 42 50 211
3 42 211 210
3 211 209 208
3 211 208 210
3 208 18 205
3 208 205 210
3 61 60 184
3 61 184 212
3 184 181 213
3 184 213 212
3 213 209 211
3 213 211 212
3 211 50 61
3 211 61 212
3 21 209 213
3 21 213 22
3 213 181 23
3 213 23 22
