OFF
456 884 0
12.1029 17.9257 4.57878
11.8289 16.9904 4.52178
11.9969 17.0842 3.60408
12.2769 18.0423 3.66258
12.0669 17.0462 2.54618
12.3429 17.9873 2.58558
12.3279 18.5117 2.58738
12.2649 18.5725 3.69178
12.0919 18.4431 4.60738
12.0079 16.7615 1.58008
11.8699 16.3345 0.939875
12.0099 16.815 0.703375
12.2619 17.621 1.56058
11.9639 17.2214 0.528275
12.2389 18.1104 1.47928
11.5729 17.4834 0.469975
10.1049 17.9786 0.469975
11.8579 18.3993 1.45228
11.9529 18.8112 2.58798
11.7349 18.7347 4.61688
11.8979 18.8717 3.70138
0.63693 11.1413 4.15138
0.75793 11.1898 4.46408
0.67193 11.23 3.22378
0.62393 11.2006 3.17158
0.63793 11.2891 1.97218
0.60693 11.2667 1.96648
0.63193 11.3546 0.747475
8.42993 9.92575 3.63578
8.48793 10.0733 3.58638
8.45993 10.0825 3.43188
8.40993 9.94625 3.49418
8.33093 10.1254 3.35448
8.28293 9.98675 3.42328
8.27793 9.97155 3.57678
8.45893 10.5052 3.35208
8.59193 10.4707 3.43238
8.61793 10.4512 3.59098
8.01393 10.2322 3.32858
8.14193 10.6119 3.32558
7.96693 10.0929 3.39968
5.55293 10.8887 3.55798
7.96093 10.0769 3.55798
9.28793 8.52345 -0.173025
9.34393 8.71405 -0.0844248
9.32593 8.66275 0.847075
9.26893 8.47095 0.784475
9.27593 8.62985 1.97478
9.21693 8.43195 1.96968
9.51293 9.22125 -0.0274248
9.84393 10.2026 0.0332752
9.82493 10.1516 0.956075
9.49393 9.17035 0.895375
9.77493 10.1153 2.06428
9.44493 9.13775 2.00388
9.69193 10.1197 3.17418
9.57893 10.1913 4.10208
9.26093 9.24825 4.04378
9.36693 9.15375 3.11448
9.09693 8.74835 4.05188
9.19993 8.64555 3.10918
9.03893 8.52785 4.15548
9.03693 8.39435 4.46408
9.14393 8.36675 3.22378
9.14093 8.43145 3.17428
8.72993 8.97845 -0.982825
9.16193 8.82685 -0.894625
9.09793 8.63465 -0.922625
8.66493 8.79085 -0.998225
8.65493 8.76575 -1.00722
9.33293 9.33315 -0.858025
8.90093 9.48465 -0.950325
9.82893 10.2418 -0.520425
9.49793 9.26045 -0.581125
9.32893 8.75375 -0.630125
9.26393 8.53935 -0.782325
9.26893 8.56465 -0.694525
0.84393 11.2924 4.15548
0.71393 11.2752 3.17428
0.93293 11.5013 4.05188
0.79793 11.4789 3.10918
0.73593 11.5101 1.97478
0.66293 11.319 1.96958
1.10693 11.9974 4.04378
1.94793 14.4904 4.19788
1.29893 12.9496 3.17418
0.97293 11.9836 3.11448
1.23893 12.9932 2.06428
0.90893 12.0158 2.00388
1.22593 13.051 0.956075
1.24193 13.1027 0.0332752
0.91093 12.1214 -0.0274248
0.89493 12.0698 0.895375
0.73793 11.6162 -0.0847248
0.72193 11.5642 0.846975
0.66893 11.4316 -0.174125
0.65293 11.3786 0.783975
8.93293 8.48225 4.80608
8.88493 8.74495 4.76698
8.83293 8.75805 4.85518
8.70993 9.08775 4.90418
8.55193 9.14015 4.91968
8.65793 8.82835 4.91828
8.74493 8.56755 4.90098
8.49293 9.65915 4.71278
8.44693 9.44735 4.85938
8.64093 9.39285 4.85948
8.17993 9.26495 4.92488
8.09593 9.56365 4.85928
8.02593 9.81225 4.71248
8.33093 8.71435 4.93258
8.26293 8.96535 4.93928
9.43493 10.3563 4.66408
9.12993 9.45145 4.60818
8.99193 9.72015 4.87178
8.83793 9.26935 4.85028
8.97093 8.97655 4.60478
8.85893 9.98355 4.89688
9.44293 12.2611 4.87498
8.75293 10.2125 4.74828
8.61493 9.81425 4.72358
8.71393 9.56575 4.87098
8.55593 9.67085 4.71458
8.77493 9.10305 4.85938
8.90993 8.77945 4.67058
11.2459 18.3529 5.39338
11.5699 18.0881 5.38468
11.8469 18.2735 5.14898
11.5069 18.5523 5.15808
10.7889 18.0067 5.21928
11.0799 17.7677 5.21148
11.3009 17.9114 5.38288
10.9949 18.162 5.39108
11.0879 17.3428 5.18798
10.8629 16.5743 5.14108
11.0729 16.6591 5.30908
11.3089 17.4655 5.35828
11.3289 16.7652 5.30678
11.5789 17.6171 5.35878
11.5939 16.8799 5.06678
11.8569 17.7772 5.12158
1.08493 11.3756 4.76698
1.09293 11.4157 4.67058
1.41993 11.5462 4.90418
1.39393 11.5915 4.85938
1.44793 11.7609 4.85028
1.16693 11.608 4.60478
1.89993 11.8881 4.71308
1.72493 11.9257 4.87118
1.67393 11.7399 4.85978
2.08693 12.4598 4.74828
2.34893 13.2347 4.79628
2.13893 13.1548 4.94718
1.59793 12.2094 4.87158
1.63493 12.986 4.66408
1.32993 12.0812 4.60818
8.42093 9.89075 4.15048
8.28293 9.93165 4.14248
8.30893 9.85385 4.45458
8.45593 9.81035 4.45498
8.46493 9.90565 4.13458
8.27493 9.96205 3.83318
7.95793 10.0673 3.82278
7.96393 10.0377 4.13978
7.98393 9.96145 4.45448
8.94293 11.1018 4.53578
8.68893 10.3498 4.48928
8.90393 11.16 4.21978
8.65493 10.4195 4.17398
8.52293 10.0391 4.15298
8.55593 9.96335 4.46528
8.88393 11.182 3.90208
8.63493 10.4453 3.85648
8.50493 10.0673 3.84338
8.49893 9.82425 4.45648
10.5629 17.7467 4.61658
10.8419 17.5217 4.61188
10.9479 17.6815 4.93868
10.6649 17.9137 4.94668
10.1779 16.6495 3.96448
10.4649 16.4584 3.97798
10.7009 17.1573 4.27818
10.4209 17.3709 4.27448
10.5029 16.1613 4.01858
10.4059 15.8099 4.07348
10.5299 16.1519 4.27078
10.7189 16.7945 4.28938
10.6439 16.4136 4.55958
10.8519 17.126 4.59788
10.7369 16.5234 4.87048
10.9559 17.2692 4.91598
2.04393 11.9743 4.45528
2.13893 12.0087 4.15048
2.12193 12.0419 4.15208
2.16293 12.1834 4.15298
2.09193 12.1425 4.46528
2.15693 12.0402 3.63648
2.20293 12.1922 3.58638
2.19193 12.1957 3.84338
2.15093 12.0565 3.86588
2.32993 12.5713 3.59098
2.56593 13.3119 3.90208
2.31793 12.5752 3.85648
2.28993 12.5654 4.17398
2.47493 13.2826 4.53578
2.22093 12.5306 4.48928
6.46493 13.1947 -0.789825
9.77493 12.079 -0.789825
10.4209 14.0008 -0.578425
10.8469 13.8341 -0.489625
10.2079 11.9273 -0.697525
11.0569 15.9096 -0.182725
11.4669 15.6974 -0.104525
11.5359 15.2822 0.609375
11.5649 15.4411 0.130075
10.9999 13.6463 0.311675
10.9959 13.7155 -0.223425
10.3869 11.8153 0.132975
10.3729 11.8546 -0.420725
10.3689 11.7644 1.05578
10.9919 13.6281 1.20698
10.9539 13.626 2.29038
10.3159 11.7218 2.16368
11.5619 15.3622 1.42198
11.5709 15.4966 2.43278
11.3329 15.4451 4.42668
11.4889 15.5013 3.50668
10.7219 13.594 4.31238
10.8629 13.6051 3.38968
10.1009 11.7413 4.19788
10.2279 11.7074 3.27238
9.93593 11.8435 4.75608
10.5309 13.6211 4.86598
10.3209 13.6716 5.11608
9.75493 11.9841 5.01178
11.1179 15.3972 4.97558
10.8779 15.3577 5.22018
10.4559 15.3045 5.06298
10.6459 15.3267 5.22698
9.95293 13.7834 4.96908
10.1179 13.7307 5.12848
9.58293 12.1332 5.02978
9.35893 12.3378 4.61228
9.85393 13.8151 4.70358
9.79793 13.8202 4.38678
9.31493 12.3771 4.29498
10.3419 15.2912 4.79468
10.2669 15.2387 4.48208
10.1459 15.0107 3.94808
10.1929 15.0989 4.18538
9.73593 13.7757 3.81538
9.76093 13.7933 4.07378
9.27393 12.3988 3.71148
9.29193 12.3929 3.97688
9.24493 12.4086 3.55218
9.71593 13.8086 3.66238
9.59893 13.8869 3.58708
9.11593 12.4522 3.47258
10.1519 15.1127 3.81368
10.0729 15.2953 3.75158
9.28593 14.0055 3.56198
9.77293 15.4487 3.73088
8.79793 12.5592 3.44598
3.42893 14.3696 3.44598
2.77793 14.5083 4.87498
2.89093 14.5186 4.61228
2.94993 14.523 4.29498
3.43793 15.9645 4.38678
3.39093 15.9942 4.70358
3.29293 16.029 4.96908
2.98593 14.5188 3.71148
2.97493 14.5228 3.97688
3.45193 15.8946 3.81538
3.44793 15.9218 4.07378
3.87093 17.1261 3.94808
4.25593 18.2673 4.27078
3.89293 17.223 4.18538
4.32693 18.5434 4.55958
3.92093 17.3782 4.48208
4.31893 18.6874 4.87048
4.24893 18.8043 5.14108
3.81093 17.5449 5.06298
3.89393 17.4653 4.79468
2.13593 14.4732 4.75608
2.36293 14.4765 5.01178
2.93393 16.1621 5.11608
2.73793 16.2488 4.86598
2.57393 16.341 4.31238
2.58893 14.4913 5.02978
3.12993 16.0869 5.12848
4.13293 18.9991 5.30908
3.67293 17.6776 5.22708
3.99393 19.2386 5.30678
3.50793 17.8425 5.22018
3.85393 19.4894 5.06678
3.73793 19.7184 4.52178
3.20493 18.1858 4.42668
3.34193 18.0188 4.97558
1.83393 14.5373 3.27238
2.47593 16.4328 3.38968
2.42493 16.5017 2.29038
1.77993 14.5997 2.16368
3.66793 19.8923 3.60408
3.12193 18.3224 3.50668
3.59693 19.9019 2.54618
3.06193 18.3655 2.43278
3.47693 19.6379 1.58008
3.32993 19.2139 0.939875
2.96493 18.172 0.609375
2.99193 18.2515 1.42198
2.40493 16.5439 0.311675
2.39993 16.525 1.20698
1.78493 14.7155 0.132975
1.76893 14.6638 1.05578
0.68493 11.1062 4.76138
0.61793 11.0509 4.89308
0.68093 11.0412 4.96098
9.03493 8.28405 4.76138
8.97593 8.33285 4.85038
8.78993 8.41305 4.91358
8.36893 8.56125 4.93468
1.27793 11.253 -1.01092
0.86293 11.4112 -0.924325
1.28593 11.2794 -0.999625
0.92793 11.6032 -0.895025
1.34893 11.4671 -0.983225
0.68893 11.4329 -0.786225
0.69993 11.4552 -0.695925
0.76593 11.641 -0.630425
1.26793 13.1279 -0.520425
0.93793 12.1467 -0.581125
1.09893 12.1093 -0.858025
1.51893 11.9733 -0.950325
2.39393 14.5671 -0.789825
1.97393 14.7034 -0.697525
2.61793 16.6086 -0.489625
3.04293 16.4883 -0.578425
1.81193 14.7407 -0.420725
2.44193 16.5995 -0.223425
3.50193 19.6836 0.703375
3.02993 18.3187 0.130075
3.77293 19.9831 0.528275
3.25093 18.4673 -0.104525
3.68993 18.3936 -0.182725
4.22793 19.96 0.469975
4.71393 21.2518 2.58798
4.24993 21.2352 2.58738
4.32793 21.2488 3.69178
4.78593 21.2697 3.70178
4.38093 21.043 4.60738
4.82593 21.0641 4.61688
4.08493 20.8595 1.47928
4.54893 20.8638 1.45208
3.78493 20.479 1.56048
3.93493 20.8218 2.58558
4.07393 20.6326 4.57878
4.01293 20.8287 3.66258
4.46993 20.7605 5.14898
4.89693 20.7811 5.15808
4.57793 20.4453 5.38468
4.98193 20.4651 5.39338
4.17693 20.3666 5.12158
4.29993 20.0713 5.35878
4.52493 19.5556 5.18798
4.42293 19.7874 5.35828
4.77693 19.893 5.21148
4.68593 20.1414 5.38278
5.06893 20.1602 5.39108
5.14093 19.9109 5.21928
4.83093 19.7439 4.93868
5.18393 19.7616 4.94678
4.81893 19.5525 4.61188
5.16493 19.5663 4.61658
4.58693 19.4165 4.91598
4.58193 19.2399 4.59788
4.27493 18.2611 4.01858
4.48693 18.8956 4.28938
4.47493 18.4779 3.97798
4.70993 19.1771 4.27818
5.05093 19.181 4.27448
4.80793 18.4603 3.96448
3.91693 15.8159 3.56198
3.60693 15.9072 3.58708
3.12293 14.4727 3.47258
2.46693 12.5251 3.35208
2.77193 12.4223 3.32558
4.08193 17.3151 3.75158
4.40293 17.259 3.73088
3.91993 17.2138 3.81368
3.47793 15.9116 3.66238
2.35093 12.5722 3.43218
3.00593 14.5123 3.55218
2.64393 12.0428 3.32858
2.33893 12.1457 3.35448
2.29293 12.0067 3.42328
2.59493 11.904 3.39968
2.28793 11.9911 3.57678
2.59193 11.8872 3.55798
2.22193 12.1855 3.43188
2.17793 12.0474 3.49418
2.21693 11.7717 4.71258
5.19393 10.7672 4.71248
2.50293 11.8094 4.45448
3.63293 11.4979 4.13978
2.56593 11.8574 4.13978
2.25993 11.9625 4.14248
2.19193 11.9163 4.45458
4.45693 11.2477 3.82278
2.58893 11.8777 3.82278
2.28393 11.9819 3.83318
1.91893 11.3757 4.92488
1.56193 11.497 4.91968
1.28693 11.3139 4.91828
1.66893 11.1885 4.93928
1.05793 11.1595 4.90098
1.46093 11.0306 4.93258
2.16993 11.5619 4.85928
1.83293 11.6774 4.85938
0.87393 11.2011 4.80608
1.12093 11.359 4.85518
0.92593 11.0651 4.91358
1.33593 10.9324 4.93468
0.86293 10.9988 4.96708
1.27093 10.8635 4.97238
0.74693 11.1097 4.85038
4.95593 10.0129 -1.00902
4.96393 10.039 -0.998925
6.59493 9.69825 -0.982925
5.19793 10.7331 -0.950325
7.50393 14.9844 -0.578425
6.33093 19.2508 0.469975
8.14393 16.8919 -0.182725
9.73693 19.4084 4.61688
9.84093 19.5654 3.70158
9.85893 19.5171 2.58798
8.32093 20.0355 2.58798
7.57593 20.3289 3.70158
6.80393 20.3971 4.61688
9.74393 19.1123 1.45218
8.19093 19.6357 1.45218
6.64193 20.1583 1.45218
6.78693 20.553 2.58798
8.89193 19.434 5.15808
8.76893 19.1882 5.39338
7.65693 19.0626 5.21928
8.65193 18.9523 5.39108
7.91593 18.8404 4.94628
7.56993 18.7558 4.61658
7.48493 17.5577 3.96448
7.15793 18.4707 4.27448
5.27293 11.001 3.39968
5.82893 10.7573 4.13978
5.23493 10.8885 4.45448
9.10493 8.27115 4.15138
9.07993 8.59535 -0.990725
0.85193 11.3708 -0.998925
3 0 1 2
3 0 2 3
3 2 4 5
3 2 5 3
3 5 6 7
3 5 7 3
3 7 8 0
3 7 0 3
3 9 10 11
3 9 11 12
3 11 13 14
3 11 14 12
3 14 6 5
3 14 5 12
3 5 4 9
3 5 9 12
3 15 16 17
3 18 6 14
3 18 14 17
3 14 13 15
3 14 15 17
3 19 8 7
3 19 7 20
3 7 6 18
3 7 18 20
3 21 22 23
3 21 23 24
3 23 25 26
3 23 26 24
3 26 25 27
3 28 29 30
3 28 30 31
3 30 32 33
3 30 33 31
3 33 34 28
3 33 28 31
3 35 32 30
3 35 30 36
3 30 29 37
3 30 37 36
3 38 32 35
3 38 35 39
3 40 41 42
3 42 34 33
3 42 33 40
3 33 32 38
3 33 38 40
3 43 44 45
3 43 45 46
3 45 47 48
3 45 48 46
3 49 50 51
3 49 51 52
3 51 53 54
3 51 54 52
3 54 47 45
3 54 45 52
3 45 44 49
3 45 49 52
3 55 56 57
3 55 57 58
3 57 59 60
3 57 60 58
3 60 47 54
3 60 54 58
3 54 53 55
3 54 55 58
3 61 62 63
3 61 63 64
3 63 48 64
3 48 47 60
3 48 60 64
3 60 59 61
3 60 61 64
3 65 66 67
3 65 67 68
3 67 69 68
3 70 66 65
3 70 65 71
3 72 50 49
3 72 49 73
3 49 44 74
3 49 74 73
3 74 66 70
3 74 70 73
3 70 72 73
3 43 75 76
3 75 67 76
3 67 66 74
3 67 74 76
3 74 44 43
3 74 43 76
3 23 22 77
3 23 77 78
3 77 79 80
3 77 80 78
3 80 81 82
3 80 82 78
3 82 25 23
3 82 23 78
3 83 84 85
3 83 85 86
3 85 87 88
3 85 88 86
3 88 81 80
3 88 80 86
3 80 79 83
3 80 83 86
3 89 90 91
3 89 91 92
3 91 93 94
3 91 94 92
3 94 81 88
3 94 88 92
3 88 87 89
3 88 89 92
3 95 27 96
3 27 25 82
3 27 82 96
3 82 81 94
3 82 94 96
3 94 93 95
3 94 95 96
3 97 62 98
3 97 98 99
3 98 100 99
3 100 101 102
3 100 102 99
3 102 103 97
3 102 97 99
3 104 105 106
3 105 101 100
3 105 100 106
3 107 101 105
3 107 105 108
3 105 104 109
3 105 109 108
3 110 103 102
3 110 102 111
3 102 101 107
3 102 107 111
3 57 56 112
3 57 112 113
3 112 114 113
3 114 115 116
3 114 116 113
3 116 59 57
3 116 57 113
3 117 118 119
3 119 120 121
3 119 121 117
3 121 115 114
3 121 114 117
3 122 104 106
3 106 100 123
3 123 115 121
3 123 121 106
3 121 120 122
3 121 122 106
3 98 62 61
3 98 61 124
3 61 59 116
3 61 116 124
3 116 115 123
3 116 123 124
3 123 100 98
3 123 98 124
3 125 126 127
3 125 127 128
3 127 8 19
3 127 19 128
3 129 130 131
3 129 131 132
3 131 126 125
3 131 125 132
3 133 134 135
3 133 135 136
3 135 137 138
3 135 138 136
3 138 126 131
3 138 131 136
3 131 130 133
3 131 133 136
3 139 1 0
3 139 0 140
3 0 8 127
3 0 127 140
3 127 126 138
3 127 138 140
3 138 137 139
3 138 139 140
3 77 22 141
3 77 141 142
3 141 143 144
3 141 144 142
3 144 145 146
3 144 146 142
3 146 79 77
3 146 77 142
3 147 148 149
3 148 145 144
3 148 144 149
3 144 143 149
3 150 151 152
3 150 152 148
3 152 153 148
3 153 145 148
3 148 147 150
3 154 84 83
3 154 83 155
3 83 79 146
3 83 146 155
3 146 145 153
3 146 153 155
3 153 154 155
3 156 157 158
3 156 158 159
3 158 104 159
3 160 28 161
3 28 34 161
3 161 157 156
3 156 160 161
3 42 41 162
3 163 157 161
3 163 161 162
3 161 34 42
3 161 42 162
3 109 104 158
3 109 158 164
3 158 157 163
3 158 163 164
3 119 118 165
3 119 165 166
3 165 167 168
3 165 168 166
3 168 169 170
3 168 170 166
3 170 120 119
3 170 119 166
3 171 37 172
3 37 29 173
3 37 173 172
3 173 169 168
3 173 168 172
3 168 167 171
3 168 171 172
3 160 169 173
3 173 29 28
3 173 28 160
3 159 104 122
3 159 122 174
3 122 120 170
3 122 170 174
3 170 169 160
3 170 160 174
3 160 156 159
3 160 159 174
3 175 176 177
3 175 177 178
3 177 130 129
3 177 129 178
3 179 180 181
3 179 181 182
3 181 176 175
3 181 175 182
3 183 184 185
3 183 185 186
3 185 187 188
3 185 188 186
3 188 176 181
3 188 181 186
3 181 180 183
3 181 183 186
3 189 134 133
3 189 133 190
3 133 130 177
3 133 177 190
3 177 176 188
3 177 188 190
3 188 187 189
3 188 189 190
3 191 192 193
3 193 194 195
3 193 195 191
3 195 147 191
3 196 197 198
3 196 198 199
3 198 194 193
3 198 193 199
3 193 192 199
3 200 201 202
3 201 203 202
3 203 194 198
3 203 198 202
3 198 197 200
3 198 200 202
3 204 151 150
3 204 150 205
3 150 147 195
3 150 195 205
3 195 194 203
3 195 203 205
3 203 204 205
3 71 206 207
3 208 209 210
3 208 210 207
3 210 70 71
3 210 71 207
3 211 16 15
3 15 13 212
3 15 212 211
3 212 209 208
3 212 208 211
3 11 10 213
3 11 213 214
3 213 215 216
3 213 216 214
3 216 209 212
3 216 212 214
3 212 13 11
3 212 11 214
3 217 50 72
3 217 72 218
3 72 70 210
3 72 210 218
3 210 209 216
3 210 216 218
3 216 215 217
3 216 217 218
3 51 50 217
3 51 217 219
3 217 215 220
3 217 220 219
3 220 221 222
3 220 222 219
3 222 53 51
3 222 51 219
3 213 10 9
3 213 9 223
3 9 4 224
3 9 224 223
3 224 221 220
3 224 220 223
3 220 215 213
3 220 213 223
3 2 1 225
3 2 225 226
3 225 227 228
3 225 228 226
3 228 221 224
3 228 224 226
3 224 4 2
3 224 2 226
3 229 56 55
3 229 55 230
3 55 53 222
3 55 222 230
3 222 221 228
3 222 228 230
3 228 227 229
3 228 229 230
3 112 56 229
3 112 229 231
3 229 227 232
3 229 232 231
3 232 233 234
3 232 234 231
3 234 114 112
3 234 112 231
3 225 1 139
3 225 139 235
3 139 137 236
3 139 236 235
3 236 233 232
3 236 232 235
3 232 227 225
3 232 225 235
3 135 134 237
3 135 237 238
3 237 239 240
3 237 240 238
3 240 233 236
3 240 236 238
3 236 137 135
3 236 135 238
3 118 117 241
3 117 114 234
3 117 234 241
3 234 233 240
3 234 240 241
3 240 239 118
3 240 118 241
3 165 118 242
3 118 239 243
3 118 243 242
3 243 244 245
3 243 245 242
3 245 167 165
3 245 165 242
3 237 134 189
3 237 189 246
3 189 187 247
3 189 247 246
3 247 244 243
3 247 243 246
3 243 239 237
3 243 237 246
3 185 184 248
3 185 248 249
3 248 250 251
3 248 251 249
3 251 244 247
3 251 247 249
3 247 187 185
3 247 185 249
3 252 37 171
3 252 171 253
3 171 167 245
3 171 245 253
3 245 244 251
3 245 251 253
3 251 250 252
3 251 252 253
3 36 37 252
3 36 252 254
3 252 250 255
3 252 255 254
3 255 256 257
3 255 257 254
3 257 35 36
3 257 36 254
3 248 184 183
3 248 183 258
3 183 180 259
3 183 259 258
3 259 256 255
3 259 255 258
3 255 250 248
3 255 248 258
3 260 256 259
3 260 259 261
3 259 180 179
3 259 179 261
3 262 263 39
3 39 35 257
3 39 257 262
3 257 256 260
3 257 260 262
3 264 151 204
3 264 204 265
3 204 203 266
3 204 266 265
3 266 267 268
3 266 268 265
3 268 269 264
3 268 264 265
3 201 200 270
3 201 270 271
3 270 272 273
3 270 273 271
3 273 267 266
3 273 266 271
3 266 203 201
3 266 201 271
3 274 275 276
3 275 277 278
3 275 278 276
3 278 267 273
3 278 273 276
3 273 272 274
3 273 274 276
3 279 280 281
3 279 281 282
3 281 269 268
3 281 268 282
3 268 267 278
3 268 278 282
3 278 277 279
3 278 279 282
3 84 154 283
3 154 153 284
3 154 284 283
3 284 285 286
3 284 286 283
3 286 287 84
3 286 84 283
3 152 151 264
3 152 264 288
3 264 269 289
3 264 289 288
3 289 285 284
3 289 284 288
3 284 153 152
3 284 152 288
3 281 280 290
3 281 290 291
3 290 292 293
3 290 293 291
3 293 285 289
3 293 289 291
3 289 269 281
3 289 281 291
3 294 295 296
3 294 296 297
3 296 287 286
3 296 286 297
3 286 285 293
3 286 293 297
3 293 292 294
3 293 294 297
3 85 84 298
3 84 287 299
3 84 299 298
3 299 300 301
3 299 301 298
3 301 87 85
3 301 85 298
3 296 295 302
3 296 302 303
3 302 304 305
3 302 305 303
3 305 300 299
3 305 299 303
3 299 287 296
3 299 296 303
3 306 307 308
3 306 308 309
3 308 310 311
3 308 311 309
3 311 300 305
3 311 305 309
3 305 304 306
3 305 306 309
3 312 90 89
3 312 89 313
3 89 87 301
3 89 301 313
3 301 300 311
3 301 311 313
3 311 310 312
3 311 312 313
3 314 22 21
3 315 316 314
3 317 62 97
3 317 97 318
3 97 103 319
3 97 319 318
3 319 103 110
3 319 110 320
3 321 322 323
3 322 324 325
3 322 325 323
3 326 95 327
3 95 93 328
3 95 328 327
3 328 324 322
3 328 322 327
3 322 326 327
3 91 90 329
3 91 329 330
3 329 331 330
3 331 324 328
3 331 328 330
3 328 93 91
3 328 91 330
3 325 324 331
3 325 331 332
3 331 333 332
3 333 331 334
3 334 335 336
3 334 336 333
3 329 90 312
3 329 312 337
3 312 310 338
3 312 338 337
3 338 335 334
3 338 334 337
3 334 331 329
3 334 329 337
3 308 307 339
3 308 339 340
3 339 341 342
3 339 342 340
3 342 335 338
3 342 338 340
3 338 310 308
3 338 308 340
3 336 335 342
3 336 342 343
3 342 341 344
3 342 344 343
3 345 346 347
3 345 347 348
3 347 349 350
3 347 350 348
3 344 341 351
3 344 351 352
3 351 346 345
3 351 345 352
3 339 307 306
3 339 306 353
3 306 304 354
3 306 354 353
3 354 346 351
3 354 351 353
3 351 341 339
3 351 339 353
3 302 295 355
3 302 355 356
3 355 349 347
3 355 347 356
3 347 346 354
3 347 354 356
3 354 304 302
3 354 302 356
3 350 349 357
3 350 357 358
3 357 359 360
3 357 360 358
3 355 295 294
3 355 294 361
3 294 292 362
3 294 362 361
3 362 359 357
3 362 357 361
3 357 349 355
3 357 355 361
3 290 280 363
3 290 363 364
3 363 365 366
3 363 366 364
3 366 359 362
3 366 362 364
3 362 292 290
3 362 290 364
3 360 359 366
3 360 366 367
3 366 365 368
3 366 368 367
3 368 365 369
3 368 369 370
3 369 371 372
3 369 372 370
3 363 280 279
3 363 279 373
3 279 277 374
3 279 374 373
3 374 371 369
3 374 369 373
3 369 365 363
3 369 363 373
3 275 375 376
3 375 377 378
3 375 378 376
3 378 371 374
3 378 374 376
3 374 277 275
3 374 275 376
3 372 371 378
3 372 378 379
3 378 377 380
3 378 380 379
3 263 260 381
3 381 382 383
3 381 383 263
3 383 384 385
3 383 385 263
3 380 377 386
3 380 386 387
3 386 382 381
3 386 381 387
3 381 260 387
3 375 275 274
3 375 274 388
3 274 272 389
3 274 389 388
3 389 382 386
3 389 386 388
3 386 377 375
3 386 375 388
3 270 200 390
3 270 390 391
3 390 384 383
3 390 383 391
3 383 382 389
3 383 389 391
3 389 272 270
3 389 270 391
3 392 393 394
3 392 394 395
3 394 396 397
3 394 397 395
3 384 393 392
3 384 392 385
3 200 197 398
3 200 398 390
3 398 393 384
3 398 384 390
3 196 396 394
3 196 394 399
3 394 393 398
3 394 398 399
3 398 197 196
3 398 196 399
3 400 401 402
3 402 403 404
3 404 405 406
3 404 406 402
3 406 400 402
3 407 397 408
3 397 396 409
3 397 409 408
3 409 405 404
3 409 404 408
3 404 403 407
3 404 407 408
3 196 199 409
3 199 192 409
3 192 405 409
3 409 396 196
3 147 400 406
3 147 406 191
3 406 405 192
3 406 192 191
3 410 411 412
3 410 412 413
3 412 414 415
3 412 415 413
3 416 401 400
3 400 417 416
3 417 411 410
3 417 410 416
3 143 411 417
3 143 417 149
3 417 400 147
3 417 147 149
3 141 22 418
3 141 418 419
3 418 414 412
3 418 412 419
3 412 411 143
3 412 143 419
3 143 141 419
3 415 414 420
3 415 420 421
3 420 422 423
3 420 423 421
3 418 22 314
3 418 314 424
3 314 316 424
3 316 422 420
3 316 420 424
3 420 414 418
3 420 418 424
3 68 69 425
3 425 426 68
3 426 427 68
3 427 65 68
3 425 321 323
3 425 323 426
3 323 325 426
3 325 427 426
3 332 333 206
3 332 206 428
3 428 427 325
3 325 332 428
3 71 65 427
3 427 428 71
3 428 206 71
3 429 208 207
3 429 207 206
3 333 336 206
3 336 429 206
3 343 344 430
3 343 430 431
3 431 429 336
3 336 343 431
3 16 211 431
3 211 208 429
3 211 429 431
3 431 430 16
3 432 19 20
3 432 20 433
3 20 18 434
3 20 434 433
3 434 435 436
3 434 436 433
3 436 437 432
3 436 432 433
3 17 16 438
3 16 430 439
3 16 439 438
3 439 435 434
3 439 434 438
3 434 18 17
3 434 17 438
3 430 344 352
3 430 352 440
3 352 345 441
3 352 441 440
3 441 435 439
3 441 439 440
3 439 430 440
3 348 350 437
3 348 437 436
3 436 435 441
3 441 345 348
3 441 348 436
3 128 19 432
3 128 432 442
3 432 437 442
3 443 125 128
3 443 128 442
3 437 350 358
3 358 360 443
3 443 442 358
3 442 437 358
3 367 368 444
3 444 445 367
3 445 443 367
3 443 360 367
3 444 129 132
3 444 132 445
3 132 125 443
3 132 443 445
3 178 129 444
3 178 444 446
3 447 175 178
3 447 178 446
3 444 368 370
3 444 370 446
3 370 372 447
3 370 447 446
3 379 380 448
3 379 448 449
3 447 372 379
3 447 379 449
3 448 179 182
3 182 175 447
3 447 449 182
3 449 448 182
3 260 263 262
3 261 179 448
3 448 380 387
3 260 261 387
3 261 448 387
3 41 40 450
3 40 38 450
3 263 385 39
3 385 38 39
3 392 38 385
3 395 397 41
3 41 450 395
3 450 38 392
3 450 392 395
3 401 109 164
3 164 163 451
3 451 452 164
3 452 401 164
3 41 407 162
3 407 451 162
3 451 163 162
3 41 397 407
3 403 451 407
3 402 401 452
3 452 451 403
3 403 402 452
3 415 110 111
3 108 109 401
3 416 410 107
3 107 108 416
3 108 401 416
3 415 111 413
3 111 107 413
3 107 410 413
3 320 110 415
3 415 421 320
3 421 423 320
3 453 62 317
3 63 62 453
3 69 67 454
3 454 67 75
3 326 322 455
3 455 322 321
