OFF
344 674 0
-1.70367 3.89342 -18.0187
-1.80767 3.71532 -17.8301
-1.98767 3.67802 -18.0175
-1.92467 3.93282 -18.3629
-2.22767 3.69662 -18.1045
-2.17967 3.97482 -18.4729
-2.11267 4.29802 -18.5904
-1.84367 4.22922 -18.4743
-1.61267 4.16312 -18.1071
-2.44467 3.78972 -18.001
-2.57767 3.90352 -17.8022
-2.60967 4.11482 -17.9859
-2.41767 4.05352 -18.3451
-2.58567 4.40092 -18.0719
-2.37467 4.35882 -18.4551
-2.48867 4.66472 -17.9718
-2.37367 4.83062 -17.7784
-2.20467 4.88002 -17.973
-2.28767 4.64762 -18.3299
-1.96967 4.86752 -18.0745
-2.03967 4.61322 -18.4565
-1.74767 4.76842 -17.9895
-1.60367 4.64232 -17.8063
-1.58267 4.44332 -18.0045
-1.79367 4.52702 -18.3477
-11.8792 0.550416 1.94568
-11.36 0.472116 0.411176
-11.661 0.753716 1.91548
-11.0427 0.920016 0.416276
-11.5403 1.02302 1.93868
-11.5947 1.57042 1.96948
-11.5091 1.31232 1.95568
-11.0146 1.19202 0.424376
-12.4595 0.466916 1.95748
-12.7389 0.563016 1.97008
-12.1709 0.488516 0.434676
-12.9369 0.753416 1.98148
-12.1532 0.457716 1.93348
-9.61467 0.354116 -2.34222
-9.78097 0.191816 -2.34262
-8.90107 0.0189158 -3.03512
-8.75217 0.164216 -3.03472
-7.89127 -0.100984 -3.71642
-7.76107 0.0261158 -3.71602
-7.68267 0.193616 -3.71292
-8.66257 0.355716 -3.03112
-9.51467 0.567816 -2.33822
-6.81447 -0.0699842 -4.56852
-5.73307 0.209516 -5.77332
-5.63477 0.305516 -5.77302
-6.70187 0.0399158 -4.56812
-5.57557 0.431916 -5.77062
-6.63407 0.184716 -4.56552
-5.56157 0.567016 -5.76672
-5.59897 0.688916 -5.76182
-6.66087 0.479016 -4.55532
-6.61807 0.339316 -4.56102
-7.71367 0.534016 -3.70122
-7.66417 0.372516 -3.70772
-8.69797 0.744816 -3.01772
-9.55417 1.00232 -2.32322
-9.49107 0.796216 -2.33162
-8.64137 0.560216 -3.02522
-10.4618 0.205516 -2.32292
-10.6221 0.352616 -2.31372
-9.65437 0.162916 -3.00922
-9.51087 0.0312158 -3.01752
-8.55027 0.0250158 -3.69372
-8.42467 -0.0901842 -3.70092
-8.25307 -0.153484 -3.70782
-9.31467 -0.0410842 -3.02532
-10.2428 0.124816 -2.33172
-7.38417 0.0389158 -4.54882
-6.23057 0.304616 -5.75612
-6.13577 0.217616 -5.76162
-7.27557 -0.0607842 -4.55512
-6.00617 0.169916 -5.76682
-7.12717 -0.115384 -4.56102
-5.86447 0.165716 -5.77092
-6.96487 -0.120084 -4.56582
-8.06527 -0.158984 -3.71332
-10.0031 0.117816 -2.33872
-9.09997 -0.0473842 -3.03162
-10.5615 1.00082 -2.29472
-10.3953 1.16312 -2.29422
-9.45127 0.888816 -2.99182
-9.60017 0.743516 -2.99222
-8.37257 0.659916 -3.67852
-8.50277 0.532816 -3.67892
-8.58117 0.365316 -3.68202
-9.68977 0.552016 -2.99582
-10.6616 0.787116 -2.29872
-7.23057 0.587916 -4.53572
-6.09647 0.784016 -5.74462
-6.19477 0.688016 -5.74492
-7.34317 0.477916 -4.53602
-6.25397 0.561616 -5.74732
-7.41087 0.333216 -4.53872
-6.26797 0.426516 -5.75122
-7.42687 0.178516 -4.54322
-8.59967 0.186416 -3.68722
-10.6852 0.558716 -2.30532
-9.71097 0.347516 -3.00172
-9.71447 1.14942 -2.31402
-8.84147 0.876516 -3.00952
-7.83917 0.649216 -3.69392
-8.01087 0.712416 -3.68712
-9.03767 0.948816 -3.00162
-9.93347 1.23012 -2.30522
-5.69377 0.775916 -5.75632
-6.76937 0.578616 -4.54902
-5.82327 0.823616 -5.75112
-6.91777 0.633216 -4.54312
-5.96507 0.827816 -5.74702
-7.08007 0.638016 -4.53842
-8.19857 0.717916 -3.68162
-10.1732 1.23712 -2.29822
-9.25237 0.955116 -2.99532
-4.70997 0.835316 -7.51282
-4.62017 0.922916 -7.51252
-3.78567 1.64132 -9.49492
-3.69767 1.72742 -9.49462
-3.64567 1.84082 -9.49252
-4.56607 1.03842 -7.51042
-2.99967 2.46152 -11.4273
-2.39367 3.12982 -13.018
-2.29067 3.23802 -13.0174
-2.90867 2.55412 -11.427
-2.22867 3.38082 -13.0146
-2.85267 2.67602 -11.4246
-2.21467 3.53342 -13.0102
-2.25367 3.67122 -13.0046
-2.87467 2.92402 -11.4161
-2.84067 2.80632 -11.4208
-3.66667 2.07132 -9.48452
-3.63267 1.96202 -9.48902
-4.58747 1.27302 -7.50232
-4.55337 1.16172 -7.50682
-5.16417 0.922116 -7.49722
-5.07757 0.842716 -7.50212
-4.22767 1.72672 -9.47962
-4.14367 1.64872 -9.48452
-4.02767 1.60582 -9.48912
-4.95927 0.799116 -7.50692
-3.46367 2.55362 -11.4112
-2.91467 3.23812 -12.9997
-2.81567 3.13962 -13.0057
-3.37567 2.46962 -11.4164
-2.67967 3.08552 -13.0113
-3.25467 2.42352 -11.4213
-2.53167 3.08062 -13.0156
-3.12267 2.41942 -11.4252
-3.90167 1.60212 -9.49282
-4.82987 0.795316 -7.51072
-5.04167 1.35982 -7.48672
-5.13147 1.27222 -7.48692
-4.10867 2.15672 -9.46932
-4.19567 2.07062 -9.46962
-4.24867 1.95722 -9.47172
-5.18547 1.15682 -7.48912
-3.33867 3.01612 -11.4
-2.77567 3.77952 -12.9864
-2.87767 3.67122 -12.987
-3.43067 2.92362 -11.4004
-2.93967 3.52852 -12.9898
-3.48567 2.80162 -11.4027
-2.95467 3.37592 -12.9942
-3.49867 2.67132 -11.4065
-4.26067 1.83612 -9.47522
-5.19827 1.03342 -7.49262
-4.67397 1.35242 -7.49732
-3.75067 2.14942 -9.47972
-3.86567 2.19222 -9.47502
-4.79227 1.39602 -7.49262
-2.35367 3.76962 -12.9987
-2.96367 3.00802 -11.4109
-2.48967 3.82382 -12.9931
-3.08467 3.05422 -11.406
-2.63767 3.82872 -12.9887
-3.21667 3.05832 -11.4021
-3.99167 2.19592 -9.47132
-4.92177 1.39982 -7.48882
-2.00767 3.48002 -13.9746
-1.88567 3.61452 -13.9738
-1.79067 3.60182 -14.5219
-1.64667 3.76772 -14.5207
-1.56067 3.98662 -14.5162
-1.81267 3.79182 -13.9702
-1.69567 3.58462 -14.8846
-1.67167 3.51812 -15.2874
-1.48567 3.74172 -15.2855
-1.52867 3.78202 -14.8831
-1.37467 4.03682 -15.2793
-1.42867 4.04252 -14.8776
-1.34967 4.35262 -15.2699
-1.42167 4.63812 -15.2587
-1.47067 4.57312 -14.8595
-1.40667 4.32122 -14.8693
-1.59667 4.43252 -14.501
-1.54067 4.22082 -14.5093
-1.84267 4.15292 -13.9578
-1.79567 3.98152 -13.9646
-2.62467 3.61532 -13.9528
-2.50667 3.49282 -13.96
-2.52367 3.76952 -14.4958
-2.38367 3.61812 -14.5046
-2.19267 3.53462 -14.5127
-2.34567 3.42532 -13.9667
-2.54367 3.78472 -14.8542
-2.61567 3.74522 -15.2534
-2.43467 3.54092 -15.265
-2.38167 3.60442 -14.8646
-2.18867 3.42802 -15.2756
-2.16067 3.50492 -14.874
-1.91967 3.41702 -15.2836
-1.91867 3.49532 -14.8812
-1.98367 3.52662 -14.5189
-2.16967 3.41902 -13.9719
-2.45967 4.28822 -13.936
-2.58167 4.15372 -13.9368
-2.32867 4.60022 -14.4748
-2.47267 4.43432 -14.476
-2.55967 4.21532 -14.4806
-2.65467 3.97642 -13.9404
-2.31867 4.77322 -14.8291
-2.36567 4.86522 -15.2248
-2.54567 4.64552 -15.2073
-2.66167 4.34652 -15.2329
-2.58567 4.31542 -14.8361
-2.68767 4.03072 -15.2423
-2.60767 4.03672 -14.8444
-2.57967 3.98112 -14.4875
-2.67167 3.78672 -13.946
-1.96067 4.27542 -13.9506
-1.73567 4.58392 -14.4922
-1.92667 4.66742 -14.4841
-2.12167 4.34292 -13.9438
-1.60167 4.84242 -15.2471
-1.63267 4.75342 -14.8491
-1.84767 4.95532 -15.2365
-1.85367 4.85292 -14.8397
-2.11667 4.96632 -15.2286
-2.09567 4.86252 -14.8325
-2.13567 4.67532 -14.4779
-2.29667 4.34922 -13.9387
-1.66867 3.49182 -15.9549
-1.47167 3.73102 -15.9528
-1.69167 3.51642 -16.7145
-1.49667 3.75602 -16.7253
-1.37967 4.07192 -16.7315
-1.35467 4.04702 -15.9461
-1.74467 3.60302 -17.3935
-1.56667 3.82222 -17.4434
-1.46167 4.11072 -17.489
-1.50567 4.69332 -17.3655
-1.43667 4.41642 -17.4281
-1.42867 4.71452 -16.6837
-1.35267 4.40932 -16.7086
-1.40367 4.69072 -15.9242
-1.32767 4.38502 -15.9361
-2.67067 3.73512 -15.9188
-2.47867 3.51632 -15.9312
-2.68867 3.75972 -16.6785
-2.49867 3.54112 -16.7038
-2.23967 3.42052 -16.728
-2.21767 3.39542 -15.9424
-2.65067 3.82442 -17.3607
-2.47967 3.62562 -17.4238
-2.24467 3.51632 -17.4858
-1.98567 3.50492 -17.4416
-1.95467 3.40842 -16.7234
-1.93267 3.38362 -15.9509
-2.40567 4.93402 -15.888
-2.60267 4.69472 -15.8901
-2.42567 4.95782 -16.6477
-2.62167 4.71912 -16.6627
-2.73967 4.40392 -16.6824
-2.72067 4.37882 -15.8968
-2.41167 4.91472 -17.3328
-2.59167 4.69882 -17.3864
-2.70067 4.41362 -17.4442
-2.72267 4.10462 -17.4016
-2.76567 4.06572 -16.6795
-2.74667 4.04082 -15.9068
-1.59567 4.90952 -15.9118
-1.61967 4.93402 -16.6843
-1.87967 5.05542 -16.686
-1.85667 5.03032 -15.9005
-1.67967 4.89552 -17.4059
-1.91767 5.00802 -17.4475
-2.17367 5.01612 -17.3881
-2.16367 5.06662 -16.6646
-2.14167 5.04222 -15.892
-12.8545 1.56682 1.98878
-12.6473 1.77132 1.99328
-12.0917 1.62912 0.468876
-12.2897 1.43582 0.468276
-11.6904 1.52352 -0.443424
-11.8808 1.33762 -0.443924
-11.9954 1.09282 -0.448524
-12.4089 1.18122 0.463576
-12.9866 1.29972 1.99998
-11.1333 1.37142 -1.40462
-11.3132 1.19572 -1.40512
-11.4216 0.964416 -1.40942
-11.3788 0.494116 -1.42562
-11.4471 0.717216 -1.41662
-11.9501 0.595216 -0.465624
-12.0225 0.831316 -0.456124
-12.3618 0.663616 0.445676
-13.0099 1.01152 1.97558
-12.437 0.909216 0.455676
-11.7666 0.426716 -0.476224
-11.5157 0.334316 -0.486324
-11.91 0.392416 0.424276
-11.2053 0.334916 -1.43562
-10.9682 0.247616 -1.44512
-10.4684 0.320116 -1.45702
-10.7087 0.240016 -1.45272
-10.9868 0.411016 -0.498824
-11.2412 0.326316 -0.494324
-11.6245 0.384016 0.415876
-11.162 0.665416 0.411776
-10.7964 0.596916 -0.498324
-10.6818 0.841716 -0.493724
-10.2884 0.495716 -1.45652
-10.1801 0.727116 -1.45222
-10.2229 1.19742 -1.43602
-10.1546 0.974316 -1.44502
-10.7271 1.33932 -0.476624
-10.6548 1.10322 -0.486124
-11.0899 1.43762 0.434376
-11.7861 1.75222 1.95058
-11.2807 1.61272 0.445376
-10.9106 1.50782 -0.466024
-11.1615 1.60022 -0.455924
-11.5417 1.70882 0.455776
-12.0711 1.85662 1.99178
-10.3964 1.35662 -1.42602
-10.6335 1.44392 -1.41652
-10.8929 1.45152 -1.40892
-11.4361 1.60822 -0.447924
-12.3668 1.86362 1.98438
-11.8272 1.71722 0.464176
3 0 1 2
3 0 2 3
3 2 4 5
3 2 5 3
3 5 6 7
3 5 7 3
3 7 8 0
3 7 0 3
3 9 10 11
3 9 11 12
3 11 13 14
3 11 14 12
3 14 6 5
3 14 5 12
3 5 4 9
3 5 9 12
3 15 16 17
3 15 17 18
3 17 19 20
3 17 20 18
3 20 6 14
3 20 14 18
3 14 13 15
3 14 15 18
3 21 22 23
3 21 23 24
3 23 8 7
3 23 7 24
3 7 6 20
3 7 20 24
3 20 19 21
3 20 21 24
3 25 26 27
3 27 28 29
3 30 31 32
3 31 29 32
3 29 28 32
3 33 34 35
3 34 36 35
3 37 26 25
3 38 39 40
3 38 40 41
3 40 42 43
3 40 43 41
3 43 44 45
3 43 45 41
3 45 46 38
3 45 38 41
3 47 48 49
3 47 49 50
3 49 51 52
3 49 52 50
3 52 44 43
3 52 43 50
3 43 42 47
3 43 47 50
3 53 54 55
3 53 55 56
3 55 57 58
3 55 58 56
3 58 44 52
3 58 52 56
3 52 51 53
3 52 53 56
3 59 60 61
3 59 61 62
3 61 46 45
3 61 45 62
3 45 44 58
3 45 58 62
3 58 57 59
3 58 59 62
3 63 64 65
3 63 65 66
3 65 67 68
3 65 68 66
3 68 69 70
3 68 70 66
3 70 71 63
3 70 63 66
3 72 73 74
3 72 74 75
3 74 76 77
3 74 77 75
3 77 69 68
3 77 68 75
3 68 67 72
3 68 72 75
3 78 48 47
3 78 47 79
3 47 42 80
3 47 80 79
3 80 69 77
3 80 77 79
3 77 76 78
3 77 78 79
3 40 39 81
3 40 81 82
3 81 71 70
3 81 70 82
3 70 69 80
3 70 80 82
3 80 42 40
3 80 40 82
3 83 84 85
3 83 85 86
3 85 87 88
3 85 88 86
3 88 89 90
3 88 90 86
3 90 91 83
3 90 83 86
3 92 93 94
3 92 94 95
3 94 96 97
3 94 97 95
3 97 89 88
3 97 88 95
3 88 87 92
3 88 92 95
3 98 73 72
3 98 72 99
3 72 67 100
3 72 100 99
3 100 89 97
3 100 97 99
3 97 96 98
3 97 98 99
3 65 64 101
3 65 101 102
3 101 91 90
3 101 90 102
3 90 89 100
3 90 100 102
3 100 67 65
3 100 65 102
3 103 60 59
3 103 59 104
3 59 57 105
3 59 105 104
3 105 106 107
3 105 107 104
3 107 108 103
3 107 103 104
3 55 54 109
3 55 109 110
3 109 111 112
3 109 112 110
3 112 106 105
3 112 105 110
3 105 57 55
3 105 55 110
3 113 93 92
3 113 92 114
3 92 87 115
3 92 115 114
3 115 106 112
3 115 112 114
3 112 111 113
3 112 113 114
3 85 84 116
3 85 116 117
3 116 108 107
3 116 107 117
3 107 106 115
3 107 115 117
3 115 87 85
3 115 85 117
3 49 48 118
3 49 118 119
3 118 120 121
3 118 121 119
3 121 122 123
3 121 123 119
3 123 51 49
3 123 49 119
3 124 125 126
3 124 126 127
3 126 128 129
3 126 129 127
3 129 122 121
3 129 121 127
3 121 120 124
3 121 124 127
3 130 131 132
3 130 132 133
3 132 134 135
3 132 135 133
3 135 122 129
3 135 129 133
3 129 128 130
3 129 130 133
3 136 54 53
3 136 53 137
3 53 51 123
3 53 123 137
3 123 122 135
3 123 135 137
3 135 134 136
3 135 136 137
3 74 73 138
3 74 138 139
3 138 140 141
3 138 141 139
3 141 142 143
3 141 143 139
3 143 76 74
3 143 74 139
3 144 145 146
3 144 146 147
3 146 148 149
3 146 149 147
3 149 142 141
3 149 141 147
3 141 140 144
3 141 144 147
3 150 125 124
3 150 124 151
3 124 120 152
3 124 152 151
3 152 142 149
3 152 149 151
3 149 148 150
3 149 150 151
3 118 48 78
3 118 78 153
3 78 76 143
3 78 143 153
3 143 142 152
3 143 152 153
3 152 120 118
3 152 118 153
3 94 93 154
3 94 154 155
3 154 156 157
3 154 157 155
3 157 158 159
3 157 159 155
3 159 96 94
3 159 94 155
3 160 161 162
3 160 162 163
3 162 164 165
3 162 165 163
3 165 158 157
3 165 157 163
3 157 156 160
3 157 160 163
3 166 145 144
3 166 144 167
3 144 140 168
3 144 168 167
3 168 158 165
3 168 165 167
3 165 164 166
3 165 166 167
3 138 73 98
3 138 98 169
3 98 96 159
3 98 159 169
3 159 158 168
3 159 168 169
3 168 140 138
3 168 138 169
3 109 54 136
3 109 136 170
3 136 134 171
3 136 171 170
3 171 172 173
3 171 173 170
3 173 111 109
3 173 109 170
3 132 131 174
3 132 174 175
3 174 176 177
3 174 177 175
3 177 172 171
3 177 171 175
3 171 134 132
3 171 132 175
3 178 161 160
3 178 160 179
3 160 156 180
3 160 180 179
3 180 172 177
3 180 177 179
3 177 176 178
3 177 178 179
3 154 93 113
3 154 113 181
3 113 111 173
3 113 173 181
3 173 172 180
3 173 180 181
3 180 156 154
3 180 154 181
3 126 125 182
3 126 182 183
3 182 184 185
3 182 185 183
3 185 186 187
3 185 187 183
3 187 128 126
3 187 126 183
3 188 189 190
3 188 190 191
3 190 192 193
3 190 193 191
3 193 186 185
3 193 185 191
3 185 184 188
3 185 188 191
3 194 195 196
3 194 196 197
3 196 198 199
3 196 199 197
3 199 186 193
3 199 193 197
3 193 192 194
3 193 194 197
3 200 131 130
3 200 130 201
3 130 128 187
3 130 187 201
3 187 186 199
3 187 199 201
3 199 198 200
3 199 200 201
3 146 145 202
3 146 202 203
3 202 204 205
3 202 205 203
3 205 206 207
3 205 207 203
3 207 148 146
3 207 146 203
3 208 209 210
3 208 210 211
3 210 212 213
3 210 213 211
3 213 206 205
3 213 205 211
3 205 204 208
3 205 208 211
3 214 189 188
3 214 188 215
3 188 184 216
3 188 216 215
3 216 206 213
3 216 213 215
3 213 212 214
3 213 214 215
3 182 125 150
3 182 150 217
3 150 148 207
3 150 207 217
3 207 206 216
3 207 216 217
3 216 184 182
3 216 182 217
3 162 161 218
3 162 218 219
3 218 220 221
3 218 221 219
3 221 222 223
3 221 223 219
3 223 164 162
3 223 162 219
3 224 225 226
3 226 227 228
3 228 222 221
3 228 221 226
3 221 220 224
3 221 224 226
3 229 209 208
3 229 208 230
3 208 204 231
3 208 231 230
3 231 222 228
3 231 228 230
3 228 227 229
3 228 229 230
3 202 145 166
3 202 166 232
3 166 164 223
3 166 223 232
3 223 222 231
3 223 231 232
3 231 204 202
3 231 202 232
3 174 131 200
3 174 200 233
3 200 198 234
3 200 234 233
3 234 235 236
3 234 236 233
3 236 176 174
3 236 174 233
3 196 195 237
3 196 237 238
3 237 239 240
3 237 240 238
3 240 235 234
3 240 234 238
3 234 198 196
3 234 196 238
3 241 225 224
3 241 224 242
3 224 220 243
3 224 243 242
3 243 235 240
3 243 240 242
3 240 239 241
3 240 241 242
3 218 161 178
3 218 178 244
3 178 176 236
3 178 236 244
3 236 235 243
3 236 243 244
3 243 220 218
3 243 218 244
3 190 189 245
3 190 245 246
3 245 247 248
3 245 248 246
3 248 249 250
3 248 250 246
3 250 192 190
3 250 190 246
3 251 1 0
3 251 0 252
3 0 8 253
3 0 253 252
3 253 249 248
3 253 248 252
3 248 247 251
3 248 251 252
3 23 22 254
3 23 254 255
3 254 256 257
3 254 257 255
3 257 249 253
3 257 253 255
3 253 8 23
3 253 23 255
3 258 195 194
3 258 194 259
3 194 192 250
3 194 250 259
3 250 249 257
3 250 257 259
3 257 256 258
3 257 258 259
3 210 209 260
3 210 260 261
3 260 262 263
3 260 263 261
3 263 264 265
3 263 265 261
3 265 212 210
3 265 210 261
3 266 10 9
3 266 9 267
3 9 4 268
3 9 268 267
3 268 264 263
3 268 263 267
3 263 262 266
3 263 266 267
3 2 1 251
3 2 251 269
3 251 247 270
3 251 270 269
3 270 264 268
3 270 268 269
3 268 4 2
3 268 2 269
3 245 189 214
3 245 214 271
3 214 212 265
3 214 265 271
3 265 264 270
3 265 270 271
3 270 247 245
3 270 245 271
3 226 225 272
3 226 272 273
3 272 274 275
3 272 275 273
3 275 276 277
3 275 277 273
3 277 227 226
3 277 226 273
3 278 16 15
3 278 15 279
3 15 13 280
3 15 280 279
3 280 276 275
3 280 275 279
3 275 274 278
3 275 278 279
3 11 10 266
3 11 266 281
3 266 262 282
3 266 282 281
3 282 276 280
3 282 280 281
3 280 13 11
3 280 11 281
3 260 209 229
3 260 229 283
3 229 227 277
3 229 277 283
3 277 276 282
3 277 282 283
3 282 262 260
3 282 260 283
3 237 195 258
3 237 258 284
3 258 256 285
3 258 285 284
3 285 286 287
3 285 287 284
3 287 239 237
3 287 237 284
3 254 22 21
3 254 21 288
3 21 19 289
3 21 289 288
3 289 286 285
3 289 285 288
3 285 256 254
3 285 254 288
3 17 16 278
3 17 278 290
3 278 274 291
3 278 291 290
3 291 286 289
3 291 289 290
3 289 19 17
3 289 17 290
3 272 225 241
3 272 241 292
3 241 239 287
3 241 287 292
3 287 286 291
3 287 291 292
3 291 274 272
3 291 272 292
3 293 294 295
3 293 295 296
3 295 297 298
3 295 298 296
3 298 299 300
3 298 300 296
3 300 301 293
3 300 293 296
3 302 84 83
3 302 83 303
3 83 91 304
3 83 304 303
3 304 299 298
3 304 298 303
3 298 297 302
3 298 302 303
3 101 64 305
3 101 305 306
3 305 307 308
3 305 308 306
3 308 299 304
3 308 304 306
3 304 91 101
3 304 101 306
3 309 36 310
3 309 310 311
3 310 301 300
3 310 300 311
3 300 299 308
3 300 308 311
3 308 307 309
3 308 309 311
3 35 36 309
3 309 307 312
3 309 312 35
3 312 313 314
3 312 314 35
3 314 33 35
3 305 64 63
3 305 63 315
3 63 71 316
3 63 316 315
3 316 313 312
3 316 312 315
3 312 307 305
3 312 305 315
3 81 39 317
3 81 317 318
3 317 319 320
3 317 320 318
3 320 313 316
3 320 316 318
3 316 71 81
3 316 81 318
3 26 37 321
3 37 33 314
3 37 314 321
3 314 313 320
3 314 320 321
3 320 319 26
3 320 26 321
3 27 26 322
3 26 319 323
3 26 323 322
3 323 324 28
3 323 28 322
3 28 27 322
3 317 39 38
3 317 38 325
3 38 46 326
3 38 326 325
3 326 324 323
3 326 323 325
3 323 319 317
3 323 317 325
3 61 60 327
3 61 327 328
3 327 329 330
3 327 330 328
3 330 324 326
3 330 326 328
3 326 46 61
3 326 61 328
3 331 30 32
3 28 324 330
3 28 330 32
3 330 329 331
3 330 331 32
3 332 30 331
3 332 331 333
3 331 329 334
3 331 334 333
3 334 335 336
3 334 336 333
3 336 337 332
3 336 332 333
3 327 60 103
3 327 103 338
3 103 108 339
3 103 339 338
3 339 335 334
3 339 334 338
3 334 329 327
3 334 327 338
3 116 84 302
3 116 302 340
3 302 297 341
3 302 341 340
3 341 335 339
3 341 339 340
3 339 108 116
3 339 116 340
3 295 294 342
3 295 342 343
3 342 337 336
3 342 336 343
3 336 335 341
3 336 341 343
3 341 297 295
3 341 295 343
3 36 301 310
3 27 29 25
3 31 25 29
3 30 332 337
