OFF
344 668 0
-11.3026 8.47228 -19.0331
-11.2446 8.60128 -18.9131
-11.4426 8.47218 -19.0171
-11.6126 8.23758 -19.2321
-11.6156 8.42788 -19.0721
-11.8066 8.17938 -19.3011
-11.8476 8.12038 -19.3951
-11.6416 8.17958 -19.3201
-11.3116 8.42808 -19.1071
-11.6696 8.53098 -19.0271
-11.6266 8.70058 -18.9291
-11.7526 8.58818 -19.0511
-11.8586 8.30028 -19.2421
-11.7956 8.55208 -19.1261
-11.9056 8.24668 -19.3301
-11.6936 8.64698 -19.0941
-11.5276 8.79998 -19.0011
-11.5536 8.64708 -19.1101
-11.7956 8.36328 -19.2861
-11.4916 8.55228 -19.1611
-11.7406 8.24678 -19.3491
-11.3276 8.58848 -19.1001
-11.1456 8.70078 -18.9851
-11.2436 8.53118 -19.0761
-11.5506 8.30058 -19.2771
-9.29755 15.1586 -0.080099
-9.42955 15.1555 -0.185099
-9.44056 15.1554 -0.180099
-9.31256 15.1583 -0.077099
-9.41356 15.2162 -0.203099
-9.28556 15.2204 -0.101099
-9.22856 15.2486 0.010901
-9.25456 15.1853 0.036901
-9.23956 15.1862 0.036901
-9.31556 15.4009 -0.279099
-9.11556 15.7723 -0.435099
-8.98056 15.7888 -0.340099
-9.18556 15.4092 -0.180099
-8.91556 15.8301 -0.238099
-9.12556 15.4417 -0.072099
-8.92356 15.8879 -0.145099
-9.01156 15.9541 -0.078099
-9.23056 15.5523 0.102901
-9.13955 15.4917 0.028901
-9.33756 15.3528 0.193901
-9.24456 15.2948 0.114901
-9.36756 15.2879 0.225901
-9.35556 15.2904 0.228901
-9.25756 15.2321 0.145901
-9.27256 15.2305 0.144901
-10.2616 15.3546 -0.260099
-10.2246 15.4127 -0.286099
-10.0506 15.3492 -0.321099
-10.0846 15.291 -0.297099
-9.83256 15.2894 -0.317099
-9.86456 15.2307 -0.294099
-10.1246 15.592 -0.368099
-9.92856 15.9537 -0.536099
-9.75756 15.8876 -0.562099
-9.95256 15.5278 -0.400099
-9.54056 15.8298 -0.550099
-9.73556 15.4688 -0.393099
-9.31456 15.7887 -0.507099
-9.51056 15.4236 -0.352099
-9.60756 15.2421 -0.276099
-9.63056 15.1828 -0.260099
-9.63656 15.1825 -0.254099
-10.1866 15.4888 0.144901
-10.1476 15.5509 0.110901
-10.2756 15.5464 0.00990101
-10.3156 15.4856 0.041901
-10.3336 15.5177 -0.102099
-10.3736 15.4581 -0.072099
-10.0386 15.7451 0.013901
-9.82355 16.1369 -0.180099
-9.95856 16.1201 -0.275099
-10.1686 15.7365 -0.085099
-10.0236 16.0784 -0.377099
-10.2286 15.7034 -0.194099
-10.0156 16.0201 -0.469099
-10.2156 15.6529 -0.294099
-10.3176 15.4709 -0.207099
-10.3686 15.4152 -0.182099
-10.3566 15.4123 -0.179099
-9.53656 15.3549 0.266901
-9.54356 15.3517 0.262901
-9.51156 15.4165 0.229901
-9.72856 15.4768 0.224901
-9.76356 15.4126 0.258901
-9.18156 16.0205 -0.053099
-9.40256 15.6169 0.134901
-9.39856 16.0786 -0.065099
-9.61956 15.6764 0.127901
-9.62456 16.1202 -0.109099
-9.84356 15.7221 0.085901
-9.95256 15.5246 0.183901
-9.99056 15.4614 0.218901
-7.24756 18.3396 -2.6381
-7.41656 18.264 -2.7021
-6.99056 18.3932 -3.9761
-6.81756 18.4763 -3.9161
-6.67356 18.1832 -5.5221
-6.50056 18.2683 -5.4651
-6.39356 18.3798 -5.4211
-6.71056 18.5865 -3.8681
-7.14456 18.4428 -2.5831
-6.53256 17.6413 -7.2681
-6.63156 16.7747 -9.1441
-6.46956 16.8494 -9.1001
-6.36256 17.7235 -7.2161
-6.37056 16.9481 -9.0671
-6.25856 17.8309 -7.1761
-6.34456 17.0538 -9.0501
-6.40356 17.1495 -9.0531
-6.28956 18.0477 -7.1541
-6.23056 17.9452 -7.1541
-6.42256 18.6052 -5.3931
-6.36356 18.4985 -5.3951
-6.74056 18.8125 -3.8321
-7.17856 18.6599 -2.5331
-7.11756 18.5556 -2.5461
-6.68056 18.705 -3.8381
-8.10156 18.2913 -2.8691
-8.26156 18.3692 -2.8881
-7.84256 18.483 -4.1721
-7.68356 18.4054 -4.1471
-7.52756 18.2625 -5.7191
-7.36756 18.187 -5.6921
-7.14656 18.1462 -5.6431
-7.46256 18.3619 -4.1001
-7.88256 18.2446 -2.8251
-7.37356 17.716 -7.4581
-7.44156 16.8517 -9.3171
-7.28856 16.7831 -9.2901
-7.21556 17.6436 -7.4301
-7.07856 16.7451 -9.2471
-6.99656 17.6048 -7.3831
-6.84656 16.7411 -9.1961
-6.75656 17.6028 -7.3261
-6.90156 18.1437 -5.5841
-7.64056 18.2339 -2.7671
-7.21856 18.3565 -4.0401
-8.19256 18.6895 -2.7841
-8.02356 18.7651 -2.7201
-7.59256 18.902 -4.0291
-7.76556 18.819 -4.0891
-7.27556 18.6842 -5.5921
-7.44956 18.5991 -5.6481
-7.55656 18.4877 -5.6911
-7.87256 18.7088 -4.1361
-8.29656 18.5863 -2.8381
-7.13056 18.1221 -7.3451
-7.21356 17.2262 -9.2271
-7.37556 17.1516 -9.2711
-7.30056 18.0399 -7.3971
-7.47456 17.0529 -9.3031
-7.40456 17.9326 -7.4361
-7.50056 16.9473 -9.3201
-7.43256 17.8185 -7.4581
-7.58656 18.3691 -5.7171
-8.32256 18.4735 -2.8751
-7.90256 18.5904 -4.1661
-7.33856 18.7378 -2.5531
-6.89956 18.89 -3.8571
-6.58256 18.6807 -5.4211
-6.80356 18.7214 -5.4701
-7.12056 18.9334 -3.9051
-7.55856 18.7845 -2.5961
-6.55656 17.218 -9.0801
-6.44756 18.12 -7.1821
-6.76656 17.256 -9.1231
-6.66656 18.1588 -7.2291
-6.99856 17.2598 -9.1751
-6.90656 18.1606 -7.2871
-7.04756 18.7237 -5.5291
-7.79956 18.7952 -2.6551
-7.36456 18.9388 -3.9651
-7.03656 15.5907 -11.0791
-6.88556 15.6537 -11.0471
-7.65556 14.2236 -12.9701
-7.51856 14.2728 -12.9521
-7.43556 14.3438 -12.9441
-6.79456 15.7395 -11.0261
-8.39756 12.8075 -14.7121
-9.17056 11.4768 -16.2021
-9.05756 11.5009 -16.2101
-8.27356 12.8431 -14.7091
-8.98855 11.5451 -16.2271
-8.19855 12.8995 -14.7141
-8.97156 11.6011 -16.2481
-9.01256 11.6604 -16.2721
-8.22456 13.0339 -14.7471
-8.17955 12.9665 -14.7271
-7.46456 14.501 -12.9611
-7.41456 14.4241 -12.9471
-6.82656 15.92 -11.0251
-6.77156 15.8333 -11.0171
-7.79156 15.678 -11.2261
-7.64856 15.6133 -11.2001
-8.34256 14.3253 -13.0861
-8.21256 14.2644 -13.0611
-8.03456 14.224 -13.0301
-7.45256 15.5745 -11.1631
-9.01656 12.9244 -14.7971
-9.73256 11.6059 -16.2591
-9.62656 11.5515 -16.2361
-8.89956 12.867 -14.7731
-9.48056 11.508 -16.2181
-8.73855 12.8249 -14.7481
-9.31956 11.4811 -16.2051
-8.56156 12.8032 -14.7271
-7.83856 14.2089 -12.9981
-7.23656 15.5656 -11.1201
-7.58056 16.007 -11.1731
-7.73156 15.9441 -11.2051
-8.15056 14.6024 -13.0771
-8.28756 14.5533 -13.0951
-8.37156 14.4823 -13.1031
-7.82256 15.8583 -11.2261
-8.84256 13.1504 -14.8321
-9.57456 11.7891 -16.3301
-9.68656 11.765 -16.3221
-8.96556 13.115 -14.8351
-9.75556 11.7209 -16.3051
-9.04156 13.0587 -14.8301
-9.77356 11.6651 -16.2831
-9.06056 12.9917 -14.8161
-8.39256 14.4022 -13.1001
-7.84656 15.7646 -11.2341
-6.96856 15.9847 -11.0511
-7.59356 14.5618 -12.9861
-7.77256 14.6021 -13.0171
-7.16456 16.0234 -11.0891
-9.11856 11.7146 -16.2951
-8.34056 13.0912 -14.7711
-9.26455 11.7581 -16.3141
-8.50156 13.1333 -14.7961
-9.42456 11.7848 -16.3261
-8.67756 13.1548 -14.8171
-7.96856 14.6171 -13.0491
-7.38056 16.0321 -11.1321
-9.88156 10.3656 -17.3351
-9.77556 10.3828 -17.3501
-10.4916 9.50058 -18.1431
-10.4006 9.50428 -18.1681
-10.3486 9.52618 -18.2001
-9.71156 10.4193 -17.3731
-10.9626 8.90838 -18.6581
-10.9036 8.88098 -18.7041
-10.8816 8.86968 -18.7561
-10.8446 9.02638 -18.7441
-10.8396 8.94538 -18.7511
-10.3576 9.63768 -18.2371
-10.3276 9.57908 -18.2191
-9.73556 10.522 -17.4241
-9.69556 10.4681 -17.3991
-10.4126 10.5003 -17.3741
-10.3116 10.4484 -17.3531
-10.9926 9.63218 -18.1711
-10.9046 9.57408 -18.1591
-10.7816 9.52238 -18.1541
-10.1736 10.4046 -17.3381
-11.4096 9.02628 -18.6781
-11.3546 8.94528 -18.6911
-11.2676 8.86948 -18.7111
-11.1106 8.88088 -18.6801
-10.6316 9.50228 -18.1441
-10.0226 10.3749 -17.3321
-10.2656 10.6563 -17.4641
-10.3716 10.6392 -17.4491
-10.8576 9.76908 -18.2651
-10.9646 9.74628 -18.2551
-11.0316 9.70538 -18.2371
-10.4356 10.6028 -17.4261
-11.2916 9.14408 -18.7651
-11.4106 9.09518 -18.7761
-11.4946 9.03008 -18.7831
-11.4756 9.03088 -18.7291
-11.0376 9.67168 -18.2031
-10.4516 10.5541 -17.4001
-9.83556 10.5738 -17.4461
-10.4606 9.67668 -18.2641
-10.5986 9.70918 -18.2831
-9.97356 10.6176 -17.4601
-10.9606 9.03098 -18.7891
-11.1076 9.03028 -18.8271
-11.2046 9.09518 -18.8001
-10.7336 9.74828 -18.2791
-10.1246 10.6471 -17.4671
-9.41256 15.1537 -0.191099
-9.27556 15.1573 -0.084099
-9.21456 15.1859 0.035901
-9.20456 15.1485 -0.092099
-9.35756 15.1442 -0.210099
-9.33656 15.2927 0.234901
-9.52456 15.3585 0.273901
-9.46356 16.7919 -0.504099
-9.60655 16.7615 -0.592099
-9.00956 17.553 -1.0041
-9.16256 17.5064 -1.0841
-9.24756 17.4333 -1.1611
-9.68056 16.7055 -0.683099
-8.51256 18.2631 -1.7281
-8.67456 18.2005 -1.7981
-8.76956 18.1107 -1.8631
-8.72256 17.9129 -1.9381
-8.78956 18.0095 -1.9131
-9.18356 17.2606 -1.2661
-9.25756 17.347 -1.2261
-9.60056 16.5587 -0.817099
-9.68056 16.6343 -0.762099
-9.43256 16.4894 -0.832099
-9.01956 17.1877 -1.2681
-8.80156 17.1347 -1.2411
-9.21556 16.4337 -0.813099
-8.56156 17.8369 -1.9281
-8.34256 17.787 -1.8921
-7.88656 17.7882 -1.7701
-8.10556 17.7689 -1.8371
-8.35556 17.115 -1.1211
-8.56756 17.1083 -1.1901
-8.78056 16.3933 -0.696099
-8.98556 16.3992 -0.766099
-8.63756 16.4235 -0.608099
-8.20356 17.1614 -1.0421
-8.11856 17.2343 -0.963099
-8.56356 16.4792 -0.517099
-7.72456 17.8507 -1.6991
-7.62956 17.9405 -1.6341
-7.67756 18.1381 -1.5591
-7.61056 18.0416 -1.5841
-8.18256 17.4067 -0.859099
-8.10956 17.3205 -0.899099
-8.64456 16.6255 -0.382099
-8.56356 16.55 -0.437099
-8.81256 16.695 -0.367099
-8.34756 17.4797 -0.856099
-8.56456 17.5329 -0.884099
-9.02956 16.7509 -0.386099
-7.83856 18.2142 -1.5681
-8.05656 18.2642 -1.6051
-8.29456 18.2824 -1.6611
-8.79856 17.5596 -0.936099
-9.25856 16.7858 -0.434099
3 0 1 2
3 0 2 3
3 2 4 5
3 2 5 3
3 5 6 7
3 5 7 3
3 7 8 0
3 7 0 3
3 9 10 11
3 9 11 12
3 11 13 14
3 11 14 12
3 14 6 5
3 14 5 12
3 5 4 9
3 5 9 12
3 15 16 17
3 15 17 18
3 17 19 20
3 17 20 18
3 20 6 14
3 20 14 18
3 14 13 15
3 14 15 18
3 21 22 23
3 21 23 24
3 23 8 7
3 23 7 24
3 7 6 20
3 7 20 24
3 20 19 21
3 20 21 24
3 25 26 27
3 25 27 28
3 27 29 30
3 27 30 28
3 30 31 32
3 30 32 28
3 32 33 25
3 32 25 28
3 34 35 36
3 34 36 37
3 36 38 39
3 36 39 37
3 39 31 30
3 39 30 37
3 30 29 34
3 30 34 37
3 40 41 42
3 40 42 43
3 42 44 45
3 42 45 43
3 45 31 39
3 45 39 43
3 39 38 40
3 39 40 43
3 46 47 48
3 46 48 49
3 48 33 32
3 48 32 49
3 32 31 45
3 32 45 49
3 45 44 46
3 45 46 49
3 50 51 52
3 50 52 53
3 52 54 55
3 52 55 53
3 56 57 58
3 56 58 59
3 58 60 61
3 58 61 59
3 61 54 52
3 61 52 59
3 52 51 56
3 52 56 59
3 62 35 34
3 62 34 63
3 34 29 64
3 34 64 63
3 64 54 61
3 64 61 63
3 61 60 62
3 61 62 63
3 27 26 65
3 27 65 66
3 65 55 66
3 55 54 64
3 55 64 66
3 64 29 27
3 64 27 66
3 67 68 69
3 67 69 70
3 69 71 72
3 69 72 70
3 73 74 75
3 73 75 76
3 75 77 78
3 75 78 76
3 78 71 69
3 78 69 76
3 69 68 73
3 69 73 76
3 79 57 56
3 79 56 80
3 56 51 81
3 56 81 80
3 81 71 78
3 81 78 80
3 78 77 79
3 78 79 80
3 50 82 83
3 82 72 83
3 72 71 81
3 72 81 83
3 81 51 50
3 81 50 83
3 84 47 46
3 84 46 85
3 46 44 86
3 46 86 85
3 86 87 88
3 86 88 85
3 88 84 85
3 42 41 89
3 42 89 90
3 89 91 92
3 89 92 90
3 92 87 86
3 92 86 90
3 86 44 42
3 86 42 90
3 93 74 73
3 93 73 94
3 73 68 95
3 73 95 94
3 95 87 92
3 95 92 94
3 92 91 93
3 92 93 94
3 88 87 95
3 88 95 96
3 95 68 67
3 95 67 96
3 97 98 99
3 97 99 100
3 99 101 102
3 99 102 100
3 102 103 104
3 102 104 100
3 104 105 97
3 104 97 100
3 106 107 108
3 106 108 109
3 108 110 111
3 108 111 109
3 111 103 102
3 111 102 109
3 102 101 106
3 102 106 109
3 112 113 114
3 112 114 115
3 114 116 117
3 114 117 115
3 117 103 111
3 117 111 115
3 111 110 112
3 111 112 115
3 118 119 120
3 118 120 121
3 120 105 104
3 120 104 121
3 104 103 117
3 104 117 121
3 117 116 118
3 117 118 121
3 122 123 124
3 122 124 125
3 124 126 127
3 124 127 125
3 127 128 129
3 127 129 125
3 129 130 122
3 129 122 125
3 131 132 133
3 131 133 134
3 133 135 136
3 133 136 134
3 136 128 127
3 136 127 134
3 127 126 131
3 127 131 134
3 137 107 106
3 137 106 138
3 106 101 139
3 106 139 138
3 139 128 136
3 139 136 138
3 136 135 137
3 136 137 138
3 99 98 140
3 99 140 141
3 140 130 129
3 140 129 141
3 129 128 139
3 129 139 141
3 139 101 99
3 139 99 141
3 142 143 144
3 142 144 145
3 144 146 147
3 144 147 145
3 147 148 149
3 147 149 145
3 149 150 142
3 149 142 145
3 151 152 153
3 151 153 154
3 153 155 156
3 153 156 154
3 156 148 147
3 156 147 154
3 147 146 151
3 147 151 154
3 157 132 131
3 157 131 158
3 131 126 159
3 131 159 158
3 159 148 156
3 159 156 158
3 156 155 157
3 156 157 158
3 124 123 160
3 124 160 161
3 160 150 149
3 160 149 161
3 149 148 159
3 149 159 161
3 159 126 124
3 159 124 161
3 162 119 118
3 162 118 163
3 118 116 164
3 118 164 163
3 164 165 166
3 164 166 163
3 166 167 162
3 166 162 163
3 114 113 168
3 114 168 169
3 168 170 171
3 168 171 169
3 171 165 164
3 171 164 169
3 164 116 114
3 164 114 169
3 172 152 151
3 172 151 173
3 151 146 174
3 151 174 173
3 174 165 171
3 174 171 173
3 171 170 172
3 171 172 173
3 144 143 175
3 144 175 176
3 175 167 166
3 175 166 176
3 166 165 174
3 166 174 176
3 174 146 144
3 174 144 176
3 108 107 177
3 108 177 178
3 177 179 180
3 177 180 178
3 180 181 182
3 180 182 178
3 182 110 108
3 182 108 178
3 183 184 185
3 183 185 186
3 185 187 188
3 185 188 186
3 188 181 180
3 188 180 186
3 180 179 183
3 180 183 186
3 189 190 191
3 189 191 192
3 191 193 194
3 191 194 192
3 194 181 188
3 194 188 192
3 188 187 189
3 188 189 192
3 195 113 112
3 195 112 196
3 112 110 182
3 112 182 196
3 182 181 194
3 182 194 196
3 194 193 195
3 194 195 196
3 133 132 197
3 133 197 198
3 197 199 200
3 197 200 198
3 200 201 202
3 200 202 198
3 202 135 133
3 202 133 198
3 203 204 205
3 203 205 206
3 205 207 208
3 205 208 206
3 208 201 200
3 208 200 206
3 200 199 203
3 200 203 206
3 209 184 183
3 209 183 210
3 183 179 211
3 183 211 210
3 211 201 208
3 211 208 210
3 208 207 209
3 208 209 210
3 177 107 137
3 177 137 212
3 137 135 202
3 137 202 212
3 202 201 211
3 202 211 212
3 211 179 177
3 211 177 212
3 153 152 213
3 153 213 214
3 213 215 216
3 213 216 214
3 216 217 218
3 216 218 214
3 218 155 153
3 218 153 214
3 219 220 221
3 219 221 222
3 221 223 224
3 221 224 222
3 224 217 216
3 224 216 222
3 216 215 219
3 216 219 222
3 225 204 203
3 225 203 226
3 203 199 227
3 203 227 226
3 227 217 224
3 227 224 226
3 224 223 225
3 224 225 226
3 197 132 157
3 197 157 228
3 157 155 218
3 157 218 228
3 218 217 227
3 218 227 228
3 227 199 197
3 227 197 228
3 168 113 195
3 168 195 229
3 195 193 230
3 195 230 229
3 230 231 232
3 230 232 229
3 232 170 168
3 232 168 229
3 191 190 233
3 191 233 234
3 233 235 236
3 233 236 234
3 236 231 230
3 236 230 234
3 230 193 191
3 230 191 234
3 237 220 219
3 237 219 238
3 219 215 239
3 219 239 238
3 239 231 236
3 239 236 238
3 236 235 237
3 236 237 238
3 213 152 172
3 213 172 240
3 172 170 232
3 172 232 240
3 232 231 239
3 232 239 240
3 239 215 213
3 239 213 240
3 185 184 241
3 185 241 242
3 241 243 244
3 241 244 242
3 244 245 246
3 244 246 242
3 246 187 185
3 246 185 242
3 247 1 0
3 247 0 248
3 0 8 249
3 0 249 248
3 249 245 244
3 249 244 248
3 244 243 247
3 244 247 248
3 23 22 250
3 23 250 251
3 250 252 253
3 250 253 251
3 253 245 249
3 253 249 251
3 249 8 23
3 249 23 251
3 254 190 189
3 254 189 255
3 189 187 246
3 189 246 255
3 246 245 253
3 246 253 255
3 253 252 254
3 253 254 255
3 205 204 256
3 205 256 257
3 256 258 259
3 256 259 257
3 259 260 261
3 259 261 257
3 261 207 205
3 261 205 257
3 262 10 9
3 262 9 263
3 9 4 264
3 9 264 263
3 264 260 259
3 264 259 263
3 259 258 262
3 259 262 263
3 2 1 247
3 2 247 265
3 247 243 266
3 247 266 265
3 266 260 264
3 266 264 265
3 264 4 2
3 264 2 265
3 241 184 209
3 241 209 267
3 209 207 261
3 209 261 267
3 261 260 266
3 261 266 267
3 266 243 241
3 266 241 267
3 221 220 268
3 221 268 269
3 268 270 271
3 268 271 269
3 271 272 273
3 271 273 269
3 273 223 221
3 273 221 269
3 274 16 15
3 274 15 275
3 15 13 276
3 15 276 275
3 276 272 271
3 276 271 275
3 271 270 274
3 271 274 275
3 11 10 262
3 11 262 277
3 262 258 278
3 262 278 277
3 278 272 276
3 278 276 277
3 276 13 11
3 276 11 277
3 256 204 225
3 256 225 279
3 225 223 273
3 225 273 279
3 273 272 278
3 273 278 279
3 278 258 256
3 278 256 279
3 233 190 254
3 233 254 280
3 254 252 281
3 254 281 280
3 281 282 283
3 281 283 280
3 283 235 233
3 283 233 280
3 250 22 21
3 250 21 284
3 21 19 285
3 21 285 284
3 285 282 281
3 285 281 284
3 281 252 250
3 281 250 284
3 17 16 274
3 17 274 286
3 274 270 287
3 274 287 286
3 287 282 285
3 287 285 286
3 285 19 17
3 285 17 286
3 268 220 237
3 268 237 288
3 237 235 283
3 237 283 288
3 283 282 287
3 283 287 288
3 287 270 268
3 287 268 288
3 65 26 289
3 289 26 25
3 289 25 290
3 25 33 291
3 25 291 290
3 291 292 290
3 292 293 289
3 292 289 290
3 48 47 294
3 291 33 48
3 294 47 84
3 294 84 295
3 75 74 296
3 75 296 297
3 296 298 299
3 296 299 297
3 299 300 301
3 299 301 297
3 301 77 75
3 301 75 297
3 302 143 142
3 302 142 303
3 142 150 304
3 142 304 303
3 304 300 299
3 304 299 303
3 299 298 302
3 299 302 303
3 160 123 305
3 160 305 306
3 305 307 308
3 305 308 306
3 308 300 304
3 308 304 306
3 304 150 160
3 304 160 306
3 309 57 79
3 309 79 310
3 79 77 301
3 79 301 310
3 301 300 308
3 301 308 310
3 308 307 309
3 308 309 310
3 58 57 309
3 58 309 311
3 309 307 312
3 309 312 311
3 312 313 314
3 312 314 311
3 314 60 58
3 314 58 311
3 305 123 122
3 305 122 315
3 122 130 316
3 122 316 315
3 316 313 312
3 316 312 315
3 312 307 305
3 312 305 315
3 140 98 317
3 140 317 318
3 317 319 320
3 317 320 318
3 320 313 316
3 320 316 318
3 316 130 140
3 316 140 318
3 321 35 62
3 321 62 322
3 62 60 314
3 62 314 322
3 314 313 320
3 314 320 322
3 320 319 321
3 320 321 322
3 36 35 321
3 36 321 323
3 321 319 324
3 321 324 323
3 324 325 326
3 324 326 323
3 326 38 36
3 326 36 323
3 317 98 97
3 317 97 327
3 97 105 328
3 97 328 327
3 328 325 324
3 328 324 327
3 324 319 317
3 324 317 327
3 120 119 329
3 120 329 330
3 329 331 332
3 329 332 330
3 332 325 328
3 332 328 330
3 328 105 120
3 328 120 330
3 333 41 40
3 333 40 334
3 40 38 326
3 40 326 334
3 326 325 332
3 326 332 334
3 332 331 333
3 332 333 334
3 89 41 333
3 89 333 335
3 333 331 336
3 333 336 335
3 336 337 338
3 336 338 335
3 338 91 89
3 338 89 335
3 329 119 162
3 329 162 339
3 162 167 340
3 162 340 339
3 340 337 336
3 340 336 339
3 336 331 329
3 336 329 339
3 175 143 302
3 175 302 341
3 302 298 342
3 302 342 341
3 342 337 340
3 342 340 341
3 340 167 175
3 340 175 341
3 296 74 93
3 296 93 343
3 93 91 338
3 93 338 343
3 338 337 342
3 338 342 343
3 342 298 296
3 342 296 343
