OFF
385 752 0
7.74512 18.035 -6.09241
7.89812 17.8853 -6.08365
7.97612 17.7966 -6.30218
7.77212 17.9533 -6.42275
8.01512 17.5959 -6.54814
7.79512 17.7329 -6.70372
7.51612 17.7787 -6.75584
7.51612 18.0196 -6.45138
7.51612 18.1098 -6.09596
7.97612 17.3265 -6.71592
7.89812 17.0984 -6.77605
7.74512 17.0881 -6.92569
7.77212 17.4261 -6.88659
7.51612 17.0821 -7.00032
7.51612 17.4461 -6.95607
7.28812 17.0881 -6.92569
7.13512 17.0984 -6.77605
7.05712 17.3265 -6.71592
7.26112 17.4261 -6.88659
7.01812 17.5959 -6.54814
7.23812 17.7329 -6.70372
7.05712 17.7966 -6.30218
7.13512 17.8853 -6.08365
7.28812 18.035 -6.09241
7.26112 17.9533 -6.42275
4.28112 4.9327 1.62748
4.55412 4.9383 1.35943
4.27012 4.9383 1.59345
4.53812 4.9767 1.33618
4.26112 4.9767 1.56386
3.92912 4.9767 1.63975
3.92912 4.9383 1.67146
4.51412 5.0787 1.30371
4.47412 5.275 1.24932
4.22712 5.275 1.45331
4.24812 5.0787 1.52253
3.92912 5.275 1.52131
3.92912 5.0787 1.59547
3.63212 5.275 1.45331
3.38412 5.275 1.24932
3.34512 5.0787 1.30371
3.61112 5.0787 1.52253
3.32112 4.9767 1.33618
3.59812 4.9767 1.56386
3.30412 4.9383 1.35943
4.70312 4.9767 0.0459905
4.75912 4.9767 0.501351
4.78212 4.9383 0.501351
4.51412 5.0787 -0.301007
4.47412 5.275 -0.246622
4.62312 5.275 0.0933605
4.67312 5.0787 0.0637005
4.67212 5.275 0.501351
4.72612 5.0787 0.501351
4.53812 4.9767 -0.333479
4.62312 5.275 0.909331
4.67312 5.0787 0.939001
4.70312 4.9767 0.956711
4.72512 4.9383 0.969391
3.59812 4.9767 -0.56116
3.92912 4.9767 -0.637053
3.92912 4.9383 -0.668763
3.34512 5.0787 -0.301007
3.38412 5.275 -0.246622
3.63212 5.275 -0.450614
3.61112 5.0787 -0.519832
3.92912 5.275 -0.518611
3.92912 5.0787 -0.592773
3.32112 4.9767 -0.333479
4.22712 5.275 -0.450614
4.24812 5.0787 -0.519832
4.26112 4.9767 -0.56116
3.15512 4.9767 0.956711
3.23612 5.275 0.909331
3.18512 5.0787 0.939001
3.18612 5.275 0.501351
3.13212 5.0787 0.501351
3.10012 4.9767 0.501351
3.23612 5.275 0.0933605
3.18512 5.0787 0.0637005
3.15512 4.9767 0.0459905
4.62712 7.3274 0.643481
4.74212 7.3274 0.549261
5.25412 8.1669 0.185401
5.16112 8.1669 0.261541
5.89512 9.1107 -0.257625
5.81712 9.1113 -0.193303
5.72312 9.1115 -0.171863
5.05012 8.1669 0.286931
4.49012 7.3274 0.674891
6.55112 10.1306 -0.76981
7.10212 11.1987 -1.34114
7.03612 11.2052 -1.28923
6.48012 10.1332 -0.712936
6.95612 11.2073 -1.27192
6.39512 10.1341 -0.693979
6.87612 11.2052 -1.28923
6.80912 11.1987 -1.34114
6.24012 10.1306 -0.76981
6.31112 10.1332 -0.712936
5.55012 9.1107 -0.257625
5.62912 9.1113 -0.193303
4.84712 8.1669 0.185401
4.23812 7.3274 0.549261
4.35312 7.3274 0.643481
4.93912 8.1669 0.261541
4.81012 7.3274 0.0153305
4.74212 7.3274 -0.141704
5.25412 8.1669 -0.372988
5.30912 8.1669 -0.246081
5.89512 9.1059 -0.729321
5.94312 9.107 -0.622118
5.95812 9.1083 -0.493473
5.32812 8.1669 -0.0937895
4.83312 7.3274 0.203781
6.55112 10.1116 -1.18688
7.10212 11.151 -1.72183
7.14212 11.1618 -1.63531
6.59312 10.1159 -1.09209
7.15612 11.1748 -1.53149
6.60712 10.1211 -0.978344
7.14212 11.1878 -1.42766
6.59312 10.1263 -0.864598
5.94312 9.1096 -0.364829
4.81012 7.3274 0.392221
5.30912 8.1669 0.0584905
4.35312 7.3274 -0.235926
4.23812 7.3274 -0.141704
4.84712 8.1669 -0.372988
4.93912 8.1669 -0.449132
5.55012 9.1059 -0.729321
5.62912 9.1053 -0.793643
5.72312 9.105 -0.815084
5.05012 8.1669 -0.474513
4.49012 7.3274 -0.267334
6.24012 10.1116 -1.18688
6.80912 11.151 -1.72183
6.87612 11.1445 -1.77375
6.31112 10.109 -1.24375
6.95612 11.1423 -1.79105
6.39512 10.1081 -1.26271
7.03612 11.1445 -1.77375
6.48012 10.109 -1.24375
5.81712 9.1053 -0.793644
4.62712 7.3274 -0.235926
5.16112 8.1669 -0.449132
4.16912 7.3274 0.392221
4.79112 8.1669 0.0584905
5.50312 9.1096 -0.364829
5.48812 9.1083 -0.493473
4.77312 8.1669 -0.0937895
4.14712 7.3274 0.203781
6.76912 11.1878 -1.42766
6.19812 10.1263 -0.864598
6.75612 11.1748 -1.53149
6.18412 10.1211 -0.978344
6.76912 11.1618 -1.63531
6.19812 10.1159 -1.09209
5.50312 9.107 -0.622118
4.16912 7.3274 0.0153305
4.79112 8.1669 -0.246081
7.43512 12.2866 -1.9616
7.37012 12.2996 -1.91404
7.60612 13.3363 -2.58759
7.54012 13.3581 -2.54288
7.46012 13.3653 -2.52798
7.29212 12.3039 -1.89819
7.67412 14.2899 -3.17549
7.69612 15.0892 -3.68171
7.61412 15.1339 -3.63459
7.60212 14.3223 -3.13123
7.51612 15.1487 -3.61888
7.51612 14.3331 -3.11648
7.41812 15.1339 -3.63459
7.33712 15.0892 -3.68171
7.35912 14.2899 -3.17549
7.43112 14.3223 -3.13123
7.31512 13.3363 -2.58759
7.38112 13.3581 -2.54288
7.15012 12.2866 -1.9616
7.21412 12.2996 -1.91404
7.43512 12.1912 -2.31036
7.47412 12.2129 -2.23109
7.60612 13.1768 -2.91544
7.64612 13.2131 -2.84093
7.65912 13.2566 -2.75152
7.48712 12.2389 -2.13598
7.67412 14.0523 -3.50009
7.69612 14.7622 -4.02729
7.74512 14.8365 -3.94875
7.71712 14.1063 -3.42632
7.76212 14.9257 -3.8545
7.73112 14.1711 -3.33779
7.74512 15.0149 -3.76025
7.71712 14.2359 -3.24927
7.64612 13.3001 -2.6621
7.47412 12.2649 -2.04086
7.15012 12.1912 -2.31036
7.21412 12.1782 -2.35791
7.31512 13.1768 -2.91544
7.38112 13.1551 -2.96015
7.46012 13.1478 -2.97505
7.29212 12.1739 -2.37377
7.35912 14.0523 -3.50009
7.33712 14.7622 -4.02729
7.41812 14.7176 -4.07441
7.43112 14.0199 -3.54435
7.51612 14.7027 -4.09012
7.51612 14.0091 -3.55911
7.61412 14.7176 -4.07441
7.60212 14.0199 -3.54435
7.54012 13.1551 -2.96015
7.37012 12.1782 -2.35791
7.11112 12.2649 -2.04086
7.27512 13.3001 -2.6621
7.26212 13.2566 -2.75152
7.09812 12.2389 -2.13598
7.28812 15.0149 -3.76025
7.31612 14.2359 -3.24927
7.27112 14.9257 -3.8545
7.30212 14.1711 -3.33779
7.28812 14.8365 -3.94875
7.31612 14.1063 -3.42632
7.27512 13.2131 -2.84093
7.11112 12.2129 -2.23109
7.73112 15.6763 -4.06263
7.63412 15.7344 -4.00844
7.77612 16.1153 -4.36193
7.65812 16.1877 -4.29749
7.51612 16.2118 -4.27601
7.51612 15.7537 -3.99038
7.82712 16.4704 -4.62328
7.88212 16.8057 -4.89036
7.71612 16.9085 -4.79993
7.68612 16.5578 -4.54642
7.51612 16.9428 -4.76979
7.51612 16.5869 -4.5208
7.31712 16.9085 -4.79993
7.15112 16.8057 -4.89036
7.20612 16.4704 -4.62328
7.34712 16.5578 -4.54642
7.25712 16.1153 -4.36193
7.37512 16.1877 -4.29749
7.30212 15.6763 -4.06263
7.39912 15.7344 -4.00844
7.73112 15.251 -4.46003
7.79012 15.3477 -4.36972
7.77612 15.5849 -4.83452
7.84712 15.7054 -4.72712
7.87012 15.8501 -4.59823
7.80912 15.4637 -4.26133
7.82712 15.8299 -5.18695
7.88212 16.0521 -5.5535
7.98212 16.2234 -5.40279
7.91212 15.9754 -5.05884
8.01512 16.4289 -5.22193
7.94012 16.1501 -4.90512
7.98212 16.6345 -5.04107
7.91212 16.3248 -4.75139
7.84712 15.9948 -4.46934
7.79012 15.5797 -4.15295
7.30212 15.251 -4.46003
7.39912 15.193 -4.51423
7.25712 15.5849 -4.83452
7.37512 15.5125 -4.89897
7.51612 15.4884 -4.92045
7.51612 15.1736 -4.53229
7.20612 15.8299 -5.18695
7.15112 16.0521 -5.5535
7.31712 15.9494 -5.64393
7.34712 15.7425 -5.26381
7.51612 15.9151 -5.67407
7.51612 15.7134 -5.28943
7.71612 15.9494 -5.64393
7.68612 15.7425 -5.26381
7.65812 15.5125 -4.89897
7.63412 15.193 -4.51423
7.24312 15.5797 -4.15295
7.18612 15.9948 -4.46934
7.16312 15.8501 -4.59823
7.22312 15.4637 -4.26133
7.05112 16.6345 -5.04107
7.12112 16.3248 -4.75139
7.01812 16.4289 -5.22193
7.09312 16.1502 -4.90512
7.05112 16.2234 -5.40279
7.12112 15.9754 -5.05884
7.18612 15.7054 -4.72712
7.24312 15.3477 -4.36972
7.93712 17.1854 -5.20683
7.74612 17.3038 -5.10271
7.96912 17.5346 -5.53907
7.76312 17.6681 -5.4311
7.51612 17.7164 -5.39813
7.51612 17.3432 -5.06801
7.95012 17.7781 -5.85342
7.75212 17.9259 -5.76143
7.51612 17.9903 -5.74282
7.08212 17.7781 -5.85342
7.28112 17.9259 -5.76143
7.06412 17.5346 -5.53907
7.27012 17.6681 -5.4311
7.09512 17.1854 -5.20683
7.28712 17.3038 -5.10271
7.93712 16.3177 -5.97038
8.05212 16.5149 -5.79685
7.96912 16.6029 -6.35891
8.09412 16.8197 -6.17764
8.13612 17.0782 -5.95972
8.09112 16.7516 -5.58861
7.95012 16.8837 -6.64044
8.07612 17.1073 -6.4818
8.12012 17.3687 -6.28985
8.07612 17.5923 -6.05498
8.09412 17.3272 -5.73107
8.05212 16.9882 -5.38037
7.09512 16.3177 -5.97038
7.28712 16.1994 -6.0745
7.06412 16.6029 -6.35891
7.27012 16.4788 -6.47761
7.51612 16.44 -6.52131
7.51612 16.16 -6.1092
7.08212 16.8837 -6.64044
7.28112 16.7737 -6.77535
7.51612 16.747 -6.83688
7.75212 16.7737 -6.77535
7.76312 16.4788 -6.47761
7.74612 16.1994 -6.0745
6.98112 16.9882 -5.38037
6.93912 17.3272 -5.73107
6.89712 17.0782 -5.95972
6.94212 16.7516 -5.58861
6.95712 17.5923 -6.05498
6.91312 17.3687 -6.28985
6.95712 17.1073 -6.4818
6.93912 16.8197 -6.17764
6.98112 16.5149 -5.79685
4.40912 5.596 1.16033
4.19112 5.596 1.34005
4.38712 6.0439 1.02308
4.20512 6.0439 1.17348
3.98512 6.0439 1.22362
3.92912 5.596 1.39995
4.47512 6.6203 0.823941
4.32912 6.6203 0.944381
4.15412 6.6203 0.984531
3.83212 6.6203 0.823941
3.97812 6.6203 0.944381
3.58412 6.0439 1.02308
3.76612 6.0439 1.17348
3.44912 5.596 1.16033
3.66712 5.596 1.34005
3.31812 5.596 0.860791
3.47412 6.0439 0.772401
3.43812 6.0439 0.471591
3.27512 5.596 0.501351
3.74412 6.6203 0.623201
3.71512 6.6203 0.382321
3.83212 6.6203 -0.0592995
3.74412 6.6203 0.141441
3.58412 6.0439 -0.0798995
3.47412 6.0439 0.170781
3.44912 5.596 -0.157627
3.31812 5.596 0.141911
3.66712 5.596 -0.337348
3.76612 6.0439 -0.230301
3.98512 6.0439 -0.280436
3.92912 5.596 -0.397255
3.97812 6.6203 -0.179738
4.15412 6.6203 -0.219885
4.47512 6.6203 -0.0592995
4.32912 6.6203 -0.179738
4.38712 6.0439 -0.0798995
4.20512 6.0439 -0.230301
4.40912 5.596 -0.157627
4.19112 5.596 -0.337348
4.54012 5.596 0.141911
4.49712 6.0439 0.170781
4.53312 6.0439 0.471591
4.58412 5.596 0.501351
4.56312 6.6203 0.141441
4.59212 6.6203 0.382321
4.56312 6.6203 0.623201
4.49712 6.0439 0.772401
4.54012 5.596 0.860791
3 0 1 2
3 0 2 3
3 2 4 5
3 2 5 3
3 5 6 7
3 5 7 3
3 7 8 0
3 7 0 3
3 9 10 11
3 9 11 12
3 11 13 14
3 11 14 12
3 14 6 5
3 14 5 12
3 5 4 9
3 5 9 12
3 15 16 17
3 15 17 18
3 17 19 20
3 17 20 18
3 20 6 14
3 20 14 18
3 14 13 15
3 14 15 18
3 21 22 23
3 21 23 24
3 23 8 7
3 23 7 24
3 7 6 20
3 7 20 24
3 20 19 21
3 20 21 24
3 25 26 27
3 26 28 29
3 26 29 27
3 29 30 31
3 29 31 27
3 31 25 27
3 32 33 34
3 32 34 35
3 34 36 37
3 34 37 35
3 37 30 29
3 37 29 35
3 29 28 32
3 29 32 35
3 38 39 40
3 38 40 41
3 40 42 43
3 40 43 41
3 43 30 37
3 43 37 41
3 37 36 38
3 37 38 41
3 31 30 43
3 43 42 44
3 45 46 47
3 48 49 50
3 48 50 51
3 50 52 53
3 50 53 51
3 53 46 45
3 53 45 51
3 45 54 48
3 45 48 51
3 55 33 32
3 55 32 56
3 32 28 57
3 32 57 56
3 57 46 53
3 57 53 56
3 53 52 55
3 53 55 56
3 47 46 57
3 47 57 58
3 57 28 26
3 57 26 58
3 59 60 61
3 62 63 64
3 62 64 65
3 64 66 67
3 64 67 65
3 67 60 59
3 67 59 65
3 59 68 62
3 59 62 65
3 69 49 48
3 69 48 70
3 48 54 71
3 48 71 70
3 71 60 67
3 71 67 70
3 67 66 69
3 67 69 70
3 61 60 71
3 44 42 72
3 40 39 73
3 40 73 74
3 73 75 76
3 73 76 74
3 76 77 72
3 76 72 74
3 72 42 40
3 72 40 74
3 78 63 62
3 78 62 79
3 62 68 80
3 62 80 79
3 80 77 76
3 80 76 79
3 76 75 78
3 76 78 79
3 81 82 83
3 81 83 84
3 83 85 86
3 83 86 84
3 86 87 88
3 86 88 84
3 88 89 81
3 88 81 84
3 90 91 92
3 90 92 93
3 92 94 95
3 92 95 93
3 95 87 86
3 95 86 93
3 86 85 90
3 86 90 93
3 96 97 98
3 96 98 99
3 98 100 101
3 98 101 99
3 101 87 95
3 101 95 99
3 95 94 96
3 95 96 99
3 102 103 104
3 102 104 105
3 104 89 88
3 104 88 105
3 88 87 101
3 88 101 105
3 101 100 102
3 101 102 105
3 106 107 108
3 106 108 109
3 108 110 111
3 108 111 109
3 111 112 113
3 111 113 109
3 113 114 106
3 113 106 109
3 115 116 117
3 115 117 118
3 117 119 120
3 117 120 118
3 120 112 111
3 120 111 118
3 111 110 115
3 111 115 118
3 121 91 90
3 121 90 122
3 90 85 123
3 90 123 122
3 123 112 120
3 123 120 122
3 120 119 121
3 120 121 122
3 83 82 124
3 83 124 125
3 124 114 113
3 124 113 125
3 113 112 123
3 113 123 125
3 123 85 83
3 123 83 125
3 126 127 128
3 126 128 129
3 128 130 131
3 128 131 129
3 131 132 133
3 131 133 129
3 133 134 126
3 133 126 129
3 135 136 137
3 135 137 138
3 137 139 140
3 137 140 138
3 140 132 131
3 140 131 138
3 131 130 135
3 131 135 138
3 141 116 115
3 141 115 142
3 115 110 143
3 115 143 142
3 143 132 140
3 143 140 142
3 140 139 141
3 140 141 142
3 108 107 144
3 108 144 145
3 144 134 133
3 144 133 145
3 133 132 143
3 133 143 145
3 143 110 108
3 143 108 145
3 146 103 102
3 146 102 147
3 102 100 148
3 102 148 147
3 148 149 150
3 148 150 147
3 150 151 146
3 150 146 147
3 98 97 152
3 98 152 153
3 152 154 155
3 152 155 153
3 155 149 148
3 155 148 153
3 148 100 98
3 148 98 153
3 156 136 135
3 156 135 157
3 135 130 158
3 135 158 157
3 158 149 155
3 158 155 157
3 155 154 156
3 155 156 157
3 128 127 159
3 128 159 160
3 159 151 150
3 159 150 160
3 150 149 158
3 150 158 160
3 158 130 128
3 158 128 160
3 92 91 161
3 92 161 162
3 161 163 164
3 161 164 162
3 164 165 166
3 164 166 162
3 166 94 92
3 166 92 162
3 167 168 169
3 167 169 170
3 169 171 172
3 169 172 170
3 172 165 164
3 172 164 170
3 164 163 167
3 164 167 170
3 173 174 175
3 173 175 176
3 175 177 178
3 175 178 176
3 178 165 172
3 178 172 176
3 172 171 173
3 172 173 176
3 179 97 96
3 179 96 180
3 96 94 166
3 96 166 180
3 166 165 178
3 166 178 180
3 178 177 179
3 178 179 180
3 117 116 181
3 117 181 182
3 181 183 184
3 181 184 182
3 184 185 186
3 184 186 182
3 186 119 117
3 186 117 182
3 187 188 189
3 187 189 190
3 189 191 192
3 189 192 190
3 192 185 184
3 192 184 190
3 184 183 187
3 184 187 190
3 193 168 167
3 193 167 194
3 167 163 195
3 167 195 194
3 195 185 192
3 195 192 194
3 192 191 193
3 192 193 194
3 161 91 121
3 161 121 196
3 121 119 186
3 121 186 196
3 186 185 195
3 186 195 196
3 195 163 161
3 195 161 196
3 137 136 197
3 137 197 198
3 197 199 200
3 197 200 198
3 200 201 202
3 200 202 198
3 202 139 137
3 202 137 198
3 203 204 205
3 203 205 206
3 205 207 208
3 205 208 206
3 208 201 200
3 208 200 206
3 200 199 203
3 200 203 206
3 209 188 187
3 209 187 210
3 187 183 211
3 187 211 210
3 211 201 208
3 211 208 210
3 208 207 209
3 208 209 210
3 181 116 141
3 181 141 212
3 141 139 202
3 141 202 212
3 202 201 211
3 202 211 212
3 211 183 181
3 211 181 212
3 152 97 179
3 152 179 213
3 179 177 214
3 179 214 213
3 214 215 216
3 214 216 213
3 216 154 152
3 216 152 213
3 175 174 217
3 175 217 218
3 217 219 220
3 217 220 218
3 220 215 214
3 220 214 218
3 214 177 175
3 214 175 218
3 221 204 203
3 221 203 222
3 203 199 223
3 203 223 222
3 223 215 220
3 223 220 222
3 220 219 221
3 220 221 222
3 197 136 156
3 197 156 224
3 156 154 216
3 156 216 224
3 216 215 223
3 216 223 224
3 223 199 197
3 223 197 224
3 169 168 225
3 169 225 226
3 225 227 228
3 225 228 226
3 228 229 230
3 228 230 226
3 230 171 169
3 230 169 226
3 231 232 233
3 231 233 234
3 233 235 236
3 233 236 234
3 236 229 228
3 236 228 234
3 228 227 231
3 228 231 234
3 237 238 239
3 237 239 240
3 239 241 242
3 239 242 240
3 242 229 236
3 242 236 240
3 236 235 237
3 236 237 240
3 243 174 173
3 243 173 244
3 173 171 230
3 173 230 244
3 230 229 242
3 230 242 244
3 242 241 243
3 242 243 244
3 189 188 245
3 189 245 246
3 245 247 248
3 245 248 246
3 248 249 250
3 248 250 246
3 250 191 189
3 250 189 246
3 251 252 253
3 251 253 254
3 253 255 256
3 253 256 254
3 256 249 248
3 256 248 254
3 248 247 251
3 248 251 254
3 257 232 231
3 257 231 258
3 231 227 259
3 231 259 258
3 259 249 256
3 259 256 258
3 256 255 257
3 256 257 258
3 225 168 193
3 225 193 260
3 193 191 250
3 193 250 260
3 250 249 259
3 250 259 260
3 259 227 225
3 259 225 260
3 205 204 261
3 205 261 262
3 261 263 264
3 261 264 262
3 264 265 266
3 264 266 262
3 266 207 205
3 266 205 262
3 267 268 269
3 267 269 270
3 269 271 272
3 269 272 270
3 272 265 264
3 272 264 270
3 264 263 267
3 264 267 270
3 273 252 251
3 273 251 274
3 251 247 275
3 251 275 274
3 275 265 272
3 275 272 274
3 272 271 273
3 272 273 274
3 245 188 209
3 245 209 276
3 209 207 266
3 209 266 276
3 266 265 275
3 266 275 276
3 275 247 245
3 275 245 276
3 217 174 243
3 217 243 277
3 243 241 278
3 243 278 277
3 278 279 280
3 278 280 277
3 280 219 217
3 280 217 277
3 239 238 281
3 239 281 282
3 281 283 284
3 281 284 282
3 284 279 278
3 284 278 282
3 278 241 239
3 278 239 282
3 285 268 267
3 285 267 286
3 267 263 287
3 267 287 286
3 287 279 284
3 287 284 286
3 284 283 285
3 284 285 286
3 261 204 221
3 261 221 288
3 221 219 280
3 221 280 288
3 280 279 287
3 280 287 288
3 287 263 261
3 287 261 288
3 233 232 289
3 233 289 290
3 289 291 292
3 289 292 290
3 292 293 294
3 292 294 290
3 294 235 233
3 294 233 290
3 295 1 0
3 295 0 296
3 0 8 297
3 0 297 296
3 297 293 292
3 297 292 296
3 292 291 295
3 292 295 296
3 23 22 298
3 23 298 299
3 298 300 301
3 298 301 299
3 301 293 297
3 301 297 299
3 297 8 23
3 297 23 299
3 302 238 237
3 302 237 303
3 237 235 294
3 237 294 303
3 294 293 301
3 294 301 303
3 301 300 302
3 301 302 303
3 253 252 304
3 253 304 305
3 304 306 307
3 304 307 305
3 307 308 309
3 307 309 305
3 309 255 253
3 309 253 305
3 310 10 9
3 310 9 311
3 9 4 312
3 9 312 311
3 312 308 307
3 312 307 311
3 307 306 310
3 307 310 311
3 2 1 295
3 2 295 313
3 295 291 314
3 295 314 313
3 314 308 312
3 314 312 313
3 312 4 2
3 312 2 313
3 289 232 257
3 289 257 315
3 257 255 309
3 257 309 315
3 309 308 314
3 309 314 315
3 314 291 289
3 314 289 315
3 269 268 316
3 269 316 317
3 316 318 319
3 316 319 317
3 319 320 321
3 319 321 317
3 321 271 269
3 321 269 317
3 322 16 15
3 322 15 323
3 15 13 324
3 15 324 323
3 324 320 319
3 324 319 323
3 319 318 322
3 319 322 323
3 11 10 310
3 11 310 325
3 310 306 326
3 310 326 325
3 326 320 324
3 326 324 325
3 324 13 11
3 324 11 325
3 304 252 273
3 304 273 327
3 273 271 321
3 273 321 327
3 321 320 326
3 321 326 327
3 326 306 304
3 326 304 327
3 281 238 302
3 281 302 328
3 302 300 329
3 302 329 328
3 329 330 331
3 329 331 328
3 331 283 281
3 331 281 328
3 298 22 21
3 298 21 332
3 21 19 333
3 21 333 332
3 333 330 329
3 333 329 332
3 329 300 298
3 329 298 332
3 17 16 322
3 17 322 334
3 322 318 335
3 322 335 334
3 335 330 333
3 335 333 334
3 333 19 17
3 333 17 334
3 316 268 285
3 316 285 336
3 285 283 331
3 285 331 336
3 331 330 335
3 331 335 336
3 335 318 316
3 335 316 336
3 34 33 337
3 34 337 338
3 337 339 340
3 337 340 338
3 340 341 342
3 340 342 338
3 342 36 34
3 342 34 338
3 343 82 81
3 343 81 344
3 81 89 345
3 81 345 344
3 345 341 340
3 345 340 344
3 340 339 343
3 340 343 344
3 104 103 346
3 104 346 347
3 346 348 349
3 346 349 347
3 349 341 345
3 349 345 347
3 345 89 104
3 345 104 347
3 350 39 38
3 350 38 351
3 38 36 342
3 38 342 351
3 342 341 349
3 342 349 351
3 349 348 350
3 349 350 351
3 73 39 350
3 73 350 352
3 350 348 353
3 350 353 352
3 353 354 355
3 353 355 352
3 355 75 73
3 355 73 352
3 346 103 146
3 346 146 356
3 146 151 357
3 146 357 356
3 357 354 353
3 357 353 356
3 353 348 346
3 353 346 356
3 159 127 358
3 159 358 359
3 358 360 361
3 358 361 359
3 361 354 357
3 361 357 359
3 357 151 159
3 357 159 359
3 362 63 78
3 362 78 363
3 78 75 355
3 78 355 363
3 355 354 361
3 355 361 363
3 361 360 362
3 361 362 363
3 64 63 362
3 64 362 364
3 362 360 365
3 362 365 364
3 365 366 367
3 365 367 364
3 367 66 64
3 367 64 364
3 358 127 126
3 358 126 368
3 126 134 369
3 126 369 368
3 369 366 365
3 369 365 368
3 365 360 358
3 365 358 368
3 144 107 370
3 144 370 371
3 370 372 373
3 370 373 371
3 373 366 369
3 373 369 371
3 369 134 144
3 369 144 371
3 374 49 69
3 374 69 375
3 69 66 367
3 69 367 375
3 367 366 373
3 367 373 375
3 373 372 374
3 373 374 375
3 50 49 374
3 50 374 376
3 374 372 377
3 374 377 376
3 377 378 379
3 377 379 376
3 379 52 50
3 379 50 376
3 370 107 106
3 370 106 380
3 106 114 381
3 106 381 380
3 381 378 377
3 381 377 380
3 377 372 370
3 377 370 380
3 124 82 343
3 124 343 382
3 343 339 383
3 343 383 382
3 383 378 381
3 383 381 382
3 381 114 124
3 381 124 382
3 337 33 55
3 337 55 384
3 55 52 379
3 55 379 384
3 379 378 383
3 379 383 384
3 383 339 337
3 383 337 384
