0.32329
0.806293
0.793816
0.447469
0.758231
0.631261
0.617096
0.523123
0.762101
0.781143
0.738972
0.688876
0.73644
0.759574
0.467572
0.423716
0.523447
0.59668
0.66559
0.578855
0.464031
0.464233
0.550979
0.462117
0.600228
0.536137
0.442567
0.766202
0.697621
0.470211
0.529232
0.532317
0.673181
0.467423
0.429272
0.442825
0.324829
0.752243
0.742276
0.575891
0.496922
0.465138
0.697583
0.658064
0.758668
0.602274
0.763106
0.575263
0.361542
0.817281
0.666917
0.597095
0.552926
0.621666
0.782136
0.743926
0.472457
0.595862
0.637952
0.784169
0.729876
0.834655
0.647931
0.404302
0.818225
0.547533
0.484229
0.614101
0.645932
0.580325
0.712222
0.393291
0.854087
0.520384
0.829183
0.531632
0.7222
0.808634
0.327191
0.695732
0.965635
0.726297
0.79204
0.352243
0.719692
0.444208
0.871024
0.795566
0.835349
0.5858
0.920269
0.799263
0.661965
0.596272
0.808546
0.78864
0.773951
0.826164
0.521363
0.823426
0.557595
0.291551
0.76715
0.533846
0.598656
0.741683
0.395264
0.728731
0.747018
0.780162
0.91356
0.86008
0.785834
0.807715
0.904635
0.555043
0.77995
0.851845
0.783823
0.443338
0.598392
0.842683
0.853165
0.80697
0.765786
0.762338
0.805987
0.719707
0.795783
0.631211
0.542516
0.555885
0.594011
0.665558
0.655535
0.651306
0.546787
0.859999
0.679197
0.64401
0.735951
0.544571
0.564918
0.623381
0.523563
0.571359
0.64027
0.762373
0.755775
0.732943
0.7422
0.842665
0.795839
0.68153
0.663585
0.690686
0.71206
0.775864
0.770044
0.770346
0.710615
0.511869
0.648042
0.630513
0.542831
0.539677
0.564261
0.251808
0.707928
0.675907
0.859571
0.757911
0.615882
0.262827
0.232893
0.805522
0.617315
0.57653
0.730157
0.529782
0.869616
0.846973
0.588391
0.587189
0.579038
0.61535
0.51906
0.303704
0.622583
0.74601
0.293403
0.823637
0.669619
0.581994
0.60434
0.672476
0.288051
0.807979
0.28327
0.766894
0.260453
0.933347
0.62911
0.59105
0.694623
0.666641
0.680789
0.253154
0.697355
0.306832
0.632136
0.661966
0.297776
0.546182
0.69028
0.923211
0.290795
0.613302
0.527312
0.320228
0.836141
0.621702
0.631258
1
0.580726
0.649094
0.563483
0.644751
0.871064
0.764547
0.744509
0.587638
0.729158
0.625223
0.715123
0.757612
0.5648
0.682449
0.605169
0.711224
0.868434
0.62128
0.641065
0.932578
0.673952
0.525121
0.312217
0.762361
0.528503
0.662929
0.636341
0.278683
0.856099
0.779831
0.684852
0.415385
0.694093
0.631653
0.691648
0.96663
0.523918
0.298932
0.838286
0.970126
0.661761
0.836898
0.620476
0.637183
0.630304
0.833234
0.665657
0.290961
0.540491
0.585036
0.305039
0.746084
0.850446
0.846679
0.644987
0.61907
0.557666
0.644365
0.61645
0.638743
0.682941
0.251691
0.572053
0.470256
0.644031
0.90677
0.648361
0.79955
0.735869
0.324666
0.754287
0.860717
0.489635
0.67098
0.849582
0.813296
0.867333
0.454993
0.633313
0.56366
0.806195
0.855474
0.76014
0.854972
0.862118
0.66346
0.81766
0.829378
0.796782
0.897631
0.682504
0.455882
0.717474
0.310065
0.60975
0.752357
0.521803
0.759326
0.573341
0.46106
0.526817
0.678991
0.555748
0.705987
0.583946
0.731694
0.665945
0.434637
0.517476
0.634091
0.586193
0.629362
0.614209
0.617145
0.541915
0.871405
0.739403
0.844869
0.497773
0.750203
0.673231
0.875489
0.788123
0.789178
0.605579
0.63918
0.572845
0.601562
0.887339
0.763248
0.743058
0.702035
0.825112
0.618409
0.892483
0.461387
0.849622
0.789786
0.46064
0.347141
0.584479
0.797612
0.938636
0.594955
0.357225
0.83937
0.727421
0.821113
0.7807
0.839198
0.652223
0.650831
0.824912
0.844282
0.803154
0.552248
0.597731
0.377968
0.859138
0.657977
0.52639
0.291911
0.649475
0.361645
0.817055
0.816757
0.856731
0.664131
0.243769
0.575751
0.484132
0.624372
0.613586
0.209496
0.657241
0.358588
0.831014
0.652114
0.797333
0.577301
0.615272
0.654748
0.699596
0.41947
0.799352
0.88997
0.770415
0.85649
0.334881
0.851397
0.630681
0.712282
0.751034
0.691965
0.306408
0.265301
0.227326
0.589089
0.799257
0.579189
0.727319
0.6936
0.823975
0.363046
0.717303
0.728867
0.806174
0.664543
0.431397
0.621207
0.281379
0.514975
0.474405
0.824735
0.495144
0.284213
0.604325
0.252946
0.606826
0.57014
0.716643
0.589196
0.668852
0.364347
0.594069
0.433192
0.545603
0.503549
0.560117
0.447882
0.669875
0.466473
0.48426
0.68806
0.564913
0.480759
0.638076
0.692579
0.716688
0.514945
0.668107
0.750419
0.794181
0.613772
0.424675
0.624452
0.704903
0.634742
0.797637
0.60167
0.807346
0.576964
0.677469
0.63333
0.611484
0.6934
0.639151
0.819062
0.609484
0.758188
0.892815
0.697003
0.74374
0.720666
0.736317
0.689066
0.643795
0.636
0.624625
0.678841
0.673598
0.742049
0.593496
0.711635
0.67315
0.516838
0.358218
0.714334
0.61656
0.673478
0.797354
0.304141
0.765647
0.44703
0.507636
0.432226
0.825429
0.473441
0.669602
0.587708
0.561324
0.586503
0.512333
0.739202
0.657914
0.463965
0.567365
0.433351
0.645757
0.622381
0.5794
0.693172
0.681314
0.839198
0.803617
0.680642
0.796567
0.648047
0.567954
0.744521
0.714923
0.808573
0.606092
0.725664
0.591415
0.827024
0.709807
0.467888
0.621839
0.728592
0.724865
0.518987
0.601569
0.845961
0.53125
0.337432
0.842066
0.733477
0.886994
0.354903
0.658513
0.645446
0.6005
0.750406
0.626287
0.624797
0.601143
0.493044
0.746579
0.864155
0.659799
0.865377
0.608713
0.697706
0.611386
0.687249
0.568774
0.832137
0.497868
0.45302
0.727604
0.724449
0.589001
0.339718
0.569746
0.757481
0.47203
0.450049
0.540421
0.261691
0.45272
0.579073
0.808239
0.245361
0.258997
0.868158
0.641074
0.664166
0.621938
0.67936
0.587467
0.700491
0.581854
0.758089
0.663723
0.769984
0.752711
0.474189
0.687076
0.623399
0.739257
0.817194
0.635893
0.671767
0.728235
0.864178
0.333615
0.876699
0.941858
0.788742
0.743398
0.441497
0.815964
0.584899
0.743498
0.58584
0.739811
0.836848
0.572685
0.597666
0.551909
0.630891
0.6788
0.587614
0.250724
0.655825
0.523502
0.670452
0.610801
0.830909
0.679474
0.284629
0.533714
0.649458
0.150564
0.833695
0.562166
0.277805
0.626875
0.545803
0.172107
0.139269
0.248541
0.181752
0.43563
0.197731
0.624389
0.403376
0.377139
0.829009
0.856747
0.68409
0.558315
0.575019
0.61373
0.820572
0.138957
0.126549
0.122484
0.109862
0.085302
0.441611
0.0898761
0.0980125
0.483802
0.0871169
0.410026
0.505243
0.229344
0.0640298
0.0610208
0.171942
0.0367182
0.0850154
0.729986
0.081616
0.218411
0.046784
0.175412
0.245378
0.470485
0.106311
0.0935554
0.111333
0.195141
0.568342
0.436745
0.441177
0.221966
0.619306
0.489032
0.152056
0.0664224
0.0691929
0.391702
0.493602
0.531686
0.610714
0.245289
0.743206
0.808434
0.696944
0.629062
0.374047
0.699947
0.444857
0.861889
0.182828
0.155795
0.774151
0.160243
0.582485
0.565237
0.573045
0.226638
0.209886
0.246516
0.562213
0.512147
0.128275
0.165716
0.154701
0.219169
0.154231
0.186366
0.162427
0.13417
0.579867
0.242533
0.554357
0.596059
0.241368
0.550635
0.340985
0.321897
0.294022
0.122903
0.0837217
0.0795009
0.18611
0.120089
0.133538
0.143379
0.165059
0.0953287
0.0975331
0.141342
0.138672
0.105143
0.0576993
0.231995
0.158701
0.099639
0.089754
0.0922924
0.0713772
0.11417
0.0999283
0.122513
0.068298
0.161006
0.135606
0.105955
0.0620007
0.0981608
0.138675
0.134043
0.0972243
0.0945017
0.0845078
0.12823
0.111252
0.101395
0.259253
0.606136
0.583198
0.624756
0.4273
0.581932
0.234789
0.196068
0.232989
0.299668
0.628783
0.213543
0.777504
0.427812
0.244681
0.647611
0.245265
0.13297
0.575821
0.169933
0.156759
0.144572
0.220937
0.17145
0.147098
0.575653
0.546269
0.694495
0.483543
0.469312
0.550061
0.637407
0.348888
0.119388
0.257972
0.134786
0.208701
0.357332
0.147713
0.233801
0.166533
0.397656
0.626699
0.790971
0.370245
0.819182
0.790486
0.829604
0.836454
0.19033
0.118475
0.148715
0.1096
0.137306
0.162373
0.199384
0.0935089
0.286671
0.45007
0.0142972
0.176852
0.409625
0.081843
0.088383
0.270152
0.217076
0.0668804
0.668429
0.126673
0.312141
0.187358
0.147584
0.103022
0.361663
0.37647
0.0661567
0.0488491
0.346129
0.688285
0.0551258
0
0.576
0.0640049
0.53948
0.113392
0.174853
0.239792
0.184756
0.35788
0.462253
0.431307
0.197218
0.577832
0.733495
0.860169
0.835511
0.529294
0.574538
0.182637
0.323492
0.441556
0.467333
0.130559
0.200291
0.278133
0.191743
0.445518
0.297983
0.586462
0.225295
0.246513
0.669609
0.644933
0.678347
0.158798
0.192745
0.160657
0.625138
0.13501
0.20906
0.14765
0.139011
0.563334
0.556669
0.357562
0.245888
0.630835
0.239889
0.342366
0.714824
0.100467
0.0843734
0.217803
0.114439
0.254072
0.114883
0.0641607
0.154678
0.138519
0.12177
0.094305
0.080798
0.0899406
0.12433
0.0570698
0.0711882
0.0777435
0.10385
0.0891135
0.131925
0.0849124
0.165478
0.122865
0.0885538
0.120119
0.137126
0.138039
0.0944262
0.0520514
0.119237
0.105291
0.0243264
0.0875454
0.304355
0.11779
0.286237
0.16408
0.1117
0.109401
0.288252
0.570953
0.567865
0.63985
0.860771
0.24763
0.414161
0.228319
0.620162
0.562779
0.419524
0.246339
0.244602
0.287649
0.562175
0.307919
0.147627
0.133342
0.147105
0.524686
0.127548
0.168689
0.240643
0.615848
0.088875
0.130557
0.103643
0.129591
0.288177
0.219099
0.13933
0.293634
0.269788
0.2105
0.197683
0.175644
0.311451
0.264866
0.126064
0.132672
0.113085
0.250994
0.138566
0.120838
0.195464
0.163751
0.175886
0.174021
0.188234
0.195713
0.203096
0.177427
0.184597
0.211312
0.16858
0.207248
0.155773
0.160537
0.170777
0.181487
0.145372
0.0991462
0.12886
0.384903
0.150857
0.196744
0.1694
0.344388
0.274722
0.738701
0.728141
0.44614
0.409553
0.381233
0.144465
0.0963266
0.0844552
0.199628
0.156912
0.148315
0.178645
0.141336
0.153604
0.185822
0.200573
0.216411
0.354432
0.158054
0.19019
0.202968
0.542288
0.167537
0.149974
0.149191
0.165188
0.117363
0.738664
0.542543
0.606961
0.49533
0.453252
0.79416
0.417254
0.540464
0.77493
0.713975
0.611296
0.784181
0.676184
0.810623
0.33074
0.703568
0.624465
0.835941
0.399178
0.556299
0.656487
0.60283
0.634202
0.44486
0.3348
0.556859
0.442903
0.291172
0.223892
0.206134
0.284793
0.6832
0.497188
0.817987
0.714176
0.470039
0.362091
0.450994
0.640569
0.759687
0.785729
0.742809
0.615964
0.631272
0.601964
0.831738
0.703565
0.693936
0.60283
0.691953
0.68712
0.547165
0.765341
0.270868
0.447925
0.679759
0.379603
0.683557
0.57684
0.164233
0.473875
0.772553
0.50749
0.560834
0.757005
0.474467
0.796551
0.707861
0.488511
0.783808
0.35003
0.565571
0.23089
0.546621
0.783363
0.715639
0.564642
0.721608
0.609033
0.618125
0.217205
0.637444
0.193848
0.652198
0.241218
0.346447
0.679983
0.181443
0.741726
0.603429
0.564906
0.567904
0.636539
0.642511
0.595542
0.332922
0.64135
0.603489
0.213198
0.48152
0.544533
0.370165
0.749919
0.798171
0.486262
0.724717
0.529774
0.807142
0.531398
0.633441
0.156252
0.490609
0.530679
0.552986
0.677339
0.594802
0.589964
0.678195
0.743163
0.671078
0.530434
0.520844
0.400644
0.709915
0.287321
0.516474
0.76616
0.344211
0.289055
0.672623
0.363738
0.468077
0.367499
0.21088
0.495747
0.708381
0.636663
0.777398
0.704541
0.660006
0.349084
0.246891
0.666503
0.497481
0.194864
0.683031
0.451532
0.757077
0.323668
0.671711
0.241602
0.63063
0.732378
0.68721
0.691411
0.516777
0.602747
0.596408
0.611758
0.688332
0.655738
0.596151
0.591247
0.455751
0.519329
0.532774
0.444803
0.522138
0.644325
0.535172
0.550173
0.693871
0.634027
0.494245
0.501603
0.491862
0.53773
0.510183
0.398878
0.712056
0.793074
0.573264
0.284063
0.77616
0.278065
0.282739
0.605951
0.530217
0.199249
0.59178
0.243411
0.545343
0.711736
0.191889
0.421754
0.63086
0.597069
0.195751
0.177891
0.536836
0.734591
0.190097
0.265803
0.636076
0.642155
0.186843
0.680926
0.606352
0.180626
0.540799
0.259226
0.296719
0.210649
0.65535
0.533371
0.721631
0.401772
0.512018
0.49303
0.649475
0.899577
0.567097
0.517384
0.478693
0.151522
0.46005
0.58432
0.607831
0.639065
0.812031
0.600924
0.364382
0.437014
0.654842
0.427855
0.668589
0.840125
0.649039
0.421568
0.734539
0.423787
0.439975
0.736952
0.613771
0.628272
0.762764
0.867952
0.602634
0.51344
0.821202
0.282972
0.307758
0.836467
0.568179
0.37775
0.819066
0.678161
0.703436
0.590242
0.397235
0.483364
0.607273
0.583171
0.549084
0.846359
0.755361
0.824097
0.570059
0.699554
0.674696
0.726137
0.81593
0.763567
0.519357
0.666381
0.692679
0.504573
0.805763
0.875781
0.826705
0.548647
0.691388
0.873529
0.683919
0.413117
0.56323
0.77742
0.550093
0.741726
0.399204
0.639017
0.654039
0.786895
0.740801
0.826603
0.731845
0.713006
0.606998
0.43243
0.849384
0.649461
0.558624
0.625077
0.497109
0.763279
0.676572
0.50357
0.42351
0.717634
0.760832
0.662111
0.770752
0.745127
0.68728
0.204329
0.478441
0.598289
0.604853
0.699413
0.611029
0.898932
0.789681
0.306636
0.607566
0.536451
0.67821
0.774355
0.554374
0.488657
0.714399
0.815403
0.541947
0.751479
0.497559
0.884175
0.555822
0.657969
0.547566
0.650305
0.783994
0.834216
0.675713
0.855133
0.630761
0.670091
0.628088
0.824049
0.480382
0.593325
0.654036
0.63268
0.796786
0.795428
0.519832
0.823624
0.563981
0.733252
0.693246
0.651046
0.437586
0.769243
0.577518
0.57318
0.808387
0.725616
0.856469
0.679575
0.766775
0.756233
0.596386
0.468555
0.833585
0.736773
0.632529
0.757633
0.757633
0.630781
0.664715
0.472473
0.546455
0.588268
0.536754
