0.274776
0.213571
0.199953
0.419118
0.479132
1
0.347228
0.620907
0.307576
0.311522
0
0.393076
0.485312
0.441691
0.133755
0.527837
0.49082
0.0331213
0.161143
0.434637
0.160113
0.273623
0.143643
0.35347
0.0991118
0.115183
0.437949
0.150345
0.29302
0.388016
0.444178
0.443702
0.471194
0.530268
0.0754482
0.376272
0.0311183
0.194112
0.164425
0.379708
0.622638
0.208137
0.471026
0.512917
0.427976
0.396261
0.755447
0.560404
0.551568
0.531092
0.908663
0.664367
0.649342
0.523249
0.500533
0.527746
0.599419
0.583515
0.740146
0.759063
0.549492
0.472251
0.490922
0.386146
0.660217
0.393465
0.557948
0.738407
0.565431
0.583303
0.587982
0.648523
0.898957
0.38052
0.52158
0.735296
0.62742
0.446046
0.436629
0.626576
0.672356
0.639972
0.398954
0.355316
0.388725
0.665643
0.695146
0.672796
0.689346
0.554633
0.466713
0.662102
0.834948
0.222835
0.480652
0.720933
0.577089
0.63476
0.724127
0.745916
0.342533
0.689373
0.730582
0.639851
0.724986
0.545458
0.477718
0.742215
0.55502
0.58725
0.556914
0.57428
0.399971
0.560827
0.65437
0.225425
0.524206
0.707194
0.328997
0.650093
0.58454
0.563353
0.601227
0.713531
0.57057
0.627682
0.528924
0.656911
0.540959
0.619199
0.56035
0.652193
0.848987
0.542217
0.634009
0.580218
0.530098
0.560312
0.753339
0.388476
0.487597
0.5007
0.738691
0.436029
0.7086
0.261931
0.674021
0.599314
0.495986
0.674319
0.522123
0.635869
0.690714
0.54155
0.731558
0.557248
0.412707
0.64911
0.463968
0.750046
0.540383
0.654619
0.453894
0.618435
0.554741
0.545535
0.663078
0.824681
0.779064
0.51262
0.650022
0.550765
0.599924
0.71545
0.382591
0.455229
0.324109
0.403396
0.525758
0.442869
0.487855
0.517371
0.686088
0.371249
0.465459
0.639912
0.584827
0.507144
0.45678
0.282571
0.531978
0.509348
0.490147
0.454676
0.372979
0.44877
0.519882
0.492809
0.314142
0.472222
0.318575
0.349544
0.296313
0.493191
0.881732
0.533325
0.337327
0.541099
0.47505
0.507993
0.513593
0.648126
0.563065
0.544366
0.546739
0.58649
0.401861
0.49804
0.400585
0.488475
0.28134
0.475648
0.37889
0.546558
0.505464
0.26273
0.459475
0.493703
0.535716
0.286614
0.310447
0.484509
0.50096
0.498437
0.495584
0.448821
0.465655
0.46644
0.399188
0.749667
0.63082
0.502547
0.398584
0.699176
0.455971
0.372011
0.506247
0.582069
0.53966
0.283897
0.490997
0.453713
0.523979
0.375114
0.54252
0.423983
0.215734
0.442938
0.431771
0.263233
0.32164
0.417628
0.518496
0.525001
0.431726
0.173876
0.363525
0.367794
0.546476
0.360424
0.537741
0.525589
0.452362
0.564431
0.59091
0.372869
0.51471
0.528461
0.445938
0.50084
0.28033
0.559793
0.276976
0.351678
0.472198
0.237052
0.471833
0.539374
0.178344
0.609647
0.109294
0.288979
0.135453
0.48799
0.380139
0.323309
0.31167
0.370811
0.207383
0.561045
0.225924
0.104984
0.0509382
0.141305
0.164016
0.421613
0.368177
0.385294
0.265007
0.161274
0.252838
0.235564
0.195942
0.134103
0.140601
0.14295
0.319829
0.250441
0.192758
0.162155
0.168663
0.126261
0.147903
0.146239
0.333068
0.166307
0.135553
0.309486
0.196383
0.313641
0.327763
0.131893
0.418557
0.100121
0.514696
0.283732
0.526428
0.307754
0.571539
0.377014
0.419188
0.246966
0.132634
0.320935
0.31294
0.267678
0.246977
0.248218
0.209464
0.367628
0.184418
0.449828
0.324683
0.67099
0.240904
0.166237
0.387206
0.125711
0.191134
0.640617
0.295421
0.109294
0.175189
0.24252
0.167372
0.108734
0.0868345
0.129867
0.0988076
0.0907896
0.10706
0.326455
0.384429
0.173888
