OFF
282 543 0
1.51902 -10.4384 -0.765023
1.75702 -10.3712 -1.31502
2.21202 -10.4384 -1.60502
2.12502 -10.562 -0.874023
2.89002 -10.4716 -1.75002
2.89202 -10.6036 -0.959023
2.89302 -10.6699 0.125977
2.02102 -10.6244 0.141977
1.33802 -10.4882 0.156977
3.56502 -10.4384 -1.60102
4.01602 -10.3712 -1.30902
4.25502 -10.4384 -0.759023
3.65602 -10.562 -0.872023
4.43502 -10.4882 0.162977
3.76202 -10.6244 0.144977
4.49402 -10.5047 1.28798
4.49302 -10.5047 2.38898
3.79602 -10.6452 2.48098
3.79702 -10.6452 1.33598
2.89302 -10.692 2.51098
2.89302 -10.692 1.35098
1.98502 -10.6452 2.47798
1.27502 -10.5047 2.38298
1.27602 -10.5047 1.28198
1.98502 -10.6452 1.33298
0.488023 -6.78684 -1.16602
1.03402 -6.79861 -2.12402
0.501023 -6.79861 -1.15302
1.05502 -6.85008 -2.09402
0.529023 -6.85008 -1.13602
0.316023 -6.85008 0.030977
0.285023 -6.79861 0.029977
1.10002 -6.97624 -2.03802
1.18302 -7.21208 -1.94002
0.697023 -7.21208 -1.04902
0.588023 -6.97624 -1.10502
0.502023 -7.21208 0.036977
0.382023 -6.97624 0.032977
0.607023 -7.21208 1.13398
1.01802 -7.21208 2.06298
0.919023 -6.97624 2.15898
0.489023 -6.97624 1.18498
0.865023 -6.85008 2.21298
0.425023 -6.85008 1.21298
0.839023 -6.79861 2.24298
0.827023 -6.78684 2.26398
0.381023 -6.78684 1.23998
0.395023 -6.79861 1.22798
3.83102 -6.78684 -2.62402
4.62202 -6.78684 -1.98602
4.61402 -6.79861 -1.96402
3.82702 -6.79861 -2.59602
4.59502 -6.85008 -1.93802
3.81602 -6.85008 -2.56002
2.85902 -6.85008 -2.79902
2.85902 -6.79861 -2.83802
4.55302 -6.97624 -1.88902
4.47602 -7.21208 -1.80402
3.75002 -7.21208 -2.38102
3.79302 -6.97624 -2.49502
2.86002 -7.21208 -2.60002
2.85902 -6.97624 -2.72702
1.95402 -7.21208 -2.45502
1.90902 -6.97624 -2.57702
1.88502 -6.85008 -2.64602
4.96002 -6.78684 1.44498
4.42502 -6.78684 2.42498
4.41902 -6.79861 2.40198
4.95202 -6.79861 1.43098
4.40502 -6.85008 2.36898
4.93102 -6.85008 1.41198
5.14302 -6.85008 0.243977
5.16702 -6.79861 0.247977
4.37202 -6.97624 2.30798
4.31102 -7.21208 2.19898
4.79702 -7.21208 1.30698
4.88402 -6.97624 1.37398
4.99202 -7.21208 0.221977
5.09002 -6.97624 0.235977
4.88802 -7.21208 -0.876023
4.98302 -6.97624 -0.915023
5.03402 -6.85008 -0.937023
5.06802 -6.78684 -0.961023
5.05802 -6.79861 -0.950023
1.61702 -6.78684 2.90198
1.62602 -6.79861 2.87398
1.64302 -6.85008 2.83598
2.60002 -6.85008 3.07398
2.59402 -6.79861 3.11598
2.59002 -6.78684 3.14598
1.74402 -7.21208 2.63898
1.67902 -6.97624 2.76498
2.63502 -7.21208 2.85798
2.61302 -6.97624 2.99698
3.54002 -7.21208 2.71298
3.56202 -6.97624 2.84598
3.57402 -6.85008 2.92098
3.58002 -6.78684 2.98998
3.57902 -6.79861 2.96098
1.30002 -9.10113 -0.747023
1.64302 -9.10113 -1.41302
1.59702 -9.55932 -1.48202
1.24202 -9.55933 -0.783023
1.55102 -9.93866 -1.55002
1.17902 -9.94321 -0.818023
0.992023 -9.95067 0.098977
1.08202 -9.56183 0.086977
1.16102 -9.10489 0.080977
1.61102 -10.216 -1.48702
1.23802 -10.2342 -0.779023
1.03602 -10.2615 0.131977
0.964023 -10.2706 2.22398
0.967023 -10.2706 1.19598
0.955023 -9.96074 2.04298
0.941023 -9.95482 1.09898
1.15102 -9.59304 1.88198
1.49602 -9.14504 1.81698
1.21502 -9.11617 0.957977
1.08202 -9.56936 1.01398
3.53002 -9.10113 -1.78302
4.07602 -9.10113 -1.37102
4.14002 -9.55932 -1.45602
3.56702 -9.55933 -1.88402
4.20202 -9.93866 -1.53402
3.60102 -9.94321 -1.98502
2.88002 -9.94776 -2.14102
2.87402 -9.55932 -2.03102
2.86902 -9.10113 -1.92902
4.15502 -10.216 -1.47702
3.57302 -10.2342 -1.93102
2.88502 -10.2524 -2.09602
2.19602 -10.2342 -1.93602
2.15702 -9.94321 -1.99302
2.20302 -9.10113 -1.80702
2.17902 -9.55932 -1.89802
4.42502 -9.11617 1.01198
4.12302 -9.14504 1.85698
4.52302 -9.59304 1.91198
4.60502 -9.56936 1.04798
4.75902 -9.96074 2.06398
4.78202 -9.95482 1.11998
4.74202 -9.95067 0.120977
4.62202 -9.56183 0.122977
4.50702 -9.10489 0.137977
4.78102 -10.2706 2.23598
4.78402 -10.2706 1.20798
4.72102 -10.2615 0.143977
4.52402 -10.2342 -0.768023
4.56502 -9.94321 -0.798023
4.39602 -9.10113 -0.693023
4.48002 -9.55932 -0.750023
2.28302 -9.54091 3.59198
1.91002 -9.60811 3.56898
1.70102 -9.76333 3.80598
2.20902 -9.74512 3.94898
1.55602 -9.98966 4.07098
2.14202 -9.98966 4.24198
2.84502 -9.98966 4.30198
2.82802 -9.72691 3.98798
2.81602 -9.50774 3.60598
1.58902 -10.216 4.25098
1.74202 -10.3712 4.31798
2.19902 -10.4384 4.47098
2.17202 -10.2342 4.42798
2.87702 -10.4716 4.54798
2.86202 -10.2524 4.50198
3.55102 -10.4384 4.47498
4.00102 -10.3712 4.32498
4.13302 -10.216 4.25998
3.55002 -10.2342 4.43398
4.13702 -9.98966 4.08298
3.54902 -9.98966 4.24898
3.96402 -9.76333 3.81998
3.73702 -9.60811 3.58298
3.35402 -9.54091 3.59998
3.45102 -9.74512 3.95698
2.12102 -8.96399 2.13198
1.61502 -9.35891 2.42498
2.17202 -9.19475 2.41198
1.68602 -9.46224 2.90698
2.21702 -9.32007 2.81298
2.80802 -9.27329 2.79798
2.80202 -9.14291 2.44298
2.78502 -8.9155 2.22498
1.78602 -9.54091 3.30398
2.26902 -9.41734 3.20998
2.81102 -9.37572 3.19798
3.85702 -9.54091 3.32098
3.35802 -9.41734 3.21998
3.95402 -9.46224 2.92798
3.40502 -9.32007 2.82598
4.01902 -9.35891 2.45198
3.46102 -8.96399 2.15498
3.44002 -9.19475 2.42798
1.27302 -10.5047 3.23498
0.961023 -10.2706 3.03198
1.33102 -10.4882 3.83598
1.02502 -10.2615 3.62498
1.02702 -9.98562 3.37298
0.964023 -9.9735 2.79598
1.50802 -10.4384 4.18598
1.22002 -10.2342 4.00698
1.20402 -9.98966 3.78898
1.41202 -9.74512 3.52598
1.26802 -9.70164 3.11298
1.19702 -9.64404 2.57398
4.49202 -10.5047 3.24098
3.79602 -10.6452 3.35898
4.42902 -10.4882 3.84298
3.75902 -10.6244 3.97498
2.89102 -10.6699 4.02298
2.89202 -10.692 3.39798
4.24402 -10.4384 4.19198
3.64902 -10.562 4.33498
2.88602 -10.6036 4.39698
2.11802 -10.562 4.33198
2.01802 -10.6244 3.97298
1.98402 -10.6452 3.35698
4.47202 -9.64404 2.59998
4.40002 -9.70164 3.13498
4.67502 -9.98562 3.39098
4.74302 -9.9735 2.81498
4.25502 -9.74512 3.54398
4.49202 -9.98966 3.80498
4.50702 -10.2342 4.01898
4.70902 -10.2615 3.63698
4.77802 -10.2706 3.04498
1.17802 -7.59258 1.90698
1.84902 -7.59258 2.43598
1.34902 -8.06849 1.75798
1.96102 -8.05846 2.23198
2.71102 -8.05135 2.40398
2.67002 -7.59258 2.63498
1.48202 -8.59055 1.68298
2.05202 -8.55041 2.10098
2.75302 -8.52198 2.23998
4.06102 -8.59055 1.74698
3.46502 -8.55041 2.13598
4.11602 -8.06849 1.84898
3.47202 -8.05846 2.28098
4.21202 -7.59258 2.02198
3.50402 -7.59258 2.49898
4.65802 -7.59258 1.19998
4.51402 -8.07017 1.09298
4.66602 -8.06829 0.173977
4.83402 -7.59258 0.198977
4.41602 -8.59724 1.02798
4.53902 -8.58972 0.154977
4.11502 -8.58721 -1.40602
4.44102 -8.58721 -0.699023
4.21902 -8.06766 -1.51902
4.57002 -8.06766 -0.746023
4.35202 -7.59258 -1.66602
4.73402 -7.59258 -0.812023
3.68202 -7.59258 -2.19502
3.60902 -8.06766 -1.99602
2.86302 -8.06766 -2.17302
2.86102 -7.59258 -2.39402
3.55102 -8.58721 -1.84002
2.86502 -8.58721 -1.99702
1.58702 -8.58721 -1.47102
2.17202 -8.58721 -1.87502
1.46602 -8.06766 -1.60902
2.10602 -8.06766 -2.04502
1.31802 -7.59258 -1.78102
2.02702 -7.59258 -2.25802
0.873023 -7.59258 -0.959023
1.06502 -8.06766 -0.861023
0.909023 -8.06829 0.050977
0.696023 -7.59258 0.041977
1.22402 -8.58721 -0.782023
1.08302 -8.58972 0.065977
1.16402 -8.59724 0.945977
1.00102 -8.07017 0.977977
0.796023 -7.59258 1.05298
0.811023 -6.77978 2.29498
2.58502 -6.77978 3.18898
4.43202 -6.77978 2.45698
3.58102 -6.77978 3.02998
4.44302 -6.77625 2.52298
3.58302 -6.77625 3.11298
4.63202 -6.77978 -2.01602
3 0 1 2
3 0 2 3
3 2 4 5
3 2 5 3
3 5 6 7
3 5 7 3
3 7 8 0
3 7 0 3
3 9 10 11
3 9 11 12
3 11 13 14
3 11 14 12
3 14 6 5
3 14 5 12
3 5 4 9
3 5 9 12
3 15 16 17
3 15 17 18
3 17 19 20
3 17 20 18
3 20 6 14
3 20 14 18
3 14 13 15
3 14 15 18
3 21 22 23
3 21 23 24
3 23 8 7
3 23 7 24
3 7 6 20
3 7 20 24
3 20 19 21
3 20 21 24
3 25 26 27
3 26 28 29
3 26 29 27
3 29 30 31
3 29 31 27
3 31 25 27
3 32 33 34
3 32 34 35
3 34 36 37
3 34 37 35
3 37 30 29
3 37 29 35
3 29 28 32
3 29 32 35
3 38 39 40
3 38 40 41
3 40 42 43
3 40 43 41
3 43 30 37
3 43 37 41
3 37 36 38
3 37 38 41
3 44 45 46
3 44 46 47
3 46 31 47
3 31 30 43
3 31 43 47
3 43 42 44
3 43 44 47
3 48 49 50
3 48 50 51
3 50 52 53
3 50 53 51
3 53 54 55
3 53 55 51
3 55 48 51
3 56 57 58
3 56 58 59
3 58 60 61
3 58 61 59
3 61 54 53
3 61 53 59
3 53 52 56
3 53 56 59
3 62 33 32
3 62 32 63
3 32 28 64
3 32 64 63
3 64 54 61
3 64 61 63
3 61 60 62
3 61 62 63
3 55 54 64
3 65 66 67
3 65 67 68
3 67 69 70
3 67 70 68
3 70 71 72
3 70 72 68
3 72 65 68
3 73 74 75
3 73 75 76
3 75 77 78
3 75 78 76
3 78 71 70
3 78 70 76
3 70 69 73
3 70 73 76
3 79 57 56
3 79 56 80
3 56 52 81
3 56 81 80
3 81 71 78
3 81 78 80
3 78 77 79
3 78 79 80
3 50 49 82
3 50 82 83
3 72 71 81
3 72 81 83
3 81 52 50
3 81 50 83
3 84 45 44
3 84 44 85
3 44 42 86
3 44 86 85
3 86 87 88
3 86 88 85
3 88 89 84
3 88 84 85
3 40 39 90
3 40 90 91
3 90 92 93
3 90 93 91
3 93 87 86
3 93 86 91
3 86 42 40
3 86 40 91
3 94 74 73
3 94 73 95
3 73 69 96
3 73 96 95
3 96 87 93
3 96 93 95
3 93 92 94
3 93 94 95
3 67 66 97
3 67 97 98
3 97 89 88
3 97 88 98
3 88 87 96
3 88 96 98
3 96 69 67
3 96 67 98
3 99 100 101
3 99 101 102
3 101 103 104
3 101 104 102
3 104 105 106
3 104 106 102
3 106 107 99
3 106 99 102
3 108 1 0
3 108 0 109
3 0 8 110
3 0 110 109
3 110 105 104
3 110 104 109
3 104 103 108
3 104 108 109
3 23 22 111
3 23 111 112
3 111 113 114
3 111 114 112
3 114 105 110
3 114 110 112
3 110 8 23
3 110 23 112
3 115 116 117
3 115 117 118
3 117 107 106
3 117 106 118
3 106 105 114
3 106 114 118
3 114 113 115
3 114 115 118
3 119 120 121
3 119 121 122
3 121 123 124
3 121 124 122
3 124 125 126
3 124 126 122
3 126 127 119
3 126 119 122
3 128 10 9
3 128 9 129
3 9 4 130
3 9 130 129
3 130 125 124
3 130 124 129
3 124 123 128
3 124 128 129
3 2 1 108
3 2 108 131
3 108 103 132
3 108 132 131
3 132 125 130
3 132 130 131
3 130 4 2
3 130 2 131
3 101 100 133
3 101 133 134
3 133 127 126
3 133 126 134
3 126 125 132
3 126 132 134
3 132 103 101
3 132 101 134
3 135 136 137
3 135 137 138
3 137 139 140
3 137 140 138
3 140 141 142
3 140 142 138
3 142 143 135
3 142 135 138
3 144 16 15
3 144 15 145
3 15 13 146
3 15 146 145
3 146 141 140
3 146 140 145
3 140 139 144
3 140 144 145
3 11 10 128
3 11 128 147
3 128 123 148
3 128 148 147
3 148 141 146
3 148 146 147
3 146 13 11
3 146 11 147
3 121 120 149
3 121 149 150
3 149 143 142
3 149 142 150
3 142 141 148
3 142 148 150
3 148 123 121
3 148 121 150
3 151 152 153
3 151 153 154
3 153 155 156
3 153 156 154
3 156 157 158
3 156 158 154
3 158 159 151
3 158 151 154
3 160 161 162
3 160 162 163
3 162 164 165
3 162 165 163
3 165 157 156
3 165 156 163
3 156 155 160
3 156 160 163
3 166 167 168
3 166 168 169
3 168 170 171
3 168 171 169
3 171 157 165
3 171 165 169
3 165 164 166
3 165 166 169
3 172 173 174
3 172 174 175
3 174 159 158
3 174 158 175
3 158 157 171
3 158 171 175
3 171 170 172
3 171 172 175
3 176 116 177
3 176 177 178
3 177 179 180
3 177 180 178
3 180 181 182
3 180 182 178
3 182 183 176
3 182 176 178
3 184 152 151
3 184 151 185
3 151 159 186
3 151 186 185
3 186 181 180
3 186 180 185
3 180 179 184
3 180 184 185
3 174 173 187
3 174 187 188
3 187 189 190
3 187 190 188
3 190 181 186
3 190 186 188
3 186 159 174
3 186 174 188
3 191 136 192
3 191 192 193
3 192 183 182
3 192 182 193
3 182 181 190
3 182 190 193
3 190 189 191
3 190 191 193
3 111 22 194
3 111 194 195
3 194 196 197
3 194 197 195
3 197 198 199
3 197 199 195
3 199 113 111
3 199 111 195
3 200 161 160
3 200 160 201
3 160 155 202
3 160 202 201
3 202 198 197
3 202 197 201
3 197 196 200
3 197 200 201
3 153 152 184
3 153 184 203
3 184 179 204
3 184 204 203
3 204 198 202
3 204 202 203
3 202 155 153
3 202 153 203
3 177 116 115
3 177 115 205
3 115 113 199
3 115 199 205
3 199 198 204
3 199 204 205
3 204 179 177
3 204 177 205
3 17 16 206
3 17 206 207
3 206 208 209
3 206 209 207
3 209 210 211
3 209 211 207
3 211 19 17
3 211 17 207
3 212 167 166
3 212 166 213
3 166 164 214
3 166 214 213
3 214 210 209
3 214 209 213
3 209 208 212
3 209 212 213
3 162 161 200
3 162 200 215
3 200 196 216
3 200 216 215
3 216 210 214
3 216 214 215
3 214 164 162
3 214 162 215
3 194 22 21
3 194 21 217
3 21 19 211
3 21 211 217
3 211 210 216
3 211 216 217
3 216 196 194
3 216 194 217
3 137 136 191
3 137 191 218
3 191 189 219
3 191 219 218
3 219 220 221
3 219 221 218
3 221 139 137
3 221 137 218
3 187 173 172
3 187 172 222
3 172 170 223
3 172 223 222
3 223 220 219
3 223 219 222
3 219 189 187
3 219 187 222
3 168 167 212
3 168 212 224
3 212 208 225
3 212 225 224
3 225 220 223
3 225 223 224
3 223 170 168
3 223 168 224
3 206 16 144
3 206 144 226
3 144 139 221
3 144 221 226
3 221 220 225
3 221 225 226
3 225 208 206
3 225 206 226
3 90 39 227
3 90 227 228
3 227 229 230
3 227 230 228
3 230 231 232
3 230 232 228
3 232 92 90
3 232 90 228
3 233 116 176
3 233 176 234
3 176 183 235
3 176 235 234
3 235 231 230
3 235 230 234
3 230 229 233
3 230 233 234
3 192 136 236
3 192 236 237
3 236 238 239
3 236 239 237
3 239 231 235
3 239 235 237
3 235 183 192
3 235 192 237
3 240 74 94
3 240 94 241
3 94 92 232
3 94 232 241
3 232 231 239
3 232 239 241
3 239 238 240
3 239 240 241
3 75 74 240
3 75 240 242
3 240 238 243
3 240 243 242
3 243 244 245
3 243 245 242
3 245 77 75
3 245 75 242
3 236 136 135
3 236 135 246
3 135 143 247
3 135 247 246
3 247 244 243
3 247 243 246
3 243 238 236
3 243 236 246
3 149 120 248
3 149 248 249
3 248 250 251
3 248 251 249
3 251 244 247
3 251 247 249
3 247 143 149
3 247 149 249
3 252 57 79
3 252 79 253
3 79 77 245
3 79 245 253
3 245 244 251
3 245 251 253
3 251 250 252
3 251 252 253
3 58 57 252
3 58 252 254
3 252 250 255
3 252 255 254
3 255 256 257
3 255 257 254
3 257 60 58
3 257 58 254
3 248 120 119
3 248 119 258
3 119 127 259
3 119 259 258
3 259 256 255
3 259 255 258
3 255 250 248
3 255 248 258
3 133 100 260
3 133 260 261
3 260 262 263
3 260 263 261
3 263 256 259
3 263 259 261
3 259 127 133
3 259 133 261
3 264 33 62
3 264 62 265
3 62 60 257
3 62 257 265
3 257 256 263
3 257 263 265
3 263 262 264
3 263 264 265
3 34 33 264
3 34 264 266
3 264 262 267
3 264 267 266
3 267 268 269
3 267 269 266
3 269 36 34
3 269 34 266
3 260 100 99
3 260 99 270
3 99 107 271
3 99 271 270
3 271 268 267
3 271 267 270
3 267 262 260
3 267 260 270
3 117 116 233
3 117 233 272
3 233 229 273
3 233 273 272
3 273 268 271
3 273 271 272
3 271 107 117
3 271 117 272
3 227 39 38
3 227 38 274
3 38 36 269
3 38 269 274
3 269 268 273
3 269 273 274
3 273 229 227
3 273 227 274
3 275 45 84
3 84 89 276
3 97 66 277
3 97 277 278
3 277 279 280
3 277 280 278
3 280 276 278
3 276 89 97
3 276 97 278
3 277 66 65
3 82 49 281
3 281 49 48
3 46 45 275
