0.276323
0.251316
0.253218
0.0990174
0.104619
0.0866942
0.0685521
0.070995
0.433409
0.398882
0.392227
0.383633
0.212812
0.291638
0.363944
0.346424
0.331153
0.314815
0.0760553
0.229724
0.181832
0.212559
0.369771
0.308372
0.175598
0.061809
0.0381917
0.0130307
0.0843975
0.0542704
0.177942
0.121245
0.854706
0.839715
0.750274
0.764967
0.651705
0.775409
0.767128
0.779991
0.741123
0.790891
0.780956
0.784419
0.759194
0.718354
0.588013
0.757186
0.727434
0.681913
0.648247
0.747351
0.692553
0.784786
0.856658
0.819717
0.841407
0.699934
0.621769
0.875551
0.661758
0.796631
0.770807
0.696239
0.791478
0.747284
0.823362
0.735766
0.679138
0.788156
0.823358
0.60179
0.678245
0.7862
0.645456
0.711538
0.621767
0.875243
0.609237
0.699903
0.856532
0.620163
0.742285
0.801898
0.771348
0.746342
0.691783
0.750882
0.727434
0.681913
0.787114
0.694352
0.651416
0.78697
0.812668
0.745424
0.734557
0.780362
0.68334
0.801676
0.750212
0.764758
0.854625
0.620124
0.312995
0.700299
0.620658
0.865672
0.635746
0.7383
0.697508
0.716005
0.746177
0.680672
0.823339
0.636066
0.635507
0.797004
0.823343
0.738022
0.751158
0.653402
0.778332
0.695819
0.621769
0.86655
0.608906
0.700338
0.564496
0.61325
0.57949
0.503624
0.587845
0.540738
0.631036
0.705746
0.487411
0.61263
0.479676
0.575323
0.614333
0.517826
0.51477
0.516131
0.483954
0.517057
0.580887
0.551909
0.690471
0.500919
0.453969
0.485157
0.500487
0.581766
0.618029
0.60655
0.488194
0.460427
0.511442
0.600862
0.468462
0.682148
0.527845
0.514713
0.44684
0.503338
0.469115
0.526088
0.68817
0.537813
0.602621
0.557326
0.488199
0.53003
0.536144
0.65426
0.444203
0.602173
0.526847
0.537731
0.474932
0.498294
0.461788
0.535168
0.469002
0.524932
0.512616
0.576039
0.575843
0.494971
0.529378
0.505648
0.636117
0.54324
0.451447
0.611885
0.517554
0.462097
0.662774
0.590679
0.582778
0.523017
0.413193
0.480967
0.495986
0.591375
0.531613
0.615823
0.601819
0.490085
0.514663
0.975295
0.493967
0.614344
0.594251
0.496469
0.442818
0.613828
0.46079
0.599805
0.666834
0.588932
1
0.515646
0.625467
0.488595
0.552895
0.585428
0.509641
0.55085
0.500111
0.518119
0.519228
0.601399
0.558414
0.599059
0.596296
0.511465
0.646102
0.567736
0.651995
0.532521
0.617288
0.620937
0.562106
0.482014
0.488148
0.515501
0.587426
0.484437
0.602474
0.492814
0.504279
0.659453
0.628103
0.518056
0.462753
0.438167
0.241062
0.305332
0.326202
0.331464
0.445418
0.424343
0.146413
0.183363
0.207008
0.182498
0.229627
0.281702
0.301508
0.195264
0.26293
0.198447
0.235993
0.251023
0.247043
0.329274
0.236985
0.242626
0.40528
0.408562
0.450064
0.398139
0.321369
0.351292
0.289779
0.342526
0.490258
0.491867
0.389159
0.376923
0.942459
0.357418
0.527433
0.473352
0.163382
0.176468
0.109828
0.166079
0.217577
0.339191
0.224344
0.340482
0.121772
0.130855
0.3308
0.168705
0.297696
0.361095
0.104438
0.247919
0.458913
0.468244
0.53506
0.51232
0.273796
0.656435
0.226818
0.440996
0.466445
0.518528
0.375976
0.366973
0.440508
0.400725
0.404758
0.494372
0.13137
0.261082
0.180613
0.343462
0.300505
0.236144
0.213453
0.222595
0.214373
0.320269
0.279863
0.278387
0.31719
0.278751
0.26637
0.34281
0.458547
0.4805
0.448409
0.521599
0.369564
0.352159
0.396736
0.33152
0.468612
0.328028
0.272809
0.569418
0.22633
0.532404
0.577847
0.438314
0.22111
0.168296
0.0626439
0.321344
0.370284
0.130553
0.292483
0.088859
0.120408
0.0775133
0.204503
0.266806
0.338812
0.27079
0.264118
0.483005
0.456093
0.496565
0.467158
0.564264
0.547218
0.495771
0.539155
0.352273
0.182512
0.280598
0.279574
0.323981
0.393439
0.367161
0.279801
0.294321
0.481382
0.385283
0.452956
0.458169
0.451687
0.42615
0.305709
0.381594
0.48654
0.486505
0.433881
0.471099
0.45404
0.473277
0.488107
0.487643
0.251078
0.348124
0.29948
0.346033
0.418499
0.416341
0.420509
0.413237
0.241138
0.136831
0.134477
0.0811784
0.260433
0.337991
0
0.0218027
0.402589
0.307653
0.391947
0.342469
0.226746
0.281465
0.377985
0.262068
0.388179
0.334784
0.269535
0.225214
0.478863
0.410812
0.182321
0.416105
0.189933
0.232678
0.158042
0.288844
0.436895
0.41871
0.315463
0.277167
0.328616
0.203325
0.160296
0.120243
0.202388
0.251622
0.396885
0.374156
0.339686
0.332684
0.319229
0.29746
0.249747
0.240512
0.232552
0.255742
0.320804
0.381381
0.403622
0.333499
0.302425
0.317709
0.352929
0.364226
0.340239
0.313559
0.351473
0.336396
0.237049
0.222473
0.18035
0.208107
0.210466
0.251055
0.379939
0.363045
0.270268
0.319708
0.145301
0.234777
0.475374
0.426441
0.380072
0.423932
0.316059
0.398467
0.413676
0.438381
0.501022
0.530153
0.505023
0.549527
0.349261
0.271856
0.449101
0.247461
0.341422
0.0603302
0.28294
0.0122175
0.453567
0.370972
0.324041
0.192492
0.520051
0.52734
0.359312
0.426141
0.414744
0.383511
0.427641
0.466434
0.302023
0.220958
0.140725
0.258041
0.354252
0.30741
0.311936
0.284988
0.214003
0.25709
0.36726
0.338853
0.369519
0.336658
0.15786
0.212151
0.510031
0.48036
0.457649
0.508881
0.410286
0.459252
0.407176
0.465906
0.345799
0.390939
0.472128
0.445458
0.411993
0.46478
0.345708
0.355093
0.509736
0.513331
0.33673
0.419764
0.446032
0.358274
0.481133
0.4657
0.458333
0.435811
0.485432
0.379207
0.42336
0.425353
0.359076
0.208056
0.478251
0.502082
0.321755
0.57146
0.284925
0.566941
0.480182
0.412404
0.30309
0.39228
0.512137
0.413629
0.422718
0.412524
0.384071
0.381788
0.350409
0.357798
0.456444
0.438266
0.49581
0.494391
0.505454
0.4963
0.472813
0.471788
0.485203
0.493154
0.466819
0.504432
0.436707
0.483245
0.350955
0.411599
0.376966
0.416715
0.454437
0.450097
0.439485
0.465663
0.476643
0.468604
0.418999
0.519206
0.458821
0.547246
0.390179
0.546543
0.203407
0.212017
0.0679455
0.281095
0.511896
0.35325
0.344277
0.37665
0.312793
0.305752
0.498248
0.377197
0.419833
0.459573
0.21635
0.462088
0.399785
0.440419
0.617298
0.496106
0.619881
0.595328
0.443405
0.47268
0.757348
0.778887
0.714394
0.697319
0.666911
0.719964
0.780224
0.812479
0.640127
0.579881
0.63056
0.580925
0.663475
0.72435
0.680649
0.88679
0.615806
0.51615
0.688511
0.720456
0.679703
0.683661
0.640417
0.574755
0.757118
0.777636
0.752411
0.67326
0.724686
0.681258
0.711642
0.726708
0.821799
0.813445
0.704175
0.742743
0.737026
0.712476
0.772369
0.81323
0.662907
0.617665
0.670515
0.673601
0.717347
0.718031
0.695545
0.713197
0.73827
0.64269
0.719052
0.72171
0.732782
0.6467
0.727332
0.639264
0.792848
0.799457
0.75496
0.807218
0.744088
0.714651
0.734118
0.696568
0.753884
0.778904
0.742885
0.73076
0.734831
0.727884
0.573465
0.667356
0.580075
0.480173
0.551654
0.667078
0.699812
0.636642
0.716209
0.678111
0.561301
0.652087
0.729276
0.598588
0.684558
0.631943
0.575239
0.619673
0.753666
0.791072
0.794706
0.779844
0.738733
0.726335
0.751863
0.696665
0.79304
0.783619
0.753607
0.699474
0.74244
0.636846
0.740013
0.794759
0.621238
0.665641
0.659743
0.643583
0.711121
0.69244
0.71049
0.676688
0.663651
0.61608
0.708843
0.58588
0.743464
0.677004
0.696636
0.687268
0.822034
0.8158
0.773671
0.812248
0.733557
0.760164
0.724205
0.734571
