0.107372
0.061514
0.0775684
0.0555315
0.0362295
0.0686549
0.0603915
0.0558753
0.0949977
0.0904888
0.0436237
0.0804223
0.0251233
0.0671011
0.0923641
0.0708554
0.102678
0.0880214
0.0540698
0.0365325
0.0214169
0.0220336
0.0712659
0.0827447
0.0877659
0.0958895
0.0675809
0.0643558
0.0112566
0.0313977
0.0610914
0.0531408
0.238236
0.16486
0.232686
0.204661
0.18135
0.243731
0.212649
0.22622
0.24635
0.247922
0.250982
0.135235
0.255144
0.195094
0.199679
0.151984
0.216585
0.222723
0.25684
0.236159
0.248124
0.236584
0.251501
0.153056
0.187019
0.182083
0.299873
0.198664
0.201042
0.193079
0.260277
0.175196
0.121256
0.20623
0.144471
0.1033
0.143408
0.212802
0.139202
0.269441
0.142156
0.134384
0.299645
0.117964
0.186101
0.123041
0.277942
0.24321
0.199624
0
0.260789
0.25777
0.218235
0.254735
0.222233
0.241524
0.246466
0.218918
0.271598
0.224817
0.178239
0.102056
0.21758
0.22633
0.214521
0.12977
0.288456
0.18619
0.258079
0.22293
0.253716
0.27351
0.286057
0.21753
0.20503
0.0457158
0.335619
0.246648
0.222461
0.162173
0.155653
0.1725
0.154698
0.157419
0.131202
0.216464
0.0909348
0.120181
0.13091
0.212161
0.147594
0.31615
0.123354
0.259814
0.210558
0.0406143
0.0217631
0.16974
0.486026
0.209781
0.145661
0.11254
0.155815
0.171068
0.20848
0.156142
0.119052
0.103208
0.104923
0.119254
0.146385
0.212813
0.194183
0.229857
0.205943
0.123706
0.158804
0.277572
0.152036
0.184793
0.0827162
0.111
0.240033
0.286257
0.220434
0.218003
0.148606
0.184351
0.211936
0.211904
0.173184
0.210883
0.172909
0.139146
0.159135
0.174286
0.464165
0.712976
0.105532
0.109941
0.0829672
0.139748
0.269669
0.247196
0.227441
0.345049
0.124506
0.144483
0.216603
0.299142
0.0662624
0.135479
0.0951004
0.112663
0.316035
0.209344
0.249263
0.16409
0.161089
0.148094
0.174831
0.15797
0.276717
0.238732
0.19504
0.18542
0.149888
0.177759
0.218202
0.21015
0.124663
0.105083
0.145935
0.112513
0.206513
0.135027
0.131593
0.305228
0.0770389
0.143172
0.225338
0.227953
0.207454
0.30382
0.0901519
0.13389
0.262547
0.156659
0.200825
0.208842
0.12443
0.144165
0.123498
0.192532
0.222226
0.31292
0.134219
0.164026
0.195679
0.190863
0.228837
0.268515
0.239636
0.111872
0.198736
0.118846
0.137182
1
0.141352
0.270353
0.21762
0.112609
0.173758
0.205863
0.145531
0.24923
0.122904
0.100141
0.139171
0.474175
0.19971
0.313332
0.162714
0.192379
0.133767
0.267036
0.136621
0.114457
0.0732989
0.0782173
0.0766736
0.0729796
0.0814666
0.147462
0.0451841
0.04415
0.0321055
0.0579431
0.0795294
0.110996
0.0674156
0.0375756
0.0812848
0.0341927
0.0794028
0.072204
0.0829878
0.0955475
0.0403673
0.0686175
0.0992991
0.223886
0.0924312
0.165686
0.0948932
0.0775185
0.0961731
0.0712175
0.178412
0.123503
0.0460089
0.065977
0.0442357
0.0689957
0.38801
0.0841856
0.0260723
0.0584213
0.0548695
0.0509436
0.0440998
0.0456873
0.0921145
0.0535294
0.0370016
0.0531061
0.0756926
0.0459583
0.0596871
0.0488997
0.0553463
0.0524805
0.0793291
0.094272
0.109087
0.0793091
0.0475391
0.0506579
0.0518225
0.0548201
0.121345
0.156416
0.0728539
0.0628158
0.0802051
0.0960512
0.126778
0.125956
0.0489685
0.0389215
0.0449693
0.04151
0.0854649
0.0939486
0.0628629
0.0884519
0.0542786
0.0596797
0.112356
0.0224794
0.101993
0.0825625
0.090826
0.0640028
0.109137
0.10935
0.132735
0.134325
0.0818736
0.0918277
0.0637408
0.0829183
0.0655101
0.458298
0.22063
0.0480653
0.0804516
0.0417403
0.0715534
0.128827
0.0548153
0.0566261
0.0413759
0.0352208
0.0482179
0.0856334
0.0561237
0.0848593
0.0416386
0.046664
0.051143
0.0695166
0.0394026
0.0670601
0.0560379
0.0462379
0.0747999
0.176271
0.0796089
0.180158
0.0733453
0.0523937
0.0634676
0.0431419
0.0598072
0.0823835
0.131906
0.119789
0.158573
0.129578
0.0441531
0.050849
0.0772808
0.165306
0.168224
0.16327
0.144065
0.101967
0.128674
0.146843
0.14048
0.085075
0.145296
0.167099
0.0908402
0.173185
0.120629
0.152712
0.0671056
0.0637622
0.0479836
0.0668273
0.101192
0.101719
0.0962762
0.10649
0.0768516
0.107147
0.151182
0.131678
0.114532
0.112148
0.0775766
0.0904978
0.131509
0.170015
0.125438
0.153879
0.120583
0.145334
0.147477
0.148201
0.133492
0.165377
0.13393
0.148277
0.122347
0.145053
0.138122
0.122982
0.0772415
0.088611
0.0730982
0.063022
0.115543
0.0885165
0.108416
0.103226
0.0575367
0.0643829
0.0934313
0.117352
0.13263
0.117509
0.0266475
0.0751028
0.142911
0.146829
0.159808
0.172411
0.14823
0.109177
0.140107
0.134374
0.158271
0.104703
0.102456
0.145639
0.109561
0.134996
0.100155
0.165499
0.100987
0.110415
0.103709
0.109991
0.0888354
0.125099
0.0868382
0.109233
0.0398833
0.0614555
0.0890925
0.0878664
0.0790754
0.0917045
0.0564306
0.060648
0.0864397
0.149382
0.176163
0.145603
0.122043
0.112771
0.135747
0.140519
0.149104
0.158787
0.131095
0.131825
0.107734
0.116039
0.152915
0.138135
0.0636491
0.0757189
0.063819
0.0633501
0.0907512
0.0906804
0.0807311
0.0901734
0.154387
0.161072
0.149183
0.165325
0.158687
0.212987
0.16044
0.193556
0.151634
0.137523
0.162933
0.104165
0.192069
0.121681
0.182872
0.17958
0.116615
0.0763684
0.188212
0.183707
0.222691
0.159662
0.0877744
0.0817647
0.187366
0.175885
0.167871
0.193724
0.166315
0.166047
0.21083
0.240182
0.208587
0.195244
0.142963
0.169154
0.171413
0.10457
0.152776
0.142267
0.150835
0.159253
0.107551
0.126848
0.189359
0.181616
0.208104
0.140029
0.126982
0.114107
0.124598
0.159533
0.170818
0.160778
0.108723
0.133316
0.108808
0.154378
0.180067
0.143139
0.175056
0.183945
0.149066
0.197246
0.17859
0.150414
0.175164
0.187323
0.129733
0.19988
0.134809
0.182851
0.118306
0.108372
0.0754419
0.148262
0.191504
0.0976741
0.18796
0.153366
0.119682
0.122508
0.19503
0.124116
0.0658137
0.106814
0.111344
0.181282
0.232039
0.216081
0.204316
0.224841
0.160331
0.100953
0.190615
0.19761
0.220186
0.200229
0.132041
0.190406
0.19717
0.183189
0.17031
0.150151
0.0981008
0.123701
0.124989
0.0852921
0.185049
0.166077
0.187057
0.191223
0.120723
0.124957
0.13862
0.126363
0.174524
0.159872
0.0968967
0.088347
0.206354
0.191325
0.17347
0.183485
0.138812
0.184143
0.146416
0.172887
0.173861
0.158784
0.284654
0.205226
0.132417
0.242609
0.174108
0.108092
0.229568
0.153381
0.209276
0.0766423
0.24017
0.216123
0.299974
0.264215
0.206488
0.193712
0.264658
0.367026
0.271756
0.248082
0.171912
0.192072
0.162153
0.248005
0.27132
0.197569
0.109627
0.256687
0.239881
0.181069
0.242744
0.141461
0.236015
0.219148
0.150832
0.23087
0.242163
0.221323
0.180069
0.225252
0.213711
0.241888
0.24042
0.25713
0.251112
0.203041
0.163302
0.239699
0.234806
0.245548
0.242512
0.228241
0.210623
0.172819
0.232821
0.128027
0.21383
0.22048
0.230585
0.219661
0.125851
0.223098
0.12498
0.248297
0.0960135
0.232972
0.224744
0.250673
0.162012
0.195014
0.204536
0.228453
0.233211
0.268147
0.162083
0.143574
0.232346
0.117881
0.249998
0.201758
0.251592
0.307149
0.148536
0.112108
0.218486
0.248311
0.144521
0.196312
0.158128
0.121109
0.303286
0.244898
0.232912
0.210457
0.216158
0.223477
0.220903
0.21933
0.260496
0.232852
0.257044
0.248134
0.218759
0.221179
0.172496
0.22614
0.231576
0.23179
0.226732
0.0773441
0.200687
0.196206
0.245948
0.220196
0.24016
0.237708
0.212209
0.201397
0.205207
0.214801
0.248112
0.236697
0.246613
0.242337
0.199048
0.259843
