OFF
384 750 0
-7.88688 12.9685 -13.4044
-7.80388 13.1277 -13.0639
-7.60488 13.3099 -13.2332
-7.61988 13.149 -13.7913
-7.32888 13.3584 -13.3241
-7.31188 13.2005 -13.9121
-7.31588 12.8278 -14.2535
-7.64988 12.7912 -14.1174
-7.93688 12.6217 -13.6936
-7.06988 13.1902 -13.2533
-6.90588 12.9375 -13.093
-6.80988 12.8029 -13.4111
-7.02288 13.0624 -13.7927
-6.76788 12.5227 -13.6646
-6.99988 12.7361 -14.1013
-6.82888 12.154 -13.7041
-6.93888 11.8396 -13.5887
-7.11088 11.8125 -13.8754
-7.04588 12.2935 -14.1399
-7.37588 11.786 -14.0341
-7.33788 12.3268 -14.3066
-7.65088 11.7839 -13.9222
-7.84388 11.802 -13.6625
-7.91088 12.1712 -13.7644
-7.64488 12.3082 -14.171
-5.24688 4.9581 1.12014
-5.24588 5.0204 1.06799
-5.32388 5.0143 0.793491
-5.32588 4.9561 0.840361
-5.35088 5.0063 0.441431
-5.35188 4.9534 0.481441
-5.24388 5.17 0.959811
-5.24288 5.4475 0.764261
-5.32288 5.4136 0.502321
-5.32288 5.1541 0.690501
-5.34988 5.3689 0.166981
-5.34988 5.1333 0.345301
-5.32488 5.3235 -0.16785
-5.24788 5.2871 -0.428249
-5.24688 5.0951 -0.268247
-5.32488 5.1121 0.000350545
-5.24588 4.9916 -0.184754
-5.32488 4.9981 0.0894705
-5.32588 4.9507 0.122551
-5.24688 4.9486 -0.157136
-4.79988 5.0193 1.07391
-4.95688 5.0221 1.17977
-4.95788 4.9587 1.23376
-4.66988 5.1557 0.794951
-4.66888 5.4169 0.607251
-4.79888 5.4414 0.773521
-4.79988 5.1671 0.966891
-4.95488 5.4574 0.873001
-4.95688 5.1746 1.07021
-4.66988 5.0149 0.898141
-5.11188 5.4608 0.878871
-5.11388 5.1762 1.07712
-5.11488 5.0228 1.18727
-5.11688 4.943 1.27237
-5.11488 4.9589 1.2416
-4.67088 5.1013 -0.0981195
-4.67188 5.3003 -0.259957
-4.59288 5.3269 -0.0522395
-4.59188 5.1137 0.115361
-4.56588 5.357 0.174671
-4.56588 5.1278 0.348891
-4.56488 5.0042 0.442811
-4.59188 4.9988 0.204661
-4.66988 4.994 -0.0128795
-4.59088 5.3879 0.401071
-4.59088 5.1422 0.582191
-4.59088 5.0097 0.680871
-5.11588 4.9886 -0.303575
-5.11788 5.2699 -0.540294
-5.11588 5.0871 -0.384355
-4.96088 5.2685 -0.53135
-4.95888 5.0865 -0.376011
-4.80388 5.2797 -0.428783
-4.80188 5.0917 -0.271253
-4.80088 4.9903 -0.189114
-5.73088 7.7646 -1.37737
-5.64788 7.9249 -1.1839
-6.06088 8.7272 -1.95179
-6.14488 8.5499 -2.12131
-6.55588 9.5038 -2.82094
-6.63888 9.3191 -2.966
-6.67288 9.0761 -3.14925
-6.17788 8.3165 -2.33568
-5.76288 7.5537 -1.6225
-7.04788 10.1873 -3.78239
-7.45188 10.7107 -4.82721
-7.53088 10.5342 -4.92847
-7.12988 10.0035 -3.90416
-7.56188 10.302 -5.05631
-7.16288 9.7616 -4.05789
-7.54488 10.0656 -5.18271
-7.47688 9.8768 -5.2796
-7.07388 9.3187 -4.3264
-7.14488 9.5153 -4.20988
-6.58188 8.6311 -3.46948
-6.65388 8.8287 -3.33047
-6.08588 7.8892 -2.71081
-5.67088 7.1676 -2.05238
-5.74388 7.339 -1.86545
-6.15888 8.0789 -2.54787
-5.20488 7.8962 -1.16182
-5.07788 7.7804 -1.27839
-5.49188 8.5673 -2.03119
-5.61788 8.6954 -1.93003
-5.99088 9.3373 -2.88716
-6.11588 9.4707 -2.80109
-6.26888 9.5576 -2.75221
-5.77188 8.7789 -1.87231
-5.35888 7.9715 -1.09478
-6.49388 10.0216 -3.83738
-6.91988 10.5516 -4.87294
-7.03788 10.679 -4.81301
-6.61688 10.1544 -3.76531
-7.18188 10.7621 -4.77904
-6.76688 10.2409 -3.72447
-7.32788 10.7796 -4.78059
-6.91888 10.2591 -3.72633
-6.42388 9.5759 -2.75425
-5.51488 7.9875 -1.09592
-5.92788 8.7965 -1.87417
-5.01188 7.3555 -1.75598
-5.09388 7.2297 -1.90996
-5.50988 7.9579 -2.58316
-5.42688 8.0971 -2.44815
-6.00988 8.7027 -3.35879
-5.92788 8.8477 -3.24321
-5.89688 9.0114 -3.11893
-5.39688 8.2543 -2.30279
-4.98188 7.4976 -1.58982
-6.51288 9.3899 -4.23299
-6.93788 9.9452 -5.20192
-6.86088 10.0837 -5.12123
-6.43188 9.5342 -4.13596
-6.83188 10.2401 -5.03453
-6.40188 9.6972 -4.03169
-6.85188 10.4007 -4.94927
-6.42188 9.8644 -3.92917
-5.91788 9.1794 -2.99667
-5.00388 7.6434 -1.42584
-5.41788 8.4157 -2.15962
-5.54188 7.0862 -2.12947
-5.95788 7.7992 -2.77746
-6.45488 8.5374 -3.52606
-6.29988 8.5299 -3.51597
-5.80188 7.7919 -2.76617
-5.38588 7.0797 -2.11754
-7.35788 9.7873 -5.31897
-6.94988 9.2254 -4.37374
-7.21188 9.7801 -5.3118
-6.79788 9.2179 -4.36512
-7.06388 9.8383 -5.26912
-6.64288 9.2786 -4.31379
-6.14288 8.5909 -3.45496
-5.22788 7.1326 -2.03743
-5.64388 7.8505 -2.69528
-7.68288 11.0065 -5.94644
-7.75688 10.8424 -6.03164
-7.79088 11.1418 -7.04121
-7.85888 10.9893 -7.11575
-7.88588 10.7885 -7.20985
-7.78588 10.6263 -6.13921
-7.82488 11.1831 -8.01268
-7.83388 11.1972 -8.76198
-7.90188 11.0441 -8.83511
-7.88988 11.0361 -8.08288
-7.92888 10.8426 -8.92745
-7.91588 10.8426 -8.17151
-7.91388 10.6374 -9.01874
-7.85488 10.4736 -9.08872
-7.84588 10.4885 -8.3263
-7.90188 10.6457 -8.25913
-7.81288 10.4211 -7.37421
-7.87088 10.5842 -7.30288
-7.70688 10.2307 -6.32709
-7.76988 10.4064 -6.24556
-7.18888 10.8585 -5.98491
-7.29788 10.9771 -5.93449
-7.33188 11.0043 -7.07487
-7.43388 11.1144 -7.03076
-7.55788 11.1862 -7.00576
-7.43188 11.0544 -5.9059
-7.38188 11.0506 -8.04438
-7.37188 11.0592 -8.795
-7.47488 11.1698 -8.75172
-7.47988 11.1567 -8.00283
-7.59888 11.2418 -8.72718
-7.59988 11.2259 -7.97928
-7.72588 11.2571 -8.7283
-7.72188 11.2405 -7.98036
-7.68388 11.2013 -7.0069
-7.56788 11.0707 -5.90721
-7.20588 10.2943 -6.26173
-7.13388 10.4232 -6.19383
-7.34688 10.4802 -7.31703
-7.27988 10.5999 -7.25764
-7.25488 10.7351 -7.19381
-7.10588 10.5688 -6.12088
-7.39688 10.5454 -8.27245
-7.38788 10.5329 -9.03262
-7.32088 10.6531 -8.97434
-7.33288 10.6608 -8.21651
-7.29488 10.7889 -8.91171
-7.30788 10.7911 -8.1564
-7.31188 10.9282 -8.85013
-7.32488 10.9249 -8.0973
-7.27188 10.8739 -7.13106
-7.12488 10.7181 -6.04914
-7.59588 10.1474 -6.36021
-7.70988 10.3437 -7.40318
-7.58388 10.3374 -7.39791
-7.45988 10.1407 -6.35418
-7.75188 10.3959 -9.11715
-7.74588 10.4139 -8.35359
-7.62488 10.3896 -9.11197
-7.62488 10.4079 -8.34862
-7.49588 10.4402 -9.08114
-7.50088 10.4564 -8.31903
-7.45588 10.3878 -7.36649
-7.32188 10.1949 -6.31826
-7.86688 11.251 -9.19025
-7.94488 11.0746 -9.27453
-7.91188 11.3669 -9.45512
-8.00588 11.1551 -9.55629
-8.04388 10.8762 -9.68403
-7.97688 10.8423 -9.38094
-7.95788 11.5672 -9.71424
-7.99088 11.8743 -10.1252
-8.12388 11.5765 -10.2675
-8.07088 11.3132 -9.83556
-8.17688 11.1844 -10.4471
-8.11588 10.9788 -9.98873
-8.14688 10.7854 -10.6246
-8.03288 10.4667 -10.7608
-7.99388 10.3667 -10.2563
-8.09088 10.6385 -10.1402
-7.94188 10.3658 -9.90713
-8.02288 10.5925 -9.81032
-7.89188 10.417 -9.56681
-7.95888 10.6059 -9.48615
-7.33488 11.0919 -9.22831
-7.45288 11.2194 -9.17843
-7.27388 11.1759 -9.50081
-7.41488 11.3289 -9.44093
-7.58788 11.4286 -9.40699
-7.59688 11.3024 -9.15015
-7.19188 11.3382 -9.76902
-7.09288 11.6058 -10.1895
-7.29288 11.821 -10.1053
-7.36188 11.5217 -9.69722
-7.53488 11.9611 -10.0575
-7.56888 11.6412 -9.65652
-7.78188 11.9907 -10.0597
-7.77888 11.6664 -9.65838
-7.76288 11.4496 -9.40854
-7.74288 11.32 -9.15144
-7.35288 10.4854 -9.50215
-7.27588 10.624 -9.43499
-7.29488 10.4479 -9.82952
-7.20288 10.6142 -9.7489
-7.16788 10.802 -9.66226
-7.24688 10.7804 -9.36281
-7.21788 10.4652 -10.1632
-7.12388 10.5822 -10.6516
-6.99288 10.816 -10.5383
-7.10688 10.6646 -10.0665
-6.94388 11.0801 -10.4165
-7.06488 10.8898 -9.96263
-6.97688 11.3511 -10.2967
-7.09288 11.1209 -9.86048
-7.19088 10.9947 -9.57708
-7.26588 10.941 -9.29184
-7.77288 10.3275 -9.59957
-7.79888 10.2583 -9.94646
-7.62388 10.2496 -9.9393
-7.62588 10.3203 -9.5936
-7.83188 10.3156 -10.8161
-7.82188 10.2378 -10.3034
-7.58488 10.3034 -10.806
-7.61188 10.2274 -10.2948
-7.33488 10.4018 -10.746
-7.39788 10.3113 -10.2437
-7.44588 10.3196 -9.89665
-7.47788 10.3786 -9.55808
-7.99988 12.3108 -10.8457
-8.15088 11.9727 -11.0072
-7.97288 12.7402 -11.6985
-8.13288 12.3905 -11.8837
-8.19688 11.9303 -12.1125
-8.21088 11.5276 -11.2112
-7.89788 13.0264 -12.5063
-8.05088 12.719 -12.7257
-8.11188 12.3149 -12.9826
-7.94488 11.4641 -13.2117
-8.07788 11.8492 -13.1184
-8.02388 11.0601 -12.4571
-8.16088 11.4484 -12.3091
-8.04788 10.7127 -11.5673
-8.17788 11.0746 -11.4127
-6.98088 12.0059 -10.9186
-7.20688 12.2502 -10.8231
-6.89388 12.4285 -11.7708
-7.13288 12.6941 -11.6843
-7.42288 12.8669 -11.6427
-7.48288 12.4093 -10.7689
-6.87188 12.7637 -12.5599
-7.09688 13.0374 -12.5224
-7.36888 13.2153 -12.531
-7.65288 13.2017 -12.4836
-7.71988 12.8907 -11.6328
-7.76188 12.4429 -10.7713
-7.01588 10.8438 -11.4434
-6.86688 11.1093 -11.3147
-6.93088 11.1879 -12.3309
-6.77188 11.4775 -12.2085
-6.70988 11.8044 -12.0755
-6.81188 11.4091 -11.1764
-6.90788 11.5521 -13.1069
-6.74888 11.8539 -13.0327
-6.68388 12.1939 -12.9472
-6.72888 12.4899 -12.7455
-6.75188 12.1267 -11.9154
-6.84888 11.7167 -11.0404
-7.81988 10.5411 -11.6301
-7.78088 10.881 -12.5402
-7.48388 10.8678 -12.5453
-7.53988 10.5273 -11.6186
-7.70988 11.3017 -13.3414
-7.42688 11.2935 -13.3987
-7.14688 11.3712 -13.2748
-7.18488 10.9774 -12.4594
-7.25588 10.639 -11.5506
-4.66688 5.8367 0.305611
-4.79688 5.8822 0.462741
-4.70688 6.3884 -0.109529
-4.83588 6.4588 0.0357805
-4.99088 6.5047 0.121251
-4.95288 5.9119 0.556071
-4.82988 7.0452 -0.637681
-4.95788 7.1404 -0.50614
-5.11288 7.2023 -0.429648
-5.40088 7.164 -0.526221
-5.26888 7.2155 -0.429308
-5.27988 6.4763 0.0191205
-5.14788 6.5144 0.123481
-5.24088 5.8935 0.449991
-5.10888 5.9181 0.560271
-5.32088 5.8305 0.199901
-5.36088 6.3788 -0.215218
-5.39088 6.2504 -0.513813
-5.34988 5.7476 -0.119607
-5.48388 7.0322 -0.741491
-5.51488 6.8588 -1.01499
-5.41988 6.5412 -1.49619
-5.49388 6.6822 -1.2866
-5.29288 6.0155 -1.04095
-5.36888 6.1198 -0.810959
-5.24988 5.5957 -0.685391
-5.32588 5.6631 -0.438165
-5.11988 5.5637 -0.790908
-5.16388 5.966 -1.13806
-5.00788 5.9621 -1.12713
-4.96288 5.5612 -0.781
-5.29088 6.4744 -1.58363
-5.13488 6.469 -1.57192
-4.84388 6.5923 -1.34305
-4.97688 6.5125 -1.48407
-4.71688 6.0533 -0.880419
-4.84988 5.9943 -1.03298
-4.67388 5.6201 -0.520056
-4.80588 5.582 -0.681954
-4.59388 5.6696 -0.321591
-4.63688 6.1298 -0.694279
-4.60788 6.2163 -0.492074
-4.56588 5.7255 -0.105319
-4.76188 6.6958 -1.17188
-4.73288 6.8126 -0.986578
-4.75488 6.9325 -0.803169
-4.63088 6.305 -0.291318
-4.59088 5.7828 0.110001
3 0 1 2
3 0 2 3
3 2 4 5
3 2 5 3
3 5 6 7
3 5 7 3
3 7 8 0
3 7 0 3
3 9 10 11
3 9 11 12
3 11 13 14
3 11 14 12
3 14 6 5
3 14 5 12
3 5 4 9
3 5 9 12
3 15 16 17
3 15 17 18
3 17 19 20
3 17 20 18
3 20 6 14
3 20 14 18
3 14 13 15
3 14 15 18
3 21 22 23
3 21 23 24
3 23 8 7
3 23 7 24
3 7 6 20
3 7 20 24
3 20 19 21
3 20 21 24
3 25 26 27
3 25 27 28
3 27 29 30
3 27 30 28
3 31 32 33
3 31 33 34
3 33 35 36
3 33 36 34
3 36 29 27
3 36 27 34
3 27 26 31
3 27 31 34
3 37 38 39
3 37 39 40
3 39 41 42
3 39 42 40
3 42 29 36
3 42 36 40
3 36 35 37
3 36 37 40
3 30 29 42
3 30 42 43
3 42 41 44
3 42 44 43
3 45 46 47
3 48 49 50
3 48 50 51
3 50 52 53
3 50 53 51
3 53 46 45
3 53 45 51
3 45 54 48
3 45 48 51
3 55 32 31
3 55 31 56
3 31 26 57
3 31 57 56
3 57 46 53
3 57 53 56
3 53 52 55
3 53 55 56
3 25 58 59
3 58 47 59
3 47 46 57
3 47 57 59
3 57 26 25
3 57 25 59
3 60 61 62
3 60 62 63
3 62 64 65
3 62 65 63
3 65 66 67
3 65 67 63
3 67 68 60
3 67 60 63
3 69 49 48
3 69 48 70
3 48 54 71
3 48 71 70
3 71 66 65
3 71 65 70
3 65 64 69
3 65 69 70
3 44 41 72
3 39 38 73
3 39 73 74
3 73 75 76
3 73 76 74
3 76 72 74
3 72 41 39
3 72 39 74
3 77 61 60
3 77 60 78
3 60 68 79
3 60 79 78
3 79 76 78
3 76 75 77
3 76 77 78
3 80 81 82
3 80 82 83
3 82 84 85
3 82 85 83
3 85 86 87
3 85 87 83
3 87 88 80
3 87 80 83
3 89 90 91
3 89 91 92
3 91 93 94
3 91 94 92
3 94 86 85
3 94 85 92
3 85 84 89
3 85 89 92
3 95 96 97
3 95 97 98
3 97 99 100
3 97 100 98
3 100 86 94
3 100 94 98
3 94 93 95
3 94 95 98
3 101 102 103
3 101 103 104
3 103 88 87
3 103 87 104
3 87 86 100
3 87 100 104
3 100 99 101
3 100 101 104
3 105 106 107
3 105 107 108
3 107 109 110
3 107 110 108
3 110 111 112
3 110 112 108
3 112 113 105
3 112 105 108
3 114 115 116
3 114 116 117
3 116 118 119
3 116 119 117
3 119 111 110
3 119 110 117
3 110 109 114
3 110 114 117
3 120 90 89
3 120 89 121
3 89 84 122
3 89 122 121
3 122 111 119
3 122 119 121
3 119 118 120
3 119 120 121
3 82 81 123
3 82 123 124
3 123 113 112
3 123 112 124
3 112 111 122
3 112 122 124
3 122 84 82
3 122 82 124
3 125 126 127
3 125 127 128
3 127 129 130
3 127 130 128
3 130 131 132
3 130 132 128
3 132 133 125
3 132 125 128
3 134 135 136
3 134 136 137
3 136 138 139
3 136 139 137
3 139 131 130
3 139 130 137
3 130 129 134
3 130 134 137
3 140 115 114
3 140 114 141
3 114 109 142
3 114 142 141
3 142 131 139
3 142 139 141
3 139 138 140
3 139 140 141
3 107 106 143
3 107 143 144
3 143 133 132
3 143 132 144
3 132 131 142
3 132 142 144
3 142 109 107
3 142 107 144
3 145 102 101
3 145 101 146
3 101 99 147
3 101 147 146
3 147 148 149
3 147 149 146
3 149 150 145
3 149 145 146
3 97 96 151
3 97 151 152
3 151 153 154
3 151 154 152
3 154 148 147
3 154 147 152
3 147 99 97
3 147 97 152
3 155 135 134
3 155 134 156
3 134 129 157
3 134 157 156
3 157 148 154
3 157 154 156
3 154 153 155
3 154 155 156
3 127 126 158
3 127 158 159
3 158 150 149
3 158 149 159
3 149 148 157
3 149 157 159
3 157 129 127
3 157 127 159
3 91 90 160
3 91 160 161
3 160 162 163
3 160 163 161
3 163 164 165
3 163 165 161
3 165 93 91
3 165 91 161
3 166 167 168
3 166 168 169
3 168 170 171
3 168 171 169
3 171 164 163
3 171 163 169
3 163 162 166
3 163 166 169
3 172 173 174
3 172 174 175
3 174 176 177
3 174 177 175
3 177 164 171
3 177 171 175
3 171 170 172
3 171 172 175
3 178 96 95
3 178 95 179
3 95 93 165
3 95 165 179
3 165 164 177
3 165 177 179
3 177 176 178
3 177 178 179
3 116 115 180
3 116 180 181
3 180 182 183
3 180 183 181
3 183 184 185
3 183 185 181
3 185 118 116
3 185 116 181
3 186 187 188
3 186 188 189
3 188 190 191
3 188 191 189
3 191 184 183
3 191 183 189
3 183 182 186
3 183 186 189
3 192 167 166
3 192 166 193
3 166 162 194
3 166 194 193
3 194 184 191
3 194 191 193
3 191 190 192
3 191 192 193
3 160 90 120
3 160 120 195
3 120 118 185
3 120 185 195
3 185 184 194
3 185 194 195
3 194 162 160
3 194 160 195
3 136 135 196
3 136 196 197
3 196 198 199
3 196 199 197
3 199 200 201
3 199 201 197
3 201 138 136
3 201 136 197
3 202 203 204
3 202 204 205
3 204 206 207
3 204 207 205
3 207 200 199
3 207 199 205
3 199 198 202
3 199 202 205
3 208 187 186
3 208 186 209
3 186 182 210
3 186 210 209
3 210 200 207
3 210 207 209
3 207 206 208
3 207 208 209
3 180 115 140
3 180 140 211
3 140 138 201
3 140 201 211
3 201 200 210
3 201 210 211
3 210 182 180
3 210 180 211
3 151 96 178
3 151 178 212
3 178 176 213
3 178 213 212
3 213 214 215
3 213 215 212
3 215 153 151
3 215 151 212
3 174 173 216
3 174 216 217
3 216 218 219
3 216 219 217
3 219 214 213
3 219 213 217
3 213 176 174
3 213 174 217
3 220 203 202
3 220 202 221
3 202 198 222
3 202 222 221
3 222 214 219
3 222 219 221
3 219 218 220
3 219 220 221
3 196 135 155
3 196 155 223
3 155 153 215
3 155 215 223
3 215 214 222
3 215 222 223
3 222 198 196
3 222 196 223
3 168 167 224
3 168 224 225
3 224 226 227
3 224 227 225
3 227 228 229
3 227 229 225
3 229 170 168
3 229 168 225
3 230 231 232
3 230 232 233
3 232 234 235
3 232 235 233
3 235 228 227
3 235 227 233
3 227 226 230
3 227 230 233
3 236 237 238
3 236 238 239
3 238 240 241
3 238 241 239
3 241 228 235
3 241 235 239
3 235 234 236
3 235 236 239
3 242 173 172
3 242 172 243
3 172 170 229
3 172 229 243
3 229 228 241
3 229 241 243
3 241 240 242
3 241 242 243
3 188 187 244
3 188 244 245
3 244 246 247
3 244 247 245
3 247 248 249
3 247 249 245
3 249 190 188
3 249 188 245
3 250 251 252
3 250 252 253
3 252 254 255
3 252 255 253
3 255 248 247
3 255 247 253
3 247 246 250
3 247 250 253
3 256 231 230
3 256 230 257
3 230 226 258
3 230 258 257
3 258 248 255
3 258 255 257
3 255 254 256
3 255 256 257
3 224 167 192
3 224 192 259
3 192 190 249
3 192 249 259
3 249 248 258
3 249 258 259
3 258 226 224
3 258 224 259
3 204 203 260
3 204 260 261
3 260 262 263
3 260 263 261
3 263 264 265
3 263 265 261
3 265 206 204
3 265 204 261
3 266 267 268
3 266 268 269
3 268 270 271
3 268 271 269
3 271 264 263
3 271 263 269
3 263 262 266
3 263 266 269
3 272 251 250
3 272 250 273
3 250 246 274
3 250 274 273
3 274 264 271
3 274 271 273
3 271 270 272
3 271 272 273
3 244 187 208
3 244 208 275
3 208 206 265
3 208 265 275
3 265 264 274
3 265 274 275
3 274 246 244
3 274 244 275
3 216 173 242
3 216 242 276
3 242 240 277
3 242 277 276
3 277 278 279
3 277 279 276
3 279 218 216
3 279 216 276
3 238 237 280
3 238 280 281
3 280 282 283
3 280 283 281
3 283 278 277
3 283 277 281
3 277 240 238
3 277 238 281
3 284 267 266
3 284 266 285
3 266 262 286
3 266 286 285
3 286 278 283
3 286 283 285
3 283 282 284
3 283 284 285
3 260 203 220
3 260 220 287
3 220 218 279
3 220 279 287
3 279 278 286
3 279 286 287
3 286 262 260
3 286 260 287
3 232 231 288
3 232 288 289
3 288 290 291
3 288 291 289
3 291 292 293
3 291 293 289
3 293 234 232
3 293 232 289
3 294 1 0
3 294 0 295
3 0 8 296
3 0 296 295
3 296 292 291
3 296 291 295
3 291 290 294
3 291 294 295
3 23 22 297
3 23 297 298
3 297 299 300
3 297 300 298
3 300 292 296
3 300 296 298
3 296 8 23
3 296 23 298
3 301 237 236
3 301 236 302
3 236 234 293
3 236 293 302
3 293 292 300
3 293 300 302
3 300 299 301
3 300 301 302
3 252 251 303
3 252 303 304
3 303 305 306
3 303 306 304
3 306 307 308
3 306 308 304
3 308 254 252
3 308 252 304
3 309 10 9
3 309 9 310
3 9 4 311
3 9 311 310
3 311 307 306
3 311 306 310
3 306 305 309
3 306 309 310
3 2 1 294
3 2 294 312
3 294 290 313
3 294 313 312
3 313 307 311
3 313 311 312
3 311 4 2
3 311 2 312
3 288 231 256
3 288 256 314
3 256 254 308
3 256 308 314
3 308 307 313
3 308 313 314
3 313 290 288
3 313 288 314
3 268 267 315
3 268 315 316
3 315 317 318
3 315 318 316
3 318 319 320
3 318 320 316
3 320 270 268
3 320 268 316
3 321 16 15
3 321 15 322
3 15 13 323
3 15 323 322
3 323 319 318
3 323 318 322
3 318 317 321
3 318 321 322
3 11 10 309
3 11 309 324
3 309 305 325
3 309 325 324
3 325 319 323
3 325 323 324
3 323 13 11
3 323 11 324
3 303 251 272
3 303 272 326
3 272 270 320
3 272 320 326
3 320 319 325
3 320 325 326
3 325 305 303
3 325 303 326
3 280 237 301
3 280 301 327
3 301 299 328
3 301 328 327
3 328 329 330
3 328 330 327
3 330 282 280
3 330 280 327
3 297 22 21
3 297 21 331
3 21 19 332
3 21 332 331
3 332 329 328
3 332 328 331
3 328 299 297
3 328 297 331
3 17 16 321
3 17 321 333
3 321 317 334
3 321 334 333
3 334 329 332
3 334 332 333
3 332 19 17
3 332 17 333
3 315 267 284
3 315 284 335
3 284 282 330
3 284 330 335
3 330 329 334
3 330 334 335
3 334 317 315
3 334 315 335
3 50 49 336
3 50 336 337
3 336 338 339
3 336 339 337
3 339 340 341
3 339 341 337
3 341 52 50
3 341 50 337
3 342 106 105
3 342 105 343
3 105 113 344
3 105 344 343
3 344 340 339
3 344 339 343
3 339 338 342
3 339 342 343
3 123 81 345
3 123 345 346
3 345 347 348
3 345 348 346
3 348 340 344
3 348 344 346
3 344 113 123
3 344 123 346
3 349 32 55
3 349 55 350
3 55 52 341
3 55 341 350
3 341 340 348
3 341 348 350
3 348 347 349
3 348 349 350
3 33 32 349
3 33 349 351
3 349 347 352
3 349 352 351
3 352 353 354
3 352 354 351
3 354 35 33
3 354 33 351
3 345 81 80
3 345 80 355
3 80 88 356
3 80 356 355
3 356 353 352
3 356 352 355
3 352 347 345
3 352 345 355
3 103 102 357
3 103 357 358
3 357 359 360
3 357 360 358
3 360 353 356
3 360 356 358
3 356 88 103
3 356 103 358
3 361 38 37
3 361 37 362
3 37 35 354
3 37 354 362
3 354 353 360
3 354 360 362
3 360 359 361
3 360 361 362
3 73 38 361
3 73 361 363
3 361 359 364
3 361 364 363
3 364 365 366
3 364 366 363
3 366 75 73
3 366 73 363
3 357 102 145
3 357 145 367
3 145 150 368
3 145 368 367
3 368 365 364
3 368 364 367
3 364 359 357
3 364 357 367
3 158 126 369
3 158 369 370
3 369 371 372
3 369 372 370
3 372 365 368
3 372 368 370
3 368 150 158
3 368 158 370
3 373 61 77
3 373 77 374
3 77 75 366
3 77 366 374
3 366 365 372
3 366 372 374
3 372 371 373
3 372 373 374
3 62 61 373
3 62 373 375
3 373 371 376
3 373 376 375
3 376 377 378
3 376 378 375
3 378 64 62
3 378 62 375
3 369 126 125
3 369 125 379
3 125 133 380
3 125 380 379
3 380 377 376
3 380 376 379
3 376 371 369
3 376 369 379
3 143 106 342
3 143 342 381
3 342 338 382
3 342 382 381
3 382 377 380
3 382 380 381
3 380 133 143
3 380 143 381
3 336 49 69
3 336 69 383
3 69 64 378
3 69 378 383
3 378 377 382
3 378 382 383
3 382 338 336
3 382 336 383
