OFF
248 484 0
-13.0362 10.4957 2.47059
-12.9382 10.3792 3.07159
-12.2612 11.4044 3.25659
-12.3392 11.5495 2.66159
-11.2262 12.2752 3.40559
-11.2732 12.4452 2.81459
-11.2642 12.5402 2.09559
-12.3102 11.6579 1.95659
-12.9952 10.6201 1.78059
-10.0202 12.8695 3.49859
-8.82921 13.0652 3.51459
-8.80721 13.2594 2.92759
-10.0322 13.057 2.91059
-8.84021 13.3354 2.22959
-10.0442 13.1386 2.20059
-8.95721 13.1785 1.56059
-9.11821 12.8644 1.08859
-9.90121 12.6789 0.887592
-10.0512 13.0087 1.49859
-10.9172 12.1764 0.720592
-11.1572 12.4759 1.36759
-11.8032 11.4368 0.682592
-12.3222 10.771 0.743592
-12.7222 10.7191 1.15459
-12.1022 11.6687 1.27759
-5.51021 4.33219 1.40159
-7.15521 5.65729 1.53259
-6.81621 5.24059 1.13759
-7.45521 5.73949 0.834592
-5.89521 4.44339 0.770592
-5.97921 4.69029 0.268592
-7.18921 5.92699 0.156592
-5.60921 4.61809 -0.0644085
-3.97921 4.42939 1.28259
-5.75721 6.11399 1.61159
-4.40721 4.36409 1.52459
-6.90721 5.78819 1.75559
-4.80821 4.32809 1.57959
-5.06421 5.86759 0.478592
-5.03321 5.84149 0.855592
-3.76321 4.59239 0.522592
-4.04721 4.69199 -0.0484085
-5.06821 5.72579 1.21959
-6.93621 6.12679 -0.0104085
-6.51621 6.23279 -0.0594085
-4.98221 4.69999 -0.310408
-4.41721 4.71629 -0.240408
-9.15221 6.71209 1.43059
-8.89321 6.78049 1.81359
-9.53821 6.92859 1.94359
-9.87121 6.79739 1.45359
-11.0092 6.83179 0.999592
-9.89121 6.83279 0.998592
-9.24821 6.74729 0.991592
-10.4422 6.87619 2.23959
-11.0772 6.93089 2.50459
-11.5352 6.93639 1.78759
-10.9132 6.75479 1.66659
-11.6452 7.07889 1.06459
-11.4622 7.36079 0.401592
-10.9522 7.80659 -0.0994085
-10.4132 7.45319 -0.0584085
-10.9032 7.08209 0.401592
-10.3632 7.00629 0.454592
-9.50221 7.25059 0.150592
-8.93621 7.07759 0.231592
-9.17721 6.87339 0.568592
-9.80221 6.98599 0.523592
-7.48421 7.50679 2.15759
-7.07421 7.77439 1.97959
-7.18921 8.29409 2.16059
-7.69921 7.93459 2.35059
-7.07821 8.74119 2.36959
-7.70321 8.28219 2.57859
-8.49521 7.76229 2.59559
-8.31421 7.54429 2.36859
-7.97821 7.22239 2.18359
-6.85121 9.20219 2.62459
-6.61921 9.83769 2.98459
-7.53021 8.78679 3.02859
-8.61721 7.95619 2.94859
-9.82721 7.35199 2.85459
-9.30021 7.25539 2.40159
-8.47521 6.96549 2.06659
-8.93221 7.18489 2.22559
-6.83921 8.14959 0.782592
-7.09421 8.08299 0.400592
-7.21721 8.64939 0.380592
-6.90821 8.79519 0.793592
-6.78721 8.75169 1.31759
-6.75121 8.11049 1.22059
-7.05821 9.67259 0.301592
-7.08721 10.3198 0.316592
-6.55321 10.5532 0.929592
-6.58821 9.87159 0.863592
-6.32121 10.5429 1.63659
-6.40121 9.85059 1.50659
-6.33921 10.3187 2.34659
-6.46921 9.63079 2.14259
-6.71821 9.08269 1.94759
-6.83021 7.98049 1.64359
-6.88521 8.56109 1.78759
-8.63721 7.41549 0.0475915
-9.67321 7.96239 -0.271408
-8.76021 8.63399 -0.288408
-8.36521 8.00749 -0.0564085
-8.02121 7.63539 0.0285915
-10.0822 8.44089 -0.339408
-9.02921 9.14819 -0.337408
-7.97221 9.81299 -0.112408
-7.82221 9.21629 -0.0834085
-7.51621 7.89619 0.146592
-7.73821 8.37169 0.0875915
-12.0892 7.49669 2.54859
-12.2572 7.52079 1.91659
-12.7552 8.32869 2.68459
-12.8732 8.38569 2.06959
-12.8572 8.54879 1.35259
-12.3042 7.68529 1.18259
-13.0702 9.32179 2.87059
-13.1732 9.40919 2.26359
-13.1322 9.55539 1.56559
-12.3132 10.1401 0.441592
-12.8522 9.75929 0.923592
-12.0452 9.29759 0.152592
-12.6032 8.83459 0.673592
-11.5372 8.46679 -0.0274085
-12.0842 7.98999 0.496592
-8.48821 10.0748 3.10059
-8.79321 11.1903 3.31159
-9.51421 10.4454 3.11659
-9.36521 9.81809 3.00659
-9.62221 9.04929 2.91459
-9.23521 11.9357 3.58259
-10.2352 11.2774 3.35459
-10.0022 10.8464 3.21659
-11.2802 10.2453 3.17159
-11.0642 9.13619 2.95759
-10.5082 9.53629 2.97259
-10.6222 8.35199 2.91659
-7.39121 11.1701 0.419592
-6.81821 11.4241 1.06359
-7.89921 12.0045 0.599592
-7.33421 12.2751 1.24259
-7.07121 12.3281 1.97659
-6.55421 11.4367 1.80159
-8.54121 12.6041 0.848592
-8.04921 12.8969 1.44159
-7.84121 13.0131 2.13659
-7.84121 12.7404 3.43459
-7.79121 12.9268 2.84459
-7.10221 12.023 3.29459
-7.01921 12.2098 2.70059
-6.66121 11.0415 3.13359
-6.52921 11.2594 2.53359
-10.6032 9.14729 -0.276408
-11.1202 9.99269 -0.0904085
-9.99921 10.7676 -0.0814085
-9.47421 9.90749 -0.271408
-11.4972 10.817 0.227592
-10.5062 11.5654 0.243592
-9.44021 12.1607 0.449592
-8.85721 11.4701 0.153592
-8.34021 10.6232 -0.0334085
-6.95321 9.89639 3.31659
-7.76621 8.94239 3.26759
-7.20621 9.92119 3.45159
-8.71821 8.12849 3.13359
-8.88321 8.40719 3.19959
-8.03921 9.11229 3.31759
-7.47821 9.94939 3.47759
-10.8392 7.75169 3.11459
-10.9312 7.48669 3.04959
-9.85921 7.66919 3.07959
-9.86221 7.92009 3.12059
-11.0082 7.24799 2.87959
-8.87421 12.8675 3.85259
-7.93021 12.5565 3.77559
-8.93321 12.6754 3.99559
-8.04421 12.3822 3.92259
-7.40821 11.7427 3.78959
-7.24121 11.8707 3.63859
-7.63621 11.5946 3.80159
-8.20521 12.1787 3.91959
-9.01921 12.4429 3.99059
-7.09821 10.879 3.62359
-7.36421 10.813 3.63959
-6.86821 10.9322 3.47459
-12.7942 10.3042 3.42959
-12.1492 11.283 3.60659
-12.6242 10.2622 3.59659
-12.0162 11.184 3.76359
-11.0872 11.9666 3.89759
-11.1612 12.1142 3.74859
-10.9842 11.7956 3.90159
-11.8352 11.0843 3.77359
-12.3872 10.2408 3.62659
-10.0032 12.5003 3.98059
-9.99521 12.2869 3.97259
-10.0102 12.6812 3.83759
-11.9472 7.61309 2.92759
-11.8182 7.79339 3.11459
-12.4472 8.44849 3.24559
-12.6092 8.36109 3.05959
-12.2242 8.59439 3.30659
-11.6492 8.01069 3.17759
-12.7412 9.31079 3.41559
-12.4982 9.37249 3.45559
-12.9202 9.29419 3.23659
-8.42521 9.35279 3.08859
-8.02121 10.0265 3.20559
-9.13121 8.85889 2.97259
-9.87021 8.40779 2.93259
-8.56221 11.7879 3.55959
-8.19421 11.2808 3.42159
-7.89721 10.7154 3.34159
-11.4322 10.9289 3.44659
-11.8362 10.2569 3.31859
-10.7262 11.4339 3.49759
-9.98721 11.8739 3.60259
-11.2952 8.49379 2.97459
-11.6642 9.01189 3.04759
-11.9602 9.56629 3.19359
-6.23621 6.12439 1.81659
-6.54621 5.91469 1.84559
-6.62521 7.09529 1.81159
-6.98021 6.89909 1.98359
-7.40721 6.69749 2.01859
-8.20021 6.40229 1.69459
-7.83721 6.52159 1.92059
-7.67021 5.88589 1.25359
-8.42421 6.37049 1.34659
-8.50621 6.41419 0.942592
-8.23621 6.67969 0.232592
-8.44521 6.52129 0.548592
-7.56321 5.94879 0.473592
-7.87821 6.87739 0.0605915
-7.44321 7.08189 0.0265915
-6.64021 7.38159 0.350592
-7.00621 7.26079 0.124592
-5.79421 6.41739 0.237592
-6.25421 6.47059 0.0405915
-5.78821 6.62979 0.589592
-5.71821 6.57559 0.975592
-6.41921 7.41189 0.698592
-6.34421 7.36529 1.10259
-6.41221 7.25519 1.49559
-5.78321 6.47899 1.35359
3 0 1 2
3 0 2 3
3 2 4 5
3 2 5 3
3 5 6 7
3 5 7 3
3 7 8 0
3 7 0 3
3 9 10 11
3 9 11 12
3 11 13 14
3 11 14 12
3 14 6 5
3 14 5 12
3 5 4 9
3 5 9 12
3 15 16 17
3 15 17 18
3 17 19 20
3 17 20 18
3 20 6 14
3 20 14 18
3 14 13 15
3 14 15 18
3 21 22 23
3 21 23 24
3 23 8 7
3 23 7 24
3 7 6 20
3 7 20 24
3 20 19 21
3 20 21 24
3 25 26 27
3 27 28 29
3 29 25 27
3 30 31 32
3 29 28 30
3 32 29 30
3 33 34 35
3 36 26 25
3 25 37 36
3 38 39 40
3 40 41 38
3 42 34 33
3 33 40 42
3 40 39 42
3 32 31 43
3 43 44 45
3 45 32 43
3 45 44 46
3 47 48 49
3 47 49 50
3 50 51 52
3 52 53 47
3 52 47 50
3 54 55 56
3 54 56 57
3 56 58 51
3 56 51 57
3 51 50 57
3 50 49 54
3 50 54 57
3 59 60 61
3 59 61 62
3 61 63 62
3 63 51 62
3 51 58 59
3 51 59 62
3 64 65 66
3 64 66 67
3 66 53 52
3 66 52 67
3 52 51 63
3 52 63 67
3 63 61 64
3 63 64 67
3 68 69 70
3 68 70 71
3 70 72 73
3 70 73 71
3 73 74 75
3 73 75 71
3 75 76 68
3 75 68 71
3 77 78 79
3 77 79 73
3 79 80 74
3 79 74 73
3 73 72 77
3 81 55 54
3 81 54 82
3 54 49 82
3 74 80 81
3 74 81 82
3 49 48 83
3 49 83 84
3 83 76 75
3 83 75 84
3 75 74 82
3 75 82 84
3 82 49 84
3 85 86 87
3 85 87 88
3 89 90 85
3 89 85 88
3 91 92 93
3 91 93 94
3 93 95 96
3 93 96 94
3 96 89 88
3 96 88 94
3 88 87 91
3 88 91 94
3 97 78 77
3 97 77 98
3 77 72 99
3 77 99 98
3 99 89 96
3 99 96 98
3 96 95 97
3 96 97 98
3 70 69 100
3 70 100 101
3 100 90 89
3 100 89 101
3 89 99 101
3 99 72 70
3 99 70 101
3 102 65 64
3 64 61 103
3 64 103 102
3 103 104 105
3 103 105 102
3 105 106 102
3 61 60 107
3 61 107 103
3 107 108 104
3 107 104 103
3 109 92 91
3 109 91 110
3 91 87 110
3 104 108 109
3 104 109 110
3 87 86 111
3 87 111 112
3 111 106 105
3 111 105 112
3 105 104 110
3 105 110 112
3 110 87 112
3 56 55 113
3 56 113 114
3 113 115 116
3 113 116 114
3 116 117 118
3 116 118 114
3 118 58 56
3 118 56 114
3 119 1 0
3 119 0 120
3 0 8 121
3 0 121 120
3 121 117 116
3 121 116 120
3 116 115 119
3 116 119 120
3 23 22 122
3 23 122 123
3 122 124 125
3 122 125 123
3 125 117 121
3 125 121 123
3 121 8 23
3 121 23 123
3 126 60 59
3 126 59 127
3 59 58 118
3 59 118 127
3 118 117 125
3 118 125 127
3 125 124 126
3 125 126 127
3 128 129 130
3 128 130 131
3 131 132 128
3 129 133 134
3 129 134 135
3 130 129 135
3 136 137 138
3 138 130 135
3 138 135 136
3 135 134 136
3 137 139 132
3 137 132 138
3 132 131 138
3 131 130 138
3 93 92 140
3 93 140 141
3 140 142 143
3 140 143 141
3 143 144 145
3 143 145 141
3 145 95 93
3 145 93 141
3 146 16 15
3 146 15 147
3 15 13 148
3 15 148 147
3 148 144 143
3 148 143 147
3 143 142 146
3 143 146 147
3 11 10 149
3 11 149 150
3 149 151 152
3 149 152 150
3 152 144 148
3 152 148 150
3 148 13 11
3 148 11 150
3 153 78 97
3 153 97 154
3 97 95 145
3 97 145 154
3 145 144 152
3 145 152 154
3 152 151 153
3 152 153 154
3 107 60 126
3 107 126 155
3 126 124 156
3 126 156 155
3 156 157 158
3 156 158 155
3 158 108 107
3 158 107 155
3 122 22 21
3 122 21 159
3 21 19 160
3 21 160 159
3 160 157 156
3 160 156 159
3 156 124 122
3 156 122 159
3 17 16 146
3 17 146 161
3 146 142 162
3 146 162 161
3 162 157 160
3 162 160 161
3 160 19 17
3 160 17 161
3 140 92 109
3 140 109 163
3 109 108 158
3 109 158 163
3 158 157 162
3 158 162 163
3 162 142 140
3 162 140 163
3 79 78 164
3 79 164 165
3 164 166 165
3 167 80 79
3 167 79 165
3 168 167 165
3 168 165 169
3 165 166 170
3 165 170 169
3 171 172 173
3 171 173 174
3 173 167 168
3 173 168 174
3 175 55 81
3 81 80 167
3 167 173 81
3 173 172 175
3 173 175 81
3 149 10 176
3 149 176 177
3 176 178 179
3 176 179 177
3 179 180 181
3 179 181 177
3 181 151 149
3 181 149 177
3 182 180 179
3 182 179 183
3 179 178 184
3 179 184 183
3 170 166 185
3 170 185 186
3 185 180 182
3 185 182 186
3 164 78 153
3 164 153 187
3 153 151 181
3 153 181 187
3 181 180 185
3 181 185 187
3 185 166 164
3 185 164 187
3 2 1 188
3 2 188 189
3 188 190 191
3 188 191 189
3 191 192 193
3 191 193 189
3 193 4 2
3 193 2 189
3 194 192 191
3 194 191 195
3 191 190 196
3 191 196 195
3 184 178 197
3 184 197 198
3 197 192 194
3 197 194 198
3 176 10 9
3 176 9 199
3 9 4 193
3 9 193 199
3 193 192 197
3 193 197 199
3 197 178 176
3 197 176 199
3 113 55 175
3 113 175 200
3 175 172 201
3 175 201 200
3 201 202 203
3 201 203 200
3 203 115 113
3 203 113 200
3 204 202 201
3 204 201 205
3 201 172 171
3 201 171 205
3 196 190 206
3 196 206 207
3 206 202 204
3 206 204 207
3 188 1 119
3 188 119 208
3 119 115 203
3 119 203 208
3 203 202 206
3 203 206 208
3 206 190 188
3 206 188 208
3 169 170 209
3 170 210 209
3 209 211 168
3 168 169 209
3 210 128 209
3 128 132 211
3 128 211 209
3 132 139 212
3 211 132 212
3 171 174 212
3 174 168 212
3 168 211 212
3 212 139 171
3 183 184 213
3 184 133 213
3 213 214 182
3 182 183 213
3 133 129 213
3 129 214 213
3 128 210 215
3 214 129 128
3 214 128 215
3 170 186 215
3 186 182 215
3 182 214 215
3 215 210 170
3 195 196 216
3 196 217 216
3 216 218 194
3 194 195 216
3 217 136 216
3 136 134 218
3 136 218 216
3 134 133 219
3 218 134 219
3 184 198 219
3 198 194 219
3 194 218 219
3 219 133 184
3 205 171 220
3 171 139 220
3 220 221 204
3 204 205 220
3 139 137 220
3 137 221 220
3 136 217 222
3 221 137 136
3 221 136 222
3 196 207 222
3 207 204 222
3 204 221 222
3 222 217 196
3 35 34 223
3 224 37 35
3 224 35 223
3 225 69 68
3 225 68 226
3 68 76 227
3 68 227 226
3 227 224 223
3 227 223 226
3 223 34 225
3 223 225 226
3 83 48 228
3 83 228 229
3 228 26 36
3 228 36 229
3 36 224 227
3 36 227 229
3 227 76 83
3 227 83 229
3 36 37 224
3 26 230 27
3 230 28 27
3 228 48 47
3 228 47 231
3 47 53 232
3 47 232 231
3 232 28 230
3 232 230 231
3 230 26 228
3 230 228 231
3 66 65 233
3 66 233 234
3 233 31 235
3 233 235 234
3 235 28 232
3 235 232 234
3 232 53 66
3 232 66 234
3 31 30 235
3 30 28 235
3 233 65 102
3 233 102 236
3 102 106 237
3 102 237 236
3 237 44 43
3 237 43 236
3 43 31 233
3 43 233 236
3 111 86 238
3 111 238 239
3 238 240 241
3 238 241 239
3 241 44 237
3 241 237 239
3 237 106 111
3 237 111 239
3 240 41 46
3 240 46 241
3 46 44 241
3 38 41 240
3 240 242 38
3 242 243 39
3 242 39 38
3 238 86 85
3 238 85 244
3 85 90 245
3 85 245 244
3 245 243 242
3 245 242 244
3 242 240 238
3 242 238 244
3 100 69 225
3 100 225 246
3 225 34 247
3 225 247 246
3 247 243 245
3 247 245 246
3 245 90 100
3 245 100 246
3 39 243 247
3 39 247 42
3 247 34 42
