0.654544
0.688699
0.793333
0.792189
0.540991
0.741966
0.765239
0.459507
0.373805
0.817032
0.479839
0.897097
0.533107
0.746473
0.829165
0.715155
0.256199
0.408832
0.537275
0.409691
0.47834
0.863264
0.408892
0.795744
0.478343
0.49052
0.519596
0.397345
0.478341
0.765058
0.537276
0.441107
0.63141
0.40639
0.728799
0.746469
0.612744
0.578435
0.441936
0.295225
0.397656
0.411765
0.285234
0.390997
0.850293
0.552018
0.641922
0.625923
0.204328
0.402095
0.20421
0.223111
0.807012
0.634585
0.221451
0.388083
0.240584
0.23026
0.469896
0.264507
0.579453
0.403495
0.227192
0.268892
0.264845
0.229893
0.225227
0.268221
0.565303
0.441881
0.546493
0.283655
0.231429
0.278311
0.221194
0.625353
0.847081
0.628525
0.203219
0.241849
0.337477
0.386642
0.580783
0.655564
0.580783
0.536819
0.291399
0.358372
0.586951
0.351868
0.446912
0.297848
0.571954
0.70061
0.579204
0.873448
0.298492
0.276489
0.32613
0.293391
0.302208
0.389358
0.343832
0.313975
0.075672
0.0832857
0.114399
0.115114
0.200142
0.149079
0.107389
0.156536
0.449646
0.33146
0.404064
0.40619
0.197358
0.261654
0.148233
0.208718
0.409438
0.381406
0.312324
0.363223
0.269813
0.386902
0.349705
0.367997
0.320157
0.389087
0.317015
0.236677
0.311907
0.293723
0.325935
0.966482
0.392286
0.324655
0.259941
0.340771
0.219236
0.409796
0.351943
0.444842
0.214765
0.35611
0.318976
0.325553
0.300796
0.276609
0.421875
0.319778
0.260139
0.294843
0.274209
0.29821
0.28556
0.385716
0.238769
0.334336
0.40241
0.402142
0.204271
0.343387
0.33974
0.21301
0.341317
0.404098
0.0993659
0.088868
0.351884
0.405349
0.370748
0.249232
0.136793
0.20579
0.261947
0.256424
0.393755
0.362824
0.350258
0.359044
0.366825
0.464954
0.264296
0.428595
0.39843
0.350791
0.439179
0.370799
0.37242
0.270253
0.321525
0.355326
0.285841
0.340357
0.250918
0.279349
0.360932
0.31737
0.0752565
0.265046
0.217416
0.407857
0.269076
0.315758
0.272678
0.289905
0.385412
0.331065
0.342253
0.295659
0.253193
0.214104
0.279625
0.207655
0.283814
0.261595
0.264119
0.207132
0.267433
0.203593
0.276925
0.291807
0.411352
0.398229
0.349779
0.369422
0.40172
0.389462
0.293311
0.364469
0.364538
0.339129
0.139331
0.18322
0.212982
0.311678
0.417943
0.405343
0.0763033
0.076513
0.105434
0.169272
0.20795
0.150582
0.112604
0.130871
0.116013
0.261756
0.321693
0.260895
0.299555
0.376494
0.187406
0.197208
0.654493
0.682588
0.540527
0.471093
0.705221
0.735624
0.78966
0.721021
0.272744
0.513059
0.592814
0.718742
0.724973
0.798062
0.748665
0.438423
0.265765
0.479492
0.405118
0.799953
0.748019
0.659187
0.544949
0.560242
0.431341
0.808996
0.78922
0.715155
0.549333
0.876919
0.491374
0.471087
0.0685172
0.104015
0.14319
0.211572
0.363026
0.251192
0.309932
0.436997
0.188452
0.427887
0.35401
0.396208
0.387708
0.221033
0.206887
0.339283
0.264503
0.432476
0.304151
0.427177
0.446466
0.348888
0.399427
0.351261
0.276185
0.315426
0.367935
0.434389
0.351069
0.407168
0.254839
0.369667
0.376811
0.06095
0.213902
0.419439
0.0536176
0.376404
0.0948398
0.396232
0.156966
0.370403
0.354419
0.0598139
0.357636
0.0494327
0.01377
0.259237
0.130679
0.102474
0.092694
0.0849987
0.141021
0.147931
0.260868
0.0899986
0.0517418
0.0782434
0.27151
0.0742474
0.0499344
0.0963659
0.0922264
0.0345767
0.421864
0.367358
0.679406
0.313966
0.661306
0.43684
0.458596
0.40207
0.074236
0.31981
0.557908
0.300268
0.470634
0.367344
0.285017
0.326497
0.194212
0.394587
0.225561
0.30019
0.34975
0.387451
0.286771
0.393333
0.387498
0.39444
0.578961
0.623721
0.296053
0.499609
0.28585
0.363903
0.55215
0.378502
0.467133
0.377143
0.34066
0.366797
0.388791
0.364492
0.563521
0.37192
0.377586
0.455947
0.359325
0.53247
0.588266
0.682947
0.216432
0.584784
0.605117
0.352279
0.456207
0.324355
0.22641
0.267404
0.0679317
0.296602
0.27714
0.358298
0.406658
0.473307
0.597784
0.296554
0.0643886
0.0937132
0.0750687
0.087266
0.393869
0.451421
0.139789
0.0540671
0.134076
0.0881438
0.238978
0.0846613
0.0847291
0.118591
0.0687512
0.0787946
0.151435
0.574339
0.0157358
0.392097
0.0809456
0.090307
0.0871226
0.16811
0.0666892
0.244546
0.0740481
0.41304
0.0862616
0.378768
0.0231442
0.239085
0.345751
0.261482
0.0677364
0.093145
0.101906
0.077048
0.294847
0.243786
0.0274378
0.033086
0.100982
0.0426261
0.0818027
0.0472435
0.0624137
0.0608882
0.0675611
0.208454
0.061884
0.0657477
0.0679932
0.0453479
0.0760666
0.0501389
0.351204
0.308244
0.0701832
0.0639622
0.104775
0.15004
0.0806558
0.116905
0.311076
0.338658
0.318203
0.359576
0.348565
0.369876
0.42448
0.32499
0.364691
0.427052
0.372676
0.242624
0.371152
0.433752
0.372371
0.364512
0.2589
0.330612
0.393673
0.389462
0.328385
0.335802
0.317954
0.356387
0.0307246
0.0430178
0.0375739
0.0513889
0.0740867
0.0551567
0.0819985
0.05247
0.0575533
0.0654058
0.0428592
0.0795472
0.155604
0.155287
0.252524
0.293987
0.293936
0.11651
0.0837536
0.272061
0.091563
0.149776
0.156799
0.134341
0.50869
0.181556
0.0429193
0.014522
0.00749596
0
0.00117916
0.00557248
0.0299535
0.0176937
0.1183
0.109611
0.147687
0.136901
0.107748
0.151583
0.0923257
0.13584
0.202993
0.268908
0.174943
0.70688
0.0921166
0.114908
0.104822
0.0767869
0.0628218
0.0669609
0.0562298
0.50803
0.138728
0.115447
0.191831
0.142277
0.0798591
0.200643
0.0837449
0.0933264
0.1488
0.159529
0.155898
0.166196
0.243675
0.197327
0.454865
0.153815
0.0591616
0.0609367
0.0441318
0.0646919
0.0927082
0.0620352
0.188833
0.0986691
0.0318152
0.0373379
0.0747734
0.0528506
0.0837614
0.0567952
0.0395304
0.0494816
0.375376
0.305299
0.363639
0.371409
0.368281
0.306368
0.343188
0.375623
0.380135
0.293883
0.275784
0.342416
0.316313
0.365228
0.389557
0.361337
0.375352
0.037675
0.02764
0.0262881
0.044202
0.0860735
0.064359
0.0882405
0.0711602
0.0530364
0.0580693
0.088502
0.0757887
0.0977782
0.0677755
0.0616318
0.0967183
0.347837
0.170734
0.151061
0.0924219
0.151326
0.129738
0.140954
0.461514
0.119226
0.08837
0.124445
0.375016
0.123906
0.14619
0.11442
0.0144527
0.0167795
0.0245929
0.0204315
0.017965
0.0153273
0.00294146
0.0129742
0.0450178
0.0589586
0.0317399
0.0338823
0.0216109
0.0440297
0.037027
0.0345737
0.058761
0.0550399
0.0359666
0.0299189
0.0251224
0.0227983
0.0330722
0.0300861
0.0416872
0.0223225
0.00967509
0.00306898
0.0105295
0.00475297
0.043712
0.00716074
0.384629
0.380722
0.40657
0.386637
0.331678
0.415682
0.309145
0.336251
0.325424
0.440694
0.321912
0.336608
0.306846
0.324755
0.409641
0.404993
0.230698
0.390738
0.252915
0.266719
0.264835
0.276434
0.319785
0.298873
0.288287
0.158933
0.307412
0.25388
0.292465
0.306097
0.216552
0.269676
0.258711
0.259874
0.24603
0.26493
0.233957
0.248922
0.274356
0.272037
0.293651
0.282438
0.159692
0.221709
0.213708
0.273518
0.276148
0.274928
0.258252
0.0810085
0.261411
0.24892
0.231023
0.168214
0.149611
0.170406
0.215514
0.155913
0.0625177
0.168929
0.219019
0.116073
0.234677
0.205451
0.0956982
0.2998
0.259543
0.255643
0.485794
0.260733
0.594531
0.216954
0.276421
0.760765
0.65791
0.705883
0.410091
0.457887
0.28301
0.26604
0.319271
0.363569
0.246859
0.264289
0.237908
0.206123
0.162651
0.324409
0.235369
0.391826
0.288731
0.327478
0.803932
0.215931
0.22588
0.246234
0.263378
0.169559
0.233845
0.232091
0.295394
0.293579
0.305424
0.298541
0.228564
0.362394
0.32025
0.248215
0.252741
0.279691
0.280246
0.301358
0.325424
0.40889
0.406076
0.427167
0.295523
0.369049
0.299035
0.243545
0.402999
0.382165
0.36827
0.383688
0.382533
0.422801
0.407891
0.38877
0.216503
0.384211
0.240475
0.530757
0.804617
0.274132
0.42124
0.295435
0.298029
0.435513
0.201524
0.256455
0.276839
0.260963
0.254264
0.279729
0.26611
0.25157
0.283246
0.247186
0.302718
0.447397
0.196062
0.725207
0.117423
0.30332
0.4218
0.26078
0.402656
0.274568
0.264203
0.272192
0.21241
0.212659
0.199941
0.180063
0.225525
0.0933741
0.168247
0.134973
0.242516
0.288352
0.18398
0.197715
0.218791
0.167502
0.22583
0.148224
0.346141
0.267316
0.330369
0.289956
0.23016
0.238271
0.162402
0.226308
0.252637
0.256517
0.227767
0.249184
0.231792
0.221962
0.302771
0.27219
0.485056
0.452903
0.459351
0.568924
0.437217
0.41758
0.0885542
0.404707
0.45374
0.451035
0.335985
0.436772
0.429128
0.425991
0.464232
0.454396
0.370072
0.224149
0.374249
0.336025
0.391224
0.378032
0.361743
0.355346
0.333413
0.362849
0.367192
0.380007
0.379462
0.526453
0.452316
0.346688
0.246328
0.241738
0.298463
0.319273
0.244149
0.256621
0.249928
0.272652
0.388816
0.309108
0.214634
0.245778
0.234786
0.239047
0.345542
0.304942
0.218862
0.198651
0.215842
0.20004
0.196922
0.22532
0.238295
0.173729
0.266028
0.206336
0.195014
0.215222
0.223484
0.227827
0.218839
0.199934
0.671116
0.590638
0.365237
0.401339
0.315187
0.35903
0.348116
0.353183
0.349081
0.344497
0.47788
0.377654
0.374013
0.405501
0.332639
0.337745
0.414815
0.468082
0.425176
0.406033
0.452152
0.360348
0.334387
0.369297
0.411538
0.456852
0.278782
0.395112
0.381654
0.366237
0.407067
0.399737
0.338424
0.383884
0.29788
0.350045
0.389626
0.380553
0.368952
0.390194
0.361935
0.113351
0.383449
0.375624
0.39378
0.377274
0.367398
0.352172
0.455932
0.45437
0.464772
0.454839
0.422605
0.439653
0.441841
0.338466
0.485542
0.465606
0.414086
0.415933
0.455837
0.410119
0.459949
0.571124
0.416907
0.585353
0.417028
0.389059
0.313312
0.327263
0.27837
0.403828
0.427858
0.47331
0.354272
0.373394
0.357012
0.364954
0.432999
0.490296
0.35127
0.386784
0.34525
0.346317
0.355993
0.460938
0.484058
0.368135
0.320676
0.257515
0.348935
0.362336
0.315661
0.332736
0.362476
0.342898
0.195825
0.216183
0.232287
0.230135
0.17619
0.241967
0.199534
0.206683
0.198077
0.234225
0.202291
0.166619
0.201836
0.175165
0.200879
0.230211
0.39318
0.308089
0.340921
0.306801
0.222019
0.245896
0.19989
0.249286
0.330943
0.298117
0.247556
0.248874
0.229636
0.267997
0.317658
0.308592
0.428384
0.442459
0.851136
0.245334
0.432132
0.524066
0.296037
0.413002
0.306926
0.294942
0.325517
0.268945
0.23026
0.250396
0.633924
0.308073
0.387648
0.487173
0.342045
0.364548
0.364769
0.613199
0.612564
0.235231
0.336749
0.353821
0.409297
0.328679
0.265501
0.805839
0.59407
0.618034
0.283628
0.302056
0.248506
0.90993
0.217443
0.137393
0.214332
0.23468
0.604025
0.424064
0.413029
0.27093
0.384082
0.31763
0.395222
0.38683
0.672187
0.654209
0.357098
0.327132
0.265818
0.185669
0.235527
0.194181
0.189222
0.196037
0.192775
0.184708
0.184507
0.206347
0.181659
0.222877
0.305233
0.239856
0.170911
0.17739
0.180672
0.891354
0.335991
0.334202
0.469683
0.211629
0.687795
0.787303
0.606109
0.610877
0.329412
0.643992
0.468019
0.645144
0.374667
0.43829
0.399336
0.310699
0.714485
0.787307
0.409112
0.299657
0.345069
0.385623
0.215523
0.659967
0.440476
0.457858
0.281801
0.23418
0.904332
0.216117
0.216518
0.835696
0.270462
0.338505
0.599557
0.599923
0.365473
0.215704
0.31106
0.609155
0.359982
0.220306
0.463711
0.372288
0.634325
0.325232
0.303554
0.286606
0.696379
0.194091
0.387156
0.471103
0.315742
0.421268
0.522765
0.524869
0.843023
0.245334
0.422405
0.329468
0.387541
0.131037
0.47034
0.75426
0.562341
0.371843
0.468865
0.247219
0.32797
0.631953
0.536429
0.480161
0.329588
0.137653
0.657364
0.370628
0.306127
0.641437
0.199429
0.480162
0.322866
0.650707
0.361664
0.349532
0.354201
0.359427
0.183615
0.315671
0.487658
0.822784
0.1951
0.202381
0.198749
0.223935
0.168721
0.241253
0.185117
0.185618
0.995341
0.654493
0.198335
0.996963
0.263413
0.234702
0.587486
0.326685
0.26791
0.354958
0.362037
0.290319
0.390221
0.286781
0.648665
0.277327
0.330424
0.281174
0.206113
0.244849
0.230658
0.140166
0.317419
0.258882
0.288101
0.714515
0.26528
0.355862
0.46472
0.415353
0.609156
0.367355
0.386436
0.34461
0.414699
0.3885
0.527944
0.279184
0.242816
0.282335
0.288774
0.312798
0.294743
0.268272
0.438284
0.425059
0.797379
0.365364
0.315371
0.437629
0.645429
0.538108
0.606909
0.544437
0.263148
0.2759
0.299468
0.373331
0.272983
0.245286
0.394953
0.268758
0.404386
0.287457
0.288164
0.563783
0.677911
0.422253
0.359531
0.419711
0.25868
0.355708
0.346211
0.290772
0.252412
0.280343
0.620462
0.58407
0.598808
0.534867
0.316687
0.397158
0.301597
0.267351
0.543625
0.2638
0.253254
0.286619
0.179679
0.98849
0.116953
0.153337
0.142928
0.146543
0.118302
0.18732
0.566604
0.15067
0.547572
0.16131
0.200893
0.150489
0.173409
0.127847
0.202703
0.170675
0.164405
0.166876
0.1681
0.17447
0.171541
0.165524
0.244825
0.195993
0.139548
0.202317
0.146595
0.143149
0.148805
0.175582
0.286612
0.296825
0.223434
0.280506
0.201527
0.249949
0.276736
0.301929
0.0313539
0.057878
0.427128
0.319973
0.163354
0.28316
0.237656
0.250086
0.0902365
0.0554504
0.100587
0.0983883
0.251333
0.0322401
0.13213
0.254077
0.221455
0.210882
0.271567
0.233455
0.225978
0.216384
0.153043
0.19115
0.202092
0.203099
0.142021
0.147459
0.147444
0.141984
0.226976
0.273271
0.164852
0.126996
0.128653
0.120409
0.157169
0.185414
0.138408
0.176452
0.119201
0.122302
0.120122
0.126811
0.106625
0.0962533
0.145508
0.147483
0.291884
0.22716
0.248465
0.216642
0.157193
0.183113
0.134154
0.128814
0.207507
0.13977
0.190286
0.168615
0.0253174
0.0396392
0.0867203
0.185354
0.289265
0.29244
0.36163
0.203579
0.26386
0.306001
0.228996
0.077125
0.243618
0.0678484
0.210917
0.0159852
0.281796
0.259739
0.403343
0.291686
0.246432
0.23827
0.23811
0.248089
0.0612449
0.200404
0.201015
0.235063
0.161377
0.258378
0.159565
0.162793
0.0948291
0.167827
0.18164
0.180401
0.208669
0.171138
0.166194
0.164435
0.235506
0.207837
0.166731
0.204659
0.0984362
0.123653
0.196315
0.188443
0.232101
0.19593
0.159673
0.202147
0.220062
0.238229
0.21112
0.213062
0.0983802
0.16682
0.14758
0.148681
0.194459
0.17476
0.217677
0.210804
0.12336
0.177898
0.351487
0.219418
0.176437
0.0561475
0.0553285
0.0610065
0.0565863
0.105342
0.0517744
0.128407
0.094182
0.0791401
0.0790391
0.0781992
0.0300479
0.0957393
0.119168
0.0771888
0.22786
0.234976
0.272457
0.285055
0.12518
0.202461
0.10952
0.103134
0.249309
0.249861
0.288433
0.362537
0.334006
0.402563
0.384149
0.383297
0.342546
0.176572
0.149888
0.138661
0.142517
0.181279
0.140344
0.194019
0.180776
0.171795
0.157637
0.171209
0.198887
0.19279
0.171656
0.177149
0.14319
0.167175
0.196725
0.162795
0.206659
0.201175
0.155678
0.180666
0.10808
0.185605
0.122463
0.230641
0.132929
0.161236
0.147212
0.075703
0.261746
0.249139
0.227006
0.175963
0.140615
0.217498
0.173933
0.19963
0.106973
0.0788125
0.124109
0.104607
0.112652
0.102627
0.0761079
0.103721
0.11854
0.130134
0.137146
0.109693
0.103939
0.11255
0.115293
0.119897
0.159656
0.199053
0.189691
0.189907
0.120245
0.181575
0.139177
0.137915
0.251727
0.226424
0.0896824
0.198651
0.241363
0.187123
0.243746
0.240752
0.236652
0.234769
0.105857
0.0454911
0.132619
0.24366
0.16081
0.134947
0.25461
0.240045
0.2623
0.270595
0.289332
0.230764
0.463368
0.174513
0.304294
0.286717
0.300047
0.278335
0.210361
0.24836
0.214538
0.251569
0.211097
0.243278
0.19584
0.145703
0.15402
0.174922
0.144097
0.211337
0.148091
0.174087
0.182597
0.176555
0.171235
0.22436
0.210254
0.198425
0.219104
0.204586
0.192869
0.182189
0.160828
0.229366
0.212392
0.203924
0.153641
0.25725
0.153488
0.261628
0.154782
0.178594
0.176381
0.170141
0.223043
0.277827
0.237369
0.242626
0.197088
0.325952
0.249328
0.381354
0.371283
0.360387
0.241523
0.238488
0.278921
0.354355
0.211843
0.244926
0.132928
0.26989
0.184463
0.152559
0.241175
0.153129
0.249958
0.190429
0.224234
0.140147
0.139115
0.204422
0.136759
0.193031
0.233687
0.227327
0.377206
0.271193
0.12262
0.137161
0.0688003
0.169738
0.226979
0.271387
0.0948605
0.070533
0.0787342
0.0713737
0.0820748
0.0364246
0.0941025
0.0719459
0.218486
0.101153
0.123309
0.0945145
0.064846
0.108035
0.0786223
0.078009
0.218704
0.197359
0.237987
0.21094
0.116742
0.129665
0.207359
0.154342
0.279049
0.242686
0.253384
0.26428
0.263619
0.213927
0.190346
0.256809
0.256028
0.237735
0.212342
0.228743
0.228713
0.180806
0.197842
0.218794
0.204699
0.243645
0.240872
0.158591
0.216033
0.177565
0.196359
0.16327
0.781247
0.156743
0.185449
0.215281
0.22081
0.214033
0.220712
0.178574
0.159122
0.202093
0.152538
0.172544
0.178977
0.203634
0.204474
0.179803
0.176748
0.193551
0.176505
0.199758
0.17333
0.157047
0.175889
0.157184
0.157603
0.17165
0.161702
0.228575
0.223461
0.169468
0.189922
0.164428
0.183907
0.222305
0.239526
0.145439
0.220199
0.158157
0.231244
0.194429
0.168565
0.164724
0.160964
0.17793
0.223344
0.179189
0.182504
0.15142
0.148767
0.178358
0.176069
0.188819
0.193953
0.245902
0.196897
0.174623
0.167711
0.206607
0.167887
0.276148
0.258957
0.123722
0.141525
0.169188
0.144743
0.252366
0.242466
0.137924
0.106019
0.182464
0.156898
0.123599
0.151521
0.0923664
0.108463
0.174949
0.145428
0.155283
0.155111
0.146256
0.142113
0.137097
0.115258
0.242765
0.232253
0.222245
0.221215
0.159562
0.15578
0.178296
0.162096
0.246402
0.278929
0.222464
0.322372
0.328818
0.316012
0.282099
0.28108
0.465531
0.331218
0.540247
0.35137
0.250739
0.455824
0.629113
0.308798
0.597871
0.400531
0.319409
0.400592
0.771562
0.605738
0.345603
0.727967
0.272518
0.401817
0.276193
0.327721
0.310096
0.263759
0.316891
0.187763
0.212873
0.340251
0.323968
0.280095
0.373538
0.233238
0.178405
0.250029
0.300821
0.317004
0.311447
0.312557
0.344029
0.353169
0.286828
0.386794
0.167817
0.164875
0.25418
0.171611
0.28667
0.233393
0.3097
0.395414
0.163267
0.328761
0.165471
0.313061
0.341031
0.337198
0.340121
0.264917
0.286344
0.367028
0.336585
0.360127
0.263895
0.245809
0.291967
0.318638
0.356884
0.292456
0.343924
0.319056
0.317178
0.351203
0.37518
0.335631
0.364418
0.294845
0.380504
0.421915
0.311515
0.70688
0.350032
0.247385
0.273265
0.383228
0.265613
0.280583
0.269771
0.39033
0.3116
0.330968
0.322135
0.31882
0.260503
0.346781
0.320225
0.286372
0.333549
0.328059
0.319961
0.33565
0.299834
0.311142
0.329584
0.334037
0.2019
0.195804
0.310205
0.35667
0.323696
0.393531
0.263339
0.397487
0.320842
0.319102
0.435863
0.349793
0.318654
0.347645
0.341197
0.354434
0.307348
0.303849
0.348401
0.257526
0.38075
0.328246
0.373956
0.373541
0.237495
0.212073
0.236413
0.426478
0.266193
0.384674
0.319679
0.335108
0.18777
0.332658
0.344668
0.337228
0.353333
0.285281
0.339541
0.313263
0.168269
0.422594
0.308248
0.408211
0.369661
0.265084
0.349101
0.408064
0.306533
0.343585
0.286846
0.397729
0.273239
0.306037
0.364507
0.368471
0.265624
0.333456
0.244843
0.248665
0.423275
0.185077
0.315166
0.278413
0.260464
0.337251
0.370007
0.251115
0.403235
0.331903
0.166858
0.339696
0.48589
0.457383
0.230257
0.458857
0.774654
0.424968
0.65721
0.577641
0.244557
0.331288
0.3061
0.258403
0.330734
0.277325
0.220137
0.324774
0.312581
0.285432
0.585967
0.185638
0.291264
0.250086
0.300042
0.303131
0.377382
0.46119
0.585239
0.638825
0.605077
0.638541
0.252319
0.217431
0.0780628
0.104593
0.117757
0.113522
0.0757649
0.121055
0.121564
0.107333
0.250827
0.202446
0.211861
0.189927
0.151561
0.143827
0.141626
0.16695
0.214977
0.246852
0.164901
0.184894
0.129153
0.144049
0.193784
0.184782
0.123542
0.123478
0.128117
0.112621
0.0942872
0.110033
0.127064
0.111744
0.0458068
0.124703
0.106676
0.0667471
0.167782
0.192885
0.182623
0.191913
0.283215
0.161169
0.268022
0.156002
0.132512
0.0845305
0.103188
0.0931216
0.0658682
0.0817635
0.131543
0.249615
0.1367
0.0723873
0.114952
0.335823
0.213314
0.0840145
0.226025
0.0655538
0.201215
0.216283
0.219907
0.195923
1
0.266045
0.269759
0.238482
0.398933
0.19014
0.113158
0.169246
0.20529
0.157728
0.22855
0.180173
0.142094
0.394807
0.261738
0.2972
0.0608101
0.0726379
0.0951639
0.182716
0.112343
0.0612911
0.132302
0.196235
0.511145
0.210798
0.160111
0.108223
0.148942
0.101615
0.097245
0.555473
0.247305
0.253254
0.297495
0.241757
0.128593
0.172025
0.155745
0.175231
0.260928
0.218427
0.0867796
0.125471
0.117556
0.0971545
0.0487452
0.0438466
0.0731385
0.0621343
0.0837367
0.0850869
0.212318
0.12497
0.059101
0.0864604
0.115715
0.108207
0.246455
0.247429
0.259769
0.215071
0.146394
0.18546
0.21241
0.183091
0.540545
0.374036
0.577896
0.733818
0.328788
0.422188
0.289389
0.309657
0.38622
0.465777
0.3299
0.246418
0.296976
0.408217
0.518925
0.595862
0.275154
0.255015
0.297351
0.410036
0.605213
0.473937
0.287421
0.426282
0.248932
0.277067
0.272531
0.266958
0.294391
0.41564
0.313172
0.250944
0.269757
0.310453
0.163233
0.296386
0.128838
0.297249
0.256089
0.314002
0.0618163
0.376425
0.382714
0.383557
0.377183
0.443506
0.33575
0.393158
0.429192
0.0401838
0.4121
0.443782
0.366423
0.464878
0.0380178
0.0339818
0.35128
0.412992
0.286728
0.389174
0.396758
0.298415
0.326974
0.277324
0.472347
0.384903
0.0437584
0.426774
0.446
0.462447
0.360366
0.440448
0.0591135
0.375793
0.255478
0.0669004
0.377273
0.0572813
0.391735
0.394539
0.298936
0.252857
0.306681
0.273876
0.35324
0.291215
0.124431
0.324498
0.640047
0.348412
0.405768
0.332718
0.399131
0.316339
0.309108
0.327841
0.435233
0.373298
0.224345
0.261496
0.296901
0.625107
0.633036
0.371787
0.248492
0.278142
0.330056
0.28215
0.660432
0.411322
0.271828
0.28055
0.278683
0.283321
0.257792
0.440146
0.622975
0.243174
0.384092
0.32416
0.379377
0.590076
0.60112
0.608058
0.19618
0.424479
0.333229
0.220086
0.295522
0.218623
0.268877
0.202797
0.101919
0.184989
0.231083
0.208708
0.24371
0.216715
0.191038
0.185756
0.146744
0.168348
0.20169
0.217537
0.1286
0.116089
0.0536959
0.0686603
0.0582606
0.0808954
0.198318
0.159797
0.0809595
0.0542138
0.0681996
0.05884
0.0396542
0.0324426
0.0621464
0.0625513
0.186966
0.277886
0.286344
0.365018
0.305154
0.186387
0.179944
0.186568
0.231225
0.272474
0.326373
0.249778
0.231041
0.213516
0.23392
0.363932
0.315234
0.172765
0.150993
0.111105
0.133736
0.152465
0.162458
0.155043
0.186417
0.254958
0.121763
0.15127
0.148024
0.138784
0.151332
0.231987
0.133238
0.168026
0.136253
0.169312
0.140114
0.168136
0.164773
0.151792
0.163519
0.177829
0.153505
0.200733
0.189581
0.16182
0.204791
0.117269
0.133886
0.2994
0.305351
0.38987
0.306862
0.249216
0.226624
0.281434
0.206673
0.350337
0.271256
0.162967
0.227833
0.225244
0.233003
0.32422
0.362105
0.286611
0.276387
0.30802
0.282884
0.285576
0.27654
0.231974
0.266151
0.39269
0.280972
0.221217
0.333002
0.281752
0.287269
0.290391
0.286086
0.319419
0.170871
0.297851
0.310197
0.245513
0.272648
0.305749
0.333262
0.302641
0.270425
0.231827
0.315541
0.268805
0.253094
0.268698
0.278211
0.240949
0.301501
0.269025
0.434
0.366351
0.356806
0.310094
0.315292
0.353621
0.665044
0.427137
0.343131
0.422826
0.334241
0.304936
0.67837
0.510188
0.276804
0.469499
0.305914
0.260719
0.373326
0.133199
0.53182
0.324677
0.342818
0.269258
0.353315
0.32642
0.301135
0.454385
0.302952
0.324677
0.30123
0.454407
0.302947
0.329311
0.270212
0.306592
0.331591
0.509205
0.457651
0.10976
0.53101
0.273444
0.403195
0.272481
0.305914
0.303325
0.358
0.283419
0.389965
0.434728
0.40412
0.429123
0.337992
0.256934
0.283896
0.302664
0.312376
0.42321
0.30788
0.267812
0.428391
0.273181
0.271643
0.264133
0.535479
0.257218
0.235725
0.226171
0.286757
0.306003
0.17158
0.314881
0.330979
0.244218
0.271721
0.268891
0.307784
0.386517
0.295435
0.299685
0.303213
0.277914
0.303252
0.221573
0.313891
0.342476
0.373712
0.226369
0.252933
0.272058
0.398346
0.313408
0.287204
0.19204
0.383256
0.274155
0.343383
0.231853
0.362049
0.462187
0.527473
0.886377
0.457775
0.324995
0.578398
0.467431
0.315951
0.532671
0.266274
0.417261
0.462551
0.298713
0.285799
0.425018
0.197501
0.324949
0.249643
0.169955
0.756556
0.462193
0.533
0.231666
0.361685
0.293539
0.382151
0.303616
0.291499
0.459679
0.28115
0.432377
0.473327
0.389568
0.333513
0.245937
0.845019
0.609914
0.281958
0.404131
0.144205
0.286359
0.286866
0.606748
0.296442
0.548512
0.881944
0.228468
0.220838
0.693763
0.714633
0.234888
0.166185
0.374907
0.454286
0.397513
0.249786
0.254437
0.352901
0.206718
0.23253
0.522949
0.352901
0.377691
0.558468
0.309382
0.201748
0.606865
0.296442
0.81917
0.691128
0.519522
0.205388
0.548566
0.147698
0.400767
0.832715
0.260531
0.294094
0.416039
0.41932
0.646704
0.833426
0.287625
0.287482
0.332619
0.273725
0.402863
0.442403
0.313001
0.285752
0.495494
0.370605
0.277447
0.35372
0.276785
0.353969
0.43053
0.344407
0.428852
0.433317
0.48466
0.547068
0.450701
0.526299
0.356691
0.207035
0.482024
0.295026
0.46552
0.55245
0.365511
0.607707
0.436685
0.587577
0.494167
0.341168
0.383905
0.339193
0.277026
0.35397
0.162476
0.339297
0.212884
0.299943
0.308842
0.291817
0.37697
0.391284
0.352347
0.201985
0.421583
0.412998
0.405277
0.60681
0.305224
0.232657
0.401709
0.316619
0.414212
0.344606
0.774443
0.757089
0.30518
0.215628
0.283794
0.288772
0.206721
0.0940176
0.219471
0.182129
0.377693
0.540989
0.78559
0.76906
0.206721
0.0940133
0.783374
0.776957
0.392023
0.42417
0.299388
0.289245
0.414572
0.350372
0.757016
0.289134
0.253673
0.297336
0.777255
0.769242
0.353494
0.437547
0.309529
0.212285
0.288209
0.23522
0.394172
0.303935
0.182948
0.18765
0.394146
0.226821
0.410345
0.491512
0.424462
0.366683
0.302514
0.435506
0.25742
0.47531
0.57308
0.267027
0.685439
0.357206
0.192513
0.390916
0.465867
0.227314
0.526803
0.766324
0.276537
0.250509
0.179641
0.42397
0.467069
0.441136
0.526947
0.803125
0.465871
0.721587
0.2492
0.329085
0.691226
0.350164
0.547657
0.295143
0.761138
0.589136
0.584837
0.233066
0.276199
0.246987
0.400309
0.26141
0.723202
0.250235
0.267649
0.252327
0.372421
0.282754
0.385718
0.210974
0.351733
0.310925
0.294346
0.225892
0.368959
0.364175
0.342274
0.463353
0.348946
0.88439
0.649906
0.314844
0.263361
0.655819
0.581596
0.21185
0.347812
0.210725
0.649824
0.627816
0.347812
0.210725
0.580106
0.80466
0.340007
0.654953
0.294346
0.338222
0.311135
0.359848
0.486126
0.440767
0.368959
0.420752
0.296745
0.253285
0.252821
0.218962
0.349113
0.547302
0.405075
0.354347
0.454622
0.219421
0.678561
0.29127
0.385845
0.345084
0.2443
0.221366
0.293946
0.68929
0.245909
0.385026
0.244044
0.511251
0.713063
0.688034
0.155206
0.365939
0.439336
0.35932
0.273507
0.693675
0.668535
0.40183
0.184593
0.339504
0.675427
0.257592
0.24269
0.23932
0.403926
0.347119
0.273102
0.523268
0.680635
0.742677
0.244132
0.240114
0.7686
0.338722
0.511501
0.418269
0.276059
0.225636
0.23976
0.538285
0.653811
0.229238
0.265
0.207293
0.398522
0.411184
0.267489
0.512474
0.247509
0.20732
0.294348
0.225893
0.411157
0.377845
0.484926
0.364157
0.267613
0.865063
0.688789
0.725343
0.217595
0.65495
0.33395
0.213193
0.987178
0.988558
0.689218
0.62783
0.852968
0.988574
0.243511
0.202945
0.225907
0.655817
0.294349
0.338223
0.212508
0.866013
0.173356
0.269244
0.411165
0.378007
0.265104
0.245368
0.297842
0.310959
0.604786
0.432852
0.428388
0.531
0.564221
0.287401
0.664759
0.234043
0.390277
0.227281
0.239209
0.233052
0.370165
0.170194
0.360881
0.232042
0.272727
0.36909
0.316985
0.380366
0.364997
0.377738
0.227812
0.370464
0.385604
0.384154
0.363893
0.435034
0.473346
0.359149
0.473511
0.461602
0.406539
0.446535
0.332179
0.424747
0.447671
0.437569
0.423926
0.10454
0.276263
0.403083
0.461435
0.460374
0.459893
0.42485
0.460489
0.459405
0.276439
0.402382
0.416676
0.418052
0.472834
0.359139
0.308371
0.41995
0.409021
0.416917
0.462441
0.460713
0.191214
0.248544
0.35932
0.162078
0.378837
0.380018
0.403712
0.342281
0.362146
0.170632
0.34708
0.380814
0.364443
0.364261
0.348106
0.208062
0.316529
0.357284
0.333705
0.325889
0.278615
0.323714
0.47788
0.384198
0.346567
0.351211
0.360103
0.358959
0.248573
0.328478
0.279695
0.25647
0.392017
0.354598
0.21027
0.255263
0.209003
0.365275
0.347577
0.366897
0.415094
0.413292
0.607563
0.369297
0.278963
0.356741
0.218586
0.316075
0.394713
0.286996
0.276513
0.276189
0.223674
0.227477
0.218216
0.232258
0.349519
0.283499
0.211976
0.231217
0.215169
0.2287
0.368313
0.316774
0.204198
0.162466
0.182465
0.16181
0.183438
0.172941
0.187322
0.170294
0.190905
0.163064
0.18271
0.164407
0.17542
0.160035
0.179394
0.150662
0.188234
0.169725
0.172528
0.167665
0.17287
0.163158
0.180438
0.170453
0.175677
0.172347
0.184581
0.173004
0.174136
0.174445
0.177081
0.169294
0.385042
0.274093
0.345727
0.317572
0.195928
0.226248
0.210406
0.223819
0.390583
0.299915
0.205466
0.243058
0.198564
0.22528
0.389507
0.288808
0.425322
0.344171
0.206355
0.310886
0.276535
0.360881
0.4345
0.376828
0.415005
0.394958
0.364678
0.379069
0.215375
0.364741
0.191205
0.259115
0.432514
0.353533
0.344007
0.265021
0.234491
0.414513
0.354623
0.331382
0.314264
0.357822
0.37657
0.391185
0.247932
0.323356
0.321174
0.327133
0.098171
0.0852623
0.128486
0.10973
0.109764
0.0828681
0.0975773
0.193549
0.142343
0.0847497
0.115119
0.291978
0.320113
0.368731
0.217771
0.153484
0.252268
0.226094
0.221117
0.188362
0.187008
0.211845
0.253365
0.309311
0.236214
0.240229
0.159772
0.204034
0.217717
0.242449
0.197296
0.192427
0.207269
0.309125
0.156212
0.158557
0.148077
0.249257
0.22991
0.216682
0.162873
0.167687
0.223476
0.254041
0.218874
0.365483
0.192729
0.177958
0.164644
0.168857
0.144824
0.159991
0.168915
0.16448
0.233928
0.235008
0.22776
0.227219
0.205247
0.189498
0.202793
0.172462
0.216599
0.196926
0.155283
0.160421
0.185379
0.187887
0.157439
0.144714
0.186749
0.187778
0.181969
0.182614
0.150658
0.162093
0.228051
0.218452
0.223395
0.216618
0.202247
0.197449
0.188518
0.255001
0.205778
0.214905
0.198411
0.182388
0.181967
0.166378
0.169595
0.176455
0.174513
0.185962
0.17507
0.200908
0.192486
0.174928
0.210476
0.24513
0.208971
0.190823
0.191909
0.173158
0.165479
0.192569
0.179304
0.189404
0.207445
0.200904
0.170939
0.165153
0.148947
0.174305
0.153988
0.14821
0.144757
0.140306
0.157787
0.148166
0.102454
0.125033
0.119996
0.232857
0.211707
0.1078
0.14826
0.193452
0.191734
0.148161
0.169554
0.173171
0.117692
0.121301
0.183674
0.288309
0.210796
0.180868
0.172667
0.301911
0.354009
0.35686
0.250741
0.194292
0.138723
0.158433
0.269509
0.278648
0.245227
0.31863
0.213212
0.0980306
0.242752
0.287136
0.234612
0.281798
0.178736
0.0826546
0.188237
0.10557
0.209222
0.254506
0.112428
0.113472
0.103632
0.0906615
0.137086
0.130826
0.138596
0.144626
0.102049
0.138988
0.174199
0.180609
0.129884
0.174481
0.145981
0.176403
0.211786
0.202596
0.169865
0.134826
0.123798
0.148074
0.160098
0.162151
0.118874
0.127597
0.143689
0.142747
0.140616
0.140864
0.133297
0.135151
0.133233
0.123122
0.13888
0.11622
0.126311
0.135819
0.142754
0.128209
0.0921072
0.102223
0.12411
0.12064
0.136959
0.130396
0.128511
0.130744
0.137075
0.141061
0.147747
0.146446
0.135052
0.142392
0.1219
0.128998
0.143446
0.092354
0.246951
0.23285
0.304481
0.0784327
0.18071
0.0812597
0.198028
0.183755
0.261045
0.232945
0.232204
0.229692
0.230284
0.236222
0.291855
0.288578
0.276678
0.283029
0.310199
0.301187
0.238872
0.256883
0.20046
0.287845
0.343165
0.227384
0.355773
0.357369
0.299851
0.279218
0.207072
0.0863538
0.275597
0.28834
0.279244
0.285877
0.0922753
0.257136
0.212827
0.104311
0.19277
0.162772
0.175623
0.191829
0.11946
0.201998
0.209926
0.213196
0.183509
0.175543
0.203796
0.18181
0.174832
0.189424
0.169384
0.191926
0.188182
0.192418
0.152202
0.197811
0.17041
0.162589
0.227167
0.170337
0.195601
0.146403
0.214379
0.184772
0.191879
0.19473
0.155763
0.165288
0.118134
0.155213
0.161047
0.16179
0.201778
0.174446
0.14006
0.158762
0.0898359
0.0993095
0.127638
0.121924
0.0938363
0.116569
0.119682
0.130694
0.120767
0.248064
0.220468
0.215372
0.236638
0.047955
0.088285
0.215502
0.0982778
0.0782799
0.1184
0.118932
0.0907602
0.0705667
0.0329735
0.0853221
0.0824976
0.0279239
0.0517777
0.0499427
0.293247
0.201227
0.317027
0.202147
0.280844
0.35377
0.32849
0.284533
0.27218
0.161157
0.163668
0.163323
0.264293
0.362356
0.293083
0.155683
0.281606
0.149728
0.307008
0.285453
0.0404677
0.191547
0.150856
0.103269
0.393523
0.190952
0.163937
0.122173
0.0912111
0.0785487
0.0790744
0.0416527
0.177775
0.149661
0.169807
0.152177
0.0261364
0.0334295
0.133219
0.137714
0.197987
0.136508
0.0400272
0.0231553
0.252903
0.254862
0.254588
0.137573
0.136449
0.158036
0.157611
0.203187
0.191177
0.167131
0.161302
0.169445
0.173139
0.188553
0.0878271
0.134232
0.160171
0.10173
0.116491
0.133402
0.133473
0.147222
0.218637
0.213637
0.216655
0.206504
0.185732
0.101486
0.177617
0.260215
0.165897
0.149227
0.178989
0.178219
0.198591
0.181829
0.208828
0.209922
0.157426
0.164616
0.226174
0.168489
0.166096
0.125982
0.199252
0.236014
0.14288
0.125438
0.20281
0.138971
0.146982
0.10978
0.255403
0.112725
0.169705
0.218472
0.250205
0.175234
0.200062
0.226937
0.193213
0.218771
0.218398
0.246788
0.217054
0.218865
0.202658
0.212798
0.189185
0.223028
0.197827
0.189617
0.229306
0.172686
0.191132
0.168052
0.208033
0.191753
0.100208
0.0777503
0.145628
0.098258
0.0640623
0.0751601
0.08611
0.138858
0.0816795
0.0856521
0.048753
0.0611654
0.0499921
0.058808
0.114854
0.0895872
0.0269725
0.0204533
0.0264352
0.0208612
0.0355926
0.0228747
0.0286415
0.0222312
0.0130837
0.0102492
0.279621
0.254618
0.0498181
0.0165869
0.0132704
0.0105844
0.333863
0.0777902
0.0770318
0.0431521
0.0639101
0.0431121
0.123985
0.0884997
0.0128209
0.0103135
0.0132753
0.0103155
0.0364606
0.0171166
0.278428
0.263971
0.0264075
0.0196528
0.0286129
0.0222329
0.0351837
0.0229693
0.0251554
0.0199912
0.0699676
0.0772845
0.113814
0.089008
0.0427786
0.0584297
0.0653699
0.0547837
0.375783
0.336367
0.0360013
0.43151
0.0744227
0.0973066
0.0749194
0.068719
0.0725542
0.0427169
0.0378714
0.0398567
0.0341605
0.0596852
0.118426
0.483392
0.0227198
0.0215586
0.038813
0.0389589
0.0354919
0.0398101
0.0343313
0.0225671
0.345393
0.0606004
0.0742694
0.0634396
0.0687228
0.0780654
0.0600137
0.0442997
0.418144
0.408123
0.485758
0.460808
0.23191
0.266809
0.254048
0.226007
0.084274
0.0923929
0.369371
0.105177
0.306918
0.416253
0.085933
0.465857
0.34549
0.359433
0.304313
0.323052
0.29302
0.287418
0.236622
0.234877
0.317236
0.331338
0.28903
0.309192
0.267981
0.3134
0.29294
0.339565
0.17064
0.234692
0.266504
0.273554
0.31433
0.384163
0.314423
0.238316
0.286736
0.328526
0.347908
0.325079
0.32855
0.340083
0.401798
0.405151
0.353898
0.363305
0.320731
0.335977
0.329191
0.309295
0.362316
0.347691
0.219691
0.2764
0.169621
0.191218
0.373087
0.251501
0.321483
0.316384
0.271733
0.113559
0.132584
0.117321
0.0700707
0.0987974
0.0788303
0.105313
0.143083
0.113704
0.0882446
0.115971
0.0718118
0.0818637
0.124253
0.128952
0.258159
0.504155
0.0699206
0.049251
0.0894255
0.0510892
0.0843683
0.0712798
0.0439898
0.0556642
0.069261
0.0732326
0.0679646
0.0556862
0.0508447
0.0322568
0.0559633
0.0569187
0.0284287
0.0446155
0.421066
0.488511
0.10293
0.0653805
0.480543
0.46153
0.621445
0.608874
0.485291
0.48495
0.0329706
0.4354
0.0107045
0.00175753
0.0122752
0.00921077
0.453869
0.021933
0.237822
0.0133964
0.337919
0.469262
0.274447
0.350403
0.482225
0.479233
0.0266598
0.0794813
0.107035
0.266132
0.0261312
0.0656471
0.0533534
0.102026
0.278808
0.181121
0.0113695
0.00283841
0.00893303
0.00177405
0.0265266
0.0137752
0.0125971
0.0131969
0.00869039
0.00659222
0.0386856
0.0382773
0.0243989
0.0173238
0.0157998
0.0279601
0.0554372
0.0755701
0.0906468
0.0788637
0.46109
0.0697899
0.028764
0.0459068
0.143769
0.113416
0.0807061
0.0932357
0.0697221
0.0908179
0.134988
0.131146
0.0432983
0.0819053
0.0494507
0.03163
0.0851283
0.0612404
0.073658
0.0720609
0.0290058
0.064899
0.0783029
0.0692886
0.0699999
0.0592862
0.0539366
0.058184
0.145319
0.110706
0.127829
0.134432
0.0797317
0.0936706
0.0794441
0.106326
0.448079
0.314339
0.403284
0.426542
0.323335
0.317151
0.333849
0.321201
0.341014
0.307421
0.184719
0.248814
0.326705
0.435296
0.26493
0.23877
0.288784
0.37678
0.452552
0.291549
0.370329
0.25233
0.179913
0.194817
0.342447
0.357756
0.38067
0.328614
0.319653
0.306202
0.335055
0.325791
0.303625
0.307867
0.333559
0.305516
0.286012
0.295157
0.336224
0.299223
0.33094
0.315868
0.281518
0.256552
0.303553
0.270491
0.324776
0.363556
0.0867541
0.100772
0.0854069
0.449806
0.300193
0.344967
0.20749
0.109961
0.489852
0.225503
0.260027
0.198301
0.284845
0.12593
0.0879269
0.101994
0.406142
0.334148
0.0757784
0.190083
0.102116
0.0688878
0.0241846
0.437043
0.0734052
0.0611763
0.0672851
0.0567702
0.186848
0.133825
0.0803107
0.0651113
0.0232062
0.0215822
0.0343664
0.022561
0.036245
0.0397185
0.0945754
0.0816859
0.453084
0.0648786
0.0456547
0.46214
0.0340312
0.0605553
0.038166
0.039903
0.0601987
0.294415
0.150653
0.164913
0.144552
0.18495
0.0569474
0.11465
0.0528654
0.062458
0.0406583
0.0425217
0.0507811
0.051954
0.0446444
0.0453152
0.244911
0.282098
0.267156
0.268243
0.353653
0.278128
0.320257
0.285632
0.088862
0.108213
0.0862167
0.117629
0.127233
0.136293
0.253829
0.15535
0.091285
0.436838
0.374689
0.257095
0.161683
0.173903
0.0900235
0.127723
0.225515
0.361764
0.272024
0.221693
0.19408
0.162133
0.330706
0.273953
0.384884
0.0592528
0.0806558
0.0580058
0.0594752
0.137399
0.317087
0.2868
0.0888593
0.153084
0.0205447
0.0536434
0.0857118
0.0350825
0.077129
0.0597879
0.0271802
0.0342277
0.0854214
0.0834749
0.0788753
0.0630693
0.101759
0.0440992
0.0783181
0.0898745
0.0733599
0.262015
0.102617
0.0576425
0.0618638
0.0738849
0.453328
0.471443
0.0870238
0.362941
0.167859
0.148715
0.374408
0.157627
0.0905988
0.107545
0.155894
0.130895
0.436908
0.188064
0.105836
0.118633
0.312483
0.290418
0.285502
0.301806
0.290274
0.265907
0.264989
0.281112
0.209696
0.257269
0.29693
0.216789
0.207657
0.201654
0.283558
0.26586
