OFF
262 506 0
1.8534 1.65973 -16.0212
1.8584 1.88053 -15.8862
1.9204 1.74043 -16.0542
1.9474 1.36843 -16.3152
2.0114 1.70003 -16.1432
2.0484 1.30553 -16.4262
2.0794 1.14133 -16.5022
1.9684 1.21093 -16.3852
1.8664 1.52473 -16.0742
2.1024 1.82783 -16.0732
2.1644 2.02833 -15.9172
2.2144 1.83193 -16.0652
2.1434 1.46143 -16.3422
2.2544 1.70883 -16.1252
2.1804 1.31033 -16.4172
2.2604 1.75283 -16.0262
2.2424 1.89463 -15.8542
2.1934 1.67213 -15.9942
2.1934 1.37743 -16.2972
2.1094 1.53353 -16.0562
2.1014 1.21573 -16.3752
2.0114 1.58463 -15.9742
1.9354 1.74673 -15.8232
1.8994 1.58063 -15.9832
1.9964 1.28443 -16.2692
3.7014 5.06833 -3.60915
3.8024 5.17743 -3.55615
3.5284 5.27233 -4.05015
3.4314 5.16703 -4.10115
3.1814 5.37263 -4.74615
3.0864 5.26973 -4.79615
3.0584 5.18993 -4.88015
3.4014 5.08563 -4.18815
3.6714 4.98393 -3.69915
2.8104 5.44863 -5.66315
2.4664 5.47043 -6.81515
2.3824 5.37173 -6.85815
2.7194 5.34753 -5.70915
2.3594 5.29443 -6.92915
2.6934 5.26893 -5.78915
2.3974 5.24873 -7.01615
2.4964 5.24493 -7.10615
2.8304 5.22073 -5.98715
2.7304 5.22323 -5.88615
3.1974 5.14213 -5.09015
3.0954 5.14393 -4.98315
3.5434 5.03713 -4.40615
3.8174 4.93373 -3.92515
3.7094 4.93533 -3.81015
3.4394 5.03873 -4.29515
4.3914 5.51513 -3.68315
4.5664 5.57143 -3.78615
4.2664 5.65263 -4.27115
4.0964 5.59823 -4.17315
3.9004 5.74373 -4.96015
3.7354 5.69083 -4.86415
3.5384 5.60013 -4.79115
3.8944 5.50523 -4.09615
4.1814 5.41873 -3.60415
3.5104 5.81043 -5.86215
3.1374 5.81843 -6.98915
2.9814 5.77003 -6.90915
3.3484 5.75933 -5.77215
2.7974 5.68533 -6.84915
3.1574 5.67093 -5.70315
2.6154 5.58023 -6.81515
2.9674 5.56193 -5.66415
3.3424 5.48843 -4.74815
3.9744 5.30023 -3.55815
3.6944 5.39083 -4.05215
4.6824 5.43683 -4.10215
4.5814 5.32773 -4.15515
4.2804 5.41743 -4.62715
4.3784 5.52273 -4.57715
3.9164 5.51323 -5.30315
4.0104 5.61623 -5.25415
4.0394 5.69593 -5.17015
4.4074 5.60413 -4.49015
4.7134 5.52123 -4.01215
3.5304 5.58263 -6.18615
3.1664 5.59303 -7.27915
3.2514 5.69163 -7.23715
3.6214 5.68373 -6.14015
3.2744 5.76893 -7.16515
3.6484 5.76233 -6.06015
3.2354 5.81463 -7.07815
3.6104 5.80803 -5.96315
4.0024 5.74193 -5.06715
4.6744 5.56983 -3.90115
4.3704 5.65103 -4.38215
3.9934 4.99003 -4.02815
3.7124 5.09153 -4.50515
3.3624 5.19503 -5.18515
3.5594 5.28583 -5.25915
3.9144 5.18453 -4.58115
4.2024 5.08643 -4.10715
2.6524 5.29333 -7.18515
2.9924 5.27193 -6.07715
2.8364 5.37803 -7.24615
3.1844 5.36023 -6.14615
3.0184 5.48313 -7.28015
3.3744 5.46933 -6.18515
3.7554 5.39743 -5.30215
4.4104 5.20493 -4.15315
4.1154 5.29893 -4.62515
2.2004 5.40823 -8.22115
2.1254 5.31353 -8.25615
2.0044 5.23163 -9.75815
1.9414 5.14213 -9.78415
1.9334 5.06973 -9.82615
2.1094 5.23843 -8.31415
1.8704 4.91033 -11.3052
1.7914 4.41393 -12.7402
1.7504 4.33513 -12.7442
1.8194 4.82633 -11.3212
1.7554 4.26903 -12.7512
1.8184 4.75703 -11.3442
1.8014 4.22483 -12.7592
1.8854 4.21173 -12.7662
1.9504 4.70093 -11.3972
1.8634 4.71203 -11.3712
2.0664 5.01573 -9.92315
1.9754 5.02433 -9.87515
2.2444 5.18683 -8.45515
2.1504 5.19283 -8.38415
2.8224 5.73313 -8.35115
2.6744 5.68953 -8.29015
2.5674 5.52843 -9.84015
2.4304 5.49043 -9.79915
2.2744 5.41933 -9.76915
2.5034 5.61093 -8.24415
2.3744 5.17783 -11.3422
2.2474 4.65493 -12.7482
2.1304 4.62773 -12.7422
2.2494 5.14563 -11.3212
2.0024 4.57123 -12.7392
2.1084 5.08213 -11.3072
1.8824 4.49633 -12.7382
1.9744 4.99973 -11.3012
2.1234 5.32853 -9.75415
2.3354 5.51223 -8.21915
2.8664 5.51183 -8.58615
2.9414 5.60643 -8.55015
2.6294 5.31253 -10.0052
2.6914 5.40203 -9.97815
2.7004 5.47443 -9.93715
2.9574 5.68153 -8.49215
2.4544 4.96833 -11.4342
2.3414 4.45273 -12.7742
2.3824 4.53163 -12.7692
2.5054 5.05243 -11.4182
2.3774 4.59773 -12.7622
2.5064 5.12173 -11.3952
2.3314 4.64193 -12.7552
2.4614 5.16663 -11.3682
2.6574 5.51983 -9.88815
2.9174 5.72713 -8.42315
2.3924 5.23053 -8.51715
2.2024 5.05373 -9.96415
2.3594 5.12483 -9.99415
2.5634 5.30913 -8.56315
2.0014 4.23893 -12.7712
2.0754 4.73313 -11.4182
2.1304 4.29553 -12.7742
2.2164 4.79653 -11.4332
2.2504 4.37043 -12.7762
2.3504 4.87903 -11.4392
2.5094 5.21563 -10.0092
2.7314 5.40783 -8.58815
1.7594 3.71193 -13.9402
1.7234 3.63753 -13.9342
1.7674 2.95603 -14.8812
1.7354 2.87493 -14.8762
1.7454 2.80393 -14.8702
1.7324 3.57443 -13.9272
1.8084 2.29793 -15.5362
1.7814 2.18873 -15.5572
1.7914 2.08823 -15.5782
1.9004 2.13833 -15.4692
1.8314 2.10163 -15.5212
1.8684 2.77433 -14.8252
1.7914 2.77583 -14.8452
1.8614 3.51753 -13.9162
1.7794 3.53143 -13.9212
2.1874 3.93353 -13.9462
2.0764 3.90973 -13.9482
2.1694 3.15843 -14.8982
2.0654 3.12483 -14.9122
1.9514 3.06563 -14.9212
1.9554 3.85813 -13.9482
2.1674 2.47423 -15.5632
2.0744 2.40663 -15.6092
1.9744 2.31653 -15.6472
1.8794 2.31043 -15.5952
1.8454 3.01443 -14.9042
1.8424 3.78883 -13.9452
2.2894 3.73913 -13.9222
2.3254 3.81353 -13.9282
2.2714 2.97663 -14.8412
2.3044 3.03323 -14.8672
2.2954 3.07963 -14.8942
2.3164 3.87663 -13.9352
2.2594 2.31463 -15.4962
2.2904 2.32553 -15.5582
2.2834 2.32783 -15.6202
2.2394 2.41273 -15.5942
2.2484 3.13233 -14.8982
2.2694 3.91963 -13.9412
1.9724 3.54133 -13.9142
1.9744 2.78323 -14.8312
2.0894 2.81793 -14.8432
2.0934 3.59293 -13.9142
1.9964 2.10763 -15.5062
2.1004 2.09953 -15.5512
2.1924 2.20393 -15.5202
2.1944 2.89363 -14.8402
2.2064 3.66223 -13.9172
4.9904 5.59513 -3.27715
4.8894 5.54243 -3.33915
4.6834 5.47653 -3.21915
4.7504 5.51833 -3.13815
4.4384 5.36383 -3.12715
4.4654 5.38683 -3.03015
4.7614 5.53463 -3.49215
4.5754 5.47503 -3.38415
4.3534 5.37303 -3.30015
3.9524 5.11763 -3.24915
4.1334 5.24753 -3.25115
3.9954 5.08153 -3.07115
4.1954 5.22523 -3.07315
4.1824 5.22523 -2.96715
3.9484 5.05773 -2.96515
3.8774 4.95393 -3.13215
3.8104 4.90893 -3.03615
3.8414 4.85523 -3.23815
3.7684 4.79383 -3.15915
3.8454 5.00213 -3.30515
3.8134 4.91283 -3.40015
3.9684 4.85973 -3.63915
3.8544 4.86153 -3.51815
4.0124 4.79653 -3.50215
3.8864 4.79843 -3.36815
4.2184 4.86243 -3.62215
4.4624 4.97513 -3.71515
4.4934 4.93363 -3.71515
4.1544 4.91933 -3.74815
4.3754 5.02133 -3.83215
4.7764 5.27673 -3.88215
4.5954 5.14683 -3.88015
4.9064 5.25743 -3.77115
4.7054 5.11383 -3.76815
4.7764 5.09533 -3.77815
5.0114 5.26273 -3.78015
5.0244 5.38503 -3.70915
5.1484 5.41163 -3.70915
5.0604 5.48373 -3.60415
5.1904 5.52663 -3.58615
4.8834 5.39223 -3.82715
4.9164 5.48153 -3.73115
4.8754 5.53293 -3.61415
5.0154 5.54053 -3.47415
5.1374 5.59293 -3.43415
3 0 1 2
3 0 2 3
3 2 4 5
3 2 5 3
3 5 6 7
3 5 7 3
3 7 8 0
3 7 0 3
3 9 10 11
3 9 11 12
3 11 13 14
3 11 14 12
3 14 6 5
3 14 5 12
3 5 4 9
3 5 9 12
3 15 16 17
3 15 17 18
3 17 19 20
3 17 20 18
3 20 6 14
3 20 14 18
3 14 13 15
3 14 15 18
3 21 22 23
3 21 23 24
3 23 8 7
3 23 7 24
3 7 6 20
3 7 20 24
3 20 19 21
3 20 21 24
3 25 26 27
3 25 27 28
3 27 29 30
3 27 30 28
3 30 31 32
3 30 32 28
3 32 33 25
3 32 25 28
3 34 35 36
3 34 36 37
3 36 38 39
3 36 39 37
3 39 31 30
3 39 30 37
3 30 29 34
3 30 34 37
3 40 41 42
3 40 42 43
3 42 44 45
3 42 45 43
3 45 31 39
3 45 39 43
3 39 38 40
3 39 40 43
3 46 47 48
3 46 48 49
3 48 33 32
3 48 32 49
3 32 31 45
3 32 45 49
3 45 44 46
3 45 46 49
3 50 51 52
3 50 52 53
3 52 54 55
3 52 55 53
3 55 56 57
3 55 57 53
3 57 58 50
3 57 50 53
3 59 60 61
3 59 61 62
3 61 63 64
3 61 64 62
3 64 56 55
3 64 55 62
3 55 54 59
3 55 59 62
3 65 35 34
3 65 34 66
3 34 29 67
3 34 67 66
3 67 56 64
3 67 64 66
3 64 63 65
3 64 65 66
3 27 26 68
3 27 68 69
3 68 58 57
3 68 57 69
3 57 56 67
3 57 67 69
3 67 29 27
3 67 27 69
3 70 71 72
3 70 72 73
3 72 74 75
3 72 75 73
3 75 76 77
3 75 77 73
3 77 78 70
3 77 70 73
3 79 80 81
3 79 81 82
3 81 83 84
3 81 84 82
3 84 76 75
3 84 75 82
3 75 74 79
3 75 79 82
3 85 60 59
3 85 59 86
3 59 54 87
3 59 87 86
3 87 76 84
3 87 84 86
3 84 83 85
3 84 85 86
3 52 51 88
3 52 88 89
3 88 78 77
3 88 77 89
3 77 76 87
3 77 87 89
3 87 54 52
3 87 52 89
3 90 47 46
3 90 46 91
3 46 44 92
3 46 92 91
3 92 93 94
3 92 94 91
3 94 95 90
3 94 90 91
3 42 41 96
3 42 96 97
3 96 98 99
3 96 99 97
3 99 93 92
3 99 92 97
3 92 44 42
3 92 42 97
3 100 80 79
3 100 79 101
3 79 74 102
3 79 102 101
3 102 93 99
3 102 99 101
3 99 98 100
3 99 100 101
3 72 71 103
3 72 103 104
3 103 95 94
3 103 94 104
3 94 93 102
3 94 102 104
3 102 74 72
3 102 72 104
3 36 35 105
3 36 105 106
3 105 107 108
3 105 108 106
3 108 109 110
3 108 110 106
3 110 38 36
3 110 36 106
3 111 112 113
3 111 113 114
3 113 115 116
3 113 116 114
3 116 109 108
3 116 108 114
3 108 107 111
3 108 111 114
3 117 118 119
3 117 119 120
3 119 121 122
3 119 122 120
3 122 109 116
3 122 116 120
3 116 115 117
3 116 117 120
3 123 41 40
3 123 40 124
3 40 38 110
3 40 110 124
3 110 109 122
3 110 122 124
3 122 121 123
3 122 123 124
3 61 60 125
3 61 125 126
3 125 127 128
3 125 128 126
3 128 129 130
3 128 130 126
3 130 63 61
3 130 61 126
3 131 132 133
3 131 133 134
3 133 135 136
3 133 136 134
3 136 129 128
3 136 128 134
3 128 127 131
3 128 131 134
3 137 112 111
3 137 111 138
3 111 107 139
3 111 139 138
3 139 129 136
3 139 136 138
3 136 135 137
3 136 137 138
3 105 35 65
3 105 65 140
3 65 63 130
3 65 130 140
3 130 129 139
3 130 139 140
3 139 107 105
3 139 105 140
3 81 80 141
3 81 141 142
3 141 143 144
3 141 144 142
3 144 145 146
3 144 146 142
3 146 83 81
3 146 81 142
3 147 148 149
3 147 149 150
3 149 151 152
3 149 152 150
3 152 145 144
3 152 144 150
3 144 143 147
3 144 147 150
3 153 132 131
3 153 131 154
3 131 127 155
3 131 155 154
3 155 145 152
3 155 152 154
3 152 151 153
3 152 153 154
3 125 60 85
3 125 85 156
3 85 83 146
3 85 146 156
3 146 145 155
3 146 155 156
3 155 127 125
3 155 125 156
3 96 41 123
3 96 123 157
3 123 121 158
3 123 158 157
3 158 159 160
3 158 160 157
3 160 98 96
3 160 96 157
3 119 118 161
3 119 161 162
3 161 163 164
3 161 164 162
3 164 159 158
3 164 158 162
3 158 121 119
3 158 119 162
3 165 148 147
3 165 147 166
3 147 143 167
3 147 167 166
3 167 159 164
3 167 164 166
3 164 163 165
3 164 165 166
3 141 80 100
3 141 100 168
3 100 98 160
3 100 160 168
3 160 159 167
3 160 167 168
3 167 143 141
3 167 141 168
3 113 112 169
3 113 169 170
3 169 171 172
3 169 172 170
3 172 173 174
3 172 174 170
3 174 115 113
3 174 113 170
3 175 1 0
3 175 0 176
3 0 8 177
3 0 177 176
3 177 173 172
3 177 172 176
3 172 171 175
3 172 175 176
3 23 22 178
3 23 178 179
3 178 180 181
3 178 181 179
3 181 173 177
3 181 177 179
3 177 8 23
3 177 23 179
3 182 118 117
3 182 117 183
3 117 115 174
3 117 174 183
3 174 173 181
3 174 181 183
3 181 180 182
3 181 182 183
3 133 132 184
3 133 184 185
3 184 186 187
3 184 187 185
3 187 188 189
3 187 189 185
3 189 135 133
3 189 133 185
3 190 10 9
3 190 9 191
3 9 4 192
3 9 192 191
3 192 188 187
3 192 187 191
3 187 186 190
3 187 190 191
3 2 1 175
3 2 175 193
3 175 171 194
3 175 194 193
3 194 188 192
3 194 192 193
3 192 4 2
3 192 2 193
3 169 112 137
3 169 137 195
3 137 135 189
3 137 189 195
3 189 188 194
3 189 194 195
3 194 171 169
3 194 169 195
3 149 148 196
3 149 196 197
3 196 198 199
3 196 199 197
3 199 200 201
3 199 201 197
3 201 151 149
3 201 149 197
3 202 16 15
3 202 15 203
3 15 13 204
3 15 204 203
3 204 200 199
3 204 199 203
3 199 198 202
3 199 202 203
3 11 10 190
3 11 190 205
3 190 186 206
3 190 206 205
3 206 200 204
3 206 204 205
3 204 13 11
3 204 11 205
3 184 132 153
3 184 153 207
3 153 151 201
3 153 201 207
3 201 200 206
3 201 206 207
3 206 186 184
3 206 184 207
3 161 118 182
3 161 182 208
3 182 180 209
3 182 209 208
3 209 210 211
3 209 211 208
3 211 163 161
3 211 161 208
3 178 22 21
3 178 21 212
3 21 19 213
3 21 213 212
3 213 210 209
3 213 209 212
3 209 180 178
3 209 178 212
3 17 16 202
3 17 202 214
3 202 198 215
3 202 215 214
3 215 210 213
3 215 213 214
3 213 19 17
3 213 17 214
3 196 148 165
3 196 165 216
3 165 163 211
3 165 211 216
3 211 210 215
3 211 215 216
3 215 198 196
3 215 196 216
3 217 218 219
3 217 219 220
3 219 221 222
3 219 222 220
3 223 51 50
3 223 50 224
3 50 58 225
3 50 225 224
3 225 221 219
3 225 219 224
3 219 218 223
3 219 223 224
3 68 26 226
3 68 226 227
3 226 228 229
3 226 229 227
3 229 221 225
3 229 225 227
3 225 58 68
3 225 68 227
3 222 221 229
3 222 229 230
3 229 228 231
3 229 231 230
3 231 228 232
3 231 232 233
3 232 234 235
3 232 235 233
3 226 26 25
3 226 25 236
3 25 33 237
3 25 237 236
3 237 234 232
3 237 232 236
3 232 228 226
3 232 226 236
3 48 47 238
3 48 238 239
3 238 240 241
3 238 241 239
3 241 234 237
3 241 237 239
3 237 33 48
3 237 48 239
3 235 234 241
3 242 243 244
3 238 47 90
3 238 90 245
3 90 95 246
3 90 246 245
3 246 243 242
3 246 242 245
3 242 240 238
3 242 238 245
3 103 71 247
3 103 247 248
3 247 249 250
3 247 250 248
3 250 243 246
3 250 246 248
3 246 95 103
3 246 103 248
3 244 243 250
3 244 250 251
3 250 249 252
3 250 252 251
3 252 249 253
3 252 253 254
3 253 255 256
3 253 256 254
3 247 71 70
3 247 70 257
3 70 78 258
3 70 258 257
3 258 255 253
3 258 253 257
3 253 249 247
3 253 247 257
3 88 51 223
3 88 223 259
3 223 218 260
3 223 260 259
3 260 255 258
3 260 258 259
3 258 78 88
3 258 88 259
3 256 255 260
3 256 260 261
3 260 218 217
3 260 217 261
