OFF
294 576 0
6.88717 -1.35803 -2.81621
7.01517 -1.23553 -2.88021
6.90817 -1.58033 -2.72821
13.0362 -1.58563 -5.29121
13.0252 -1.58343 -5.34621
13.0992 -1.52353 -5.18621
12.6262 0.935173 -6.35521
6.72617 3.58677 -4.03521
6.59517 3.56247 -4.02721
6.62717 3.59337 -3.97321
7.63617 3.60657 -2.37721
6.98917 3.58307 -4.21721
7.48417 3.52277 -4.58221
6.97217 3.57227 -4.24221
9.16817 -0.807027 -0.616211
9.10617 -0.688527 -0.669211
9.05517 -0.816727 -0.533211
9.31217 -0.743727 -0.747211
9.30417 -0.407227 -0.871211
9.70217 -0.572827 -1.00221
9.07217 -0.135327 -0.706211
9.04717 -0.572827 -0.638211
7.19517 -1.58173 -2.83721
7.07117 -1.59223 -2.71821
7.35717 -1.58893 -2.86821
8.88017 -1.59003 0.664789
6.96117 -1.59873 -2.66921
6.87317 -0.764627 -2.95421
7.27617 -0.764627 -3.13221
8.77017 -0.764627 -3.82221
7.88117 -1.23553 -3.26221
7.32917 -1.47863 -2.94421
7.91217 -1.56833 -3.16421
8.54017 -1.55473 0.889789
9.70117 -1.32273 0.304789
8.80717 -1.22283 0.666789
8.82817 -0.582627 0.460789
9.16217 -1.01753 0.430789
10.7012 -0.935227 -0.302211
9.26617 -0.931227 0.346789
13.8862 -0.395727 -2.00521
14.5512 -1.55443 -1.71021
14.2652 -0.258327 -2.25021
13.8022 -0.950127 -1.69921
13.1592 -1.04843 -1.35021
8.72817 3.57187 -0.725211
8.93817 2.48007 -0.526211
9.98117 3.04297 -1.34921
9.36317 2.93157 -0.945211
9.25017 3.04327 -0.897211
9.33617 -0.865927 0.273789
9.51517 -0.821627 -0.280211
9.34617 -0.821527 0.141789
9.44317 2.82747 -1.02921
9.42417 2.81067 -1.07821
9.70317 2.81667 -1.25621
9.13017 2.80657 -1.57521
9.53817 2.81557 -1.52621
12.0332 3.58147 -7.46321
11.7822 3.58457 -7.27621
9.03717 3.58457 -1.02221
13.8242 3.58457 -4.09121
11.8942 3.57297 -7.39121
12.1132 3.54017 -7.54421
9.36417 3.55367 -5.78421
9.93717 -1.23553 -4.17521
11.0902 -1.47863 -4.58021
8.84317 -1.47863 -3.60221
10.9892 -0.764627 -4.84721
12.4742 -0.764627 -5.53321
11.9892 -1.23553 -5.08621
12.5952 -1.47863 -5.23521
12.9802 -1.56673 -5.35421
9.98017 -1.56833 -4.05721
12.9342 -1.58893 -5.24521
14.1572 -1.59003 -1.60921
10.4932 -1.44003 0.000789284
11.5502 -1.32273 -0.507211
10.6022 -1.18483 -0.145211
12.6102 -1.44003 -0.920211
13.3942 -1.32273 -1.31621
12.4892 -1.18483 -0.982211
12.3642 -0.935227 -1.05721
11.5402 -1.04843 -0.624211
9.36117 -0.832027 0.210789
13.6332 -0.833627 -1.74521
13.5932 -0.822027 -1.80121
11.5242 -0.867327 -0.725211
13.6902 -0.868227 -1.71421
13.1752 -0.821627 -1.96221
9.36117 -0.814427 -0.617211
12.9872 -0.806827 -2.37421
10.3622 -0.743727 -1.23321
13.3042 -0.815727 -2.41721
13.1632 -0.740727 -2.53021
11.9222 -0.743727 -1.95421
12.5552 -0.572827 -2.34121
12.9362 -0.407227 -2.59821
11.8892 -0.241627 -2.17321
11.0952 0.302073 -2.01221
11.1302 -0.572827 -1.67221
10.3442 -0.241627 -1.42821
10.7022 2.92977 -1.76721
9.42517 2.86267 -0.985211
13.4272 2.82757 -3.45221
11.4652 2.86187 -2.23021
12.9972 2.81667 -3.53321
13.3832 2.81627 -3.49321
13.4802 2.86047 -3.46021
13.5572 2.92617 -3.51921
12.2462 2.92977 -2.71521
11.4812 3.31727 -2.38321
10.6132 3.17947 -1.78521
12.6612 3.11117 -3.03721
12.8062 3.37597 -3.24621
13.6722 3.12467 -3.67521
10.1532 3.37597 -1.56721
11.4792 3.04297 -2.27821
9.06417 1.72967 -0.372211
6.66817 2.03947 -3.65721
6.59617 3.41847 -3.99521
6.64517 2.65087 -3.80821
6.71517 3.14187 -3.98821
6.96817 3.40897 -4.22421
7.02417 2.65087 -4.02621
7.51317 3.14187 -4.48221
8.42517 2.65087 -4.86721
8.34917 3.40897 -5.09821
9.40617 3.14187 -5.65821
9.56117 1.86557 -5.22621
9.36317 3.52277 -5.78221
11.2382 3.52277 -6.97921
11.7722 3.40897 -7.26621
10.3992 3.40897 -6.39621
11.2952 3.14187 -6.83221
10.5052 2.65087 -6.11621
12.1422 3.51537 -7.51621
12.5832 3.14187 -6.75621
12.3282 2.50377 -7.07121
14.0212 2.48007 -3.54621
14.1942 1.81527 -3.29621
14.0602 3.16897 -3.93121
13.8212 2.01717 -3.19421
13.1422 2.16007 -3.66521
13.3552 1.88397 -3.20321
9.47117 2.50537 -1.95621
9.28617 2.16007 -1.73021
10.2812 2.16007 -2.30621
11.0422 1.60787 -2.51921
11.0062 2.50537 -2.86821
11.7352 2.69317 -3.37021
10.2742 2.69317 -2.49021
9.28917 2.69317 -1.89721
11.7582 2.16007 -3.16121
12.7472 2.16007 -3.73421
12.5362 2.50537 -3.77721
12.7142 2.69317 -3.95921
9.34917 2.79487 -1.83221
9.30917 2.77317 -1.89121
12.7292 2.77317 -3.96121
9.09817 2.63177 -1.76121
9.04717 2.76067 -1.72521
7.38717 -1.63373 -1.61521
12.1202 3.55267 -7.54621
12.1412 3.57227 -7.49921
12.0822 3.14187 -7.31921
11.8992 2.65087 -6.95221
12.2652 2.65087 -7.16421
12.6262 0.008673 -5.99121
12.8432 -1.23553 -5.46421
12.8642 -0.764627 -5.70621
13.1842 -0.802827 -2.48121
13.2522 -0.703427 -2.54621
12.9172 2.50547 -3.98821
12.9802 2.75867 -4.10821
13.0042 2.50537 -3.99421
13.1652 0.954973 -3.22921
12.7672 2.79487 -3.90521
13.0932 2.80797 -3.95621
13.5182 3.47197 -3.74421
13.9102 0.555773 -2.49521
14.1202 0.941573 -2.79921
13.6342 1.64587 -2.91721
13.5882 0.952473 -2.56621
13.5322 0.954773 -2.57921
13.4912 0.953573 -2.62721
13.3862 0.396973 -2.63621
12.4972 0.302073 -2.71821
12.8362 0.953573 -3.20021
13.0872 0.302073 -3.00021
11.8242 0.953573 -2.66521
12.9862 1.60787 -3.58521
12.4112 1.60787 -3.28021
9.68917 0.302073 -1.30521
10.3132 0.953573 -1.86521
9.29517 0.953573 -1.32621
9.67117 1.60787 -1.75721
9.10417 0.302073 -0.996211
9.10017 1.60787 -1.42521
9.07517 2.05657 -1.42521
9.31217 0.952373 -0.282211
9.37917 0.952473 -0.340211
9.32117 1.88397 -0.914211
9.28317 0.491873 -0.478211
9.01217 0.163473 0.139789
8.88317 0.941573 -0.0302107
8.69217 0.501473 0.201789
9.18917 0.948173 -0.203211
8.78417 1.81527 -0.239211
6.75917 0.935173 -3.37921
6.93017 0.008673 -3.19521
6.80317 1.86557 -3.66521
7.62017 1.86557 -4.12621
7.15017 0.935173 -3.57721
7.77617 0.008673 -3.60921
8.59817 0.935173 -4.34221
9.78617 0.008673 -4.59721
11.4982 1.86557 -6.32321
12.1882 0.935173 -6.23921
10.7482 0.935173 -5.47821
11.7922 0.008673 -5.58221
12.3042 1.86557 -6.77821
12.5662 0.935173 -6.43221
12.5182 1.86557 -6.66121
8.68517 3.01997 -0.527211
8.62017 0.937873 0.111789
8.60017 0.945273 0.143789
8.50517 -1.59863 0.916789
8.49317 -1.63413 0.962789
8.91217 -1.58323 0.718789
10.3812 -1.57633 0.0937893
11.5532 -1.55683 -0.414211
14.5802 -1.58523 -1.72521
14.5782 -1.57633 -1.71721
14.2212 3.57227 -4.25221
14.2022 3.54647 -4.22021
14.3612 0.937473 -2.92521
14.2442 3.26947 -4.11621
9.78917 3.55147 -1.39921
11.4792 3.50927 -2.46121
14.1152 3.58157 -4.21321
10.5412 3.57097 -1.89421
9.07117 3.57977 -0.977211
8.71717 3.64357 -0.687211
13.6822 3.55367 -5.10421
12.7822 1.86557 -6.19521
12.4812 2.65087 -6.83821
12.7642 0.935173 -6.09321
13.1892 0.935173 -5.28921
13.0712 0.008673 -5.37821
13.2652 -1.23553 -4.83121
13.0452 -0.764627 -5.35621
12.8342 0.008673 -5.86021
13.5602 -1.56833 -4.11421
8.46517 -1.61183 0.866789
8.66917 3.59337 -0.789211
8.76817 3.58677 -0.851211
14.2212 3.52037 -4.25821
14.3732 0.935173 -3.05021
14.2542 1.86557 -3.59821
14.5792 -1.56843 -1.75421
14.4992 -0.785527 -2.20021
14.2692 -1.23553 -2.56921
14.4472 -1.58893 -1.73421
11.5372 -1.58733 -0.429211
8.58317 -1.59223 0.793789
11.2452 -0.819027 -1.33921
9.16217 -0.575327 -0.350211
9.20617 1.60787 -1.02421
9.16117 0.627873 -0.768211
9.41517 2.80797 -1.72621
12.9142 2.81447 -3.66921
13.2442 1.28077 -3.19721
13.5112 3.52277 -5.37121
13.8782 3.14187 -4.67321
14.0992 2.65087 -4.14121
13.6342 2.65087 -4.91721
13.9922 1.86557 -4.06021
14.2372 0.935173 -3.30721
14.3732 -0.764627 -2.48021
14.3932 0.008673 -2.68921
14.1582 0.008673 -3.16721
12.8412 3.40897 -6.40021
13.5542 3.40897 -5.27421
13.2312 3.14187 -5.71421
12.9482 2.65087 -6.06021
13.3872 1.86557 -5.12721
13.6152 0.008673 -4.27221
13.8132 0.935173 -4.10821
13.9912 -0.764627 -3.30721
13.4292 -0.764627 -4.52521
13.7682 -1.23553 -3.69921
14.0652 -1.47863 -2.97021
13.5282 -1.47863 -4.20421
3 0 1 2
3 3 4 5
3 6 5 4
3 7 8 9
3 8 10 9
3 11 8 7
3 12 8 13
3 8 11 13
3 14 15 16
3 17 15 14
3 15 17 18
3 17 19 18
3 20 16 21
3 16 15 21
3 22 23 2
3 24 23 22
3 25 23 24
3 2 23 26
3 0 27 1
3 28 29 30
3 30 31 28
3 31 1 28
3 32 22 2
3 2 1 31
3 31 32 2
3 33 34 35
3 35 36 33
3 37 36 35
3 37 38 39
3 40 41 42
3 43 44 40
3 45 46 47
3 48 47 49
3 39 38 50
3 51 16 52
3 53 54 55
3 54 56 57
3 54 57 55
3 58 11 59
3 60 61 59
3 62 63 64
3 64 13 62
3 13 58 62
3 64 12 13
3 13 11 58
3 29 65 30
3 65 66 67
3 65 67 30
3 67 31 30
3 68 69 70
3 70 71 66
3 66 65 70
3 65 68 70
3 72 22 73
3 66 71 72
3 66 72 73
3 32 31 67
3 67 66 73
3 67 73 32
3 73 22 32
3 22 4 24
3 74 75 24
3 76 77 34
3 77 78 34
3 78 35 34
3 79 80 77
3 80 81 77
3 81 78 77
3 77 76 79
3 44 43 82
3 82 38 83
3 82 83 44
3 83 78 81
3 83 81 44
3 38 37 83
3 37 35 78
3 37 78 83
3 52 84 85
3 85 86 52
3 86 51 52
3 50 38 87
3 85 84 50
3 85 50 87
3 82 43 88
3 85 87 88
3 87 38 82
3 87 82 88
3 86 89 51
3 90 91 14
3 91 92 14
3 92 17 14
3 90 93 91
3 91 94 95
3 95 92 91
3 96 97 98
3 98 99 100
3 98 100 96
3 100 92 95
3 100 95 96
3 95 94 96
3 101 19 100
3 19 17 92
3 19 92 100
3 100 99 101
3 102 48 103
3 103 53 104
3 104 105 103
3 105 102 103
3 57 106 55
3 104 53 55
3 104 55 107
3 55 106 107
3 108 109 110
3 110 102 105
3 110 105 108
3 105 104 108
3 111 112 113
3 111 113 114
3 113 115 114
3 116 47 112
3 116 112 111
3 47 48 102
3 102 117 47
3 117 112 47
3 110 109 113
3 113 112 117
3 117 102 110
3 117 110 113
3 46 118 49
3 47 46 49
3 119 120 121
3 120 122 121
3 123 120 8
3 123 8 12
3 122 120 123
3 122 123 124
3 123 125 124
3 126 124 125
3 125 123 127
3 127 128 125
3 128 129 126
3 128 126 125
3 64 130 12
3 130 127 12
3 127 123 12
3 64 63 131
3 131 132 133
3 133 127 130
3 133 130 131
3 130 64 131
3 134 135 128
3 135 129 128
3 128 127 133
3 133 132 134
3 133 134 128
3 136 137 138
3 139 140 141
3 115 139 141
3 109 142 115
3 142 139 115
3 107 143 144
3 145 146 147
3 147 148 149
3 147 149 145
3 149 150 151
3 149 151 145
3 151 152 145
3 153 154 155
3 155 156 150
3 150 149 155
3 149 148 153
3 149 153 155
3 157 158 159
3 158 150 159
3 150 156 159
3 158 152 151
3 151 150 158
3 152 160 145
3 160 146 145
3 157 56 161
3 157 161 158
3 161 160 152
3 161 152 158
3 2 26 162
3 163 62 58
3 163 58 164
3 163 63 62
3 132 165 134
3 165 166 134
3 63 165 132
3 132 131 63
3 163 167 63
3 167 165 63
3 69 168 169
3 169 71 69
3 71 70 69
3 4 72 170
3 72 169 170
3 169 168 170
3 4 22 72
3 71 169 72
3 74 24 4
3 74 4 3
3 80 79 41
3 80 41 44
3 44 81 80
3 41 40 44
3 93 171 91
3 171 94 91
3 172 171 93
3 94 171 172
3 96 94 97
3 154 173 155
3 173 174 156
3 173 156 155
3 175 176 143
3 143 174 175
3 174 173 175
3 177 157 159
3 156 174 159
3 174 178 177
3 174 177 159
3 106 178 107
3 179 114 115
3 113 109 115
3 142 180 181
3 142 181 139
3 181 140 139
3 142 109 182
3 182 180 142
3 180 182 43
3 180 43 40
3 181 180 42
3 180 40 42
3 43 182 183
3 43 183 88
3 183 184 88
3 184 85 88
3 182 109 108
3 108 104 184
3 184 183 108
3 183 182 108
3 144 185 107
3 185 184 107
3 184 104 107
3 186 86 185
3 86 85 184
3 86 184 185
3 187 97 188
3 97 94 189
3 97 189 188
3 188 190 187
3 172 93 176
3 176 175 172
3 175 189 172
3 189 94 172
3 175 173 191
3 191 189 175
3 154 192 188
3 192 190 188
3 188 189 191
3 191 173 154
3 191 154 188
3 193 19 101
3 99 148 194
3 99 194 101
3 194 195 193
3 194 193 101
3 98 97 187
3 190 148 99
3 190 99 187
3 99 98 187
3 192 154 153
3 153 148 192
3 148 190 192
3 147 146 196
3 196 195 194
3 194 148 196
3 148 147 196
3 21 15 197
3 197 198 21
3 18 19 193
3 193 195 18
3 195 198 197
3 195 197 18
3 197 15 18
3 146 160 198
3 198 195 146
3 195 196 146
3 161 199 21
3 199 20 21
3 198 160 161
3 198 161 21
3 103 48 200
3 200 201 103
3 201 84 103
3 84 53 103
3 200 39 50
3 84 201 50
3 201 200 50
3 202 54 52
3 54 53 84
3 54 84 52
3 52 203 202
3 204 205 36
3 205 206 36
3 37 39 200
3 200 207 37
3 207 204 37
3 204 36 37
3 200 48 49
3 118 204 207
3 118 207 49
3 207 200 49
3 208 205 46
3 205 204 118
3 205 118 46
3 27 0 119
3 119 209 27
3 209 210 27
3 210 1 27
3 121 122 211
3 211 210 209
3 211 209 121
3 209 119 121
3 124 212 213
3 213 210 211
3 211 122 124
3 211 124 213
3 214 29 28
3 28 1 210
3 210 213 28
3 213 212 214
3 213 214 28
3 214 212 215
3 215 216 214
3 216 65 29
3 216 29 214
3 212 124 126
3 129 215 126
3 215 212 126
3 135 134 217
3 217 218 219
3 219 215 129
3 219 129 217
3 129 135 217
3 220 69 68
3 68 65 216
3 68 216 220
3 216 215 219
3 216 219 220
3 219 218 220
3 220 218 69
3 218 168 69
3 217 134 166
3 166 165 221
3 221 168 218
3 221 218 166
3 218 217 166
3 163 222 167
3 222 168 221
3 222 221 167
3 221 165 167
3 163 4 170
3 163 170 222
3 170 168 222
3 138 223 6
3 138 6 4
3 138 4 136
3 4 163 136
3 224 33 225
3 33 36 206
3 206 225 33
3 208 45 225
3 225 206 208
3 206 205 208
3 225 45 224
3 224 226 227
3 226 228 227
3 33 224 227
3 33 227 229
3 33 229 230
3 76 34 33
3 76 33 231
3 231 33 230
3 229 232 233
3 229 233 230
3 233 41 231
3 233 231 230
3 76 231 79
3 231 41 79
3 234 235 236
3 140 181 236
3 236 235 140
3 42 41 236
3 236 181 42
3 233 232 237
3 237 234 233
3 234 236 233
3 236 41 233
3 140 235 141
3 141 235 179
3 115 141 179
3 235 238 239
3 235 239 179
3 239 111 114
3 239 114 179
3 240 241 234
3 241 238 235
3 241 235 234
3 241 240 242
3 116 111 239
3 239 238 116
3 116 238 45
3 45 47 116
3 241 242 45
3 238 241 45
3 224 243 226
3 208 46 45
3 243 224 45
3 11 7 60
3 59 11 60
3 58 59 61
3 164 244 163
3 163 244 136
3 137 245 246
3 223 138 246
3 138 137 246
3 223 247 6
3 245 248 247
3 247 223 245
3 223 246 245
3 249 250 251
3 252 247 251
3 247 248 249
3 247 249 251
3 6 247 252
3 6 252 251
3 5 6 251
3 5 251 250
3 253 3 5
3 24 75 25
3 26 254 162
3 243 45 10
3 10 45 255
3 45 256 255
3 242 256 45
3 256 242 60
3 60 242 240
3 60 240 61
3 234 257 244
3 234 237 257
3 257 258 259
3 237 232 260
3 261 257 260
3 257 237 260
3 258 257 261
3 260 262 261
3 75 263 232
3 75 232 264
3 264 232 229
3 25 75 264
3 25 227 265
3 229 227 264
3 227 25 264
3 228 254 227
3 90 14 16
3 90 16 266
3 16 51 266
3 267 203 52
3 267 52 16
3 267 16 20
3 203 268 202
3 268 56 202
3 203 267 269
3 269 268 203
3 267 20 269
3 268 269 56
3 269 20 199
3 269 199 56
3 202 56 54
3 199 161 56
3 57 56 270
3 56 157 270
3 271 106 57
3 271 57 270
3 271 270 178
3 270 157 178
3 271 178 106
3 178 157 177
3 143 107 178
3 178 174 143
3 144 143 272
3 272 186 144
3 186 185 144
3 176 272 143
3 176 93 186
3 272 176 186
3 93 86 186
3 89 86 93
3 89 93 266
3 266 93 90
3 51 89 266
3 273 244 257
3 274 273 257
3 275 274 257
3 257 259 275
3 275 276 274
3 277 276 275
3 277 275 259
3 259 258 278
3 278 277 259
3 261 279 280
3 280 258 261
3 281 277 278
3 278 258 280
3 278 280 281
3 280 279 281
3 262 281 279
3 261 262 279
3 75 74 263
3 263 74 232
3 10 255 9
3 255 7 9
3 255 256 7
3 7 256 60
3 61 240 58
3 58 240 234
3 58 234 164
3 234 244 164
3 136 244 273
3 282 137 136
3 282 136 273
3 273 274 283
3 283 282 273
3 276 284 274
3 284 282 283
3 284 283 274
3 285 245 137
3 282 284 137
3 284 285 137
3 285 284 286
3 285 286 245
3 286 287 248
3 286 248 245
3 276 277 288
3 288 287 286
3 286 284 276
3 286 276 288
3 289 290 287
3 287 288 289
3 288 277 281
3 288 281 289
3 290 250 249
3 249 248 290
3 248 287 290
3 290 291 250
3 291 292 293
3 291 293 250
3 293 5 250
3 289 281 262
3 289 262 291
3 262 292 291
3 291 290 289
3 232 253 260
3 253 292 260
3 292 262 260
3 232 3 253
3 253 5 293
3 293 292 253
3 232 74 3
3 26 23 265
3 265 227 26
3 227 254 26
3 265 23 25
3 162 254 228
