0.382736
0.465881
0.380717
0.46273
0.651959
0.574018
0.686493
0.584901
0.359835
0.470526
0.709671
0.731021
0.71067
0.568406
0.324781
0.649372
0.792616
0.752991
0.774196
0.776442
0.55377
0.717435
0.655661
0.591257
0.69415
0.445103
0.639717
0.570176
0.707093
0.576838
0.251907
0.696413
0.42532
0.473502
0.350214
0.296675
0.284557
0.454875
0.44901
0.360743
0.224777
0.293632
0.351282
0.297631
0.35629
0.327097
0.322906
0.381151
0.23099
0.32679
0.248978
0.389728
0.356411
0.279411
0.351397
0.433489
0.356806
0.371239
0.315136
0.385315
0.440787
0.38237
0.318347
0.345955
0.395563
0.466842
0.377347
0.17613
0.328994
0.408274
0.41401
0.184181
0.39812
0.234978
0.240595
0.253125
0.265452
0.261956
0.475997
0.425665
0.356038
0.410318
0.396889
0.356268
0.476028
0.286062
0.395174
0.207067
0.454316
0.380324
0.282931
0.435999
0.453151
0.404111
0.251383
0.407023
0.319798
0.426858
0.365452
0.384824
0.294835
0.377134
0.228559
0.377573
0.409645
0.413758
0.353762
0.392929
0.434323
0.264326
0.321326
0.449674
0.427375
0.441672
0.375504
0.281232
0.449146
0.416635
0.387628
0.295466
0.345736
0.326308
0.259926
0.350961
0.460411
0.398675
0.26382
0.448056
0.340292
0.258761
0.351127
0.237033
0.467196
0.274692
0.416184
0.365276
0.220053
0.371867
0.171521
0.489213
0.30556
0.336632
0.400321
0.371034
0.303488
0.320853
0.313229
0.319623
0.491349
0.355152
0.486091
0.459064
0.285805
0.443053
0.194901
0.465804
0.480017
0.44515
0.351571
0.435686
0.336654
0.398476
0.443235
0.459247
0.361553
0.315861
0.319127
0.340876
0.343603
0.337531
0.326939
0.367608
0.300347
0.371387
0.430061
0.348411
0.354306
0.397278
0.248212
0.346829
0.596149
0.375285
0.452965
0.412339
0.434328
0.324928
0.44013
0.375588
0.293043
0.450351
0.398598
0.445121
0.411544
0.318736
0.495718
0.524156
0.33382
0.363758
0.329693
0.318396
0.373945
0.341386
0.396388
0.232972
0.323503
0.340599
0.39513
0.310218
0.347922
0.317047
0.323267
0.338584
0.524913
0.447993
0.4728
0.455411
0.340999
0.410434
0.397832
0.3892
0.52407
0.447756
0.405048
0.480988
0.29938
0.399066
0.465544
0.443282
0.284758
0.331527
0.32078
0.343566
0.311978
0.329745
0.394316
0.231071
0.318189
0.339075
0.371313
0.306274
0.387459
0.326372
0.282733
0.357204
0.419072
0.419545
0.523533
0.516723
0.40285
0.433755
0.411898
0.400321
0.430776
0.437515
0.399666
0.352876
0.40139
0.324745
0.483025
0.425725
0.289874
0.338203
0.329467
0.356575
0.404145
0.359063
0.364071
0.359874
0.518336
0.505445
0.558145
0.547654
0.635845
0.576994
0.470467
0.638105
0.507562
0.485306
0.648589
0.518408
0.672808
0.51901
0.462772
0.375848
0.687025
0.299214
0.71697
0.591114
0.683661
0.590725
0.672691
0.68535
0.521287
0.503493
0.420796
0.534022
0.649219
0.659509
0.392698
0.248977
0.585967
0.5211
0.446689
0.499626
0.601621
0.563576
0.446245
0.594996
0.427389
0.24988
0.310905
0.41839
0.471644
0.702071
0.648198
0.504056
0.439917
0.232915
0.397847
0.307434
0.455785
0.482631
0.285704
0.345139
0.670826
0.523233
0.394719
0.597488
0.419122
0.50828
0.49023
0.526829
0.489729
0.460041
0.220502
0.51397
0.586979
0.701701
0.514724
0.493631
0.670676
0.603352
0.671565
0.70503
0.681788
0.655793
0.711774
0.543605
0.45791
0.525029
0.630343
0.487011
0.600084
0.548239
0.681323
0.565405
0.506916
0.531715
0.494025
0.609507
0.613433
0.731282
0.604192
0.615821
0.521824
0.585665
0.19368
0.557134
0.515003
0.672666
0.555556
0.550608
0.557472
0.37816
0.257619
0.681851
0.219479
0.663111
0.494541
0.512472
0.550471
0.599064
0.514969
0.494569
0.566053
0.606964
0.619684
0.667375
0.509814
0.479887
0.490472
0.589103
0.542698
0.504714
0.506418
0.75004
0.358835
0.4826
0.821223
0.73469
0.585659
0.541016
0.594276
0.50137
0.417991
0.439733
0.562252
0.413981
0.685507
0.74535
0.326612
0.678383
0.612106
0.722293
0.486779
0.784557
0.720298
0.572967
0.707348
0.644854
0.646526
0.709215
0.697793
0.641198
0.677782
0.653968
0.698362
0.85586
0.581956
0.774577
0.577689
0.574142
0.741945
0.652726
0.769459
0.784638
0.504718
0.718282
0.721532
0.750632
0.719597
0.678575
0.687709
0.695115
0.544649
1
0.771399
0.728422
0.852763
0.870457
0.640123
0.637268
0.715545
0.670086
0.781533
0.707503
0.767745
0.77669
0.695955
0.765227
0.736978
0.668161
0.689218
0.330987
0.740293
0.644001
0.681802
0.734251
0.763814
0.746821
0.556274
0.627242
0.65457
0.562351
0.203387
0.711165
0.311595
0.412043
0.346412
0.421108
0.687415
0.645593
0.495882
0.666154
0.379637
0.602421
0.600344
0.515188
0.676787
0.551767
0.34482
0.522823
0.757119
0.679581
0.820771
0.66751
0.804224
0.794018
0.80722
0.581822
0.686917
0.713877
0.81697
0.61242
0.777347
0.905591
0.430262
0.399511
0.846802
0.789841
0.813906
0.565194
0.795452
0.782522
0.405908
0.663594
0.755802
0.638143
0.780138
0.730999
0.531735
0.823247
0.927159
0.741013
0.283447
0.20993
0.219418
0.13934
0.230318
0.159452
0.228887
0.201514
0.193842
0.429543
0.37533
0.30216
0.154358
0.112181
0.173715
0.647937
0.386334
0.666892
0.375476
0.411878
0.537837
0.386405
0.398228
0.353155
0.292731
0.241916
0.222253
0.203101
0.120493
0.276176
0.297178
0.308473
0.236427
0.214513
0.142161
0.234717
0.620657
0.177379
0.25558
0.187475
0.201708
0.219231
0.193565
0.226457
0.190352
0.0159844
0.217821
0.235018
0.193076
0.137313
0.375291
0.15484
0.230092
0.661852
0.178416
0.267527
0.297239
0.20374
0.22817
0.19636
0.102666
0.180735
0.112834
0.163273
0.238526
0.20314
0.125573
0.13553
0.132011
0.152649
0.259845
0.2154
0.246166
0.153892
0.163729
0.217594
0.200283
0.188321
0.160506
0.0498717
0.141107
0.169026
0.123776
0.259954
0.175892
0.043585
0.244204
0.206031
0.299998
0.177695
0.324215
0.19304
0.0990811
0.189658
0.156403
0.135228
0.406675
0.196032
0.179675
0.221628
0.467955
0.556936
0.225739
0.20864
0.302598
0.16125
0.100563
0.266999
0.369473
0
0.665994
0.219455
0.180119
0.110429
0.222831
0.152054
0.355148
0.339589
0.248305
0.674086
0.245686
0.218427
0.219296
0.227888
0.145426
0.180006
0.150079
0.138698
0.396534
0.350232
0.231565
0.356266
0.334062
0.269814
0.352476
0.208378
0.445668
0.564585
0.581212
0.682786
0.742344
0.562843
0.545166
0.595861
0.781116
0.564769
0.631671
0.59046
0.740397
0.550255
0.71858
0.712078
0.361756
0.302042
0.340381
0.292859
0.432414
0.424217
0.462701
0.458817
0.257254
0.181226
0.238699
0.222975
0.184609
0.167071
0.163725
0.342505
0.407744
0.51761
0.545421
0.867518
0.709799
0.349198
0.325599
0.44198
0.744205
0.519707
0.5348
0.310819
0.828996
0.369997
0.728782
0.607964
0.239262
0.280704
0.132155
0.251889
0.229013
0.212868
0.308553
0.439665
0.167762
0.310658
0.233946
0.276381
0.361083
0.226082
0.172341
0.240697
0.55034
0.861545
0.504041
0.683058
0.425962
0.441421
0.331229
0.411178
0.547675
0.309824
0.274389
0.503761
0.306781
0.419657
0.698028
0.512471
0.263983
0.141055
0.206754
0.253024
0.322866
0.247326
0.230888
0.295642
0.348676
0.171589
0.403461
0.196242
0.183478
0.216509
0.256463
0.210429
0.765567
0.708572
0.735567
0.788455
0.825106
0.474114
0.755605
0.601293
0.542032
0.53093
0.312288
0.542665
0.825076
0.300655
0.745407
0.53065
0.218553
0.111306
0.251906
0.237467
0.274737
0.344973
0.207798
0.170082
0.358539
0.427886
0.257137
0.410869
0.379022
0.407288
0.404644
0.407009
0.27702
0.321873
0.31771
0.334065
0.361913
0.314024
0.374477
0.337882
0.240525
0.345716
0.237966
0.337365
0.377604
0.357562
0.320729
0.314046
0.378987
0.409788
0.410548
0.404146
0.381832
0.401635
0.466221
0.410845
0.424324
0.383676
0.293323
0.42662
0.417569
0.394879
0.433164
0.357763
0.310584
0.37176
0.368776
0.354768
0.355474
0.387195
0.393459
0.347541
0.313087
0.259775
0.384961
0.312478
0.363028
0.45285
0.328467
0.318267
0.461951
0.362944
0.311671
0.336251
0.344854
0.442822
0.379762
0.409376
0.402587
0.417552
0.33996
0.408042
0.379492
0.391888
0.412593
0.380988
0.24736
0.340415
0.326324
0.331915
0.373398
0.277439
0.383578
0.326431
0.275772
0.323466
0.329887
0.36478
0.361128
0.286495
0.325988
0.334327
0.311347
0.412316
0.264471
0.394409
0.366337
0.407605
0.309204
0.408047
0.283869
0.363803
0.339434
0.422872
0.331656
0.4432
0.312032
0.339885
0.315586
0.37581
0.265501
0.313687
0.439105
0.451824
0.400937
0.335374
0.292991
0.281206
0.393608
0.34563
0.355379
0.38734
0.345408
0.334907
0.40726
0.426161
0.475494
0.408885
0.449348
0.336338
0.263733
0.409117
0.42479
0.492627
