0.669348
0.718153
0.74961
0.616582
0.512504
0.58109
0.646169
0.558426
0.834871
0.696403
0.773165
0.746715
0.504616
0.671747
0.802302
0.761176
0.687214
0.799196
0.768594
0.69254
0.536604
0.646029
0.732328
0.715225
0.701646
0.685412
0.582708
0.465063
0.59151
0.697098
0.7283
0.621728
0.850987
0.823176
0.864073
0.859156
0.733451
0.83745
0.852352
0.831809
0.909321
0.811525
0.777203
0.751227
0.808013
0.820168
0.880815
0.818354
0.694331
0.756008
0.743067
0.738427
0.810156
0.812432
0.830583
0.802384
0.767991
0.694172
0.776199
0.840867
0.778086
0.794758
0.781257
0.710187
0.863836
0.803789
0.826179
0.764907
0.776535
0.781856
0.791615
0.895989
0.841119
0.787391
0.752872
0.880873
0.753635
0.781307
0.836375
0.764734
0.650601
0.75042
0.638013
0.694686
0.843326
0.721426
0.84545
0.695302
0.736525
0.74691
0.871489
0.734801
0.792006
0.716461
0.696155
0.769638
0.733644
0.669667
0.637438
0.656398
0.587009
0.659668
0.685222
0.696037
0.56888
0.605855
0.574559
0.594355
0.544696
0.548796
0.580048
0.591513
0.557843
0.643351
0.648533
0.530971
0.587068
0.550997
0.524197
0.569874
0.720762
0.598442
0.679252
0.634471
0.567277
0.610231
0.570857
0.635276
0.675085
0.720941
0.693002
0.624942
0.734249
0.611927
0.670163
0.731432
0.661434
0.629831
0.490922
0.680133
0.637326
0.391502
0.638571
0.726883
0.55924
0.622981
0.677988
0.601773
0.70019
0.601776
0.541372
0.660792
0.693095
0.724839
0.713044
0.665924
0.6631
0.679091
0.655162
0.685891
0.687925
0.718108
0.737298
0.625045
0.702569
0.603298
0.66811
0.735133
0.636174
0.560088
0.592933
0.558044
0.549918
0.63621
0.599178
0.652554
0.609585
0.598404
0.550871
0.610879
0.571696
0.626116
0.634609
0.575025
0.651192
0.84091
0.642151
0.737823
0.676686
0.5851
0.625567
0.597223
0.724704
0.646663
0.579471
0.659251
0.553299
0.641047
0.671096
0.644815
0.536657
0.679835
0.637366
0.703702
0.742023
0.63168
0.589183
0.565963
0.583092
0.602883
0.589147
0.583068
0.660618
0.703558
0.623306
0.682624
0.724169
0.72613
0.777183
0.660492
0.658874
0.663523
0.721298
0.562226
0.592843
0.549327
0.59956
0.66896
0.595444
0.700223
0.611517
0.602511
0.661381
0.688034
0.671873
0.681053
0.631103
0.686607
0.589594
0.648967
0.556193
0.693899
0.578977
0.625902
0.550695
0.60192
0.694794
0.670582
0.560657
0.561217
0.631484
0.593085
0.609052
0.660895
0.683658
0.664233
0.625587
0.612575
0.623857
0.626359
0.588168
0.710959
0.673644
0.542185
0.640867
0.635832
0.637432
0.617493
0.58467
0.610689
0.585121
0.638512
0.645803
0.633039
0.570869
0.585786
0.5843
0.588323
0.626871
0.624651
0.609165
0.579615
0.635126
0.557401
0.546637
0.611359
0.531439
0.608341
0.547047
0.59442
0.682331
0.582616
0.627328
0.605576
0.582892
0.620288
0.636307
0.655089
0.562711
0.633873
0.571279
0.60502
0.565834
0.706797
0.656892
0.677711
0.658858
0.637411
0.602688
0.695938
0.537345
0.467712
0.594757
0.661099
0.58928
0.603232
0.718495
0.623462
0.695488
0.665329
0.643062
0.663113
0.719223
0.624515
0.661125
0.596488
0.634433
0.670175
0.642159
0.633611
0.618365
0.646984
0.576683
0.56771
0.569235
0.624279
0.627393
0.59886
0.543068
0.566138
0.589171
0.593847
0.615166
0.637894
0.528838
0.609776
0.58616
0.648584
0.590253
0.566052
0.600442
0.568537
0.733666
0.73174
0.81314
0.789166
0.800903
0.810583
0.705958
0.746629
0.733415
0.817955
0.90946
0.792382
0.848743
0.774035
0.871982
0.880308
0.82866
0.819969
0.727787
0.770814
0.79594
0.83005
0.891681
0.826496
0.658165
0.648385
0.664693
0.69257
0.776631
0.755742
0.737988
0.742741
0.662676
0.717465
0.586116
0.736324
0.696164
0.788929
0.708427
0.713324
0.846616
0.776388
0.748838
0.830044
0.71663
0.810656
0.651401
0.748175
0.823106
0.847489
0.79376
0.86361
0.714342
0.856945
0.83035
0.888669
0.710047
0.712802
0.682966
0.765338
0.759574
0.777425
0.793723
0.766867
0.645122
0.634849
0.722937
0.663477
0.6943
0.721758
0.684016
0.648377
0.80685
0.812739
0.845942
0.829108
0.769261
0.793903
0.727302
0.765401
0.846176
0.833903
0.863794
0.863159
0.806514
0.787657
0.771049
0.828725
0.744409
0.766506
0.71115
0.732407
0.76483
0.771132
0.815066
0.811588
0.680051
0.693234
0.740025
0.724742
0.712019
0.698006
0.65823
0.673455
0.87494
0.786525
0.77165
0.80439
0.757456
0.760014
0.740496
0.694977
0.799984
0.799191
0.743598
0.727826
0.756562
0.758928
0.873556
0.790088
0.619383
0.636691
0.629088
0.670356
0.727116
0.687917
0.684952
0.67759
0.9258
0.844282
0.927377
0.920781
0.916037
0.91877
0.925333
0.829772
0.737479
0.739704
0.685647
0.545856
0.89579
0.731369
0.88572
0.833086
0.820349
0.809001
0.890077
0.866918
0.833373
0.822039
0.747788
0.734127
0.927545
0.908899
0.919554
0.900649
0.921161
0.896809
0.853592
0.954903
0.887332
0.949154
0.978822
1
0.869165
0.974277
0.956234
0.916151
0.803495
0.878346
0.782764
0.824026
0.833181
0.928334
0.972933
0.860295
0.756168
0.741773
0.888151
0.848709
0.84279
0.900416
0.744616
0.768775
0.963408
0.911535
0.910166
0.900085
0.98973
0.991033
0.961437
0.976728
0.911387
0.884292
0.917199
0.944452
0.927523
0.899293
0.875696
0.908746
0.79149
0.816862
0.850891
0.791369
0.915121
0.897537
0.939256
0.89938
0.854926
0.750638
0.823647
0.922087
0.786912
0.847124
0.845371
0.684627
0.915683
0.921244
0.77629
0.895363
0.940166
0.953634
0.954397
0.915313
0.938199
0.827412
0.940076
0.879371
0.956047
0.997654
0.843707
0.758177
0.757283
0.862756
0.825687
0.853004
0.799389
0.809645
0.789713
0.820497
0.862454
0.830484
0.948344
0.850636
0.938323
0.901396
0.737126
0.866789
0.924022
0.794794
0.70027
0.800713
0.909992
0.984517
0.958832
0.947625
0.956091
0.750337
0.639642
0.858561
0.786754
0.844509
0.897807
0.902176
0.826
0.820404
0.828767
0.786474
0.789119
0.819044
0.697688
0.794135
0.800933
0.802567
0.802766
0.85798
0.737129
0.819357
0.816932
0.799009
0.954693
0.730636
0.782293
0.672559
0.748279
0.685982
0.817503
0.719332
0.604365
0.829789
0.847863
0.719813
0.799474
0.801612
0.787226
0.822294
0.84203
0.784568
0.810126
0.701762
0.742925
0.720392
0.838535
0.763183
0.835242
0.805992
0.795196
0.885706
0.881201
0.790492
0.777415
0.78635
0.821784
0.787972
0.764927
0.896357
0.729734
0.831797
0.847738
0.750597
0.881905
0.868987
0.78071
0.758282
0.628835
0.814664
0.806983
0.833939
0.854923
0.822487
0.789537
0.748565
0.657254
0.747874
0.79595
0.793758
0.773863
0.771775
0.883435
0.799621
0.870636
0.893041
0.847907
0.750546
0.730309
0.793728
0.883785
0.881325
0.825815
0.771958
0.717259
0.785296
0.832165
0.878293
0.7074
0.729148
0.771204
0.787227
0.840391
0.844948
0.861848
0.835789
0.721259
0.796893
0.747279
0.583671
0.827323
0.822087
0.830408
0.786854
0.882877
0.62872
0.863229
0.871036
0.843267
0.831709
0.765372
0.845937
0.746111
0.735921
0.799289
0.75306
0.862196
0.732776
0.765953
0.771802
0.821189
0.73358
0.820495
0.731277
0.806116
0.763615
0.832251
0.731616
0.808009
0.688595
0.649786
0.685246
0.73683
0.989303
0.717707
0.949251
0.766528
0.72622
0.793025
0.866662
0.75612
0.982114
0.755054
0.704074
0.908169
0.806509
0.884076
0.834484
0.787786
0.85978
0.77073
0.813853
0.868718
0.919091
0.860837
0.795026
0.792959
0.830709
0.848297
0.876492
0.769505
0.712815
0.713985
0.701087
0.816098
0.84385
0.84019
0.827624
0.649944
0.778009
0.845636
0.717735
0.846008
0.778483
0.693094
0.765888
0
0.90532
0.900657
0.906076
0.908508
0.621713
0
0.617352
0.72954
0.884302
0.716385
0.659792
0.888569
0.722717
0.47098
0.573333
0.887761
0.792951
0
0.885025
0.883808
0.871933
0.77814
0
0.389813
0.68977
0.870746
0.875509
0
0.456741
0
0.542731
0.86498
0.859705
0
0
