OFF
683 1265 0
-0.502496 -1.16038 4.33991
2.5405 -0.674984 4.39591
-1.4735 -0.666684 4.39291
1.7735 -0.0389844 4.42591
-0.593496 -0.0389844 4.42591
-1.7215 -0.0291844 4.41691
-1.6095 -1.12188 4.33291
1.7595 0.702816 4.43591
1.7595 2.28292 4.43591
-0.603496 2.28292 4.43591
-1.7375 0.709016 4.42591
-1.7375 2.29152 4.42591
-2.7215 2.31712 4.39691
-3.4675 0.764416 4.33991
-2.6845 0.000415607 4.38891
-3.4075 0.0400156 4.33291
-3.3505 -0.563984 4.29291
-2.4755 -1.00648 4.31191
-2.5745 -0.584284 4.36291
-5.0165 -0.482584 -3.98909
0.867504 -2.39538 -3.98909
-2.1445 -2.33818 -3.98909
-3.3345 -2.16678 -3.98909
-4.2185 -1.82438 -3.98909
-4.7505 -1.25448 -3.98909
-5.1055 0.465816 -3.98909
-5.1055 1.50022 -3.98909
6.7715 -2.21728 -1.64509
6.3845 -2.49398 -3.32809
6.7585 -1.54218 -2.91609
6.8675 -1.50528 -1.57009
6.9095 -0.578784 -2.77609
6.9515 -0.594584 -1.46209
6.9565 -0.595884 0.136911
6.9105 -1.45838 0.105911
6.8505 -2.14848 0.0369106
6.9615 0.444116 -2.79409
6.9835 1.19352 -1.45809
6.9805 0.357216 -1.46909
6.9745 0.300216 0.147911
6.9485 1.19582 1.75291
6.8695 1.57342 3.26191
6.8325 0.467916 3.08991
6.9335 0.366716 1.76391
6.7785 -0.536584 3.05991
6.9015 -0.578884 1.73991
6.6525 -1.49308 3.16891
6.3535 -2.46328 3.51091
6.7555 -2.20658 1.74291
6.8325 -1.49008 1.79691
-5.4235 -2.20658 1.83891
-5.0035 -2.46328 3.51691
-5.3075 -1.49308 3.17791
-5.4945 -1.49008 1.82291
-5.4375 -0.533584 3.05691
-5.5625 -0.574184 1.74191
-5.6165 -0.589384 0.146911
-5.5685 -1.45428 0.146911
-5.4885 -2.42718 0.134911
-5.4935 0.480116 3.06491
-5.5305 1.60322 3.18191
-5.6095 1.24582 1.70391
-5.5935 0.385316 1.74791
-5.6345 0.322116 0.147911
-5.6445 1.24352 -1.40909
-5.6225 0.456316 -2.77009
-5.6415 0.375816 -1.45309
-5.5595 -0.569684 -2.76309
-5.6065 -0.585884 -1.44809
-5.3785 -1.51798 -2.88709
-4.9255 -2.41128 -3.25809
-5.4035 -2.19298 -1.57309
-5.5055 -1.48908 -1.53109
-0.729496 -2.65898 4.04791
0.941504 -2.71628 3.64191
0.884504 -2.53978 4.10991
-0.631496 -2.53088 4.16191
-0.0774961 -2.35968 4.24291
-1.9855 -2.30978 4.25791
-2.1125 -2.48058 4.20591
-2.2255 -2.67838 4.09191
0.879504 -2.19788 4.25591
2.2855 -1.99898 4.19991
-0.417496 -2.00838 4.20291
-1.6525 -2.16478 4.25591
-1.6765 -1.92408 4.19191
-2.8285 -1.78318 4.20291
-3.6615 -1.41818 4.18991
-3.9305 -1.61428 4.25591
-3.0245 -1.96438 4.25591
-4.1805 -1.79558 4.20991
-3.2235 -2.14628 4.24091
-4.5065 -2.04008 4.01591
-3.6165 -2.56208 4.01391
-3.4685 -2.36538 4.13891
6.6545 1.52182 3.91491
6.6485 0.514916 3.83291
6.4325 2.46652 4.21391
6.4335 0.546016 4.16391
6.3515 -0.369284 4.15991
6.5765 -0.461984 3.81391
6.2515 1.93762 4.25691
6.1105 0.672316 4.21191
6.1985 -0.0779844 4.25491
6.0015 -0.133284 4.18991
5.7755 -0.883784 4.20291
5.2945 -1.42828 4.19491
5.4155 -1.61428 4.25591
5.9105 -1.03078 4.25591
5.6135 -1.79558 4.20891
6.1135 -1.17658 4.17891
5.9075 -2.04008 4.01091
6.3875 -1.35958 3.88991
0.882504 5.48522 4.00991
0.934504 5.64452 3.40691
-0.747496 5.60442 3.79091
-0.633496 5.47862 4.06591
-2.2285 5.56852 3.90591
-2.1185 5.42992 4.12091
-1.9865 5.27682 4.23591
-0.409496 5.33022 4.22091
-3.6495 5.50062 3.84491
-5.1355 5.36492 3.46591
-4.5405 4.98532 4.02791
-3.4915 5.31022 4.08091
-4.1885 4.76842 4.21291
-3.2295 5.11442 4.22591
-3.9305 4.63512 4.25591
-3.6515 4.56912 4.18591
-2.8565 4.91152 4.21191
-3.0245 4.97932 4.25591
-1.6655 5.06342 4.18491
-1.6295 5.17702 4.25591
-0.433496 5.13372 4.21191
1.8635 5.21032 4.25491
-5.0295 -1.35958 3.89191
-4.7285 -1.17658 4.17891
-4.9885 -0.368984 4.15891
-5.2325 -0.460384 3.81091
-4.2215 -0.883084 4.20291
-4.4735 -1.03078 4.25591
-4.4375 -0.130784 4.18791
-4.7905 -0.0708844 4.25491
-4.6095 0.672316 4.21191
-4.8495 2.00682 4.25691
-5.0775 0.537616 4.15891
-5.3155 1.53092 3.88291
-5.3085 0.521016 3.81691
-0.0964961 -1.63038 3.97591
2.4215 -1.67758 4.00491
2.3975 -1.62148 3.99091
-1.3645 -1.57348 3.97991
-3.2955 -1.08528 3.98091
-2.4455 -1.41368 3.97691
6.1345 0.955316 3.97891
6.0845 0.763116 4.13991
6.0545 0.149716 3.98291
5.8295 -0.551984 3.97891
5.3735 -1.08668 3.97691
-2.5085 4.97042 4.02791
-1.3785 5.16332 3.99791
-3.3005 4.69212 3.99191
-0.140496 5.21602 3.98991
2.3615 5.21432 3.99891
-0.300496 5.13832 4.12791
2.3115 5.14002 4.12391
-3.7955 -0.550484 3.98191
-4.0555 0.160616 3.98591
-4.4225 0.763116 4.13991
-4.1395 1.00452 3.98891
2.1875 -1.55948 4.13591
-0.289496 -1.55948 4.13591
-1.5495 -1.42428 4.22191
-0.401496 -1.43358 4.24391
-3.2295 -1.01308 4.18691
-2.4735 -1.24558 4.22891
-2.4965 -1.35498 4.13191
5.7105 3.08382 4.12391
5.6885 0.892716 4.13591
5.6365 0.122416 4.12991
5.2605 2.45382 4.24391
4.6505 0.764416 4.33991
5.2025 0.0798156 4.23991
4.5575 -0.337584 4.32391
4.7955 -1.01258 4.18791
5.2505 -0.537884 4.18291
-2.4985 4.78712 4.12491
-3.2315 4.35802 4.18591
-1.4745 4.91812 4.13491
-3.3515 3.75282 4.29291
-2.4755 4.15772 4.31191
-2.4735 4.52022 4.22891
-1.2775 4.25882 4.33691
-1.3355 4.65852 4.24191
2.5705 4.26252 4.33791
2.0325 4.68232 4.24391
2.1885 4.96702 4.13591
-0.281496 4.98542 4.12791
-3.7535 -0.544784 4.13191
-3.8735 0.0746156 4.22091
-4.0715 0.892616 4.13591
-3.8855 0.826116 4.24391
6.6495 4.40132 3.79091
6.3505 5.27782 3.40691
5.9015 4.95922 4.00991
6.3835 4.30392 4.06591
5.6115 4.76182 4.20891
6.0545 4.14092 4.24691
6.3515 3.36792 4.23291
6.5755 3.44722 4.10891
6.7775 3.52492 3.87991
5.4155 4.63512 4.25591
5.2905 4.56872 4.18691
5.7615 4.01442 4.19291
6.0015 3.30332 4.18891
6.1575 3.31452 4.25591
6.0775 2.47112 4.19391
6.8325 2.60282 3.74091
6.6485 2.50952 4.03291
6.0545 3.47332 3.98291
5.8185 4.16522 3.98291
5.3665 4.69672 3.98291
6.1315 2.58872 3.98291
4.8465 4.39142 4.17691
5.2585 3.90152 4.17991
4.4965 3.68192 4.31191
4.6315 2.73222 4.33591
5.2025 3.19832 4.23991
1.7735 3.03192 4.42591
-0.593496 3.03192 4.42591
-1.7215 3.03642 4.41691
-0.562496 3.70552 4.39691
-1.6735 3.69552 4.38891
-2.5745 3.66552 4.36291
-3.4375 2.73222 4.33591
-2.6845 3.04992 4.38891
-4.1215 2.67092 3.98991
-4.0795 2.55452 4.12991
-3.9915 3.31782 4.13491
-4.0555 3.46942 3.98891
-3.8455 3.05932 4.24191
-3.7605 3.98482 4.12691
-3.7945 4.15942 3.98391
-4.6095 2.46442 4.21191
-4.4355 3.30462 4.18691
-4.2205 4.01942 4.20191
-5.4935 2.62132 3.60791
-5.3085 2.51562 3.98291
-5.0775 2.47072 4.20191
-4.9905 3.36942 4.22091
-5.2385 3.45302 4.05791
-5.4465 3.53372 3.74091
-4.6705 3.72152 4.25691
-4.7345 4.16102 4.21791
-5.3435 4.41802 3.70291
-5.0525 4.32132 4.04691
0.0865039 5.35202 -3.98909
2.3935 5.35202 -3.98909
6.4805 1.50022 -3.98909
-5.0165 3.46922 -3.98909
-4.7505 4.23042 -3.98909
-4.0275 4.93152 -3.99009
3.7655 5.29592 -3.98909
5.8855 4.65932 -3.99009
6.3995 3.46922 -3.98909
4.3165 -2.25248 -3.98909
6.3995 -0.482584 -3.98909
4.7695 -2.75128 -2.10909
4.4005 -2.75358 -0.977089
2.7275 -2.75158 -2.00209
4.5245 -2.75178 0.660911
4.4705 -2.75138 2.33991
2.4935 -2.65898 4.04691
2.3505 -2.53088 4.15691
3.7555 -2.51828 4.17991
3.6015 -2.30978 4.25591
2.2875 -2.36718 4.24491
5.0965 -2.56208 4.00491
4.9655 -2.36538 4.13191
4.7425 -2.14628 4.23891
4.5045 -1.78338 4.20291
4.5905 -1.96438 4.25591
3.4635 -1.92438 4.19191
3.3135 -2.16558 4.25591
4.6075 -1.41578 3.97791
3.5955 -1.57348 3.97991
3.1695 -1.42418 4.22191
4.2645 -1.35588 4.13091
3.8915 -1.09098 4.29391
2.6335 -1.14828 4.33691
2.0325 -1.43358 4.24391
2.8595 0.339916 4.42091
3.7815 -0.584284 4.36291
3.8205 0.000415607 4.38891
3.8335 2.31712 4.39691
2.8555 2.29152 4.42591
2.8635 3.03642 4.41691
3.8205 3.04992 4.38891
3.8115 4.15772 4.31191
3.7815 3.66552 4.36291
2.8865 3.69552 4.38891
3.3355 4.95122 4.11991
3.6005 5.17492 3.98291
3.1215 4.64182 4.23991
4.1525 4.68202 4.17791
4.5685 4.97582 4.01891
2.2465 5.13372 4.21191
3.4675 5.06342 4.18491
4.5135 4.91152 4.21191
2.5005 5.60442 3.72291
2.3495 5.47862 4.04491
2.2865 5.33312 4.21791
3.6005 5.27572 4.22791
3.7235 5.42552 4.08591
3.8415 5.56202 3.80691
3.5095 5.15142 4.25591
4.5905 4.97932 4.25591
4.7415 5.11012 4.21791
5.0945 5.47452 3.72291
4.9605 5.29272 4.04491
6.9845 2.87812 -2.87109
6.9905 2.12662 -1.07509
6.9855 1.64852 0.147911
6.9925 2.79762 0.746911
6.9885 2.49382 1.84291
6.9485 2.12202 2.75591
6.7635 4.45392 -3.49509
6.4115 5.31852 -3.11209
6.8175 4.97092 -2.51009
6.8795 4.36452 -3.10609
6.9485 4.74892 -2.09709
6.9635 4.23352 -2.67609
6.9605 3.60712 -3.20009
6.8685 3.55262 -3.79409
6.9915 4.70602 -1.32709
6.9965 3.92732 -1.29309
6.9915 3.87132 -2.36709
6.9615 2.62742 -3.44609
6.5835 5.45942 1.74391
6.7935 4.95712 2.80491
6.8175 5.26012 1.62291
6.9425 4.74542 2.39191
6.9485 5.03952 1.37791
6.9565 5.13142 0.147911
6.8505 5.33672 0.147911
6.6485 5.51082 0.147911
6.9915 4.57422 2.05491
6.9935 4.44862 0.299911
6.9915 4.92562 0.147911
6.9515 5.04132 -1.08309
6.6005 5.47072 -1.44809
6.8295 5.26762 -1.32809
6.9335 2.77962 3.36791
6.9775 2.96422 2.96291
6.9245 3.61142 3.46891
6.9915 3.87132 2.66191
6.9535 4.22922 2.97191
6.8395 4.34722 3.40091
-5.6095 2.20352 2.53791
-5.6495 2.55472 1.37791
-5.6455 1.76492 0.147911
-5.6545 3.14222 0.0499106
-5.6515 2.29612 -0.880089
-5.6455 2.93602 -2.49909
-5.5045 4.91092 2.63391
-5.5255 4.32682 3.14691
-5.6225 4.43912 2.26991
-5.6415 3.60422 2.38091
-5.5705 3.57942 3.24091
-5.6525 4.40232 1.58091
-5.6375 3.03642 2.50591
-5.5935 2.82342 3.08291
-5.4665 5.55312 -1.32209
-5.1805 5.39572 -3.17109
-5.5235 4.92162 -2.33809
-5.6295 4.87722 -0.896089
-5.6245 4.39552 -1.98809
-5.6375 4.95212 0.147911
-5.5815 5.29892 0.141911
-5.6525 4.51072 -0.960089
-5.6275 4.87582 1.19091
-5.4565 5.53312 1.63291
-5.6225 2.64592 -3.31309
-5.6485 3.71462 -2.05409
-5.6205 3.59552 -2.94609
-5.5785 3.57662 -3.44609
-5.6535 3.26822 -0.293089
-5.4535 4.46762 -3.40809
-5.5625 4.34212 -2.85209
-0.0154961 5.68182 2.80491
-0.994496 5.68002 3.27591
-2.5625 5.69702 3.01591
-2.2975 5.65032 3.58891
-1.1395 5.70362 2.36191
-3.6625 5.70472 0.854911
-4.3695 5.70322 2.21591
-3.9655 5.68442 3.02291
-4.5315 5.61272 3.25291
-3.5435 5.61992 3.54791
0.987504 5.70062 -1.44809
0.936504 5.69252 -3.11209
-0.0184961 5.69952 -2.51009
0.248504 5.70072 0.765911
1.6645 5.70032 0.705911
-1.7785 5.70562 -1.50109
-1.3055 5.70652 -1.14609
-1.0265 5.70612 0.854911
0.987504 5.68772 1.74291
-3.7215 5.57432 -3.55009
-4.5575 5.62502 -2.94709
-3.5655 5.64482 -3.25209
-4.1775 5.68302 -2.66509
-2.3195 5.68282 -3.29409
-2.2895 5.65542 -3.61109
-2.7915 5.70362 -2.51809
-4.3625 5.70362 -1.91609
-1.1805 5.69962 -2.89809
-0.780496 5.68502 -3.49509
5.8235 5.57442 2.68591
4.9895 5.60252 3.23591
5.4585 5.67132 2.18091
4.7865 5.67842 2.69991
3.9635 5.68922 2.85991
3.9195 5.64592 3.36691
5.1705 5.70362 1.78491
3.9785 5.70402 1.30091
4.3035 5.70362 2.30591
3.6405 5.70392 1.22691
1.9295 5.68182 2.68591
2.7775 5.67922 3.09991
5.8435 5.59052 -2.39109
6.2395 5.60452 -1.26609
5.4635 5.67542 -1.88609
5.8405 5.67882 -0.969089
5.9545 5.68342 0.147911
6.3265 5.62282 0.147911
5.3335 5.70362 -1.11809
4.7615 5.70422 -0.313089
5.5505 5.70362 0.593911
5.8375 5.67702 1.26391
6.2285 5.59692 1.56091
2.5405 5.68502 -3.42809
2.9785 5.69962 -2.67309
3.9455 5.67902 -3.07209
3.9095 5.64962 -3.51209
3.3625 5.70402 -0.698089
4.3035 5.70362 -2.01109
4.7935 5.68512 -2.40509
5.1745 5.55112 -3.42809
5.0155 5.62942 -2.94109
3.1945 5.70392 -0.313089
-5.2595 5.60332 2.50391
-5.2575 5.69282 1.90891
-5.4155 5.69932 1.01591
-5.4915 5.64742 0.153911
-4.8755 5.70432 0.889911
-4.7825 5.70442 -0.551089
-5.2595 5.69392 -1.61109
-5.4195 5.68722 -0.814089
-5.2725 5.61162 -2.20809
-4.4855 5.70172 0.0489106
1.5005 -2.75008 1.61091
0.897504 -2.74908 -1.71009
1.2695 -2.74228 2.75291
0.927504 -2.74228 1.61391
-0.669496 -2.73338 -3.70909
0.969504 -2.74288 -3.39509
-0.133496 -2.74988 -2.85109
-0.836496 -2.74758 -3.40809
-1.9955 -2.72898 -3.67409
-2.1985 -2.66758 -3.89009
-3.1235 -2.75258 -3.17509
-3.6945 -2.73008 -3.41309
-2.7925 -2.72798 -3.60409
-4.0955 -2.65868 -3.47809
-3.5225 -2.61138 -3.71209
0.621504 -2.74228 2.30091
-0.454496 -2.75268 -1.14309
-5.0445 -2.62648 -2.69209
-5.3635 -2.55708 -1.44609
-5.0765 -2.73408 -2.39209
-5.3455 -2.71848 -1.26009
-5.4315 -2.72428 0.103911
-5.0345 -2.79368 -2.15509
-5.2665 -2.80438 -1.11709
-5.3505 -2.79368 0.101911
-5.2655 -2.81408 1.22091
-5.0235 -2.80278 1.96991
-5.3515 -2.71508 1.37491
-5.1075 -2.64518 2.61391
-5.3825 -2.56778 1.63791
-4.1645 -2.79088 -2.85109
-3.6975 -2.79328 -2.72509
-3.2715 -2.76208 -2.39609
-4.6405 -2.81358 -2.68209
-4.5105 -2.70358 -3.22309
-2.1405 -2.75268 -2.05309
-1.9515 -2.75238 -0.782089
-3.4115 -2.75128 1.17791
-2.9665 -2.76408 -1.28109
-3.2885 -2.77178 0.211911
-4.5925 -2.67578 2.85691
-4.6315 -2.77698 2.07491
-4.0605 -2.73708 2.04191
-4.1615 -2.77648 1.71891
-3.6905 -2.76528 1.02591
6.4335 -2.64248 2.44491
6.7005 -2.56778 1.38691
6.3875 -2.73918 1.75491
6.6515 -2.71798 0.883911
6.7235 -2.72528 -0.265089
6.7935 -2.52768 -0.0850894
6.3195 -2.78188 1.06191
6.5345 -2.77968 0.327911
6.6065 -2.78208 -0.557089
6.5235 -2.79568 -1.40309
6.3115 -2.80378 -1.97309
6.6525 -2.71518 -1.37209
6.4405 -2.65078 -2.56209
6.7055 -2.57328 -1.53409
5.1025 -2.76878 1.39591
5.3575 -2.73868 2.52891
5.5285 -2.77448 1.56791
4.7545 -2.77438 1.09791
5.9595 -2.77998 1.46091
5.9985 -2.74058 2.17391
5.9295 -2.67548 3.03791
4.7735 -2.81898 -1.05009
4.5415 -2.79118 -0.472089
4.4465 -2.76758 0.106911
5.8835 -2.68278 -3.05909
5.9605 -2.78738 -2.14109
5.2745 -2.73808 -2.51209
5.5375 -2.78428 -1.97609
5.1135 -2.79898 -1.58209
-4.3465 -2.66988 3.55891
-3.4185 -2.72758 3.88991
-3.9925 -2.74618 3.48791
-2.2855 -2.74798 3.96091
0.0465039 -2.73638 3.54991
-1.0185 -2.73848 3.90891
-0.735496 -2.76388 3.25491
-0.877496 -2.75148 0.884911
-3.5865 -2.75498 2.08191
-1.5795 -2.75208 0.658911
-3.9975 -2.76308 2.96391
-0.324496 -2.75618 2.80091
5.0945 -2.56578 -3.85009
5.5815 -2.68838 -3.49209
4.7295 -2.72948 -3.70509
3.8195 -2.68048 -3.90809
4.6535 -2.78578 -3.40809
4.2165 -2.78888 -3.58309
3.5915 -2.78058 -3.63209
2.3975 -2.75798 -3.39209
2.1915 -2.72348 -3.84609
2.9325 -2.77428 -3.57809
4.3635 -2.76228 -2.45509
4.6635 -2.77808 -2.81409
3.9755 -2.77378 -2.18909
4.7825 -2.78788 -3.13609
3.5415 -2.76998 -2.01009
3.1215 -2.76748 -1.95509
2.1185 -2.75588 -3.11709
2.2345 -2.76168 -2.26409
1.8925 -2.73638 3.71591
2.7905 -2.72948 3.95491
2.7225 -2.76348 3.57391
3.9545 -2.72798 4.00591
3.3445 -2.77868 3.71291
4.5455 -2.78828 3.66591
5.0495 -2.78008 3.43091
4.8925 -2.71208 3.90291
5.6635 -2.66988 3.64991
3.2945 -2.75988 2.04291
2.5695 -2.77138 2.60491
2.4415 -2.78008 3.17391
4.8095 -2.77478 2.72491
3.9795 -2.82958 3.76891
-1.2975 -2.78478 -2.73109
-0.939496 -2.79318 -2.66009
-0.641496 -2.78688 -2.43409
-1.6555 -2.76588 -2.65309
-1.9525 -2.76788 -2.42609
-0.403496 -2.78348 -1.61409
-0.463496 -2.77248 -2.05609
-1.2975 -2.76868 -0.475089
-2.1905 -2.76418 -1.60609
-1.7795 5.71672 1.79591
-2.9085 5.70922 1.79591
-3.4115 5.70622 -1.18709
-2.9085 5.70982 -1.50109
-2.3445 5.72912 -1.61809
-3.7565 5.73062 0.147911
-3.6655 5.73242 -0.561089
3.1375 5.70752 0.147911
4.5935 5.70762 -0.697089
3.9775 5.71102 -1.00309
4.7645 5.70872 0.594911
7.0155 4.04192 0.771911
7.0395 4.04392 0.147911
7.0755 3.93192 -0.470089
7.0395 3.52542 -0.780089
7.0775 3.27492 -0.466089
7.0015 3.05312 -0.678089
7.0425 3.17162 0.147911
7.0165 3.17322 0.771911
7.0395 3.52542 1.07591
-4.7005 5.71182 0.756911
-4.5295 5.73452 0.401911
-5.2545 5.71012 0.574911
-5.2175 5.74332 -0.480089
-5.6695 3.42892 0.706911
-5.6755 3.77972 -0.412089
-5.6865 3.42762 -0.408089
-5.6795 3.95042 -0.293089
-5.6835 4.06572 -0.0130894
-5.6835 4.00642 0.508911
-0.452496 -2.76008 1.54191
-3.7165 -2.77538 3.22991
-3.1585 -2.75618 3.60991
-1.8865 -2.77208 3.65991
-4.6755 -2.16168 -3.72209
-3.5875 -2.51908 -3.83609
-4.4875 -2.00888 -3.92309
-3.4865 -2.38028 -3.95109
-2.1825 -2.55668 -3.96609
0.877504 -2.61638 -3.94809
-0.690496 -2.61598 -3.95809
0.903504 -2.71098 -3.82209
-0.660496 -2.70948 -3.86209
-5.5885 1.53192 -3.58809
-5.5875 0.473616 -3.52109
-5.4455 2.55862 -3.91309
-5.4455 0.464416 -3.87209
-5.3515 -0.517184 -3.87109
-5.5035 -0.546484 -3.51609
-5.0715 -1.36478 -3.89209
-5.2565 -1.46458 -3.59909
0.890504 5.66262 -3.71509
-0.698496 5.66132 -3.77109
0.873504 5.56972 -3.92109
-0.699496 5.56932 -3.93509
-2.1985 5.51152 -3.94909
-2.2475 5.61482 -3.82609
-2.1445 5.29592 -3.98909
-4.5085 4.97472 -3.92509
-3.5075 5.33912 -3.93809
-4.7565 5.13172 -3.73309
-3.6695 5.48022 -3.78609
-5.3055 4.44342 -3.75209
-5.0835 4.34062 -3.93009
-5.3545 3.50662 -3.93309
-5.5155 3.54472 -3.76309
-5.5875 2.56492 -3.68809
6.1265 5.10862 -3.71509
5.1495 5.46482 -3.75009
5.9295 4.96892 -3.92109
5.0205 5.33532 -3.93009
3.8185 5.51052 -3.94009
3.8665 5.61102 -3.79109
4.8675 5.12732 -3.98909
2.4075 5.56932 -3.93009
2.4295 5.66132 -3.75009
6.9285 1.52292 -3.62009
6.9275 2.55892 -3.73809
6.7945 2.55602 -3.92509
6.7095 3.50522 -3.94609
6.4565 4.33672 -3.93509
6.6405 4.42802 -3.77109
6.1205 -2.18598 -3.74809
6.6395 -1.48068 -3.61509
5.9285 -2.01498 -3.92909
6.4565 -1.36878 -3.89609
6.7095 -0.518584 -3.87309
6.8545 -0.551984 -3.52409
5.6735 -1.82438 -3.98909
6.1575 -1.25448 -3.98909
6.7945 0.462916 -3.87609
6.9275 0.467516 -3.53809
2.4065 -2.61598 -3.96009
3.8135 -2.55768 -3.97209
5.0175 -2.38438 -3.95809
3 0 1 2
3 1 3 4
3 1 4 2
3 4 5 2
3 2 6 0
3 7 8 9
3 7 9 10
3 9 11 10
3 10 5 4
3 4 3 7
3 4 7 10
3 12 13 14
3 13 15 14
3 14 5 10
3 10 11 12
3 10 12 14
3 16 17 18
3 17 6 2
3 17 2 18
3 2 5 14
3 2 14 18
3 14 15 16
3 14 16 18
3 19 20 21
3 21 22 19
3 22 23 24
3 19 22 24
3 25 26 19
3 27 28 29
3 27 29 30
3 29 31 32
3 29 32 30
3 32 33 34
3 32 34 30
3 34 35 27
3 34 27 30
3 36 37 38
3 37 39 38
3 39 33 32
3 39 32 38
3 32 31 36
3 32 36 38
3 40 41 42
3 40 42 43
3 42 44 45
3 42 45 43
3 45 33 39
3 45 39 43
3 39 40 43
3 46 47 48
3 46 48 49
3 48 35 34
3 48 34 49
3 34 33 45
3 34 45 49
3 45 44 46
3 45 46 49
3 50 51 52
3 50 52 53
3 52 54 55
3 52 55 53
3 55 56 57
3 55 57 53
3 57 58 50
3 57 50 53
3 59 60 61
3 59 61 62
3 61 63 62
3 63 56 55
3 63 55 62
3 55 54 59
3 55 59 62
3 64 65 66
3 65 67 68
3 65 68 66
3 68 56 63
3 68 63 66
3 63 64 66
3 69 70 71
3 69 71 72
3 71 58 57
3 71 57 72
3 57 56 68
3 57 68 72
3 68 67 69
3 68 69 72
3 73 74 75
3 73 75 76
3 75 77 76
3 77 78 79
3 77 79 76
3 79 80 73
3 79 73 76
3 81 82 83
3 81 83 84
3 83 85 84
3 84 78 77
3 77 81 84
3 86 87 88
3 86 88 89
3 88 90 91
3 88 91 89
3 91 78 84
3 91 84 89
3 84 85 86
3 84 86 89
3 92 51 93
3 92 93 94
3 93 80 79
3 93 79 94
3 79 78 91
3 79 91 94
3 91 90 92
3 91 92 94
3 42 41 95
3 42 95 96
3 95 97 98
3 95 98 96
3 98 99 100
3 98 100 96
3 100 44 42
3 100 42 96
3 101 102 103
3 102 104 103
3 103 99 98
3 98 97 101
3 98 101 103
3 105 106 107
3 105 107 108
3 107 109 110
3 107 110 108
3 110 99 103
3 110 103 108
3 103 104 105
3 103 105 108
3 111 47 46
3 111 46 112
3 46 44 100
3 46 100 112
3 100 99 110
3 100 110 112
3 110 109 111
3 110 111 112
3 113 114 115
3 113 115 116
3 115 117 118
3 115 118 116
3 118 119 120
3 118 120 116
3 120 113 116
3 121 122 123
3 121 123 124
3 123 125 126
3 123 126 124
3 126 119 118
3 126 118 124
3 118 117 121
3 118 121 124
3 127 128 129
3 127 129 130
3 129 131 132
3 129 132 130
3 132 119 126
3 132 126 130
3 126 125 127
3 126 127 130
3 133 134 132
3 134 120 132
3 120 119 132
3 132 131 133
3 52 51 92
3 52 92 135
3 92 90 136
3 92 136 135
3 136 137 138
3 136 138 135
3 138 54 52
3 138 52 135
3 88 87 139
3 88 139 140
3 139 141 142
3 139 142 140
3 142 137 136
3 142 136 140
3 136 90 88
3 136 88 140
3 143 144 142
3 144 145 142
3 145 137 142
3 142 141 143
3 146 60 59
3 146 59 147
3 59 54 138
3 59 138 147
3 138 137 145
3 138 145 147
3 145 146 147
3 82 148 83
3 148 85 83
3 149 150 148
3 151 85 148
3 152 87 153
3 153 85 151
3 85 153 86
3 153 87 86
3 154 104 155
3 104 102 155
3 156 104 154
3 157 104 156
3 104 157 105
3 157 158 106
3 157 106 105
3 129 128 159
3 131 129 159
3 160 131 159
3 159 128 161
3 162 163 164
3 163 165 164
3 164 131 160
3 160 162 164
3 133 131 164
3 87 166 139
3 166 141 139
3 167 141 166
3 166 87 152
3 168 141 167
3 168 167 169
3 143 141 168
3 150 170 171
3 150 171 148
3 171 172 151
3 171 151 148
3 0 6 172
3 0 172 173
3 172 171 173
3 171 170 173
3 17 16 174
3 17 174 175
3 174 176 175
3 176 172 175
3 172 6 17
3 172 17 175
3 151 172 176
3 151 176 153
3 176 174 152
3 176 152 153
3 154 177 178
3 179 156 154
3 179 154 178
3 180 181 182
3 181 183 182
3 182 179 178
3 178 180 182
3 183 184 185
3 185 179 182
3 182 183 185
3 158 157 185
3 157 156 179
3 157 179 185
3 185 184 158
3 159 161 186
3 161 187 186
3 186 188 160
3 160 159 186
3 187 189 190
3 187 190 191
3 190 192 193
3 190 193 191
3 193 188 186
3 193 186 191
3 186 187 191
3 192 194 195
3 192 195 193
3 195 196 197
3 195 197 193
3 197 188 193
3 163 162 197
3 162 160 197
3 160 188 197
3 197 196 163
3 152 174 198
3 152 198 166
3 198 199 167
3 198 167 166
3 16 15 199
3 199 198 16
3 198 174 16
3 200 199 201
3 199 15 13
3 199 13 201
3 167 199 200
3 167 200 169
3 202 203 204
3 202 204 205
3 204 206 207
3 204 207 205
3 207 208 209
3 207 209 205
3 209 210 202
3 209 202 205
3 211 212 213
3 211 213 207
3 213 214 215
3 213 215 207
3 215 208 207
3 207 206 211
3 216 102 101
3 97 208 215
3 97 215 101
3 215 214 216
3 215 216 101
3 95 41 217
3 95 217 218
3 217 210 209
3 217 209 218
3 209 208 97
3 209 97 218
3 97 95 218
3 155 102 216
3 216 154 155
3 219 214 213
3 219 213 220
3 213 212 221
3 213 221 220
3 222 154 216
3 216 214 219
3 216 219 222
3 177 154 222
3 222 219 177
3 220 221 223
3 220 223 224
3 177 219 220
3 177 220 224
3 223 225 224
3 225 226 227
3 225 227 224
3 227 177 224
3 226 181 180
3 180 178 177
3 177 227 180
3 227 226 180
3 9 228 229
3 229 230 11
3 229 11 9
3 231 194 192
3 192 232 231
3 232 230 229
3 232 229 231
3 229 228 231
3 190 189 233
3 189 234 235
3 189 235 233
3 235 230 232
3 235 232 233
3 232 192 190
3 232 190 233
3 234 13 12
3 11 230 235
3 11 235 12
3 235 234 12
3 236 169 237
3 169 200 237
3 237 238 239
3 239 236 237
3 201 13 234
3 201 234 240
3 240 238 237
3 237 200 201
3 237 201 240
3 187 241 189
3 241 238 240
3 241 240 189
3 240 234 189
3 161 242 241
3 242 239 241
3 239 238 241
3 241 187 161
3 243 143 168
3 168 236 243
3 236 244 243
3 239 244 236
3 236 168 169
3 161 128 242
3 242 244 239
3 244 242 245
3 242 128 245
3 246 60 146
3 246 146 247
3 146 145 248
3 146 248 247
3 248 249 250
3 248 250 247
3 250 251 246
3 250 246 247
3 144 143 243
3 243 244 252
3 243 252 144
3 252 249 248
3 252 248 144
3 248 145 144
3 245 128 127
3 245 127 252
3 127 125 253
3 127 253 252
3 253 249 252
3 252 244 245
3 123 122 254
3 123 254 255
3 254 251 250
3 254 250 255
3 250 249 253
3 250 253 255
3 253 125 123
3 253 123 255
3 256 257 258
3 256 258 26
3 259 256 26
3 258 19 26
3 260 261 259
3 258 257 262
3 262 263 264
3 264 258 262
3 258 265 19
3 265 258 266
3 20 19 265
3 267 268 269
3 268 270 269
3 271 269 270
3 75 74 272
3 75 272 273
3 272 274 273
3 274 275 276
3 274 276 273
3 276 77 75
3 276 75 273
3 277 47 111
3 277 111 278
3 111 109 279
3 111 279 278
3 279 275 274
3 279 274 278
3 274 277 278
3 107 106 280
3 107 280 281
3 280 282 283
3 280 283 281
3 283 275 279
3 283 279 281
3 279 109 107
3 279 107 281
3 82 81 283
3 81 77 276
3 81 276 283
3 276 275 283
3 283 282 82
3 282 149 82
3 149 148 82
3 106 158 284
3 106 284 280
3 284 282 280
3 285 282 284
3 149 282 285
3 285 150 149
3 285 286 170
3 285 170 150
3 284 158 287
3 158 184 287
3 287 286 285
3 285 284 287
3 184 183 288
3 288 289 286
3 286 287 288
3 287 184 288
3 289 0 173
3 289 173 290
3 173 170 290
3 170 286 290
3 286 289 290
3 1 0 289
3 1 291 3
3 288 183 292
3 183 293 292
3 293 291 1
3 293 1 292
3 1 289 288
3 1 288 292
3 181 294 293
3 294 295 291
3 294 291 293
3 293 183 181
3 3 291 7
3 291 295 8
3 291 8 7
3 295 296 228
3 295 228 8
3 228 9 8
3 294 181 226
3 226 297 294
3 297 296 295
3 297 295 294
3 225 223 298
3 225 298 299
3 298 194 300
3 298 300 299
3 300 296 297
3 300 297 299
3 297 226 225
3 297 225 299
3 194 231 300
3 231 228 300
3 228 296 300
3 196 301 163
3 301 302 163
3 194 303 195
3 303 301 196
3 303 196 195
3 298 223 304
3 304 301 303
3 303 194 298
3 303 298 304
3 223 221 305
3 223 305 304
3 305 302 301
3 305 301 304
3 306 133 164
3 306 164 165
3 307 306 165
3 302 307 165
3 302 165 163
3 221 212 305
3 305 307 302
3 212 308 305
3 308 307 305
3 309 114 113
3 309 113 310
3 113 120 311
3 113 311 310
3 311 312 313
3 311 313 310
3 313 314 309
3 313 309 310
3 134 133 306
3 306 307 315
3 306 315 134
3 315 312 311
3 315 311 134
3 311 120 134
3 308 212 211
3 308 211 316
3 211 206 317
3 211 317 316
3 317 312 315
3 317 315 316
3 315 307 308
3 315 308 316
3 204 203 318
3 204 318 319
3 318 314 313
3 318 313 319
3 313 312 317
3 313 317 319
3 317 206 204
3 317 204 319
3 37 36 320
3 320 321 37
3 321 322 37
3 322 39 37
3 323 324 321
3 325 41 40
3 40 39 322
3 322 321 324
3 322 324 40
3 324 325 40
3 326 327 328
3 326 328 329
3 328 330 331
3 328 331 329
3 331 332 329
3 332 333 326
3 332 326 329
3 334 335 336
3 336 332 331
3 331 330 334
3 331 334 336
3 321 320 336
3 320 332 336
3 320 36 337
3 337 333 332
3 337 332 320
3 338 203 339
3 338 339 340
3 339 341 342
3 339 342 340
3 342 343 344
3 342 344 340
3 344 345 338
3 344 338 340
3 346 347 348
3 348 343 342
3 348 342 346
3 342 341 346
3 334 330 349
3 349 343 348
3 349 348 334
3 348 347 334
3 328 327 350
3 328 350 351
3 350 345 344
3 350 344 351
3 344 343 349
3 344 349 351
3 349 330 328
3 349 328 351
3 217 41 325
3 217 325 352
3 325 353 352
3 353 354 352
3 354 210 217
3 354 217 352
3 355 354 353
3 355 353 324
3 353 325 324
3 346 341 356
3 346 356 355
3 356 354 355
3 339 203 202
3 339 202 357
3 202 210 354
3 202 354 357
3 354 356 357
3 356 341 339
3 356 339 357
3 61 60 358
3 358 359 61
3 359 360 61
3 360 63 61
3 361 362 359
3 362 360 359
3 363 65 64
3 64 63 360
3 360 362 64
3 362 363 64
3 254 122 364
3 254 364 365
3 364 366 365
3 366 367 368
3 366 368 365
3 368 251 254
3 368 254 365
3 369 359 367
3 366 369 367
3 359 358 370
3 359 370 367
3 358 60 246
3 358 246 371
3 246 251 368
3 246 368 371
3 368 367 370
3 368 370 371
3 370 358 371
3 372 373 374
3 372 374 375
3 374 376 375
3 375 377 378
3 378 372 375
3 379 369 377
3 377 375 379
3 375 376 379
3 369 366 380
3 380 377 369
3 364 122 381
3 364 381 380
3 381 378 380
3 378 377 380
3 380 366 364
3 382 65 363
3 363 383 384
3 384 385 382
3 384 382 363
3 362 386 383
3 363 362 383
3 386 379 383
3 379 376 383
3 374 373 387
3 374 387 388
3 387 385 384
3 387 384 388
3 384 383 376
3 384 376 388
3 376 374 388
3 115 114 389
3 115 389 390
3 390 391 392
3 392 117 115
3 392 115 390
3 391 390 393
3 390 389 393
3 391 394 395
3 395 396 391
3 397 122 121
3 397 121 398
3 121 117 392
3 121 392 398
3 392 391 396
3 392 396 398
3 396 397 398
3 399 400 401
3 402 403 399
3 399 404 405
3 405 402 399
3 406 393 402
3 393 389 402
3 402 405 406
3 389 114 407
3 407 403 402
3 402 389 407
3 408 373 409
3 408 409 410
3 409 411 410
3 411 412 410
3 412 413 408
3 412 408 410
3 414 412 411
3 411 415 414
3 404 399 416
3 416 412 414
3 414 404 416
3 401 400 417
3 401 417 416
3 417 413 412
3 417 412 416
3 416 399 401
3 318 203 418
3 318 418 419
3 418 420 421
3 418 421 419
3 421 422 423
3 421 423 419
3 423 314 318
3 423 318 419
3 424 425 426
3 426 422 421
3 421 420 424
3 421 424 426
3 427 403 426
3 403 428 429
3 403 429 426
3 429 422 426
3 426 425 427
3 428 114 309
3 428 309 429
3 309 314 423
3 309 423 429
3 423 422 429
3 350 327 430
3 350 430 431
3 430 432 433
3 430 433 431
3 433 434 435
3 433 435 431
3 435 345 350
3 435 350 431
3 436 437 438
3 438 434 433
3 438 433 436
3 433 432 436
3 438 425 424
3 424 420 439
3 424 439 438
3 439 434 438
3 418 203 338
3 418 338 440
3 338 345 435
3 338 435 440
3 435 434 439
3 435 439 440
3 439 420 418
3 439 418 440
3 441 400 442
3 443 444 441
3 443 441 442
3 399 445 446
3 446 443 442
3 442 399 446
3 436 432 447
3 436 447 446
3 447 443 446
3 430 327 448
3 430 448 449
3 448 444 443
3 448 443 449
3 443 447 449
3 447 432 430
3 447 430 449
3 407 114 428
3 407 428 403
3 403 450 399
3 450 445 399
3 442 400 399
3 381 122 451
3 451 452 453
3 451 453 381
3 453 454 381
3 454 378 381
3 452 455 453
3 453 456 457
3 453 457 458
3 458 454 453
3 459 373 372
3 372 378 454
3 454 458 372
3 458 457 459
3 458 459 372
3 394 455 395
3 455 452 395
3 451 122 397
3 396 395 452
3 396 452 397
3 452 451 397
3 409 373 459
3 459 457 409
3 457 411 409
3 457 456 415
3 415 411 457
3 415 456 460
3 269 271 461
3 461 462 269
3 463 74 464
3 463 464 461
3 464 462 461
3 465 466 467
3 465 467 468
3 469 470 465
3 469 465 468
3 471 472 473
3 473 468 471
3 474 70 475
3 474 475 473
3 475 470 469
3 475 469 473
3 469 468 473
3 473 472 474
3 464 74 476
3 476 462 464
3 477 467 462
3 467 466 462
3 71 70 478
3 71 478 479
3 478 480 481
3 478 481 479
3 481 482 58
3 481 58 479
3 58 71 479
3 480 483 484
3 480 484 481
3 484 485 482
3 484 482 481
3 486 487 488
3 487 489 488
3 482 485 486
3 482 486 488
3 489 51 50
3 489 50 490
3 50 58 490
3 58 482 488
3 58 488 490
3 488 489 490
3 471 491 472
3 491 471 492
3 471 493 492
3 494 483 480
3 494 480 495
3 491 494 495
3 70 474 495
3 70 495 478
3 474 472 495
3 472 491 495
3 495 480 478
3 496 497 498
3 498 499 496
3 499 493 496
3 499 498 500
3 471 496 493
3 501 51 489
3 501 489 502
3 503 501 502
3 504 503 502
3 502 489 487
3 500 498 505
3 505 503 504
3 503 505 498
3 48 47 506
3 48 506 507
3 506 508 509
3 506 509 507
3 509 510 511
3 509 511 507
3 511 35 48
3 511 48 507
3 508 512 513
3 508 513 509
3 513 514 510
3 513 510 509
3 515 516 517
3 510 514 515
3 510 515 517
3 518 28 27
3 518 27 519
3 27 35 511
3 27 511 519
3 511 510 517
3 511 517 519
3 517 516 518
3 517 518 519
3 520 521 271
3 522 521 520
3 520 271 523
3 524 512 508
3 524 508 525
3 525 521 522
3 522 524 525
3 506 47 526
3 521 525 526
3 525 508 506
3 525 506 526
3 268 527 528
3 528 529 268
3 529 270 268
3 523 271 270
3 530 28 518
3 530 518 531
3 518 516 531
3 532 530 531
3 533 532 531
3 534 527 268
3 534 268 532
3 533 534 532
3 532 268 267
3 93 51 535
3 93 535 536
3 535 537 536
3 536 538 80
3 80 93 536
3 539 74 73
3 539 73 540
3 73 80 540
3 80 538 540
3 540 541 539
3 498 497 542
3 542 543 498
3 543 503 498
3 543 542 544
3 535 51 501
3 535 501 545
3 501 503 545
3 503 543 545
3 545 537 535
3 462 542 477
3 477 542 497
3 476 74 539
3 539 541 476
3 476 546 462
3 547 28 548
3 547 548 549
3 550 547 549
3 551 552 549
3 552 553 549
3 553 550 549
3 549 548 551
3 554 555 556
3 555 550 553
3 555 553 556
3 554 466 555
3 557 532 267
3 558 532 557
3 557 267 559
3 551 548 560
3 560 532 558
3 548 28 530
3 532 560 530
3 560 548 530
3 559 267 561
3 267 269 562
3 267 562 561
3 466 554 563
3 466 563 462
3 563 564 462
3 462 564 269
3 272 74 565
3 272 565 566
3 565 567 566
3 568 274 272
3 568 272 566
3 568 566 569
3 566 567 569
3 570 571 572
3 568 570 572
3 573 47 277
3 573 277 572
3 277 274 568
3 277 568 572
3 572 571 573
3 461 574 567
3 574 575 567
3 575 576 567
3 565 74 463
3 461 567 463
3 567 565 463
3 271 574 461
3 526 47 573
3 526 573 571
3 521 526 571
3 577 521 571
3 271 521 577
3 578 568 569
3 570 568 578
3 579 468 467
3 579 467 580
3 467 581 580
3 582 468 579
3 468 582 471
3 582 583 471
3 584 467 477
3 581 467 585
3 585 467 584
3 497 586 477
3 471 583 496
3 587 497 496
3 406 588 393
3 588 589 393
3 589 391 393
3 589 394 391
3 414 415 590
3 414 590 591
3 592 414 591
3 404 414 592
3 593 460 394
3 590 460 594
3 460 593 594
3 590 415 460
3 427 595 403
3 595 450 403
3 596 445 597
3 445 596 446
3 596 436 446
3 437 436 596
3 437 598 438
3 598 425 438
3 346 599 347
3 600 347 599
3 601 335 347
3 600 601 347
3 347 335 334
3 335 601 602
3 602 603 604
3 604 335 602
3 321 336 335
3 335 604 321
3 604 323 321
3 603 605 604
3 605 323 604
3 323 605 606
3 323 606 324
3 606 355 324
3 607 355 606
3 599 355 607
3 599 346 355
3 394 608 455
3 608 394 609
3 453 455 610
3 610 611 453
3 611 456 453
3 394 460 609
3 369 612 359
3 359 612 361
3 362 361 386
3 613 386 614
3 615 379 613
3 386 613 379
3 616 369 379
3 379 615 616
3 617 612 369
3 369 616 617
3 476 541 546
3 542 462 618
3 462 546 618
3 619 537 545
3 536 537 619
3 536 619 620
3 621 538 536
3 621 536 620
3 541 540 621
3 540 538 621
3 475 70 622
3 475 622 623
3 622 624 625
3 622 625 623
3 625 626 470
3 625 470 623
3 470 475 623
3 21 626 625
3 21 625 22
3 625 624 23
3 625 23 22
3 20 627 628
3 20 628 21
3 628 626 21
3 629 466 465
3 629 465 630
3 465 470 630
3 470 626 628
3 470 628 630
3 628 627 629
3 628 629 630
3 65 631 632
3 631 633 634
3 631 634 632
3 634 635 636
3 634 636 632
3 636 67 65
3 636 65 632
3 19 635 634
3 19 634 25
3 634 633 26
3 634 26 25
3 23 624 637
3 23 637 24
3 637 635 19
3 637 19 24
3 622 70 69
3 622 69 638
3 69 67 636
3 69 636 638
3 636 635 637
3 636 637 638
3 637 624 622
3 637 622 638
3 417 400 639
3 417 639 640
3 639 641 642
3 639 642 640
3 642 643 644
3 642 644 640
3 644 413 417
3 644 417 640
3 256 259 645
3 645 643 642
3 645 642 256
3 642 641 256
3 261 646 647
3 647 643 645
3 647 645 261
3 645 259 261
3 648 373 408
3 648 408 649
3 408 413 644
3 408 644 649
3 644 643 647
3 644 647 649
3 647 646 648
3 647 648 649
3 387 373 648
3 387 648 650
3 648 646 651
3 648 651 650
3 651 652 653
3 651 653 650
3 653 385 387
3 653 387 650
3 259 652 651
3 259 651 260
3 651 646 261
3 651 261 260
3 26 633 259
3 633 652 259
3 631 65 382
3 631 382 654
3 382 385 653
3 382 653 654
3 653 652 633
3 653 633 654
3 633 631 654
3 448 327 655
3 448 655 656
3 655 657 658
3 655 658 656
3 658 659 660
3 658 660 656
3 660 444 448
3 660 448 656
3 263 262 661
3 262 659 658
3 262 658 661
3 658 657 263
3 658 263 661
3 256 641 662
3 256 662 257
3 662 659 262
3 662 262 257
3 639 400 441
3 639 441 663
3 441 444 660
3 441 660 663
3 660 659 662
3 660 662 663
3 662 641 639
3 662 639 663
3 337 36 664
3 337 664 665
3 664 666 665
3 666 667 333
3 666 333 665
3 333 337 665
3 264 667 666
3 264 666 258
3 263 657 668
3 668 667 264
3 668 264 263
3 655 327 326
3 655 326 669
3 326 333 669
3 333 667 668
3 333 668 669
3 668 657 655
3 668 655 669
3 29 28 670
3 29 670 671
3 670 672 673
3 670 673 671
3 673 674 675
3 673 675 671
3 675 31 29
3 675 29 671
3 676 265 677
3 265 266 677
3 266 674 673
3 266 673 677
3 673 672 676
3 673 676 677
3 258 666 678
3 258 678 266
3 678 674 266
3 664 36 679
3 36 31 675
3 36 675 679
3 675 674 678
3 675 678 679
3 678 666 664
3 678 664 679
3 555 466 629
3 629 627 680
3 629 680 555
3 680 681 550
3 680 550 555
3 265 681 680
3 265 680 20
3 680 627 20
3 676 672 682
3 676 682 265
3 682 681 265
3 670 28 547
3 550 681 682
3 550 682 547
3 682 672 670
3 682 670 547
