0.503366
0.348546
0.387271
0.424722
0.311726
0.366799
0.524393
0.464287
0.485648
0.477515
0.512882
0.425163
0.506449
0.392597
0.316935
0.424582
0.380221
0.449122
0.322656
0.522564
0.367528
0.44775
0.532774
0.555608
0.579832
0.553485
0.671404
0.557809
1
0.57423
0.445673
0.638651
0.547904
0.546485
0.559856
0.601205
0.595632
0.607139
0.565942
0.528177
0.623858
0.609093
0.238149
0.575813
0.556232
0.579007
0.581962
0.553066
0.546472
0.545214
0.63805
0.59184
0.580281
0.568631
0.555131
0.511057
0.482001
0.60297
0.549743
0.534451
0.561111
0.600394
0.534931
0.506164
0.527017
0.451803
0.528918
0.556296
0.527959
0.603691
0.506192
0.569528
0.566823
0.603631
0.615167
0.599621
0.552742
0.586414
0.584412
0.591866
0.59654
0.596502
0.587123
0.565431
0.641262
0.667917
0.595902
0.562216
0.634703
0.640147
0.655338
0.645301
0.496191
0.660331
0.639619
0.694711
0.664401
0.628427
0.594946
0.647707
0.681341
0.691336
0.571393
0.634513
0.56377
0.614954
0.628778
0.63606
0.711895
0.654704
0.606526
0.671465
0.560675
0.589205
0.595106
0.658987
0.425197
0.416846
0.293149
0.483041
0.478237
0.555233
0.612135
0.41993
0.591996
0.405227
0.646389
0.628653
0.525091
0.586872
0.459511
0.487968
0.575241
0.613137
0.503267
0.631022
0.606803
0.612396
0.671735
0.649374
0.631172
0.522695
0.655589
0.606702
0.636278
0.524697
0.608643
0.602515
0.578931
0.662428
0.603937
0.591141
0.588633
0.628051
0.592617
0.633902
0.600636
0.576929
0.595073
0.595296
0.560288
0.657166
0.604417
0.591809
0.585773
0.628779
0.610413
0.577281
0.577196
0.644201
0.599449
0.599505
0.586498
0.591039
0.597034
0.610218
0.547604
0.504745
0.499698
0.514103
0.437686
0.497712
0.485034
0.545851
0.436467
0.453867
0.360936
0.347709
0.444333
0.385531
0.496351
0.443789
0.458837
0.385362
0.428501
0.457485
0.436042
0.414168
0.394174
0.385954
0.396999
0.518629
0.523348
0.501048
0.477619
0.525297
0.492484
0.497164
0.598119
0.564516
0.485123
0.53578
0.494178
0.52509
0.577996
0.587787
0.451318
0.409436
0.437111
0.439828
0.470744
0.425195
0.47006
0.419577
0.420313
0.441604
0.426469
0.434685
0.426899
0.44684
0.421997
0.431342
0.568702
0.528673
0.681603
0.552968
0.459767
0.507143
0.450403
0.506297
0.486218
0.467936
0.48623
0.4823
0.450251
0.49725
0.521805
0.484181
0.441935
0.408758
0.433919
0.450374
0.451108
0.442127
0.443005
0.441033
0.453487
0.459709
0.421919
0.445859
0.368475
0.390746
0.425685
0.566327
0.564915
0.515136
0.495706
0.45986
0.494958
0.483303
0.488245
0.558884
0.527982
0.444654
0.460591
0.467118
0.456446
0.477571
0.409648
0.438641
0.401276
0.392227
0.387277
0.450801
0.47453
0.433832
0.411723
0.44814
0.43444
0.434068
0.440884
0.42503
0.381011
0.412471
0.513399
0.5245
0.467703
0.517505
0.470309
0.494223
0.450396
0.458462
0.569533
0.402881
0.367518
0.311505
0.432605
0.407045
0.392454
0.3621
0.421696
0.368017
0.344999
0.425403
0.40886
0.360893
0.426285
0.324691
0.415774
0.456041
0.411012
0.359657
0.396648
0.382771
0.409031
0.360115
0.464972
0.380707
0.343134
0.344665
0.362148
0.38839
0.43226
0.419124
0.48616
0.35862
0.406042
0.364917
0.378036
0.331702
0.43731
0.364302
0.379326
0.402836
0.396678
0.358827
0.349403
0.341593
0.371862
0.404032
0.352107
0.391418
0.368445
0.363315
0.358397
0.380317
0.421348
0.577775
0.397873
0.477294
0.449018
0.375776
0.425358
0.361596
0.35267
0.51032
0.267851
0.37541
0.455183
0.349356
0.270445
0.291968
0.350647
0.409457
0.384914
0.450269
0.437175
0.457807
0.383529
0.391632
0.343915
0.369319
0.382989
0.490783
0.27786
0.37012
0.417689
0.427901
0.452576
0.466982
0.389866
0.442473
0.403233
0.379241
0.36748
0.448341
0.314861
0.512511
0.308783
0.412796
0.431523
0.367042
0.320712
0.381975
0.326225
0.422031
0.317215
0.386397
0.363863
0.327167
0.307653
0.401749
0.373373
0.395134
0.318273
0.383178
0.378896
0.367371
0.377242
0.388504
0.359819
0.380517
0.3672
0.368674
0.345232
0.400362
0.355548
0.424416
0.397271
0.430639
0.401015
0.434121
0.394404
0.41249
0.419821
0.364702
0.404276
0.433715
0.424477
0.429609
0.436408
0.402526
0.430022
0.377923
0.390395
0.43318
0.411143
0.377838
0.394862
0.409045
0.435556
0.477697
0.46205
0.417377
0.405083
0.336866
0.383961
0.390402
0.348728
0.408785
0.409196
0.417294
0.376657
0.405324
0.411962
0.360182
0.402128
0.406918
0.378743
0.404495
0.408704
0.389038
0.336991
0.390716
0.383897
0.381208
0.369221
0.430009
0.433597
0.407395
0.387239
0.364854
0.374425
0.393725
0.41122
0.38306
0.374158
0.427933
0.387131
0.3904
0.380707
0.426378
0.31753
0.44856
0.421108
0.413904
0.399218
0.398545
0.442091
0.412538
0.3896
0.421275
0.436873
0.430572
0.393184
0.421273
0.375274
0.336746
0.381604
0.415252
0.410007
0.399623
0.390358
0.392864
0.409447
0.442677
0.39996
0.3739
0.408306
0.404363
0.437576
0.3963
0.372313
0.388494
0.408837
0.411255
0.399979
0.386964
0.405426
0.405149
0.388175
0.431174
0.403598
0.382569
0.410676
0.409933
0.400324
0.400632
0.391476
0.386174
0.403406
0.429105
0.430652
0.415676
0.407427
0.417996
0.360729
0.391134
0.386424
0.413004
0.382223
0.313355
0.393806
0.368257
0.416502
0.395874
0.442682
0.449395
0.431509
0.413041
0.39555
0.403856
0.39914
0.389541
0.38746
0.427677
0.423857
0.396916
0.405184
0.401322
0.443582
0.457996
0.451155
0.459649
0.435313
0.414781
0.439456
0.407122
0.429059
0.415194
0.417091
0.409948
0.414403
0.424407
0.41937
0.412653
0.46872
0.366819
0.388729
0.405812
0.42089
0.408674
0.344593
0.414312
0.407153
0.398723
0.414054
0.39571
0.411938
0.393475
0.402965
0.413063
0.361254
0.38126
0.39092
0.406708
0.401071
0.389981
0.407133
0.419282
0.418599
0.400797
0.406407
0.400427
0.402708
0.417476
0.416182
0.443477
0.388949
0.407701
0.411893
0.406589
0.423506
0.348508
0.434796
0.37932
0.387085
0.400029
0.401508
0.40621
0.404718
0.363477
0.426716
0.390781
0.420005
0.408241
0.378242
0.404838
0.397524
0.380824
0.395356
0.414035
0.419848
0.39336
0.423843
0.419974
0.41761
0.360449
0.406831
0.392071
0.407415
0.390398
0.405798
0.369068
0.352188
0.235884
0.270877
0.281205
0.228739
0.235489
0.223815
0.205232
0.20582
0.25058
0.203407
0.25039
0.234613
0.236612
0.223616
0.253553
0.289302
0.250995
0.239369
0.198138
0.236698
0.273968
0.258874
0.423118
0.386713
0.379675
0.440808
0.411077
0.298559
0.464821
0.409359
0.417047
0.429617
0.431663
0.438842
0.423601
0.394601
0.43806
0.407197
0.483702
0.408633
0.449542
0.443436
0.417866
0.408338
0.415202
0.259788
0.400142
0.349348
0.400403
0.344166
0.40538
0.394807
0.285293
0.431397
0.468771
0.38353
0.421452
0.435522
0.439211
0.411738
0.420237
0.467803
0.431734
0.420601
0.446998
0.428571
0.460225
0.434291
0.316567
0.454908
0.303569
0.404013
0.432373
0.376197
0.430641
0.421451
0.426829
0.427214
0.404664
0.404919
0.422891
0.426829
0.43444
0.458866
0.325041
0.383765
0.410384
0.394092
0.405382
0.419163
0.419528
0.414745
0.374692
0.295769
0.241177
0.262134
0.225768
0.238677
0.278038
0.246021
0.207273
0.215578
0.22032
0.208224
0.182893
0.308897
0.220264
0.251367
0.220948
0.215031
0.25378
0.22725
0.392772
0.429044
0.372733
0.393892
0.409421
0.317756
0.376637
0.390083
0.458187
0.426422
0.444946
0.448773
0.403499
0.446892
0.424351
0.428763
0.441992
0.449899
0.390611
0.460482
0.428506
0.369025
0.433231
0.254861
0.371318
0.40225
0.384407
0.383262
0.416957
0.412394
0.423003
0.397369
0.429148
0.47785
0.420843
0.395477
0.348244
0.29075
0.416186
0.435913
0.329077
0.29465
0.295362
0.370272
0.278822
0.410385
0.412617
0.432184
0.395836
0.380481
0.425349
0.435304
0.411269
0.453444
0.429268
0.327955
0.405389
0.202591
0.325515
0.387144
0.346608
0.375153
0.349345
0.373056
0.341562
0.350225
0.360906
0.394815
0.43711
0.435919
0.461567
0.439865
0.431949
0.369662
0.323586
0.267436
0.351753
0.332021
0.452351
0.404335
0.403391
0.369877
0.373449
0.43257
0.383476
0.459548
0.327798
0.373808
0.326057
0.3363
0.293683
0.313417
0.306708
0.406238
0.425372
0.430111
0.470422
0.475818
0.422747
0.509364
0.449808
0.457711
0.284559
0.375158
0.309096
0.453446
0.371785
0.462501
0.366836
0.362006
0.289702
0.273273
0.461124
0.466476
0.435812
0.401657
0.504856
0.306941
0.388148
0.442535
0.395181
0.410668
0.448144
0.310817
0.350482
0.362347
0.336406
0.306091
0.384657
0.37291
0.365281
0.371978
0.294011
0.313195
0.422643
0.489506
0.499271
0.483115
0.438968
0.444671
0.411707
0.386944
0.490233
0.407655
0.44834
0.331837
0.333193
0.327728
0.28865
0.333308
0.371473
0.471964
0.333839
0.480853
0.445399
0.472917
0.447167
0.465128
0.329476
0.327808
0.294313
0.305839
0.371316
0.365716
0.396523
0.380801
0.293656
0.317417
0.367853
0.357652
0.462763
0.434973
0.419914
0.379817
0.626368
0.638081
0.580975
0.606055
0.367378
0.580048
0.605859
0.613377
0.612499
0.677477
0.656912
0.590693
0.57669
0.614256
0.148388
0.653923
0.652427
0.647579
0.599099
0.568866
0.62426
0.616779
0.389323
0.541804
0.452846
0.539187
0.605009
0.656166
0.639328
0.647099
0.414793
0.493325
0.555562
0.492626
0.411714
0.657571
0.576755
0.48264
0.661228
0.589312
0.263865
0.630546
0.364737
0.709571
0.61538
0.583823
0.605371
0.583494
0.590708
0.597026
0.55523
0.555899
0.6303
0.58858
0.625406
0.618807
0.439021
0.550085
0.56634
0.30188
0.321416
0.339362
0.450682
0.402513
0.401838
0.385591
0.368247
0.404069
0.469284
0.383227
0.33298
0.39279
0.440686
0.399589
0.472946
0.570537
0.385254
0.640364
0.220567
0.543792
0.541185
0.246246
0.515209
0.580982
0.484184
0.451655
0.653091
0.992504
0.571698
0.549005
0.646481
0.604506
0.536033
0.54365
0.612596
0.603908
0.521978
0.63413
0.613832
0.606616
0.349205
0.545952
0.502594
0.435827
0.586115
0.576059
0.588072
0.592178
0.539315
0.548936
0.524214
0.495478
0.519149
0.551136
0.593662
0.567803
0.64697
0.639679
0.654253
0.614135
0.589046
0.575781
0.679537
0.593922
0.548644
0.632087
0.466768
0.606395
0.556967
0.574852
0.55731
0.629263
0.532042
0.536514
0.149775
0.553597
0.536021
0.257488
0.548383
0.636684
0.634744
0.1697
0.632758
0.489948
0.660492
0.552907
0.578494
0.528339
0.542134
0.533384
0.497541
0.547326
0.521431
0.474595
0.554567
0.632673
0.450742
0.527976
0.368878
0.32375
0.290865
0.159633
0.398376
0.523744
0.630481
0.5712
0.385765
0.519373
0.627655
0.595169
0.520311
0.593456
0.635597
0.582447
0.659411
0.405832
0.465667
0.212326
0.528544
0.612358
0.576571
0.454596
0.576959
0.660548
0.52142
0.447423
0.693176
0.451495
0.512703
0.316681
0.573657
0.452091
0.464748
0.486438
0.563428
0.58229
0.48119
0.6552
0.198362
0.595472
0.529999
0.405827
0.240539
0.242753
0.612969
0.187608
0.483622
0.199047
0.398972
0.346892
0.101826
0.475432
0.386129
0.376093
0.4398
0.414914
0.261728
0.455599
0.47612
0.521994
0.463445
0.0836513
0.501598
0.448114
0.174807
0.508863
0.155236
0.140414
0.249056
0.35316
0.221252
0.293495
0.172831
0.24241
0.234995
0.196384
0.251282
0.537951
0.53973
0.429334
0.460014
0.432011
0.486002
0.48887
0.431801
0.473824
0.0921745
0.5087
0.46545
0.173017
0.437173
0.406332
0.365767
0.197942
0.165112
0.199738
0.268687
0.211053
0.135366
0.435651
0.50132
0.48578
0.481135
0.373732
0.285178
0.360947
0.340644
0.395746
0.343226
0.475322
0.515868
0.536326
0.467514
0.437812
0.321439
0.534869
0.481475
0.1456
0.307283
0.269881
0.427302
0.188822
0.378831
0.219769
0.203868
0.151036
0.164655
0.269484
0.300536
0.348678
0.313405
0.21473
0.233358
0.382403
0.274429
0.493749
0.539064
0.414096
0.360521
0.361569
0.486232
0.543995
0.478533
0.454949
0.423644
0.489703
0.3533
0.476086
0.492376
0.290211
0.335198
0.409798
0.390097
0.269265
0.292659
0.383993
0.1849
0.16524
0.156874
0.177339
0.238335
0.216105
0.305262
0.236012
0.12918
0.167784
0.600999
0.555842
0.525021
0.622635
0.588452
0.543431
0.668525
0.573635
0.553602
0.606452
0.602062
0.397842
0.655278
0.583201
0.574113
0.369925
0.666007
0.417326
0.490093
0.566956
0.645226
0.401358
0.555167
0.574522
0.559699
0.544339
0.360842
0.52912
0.302155
0.545102
0.619772
0.610481
0.508229
0.518714
0.474476
0.537227
0.577124
0.587686
0.618189
0.618379
0.407352
0.578652
0.581254
0.476531
0.591594
0.615671
0.553201
0.532175
0.447664
0.55154
0.564967
0.551031
0.552112
0.240867
0.430391
0.547597
0.482161
0.522613
0.541957
0.554645
0.520783
0.586025
0.608786
0.552312
0.539311
0.610445
0.584009
0.477258
0.543721
0.5172
0.548539
0.664996
0.474945
0.518268
0.566518
0.571048
0.544004
0.525309
0.541461
0.566604
0.543683
0.628934
0.574526
0.567199
0.535159
0.524536
0.583009
0.408984
0.582991
0.492825
0.552601
0.363221
0.547638
0.547944
0.555808
0.585567
0.500499
0.48632
0.526297
0.624985
0.541785
0.446918
0.53565
0.483092
0.565811
0.615436
0.522583
0.484162
0.568168
0.538811
0.597972
0.395691
0.506923
0.495755
0.641517
0.405879
0.572747
0.514714
0.578508
0.507948
0.617592
0.582478
0.632834
0.541858
0.592544
0.523607
0.570988
0.627568
0.506871
0.591045
0.487256
0.510969
0.571127
0.466322
0.566112
0.532342
0.537418
0.538667
0.522242
0.554495
0.527133
0.602862
0.528632
0.486783
0.586633
0.30488
0.570142
0.634766
0.492612
0.514842
0.541395
0.571023
0.436577
0.524349
0.452918
0.567165
0.301118
0.556583
0.879809
0.544039
0.578325
0.544045
0.499334
0.560405
0.545709
0.610426
0.552082
0.706715
0.546574
0.567536
0.577104
0.594246
0.537813
0.511658
0.541832
0.485119
0.576793
0.478346
0.51215
0.548426
0.454435
0.517302
0.493325
0.519998
0.548325
0.539045
0.526224
0.50341
0.510495
0.553293
0.60497
0.574141
0.462202
0.634457
0.590459
0.524488
0.551774
0.559878
0.625638
0.62335
0.581276
0.582861
0.479377
0.549786
0.588985
0.534354
0.515236
0.28787
0.366321
0.560681
0.395402
0.538391
0.528485
0.544415
0.717781
0.554188
0.555444
0.545797
0.597066
0.544936
0.589191
0.55812
0.615455
0.54986
0.61698
0.538148
0.539742
0.572096
0.539634
0.540547
0.564146
0.564524
0.487989
0.562229
0.627312
0.608485
0.548887
0.530204
0.546082
0.543716
0.553343
0.531208
0.532822
0.487524
0.48667
0.500641
0.505232
0.598056
0.650155
0.564477
0.562761
0
0.571872
0.851421
0.47409
0.535023
0.42076
