0.623189
0.554619
0.627238
0.578399
0.676225
0.495774
0.558254
0.544707
0.686414
0.561983
0.910998
0.655822
0.809521
0.585315
0.633761
0.524566
0.69092
0.600071
0.853217
0.553525
0.60728
0.484991
0.707841
0.531409
0.563028
0.801239
0.244695
0.763526
0.673667
0.660249
0.605885
0.552329
0.433869
0.412308
0.395073
0.394443
0.387863
0.345975
0.436586
0.40104
0.311445
0.373601
0.369417
0.374028
0.356058
0.397501
0.355505
0.287352
0.291495
0.388239
0.424968
0.259426
0.359975
0.339277
0.33246
0.461787
0.416046
0.349131
0.360259
0.337873
0.38932
0.373977
0.297377
0.341308
0.377031
0.328357
0.361979
0.266335
0.301434
0.32066
0.413603
0.322338
0.370998
0.326601
0.396158
0.339732
0.399538
0.365346
0.348507
0.373132
0.31101
0.423508
0.339093
0.439534
0.443602
0.252041
0.451738
0.397559
0.333717
0.273322
0.362527
0.417939
0.368428
0.238918
0.273152
0.0448857
0.409667
0.413279
0.349135
0.257932
0.323802
0.334607
0.3589
0.382475
0.383383
0.365307
0.369688
0.398408
0.447779
0.312397
0.337781
0.31759
0.353479
0.302652
0.385317
0.312438
0.369488
0.270975
0.232314
0.334766
0.277836
0.31182
0.36885
0.350756
0.405331
0.40597
0.333488
0.383937
0.244798
0.34799
0.377781
0.292346
0.290398
0.372966
0.361483
0.37072
0.350398
0.428802
0.358596
0.415472
0.317947
0.258561
0.357562
0.336642
0.435433
0.42833
0.304206
0.377248
0.371783
0.333568
0.392559
0.388596
0.360681
0.318314
0.396957
0.322714
0.300662
0.327221
0.268744
0.397503
0.400952
0.234562
0.378544
0.32469
0.380301
0.305978
0.404897
0.363967
0.141578
0.274073
0.505812
0.574473
0.334173
0.294009
0.500143
0.432812
0.478892
0.505489
0.367981
0.381727
0.392095
0.381819
0.368426
0.37422
0.300649
0.347491
0.353802
0.340606
0.390555
0.385314
0.322517
0.230825
0.377912
0.429432
0.455629
0.41644
0.429992
0.456293
0.3143
0.389451
0.516668
0.761936
0.72033
0.69603
0.49315
0.460652
0.483892
0.317776
0.458108
0.487074
0.574491
0.33037
0.473923
0.484789
0.523069
0.453129
0.411554
0.398222
0.425396
0.402639
0.348868
0.391833
0.403317
0.431419
0.333469
0.326303
0.307415
0.338382
0.389791
0.374205
0.362653
0.404008
0.402
0.468278
0.395584
0.505462
0.382626
0.418736
0.364188
0.404882
0.455368
0.343626
0.346005
0.451026
0.416947
0.269206
0.447763
0.377422
0.412843
0.419404
0.312711
0.41185
0.405709
0.381299
0.34087
0.309876
0.467595
0.47768
0.5981
0.565731
0.514468
0.87212
0.407051
0.454907
0.262826
0.446938
0.593401
0.34572
0.309822
0.475211
0.256798
0.462256
0.671078
0.253774
0.599921
0.29206
0.436741
0.511108
0.619871
0.512362
0.422973
0.476108
0.397273
0.436512
0.566561
0.709667
0.609589
0.198798
0.642272
0.451635
0.676059
0.585229
0.700486
0.753249
0.5017
0.708379
0.72376
0.653007
0.746658
0.681092
0.58052
0.465943
0.776081
0.65861
0.547593
0.437939
0.590907
0.403976
0.557024
0.768694
0.575269
0.68187
0.482255
0.52736
0.477697
0.543622
0.562153
0.58963
0.642192
0.580034
0.634035
0.409004
0.210047
0.57098
0.592467
0.604727
0.73935
0.590145
0.723528
0.740462
0.589394
0.306365
0.727993
0.644241
0.567043
0.605283
0.740586
0.58373
0.553463
0.652876
0.618623
0.639241
0.627785
0.612068
0.497792
0.576718
0.499873
0.405968
0.567287
0.577179
0.617825
0.577599
0.44968
0.613912
0.379306
0.592012
0.5263
0.579672
0.435539
0.763004
0.569441
0.529665
0.740284
0.531979
0.454382
0.553767
0.748873
0.601311
0.726726
0.597976
0.524838
0.683782
0.755394
0.73018
0.691622
0.706807
0.525502
0.537781
0.473904
0.670313
0.572066
0.606052
0.577879
0.392453
0.817271
0.816799
0.816748
0.817238
0.715426
0.811854
0.81426
0.816219
0.863424
0.810216
0.817034
0.817232
0.816306
0.825543
0.821425
0.81505
0.814526
0.817273
0.813898
0.817261
0.817016
0.816998
0.815179
0.815443
0.80721
0.817039
0.811218
0.808014
0.814813
0.816748
0.817398
0.818094
0.674321
0.608485
0.78577
0.762402
0.74395
0.660591
0.746042
0.688383
0.82551
0.777713
0.61958
0.875361
0.610679
0.588453
0.649364
0.701889
0.252884
0.539061
0.382605
0.817557
0.715709
0.553613
0.783333
0.832757
0.230305
0.712929
0.558211
0.790581
0.690626
0.653858
0.666126
0.437659
0.267309
0.718374
0.804537
0.376726
0.685437
0.704029
0.576138
0.537911
0.264707
0.569198
0.783094
0.836844
0.71663
0.570651
0.310336
0.364288
0.699835
0.921102
0.657407
0.554318
0.583384
0.82845
0.655227
0.772183
0.664664
0.765165
0.749335
0.71196
0.721974
0.670811
0.64912
0.570844
0.691157
0.75027
0.401303
0.535597
0.318199
0.717848
0.131322
0.829351
0.743176
0.665065
0.489162
0.491556
0.165943
0.296629
0.707915
0.768702
0.480299
0.636938
0.745756
0.682818
0.591102
0.716703
0.668629
0.468549
0.740937
0.797111
0.618842
0.596952
0.449826
0.728645
0.693797
0.628979
0.543489
0.112846
0.0542255
0.0610292
0.809605
0.157344
0.776504
0.116994
0.556244
0.0850751
0.408253
0.49471
0.382868
0.905275
0.0368882
0.484304
0.485757
0.826251
0.469242
0.117421
0.284539
0.888641
0.434227
0.358856
0.508548
0.103883
0.21663
0.322053
0.859764
0.885235
0.838762
0.900806
0.159051
0.104218
0.0812217
0.065065
0.149683
0.0988141
0.225802
0.119099
0.260322
0.648051
0.35591
0.292305
0.143437
0.661815
0.644168
0.795669
0.197618
0.263288
0.946823
0.156659
1
0.75247
0.404746
0.347379
0.17601
0.100698
0.137774
0.0216484
0.125051
0.909176
0.106325
0.0828643
0.768797
0.15019
0.624533
0.806955
0.11569
0.551863
0.186541
0.723379
0.28644
0.816619
0.53313
0.554963
0.0810172
0.852984
0.504015
0.885314
0.248967
0.211842
0.739467
0.0709253
0.371321
0.81381
0.520911
0.305007
0.273553
0.0819267
0.15712
0.914257
0.38437
0.0747092
0.83008
0.467425
0.684542
0.635231
0.800315
0.634386
0.793721
0.807257
0.646884
0.733889
0.725338
0.792395
0.817071
0.729455
0.785323
0.81163
0.750262
0.851138
0.787048
0.815167
0.812651
0.819066
0.727833
0.812155
0.795035
0.818273
0.550663
0.617688
0.66935
0.716516
0.781747
0.81767
0.700206
0.809122
0.862768
0.350374
0.806588
0.801435
0.83588
0.843924
0.866889
0.239652
0.816983
0.844434
0.78927
0.812732
0.69867
0.755238
0.811318
0.813366
0.810246
0.816151
0.8149
0.809545
0.798015
0.811256
0.805674
0.817002
0.536939
0.544935
0.823938
0.81212
0.805094
0.802461
0.789147
0.802936
0.791799
0.424615
0.822394
0.700333
0.836527
0.803013
0.770705
0.777966
0.800598
0.774964
0.813053
0.816638
0.812345
0.891234
0.813803
0.822995
0.817108
0.818159
0.814329
0.804888
0.813351
0.890659
0.817016
0.82083
0.78266
0.452626
0.770512
0.960782
0.807315
0.804843
0.799115
0.803086
0.659892
0.841325
0.792327
0.719153
0.852328
0.801023
0.597998
0.58424
0.799737
0.817005
0.817102
0.817539
0.882817
0.816501
0.730064
0.811608
0.817156
0.817068
0.559192
0.83505
0.76455
0.797902
0.804251
0.791833
0.883746
0.769581
0.529231
0.536922
0.874424
0.803262
0.739755
0.801414
0.830657
0.76371
0.827498
0.799375
0.562557
0.770055
0.571391
0.638476
0.804066
0.701447
0.649232
0.824061
0.506156
0.790774
0.5228
0.83895
0.830318
0.827965
0.488026
0.773525
0.735538
0.649861
0.816995
0.794307
0.82876
0.722194
0.737392
0.653754
0.543496
0.547773
0.823395
0.797516
0.749825
0.114967
0.0748967
0.808495
0.817744
0.902968
0.725004
0.74563
0.817036
0.848621
0.818036
0.280617
0.261681
0.374398
0.852593
0.644209
0.823732
0.301793
0.834671
0.764304
0.842192
0.502498
0.434741
0.500078
0.723158
0.67714
0.759785
0.715708
0.813057
0.742188
0.767356
0.711096
0.813571
0.725914
0.319984
0.821473
0.333714
0.763316
0.255368
0.925091
0.818153
0.151635
0.37404
0.816167
0.698771
0.838943
0.613963
0.821162
0.456299
0.838419
0.613758
0.544093
0.606301
0.844347
0.832278
0.266636
0.38923
0.875805
0.493637
0.790701
0.396069
0.710342
0.155422
0.825551
0.563903
0.425704
0.81279
0.714132
0.465246
0.707682
0.652763
0.664087
0.808486
0.805146
0.835424
0.793211
0.730098
0.667578
0.817947
0.573593
0.817922
0.313659
0.650425
0.859968
0.196635
0.620245
0.911019
0.11006
0.477866
0.351556
0.332489
0.753381
0.828887
0.162898
0.575828
0.840429
0.835984
0.797618
0.909602
0.0195176
0.0331648
0.825703
0.823212
0.820768
0.819915
0.883717
0.890878
0.848613
0.835871
0.847328
0.642153
0.807856
0.785948
0.800106
0.82936
0.707705
0.893196
0.833273
0.843494
0
0.37819
0.386223
0.824714
0.836025
0.829387
0.369391
0.341584
0.345491
0.838444
0.665422
0.82564
0.861874
0.275405
0.186707
0.560895
0.854826
0.856367
0.887962
0.806658
0.824203
0.810328
0.289918
0.290385
0.403709
0.575581
0.392416
0.411239
0.378373
0.289324
0.381907
0.35184
0.334571
0.208485
0.337344
0.265437
0.425346
0.335271
0.37792
0.37073
0.36199
0.260088
0.425207
0.361229
0.331096
0.384567
0.234507
0.421411
0.304186
0.34781
0.414482
0.284214
0.391935
0.393873
0.396968
0.309799
0.176371
0.291433
0.441724
0.422988
0.399119
0.330409
0.276125
0.347822
0.383313
0.298167
0.357952
0.387461
0.350943
0.425834
0.299668
0.426344
0.39371
0.305435
0.373129
0.337752
0.409818
0.287585
0.316265
0.378514
0.399398
0.324009
0.328785
0.268563
0.245348
0.424725
0.355923
0.341314
0.232302
0.366722
0.376229
0.251958
0.383776
0.332584
0.330125
0.375642
0.405159
0.366543
0.386244
0.398594
0.366152
0.395471
0.355681
0.41781
0.386076
0.256687
0.304906
0.247341
0.300243
0.225063
0.367326
0.391657
0.370094
0.402829
0.352987
0.342205
0.306013
0.351423
0.272314
0.338345
0.34745
0.366123
0.448421
0.243275
0.355379
0.359079
0.389361
0.32021
0.357224
0.336981
0.315862
0.326501
0.340575
0.377778
0.387153
0.357679
0.310811
0.275855
0.348394
0.224384
0.220967
0.271791
0.328339
0.37581
0.19182
0.295468
0.422543
0.303417
0.309753
0.374181
0.361028
0.225467
0.357502
0.242485
0.813003
0.814821
0.820351
0.817033
0.834504
0.825116
0.485816
0.828964
0.823238
0.834128
0.66539
0.661328
0.823771
0.829316
0.833951
0.83347
0.825655
0.832099
0.823333
0.836977
0.822167
0.832653
0.837629
0.838849
0.369494
0.820589
0.820862
0.83783
0.813457
0.837739
0.794911
0.808901
0.869085
0.816248
0.823227
0.819101
0.827575
0.679346
0.779503
0.826717
0.814863
0.824
0.826512
0.841546
0.808626
0.828773
0.826845
0.832789
0.57941
0.601878
0.638154
0.611914
0.825603
0.823533
0.794906
0.805753
0.851154
0.820476
0.816946
0.817314
0.829939
0.954317
0.820174
0.824502
0.826923
0.817112
0.81907
0.807507
0.834658
0.808994
0.847445
0.807734
0.82937
0.830476
0.842273
0.806635
0.713073
0.831353
0.837253
0.838414
0.841273
0.821463
0.691427
0.833694
0.836695
0.824051
0.845482
0.741176
0.830788
0.814446
0.428052
0.84305
0.840184
0.840124
0.822672
0.818643
0.795108
0.820097
0.819468
0.851722
0.822464
0.886907
0.704068
0.81715
0.924385
0.882298
0.847242
0.814977
0.816436
0.662609
0.826322
0.824885
0.801886
0.815611
0.789451
0.823722
0.825982
0.824256
0.852174
0.625479
0.836741
0.807789
0.883
0.701339
0.354489
0.820202
0.83315
0.824105
