OFF
537 1048 0
1.55331 -18.2556 -2.21744
1.55331 -18.2556 -2.46705
1.9446 -18.2645 -2.46345
1.9446 -18.2645 -2.21384
2.41191 -18.2674 -2.46225
2.41191 -18.2674 -2.21265
2.41141 -18.266 -2.03254
1.95931 -18.2632 -2.03531
1.58051 -18.2545 -2.04039
2.8771 -18.2645 -2.46345
3.26201 -18.2556 -2.46705
3.26201 -18.2556 -2.21744
2.8771 -18.2645 -2.21384
3.23411 -18.2545 -2.04039
2.86151 -18.2632 -2.03531
3.1502 -18.2514 -1.92961
3.037 -18.2471 -1.87691
2.78131 -18.2514 -1.85163
2.8146 -18.2592 -1.92006
2.4069 -18.2535 -1.83915
2.4099 -18.2618 -1.91261
2.031 -18.2514 -1.85163
1.77231 -18.2471 -1.87691
1.6622 -18.2514 -1.92961
2.00341 -18.2592 -1.92006
0.906605 -6.761 -0.271535
0.891005 -6.7666 -0.235185
0.708205 -6.7667 -0.401875
0.887005 -6.7752 -0.226385
0.889305 -6.7885 -0.232935
0.708505 -6.7885 -0.399845
0.706105 -6.7752 -0.393565
0.491605 -6.7885 -0.455485
0.489205 -6.7752 -0.449285
0.274705 -6.7885 -0.399845
0.094005 -6.7885 -0.232935
0.091405 -6.7752 -0.226385
0.272205 -6.7752 -0.393565
0.076305 -6.767 -0.237825
0.261605 -6.7669 -0.403675
1.0701 -6.7885 1.3216
1.0701 -6.7885 1.07289
1.06781 -6.7752 1.08148
1.04021 -17.7694 -2.41388
1.04021 -17.7694 -2.66348
1.1084 -18.0368 -2.55546
1.1084 -18.0368 -2.30585
1.18411 -18.1808 -2.49725
1.18411 -18.1808 -2.24764
1.2216 -18.1807 -2.06624
1.14661 -18.0368 -2.12359
1.0775 -17.7694 -2.23161
1.31611 -18.2407 -2.47304
1.31611 -18.2407 -2.22344
1.3505 -18.2401 -2.0446
1.6579 -18.2373 -1.85732
1.45341 -18.2384 -1.92846
1.5587 -18.18 -1.86303
1.33411 -18.1803 -1.94238
1.49011 -18.0368 -1.91508
1.41331 -17.7694 -2.0231
1.1894 -17.7694 -2.10519
1.2611 -18.0368 -1.99716
2.68191 -17.7694 -4.14154
3.0551 -17.7694 -3.97402
3.16911 -18.0368 -3.86599
2.7875 -18.0368 -4.03351
3.2027 -18.18 -3.78835
2.8291 -18.1803 -3.95071
2.3809 -18.1805 -4.00488
2.32961 -18.0368 -4.08935
2.23421 -17.7694 -4.19737
3.1444 -18.2373 -3.70588
3.037 -18.2471 -3.62176
2.78131 -18.2514 -3.70018
2.80661 -18.2384 -3.85276
2.4069 -18.2535 -3.73888
2.402 -18.2396 -3.90193
2.031 -18.2514 -3.70018
1.77231 -18.2471 -3.62176
1.6579 -18.2373 -3.70588
1.99661 -18.2384 -3.85276
1.5587 -18.18 -3.78836
1.93261 -18.1803 -3.95071
1.49011 -18.0368 -3.86599
1.41331 -17.7694 -3.97402
1.7864 -17.7694 -4.14154
1.87171 -18.0368 -4.03351
3.2789 -17.7694 -2.10519
3.0551 -17.7694 -2.0231
3.16911 -18.0368 -1.91508
3.3981 -18.0368 -1.99716
3.2027 -18.18 -1.86303
3.42751 -18.1803 -1.94238
3.5403 -18.1807 -2.06624
3.5126 -18.0368 -2.12359
3.3909 -17.7694 -2.23161
3.1444 -18.2373 -1.85732
3.3497 -18.2384 -1.92846
3.45391 -18.2401 -2.0446
3.48861 -18.2407 -2.47304
3.48861 -18.2407 -2.22344
3.5779 -18.1808 -2.49725
3.5779 -18.1808 -2.24764
3.5507 -18.0368 -2.55546
3.42821 -17.7694 -2.66348
3.42821 -17.7694 -2.41388
3.5507 -18.0368 -2.30585
1.7864 -17.7694 -1.97385
1.87171 -18.0368 -1.86582
1.93261 -18.1803 -1.81515
2.3809 -18.1805 -1.79907
2.32961 -18.0368 -1.84941
2.23421 -17.7694 -1.95743
1.99661 -18.2384 -1.81353
2.402 -18.2396 -1.79847
2.80661 -18.2384 -1.81353
2.8291 -18.1803 -1.81515
2.68191 -17.7694 -1.97385
2.7875 -18.0368 -1.86582
1.47851 -9.77027 -0.252255
1.3626 -9.77027 -0.185995
1.52101 -10.973 -0.801775
1.6484 -10.973 -0.869575
1.7029 -12.3116 -1.41798
1.8455 -12.3116 -1.48903
1.91681 -12.3116 -1.59847
1.71221 -10.973 -0.974005
1.5364 -9.77027 -0.354305
1.9085 -13.6645 -1.94982
2.1374 -14.91 -2.31254
2.3137 -14.91 -2.39107
2.06781 -13.6645 -2.02481
2.4018 -14.91 -2.51203
2.14751 -13.6645 -2.14029
2.43121 -14.91 -2.68641
2.43121 -14.91 -2.92522
2.1741 -13.6645 -2.53479
2.1741 -13.6645 -2.30679
1.94051 -12.3116 -1.97231
1.94051 -12.3116 -1.75624
1.7334 -10.973 -1.3307
1.5558 -9.77027 -0.702915
1.5558 -9.77027 -0.501435
1.7334 -10.973 -1.12454
1.16951 -9.77027 -1.89602
1.3626 -9.77027 -1.7608
1.52101 -10.973 -2.41317
1.3085 -10.973 -2.55153
1.7029 -12.3116 -3.10676
1.4654 -12.3116 -3.25177
1.18031 -12.3116 -3.3001
1.0535 -10.973 -2.59765
0.937705 -9.77027 -1.94109
1.9085 -13.6645 -3.73194
2.1374 -14.91 -4.17906
1.84361 -14.91 -4.33933
1.6428 -13.6645 -3.88496
1.4911 -14.91 -4.39276
1.32411 -13.6645 -3.93596
1.1385 -14.91 -4.33933
0.844805 -14.91 -4.17906
0.739705 -13.6645 -3.73194
1.00531 -13.6645 -3.88496
0.657605 -12.3116 -3.10676
0.895205 -12.3116 -3.25177
0.586005 -10.973 -2.41317
0.512705 -9.77027 -1.7608
0.705905 -9.77027 -1.89602
0.798505 -10.973 -2.55153
0.319605 -9.77027 -0.501435
0.319605 -9.77027 -0.702915
0.373605 -10.973 -1.3307
0.373605 -10.973 -1.12454
0.420005 -12.3116 -1.97231
0.420005 -12.3116 -1.75624
0.443705 -12.3116 -1.59847
0.394805 -10.973 -0.974005
0.338905 -9.77027 -0.354305
0.474105 -13.6645 -2.53479
0.551005 -14.91 -2.92522
0.551005 -14.91 -2.68641
0.474105 -13.6645 -2.30679
0.580405 -14.91 -2.51203
0.500605 -13.6645 -2.14029
0.668505 -14.91 -2.39107
0.844805 -14.91 -2.31254
0.739705 -13.6645 -1.94982
0.580305 -13.6645 -2.02481
0.657605 -12.3116 -1.41798
0.515005 -12.3116 -1.48903
0.586005 -10.973 -0.801775
0.512705 -9.77027 -0.185995
0.396905 -9.77027 -0.252255
0.458605 -10.973 -0.869575
0.705905 -9.77027 -0.146235
0.798505 -10.973 -0.761095
0.895205 -12.3116 -1.37534
1.18031 -12.3116 -1.36113
1.0535 -10.973 -0.747535
0.937705 -9.77027 -0.132985
1.1385 -14.91 -2.26542
1.00531 -13.6645 -1.90483
1.4911 -14.91 -2.24971
1.32411 -13.6645 -1.88984
1.84361 -14.91 -2.26542
1.6428 -13.6645 -1.90483
1.4654 -12.3116 -1.37534
1.16951 -9.77027 -0.146235
1.3085 -10.973 -0.761095
-0.014495 -6.7885 0.0452554
-0.017095 -6.7752 0.0522354
-0.068695 -6.7885 0.387265
-0.071395 -6.7752 0.394775
-0.027695 -6.7671 0.0470654
-0.086795 -6.7885 0.745625
0.319605 -9.77027 -0.968045
0.373605 -10.973 -1.60199
0.338905 -9.77027 -1.25836
0.394805 -10.973 -1.89906
0.443705 -12.3116 -2.56796
0.420005 -12.3116 -2.25662
0.396905 -9.77027 -1.53543
0.458605 -10.973 -2.18256
0.515005 -12.3116 -2.86508
0.668505 -14.91 -3.91195
0.580305 -13.6645 -3.4769
0.580405 -14.91 -3.58355
0.500605 -13.6645 -3.16336
0.551005 -14.91 -3.23945
0.474105 -13.6645 -2.83482
1.04021 -17.7694 -2.99193
1.1084 -18.0368 -2.8839
1.0775 -17.7694 -3.35158
1.14661 -18.0368 -3.24356
1.2216 -18.1807 -3.18269
1.18411 -18.1808 -2.82569
1.1894 -17.7694 -3.69482
1.2611 -18.0368 -3.5868
1.33411 -18.1803 -3.51797
1.6622 -18.2514 -3.43494
1.45341 -18.2384 -3.46189
1.58051 -18.2545 -3.13929
1.3505 -18.2401 -3.15052
1.55331 -18.2556 -2.79549
1.31611 -18.2407 -2.80149
1.9446 -18.2645 -2.79189
1.95931 -18.2632 -3.14123
2.41141 -18.266 -3.14549
2.41191 -18.2674 -2.79069
2.00341 -18.2592 -3.45349
2.4099 -18.2618 -3.47414
3.1502 -18.2514 -3.43494
2.8146 -18.2592 -3.45349
3.23411 -18.2545 -3.13929
2.86151 -18.2632 -3.14122
3.26201 -18.2556 -2.79549
2.8771 -18.2645 -2.79189
3.42821 -17.7694 -2.99193
3.5507 -18.0368 -2.8839
3.5779 -18.1808 -2.82569
3.5403 -18.1807 -3.18269
3.5126 -18.0368 -3.24356
3.3909 -17.7694 -3.35158
3.48861 -18.2407 -2.80149
3.45391 -18.2401 -3.15052
3.3497 -18.2384 -3.46189
3.42751 -18.1803 -3.51797
3.2789 -17.7694 -3.69482
3.3981 -18.0368 -3.5868
1.5558 -9.77027 -0.968045
1.7334 -10.973 -1.60199
1.94051 -12.3116 -2.25662
1.91681 -12.3116 -2.56796
1.71221 -10.973 -1.89906
1.5364 -9.77027 -1.25836
2.43121 -14.91 -3.23945
2.1741 -13.6645 -2.83482
2.4018 -14.91 -3.58355
2.14751 -13.6645 -3.16336
2.3137 -14.91 -3.91195
2.06781 -13.6645 -3.4769
1.8455 -12.3116 -2.86508
1.47851 -9.77027 -1.53543
1.6484 -10.973 -2.18256
1.0701 -6.7885 0.745625
1.06781 -6.7752 0.753695
1.05201 -6.7885 0.387265
1.04971 -6.7752 0.394775
1.05 -6.7665 0.397205
1.0673 -6.7665 0.758285
0.997805 -6.7885 0.0452554
0.995405 -6.7752 0.0522354
0.998105 -6.7665 0.0486054
1.07331 -7.2209 1.32193
0.965905 -7.2209 1.39957
1.02971 -7.5814 1.13993
1.1363 -7.5814 1.06574
1.117 -8.1057 0.787415
1.2239 -8.1057 0.716945
1.27731 -8.1057 0.608425
1.1896 -7.5814 0.951485
1.127 -7.2209 1.20235
1.22801 -8.8249 0.344585
1.3374 -8.8249 0.277105
1.3922 -8.8249 0.173165
1.41041 -8.8249 -0.181875
1.41041 -8.8249 0.0233254
1.2951 -8.1057 0.237725
1.2951 -8.1057 0.451975
1.2074 -7.5814 0.561205
1.1449 -7.2209 0.793855
1.1449 -7.2209 1.02995
1.2074 -7.5814 0.786775
1.1449 -7.2209 0.483195
1.2074 -7.5814 0.264375
1.2951 -8.1057 -0.0442046
1.27731 -8.1057 -0.352925
1.1896 -7.5814 -0.0606546
1.127 -7.2209 0.143005
1.41041 -8.8249 -0.451895
1.3922 -8.8249 -0.747575
1.22801 -8.8249 -1.25928
1.3374 -8.8249 -1.02975
1.117 -8.1057 -0.887205
1.2239 -8.1057 -0.647555
1.02971 -7.5814 -0.623155
0.965905 -7.2209 -0.445725
1.07331 -7.2209 -0.181655
1.1363 -7.5814 -0.370845
0.786805 -7.2209 -0.604175
0.852005 -7.5814 -0.774545
0.939005 -8.1057 -1.03099
0.725405 -8.1057 -1.07892
0.638805 -7.5814 -0.825005
0.571905 -7.2209 -0.656985
1.0456 -8.8249 -1.39699
0.826705 -8.8249 -1.4429
0.425305 -8.8249 -1.25928
0.607705 -8.8249 -1.39699
0.333705 -8.1057 -0.887205
0.511805 -8.1057 -1.03099
0.247905 -7.5814 -0.623155
0.177905 -7.2209 -0.445725
0.357005 -7.2209 -0.604175
0.425605 -7.5814 -0.774545
0.070305 -7.5814 0.561205
-0.001095 -7.2209 0.793855
-0.001095 -7.2209 0.483195
0.070305 -7.5814 0.264375
0.016805 -7.2209 0.143005
0.088005 -7.5814 -0.0606546
0.173505 -8.1057 -0.352925
0.155705 -8.1057 -0.0442046
0.155705 -8.1057 0.237725
0.070505 -7.2209 -0.181655
0.141305 -7.5814 -0.370845
0.226905 -8.1057 -0.647555
0.315905 -8.8249 -1.02975
0.261105 -8.8249 -0.747575
0.242905 -8.8249 -0.181875
0.242905 -8.8249 -0.451895
-0.001095 -7.2209 1.02995
0.070305 -7.5814 0.786775
0.155705 -8.1057 0.451975
0.173505 -8.1057 0.608425
0.088005 -7.5814 0.951485
0.016805 -7.2209 1.20235
0.242905 -8.8249 0.0233254
0.261105 -8.8249 0.173165
0.425305 -8.8249 0.344585
0.315905 -8.8249 0.277105
0.333705 -8.1057 0.787415
0.226905 -8.1057 0.716945
0.247905 -7.5814 1.13993
0.177905 -7.2209 1.39957
0.070505 -7.2209 1.32193
0.141305 -7.5814 1.06574
0.357005 -7.2209 1.44616
0.425605 -7.5814 1.18444
0.511805 -8.1057 0.829685
0.725405 -8.1057 0.843785
0.638805 -7.5814 1.19927
0.571905 -7.2209 1.46169
0.607705 -8.8249 0.385075
0.826705 -8.8249 0.398575
1.0456 -8.8249 0.385075
0.939005 -8.1057 0.829685
0.786805 -7.2209 1.44616
0.852005 -7.5814 1.18444
2.3897 -15.9266 -2.42134
2.5812 -15.9266 -2.50201
2.6422 -16.731 -2.35611
2.847 -16.731 -2.43785
2.9494 -16.731 -2.56373
2.67701 -15.9266 -2.62625
2.87171 -17.3397 -2.19674
3.0874 -17.3397 -2.27883
3.1952 -17.3397 -2.40525
3.2312 -17.3397 -2.83712
3.2312 -17.3397 -2.58752
2.98351 -16.731 -2.99373
2.98351 -16.731 -2.7452
2.7089 -15.9266 -3.05064
2.7089 -15.9266 -2.80536
0.985105 -15.9266 -2.42134
1.3044 -15.9266 -2.37294
1.14031 -16.731 -2.35611
1.4817 -16.731 -2.30707
1.8913 -16.731 -2.29073
1.6874 -15.9266 -2.35681
1.2899 -17.3397 -2.19674
1.64941 -17.3397 -2.14749
2.08081 -17.3397 -2.13107
2.5122 -17.3397 -2.14749
2.3009 -16.731 -2.30707
2.0705 -15.9266 -2.37294
0.665905 -15.9266 -3.05064
0.665905 -15.9266 -2.80536
0.799005 -16.731 -2.99373
0.799005 -16.731 -2.7452
0.833105 -16.731 -2.56373
0.697805 -15.9266 -2.62625
0.930405 -17.3397 -2.83712
0.930405 -17.3397 -2.58752
0.966305 -17.3397 -2.40525
1.07421 -17.3397 -2.27883
0.935605 -16.731 -2.43785
0.793605 -15.9266 -2.50201
0.930405 -17.3397 -3.16557
0.799005 -16.731 -3.32075
0.833105 -16.731 -3.67886
0.966305 -17.3397 -3.52523
0.665905 -15.9266 -3.37341
0.697805 -15.9266 -3.72684
0.985105 -15.9266 -4.33851
0.793605 -15.9266 -4.06415
1.14031 -16.731 -4.2986
0.935605 -16.731 -4.02062
1.2899 -17.3397 -4.14766
1.07421 -17.3397 -3.86847
2.3897 -15.9266 -4.33851
2.0705 -15.9266 -4.50315
2.6422 -16.731 -4.2986
2.3009 -16.731 -4.46539
1.8913 -16.731 -4.52095
1.6874 -15.9266 -4.55805
2.87171 -17.3397 -4.14766
2.5122 -17.3397 -4.31518
2.08081 -17.3397 -4.37102
1.64941 -17.3397 -4.31518
1.4817 -16.731 -4.46539
1.3044 -15.9266 -4.50315
2.7089 -15.9266 -3.37341
2.98351 -16.731 -3.32075
2.9494 -16.731 -3.67886
2.67701 -15.9266 -3.72684
3.2312 -17.3397 -3.16557
3.1952 -17.3397 -3.52523
3.0874 -17.3397 -3.86847
2.847 -16.731 -4.02062
2.5812 -15.9266 -4.06415
0.997805 -6.7885 1.62918
0.892805 -6.8082 1.69679
1.0012 -6.8082 1.61518
0.903005 -6.8658 1.6553
1.0113 -6.8658 1.57425
1.06541 -6.8658 1.44942
1.05541 -6.8082 1.48951
1.05201 -6.7885 1.50321
0.925505 -6.9928 1.56379
1.0335 -6.9928 1.48396
1.0875 -6.9928 1.36101
1.1054 -6.9928 0.941015
1.1054 -6.9928 1.18376
1.08351 -6.8658 1.02301
1.08351 -6.8658 1.26946
1.07351 -6.8082 1.06018
1.07351 -6.8082 1.30832
1.07351 -6.8082 0.733675
1.08351 -6.8658 0.698705
1.06541 -6.8658 0.343595
1.05541 -6.8082 0.376135
1.1054 -6.9928 0.621595
1.0875 -6.9928 0.271815
0.925505 -6.9928 -0.333505
1.0335 -6.9928 -0.0619846
0.903005 -6.8658 -0.270975
1.0113 -6.8658 0.00468538
0.892805 -6.8082 -0.242625
1.0012 -6.8082 0.0349154
0.712105 -6.8082 -0.409155
0.722505 -6.8658 -0.436375
0.506005 -6.8658 -0.491505
0.495305 -6.8082 -0.464665
0.745505 -6.9928 -0.496415
0.529605 -6.9928 -0.550725
0.133605 -6.9928 -0.333505
0.313605 -6.9928 -0.496415
0.109005 -6.8658 -0.270975
0.289405 -6.8658 -0.436375
0.097805 -6.8082 -0.242625
0.278505 -6.8082 -0.409155
-0.082895 -6.8082 1.06019
-0.082895 -6.8082 0.733675
-0.064795 -6.8082 0.376135
-0.053395 -6.8658 0.343595
-0.071495 -6.8658 0.698705
-0.071495 -6.8658 1.02301
-0.010595 -6.8082 0.0349254
0.000704998 -6.8658 0.00468538
0.025705 -6.9928 -0.0619846
-0.028295 -6.9928 0.271825
-0.046295 -6.9928 0.941015
-0.046295 -6.9928 0.621595
-0.071495 -6.8658 1.26946
-0.082895 -6.8082 1.30832
-0.053395 -6.8658 1.44942
-0.064795 -6.8082 1.48951
-0.046295 -6.9928 1.18376
-0.028295 -6.9928 1.36101
0.133605 -6.9928 1.56379
0.025705 -6.9928 1.48396
0.109005 -6.8658 1.6553
0.000704998 -6.8658 1.57425
0.097805 -6.8082 1.69679
-0.014495 -6.7885 1.62918
-0.010595 -6.8082 1.61518
0.289405 -6.8658 1.70393
0.278505 -6.8082 1.74575
0.506005 -6.8658 1.72014
0.495305 -6.8082 1.76207
0.313605 -6.9928 1.61169
0.529605 -6.9928 1.62766
0.745505 -6.9928 1.61169
0.722505 -6.8658 1.70393
0.712105 -6.8082 1.74575
3 0 1 2
3 0 2 3
3 2 4 5
3 2 5 3
3 5 6 7
3 5 7 3
3 7 8 0
3 7 0 3
3 9 10 11
3 9 11 12
3 11 13 14
3 11 14 12
3 14 6 5
3 14 5 12
3 5 4 9
3 5 9 12
3 15 16 17
3 15 17 18
3 17 19 20
3 17 20 18
3 20 6 14
3 20 14 18
3 14 13 15
3 14 15 18
3 21 22 23
3 21 23 24
3 23 8 7
3 23 7 24
3 7 6 20
3 7 20 24
3 20 19 21
3 20 21 24
3 25 26 27
3 28 29 30
3 28 30 31
3 30 32 33
3 30 33 31
3 33 27 31
3 27 26 28
3 27 28 31
3 34 35 36
3 34 36 37
3 36 38 39
3 36 39 37
3 39 33 37
3 33 32 34
3 33 34 37
3 40 41 42
3 43 44 45
3 43 45 46
3 45 47 48
3 45 48 46
3 48 49 50
3 48 50 46
3 50 51 43
3 50 43 46
3 52 1 0
3 52 0 53
3 0 8 54
3 0 54 53
3 54 49 48
3 54 48 53
3 48 47 52
3 48 52 53
3 23 22 55
3 23 55 56
3 55 57 58
3 55 58 56
3 58 49 54
3 58 54 56
3 54 8 23
3 54 23 56
3 59 60 61
3 59 61 62
3 61 51 50
3 61 50 62
3 50 49 58
3 50 58 62
3 58 57 59
3 58 59 62
3 63 64 65
3 63 65 66
3 65 67 68
3 65 68 66
3 68 69 70
3 68 70 66
3 70 71 63
3 70 63 66
3 72 73 74
3 72 74 75
3 74 76 77
3 74 77 75
3 77 69 68
3 77 68 75
3 68 67 72
3 68 72 75
3 78 79 80
3 78 80 81
3 80 82 83
3 80 83 81
3 83 69 77
3 83 77 81
3 77 76 78
3 77 78 81
3 84 85 86
3 84 86 87
3 86 71 70
3 86 70 87
3 70 69 83
3 70 83 87
3 83 82 84
3 83 84 87
3 88 89 90
3 88 90 91
3 90 92 93
3 90 93 91
3 93 94 95
3 93 95 91
3 95 96 88
3 95 88 91
3 97 16 15
3 97 15 98
3 15 13 99
3 15 99 98
3 99 94 93
3 99 93 98
3 93 92 97
3 93 97 98
3 11 10 100
3 11 100 101
3 100 102 103
3 100 103 101
3 103 94 99
3 103 99 101
3 99 13 11
3 99 11 101
3 104 105 106
3 104 106 107
3 106 96 95
3 106 95 107
3 95 94 103
3 95 103 107
3 103 102 104
3 103 104 107
3 108 60 59
3 108 59 109
3 59 57 110
3 59 110 109
3 110 111 112
3 110 112 109
3 112 113 108
3 112 108 109
3 55 22 21
3 55 21 114
3 21 19 115
3 21 115 114
3 115 111 110
3 115 110 114
3 110 57 55
3 110 55 114
3 17 16 97
3 17 97 116
3 97 92 117
3 97 117 116
3 117 111 115
3 117 115 116
3 115 19 17
3 115 17 116
3 90 89 118
3 90 118 119
3 118 113 112
3 118 112 119
3 112 111 117
3 112 117 119
3 117 92 90
3 117 90 119
3 120 121 122
3 120 122 123
3 122 124 125
3 122 125 123
3 125 126 127
3 125 127 123
3 127 128 120
3 127 120 123
3 129 130 131
3 129 131 132
3 131 133 134
3 131 134 132
3 134 126 125
3 134 125 132
3 125 124 129
3 125 129 132
3 135 136 137
3 135 137 138
3 137 139 140
3 137 140 138
3 140 126 134
3 140 134 138
3 134 133 135
3 134 135 138
3 141 142 143
3 141 143 144
3 143 128 127
3 143 127 144
3 127 126 140
3 127 140 144
3 140 139 141
3 140 141 144
3 145 146 147
3 145 147 148
3 147 149 150
3 147 150 148
3 150 151 152
3 150 152 148
3 152 153 145
3 152 145 148
3 154 155 156
3 154 156 157
3 156 158 159
3 156 159 157
3 159 151 150
3 159 150 157
3 150 149 154
3 150 154 157
3 160 161 162
3 160 162 163
3 162 164 165
3 162 165 163
3 165 151 159
3 165 159 163
3 159 158 160
3 159 160 163
3 166 167 168
3 166 168 169
3 168 153 152
3 168 152 169
3 152 151 165
3 152 165 169
3 165 164 166
3 165 166 169
3 170 171 172
3 170 172 173
3 172 174 175
3 172 175 173
3 175 176 177
3 175 177 173
3 177 178 170
3 177 170 173
3 179 180 181
3 179 181 182
3 181 183 184
3 181 184 182
3 184 176 175
3 184 175 182
3 175 174 179
3 175 179 182
3 185 186 187
3 185 187 188
3 187 189 190
3 187 190 188
3 190 176 184
3 190 184 188
3 184 183 185
3 184 185 188
3 191 192 193
3 191 193 194
3 193 178 177
3 193 177 194
3 177 176 190
3 177 190 194
3 190 189 191
3 190 191 194
3 195 192 191
3 195 191 196
3 191 189 197
3 191 197 196
3 197 198 199
3 197 199 196
3 199 200 195
3 199 195 196
3 187 186 201
3 187 201 202
3 201 203 204
3 201 204 202
3 204 198 197
3 204 197 202
3 197 189 187
3 197 187 202
3 205 130 129
3 205 129 206
3 129 124 207
3 129 207 206
3 207 198 204
3 207 204 206
3 204 203 205
3 204 205 206
3 122 121 208
3 122 208 209
3 208 200 199
3 208 199 209
3 199 198 207
3 199 207 209
3 207 124 122
3 207 122 209
3 36 35 210
3 36 210 211
3 210 212 213
3 210 213 211
3 213 214 211
3 214 38 36
3 214 36 211
3 213 212 215
3 172 171 216
3 172 216 217
3 216 218 219
3 216 219 217
3 219 220 221
3 219 221 217
3 221 174 172
3 221 172 217
3 222 167 166
3 222 166 223
3 166 164 224
3 166 224 223
3 224 220 219
3 224 219 223
3 219 218 222
3 219 222 223
3 162 161 225
3 162 225 226
3 225 227 228
3 225 228 226
3 228 220 224
3 228 224 226
3 224 164 162
3 224 162 226
3 229 180 179
3 229 179 230
3 179 174 221
3 179 221 230
3 221 220 228
3 221 228 230
3 228 227 229
3 228 229 230
3 45 44 231
3 45 231 232
3 231 233 234
3 231 234 232
3 234 235 236
3 234 236 232
3 236 47 45
3 236 45 232
3 237 85 84
3 237 84 238
3 84 82 239
3 84 239 238
3 239 235 234
3 239 234 238
3 234 233 237
3 234 237 238
3 80 79 240
3 80 240 241
3 240 242 243
3 240 243 241
3 243 235 239
3 243 239 241
3 239 82 80
3 239 80 241
3 244 1 52
3 244 52 245
3 52 47 236
3 52 236 245
3 236 235 243
3 236 243 245
3 243 242 244
3 243 244 245
3 2 1 244
3 2 244 246
3 244 242 247
3 244 247 246
3 247 248 249
3 247 249 246
3 249 4 2
3 249 2 246
3 240 79 78
3 240 78 250
3 78 76 251
3 78 251 250
3 251 248 247
3 251 247 250
3 247 242 240
3 247 240 250
3 74 73 252
3 74 252 253
3 252 254 255
3 252 255 253
3 255 248 251
3 255 251 253
3 251 76 74
3 251 74 253
3 256 10 9
3 256 9 257
3 9 4 249
3 9 249 257
3 249 248 255
3 249 255 257
3 255 254 256
3 255 256 257
3 258 105 104
3 258 104 259
3 104 102 260
3 104 260 259
3 260 261 262
3 260 262 259
3 262 263 258
3 262 258 259
3 100 10 256
3 100 256 264
3 256 254 265
3 256 265 264
3 265 261 260
3 265 260 264
3 260 102 100
3 260 100 264
3 252 73 72
3 252 72 266
3 72 67 267
3 72 267 266
3 267 261 265
3 267 265 266
3 265 254 252
3 265 252 266
3 65 64 268
3 65 268 269
3 268 263 262
3 268 262 269
3 262 261 267
3 262 267 269
3 267 67 65
3 267 65 269
3 270 142 141
3 270 141 271
3 141 139 272
3 141 272 271
3 272 273 274
3 272 274 271
3 274 275 270
3 274 270 271
3 137 136 276
3 137 276 277
3 276 278 279
3 276 279 277
3 279 273 272
3 279 272 277
3 272 139 137
3 272 137 277
3 280 155 154
3 280 154 281
3 154 149 282
3 154 282 281
3 282 273 279
3 282 279 281
3 279 278 280
3 279 280 281
3 147 146 283
3 147 283 284
3 283 275 274
3 283 274 284
3 274 273 282
3 274 282 284
3 282 149 147
3 282 147 284
3 42 41 285
3 42 285 286
3 285 287 288
3 285 288 286
3 288 289 290
3 288 290 286
3 290 42 286
3 291 29 28
3 291 28 292
3 28 26 293
3 28 293 292
3 293 289 288
3 293 288 292
3 288 287 291
3 288 291 292
3 293 26 25
3 294 295 296
3 294 296 297
3 296 298 299
3 296 299 297
3 299 300 301
3 299 301 297
3 301 302 294
3 301 294 297
3 303 121 120
3 303 120 304
3 120 128 305
3 120 305 304
3 305 300 299
3 305 299 304
3 299 298 303
3 299 303 304
3 143 142 306
3 143 306 307
3 306 308 309
3 306 309 307
3 309 300 305
3 309 305 307
3 305 128 143
3 305 143 307
3 310 311 312
3 310 312 313
3 312 302 301
3 312 301 313
3 301 300 309
3 301 309 313
3 309 308 310
3 309 310 313
3 314 311 310
3 314 310 315
3 310 308 316
3 310 316 315
3 316 317 318
3 316 318 315
3 318 319 314
3 318 314 315
3 306 142 270
3 306 270 320
3 270 275 321
3 270 321 320
3 321 317 316
3 321 316 320
3 316 308 306
3 316 306 320
3 283 146 322
3 283 322 323
3 322 324 325
3 322 325 323
3 325 317 321
3 325 321 323
3 321 275 283
3 321 283 323
3 326 327 328
3 326 328 329
3 328 319 318
3 328 318 329
3 318 317 325
3 318 325 329
3 325 324 326
3 325 326 329
3 330 327 326
3 330 326 331
3 326 324 332
3 326 332 331
3 332 333 334
3 332 334 331
3 334 335 330
3 334 330 331
3 322 146 145
3 322 145 336
3 145 153 337
3 145 337 336
3 337 333 332
3 337 332 336
3 332 324 322
3 332 322 336
3 168 167 338
3 168 338 339
3 338 340 341
3 338 341 339
3 341 333 337
3 341 337 339
3 337 153 168
3 337 168 339
3 342 343 344
3 342 344 345
3 344 335 334
3 344 334 345
3 334 333 341
3 334 341 345
3 341 340 342
3 341 342 345
3 346 347 348
3 346 348 349
3 348 350 351
3 348 351 349
3 351 352 353
3 351 353 349
3 353 354 346
3 353 346 349
3 355 343 342
3 355 342 356
3 342 340 357
3 342 357 356
3 357 352 351
3 357 351 356
3 351 350 355
3 351 355 356
3 338 167 222
3 338 222 358
3 222 218 359
3 222 359 358
3 359 352 357
3 359 357 358
3 357 340 338
3 357 338 358
3 216 171 360
3 216 360 361
3 360 354 353
3 360 353 361
3 353 352 359
3 353 359 361
3 359 218 216
3 359 216 361
3 362 347 346
3 362 346 363
3 346 354 364
3 346 364 363
3 364 365 366
3 364 366 363
3 366 367 362
3 366 362 363
3 360 171 170
3 360 170 368
3 170 178 369
3 170 369 368
3 369 365 364
3 369 364 368
3 364 354 360
3 364 360 368
3 193 192 370
3 193 370 371
3 370 372 373
3 370 373 371
3 373 365 369
3 373 369 371
3 369 178 193
3 369 193 371
3 374 375 376
3 374 376 377
3 376 367 366
3 376 366 377
3 366 365 373
3 366 373 377
3 373 372 374
3 373 374 377
3 378 375 374
3 378 374 379
3 374 372 380
3 374 380 379
3 380 381 382
3 380 382 379
3 382 383 378
3 382 378 379
3 370 192 195
3 370 195 384
3 195 200 385
3 195 385 384
3 385 381 380
3 385 380 384
3 380 372 370
3 380 370 384
3 208 121 303
3 208 303 386
3 303 298 387
3 303 387 386
3 387 381 385
3 387 385 386
3 385 200 208
3 385 208 386
3 296 295 388
3 296 388 389
3 388 383 382
3 388 382 389
3 382 381 387
3 382 387 389
3 387 298 296
3 387 296 389
3 131 130 390
3 131 390 391
3 390 392 393
3 390 393 391
3 393 394 395
3 393 395 391
3 395 133 131
3 395 131 391
3 396 89 88
3 396 88 397
3 88 96 398
3 88 398 397
3 398 394 393
3 398 393 397
3 393 392 396
3 393 396 397
3 106 105 399
3 106 399 400
3 399 401 402
3 399 402 400
3 402 394 398
3 402 398 400
3 398 96 106
3 398 106 400
3 403 136 135
3 403 135 404
3 135 133 395
3 135 395 404
3 395 394 402
3 395 402 404
3 402 401 403
3 402 403 404
3 201 186 405
3 201 405 406
3 405 407 408
3 405 408 406
3 408 409 410
3 408 410 406
3 410 203 201
3 410 201 406
3 411 60 108
3 411 108 412
3 108 113 413
3 108 413 412
3 413 409 408
3 413 408 412
3 408 407 411
3 408 411 412
3 118 89 396
3 118 396 414
3 396 392 415
3 396 415 414
3 415 409 413
3 415 413 414
3 413 113 118
3 413 118 414
3 390 130 205
3 390 205 416
3 205 203 410
3 205 410 416
3 410 409 415
3 410 415 416
3 415 392 390
3 415 390 416
3 181 180 417
3 181 417 418
3 417 419 420
3 417 420 418
3 420 421 422
3 420 422 418
3 422 183 181
3 422 181 418
3 423 44 43
3 423 43 424
3 43 51 425
3 43 425 424
3 425 421 420
3 425 420 424
3 420 419 423
3 420 423 424
3 61 60 411
3 61 411 426
3 411 407 427
3 411 427 426
3 427 421 425
3 427 425 426
3 425 51 61
3 425 61 426
3 405 186 185
3 405 185 428
3 185 183 422
3 185 422 428
3 422 421 427
3 422 427 428
3 427 407 405
3 427 405 428
3 231 44 423
3 231 423 429
3 423 419 430
3 423 430 429
3 430 431 432
3 430 432 429
3 432 233 231
3 432 231 429
3 417 180 229
3 417 229 433
3 229 227 434
3 229 434 433
3 434 431 430
3 434 430 433
3 430 419 417
3 430 417 433
3 225 161 435
3 225 435 436
3 435 437 438
3 435 438 436
3 438 431 434
3 438 434 436
3 434 227 225
3 434 225 436
3 439 85 237
3 439 237 440
3 237 233 432
3 237 432 440
3 432 431 438
3 432 438 440
3 438 437 439
3 438 439 440
3 156 155 441
3 156 441 442
3 441 443 444
3 441 444 442
3 444 445 446
3 444 446 442
3 446 158 156
3 446 156 442
3 447 64 63
3 447 63 448
3 63 71 449
3 63 449 448
3 449 445 444
3 449 444 448
3 444 443 447
3 444 447 448
3 86 85 439
3 86 439 450
3 439 437 451
3 439 451 450
3 451 445 449
3 451 449 450
3 449 71 86
3 449 86 450
3 435 161 160
3 435 160 452
3 160 158 446
3 160 446 452
3 446 445 451
3 446 451 452
3 451 437 435
3 451 435 452
3 276 136 403
3 276 403 453
3 403 401 454
3 403 454 453
3 454 455 456
3 454 456 453
3 456 278 276
3 456 276 453
3 399 105 258
3 399 258 457
3 258 263 458
3 258 458 457
3 458 455 454
3 458 454 457
3 454 401 399
3 454 399 457
3 268 64 447
3 268 447 459
3 447 443 460
3 447 460 459
3 460 455 458
3 460 458 459
3 458 263 268
3 458 268 459
3 441 155 280
3 441 280 461
3 280 278 456
3 280 456 461
3 456 455 460
3 456 460 461
3 460 443 441
3 460 441 461
3 462 463 464
3 463 465 466
3 463 466 464
3 466 467 468
3 466 468 464
3 468 469 462
3 468 462 464
3 470 295 294
3 470 294 471
3 294 302 472
3 294 472 471
3 472 467 466
3 472 466 471
3 466 465 470
3 466 470 471
3 312 311 473
3 312 473 474
3 473 475 476
3 473 476 474
3 476 467 472
3 476 472 474
3 472 302 312
3 472 312 474
3 477 41 40
3 477 40 478
3 40 469 468
3 40 468 478
3 468 467 476
3 468 476 478
3 476 475 477
3 476 477 478
3 285 41 477
3 285 477 479
3 477 475 480
3 477 480 479
3 480 481 482
3 480 482 479
3 482 287 285
3 482 285 479
3 473 311 314
3 473 314 483
3 314 319 484
3 314 484 483
3 484 481 480
3 484 480 483
3 480 475 473
3 480 473 483
3 328 327 485
3 328 485 486
3 485 487 488
3 485 488 486
3 488 481 484
3 488 484 486
3 484 319 328
3 484 328 486
3 489 29 291
3 489 291 490
3 291 287 482
3 291 482 490
3 482 481 488
3 482 488 490
3 488 487 489
3 488 489 490
3 30 29 489
3 30 489 491
3 489 487 492
3 489 492 491
3 492 493 494
3 492 494 491
3 494 32 30
3 494 30 491
3 485 327 330
3 485 330 495
3 330 335 496
3 330 496 495
3 496 493 492
3 496 492 495
3 492 487 485
3 492 485 495
3 344 343 497
3 344 497 498
3 497 499 500
3 497 500 498
3 500 493 496
3 500 496 498
3 496 335 344
3 496 344 498
3 501 35 34
3 501 34 502
3 34 32 494
3 34 494 502
3 494 493 500
3 494 500 502
3 500 499 501
3 500 501 502
3 503 215 504
3 215 212 505
3 215 505 504
3 505 506 507
3 505 507 504
3 507 508 503
3 507 503 504
3 210 35 501
3 210 501 509
3 501 499 510
3 501 510 509
3 510 506 505
3 510 505 509
3 505 212 210
3 505 210 509
3 497 343 355
3 497 355 511
3 355 350 512
3 355 512 511
3 512 506 510
3 512 510 511
3 510 499 497
3 510 497 511
3 348 347 513
3 348 513 514
3 513 508 507
3 513 507 514
3 507 506 512
3 507 512 514
3 512 350 348
3 512 348 514
3 503 508 515
3 503 515 516
3 515 517 518
3 515 518 516
3 513 347 362
3 513 362 519
3 362 367 520
3 362 520 519
3 520 517 515
3 520 515 519
3 515 508 513
3 515 513 519
3 376 375 521
3 376 521 522
3 521 523 524
3 521 524 522
3 524 517 520
3 524 520 522
3 520 367 376
3 520 376 522
3 525 526 527
3 526 518 527
3 518 517 524
3 518 524 527
3 524 523 525
3 524 525 527
3 525 523 528
3 525 528 529
3 528 530 531
3 528 531 529
3 521 375 378
3 521 378 532
3 378 383 533
3 378 533 532
3 533 530 528
3 533 528 532
3 528 523 521
3 528 521 532
3 388 295 470
3 388 470 534
3 470 465 535
3 470 535 534
3 535 530 533
3 535 533 534
3 533 383 388
3 533 388 534
3 531 530 535
3 531 535 536
3 535 465 463
3 535 463 536
