0.196365
0.175694
0.122874
0.138032
0.0790625
0.116226
0.145841
0.153164
0.239447
0.183229
0.100063
0.174982
0.0790528
0.0793805
0.181307
0.111039
0.0435239
0.0411794
0
0.0195
0.0479905
0.0116864
0.0936843
0.0343015
0.0816137
0.0728405
0.122722
0.0877505
0.0430076
0.0465789
0.0113956
0.0408381
0.380093
0.374163
0.357949
0.262555
0.258274
0.300406
0.358157
0.341515
0.244767
0.329074
0.305118
0.343124
0.323223
0.317141
0.347631
0.316365
0.258644
0.322093
0.348268
0.316696
0.316239
0.321122
0.314698
0.330157
0.253564
0.313641
0.370617
0.344236
0.316051
0.242967
0.322958
0.319387
0.28658
0.297763
0.264922
0.322165
0.293883
0.233337
0.337968
0.349194
0.178837
0.238442
0.360288
0.343765
0.325303
0.347844
0.35944
0.324737
0.303322
0.169085
0.356424
0.359822
0.339227
0.305355
0.236782
0.2352
0.228964
0.220223
0.337873
0.359539
0.313887
0.336493
0.324538
0.32864
0.325821
0.344347
0.269186
0.313983
0.292839
0.328333
0.325016
0.305301
0.361442
0.321586
0.318958
0.330393
0.333891
0.341198
0.322456
0.29681
0.308545
0.329208
0.212947
0.299808
0.364166
0.28283
0.345451
0.309602
0.192809
0.228493
0.191625
0.253289
0.261893
0.295271
0.323976
0.360204
0.295313
0.279854
0.379565
0.333585
0.207568
0.275982
0.247409
0.344251
0.337965
0.377596
0.378816
0.241542
0.255999
0.349622
0.440848
0.263049
0.191493
0.254767
0.234356
0.234095
0.127779
0.379459
0.755094
0.197951
0.568001
0.14784
0.195506
0.195856
0.523981
0.433963
0.605467
0.510754
0.561012
0.659536
0.402705
0.747013
0.646362
0.648985
0.439574
0.727819
0.598903
0.867798
0.634802
1
0.158239
0.358414
0.182636
0.606522
0.809493
0.1646
0.337479
0.255942
0.127535
0.19281
0.261239
0.216192
0.174243
0.177725
0.256567
0.145088
0.170225
0.4085
0.500411
0.269121
0.241907
0.264746
0.203467
0.346104
0.761763
0.379909
0.284988
0.165423
0.305618
0.354629
0.691553
0.8032
0.177965
0.1332
0.157932
0.139735
0.143441
0.135031
0.378024
0.172695
0.249116
0.118343
0.220503
0.198016
0.423232
0.492996
0.477567
0.176639
0.413336
0.455541
0.463207
0.438084
0.478041
0.490766
0.500421
0.452754
0.322059
0.42503
0.487584
0.477449
0.476689
0.501426
0.131898
0.419784
0.249104
0.113419
0.246773
0.178694
0.16485
0.487978
0.22174
0.515037
0.150058
0.138333
0.300084
0.328205
0.141709
0.112112
0.154971
0.223884
0.592598
0.669662
0.203121
0.283681
0.295921
0.229058
0.284034
0.437025
0.425236
0.338069
0.191844
0.251841
0.250616
0.306011
0.258436
0.259856
0.138816
0.0883901
0.25667
0.169915
0.257915
0.122575
0.273321
0.21893
0.43813
0.0899757
0.102489
0.0832605
0.128781
0.043404
0.473733
0.281567
0.0499928
0.0557533
0.0700986
0.0519192
0.0401218
0.180802
0.0395327
0.0813148
0.0793399
0.0568601
0.0136
0.0726903
0.034689
0.0976504
0.0738559
0.059152
0.147307
0.177807
0.451001
0.433598
0.110739
0.0971564
0.0862506
0.0816415
0.27649
0.129733
0.0784094
0.127225
0.107556
0.0711471
0.297073
0.194416
0.0754005
0.0490153
0.0803178
0.0857524
0.096772
0.106729
0.0751435
0.0434413
0.0801629
0.0330797
0.0531601
0.0978141
0.0694439
0.0707295
0.0734882
0.0750268
0.70224
0.132946
0.262827
0.268388
0.150089
0.0936626
0.228677
0.110468
0.307789
0.1105
0.0883089
0.146409
0.0574025
0.130807
0.37248
0.0699128
0.0659746
0.0702311
0.0696697
0.061812
0.0812122
0.0521251
0.107563
0.05117
0.0580378
0.0416288
0.070343
0.0552116
0.0741188
0.0428401
0.0734795
0.0661165
0.261048
0.132452
0.34343
0.093446
0.0782783
0.146651
0.122135
0.0778893
0.2804
0.239619
0.0848622
0.131223
0.0899791
0.119258
0.2506
0.195828
0.119969
0.0151838
0.113385
0.10025
0.0830981
0.121587
0.0514254
0.0933506
0.0593338
0.0667982
0.102198
0.0817722
0.0206627
0.0925477
0.0915832
0.0920895
0.358992
0.117106
0.358656
0.202757
0.105731
0.146134
0.096751
0.155573
0.0794494
0.0935402
0.131551
0.132889
0.13623
0.123643
0.0827701
0.0931081
0.159724
0.1598
0.162104
0.164371
0.149689
0.152417
0.125957
0.153864
0.159513
0.206381
0.167326
0.187038
0.163959
0.173697
0.175551
0.147676
0.0751078
0.113914
0.0775443
0.100633
0.15168
0.133599
0.153818
0.134533
0.117727
0.10206
0.173464
0.127811
0.131592
0.152666
0.109731
0.133571
0.207561
0.220153
0.148441
0.158761
0.17684
0.132706
0.169695
0.148259
0.17908
0.155651
0.150446
0.131747
0.186612
0.154479
0.125583
0.128119
0.0931962
0.101334
0.0931028
0.0845456
0.153467
0.133174
0.130502
0.11824
0.115247
0.126654
0.188767
0.17001
0.158432
0.151478
0.106866
0.124503
0.205278
0.191495
0.210635
0.18944
0.182857
0.196062
0.185327
0.207449
0.200938
0.219961
0.126715
0.173431
0.172214
0.18565
0.191373
0.2011
0.106388
0.117133
0.104163
0.107891
0.15218
0.139541
0.115473
0.138034
0.125147
0.147631
0.190006
0.157855
0.182252
0.209155
0.148212
0.168649
0.215478
0.223702
0.181839
0.198019
0.171431
0.143322
0.172347
0.165161
0.208035
0.186531
0.202629
0.222489
0.191148
0.241375
0.200756
0.186064
0.111724
0.126326
0.143998
0.163813
0.169069
0.1992
0.158588
0.169284
0.171652
0.180095
0.208549
0.195714
0.193749
0.208819
0.173303
0.187123
0.198872
0.205477
0.175889
0.189331
0.222055
0.205262
0.217231
0.207194
0.137527
0.175232
0.192103
0.161986
0.204427
0.20037
0.167253
0.177937
0.174698
0.177235
0.179009
0.21425
0.206678
0.189894
0.202396
0.216969
0.19631
0.172395
0.172602
0.182219
0.21654
0.275429
0.177167
0.197504
0.144338
0.142777
0.153381
0.149063
0.255094
0.163186
0.269863
0.213769
0.195456
0.230147
0.214622
0.217856
0.208012
0.229194
0.17716
0.20899
0.184154
0.177348
0.14944
0.131715
0.234777
0.204923
0.221343
0.209172
0.220089
0.204073
0.192308
0.199032
0.185011
0.204884
0.217445
0.217387
0.110124
0.113146
0.106464
0.151974
0.187883
0.167274
0.168951
0.160785
0.155145
0.174116
0.2094
0.17246
0.186782
0.135663
0.182294
0.175305
0.189269
0.256681
0.203737
0.227211
0.215644
0.224487
0.157586
0.223911
0.164522
0.259855
0.171362
0.189426
0.189287
0.204004
0.227866
0.164696
0.096327
0.141138
0.0764124
0.0689563
0.165695
0.147028
0.186925
0.176235
0.0755514
0.0904713
0.163535
0.135449
0.134073
0.13323
0.0488052
0.0877442
0.226894
0.210403
0.227706
0.240543
0.168378
0.253518
0.19054
0.190611
0.299744
0.275341
0.21677
0.281308
0.306997
0.354759
0.298337
0.234589
0.182848
0.258325
0.339873
0.190274
0.21666
0.215573
0.172788
0.207299
0.221095
0.215915
0.32693
0.244148
0.323634
0.202816
0.340717
0.193748
0.312988
0.284046
0.30291
0.292487
0.281864
0.300404
0.229431
0.314314
0.243661
0.255603
0.282999
0.325676
0.271766
0.221331
0.253342
0.320294
0.233353
0.282668
0.254891
0.382663
0.287143
0.26862
0.259061
0.322912
0.216352
0.227951
0.538328
0.185937
0.221096
0.238057
0.403852
0.303802
0.274822
0.172562
0.251774
0.237625
0.259035
0.299248
0.294329
0.320655
0.326804
0.280026
0.244938
0.296991
0.234883
0.255977
0.305575
0.32092
0.120552
0.218699
0.154634
0.252759
0.253418
0.184228
0.284816
0.15911
0.164727
0.224061
0.27367
0.221758
0.274187
0.185384
0.160455
0.274843
0.340999
0.322711
0.288692
0.310701
0.250701
0.39428
0.26998
0.288368
0.343286
0.187153
0.268748
0.328754
0.25993
0.363392
0.250806
0.360949
0.216948
0.247784
0.236167
0.380002
0.189649
0.209104
0.237936
0.234124
0.227504
0.316013
0.264839
0.312695
0.141397
0.25722
0.253186
0.401373
0.3546
0.312378
0.252464
0.321339
0.28284
0.33946
0.265354
0.343084
0.370722
0.304354
0.36943
0.374618
