OFF
279 540 0
-7.09406 -13.954 -1.32393
-7.65306 -13.9495 -1.70493
-7.90806 -13.9562 -2.51193
-7.17806 -13.9647 -2.37893
-8.04606 -13.9583 -3.67793
-7.26206 -13.967 -3.64793
-6.31806 -13.9659 -3.61393
-6.30106 -13.9642 -2.24393
-6.28406 -13.9536 -1.10493
-7.94406 -13.9523 -4.83493
-7.71206 -13.943 -5.62593
-7.15906 -13.9461 -5.96493
-7.21306 -13.9603 -4.91293
-6.34606 -13.9449 -6.12493
-6.33406 -13.9593 -4.98393
-5.52706 -13.9381 -5.93693
-4.96206 -13.9298 -5.57293
-4.71306 -13.9359 -4.74893
-5.45206 -13.9509 -4.86393
-4.58306 -13.9402 -3.55193
-5.37306 -13.9565 -3.57993
-4.69106 -13.9399 -2.36393
-4.92406 -13.9365 -1.55793
-5.47606 -13.9461 -1.23393
-5.42406 -13.9553 -2.29993
-5.47806 -6.75567 1.44607
-6.08206 -6.64405 1.13707
-6.06506 -6.66481 1.12507
-5.47006 -6.77464 1.42907
-6.06806 -6.72782 1.07507
-5.47706 -6.83675 1.37807
-4.77606 -6.98205 1.50307
-4.76306 -6.92111 1.55507
-6.09606 -6.87278 0.941074
-6.15406 -7.13937 0.675074
-5.56506 -7.24799 0.977074
-5.50706 -6.9814 1.24307
-4.86506 -7.3929 1.10207
-4.80706 -7.12632 1.36807
-4.17006 -7.5493 1.04007
-3.59406 -7.69237 0.782074
-3.53606 -7.42579 1.04807
-4.11206 -7.28271 1.30607
-3.50106 -7.28232 1.18207
-4.07906 -7.13887 1.44107
-3.47706 -7.22376 1.23307
-3.45306 -7.21189 1.24607
-4.04506 -7.06505 1.51007
-4.06006 -7.07917 1.49307
-6.49306 -6.6636 -0.461926
-6.14606 -6.77029 -0.922926
-6.12706 -6.78947 -0.907926
-6.46906 -6.68437 -0.452926
-6.12906 -6.85168 -0.944926
-6.46906 -6.74738 -0.492926
-6.56806 -6.68844 0.0530738
-6.56906 -6.62501 0.0960739
-6.15706 -6.99637 -1.07393
-6.21506 -7.26296 -1.33993
-6.55306 -7.15892 -0.888926
-6.49506 -6.89233 -0.622926
-6.65306 -7.10012 -0.343926
-6.59506 -6.83353 -0.0789261
-6.51806 -7.09184 0.206074
-6.46006 -6.82525 0.471074
-6.43306 -6.68015 0.604074
-6.45606 -6.59509 0.657074
-6.43306 -6.61671 0.651074
-3.50806 -7.35398 -0.878926
-3.53206 -7.41166 -0.914926
-4.12706 -7.30183 -1.20493
-4.10906 -7.24323 -1.16993
-4.83906 -7.15469 -1.30393
-4.82606 -7.0949 -1.26993
-3.56606 -7.55484 -1.04493
-3.62406 -7.82142 -1.30993
-4.21806 -7.71189 -1.59893
-4.16006 -7.4453 -1.33393
-4.92806 -7.56516 -1.69793
-4.87006 -7.29857 -1.43293
-5.63406 -7.40694 -1.61093
-5.57606 -7.14036 -1.34493
-5.54606 -6.99605 -1.21593
-5.54806 -6.91809 -1.20093
-5.53906 -6.93497 -1.18193
-3.10106 -7.31954 0.772074
-3.13006 -7.32978 0.764074
-3.15706 -7.38753 0.717074
-3.04706 -7.44831 0.146074
-3.02006 -7.391 0.189074
-2.98806 -7.38166 0.189074
-3.25006 -7.79732 0.318074
-3.19206 -7.53073 0.584074
-3.14106 -7.85794 -0.251926
-3.08306 -7.59135 0.0140739
-3.26506 -7.86804 -0.827926
-3.20706 -7.60146 -0.561926
-3.17206 -7.45842 -0.431926
-3.11606 -7.39189 -0.399926
-3.14506 -7.40116 -0.391926
-6.15306 -9.77952 -0.804926
-6.78206 -9.68791 -1.17993
-7.06006 -10.6301 -1.34893
-6.39306 -10.7047 -0.900926
-7.35706 -11.5872 -1.36393
-6.64206 -11.6413 -0.829926
-5.79406 -11.7132 -0.611926
-5.60006 -10.804 -0.718926
-5.40706 -9.90164 -0.650926
-7.63706 -12.4654 -1.28893
-7.86506 -13.1708 -1.18593
-7.06306 -13.187 -0.488926
-6.87506 -12.4989 -0.665926
-6.11106 -13.208 -0.206926
-5.97006 -12.5433 -0.413926
-5.16406 -13.2303 -0.361926
-4.37906 -13.2503 -0.971926
-4.32506 -12.6339 -1.09593
-5.07106 -12.5908 -0.550926
-4.25106 -11.8611 -1.19493
-4.95006 -11.7906 -0.728926
-4.15906 -11.0088 -1.20293
-4.05106 -10.1538 -1.05293
-4.66606 -10.0334 -0.729926
-4.81206 -10.9111 -0.814926
-7.20806 -9.70383 -3.12693
-6.84706 -9.79131 -3.68893
-7.13006 -10.7133 -4.35293
-7.51306 -10.6423 -3.67893
-7.43106 -11.6461 -4.96393
-7.84206 -11.5951 -4.15593
-7.96206 -11.5666 -3.18293
-7.62606 -10.6025 -2.86693
-7.31406 -9.65449 -2.44893
-7.71606 -12.4999 -5.48793
-7.94906 -13.1846 -5.88993
-8.41006 -13.1706 -4.83193
-8.15406 -12.4689 -4.54393
-8.54506 -13.1632 -3.55993
-8.28206 -12.4519 -3.40893
-8.36106 -13.1631 -2.27693
-8.10806 -12.4502 -2.26393
-7.79906 -11.5631 -2.19993
-7.17006 -9.64771 -1.76393
-7.47306 -10.5972 -2.04693
-4.71806 -10.1694 -4.01793
-4.08406 -10.2618 -3.65893
-4.19406 -11.0957 -4.32293
-4.86706 -11.0205 -4.75093
-4.28806 -11.9226 -4.93293
-5.00906 -11.8681 -5.44493
-5.87006 -11.7953 -5.61593
-5.67106 -10.9199 -4.89493
-5.47506 -10.0458 -4.13893
-4.36506 -12.6698 -5.45593
-4.42106 -13.2648 -5.85693
-5.23006 -13.2485 -6.52393
-5.13306 -12.6361 -6.05193
-6.19706 -13.2273 -6.74493
-6.05106 -12.5912 -6.24993
-7.15706 -13.2047 -6.53093
-6.96406 -12.5432 -6.05893
-6.72606 -11.7171 -5.45293
-6.22706 -9.9125 -4.02793
-6.47106 -10.8117 -4.75993
-3.68506 -10.242 -1.63193
-3.77006 -11.0804 -1.89593
-3.83406 -11.9126 -2.02593
-3.70106 -11.9419 -3.04593
-3.64606 -11.1215 -2.74693
-3.56806 -10.2929 -2.34193
-3.91206 -13.2645 -2.05993
-3.88106 -12.6651 -2.06593
-3.76306 -13.2721 -3.39193
-3.73906 -12.6826 -3.25493
-3.93206 -13.2724 -4.73593
-3.90006 -12.6848 -4.45393
-3.85306 -11.9463 -4.07393
-3.70106 -10.3012 -3.05893
-3.78706 -11.128 -3.60493
-3.68706 -8.12029 0.339074
-3.34306 -8.22524 -0.124926
-3.80206 -8.68771 -0.181926
-3.45706 -8.79099 -0.656926
-3.34606 -8.85063 -1.24093
-3.23406 -8.28586 -0.694926
-3.92806 -9.37282 -0.678926
-3.57606 -9.47109 -1.18893
-3.46306 -9.5278 -1.81493
-3.96006 -9.49344 -2.97693
-3.59106 -9.53718 -2.44793
-3.83306 -8.81465 -2.32593
-3.47206 -8.86056 -1.83093
-3.71706 -8.24934 -1.75393
-3.35806 -8.29596 -1.27093
-4.31206 -8.13981 -2.04293
-4.43106 -8.70684 -2.62193
-5.14606 -8.56242 -2.72293
-5.02106 -7.99308 -2.14193
-4.57006 -9.39077 -3.29393
-5.29806 -9.25327 -3.40193
-6.61906 -8.97018 -3.00693
-6.02206 -9.10505 -3.30493
-6.44106 -8.26499 -2.35493
-5.85606 -8.4067 -2.63293
-6.30806 -7.69088 -1.78293
-5.72706 -7.83486 -2.05393
-6.64606 -7.58684 -1.33193
-6.78206 -8.16261 -1.89293
-6.88206 -8.10476 -1.33493
-6.74606 -7.52804 -0.787926
-6.96706 -8.87277 -2.51093
-7.06906 -8.81775 -1.91393
-6.55606 -8.85467 -0.793926
-6.93006 -8.81007 -1.30893
-6.37906 -8.14342 -0.290926
-6.74606 -8.09662 -0.771926
-6.24706 -7.56728 0.232074
-6.61106 -7.51976 -0.236926
-5.65806 -7.67591 0.534074
-5.78606 -8.25034 0.0190739
-5.08206 -8.39297 0.146074
-4.95806 -7.82082 0.659074
-5.95106 -8.95648 -0.462926
-5.23306 -9.09228 -0.326926
-4.52006 -9.2388 -0.394926
-4.38306 -8.5469 0.0830739
-4.26306 -7.97722 0.597074
-3.41706 -7.20852 1.27007
-6.18006 -6.75474 -0.946926
-6.11506 -6.62583 1.15807
-4.41306 -13.6337 -0.890926
-3.93106 -13.6372 -2.05193
-4.49106 -13.8391 -0.936926
-4.01706 -13.8375 -2.09693
-3.86506 -13.8361 -3.51593
-3.77706 -13.6386 -3.47393
-4.67906 -13.9217 -1.19193
-4.24606 -13.9195 -2.24793
-4.10706 -13.9183 -3.53593
-4.72106 -13.9141 -5.92393
-4.26706 -13.9154 -4.83493
-4.53506 -13.8333 -6.14193
-4.03806 -13.8343 -4.94593
-4.45606 -13.6347 -6.10293
-3.95206 -13.6378 -4.90593
-5.29106 -13.6293 -6.81293
-5.35506 -13.834 -6.85393
-6.33406 -13.8355 -7.09193
-6.28706 -13.6228 -7.04893
-5.46406 -13.918 -6.58093
-6.35006 -13.9233 -6.80593
-7.95606 -13.9284 -5.96793
-7.22906 -13.9258 -6.59693
-8.11006 -13.8381 -6.17793
-7.30706 -13.8366 -6.86293
-8.09406 -13.6104 -6.13593
-7.27706 -13.6161 -6.81993
-8.56906 -13.6069 -5.00693
-8.57806 -13.8405 -5.04793
-8.71606 -13.8427 -3.69093
-8.70806 -13.6055 -3.64993
-8.38406 -13.934 -4.93593
-8.51306 -13.9386 -3.69593
-7.88206 -13.9357 -1.38193
-8.34206 -13.938 -2.44593
-8.02606 -13.8436 -1.15793
-8.53006 -13.8435 -2.32193
-8.00806 -13.6094 -1.11693
-8.51906 -13.6063 -2.28093
-7.18106 -13.6148 -0.373926
-7.21206 -13.8438 -0.413926
-6.24706 -13.8433 -0.114926
-6.19906 -13.6214 -0.0739262
-7.14506 -13.9353 -0.699926
-6.27106 -13.9336 -0.425926
-5.40106 -13.9277 -0.587926
-5.28806 -13.8414 -0.281926
-5.22306 -13.628 -0.239926
3 0 1 2
3 0 2 3
3 2 4 5
3 2 5 3
3 5 6 7
3 5 7 3
3 7 8 0
3 7 0 3
3 9 10 11
3 9 11 12
3 11 13 14
3 11 14 12
3 14 6 5
3 14 5 12
3 5 4 9
3 5 9 12
3 15 16 17
3 15 17 18
3 17 19 20
3 17 20 18
3 20 6 14
3 20 14 18
3 14 13 15
3 14 15 18
3 21 22 23
3 21 23 24
3 23 8 7
3 23 7 24
3 7 6 20
3 7 20 24
3 20 19 21
3 20 21 24
3 25 26 27
3 25 27 28
3 27 29 30
3 27 30 28
3 30 31 32
3 30 32 28
3 32 25 28
3 33 34 35
3 33 35 36
3 35 37 38
3 35 38 36
3 38 31 30
3 38 30 36
3 30 29 33
3 30 33 36
3 39 40 41
3 39 41 42
3 41 43 44
3 41 44 42
3 44 31 38
3 44 38 42
3 38 37 39
3 38 39 42
3 45 46 47
3 45 47 48
3 47 32 48
3 32 31 44
3 32 44 48
3 44 43 45
3 44 45 48
3 49 50 51
3 49 51 52
3 51 53 54
3 51 54 52
3 54 55 56
3 54 56 52
3 56 49 52
3 57 58 59
3 57 59 60
3 59 61 62
3 59 62 60
3 62 55 54
3 62 54 60
3 54 53 57
3 54 57 60
3 63 34 33
3 63 33 64
3 33 29 65
3 33 65 64
3 65 55 62
3 65 62 64
3 62 61 63
3 62 63 64
3 27 26 66
3 27 66 67
3 66 56 67
3 56 55 65
3 56 65 67
3 65 29 27
3 65 27 67
3 68 69 70
3 68 70 71
3 70 72 73
3 70 73 71
3 74 75 76
3 74 76 77
3 76 78 79
3 76 79 77
3 79 72 70
3 79 70 77
3 70 69 74
3 70 74 77
3 80 58 57
3 80 57 81
3 57 53 82
3 57 82 81
3 82 72 79
3 82 79 81
3 79 78 80
3 79 80 81
3 51 50 83
3 51 83 84
3 83 73 84
3 73 72 82
3 73 82 84
3 82 53 51
3 82 51 84
3 85 46 45
3 85 45 86
3 45 43 87
3 45 87 86
3 87 88 89
3 87 89 86
3 89 90 85
3 89 85 86
3 41 40 91
3 41 91 92
3 91 93 94
3 91 94 92
3 94 88 87
3 94 87 92
3 87 43 41
3 87 41 92
3 95 75 74
3 95 74 96
3 74 69 97
3 74 97 96
3 97 88 94
3 97 94 96
3 94 93 95
3 94 95 96
3 68 98 99
3 98 90 89
3 98 89 99
3 89 88 97
3 89 97 99
3 97 69 68
3 97 68 99
3 100 101 102
3 100 102 103
3 102 104 105
3 102 105 103
3 105 106 107
3 105 107 103
3 107 108 100
3 107 100 103
3 109 110 111
3 109 111 112
3 111 113 114
3 111 114 112
3 114 106 105
3 114 105 112
3 105 104 109
3 105 109 112
3 115 116 117
3 115 117 118
3 117 119 120
3 117 120 118
3 120 106 114
3 120 114 118
3 114 113 115
3 114 115 118
3 121 122 123
3 121 123 124
3 123 108 107
3 123 107 124
3 107 106 120
3 107 120 124
3 120 119 121
3 120 121 124
3 125 126 127
3 125 127 128
3 127 129 130
3 127 130 128
3 130 131 132
3 130 132 128
3 132 133 125
3 132 125 128
3 134 135 136
3 134 136 137
3 136 138 139
3 136 139 137
3 139 131 130
3 139 130 137
3 130 129 134
3 130 134 137
3 140 110 109
3 140 109 141
3 109 104 142
3 109 142 141
3 142 131 139
3 142 139 141
3 139 138 140
3 139 140 141
3 102 101 143
3 102 143 144
3 143 133 132
3 143 132 144
3 132 131 142
3 132 142 144
3 142 104 102
3 142 102 144
3 145 146 147
3 145 147 148
3 147 149 150
3 147 150 148
3 150 151 152
3 150 152 148
3 152 153 145
3 152 145 148
3 154 155 156
3 154 156 157
3 156 158 159
3 156 159 157
3 159 151 150
3 159 150 157
3 150 149 154
3 150 154 157
3 160 135 134
3 160 134 161
3 134 129 162
3 134 162 161
3 162 151 159
3 162 159 161
3 159 158 160
3 159 160 161
3 127 126 163
3 127 163 164
3 163 153 152
3 163 152 164
3 152 151 162
3 152 162 164
3 162 129 127
3 162 127 164
3 165 122 121
3 165 121 166
3 121 119 167
3 121 167 166
3 167 168 169
3 167 169 166
3 169 170 165
3 169 165 166
3 117 116 171
3 117 171 172
3 171 173 174
3 171 174 172
3 174 168 167
3 174 167 172
3 167 119 117
3 167 117 172
3 175 155 154
3 175 154 176
3 154 149 177
3 154 177 176
3 177 168 174
3 177 174 176
3 174 173 175
3 174 175 176
3 147 146 178
3 147 178 179
3 178 170 169
3 178 169 179
3 169 168 177
3 169 177 179
3 177 149 147
3 177 147 179
3 91 40 180
3 91 180 181
3 180 182 183
3 180 183 181
3 183 184 185
3 183 185 181
3 185 93 91
3 185 91 181
3 186 122 165
3 186 165 187
3 165 170 188
3 165 188 187
3 188 184 183
3 188 183 187
3 183 182 186
3 183 186 187
3 178 146 189
3 178 189 190
3 189 191 192
3 189 192 190
3 192 184 188
3 192 188 190
3 188 170 178
3 188 178 190
3 193 75 95
3 193 95 194
3 95 93 185
3 95 185 194
3 185 184 192
3 185 192 194
3 192 191 193
3 192 193 194
3 76 75 193
3 76 193 195
3 193 191 196
3 193 196 195
3 196 197 198
3 196 198 195
3 198 78 76
3 198 76 195
3 189 146 145
3 189 145 199
3 145 153 200
3 145 200 199
3 200 197 196
3 200 196 199
3 196 191 189
3 196 189 199
3 163 126 201
3 163 201 202
3 201 203 204
3 201 204 202
3 204 197 200
3 204 200 202
3 200 153 163
3 200 163 202
3 205 58 80
3 205 80 206
3 80 78 198
3 80 198 206
3 198 197 204
3 198 204 206
3 204 203 205
3 204 205 206
3 59 58 205
3 59 205 207
3 205 203 208
3 205 208 207
3 208 209 210
3 208 210 207
3 210 61 59
3 210 59 207
3 201 126 125
3 201 125 211
3 125 133 212
3 125 212 211
3 212 209 208
3 212 208 211
3 208 203 201
3 208 201 211
3 143 101 213
3 143 213 214
3 213 215 216
3 213 216 214
3 216 209 212
3 216 212 214
3 212 133 143
3 212 143 214
3 217 34 63
3 217 63 218
3 63 61 210
3 63 210 218
3 210 209 216
3 210 216 218
3 216 215 217
3 216 217 218
3 35 34 217
3 35 217 219
3 217 215 220
3 217 220 219
3 220 221 222
3 220 222 219
3 222 37 35
3 222 35 219
3 213 101 100
3 213 100 223
3 100 108 224
3 100 224 223
3 224 221 220
3 224 220 223
3 220 215 213
3 220 213 223
3 123 122 186
3 123 186 225
3 186 182 226
3 186 226 225
3 226 221 224
3 226 224 225
3 224 108 123
3 224 123 225
3 180 40 39
3 180 39 227
3 39 37 222
3 39 222 227
3 222 221 226
3 222 226 227
3 226 182 180
3 226 180 227
3 228 46 85
3 83 50 229
3 229 50 49
3 66 26 230
3 230 26 25
3 47 46 228
3 171 116 231
3 171 231 232
3 231 233 234
3 231 234 232
3 234 235 236
3 234 236 232
3 236 173 171
3 236 171 232
3 237 22 21
3 237 21 238
3 21 19 239
3 21 239 238
3 239 235 234
3 239 234 238
3 234 233 237
3 234 237 238
3 17 16 240
3 17 240 241
3 240 242 243
3 240 243 241
3 243 235 239
3 243 239 241
3 239 19 17
3 239 17 241
3 244 155 175
3 244 175 245
3 175 173 236
3 175 236 245
3 236 235 243
3 236 243 245
3 243 242 244
3 243 244 245
3 156 155 244
3 156 244 246
3 244 242 247
3 244 247 246
3 247 248 249
3 247 249 246
3 249 158 156
3 249 156 246
3 240 16 15
3 240 15 250
3 15 13 251
3 15 251 250
3 251 248 247
3 251 247 250
3 247 242 240
3 247 240 250
3 11 10 252
3 11 252 253
3 252 254 255
3 252 255 253
3 255 248 251
3 255 251 253
3 251 13 11
3 251 11 253
3 256 135 160
3 256 160 257
3 160 158 249
3 160 249 257
3 249 248 255
3 249 255 257
3 255 254 256
3 255 256 257
3 136 135 256
3 136 256 258
3 256 254 259
3 256 259 258
3 259 260 261
3 259 261 258
3 261 138 136
3 261 136 258
3 252 10 9
3 252 9 262
3 9 4 263
3 9 263 262
3 263 260 259
3 263 259 262
3 259 254 252
3 259 252 262
3 2 1 264
3 2 264 265
3 264 266 267
3 264 267 265
3 267 260 263
3 267 263 265
3 263 4 2
3 263 2 265
3 268 110 140
3 268 140 269
3 140 138 261
3 140 261 269
3 261 260 267
3 261 267 269
3 267 266 268
3 267 268 269
3 111 110 268
3 111 268 270
3 268 266 271
3 268 271 270
3 271 272 273
3 271 273 270
3 273 113 111
3 273 111 270
3 264 1 0
3 264 0 274
3 0 8 275
3 0 275 274
3 275 272 271
3 275 271 274
3 271 266 264
3 271 264 274
3 23 22 237
3 23 237 276
3 237 233 277
3 237 277 276
3 277 272 275
3 277 275 276
3 275 8 23
3 275 23 276
3 231 116 115
3 231 115 278
3 115 113 273
3 115 273 278
3 273 272 277
3 273 277 278
3 277 233 231
3 277 231 278
