0.447501
0.353472
0.46308
0.401587
0.440507
0.413707
0.423071
0.561118
0.59536
0.388637
0.358313
0.509104
0.456909
0.496238
0.419972
0.343056
0.380571
0.396664
0.302652
0.360039
0.519695
0.497168
0.383469
0.224211
0.453572
0.329374
0.527466
0.475778
0.461218
0.493613
0.448703
0.269636
0.574674
0.864182
0.616732
0.75406
0.267845
0.514155
0.270692
0.539699
0.139306
0.452521
0.287486
0.637443
0.585888
0.42482
0.704674
0.512688
0.338349
0.51159
0.310404
0.567131
0.391614
0.442154
0.596017
0.890505
0.927256
1
0.842028
0.867485
0.628203
0.872532
0.733356
0.879165
0.418294
0.564962
0.200899
0.587561
0.447821
0.828367
0.738138
0.829018
0.649631
0.835434
0.393152
0.699533
0
0.715056
0.820924
0.816585
0.307784
0.139636
0.920708
0.140042
0.752332
0.943089
0.521711
0.231037
0.583958
0.13993
0.340581
0.47853
0.620852
0.552142
0.37434
0.473771
0.0730011
0.663607
0.840702
0.76257
0.893167
0.797227
0.854876
0.791153
0.772853
0.191803
0.859528
0.888043
0.78133
0.84273
0.864526
0.104101
0.672098
0.696025
0.614416
0.335603
0.561493
0.618274
0.782212
0.623723
0.612966
0.456181
0.413352
0.39749
0.379052
0.45414
0.502055
0.388652
0.407713
0.484104
0.571062
0.504411
0.582794
0.486043
0.479769
0.477521
0.582302
0.400928
0.663043
0.611227
0.484815
0.626698
0.358234
0.57406
0.606775
0.565129
0.503529
0.555752
0.239332
0.519066
0.694115
0.703287
0.426012
0.509776
0.409262
0.509857
0.391546
0.0697659
0.499419
0.522668
0.43587
0.506476
0.268516
0.50113
0.324513
0.488046
0.455778
0.531566
0.580809
0.524047
0.395562
0.560061
0.551692
0.205046
0.516609
0.508883
0.66524
0.823643
0.377441
0.57777
0.497666
0.579755
0.695516
0.605477
0.417184
0.365816
0.424531
0.516462
0.455586
0.491288
0.534142
0.353023
0.45944
0.420279
0.570891
0.42936
0.458904
0.559452
0.383667
0.400783
0.6603
0.713198
0.664561
0.70706
0.486296
0.546825
0.609107
0.348676
0.614121
0.471846
0.384875
0.627303
0.252344
0.745811
0.654286
0.213614
0.204062
0.46077
0.351284
0.41975
0.529035
0.352153
0.486851
0.381152
0.510847
0.376258
0.43704
0.387332
0.307477
0.562151
0.299067
0.288002
0.724111
0.469358
0.649001
0.587875
0.450588
0.53969
0.399592
0.748365
0.382051
0.42221
0.50995
0.566314
0.413767
0.586521
0.441485
0.517145
0.374511
0.329719
0.510733
0.376625
0.445424
0.52054
0.403937
0.478958
0.44097
0.35381
0.593718
0.598924
0.439141
0.500644
0.519405
0.353805
0.46053
0.386608
0.362354
0.463836
0.54857
0.52608
0.533927
0.518952
0.52087
0.457809
0.436505
0.38843
0.539467
0.529369
0.686916
0.38337
0.562531
0.44375
0.532067
0.370705
0.428396
0.428808
0.487172
0.498669
0.427612
0.340898
0.382727
0.363418
0.437572
0.504088
0.388436
0.360039
0.528289
0.430651
0.434356
0.583229
0.412067
0.434802
0.443626
0.336801
0.404418
0.322572
0.526938
0.429265
0.469975
0.443416
0.423413
0.397309
0.343858
0.542483
0.517825
0.565059
0.546522
0.450625
0.439517
0.502388
0.468247
0.311755
0.463236
0.543242
0.495005
0.436096
0.530155
0.548738
0.356571
0.55717
0.496679
0.483548
0.531744
0.489222
0.465948
0.45298
0.510644
0.619229
0.496569
0.401313
0.472565
0.540617
0.5309
0.329934
0.40455
0.218961
0.245131
0.391883
0.354844
0.505053
0.548224
0.375919
0.451877
0.509119
0.499028
0.445787
0.530017
0.536228
0.451728
0.392313
0.424781
0.383228
0.478534
0.497877
0.303814
0.58592
0.556279
0.54501
0.312813
0.403365
0.360992
0.0977248
0.321808
0.39009
0.386162
0.183687
0.494734
0.481727
0.539284
0.45489
0.309817
0.328216
0.166742
0.307202
0.398889
0.375184
0.101742
0.604721
0.307976
0.381046
0.534971
0.205555
0.299131
0.166188
0.316801
0.172825
0.335434
0.141172
0.245035
0.059135
0.169697
0.170407
0.102514
0.458306
0.0965579
0.177082
0.38704
0.318747
0.452307
0.178409
0.235565
0.171826
0.245513
0.158237
0.084301
0.109414
0.171652
0.190257
0.108737
0.16243
0.0569941
0.18998
0.235243
0.0920828
0.238944
0.14909
0.275718
0.0998015
0.0727126
0.199694
0.0723245
0.0929518
0.218774
0.166478
0.113514
0.10312
0.300854
0.364806
0.567168
0.410651
0.112082
0.409092
0.283367
0.49391
0.251009
0.581382
0.362805
0.0529011
0.359127
0.0126035
0.356277
0.17461
0.295104
0.118677
0.279055
0.32015
0.292353
0.456827
0.451513
0.308011
0.295512
0.401183
0.114759
0.159425
0.171239
0.164544
0.0383958
0.0578794
0.0173743
0.311553
0.267449
0.138472
0.217475
0.0859267
0.172327
0.202948
0.0622414
0.123418
0.102619
0.158587
0.312376
0.168929
0.161021
0.218727
0.107334
0.0275866
0.246904
0.218469
0.250345
0.253375
0.438582
0.107117
0.0579434
0.0610742
0.432435
0.0393454
0.788384
0.298062
0.752832
0.707156
0.759496
0.432503
0.177925
0.54528
0.503666
0.557622
0.558508
0.582439
0.632163
0.628209
0.636918
0.482602
0.733197
0.635595
0.498951
0.655846
0.687025
0.553784
0.480233
0.623899
0.544506
0.815355
0.378232
0.420904
0.685419
0.371076
0.365233
0.659017
0.666498
0.866295
0.751232
0.635166
0.519663
0.733874
0.724271
0.537442
0.682132
0.811548
0.689304
0.673406
0.548777
0.816372
0.68997
0.580317
0.261636
0.716623
0.739376
0.748838
0.235026
0.503255
0.379062
0.662632
0.282888
0.334019
0.709821
0.580131
0.81951
0.538036
0.37841
0.608861
0.617158
0.702711
0.698141
0.817983
0.417096
0.75182
0.912851
0.654301
0.546128
0.385834
0.611662
0.788799
0.613163
0.487031
0.357806
0.846444
0.423831
0.435691
0.55493
0.21925
0.233488
0.745564
0.89932
0.289597
0.497974
0.195143
0.672742
0.72152
0.334849
0.768439
0.807966
0.151366
0.299132
0.0911354
0.40189
0.598509
0.588271
0.568513
0.749403
0.814078
0.848153
0.832991
0.156409
0.585488
0.604779
0.701094
0.79039
0.684292
0.777558
0.503621
