OFF
215 411 0
-4.48547 -5.58643 -14.5329
-4.74757 -5.58643 -14.4076
-4.81677 -5.73223 -14.3912
-4.55597 -5.73223 -14.5198
-5.09817 -5.83933 -14.4109
-4.91787 -5.87683 -14.5023
-4.94887 -5.87683 -14.6327
-4.58067 -5.73223 -14.6528
-4.51007 -5.58643 -14.6659
-3.00537 2.17177 -2.18341
-2.42917 2.16647 -2.18341
-2.66027 1.47417 -2.20325
-3.01207 1.47737 -2.20326
-2.66027 1.47087 -2.8421
-3.01207 1.47407 -2.84229
-3.36647 1.47407 -2.84229
-3.36647 1.47737 -2.20326
-3.58577 2.17177 -2.18341
-2.23717 1.20677 -2.18307
-2.42917 0.515169 -2.18282
-2.66027 0.466269 -2.2009
-2.54297 0.888469 -2.20189
-2.66027 0.476169 -2.7829
-2.54297 0.892769 -2.8077
-2.54297 1.31267 -2.83269
-2.54297 1.31387 -2.20288
-2.23717 1.90387 -2.18332
-3.36647 0.325569 -2.20057
-3.36647 0.337269 -2.77464
-3.01207 0.337269 -2.77464
-3.01207 0.325569 -2.20057
-3.80797 1.20677 -2.18307
-3.80797 1.90387 -2.18332
-3.50217 1.31387 -2.20288
-3.50217 0.888469 -2.20189
-3.50217 1.31267 -2.83269
-3.50217 0.892769 -2.8077
-3.49957 0.476169 -2.7829
-3.49957 0.466269 -2.2009
-3.80367 0.515169 -2.18282
-3.49827 0.930169 -6.77389
-3.17367 0.927469 -6.77273
-4.71387 -0.647631 -8.02176
-4.95697 -0.645631 -8.02275
-6.25417 -2.56803 -8.98421
-6.41557 -2.56673 -8.98487
-6.57827 -2.56673 -8.98487
-5.20177 -0.645631 -8.02275
-3.82527 0.930169 -6.77389
-3.06547 0.434869 -6.56595
-3.17367 0.0797686 -6.4169
-4.71387 -1.27273 -7.7141
-4.63287 -1.01093 -7.84297
-6.25417 -2.98333 -8.77981
-6.20027 -2.80943 -8.86543
-6.20027 -2.63413 -8.9517
-4.63287 -0.747031 -7.97284
-3.06547 0.792669 -6.71615
-3.49827 -0.0386314 -6.36721
-3.82527 -0.0386314 -6.36721
-5.20177 -1.36003 -7.67115
-4.95697 -1.36003 -7.67115
-6.57827 -3.04133 -8.75127
-6.41557 -3.04133 -8.75127
-3.95057 0.434869 -6.56595
-3.95057 0.792669 -6.71615
-5.29557 -0.747031 -7.97284
-5.29557 -1.01093 -7.84297
-6.64057 -2.63413 -8.9517
-6.64057 -2.80943 -8.86543
-6.63937 -2.98333 -8.77981
-5.29377 -1.27273 -7.7141
-3.94807 0.0797686 -6.4169
-6.76757 -4.13753 -10.1915
-6.90187 -4.13643 -10.192
-6.76517 -5.18303 -11.5565
-6.89197 -5.18193 -11.571
-7.01977 -5.18193 -11.585
-7.03707 -4.13643 -10.192
-6.76757 -4.48283 -10.0215
-6.72277 -4.33823 -10.0927
-6.78277 -5.52833 -11.3959
-6.73317 -5.38373 -11.4586
-6.72567 -5.23793 -11.5264
-6.72277 -4.19243 -10.1645
-7.03707 -4.53103 -9.99779
-6.90187 -4.53103 -9.99779
-7.03997 -5.57653 -11.4015
-6.91217 -5.57653 -11.3875
-7.08887 -4.19243 -10.1645
-7.08887 -4.33823 -10.0927
-7.07157 -5.23793 -11.5643
-7.07897 -5.38373 -11.4966
-7.08547 -5.52833 -11.4292
-7.08787 -4.48283 -10.0215
-6.75807 -5.53153 -12.9922
-6.86237 -5.53043 -13.0484
-6.46167 -5.53153 -14.0882
-6.53727 -5.53043 -14.1887
-6.61377 -5.53043 -14.2895
-6.96777 -5.53043 -13.1045
-6.82857 -5.87683 -12.8598
-6.76417 -5.73223 -12.8967
-6.58837 -5.87683 -13.992
-6.50997 -5.73223 -13.999
-6.45647 -5.58643 -14.0396
-6.73437 -5.58643 -12.9526
-7.04837 -5.92503 -12.9532
-6.94307 -5.92503 -12.8971
-6.75867 -5.92503 -14.1796
-6.68207 -5.92503 -14.0787
-7.01957 -5.58643 -13.1045
-7.04927 -5.73223 -13.0487
-6.66367 -5.58643 -14.3125
-6.71717 -5.73223 -14.2719
-6.76967 -5.87683 -14.2309
-7.07807 -5.87683 -12.9928
-5.59147 -5.53153 -14.4345
-5.64067 -5.53043 -14.5564
-4.95537 -5.53233 -14.4527
-4.75447 -5.53153 -14.5424
-4.78547 -5.53153 -14.6729
-5.69067 -5.53043 -14.6791
-5.74557 -5.87683 -14.3716
-5.66447 -5.73223 -14.3573
-5.59937 -5.58643 -14.3839
-5.86687 -5.92503 -14.6072
-5.81677 -5.92503 -14.4845
-5.73487 -5.58643 -14.7158
-5.79997 -5.73223 -14.6893
-4.82317 -5.58643 -14.7156
-4.89237 -5.73223 -14.6991
-5.17687 -5.83933 -14.68
-5.86407 -5.87683 -14.662
-3.79077 0.284569 -2.18274
-3.49167 0.325569 -2.20057
-3.49167 0.337269 -2.77464
-3.94077 -0.0386314 -6.36721
-5.28827 -1.36003 -7.67115
-6.63577 -3.04133 -8.75127
-7.08487 -4.53103 -9.99779
-7.08507 -5.57653 -11.4065
-7.08557 -5.92503 -12.9731
-6.78567 -5.92503 -14.2152
-5.88447 -5.92503 -14.6505
-4.95987 -5.87683 -14.6788
-4.51887 -5.58643 -14.7129
-4.58937 -5.73223 -14.6998
-6.64087 -5.53043 -14.3251
-5.70837 -5.53043 -14.7224
-4.79647 -5.53153 -14.7189
-5.03407 -5.53233 -14.7218
-5.70997 -5.53153 -14.7249
-6.64297 -5.53153 -14.3271
-7.06487 -5.18193 -11.59
-7.00497 -5.53043 -13.1243
-7.00757 -5.53153 -13.1252
-7.06777 -5.18303 -11.5898
-6.63577 -2.56673 -8.98487
-7.08487 -4.13643 -10.192
-7.08787 -4.13753 -10.1915
-6.63937 -2.56803 -8.98421
-3.94077 0.930169 -6.77389
-5.28827 -0.645631 -8.02275
-5.29377 -0.647631 -8.02176
-3.94807 0.927469 -6.77273
-3.79077 2.17177 -2.18341
-3.49167 1.47737 -2.20326
-3.49167 1.47407 -2.84229
-3.49957 1.47087 -2.8421
-3.49957 1.47417 -2.20325
-3.80367 2.16647 -2.18341
-3.50217 1.30907 -4.66994
-3.50217 0.905469 -4.57496
-3.49957 0.505069 -4.4807
-3.36647 0.371569 -4.44928
-3.49167 0.371569 -4.44928
-3.01207 0.371569 -4.44928
-2.66027 0.505069 -4.4807
-2.54297 0.905469 -4.57496
-2.54297 1.30907 -4.66994
-2.66027 1.46107 -4.70572
-3.01207 1.46417 -4.70645
-3.36647 1.46417 -4.70645
-3.49167 1.46417 -4.70645
-3.49957 1.46107 -4.70572
-3.80797 2.15037 -2.1834
-3.50217 1.46437 -2.20323
-3.50217 1.46117 -2.84153
-3.50217 1.45187 -4.70354
-3.95057 0.919269 -6.76929
-5.29557 -0.653731 -8.01878
-6.64057 -2.57213 -8.98223
-7.08887 -4.14083 -10.1898
-7.06897 -5.18633 -11.5883
-7.00897 -5.53483 -13.1243
-6.64477 -5.53483 -14.3269
-5.71187 -5.53483 -14.7252
-4.79877 -5.53483 -14.7214
-4.48517 -5.53483 -14.6705
-4.49387 -5.53483 -14.7175
-4.72307 -5.53483 -14.4134
-4.46047 -5.53483 -14.5375
-6.43757 -5.53483 -14.0539
-5.57637 -5.53483 -14.3933
-6.72307 -5.18633 -11.5503
-6.72387 -5.53483 -12.9723
-6.20027 -2.57213 -8.98223
-6.72277 -4.14083 -10.1898
-3.06547 0.919269 -6.76929
-4.63287 -0.653731 -8.01878
-2.54297 1.46117 -2.84153
-2.54297 1.45187 -4.70354
-2.23717 2.15037 -2.1834
-2.54297 1.46437 -2.20323
3 0 1 2
3 0 2 3
3 2 4 5
3 2 5 3
3 5 6 7
3 5 7 3
3 7 8 0
3 7 0 3
3 9 10 11
3 9 11 12
3 11 13 14
3 11 14 12
3 14 15 16
3 14 16 12
3 16 17 9
3 16 9 12
3 18 19 20
3 18 20 21
3 20 22 23
3 20 23 21
3 23 24 25
3 23 25 21
3 25 26 18
3 25 18 21
3 27 28 29
3 27 29 30
3 29 22 20
3 29 20 30
3 31 32 33
3 31 33 34
3 33 35 36
3 33 36 34
3 36 37 38
3 36 38 34
3 38 39 31
3 38 31 34
3 40 41 42
3 40 42 43
3 42 44 45
3 42 45 43
3 45 46 47
3 45 47 43
3 47 48 40
3 47 40 43
3 49 50 51
3 49 51 52
3 51 53 54
3 51 54 52
3 54 55 56
3 54 56 52
3 56 57 49
3 56 49 52
3 58 59 60
3 58 60 61
3 60 62 63
3 60 63 61
3 63 53 51
3 63 51 61
3 51 50 58
3 51 58 61
3 64 65 66
3 64 66 67
3 66 68 69
3 66 69 67
3 69 70 71
3 69 71 67
3 71 72 64
3 71 64 67
3 45 44 73
3 45 73 74
3 73 75 76
3 73 76 74
3 76 77 78
3 76 78 74
3 78 46 45
3 78 45 74
3 54 53 79
3 54 79 80
3 79 81 82
3 79 82 80
3 82 83 84
3 82 84 80
3 84 55 54
3 84 54 80
3 63 62 85
3 63 85 86
3 85 87 88
3 85 88 86
3 88 81 79
3 88 79 86
3 79 53 63
3 79 63 86
3 69 68 89
3 69 89 90
3 89 91 92
3 89 92 90
3 92 93 94
3 92 94 90
3 94 70 69
3 94 69 90
3 76 75 95
3 76 95 96
3 95 97 98
3 95 98 96
3 98 99 100
3 98 100 96
3 100 77 76
3 100 76 96
3 82 81 101
3 82 101 102
3 101 103 104
3 101 104 102
3 104 105 106
3 104 106 102
3 106 83 82
3 106 82 102
3 88 87 107
3 88 107 108
3 107 109 110
3 107 110 108
3 110 103 101
3 110 101 108
3 101 81 88
3 101 88 108
3 92 91 111
3 92 111 112
3 111 113 114
3 111 114 112
3 114 115 116
3 114 116 112
3 116 93 92
3 116 92 112
3 98 97 117
3 98 117 118
3 117 119 120
3 117 120 118
3 120 121 122
3 120 122 118
3 122 99 98
3 122 98 118
3 104 103 123
3 104 123 124
3 123 4 2
3 123 2 124
3 2 1 125
3 2 125 124
3 125 105 104
3 125 104 124
3 110 109 126
3 110 126 127
3 126 6 5
3 126 5 127
3 5 4 123
3 5 123 127
3 123 103 110
3 123 110 127
3 114 113 128
3 114 128 129
3 128 130 131
3 128 131 129
3 131 132 133
3 131 133 129
3 133 115 114
3 133 114 129
3 27 134 135
3 134 39 38
3 134 38 135
3 38 37 136
3 38 136 135
3 136 28 27
3 136 27 135
3 60 59 137
3 60 137 138
3 137 72 71
3 137 71 138
3 71 70 139
3 71 139 138
3 139 62 60
3 139 60 138
3 85 62 139
3 85 139 140
3 139 70 94
3 139 94 140
3 94 93 141
3 94 141 140
3 141 87 85
3 141 85 140
3 107 87 141
3 107 141 142
3 141 93 116
3 141 116 142
3 116 115 143
3 116 143 142
3 143 109 107
3 143 107 142
3 126 109 143
3 126 143 144
3 143 115 133
3 143 133 144
3 133 132 145
3 133 145 144
3 145 6 126
3 145 126 144
3 146 8 7
3 146 7 147
3 7 6 145
3 7 145 147
3 145 132 131
3 145 131 147
3 131 130 146
3 131 146 147
3 148 99 122
3 148 122 149
3 122 121 150
3 122 150 149
3 150 151 152
3 150 152 149
3 152 153 148
3 152 148 149
3 154 77 100
3 154 100 155
3 100 99 148
3 100 148 155
3 148 153 156
3 148 156 155
3 156 157 154
3 156 154 155
3 158 46 78
3 158 78 159
3 78 77 154
3 78 154 159
3 154 157 160
3 154 160 159
3 160 161 158
3 160 158 159
3 162 48 47
3 162 47 163
3 47 46 158
3 47 158 163
3 158 161 164
3 158 164 163
3 164 165 162
3 164 162 163
3 166 17 16
3 166 16 167
3 16 15 168
3 16 168 167
3 168 169 170
3 168 170 167
3 170 171 166
3 170 166 167
3 36 35 172
3 36 172 173
3 172 65 64
3 172 64 173
3 64 72 174
3 64 174 173
3 174 37 36
3 174 36 173
3 175 28 136
3 175 136 176
3 136 37 174
3 136 174 176
3 174 72 137
3 174 137 176
3 137 59 175
3 137 175 176
3 29 28 175
3 29 175 177
3 175 59 58
3 175 58 177
3 58 50 178
3 58 178 177
3 178 22 29
3 178 29 177
3 23 22 178
3 23 178 179
3 178 50 49
3 178 49 179
3 49 57 180
3 49 180 179
3 180 24 23
3 180 23 179
3 14 13 181
3 14 181 182
3 181 41 40
3 181 40 182
3 40 48 183
3 40 183 182
3 183 15 14
3 183 14 182
3 168 15 183
3 168 183 184
3 183 48 162
3 183 162 184
3 162 165 185
3 162 185 184
3 185 169 168
3 185 168 184
3 33 32 186
3 33 186 187
3 186 171 170
3 186 170 187
3 170 169 188
3 170 188 187
3 188 35 33
3 188 33 187
3 172 35 188
3 172 188 189
3 188 169 185
3 188 185 189
3 185 165 190
3 185 190 189
3 190 65 172
3 190 172 189
3 66 65 190
3 66 190 191
3 190 165 164
3 190 164 191
3 164 161 192
3 164 192 191
3 192 68 66
3 192 66 191
3 89 68 192
3 89 192 193
3 192 161 160
3 192 160 193
3 160 157 194
3 160 194 193
3 194 91 89
3 194 89 193
3 111 91 194
3 111 194 195
3 194 157 156
3 194 156 195
3 156 153 196
3 156 196 195
3 196 113 111
3 196 111 195
3 128 113 196
3 128 196 197
3 196 153 152
3 196 152 197
3 152 151 198
3 152 198 197
3 198 130 128
3 198 128 197
3 150 121 199
3 150 199 200
3 199 8 146
3 199 146 200
3 146 130 198
3 146 198 200
3 198 151 150
3 198 150 200
3 120 119 201
3 120 201 202
3 201 1 0
3 201 0 202
3 0 8 199
3 0 199 202
3 199 121 120
3 199 120 202
3 203 105 125
3 203 125 204
3 125 1 201
3 125 201 204
3 201 119 117
3 201 117 204
3 117 97 203
3 117 203 204
3 205 83 106
3 205 106 206
3 106 105 203
3 106 203 206
3 203 97 95
3 203 95 206
3 95 75 205
3 95 205 206
3 207 55 84
3 207 84 208
3 84 83 205
3 84 205 208
3 205 75 73
3 205 73 208
3 73 44 207
3 73 207 208
3 209 57 56
3 209 56 210
3 56 55 207
3 56 207 210
3 207 44 42
3 207 42 210
3 42 41 209
3 42 209 210
3 211 24 180
3 211 180 212
3 180 57 209
3 180 209 212
3 209 41 181
3 209 181 212
3 181 13 211
3 181 211 212
3 213 26 25
3 213 25 214
3 25 24 211
3 25 211 214
3 211 13 11
3 211 11 214
3 11 10 213
3 11 213 214
