OFF
796 1524 0
5.85674 -17.551 9.12498
5.55874 -17.5601 11.5152
5.53274 -17.5577 9.68098
5.40974 -17.5386 8.89718
6.09974 -17.501 8.26938
6.22974 -17.5289 9.39768
6.60474 -17.4875 9.39938
6.87674 -17.4383 8.76298
-2.08826 -18.2055 2.28478
-2.09126 -18.1891 4.68508
-2.39826 -18.2576 4.21748
-2.39526 -18.2681 2.38038
-2.77626 -18.2978 4.68238
-2.76626 -18.316 2.67638
-3.15326 -18.3266 4.21448
-3.47126 -18.3152 4.67968
-3.45726 -18.3277 2.68008
-3.13426 -18.3356 2.37748
-2.63026 -18.2732 1.75128
-3.24926 -18.3051 1.80348
5.76074 3.4492 2.50198
6.24174 3.0275 2.46418
6.34574 3.2136 2.35828
6.61274 2.81991 1.98898
6.70774 2.26901 1.63798
6.81974 2.4241 1.50288
6.67674 2.0479 1.01878
-6.43526 2.0523 2.34138
-5.85226 0.762805 3.40588
-5.96026 2.3969 2.50408
-6.29026 0.636605 0.560581
-6.55326 0.725705 1.12898
-6.68626 0.846105 0.996981
-6.68126 1.06351 1.64288
-6.82226 1.20131 1.50518
-6.11426 0.349605 3.04908
-6.69926 1.6284 1.99208
3.36274 -0.341995 5.47598
2.43574 -0.506395 5.26228
2.24774 -1.23629 6.11828
3.12674 -1.16369 6.19078
2.89374 -1.97829 6.79928
3.76874 -1.9692 6.85788
3.91474 -1.17889 6.28328
2.10774 -2.87969 7.23898
2.18174 -4.0353 7.56938
3.03974 -3.99499 7.71398
3.64374 -2.8768 7.35188
3.76974 -3.95569 7.75768
4.40574 -3.9096 7.71848
4.92774 -3.8452 7.55798
4.85774 -2.7978 7.28228
4.36574 -2.84599 7.34098
5.12074 -2.0441 6.86018
4.43474 -1.99339 6.88148
5.12074 -1.3895 6.34358
5.43274 -0.778595 5.60858
4.82974 -0.469995 5.64288
4.60774 -1.25049 6.32128
-4.34526 -1.31059 5.63728
-4.87126 -1.75549 5.59988
-4.45926 -2.3062 6.30348
-3.98726 -2.04169 6.30608
-4.16926 -2.9038 6.76098
-3.68326 -2.7509 6.78628
-3.03226 -2.5968 6.77298
-3.32026 -1.83579 6.28208
-3.95426 -3.64649 7.00218
-3.81826 -4.72839 6.90468
-3.24826 -4.7404 6.92308
-3.45126 -3.60549 7.03068
-2.62026 -3.49129 7.02458
-1.90026 -4.5743 6.93838
-1.06026 -4.4307 6.97228
-1.22426 -3.21519 7.02828
-1.42826 -2.32719 6.69828
-2.26826 -2.4556 6.73428
-1.67126 -1.5877 6.11868
-1.98626 -0.903595 5.26318
-2.92726 -0.907095 5.47738
-2.54926 -1.67269 6.19128
-1.69726 -0.885495 4.47618
-0.801265 -1.19579 5.44678
-0.760265 -1.1927 4.76498
0.269735 -1.20749 5.49758
0.270735 -1.22469 4.84068
0.295735 -1.4965 4.23668
-0.684265 -1.47889 4.14748
-1.57826 -1.2006 3.85638
1.32174 -1.00529 5.44638
2.14774 -0.539595 4.47488
1.28074 -1.0094 4.76448
2.08774 -0.870795 3.85518
1.25574 -1.3047 4.14708
2.19874 -1.41119 3.38018
2.53074 -2.29449 3.16118
1.37074 -2.30719 3.36618
1.33374 -1.78759 3.66258
0.371735 -2.38409 3.42238
0.332735 -1.92639 3.74598
-0.623265 -2.48559 3.36598
-1.76326 -2.67809 3.16048
-1.59226 -1.75169 3.38088
-0.675265 -1.96769 3.66268
-0.561265 -5.85439 5.48748
-0.811265 -5.66929 5.05068
-0.0252648 -5.3142 5.42588
-0.0232648 -5.21979 5.87298
0.623735 -5.16379 5.56558
0.611735 -4.99619 6.05518
0.583735 -4.6597 6.57048
-0.0252648 -4.9279 6.37358
-0.537265 -5.62849 5.98638
1.29174 -5.17309 5.55658
2.14374 -5.34529 5.38298
1.95074 -5.5066 6.19218
1.28274 -5.06179 6.10688
1.89374 -5.26929 6.79808
1.23774 -4.76129 6.67988
1.94774 -4.80139 7.27868
1.27174 -3.59699 7.32998
1.24874 -4.25879 7.12908
0.481735 -3.53719 7.21218
0.539735 -4.16229 6.99798
-0.274265 -3.7725 7.11868
-0.676265 -5.17309 6.49708
-0.127265 -4.43229 6.84148
-0.705265 -1.5749 6.12448
-0.549265 -2.20589 6.69128
0.299735 -1.54169 6.14698
0.362735 -2.80889 7.07798
1.26074 -2.81909 7.15818
1.25574 -2.04519 6.72078
1.29474 -1.39549 6.12428
2.84974 -5.53479 7.84328
3.37074 -5.37899 8.03628
3.38674 -7.0326 8.10198
3.80674 -6.90809 8.31108
4.31074 -6.8437 8.37788
3.99174 -5.3226 8.09198
3.86074 -8.5407 8.36688
4.26374 -9.97839 8.63838
4.60074 -9.92019 8.83678
4.22474 -8.4515 8.57408
5.00374 -9.87539 8.90188
4.66174 -8.39429 8.64208
5.40674 -9.84989 8.83398
5.74274 -9.84929 8.63328
5.46974 -8.4009 8.36188
5.10074 -8.37539 8.57128
5.21174 -6.87759 8.09608
4.80374 -6.82419 8.30808
5.01174 -5.3601 7.83448
4.56174 -5.28559 8.03228
2.85674 -6.54389 6.02468
2.58174 -6.42039 6.47528
3.40174 -7.72699 6.46178
3.15274 -7.61099 6.84438
3.07274 -7.44529 7.30428
2.50974 -6.22 7.02088
3.86474 -8.96249 6.83938
4.25174 -10.1907 7.17508
4.05074 -10.1603 7.50838
3.64274 -8.88589 7.18728
3.98674 -10.1082 7.90768
3.56874 -8.77719 7.60408
4.05874 -10.0443 8.30648
3.64174 -8.65569 8.02038
3.14674 -7.23209 7.74488
2.58074 -5.87 7.49078
4.45374 -5.6407 5.48108
5.05074 -5.1464 5.47408
5.09074 -6.36209 6.04478
4.63674 -6.56499 5.85468
5.26374 -7.56859 6.46308
4.85774 -7.70509 6.25468
4.35374 -7.78899 6.19238
4.04274 -6.69699 5.81698
3.80974 -5.80379 5.47398
5.50174 -8.84459 6.84158
5.53974 -10.6926 7.12938
5.12874 -8.91029 6.62718
5.27674 -11.305 7.22368
4.68374 -8.96809 6.55908
4.59174 -10.1899 6.97438
4.23774 -8.98769 6.62998
3.83474 -7.7913 6.25288
3.09274 -5.74059 5.45378
3.39674 -6.66309 5.83948
5.15474 -4.51899 7.24168
5.27074 -5.63779 7.47578
5.45974 -7.0319 7.73648
5.55174 -7.22839 7.29578
5.36474 -5.9638 7.00698
5.23774 -4.9465 6.76498
5.94774 -9.87939 8.29998
5.69574 -8.47719 8.01408
6.13474 -10.5464 8.04798
5.77774 -8.58519 7.59718
5.95474 -9.99409 7.50178
5.71274 -8.70609 7.18078
5.49074 -7.40849 6.84068
5.21774 -5.18939 6.18698
5.31874 -6.1835 6.47948
-1.36226 -6.20199 6.19358
-1.03126 -6.489 5.80218
-1.54026 -7.94469 5.31698
-1.26026 -8.099 4.94048
-1.14726 -8.2963 4.48148
-0.896265 -6.82379 5.30618
-1.67426 -9.6489 4.45688
-1.79226 -11.1936 3.74578
-1.56826 -11.2211 3.39738
-1.42926 -9.72229 4.09528
-1.48326 -11.2709 2.97858
-1.33226 -9.8285 3.66078
-1.53926 -11.3338 2.55938
-1.74126 -11.4004 2.20948
-1.60226 -10.0646 2.86288
-1.38826 -9.94889 3.22588
-1.43126 -8.62729 3.64688
-1.19926 -8.4706 4.02618
-1.19626 -7.18329 4.42798
-0.938265 -7.02189 4.82598
-3.55626 -6.4129 6.16518
-3.11526 -6.2678 6.34428
-3.41426 -8.12 5.30608
-3.01026 -7.9961 5.51928
-2.50626 -7.9279 5.58578
-2.53526 -6.20799 6.38268
-3.34626 -9.80299 4.45158
-3.34226 -11.336 3.74038
-2.99426 -11.2752 3.95118
-2.97326 -9.71109 4.67018
-2.57426 -11.227 4.02248
-2.52126 -9.6502 4.74408
-2.15026 -11.1977 3.95408
-2.06326 -9.6271 4.67298
-1.98626 -7.8992 5.52528
-1.90726 -6.14719 6.35968
-3.86926 -6.0726 5.43088
-3.72026 -5.9714 5.04138
-3.46026 -7.39569 4.41608
-3.72026 -7.2633 4.80038
-3.34226 -8.8048 3.63998
-3.60126 -8.6888 4.01478
-3.69526 -8.52479 4.46708
-3.80326 -7.06399 5.26958
-3.93026 -5.85649 5.90068
-3.29826 -10.2211 2.85758
-3.31426 -11.5448 2.20398
-3.53426 -11.517 2.55238
-3.53926 -10.1473 3.21908
-3.61126 -11.4665 2.97118
-3.62826 -10.0403 3.65358
-3.54826 -11.4029 3.39048
-3.56426 -9.9192 4.08858
-3.63726 -8.31569 4.92638
-3.94126 -5.2914 6.46648
-3.76726 -6.72939 5.76568
-1.64526 -6.2921 4.74658
-1.70826 -7.4079 4.17898
-1.85726 -8.77139 3.41618
-2.38026 -8.86489 3.33718
-2.34226 -7.56639 4.09058
-2.33726 -6.49659 4.66958
-2.09326 -11.4615 1.99868
-1.97826 -10.157 2.64428
-2.52026 -11.5104 1.92738
-2.43926 -10.2187 2.57038
-2.95226 -11.5404 1.99568
-2.90526 -10.2424 2.64138
-2.90526 -8.86979 3.41288
-3.01226 -6.4311 4.74448
-2.96326 -7.52949 4.17458
4.58574 -11.2653 8.91678
4.90774 -11.2255 9.11068
4.83574 -12.4268 9.23118
5.15274 -12.382 9.43158
5.53074 -12.3369 9.49528
5.29174 -11.188 9.17428
5.02074 -13.4885 9.61088
5.14874 -14.5475 10.154
5.48374 -14.2356 10.3794
5.33774 -13.4044 9.83538
5.86874 -14.1274 10.4387
5.72374 -13.3267 9.90118
6.27374 -14.1663 10.3763
6.68374 -14.4129 10.148
6.44874 -13.3632 9.60528
6.12174 -13.3357 9.83228
6.22674 -12.3048 9.22588
5.91174 -12.3155 9.42868
5.99374 -11.142 8.91158
5.67474 -11.1584 9.10778
4.56474 -11.3519 7.48638
4.37574 -11.3492 7.81218
4.81274 -12.439 7.76218
4.62874 -12.4503 8.08568
4.57274 -12.4517 8.48018
4.31774 -11.3312 8.20258
5.00674 -13.4451 7.99138
5.15574 -14.3631 8.16298
4.97174 -14.3791 8.48938
4.82374 -13.461 8.31568
4.98374 -14.9291 9.00008
4.76674 -13.4755 8.73208
4.96874 -14.4672 9.48898
4.83174 -13.4984 9.20338
4.64274 -12.4469 8.88808
4.38874 -11.3018 8.59238
5.99274 -11.2269 7.48108
6.34874 -13.0249 7.92528
5.89174 -12.3474 7.56428
5.64474 -13.0606 7.66398
6.61974 -14.6237 8.21678
6.19374 -13.9771 7.91978
5.85474 -14.3019 7.89978
5.47174 -14.3354 7.96638
5.32074 -13.4176 7.79598
5.12774 -12.4144 7.56728
4.88674 -11.3353 7.29008
6.35874 -12.0203 8.79518
6.81274 -14.2972 9.47438
6.91374 -14.7516 8.99388
6.66474 -13.309 8.72468
6.85574 -14.8668 8.58688
6.49774 -12.8003 8.19378
-1.92126 -12.4581 3.31668
-1.71126 -12.4581 2.97728
-2.04126 -13.5081 3.15268
-1.84026 -13.4935 2.79508
-1.67826 -12.8218 2.47468
-2.13526 -14.4097 3.23708
-2.17526 -15.2913 3.62648
-1.99026 -15.1754 2.90458
-1.94026 -14.3875 2.81108
-1.93926 -15.1331 2.34968
-1.87426 -14.3591 2.32578
-2.00126 -15.0455 1.88918
-2.20626 -15.4732 1.57198
-2.11926 -14.3742 1.56678
-2.01326 -13.5184 1.62778
-1.82426 -13.4962 1.96298
-1.88326 -12.5394 1.81988
-1.68926 -12.5023 2.16078
-3.39226 -12.5929 3.31118
-3.06126 -12.5509 3.51658
-3.48126 -13.6398 3.14718
-3.15726 -13.5955 3.36208
-2.76526 -13.5495 3.43418
-2.66226 -12.5105 3.58608
-3.59226 -14.5429 3.23138
-3.71926 -15.4324 3.62048
-3.34026 -15.1605 3.92138
-3.26526 -14.4661 3.48308
-2.94126 -15.0617 4.00288
-2.86526 -14.3931 3.56568
-2.54426 -15.0878 3.92448
-2.46626 -14.393 3.48618
-2.37126 -13.5236 3.36508
-2.26026 -12.4775 3.51958
-3.37626 -12.6762 1.81428
-3.58226 -12.6758 2.15368
-3.46126 -13.6509 1.62218
-3.69226 -14.0196 1.90328
-3.73026 -13.6666 2.36438
-3.65426 -12.6592 2.56178
-3.54726 -14.5047 1.56118
-3.62326 -15.6023 1.56648
-3.81526 -15.5068 1.89498
-3.88126 -15.3106 2.34208
-3.81526 -14.5365 2.31818
-3.85326 -15.2909 2.85398
-3.67126 -13.661 2.78808
-3.59026 -12.6303 2.97028
-2.21826 -12.5816 1.61448
-2.33926 -13.5511 1.42578
-2.73326 -13.5882 1.35738
-2.62426 -12.6228 1.54488
-2.50826 -15.1727 1.37178
-2.44126 -14.4036 1.36678
-2.92626 -16.0153 1.30848
-2.83026 -14.4392 1.29908
-3.28326 -15.2436 1.36868
-3.22026 -14.4749 1.36378
-3.13026 -13.6235 1.42268
-3.03326 -12.6564 1.61138
5.83374 -15.7876 13.0187
5.56074 -16.0838 12.9451
5.84874 -16.1645 13.3808
5.57074 -16.602 13.2308
5.84174 -16.5759 13.5562
6.15874 -16.6073 13.6805
6.11674 -16.1408 13.4831
6.08574 -15.7918 13.1555
5.55374 -17.4311 13.2351
5.85274 -17.4204 13.5785
6.22774 -17.3844 13.6975
6.60374 -17.3545 13.5756
6.89974 -17.313 13.2299
6.73674 -16.4999 13.2263
6.46474 -16.5212 13.5537
6.65574 -15.9837 12.9316
6.33574 -15.7384 13.008
6.38474 -16.1175 13.3788
5.26974 -15.1861 8.26598
5.14074 -15.641 8.63468
5.37474 -16.0936 8.32768
5.11574 -16.2262 9.10568
5.50174 -17.4263 8.33918
5.30774 -17.3849 8.66468
5.22174 -17.3824 9.11678
5.18974 -17.2738 9.68218
5.15674 -16.5788 10.3582
5.08674 -15.9638 9.66298
5.18774 -16.1468 11.1251
5.11674 -15.3446 10.2751
6.41374 -15.5293 8.10728
6.78674 -15.97 8.32218
6.07774 -16.0317 8.06288
5.97074 -15.1246 8.00178
6.90474 -17.3032 8.33368
6.58474 -17.3308 8.13808
6.19374 -17.2951 8.07258
5.81274 -17.3397 8.14468
5.62574 -15.462 8.09828
6.91574 -15.183 10.2694
7.06074 -15.6968 9.65838
7.02474 -15.9857 11.1179
7.08274 -16.0537 9.09798
7.12274 -16.4399 10.7393
7.21374 -17.0963 9.67428
7.19074 -17.2096 9.10888
7.09674 -17.2281 8.65778
-2.04026 -15.9875 3.70208
-1.94226 -16.2461 2.88178
-1.99126 -16.7261 4.67878
-1.90326 -16.7732 2.36908
-1.94926 -15.8519 2.36258
-1.79626 -17.7982 2.98418
-1.80726 -17.9226 2.37248
-1.88726 -17.1122 3.75348
-1.88726 -18.0086 1.90558
-2.07326 -18.0244 1.57968
-2.17226 -16.7894 1.57428
-2.02026 -16.2379 1.90138
-3.19026 -16.6073 7.02738
-3.39726 -16.9283 7.10598
-3.16526 -16.9566 7.49548
-3.44626 -17.3623 7.30668
-3.17526 -17.329 7.71798
-2.86126 -17.3783 7.88758
-2.90026 -16.9362 7.62738
-2.92926 -16.6135 7.21228
-3.17026 -18.1047 7.74418
-2.42726 -18.0367 7.74708
-2.13326 -17.9982 7.31168
-2.29126 -17.2427 7.30628
-2.56026 -17.2728 7.72028
-2.41326 -16.8383 7.10988
-2.67826 -16.5703 7.05008
-2.63626 -16.9081 7.49748
-3.58426 -16.9185 1.56878
-3.79626 -16.6581 1.89568
-3.87026 -16.953 2.36138
-3.90126 -16.0303 2.35498
-3.47526 -18.1525 1.57428
-3.66926 -18.1715 1.89858
-3.81726 -17.983 2.97628
-3.85726 -17.2923 3.74578
-3.90126 -16.7081 2.96918
-3.84126 -16.1697 3.70278
-3.89726 -16.0681 2.94758
-2.50726 -16.5404 1.37618
-2.40426 -17.8471 1.37668
-3.15526 -18.1237 1.37878
-3.27926 -16.611 1.37318
5.33874 -15.1096 11.084
5.60874 -14.8186 11.1209
5.71174 -15.2298 11.9027
6.04374 -15.3324 12.3128
5.96174 -14.7091 11.1547
5.57474 -15.7224 12.5234
6.58774 -15.623 12.4792
6.34174 -15.1745 11.9003
6.66274 -14.9892 11.0744
6.33474 -14.7549 11.1181
5.21874 -17.3063 11.1357
5.26974 -17.4245 11.9614
5.24574 -16.4105 11.8255
5.37274 -17.4436 12.6814
5.38874 -16.4705 12.6577
5.32974 -15.838 11.8972
6.91674 -17.441 11.5099
6.42174 -17.5099 11.7135
6.88974 -17.4258 12.907
6.26274 -17.5035 13.4009
5.58474 -17.5403 12.9134
5.89474 -17.549 12.2369
6.83274 -15.7061 11.8913
7.02274 -16.2781 11.85
6.89174 -16.3378 12.6504
7.08074 -17.2937 12.6746
7.20474 -17.1321 11.128
-3.62426 -15.939 4.65548
-3.33526 -15.6767 4.71878
-3.28426 -16.0637 5.64368
-2.97426 -15.9771 5.67118
-2.97326 -15.5756 4.76798
-2.95626 -16.3084 6.52308
-3.43726 -16.5312 6.40658
-2.44426 -16.4404 6.41048
-2.30026 -15.8249 4.67028
-2.65626 -16.0063 5.64618
-2.60826 -15.6102 4.72158
-3.79926 -18.0094 4.67858
-3.82026 -16.8934 4.67158
-3.76126 -17.4363 5.66058
-3.74226 -17.0321 5.65188
-3.64626 -18.1393 6.60888
-3.62526 -17.2172 6.57448
-3.56026 -16.8104 6.46328
-3.67726 -16.6217 5.62538
-3.76926 -16.3812 4.65028
-2.15326 -18.1733 6.01728
-2.43726 -18.2267 6.05198
-2.78126 -18.267 6.08648
-2.64526 -18.1853 7.53548
-3.11326 -18.2267 7.37278
-3.41526 -18.2886 6.01238
-3.12626 -18.2896 6.04928
-2.18226 -16.4851 5.63118
-2.05226 -16.8776 5.65848
-2.27326 -16.6927 6.46828
-2.13726 -17.0829 6.58358
-1.95326 -17.9845 6.61558
-1.96326 -17.272 5.66758
-1.82226 -17.8286 4.68628
-1.45426 -3.54089 3.67948
-0.996265 -3.12809 3.40748
-1.04726 -3.83749 3.88688
-0.366265 -3.18889 3.41138
-1.50726 -4.152 4.10548
-0.410265 -5.13219 4.89298
-1.00426 -4.84559 4.60148
-0.394265 -4.63069 4.51078
1.84474 -2.874 3.40768
1.22574 -2.71219 3.31298
1.59074 -3.32439 3.64438
0.711735 -3.072 3.38358
0.399735 -2.73919 3.31988
-0.417265 -2.85909 3.31278
2.10974 -4.51579 4.66258
1.62974 -4.93399 4.97968
1.03974 -4.94039 4.88508
0.993735 -4.4693 4.45528
1.22074 -4.0013 4.10148
2.26574 -3.9226 4.20518
2.39074 -3.18179 3.67118
0.0647352 -5.2176 5.11808
0.152735 -5.03829 4.90158
0.617735 -5.1547 5.21478
1.17374 -5.108 5.17588
-2.81826 -2.65289 2.90518
-2.27826 -3.25469 3.37758
-3.37526 -3.2639 3.27158
-3.89226 -2.10039 2.37258
-2.93726 -3.81229 3.71238
-3.77326 -3.8076 3.65968
-4.28626 -3.81259 3.71688
-4.74626 -3.41289 3.63568
-4.23326 -3.01049 3.11528
-1.36326 -5.2878 4.86238
-1.70126 -4.9117 4.67878
-3.52426 -5.554 4.90748
-2.98726 -5.7839 4.94068
-3.59026 -5.16309 4.72518
-2.93926 -5.436 4.92298
-2.43826 -5.4472 4.94328
-2.37826 -5.8289 4.91278
-2.11626 -5.25959 4.90208
-1.77926 -5.64969 4.93258
-4.50326 -4.24419 4.17798
-4.17626 -4.41509 4.12488
-4.08026 -4.9395 4.55618
-4.05826 -5.22759 4.82228
-2.43826 -4.9961 4.69738
-3.24626 -4.91649 4.57218
-3.67426 -5.51449 4.35588
-3.64826 -4.45659 4.16958
-4.03926 -5.41299 4.23228
5.01174 -2.2095 3.11928
5.60274 -2.4846 3.59658
5.25274 -3.2267 3.89238
4.54174 -3.42549 3.90568
3.84674 -3.23549 3.73268
4.22174 -2.5787 3.26748
4.52474 -1.34479 2.36938
5.17474 -3.86759 4.33968
3.43674 -3.38809 3.82408
3.12474 -2.7943 3.39658
3.56474 -2.08389 2.90728
5.51774 -3.2864 4.06058
5.44374 -3.89849 4.52318
5.24074 -4.4269 4.90078
4.77174 -4.81819 5.08158
2.60474 -4.93819 5.01708
3.34274 -4.3493 4.59738
3.20974 -4.79809 4.93458
3.71174 -5.22089 5.20448
4.19974 -4.7534 4.96348
3.16074 -3.89389 4.22298
5.76974 -0.856695 4.90408
5.56174 -1.29939 5.82378
5.71474 -1.70219 5.34178
5.62574 -1.65119 5.89818
5.82274 -1.55599 4.61398
5.71274 -2.7067 4.07888
5.85074 -1.72109 3.87788
5.74174 -2.67869 4.45328
5.10274 -3.35949 7.27058
5.12874 -2.69869 7.16848
5.28474 -2.59689 7.00078
5.45274 -1.96769 6.59138
5.55274 -2.23549 5.82188
5.38174 -1.57439 6.37268
5.22774 -4.6309 5.50548
5.23174 -4.25789 5.97218
5.18974 -4.3085 6.59698
5.41174 -4.1649 4.95418
5.38774 -3.61769 5.58668
5.17074 -3.53079 6.91438
5.64074 -3.3306 4.33698
-5.10626 -2.75309 3.93918
-4.68226 -3.98729 4.36448
-4.80026 -3.5834 4.76938
-4.90226 -2.8926 5.45558
-5.04226 -2.75359 4.79818
-5.51226 -1.59979 3.84298
-4.68326 -3.44599 5.63438
-4.87826 -2.37879 5.79778
-5.17526 -1.91049 4.93848
-4.75926 -2.88339 6.16818
-4.03926 -5.3409 5.34078
-4.49126 -4.48539 4.67558
-4.44826 -4.1814 5.55458
-4.54826 -4.0101 5.34528
-4.14826 -4.8914 5.87398
-4.12426 -4.18899 6.90298
-4.25226 -4.132 6.68798
-4.05326 -5.10059 6.19998
-4.66826 -2.60329 6.28998
-4.56726 -3.2627 6.55768
-4.43926 -3.0415 6.68378
-4.58626 -3.5385 5.98198
-4.30826 -3.6043 6.87858
7.17374 -17.2649 11.9663
7.19474 -17.2928 11.1281
7.19874 -17.2749 9.67438
7.08274 -17.3922 11.9013
7.09874 -17.3753 9.05308
5.33874 -17.5316 9.68168
5.23574 -17.447 9.68208
5.25674 -17.4627 11.1356
5.38774 -17.5408 11.9079
-1.85726 -17.9632 5.73188
-1.82926 -18.0036 4.68618
-1.80826 -17.9957 2.98408
-2.12426 -18.1183 6.92328
-1.94326 -18.1116 5.63878
-1.89526 -18.125 2.55168
-2.48326 -18.1417 1.40398
-2.77726 -18.0195 1.31658
-3.76926 -18.1116 2.36568
-3.65826 -18.2862 2.57528
-3.76026 -18.1801 4.67858
-3.76926 -18.175 2.97638
-3.74326 -18.1356 5.72208
-3.63226 -18.266 5.63218
-3.45526 -18.24 6.91668
-3.46526 -18.1266 7.29648
-2.79826 -18.0719 7.89038
5.59574 -2.27909 5.55148
5.61774 -2.81179 5.01008
5.47974 -3.46099 5.22168
5.34574 -3.57829 5.85608
5.32074 -3.44339 6.11038
5.34474 -2.89669 6.43928
-4.47626 -3.79209 6.11088
-4.40426 -4.12989 5.88118
-4.64726 -3.7281 5.33068
-3.93626 2.48921 1.55338
-4.27326 2.7238 1.99948
-3.70226 1.43831 3.06308
-3.36826 1.21231 2.61128
-3.30826 0.689105 3.70678
-2.97026 0.477905 3.23748
-2.82626 0.131005 2.71798
-3.22226 0.861405 2.10958
-3.78626 2.13011 1.05738
-2.77226 -0.108295 4.43498
-2.42326 -0.274995 3.91308
-2.28526 -0.610095 3.33998
-2.59426 -1.61279 2.53128
-2.31826 -1.11839 2.86848
-3.13426 -0.737995 1.89478
-2.87326 -0.305695 2.24728
-3.53026 0.037005 1.28168
-4.10026 1.3181 0.216681
-3.84126 1.72451 0.579981
-3.27326 0.448605 1.63928
-4.57326 0.965505 0.057281
-4.00426 -0.310195 1.11788
-3.61526 -1.09599 1.75268
-4.42426 -0.934995 1.43748
-5.17026 0.727605 0.058781
-5.05426 -2.328 2.92468
-5.38526 -1.43079 2.25398
-4.90626 -1.3485 1.84638
-5.71226 -0.648395 1.62938
-5.77226 0.601405 0.238381
-5.71326 -1.18679 2.69958
-6.01226 -0.439495 2.88858
-5.18126 -0.848495 4.78198
-5.52226 -0.00259497 4.05068
-5.78626 -0.402295 3.67948
-5.04926 0.341005 4.21348
-4.63126 0.974605 3.87708
-5.38226 2.64931 2.48928
-4.06526 -0.246395 4.90808
-3.88826 0.793305 3.96218
-4.78226 2.75411 2.32628
4.53774 3.5923 2.32348
4.04174 3.4705 1.99788
3.70974 2.109 3.05758
4.00674 1.5064 3.95728
3.45474 1.3001 3.70258
4.70674 1.81751 3.87228
5.14674 3.5946 2.48748
3.06874 0.418205 4.43238
4.36574 0.514805 4.90588
5.57374 0.137105 4.77988
5.81174 1.26601 3.84318
5.23074 1.26971 4.20978
6.08874 0.672205 3.67328
6.31674 0.673505 2.88178
6.03674 -0.541695 3.82468
5.71074 -1.3579 2.90888
5.87674 -0.416095 2.24638
6.15574 -0.115395 2.69108
6.05874 0.412805 1.62388
6.39774 1.775 0.559081
5.89174 1.63841 0.244781
5.55674 0.285405 1.30238
5.36074 -0.612795 1.98808
4.84174 -0.099095 1.43258
5.27874 1.66551 0.057381
3.15974 -1.09509 2.52938
4.07374 -0.401395 1.74798
3.53774 -0.135295 1.89068
3.78974 0.699605 1.27608
4.12174 2.05661 0.215181
4.65074 1.7952 0.054581
4.31774 0.442105 1.11238
3.79474 2.412 0.577181
3.46374 1.05891 1.63378
3.20274 0.243705 2.24318
3.07974 0.665305 2.71368
3.34074 1.4561 2.10408
3.66874 2.80171 1.05428
2.80174 -0.656795 2.86608
2.67874 -0.162195 3.33738
2.75474 0.192205 3.91038
3.15974 1.03241 3.23328
3.75274 3.18141 1.55058
3.42174 1.8274 2.60578
1.06274 -3.56769 3.74728
0.780735 -3.4707 3.64988
0.448735 -3.46149 3.61978
-0.137265 -3.6747 3.74688
0.122735 -3.5297 3.64988
-0.239265 -3.8856 3.90598
-0.215265 -4.1305 4.10168
-0.0902648 -4.3731 4.29848
0.0917352 -4.5504 4.45528
0.320735 -4.6537 4.55048
0.556735 -4.67009 4.58298
0.785735 -4.61169 4.55068
1.14174 -4.2597 4.29778
1.19974 -3.7553 3.90468
4.08874 -4.3711 4.66488
4.63474 -3.83599 4.26958
-3.51926 -4.05459 3.85838
-1.99926 -4.56429 4.38838
-2.43626 -3.88579 3.82068
3 0 1 2
3 2 3 0
3 4 5 0
3 0 3 4
3 6 5 4
3 6 4 7
3 8 9 10
3 8 10 11
3 10 12 13
3 10 13 11
3 14 15 16
3 14 16 17
3 13 12 14
3 13 14 17
3 18 13 17
3 18 17 19
3 17 16 19
3 8 11 18
3 11 13 18
3 20 21 22
3 22 21 23
3 23 24 25
3 25 24 26
3 27 28 29
3 30 31 32
3 31 33 34
3 31 34 32
3 35 28 27
3 35 27 36
3 33 35 36
3 34 33 36
3 37 38 39
3 37 39 40
3 39 41 40
3 41 42 43
3 41 43 40
3 43 37 40
3 44 45 46
3 44 46 47
3 46 48 47
3 47 42 41
3 41 44 47
3 49 50 51
3 49 51 52
3 51 53 54
3 51 54 52
3 54 42 47
3 54 47 52
3 47 48 49
3 47 49 52
3 55 56 57
3 55 57 58
3 57 43 58
3 43 42 54
3 43 54 58
3 54 53 55
3 54 55 58
3 59 60 61
3 59 61 62
3 61 63 64
3 61 64 62
3 64 65 66
3 64 66 62
3 66 59 62
3 67 68 69
3 67 69 70
3 69 71 70
3 71 65 64
3 71 64 70
3 64 63 67
3 64 67 70
3 72 73 74
3 72 74 71
3 74 75 76
3 74 76 71
3 76 65 71
3 71 69 72
3 77 78 79
3 77 79 80
3 79 66 80
3 66 65 76
3 66 76 80
3 76 75 77
3 76 77 80
3 81 78 82
3 81 82 83
3 82 84 85
3 82 85 83
3 85 86 87
3 85 87 83
3 87 88 81
3 87 81 83
3 89 38 90
3 89 90 91
3 90 92 93
3 90 93 91
3 93 86 85
3 93 85 91
3 85 84 89
3 85 89 91
3 94 95 96
3 94 96 97
3 96 98 99
3 96 99 97
3 99 86 93
3 99 93 97
3 93 92 94
3 93 94 97
3 100 101 102
3 100 102 103
3 102 88 87
3 102 87 103
3 87 86 99
3 87 99 103
3 99 98 100
3 99 100 103
3 104 105 106
3 104 106 107
3 106 108 109
3 106 109 107
3 109 110 111
3 109 111 107
3 111 112 104
3 111 104 107
3 113 114 115
3 113 115 116
3 115 117 118
3 115 118 116
3 118 110 109
3 118 109 116
3 109 108 113
3 109 113 116
3 119 45 120
3 119 120 121
3 120 122 123
3 120 123 121
3 123 110 118
3 123 118 121
3 118 117 119
3 118 119 121
3 124 73 125
3 124 125 126
3 125 112 111
3 125 111 126
3 111 110 123
3 111 123 126
3 123 122 124
3 123 124 126
3 82 78 77
3 82 77 127
3 77 75 128
3 77 128 127
3 128 129 127
3 129 84 82
3 129 82 127
3 74 73 124
3 74 124 130
3 124 122 130
3 128 75 74
3 128 74 130
3 120 45 44
3 120 44 131
3 44 41 132
3 44 132 131
3 132 128 130
3 132 130 131
3 130 122 120
3 130 120 131
3 39 38 89
3 39 89 133
3 89 84 129
3 89 129 133
3 129 128 132
3 129 132 133
3 132 41 39
3 132 39 133
3 46 45 134
3 46 134 135
3 134 136 137
3 134 137 135
3 137 138 139
3 137 139 135
3 139 48 46
3 139 46 135
3 140 141 142
3 140 142 143
3 142 144 145
3 142 145 143
3 145 138 137
3 145 137 143
3 137 136 140
3 137 140 143
3 146 147 148
3 146 148 149
3 148 150 151
3 148 151 149
3 151 138 145
3 151 145 149
3 145 144 146
3 145 146 149
3 152 50 49
3 152 49 153
3 49 48 139
3 49 139 153
3 139 138 151
3 139 151 153
3 151 150 152
3 151 152 153
3 115 114 154
3 115 154 155
3 154 156 157
3 154 157 155
3 157 158 159
3 157 159 155
3 159 117 115
3 159 115 155
3 160 161 162
3 160 162 163
3 162 164 165
3 162 165 163
3 165 158 157
3 165 157 163
3 157 156 160
3 157 160 163
3 166 141 140
3 166 140 167
3 140 136 168
3 140 168 167
3 168 158 165
3 168 165 167
3 165 164 166
3 165 166 167
3 134 45 119
3 134 119 169
3 119 117 159
3 119 159 169
3 159 158 168
3 159 168 169
3 168 136 134
3 168 134 169
3 170 171 172
3 170 172 173
3 172 174 175
3 172 175 173
3 175 176 177
3 175 177 173
3 177 178 170
3 177 170 173
3 179 180 181
3 180 182 183
3 180 183 181
3 183 176 175
3 183 175 181
3 175 174 179
3 175 179 181
3 184 161 160
3 184 160 185
3 160 156 186
3 160 186 185
3 186 176 183
3 186 183 185
3 183 182 184
3 183 184 185
3 154 114 187
3 154 187 188
3 187 178 177
3 187 177 188
3 177 176 186
3 177 186 188
3 186 156 154
3 186 154 188
3 189 50 152
3 189 152 190
3 152 150 191
3 152 191 190
3 191 192 193
3 191 193 190
3 193 194 189
3 193 189 190
3 148 147 195
3 148 195 196
3 195 197 198
3 195 198 196
3 198 192 191
3 198 191 196
3 191 150 148
3 191 148 196
3 199 179 200
3 179 174 201
3 179 201 200
3 201 192 198
3 201 198 200
3 198 197 199
3 198 199 200
3 172 171 202
3 172 202 203
3 202 194 193
3 202 193 203
3 193 192 201
3 193 201 203
3 201 174 172
3 201 172 203
3 125 73 204
3 125 204 205
3 204 206 207
3 204 207 205
3 207 208 209
3 207 209 205
3 209 112 125
3 209 125 205
3 210 211 212
3 210 212 213
3 212 214 215
3 212 215 213
3 215 208 207
3 215 207 213
3 207 206 210
3 207 210 213
3 216 217 218
3 216 218 219
3 218 220 221
3 218 221 219
3 221 208 215
3 221 215 219
3 215 214 216
3 215 216 219
3 222 105 104
3 222 104 223
3 104 112 209
3 104 209 223
3 209 208 221
3 209 221 223
3 221 220 222
3 221 222 223
3 69 68 224
3 69 224 225
3 224 226 227
3 224 227 225
3 227 228 229
3 227 229 225
3 229 69 225
3 230 231 232
3 230 232 233
3 232 234 235
3 232 235 233
3 235 228 227
3 235 227 233
3 227 226 230
3 227 230 233
3 236 211 210
3 236 210 237
3 210 206 238
3 210 238 237
3 238 228 235
3 238 235 237
3 235 234 236
3 235 236 237
3 204 73 72
3 204 72 239
3 72 69 229
3 72 229 239
3 229 228 238
3 229 238 239
3 238 206 204
3 238 204 239
3 240 241 242
3 240 242 243
3 242 244 245
3 242 245 243
3 245 246 247
3 245 247 243
3 247 248 240
3 247 240 243
3 249 250 251
3 249 251 252
3 251 253 254
3 251 254 252
3 254 246 245
3 254 245 252
3 245 244 249
3 245 249 252
3 255 231 230
3 255 230 256
3 230 226 257
3 230 257 256
3 257 246 254
3 257 254 256
3 254 253 255
3 254 255 256
3 224 68 258
3 224 258 259
3 258 248 247
3 258 247 259
3 247 246 257
3 247 257 259
3 257 226 224
3 257 224 259
3 260 105 222
3 260 222 261
3 222 220 262
3 222 262 261
3 262 263 264
3 262 264 261
3 264 265 260
3 264 260 261
3 218 217 266
3 218 266 267
3 266 268 269
3 266 269 267
3 269 263 262
3 269 262 267
3 262 220 218
3 262 218 267
3 270 250 249
3 270 249 271
3 249 244 272
3 249 272 271
3 272 263 269
3 272 269 271
3 269 268 270
3 269 270 271
3 242 241 273
3 242 273 274
3 273 265 264
3 273 264 274
3 264 263 272
3 264 272 274
3 272 244 242
3 272 242 274
3 142 141 275
3 142 275 276
3 275 277 278
3 275 278 276
3 278 279 280
3 278 280 276
3 280 144 142
3 280 142 276
3 281 282 283
3 281 283 284
3 283 285 286
3 283 286 284
3 286 279 278
3 286 278 284
3 278 277 281
3 278 281 284
3 287 288 289
3 287 289 290
3 289 291 292
3 289 292 290
3 292 279 286
3 292 286 290
3 286 285 287
3 286 287 290
3 293 147 146
3 293 146 294
3 146 144 280
3 146 280 294
3 280 279 292
3 280 292 294
3 292 291 293
3 292 293 294
3 162 161 295
3 162 295 296
3 295 297 298
3 295 298 296
3 298 299 300
3 298 300 296
3 300 164 162
3 300 162 296
3 301 302 303
3 301 303 304
3 303 305 306
3 303 306 304
3 306 299 298
3 306 298 304
3 298 297 301
3 298 301 304
3 307 282 281
3 307 281 308
3 281 277 309
3 281 309 308
3 309 299 306
3 309 306 308
3 306 305 307
3 306 307 308
3 275 141 166
3 275 166 310
3 166 164 300
3 166 300 310
3 300 299 309
3 300 309 310
3 309 277 275
3 309 275 310
3 180 179 311
3 311 312 313
3 311 313 180
3 313 314 182
3 313 182 180
3 312 315 316
3 316 317 314
3 314 313 316
3 313 312 316
3 318 302 301
3 318 301 319
3 301 297 320
3 301 320 319
3 320 314 319
3 314 317 318
3 314 318 319
3 295 161 184
3 295 184 321
3 184 182 321
3 182 314 320
3 182 320 321
3 320 297 295
3 320 295 321
3 195 147 293
3 195 293 322
3 293 291 322
3 197 195 322
3 289 288 323
3 323 324 325
3 325 197 322
3 325 322 323
3 322 291 289
3 322 289 323
3 326 315 312
3 326 312 327
3 327 197 325
3 325 324 326
3 325 326 327
3 311 179 199
3 197 327 199
3 327 312 311
3 327 311 199
3 212 211 328
3 212 328 329
3 328 330 331
3 328 331 329
3 331 332 329
3 332 214 212
3 332 212 329
3 333 334 335
3 333 335 336
3 335 337 338
3 335 338 336
3 338 332 331
3 338 331 336
3 331 330 333
3 331 333 336
3 339 340 341
3 341 342 343
3 341 343 339
3 343 332 338
3 343 338 339
3 338 337 339
3 344 217 216
3 344 216 345
3 216 214 332
3 216 332 345
3 332 343 345
3 343 342 344
3 343 344 345
3 232 231 346
3 232 346 347
3 346 348 349
3 346 349 347
3 349 350 351
3 349 351 347
3 351 234 232
3 351 232 347
3 352 353 354
3 352 354 355
3 354 356 357
3 354 357 355
3 357 350 349
3 357 349 355
3 349 348 352
3 349 352 355
3 358 334 333
3 358 333 359
3 333 330 360
3 333 360 359
3 360 350 357
3 360 357 359
3 357 356 358
3 357 358 359
3 328 211 236
3 328 236 361
3 236 234 351
3 236 351 361
3 351 350 360
3 351 360 361
3 360 330 328
3 360 328 361
3 251 250 362
3 251 362 363
3 362 364 365
3 362 365 363
3 365 366 367
3 365 367 363
3 367 253 251
3 367 251 363
3 368 369 370
3 368 370 365
3 370 371 372
3 370 372 365
3 372 366 365
3 365 364 368
3 373 353 352
3 352 348 374
3 352 374 373
3 374 366 372
3 374 372 373
3 372 371 373
3 346 231 255
3 346 255 375
3 255 253 367
3 255 367 375
3 367 366 374
3 367 374 375
3 374 348 346
3 374 346 375
3 266 217 344
3 266 344 376
3 344 342 377
3 344 377 376
3 377 378 379
3 377 379 376
3 379 268 266
3 379 266 376
3 341 340 380
3 341 380 381
3 380 382 383
3 380 383 381
3 383 378 377
3 383 377 381
3 377 342 341
3 377 341 381
3 384 369 368
3 384 368 385
3 368 364 386
3 368 386 385
3 386 378 383
3 386 383 385
3 383 382 384
3 383 384 385
3 362 250 270
3 362 270 387
3 270 268 379
3 270 379 387
3 379 378 386
3 379 386 387
3 386 364 362
3 386 362 387
3 388 389 390
3 389 391 392
3 389 392 390
3 392 393 394
3 392 394 390
3 394 395 388
3 394 388 390
3 391 396 397
3 391 397 392
3 397 398 393
3 397 393 392
3 399 400 401
3 399 401 402
3 393 398 399
3 393 399 402
3 403 404 405
3 404 395 394
3 404 394 405
3 394 393 402
3 394 402 405
3 402 401 403
3 402 403 405
3 303 302 406
3 303 406 407
3 406 408 407
3 407 409 305
3 305 303 407
3 408 410 411
3 408 411 407
3 411 412 409
3 411 409 407
3 413 414 415
3 414 416 415
3 409 412 413
3 409 413 415
3 417 282 307
3 305 409 415
3 305 415 307
3 415 416 417
3 415 417 307
3 316 315 418
3 315 419 418
3 418 420 421
3 421 317 316
3 421 316 418
3 419 422 423
3 419 423 418
3 423 424 420
3 423 420 418
3 425 410 408
3 408 426 425
3 426 420 425
3 420 424 425
3 406 302 318
3 406 318 426
3 318 317 421
3 318 421 426
3 421 420 426
3 426 408 406
3 323 288 427
3 323 427 428
3 427 429 428
3 428 430 324
3 324 323 428
3 431 432 428
3 432 433 430
3 432 430 428
3 428 429 431
3 434 422 419
3 434 419 326
3 430 433 434
3 430 434 326
3 324 430 326
3 326 419 315
3 335 334 435
3 335 435 436
3 435 437 436
3 436 438 439
3 439 337 335
3 439 335 436
3 440 441 438
3 438 436 440
3 436 437 442
3 436 442 440
3 443 444 445
3 443 445 446
3 438 441 443
3 438 443 446
3 340 339 446
3 339 337 439
3 339 439 446
3 439 438 446
3 446 445 340
3 447 448 449
3 448 450 451
3 448 451 449
3 451 452 453
3 451 453 449
3 453 454 447
3 453 447 449
3 450 455 451
3 455 452 451
3 456 457 458
3 456 458 459
3 452 456 459
3 460 461 462
3 461 454 453
3 461 453 462
3 453 452 459
3 453 459 462
3 459 458 460
3 459 460 462
3 369 463 464
3 369 464 370
3 464 465 466
3 464 466 370
3 466 371 370
3 463 467 468
3 463 468 464
3 468 465 464
3 469 470 471
3 465 469 471
3 472 353 373
3 472 373 473
3 373 371 466
3 373 466 473
3 466 465 471
3 466 471 473
3 471 472 473
3 340 445 474
3 340 474 380
3 474 382 380
3 445 444 475
3 445 475 474
3 475 382 474
3 476 467 463
3 476 463 477
3 382 476 477
3 382 477 384
3 477 463 369
3 477 369 384
3 283 282 478
3 283 478 479
3 478 480 479
3 480 481 482
3 480 482 479
3 482 285 283
3 482 283 479
3 483 389 388
3 388 395 481
3 481 480 388
3 480 478 483
3 480 483 388
3 404 403 484
3 484 485 404
3 485 481 404
3 481 395 404
3 486 288 287
3 486 287 487
3 287 285 482
3 287 482 487
3 482 481 485
3 482 485 487
3 485 484 486
3 485 486 487
3 414 413 488
3 414 488 416
3 488 489 490
3 488 490 416
3 491 396 391
3 491 391 492
3 490 489 491
3 490 491 492
3 483 478 493
3 483 493 389
3 493 490 492
3 493 492 389
3 492 391 389
3 478 282 417
3 416 490 493
3 416 493 417
3 493 478 417
3 6 7 494
3 6 494 495
3 495 5 6
3 495 494 496
3 495 496 497
3 497 498 499
3 498 1 499
3 499 495 497
3 0 5 495
3 495 499 0
3 499 1 0
3 427 288 486
3 486 484 500
3 486 500 427
3 500 501 429
3 500 429 427
3 403 401 502
3 502 501 500
3 502 500 403
3 500 484 403
3 401 400 503
3 401 503 502
3 503 501 502
3 429 501 431
3 501 504 431
3 354 353 505
3 354 505 506
3 505 507 506
3 507 508 509
3 507 509 506
3 509 356 354
3 509 354 506
3 447 454 510
3 510 508 507
3 510 507 447
3 507 505 511
3 507 511 447
3 512 513 514
3 512 514 461
3 514 508 510
3 514 510 461
3 510 454 461
3 513 334 358
3 513 358 515
3 358 356 509
3 358 509 515
3 509 508 514
3 509 514 515
3 514 513 515
3 470 516 517
3 516 518 517
3 518 519 517
3 517 471 470
3 520 450 521
3 521 519 518
3 518 520 521
3 448 447 511
3 448 511 522
3 511 505 523
3 511 523 522
3 523 519 521
3 523 521 522
3 521 450 448
3 521 448 522
3 505 353 472
3 505 472 524
3 472 471 517
3 472 517 524
3 517 519 523
3 517 523 524
3 523 505 524
3 9 525 526
3 9 526 10
3 526 527 12
3 526 12 10
3 525 528 526
3 528 527 526
3 529 530 531
3 527 528 529
3 527 529 531
3 12 527 531
3 12 531 14
3 531 530 15
3 531 15 14
3 435 334 513
3 513 532 435
3 532 533 437
3 532 437 435
3 512 461 460
3 512 460 534
3 460 458 535
3 460 535 534
3 535 533 532
3 535 532 534
3 532 513 512
3 532 512 534
3 458 457 536
3 458 536 535
3 536 537 535
3 537 533 535
3 538 440 442
3 538 442 437
3 437 533 537
3 537 538 437
3 539 101 540
3 539 540 541
3 540 542 541
3 541 543 539
3 544 105 545
3 544 545 546
3 545 543 541
3 545 541 546
3 96 95 547
3 96 547 548
3 547 549 550
3 547 550 548
3 550 551 548
3 551 98 96
3 551 96 548
3 540 101 100
3 540 100 552
3 100 98 551
3 100 551 552
3 551 550 542
3 551 542 552
3 542 540 552
3 553 114 554
3 554 555 553
3 555 556 553
3 553 557 558
3 558 557 549
3 547 95 559
3 547 559 549
3 559 558 549
3 106 105 544
3 106 544 560
3 544 546 561
3 544 561 560
3 561 555 562
3 561 562 560
3 562 108 106
3 562 106 560
3 554 114 113
3 554 113 563
3 113 108 562
3 113 562 563
3 562 555 563
3 555 554 563
3 564 101 565
3 566 567 564
3 566 564 565
3 568 566 565
3 565 543 568
3 569 566 568
3 570 571 572
3 570 572 569
3 572 567 566
3 572 566 569
3 565 101 539
3 565 539 543
3 545 105 573
3 573 574 545
3 574 543 545
3 273 241 575
3 273 575 576
3 575 577 578
3 575 578 576
3 578 579 580
3 578 580 576
3 580 265 273
3 580 273 576
3 581 579 578
3 581 578 577
3 573 105 260
3 573 260 582
3 260 265 580
3 260 580 582
3 580 579 581
3 580 581 582
3 581 574 573
3 581 573 582
3 583 571 570
3 583 570 584
3 570 569 584
3 585 583 584
3 575 241 586
3 575 586 585
3 586 583 585
3 585 584 577
3 577 575 585
3 587 588 589
3 588 590 591
3 592 593 594
3 594 595 592
3 595 596 597
3 595 597 592
3 597 598 592
3 595 594 599
3 600 601 596
3 601 95 602
3 602 598 597
3 602 597 601
3 597 596 601
3 594 593 603
3 603 604 599
3 603 599 594
3 605 171 606
3 605 606 599
3 599 604 605
3 187 114 607
3 607 608 609
3 609 610 607
3 610 178 187
3 610 187 607
3 599 606 611
3 606 171 170
3 170 178 610
3 170 610 606
3 610 609 611
3 610 611 606
3 559 95 601
3 601 600 559
3 600 558 559
3 612 558 600
3 607 114 553
3 558 612 553
3 612 608 607
3 612 607 553
3 613 56 614
3 613 614 615
3 614 616 615
3 617 613 615
3 618 593 619
3 617 615 620
3 617 620 619
3 620 618 619
3 51 50 621
3 51 621 622
3 621 623 622
3 623 624 53
3 623 53 622
3 53 51 622
3 624 625 616
3 614 56 55
3 614 55 626
3 55 53 626
3 53 624 626
3 624 616 614
3 624 614 626
3 202 171 627
3 628 629 627
3 629 194 202
3 629 202 627
3 630 631 628
3 632 629 628
3 628 627 630
3 621 50 189
3 189 194 629
3 189 629 621
3 629 632 621
3 632 623 621
3 603 593 618
3 603 618 633
3 618 620 633
3 633 630 604
3 604 603 633
3 627 171 605
3 627 605 630
3 605 604 630
3 634 571 635
3 635 636 634
3 636 637 638
3 636 638 634
3 638 639 634
3 636 640 637
3 641 60 642
3 641 642 637
3 642 639 638
3 642 638 637
3 637 643 641
3 586 241 644
3 645 583 586
3 645 586 644
3 646 647 645
3 646 645 648
3 645 644 648
3 636 635 645
3 635 571 583
3 583 645 635
3 258 68 649
3 649 650 258
3 650 651 258
3 651 248 258
3 644 241 240
3 240 248 651
3 240 651 644
3 651 650 648
3 651 648 644
3 61 60 641
3 61 641 652
3 641 643 652
3 643 653 654
3 643 654 652
3 654 63 61
3 654 61 652
3 643 655 653
3 653 650 656
3 649 68 67
3 649 67 656
3 67 63 654
3 67 654 656
3 654 653 656
3 656 650 649
3 504 501 657
3 657 658 504
3 658 659 504
3 657 501 503
3 496 494 660
3 660 657 503
3 660 503 496
3 503 400 496
3 494 7 661
3 494 661 660
3 661 659 658
3 661 658 660
3 658 657 660
3 432 431 504
3 504 659 432
3 659 433 432
3 661 433 659
3 7 422 661
3 422 434 661
3 434 433 661
3 422 7 423
3 7 4 423
3 4 424 423
3 410 425 4
3 425 424 4
3 410 4 3
3 3 412 411
3 411 410 3
3 2 1 662
3 663 412 3
3 663 3 662
3 3 2 662
3 412 663 413
3 413 663 664
3 413 664 488
3 664 489 488
3 662 1 665
3 665 489 664
3 664 663 662
3 664 662 665
3 498 396 491
3 491 489 665
3 491 665 498
3 665 1 498
3 497 398 397
3 397 396 498
3 397 498 497
3 496 400 399
3 496 399 497
3 399 398 497
3 538 537 666
3 666 667 538
3 667 668 440
3 667 440 538
3 666 537 536
3 669 528 525
3 525 670 669
3 670 666 536
3 670 536 669
3 536 457 669
3 9 671 670
3 671 668 667
3 671 667 670
3 667 666 670
3 670 525 9
3 668 441 440
3 671 9 8
3 671 441 668
3 8 444 443
3 443 441 671
3 671 8 443
3 444 672 475
3 672 673 475
3 673 382 475
3 444 8 18
3 444 18 672
3 19 467 476
3 476 673 672
3 672 18 19
3 672 19 476
3 476 382 673
3 674 465 468
3 467 19 468
3 19 16 675
3 19 675 468
3 675 674 468
3 16 15 675
3 675 676 677
3 677 674 675
3 469 465 674
3 674 677 469
3 677 676 469
3 516 470 469
3 469 676 516
3 676 678 516
3 678 518 516
3 675 15 679
3 15 530 679
3 679 678 676
3 676 675 679
3 530 529 680
3 680 681 520
3 520 678 679
3 520 679 680
3 679 530 680
3 681 450 520
3 520 518 678
3 455 450 681
3 682 452 455
3 528 682 455
3 528 455 529
3 455 681 680
3 455 680 529
3 669 457 456
3 669 456 528
3 456 682 528
3 456 452 682
3 625 683 616
3 683 615 616
3 684 615 683
3 615 684 620
3 633 620 684
3 633 684 685
3 630 633 685
3 631 630 685
3 628 631 686
3 686 687 632
3 632 628 686
3 688 624 623
3 655 643 640
3 653 655 689
3 650 653 689
3 689 690 650
3 646 648 690
3 648 650 690
3 636 645 647
3 647 691 636
3 691 640 636
3 640 643 637
3 692 693 694
3 692 694 695
3 694 696 697
3 694 697 695
3 697 698 699
3 697 699 695
3 699 700 692
3 699 692 695
3 701 78 81
3 701 81 702
3 81 88 703
3 81 703 702
3 703 698 697
3 703 697 702
3 697 696 701
3 697 701 702
3 102 101 704
3 102 704 705
3 704 706 707
3 704 707 705
3 707 698 703
3 707 703 705
3 703 88 102
3 703 102 705
3 708 709 710
3 708 710 711
3 710 700 699
3 710 699 711
3 699 698 707
3 699 707 711
3 707 706 708
3 707 708 711
3 712 709 708
3 712 708 713
3 708 706 714
3 708 714 713
3 714 715 713
3 715 716 712
3 715 712 713
3 704 101 564
3 704 564 714
3 564 567 714
3 567 715 714
3 714 706 704
3 572 571 717
3 717 718 719
3 717 719 572
3 719 715 567
3 719 567 572
3 720 30 721
3 720 721 719
3 721 716 715
3 721 715 719
3 719 718 720
3 31 30 720
3 31 720 722
3 720 718 722
3 723 33 31
3 723 31 722
3 717 571 634
3 639 723 722
3 639 722 634
3 722 718 717
3 722 717 634
3 642 60 724
3 724 725 726
3 724 726 642
3 726 723 639
3 726 639 642
3 35 33 723
3 723 726 35
3 726 725 28
3 726 28 35
3 29 28 727
3 28 725 727
3 728 729 29
3 728 29 727
3 724 60 59
3 59 66 730
3 730 728 727
3 730 727 59
3 727 725 724
3 727 724 59
3 79 78 701
3 701 696 731
3 701 731 79
3 731 728 730
3 731 730 79
3 730 66 79
3 694 693 732
3 694 732 731
3 732 729 728
3 732 728 731
3 731 696 694
3 733 734 735
3 733 735 736
3 735 737 736
3 738 739 733
3 738 733 736
3 740 38 37
3 37 43 741
3 741 738 736
3 741 736 37
3 736 737 740
3 736 740 37
3 57 56 742
3 742 743 744
3 742 744 57
3 744 738 741
3 744 741 57
3 741 43 57
3 743 21 20
3 743 20 744
3 20 739 738
3 20 738 744
3 23 21 743
3 23 743 745
3 746 24 23
3 746 23 745
3 742 56 613
3 613 617 747
3 747 746 745
3 747 745 613
3 745 743 742
3 745 742 613
3 619 593 748
3 748 749 750
3 748 750 619
3 750 746 747
3 750 747 619
3 747 617 619
3 751 752 26
3 751 26 750
3 26 24 746
3 26 746 750
3 750 749 751
3 753 752 751
3 753 751 754
3 751 749 755
3 751 755 754
3 755 756 754
3 756 757 753
3 756 753 754
3 748 593 592
3 748 592 755
3 592 598 755
3 598 756 755
3 755 749 748
3 602 95 758
3 602 758 759
3 758 760 759
3 759 756 598
3 598 602 759
3 761 762 763
3 761 763 764
3 763 757 756
3 763 756 764
3 756 759 764
3 759 760 761
3 759 761 764
3 765 762 761
3 765 761 766
3 761 760 767
3 761 767 766
3 767 768 769
3 767 769 766
3 769 770 765
3 769 765 766
3 758 95 94
3 758 94 771
3 94 92 772
3 94 772 771
3 772 768 767
3 772 767 771
3 767 760 758
3 767 758 771
3 90 38 740
3 90 740 773
3 740 737 774
3 740 774 773
3 774 768 772
3 774 772 773
3 772 92 90
3 772 90 773
3 735 734 775
3 735 775 776
3 775 770 769
3 775 769 776
3 769 768 774
3 769 774 776
3 774 737 735
3 774 735 776
3 550 549 777
3 550 777 778
3 779 550 778
3 780 542 781
3 542 550 779
3 542 779 781
3 541 542 780
3 541 780 782
3 783 546 541
3 783 541 782
3 783 784 546
3 784 785 546
3 561 546 785
3 785 786 561
3 786 787 561
3 787 555 561
3 787 788 555
3 788 556 555
3 556 789 553
3 789 557 553
3 777 549 790
3 549 557 790
3 608 791 609
3 791 599 611
3 611 609 791
3 599 792 595
3 792 599 791
3 584 569 793
3 584 793 590
3 577 584 590
3 590 588 577
3 577 588 587
3 587 581 577
3 794 574 581
3 587 794 581
3 543 574 794
3 794 795 543
3 568 543 795
3 568 793 569
3 589 588 591
3 688 623 632
3 632 687 688
3 688 625 624
