0.747696
0.31209
0.428386
0.800854
0.570091
0.335313
0.660411
0.252827
0.59005
0.7015
0.609724
0.788912
0.482506
0.661878
0.666296
0.676841
0.492042
0.484775
0.366032
0.357424
0.419074
0.404851
0.791516
0.603002
0.407594
0.443454
0.212014
0.216943
0.570726
0.305176
0.525552
0.346615
0.714644
0.533027
0.630246
0.657088
0.669069
0.680213
0.67722
0.663694
0.691198
0.652329
0.686771
0.730076
0.694844
0.653666
0.662602
0.710055
0.541241
0.478605
0.635582
0.472108
0.657397
0.668066
0.570789
0.654101
0.612651
0.508958
0.595981
0.769528
0.629585
0.628765
0.472448
0.438534
0.566206
0.529006
0.718837
0.53928
0.41069
0.38057
0.712748
0.442973
0.737268
0.519265
0.685402
0.61737
0.363562
0.781904
0.819945
0.506197
0.225692
0.300795
0.413023
0.293884
0.297047
0.312014
0.726527
0.302202
0.564593
0.264737
0.310159
0.343882
0.432625
0.329194
0.644503
0.352349
0.695172
0.733688
0.724798
0.752701
0.441512
0.687785
0.743443
0.311607
0.553903
0.268158
0.714285
0.273406
0.32595
0.604256
0.498308
0.599044
0.262554
0.274661
0.852489
0.612037
0.412335
0.705439
0.358362
0.286304
0.325294
0.311041
0.747743
0.717895
0.607759
0.462702
0.278494
0.658585
0.287565
0.506074
0.476455
0.418403
0.6924
0.54136
0.767008
0.474403
0.511456
0.55415
0.584978
0.654324
0.616381
0.687345
0.282593
0.296332
0.470222
0.243203
0.40004
0.653613
0.529795
0.516973
0.556866
0.242952
0.442517
0.736888
0.619037
0.694236
0.611075
0.719675
0.569832
0.186594
0.199149
0.221185
0.719503
0.135597
0.130757
0.443075
0.385752
0.323451
0.213739
0.453827
0.0924562
0.492246
0.0729245
0.570948
0.76672
0.42554
0.580639
0.471201
0.485626
0.258458
0.346014
0.180857
0.163892
0.132095
0.268429
0.453463
0.836355
0.172489
0.339265
0.206309
0.156173
0.396343
0.349585
0.43701
0.218114
0.44992
0.568122
0.486751
0.263252
0.565555
0.380044
0.370978
0.138503
0.0935305
0.115095
0.561923
0.38621
0.40103
0.384778
0.763098
0.724375
0.464776
0.197875
0.680066
0.25966
0.524899
0.216087
0.369019
0.2407
0.570542
0.0976883
0.720334
0.188003
0.459501
0.219313
0.362866
0.393724
0.304976
0.208849
0.29084
0.234346
0.182358
0.358107
0.381767
0.243509
0.236828
0.22846
0.254619
0.378167
0.31013
0.342977
0.293259
0.326497
0.2696
0.246076
0.263594
0.233881
0.236821
0.242377
0.221551
0.401607
0.213693
0.206274
0.28859
0.31557
0.268945
0.123211
0.536411
0.340663
0.20965
0.653196
0.244478
0.497378
0.529403
0.737358
0.611124
0.587707
0.691549
0.585184
0.657749
0.560934
0.691446
0.45324
0.508473
0.421846
0.490108
0.551639
0.575062
0.5716
0.704849
0.422945
0.584094
0.435642
0.186946
0.315681
0.46435
0.370638
0.286317
0.180734
0.245281
0.469565
0.196147
0.22046
0.175101
0.167299
0.104101
0.295351
0.706207
0.619668
0.67952
0.656988
0.332837
0.198386
0.494899
0.610684
0.560589
0.492818
0.532744
0.505414
0.6228
0.591178
0.534749
0.220309
0.380426
0.155438
0.182904
0.160487
0.237314
0.499337
0.21681
0.198339
0.172891
0.355751
0.411429
0.512138
0.243634
0.250221
0.498816
0.438652
0.452489
0.605454
0.617014
0.541785
0.503985
0.418992
0.613253
0.695744
0.311104
0.485753
0.4622
0.601996
0.198759
0.611989
0.741657
0.296606
0.233455
0.253013
0.241511
0.267276
0.191806
0.11909
0.303258
0.569674
0.28416
0.373443
0.318485
0.226325
0.284055
0.271665
0.230536
0.435195
0.583082
0.358451
0.461759
0.274113
0.314015
0.339426
0.370022
0.424461
0.378041
0.35467
0.408882
0.311335
0.288743
0.336627
0.38905
0.352218
0.307584
0.237049
0.292601
0.228226
0.233741
0.300707
0.318028
0.309721
0.2868
0.253866
0.320737
0.336293
0.30676
0.369421
0.323665
0.440544
0.437698
0.517939
0.339931
0.398682
0.33326
0.258812
0.213421
0.49969
0.373331
0.342434
0.36893
0.837169
0.38693
0.294113
0.358146
0.438023
0.42426
0.460757
0.395362
0.317799
0.356801
0.813791
0.370947
0.26828
0.202984
0.336459
0.115471
0.238823
0.216128
0.265458
0.156655
0.249107
0.224181
0.336796
0.238545
0.276648
0.221015
0.308688
0.235552
0.297232
0.250568
0.247639
0.356905
0.157501
0.199182
0.285829
0.206167
0.272856
0.135407
0.164802
0.241667
0.153503
0.311163
0.404431
0.23357
0.594052
0.390233
0.465981
0.376454
0.21056
0.260564
0.402849
0.350869
0.330861
0.667138
0.397112
0.388702
0.360895
0.3198
0.379238
0.375673
0.282318
0.336364
0.284971
0.176113
0.435791
0.335923
0.30758
0.308746
0.256018
0.206936
0.288013
0.194541
0.221105
0.304477
0.261497
0.290994
0.44222
0.374535
0.418421
0.738828
0.482282
0.498718
0.499427
0.488434
0.439721
0.457347
0.395457
0.724527
0.428928
0.403496
0.648982
0.493914
0.553375
0.490178
0.340734
0.406295
0.449443
0.419176
0.490251
0.658413
0.467083
0.388009
0.690427
0.576017
0.465636
0.574868
0.370855
0.474346
0.279681
0.294623
0.31842
0.256108
0.318042
0.290204
0.517847
0.290805
0.364531
0.373755
0.0428121
0.400244
0.466439
0.45902
0.733974
0.423789
0.219686
0.430477
0.517263
0.469816
0.12595
0.0679718
0.117251
0.458751
0.327775
0.334304
0.334651
0.34617
0.333024
0.33187
0.315606
0.37891
0.372011
0.356537
0.365329
0.34093
0.325054
0.331313
0.354584
0.59964
0.63868
0.253013
0.564843
0.334045
0.561652
0.211404
0.35907
0.114563
0.514998
0.191461
0.44524
0.387994
0.431816
0.449897
0.166038
0.466833
0.50014
0.608397
0.466378
0.314671
0.446611
0.375088
0.584578
0.804158
0.601158
0.507932
0.511414
0.489871
0.706776
0.644176
0.708498
0.750487
0.486239
0.519398
0.597472
0.515371
0.44615
0.594481
0.531715
0.51554
0.657666
0.682335
0.267496
0.583495
0.556305
0.719529
0.527722
0.515896
0.511702
0.104065
0.142633
0.518611
0.285742
0.596106
0.553283
0.384904
0.510242
0.396687
0.458162
0.695217
0.319172
0.395644
0.460399
0.161661
0.46271
0.268143
0.524876
0.27901
0.183908
0.660068
0.576543
0.426342
0
0.547411
0.378909
0.821225
0.136379
0.520456
1
0.199664
0.462503
0.541736
0.620143
0.763499
0.415283
0.439392
0.483265
0.905082
0.720615
0.319262
0.670753
0.473888
0.383712
0.362469
0.395366
0.520558
0.460402
0.470402
0.592604
0.266609
0.486235
0.856168
0.629024
0.614392
0.374893
0.501414
0.149623
0.127308
0
0.108714
0.289491
0.242719
0.3228
0.243451
0.522459
0.269305
0.323792
0.258818
0.304272
0.298285
0.273868
0.319398
0.307401
0.273107
0.253196
0.308928
0.363168
0.30702
0.338553
0.241216
0.227434
0.323805
0.238367
0.228432
0.20852
0.285176
0.226286
0.327681
0.312034
0.313086
0.271589
0.278286
0.306693
0.283693
0.661379
0.287273
0.33724
0.362354
0.267125
0.340813
0.512306
0.471481
0.443344
0.469369
0.314521
0.894372
0.33047
0.499243
0.675954
0.870085
0.455197
0.574379
0.499317
0.911988
0.484949
0.825884
0.495759
0.521355
0.618748
0.54369
0.726973
0.729974
0.416006
0.43275
0.351235
0.344298
0.353605
0.310108
0.350649
0.646517
0.333525
0.346677
0.367303
0.34993
0.386253
0.385932
0.578516
0.635096
0.416415
0.448148
0.429169
0.406802
0.673412
0.376355
0.392125
0.430993
0.507084
0.464373
0.432816
0.372278
0.374413
0.419831
0.397525
0.383247
0.360866
0.337915
0.381167
0.338098
0.464648
0.374005
0.353152
0.696587
0.47302
0.468162
0.724986
0.724039
0.343063
0.347493
0.41678
0.364623
0.457998
0.70441
0.362457
0.375805
0.349767
0.471453
0.470498
0.453975
0.28548
0.350305
0.517132
0.330096
0.298293
0.392554
0.286529
0.283752
0.610464
0.66759
0.640465
0.563454
0.672689
0.76359
0.614846
0.561446
0.308869
0.626453
0.59375
0.6773
0.65075
0.677844
0.646031
0.71012
0.673151
0.274556
0.493835
0.698125
0.73494
0.706976
0.684335
0.711085
0.619131
0.51219
0.765439
0.837918
0.683329
0.659442
0.28338
0.616565
0.580504
0.716596
0.585864
0.54254
0.617061
0.452699
0.492683
0.558078
0.352776
0.609857
0.325079
0.392463
0.291475
0.540454
0.682893
0.665049
0.666037
0.319581
0.629429
0.668513
0.747028
0.755869
0.301492
0.290824
0.492195
0.589167
0.565642
0.585332
0.65925
0.447246
0.632471
0.582118
0.781883
0.659356
0.261395
0.866131
0.691513
0.689948
0.525501
0.580313
0.681412
0.245758
0.650593
0.64694
0.342411
0.758789
0.42162
0.226935
0.55541
0.592457
0.601156
0.697982
0.378842
0.355145
0.47845
0.195697
0.518494
0.662572
0.801271
0.562008
0.548692
0.426951
0.557223
0.567602
0.577456
0.877388
0.342023
0.725585
0.891354
0.59696
0.745496
0.46432
0.246145
0.526495
0.172705
0.605724
0.839807
0.852542
0.770472
0.736155
0.255863
0.226335
0.223423
0.683176
0.589268
0.689734
0.3084
0.657076
0.524536
0.427766
0.882571
0.553912
0.534461
0.859248
0.217243
0.596396
