OFF
427 820 0
9.97286 2.44729 -2.36594
10.141 1.72769 -1.82094
10.1999 1.71629 -1.84194
10.0331 2.46249 -2.40594
10.1838 1.71049 -1.94894
10.0193 2.46999 -2.51194
9.49806 3.11719 -2.92694
9.51336 3.09719 -2.82594
9.46286 3.05719 -2.77194
10.0617 1.70859 -2.23294
9.80276 1.70859 -2.78294
9.65216 2.47249 -3.25694
9.90206 2.47249 -2.76694
9.15836 3.12389 -3.56994
9.38906 3.12389 -3.14994
8.43876 3.62109 -3.70294
7.61096 3.92249 -3.63394
7.79626 3.92249 -3.33594
8.64606 3.62109 -3.34994
7.88886 3.91079 -3.17394
8.74606 3.61119 -3.15894
7.91656 3.87569 -3.09094
7.90656 3.80549 -3.02894
8.73326 3.52169 -3.00394
8.76616 3.58139 -3.06594
8.40136 -0.468914 0.119058
7.46146 -0.836814 0.586058
7.74796 -1.12831 0.683058
8.46536 -0.604414 0.176058
7.83256 -1.25131 0.610058
8.50136 -0.678314 0.0860577
9.24536 0.0571859 -0.569942
9.25756 0.0949859 -0.471942
9.21996 0.167486 -0.495942
7.77246 -1.29231 0.297058
7.57646 -1.29231 -0.344942
8.20146 -0.702914 -0.861942
8.41646 -0.702914 -0.228942
8.89946 0.0445859 -1.49894
9.13516 0.0445859 -0.880942
9.49256 0.873786 -2.16794
9.74486 0.873786 -1.57694
9.86606 0.879786 -1.27494
9.84496 0.933786 -1.16994
9.88856 0.897786 -1.17094
4.19096 2.02479 -4.94894
3.83286 2.77869 -4.65494
4.30946 3.02349 -5.03794
4.66296 2.33339 -5.34194
4.87756 3.27539 -5.49794
5.22426 2.67919 -5.81194
5.64246 1.96019 -6.17994
5.09106 1.50529 -5.69994
4.62456 1.12009 -5.29294
5.43916 3.44219 -5.96194
5.85496 3.48179 -6.30894
6.21806 3.22529 -6.64094
5.77646 2.97519 -6.27694
6.61986 2.76099 -7.01094
6.17766 2.40019 -6.63994
6.89226 2.18739 -7.25994
6.99306 1.70969 -7.34594
6.78446 1.23819 -7.16394
6.50966 1.76519 -6.93194
6.38506 0.614986 -6.79794
6.04606 1.22619 -6.52294
5.88616 -0.0129141 -6.33094
5.42886 -0.538414 -5.89994
5.06126 0.215486 -5.62994
5.52256 0.677186 -6.04994
7.10496 3.87319 -2.81294
7.08976 3.94109 -2.86394
7.05216 3.97509 -2.93594
6.28156 3.87429 -2.54094
6.33096 3.82459 -2.46594
6.37656 3.74409 -2.41794
6.79246 3.98649 -3.34594
6.96286 3.98649 -3.07994
6.03106 3.89079 -2.93094
6.19236 3.89079 -2.67994
5.37486 3.71359 -2.48294
4.87166 3.53259 -2.09594
5.02546 3.53259 -1.84594
5.53116 3.71359 -2.23494
5.12236 3.47589 -1.68394
5.62246 3.67849 -2.08694
5.20496 3.30579 -1.53594
5.33816 2.90129 -1.28794
5.76916 3.43799 -1.90594
5.68526 3.57319 -1.97694
7.25896 0.745786 -1.46694
7.62976 0.515786 -1.33394
7.97496 0.581686 -1.51694
7.58226 0.934886 -1.79394
8.38656 0.824286 -1.81194
7.98496 1.18269 -2.11294
7.52886 1.63889 -2.39994
7.13856 1.37649 -2.05394
6.83546 1.17989 -1.70194
8.70046 1.20019 -2.12694
8.84856 1.53619 -2.35294
8.66476 1.82609 -2.61294
8.34536 1.51459 -2.41294
8.30996 2.18039 -2.86394
7.94126 1.92199 -2.68694
7.87116 2.48119 -2.99294
7.51676 2.66299 -3.00394
7.15516 2.64539 -2.94294
7.50286 2.31099 -2.86194
6.75896 2.53589 -2.75494
7.09486 2.11589 -2.62794
6.49336 2.32419 -2.45894
6.39576 2.09919 -2.17794
6.52906 1.69829 -1.97294
6.77066 1.87539 -2.30294
5.67006 2.74619 -1.31794
5.63846 1.87499 -0.664942
5.82436 1.88499 -0.743942
6.12186 0.845186 -0.122942
6.26126 0.929186 -0.225942
6.40956 1.01559 -0.352942
6.02226 1.87409 -0.831942
5.88956 2.66439 -1.36894
6.72206 -0.106014 0.323058
7.57816 -0.405614 0.288058
6.85516 0.0781859 0.167058
7.66356 -0.146314 0.0810577
6.97426 0.274786 -0.0149423
7.72306 0.0190859 -0.102942
7.74986 0.103286 -0.289942
7.13276 0.471886 -0.379942
7.07246 0.405286 -0.191942
6.61566 1.11709 -0.678942
6.53496 1.08319 -0.501942
6.25776 1.86839 -1.10394
6.11836 2.55539 -1.57194
6.03956 2.60729 -1.44994
6.17066 1.87609 -0.949942
10.0381 1.74679 -1.79694
9.76756 0.993686 -1.17994
9.90716 1.76429 -1.78594
9.66766 1.06009 -1.21194
9.13416 0.410986 -0.637942
9.18076 0.284386 -0.552942
9.76406 1.77079 -1.80794
9.62486 1.75709 -1.87894
9.44556 1.14269 -1.38294
9.55656 1.11559 -1.27494
9.00646 0.572786 -0.887942
9.07446 0.512886 -0.745942
8.40786 0.181686 -0.491942
8.42686 0.101086 -0.321942
8.42476 -0.0460141 -0.166942
8.40206 -0.259414 -0.00794235
7.88656 3.68849 -2.93094
8.67476 3.42229 -2.90594
7.85456 3.54269 -2.82994
8.59646 3.29749 -2.80694
9.26016 2.90489 -2.60794
9.37436 2.99039 -2.68894
7.80846 3.38589 -2.76094
7.74616 3.23609 -2.75694
8.40446 3.02959 -2.73394
8.50436 3.16179 -2.73794
9.00396 2.70879 -2.56994
9.13256 2.80839 -2.55894
9.44416 2.28189 -2.27994
9.58766 2.33989 -2.24194
9.73416 2.38649 -2.25994
9.86786 2.42219 -2.30994
7.12716 3.75979 -2.73294
6.45386 3.63519 -2.36494
6.53536 3.50939 -2.32394
7.14576 3.61839 -2.65494
5.92406 3.31339 -1.87594
6.08866 3.20049 -1.88094
6.25646 3.00759 -2.00094
6.20166 3.10029 -1.91694
6.61316 3.25309 -2.36094
6.59316 3.37869 -2.31494
7.12936 3.31989 -2.62294
7.15006 3.46599 -2.60794
7.73706 0.118786 -0.503942
7.13796 0.476886 -0.594942
7.70166 0.154986 -0.755942
7.12666 0.492286 -0.846942
6.63396 1.08089 -1.12594
6.62976 1.10249 -0.886942
7.66036 0.301386 -1.05694
7.13696 0.590086 -1.14394
6.68496 1.09399 -1.39494
6.23336 2.24659 -2.08394
6.36906 1.69279 -1.72194
6.13636 2.39189 -1.93094
6.28516 1.76709 -1.51094
6.12426 2.48919 -1.74594
6.27206 1.82879 -1.29794
9.50536 1.71389 -2.01794
9.34576 1.12399 -1.54494
9.35286 1.65249 -2.17294
9.21026 1.09469 -1.73094
8.82906 0.576386 -1.29094
8.93506 0.573786 -1.07194
9.11466 1.58439 -2.29394
8.99196 1.09019 -1.91194
8.65706 0.640986 -1.53794
8.19006 0.348186 -1.21994
8.29766 0.223086 -0.934942
8.36746 0.194986 -0.693942
7.66586 3.11119 -2.85094
8.30276 2.91529 -2.82794
7.58896 2.98389 -2.96594
8.19476 2.79549 -2.94494
8.75136 2.50659 -2.79894
8.88646 2.61409 -2.67294
7.53696 2.82679 -3.02394
8.07636 2.64679 -3.00994
8.56956 2.36859 -2.88294
8.94476 2.01249 -2.62994
9.16866 2.12439 -2.53594
9.31986 2.21209 -2.39794
6.24616 2.91699 -2.15094
6.24366 2.79669 -2.31494
6.55636 3.01109 -2.63394
6.58126 3.14269 -2.48694
6.32186 2.61519 -2.43994
6.59756 2.82149 -2.73994
7.02326 2.88859 -2.93494
7.02376 3.06459 -2.85694
7.07326 3.19719 -2.72894
5.14736 2.66649 -1.02294
4.94256 3.14149 -1.28094
4.82856 3.35479 -1.44394
4.68526 3.29679 -1.32494
4.82736 3.05899 -1.15794
5.06556 2.57139 -0.908942
4.56926 3.42589 -1.86294
4.72176 3.42589 -1.61194
4.41736 3.37609 -1.74494
4.56946 3.37609 -1.49294
3.76336 1.75009 -4.59794
4.20286 0.774386 -4.93094
4.15396 0.737086 -4.89594
3.54586 2.63319 -4.42594
3.90696 1.84049 -4.71294
4.34406 0.889286 -5.04994
3.40016 2.56309 -4.31294
5.15466 -0.854614 -5.64194
4.78426 -0.0619141 -5.37894
5.01766 -1.01421 -5.51694
4.64546 -0.201214 -5.25694
4.59846 -0.248714 -5.22094
4.97236 -1.07031 -5.47994
6.85036 -1.07031 0.901058
6.85546 -1.07571 0.915058
7.10026 -1.57061 1.14706
7.09446 -1.56321 1.13206
7.19136 -1.81801 1.14806
7.18526 -1.80961 1.13306
7.24606 -1.75061 1.07406
7.15386 -1.52061 1.08306
6.90226 -1.04611 0.865058
7.14156 -1.90051 0.853058
6.96366 -1.90051 0.197058
6.95806 -1.89181 0.186058
7.13556 -1.89181 0.839058
7.01686 -1.82721 0.127058
7.19606 -1.82721 0.777058
7.20226 -1.64721 -0.0319423
7.38696 -1.64721 0.615058
7.43796 -1.58661 0.919058
7.06596 -0.982114 0.779058
7.34126 -1.40471 0.959058
6.44416 -0.250914 0.517058
6.44026 -0.248714 0.504058
6.47396 -0.235514 0.479058
5.96476 0.748186 0.00105765
5.94656 0.737086 0.0230577
6.58146 -0.199314 0.423058
6.02316 0.784586 -0.0469423
5.52626 1.81029 -0.569942
5.46996 1.74249 -0.491942
6.67046 -1.90051 -0.881942
6.66546 -1.89181 -0.888942
6.31916 -1.90051 -2.17594
6.31476 -1.89181 -2.17894
6.36756 -1.82721 -2.22894
6.72146 -1.82721 -0.943942
5.96686 -1.90051 -3.47394
5.67066 -1.90051 -4.56494
5.66756 -1.89181 -4.55794
5.96316 -1.89181 -3.47094
5.71436 -1.82721 -4.59894
6.01266 -1.82721 -3.51694
5.85946 -1.64721 -4.73394
6.15146 -1.29231 -5.00794
6.47786 -1.29231 -3.93994
6.16706 -1.64721 -3.65694
6.86616 -1.29231 -2.66894
6.53296 -1.64721 -2.37594
7.25336 -1.29231 -1.40194
6.89776 -1.64721 -1.09794
7.84716 -0.702914 -1.90594
7.42266 -0.702914 -3.15694
8.04566 0.0445859 -3.73794
8.51106 0.0445859 -2.51794
6.63896 -0.702914 -5.46494
6.99686 -0.702914 -4.41094
7.18646 0.0445859 -5.99094
7.57886 0.0445859 -4.96194
7.65866 0.873786 -6.46894
7.92026 1.70859 -6.78194
8.35146 1.70859 -5.86594
8.07876 0.873786 -5.48394
8.86446 1.70859 -4.77694
8.57846 0.873786 -4.31194
9.37596 1.70859 -3.68994
9.07676 0.873786 -3.14294
9.24036 2.47249 -4.06394
8.74686 2.47249 -5.03094
8.32236 3.12389 -5.09294
8.77806 3.12389 -4.26294
7.83586 2.47249 -6.81594
8.25196 2.47249 -5.99994
7.48116 3.12389 -6.62494
7.86536 3.12389 -5.92594
6.93206 3.62109 -6.26794
6.26416 3.92249 -5.80094
6.57266 3.92249 -5.30494
7.27716 3.62109 -5.68094
6.93966 3.92249 -4.71494
7.68776 3.62109 -4.98094
7.30556 3.92249 -4.12594
8.09716 3.62109 -4.28394
6.51146 3.98649 -3.78494
6.17486 3.98649 -4.31094
5.44666 3.89079 -3.84194
5.76526 3.89079 -3.34494
5.55336 3.98649 -5.28094
5.83716 3.98649 -4.83794
4.85866 3.89079 -4.75794
5.12716 3.89079 -4.33994
4.23896 3.71359 -4.28394
3.75336 3.53259 -3.90894
4.00946 3.53259 -3.49394
4.49916 3.71359 -3.87194
4.31416 3.53259 -2.99994
4.80866 3.71359 -3.38094
4.61806 3.53259 -2.50694
5.11726 3.71359 -2.89094
4.31796 3.42589 -2.27594
4.01676 3.42589 -2.77094
3.86656 3.37609 -2.65594
4.16676 3.37609 -2.15894
3.46076 3.42589 -3.68494
3.71466 3.42589 -3.26694
3.31216 3.37609 -3.57294
3.56536 3.37609 -3.15394
6.07366 3.92249 -6.10794
5.37816 3.98649 -5.55494
5.96386 3.86869 -6.26594
5.29786 3.92819 -5.71294
4.63446 3.82829 -5.17994
4.69276 3.89079 -5.01694
5.89726 3.70699 -6.31694
5.29886 3.75329 -5.81094
4.68856 3.64079 -5.31394
3.62246 3.23109 -4.47094
4.10196 3.43749 -4.84694
3.54736 3.45719 -4.33094
4.02876 3.64459 -4.70394
3.59516 3.53259 -4.16594
4.07826 3.71359 -4.53894
3.30396 3.42589 -3.94294
3.25726 3.34659 -4.10694
3.10966 3.29479 -3.99694
3.15586 3.37609 -3.83194
3.33356 3.10879 -4.24594
3.18666 3.05089 -4.13494
5.48776 -1.90051 -5.23894
5.48506 -1.89181 -5.22894
5.35356 -1.81801 -5.56794
5.35126 -1.80961 -5.55794
5.39556 -1.74591 -5.59494
5.53006 -1.82721 -5.26794
5.20346 -1.57061 -5.62794
5.20176 -1.56321 -5.61694
5.24626 -1.50201 -5.65394
5.65516 -0.990814 -6.04294
5.38226 -1.33021 -5.78094
5.80666 -1.21691 -5.98894
5.53216 -1.56801 -5.72394
5.94986 -1.29231 -5.66694
5.66946 -1.64721 -5.39894
6.41796 -0.702914 -6.11594
6.26476 -0.633914 -6.43194
6.77696 0.0995859 -6.92894
6.94416 0.0445859 -6.62594
6.11056 -0.426914 -6.48094
6.60966 0.264586 -6.95994
7.23176 1.70569 -7.54694
7.01376 0.987086 -7.34294
7.45656 1.70789 -7.59294
7.21346 0.902186 -7.35394
7.65406 1.70859 -7.34794
7.39936 0.873786 -7.07694
7.57896 2.47249 -7.31894
7.38866 2.45089 -7.53494
7.07426 3.08749 -7.24794
7.24396 3.12389 -7.05794
7.17256 2.38589 -7.48794
6.89246 2.97829 -7.22294
6.44786 3.43369 -6.80994
6.57766 3.57429 -6.80094
6.71896 3.62109 -6.63094
6.86266 -1.08331 0.935058
7.10846 -1.58101 1.16806
7.13126 -1.61351 1.23506
7.22386 -1.86671 1.23606
7.19996 -1.82991 1.16906
6.97176 -1.91281 0.213058
7.15016 -1.91281 0.872058
7.17386 -1.95111 0.934058
6.99456 -1.95111 0.264058
6.67776 -1.91281 -0.871942
6.69886 -1.95111 -0.839942
6.32536 -1.91281 -2.17294
3 0 1 2
3 0 2 3
3 2 4 5
3 2 5 3
3 5 6 7
3 5 7 3
3 7 8 0
3 7 0 3
3 9 10 11
3 9 11 12
3 11 13 14
3 11 14 12
3 14 6 5
3 14 5 12
3 5 4 9
3 5 9 12
3 15 16 17
3 15 17 18
3 17 19 20
3 17 20 18
3 20 6 14
3 20 14 18
3 14 13 15
3 14 15 18
3 21 22 23
3 21 23 24
3 23 8 7
3 23 7 24
3 7 6 20
3 7 20 24
3 20 19 21
3 20 21 24
3 25 26 27
3 25 27 28
3 27 29 30
3 27 30 28
3 30 31 32
3 30 32 28
3 32 33 25
3 32 25 28
3 34 35 36
3 34 36 37
3 36 38 39
3 36 39 37
3 39 31 30
3 39 30 37
3 30 29 34
3 30 34 37
3 40 10 9
3 40 9 41
3 9 4 42
3 9 42 41
3 42 31 39
3 42 39 41
3 39 38 40
3 39 40 41
3 2 1 43
3 2 43 44
3 43 33 32
3 43 32 44
3 32 31 42
3 32 42 44
3 42 4 2
3 42 2 44
3 45 46 47
3 45 47 48
3 47 49 50
3 47 50 48
3 50 51 52
3 50 52 48
3 52 53 45
3 52 45 48
3 54 55 56
3 54 56 57
3 56 58 59
3 56 59 57
3 59 51 50
3 59 50 57
3 50 49 54
3 50 54 57
3 60 61 62
3 60 62 63
3 62 64 65
3 62 65 63
3 65 51 59
3 65 59 63
3 59 58 60
3 59 60 63
3 66 67 68
3 66 68 69
3 68 53 52
3 68 52 69
3 52 51 65
3 52 65 69
3 65 64 66
3 65 66 69
3 70 22 21
3 70 21 71
3 21 19 72
3 21 72 71
3 72 73 74
3 72 74 71
3 74 75 70
3 74 70 71
3 17 16 76
3 17 76 77
3 76 78 79
3 76 79 77
3 79 73 72
3 79 72 77
3 72 19 17
3 72 17 77
3 80 81 82
3 80 82 83
3 82 84 85
3 82 85 83
3 85 73 79
3 85 79 83
3 79 78 80
3 79 80 83
3 86 87 88
3 86 88 89
3 88 75 74
3 88 74 89
3 74 73 85
3 74 85 89
3 85 84 86
3 85 86 89
3 90 91 92
3 90 92 93
3 92 94 95
3 92 95 93
3 95 96 97
3 95 97 93
3 97 98 90
3 97 90 93
3 99 100 101
3 99 101 102
3 101 103 104
3 101 104 102
3 104 96 95
3 104 95 102
3 95 94 99
3 95 99 102
3 105 106 107
3 105 107 108
3 107 109 110
3 107 110 108
3 110 96 104
3 110 104 108
3 104 103 105
3 104 105 108
3 111 112 113
3 111 113 114
3 113 98 97
3 113 97 114
3 97 96 110
3 97 110 114
3 110 109 111
3 110 111 114
3 115 87 116
3 115 116 117
3 116 118 119
3 116 119 117
3 119 120 121
3 119 121 117
3 121 122 115
3 121 115 117
3 123 26 124
3 123 124 125
3 124 126 127
3 124 127 125
3 127 120 119
3 127 119 125
3 119 118 123
3 119 123 125
3 128 129 130
3 128 130 131
3 130 132 133
3 130 133 131
3 133 120 127
3 133 127 131
3 127 126 128
3 127 128 131
3 134 135 136
3 134 136 137
3 136 122 121
3 136 121 137
3 121 120 133
3 121 133 137
3 133 132 134
3 133 134 137
3 43 1 138
3 43 138 139
3 138 140 141
3 138 141 139
3 141 142 143
3 141 143 139
3 143 33 43
3 143 43 139
3 144 145 146
3 144 146 147
3 146 148 149
3 146 149 147
3 149 142 141
3 149 141 147
3 141 140 144
3 141 144 147
3 150 129 128
3 150 128 151
3 128 126 152
3 128 152 151
3 152 142 149
3 152 149 151
3 149 148 150
3 149 150 151
3 124 26 25
3 124 25 153
3 25 33 143
3 25 143 153
3 143 142 152
3 143 152 153
3 152 126 124
3 152 124 153
3 23 22 154
3 23 154 155
3 154 156 157
3 154 157 155
3 157 158 159
3 157 159 155
3 159 8 23
3 159 23 155
3 160 161 162
3 160 162 163
3 162 164 165
3 162 165 163
3 165 158 157
3 165 157 163
3 157 156 160
3 157 160 163
3 166 145 144
3 166 144 167
3 144 140 168
3 144 168 167
3 168 158 165
3 168 165 167
3 165 164 166
3 165 166 167
3 138 1 0
3 138 0 169
3 0 8 159
3 0 159 169
3 159 158 168
3 159 168 169
3 168 140 138
3 168 138 169
3 154 22 70
3 154 70 170
3 70 75 171
3 70 171 170
3 171 172 173
3 171 173 170
3 173 156 154
3 173 154 170
3 88 87 115
3 88 115 174
3 115 122 175
3 115 175 174
3 175 172 171
3 175 171 174
3 171 75 88
3 171 88 174
3 136 135 176
3 136 176 177
3 176 178 179
3 176 179 177
3 179 172 175
3 179 175 177
3 175 122 136
3 175 136 177
3 180 161 160
3 180 160 181
3 160 156 173
3 160 173 181
3 173 172 179
3 173 179 181
3 179 178 180
3 179 180 181
3 130 129 182
3 130 182 183
3 182 184 185
3 182 185 183
3 185 186 187
3 185 187 183
3 187 132 130
3 187 130 183
3 188 91 90
3 188 90 189
3 90 98 190
3 90 190 189
3 190 186 185
3 190 185 189
3 185 184 188
3 185 188 189
3 113 112 191
3 113 191 192
3 191 193 194
3 191 194 192
3 194 186 190
3 194 190 192
3 190 98 113
3 190 113 192
3 195 135 134
3 195 134 196
3 134 132 187
3 134 187 196
3 187 186 194
3 187 194 196
3 194 193 195
3 194 195 196
3 146 145 197
3 146 197 198
3 197 199 200
3 197 200 198
3 200 201 202
3 200 202 198
3 202 148 146
3 202 146 198
3 203 100 99
3 203 99 204
3 99 94 205
3 99 205 204
3 205 201 200
3 205 200 204
3 200 199 203
3 200 203 204
3 92 91 188
3 92 188 206
3 188 184 207
3 188 207 206
3 207 201 205
3 207 205 206
3 205 94 92
3 205 92 206
3 182 129 150
3 182 150 208
3 150 148 202
3 150 202 208
3 202 201 207
3 202 207 208
3 207 184 182
3 207 182 208
3 162 161 209
3 162 209 210
3 209 211 212
3 209 212 210
3 212 213 214
3 212 214 210
3 214 164 162
3 214 162 210
3 215 106 105
3 215 105 216
3 105 103 217
3 105 217 216
3 217 213 212
3 217 212 216
3 212 211 215
3 212 215 216
3 101 100 203
3 101 203 218
3 203 199 219
3 203 219 218
3 219 213 217
3 219 217 218
3 217 103 101
3 217 101 218
3 197 145 166
3 197 166 220
3 166 164 214
3 166 214 220
3 214 213 219
3 214 219 220
3 219 199 197
3 219 197 220
3 176 135 195
3 176 195 221
3 195 193 222
3 195 222 221
3 222 223 224
3 222 224 221
3 224 178 176
3 224 176 221
3 191 112 111
3 191 111 225
3 111 109 226
3 111 226 225
3 226 223 222
3 226 222 225
3 222 193 191
3 222 191 225
3 107 106 215
3 107 215 227
3 215 211 228
3 215 228 227
3 228 223 226
3 228 226 227
3 226 109 107
3 226 107 227
3 209 161 180
3 209 180 229
3 180 178 224
3 180 224 229
3 224 223 228
3 224 228 229
3 228 211 209
3 228 209 229
3 230 87 86
3 230 86 231
3 86 84 232
3 86 232 231
3 232 233 234
3 232 234 231
3 234 235 230
3 234 230 231
3 82 81 236
3 82 236 237
3 236 238 239
3 236 239 237
3 239 233 232
3 239 232 237
3 232 84 82
3 232 82 237
3 240 241 242
3 243 46 45
3 243 45 244
3 45 53 245
3 45 245 244
3 245 241 240
3 245 240 244
3 240 246 243
3 240 243 244
3 68 67 247
3 68 247 248
3 247 249 250
3 247 250 248
3 250 241 245
3 250 245 248
3 245 53 68
3 245 68 248
3 242 241 250
3 242 250 251
3 250 249 252
3 250 252 251
3 253 254 255
3 253 255 256
3 255 257 258
3 255 258 256
3 258 259 260
3 258 260 256
3 260 261 253
3 260 253 256
3 262 263 264
3 262 264 265
3 264 266 267
3 264 267 265
3 267 259 258
3 267 258 265
3 258 257 262
3 258 262 265
3 268 35 34
3 268 34 269
3 34 29 270
3 34 270 269
3 270 259 267
3 270 267 269
3 267 266 268
3 267 268 269
3 27 26 271
3 27 271 272
3 271 261 260
3 271 260 272
3 260 259 270
3 260 270 272
3 270 29 27
3 270 27 272
3 273 254 253
3 273 253 274
3 253 261 275
3 253 275 274
3 275 276 277
3 275 277 274
3 277 273 274
3 271 26 123
3 271 123 278
3 123 118 279
3 123 279 278
3 279 276 275
3 279 275 278
3 275 261 271
3 275 271 278
3 116 87 230
3 116 230 280
3 230 235 281
3 230 281 280
3 281 276 279
3 281 279 280
3 279 118 116
3 279 116 280
3 277 276 281
3 264 263 282
3 264 282 283
3 282 284 285
3 282 285 283
3 285 286 287
3 285 287 283
3 287 266 264
3 287 264 283
3 288 289 290
3 288 290 291
3 290 292 293
3 290 293 291
3 293 286 285
3 293 285 291
3 285 284 288
3 285 288 291
3 294 295 296
3 294 296 297
3 296 298 299
3 296 299 297
3 299 286 293
3 299 293 297
3 293 292 294
3 293 294 297
3 300 35 268
3 300 268 301
3 268 266 287
3 268 287 301
3 287 286 299
3 287 299 301
3 299 298 300
3 299 300 301
3 36 35 300
3 36 300 302
3 300 298 303
3 300 303 302
3 303 304 305
3 303 305 302
3 305 38 36
3 305 36 302
3 296 295 306
3 296 306 307
3 306 308 309
3 306 309 307
3 309 304 303
3 309 303 307
3 303 298 296
3 303 296 307
3 310 311 312
3 310 312 313
3 312 314 315
3 312 315 313
3 315 304 309
3 315 309 313
3 309 308 310
3 309 310 313
3 316 10 40
3 316 40 317
3 40 38 305
3 40 305 317
3 305 304 315
3 305 315 317
3 315 314 316
3 315 316 317
3 11 10 316
3 11 316 318
3 316 314 319
3 316 319 318
3 319 320 321
3 319 321 318
3 321 13 11
3 321 11 318
3 312 311 322
3 312 322 323
3 322 324 325
3 322 325 323
3 325 320 319
3 325 319 323
3 319 314 312
3 319 312 323
3 326 327 328
3 326 328 329
3 328 330 331
3 328 331 329
3 331 320 325
3 331 325 329
3 325 324 326
3 325 326 329
3 332 16 15
3 332 15 333
3 15 13 321
3 15 321 333
3 321 320 331
3 321 331 333
3 331 330 332
3 331 332 333
3 76 16 332
3 76 332 334
3 332 330 335
3 332 335 334
3 335 336 337
3 335 337 334
3 337 78 76
3 337 76 334
3 328 327 338
3 328 338 339
3 338 340 341
3 338 341 339
3 341 336 335
3 341 335 339
3 335 330 328
3 335 328 339
3 342 343 344
3 342 344 345
3 344 346 347
3 344 347 345
3 347 336 341
3 347 341 345
3 341 340 342
3 341 342 345
3 348 81 80
3 348 80 349
3 80 78 337
3 80 337 349
3 337 336 347
3 337 347 349
3 347 346 348
3 347 348 349
3 236 81 348
3 236 348 350
3 348 346 351
3 348 351 350
3 351 352 353
3 351 353 350
3 353 238 236
3 353 236 350
3 344 343 354
3 344 354 355
3 354 356 357
3 354 357 355
3 357 352 351
3 357 351 355
3 351 346 344
3 351 344 355
3 338 327 358
3 338 358 359
3 358 360 361
3 358 361 359
3 361 362 363
3 361 363 359
3 363 340 338
3 363 338 359
3 364 55 54
3 364 54 365
3 54 49 366
3 54 366 365
3 366 362 361
3 366 361 365
3 361 360 364
3 361 364 365
3 47 46 367
3 47 367 368
3 367 369 370
3 367 370 368
3 370 362 366
3 370 366 368
3 366 49 47
3 366 47 368
3 371 343 342
3 371 342 372
3 342 340 363
3 342 363 372
3 363 362 370
3 363 370 372
3 370 369 371
3 370 371 372
3 354 343 371
3 354 371 373
3 371 369 374
3 371 374 373
3 374 375 376
3 374 376 373
3 376 356 354
3 376 354 373
3 367 46 243
3 367 243 377
3 243 246 378
3 243 378 377
3 378 375 374
3 378 374 377
3 374 369 367
3 374 367 377
3 290 289 379
3 290 379 380
3 379 381 382
3 379 382 380
3 382 383 384
3 382 384 380
3 384 292 290
3 384 290 380
3 385 252 386
3 252 249 387
3 252 387 386
3 387 383 382
3 387 382 386
3 382 381 385
3 382 385 386
3 247 67 388
3 247 388 389
3 388 390 391
3 388 391 389
3 391 383 387
3 391 387 389
3 387 249 247
3 387 247 389
3 392 295 294
3 392 294 393
3 294 292 384
3 294 384 393
3 384 383 391
3 384 391 393
3 391 390 392
3 391 392 393
3 306 295 392
3 306 392 394
3 392 390 395
3 392 395 394
3 395 396 397
3 395 397 394
3 397 308 306
3 397 306 394
3 388 67 66
3 388 66 398
3 66 64 399
3 66 399 398
3 399 396 395
3 399 395 398
3 395 390 388
3 395 388 398
3 62 61 400
3 62 400 401
3 400 402 403
3 400 403 401
3 403 396 399
3 403 399 401
3 399 64 62
3 399 62 401
3 404 311 310
3 404 310 405
3 310 308 397
3 310 397 405
3 397 396 403
3 397 403 405
3 403 402 404
3 403 404 405
3 322 311 404
3 322 404 406
3 404 402 407
3 404 407 406
3 407 408 409
3 407 409 406
3 409 324 322
3 409 322 406
3 400 61 60
3 400 60 410
3 60 58 411
3 60 411 410
3 411 408 407
3 411 407 410
3 407 402 400
3 407 400 410
3 56 55 364
3 56 364 412
3 364 360 413
3 364 413 412
3 413 408 411
3 413 411 412
3 411 58 56
3 411 56 412
3 358 327 326
3 358 326 414
3 326 324 409
3 326 409 414
3 409 408 413
3 409 413 414
3 413 360 358
3 413 358 414
3 415 254 273
3 255 254 415
3 255 415 416
3 415 417 416
3 417 418 419
3 417 419 416
3 419 257 255
3 419 255 416
3 420 263 262
3 420 262 421
3 262 257 419
3 262 419 421
3 419 418 422
3 419 422 421
3 422 423 420
3 422 420 421
3 282 263 420
3 282 420 424
3 420 423 425
3 420 425 424
3 425 426 424
3 426 284 282
3 426 282 424
3 288 284 426
