OFF
127 240 0
4.24773 -13.0781 6.80446
4.07323 -13.0634 7.26876
3.56603 -13.0781 7.42906
3.56193 -13.0971 6.80136
2.66443 -13.0781 7.42906
2.65883 -13.0971 6.80136
2.66443 -13.0781 6.17983
3.56603 -13.0781 6.17983
4.07323 -13.0634 6.34502
4.91303 -6.76373 7.45186
5.21523 -6.76373 7.54526
4.81003 -9.42043 6.98036
4.34813 -9.42043 6.83936
4.40093 -12.083 6.39739
3.77883 -12.083 6.20736
2.95643 -12.083 6.20736
3.73773 -9.42043 6.83936
4.51283 -6.76373 7.45186
4.81003 -9.42043 7.82676
4.40093 -12.083 7.53756
4.60833 -12.083 6.96746
4.96393 -9.42043 7.40356
5.31603 -6.76373 7.82536
5.21523 -6.76373 8.10556
4.91303 -6.76373 8.19886
4.34813 -9.42043 7.96776
4.51283 -6.76373 8.19886
3.73773 -9.42043 7.96776
2.95643 -12.083 7.72756
3.77883 -12.083 7.72756
1.34783 -12.083 6.96746
1.54793 -12.083 7.53756
2.69223 -9.42043 7.82676
2.54363 -9.42043 7.40356
3.82403 -6.76373 8.10556
3.72603 -6.76373 7.82536
3.82403 -6.76373 7.54526
2.69223 -9.42043 6.98036
1.54793 -12.083 6.39739
4.96073 -0.946131 5.5285
5.03843 -0.946131 5.10196
4.99383 -0.241031 4.6593
4.94063 -0.241031 5.13573
4.53723 -0.241031 5.13573
4.56653 -0.946131 5.5285
5.06433 -0.946131 3.82236
5.01153 -0.241031 3.23
5.03843 -0.946131 2.54276
4.99383 -0.241031 1.8007
4.96073 -0.946131 2.11623
4.94063 -0.241031 1.32427
4.56653 -0.946131 2.11623
4.53723 -0.241031 1.32427
2.32523 -0.946131 3.82236
2.64173 -0.946131 5.10196
2.41873 -0.241031 4.6593
2.06863 -0.241031 3.23
2.03793 -0.224631 3.21737
2.39393 -0.224631 1.78477
2.41873 -0.241031 1.8007
2.64173 -0.946131 2.54276
4.11813 -6.76373 8.19886
3.13803 -9.42043 7.96776
2.14853 -12.083 7.72756
1.77873 -13.0781 7.42906
1.77163 -13.0971 6.80136
1.29763 -13.0634 7.26876
1.12063 -13.0781 6.80446
1.29763 -13.0634 6.34502
1.77873 -13.0781 6.17983
4.11813 -6.76373 7.45186
3.13803 -9.42043 6.83936
2.14853 -12.083 6.20736
3.59123 -0.946131 2.11623
3.46913 -0.241031 1.32427
3.46203 -0.224631 1.30724
3.59123 -0.946131 5.5285
3.46913 -0.241031 5.13573
3.46203 -0.224631 5.12751
2.68113 -13.0212 7.64286
1.79983 -13.0212 7.64286
1.14483 -13.0212 7.43566
4.25683 -13.0212 7.43566
3.57823 -13.0212 7.64286
4.48303 -13.0212 6.81376
4.25683 -13.0212 6.19196
3.57823 -13.0212 5.98468
2.68113 -13.0212 5.98468
1.79983 -13.0212 5.98468
1.14483 -13.0212 6.19196
0.926432 -13.0212 6.81376
5.34813 -5.84273 8.17626
5.30183 -5.11163 7.71726
5.07953 -5.11163 7.84896
5.10033 -5.84273 8.25626
4.73943 -5.11163 7.84896
4.76983 -5.84273 8.25626
5.37603 -5.11163 7.32206
5.43073 -5.84273 7.93626
5.34813 -5.84273 7.69636
5.30183 -5.11163 6.92686
5.07953 -5.11163 6.79516
5.10033 -5.84273 7.61636
4.76983 -5.84273 7.61636
4.73943 -5.11163 6.79516
4.31213 -5.11163 6.79516
4.43873 -5.84273 7.61636
4.19013 -5.84273 7.69636
3.95903 -5.11163 6.92686
4.19013 -5.84273 8.17626
4.10733 -5.84273 7.93626
3.95903 -5.11163 7.71726
3.84123 -5.11163 7.32206
4.31213 -5.11163 7.84896
4.43873 -5.84273 8.25626
5.16983 -3.02453 6.40689
5.21983 -3.02453 5.56858
5.16983 -3.02453 4.73027
5.02003 -3.02453 4.45083
4.65283 -3.02453 4.45083
3.95093 -3.02453 4.45083
3.29903 -3.02453 4.73027
3.29903 -3.02453 6.40689
3.08173 -3.02453 5.56858
4.65283 -3.02453 6.68636
3.95093 -3.02453 6.68636
5.02003 -3.02453 6.68636
3 0 1 2
3 0 2 3
3 2 4 5
3 2 5 3
3 5 6 7
3 5 7 3
3 7 8 0
3 7 0 3
3 9 10 11
3 9 11 12
3 11 13 14
3 11 14 12
3 14 15 16
3 14 16 12
3 16 17 9
3 16 9 12
3 18 19 20
3 18 20 21
3 20 13 11
3 20 11 21
3 11 10 22
3 11 22 21
3 22 23 18
3 22 18 21
3 18 23 24
3 18 24 25
3 24 26 27
3 24 27 25
3 27 28 29
3 27 29 25
3 29 19 18
3 29 18 25
3 30 31 32
3 30 32 33
3 32 34 35
3 32 35 33
3 35 36 37
3 35 37 33
3 37 38 30
3 37 30 33
3 39 40 41
3 39 41 42
3 43 44 39
3 43 39 42
3 41 40 45
3 41 45 46
3 45 47 48
3 45 48 46
3 48 47 49
3 48 49 50
3 49 51 52
3 49 52 50
3 53 54 55
3 53 55 56
3 55 57 56
3 57 58 59
3 57 59 56
3 59 60 53
3 59 53 56
3 27 26 61
3 27 61 62
3 61 34 32
3 61 32 62
3 32 31 63
3 32 63 62
3 63 28 27
3 63 27 62
3 5 4 64
3 5 64 65
3 64 66 67
3 64 67 65
3 67 68 69
3 67 69 65
3 69 6 5
3 69 5 65
3 70 17 16
3 70 16 71
3 16 15 72
3 16 72 71
3 72 38 37
3 72 37 71
3 37 36 70
3 37 70 71
3 52 51 73
3 52 73 74
3 73 60 59
3 73 59 74
3 59 58 75
3 59 75 74
3 75 52 74
3 76 44 43
3 76 43 77
3 43 78 77
3 78 55 77
3 55 54 76
3 55 76 77
3 79 28 63
3 79 63 80
3 63 31 81
3 63 81 80
3 81 66 64
3 81 64 80
3 64 4 79
3 64 79 80
3 82 19 29
3 82 29 83
3 29 28 79
3 29 79 83
3 79 4 2
3 79 2 83
3 2 1 82
3 2 82 83
3 20 19 82
3 20 82 84
3 82 1 0
3 82 0 84
3 0 8 85
3 0 85 84
3 85 13 20
3 85 20 84
3 14 13 85
3 14 85 86
3 85 8 7
3 85 7 86
3 7 6 87
3 7 87 86
3 87 15 14
3 87 14 86
3 72 15 87
3 72 87 88
3 87 6 69
3 87 69 88
3 69 68 89
3 69 89 88
3 89 38 72
3 89 72 88
3 81 31 30
3 81 30 90
3 30 38 89
3 30 89 90
3 89 68 67
3 89 67 90
3 67 66 81
3 67 81 90
3 91 92 93
3 91 93 94
3 93 95 96
3 93 96 94
3 96 26 24
3 96 24 94
3 24 23 91
3 24 91 94
3 97 92 91
3 97 91 98
3 91 23 22
3 91 22 98
3 22 10 99
3 22 99 98
3 99 100 97
3 99 97 98
3 101 100 99
3 101 99 102
3 99 10 9
3 99 9 102
3 9 17 103
3 9 103 102
3 103 104 101
3 103 101 102
3 105 104 103
3 105 103 106
3 103 17 70
3 103 70 106
3 70 36 107
3 70 107 106
3 107 108 105
3 107 105 106
3 35 34 109
3 35 109 110
3 109 111 112
3 109 112 110
3 112 108 107
3 112 107 110
3 107 36 35
3 107 35 110
3 96 95 113
3 96 113 114
3 113 111 109
3 113 109 114
3 109 34 61
3 109 61 114
3 61 26 96
3 61 96 114
3 115 92 97
3 115 97 116
3 97 100 117
3 97 117 116
3 117 47 45
3 117 45 116
3 45 40 115
3 45 115 116
3 49 47 117
3 49 117 118
3 117 100 101
3 117 101 118
3 101 104 119
3 101 119 118
3 119 51 49
3 119 49 118
3 73 51 119
3 73 119 120
3 119 104 105
3 119 105 120
3 105 108 121
3 105 121 120
3 121 60 73
3 121 73 120
3 112 111 122
3 112 122 123
3 122 54 53
3 122 53 123
3 53 60 121
3 53 121 123
3 121 108 112
3 121 112 123
3 113 95 124
3 113 124 125
3 124 44 76
3 124 76 125
3 76 54 122
3 76 122 125
3 122 111 113
3 122 113 125
3 115 40 39
3 115 39 126
3 39 44 124
3 39 124 126
3 124 95 93
3 124 93 126
3 93 92 115
3 93 115 126
