OFF
398 778 0
-15.7954 -2.96297 10.7014
-14.4374 -2.44187 11.8334
-15.1844 -1.3782 11.9934
-16.5204 -1.85199 10.9094
-15.6554 -0.151926 11.7304
-16.9544 -0.570206 10.6914
-18.3624 -1.07871 9.33137
-17.9624 -2.34903 9.51437
-17.2684 -3.4494 9.28837
-15.7994 1.03583 11.1194
-15.5644 1.984 10.2314
-16.7694 1.66449 9.24736
-17.0514 0.672054 10.1154
-18.0404 1.1698 8.05237
-18.3844 0.169284 8.83937
-19.0304 0.520274 6.85537
-19.5264 -0.0923465 5.96837
-20.0364 -0.922366 6.07237
-19.4504 -0.424616 7.47137
-20.2134 -2.04752 6.26837
-19.5394 -1.59216 7.81937
-19.7994 -3.08044 6.51937
-19.1114 -3.72362 6.73637
-18.4604 -3.71383 7.84237
-19.1334 -2.72916 8.01537
-9.72237 -3.90412 0.952365
-9.77937 -3.39412 1.44037
-9.75637 -3.89285 0.934365
-9.84837 -3.38439 1.48737
-9.83237 -3.87872 0.987365
-9.84937 -4.20033 0.241365
-9.76537 -4.21815 0.178365
-9.97637 -3.35681 1.65937
-10.1874 -3.29945 2.00937
-10.2334 -3.78646 1.53237
-9.98037 -3.84787 1.16737
-10.3294 -4.0982 0.820365
-10.0244 -4.16559 0.434365
-10.4564 -4.19448 0.0193652
-10.5944 -4.03513 -0.727635
-10.1884 -4.11553 -1.16063
-10.0964 -4.2686 -0.391635
-9.96437 -4.15702 -1.38163
-9.89437 -4.30713 -0.598635
-9.80137 -4.32734 -0.671635
-9.86337 -4.17775 -1.46463
-10.0854 -1.07513 0.218365
-10.1564 -1.07896 0.278365
-10.0704 -1.50889 0.910365
-10.0034 -1.50678 0.858365
-9.98037 -2.10165 1.37237
-9.91637 -2.10273 1.32637
-10.2974 -1.05177 0.469365
-10.5374 -0.985097 0.852365
-10.4044 -1.42172 1.45537
-10.1964 -1.48336 1.09037
-10.2904 -2.01863 1.89837
-10.0984 -2.07666 1.54537
-10.2124 -2.67735 2.10737
-10.0204 -2.73377 1.76037
-9.90237 -2.75942 1.59037
-9.83737 -2.76463 1.54637
-10.1754 -1.24167 -1.90863
-10.1534 -1.7281 -2.36463
-10.1824 -1.7423 -2.33563
-10.2034 -1.26298 -1.88763
-10.2814 -1.73657 -2.24363
-10.2964 -1.26141 -1.80163
-10.2764 -0.978136 -1.17163
-10.1904 -0.976487 -1.24863
-10.5084 -1.69695 -2.00863
-10.9184 -1.60951 -1.54863
-10.8764 -1.14105 -1.12763
-10.5034 -1.22481 -1.57363
-10.7884 -0.866396 -0.527635
-10.4614 -0.944937 -0.954635
-10.6704 -0.807196 0.161365
-10.3894 -0.879766 -0.243635
-10.2274 -0.909676 -0.446635
-10.1494 -0.906116 -0.515635
-9.91637 -3.73932 -2.07163
-9.94837 -3.72668 -2.04563
-10.0524 -3.70792 -1.95563
-10.1444 -3.07682 -2.30263
-10.0394 -3.09192 -2.39663
-10.7224 -3.57996 -1.27463
-10.2904 -3.66502 -1.72463
-10.8274 -2.94597 -1.60563
-10.3864 -3.03387 -2.06663
-10.8974 -2.25015 -1.70263
-10.4644 -2.33891 -2.16663
-10.2264 -2.3807 -2.40463
-10.0934 -2.38609 -2.53163
-10.1224 -2.3912 -2.49963
-11.7064 -3.47016 4.38237
-11.2394 -2.9104 4.85337
-11.1184 -2.90203 5.48837
-11.7474 -3.5602 4.93137
-10.8524 -2.93882 6.12037
-11.6794 -3.71237 5.44837
-12.7714 -4.22525 4.47837
-12.5924 -3.98501 4.12837
-12.3454 -3.8195 3.69337
-10.5344 -3.00463 6.86137
-10.2504 -3.08502 7.96937
-11.8344 -4.04054 6.86237
-11.6114 -3.88382 6.06837
-13.4644 -4.66487 5.50537
-13.0054 -4.47341 4.89237
-15.0094 -4.93471 4.11437
-16.2714 -4.72814 2.90337
-15.4964 -4.50262 2.57237
-14.3654 -4.71092 3.65937
-14.8614 -4.20378 2.48637
-13.8964 -4.41311 3.42837
-14.2714 -3.91276 2.43837
-13.6334 -3.71068 2.22237
-13.0284 -3.91437 2.92637
-13.4894 -4.12102 3.24337
-11.4274 -0.699757 4.38537
-11.8724 -0.174596 3.82737
-11.8594 0.196344 4.38237
-11.2954 -0.385466 5.01037
-11.7264 0.640613 4.86437
-11.0294 -0.0219865 5.55937
-10.6094 -0.948216 6.04637
-10.9474 -1.18335 5.45437
-11.1444 -1.40855 4.78737
-11.5804 1.15772 5.38537
-11.5504 1.8082 6.16337
-10.4834 0.703044 6.60737
-10.7374 0.383394 6.09337
-9.93437 -0.520366 7.08537
-10.2374 -0.717936 6.59737
-9.78737 -1.79101 7.56137
-10.1224 -1.89831 6.94537
-10.5224 -1.96897 6.27637
-11.0664 -2.18431 4.96537
-10.8704 -2.06598 5.63837
-13.5794 -0.309276 1.95337
-14.0034 -0.847866 1.54037
-14.6564 -0.657396 1.72937
-14.0864 -0.0253965 2.22137
-15.2604 -0.482266 1.72837
-14.5414 0.264394 2.32237
-13.6274 0.725623 3.12037
-13.3604 0.347084 2.89137
-13.0284 -0.00226649 2.52837
-15.9094 -0.317256 1.75737
-16.6964 -0.157146 2.03737
-15.7314 0.802464 2.82837
-15.0534 0.545283 2.45737
-14.4854 1.46203 3.87237
-13.9504 1.11003 3.39137
-13.0834 1.8186 5.01737
-12.7214 1.35705 4.42637
-12.6404 0.870423 4.01037
-12.4324 0.0502635 3.18037
-12.5824 0.430764 3.64337
-14.0344 -3.16435 1.72137
-14.7754 -3.30478 1.87637
-15.4704 -3.52508 1.83937
-15.7334 -2.55795 1.49337
-15.0054 -2.45458 1.56537
-14.2294 -2.41323 1.43437
-17.0544 -3.92324 2.08737
-16.2014 -3.75473 1.83437
-17.3744 -2.74386 1.66937
-16.4964 -2.67163 1.45037
-17.2494 -1.41388 1.65137
-16.3944 -1.45769 1.42237
-15.6604 -1.48337 1.45437
-14.2194 -1.59513 1.37037
-14.9644 -1.51962 1.51437
-11.2794 -3.49092 9.09437
-12.6354 -4.14854 7.89937
-12.3754 -3.48812 10.2044
-13.7274 -4.07644 9.00436
-15.3534 -4.60291 7.53237
-14.3154 -4.73503 6.45037
-13.4644 -3.14181 11.1774
-14.8224 -3.69285 10.0034
-16.3684 -4.18753 8.55237
-18.8914 -4.245 5.85237
-17.7484 -4.42439 7.08137
-18.2494 -4.65762 4.72937
-16.9314 -4.85622 6.02637
-17.2824 -4.79923 3.68437
-15.9414 -5.00474 4.96937
-11.8964 -0.0285165 7.86737
-12.1764 0.523023 7.89737
-12.7054 0.753594 8.20637
-12.5504 0.0326135 8.34337
-13.3644 0.914494 8.78337
-13.2504 0.147204 8.98736
-13.0274 -0.715917 9.30537
-12.2944 -0.776686 8.58637
-11.6114 -0.780077 8.04937
-13.9094 0.896034 9.49137
-14.2064 0.763164 10.0654
-14.2844 0.254054 10.4174
-13.8524 0.186604 9.73337
-14.1784 -0.476456 10.7894
-13.6934 -0.611156 10.0814
-13.8444 -1.19487 11.0164
-13.4644 -1.67948 11.0744
-13.0354 -1.97698 10.6774
-13.3754 -1.37899 10.3794
-12.4244 -2.17103 10.0554
-12.7374 -1.53505 9.68037
-11.8284 -2.11973 9.38937
-11.4294 -1.92011 8.90237
-11.4534 -1.47775 8.46337
-12.0724 -1.53313 8.98837
-17.7154 0.00328351 2.78937
-16.6854 1.0211 3.63437
-18.6844 0.0955835 3.83737
-17.6714 1.11285 4.70137
-16.4164 1.8549 5.82137
-15.3854 1.74334 4.73237
-19.3224 0.0513235 5.00637
-18.4454 0.989334 5.85337
-17.3434 1.69771 6.98737
-14.9024 2.4913 9.14137
-16.0634 2.1968 8.15337
-13.9384 2.6103 7.99937
-15.0834 2.3445 6.98837
-12.8024 2.3933 6.95737
-13.9804 2.1831 5.90737
-18.1124 -3.9601 2.82237
-19.0944 -3.82833 3.88737
-19.4484 -2.60384 3.46737
-18.4474 -2.72291 2.38437
-19.7214 -3.49098 5.13137
-20.1104 -2.38172 4.78937
-19.9274 -1.13666 4.70037
-19.2944 -1.21959 3.43837
-18.3084 -1.32326 2.37337
-11.1484 1.8081 7.08437
-10.3294 0.809334 7.09537
-11.0264 1.72755 7.55237
-10.2954 0.785044 7.47637
-9.81437 -0.311266 7.78237
-9.80037 -0.383356 7.49037
-11.0724 1.59958 7.76837
-11.2274 1.44211 7.80137
-10.5894 0.601853 7.70537
-10.3994 0.712924 7.66637
-10.1654 -0.366006 7.95537
-9.95237 -0.308446 7.93137
-10.0064 -1.30269 8.48736
-10.1594 -2.04944 9.23536
-9.94537 -2.08512 9.28236
-9.78337 -1.29698 8.49236
-9.83137 -2.23947 9.16436
-9.64137 -1.38396 8.35837
-9.89037 -2.54241 8.79737
-9.63437 -1.5841 8.03936
-14.7724 2.1078 10.7934
-14.1534 2.5861 9.73637
-14.3184 2.084 11.0284
-13.7404 2.5321 10.0224
-12.9034 2.61 9.00237
-13.2464 2.6812 8.64837
-14.1274 1.9602 11.0304
-14.1244 1.78444 10.8944
-13.6114 2.1827 9.99437
-13.5854 2.3806 10.0814
-12.8694 2.248 9.08637
-12.8034 2.4497 9.12236
-12.0314 1.996 8.30836
-11.9194 2.184 8.30237
-11.9464 2.3389 8.12037
-12.1824 2.4269 7.68337
-13.5904 -2.07342 12.4324
-14.3284 -1.06783 12.5614
-13.1494 -1.83984 12.6294
-13.8584 -0.895756 12.7384
-14.3254 0.191764 12.4594
-14.8074 0.0909035 12.2804
-13.0094 -1.72331 12.5544
-13.0654 -1.70602 12.3384
-13.7024 -0.865936 12.4334
-13.6814 -0.836836 12.6544
-14.1224 0.101554 12.1794
-14.1254 0.184154 12.3864
-14.2794 1.03788 11.6444
-14.2904 1.17229 11.8214
-14.4954 1.24444 11.8644
-14.9724 1.21279 11.6664
-10.6244 -3.00781 9.81536
-10.4384 -2.68426 10.1614
-11.3004 -2.74845 11.1814
-11.6174 -3.0493 10.8904
-10.6744 -2.44747 10.1374
-10.4884 -2.5053 10.2334
-11.4194 -2.51246 11.0494
-11.2734 -2.57405 11.1944
-12.2604 -2.26008 11.8304
-12.1604 -2.30788 12.0184
-12.2504 -2.46219 12.0574
-12.6464 -2.73588 11.8194
-11.4334 1.27311 7.72337
-10.8164 0.460694 7.63037
-11.6774 1.06601 7.65637
-11.0924 0.290534 7.56337
-10.7064 -0.601856 7.79037
-10.4064 -0.475056 7.87237
-11.9464 0.794254 7.71937
-11.4314 0.0924535 7.62537
-11.0944 -0.712667 7.81637
-11.0674 -2.07929 8.90036
-10.9524 -1.47346 8.26836
-10.6944 -2.14549 8.97537
-10.5564 -1.46088 8.28236
-10.4004 -2.10255 9.11036
-10.2524 -1.38064 8.38636
-14.2354 1.60445 10.7154
-13.7394 1.9894 9.84537
-14.3444 1.38143 10.5034
-13.8754 1.74625 9.67237
-13.1964 1.8046 8.83237
-13.0214 2.0524 8.96636
-14.3334 1.0766 10.2674
-13.9244 1.39886 9.51237
-13.3284 1.44614 8.75137
-12.6244 1.24504 8.12436
-12.4214 1.57429 8.11937
-12.2104 1.8087 8.21437
-13.2114 -1.77016 12.1124
-13.8274 -0.957916 12.2034
-13.3694 -1.8291 11.8314
-13.9604 -1.05831 11.9164
-14.3514 -0.170766 11.6814
-14.2344 -0.0225165 11.9584
-13.4614 -1.79619 11.4554
-14.0024 -1.11263 11.5254
-14.3644 -0.325866 11.3074
-14.4774 0.452784 10.8774
-14.4914 0.692464 11.1914
-14.3854 0.882713 11.4414
-10.8994 -2.48729 9.98237
-11.1724 -2.51467 9.80237
-11.8604 -2.57725 10.6394
-11.6194 -2.55002 10.8644
-11.5054 -2.41953 9.63337
-12.1304 -2.48468 10.3724
-12.8094 -2.26522 11.0254
-12.6314 -2.34207 11.3604
-12.4334 -2.30592 11.6194
-10.5064 -3.20037 2.59137
-10.6204 -3.68062 2.13837
-10.8464 -3.08533 3.31737
-11.0544 -3.56773 2.88337
-11.3604 -3.86569 2.23737
-10.8054 -3.9824 1.46237
-11.1194 -2.98009 4.10037
-11.4464 -3.48512 3.66537
-11.9044 -3.79556 3.02137
-12.8514 -3.67865 1.63337
-12.4024 -3.87291 2.30037
-12.0204 -3.75991 0.834365
-11.7024 -3.94212 1.51037
-11.2364 -3.89766 -0.00763476
-11.0224 -4.06748 0.701365
-11.4094 -3.43473 -0.526635
-12.2544 -3.28196 0.341365
-12.3954 -2.6279 0.0463652
-11.5294 -2.79599 -0.839635
-13.1614 -3.17429 1.15037
-13.3274 -2.48566 0.866365
-13.2064 -1.0589 0.938365
-13.3444 -1.73858 0.791365
-12.3634 -1.2699 0.103365
-12.4344 -1.91734 -0.0376348
-11.5684 -1.4603 -0.785635
-11.5864 -2.09874 -0.930635
-11.4644 -0.997957 -0.386635
-12.1744 -0.805206 0.484365
-11.9074 -0.542656 1.02537
-11.3014 -0.732026 0.181365
-12.9104 -0.572426 1.31937
-12.5134 -0.299126 1.85737
-11.6584 -0.471746 3.08637
-12.0764 -0.258916 2.47237
-11.3054 -0.701557 2.27137
-11.6044 -0.501646 1.64737
-10.9024 -0.870516 1.48937
-11.1054 -0.682777 0.834365
-10.7194 -1.31553 2.06237
-11.0524 -1.1618 2.81637
-10.8724 -1.78045 3.21637
-10.5774 -1.91844 2.48337
-11.3174 -0.957536 3.62237
-11.0904 -1.60903 4.01337
-11.0124 -2.31897 4.19437
-10.7944 -2.4556 3.40637
-10.4994 -2.57985 2.68237
3 0 1 2
3 0 2 3
3 2 4 5
3 2 5 3
3 5 6 7
3 5 7 3
3 7 8 0
3 7 0 3
3 9 10 11
3 9 11 12
3 11 13 14
3 11 14 12
3 14 6 5
3 14 5 12
3 5 4 9
3 5 9 12
3 15 16 17
3 15 17 18
3 17 19 20
3 17 20 18
3 20 6 14
3 20 14 18
3 14 13 15
3 14 15 18
3 21 22 23
3 21 23 24
3 23 8 7
3 23 7 24
3 7 6 20
3 7 20 24
3 20 19 21
3 20 21 24
3 25 26 27
3 26 28 29
3 26 29 27
3 29 30 31
3 29 31 27
3 31 25 27
3 32 33 34
3 32 34 35
3 34 36 37
3 34 37 35
3 37 30 29
3 37 29 35
3 29 28 32
3 29 32 35
3 38 39 40
3 38 40 41
3 40 42 43
3 40 43 41
3 43 30 37
3 43 37 41
3 37 36 38
3 37 38 41
3 31 30 43
3 31 43 44
3 43 42 45
3 43 45 44
3 46 47 48
3 46 48 49
3 48 50 51
3 48 51 49
3 52 53 54
3 52 54 55
3 54 56 57
3 54 57 55
3 57 50 48
3 57 48 55
3 48 47 52
3 48 52 55
3 58 33 32
3 58 32 59
3 32 28 60
3 32 60 59
3 60 50 57
3 60 57 59
3 57 56 58
3 57 58 59
3 51 50 60
3 51 60 61
3 60 28 26
3 60 26 61
3 62 63 64
3 62 64 65
3 64 66 67
3 64 67 65
3 67 68 69
3 67 69 65
3 69 62 65
3 70 71 72
3 70 72 73
3 72 74 75
3 72 75 73
3 75 68 67
3 75 67 73
3 67 66 70
3 67 70 73
3 76 53 52
3 76 52 77
3 52 47 78
3 52 78 77
3 78 68 75
3 78 75 77
3 75 74 76
3 75 76 77
3 69 68 78
3 69 78 79
3 78 47 46
3 78 46 79
3 80 45 81
3 45 42 82
3 45 82 81
3 82 83 84
3 82 84 81
3 84 80 81
3 40 39 85
3 40 85 86
3 85 87 88
3 85 88 86
3 88 83 82
3 88 82 86
3 82 42 40
3 82 40 86
3 89 71 70
3 89 70 90
3 70 66 91
3 70 91 90
3 91 83 88
3 91 88 90
3 88 87 89
3 88 89 90
3 64 63 92
3 64 92 93
3 92 84 93
3 84 83 91
3 84 91 93
3 91 66 64
3 91 64 93
3 94 95 96
3 94 96 97
3 96 98 99
3 96 99 97
3 99 100 101
3 99 101 97
3 101 102 94
3 101 94 97
3 103 104 105
3 103 105 106
3 105 107 108
3 105 108 106
3 108 100 99
3 108 99 106
3 99 98 103
3 99 103 106
3 109 110 111
3 109 111 112
3 111 113 114
3 111 114 112
3 114 100 108
3 114 108 112
3 108 107 109
3 108 109 112
3 115 116 117
3 115 117 118
3 117 102 101
3 117 101 118
3 101 100 114
3 101 114 118
3 114 113 115
3 114 115 118
3 119 120 121
3 119 121 122
3 121 123 124
3 121 124 122
3 124 125 126
3 124 126 122
3 126 127 119
3 126 119 122
3 128 129 130
3 128 130 131
3 130 132 133
3 130 133 131
3 133 125 124
3 133 124 131
3 124 123 128
3 124 128 131
3 134 104 103
3 134 103 135
3 103 98 136
3 103 136 135
3 136 125 133
3 136 133 135
3 133 132 134
3 133 134 135
3 96 95 137
3 96 137 138
3 137 127 126
3 137 126 138
3 126 125 136
3 126 136 138
3 136 98 96
3 136 96 138
3 139 140 141
3 139 141 142
3 141 143 144
3 141 144 142
3 144 145 146
3 144 146 142
3 146 147 139
3 146 139 142
3 148 149 150
3 148 150 151
3 150 152 153
3 150 153 151
3 153 145 144
3 153 144 151
3 144 143 148
3 144 148 151
3 154 129 128
3 154 128 155
3 128 123 156
3 128 156 155
3 156 145 153
3 156 153 155
3 153 152 154
3 153 154 155
3 121 120 157
3 121 157 158
3 157 147 146
3 157 146 158
3 146 145 156
3 146 156 158
3 156 123 121
3 156 121 158
3 159 116 115
3 159 115 160
3 115 113 161
3 115 161 160
3 161 162 163
3 161 163 160
3 163 164 159
3 163 159 160
3 111 110 165
3 111 165 166
3 165 167 168
3 165 168 166
3 168 162 161
3 168 161 166
3 161 113 111
3 161 111 166
3 169 149 148
3 169 148 170
3 148 143 171
3 148 171 170
3 171 162 168
3 171 168 170
3 168 167 169
3 168 169 170
3 141 140 172
3 141 172 173
3 172 164 163
3 172 163 173
3 163 162 171
3 163 171 173
3 171 143 141
3 171 141 173
3 105 104 174
3 105 174 175
3 174 176 177
3 174 177 175
3 177 178 179
3 177 179 175
3 179 107 105
3 179 105 175
3 180 1 0
3 180 0 181
3 0 8 182
3 0 182 181
3 182 178 177
3 182 177 181
3 177 176 180
3 177 180 181
3 23 22 183
3 23 183 184
3 183 185 186
3 183 186 184
3 186 178 182
3 186 182 184
3 182 8 23
3 182 23 184
3 187 110 109
3 187 109 188
3 109 107 179
3 109 179 188
3 179 178 186
3 179 186 188
3 186 185 187
3 186 187 188
3 189 190 191
3 189 191 192
3 191 193 194
3 191 194 192
3 194 195 196
3 194 196 192
3 196 197 189
3 196 189 192
3 198 199 200
3 198 200 201
3 200 202 203
3 200 203 201
3 203 195 194
3 203 194 201
3 194 193 198
3 194 198 201
3 204 205 206
3 204 206 207
3 206 208 209
3 206 209 207
3 209 195 203
3 209 203 207
3 203 202 204
3 203 204 207
3 210 211 212
3 210 212 213
3 212 197 196
3 212 196 213
3 196 195 209
3 196 209 213
3 209 208 210
3 209 210 213
3 150 149 214
3 150 214 215
3 214 216 217
3 214 217 215
3 217 218 219
3 217 219 215
3 219 152 150
3 219 150 215
3 220 16 15
3 220 15 221
3 15 13 222
3 15 222 221
3 222 218 217
3 222 217 221
3 217 216 220
3 217 220 221
3 11 10 223
3 11 223 224
3 223 225 226
3 223 226 224
3 226 218 222
3 226 222 224
3 222 13 11
3 222 11 224
3 227 129 154
3 227 154 228
3 154 152 219
3 154 219 228
3 219 218 226
3 219 226 228
3 226 225 227
3 226 227 228
3 165 110 187
3 165 187 229
3 187 185 230
3 187 230 229
3 230 231 232
3 230 232 229
3 232 167 165
3 232 165 229
3 183 22 21
3 183 21 233
3 21 19 234
3 21 234 233
3 234 231 230
3 234 230 233
3 230 185 183
3 230 183 233
3 17 16 220
3 17 220 235
3 220 216 236
3 220 236 235
3 236 231 234
3 236 234 235
3 234 19 17
3 234 17 235
3 214 149 169
3 214 169 237
3 169 167 232
3 169 232 237
3 232 231 236
3 232 236 237
3 236 216 214
3 236 214 237
3 130 129 238
3 130 238 239
3 238 240 241
3 238 241 239
3 241 242 243
3 241 243 239
3 243 132 130
3 243 130 239
3 244 245 246
3 244 246 247
3 246 248 249
3 246 249 247
3 249 242 241
3 249 241 247
3 241 240 244
3 241 244 247
3 250 251 252
3 250 252 253
3 252 254 255
3 252 255 253
3 255 242 249
3 255 249 253
3 249 248 250
3 249 250 253
3 256 104 134
3 256 134 257
3 134 132 243
3 134 243 257
3 243 242 255
3 243 255 257
3 255 254 256
3 255 256 257
3 223 10 258
3 223 258 259
3 258 260 261
3 258 261 259
3 261 262 263
3 261 263 259
3 263 225 223
3 263 223 259
3 264 265 266
3 264 266 267
3 266 268 269
3 266 269 267
3 269 262 261
3 269 261 267
3 261 260 264
3 261 264 267
3 270 245 244
3 270 244 271
3 244 240 272
3 244 272 271
3 272 262 269
3 272 269 271
3 269 268 270
3 269 270 271
3 238 129 227
3 238 227 273
3 227 225 263
3 227 263 273
3 263 262 272
3 263 272 273
3 272 240 238
3 272 238 273
3 2 1 274
3 2 274 275
3 274 276 277
3 274 277 275
3 277 278 279
3 277 279 275
3 279 4 2
3 279 2 275
3 280 281 282
3 280 282 283
3 282 284 285
3 282 285 283
3 285 278 277
3 285 277 283
3 277 276 280
3 277 280 283
3 286 265 264
3 286 264 287
3 264 260 288
3 264 288 287
3 288 278 285
3 288 285 287
3 285 284 286
3 285 286 287
3 258 10 9
3 258 9 289
3 9 4 279
3 9 279 289
3 279 278 288
3 279 288 289
3 288 260 258
3 288 258 289
3 174 104 256
3 174 256 290
3 256 254 291
3 256 291 290
3 291 292 293
3 291 293 290
3 293 176 174
3 293 174 290
3 252 251 294
3 252 294 295
3 294 296 297
3 294 297 295
3 297 292 291
3 297 291 295
3 291 254 252
3 291 252 295
3 298 281 280
3 298 280 299
3 280 276 300
3 280 300 299
3 300 292 297
3 300 297 299
3 297 296 298
3 297 298 299
3 274 1 180
3 274 180 301
3 180 176 293
3 180 293 301
3 293 292 300
3 293 300 301
3 300 276 274
3 300 274 301
3 246 245 302
3 246 302 303
3 302 304 305
3 302 305 303
3 305 306 307
3 305 307 303
3 307 248 246
3 307 246 303
3 308 190 189
3 308 189 309
3 189 197 310
3 189 310 309
3 310 306 305
3 310 305 309
3 305 304 308
3 305 308 309
3 212 211 311
3 212 311 312
3 311 313 314
3 311 314 312
3 314 306 310
3 314 310 312
3 310 197 212
3 310 212 312
3 315 251 250
3 315 250 316
3 250 248 307
3 250 307 316
3 307 306 314
3 307 314 316
3 314 313 315
3 314 315 316
3 266 265 317
3 266 317 318
3 317 319 320
3 317 320 318
3 320 321 322
3 320 322 318
3 322 268 266
3 322 266 318
3 323 199 198
3 323 198 324
3 198 193 325
3 198 325 324
3 325 321 320
3 325 320 324
3 320 319 323
3 320 323 324
3 191 190 308
3 191 308 326
3 308 304 327
3 308 327 326
3 327 321 325
3 327 325 326
3 325 193 191
3 325 191 326
3 302 245 270
3 302 270 328
3 270 268 322
3 270 322 328
3 322 321 327
3 322 327 328
3 327 304 302
3 327 302 328
3 282 281 329
3 282 329 330
3 329 331 332
3 329 332 330
3 332 333 334
3 332 334 330
3 334 284 282
3 334 282 330
3 335 205 204
3 335 204 336
3 204 202 337
3 204 337 336
3 337 333 332
3 337 332 336
3 332 331 335
3 332 335 336
3 200 199 323
3 200 323 338
3 323 319 339
3 323 339 338
3 339 333 337
3 339 337 338
3 337 202 200
3 337 200 338
3 317 265 286
3 317 286 340
3 286 284 334
3 286 334 340
3 334 333 339
3 334 339 340
3 339 319 317
3 339 317 340
3 294 251 315
3 294 315 341
3 315 313 342
3 315 342 341
3 342 343 344
3 342 344 341
3 344 296 294
3 344 294 341
3 311 211 210
3 311 210 345
3 210 208 346
3 210 346 345
3 346 343 342
3 346 342 345
3 342 313 311
3 342 311 345
3 206 205 335
3 206 335 347
3 335 331 348
3 335 348 347
3 348 343 346
3 348 346 347
3 346 208 206
3 346 206 347
3 329 281 298
3 329 298 349
3 298 296 344
3 298 344 349
3 344 343 348
3 344 348 349
3 348 331 329
3 348 329 349
3 34 33 350
3 34 350 351
3 350 352 353
3 350 353 351
3 353 354 355
3 353 355 351
3 355 36 34
3 355 34 351
3 356 95 94
3 356 94 357
3 94 102 358
3 94 358 357
3 358 354 353
3 358 353 357
3 353 352 356
3 353 356 357
3 117 116 359
3 117 359 360
3 359 361 362
3 359 362 360
3 362 354 358
3 362 358 360
3 358 102 117
3 358 117 360
3 363 39 38
3 363 38 364
3 38 36 355
3 38 355 364
3 355 354 362
3 355 362 364
3 362 361 363
3 362 363 364
3 85 39 363
3 85 363 365
3 363 361 366
3 363 366 365
3 366 367 368
3 366 368 365
3 368 87 85
3 368 85 365
3 359 116 159
3 359 159 369
3 159 164 370
3 159 370 369
3 370 367 366
3 370 366 369
3 366 361 359
3 366 359 369
3 172 140 371
3 172 371 372
3 371 373 374
3 371 374 372
3 374 367 370
3 374 370 372
3 370 164 172
3 370 172 372
3 375 71 89
3 375 89 376
3 89 87 368
3 89 368 376
3 368 367 374
3 368 374 376
3 374 373 375
3 374 375 376
3 72 71 375
3 72 375 377
3 375 373 378
3 375 378 377
3 378 379 380
3 378 380 377
3 380 74 72
3 380 72 377
3 371 140 139
3 371 139 381
3 139 147 382
3 139 382 381
3 382 379 378
3 382 378 381
3 378 373 371
3 378 371 381
3 157 120 383
3 157 383 384
3 383 385 386
3 383 386 384
3 386 379 382
3 386 382 384
3 382 147 157
3 382 157 384
3 387 53 76
3 387 76 388
3 76 74 380
3 76 380 388
3 380 379 386
3 380 386 388
3 386 385 387
3 386 387 388
3 54 53 387
3 54 387 389
3 387 385 390
3 387 390 389
3 390 391 392
3 390 392 389
3 392 56 54
3 392 54 389
3 383 120 119
3 383 119 393
3 119 127 394
3 119 394 393
3 394 391 390
3 394 390 393
3 390 385 383
3 390 383 393
3 137 95 356
3 137 356 395
3 356 352 396
3 356 396 395
3 396 391 394
3 396 394 395
3 394 127 137
3 394 137 395
3 350 33 58
3 350 58 397
3 58 56 392
3 58 392 397
3 392 391 396
3 392 396 397
3 396 352 350
3 396 350 397
