0.137631
0.323209
0.361313
0.496638
0.412511
0.534058
0.401164
0.405465
0.205538
0.551871
0.431287
0.421869
0.398562
0.536134
0.340522
0.282724
0.391938
0.327463
0.379661
0.284159
0.528149
0.499347
0.419095
0.505259
0.155975
0.340574
0.386712
0.611435
0.481486
0.423963
0.21336
0.3013
0.494877
0.19786
0.659
0.448478
0.690386
0.288786
0.484975
0.276605
0.786766
0.374803
0.642579
0.446063
0.246646
0.445747
0.102796
0.407015
0.400019
0.626433
0.585417
0.865361
0.841534
0.741288
0.725288
0.500605
0.195404
0.716899
0.735833
0.838187
0.858717
0.698933
0.235725
0.891121
0.687046
0.670865
0.853144
0.763381
0.707186
0.72745
0.25098
0.207479
0.483038
0.707403
0.791225
0.584068
0.41909
0.842525
0.735675
0.629403
0.746208
0.710524
0.108758
0.837554
0.289317
0.505439
0.522577
0.498353
0.632935
0.465519
0.925505
0.282663
0.622185
0.65209
0.520993
0.739985
0.604015
0.7708
0.731563
0.790408
0.503991
0.761261
0.568979
0.314081
0.563659
0.43833
0.810416
0.49573
1
0.653178
0.523131
0.656721
0.638698
0.37001
0.796731
0.473158
0.596216
0.42574
0.486906
0.46272
0.680925
0.535471
0.304662
0.455377
0.364336
0.357369
0.412494
0.427166
0.372022
0.380467
0.339318
0.292088
0.56818
0.389012
0.529591
0.584982
0.391366
0.400943
0.557015
0.539321
0.596066
0.56864
0.515028
0.506174
0.5441
0.482946
0.602886
0.297808
0.418493
0.536025
0.479767
0.627001
0.321118
0.719445
0.386558
0.207915
0.252204
0.243583
0.569132
0.517377
0.523655
0.23161
0.426024
0.447311
0.518653
0.432405
0.147379
0.513396
0.420978
0.45983
0.50231
0.290306
0.499032
0.520326
0.551937
0.510534
0.488307
0.365817
0.66312
0.545587
0.432483
0.522023
0.486191
0.499152
0.620419
0.576749
0.370775
0.322376
0.373892
0.395859
0.433399
0.428459
0.516414
0.356992
0.367408
0.349993
0.471736
0.30176
0.405236
0.460615
0.346348
0.372369
0.736497
0.570679
0.54449
0.749846
0.513121
0.542938
0.559234
0.54032
0.445779
0.360879
0.57532
0.551203
0.381049
0.533375
0.63516
0.516375
0.287716
0.4383
0.300168
0.309159
0.515583
0.506672
0.490009
0.30734
0.406424
0.360921
0.551867
0.242421
0.204301
0.255399
0.316922
0.388058
0.57846
0.640801
0.767871
0.281709
0.453546
0.525414
0.608612
0.497072
0.235769
0.280655
0.503224
0.541441
0.407573
0.557153
0.444114
0.466181
0.301702
0.324511
0.454472
0.461424
0.411402
0.470485
0.493797
0.467577
0.370432
0.331603
0.516248
0.40875
0.439377
0.375206
0.447511
0.440798
0.384515
0.324963
0.323979
0.322549
0.384795
0.457406
0.437067
0.446762
0.379356
0.379204
0.349125
0.310055
0.53845
0.538963
0.394138
0.334123
0.422827
0.467826
0.492469
0.26466
0.48909
0.473621
0.362028
0.564683
0.422844
0.295815
0.333952
0.427161
0.367342
0.449015
0.386561
0.412854
0.362515
0.365854
0.452429
0.392809
0.518705
0.244965
0.368508
0.366233
0.304077
0.349954
0.465244
0.47676
0.506517
0.409241
0.35358
0.345187
0.298378
0.564969
0.488077
0.420637
0.479664
0.418277
0.23143
0.416429
0.2682
0.365806
0.452446
0.510559
0.411714
0.382727
0.473884
0.420815
0.315925
0.327499
0.351227
0.391177
0.479363
0.509177
0.461484
0.481056
0.469307
0.448421
0.49583
0.364332
0.466847
0.440644
0.223646
0.230306
0.361075
0.217436
0.26713
0.455679
0.362201
0.509596
0.405405
0.244065
0.286414
0.319608
0.411889
0.515332
0.422081
0.371042
0.32893
0.413765
0.437865
0.231347
0.18961
0.365884
0.242642
0.367229
0.507434
0.434597
0.311738
0.322987
0.0958388
0.122509
0.490691
0.248382
0.281826
0.193459
0.391321
0.448176
0.476219
0.288854
0.322083
0.393764
0.0649787
0.278933
0.481996
0.52705
0.446028
0.303811
0.322377
0.384306
0.511586
0.372222
0.25259
0.284809
0.480763
0.39399
0.489827
0.284289
0.230348
0.0985778
0.16897
0.340662
0.0315647
0.0331584
0.152238
0.121469
0.235324
0.150996
0.173785
0.19003
0.186405
0.262726
0.0159386
0.0692747
0.0948724
0.299508
0.250996
0.211652
0.198062
0.354696
0.153891
0.0984588
0.213572
0.112673
0.301968
0.201761
0.17833
0.075998
0.0254776
0.104796
0.081815
0
0.245909
0.183278
0.305707
0.0932067
0.42577
0.110667
0.462928
0.350652
0.229652
0.216509
0.364258
0.42012
0.213916
0.119772
0.100424
0.371287
0.310441
0.173586
0.0730554
0.13174
0.275595
0.160178
0.360364
0.415481
0.369161
0.516296
0.412968
0.365298
0.425671
0.175614
0.114491
0.102521
0.33879
0.162815
0.0725901
0.0835012
0.0405742
0.057271
0.441662
0.211163
0.231917
0.18157
0.345112
0.085126
0.0876953
0.0651868
0.261523
0.0524059
0.234523
0.168985
0.16558
0.252109
0.040875
0.0478217
0.12566
0.303792
0.164553
0.104996
0.166553
0.174251
0.0703904
0.0591551
0.270034
0.145495
0.457641
0.155603
0.784233
0.508892
0.772542
0.716001
0.591308
0.472278
0.448302
0.409285
0.49617
0.323087
0.411796
0.568271
0.658067
0.450753
0.697764
0.68115
0.474514
0.577515
0.609146
0.554729
0.420798
0.607878
0.749784
0.574555
0.235214
0.834175
0.784258
0.766916
0.159358
0.648656
0.432859
0.412723
0.354333
0.616429
0.669767
0.701656
0.558157
0.351065
0.312209
0.656815
0.645083
0.616184
0.655783
0.638661
0.792193
0.599027
0.599704
0.314611
0.287071
0.785867
0.759329
0.629571
0.412296
0.791822
0.554594
0.605143
0.769499
0.582479
0.287543
0.276504
0.303519
0.774667
0.646031
0.718775
0.512863
0.557912
0.74896
0.290982
0.117387
0.542082
0.133124
0.537999
0.533681
0.58763
0.465719
0.582207
0.463061
0.428612
0.499277
0.416252
0.654251
0.197373
0.150342
0.160794
0.796537
0.679545
0.431933
0.781994
0.66953
0.493731
0.232854
0.219432
0.735813
0.670943
0.755213
0.671878
0.751235
0.597717
0.396379
0.436094
0.704409
0.602623
0.427342
0.431994
0.732466
0.226078
0.583931
0.818374
0.63298
0.569407
0.132454
0.456784
