OFF
1578 3088 0
-0.0843625 -7.20674 7.51276
0.184638 -6.92754 7.52876
0.311638 -6.35284 7.63876
-0.0373625 -6.46864 7.67376
0.443638 -5.49574 7.77576
0.0506375 -5.57034 7.82676
-0.405362 -5.69574 7.84976
-0.457362 -6.66934 7.67676
-0.485362 -7.50094 7.48976
0.541638 -4.49384 7.90276
0.588638 -3.42054 8.00377
0.164638 -3.45794 8.06876
0.124638 -4.54564 7.96376
-0.321362 -3.49844 8.10977
-0.354362 -4.62234 7.99876
-0.848362 -3.54074 8.12976
-1.39536 -3.58324 8.13076
-1.41136 -4.76354 8.01077
-0.872362 -4.70234 8.01276
-1.42636 -5.89444 7.84876
-0.904362 -5.81594 7.85476
-1.43936 -6.93074 7.65676
-1.45036 -7.82714 7.44776
-0.951362 -7.71874 7.46576
-0.934362 -6.83654 7.66876
0.389638 -0.503142 8.06977
0.277638 0.0632577 8.04576
0.0156375 0.301058 8.07476
0.0436375 -0.447042 8.12476
-0.378362 0.534458 8.10076
-0.372362 -0.313342 8.16076
-0.345362 -1.29564 8.18476
0.107638 -1.34634 8.14277
0.499638 -1.35234 8.07976
-0.839363 0.681958 8.11576
-1.33636 0.715258 8.12076
-1.34936 -0.202742 8.18676
-0.845362 -0.220042 8.18076
-1.36336 -1.25624 8.21376
-0.843362 -1.25454 8.20877
-1.37936 -2.39854 8.19676
-0.841362 -2.37644 8.19276
-0.323362 -2.37354 8.16976
0.570638 -2.34904 8.06076
0.153638 -2.37074 8.12676
-2.70236 0.0935577 8.07376
-2.97236 -0.184442 8.04276
-3.09936 -0.769342 8.05976
-2.75036 -0.660742 8.11677
-3.23236 -1.63714 8.05976
-2.83936 -1.57184 8.12676
-2.38436 -1.45194 8.17376
-2.33036 -0.463242 8.15576
-2.30136 0.387458 8.10076
-3.33036 -2.64654 8.02876
-3.37736 -3.72234 7.95976
-2.95436 -3.69594 8.03376
-2.91336 -2.60524 8.10076
-2.46936 -3.66264 8.08576
-2.43636 -2.53534 8.15176
-1.94236 -3.62444 8.11677
-1.91736 -2.45894 8.18376
-1.88436 -1.33434 8.20276
-1.83536 0.605858 8.11677
-1.85336 -0.297242 8.17876
-3.17636 -6.61434 7.57076
-3.06436 -7.17014 7.45876
-2.80236 -7.40964 7.45276
-2.83136 -6.67864 7.61876
-2.40836 -7.64454 7.44576
-2.41636 -6.81664 7.63776
-2.44336 -5.85024 7.81576
-2.89636 -5.79324 7.77776
-3.28736 -5.77714 7.71176
-1.94736 -7.79304 7.44276
-1.94236 -6.91234 7.64876
-1.94636 -5.89494 7.83776
-1.94936 -4.78434 7.99776
-2.46636 -4.78324 7.96876
-3.35936 -4.78944 7.84776
-2.94336 -4.77874 7.92076
1.40764 2.00506 -1.26824
1.20964 1.63526 -1.75624
0.791638 1.92676 -2.00524
0.865638 2.64306 -1.38724
0.165638 2.21776 -2.26624
0.205638 3.06576 -1.57324
0.297638 3.76936 -0.783235
1.02964 3.24456 -0.639235
1.65064 2.47376 -0.532235
-0.568362 2.40876 -2.45224
-1.35436 2.46206 -2.52424
-1.35236 3.38676 -1.77724
-0.550362 3.32016 -1.71824
-1.33736 4.17136 -0.901235
-0.502362 4.08596 -0.877235
-1.30236 4.85796 0.0687646
-1.21536 5.53966 1.17676
-0.297362 5.24656 0.832765
-0.429362 4.73916 0.0187646
0.533638 4.84646 0.801765
0.415638 4.36416 0.0457646
1.35164 4.33506 0.980765
2.24564 3.62496 1.46676
1.91264 2.98506 0.341765
1.22264 3.81196 0.202765
-3.49336 1.73586 -1.98524
-3.90836 1.40456 -1.73624
-4.10336 1.74836 -1.23924
-3.56436 2.43646 -1.35624
-4.33736 2.15726 -0.487235
-3.71536 2.99516 -0.571235
-2.98236 3.60266 -0.710235
-2.90636 2.92136 -1.54824
-2.87136 2.08406 -2.25024
-4.57636 2.55496 0.414765
-4.86736 2.93636 1.51276
-4.00136 3.89416 1.37976
-3.88236 3.48046 0.356765
-3.13536 4.59176 1.27276
-3.06536 4.15966 0.240765
-2.22636 5.13286 1.19276
-2.19336 4.64186 0.143765
-2.17636 4.00246 -0.833235
-2.14036 2.33996 -2.44324
-2.15336 3.24596 -1.70424
-4.69036 3.69436 4.58576
-4.81736 3.18846 5.54776
-3.96736 4.30006 5.42476
-3.97836 4.42516 4.53576
-3.10336 5.09436 5.32776
-3.14536 5.13356 4.44076
-3.17136 5.07876 3.42676
-3.97636 4.43966 3.51776
-4.67236 3.78296 3.61076
-2.19236 5.68566 5.26076
-1.17736 6.08556 5.23376
-1.50136 6.10356 4.27476
-2.28036 5.70286 4.36876
-1.59536 6.02376 3.30076
-2.34436 5.61966 3.35176
-1.52136 5.85446 2.28576
-2.30236 5.44426 2.27676
-3.16936 4.89816 2.35276
-4.72636 3.56666 2.60176
-4.00836 4.23826 2.44976
1.40664 0.938258 -1.96924
0.864638 1.01486 -2.45424
1.61064 -0.0978423 -2.20124
0.999638 -0.0662423 -2.77624
0.280638 0.0197577 -3.19324
0.204638 1.18996 -2.80024
1.75364 -1.30744 -2.39224
1.81264 -2.60894 -2.52324
1.15464 -2.59174 -3.15624
1.10564 -1.29054 -3.01224
0.387638 -2.58904 -3.61924
0.350638 -1.25574 -3.46424
-0.453362 -2.60104 -3.90524
-1.33236 -2.62784 -4.00724
-1.34036 -1.23334 -3.83924
-0.476362 -1.22824 -3.74224
-1.34736 0.108658 -3.54424
-0.514362 0.0924577 -3.45324
-1.35236 1.35486 -3.10924
-0.550362 1.31876 -3.02724
1.42064 -6.23214 -2.47624
1.22364 -6.96794 -2.36824
0.811638 -7.25584 -2.67024
0.887638 -6.28384 -2.98324
0.192638 -7.55784 -2.99324
0.233638 -6.46024 -3.37024
0.303638 -5.23934 -3.58524
1.01764 -5.15744 -3.14424
1.62164 -5.15724 -2.55724
-0.536362 -7.77974 -3.23124
-1.32036 -7.88694 -3.33924
-1.31736 -6.70194 -3.74324
-0.517362 -6.61434 -3.63424
-1.31936 -5.40314 -3.97724
-0.488362 -5.33534 -3.86924
-1.32436 -4.03144 -4.05924
-0.462362 -3.98374 -3.95324
0.363638 -3.93294 -3.66424
1.76064 -3.92084 -2.57524
1.11564 -3.90374 -3.20124
-3.47236 -7.43774 -2.76424
-3.89336 -7.18854 -2.47724
-4.08836 -6.46664 -2.58024
-3.54236 -6.46684 -3.06624
-4.29036 -5.40684 -2.65024
-3.67336 -5.34854 -3.21624
-2.95036 -5.36874 -3.63424
-2.87736 -6.58624 -3.42824
-2.84336 -7.68484 -3.06124
-4.43336 -4.18214 -2.65024
-4.49136 -2.87604 -2.57724
-3.82736 -2.79454 -3.19824
-3.77936 -4.10224 -3.25924
-3.05536 -2.72544 -3.64824
-3.01836 -4.06654 -3.70324
-2.21136 -2.66954 -3.91924
-2.18836 -4.05094 -3.97324
-2.15236 -5.40064 -3.89424
-2.10736 -7.84504 -3.26724
-2.12036 -6.67854 -3.66424
-4.10336 0.694858 -1.96024
-3.56436 0.824858 -2.44724
-2.90636 1.05896 -2.79424
-2.97336 -0.113142 -3.19924
-3.69236 -0.262442 -2.78424
-4.30236 -0.354142 -2.20924
-2.15336 1.25196 -3.02324
-2.17936 0.0253577 -3.45524
-2.20336 -1.29634 -3.75024
-3.03136 -1.39114 -3.48124
-4.44036 -1.57224 -2.42224
-3.78936 -1.49174 -3.03724
1.41464 -7.38554 -1.92924
0.877638 -8.04644 -2.15824
1.62464 -7.92434 -1.25924
1.00764 -8.72994 -1.50624
0.282638 -9.29164 -1.76524
0.221638 -8.49464 -2.43024
1.80764 -8.51014 -0.459235
1.96164 -9.21534 0.492765
1.16364 -9.98164 -0.136235
1.12764 -9.38084 -0.777235
0.352638 -10.527 -0.488235
0.338638 -9.96984 -1.08124
-0.500362 -10.9017 -0.692235
-1.37336 -11.0677 -0.771235
-1.35836 -10.5087 -1.36724
-0.497362 -10.3502 -1.28124
-1.34336 -9.79154 -2.05724
-0.512362 -9.64674 -1.96224
-1.33036 -8.91724 -2.74524
-0.529362 -8.79024 -2.64324
-4.09636 -7.63004 -2.05524
-3.55236 -8.24194 -2.26724
-2.88936 -8.63074 -2.51024
-2.97536 -9.44074 -1.85724
-3.70636 -8.94704 -1.63324
-4.32636 -8.20034 -1.40624
-2.13236 -8.85994 -2.68524
-2.17636 -9.72254 -2.01024
-2.24736 -10.9869 -0.748235
-2.22036 -10.4319 -1.33424
-3.10236 -10.697 -0.597235
-3.06036 -10.1319 -1.18424
-3.91836 -10.2354 -0.293235
-4.72636 -9.55964 0.296765
-4.53736 -8.81954 -0.628235
-3.85436 -9.62094 -0.921235
1.80964 -6.45204 -1.84824
2.08564 -5.30644 -1.83124
2.43164 -5.54924 -0.983235
2.09564 -6.83804 -1.09724
2.32364 -2.64064 -1.72524
2.26164 -4.00924 -1.79524
2.72364 -2.66934 -0.788235
2.64564 -4.13624 -0.880235
3.04664 -2.67764 0.261765
3.34764 -2.60574 1.49176
3.13464 -4.45124 1.23576
2.93964 -4.26944 0.147765
2.85164 -6.10694 1.00276
2.68464 -5.82954 -0.0282354
2.48164 -7.67394 0.761765
2.31764 -7.28474 -0.220235
1.80464 1.10486 -1.32424
2.11764 1.41936 -0.551235
2.44664 0.161758 -0.630235
2.08164 -0.00734226 -1.46724
2.67964 2.02136 1.15076
2.40464 1.78636 0.318765
2.98364 0.559358 1.07776
2.74164 0.365558 0.253765
3.20864 -0.930242 1.16876
2.96764 -1.12754 0.265765
2.65264 -1.21894 -0.707235
2.25864 -1.28124 -1.60824
-5.04836 -10.0629 3.42476
-4.77036 -10.5762 4.30576
-5.29036 -8.96274 4.56476
-5.39136 -8.77374 3.69676
-5.64436 -7.29084 4.85076
-5.71536 -7.20314 3.97676
-5.74436 -7.05434 2.97476
-5.44036 -8.52424 2.70076
-5.12436 -9.75844 2.46576
-5.89836 -5.51404 5.15176
-6.06136 -3.53564 5.45476
-6.16836 -4.10254 4.46976
-5.97336 -5.56254 4.26776
-6.20836 -4.17694 3.48776
-6.00336 -5.53494 3.24976
-6.18936 -3.90454 2.47676
-6.07836 -3.17554 1.38676
-5.87136 -4.95754 1.10176
-5.97736 -5.28214 2.18576
-5.59636 -6.56104 0.840765
-5.70636 -6.83694 1.91076
-5.23636 -8.07804 0.576765
-5.03936 -9.58554 1.43676
-5.37836 -8.33124 1.63376
-4.49936 0.814058 -1.30924
-4.77336 -0.319842 -1.47424
-5.13936 -0.211142 -0.638235
-4.80736 1.06606 -0.530235
-5.01136 -2.96924 -1.78924
-4.94936 -1.60664 -1.64324
-5.42136 -3.06234 -0.863235
-5.34836 -1.60704 -0.748235
-5.75736 -3.14384 0.173765
-5.91936 -1.47114 1.09576
-5.67036 -1.58574 0.212765
-5.67336 0.0384577 1.04276
-5.43336 -0.0797423 0.237765
-5.34236 1.48156 1.15776
-5.08136 1.33436 0.339765
-4.49336 -6.73184 -1.97424
-4.79836 -7.15984 -1.24324
-5.13336 -5.90544 -1.11424
-4.76936 -5.61074 -1.94424
-5.04436 -7.64804 -0.387235
-5.40636 -6.23634 -0.176235
-5.65736 -4.71454 0.0277646
-5.34536 -4.51734 -0.986235
-4.94636 -4.33014 -1.88624
1.05864 -11.2239 4.60376
1.86864 -10.1485 4.51876
1.77764 -9.93054 5.21476
1.07064 -11.0313 5.04976
1.68964 -9.79524 5.71076
1.01464 -10.89 5.49176
0.233638 -11.6818 5.31076
0.257638 -11.8086 4.92076
0.242638 -11.9432 4.54176
1.60264 -9.68074 6.09076
1.51464 -9.56354 6.36276
0.878638 -10.6194 6.14076
0.948638 -10.7595 5.85976
0.142638 -11.3897 5.95376
0.191638 -11.5461 5.66576
-0.658362 -11.8747 5.81876
-1.49136 -12.0751 5.74876
-1.48936 -12.2454 5.45176
-0.632362 -12.0411 5.52476
-1.48636 -12.3873 5.09576
-0.611362 -12.1811 5.17076
-1.48236 -12.5077 4.72076
-1.47936 -12.6132 4.36476
-0.609362 -12.4125 4.44076
-0.601362 -12.3023 4.79676
1.26564 -9.10174 6.66176
1.19664 -8.95134 6.65876
0.629638 -9.89994 6.47276
0.682638 -10.0759 6.46776
-0.0273625 -10.5926 6.31676
0.00863753 -10.7871 6.30476
0.0506375 -10.995 6.25376
0.743638 -10.2637 6.42376
1.34264 -9.26204 6.62676
-0.742362 -11.0293 6.20476
-1.48536 -11.2102 6.14676
-1.48836 -11.4211 6.12676
-0.725362 -11.2355 6.18776
-1.49036 -11.6465 6.06676
-0.705362 -11.4558 6.13076
-1.49236 -11.87 5.94776
-0.683362 -11.6743 6.01376
0.0956375 -11.2009 6.14376
1.42664 -9.41994 6.53476
0.809638 -10.4496 6.32176
-3.57236 -10.2011 6.34676
-4.11836 -9.33434 6.51276
-4.19136 -9.49504 6.50876
-3.63136 -10.3851 6.33576
-4.27236 -9.66614 6.46776
-3.69636 -10.5814 6.28576
-3.01836 -11.2137 6.15376
-2.97336 -11.0001 6.20976
-2.93136 -10.8 6.22576
-4.35936 -9.83434 6.36676
-4.44636 -9.98684 6.18776
-3.83336 -10.9519 5.98876
-3.76536 -10.7752 6.17676
-3.11436 -11.6185 5.84376
-3.06636 -11.4251 6.03776
-2.32236 -11.9913 5.76076
-2.29736 -11.7885 5.95876
-2.27236 -11.5673 6.07776
-2.22536 -11.1351 6.15676
-2.24736 -11.344 6.13676
-4.69036 -10.3635 5.01576
-3.98936 -11.5529 4.42976
-4.00836 -11.3702 4.87876
-3.19136 -12.1682 4.41976
-3.21136 -12.0403 4.79876
-3.19436 -11.9152 5.19176
-3.95936 -11.2298 5.32876
-4.61136 -10.2283 5.52076
-2.34736 -12.5267 4.37776
-2.36136 -12.4199 4.73376
-2.35836 -12.2999 5.10876
-2.34336 -12.1594 5.46376
-3.15936 -11.7782 5.55076
-4.53036 -10.1104 5.90876
-3.89936 -11.0969 5.70276
2.66664 2.27486 5.83576
2.22464 3.96386 5.49376
1.99764 3.61586 6.17576
2.48964 2.20996 6.27376
1.86064 3.39006 6.63276
2.35264 2.03466 6.69776
2.69364 0.436558 6.73776
2.82164 0.551958 6.34776
2.96464 0.664758 5.94376
1.75764 3.20876 6.98976
1.67064 3.04306 7.24476
2.13864 1.75196 7.28976
2.23964 1.88826 7.03976
2.46564 0.229758 7.31076
2.57664 0.331558 7.06576
2.65264 -1.44814 7.29076
2.69964 -3.20654 7.21076
2.81864 -3.18234 6.96776
2.76964 -1.38434 7.04776
2.94764 -3.13374 6.61876
2.89364 -1.30824 6.71376
3.09464 -3.04264 6.15876
3.29364 -2.84154 5.52976
3.17464 -0.998342 5.87376
3.03364 -1.20874 6.30076
1.41264 2.50736 7.48276
1.33964 2.34806 7.45976
1.75664 1.19146 7.48676
1.84064 1.31886 7.51376
2.04764 -0.172142 7.49176
2.13964 -0.0821423 7.52176
2.24264 0.0179577 7.51676
1.93564 1.45976 7.50476
1.49464 2.68266 7.46976
2.21364 -1.67524 7.46276
2.25564 -3.25084 7.38576
2.35264 -3.24554 7.41676
2.30964 -1.62674 7.49476
2.46164 -3.23714 7.41276
2.41764 -1.57134 7.49176
2.57864 -3.22444 7.35176
2.53364 -1.51114 7.43076
2.35264 0.123558 7.45376
1.58164 2.86446 7.39776
2.03564 1.60656 7.43776
1.64364 -7.74694 6.86276
1.72464 -7.86464 6.87476
1.81564 -7.98944 6.84976
2.15964 -6.51514 7.06976
2.05864 -6.43154 7.08576
1.96964 -6.35184 7.06576
2.01464 -8.22144 6.60476
1.91364 -8.11164 6.76676
2.37964 -6.66604 6.84376
2.26764 -6.59564 6.99576
2.60864 -4.97014 7.05376
2.49064 -4.94294 7.19876
2.37564 -4.90804 7.26476
2.17364 -4.83144 7.24676
2.26864 -4.86944 7.27276
2.42364 -8.45934 4.76776
2.31664 -8.46594 5.44576
2.81064 -6.72614 5.02576
2.70964 -6.75624 5.70376
2.60164 -6.75084 6.21576
2.21764 -8.38674 5.96176
3.09664 -4.88884 5.28676
2.97864 -4.92014 5.95076
2.84764 -4.97384 6.44376
2.72564 -4.98544 6.80676
2.49164 -6.71924 6.58976
2.11664 -8.30914 6.34276
-4.60636 3.05296 6.20476
-3.89336 4.16996 6.10376
-4.47636 2.91046 6.67876
-3.79836 4.02666 6.61176
-3.01036 4.84526 6.54276
-3.05736 4.99276 6.01876
-4.37636 2.76096 7.03876
-4.29136 2.60256 7.28976
-3.65436 3.67966 7.24176
-3.72136 3.86196 6.98676
-2.91736 4.46906 7.18576
-2.96336 4.66856 6.92576
-2.11436 4.96866 7.13676
-1.28136 5.17676 7.10776
-1.28036 5.39136 6.84076
-2.13736 5.17896 6.87176
-1.27236 5.60046 6.45976
-2.15536 5.37486 6.48576
-1.24836 5.81786 5.95176
-2.16236 5.56006 5.95776
-4.04536 2.09946 7.51576
-3.97636 1.95136 7.48976
-3.40736 2.91686 7.45976
-3.46136 3.09146 7.48276
-2.75036 3.62476 7.42176
-2.78636 3.81886 7.43976
-2.82736 4.03216 7.42176
-3.52236 3.28386 7.46776
-4.12236 2.26316 7.50576
-2.03436 4.07316 7.38676
-1.29136 4.26026 7.36576
-1.28836 4.47166 7.37876
-2.05136 4.27946 7.40176
-1.28536 4.70366 7.35476
-2.07036 4.50606 7.37976
-1.28236 4.94316 7.27176
-2.09236 4.74006 7.29876
-2.87136 4.25286 7.34476
-4.20536 2.43376 7.43776
-3.58736 3.48346 7.39576
0.794638 3.23056 7.42676
0.853638 3.41396 7.44576
0.919638 3.61556 7.42776
0.242638 4.26146 7.38876
0.196638 4.04176 7.40976
0.154638 3.84166 7.39376
1.05964 4.02786 7.19376
0.988638 3.82406 7.35076
0.340638 4.70966 7.14676
0.291638 4.48826 7.30776
-0.451362 5.09156 7.11476
-0.477362 4.86026 7.27876
-0.503362 4.62316 7.36076
-0.551362 4.18396 7.37076
-0.528362 4.39336 7.38476
1.36764 4.87216 5.69376
1.31064 4.62036 6.14976
0.567638 5.47766 5.69976
0.501638 5.29526 6.12576
0.440638 5.10596 6.53576
1.20764 4.40706 6.58176
-0.256362 5.88916 5.56676
-0.356362 5.71196 6.03376
-0.396362 5.50736 6.48576
-0.426362 5.30386 6.84876
0.388638 4.91316 6.88276
1.12864 4.21596 6.93376
-5.19836 -8.97414 5.24876
-5.10836 -8.89534 5.77276
-5.45736 -7.31714 6.04676
-5.55636 -7.32484 5.53176
-4.91636 -8.71824 6.42876
-5.01436 -8.81364 6.15976
-5.24436 -7.21784 6.68476
-5.35236 -7.27994 6.42576
-5.43236 -5.55714 6.92476
-5.48036 -3.80784 7.12076
-5.59636 -3.79374 6.87576
-5.54636 -5.58224 6.67376
-5.72136 -3.75794 6.52676
-5.66336 -5.58004 6.30876
-5.86536 -3.68874 6.07276
-5.78836 -5.53854 5.81676
-4.53636 -8.19564 6.71476
-4.62136 -8.32564 6.72076
-4.82836 -6.84954 6.93076
-4.92136 -6.94294 6.94476
-5.02436 -7.04104 6.92376
-4.71536 -8.46334 6.68876
-4.99536 -5.36014 7.13476
-5.03736 -3.79194 7.30476
-5.13536 -3.80184 7.33376
-5.09236 -5.41304 7.15776
-5.24436 -3.80954 7.32676
-5.20036 -5.46714 7.14476
-5.36136 -3.81234 7.26376
-5.31536 -5.51694 7.07476
-5.13336 -7.13544 6.84376
-4.81436 -8.59784 6.59876
-4.42436 0.730158 7.49876
-4.50536 0.844558 7.52776
-4.59636 0.971858 7.52176
-4.94136 -0.518442 7.50476
-4.84036 -0.603542 7.50776
-4.75136 -0.679242 7.47676
-4.79336 1.23946 7.31376
-4.69336 1.10556 7.45776
-5.15936 -0.333742 7.30276
-5.04936 -0.427342 7.44376
-5.38836 -2.04144 7.24176
-5.27236 -2.09114 7.38276
-5.15836 -2.13604 7.44376
-4.95536 -2.20904 7.41576
-5.05136 -2.17554 7.44676
-5.30536 1.61116 5.89376
-5.13436 1.60296 6.31276
-5.64736 0.00175774 5.97676
-5.50836 -0.0681423 6.35676
-5.38236 -0.152242 6.73576
-5.00236 1.48856 6.72976
-5.90136 -1.68334 5.86176
-5.76236 -1.84864 6.26476
-5.62536 -1.92494 6.66876
-5.50336 -1.98764 6.99976
-5.26836 -0.241442 7.05876
-4.89236 1.36726 7.06776
1.13964 -8.82274 6.63776
0.584638 -9.74964 6.45876
1.09264 -8.71334 6.60776
0.548638 -9.62194 6.43376
-0.0813625 -10.2856 6.28876
-0.0563625 -10.4266 6.30976
1.05364 -8.62054 6.57276
1.02064 -8.54164 6.53976
0.492638 -9.42174 6.37476
0.517638 -9.51374 6.40376
-0.118362 -10.0646 6.23676
-0.101362 -10.1661 6.26276
-0.784362 -10.4702 6.13776
-1.47536 -10.6381 6.08676
-1.47736 -10.7481 6.10876
-0.776362 -10.5776 6.16076
-1.48036 -10.8775 6.13076
-0.767362 -10.7042 6.18376
-1.48236 -11.0303 6.14576
-0.756362 -10.8535 6.20076
0.939638 -8.36194 6.51876
0.912638 -8.31184 6.55776
0.408638 -9.15234 6.40376
0.429638 -9.21154 6.36176
-0.175362 -9.76654 6.27576
-0.160362 -9.83234 6.23176
-0.147362 -9.90144 6.21476
0.449638 -9.27394 6.34776
0.965638 -8.41514 6.50676
-0.811362 -10.1541 6.18376
-1.47136 -10.3146 6.13676
-1.47236 -10.3861 6.08976
-0.804362 -10.2239 6.13776
-1.47336 -10.4611 6.07076
-0.797362 -10.2972 6.11876
-1.47436 -10.5438 6.07176
-0.791362 -10.378 6.12176
-0.133362 -9.97764 6.21876
0.991638 -8.47414 6.51576
0.470638 -9.34294 6.35376
-3.32836 -9.41884 6.30076
-3.81336 -8.65034 6.43676
-3.84136 -8.70384 6.39576
-3.35036 -9.48064 6.25676
-3.86836 -8.76074 6.38176
-3.37136 -9.54594 6.23976
-2.78836 -10.0888 6.13676
-2.77336 -10.0177 6.15576
-2.75736 -9.95024 6.20076
-3.89636 -8.82384 6.38876
-3.92736 -8.89604 6.40976
-3.41936 -9.70064 6.26276
-3.39436 -9.61814 6.24476
-2.82236 -10.2568 6.15576
-2.80436 -10.1672 6.13976
-2.16436 -10.5681 6.09476
-2.15536 -10.4747 6.07976
-2.14636 -10.3928 6.07876
-2.12936 -10.2477 6.14476
-2.13836 -10.3185 6.09776
-4.05636 -9.19684 6.49776
-3.52336 -10.0439 6.33776
-2.89636 -10.6293 6.22076
-2.86736 -10.4842 6.20376
-3.48236 -9.91024 6.31676
-4.00636 -9.07984 6.47076
-2.20636 -10.9568 6.15476
-2.19036 -10.8054 6.13976
-2.17636 -10.6771 6.11676
-2.84336 -10.3612 6.17976
-3.96336 -8.98044 6.43976
-3.44836 -9.79694 6.28976
1.27864 2.21466 7.42376
1.68664 1.08486 7.44676
1.22764 2.10326 7.37876
1.62864 0.996158 7.39876
1.90764 -0.308942 7.39976
1.97164 -0.246942 7.44976
1.18564 2.01006 7.33176
1.15064 1.93136 7.28876
1.53864 0.859458 7.30576
1.57964 0.922058 7.34976
1.81064 -0.404042 7.30276
1.85464 -0.360542 7.34876
1.96564 -1.79694 7.27076
2.00464 -3.25694 7.19576
2.05164 -3.25654 7.24176
2.01164 -1.77444 7.31676
2.10764 -3.25574 7.29276
2.06764 -1.74764 7.36876
2.17464 -3.25404 7.34176
2.13364 -1.71514 7.41876
1.06464 1.74386 7.24376
1.03564 1.68456 7.27576
1.40764 0.661658 7.28776
1.43964 0.709658 7.25676
1.66664 -0.544142 7.28076
1.70264 -0.509442 7.25076
1.73664 -0.476042 7.24876
1.47164 0.756558 7.25276
1.09164 1.80216 7.23876
1.81464 -1.87344 7.24676
1.85264 -3.26694 7.17376
1.88964 -3.26204 7.14376
1.85164 -1.85334 7.21676
1.92664 -3.25914 7.14076
1.88764 -1.83484 7.21476
1.96364 -3.25764 7.15976
1.92464 -1.81654 7.23476
1.77164 -0.441742 7.26776
1.11964 1.86336 7.25576
1.50364 0.805358 7.27076
1.30964 -7.24524 6.72776
1.34064 -7.28384 6.69076
1.37164 -7.32524 6.68176
1.66764 -6.06334 6.85776
1.63364 -6.03564 6.86376
1.59864 -6.01054 6.89776
1.43564 -7.42474 6.72176
1.40264 -7.37154 6.69476
1.73964 -6.13134 6.90376
1.70164 -6.09484 6.87276
1.92864 -4.72194 7.06776
1.88864 -4.70364 7.03376
1.85264 -4.68834 7.01676
1.77964 -4.66514 7.05176
1.81664 -4.67554 7.02076
1.57664 -7.64604 6.83576
1.89464 -6.28314 7.03076
1.83364 -6.22434 6.98876
1.52064 -7.56004 6.79876
2.09464 -4.79794 7.20676
2.02964 -4.76874 7.15976
1.97464 -4.74354 7.11176
1.78264 -6.17404 6.94476
1.47464 -7.48684 6.75876
-3.91836 1.82746 7.44976
-3.36336 2.77046 7.42376
-3.87136 1.72416 7.40276
-3.32636 2.64826 7.37976
-2.69536 3.32596 7.34676
-2.72036 3.46196 7.38876
-3.83136 1.63786 7.35476
-3.79836 1.56506 7.30976
-3.26936 2.45976 7.28976
-3.29536 2.54606 7.33276
-2.65736 3.11586 7.26076
-2.67536 3.21206 7.30176
-1.99136 3.53136 7.23276
-1.29936 3.70466 7.21576
-1.29736 3.80976 7.25476
-1.99936 3.63386 7.27276
-1.29536 3.93416 7.29776
-2.00936 3.75516 7.31576
-1.29336 4.08266 7.33576
-2.02036 3.90006 7.35576
-3.71736 1.39086 7.26176
-3.69036 1.33516 7.29276
-3.18536 2.18906 7.27776
-3.20636 2.25406 7.24576
-2.60136 2.81526 7.25376
-2.61536 2.88706 7.21976
-2.62836 2.95796 7.21376
-3.22636 2.31796 7.24076
-3.74236 1.44526 7.25776
-1.96436 3.21196 7.22976
-1.30336 3.37726 7.21476
-1.30236 3.45516 7.17976
-1.97136 3.28806 7.19476
-1.30136 3.53236 7.17276
-1.97736 3.36336 7.18876
-1.30036 3.61386 7.18676
-1.98436 3.44286 7.20276
-2.64236 3.03266 7.22976
-3.76936 1.50216 7.27576
-3.24736 2.38516 7.25776
0.551638 2.46536 7.25576
0.574638 2.53326 7.22276
0.595638 2.60026 7.21676
0.0136375 3.15316 7.19376
-0.00236247 3.08006 7.20076
-0.0183625 3.00626 7.23476
0.643638 2.74946 7.26376
0.618638 2.67086 7.23276
0.0466375 3.31606 7.23876
0.0296375 3.23016 7.20876
-0.610362 3.63366 7.22076
-0.620362 3.54376 7.19076
-0.628362 3.46306 7.17676
-0.645362 3.30946 7.21876
-0.637362 3.38666 7.18376
0.746638 3.07666 7.39276
0.119638 3.67366 7.36276
0.0916375 3.53316 7.32276
0.705638 2.94806 7.35076
-0.570362 4.00816 7.34076
-0.586362 3.86106 7.30176
-0.599362 3.73786 7.25976
0.0666375 3.41556 7.27876
0.671638 2.84046 7.30576
-4.46636 -8.08424 6.69276
-4.40736 -7.98924 6.66076
-4.68836 -6.70004 6.86276
-4.75236 -6.76904 6.90076
-4.31736 -7.83964 6.59076
-4.35836 -7.90844 6.62376
-4.58936 -6.59114 6.78276
-4.63436 -6.64124 6.82076
-4.74536 -5.21014 6.96676
-4.78536 -3.75634 7.12076
-4.83236 -3.76394 7.16576
-4.79236 -5.23954 7.00876
-4.88836 -3.77264 7.21476
-4.84836 -5.27404 7.05476
-4.95636 -3.78204 7.26376
-4.91536 -5.31404 7.09876
-4.18536 -7.64154 6.60476
-4.21736 -7.68414 6.56676
-4.44536 -6.44944 6.78476
-4.48136 -6.47894 6.74876
-4.51536 -6.51154 6.74076
-4.24936 -7.72984 6.55476
-4.59436 -5.13094 6.95676
-4.63236 -3.74314 7.10176
-4.67036 -3.74324 7.07176
-4.63136 -5.14614 6.92376
-4.70636 -3.74564 7.06776
-4.66736 -5.16404 6.91876
-4.74336 -3.75014 7.08676
-4.70436 -5.18514 6.93476
-4.55036 -6.54834 6.75376
-4.28136 -7.78094 6.56576
-4.08836 0.255558 7.28976
-4.11936 0.299358 7.25976
-4.14936 0.341658 7.25676
-4.44636 -0.931942 7.22976
-4.41336 -0.960342 7.23176
-4.37836 -0.990442 7.26176
-4.21536 0.433758 7.31076
-4.18136 0.385458 7.27576
-4.51936 -0.871942 7.28476
-4.48136 -0.903242 7.24976
-4.70936 -2.28944 7.22476
-4.66936 -2.30234 7.18876
-4.63236 -2.31474 7.16976
-4.56036 -2.34314 7.20176
-4.59636 -2.32794 7.17176
-4.35636 0.634658 7.45576
-4.67636 -0.741742 7.43276
-4.61436 -0.793342 7.38276
-4.30036 0.555458 7.40676
-4.87636 -2.23604 7.37176
-4.81036 -2.25754 7.32176
-4.75536 -2.27494 7.27076
-4.56236 -0.836042 7.33176
-4.25436 0.489358 7.35676
-3.66036 1.27456 7.35776
-3.16236 2.11866 7.34376
-3.62136 1.19406 7.44776
-3.13136 2.02536 7.43476
-2.56436 2.63496 7.41376
-2.58536 2.73776 7.32076
-3.56536 1.07886 7.55476
-3.48636 0.914058 7.67176
-3.02636 1.69876 7.66476
-3.08736 1.89126 7.54476
-2.49336 2.27406 7.65076
-2.53436 2.48706 7.52676
-1.91236 2.63856 7.63576
-1.30936 2.79066 7.62576
-1.30736 3.02206 7.49576
-1.93236 2.86456 7.50776
-1.30536 3.18246 7.37976
-1.94636 3.02126 7.39276
-1.30436 3.29366 7.28376
-1.95636 3.13006 7.29776
-3.10136 0.0923577 7.98776
-2.75036 0.656358 8.00076
-2.32336 1.05716 8.01476
-2.37536 1.57646 7.90476
-2.84536 1.08336 7.90376
-3.24736 0.405758 7.89876
-1.32636 1.45126 8.02176
-1.83936 1.32846 8.02076
-1.31936 2.02766 7.89976
-1.85836 1.89306 7.90276
-1.31336 2.46666 7.76376
-1.88536 2.32226 7.77076
-2.43636 1.97636 7.78076
-3.37836 0.684658 7.78976
-2.94136 1.43006 7.78776
0.414638 0.359758 7.98776
0.0786375 0.871558 7.99576
0.569638 0.695058 7.89476
0.185638 1.31316 7.89476
-0.272362 1.73596 7.89576
-0.338362 1.20836 8.00976
0.708638 0.993058 7.78176
0.822637 1.23776 7.66076
0.381638 1.95476 7.64976
0.290638 1.67406 7.77576
-0.137362 2.45116 7.63676
-0.201362 2.14506 7.76876
-0.709362 2.72896 7.62776
-0.744362 2.40846 7.76376
-0.782362 1.97476 7.89776
-0.816363 1.40646 8.01777
1.00464 1.62046 7.34176
0.526638 2.39226 7.32276
-0.0353625 2.92696 7.30276
-0.0583625 2.82156 7.39676
0.494638 2.29526 7.41576
0.963638 1.53526 7.43276
-0.654362 3.22666 7.28776
-0.667362 3.11656 7.38276
-0.684362 2.95786 7.49876
-0.0913625 2.66986 7.51076
0.905638 1.41306 7.54176
0.447638 2.15566 7.52676
-3.78336 -8.59734 6.51176
-4.15036 -7.59984 6.67676
-3.74236 -8.52754 6.61576
-4.10336 -7.54524 6.77676
-4.35536 -6.38444 6.94976
-4.40736 -6.42124 6.85376
-3.68536 -8.42394 6.74376
-3.60436 -8.26944 6.88976
-3.94236 -7.34144 7.03876
-4.03736 -7.46374 6.89976
-4.17836 -6.24494 7.19976
-4.28236 -6.32904 7.06776
-4.31336 -5.03224 7.35676
-4.34736 -3.75584 7.48876
-4.45836 -3.75354 7.36676
-4.42236 -5.07414 7.22876
-4.53636 -3.74964 7.25676
-4.49936 -5.10074 7.11576
-4.59136 -3.74574 7.16576
-4.55336 -5.11774 7.02276
-3.20036 -7.45364 7.35376
-3.44036 -6.73994 7.46976
-3.59936 -5.85504 7.60976
-3.84436 -5.98424 7.48176
-3.64436 -6.95644 7.33676
-3.35436 -7.77024 7.20776
-3.71936 -3.74004 7.85976
-3.69436 -4.83394 7.74576
-3.98736 -3.75064 7.74376
-3.95936 -4.89834 7.62376
-4.19336 -3.75534 7.61676
-4.16236 -4.96904 7.49076
-4.03536 -6.12204 7.34176
-3.49136 -8.04684 7.04876
-3.81136 -7.16464 7.18876
-3.36036 -0.668942 7.98476
-3.55936 -0.463942 7.89076
-3.78536 -1.47904 7.86876
-3.54336 -1.59084 7.97276
-3.84936 -0.0785423 7.66376
-3.72236 -0.258842 7.78076
-4.11436 -1.22424 7.63576
-3.97336 -1.34804 7.75476
-4.28036 -2.46824 7.57976
-4.13036 -2.53104 7.70276
-3.92836 -2.59274 7.82276
-3.66536 -2.63674 7.93376
-4.05336 0.207258 7.35376
-4.34036 -1.02444 7.32476
-4.28936 -1.06984 7.41276
-4.00736 0.143058 7.44176
-4.51936 -2.36174 7.26476
-4.46536 -2.38674 7.35376
-4.38936 -2.42124 7.46076
-4.21736 -1.13394 7.51976
-3.94236 0.0515577 7.54876
0.314638 -7.19244 7.43176
-0.0353625 -7.75124 7.35276
-0.461362 -8.14894 7.29976
-0.408362 -8.64474 7.11076
0.0616375 -8.15784 7.19076
0.462638 -7.48824 7.29676
-1.45836 -8.53854 7.23476
-0.946362 -8.41754 7.25876
-1.46436 -9.08874 7.02376
-0.925362 -8.95674 7.05376
-1.46836 -9.50114 6.82176
-1.47036 -9.79954 6.63476
-0.867362 -9.65134 6.67376
-0.896362 -9.36004 6.85676
-0.287362 -9.29414 6.75176
-0.346362 -9.02034 6.92576
0.244638 -8.72854 6.86176
0.704638 -7.95484 6.99576
0.594638 -7.74674 7.14676
0.158638 -8.48244 7.02376
-2.86336 -7.96084 7.28576
-2.96936 -8.38094 7.11476
-2.51136 -8.79924 7.05576
-2.44736 -8.29594 7.25076
-3.16236 -8.97624 6.77076
-3.07236 -8.71874 6.93976
-2.64336 -9.46494 6.68576
-2.58036 -9.18334 6.86476
-2.07036 -9.73844 6.63976
-2.03736 -9.44314 6.82476
-2.00136 -9.03574 7.02476
-1.96936 -8.49324 7.23276
-3.30436 -9.35714 6.37776
-2.74136 -9.88254 6.28076
-2.71936 -9.79324 6.39076
-3.27236 -9.27584 6.48576
-1.47136 -10.2427 6.21776
-2.12136 -10.1766 6.22476
-1.47136 -10.1479 6.32976
-2.11036 -10.0829 6.33676
-1.47136 -10.0076 6.46976
-2.09436 -9.94424 6.47576
-2.68836 -9.66114 6.52676
-3.22736 -9.15544 6.61776
0.881638 -8.26194 6.63076
0.384638 -9.09314 6.47976
0.841638 -8.19654 6.73176
0.352638 -9.01524 6.58476
-0.214362 -9.61364 6.46176
-0.192362 -9.70054 6.35376
0.784638 -8.09944 6.85476
0.307638 -8.89994 6.71276
-0.244362 -9.48504 6.59576
-0.846362 -9.85444 6.51176
-0.831362 -9.99134 6.37376
-0.819362 -10.0839 6.26376
0.653638 -0.363642 7.99376
0.811638 -1.25964 7.99376
1.05864 -1.11224 7.89076
0.858638 -0.129142 7.89776
0.930638 -3.38774 7.91176
0.906638 -2.28954 7.96976
1.20064 -3.35934 7.80076
1.17264 -2.20704 7.86276
1.40764 -3.33504 7.67976
1.56264 -3.31464 7.55476
1.52964 -2.03324 7.62276
1.37664 -2.11654 7.74476
1.39564 -0.810942 7.65676
1.25064 -0.954342 7.77676
1.16064 0.297558 7.66676
1.02764 0.0995577 7.78576
0.573638 -6.44034 7.55076
0.773638 -6.62824 7.42876
0.998637 -5.62244 7.56776
0.755638 -5.52804 7.68476
1.06664 -6.97364 7.14676
0.937638 -6.81384 7.28976
1.33064 -5.83784 7.30076
1.18864 -5.73404 7.43676
1.49664 -4.60054 7.44176
1.34464 -4.55764 7.57176
1.14164 -4.51534 7.69776
0.877638 -4.48894 7.81076
1.27364 -7.20744 6.79776
1.55964 -5.98664 6.96476
1.50764 -5.95564 7.05876
1.22664 -7.15794 6.89476
1.80964 -3.27434 7.23676
1.73864 -4.65664 7.11676
1.75464 -3.28454 7.32576
1.68364 -4.64584 7.20776
1.67464 -3.29794 7.43476
1.60664 -4.62854 7.31876
1.43464 -5.90884 7.17276
1.16064 -7.08414 7.01376
1.37164 0.609258 7.35176
1.32364 0.539658 7.44176
1.57464 -0.634142 7.43376
1.62764 -0.582742 7.34476
1.25664 0.439958 7.54876
1.50064 -0.707142 7.53976
1.64064 -1.97194 7.50476
1.71864 -1.92804 7.39776
1.77364 -1.89684 7.30976
1.84464 4.76986 4.97876
1.30764 5.17856 5.27276
1.63964 5.16416 4.64376
1.21264 5.46106 4.91176
0.695638 5.79566 4.96376
0.632638 5.65016 5.30676
1.50964 5.41006 4.40376
1.43164 5.55506 4.24076
1.13964 5.74936 4.43376
1.16264 5.64086 4.63376
0.791638 5.96406 4.47576
0.749638 5.89706 4.68476
0.444638 6.16396 4.37376
0.154638 6.31366 4.13076
-0.00836247 6.31546 4.27376
0.336638 6.13616 4.56276
-0.256362 6.29676 4.48576
0.175638 6.08816 4.82476
-0.613362 6.23626 4.78076
-0.0503625 6.01016 5.16176
2.40864 3.96786 2.61476
1.87064 4.50226 1.96776
2.13364 4.45936 2.67976
1.66464 4.95216 2.28576
1.90364 4.87216 2.84276
1.97064 4.89626 3.49676
2.18864 4.53736 3.52276
2.43964 4.10396 3.56276
1.53164 5.23276 2.50176
1.44864 5.39826 2.64276
1.62164 5.33176 3.02076
1.73664 5.15186 2.95176
1.67464 5.33996 3.46176
1.79964 5.15886 3.47676
1.61064 5.41646 3.89276
1.72264 5.24716 3.98876
1.88764 4.98476 4.13476
2.38864 4.11646 4.48376
2.11564 4.59846 4.34176
-0.636362 5.87796 1.76676
-0.0693625 5.57506 1.42776
-0.269362 6.03966 2.12876
0.169638 5.77296 1.84976
0.701638 5.47306 1.79176
0.627638 5.21226 1.37176
-0.0173625 6.11566 2.37376
0.146638 6.14366 2.53276
0.442638 5.95156 2.33976
0.334638 5.88856 2.14376
0.798638 5.74126 2.29676
0.757638 5.63996 2.09276
1.15464 5.54576 2.39976
1.18064 5.40836 2.21376
1.23164 5.17596 1.93576
1.32164 4.80396 1.54176
-0.925362 6.30626 4.10976
-0.511362 6.37976 3.93876
-0.597362 6.35426 3.29076
-1.02236 6.25236 3.28576
-0.0223625 6.37796 3.75176
-0.218362 6.39266 3.82476
-0.0843625 6.36546 3.31176
-0.291362 6.37816 3.30076
-0.0283625 6.28446 2.88076
-0.225362 6.28236 2.78876
-0.521362 6.23716 2.64776
-0.940362 6.10666 2.44476
-5.30336 2.49796 5.18776
-5.53536 1.41346 5.54876
-5.60836 2.02596 4.95676
-5.76536 1.14616 5.27276
-5.95636 0.0724577 5.37376
-5.80436 0.0484577 5.64976
-5.81936 1.67006 4.78976
-5.96136 1.41296 4.67276
-6.06136 0.800658 4.90076
-5.93736 0.945358 5.05876
-6.18636 0.0663577 4.97676
-6.08536 0.0743577 5.14976
-6.31636 -0.664542 4.90276
-6.42936 -1.26644 4.67576
-6.37336 -1.50554 4.79476
-6.23936 -0.792742 5.06176
-6.29736 -1.89114 4.95476
-6.14236 -1.00714 5.27176
-6.19936 -2.49384 5.16076
-6.02836 -1.35344 5.53476
-5.37136 2.39636 2.15076
-5.22836 2.98556 2.84476
-5.67836 1.98896 2.54776
-5.56736 2.49356 3.09476
-5.51736 2.66966 3.75576
-5.17236 3.18906 3.69076
-5.88136 1.66486 2.82276
-6.01336 1.42066 3.00776
-5.93736 1.77826 3.38576
-5.79236 2.08956 3.26876
-5.90236 1.89846 3.83976
-5.75036 2.23596 3.80476
-5.90936 1.77776 4.29376
-5.75836 2.09826 4.34176
-5.52836 2.52376 4.41376
-5.19036 3.05816 4.51976
-6.25536 -2.28854 2.11376
-6.09836 -1.19214 1.75476
-6.36236 -1.75664 2.54676
-6.22536 -0.889742 2.23076
-6.04636 0.136058 2.13076
-5.87936 0.107358 1.66376
-6.43536 -1.41344 2.83076
-6.48236 -1.19834 3.01276
-6.38336 -0.596142 2.78476
-6.31836 -0.704942 2.56176
-6.25736 0.118058 2.70776
-6.16936 0.133658 2.46976
-6.12736 0.828758 2.78176
-6.01636 0.968258 2.55676
-5.85136 1.14936 2.23076
-5.61336 1.37016 1.77676
-6.30536 -3.07404 4.48576
-6.39936 -2.37764 4.41276
-6.44536 -2.50054 3.75576
-6.35136 -3.19124 3.65176
-6.50536 -1.61404 4.29876
-6.46336 -1.91404 4.34976
-6.54136 -1.71404 3.84476
-6.50536 -2.02804 3.81376
-6.53436 -1.57324 3.39076
-6.49636 -1.85784 3.27876
-6.43436 -2.29354 3.09376
-6.33636 -2.94214 2.80376
1.50064 5.58066 3.10376
1.36664 5.62996 2.80976
1.37964 5.66906 2.81476
1.13764 5.74406 2.62076
-6.26336 0.583358 4.66176
-6.19136 1.02766 4.49576
-6.21836 1.00666 4.48876
-6.28936 0.570758 4.65176
-6.27536 0.993358 4.49476
-6.34636 0.560558 4.65576
-6.37836 0.0501577 4.70576
-6.35436 0.0526577 4.71676
-6.55236 -0.895842 4.48876
-6.53136 -0.911842 4.49576
-6.44836 -0.475442 4.66176
-6.47136 -0.467842 4.65176
-6.17236 1.30756 3.55776
-6.22736 1.04946 3.28176
-6.25436 1.02866 3.29776
-6.20036 1.28176 3.56876
-6.31136 1.01586 3.31276
-6.25736 1.26696 3.58176
-6.17536 1.36236 3.89376
-6.14736 1.38986 3.88876
-6.15236 1.29656 4.21976
-6.18136 1.27056 4.21876
-6.23836 1.25556 4.22576
-6.42936 0.0893577 3.08176
-6.40536 0.0923577 3.06176
-6.49736 -0.433442 3.11776
-6.31036 0.615558 3.11676
-6.33536 0.602858 3.13576
-6.39236 0.593058 3.15176
-6.58636 -1.16744 4.22076
-6.60636 -1.14674 4.21876
-6.63236 -1.22284 3.89376
-6.61336 -1.24484 3.88976
-6.60836 -1.14654 3.55876
-6.46836 -1.10304 4.59376
-6.53536 -1.40894 4.26276
-6.49436 -0.999842 4.54176
-6.55536 -1.27904 4.23976
-6.58436 -1.36264 3.87776
-6.56636 -1.49904 3.86576
-6.51336 -0.941342 4.51076
-6.57136 -1.20504 4.22676
-6.59836 -1.28464 3.88476
-6.57036 -0.875242 3.28276
-6.55436 -0.902742 3.25876
-6.59336 -1.18304 3.54376
-6.53736 -0.956642 3.21376
-6.57836 -1.25404 3.51576
-6.51536 -1.05064 3.13576
-6.56036 -1.37804 3.46776
-6.42836 -0.521342 2.93676
-6.45836 -0.473842 3.03276
-6.35736 0.100158 2.97176
-6.31736 0.107258 2.86876
-6.47936 -0.446842 3.08776
-6.38436 0.0956577 3.03076
-6.20036 1.08316 3.25776
-6.28636 0.635358 3.08676
-6.16236 1.14566 3.21176
-6.25336 0.671458 3.03176
-6.10336 1.25286 3.13276
-6.20336 0.732858 2.93476
-6.03736 1.56476 3.46376
-6.10236 1.42876 3.51376
-6.07436 1.52016 3.87576
-6.00636 1.66716 3.86176
-6.14336 1.34976 3.54176
-6.11736 1.43506 3.88376
-6.16236 1.06176 4.51076
-6.12336 1.33916 4.22576
-6.12236 1.12586 4.54076
-6.08036 1.41936 4.23876
-6.05836 1.23726 4.59276
-6.01336 1.55856 4.26076
-6.14536 0.701858 4.79176
-6.20136 0.639158 4.72176
-6.30036 0.0572577 4.78276
-6.25536 0.0608577 4.85876
-6.23736 0.602958 4.68176
-6.33136 0.0547577 4.73876
-6.42836 -0.490642 4.68176
-6.40436 -0.521742 4.72176
-6.36936 -0.576942 4.79276
0.257638 6.31246 4.03976
0.101638 6.36866 3.70576
0.315638 6.31536 3.98876
0.171638 6.36706 3.68076
0.121638 6.35636 3.32176
0.0476375 6.35736 3.31776
0.345638 6.32576 3.96676
0.362638 6.34716 3.95976
0.225638 6.39606 3.66676
0.206638 6.37536 3.66976
0.177638 6.38556 3.32476
0.158638 6.36496 3.32376
0.220638 6.32206 2.99076
0.339638 6.18956 2.71276
0.202638 6.30096 2.98576
0.309638 6.17476 2.68776
0.167638 6.29006 2.97076
0.250638 6.16146 2.63276
0.0966375 6.28586 2.93876
0.510638 5.99146 2.46276
0.550638 6.01716 2.53176
0.840638 5.84456 2.49776
0.824638 5.80546 2.42576
0.850638 5.87086 2.52976
1.36164 5.60116 2.80276
1.13064 5.71656 2.61176
1.36964 5.56466 2.78076
1.12964 5.68456 2.58176
1.39664 5.50296 2.73076
1.13764 5.63276 2.51676
1.54864 5.44556 3.06476
1.51064 5.51226 3.08876
1.55364 5.52146 3.44776
1.59564 5.45446 3.45276
1.49664 5.55096 3.09976
1.54164 5.59016 3.44576
1.53864 5.56026 3.44576
1.49264 5.65266 3.77876
1.35364 5.76236 4.04876
1.34864 5.73406 4.05576
1.48864 5.62326 3.78276
1.35564 5.70086 4.08076
1.50164 5.58636 3.79776
1.38164 5.64666 4.13776
1.53964 5.52346 3.83176
1.12464 5.81786 4.30776
1.11864 5.85926 4.23776
0.835638 6.03326 4.27176
0.818638 6.00636 4.34476
1.12764 5.91346 4.19776
1.11964 5.88686 4.20676
0.857638 6.07906 4.22976
0.846638 6.05436 4.23876
0.587638 6.23256 4.14876
0.573638 6.20976 4.15776
0.552638 6.19476 4.18676
0.512638 6.18146 4.25376
2.18264 -9.61974 3.64676
2.54864 -8.27954 3.90276
2.29164 -9.32704 2.68776
2.62764 -8.04824 2.90576
2.95064 -6.52464 3.15176
2.89964 -6.65104 4.15376
2.23964 -9.18544 1.65076
2.59564 -7.88734 1.83176
2.93764 -6.34094 2.08276
3.43364 -3.26164 2.59476
3.21964 -4.72434 2.32676
3.43664 -3.49124 3.60076
3.22464 -4.93864 3.39376
3.39164 -3.39834 4.56776
3.18164 -4.94424 4.40676
3.59364 1.43646 4.48576
3.63064 1.00936 4.54776
3.64864 1.01246 4.54576
3.67064 0.578158 4.52076
3.70664 0.214658 4.40176
3.72164 0.223258 4.40076
3.68664 0.584358 4.51876
3.75664 0.179858 3.42476
3.74164 0.171758 3.41876
3.71264 0.522458 3.26976
3.75264 -0.0326423 3.65076
3.76764 -0.0229423 3.65576
3.81964 -0.0193423 3.66276
3.81564 -0.0784423 3.93276
3.76464 -0.0821423 3.92476
3.74964 -0.0924423 3.92176
3.73364 -0.00944226 4.18776
3.74864 0.000557742 4.18776
3.80064 0.00475774 4.19676
3.43164 1.55446 4.69676
3.37764 2.04926 4.48976
3.23064 2.27606 4.62076
3.30764 1.65776 4.87876
3.01764 2.62086 4.81476
3.13164 1.82716 5.12976
3.27664 0.842558 5.25076
3.40464 0.906358 4.98376
3.50164 0.953158 4.78276
2.72364 3.11756 5.08576
2.89864 2.09006 5.45176
3.12264 0.761758 5.57476
3.43764 -1.68644 5.17776
3.30264 -0.589442 5.50276
3.53064 -0.967742 4.92076
3.41464 -0.150042 5.18776
3.59664 -0.476142 4.71976
3.64064 -0.157442 4.57276
3.57464 0.348258 4.74276
3.50564 0.151758 4.93276
3.51064 -1.58264 2.23176
3.57164 -2.17694 2.91576
3.60164 -0.925042 2.68776
3.65264 -1.39494 3.20976
3.65364 -1.56024 3.82876
3.57364 -2.38334 3.74176
3.65764 -0.471942 2.99376
3.68964 -0.175942 3.19076
3.71564 -0.468442 3.51576
3.69564 -0.840342 3.39976
3.71364 -0.563942 3.89676
3.69564 -0.967142 3.87476
3.68864 -0.460942 4.26976
3.66164 -0.847442 4.34076
3.61164 -1.42784 4.43376
3.52864 -2.25214 4.54276
2.76764 2.93726 2.13976
2.95664 1.93986 1.80876
3.06664 2.51066 2.58076
3.19864 1.73156 2.31276
3.35564 0.793658 2.24976
3.18964 0.698058 1.73776
3.27664 2.20056 2.89476
3.41564 1.98796 3.10676
3.48364 1.48946 2.93676
3.36964 1.58586 2.68176
3.56064 0.898758 2.89676
3.47664 0.857858 2.63076
3.63364 0.311758 2.98276
3.57864 0.133058 2.73676
3.49664 -0.143642 2.37076
3.37864 -0.550142 1.85976
2.68864 3.56656 4.42876
2.97064 3.04086 4.29876
2.97064 3.14006 3.68476
2.71164 3.61786 3.62076
3.34964 2.33456 4.16376
3.19064 2.63116 4.21476
3.34764 2.41596 3.78276
3.18564 2.73146 3.73976
3.37064 2.29856 3.40976
3.21464 2.58516 3.27376
2.99664 2.97176 3.07476
2.71264 3.45236 2.80076
1.51164 -10.905 4.00076
1.85464 -10.4617 3.38176
1.24764 -11.3656 3.68076
1.57164 -11.0001 3.13476
1.69864 -10.7539 2.40876
1.97864 -10.1788 2.53276
1.46164 -11.2023 2.28276
1.33964 -11.4294 2.93776
1.03564 -11.7515 3.43576
1.13864 -11.132 0.960765
1.35264 -10.7069 0.933765
1.63164 -10.6455 1.63076
1.39664 -11.095 1.58576
1.61764 -10.1506 0.802765
1.91564 -10.0569 1.61876
-1.47836 -12.7103 4.06876
-0.642362 -12.5192 4.14276
-1.47936 -12.8299 3.81676
-0.691363 -12.6528 3.88676
0.0566375 -12.2957 3.94976
0.165638 -12.1023 4.22176
-0.0503625 -12.5329 3.71176
0.722638 -11.8321 3.91676
0.557638 -12.144 3.66576
0.915638 -11.5081 4.22776
1.03864 -10.5148 0.249765
0.846638 -10.9702 0.445765
0.178638 -11.3118 0.132765
0.286638 -10.9613 -0.0952354
0.0686375 -11.6179 0.232765
0.678638 -11.3379 0.518765
-1.40436 -12.0202 0.0117646
-1.39536 -11.7654 -0.109235
-0.584362 -11.6082 -0.0422354
-0.642362 -11.8769 0.0737646
-1.38536 -11.4673 -0.361235
-0.532362 -11.3021 -0.288235
-4.42136 -11.2768 3.79376
-3.84736 -11.8126 4.05776
-4.16636 -11.6978 3.48276
-3.66136 -12.1065 3.75476
-3.00736 -12.4898 3.83476
-3.11236 -12.3137 4.10276
-2.91036 -12.7095 3.60276
-3.50936 -12.3921 3.51076
-3.97136 -12.0508 3.24676
-2.26636 -12.7532 3.82776
-2.31236 -12.6274 4.08076
-4.40936 -10.466 0.606765
-4.73236 -10.4208 1.40076
-4.16536 -10.9966 0.742765
-4.46736 -10.9782 1.41776
-4.56236 -11.1102 2.18676
-4.82636 -10.5706 2.30676
-4.34636 -11.5265 2.06876
-4.25436 -11.3987 1.38076
-3.97236 -11.3973 0.776765
-4.46536 -11.3579 2.91776
-4.25136 -11.7531 2.72876
-4.73536 -10.8594 3.15776
-2.23836 -11.3868 -0.345235
-2.20636 -11.6894 -0.0982354
-2.97236 -11.4709 0.0247646
-3.05936 -11.129 -0.206235
-2.88036 -11.7655 0.128765
-2.16636 -11.9526 0.0197646
-3.64636 -11.2004 0.291765
-3.49836 -11.55 0.369765
-3.81736 -10.762 0.0907646
3.46964 1.90676 4.40676
3.44964 2.14816 4.13076
3.52264 1.82876 4.36076
3.50664 2.04616 4.11276
3.50764 2.10876 3.82376
3.44964 2.21756 3.80976
3.53764 2.06216 3.83076
3.53664 2.00256 4.10576
3.54964 1.79576 4.34076
3.56964 1.96606 3.56776
3.57964 1.74926 3.34376
3.55264 1.97686 3.56176
3.55364 1.78066 3.31176
3.52364 2.01936 3.54076
3.50364 1.85416 3.23976
3.46864 2.11826 3.49476
3.55564 1.42876 3.09676
3.59664 1.39546 3.18476
3.64464 0.938958 3.15576
3.61364 0.924558 3.06376
3.66164 0.945658 3.19576
3.73164 0.158158 3.40976
3.70164 0.513858 3.25876
3.72264 0.113058 3.38076
3.68864 0.486358 3.22176
3.70964 0.0103577 3.31276
3.66864 0.424258 3.13676
3.72864 -0.234442 3.58876
3.73664 -0.105642 3.62776
3.73364 -0.171142 3.91776
3.72564 -0.310442 3.90976
3.74364 -0.0493423 3.64576
3.74064 -0.110342 3.92076
3.69564 0.200558 4.40776
3.72464 -0.0264423 4.18976
3.68564 0.152658 4.42976
3.71564 -0.0845423 4.19976
3.66864 0.0427577 4.48076
3.70564 -0.218042 4.22476
3.50964 1.48946 4.58276
3.56264 0.982458 4.65576
3.59764 0.998758 4.58576
3.55464 1.45406 4.51976
3.61764 0.471558 4.62276
3.64364 0.539358 4.55676
3.65864 0.569058 4.52876
3.61664 1.00626 4.55576
3.57864 1.43936 4.49176
3 0 1 2
3 0 2 3
3 2 4 5
3 2 5 3
3 5 6 7
3 5 7 3
3 7 8 0
3 7 0 3
3 9 10 11
3 9 11 12
3 11 13 14
3 11 14 12
3 14 6 5
3 14 5 12
3 5 4 9
3 5 9 12
3 15 16 17
3 15 17 18
3 17 19 20
3 17 20 18
3 20 6 14
3 20 14 18
3 14 13 15
3 14 15 18
3 21 22 23
3 21 23 24
3 23 8 7
3 23 7 24
3 7 6 20
3 7 20 24
3 20 19 21
3 20 21 24
3 25 26 27
3 25 27 28
3 27 29 30
3 27 30 28
3 30 31 32
3 30 32 28
3 32 33 25
3 32 25 28
3 34 35 36
3 34 36 37
3 36 38 39
3 36 39 37
3 39 31 30
3 39 30 37
3 30 29 34
3 30 34 37
3 40 16 15
3 40 15 41
3 15 13 42
3 15 42 41
3 42 31 39
3 42 39 41
3 39 38 40
3 39 40 41
3 11 10 43
3 11 43 44
3 43 33 32
3 43 32 44
3 32 31 42
3 32 42 44
3 42 13 11
3 42 11 44
3 45 46 47
3 45 47 48
3 47 49 50
3 47 50 48
3 50 51 52
3 50 52 48
3 52 53 45
3 52 45 48
3 54 55 56
3 54 56 57
3 56 58 59
3 56 59 57
3 59 51 50
3 59 50 57
3 50 49 54
3 50 54 57
3 60 16 40
3 60 40 61
3 40 38 62
3 40 62 61
3 62 51 59
3 62 59 61
3 59 58 60
3 59 60 61
3 36 35 63
3 36 63 64
3 63 53 52
3 63 52 64
3 52 51 62
3 52 62 64
3 62 38 36
3 62 36 64
3 65 66 67
3 65 67 68
3 67 69 70
3 67 70 68
3 70 71 72
3 70 72 68
3 72 73 65
3 72 65 68
3 74 22 21
3 74 21 75
3 21 19 76
3 21 76 75
3 76 71 70
3 76 70 75
3 70 69 74
3 70 74 75
3 17 16 60
3 17 60 77
3 60 58 78
3 60 78 77
3 78 71 76
3 78 76 77
3 76 19 17
3 76 17 77
3 56 55 79
3 56 79 80
3 79 73 72
3 79 72 80
3 72 71 78
3 72 78 80
3 78 58 56
3 78 56 80
3 81 82 83
3 81 83 84
3 83 85 86
3 83 86 84
3 86 87 88
3 86 88 84
3 88 89 81
3 88 81 84
3 90 91 92
3 90 92 93
3 92 94 95
3 92 95 93
3 95 87 86
3 95 86 93
3 86 85 90
3 86 90 93
3 96 97 98
3 96 98 99
3 98 100 101
3 98 101 99
3 101 87 95
3 101 95 99
3 95 94 96
3 95 96 99
3 102 103 104
3 102 104 105
3 104 89 88
3 104 88 105
3 88 87 101
3 88 101 105
3 101 100 102
3 101 102 105
3 106 107 108
3 106 108 109
3 108 110 111
3 108 111 109
3 111 112 113
3 111 113 109
3 113 114 106
3 113 106 109
3 115 116 117
3 115 117 118
3 117 119 120
3 117 120 118
3 120 112 111
3 120 111 118
3 111 110 115
3 111 115 118
3 121 97 96
3 121 96 122
3 96 94 123
3 96 123 122
3 123 112 120
3 123 120 122
3 120 119 121
3 120 121 122
3 92 91 124
3 92 124 125
3 124 114 113
3 124 113 125
3 113 112 123
3 113 123 125
3 123 94 92
3 123 92 125
3 126 127 128
3 126 128 129
3 128 130 131
3 128 131 129
3 131 132 133
3 131 133 129
3 133 134 126
3 133 126 129
3 135 136 137
3 135 137 138
3 137 139 140
3 137 140 138
3 140 132 131
3 140 131 138
3 131 130 135
3 131 135 138
3 141 97 121
3 141 121 142
3 121 119 143
3 121 143 142
3 143 132 140
3 143 140 142
3 140 139 141
3 140 141 142
3 117 116 144
3 117 144 145
3 144 134 133
3 144 133 145
3 133 132 143
3 133 143 145
3 143 119 117
3 143 117 145
3 83 82 146
3 83 146 147
3 146 148 149
3 146 149 147
3 149 150 151
3 149 151 147
3 151 85 83
3 151 83 147
3 152 153 154
3 152 154 155
3 154 156 157
3 154 157 155
3 157 150 149
3 157 149 155
3 149 148 152
3 149 152 155
3 158 159 160
3 158 160 161
3 160 162 163
3 160 163 161
3 163 150 157
3 163 157 161
3 157 156 158
3 157 158 161
3 164 91 90
3 164 90 165
3 90 85 151
3 90 151 165
3 151 150 163
3 151 163 165
3 163 162 164
3 163 164 165
3 166 167 168
3 166 168 169
3 168 170 171
3 168 171 169
3 171 172 173
3 171 173 169
3 173 174 166
3 173 166 169
3 175 176 177
3 175 177 178
3 177 179 180
3 177 180 178
3 180 172 171
3 180 171 178
3 171 170 175
3 171 175 178
3 181 159 158
3 181 158 182
3 158 156 183
3 158 183 182
3 183 172 180
3 183 180 182
3 180 179 181
3 180 181 182
3 154 153 184
3 154 184 185
3 184 174 173
3 184 173 185
3 173 172 183
3 173 183 185
3 183 156 154
3 183 154 185
3 186 187 188
3 186 188 189
3 188 190 191
3 188 191 189
3 191 192 193
3 191 193 189
3 193 194 186
3 193 186 189
3 195 196 197
3 195 197 198
3 197 199 200
3 197 200 198
3 200 192 191
3 200 191 198
3 191 190 195
3 191 195 198
3 201 159 181
3 201 181 202
3 181 179 203
3 181 203 202
3 203 192 200
3 203 200 202
3 200 199 201
3 200 201 202
3 177 176 204
3 177 204 205
3 204 194 193
3 204 193 205
3 193 192 203
3 193 203 205
3 203 179 177
3 203 177 205
3 206 107 106
3 206 106 207
3 106 114 208
3 106 208 207
3 208 209 210
3 208 210 207
3 210 211 206
3 210 206 207
3 124 91 164
3 124 164 212
3 164 162 213
3 164 213 212
3 213 209 208
3 213 208 212
3 208 114 124
3 208 124 212
3 160 159 201
3 160 201 214
3 201 199 215
3 201 215 214
3 215 209 213
3 215 213 214
3 213 162 160
3 213 160 214
3 197 196 216
3 197 216 217
3 216 211 210
3 216 210 217
3 210 209 215
3 210 215 217
3 215 199 197
3 215 197 217
3 168 167 218
3 168 218 219
3 218 220 221
3 218 221 219
3 221 222 223
3 221 223 219
3 223 170 168
3 223 168 219
3 224 225 226
3 224 226 227
3 226 228 229
3 226 229 227
3 229 222 221
3 229 221 227
3 221 220 224
3 221 224 227
3 230 231 232
3 230 232 233
3 232 234 235
3 232 235 233
3 235 222 229
3 235 229 233
3 229 228 230
3 229 230 233
3 236 176 175
3 236 175 237
3 175 170 223
3 175 223 237
3 223 222 235
3 223 235 237
3 235 234 236
3 235 236 237
3 238 187 186
3 238 186 239
3 186 194 240
3 186 240 239
3 240 241 242
3 240 242 239
3 242 243 238
3 242 238 239
3 204 176 236
3 204 236 244
3 236 234 245
3 236 245 244
3 245 241 240
3 245 240 244
3 240 194 204
3 240 204 244
3 232 231 246
3 232 246 247
3 246 248 249
3 246 249 247
3 249 241 245
3 249 245 247
3 245 234 232
3 245 232 247
3 250 251 252
3 250 252 253
3 252 243 242
3 252 242 253
3 242 241 249
3 242 249 253
3 249 248 250
3 249 250 253
3 218 167 166
3 218 166 254
3 166 174 255
3 166 255 254
3 255 256 257
3 255 257 254
3 257 220 218
3 257 218 254
3 184 153 258
3 184 258 259
3 258 260 261
3 258 261 259
3 261 256 255
3 261 255 259
3 255 174 184
3 255 184 259
3 262 263 264
3 262 264 265
3 264 266 267
3 264 267 265
3 267 256 261
3 267 261 265
3 261 260 262
3 261 262 265
3 268 225 224
3 268 224 269
3 224 220 257
3 224 257 269
3 257 256 267
3 257 267 269
3 267 266 268
3 267 268 269
3 146 82 81
3 146 81 270
3 81 89 271
3 81 271 270
3 271 272 273
3 271 273 270
3 273 148 146
3 273 146 270
3 104 103 274
3 104 274 275
3 274 276 277
3 274 277 275
3 277 272 271
3 277 271 275
3 271 89 104
3 271 104 275
3 278 263 262
3 278 262 279
3 262 260 280
3 262 280 279
3 280 272 277
3 280 277 279
3 277 276 278
3 277 278 279
3 258 153 152
3 258 152 281
3 152 148 273
3 152 273 281
3 273 272 280
3 273 280 281
3 280 260 258
3 280 258 281
3 282 283 284
3 282 284 285
3 284 286 287
3 284 287 285
3 287 288 289
3 287 289 285
3 289 290 282
3 289 282 285
3 291 292 293
3 291 293 294
3 293 295 296
3 293 296 294
3 296 288 287
3 296 287 294
3 287 286 291
3 287 291 294
3 297 298 299
3 297 299 300
3 299 301 302
3 299 302 300
3 302 288 296
3 302 296 300
3 296 295 297
3 296 297 300
3 303 251 304
3 303 304 305
3 304 290 289
3 304 289 305
3 289 288 302
3 289 302 305
3 302 301 303
3 302 303 305
3 108 107 206
3 108 206 306
3 206 211 307
3 206 307 306
3 307 308 309
3 307 309 306
3 309 110 108
3 309 108 306
3 216 196 310
3 216 310 311
3 310 312 313
3 310 313 311
3 313 308 307
3 313 307 311
3 307 211 216
3 307 216 311
3 314 298 315
3 314 315 316
3 315 317 318
3 315 318 316
3 318 308 313
3 318 313 316
3 313 312 314
3 313 314 316
3 319 116 115
3 319 115 320
3 115 110 309
3 115 309 320
3 309 308 318
3 309 318 320
3 318 317 319
3 318 319 320
3 188 187 238
3 188 238 321
3 238 243 322
3 238 322 321
3 322 323 324
3 322 324 321
3 324 190 188
3 324 188 321
3 252 251 303
3 252 303 325
3 303 301 326
3 303 326 325
3 326 323 322
3 326 322 325
3 322 243 252
3 322 252 325
3 299 298 314
3 299 314 327
3 314 312 328
3 314 328 327
3 328 323 326
3 328 326 327
3 326 301 299
3 326 299 327
3 310 196 195
3 310 195 329
3 195 190 324
3 195 324 329
3 324 323 328
3 324 328 329
3 328 312 310
3 328 310 329
3 330 331 332
3 330 332 333
3 332 334 335
3 332 335 333
3 335 336 337
3 335 337 333
3 337 338 330
3 337 330 333
3 339 340 341
3 339 341 342
3 341 343 344
3 341 344 342
3 344 336 335
3 344 335 342
3 335 334 339
3 335 339 342
3 345 346 347
3 345 347 348
3 347 349 350
3 347 350 348
3 350 336 344
3 350 344 348
3 344 343 345
3 344 345 348
3 351 352 353
3 351 353 354
3 353 338 337
3 353 337 354
3 337 336 350
3 337 350 354
3 350 349 351
3 350 351 354
3 355 356 357
3 355 357 358
3 357 359 360
3 357 360 358
3 360 361 362
3 360 362 358
3 362 363 355
3 362 355 358
3 364 365 366
3 364 366 367
3 366 368 369
3 366 369 367
3 369 361 360
3 369 360 367
3 360 359 364
3 360 364 367
3 370 346 345
3 370 345 371
3 345 343 372
3 345 372 371
3 372 361 369
3 372 369 371
3 369 368 370
3 369 370 371
3 341 340 373
3 341 373 374
3 373 363 362
3 373 362 374
3 362 361 372
3 362 372 374
3 372 343 341
3 372 341 374
3 375 376 377
3 375 377 378
3 377 379 380
3 377 380 378
3 380 381 382
3 380 382 378
3 382 383 375
3 382 375 378
3 384 385 386
3 384 386 387
3 386 388 389
3 386 389 387
3 389 381 380
3 389 380 387
3 380 379 384
3 380 384 387
3 390 346 370
3 390 370 391
3 370 368 392
3 370 392 391
3 392 381 389
3 392 389 391
3 389 388 390
3 389 390 391
3 366 365 393
3 366 393 394
3 393 383 382
3 393 382 394
3 382 381 392
3 382 392 394
3 392 368 366
3 392 366 394
3 395 283 396
3 395 396 397
3 396 398 399
3 396 399 397
3 399 400 401
3 399 401 397
3 401 402 395
3 401 395 397
3 403 352 351
3 403 351 404
3 351 349 405
3 351 405 404
3 405 400 399
3 405 399 404
3 399 398 403
3 399 403 404
3 347 346 390
3 347 390 406
3 390 388 407
3 390 407 406
3 407 400 405
3 407 405 406
3 405 349 347
3 405 347 406
3 386 385 408
3 386 408 409
3 408 402 401
3 408 401 409
3 401 400 407
3 401 407 409
3 407 388 386
3 407 386 409
3 410 411 412
3 410 412 413
3 412 414 415
3 412 415 413
3 415 416 417
3 415 417 413
3 417 418 410
3 417 410 413
3 419 420 421
3 419 421 422
3 421 423 424
3 421 424 422
3 424 416 415
3 424 415 422
3 415 414 419
3 415 419 422
3 425 426 427
3 425 427 428
3 427 429 430
3 427 430 428
3 430 416 424
3 430 424 428
3 424 423 425
3 424 425 428
3 431 432 433
3 431 433 434
3 433 418 417
3 433 417 434
3 417 416 430
3 417 430 434
3 430 429 431
3 430 431 434
3 435 436 437
3 435 437 438
3 437 439 440
3 437 440 438
3 440 441 442
3 440 442 438
3 442 443 435
3 442 435 438
3 444 445 446
3 444 446 447
3 446 448 449
3 446 449 447
3 449 441 440
3 449 440 447
3 440 439 444
3 440 444 447
3 450 426 425
3 450 425 451
3 425 423 452
3 425 452 451
3 452 441 449
3 452 449 451
3 449 448 450
3 449 450 451
3 421 420 453
3 421 453 454
3 453 443 442
3 453 442 454
3 442 441 452
3 442 452 454
3 452 423 421
3 452 421 454
3 455 356 355
3 455 355 456
3 355 363 457
3 355 457 456
3 457 458 459
3 457 459 456
3 459 460 455
3 459 455 456
3 373 340 461
3 373 461 462
3 461 463 464
3 461 464 462
3 464 458 457
3 464 457 462
3 457 363 373
3 457 373 462
3 465 426 450
3 465 450 466
3 450 448 467
3 450 467 466
3 467 458 464
3 467 464 466
3 464 463 465
3 464 465 466
3 446 445 468
3 446 468 469
3 468 460 459
3 468 459 469
3 459 458 467
3 459 467 469
3 467 448 446
3 467 446 469
3 332 331 470
3 332 470 471
3 470 472 473
3 470 473 471
3 473 474 475
3 473 475 471
3 475 334 332
3 475 332 471
3 476 432 431
3 476 431 477
3 431 429 478
3 431 478 477
3 478 474 473
3 478 473 477
3 473 472 476
3 473 476 477
3 427 426 465
3 427 465 479
3 465 463 480
3 465 480 479
3 480 474 478
3 480 478 479
3 478 429 427
3 478 427 479
3 461 340 339
3 461 339 481
3 339 334 475
3 339 475 481
3 475 474 480
3 475 480 481
3 480 463 461
3 480 461 481
3 128 127 482
3 128 482 483
3 482 484 485
3 482 485 483
3 485 486 487
3 485 487 483
3 487 130 128
3 487 128 483
3 488 489 490
3 488 490 491
3 490 492 493
3 490 493 491
3 493 486 485
3 493 485 491
3 485 484 488
3 485 488 491
3 494 495 496
3 494 496 497
3 496 498 499
3 496 499 497
3 499 486 493
3 499 493 497
3 493 492 494
3 493 494 497
3 500 136 135
3 500 135 501
3 135 130 487
3 135 487 501
3 487 486 499
3 487 499 501
3 499 498 500
3 499 500 501
3 502 503 504
3 502 504 505
3 504 506 507
3 504 507 505
3 507 508 509
3 507 509 505
3 509 510 502
3 509 502 505
3 511 512 513
3 511 513 514
3 513 515 516
3 513 516 514
3 516 508 507
3 516 507 514
3 507 506 511
3 507 511 514
3 517 495 494
3 517 494 518
3 494 492 519
3 494 519 518
3 519 508 516
3 519 516 518
3 516 515 517
3 516 517 518
3 490 489 520
3 490 520 521
3 520 510 509
3 520 509 521
3 509 508 519
3 509 519 521
3 519 492 490
3 519 490 521
3 522 436 435
3 522 435 523
3 435 443 524
3 435 524 523
3 524 525 526
3 524 526 523
3 526 527 522
3 526 522 523
3 453 420 528
3 453 528 529
3 528 530 531
3 528 531 529
3 531 525 524
3 531 524 529
3 524 443 453
3 524 453 529
3 532 495 517
3 532 517 533
3 517 515 534
3 517 534 533
3 534 525 531
3 534 531 533
3 531 530 532
3 531 532 533
3 513 512 535
3 513 535 536
3 535 527 526
3 535 526 536
3 526 525 534
3 526 534 536
3 534 515 513
3 534 513 536
3 412 411 537
3 412 537 538
3 537 539 540
3 537 540 538
3 540 541 542
3 540 542 538
3 542 414 412
3 542 412 538
3 543 136 500
3 543 500 544
3 500 498 545
3 500 545 544
3 545 541 540
3 545 540 544
3 540 539 543
3 540 543 544
3 496 495 532
3 496 532 546
3 532 530 547
3 532 547 546
3 547 541 545
3 547 545 546
3 545 498 496
3 545 496 546
3 528 420 419
3 528 419 548
3 419 414 542
3 419 542 548
3 542 541 547
3 542 547 548
3 547 530 528
3 547 528 548
3 284 283 395
3 284 395 549
3 395 402 550
3 395 550 549
3 550 551 552
3 550 552 549
3 552 286 284
3 552 284 549
3 408 385 553
3 408 553 554
3 553 555 556
3 553 556 554
3 556 551 550
3 556 550 554
3 550 402 408
3 550 408 554
3 557 558 559
3 557 559 560
3 559 561 562
3 559 562 560
3 562 551 556
3 562 556 560
3 556 555 557
3 556 557 560
3 563 292 291
3 563 291 564
3 291 286 552
3 291 552 564
3 552 551 562
3 552 562 564
3 562 561 563
3 562 563 564
3 377 376 565
3 377 565 566
3 565 567 568
3 565 568 566
3 568 569 570
3 568 570 566
3 570 379 377
3 570 377 566
3 571 572 573
3 571 573 574
3 573 575 576
3 573 576 574
3 576 569 568
3 576 568 574
3 568 567 571
3 568 571 574
3 577 558 557
3 577 557 578
3 557 555 579
3 557 579 578
3 579 569 576
3 579 576 578
3 576 575 577
3 576 577 578
3 553 385 384
3 553 384 580
3 384 379 570
3 384 570 580
3 570 569 579
3 570 579 580
3 579 555 553
3 579 553 580
3 581 503 502
3 581 502 582
3 502 510 583
3 502 583 582
3 583 584 585
3 583 585 582
3 585 586 581
3 585 581 582
3 520 489 587
3 520 587 588
3 587 589 590
3 587 590 588
3 590 584 583
3 590 583 588
3 583 510 520
3 583 520 588
3 591 558 577
3 591 577 592
3 577 575 593
3 577 593 592
3 593 584 590
3 593 590 592
3 590 589 591
3 590 591 592
3 573 572 594
3 573 594 595
3 594 586 585
3 594 585 595
3 585 584 593
3 585 593 595
3 593 575 573
3 593 573 595
3 482 127 596
3 482 596 597
3 596 598 599
3 596 599 597
3 599 600 601
3 599 601 597
3 601 484 482
3 601 482 597
3 602 292 563
3 602 563 603
3 563 561 604
3 563 604 603
3 604 600 599
3 604 599 603
3 599 598 602
3 599 602 603
3 559 558 591
3 559 591 605
3 591 589 606
3 591 606 605
3 606 600 604
3 606 604 605
3 604 561 559
3 604 559 605
3 587 489 488
3 587 488 607
3 488 484 601
3 488 601 607
3 601 600 606
3 601 606 607
3 606 589 587
3 606 587 607
3 357 356 608
3 357 608 609
3 608 610 611
3 608 611 609
3 611 612 613
3 611 613 609
3 613 359 357
3 613 357 609
3 614 615 616
3 614 616 617
3 616 618 619
3 616 619 617
3 619 612 611
3 619 611 617
3 611 610 614
3 611 614 617
3 620 621 622
3 620 622 623
3 622 624 625
3 622 625 623
3 625 612 619
3 625 619 623
3 619 618 620
3 619 620 623
3 626 365 364
3 626 364 627
3 364 359 613
3 364 613 627
3 613 612 625
3 613 625 627
3 625 624 626
3 625 626 627
3 628 629 630
3 628 630 631
3 630 632 633
3 630 633 631
3 633 634 635
3 633 635 631
3 635 636 628
3 635 628 631
3 637 638 639
3 637 639 640
3 639 641 642
3 639 642 640
3 642 634 633
3 642 633 640
3 633 632 637
3 633 637 640
3 643 621 620
3 643 620 644
3 620 618 645
3 620 645 644
3 645 634 642
3 645 642 644
3 642 641 643
3 642 643 644
3 616 615 646
3 616 646 647
3 646 636 635
3 646 635 647
3 635 634 645
3 635 645 647
3 645 618 616
3 645 616 647
3 648 649 650
3 648 650 651
3 650 652 653
3 650 653 651
3 653 654 655
3 653 655 651
3 655 656 648
3 655 648 651
3 657 658 659
3 657 659 660
3 659 661 662
3 659 662 660
3 662 654 653
3 662 653 660
3 653 652 657
3 653 657 660
3 663 621 643
3 663 643 664
3 643 641 665
3 643 665 664
3 665 654 662
3 665 662 664
3 662 661 663
3 662 663 664
3 639 638 666
3 639 666 667
3 666 656 655
3 666 655 667
3 655 654 665
3 655 665 667
3 665 641 639
3 665 639 667
3 668 376 375
3 668 375 669
3 375 383 670
3 375 670 669
3 670 671 672
3 670 672 669
3 672 673 668
3 672 668 669
3 393 365 626
3 393 626 674
3 626 624 675
3 626 675 674
3 675 671 670
3 675 670 674
3 670 383 393
3 670 393 674
3 622 621 663
3 622 663 676
3 663 661 677
3 663 677 676
3 677 671 675
3 677 675 676
3 675 624 622
3 675 622 676
3 659 658 678
3 659 678 679
3 678 673 672
3 678 672 679
3 672 671 677
3 672 677 679
3 677 661 659
3 677 659 679
3 437 436 680
3 437 680 681
3 680 682 683
3 680 683 681
3 683 684 685
3 683 685 681
3 685 439 437
3 685 437 681
3 686 687 688
3 686 688 689
3 688 690 691
3 688 691 689
3 691 684 683
3 691 683 689
3 683 682 686
3 683 686 689
3 692 693 694
3 692 694 695
3 694 696 697
3 694 697 695
3 697 684 691
3 697 691 695
3 691 690 692
3 691 692 695
3 698 445 444
3 698 444 699
3 444 439 685
3 444 685 699
3 685 684 697
3 685 697 699
3 697 696 698
3 697 698 699
3 700 701 702
3 700 702 703
3 702 704 705
3 702 705 703
3 705 706 707
3 705 707 703
3 707 708 700
3 707 700 703
3 709 710 711
3 709 711 712
3 711 713 714
3 711 714 712
3 714 706 705
3 714 705 712
3 705 704 709
3 705 709 712
3 715 693 692
3 715 692 716
3 692 690 717
3 692 717 716
3 717 706 714
3 717 714 716
3 714 713 715
3 714 715 716
3 688 687 718
3 688 718 719
3 718 708 707
3 718 707 719
3 707 706 717
3 707 717 719
3 717 690 688
3 717 688 719
3 720 629 628
3 720 628 721
3 628 636 722
3 628 722 721
3 722 723 724
3 722 724 721
3 724 725 720
3 724 720 721
3 646 615 726
3 646 726 727
3 726 728 729
3 726 729 727
3 729 723 722
3 729 722 727
3 722 636 646
3 722 646 727
3 730 693 715
3 730 715 731
3 715 713 732
3 715 732 731
3 732 723 729
3 732 729 731
3 729 728 730
3 729 730 731
3 711 710 733
3 711 733 734
3 733 725 724
3 733 724 734
3 724 723 732
3 724 732 734
3 732 713 711
3 732 711 734
3 608 356 455
3 608 455 735
3 455 460 736
3 455 736 735
3 736 737 738
3 736 738 735
3 738 610 608
3 738 608 735
3 468 445 698
3 468 698 739
3 698 696 740
3 698 740 739
3 740 737 736
3 740 736 739
3 736 460 468
3 736 468 739
3 694 693 730
3 694 730 741
3 730 728 742
3 730 742 741
3 742 737 740
3 742 740 741
3 740 696 694
3 740 694 741
3 726 615 614
3 726 614 743
3 614 610 738
3 614 738 743
3 738 737 742
3 738 742 743
3 742 728 726
3 742 726 743
3 504 503 744
3 504 744 745
3 744 746 747
3 744 747 745
3 747 748 749
3 747 749 745
3 749 506 504
3 749 504 745
3 750 751 752
3 750 752 753
3 752 754 755
3 752 755 753
3 755 748 747
3 755 747 753
3 747 746 750
3 747 750 753
3 756 757 758
3 756 758 759
3 758 760 761
3 758 761 759
3 761 748 755
3 761 755 759
3 755 754 756
3 755 756 759
3 762 512 511
3 762 511 763
3 511 506 749
3 511 749 763
3 749 748 761
3 749 761 763
3 761 760 762
3 761 762 763
3 764 765 766
3 764 766 767
3 766 768 769
3 766 769 767
3 769 770 771
3 769 771 767
3 771 772 764
3 771 764 767
3 773 774 775
3 773 775 776
3 775 777 778
3 775 778 776
3 778 770 769
3 778 769 776
3 769 768 773
3 769 773 776
3 779 757 756
3 779 756 780
3 756 754 781
3 756 781 780
3 781 770 778
3 781 778 780
3 778 777 779
3 778 779 780
3 752 751 782
3 752 782 783
3 782 772 771
3 782 771 783
3 771 770 781
3 771 781 783
3 781 754 752
3 781 752 783
3 784 701 700
3 784 700 785
3 700 708 786
3 700 786 785
3 786 787 788
3 786 788 785
3 788 789 784
3 788 784 785
3 718 687 790
3 718 790 791
3 790 792 793
3 790 793 791
3 793 787 786
3 793 786 791
3 786 708 718
3 786 718 791
3 794 757 779
3 794 779 795
3 779 777 796
3 779 796 795
3 796 787 793
3 796 793 795
3 793 792 794
3 793 794 795
3 775 774 797
3 775 797 798
3 797 789 788
3 797 788 798
3 788 787 796
3 788 796 798
3 796 777 775
3 796 775 798
3 680 436 522
3 680 522 799
3 522 527 800
3 522 800 799
3 800 801 802
3 800 802 799
3 802 682 680
3 802 680 799
3 535 512 762
3 535 762 803
3 762 760 804
3 762 804 803
3 804 801 800
3 804 800 803
3 800 527 535
3 800 535 803
3 758 757 794
3 758 794 805
3 794 792 806
3 794 806 805
3 806 801 804
3 806 804 805
3 804 760 758
3 804 758 805
3 790 687 686
3 790 686 807
3 686 682 802
3 686 802 807
3 802 801 806
3 802 806 807
3 806 792 790
3 806 790 807
3 565 376 668
3 565 668 808
3 668 673 809
3 668 809 808
3 809 810 811
3 809 811 808
3 811 567 565
3 811 565 808
3 678 658 812
3 678 812 813
3 812 814 815
3 812 815 813
3 815 810 809
3 815 809 813
3 809 673 678
3 809 678 813
3 816 817 818
3 816 818 819
3 818 820 821
3 818 821 819
3 821 810 815
3 821 815 819
3 815 814 816
3 815 816 819
3 822 572 571
3 822 571 823
3 571 567 811
3 571 811 823
3 811 810 821
3 811 821 823
3 821 820 822
3 821 822 823
3 650 649 824
3 650 824 825
3 824 826 827
3 824 827 825
3 827 828 829
3 827 829 825
3 829 652 650
3 829 650 825
3 830 831 832
3 830 832 833
3 832 834 835
3 832 835 833
3 835 828 827
3 835 827 833
3 827 826 830
3 827 830 833
3 836 817 816
3 836 816 837
3 816 814 838
3 816 838 837
3 838 828 835
3 838 835 837
3 835 834 836
3 835 836 837
3 812 658 657
3 812 657 839
3 657 652 829
3 657 829 839
3 829 828 838
3 829 838 839
3 838 814 812
3 838 812 839
3 840 765 764
3 840 764 841
3 764 772 842
3 764 842 841
3 842 843 844
3 842 844 841
3 844 845 840
3 844 840 841
3 782 751 846
3 782 846 847
3 846 848 849
3 846 849 847
3 849 843 842
3 849 842 847
3 842 772 782
3 842 782 847
3 850 817 836
3 850 836 851
3 836 834 852
3 836 852 851
3 852 843 849
3 852 849 851
3 849 848 850
3 849 850 851
3 832 831 853
3 832 853 854
3 853 845 844
3 853 844 854
3 844 843 852
3 844 852 854
3 852 834 832
3 852 832 854
3 744 503 581
3 744 581 855
3 581 586 856
3 581 856 855
3 856 857 858
3 856 858 855
3 858 746 744
3 858 744 855
3 594 572 822
3 594 822 859
3 822 820 860
3 822 860 859
3 860 857 856
3 860 856 859
3 856 586 594
3 856 594 859
3 818 817 850
3 818 850 861
3 850 848 862
3 850 862 861
3 862 857 860
3 862 860 861
3 860 820 818
3 860 818 861
3 846 751 750
3 846 750 863
3 750 746 858
3 750 858 863
3 858 857 862
3 858 862 863
3 862 848 846
3 862 846 863
3 766 765 864
3 766 864 865
3 864 866 867
3 864 867 865
3 867 868 869
3 867 869 865
3 869 768 766
3 869 766 865
3 870 871 872
3 870 872 873
3 872 874 875
3 872 875 873
3 875 868 867
3 875 867 873
3 867 866 870
3 867 870 873
3 876 877 878
3 876 878 879
3 878 880 881
3 878 881 879
3 881 868 875
3 881 875 879
3 875 874 876
3 875 876 879
3 882 774 773
3 882 773 883
3 773 768 869
3 773 869 883
3 869 868 881
3 869 881 883
3 881 880 882
3 881 882 883
3 884 46 45
3 884 45 885
3 45 53 886
3 45 886 885
3 886 887 888
3 886 888 885
3 888 889 884
3 888 884 885
3 63 35 890
3 63 890 891
3 890 892 893
3 890 893 891
3 893 887 886
3 893 886 891
3 886 53 63
3 886 63 891
3 894 877 876
3 894 876 895
3 876 874 896
3 876 896 895
3 896 887 893
3 896 893 895
3 893 892 894
3 893 894 895
3 872 871 897
3 872 897 898
3 897 889 888
3 897 888 898
3 888 887 896
3 888 896 898
3 896 874 872
3 896 872 898
3 27 26 899
3 27 899 900
3 899 901 902
3 899 902 900
3 902 903 904
3 902 904 900
3 904 29 27
3 904 27 900
3 905 906 907
3 905 907 908
3 907 909 910
3 907 910 908
3 910 903 902
3 910 902 908
3 902 901 905
3 902 905 908
3 911 877 894
3 911 894 912
3 894 892 913
3 894 913 912
3 913 903 910
3 913 910 912
3 910 909 911
3 910 911 912
3 890 35 34
3 890 34 914
3 34 29 904
3 34 904 914
3 904 903 913
3 904 913 914
3 913 892 890
3 913 890 914
3 915 701 784
3 915 784 916
3 784 789 917
3 784 917 916
3 917 918 919
3 917 919 916
3 919 920 915
3 919 915 916
3 797 774 882
3 797 882 921
3 882 880 922
3 882 922 921
3 922 918 917
3 922 917 921
3 917 789 797
3 917 797 921
3 878 877 911
3 878 911 923
3 911 909 924
3 911 924 923
3 924 918 922
3 924 922 923
3 922 880 878
3 922 878 923
3 907 906 925
3 907 925 926
3 925 920 919
3 925 919 926
3 919 918 924
3 919 924 926
3 924 909 907
3 924 907 926
3 824 649 927
3 824 927 928
3 927 929 930
3 927 930 928
3 930 931 932
3 930 932 928
3 932 826 824
3 932 824 928
3 933 934 935
3 933 935 936
3 935 937 938
3 935 938 936
3 938 931 930
3 938 930 936
3 930 929 933
3 930 933 936
3 939 940 941
3 939 941 942
3 941 943 944
3 941 944 942
3 944 931 938
3 944 938 942
3 938 937 939
3 938 939 942
3 945 831 830
3 945 830 946
3 830 826 932
3 830 932 946
3 932 931 944
3 932 944 946
3 944 943 945
3 944 945 946
3 947 66 65
3 947 65 948
3 65 73 949
3 65 949 948
3 949 950 951
3 949 951 948
3 951 952 947
3 951 947 948
3 79 55 953
3 79 953 954
3 953 955 956
3 953 956 954
3 956 950 949
3 956 949 954
3 949 73 79
3 949 79 954
3 957 940 939
3 957 939 958
3 939 937 959
3 939 959 958
3 959 950 956
3 959 956 958
3 956 955 957
3 956 957 958
3 935 934 960
3 935 960 961
3 960 952 951
3 960 951 961
3 951 950 959
3 951 959 961
3 959 937 935
3 959 935 961
3 47 46 884
3 47 884 962
3 884 889 963
3 884 963 962
3 963 964 965
3 963 965 962
3 965 49 47
3 965 47 962
3 897 871 966
3 897 966 967
3 966 968 969
3 966 969 967
3 969 964 963
3 969 963 967
3 963 889 897
3 963 897 967
3 970 940 957
3 970 957 971
3 957 955 972
3 957 972 971
3 972 964 969
3 972 969 971
3 969 968 970
3 969 970 971
3 953 55 54
3 953 54 973
3 54 49 965
3 54 965 973
3 965 964 972
3 965 972 973
3 972 955 953
3 972 953 973
3 864 765 840
3 864 840 974
3 840 845 975
3 840 975 974
3 975 976 977
3 975 977 974
3 977 866 864
3 977 864 974
3 853 831 945
3 853 945 978
3 945 943 979
3 945 979 978
3 979 976 975
3 979 975 978
3 975 845 853
3 975 853 978
3 941 940 970
3 941 970 980
3 970 968 981
3 970 981 980
3 981 976 979
3 981 979 980
3 979 943 941
3 979 941 980
3 966 871 870
3 966 870 982
3 870 866 977
3 870 977 982
3 977 976 981
3 977 981 982
3 981 968 966
3 981 966 982
3 983 1 0
3 983 0 984
3 0 8 985
3 0 985 984
3 985 986 987
3 985 987 984
3 987 988 983
3 987 983 984
3 23 22 989
3 23 989 990
3 989 991 992
3 989 992 990
3 992 986 985
3 992 985 990
3 985 8 23
3 985 23 990
3 993 994 995
3 993 995 996
3 995 997 998
3 995 998 996
3 998 986 992
3 998 992 996
3 992 991 993
3 992 993 996
3 999 1000 1001
3 999 1001 1002
3 1001 988 987
3 1001 987 1002
3 987 986 998
3 987 998 1002
3 998 997 999
3 998 999 1002
3 67 66 947
3 67 947 1003
3 947 952 1004
3 947 1004 1003
3 1004 1005 1006
3 1004 1006 1003
3 1006 69 67
3 1006 67 1003
3 960 934 1007
3 960 1007 1008
3 1007 1009 1010
3 1007 1010 1008
3 1010 1005 1004
3 1010 1004 1008
3 1004 952 960
3 1004 960 1008
3 1011 994 993
3 1011 993 1012
3 993 991 1013
3 993 1013 1012
3 1013 1005 1010
3 1013 1010 1012
3 1010 1009 1011
3 1010 1011 1012
3 989 22 74
3 989 74 1014
3 74 69 1006
3 74 1006 1014
3 1006 1005 1013
3 1006 1013 1014
3 1013 991 989
3 1013 989 1014
3 927 649 648
3 927 648 1015
3 648 656 1016
3 648 1016 1015
3 1016 1017 1018
3 1016 1018 1015
3 1018 929 927
3 1018 927 1015
3 666 638 1019
3 666 1019 1020
3 1019 1021 1022
3 1019 1022 1020
3 1022 1017 1016
3 1022 1016 1020
3 1016 656 666
3 1016 666 1020
3 1023 994 1011
3 1023 1011 1024
3 1011 1009 1025
3 1011 1025 1024
3 1025 1017 1022
3 1025 1022 1024
3 1022 1021 1023
3 1022 1023 1024
3 1007 934 933
3 1007 933 1026
3 933 929 1018
3 933 1018 1026
3 1018 1017 1025
3 1018 1025 1026
3 1025 1009 1007
3 1025 1007 1026
3 630 629 1027
3 630 1027 1028
3 1027 1029 1030
3 1027 1030 1028
3 1030 1031 1032
3 1030 1032 1028
3 1032 632 630
3 1032 630 1028
3 1033 1000 999
3 1033 999 1034
3 999 997 1035
3 999 1035 1034
3 1035 1031 1030
3 1035 1030 1034
3 1030 1029 1033
3 1030 1033 1034
3 995 994 1023
3 995 1023 1036
3 1023 1021 1037
3 1023 1037 1036
3 1037 1031 1035
3 1037 1035 1036
3 1035 997 995
3 1035 995 1036
3 1019 638 637
3 1019 637 1038
3 637 632 1032
3 637 1032 1038
3 1032 1031 1037
3 1032 1037 1038
3 1037 1021 1019
3 1037 1019 1038
3 899 26 25
3 899 25 1039
3 25 33 1040
3 25 1040 1039
3 1040 1041 1042
3 1040 1042 1039
3 1042 901 899
3 1042 899 1039
3 43 10 1043
3 43 1043 1044
3 1043 1045 1046
3 1043 1046 1044
3 1046 1041 1040
3 1046 1040 1044
3 1040 33 43
3 1040 43 1044
3 1047 1048 1049
3 1047 1049 1050
3 1049 1051 1052
3 1049 1052 1050
3 1052 1041 1046
3 1052 1046 1050
3 1046 1045 1047
3 1046 1047 1050
3 1053 906 905
3 1053 905 1054
3 905 901 1042
3 905 1042 1054
3 1042 1041 1052
3 1042 1052 1054
3 1052 1051 1053
3 1052 1053 1054
3 2 1 983
3 2 983 1055
3 983 988 1056
3 983 1056 1055
3 1056 1057 1058
3 1056 1058 1055
3 1058 4 2
3 1058 2 1055
3 1001 1000 1059
3 1001 1059 1060
3 1059 1061 1062
3 1059 1062 1060
3 1062 1057 1056
3 1062 1056 1060
3 1056 988 1001
3 1056 1001 1060
3 1063 1048 1047
3 1063 1047 1064
3 1047 1045 1065
3 1047 1065 1064
3 1065 1057 1062
3 1065 1062 1064
3 1062 1061 1063
3 1062 1063 1064
3 1043 10 9
3 1043 9 1066
3 9 4 1058
3 9 1058 1066
3 1058 1057 1065
3 1058 1065 1066
3 1065 1045 1043
3 1065 1043 1066
3 1027 629 720
3 1027 720 1067
3 720 725 1068
3 720 1068 1067
3 1068 1069 1070
3 1068 1070 1067
3 1070 1029 1027
3 1070 1027 1067
3 733 710 1071
3 733 1071 1072
3 1071 1073 1074
3 1071 1074 1072
3 1074 1069 1068
3 1074 1068 1072
3 1068 725 733
3 1068 733 1072
3 1075 1048 1063
3 1075 1063 1076
3 1063 1061 1077
3 1063 1077 1076
3 1077 1069 1074
3 1077 1074 1076
3 1074 1073 1075
3 1074 1075 1076
3 1059 1000 1033
3 1059 1033 1078
3 1033 1029 1070
3 1033 1070 1078
3 1070 1069 1077
3 1070 1077 1078
3 1077 1061 1059
3 1077 1059 1078
3 702 701 915
3 702 915 1079
3 915 920 1080
3 915 1080 1079
3 1080 1081 1082
3 1080 1082 1079
3 1082 704 702
3 1082 702 1079
3 925 906 1053
3 925 1053 1083
3 1053 1051 1084
3 1053 1084 1083
3 1084 1081 1080
3 1084 1080 1083
3 1080 920 925
3 1080 925 1083
3 1049 1048 1075
3 1049 1075 1085
3 1075 1073 1086
3 1075 1086 1085
3 1086 1081 1084
3 1086 1084 1085
3 1084 1051 1049
3 1084 1049 1085
3 1071 710 709
3 1071 709 1087
3 709 704 1082
3 709 1082 1087
3 1082 1081 1086
3 1082 1086 1087
3 1086 1073 1071
3 1086 1071 1087
3 537 411 1088
3 537 1088 1089
3 1088 1090 1091
3 1088 1091 1089
3 1091 1092 1093
3 1091 1093 1089
3 1093 539 537
3 1093 537 1089
3 1094 1095 1096
3 1094 1096 1097
3 1096 1098 1099
3 1096 1099 1097
3 1099 1092 1091
3 1099 1091 1097
3 1091 1090 1094
3 1091 1094 1097
3 1100 1101 1102
3 1100 1102 1103
3 1102 1104 1105
3 1102 1105 1103
3 1105 1092 1099
3 1105 1099 1103
3 1099 1098 1100
3 1099 1100 1103
3 1106 136 543
3 1106 543 1107
3 543 539 1093
3 543 1093 1107
3 1093 1092 1105
3 1093 1105 1107
3 1105 1104 1106
3 1105 1106 1107
3 1108 103 1109
3 1108 1109 1110
3 1109 1111 1112
3 1109 1112 1110
3 1112 1113 1114
3 1112 1114 1110
3 1114 1115 1108
3 1114 1108 1110
3 1116 1117 1118
3 1116 1118 1119
3 1118 1120 1121
3 1118 1121 1119
3 1121 1113 1112
3 1121 1112 1119
3 1112 1111 1116
3 1112 1116 1119
3 1122 1095 1094
3 1122 1094 1123
3 1094 1090 1124
3 1094 1124 1123
3 1124 1113 1121
3 1124 1121 1123
3 1121 1120 1122
3 1121 1122 1123
3 1088 411 1125
3 1088 1125 1126
3 1125 1115 1114
3 1125 1114 1126
3 1114 1113 1124
3 1114 1124 1126
3 1124 1090 1088
3 1124 1088 1126
3 98 97 1127
3 98 1127 1128
3 1127 1129 1130
3 1127 1130 1128
3 1130 1131 1132
3 1130 1132 1128
3 1132 100 98
3 1132 98 1128
3 1133 1134 1135
3 1133 1135 1136
3 1135 1137 1138
3 1135 1138 1136
3 1138 1131 1130
3 1138 1130 1136
3 1130 1129 1133
3 1130 1133 1136
3 1139 1117 1116
3 1139 1116 1140
3 1116 1111 1141
3 1116 1141 1140
3 1141 1131 1138
3 1141 1138 1140
3 1138 1137 1139
3 1138 1139 1140
3 1109 103 102
3 1109 102 1142
3 102 100 1132
3 102 1132 1142
3 1132 1131 1141
3 1132 1141 1142
3 1141 1111 1109
3 1141 1109 1142
3 137 136 1106
3 137 1106 1143
3 1106 1104 1144
3 1106 1144 1143
3 1144 1145 1146
3 1144 1146 1143
3 1146 139 137
3 1146 137 1143
3 1102 1101 1147
3 1102 1147 1148
3 1147 1149 1150
3 1147 1150 1148
3 1150 1145 1144
3 1150 1144 1148
3 1144 1104 1102
3 1144 1102 1148
3 1151 1134 1133
3 1151 1133 1152
3 1133 1129 1153
3 1133 1153 1152
3 1153 1145 1150
3 1153 1150 1152
3 1150 1149 1151
3 1150 1151 1152
3 1127 97 141
3 1127 141 1154
3 141 139 1146
3 141 1146 1154
3 1146 1145 1153
3 1146 1153 1154
3 1153 1129 1127
3 1153 1127 1154
3 596 127 1155
3 596 1155 1156
3 1155 1157 1158
3 1155 1158 1156
3 1158 1159 1160
3 1158 1160 1156
3 1160 598 596
3 1160 596 1156
3 1161 1162 1163
3 1161 1163 1164
3 1163 1165 1166
3 1163 1166 1164
3 1166 1159 1158
3 1166 1158 1164
3 1158 1157 1161
3 1158 1161 1164
3 1167 1168 1169
3 1167 1169 1170
3 1169 1171 1172
3 1169 1172 1170
3 1172 1159 1166
3 1172 1166 1170
3 1166 1165 1167
3 1166 1167 1170
3 1173 292 602
3 1173 602 1174
3 602 598 1160
3 602 1160 1174
3 1160 1159 1172
3 1160 1172 1174
3 1172 1171 1173
3 1172 1173 1174
3 144 116 1175
3 144 1175 1176
3 1175 1177 1178
3 1175 1178 1176
3 1178 1179 1180
3 1178 1180 1176
3 1180 134 144
3 1180 144 1176
3 1181 1182 1183
3 1181 1183 1184
3 1183 1185 1186
3 1183 1186 1184
3 1186 1179 1178
3 1186 1178 1184
3 1178 1177 1181
3 1178 1181 1184
3 1187 1162 1161
3 1187 1161 1188
3 1161 1157 1189
3 1161 1189 1188
3 1189 1179 1186
3 1189 1186 1188
3 1186 1185 1187
3 1186 1187 1188
3 1155 127 126
3 1155 126 1190
3 126 134 1180
3 126 1180 1190
3 1180 1179 1189
3 1180 1189 1190
3 1189 1157 1155
3 1189 1155 1190
3 315 298 1191
3 315 1191 1192
3 1191 1193 1194
3 1191 1194 1192
3 1194 1195 1196
3 1194 1196 1192
3 1196 317 315
3 1196 315 1192
3 1197 1198 1199
3 1197 1199 1200
3 1199 1201 1202
3 1199 1202 1200
3 1202 1195 1194
3 1202 1194 1200
3 1194 1193 1197
3 1194 1197 1200
3 1203 1182 1181
3 1203 1181 1204
3 1181 1177 1205
3 1181 1205 1204
3 1205 1195 1202
3 1205 1202 1204
3 1202 1201 1203
3 1202 1203 1204
3 1175 116 319
3 1175 319 1206
3 319 317 1196
3 319 1196 1206
3 1196 1195 1205
3 1196 1205 1206
3 1205 1177 1175
3 1205 1175 1206
3 293 292 1173
3 293 1173 1207
3 1173 1171 1208
3 1173 1208 1207
3 1208 1209 1210
3 1208 1210 1207
3 1210 295 293
3 1210 293 1207
3 1169 1168 1211
3 1169 1211 1212
3 1211 1213 1214
3 1211 1214 1212
3 1214 1209 1208
3 1214 1208 1212
3 1208 1171 1169
3 1208 1169 1212
3 1215 1198 1197
3 1215 1197 1216
3 1197 1193 1217
3 1197 1217 1216
3 1217 1209 1214
3 1217 1214 1216
3 1214 1213 1215
3 1214 1215 1216
3 1191 298 297
3 1191 297 1218
3 297 295 1210
3 297 1210 1218
3 1210 1209 1217
3 1210 1217 1218
3 1217 1193 1191
3 1217 1191 1218
3 1219 1220 1221
3 1221 1220 1222
3 1223 1224 1225
3 1223 1225 1226
3 1225 1227 1228
3 1225 1228 1226
3 1228 1229 1226
3 1229 1230 1223
3 1229 1223 1226
3 1231 1232 1233
3 1231 1233 1234
3 1233 1230 1229
3 1233 1229 1234
3 1235 1236 1237
3 1235 1237 1238
3 1237 1239 1240
3 1237 1240 1238
3 1240 1241 1238
3 1241 1242 1235
3 1241 1235 1238
3 1225 1224 1243
3 1225 1243 1244
3 1243 1242 1241
3 1243 1241 1244
3 1241 1245 1244
3 1245 1227 1225
3 1245 1225 1244
3 1246 1247 1248
3 1237 1236 1249
3 1237 1249 1250
3 1249 1247 1246
3 1249 1246 1250
3 1246 1251 1250
3 1251 1239 1237
3 1251 1237 1250
3 1252 1232 1231
3 1252 1231 1253
3 1254 1255 1252
3 1254 1252 1253
3 1256 1255 1254
3 1211 1168 1257
3 1211 1257 1258
3 1257 1259 1260
3 1257 1260 1258
3 1260 1261 1262
3 1260 1262 1258
3 1262 1213 1211
3 1262 1211 1258
3 1263 1232 1252
3 1263 1252 1264
3 1252 1255 1265
3 1252 1265 1264
3 1265 1261 1260
3 1265 1260 1264
3 1260 1259 1263
3 1260 1263 1264
3 1256 1266 1267
3 1256 1267 1268
3 1267 1269 1270
3 1267 1270 1268
3 1270 1261 1265
3 1270 1265 1268
3 1265 1255 1256
3 1265 1256 1268
3 1271 1198 1215
3 1271 1215 1272
3 1215 1213 1262
3 1215 1262 1272
3 1262 1261 1270
3 1262 1270 1272
3 1270 1269 1271
3 1270 1271 1272
3 1199 1198 1271
3 1199 1271 1273
3 1271 1269 1274
3 1271 1274 1273
3 1274 1275 1276
3 1274 1276 1273
3 1276 1201 1199
3 1276 1199 1273
3 1267 1266 1248
3 1267 1248 1277
3 1248 1247 1278
3 1248 1278 1277
3 1278 1275 1274
3 1278 1274 1277
3 1274 1269 1267
3 1274 1267 1277
3 1249 1236 1279
3 1249 1279 1280
3 1279 1281 1282
3 1279 1282 1280
3 1282 1275 1278
3 1282 1278 1280
3 1278 1247 1249
3 1278 1249 1280
3 1283 1182 1203
3 1283 1203 1284
3 1203 1201 1276
3 1203 1276 1284
3 1276 1275 1282
3 1276 1282 1284
3 1282 1281 1283
3 1282 1283 1284
3 1183 1182 1283
3 1183 1283 1285
3 1283 1281 1286
3 1283 1286 1285
3 1286 1287 1288
3 1286 1288 1285
3 1288 1185 1183
3 1288 1183 1285
3 1279 1236 1235
3 1279 1235 1289
3 1235 1242 1290
3 1235 1290 1289
3 1290 1287 1286
3 1290 1286 1289
3 1286 1281 1279
3 1286 1279 1289
3 1243 1224 1291
3 1243 1291 1292
3 1291 1293 1294
3 1291 1294 1292
3 1294 1287 1290
3 1294 1290 1292
3 1290 1242 1243
3 1290 1243 1292
3 1295 1162 1187
3 1295 1187 1296
3 1187 1185 1288
3 1187 1288 1296
3 1288 1287 1294
3 1288 1294 1296
3 1294 1293 1295
3 1294 1295 1296
3 1163 1162 1295
3 1163 1295 1297
3 1295 1293 1298
3 1295 1298 1297
3 1298 1299 1300
3 1298 1300 1297
3 1300 1165 1163
3 1300 1163 1297
3 1291 1224 1223
3 1291 1223 1301
3 1223 1230 1302
3 1223 1302 1301
3 1302 1299 1298
3 1302 1298 1301
3 1298 1293 1291
3 1298 1291 1301
3 1233 1232 1263
3 1233 1263 1303
3 1263 1259 1304
3 1263 1304 1303
3 1304 1299 1302
3 1304 1302 1303
3 1302 1230 1233
3 1302 1233 1303
3 1257 1168 1167
3 1257 1167 1305
3 1167 1165 1300
3 1167 1300 1305
3 1300 1299 1304
3 1300 1304 1305
3 1304 1259 1257
3 1304 1257 1305
3 1147 1101 1306
3 1147 1306 1307
3 1306 1308 1309
3 1306 1309 1307
3 1309 1310 1311
3 1309 1311 1307
3 1311 1149 1147
3 1311 1147 1307
3 1312 1313 1314
3 1312 1314 1315
3 1314 1316 1317
3 1314 1317 1315
3 1317 1310 1309
3 1317 1309 1315
3 1309 1308 1312
3 1309 1312 1315
3 1318 1319 1320
3 1319 1321 1322
3 1319 1322 1320
3 1322 1310 1317
3 1322 1317 1320
3 1317 1316 1318
3 1317 1318 1320
3 1323 1134 1151
3 1323 1151 1324
3 1151 1149 1311
3 1151 1311 1324
3 1311 1310 1322
3 1311 1322 1324
3 1322 1321 1323
3 1322 1323 1324
3 1135 1134 1323
3 1135 1323 1325
3 1323 1321 1326
3 1323 1326 1325
3 1326 1327 1328
3 1326 1328 1325
3 1328 1137 1135
3 1328 1135 1325
3 1329 1327 1326
3 1326 1321 1319
3 1222 1220 1330
3 1222 1330 1331
3 1330 1332 1333
3 1330 1333 1331
3 1333 1327 1329
3 1333 1329 1331
3 1329 1222 1331
3 1334 1117 1139
3 1334 1139 1335
3 1139 1137 1328
3 1139 1328 1335
3 1328 1327 1333
3 1328 1333 1335
3 1333 1332 1334
3 1333 1334 1335
3 1118 1117 1334
3 1118 1334 1336
3 1334 1332 1337
3 1334 1337 1336
3 1337 1338 1339
3 1337 1339 1336
3 1339 1120 1118
3 1339 1118 1336
3 1330 1220 1219
3 1330 1219 1340
3 1219 1341 1342
3 1219 1342 1340
3 1342 1338 1337
3 1342 1337 1340
3 1337 1332 1330
3 1337 1330 1340
3 1343 1344 1345
3 1343 1345 1346
3 1345 1347 1348
3 1345 1348 1346
3 1348 1338 1342
3 1348 1342 1346
3 1342 1341 1343
3 1342 1343 1346
3 1349 1095 1122
3 1349 1122 1350
3 1122 1120 1339
3 1122 1339 1350
3 1339 1338 1348
3 1339 1348 1350
3 1348 1347 1349
3 1348 1349 1350
3 1096 1095 1349
3 1096 1349 1351
3 1349 1347 1352
3 1349 1352 1351
3 1352 1353 1354
3 1352 1354 1351
3 1354 1098 1096
3 1354 1096 1351
3 1345 1344 1355
3 1345 1355 1356
3 1355 1357 1358
3 1355 1358 1356
3 1358 1353 1352
3 1358 1352 1356
3 1352 1347 1345
3 1352 1345 1356
3 1359 1313 1312
3 1359 1312 1360
3 1312 1308 1361
3 1312 1361 1360
3 1361 1353 1358
3 1361 1358 1360
3 1358 1357 1359
3 1358 1359 1360
3 1306 1101 1100
3 1306 1100 1362
3 1100 1098 1354
3 1100 1354 1362
3 1354 1353 1361
3 1354 1361 1362
3 1361 1308 1306
3 1361 1306 1362
3 470 331 1363
3 470 1363 1364
3 1363 1365 1366
3 1363 1366 1364
3 1366 1367 1368
3 1366 1368 1364
3 1368 472 470
3 1368 470 1364
3 1369 225 268
3 1369 268 1370
3 268 266 1371
3 268 1371 1370
3 1371 1367 1366
3 1371 1366 1370
3 1366 1365 1369
3 1366 1369 1370
3 264 263 1372
3 264 1372 1373
3 1372 1374 1375
3 1372 1375 1373
3 1375 1367 1371
3 1375 1371 1373
3 1371 266 264
3 1371 264 1373
3 1376 432 476
3 1376 476 1377
3 476 472 1368
3 476 1368 1377
3 1368 1367 1375
3 1368 1375 1377
3 1375 1374 1376
3 1375 1376 1377
3 1378 1379 1380
3 1381 1382 1383
3 1381 1383 1384
3 1380 1379 1381
3 1380 1381 1384
3 1385 1386 1387
3 1388 1386 1385
3 1388 1385 1389
3 1385 1390 1389
3 1390 1391 1392
3 1390 1392 1389
3 1392 1393 1388
3 1392 1388 1389
3 1383 1382 1394
3 1383 1394 1395
3 1394 1393 1392
3 1394 1392 1395
3 1392 1391 1396
3 1392 1396 1395
3 1396 1383 1395
3 1397 1398 1399
3 1397 1399 1400
3 1399 1401 1402
3 1399 1402 1400
3 1402 1403 1404
3 1402 1404 1400
3 1404 1405 1397
3 1404 1397 1400
3 1406 411 410
3 1406 410 1407
3 410 418 1408
3 410 1408 1407
3 1408 1403 1402
3 1408 1402 1407
3 1402 1401 1406
3 1402 1406 1407
3 433 432 1409
3 433 1409 1410
3 1409 1411 1412
3 1409 1412 1410
3 1412 1403 1408
3 1412 1408 1410
3 1408 418 433
3 1408 433 1410
3 1413 1414 1415
3 1413 1415 1416
3 1415 1405 1404
3 1415 1404 1416
3 1404 1403 1412
3 1404 1412 1416
3 1412 1411 1413
3 1412 1413 1416
3 1372 263 1417
3 1372 1417 1418
3 1417 1419 1420
3 1417 1420 1418
3 1420 1421 1422
3 1420 1422 1418
3 1422 1374 1372
3 1422 1372 1418
3 1423 1424 1425
3 1423 1425 1426
3 1425 1427 1428
3 1425 1428 1426
3 1428 1421 1420
3 1428 1420 1426
3 1420 1419 1423
3 1420 1423 1426
3 1429 1414 1413
3 1429 1413 1430
3 1413 1411 1431
3 1413 1431 1430
3 1431 1421 1428
3 1431 1428 1430
3 1428 1427 1429
3 1428 1429 1430
3 1409 432 1376
3 1409 1376 1432
3 1376 1374 1422
3 1376 1422 1432
3 1422 1421 1431
3 1422 1431 1432
3 1431 1411 1409
3 1431 1409 1432
3 274 103 1433
3 274 1433 1434
3 1433 1435 1436
3 1433 1436 1434
3 1436 1437 1438
3 1436 1438 1434
3 1438 276 274
3 1438 274 1434
3 1439 1440 1441
3 1439 1441 1442
3 1441 1443 1444
3 1441 1444 1442
3 1444 1437 1436
3 1444 1436 1442
3 1436 1435 1439
3 1436 1439 1442
3 1445 1424 1423
3 1445 1423 1446
3 1423 1419 1447
3 1423 1447 1446
3 1447 1437 1444
3 1447 1444 1446
3 1444 1443 1445
3 1444 1445 1446
3 1417 263 278
3 1417 278 1448
3 278 276 1438
3 278 1438 1448
3 1438 1437 1447
3 1438 1447 1448
3 1447 1419 1417
3 1447 1417 1448
3 1125 411 1406
3 1125 1406 1449
3 1406 1401 1450
3 1406 1450 1449
3 1450 1451 1452
3 1450 1452 1449
3 1452 1115 1125
3 1452 1125 1449
3 1399 1398 1453
3 1399 1453 1454
3 1453 1455 1456
3 1453 1456 1454
3 1456 1451 1450
3 1456 1450 1454
3 1450 1401 1399
3 1450 1399 1454
3 1457 1440 1439
3 1457 1439 1458
3 1439 1435 1459
3 1439 1459 1458
3 1459 1451 1456
3 1459 1456 1458
3 1456 1455 1457
3 1456 1457 1458
3 1433 103 1108
3 1433 1108 1460
3 1108 1115 1452
3 1108 1452 1460
3 1452 1451 1459
3 1452 1459 1460
3 1459 1435 1433
3 1459 1433 1460
3 1363 331 1461
3 1363 1461 1462
3 1461 1463 1464
3 1461 1464 1462
3 1464 1465 1466
3 1464 1466 1462
3 1466 1365 1363
3 1466 1363 1462
3 1467 1465 1464
3 1467 1464 1468
3 1464 1463 1469
3 1464 1469 1468
3 1470 1471 1472
3 1470 1472 1473
3 1472 1465 1467
3 1472 1467 1473
3 1474 225 1369
3 1474 1369 1475
3 1369 1365 1466
3 1369 1466 1475
3 1466 1465 1472
3 1466 1472 1475
3 1472 1471 1474
3 1472 1474 1475
3 353 352 1476
3 353 1476 1477
3 1476 1478 1479
3 1476 1479 1477
3 1479 1480 1481
3 1479 1481 1477
3 1481 338 353
3 1481 353 1477
3 1482 1480 1479
3 1469 1463 1483
3 1469 1483 1484
3 1483 1480 1482
3 1483 1482 1484
3 1461 331 330
3 1461 330 1485
3 330 338 1481
3 330 1481 1485
3 1481 1480 1483
3 1481 1483 1485
3 1483 1463 1461
3 1483 1461 1485
3 226 225 1474
3 226 1474 1486
3 1474 1471 1487
3 1474 1487 1486
3 1487 1488 1489
3 1487 1489 1486
3 1489 228 226
3 1489 226 1486
3 1490 1488 1487
3 1490 1487 1491
3 1487 1471 1470
3 1487 1470 1491
3 1492 1493 1494
3 1492 1494 1495
3 1494 1488 1490
3 1494 1490 1495
3 1496 231 230
3 1496 230 1497
3 230 228 1489
3 230 1489 1497
3 1489 1488 1494
3 1489 1494 1497
3 1494 1493 1496
3 1494 1496 1497
3 396 283 1498
3 396 1498 1499
3 1498 1500 1501
3 1498 1501 1499
3 1501 1502 1503
3 1501 1503 1499
3 1503 398 396
3 1503 396 1499
3 1504 1502 1501
3 1504 1501 1505
3 1501 1500 1506
3 1501 1506 1505
3 1507 1502 1504
3 1476 352 403
3 1476 403 1508
3 403 398 1503
3 403 1503 1508
3 1503 1502 1507
3 1503 1507 1508
3 1507 1478 1476
3 1507 1476 1508
3 304 251 1509
3 304 1509 1510
3 1509 1511 1512
3 1509 1512 1510
3 1512 1513 1514
3 1512 1514 1510
3 1514 290 304
3 1514 304 1510
3 1515 1513 1512
3 1515 1512 1516
3 1512 1511 1517
3 1512 1517 1516
3 1506 1500 1518
3 1506 1518 1519
3 1518 1513 1515
3 1518 1515 1519
3 1498 283 282
3 1498 282 1520
3 282 290 1514
3 282 1514 1520
3 1514 1513 1518
3 1514 1518 1520
3 1518 1500 1498
3 1518 1498 1520
3 246 231 1496
3 246 1496 1521
3 1496 1493 1522
3 1496 1522 1521
3 1522 1523 1524
3 1522 1524 1521
3 1524 248 246
3 1524 246 1521
3 1525 1523 1522
3 1525 1522 1526
3 1522 1493 1492
3 1522 1492 1526
3 1517 1511 1527
3 1517 1527 1528
3 1527 1523 1525
3 1527 1525 1528
3 1509 251 250
3 1509 250 1529
3 250 248 1524
3 250 1524 1529
3 1524 1523 1527
3 1524 1527 1529
3 1527 1511 1509
3 1527 1509 1529
3 1453 1398 1530
3 1453 1530 1531
3 1530 1532 1533
3 1530 1533 1531
3 1533 1534 1535
3 1533 1535 1531
3 1535 1455 1453
3 1535 1453 1531
3 1536 1534 1533
3 1536 1533 1537
3 1533 1532 1538
3 1533 1538 1537
3 1539 1540 1541
3 1540 1542 1543
3 1540 1543 1541
3 1543 1534 1536
3 1543 1536 1541
3 1536 1539 1541
3 1544 1440 1457
3 1544 1457 1545
3 1457 1455 1535
3 1457 1535 1545
3 1535 1534 1543
3 1535 1543 1545
3 1543 1542 1544
3 1543 1544 1545
3 1441 1440 1544
3 1441 1544 1546
3 1544 1542 1547
3 1544 1547 1546
3 1547 1548 1549
3 1547 1549 1546
3 1549 1443 1441
3 1549 1441 1546
3 1550 1548 1547
3 1547 1542 1540
3 1387 1386 1551
3 1387 1551 1552
3 1551 1553 1554
3 1551 1554 1552
3 1554 1548 1550
3 1554 1550 1552
3 1550 1387 1552
3 1555 1424 1445
3 1555 1445 1556
3 1445 1443 1549
3 1445 1549 1556
3 1549 1548 1554
3 1549 1554 1556
3 1554 1553 1555
3 1554 1555 1556
3 1425 1424 1555
3 1425 1555 1557
3 1555 1553 1558
3 1555 1558 1557
3 1558 1559 1560
3 1558 1560 1557
3 1560 1427 1425
3 1560 1425 1557
3 1551 1386 1388
3 1551 1388 1561
3 1388 1393 1562
3 1388 1562 1561
3 1562 1559 1558
3 1562 1558 1561
3 1558 1553 1551
3 1558 1551 1561
3 1394 1382 1563
3 1394 1563 1564
3 1563 1565 1566
3 1563 1566 1564
3 1566 1559 1562
3 1566 1562 1564
3 1562 1393 1394
3 1562 1394 1564
3 1567 1414 1429
3 1567 1429 1568
3 1429 1427 1560
3 1429 1560 1568
3 1560 1559 1566
3 1560 1566 1568
3 1566 1565 1567
3 1566 1567 1568
3 1530 1398 1397
3 1530 1397 1569
3 1397 1405 1570
3 1397 1570 1569
3 1570 1571 1572
3 1570 1572 1569
3 1572 1532 1530
3 1572 1530 1569
3 1415 1414 1567
3 1415 1567 1573
3 1567 1565 1574
3 1567 1574 1573
3 1574 1571 1570
3 1574 1570 1573
3 1570 1405 1415
3 1570 1415 1573
3 1563 1382 1381
3 1563 1381 1575
3 1381 1379 1576
3 1381 1576 1575
3 1576 1571 1574
3 1576 1574 1575
3 1574 1565 1563
3 1574 1563 1575
3 1378 1538 1577
3 1538 1532 1572
3 1538 1572 1577
3 1572 1571 1576
3 1572 1576 1577
3 1576 1379 1378
3 1576 1378 1577
