0.0620939
0.0428187
0.176365
0.0677121
0.00319813
0.548975
0.264378
0.30596
0.4729
0.708964
0.405536
0.802976
0.655974
0.383832
0.34786
0.481768
0.457636
0.550652
0.224562
0.488801
0.545419
0.358117
0.463346
0.46008
0.294301
0.43413
0.368896
0.383216
0.430566
0.591634
0.359109
0.267836
0.255715
0.263613
0.345096
0.22075
0.245272
0.206512
0.125275
0.137739
0.243381
0.12712
0.154861
0.291993
0.383311
0.484161
0.313474
0.306414
0.432431
0.307869
0.104259
0.341226
0.253349
0.125469
0.0554942
0.325789
0.0406039
0.0817535
0.540557
0.406271
0.507143
0.139499
0.541575
0.0175392
0.0681521
0.599128
0.437792
0.427304
0.0763694
0.0905871
0.0505661
0.612176
0.272333
0.402375
0.482022
0.454371
0.593817
0.450029
0.0740435
0.139511
0.061258
0.658059
0.961886
0.166255
0.663921
0.528966
0.194005
0.186347
0.375613
0.634065
0.523864
0.557104
0.636562
0.258064
0.486999
0.499035
0.104543
0.617929
0.0715544
0.941173
0.312365
0.205387
0.215359
0.131272
0.35086
0.618108
0.491645
0.183722
0.202371
0.361165
0.635777
0.184176
0.6443
0.631127
0.683334
0.21898
0.640023
0.237699
0.669161
0.622996
0.755917
0.883069
0.759549
0.638707
0.516682
0.803498
0.825594
0.48454
0.38812
0.62892
0.639768
0.58445
0.728657
0.785408
0.67921
0.716492
0.63902
0.699065
0.550063
0.537755
0.633635
0.589714
0.450626
0.472703
0.682391
0.31682
0.222193
0.259897
0.64572
0.201332
0.221988
0.131208
0.199127
0.211496
0.122915
0.143551
0.177516
0.380381
0.233127
0.422368
0.447184
0.466319
0.643776
0.505459
0.474096
0.49335
0.474391
0.294463
0.317481
0.453315
0.584693
0.481069
0.501382
0.403499
0.199885
0.258222
0.376552
0.26355
0.226456
0.17298
0.339994
0.26837
0.219191
0.214603
0.243201
0.235858
0.494752
0.427921
0.439885
0.524224
0.398162
0.403464
0.45676
0.563113
0.575393
0.687471
0.506358
0.523636
0.722654
0.603884
0.679243
0.765473
0.719379
0.732374
0.826206
0.800059
0.999634
0.949334
0.852736
0.999634
1
0.877664
0.588671
0.70008
0.652069
0.635342
0.807749
0.252561
0.764262
0.705316
0.855088
0.605114
0.705366
0.561726
0.616695
0.470807
0.414556
0.60951
0.303378
0.380419
0.469177
0.438599
0.44101
0.528534
0.374575
0.460655
0.459667
0.667306
0.530577
0.613507
0.642248
0.0727353
0.0602843
0.161173
0.554387
0.54267
0.554657
0.24796
0.303272
0.281208
0.256637
0.310422
0.508304
0.4895
0.443257
0.610007
0.414751
0.321375
0.474599
0.363535
0.486203
0
0.629409
0.694294
0.389558
0.768631
0.794718
0.645564
0.104421
0.298246
0.304642
0.197758
0.279076
0.222577
0.364953
0.544746
0.671658
0.196448
0.64262
0.346576
0.130531
0.155192
0.435407
0.507258
0.431227
0.51422
0.367842
0.489147
0.35111
0.450099
0.289491
0.279584
0.0865286
0.0906299
0.494784
0.162535
0.594391
0.351493
0.0630538
0.591238
0.446781
0.0646292
0.186077
0.558394
0.202599
0.104829
0.211793
0.216474
0.528069
0.484888
0.395179
0.760502
0.761029
0.385855
0.587385
0.567116
0.717415
0.707744
0.704488
0.812137
0.0674682
0.830242
0.644948
0.629647
0.771453
0.302492
0.986943
0.902013
0.891105
0.89926
0.75594
0.823463
0.898155
0.597465
0.743503
0.644794
0.589226
0.582414
0.462308
0.607805
0.575388
0.559721
0.887787
0.782731
0.753249
0.62424
0.69776
0.553187
0.529994
0.431047
0.38172
0.414257
0.463235
0.430373
0.47433
0.557859
0.348677
0.429043
0.517812
0.334253
0.411039
0.306514
0.227005
0.202431
0.213411
0.243043
0.31192
0.251238
0.208159
0.206575
0.194026
0.138648
0.112169
0.238888
0.161365
0.0792241
0.339636
0.604453
0.557877
0.6698
0.473875
0.451252
0.311538
0.608784
0.503361
0.49568
0.655123
0.624457
0.632917
0.419635
0.730816
0.333113
0.60567
0.487907
0.519602
0.392965
0.408265
0.429804
0.387542
0.207493
0.172647
0.106842
0.229063
0.144189
0.103981
0.149799
0.321702
0.44425
0.529554
0.514059
0.421776
0.521667
0.501067
0.364968
0.346574
0.391188
0.312603
0.739835
0.520806
0.405058
0.518584
0.595581
0.612798
0.644739
0.602375
0.648142
0.647136
0.539972
0.738813
0.845888
0.724682
0.763381
0.748674
0.767311
0.773391
0.792952
0.44476
0.403079
0.63223
0.811817
0.879227
0.813385
0.794299
0.765468
0.312315
0.446941
