OFF
373 728 0
-7.24129 -12.939 -0.808976
-7.05529 -12.9296 -1.467
-6.62529 -12.939 -1.65653
-6.67529 -12.9563 -0.814325
-5.99729 -12.9437 -1.6586
-5.99729 -12.9622 -0.823442
-5.99729 -12.9715 0.236142
-6.75129 -12.9652 0.271572
-7.37929 -12.9463 0.300532
-5.37029 -12.939 -1.4079
-4.94029 -12.9296 -1.08526
-4.75429 -12.939 -0.560347
-5.32029 -12.9563 -0.693778
-4.61629 -12.9463 0.241142
-5.24429 -12.9652 0.235412
-4.57029 -12.9496 1.1694
-4.57029 -12.9515 2.12961
-5.21929 -12.9693 2.3211
-5.21929 -12.9685 1.2799
-5.99729 -12.9752 2.55089
-5.99729 -12.9748 1.4125
-6.77629 -12.9693 2.78068
-7.42529 -12.9515 2.97217
-7.42529 -12.9496 1.6556
-6.77629 -12.9685 1.5451
-4.17529 -10.3233 1.07149
-4.42329 -10.4197 2.08232
-4.10229 -11.0648 1.99008
-4.04029 -10.9435 1.08667
-3.96629 -11.613 1.95111
-3.95129 -11.5257 1.06584
-4.00229 -11.4867 0.201122
-4.05129 -10.9015 0.209862
-4.13729 -10.287 0.213132
-3.92129 -12.0893 1.93812
-3.92129 -12.4641 1.93812
-3.92129 -12.431 1.0589
-3.92129 -12.0321 1.0589
-3.98629 -12.4144 0.198202
-3.98629 -12.0036 0.198202
-4.18029 -12.4089 -0.621599
-4.57029 -12.4089 -1.37814
-4.57029 -11.994 -1.37814
-4.18029 -11.994 -0.621599
-4.57829 -11.4737 -1.36897
-4.19129 -11.4737 -0.616889
-4.60329 -10.8875 -1.34147
-4.65429 -10.2749 -1.28647
-4.28729 -10.2749 -0.5745
-4.22329 -10.8875 -0.60276
-5.26529 -10.2749 -1.91785
-5.23729 -10.8875 -1.99657
-5.22329 -11.4737 -2.03593
-5.99729 -11.4737 -2.48295
-5.99729 -10.8875 -2.43564
-5.99729 -10.2749 -2.34102
-5.21929 -12.4089 -2.04905
-5.21929 -11.994 -2.04905
-5.99729 -12.4089 -2.49872
-5.99729 -11.994 -2.49872
-6.77629 -12.4089 -2.59152
-7.42529 -12.4089 -2.19184
-7.42529 -11.994 -2.19184
-6.77629 -11.994 -2.59152
-7.41729 -11.4737 -2.17788
-6.77129 -11.4737 -2.5752
-7.39129 -10.8875 -2.13599
-7.34129 -10.2749 -2.05222
-6.73029 -10.2749 -2.42835
-6.75829 -10.8875 -2.52625
-7.70729 -10.2749 -1.085
-7.77129 -10.8875 -1.13244
-7.80429 -11.4737 -1.15616
-7.99329 -11.4867 0.241942
-7.94429 -10.9015 0.249622
-7.85729 -10.287 0.247032
-7.81429 -12.4089 -1.16406
-7.81429 -11.994 -1.16406
-8.00929 -12.4144 0.239392
-8.00929 -12.0036 0.239392
-8.07429 -12.431 1.7661
-8.07429 -12.4641 3.16366
-8.07429 -12.0893 3.16366
-8.07429 -12.0321 1.7661
-8.02929 -11.613 3.16457
-8.04429 -11.5257 1.76843
-7.89329 -11.0648 3.16732
-7.57229 -10.4197 3.16384
-7.82029 -10.3233 1.71762
-7.95529 -10.9435 1.77541
-5.21929 -12.7401 5.35436
-4.57029 -12.707 4.95546
-4.57029 -12.5083 4.95546
-5.21929 -12.5654 5.35436
-4.61629 -12.2683 4.92989
-5.24429 -12.3452 5.3185
-5.99729 -12.3685 5.53829
-5.99729 -12.5845 5.57705
-5.99729 -12.7512 5.57705
-4.75429 -12.0152 4.85316
-4.94029 -11.8172 4.75404
-5.37029 -11.8167 4.98222
-5.32029 -12.0948 5.2109
-5.99729 -11.8185 5.1906
-5.99729 -12.1124 5.42201
-6.62529 -11.8167 5.28271
-7.05529 -11.8172 5.2753
-7.24129 -12.0152 5.41177
-6.67529 -12.0948 5.48721
-7.37929 -12.2683 5.50945
-6.75129 -12.3452 5.59848
-7.42529 -12.5083 5.54201
-7.42529 -12.707 5.54201
-6.77629 -12.7401 5.63557
-6.77629 -12.5654 5.63557
-4.51729 -10.9339 3.03851
-4.14529 -11.3168 2.88245
-4.60329 -11.3191 3.80525
-4.22929 -11.6079 3.69229
-4.04729 -11.9576 3.65226
-3.97729 -11.7709 2.83074
-4.75429 -11.6205 4.39673
-4.41129 -11.8468 4.34807
-4.23829 -12.1313 4.36323
-4.18029 -12.6518 4.36828
-4.18029 -12.4131 4.36828
-3.98629 -12.5856 3.63892
-3.98629 -12.2988 3.63892
-3.92129 -12.5193 2.8135
-3.92129 -12.1845 2.8135
-6.81029 -10.2382 3.35901
-7.47729 -10.9339 4.08263
-6.81129 -10.734 3.95101
-7.39229 -11.3191 4.69223
-6.76029 -11.1603 4.52573
-5.99729 -11.1134 4.30531
-5.99729 -10.6798 3.72302
-5.99729 -10.1911 3.16205
-7.24129 -11.6205 5.08846
-6.67529 -11.5132 4.96592
-5.99729 -11.4892 4.80644
-5.32029 -11.5132 4.58311
-5.23529 -11.1603 4.03737
-5.18529 -10.2382 2.73951
-5.18429 -10.734 3.36878
-8.07429 -12.5193 4.17964
-8.07429 -12.1845 4.17964
-8.00929 -12.5856 4.87443
-8.00929 -12.2988 4.87443
-7.94829 -11.9576 4.85543
-8.01829 -11.7709 4.17167
-7.81429 -12.6518 5.30843
-7.81429 -12.4131 5.30843
-7.75729 -12.1313 5.28156
-7.58429 -11.8468 5.20096
-7.76529 -11.6079 4.79841
-7.84929 -11.3168 4.14776
-4.57029 -12.9547 3.02696
-5.21929 -12.9705 3.24042
-4.61629 -12.9574 3.80236
-5.24429 -12.9708 4.00528
-5.99729 -12.9753 4.2487
-5.99729 -12.9758 3.49657
-4.75429 -12.9581 4.39673
-4.94029 -12.9563 4.75404
-5.37029 -12.9627 4.98222
-5.32029 -12.9687 4.58311
-5.99729 -12.9656 5.1906
-5.99729 -12.9724 4.80644
-6.62529 -12.9627 5.28271
-7.05529 -12.9563 5.2753
-7.24129 -12.9581 5.08846
-6.67529 -12.9687 4.96592
-7.37929 -12.9574 4.66312
-6.75129 -12.9708 4.47616
-7.42529 -12.9547 3.96618
-6.77629 -12.9705 3.75272
-3.92129 -12.708 1.93812
-3.92129 -12.7371 2.8135
-3.98629 -12.7721 3.63892
-4.04929 -12.8811 3.65329
-3.98629 -12.8646 2.83484
-3.98629 -12.8506 1.95727
-4.57029 -12.8363 4.95546
-4.18029 -12.8071 4.36828
-4.61629 -12.9111 4.92989
-4.23829 -12.8974 4.36323
-4.75429 -12.9462 4.85316
-4.41129 -12.941 4.34807
-4.23829 -12.9352 3.6964
-4.18029 -12.9219 2.01472
-4.18029 -12.9282 2.89888
-3.92129 -12.6905 1.0589
-3.98629 -12.8423 1.06995
-4.04929 -12.8378 0.204932
-3.98629 -12.6817 0.198202
-4.18029 -12.9181 1.1031
-4.23829 -12.9149 0.225112
-4.75429 -12.9079 -1.23838
-4.41129 -12.9104 -0.558162
-4.61629 -12.8348 -1.3432
-4.23829 -12.8354 -0.60574
-4.57029 -12.6788 -1.37814
-4.18029 -12.6788 -0.621599
-5.21929 -12.6788 -2.04905
-5.24429 -12.8354 -1.98859
-5.99729 -12.836 -2.41446
-5.99729 -12.6788 -2.49872
-5.32029 -12.9104 -1.80718
-5.99729 -12.913 -2.16168
-7.24129 -12.9079 -1.82605
-6.67529 -12.9104 -2.19896
-7.37929 -12.8348 -2.10039
-6.75129 -12.8354 -2.49338
-7.42529 -12.6788 -2.19184
-6.77629 -12.6788 -2.59152
-7.81429 -12.6788 -1.16406
-7.75729 -12.8354 -1.11053
-7.94629 -12.8378 0.250012
-8.00929 -12.6817 0.239392
-7.58429 -12.9104 -0.949942
-7.75729 -12.9149 0.281872
-7.81429 -12.9219 3.08706
-7.81429 -12.9181 1.7219
-8.00929 -12.8506 3.14451
-8.00929 -12.8423 1.75505
-8.07429 -12.708 3.16366
-8.07429 -12.6905 1.7661
-8.07429 -12.7371 4.17964
-8.00929 -12.8646 4.15829
-7.94629 -12.8811 4.85208
-8.00929 -12.7721 4.87443
-7.81429 -12.9282 4.09425
-7.75729 -12.9352 4.78504
-7.24129 -12.9462 5.41177
-7.58429 -12.941 5.20096
-7.37929 -12.9111 5.50945
-7.75729 -12.8974 5.28156
-7.42529 -12.8363 5.54201
-7.81429 -12.8071 5.30843
-5.21929 -12.8538 5.35436
-5.99729 -12.8596 5.57705
-5.99729 -12.9228 5.53829
-5.24429 -12.9197 5.3185
-6.77629 -12.8538 5.63557
-6.75129 -12.9197 5.59848
-6.67529 -12.9512 5.48721
-5.99729 -12.9536 5.42201
-5.32029 -12.9512 5.2109
-5.12429 -7.81865 1.12995
-5.11529 -7.88395 1.13948
-4.87429 -7.88395 0.671852
-4.88529 -7.81865 0.666962
-4.79429 -7.88395 0.177762
-4.80629 -7.81865 0.177762
-5.08529 -8.02095 1.17181
-5.02929 -8.26175 1.23271
-4.76529 -8.26175 0.719752
-4.83629 -8.02095 0.688462
-4.67729 -8.26175 0.177762
-4.75429 -8.02095 0.177762
-4.76529 -8.26175 -0.364236
-5.02929 -8.26175 -0.8772
-5.08529 -8.02095 -0.8163
-4.83629 -8.02095 -0.332949
-5.11529 -7.88395 -0.783964
-4.87429 -7.88395 -0.316335
-5.12429 -7.81865 -0.77444
-5.11729 -7.79315 -0.781978
-4.87729 -7.79315 -0.315315
-4.88529 -7.81865 -0.311442
-5.51729 -7.79315 -1.19582
-5.52129 -7.81865 -1.18503
-5.51629 -7.88395 -1.19866
-5.99729 -7.88395 -1.47661
-5.99729 -7.81865 -1.46022
-5.99729 -7.79315 -1.47319
-5.46929 -8.26175 -1.3321
-5.50029 -8.02095 -1.24494
-5.99729 -8.26175 -1.63699
-5.99729 -8.02095 -1.53223
-6.52529 -8.26175 -1.69991
-6.96529 -8.26175 -1.42892
-6.90929 -8.02095 -1.33617
-6.49529 -8.02095 -1.59152
-6.88029 -7.88395 -1.28692
-6.47929 -7.88395 -1.53397
-6.87129 -7.81865 -1.27242
-6.87829 -7.79315 -1.2839
-6.47829 -7.79315 -1.53043
-6.47429 -7.81865 -1.51702
-7.11829 -7.79315 -0.649927
-7.10929 -7.81865 -0.643426
-7.12029 -7.88395 -0.65164
-7.20129 -7.88395 0.177762
-7.18929 -7.81865 0.177762
-7.22929 -8.26175 -0.732047
-7.15829 -8.02095 -0.679527
-7.31729 -8.26175 0.177762
-7.24129 -8.02095 0.177762
-7.22929 -8.26175 1.08756
-6.96529 -8.26175 1.78443
-6.90929 -8.02095 1.69168
-7.15829 -8.02095 1.03504
-6.88029 -7.88395 1.64243
-7.12029 -7.88395 1.00715
-7.10929 -7.81865 0.998942
-6.87129 -7.81865 1.62793
-6.47829 -7.79315 1.88595
-6.47429 -7.81865 1.87253
-6.47929 -7.88395 1.88948
-5.99729 -7.88395 1.83212
-5.99729 -7.81865 1.81574
-6.52529 -8.26175 2.05543
-6.49529 -8.02095 1.94704
-5.99729 -8.26175 1.9925
-5.99729 -8.02095 1.88775
-5.46929 -8.26175 1.68762
-5.50029 -8.02095 1.60046
-5.51629 -7.88395 1.55418
-5.52129 -7.81865 1.54055
-5.09929 -7.77555 -0.800829
-5.50829 -7.77555 -1.2228
-5.99729 -7.77555 -1.50562
-6.89529 -7.77555 -1.31261
-4.94229 -8.63815 1.32793
-4.65429 -8.63815 0.768672
-4.81929 -9.12823 1.47765
-4.51029 -9.12642 0.847972
-4.41529 -9.12126 0.183222
-4.55829 -8.63815 0.177762
-4.65829 -9.71011 1.70208
-4.34129 -9.70288 0.970422
-4.26729 -9.68221 0.199632
-4.73829 -9.67532 -1.19479
-4.39529 -9.67532 -0.527401
-4.83929 -9.11954 -1.08419
-4.52429 -9.11954 -0.470579
-4.94229 -8.63815 -0.972412
-4.65429 -8.63815 -0.413152
-5.42229 -8.63815 -1.46837
-5.36629 -9.11954 -1.62835
-5.99729 -9.11954 -1.99306
-5.99729 -8.63815 -1.80078
-5.31029 -9.67532 -1.78664
-5.99729 -9.67532 -2.18332
-7.25729 -9.67532 -1.9126
-6.68429 -9.67532 -2.26518
-7.15529 -9.11954 -1.74416
-6.62929 -9.11954 -2.06833
-7.05329 -8.63815 -1.57392
-6.57329 -8.63815 -1.86938
-7.34029 -8.63815 -0.814159
-7.47129 -9.11954 -0.910558
-7.58029 -9.12126 0.188022
-7.43629 -8.63815 0.177762
-7.60029 -9.67532 -1.00594
-7.72829 -9.68221 0.218802
-7.33729 -9.71011 2.53492
-7.65329 -9.70288 1.52565
-7.17529 -9.12823 2.16637
-7.48429 -9.12642 1.30712
-7.05329 -8.63815 1.92944
-7.34029 -8.63815 1.16967
-6.57329 -8.63815 2.22489
-6.64229 -9.11988 2.48541
-5.99729 -9.11316 2.39508
-5.99729 -8.63815 2.15629
-6.73829 -9.67669 2.86696
-5.99729 -9.64982 2.72487
-5.25729 -9.67669 2.31174
-5.35229 -9.11988 2.02626
-5.42229 -8.63815 1.82388
3 0 1 2
3 0 2 3
3 2 4 5
3 2 5 3
3 5 6 7
3 5 7 3
3 7 8 0
3 7 0 3
3 9 10 11
3 9 11 12
3 11 13 14
3 11 14 12
3 14 6 5
3 14 5 12
3 5 4 9
3 5 9 12
3 15 16 17
3 15 17 18
3 17 19 20
3 17 20 18
3 20 6 14
3 20 14 18
3 14 13 15
3 14 15 18
3 21 22 23
3 21 23 24
3 23 8 7
3 23 7 24
3 7 6 20
3 7 20 24
3 20 19 21
3 20 21 24
3 25 26 27
3 25 27 28
3 27 29 30
3 27 30 28
3 30 31 32
3 30 32 28
3 32 33 25
3 32 25 28
3 34 35 36
3 34 36 37
3 36 38 39
3 36 39 37
3 39 31 30
3 39 30 37
3 30 29 34
3 30 34 37
3 40 41 42
3 40 42 43
3 42 44 45
3 42 45 43
3 45 31 39
3 45 39 43
3 39 38 40
3 39 40 43
3 46 47 48
3 46 48 49
3 48 33 32
3 48 32 49
3 32 31 45
3 32 45 49
3 45 44 46
3 45 46 49
3 50 47 46
3 50 46 51
3 46 44 52
3 46 52 51
3 52 53 54
3 52 54 51
3 54 55 50
3 54 50 51
3 42 41 56
3 42 56 57
3 56 58 59
3 56 59 57
3 59 53 52
3 59 52 57
3 52 44 42
3 52 42 57
3 60 61 62
3 60 62 63
3 62 64 65
3 62 65 63
3 65 53 59
3 65 59 63
3 59 58 60
3 59 60 63
3 66 67 68
3 66 68 69
3 68 55 54
3 68 54 69
3 54 53 65
3 54 65 69
3 65 64 66
3 65 66 69
3 70 67 66
3 70 66 71
3 66 64 72
3 66 72 71
3 72 73 74
3 72 74 71
3 74 75 70
3 74 70 71
3 62 61 76
3 62 76 77
3 76 78 79
3 76 79 77
3 79 73 72
3 79 72 77
3 72 64 62
3 72 62 77
3 80 81 82
3 80 82 83
3 82 84 85
3 82 85 83
3 85 73 79
3 85 79 83
3 79 78 80
3 79 80 83
3 86 87 88
3 86 88 89
3 88 75 74
3 88 74 89
3 74 73 85
3 74 85 89
3 85 84 86
3 85 86 89
3 90 91 92
3 90 92 93
3 92 94 95
3 92 95 93
3 95 96 97
3 95 97 93
3 97 98 90
3 97 90 93
3 99 100 101
3 99 101 102
3 101 103 104
3 101 104 102
3 104 96 95
3 104 95 102
3 95 94 99
3 95 99 102
3 105 106 107
3 105 107 108
3 107 109 110
3 107 110 108
3 110 96 104
3 110 104 108
3 104 103 105
3 104 105 108
3 111 112 113
3 111 113 114
3 113 98 97
3 113 97 114
3 97 96 110
3 97 110 114
3 110 109 111
3 110 111 114
3 27 26 115
3 27 115 116
3 115 117 118
3 115 118 116
3 118 119 120
3 118 120 116
3 120 29 27
3 120 27 116
3 121 100 99
3 121 99 122
3 99 94 123
3 99 123 122
3 123 119 118
3 123 118 122
3 118 117 121
3 118 121 122
3 92 91 124
3 92 124 125
3 124 126 127
3 124 127 125
3 127 119 123
3 127 123 125
3 123 94 92
3 123 92 125
3 128 35 34
3 128 34 129
3 34 29 120
3 34 120 129
3 120 119 127
3 120 127 129
3 127 126 128
3 127 128 129
3 130 87 131
3 130 131 132
3 131 133 134
3 131 134 132
3 134 135 136
3 134 136 132
3 136 137 130
3 136 130 132
3 138 106 105
3 138 105 139
3 105 103 140
3 105 140 139
3 140 135 134
3 140 134 139
3 134 133 138
3 134 138 139
3 101 100 121
3 101 121 141
3 121 117 142
3 121 142 141
3 142 135 140
3 142 140 141
3 140 103 101
3 140 101 141
3 115 26 143
3 115 143 144
3 143 137 136
3 143 136 144
3 136 135 142
3 136 142 144
3 142 117 115
3 142 115 144
3 82 81 145
3 82 145 146
3 145 147 148
3 145 148 146
3 148 149 150
3 148 150 146
3 150 84 82
3 150 82 146
3 151 112 111
3 151 111 152
3 111 109 153
3 111 153 152
3 153 149 148
3 153 148 152
3 148 147 151
3 148 151 152
3 107 106 138
3 107 138 154
3 138 133 155
3 138 155 154
3 155 149 153
3 155 153 154
3 153 109 107
3 153 107 154
3 131 87 86
3 131 86 156
3 86 84 150
3 86 150 156
3 150 149 155
3 150 155 156
3 155 133 131
3 155 131 156
3 17 16 157
3 17 157 158
3 157 159 160
3 157 160 158
3 160 161 162
3 160 162 158
3 162 19 17
3 162 17 158
3 163 164 165
3 163 165 166
3 165 167 168
3 165 168 166
3 168 161 160
3 168 160 166
3 160 159 163
3 160 163 166
3 169 170 171
3 169 171 172
3 171 173 174
3 171 174 172
3 174 161 168
3 174 168 172
3 168 167 169
3 168 169 172
3 175 22 21
3 175 21 176
3 21 19 162
3 21 162 176
3 162 161 174
3 162 174 176
3 174 173 175
3 174 175 176
3 177 35 128
3 177 128 178
3 128 126 179
3 128 179 178
3 179 180 181
3 179 181 178
3 181 182 177
3 181 177 178
3 124 91 183
3 124 183 184
3 183 185 186
3 183 186 184
3 186 180 179
3 186 179 184
3 179 126 124
3 179 124 184
3 187 164 163
3 187 163 188
3 163 159 189
3 163 189 188
3 189 180 186
3 189 186 188
3 186 185 187
3 186 187 188
3 157 16 190
3 157 190 191
3 190 182 181
3 190 181 191
3 181 180 189
3 181 189 191
3 189 159 157
3 189 157 191
3 36 35 177
3 36 177 192
3 177 182 193
3 177 193 192
3 193 194 195
3 193 195 192
3 195 38 36
3 195 36 192
3 190 16 15
3 190 15 196
3 15 13 197
3 15 197 196
3 197 194 193
3 197 193 196
3 193 182 190
3 193 190 196
3 11 10 198
3 11 198 199
3 198 200 201
3 198 201 199
3 201 194 197
3 201 197 199
3 197 13 11
3 197 11 199
3 202 41 40
3 202 40 203
3 40 38 195
3 40 195 203
3 195 194 201
3 195 201 203
3 201 200 202
3 201 202 203
3 56 41 202
3 56 202 204
3 202 200 205
3 202 205 204
3 205 206 207
3 205 207 204
3 207 58 56
3 207 56 204
3 198 10 9
3 198 9 208
3 9 4 209
3 9 209 208
3 209 206 205
3 209 205 208
3 205 200 198
3 205 198 208
3 2 1 210
3 2 210 211
3 210 212 213
3 210 213 211
3 213 206 209
3 213 209 211
3 209 4 2
3 209 2 211
3 214 61 60
3 214 60 215
3 60 58 207
3 60 207 215
3 207 206 213
3 207 213 215
3 213 212 214
3 213 214 215
3 76 61 214
3 76 214 216
3 214 212 217
3 214 217 216
3 217 218 219
3 217 219 216
3 219 78 76
3 219 76 216
3 210 1 0
3 210 0 220
3 0 8 221
3 0 221 220
3 221 218 217
3 221 217 220
3 217 212 210
3 217 210 220
3 23 22 222
3 23 222 223
3 222 224 225
3 222 225 223
3 225 218 221
3 225 221 223
3 221 8 23
3 221 23 223
3 226 81 80
3 226 80 227
3 80 78 219
3 80 219 227
3 219 218 225
3 219 225 227
3 225 224 226
3 225 226 227
3 145 81 226
3 145 226 228
3 226 224 229
3 226 229 228
3 229 230 231
3 229 231 228
3 231 147 145
3 231 145 228
3 222 22 175
3 222 175 232
3 175 173 233
3 175 233 232
3 233 230 229
3 233 229 232
3 229 224 222
3 229 222 232
3 171 170 234
3 171 234 235
3 234 236 237
3 234 237 235
3 237 230 233
3 237 233 235
3 233 173 171
3 233 171 235
3 238 112 151
3 238 151 239
3 151 147 231
3 151 231 239
3 231 230 237
3 231 237 239
3 237 236 238
3 237 238 239
3 183 91 90
3 183 90 240
3 90 98 241
3 90 241 240
3 241 242 243
3 241 243 240
3 243 185 183
3 243 183 240
3 113 112 238
3 113 238 244
3 238 236 245
3 238 245 244
3 245 242 241
3 245 241 244
3 241 98 113
3 241 113 244
3 234 170 169
3 234 169 246
3 169 167 247
3 169 247 246
3 247 242 245
3 247 245 246
3 245 236 234
3 245 234 246
3 165 164 187
3 165 187 248
3 187 185 243
3 187 243 248
3 243 242 247
3 243 247 248
3 247 167 165
3 247 165 248
3 249 250 251
3 249 251 252
3 251 253 254
3 251 254 252
3 255 256 257
3 255 257 258
3 257 259 260
3 257 260 258
3 260 253 251
3 260 251 258
3 251 250 255
3 251 255 258
3 261 262 263
3 261 263 264
3 263 265 266
3 263 266 264
3 266 253 260
3 266 260 264
3 260 259 261
3 260 261 264
3 267 268 269
3 267 269 270
3 269 254 270
3 254 253 266
3 254 266 270
3 266 265 267
3 266 267 270
3 271 268 267
3 271 267 272
3 267 265 273
3 267 273 272
3 273 274 275
3 273 275 272
3 275 276 271
3 275 271 272
3 263 262 277
3 263 277 278
3 277 279 280
3 277 280 278
3 280 274 273
3 280 273 278
3 273 265 263
3 273 263 278
3 281 282 283
3 281 283 284
3 283 285 286
3 283 286 284
3 286 274 280
3 286 280 284
3 280 279 281
3 280 281 284
3 287 288 289
3 287 289 290
3 289 276 275
3 289 275 290
3 275 274 286
3 275 286 290
3 286 285 287
3 286 287 290
3 291 288 287
3 291 287 292
3 287 285 293
3 287 293 292
3 293 294 295
3 293 295 292
3 295 291 292
3 283 282 296
3 283 296 297
3 296 298 299
3 296 299 297
3 299 294 293
3 299 293 297
3 293 285 283
3 293 283 297
3 300 301 302
3 300 302 303
3 302 304 305
3 302 305 303
3 305 294 299
3 305 299 303
3 299 298 300
3 299 300 303
3 295 294 305
3 295 305 306
3 305 304 307
3 305 307 306
3 308 307 309
3 307 304 310
3 307 310 309
3 310 311 312
3 310 312 309
3 312 308 309
3 302 301 313
3 302 313 314
3 313 315 316
3 313 316 314
3 316 311 310
3 316 310 314
3 310 304 302
3 310 302 314
3 317 256 255
3 317 255 318
3 255 250 319
3 255 319 318
3 319 311 316
3 319 316 318
3 316 315 317
3 316 317 318
3 312 311 319
3 312 319 320
3 319 250 249
3 319 249 320
3 269 268 321
3 321 268 271
3 321 271 322
3 271 276 323
3 271 323 322
3 289 288 324
3 323 276 289
3 324 288 291
3 257 256 325
3 257 325 326
3 325 327 328
3 325 328 326
3 328 329 330
3 328 330 326
3 330 259 257
3 330 257 326
3 331 26 25
3 331 25 332
3 25 33 333
3 25 333 332
3 333 329 328
3 333 328 332
3 328 327 331
3 328 331 332
3 48 47 334
3 48 334 335
3 334 336 337
3 334 337 335
3 337 329 333
3 337 333 335
3 333 33 48
3 333 48 335
3 338 262 261
3 338 261 339
3 261 259 330
3 261 330 339
3 330 329 337
3 330 337 339
3 337 336 338
3 337 338 339
3 277 262 338
3 277 338 340
3 338 336 341
3 338 341 340
3 341 342 343
3 341 343 340
3 343 279 277
3 343 277 340
3 334 47 50
3 334 50 344
3 50 55 345
3 50 345 344
3 345 342 341
3 345 341 344
3 341 336 334
3 341 334 344
3 68 67 346
3 68 346 347
3 346 348 349
3 346 349 347
3 349 342 345
3 349 345 347
3 345 55 68
3 345 68 347
3 350 282 281
3 350 281 351
3 281 279 343
3 281 343 351
3 343 342 349
3 343 349 351
3 349 348 350
3 349 350 351
3 296 282 350
3 296 350 352
3 350 348 353
3 350 353 352
3 353 354 355
3 353 355 352
3 355 298 296
3 355 296 352
3 346 67 70
3 346 70 356
3 70 75 357
3 70 357 356
3 357 354 353
3 357 353 356
3 353 348 346
3 353 346 356
3 88 87 358
3 88 358 359
3 358 360 361
3 358 361 359
3 361 354 357
3 361 357 359
3 357 75 88
3 357 88 359
3 362 301 300
3 362 300 363
3 300 298 355
3 300 355 363
3 355 354 361
3 355 361 363
3 361 360 362
3 361 362 363
3 313 301 362
3 313 362 364
3 362 360 365
3 362 365 364
3 365 366 367
3 365 367 364
3 367 315 313
3 367 313 364
3 358 87 130
3 358 130 368
3 130 137 369
3 130 369 368
3 369 366 365
3 369 365 368
3 365 360 358
3 365 358 368
3 143 26 331
3 143 331 370
3 331 327 371
3 331 371 370
3 371 366 369
3 371 369 370
3 369 137 143
3 369 143 370
3 325 256 317
3 325 317 372
3 317 315 367
3 317 367 372
3 367 366 371
3 367 371 372
3 371 327 325
3 371 325 372
