OFF
270 527 0
5.37313 2.23812 -8.24917
5.70008 1.93482 -7.97917
5.43589 1.88672 -8.33117
5.18016 2.15702 -8.46017
5.29968 1.74872 -8.37917
5.01229 2.02972 -8.51417
4.73928 2.32982 -8.46417
4.93815 2.44482 -8.41717
5.1637 2.51012 -8.20117
5.14315 1.66152 -8.27117
5.12599 1.49182 -7.86217
4.79064 1.79402 -8.12917
4.86262 1.91522 -8.39517
4.53591 2.03582 -8.07217
4.59587 2.18622 -8.34617
4.36599 2.28892 -7.90017
4.2915 2.46422 -7.41217
4.30323 2.64032 -7.81817
4.40505 2.44842 -8.14817
4.39993 2.79722 -7.89417
4.52174 2.60132 -8.24917
4.60016 2.86062 -7.88017
4.87534 2.89602 -7.53417
4.95267 2.72812 -8.02217
4.72462 2.68782 -8.21417
3.60815 -0.812678 4.60583
3.68219 -0.471778 4.67683
3.54972 -0.251778 4.81483
3.80357 -0.0188784 4.68683
3.83887 0.388622 4.68283
3.79828 0.821122 4.72983
3.94562 0.700822 4.60383
4.18949 -0.618378 3.83183
4.18848 -0.796678 3.87483
3.95049 -0.998378 4.07683
3.81527 -1.07308 4.25283
3.77575 -1.02078 4.40583
4.94677 -0.603878 3.45283
4.32529 -0.0763784 3.79883
4.10408 0.926922 4.43383
4.13932 1.03572 4.31483
6.34014 -1.29708 3.43383
6.49114 -1.40078 3.23283
6.56437 -0.915678 3.36383
6.37181 -1.04518 3.49483
6.41377 -0.730078 3.50383
6.62334 -1.30018 3.00183
7.15832 -0.775078 1.61883
6.68916 -0.966778 3.07083
6.73539 -0.656378 3.07683
6.80848 -0.0741784 2.92983
6.65663 -0.229278 3.26183
6.77758 -0.341778 3.02883
6.45905 -0.373878 3.45383
6.51142 -0.0748784 3.33783
6.42902 -1.27978 2.75383
6.52946 -1.41488 2.73783
6.27591 -1.43078 2.97483
6.40116 -1.52058 3.08783
6.59362 -1.41308 2.72783
6.60057 -1.18408 2.41883
6.79763 -1.18998 2.37383
6.30905 -1.45678 3.31183
6.52462 -0.0261784 2.69983
6.70577 0.0615216 2.59083
6.60008 -0.429878 2.49183
6.47652 -0.280878 2.64683
6.43139 -0.592978 2.64183
6.76521 -0.0199784 2.33983
6.7268 -0.331678 2.21483
6.47582 -0.980378 2.64083
6.63185 -0.913778 2.32083
6.67015 0.0550216 3.11783
7.26168 0.264522 1.61983
6.81659 0.163022 2.62083
6.61099 0.155922 2.98283
7.17592 0.293922 1.35083
6.54393 0.137922 2.83183
7.21066 -0.574278 1.68183
7.5032 -0.420578 0.516833
7.56014 -0.258678 0.579833
7.6009 -0.0585784 0.621833
7.25527 -0.327778 1.70783
7.76956 -0.0270784 -0.705167
7.85409 0.369122 -1.93217
7.90239 0.472422 -1.86917
7.82639 0.0995216 -0.642167
7.91719 0.598722 -1.80017
7.85799 0.256322 -0.585167
7.89879 0.726922 -1.73617
7.84739 0.836322 -1.68717
7.83429 0.556722 -0.522167
7.86159 0.417422 -0.542167
7.61412 0.323522 0.621833
7.62055 0.146522 0.637833
7.29666 0.139122 1.64583
7.28599 -0.0763784 1.69683
7.00456 -0.727678 1.20083
7.02044 -0.864378 1.29183
7.2701 -0.370778 0.226833
7.30779 -0.484578 0.278833
7.36634 -0.531978 0.352833
7.05611 -0.918778 1.40483
7.46071 0.0152216 -0.865167
7.48844 0.387822 -1.98317
7.57248 0.319222 -2.00517
7.52199 -0.0748784 -0.854167
7.67251 0.292922 -2.00217
7.60329 -0.112878 -0.818167
7.77192 0.309322 -1.97717
7.69051 -0.0973784 -0.766167
7.43504 -0.511178 0.436833
7.10444 -0.889478 1.51983
7.14488 0.199722 1.22783
7.06885 -0.141178 1.11783
7.38261 0.384022 0.333833
7.32541 0.220322 0.270833
7.28412 0.0167216 0.227833
7.52634 0.607422 -0.680167
7.48161 0.861822 -1.73417
7.43329 0.757322 -1.79717
7.4694 0.479422 -0.743167
7.41853 0.628822 -1.86817
7.43746 0.319722 -0.801167
7.43702 0.498322 -1.93317
7.43355 0.155922 -0.844167
7.26394 -0.191978 0.211833
7.01555 -0.509878 1.14983
7.57669 0.439122 0.570833
7.51868 0.490022 0.496833
7.2461 0.336822 1.44183
7.76331 0.906122 -1.66417
7.77313 0.648122 -0.533167
7.66325 0.934622 -1.66617
7.69214 0.688922 -0.567167
7.56381 0.920422 -1.69017
7.60523 0.676322 -0.619167
7.45051 0.472822 0.413833
7.65355 0.731622 -3.05017
7.6816 0.832522 -2.98917
7.28439 1.04742 -4.03017
7.28485 1.16192 -3.97017
7.23908 1.28882 -3.89217
7.66939 0.950322 -2.91417
6.86311 1.30332 -4.84017
6.50618 1.48632 -5.45217
6.44764 1.65882 -5.38917
6.83319 1.44322 -4.78017
6.25568 1.93352 -5.22317
6.75093 1.59212 -4.70017
5.79041 2.23862 -5.37317
6.49502 1.82392 -4.53417
6.63273 1.72672 -4.61317
7.0506 1.49922 -3.73417
7.15752 1.40802 -3.80917
7.54376 1.16022 -2.77117
7.62181 1.06592 -2.83717
7.26532 0.704522 -3.03417
7.36868 0.651622 -3.07617
6.89234 0.958522 -3.97717
7.01365 0.916422 -4.03017
7.13118 0.920222 -4.05817
7.47954 0.639522 -3.09317
6.47051 1.14292 -4.77117
5.95238 1.28332 -5.61417
6.33627 1.21372 -5.42817
6.61044 1.10762 -4.82917
6.73421 1.12782 -4.86217
6.48278 1.34812 -5.47817
7.19175 0.991122 -4.14417
7.58035 0.666722 -3.08517
7.15395 1.13932 -2.75117
7.12617 1.03742 -2.81317
6.65519 1.41682 -3.67717
6.6553 1.30122 -3.73817
6.70218 1.17212 -3.81717
7.13891 0.917622 -2.88917
6.09715 1.67102 -4.46017
5.47525 1.92412 -5.17417
5.58728 1.72892 -5.18317
6.12794 1.52982 -4.52117
5.6551 1.55592 -5.34817
6.21196 1.37852 -4.60217
5.85626 1.38162 -5.39217
6.33192 1.24132 -4.69017
6.78485 1.05082 -3.90217
7.18701 0.799922 -2.96817
7.44014 1.21422 -2.72817
6.92872 1.54232 -3.68117
6.81008 1.54072 -3.65217
7.32875 1.22832 -2.71017
5.75415 2.18892 -5.16517
6.3542 1.86042 -4.47517
5.56355 2.17632 -5.17517
6.22868 1.84282 -4.44117
5.55339 2.04562 -5.08817
6.13686 1.77752 -4.43417
6.71285 1.49782 -3.65017
7.22742 1.20312 -2.71717
6.30142 1.59872 -5.90717
6.19724 1.83482 -5.87117
6.06441 2.03152 -5.73317
6.23529 1.66582 -6.55417
6.06625 2.00382 -6.69917
5.90608 2.26122 -6.32317
5.56807 2.58262 -6.42617
5.37102 2.67082 -6.01817
5.83438 2.25342 -5.64817
6.02741 1.23812 -5.90517
6.19024 1.29382 -5.92217
5.64433 1.19412 -6.36117
5.82238 1.16802 -6.76517
6.01449 1.26242 -6.90917
6.16814 1.43732 -6.83917
6.27511 1.42492 -5.97317
4.80857 2.19702 -5.79217
4.91251 1.91402 -5.89217
5.12058 1.61892 -6.03017
5.37054 1.36382 -6.19417
5.19137 2.62232 -5.76517
4.94104 2.60252 -5.78717
4.99743 2.79882 -6.20317
4.81985 2.43762 -5.76017
6.11735 1.73222 -7.03717
5.94152 1.82192 -7.53017
5.8177 2.13332 -7.44417
5.59442 2.44802 -7.32317
5.77146 2.36122 -6.81117
5.59808 2.21402 -7.89517
5.38715 2.50442 -7.81217
5.14482 2.74212 -7.65017
5.02382 2.89082 -7.03517
5.31801 2.71532 -7.17417
5.18909 2.81192 -6.53617
5.47369 1.23442 -6.90617
5.30361 1.32822 -7.40017
5.57244 1.29442 -7.50617
5.78533 1.38182 -7.57317
5.37531 1.45162 -7.95217
5.56038 1.53452 -8.03817
5.69057 1.69612 -8.01617
5.91954 1.56452 -7.57717
4.53213 2.32952 -6.39817
4.52942 2.07822 -6.85517
4.37327 2.41182 -6.89817
4.71527 1.78432 -7.14217
4.88467 1.69282 -6.62717
4.39597 2.18282 -7.49417
4.58737 1.90022 -7.64717
4.85582 1.64692 -7.74217
5.05009 1.47232 -7.13317
4.74718 2.93012 -6.94417
4.52436 2.85052 -6.89217
4.69063 2.76842 -6.37517
4.62534 2.93742 -7.44117
4.41413 2.87022 -7.42017
4.30348 2.70062 -7.37317
4.39164 2.66972 -6.86917
4.55355 2.58792 -6.36017
4.75671 0.452822 4.20383
5.36663 0.492322 3.78883
5.81133 0.135622 3.68283
4.96236 0.738922 3.86683
4.33592 0.948222 4.08483
4.34439 0.788022 3.96583
4.38453 0.412422 3.83883
5.31814 -1.03988 3.31183
5.23808 -1.23528 3.46583
5.1639 -1.30548 3.64883
5.20721 -0.0224784 4.03983
3 0 1 2
3 0 2 3
3 2 4 5
3 2 5 3
3 5 6 7
3 5 7 3
3 7 8 0
3 7 0 3
3 9 10 11
3 9 11 12
3 11 13 14
3 11 14 12
3 14 6 5
3 14 5 12
3 5 4 9
3 5 9 12
3 15 16 17
3 15 17 18
3 17 19 20
3 17 20 18
3 20 6 14
3 20 14 18
3 14 13 15
3 14 15 18
3 21 22 23
3 21 23 24
3 23 8 7
3 23 7 24
3 7 6 20
3 7 20 24
3 20 19 21
3 20 21 24
3 25 26 27
3 26 28 27
3 27 28 29
3 27 29 30
3 29 31 30
3 32 33 34
3 35 36 25
3 33 32 37
3 32 38 37
3 30 31 39
3 39 40 30
3 41 42 43
3 41 43 44
3 43 45 44
3 46 47 48
3 49 43 48
3 43 42 46
3 43 46 48
3 50 51 52
3 51 43 49
3 51 49 52
3 45 43 51
3 45 51 53
3 51 54 53
3 55 56 57
3 56 58 57
3 59 58 56
3 56 55 60
3 61 47 46
3 42 58 59
3 42 59 46
3 59 61 46
3 58 42 62
3 42 41 62
3 63 64 65
3 63 65 66
3 65 67 66
3 65 64 68
3 65 68 69
3 60 55 70
3 60 70 71
3 70 65 69
3 70 69 71
3 67 65 70
3 54 51 72
3 50 73 72
3 73 74 72
3 74 75 72
3 72 51 50
3 76 68 64
3 64 75 74
3 74 76 64
3 75 64 77
3 64 63 77
3 48 47 78
3 47 79 80
3 47 80 78
3 80 81 82
3 80 82 78
3 82 49 48
3 82 48 78
3 83 84 85
3 83 85 86
3 85 87 88
3 85 88 86
3 88 81 80
3 88 80 86
3 80 79 83
3 80 83 86
3 89 90 91
3 89 91 92
3 91 93 94
3 91 94 92
3 94 81 88
3 94 88 92
3 88 87 89
3 88 89 92
3 95 50 52
3 95 52 96
3 52 49 82
3 52 82 96
3 82 81 94
3 82 94 96
3 94 93 95
3 94 95 96
3 56 60 97
3 56 97 98
3 97 99 100
3 97 100 98
3 100 101 102
3 100 102 98
3 102 59 56
3 102 56 98
3 103 104 105
3 103 105 106
3 105 107 108
3 105 108 106
3 108 101 100
3 108 100 106
3 100 99 103
3 100 103 106
3 109 84 83
3 109 83 110
3 83 79 111
3 83 111 110
3 111 101 108
3 111 108 110
3 108 107 109
3 108 109 110
3 47 61 112
3 61 59 102
3 61 102 112
3 102 101 111
3 102 111 112
3 111 79 47
3 111 47 112
3 69 68 113
3 69 113 114
3 113 115 116
3 113 116 114
3 116 117 114
3 118 119 120
3 118 120 121
3 120 122 123
3 120 123 121
3 123 117 116
3 123 116 121
3 116 115 118
3 116 118 121
3 124 104 103
3 124 103 125
3 103 99 126
3 103 126 125
3 126 117 123
3 126 123 125
3 123 122 124
3 123 124 125
3 97 60 71
3 97 71 127
3 71 69 114
3 71 114 127
3 114 117 126
3 114 126 127
3 126 99 97
3 126 97 127
3 73 50 95
3 95 93 128
3 95 128 73
3 128 129 130
3 128 130 73
3 130 74 73
3 91 90 131
3 91 131 132
3 131 133 134
3 131 134 132
3 134 129 128
3 134 128 132
3 128 93 91
3 128 91 132
3 135 119 118
3 135 118 136
3 118 115 137
3 118 137 136
3 137 129 134
3 137 134 136
3 134 133 135
3 134 135 136
3 113 68 76
3 76 74 130
3 130 129 137
3 130 137 76
3 137 115 113
3 137 113 76
3 85 84 138
3 85 138 139
3 138 140 141
3 138 141 139
3 141 142 143
3 141 143 139
3 143 87 85
3 143 85 139
3 144 145 146
3 144 146 147
3 146 148 149
3 146 149 147
3 149 142 141
3 149 141 147
3 141 140 144
3 141 144 147
3 148 150 151
3 148 151 152
3 151 153 154
3 151 154 152
3 154 142 149
3 154 149 152
3 149 148 152
3 155 90 89
3 155 89 156
3 89 87 143
3 89 143 156
3 143 142 154
3 143 154 156
3 154 153 155
3 154 155 156
3 105 104 157
3 105 157 158
3 157 159 160
3 157 160 158
3 160 161 162
3 160 162 158
3 162 107 105
3 162 105 158
3 163 164 165
3 163 165 166
3 165 167 166
3 167 161 160
3 167 160 166
3 160 159 163
3 160 163 166
3 168 145 144
3 168 144 169
3 144 140 169
3 169 161 167
3 167 165 168
3 167 168 169
3 138 84 109
3 138 109 170
3 109 107 162
3 109 162 170
3 162 161 169
3 162 169 170
3 169 140 138
3 169 138 170
3 120 119 171
3 120 171 172
3 171 173 174
3 171 174 172
3 174 175 176
3 174 176 172
3 176 122 120
3 176 120 172
3 177 178 179
3 177 179 180
3 179 181 182
3 179 182 180
3 182 175 174
3 182 174 180
3 174 173 177
3 174 177 180
3 183 164 163
3 183 163 184
3 163 159 185
3 163 185 184
3 185 175 182
3 185 182 184
3 182 181 183
3 182 183 184
3 157 104 124
3 157 124 186
3 124 122 176
3 124 176 186
3 176 175 185
3 176 185 186
3 185 159 157
3 185 157 186
3 131 90 155
3 131 155 187
3 155 153 188
3 155 188 187
3 188 189 190
3 188 190 187
3 190 133 131
3 190 131 187
3 151 150 191
3 151 191 192
3 191 193 194
3 191 194 192
3 194 189 188
3 194 188 192
3 188 153 151
3 188 151 192
3 195 178 177
3 195 177 196
3 177 173 197
3 177 197 196
3 197 189 194
3 197 194 196
3 194 193 195
3 194 195 196
3 171 119 135
3 171 135 198
3 135 133 190
3 135 190 198
3 190 189 197
3 190 197 198
3 197 173 171
3 197 171 198
3 146 145 199
3 146 199 200
3 201 148 146
3 201 146 200
3 202 203 200
3 203 204 200
3 204 201 200
3 200 199 202
3 205 206 207
3 206 150 207
3 207 201 204
3 204 205 207
3 150 148 207
3 148 201 207
3 165 164 208
3 209 165 208
3 210 211 208
3 211 212 209
3 211 209 208
3 208 164 210
3 213 202 214
3 202 199 214
3 209 212 213
3 209 213 214
3 199 145 168
3 199 168 214
3 168 165 209
3 168 209 214
3 178 215 216
3 178 216 179
3 216 217 181
3 216 181 179
3 210 164 218
3 181 217 218
3 181 218 183
3 218 164 183
3 150 219 191
3 219 220 193
3 219 193 191
3 206 221 219
3 221 220 219
3 219 150 206
3 193 220 222
3 193 222 195
3 222 215 178
3 222 178 195
3 203 202 223
3 223 224 225
3 223 225 203
3 225 226 227
3 225 227 203
3 227 204 203
3 1 0 228
3 0 8 229
3 0 229 228
3 229 226 225
3 229 225 228
3 225 224 1
3 225 1 228
3 23 22 230
3 22 231 232
3 22 232 230
3 232 226 229
3 232 229 230
3 229 8 23
3 229 23 230
3 233 206 205
3 205 204 227
3 227 226 232
3 227 232 205
3 232 231 233
3 232 233 205
3 211 210 234
3 234 235 236
3 234 236 211
3 236 237 212
3 236 212 211
3 10 9 238
3 9 4 239
3 9 239 238
3 239 237 236
3 239 236 238
3 236 235 10
3 236 10 238
3 2 1 240
3 1 224 241
3 1 241 240
3 241 237 239
3 241 239 240
3 239 4 2
3 239 2 240
3 223 202 213
3 212 237 241
3 212 241 213
3 241 224 223
3 241 223 213
3 216 215 242
3 216 242 243
3 242 244 243
3 243 245 246
3 246 217 216
3 246 216 243
3 16 15 247
3 15 13 248
3 15 248 247
3 248 245 243
3 248 243 247
3 243 244 16
3 243 16 247
3 11 10 249
3 10 235 250
3 10 250 249
3 250 245 248
3 250 248 249
3 248 13 11
3 248 11 249
3 234 210 218
3 234 218 250
3 218 217 246
3 218 246 250
3 246 245 250
3 250 235 234
3 221 206 233
3 233 231 251
3 233 251 221
3 251 252 253
3 251 253 221
3 253 220 221
3 22 21 254
3 21 19 255
3 21 255 254
3 255 252 251
3 255 251 254
3 251 231 22
3 251 22 254
3 17 16 256
3 16 244 257
3 16 257 256
3 257 252 255
3 257 255 256
3 255 19 17
3 255 17 256
3 242 215 222
3 242 222 258
3 222 220 253
3 222 253 258
3 253 252 257
3 253 257 258
3 257 244 242
3 257 242 258
3 39 31 259
3 39 259 260
3 259 261 260
3 262 40 39
3 262 39 260
3 261 54 72
3 75 262 260
3 75 260 72
3 260 261 72
3 77 262 75
3 263 40 262
3 262 77 263
3 77 63 264
3 77 264 263
3 265 264 66
3 264 63 66
3 66 67 38
3 38 265 66
3 70 55 266
3 266 37 70
3 37 67 70
3 266 33 37
3 38 67 37
3 34 33 266
3 266 267 34
3 267 268 34
3 268 35 34
3 266 55 57
3 57 58 268
3 268 267 57
3 267 266 57
3 268 58 62
3 36 35 268
3 268 62 36
3 62 41 25
3 62 25 36
3 25 41 44
3 25 44 26
3 44 45 28
3 44 28 26
3 53 54 261
3 261 269 53
3 269 45 53
3 259 31 29
3 259 29 269
3 29 28 269
3 28 45 269
3 269 261 259
