OFF
537 1046 0
-5.64764 -18.4108 1.09273
-5.28654 -18.5293 1.09693
-5.28654 -18.5293 1.34653
-5.64764 -18.4108 1.34233
-5.31154 -18.52 1.52453
-5.66114 -18.4053 1.52203
-6.07804 -18.2638 1.52223
-6.07854 -18.2645 1.34093
-6.07854 -18.2645 1.09133
-5.38664 -18.4922 1.63803
-5.48814 -18.4547 1.69453
-5.72694 -18.3753 1.71603
-5.70164 -18.3889 1.64073
-6.07374 -18.2574 1.72673
-6.07664 -18.2617 1.64593
-6.41924 -18.1374 1.71603
-6.65514 -18.0536 1.69453
-6.75944 -18.0204 1.63803
-6.44984 -18.1318 1.64073
-6.83674 -17.9959 1.52453
-6.49304 -18.1194 1.52203
-6.86244 -17.9877 1.34653
-6.86244 -17.9877 1.09693
-6.50744 -18.1153 1.09273
-6.50744 -18.1153 1.34233
-0.600341 -6.82502 -0.366873
-0.776641 -6.82502 -0.199673
-0.774841 -6.81562 -0.206673
-0.598541 -6.81562 -0.373973
-0.778741 -6.80832 -0.224873
-0.600641 -6.80842 -0.391573
-0.386941 -6.81562 -0.429773
-0.388641 -6.82502 -0.422573
-0.793841 -6.80222 -0.267573
-0.775841 -6.80192 1.73103
-0.774241 -6.80822 1.73643
-0.597841 -6.80822 1.78563
-0.774841 -6.81562 1.74143
-0.776641 -6.82502 1.74703
-0.600341 -6.82502 1.79613
-0.598541 -6.81562 1.79063
-0.388641 -6.82502 1.81253
-0.386941 -6.81562 1.80703
-0.177041 -6.82502 1.79613
-0.950741 -6.80822 1.34613
-0.933041 -6.80822 1.52823
-0.934941 -6.80192 1.52293
-0.951141 -6.81562 1.10193
-0.953041 -6.82502 1.10803
-0.953041 -6.82502 1.35713
-0.951141 -6.81562 1.35123
-0.935441 -6.82502 1.53893
-0.933541 -6.81562 1.53323
-0.950741 -6.80822 1.09683
-0.882541 -6.82502 1.66513
-0.880641 -6.81562 1.65943
-0.880141 -6.80822 1.65443
-0.881941 -6.80192 1.64913
-3.36834 -14.5464 2.28243
-3.09354 -14.6409 2.44463
-3.61354 -15.6541 2.05443
-3.91004 -15.5522 1.88893
-4.11794 -16.5661 1.48923
-4.43404 -16.4575 1.32223
-4.81324 -16.3272 1.26653
-4.26584 -15.4299 1.83383
-3.69814 -14.4331 2.22833
-4.56614 -17.3347 0.876827
-4.91744 -17.9174 0.345027
-5.26254 -17.7988 0.177427
-4.89864 -17.2204 0.709327
-5.67664 -17.6565 0.121627
-5.29774 -17.0832 0.653527
-6.09074 -17.5141 0.177427
-6.43574 -17.3955 0.345027
-6.02934 -16.8318 0.876827
-5.69684 -16.9461 0.709327
-5.50854 -16.0882 1.48923
-5.19244 -16.1969 1.32223
-4.91804 -15.2058 2.05443
-4.30264 -14.2253 2.44463
-4.02784 -14.3198 2.28243
-4.62154 -15.3077 1.88893
-2.92874 -14.6975 4.25463
-3.09354 -14.6409 4.33413
-3.61354 -15.6541 3.98073
-3.43574 -15.7152 3.89963
-4.11794 -16.5661 3.43403
-3.92834 -16.6313 3.35213
-3.83354 -16.6639 3.22613
-3.34674 -15.7458 3.77483
-2.84624 -14.7259 4.13213
-4.56614 -17.3347 2.82773
-4.91744 -17.9174 2.29593
-4.71034 -17.9885 2.21383
-4.36664 -17.4032 2.74573
-4.60684 -18.0241 2.08743
-4.26684 -17.4375 2.61923
-4.57234 -18.036 1.90513
-4.57234 -18.036 1.65553
-4.23364 -17.449 2.18743
-4.23364 -17.449 2.43703
-3.80194 -16.6748 2.79563
-3.80194 -16.6748 3.04443
-3.31714 -15.756 3.34843
-2.81884 -14.7353 3.71393
-2.81884 -14.7353 3.95563
-3.31714 -15.756 3.59493
-4.02784 -14.3198 4.38183
-4.30264 -14.2253 4.33413
-4.91804 -15.2058 3.98073
-4.62154 -15.3077 4.02933
-5.50854 -16.0882 3.43403
-5.19244 -16.1969 3.48313
-4.81324 -16.3272 3.49943
-4.26584 -15.4299 4.04553
-3.69814 -14.4331 4.39773
-6.02934 -16.8318 2.82773
-6.43574 -17.3955 2.29593
-6.09074 -17.5141 2.34513
-5.69684 -16.9461 2.87703
-5.67664 -17.6565 2.36163
-5.29774 -17.0832 2.89343
-5.26254 -17.7988 2.34513
-4.89864 -17.2204 2.87703
-4.43404 -16.4575 3.48313
-3.36834 -14.5464 4.38183
-3.91004 -15.5522 4.02933
-4.57744 -14.1309 3.95563
-4.57744 -14.1309 3.71393
-5.21454 -15.1039 3.34843
-5.21454 -15.1039 3.59483
-5.82454 -15.9796 2.79563
-5.82454 -15.9796 3.04443
-5.79294 -15.9905 3.22613
-5.18484 -15.1141 3.77483
-4.54994 -14.1403 4.13213
-6.36184 -16.7175 2.18743
-6.78084 -17.2769 1.65553
-6.78084 -17.2769 1.90513
-6.36184 -16.7175 2.43703
-6.74634 -17.2888 2.08743
-6.32864 -16.7289 2.61923
-6.64284 -17.3244 2.21383
-6.22884 -16.7632 2.74573
-5.69814 -16.0231 3.35213
-4.46754 -14.1687 4.25463
-5.09594 -15.1446 3.89963
-1.18484 -10.396 3.27693
-1.30134 -10.3617 3.34753
-1.69884 -11.3929 3.77973
-1.57294 -11.4339 3.70803
-2.13254 -12.474 4.14633
-1.99474 -12.5208 4.07233
-1.92584 -12.5442 3.95823
-1.51004 -11.4544 3.59753
-1.12664 -10.4132 3.16813
-2.59864 -13.5688 4.36023
-2.44754 -13.6207 4.28333
-2.37194 -13.6467 4.16483
-2.34674 -13.6553 3.76023
-2.34674 -13.6553 3.99403
-1.90284 -12.552 3.56853
-1.90284 -12.552 3.79373
-1.48904 -11.4612 3.22023
-1.10724 -10.4189 2.79653
-1.10724 -10.4189 3.01133
-1.48904 -11.4612 3.43833
-1.49554 -10.3044 1.52493
-1.30134 -10.3617 1.66903
-1.69884 -11.3929 2.07543
-1.90864 -11.3246 1.92903
-2.13254 -12.474 2.38613
-2.36214 -12.396 2.23503
-2.63784 -12.3025 2.18463
-2.16044 -11.2426 1.88033
-1.72864 -10.2357 1.47683
-2.59864 -13.5688 2.53223
-2.85064 -13.4822 2.37523
-3.15294 -13.3783 2.32293
-3.70714 -13.1878 2.53223
-3.45524 -13.2744 2.37523
-3.14304 -12.1309 2.38613
-2.91344 -12.2089 2.23503
-2.62214 -11.0923 2.07543
-2.15584 -10.1098 1.66903
-1.96164 -10.167 1.52493
-2.41224 -11.1606 1.92903
-2.35004 -10.0525 3.01133
-2.35004 -10.0525 2.79653
-2.83194 -11.024 3.22023
-2.83194 -11.024 3.43833
-3.37274 -12.0529 3.56853
-3.37274 -12.0529 3.79373
-3.34974 -12.0607 3.95823
-2.81094 -11.0308 3.59753
-2.33054 -10.0583 3.16813
-3.95904 -13.1012 3.76023
-3.95904 -13.1012 3.99403
-3.93384 -13.1099 4.16483
-3.70714 -13.1878 4.36023
-3.85824 -13.1359 4.28333
-3.14304 -12.1309 4.14633
-3.28084 -12.0841 4.07233
-2.62214 -11.0923 3.77973
-2.15584 -10.1098 3.34753
-2.27234 -10.0754 3.27693
-2.74804 -11.0513 3.70803
-1.96164 -10.167 3.38993
-2.41224 -11.1606 3.82273
-2.91344 -12.2089 4.19083
-2.63784 -12.3025 4.20563
-2.16044 -11.2426 3.83703
-1.72864 -10.2357 3.40403
-3.45524 -13.2744 4.40633
-3.15294 -13.3783 4.42173
-2.85064 -13.4822 4.40633
-2.36214 -12.396 4.19083
-1.49554 -10.3044 3.38993
-1.90864 -11.3246 3.82273
-0.938041 -6.80192 0.397427
-0.933841 -6.80822 0.407727
-0.950741 -6.80822 0.768827
-0.914141 -6.79612 0.00782727
-0.894141 -6.80202 0.0312273
-0.883141 -6.80822 0.0589273
-0.882541 -6.82502 0.0789273
-0.880641 -6.81562 0.0721273
-0.935441 -6.82502 0.421427
-0.933541 -6.81562 0.414827
-0.953041 -6.82502 0.780327
-0.951141 -6.81562 0.774027
-2.35004 -10.0525 2.51393
-2.83194 -11.024 2.93333
-2.33054 -10.0583 2.20453
-2.81094 -11.0308 2.61913
-3.34974 -12.0607 2.94773
-3.37274 -12.0529 3.27223
-2.27234 -10.0754 1.90923
-2.74804 -11.0513 2.31933
-3.28084 -12.0841 2.63803
-4.46754 -14.1687 2.71503
-3.85824 -13.1359 2.79383
-4.54994 -14.1403 3.04743
-3.93384 -13.1099 3.11543
-4.57744 -14.1309 3.39583
-3.95904 -13.1012 3.45243
-5.21454 -15.1039 3.02413
-5.18484 -15.1141 2.66903
-5.79294 -15.9905 2.10973
-5.82454 -15.9796 2.46823
-5.09594 -15.1446 2.33003
-5.69814 -16.0231 1.76753
-6.64284 -17.3244 0.624127
-6.22884 -16.7632 1.15603
-6.74634 -17.2888 0.967427
-6.32864 -16.7289 1.49923
-6.78084 -17.2769 1.32713
-6.36184 -16.7175 1.85893
-5.72694 -18.3753 -0.132473
-5.48814 -18.4547 -0.0503727
-5.38664 -18.4922 0.132727
-5.70164 -18.3889 0.107327
-5.31154 -18.52 0.425627
-5.66114 -18.4053 0.416127
-6.07804 -18.2638 0.409327
-6.07664 -18.2617 0.0843273
-6.07374 -18.2574 -0.173073
-5.28654 -18.5293 0.768527
-5.64764 -18.4108 0.764227
-6.07854 -18.2645 0.762827
-6.86244 -17.9877 0.768527
-6.50744 -18.1153 0.764227
-6.83674 -17.9959 0.425627
-6.49304 -18.1194 0.416127
-6.75944 -18.0204 0.132727
-6.65514 -18.0536 -0.0503727
-6.41924 -18.1374 -0.132473
-6.44984 -18.1318 0.107327
-2.81884 -14.7353 3.39583
-3.31714 -15.756 3.02413
-3.80194 -16.6748 2.46823
-3.83354 -16.6639 2.10973
-3.34674 -15.7458 2.66903
-2.84624 -14.7259 3.04743
-4.57234 -18.036 1.32713
-4.23364 -17.449 1.85893
-4.60684 -18.0241 0.967427
-4.26684 -17.4375 1.49923
-4.71034 -17.9885 0.624127
-4.36664 -17.4032 1.15603
-3.92834 -16.6313 1.76753
-2.92874 -14.6975 2.71503
-3.43564 -15.7152 2.33003
-1.10724 -10.4189 2.51393
-1.48904 -11.4612 2.93333
-1.90284 -12.552 3.27223
-1.92584 -12.5442 2.94773
-1.51004 -11.4544 2.61913
-1.12664 -10.4132 2.20453
-2.34674 -13.6553 3.45243
-2.37194 -13.6467 3.11543
-2.44754 -13.6207 2.79383
-1.99474 -12.5208 2.63803
-1.18484 -10.396 1.90923
-1.57294 -11.4339 2.31933
-0.0889407 -7.38832 1.93263
-0.195141 -7.38252 2.01173
-0.382241 -7.89852 2.25153
-0.275741 -7.91012 2.17493
-0.634641 -8.58602 2.56583
-0.526941 -8.60482 2.49203
-0.473141 -8.61422 2.37833
-0.222541 -7.91582 2.05703
-0.0358407 -7.39122 1.81073
-0.943841 -9.41658 2.93703
-0.833041 -9.44325 2.86543
-0.777741 -9.45659 2.75523
-0.759241 -9.46103 2.37863
-0.759241 -9.46103 2.59633
-0.455141 -8.61732 1.99003
-0.455141 -8.61732 2.21453
-0.204841 -7.91782 1.65423
-0.0181407 -7.39212 1.39453
-0.0181407 -7.39212 1.63513
-0.204841 -7.91782 1.88703
-0.0181407 -7.39212 1.07803
-0.204841 -7.91782 1.34783
-0.455141 -8.61732 1.69473
-0.473141 -8.61422 1.37133
-0.222541 -7.91582 1.01233
-0.0358407 -7.39122 0.731427
-0.759241 -9.46103 2.09223
-0.777741 -9.45659 1.77873
-0.943841 -9.41658 1.23593
-0.833141 -9.44325 1.47943
-0.634641 -8.58602 0.811727
-0.526941 -8.60482 1.06273
-0.382241 -7.89852 0.431727
-0.195141 -7.38252 0.131627
-0.0889407 -7.38832 0.400627
-0.275841 -7.91012 0.692227
-0.372141 -7.37292 -0.0298727
-0.559641 -7.87932 0.275527
-0.814041 -8.55472 0.661127
-1.02944 -8.51712 0.610927
-0.772541 -7.85622 0.223427
-0.584541 -7.36142 -0.0836727
-1.12834 -9.37212 1.08993
-1.34984 -9.31882 1.04123
-1.75584 -9.22102 1.23593
-1.57134 -9.26542 1.08993
-1.42424 -8.44822 0.811727
-1.24474 -8.47952 0.661127
-1.16294 -7.81382 0.431727
-0.973941 -7.34022 0.131627
-0.796941 -7.34982 -0.0298727
-0.985441 -7.83312 0.275527
-1.34034 -7.79462 1.65423
-1.15094 -7.33062 1.39453
-1.15094 -7.33062 1.07803
-1.34034 -7.79462 1.34783
-1.13324 -7.33152 0.731427
-1.32264 -7.79652 1.01233
-1.58574 -8.42002 1.37133
-1.60364 -8.41692 1.69473
-1.60364 -8.41692 1.99003
-1.08014 -7.33442 0.400627
-1.26934 -7.80232 0.692227
-1.53184 -8.42942 1.06273
-1.86654 -9.19432 1.47943
-1.92194 -9.18092 1.77873
-1.94044 -9.17652 2.37863
-1.94044 -9.17652 2.09223
-1.15094 -7.33062 1.63513
-1.34034 -7.79462 1.88703
-1.60364 -8.41692 2.21453
-1.58574 -8.42002 2.37833
-1.32254 -7.79652 2.05703
-1.13324 -7.33152 1.81073
-1.94044 -9.17652 2.59633
-1.92194 -9.18092 2.75523
-1.75584 -9.22102 2.93703
-1.86654 -9.19432 2.86543
-1.42424 -8.44822 2.56583
-1.53184 -8.42942 2.49203
-1.16294 -7.81382 2.25153
-0.973941 -7.34022 2.01173
-1.08014 -7.33442 1.93263
-1.26934 -7.80232 2.17493
-0.796941 -7.34982 2.05923
-0.985441 -7.83312 2.29743
-1.24474 -8.47952 2.61013
-1.02944 -8.51712 2.62493
-0.772541 -7.85622 2.31283
-0.584541 -7.36142 2.07503
-1.57134 -9.26542 2.97993
-1.34984 -9.31882 2.99433
-1.12834 -9.37212 2.98003
-0.814041 -8.55472 2.61013
-0.372141 -7.37292 2.05923
-0.559641 -7.87932 2.29743
-5.13114 -18.2719 1.97233
-4.91954 -18.3447 1.89023
-5.26644 -18.4454 1.80013
-5.05894 -18.5169 1.72053
-4.95514 -18.5529 1.59633
-4.81374 -18.381 1.76383
-5.38214 -18.485 1.72273
-5.19354 -18.5505 1.65063
-5.09864 -18.5842 1.53293
-5.06694 -18.5954 1.10393
-5.06694 -18.5954 1.35363
-4.92044 -18.5649 1.16513
-4.92044 -18.5649 1.41483
-4.77844 -18.3932 1.33193
-4.77844 -18.3932 1.58153
-4.77844 -18.3932 1.00343
-4.92044 -18.5649 0.836727
-4.95514 -18.5529 0.479827
-4.81374 -18.381 0.643827
-5.06694 -18.5954 0.775527
-5.09864 -18.5842 0.427027
-5.38214 -18.485 -0.125873
-5.19354 -18.5505 0.117127
-5.26644 -18.4454 -0.125173
-5.05894 -18.5169 0.144927
-5.13114 -18.2719 0.0213273
-4.91954 -18.3447 0.300527
-5.48384 -18.1507 -0.146173
-5.61164 -18.3269 -0.287773
-6.02584 -18.1848 -0.342173
-5.90714 -18.0052 -0.201973
-5.69484 -18.3782 -0.273773
-6.06914 -18.2503 -0.323873
-6.75444 -18.0133 -0.125873
-6.44264 -18.1212 -0.273773
-6.78484 -17.9236 -0.125173
-6.43974 -18.0424 -0.287773
-6.68314 -17.7386 0.0213273
-6.33034 -17.8598 -0.146173
-7.03584 -17.6173 1.33193
-7.03584 -17.6173 1.00343
-7.00054 -17.6295 0.643827
-7.09654 -17.8169 0.479827
-7.13134 -17.805 0.836727
-7.13134 -17.805 1.16513
-6.89474 -17.6658 0.300527
-6.99244 -17.8524 0.144927
-6.94384 -17.949 0.117127
-7.03994 -17.917 0.427027
-7.07204 -17.9064 1.10393
-7.07204 -17.9064 0.775527
-7.03584 -17.6173 1.58153
-7.13134 -17.805 1.41483
-7.09654 -17.8169 1.59633
-7.00054 -17.6295 1.76383
-7.07204 -17.9064 1.35363
-7.03994 -17.917 1.53293
-6.75444 -18.0133 1.72273
-6.94384 -17.949 1.65063
-6.78484 -17.9236 1.80013
-6.99244 -17.8524 1.72053
-6.68314 -17.7386 1.97233
-6.89474 -17.6658 1.89023
-6.33034 -17.8598 2.02153
-6.43974 -18.0424 1.84783
-6.02584 -18.1848 1.86363
-5.90714 -18.0052 2.03793
-6.44264 -18.1212 1.76553
-6.06914 -18.2503 1.77953
-5.69484 -18.3782 1.76553
-5.61164 -18.3269 1.84783
-5.48384 -18.1507 2.02153
-0.00284069 -6.83702 1.75423
-0.0237407 -6.90112 1.78563
0.0821593 -6.90172 1.70413
-0.0817407 -7.06652 1.86393
0.0243593 -7.06882 1.78333
0.0773593 -7.06992 1.65903
0.135159 -6.90202 1.57863
0.0949593 -7.07032 1.23463
0.0949593 -7.07032 1.47993
0.152859 -6.90212 1.14983
0.152859 -6.90212 1.39773
0.0949593 -7.07032 0.911827
0.0773593 -7.06992 0.558427
0.135159 -6.90202 0.466627
0.152859 -6.90212 0.823727
-0.0817407 -7.06652 -0.0533727
0.0243593 -7.06882 0.221027
-0.0237407 -6.90112 -0.151273
0.0821593 -6.90172 0.125927
-0.200241 -6.90012 -0.317673
-0.412041 -6.89902 -0.373073
-0.390941 -6.83702 -0.413373
-0.258441 -7.06262 -0.217973
-0.470441 -7.05802 -0.272873
-0.859241 -7.04952 -0.0533727
-0.682541 -7.05342 -0.217973
-0.800441 -6.89692 -0.151273
-0.623941 -6.89782 -0.317673
-0.779041 -6.83702 -0.190673
-0.602641 -6.83702 -0.357673
-0.955541 -6.83702 1.11583
-0.955541 -6.83702 0.788427
-0.937841 -6.83702 0.429827
-0.959341 -6.89602 0.466727
-0.976941 -6.89592 0.823727
-0.976941 -6.89592 1.14983
-0.884941 -6.83702 0.0876273
-0.906341 -6.89632 0.125927
-0.965241 -7.04722 0.221027
-1.01824 -7.04612 0.558427
-1.03594 -7.04572 1.23463
-1.03594 -7.04572 0.911827
-0.955541 -6.83702 1.36463
-0.976941 -6.89592 1.39773
-0.959341 -6.89602 1.57863
-0.937841 -6.83702 1.54633
-1.03594 -7.04572 1.47993
-1.01824 -7.04612 1.65903
-0.859241 -7.04952 1.86393
-0.965241 -7.04722 1.78333
-0.800441 -6.89692 1.78563
-0.906341 -6.89632 1.70413
-0.779041 -6.83702 1.75423
-0.884941 -6.83702 1.67243
-0.602641 -6.83702 1.80333
-0.623941 -6.89782 1.83453
-0.412041 -6.89902 1.85083
-0.390941 -6.83702 1.81973
-0.682541 -7.05342 1.91233
-0.470441 -7.05802 1.92853
-0.258441 -7.06262 1.91233
-0.200241 -6.90012 1.83453
-0.179241 -6.83702 1.80333
3 0 1 2
3 0 2 3
3 2 4 5
3 2 5 3
3 5 6 7
3 5 7 3
3 7 8 0
3 7 0 3
3 9 10 11
3 9 11 12
3 11 13 14
3 11 14 12
3 14 6 5
3 14 5 12
3 5 4 9
3 5 9 12
3 15 16 17
3 15 17 18
3 17 19 20
3 17 20 18
3 20 6 14
3 20 14 18
3 14 13 15
3 14 15 18
3 21 22 23
3 21 23 24
3 23 8 7
3 23 7 24
3 7 6 20
3 7 20 24
3 20 19 21
3 20 21 24
3 25 26 27
3 25 27 28
3 27 29 30
3 27 30 28
3 30 31 28
3 31 32 25
3 31 25 28
3 30 29 33
3 34 35 36
3 37 38 39
3 37 39 40
3 39 41 42
3 39 42 40
3 42 36 40
3 36 35 37
3 36 37 40
3 42 41 43
3 44 45 46
3 47 48 49
3 47 49 50
3 49 51 52
3 49 52 50
3 52 45 44
3 52 44 50
3 44 53 47
3 44 47 50
3 54 38 37
3 54 37 55
3 37 35 56
3 37 56 55
3 56 45 52
3 56 52 55
3 52 51 54
3 52 54 55
3 46 45 56
3 46 56 57
3 56 35 34
3 56 34 57
3 58 59 60
3 58 60 61
3 60 62 63
3 60 63 61
3 63 64 65
3 63 65 61
3 65 66 58
3 65 58 61
3 67 68 69
3 67 69 70
3 69 71 72
3 69 72 70
3 72 64 63
3 72 63 70
3 63 62 67
3 63 67 70
3 73 74 75
3 73 75 76
3 75 77 78
3 75 78 76
3 78 64 72
3 78 72 76
3 72 71 73
3 72 73 76
3 79 80 81
3 79 81 82
3 81 66 65
3 81 65 82
3 65 64 78
3 65 78 82
3 78 77 79
3 78 79 82
3 83 84 85
3 83 85 86
3 85 87 88
3 85 88 86
3 88 89 90
3 88 90 86
3 90 91 83
3 90 83 86
3 92 93 94
3 92 94 95
3 94 96 97
3 94 97 95
3 97 89 88
3 97 88 95
3 88 87 92
3 88 92 95
3 98 99 100
3 98 100 101
3 100 102 103
3 100 103 101
3 103 89 97
3 103 97 101
3 97 96 98
3 97 98 101
3 104 105 106
3 104 106 107
3 106 91 90
3 106 90 107
3 90 89 103
3 90 103 107
3 103 102 104
3 103 104 107
3 108 109 110
3 108 110 111
3 110 112 113
3 110 113 111
3 113 114 115
3 113 115 111
3 115 116 108
3 115 108 111
3 117 118 119
3 117 119 120
3 119 121 122
3 119 122 120
3 122 114 113
3 122 113 120
3 113 112 117
3 113 117 120
3 123 93 92
3 123 92 124
3 92 87 125
3 92 125 124
3 125 114 122
3 125 122 124
3 122 121 123
3 122 123 124
3 85 84 126
3 85 126 127
3 126 116 115
3 126 115 127
3 115 114 125
3 115 125 127
3 125 87 85
3 125 85 127
3 128 129 130
3 128 130 131
3 130 132 133
3 130 133 131
3 133 134 135
3 133 135 131
3 135 136 128
3 135 128 131
3 137 138 139
3 137 139 140
3 139 141 142
3 139 142 140
3 142 134 133
3 142 133 140
3 133 132 137
3 133 137 140
3 143 118 117
3 143 117 144
3 117 112 145
3 117 145 144
3 145 134 142
3 145 142 144
3 142 141 143
3 142 143 144
3 110 109 146
3 110 146 147
3 146 136 135
3 146 135 147
3 135 134 145
3 135 145 147
3 145 112 110
3 145 110 147
3 148 149 150
3 148 150 151
3 150 152 153
3 150 153 151
3 153 154 155
3 153 155 151
3 155 156 148
3 155 148 151
3 157 84 83
3 157 83 158
3 83 91 159
3 83 159 158
3 159 154 153
3 159 153 158
3 153 152 157
3 153 157 158
3 106 105 160
3 106 160 161
3 160 162 163
3 160 163 161
3 163 154 159
3 163 159 161
3 159 91 106
3 159 106 161
3 164 165 166
3 164 166 167
3 166 156 155
3 166 155 167
3 155 154 163
3 155 163 167
3 163 162 164
3 163 164 167
3 168 169 170
3 168 170 171
3 170 172 173
3 170 173 171
3 173 174 175
3 173 175 171
3 175 176 168
3 175 168 171
3 177 59 58
3 177 58 178
3 58 66 179
3 58 179 178
3 179 174 173
3 179 173 178
3 173 172 177
3 173 177 178
3 81 80 180
3 81 180 181
3 180 182 183
3 180 183 181
3 183 174 179
3 183 179 181
3 179 66 81
3 179 81 181
3 184 185 186
3 184 186 187
3 186 176 175
3 186 175 187
3 175 174 183
3 175 183 187
3 183 182 184
3 183 184 187
3 188 189 190
3 188 190 191
3 190 192 193
3 190 193 191
3 193 194 195
3 193 195 191
3 195 196 188
3 195 188 191
3 197 129 128
3 197 128 198
3 128 136 199
3 128 199 198
3 199 194 193
3 199 193 198
3 193 192 197
3 193 197 198
3 146 109 200
3 146 200 201
3 200 202 203
3 200 203 201
3 203 194 199
3 203 199 201
3 199 136 146
3 199 146 201
3 204 205 206
3 204 206 207
3 206 196 195
3 206 195 207
3 195 194 203
3 195 203 207
3 203 202 204
3 203 204 207
3 208 205 204
3 208 204 209
3 204 202 210
3 204 210 209
3 210 211 212
3 210 212 209
3 212 213 208
3 212 208 209
3 200 109 108
3 200 108 214
3 108 116 215
3 108 215 214
3 215 211 210
3 215 210 214
3 210 202 200
3 210 200 214
3 126 84 157
3 126 157 216
3 157 152 217
3 157 217 216
3 217 211 215
3 217 215 216
3 215 116 126
3 215 126 216
3 150 149 218
3 150 218 219
3 218 213 212
3 218 212 219
3 212 211 217
3 212 217 219
3 217 152 150
3 217 150 219
3 220 221 222
3 223 33 224
3 33 29 225
3 33 225 224
3 225 221 220
3 225 220 224
3 220 223 224
3 27 26 226
3 27 226 227
3 226 228 229
3 226 229 227
3 229 221 225
3 229 225 227
3 225 29 27
3 225 27 227
3 230 48 47
3 230 47 231
3 47 53 222
3 47 222 231
3 222 221 229
3 222 229 231
3 229 228 230
3 229 230 231
3 190 189 232
3 190 232 233
3 232 234 235
3 232 235 233
3 235 236 237
3 235 237 233
3 237 192 190
3 237 190 233
3 238 185 184
3 238 184 239
3 184 182 240
3 184 240 239
3 240 236 235
3 240 235 239
3 235 234 238
3 235 238 239
3 180 80 241
3 180 241 242
3 241 243 244
3 241 244 242
3 244 236 240
3 244 240 242
3 240 182 180
3 240 180 242
3 245 129 197
3 245 197 246
3 197 192 237
3 197 237 246
3 237 236 244
3 237 244 246
3 244 243 245
3 244 245 246
3 130 129 245
3 130 245 247
3 245 243 248
3 245 248 247
3 248 249 250
3 248 250 247
3 250 132 130
3 250 130 247
3 241 80 79
3 241 79 251
3 79 77 252
3 79 252 251
3 252 249 248
3 252 248 251
3 248 243 241
3 248 241 251
3 75 74 253
3 75 253 254
3 253 255 256
3 253 256 254
3 256 249 252
3 256 252 254
3 252 77 75
3 252 75 254
3 257 138 137
3 257 137 258
3 137 132 250
3 137 250 258
3 250 249 256
3 250 256 258
3 256 255 257
3 256 257 258
3 259 260 261
3 259 261 262
3 261 263 264
3 261 264 262
3 264 265 266
3 264 266 262
3 266 267 259
3 266 259 262
3 268 1 0
3 268 0 269
3 0 8 270
3 0 270 269
3 270 265 264
3 270 264 269
3 264 263 268
3 264 268 269
3 23 22 271
3 23 271 272
3 271 273 274
3 271 274 272
3 274 265 270
3 274 270 272
3 270 8 23
3 270 23 272
3 275 276 277
3 275 277 278
3 277 267 266
3 277 266 278
3 266 265 274
3 266 274 278
3 274 273 275
3 274 275 278
3 279 105 104
3 279 104 280
3 104 102 281
3 104 281 280
3 281 282 283
3 281 283 280
3 283 284 279
3 283 279 280
3 100 99 285
3 100 285 286
3 285 287 288
3 285 288 286
3 288 282 281
3 288 281 286
3 281 102 100
3 281 100 286
3 289 68 67
3 289 67 290
3 67 62 291
3 67 291 290
3 291 282 288
3 291 288 290
3 288 287 289
3 288 289 290
3 60 59 292
3 60 292 293
3 292 284 283
3 292 283 293
3 283 282 291
3 283 291 293
3 291 62 60
3 291 60 293
3 294 165 164
3 294 164 295
3 164 162 296
3 164 296 295
3 296 297 298
3 296 298 295
3 298 299 294
3 298 294 295
3 160 105 279
3 160 279 300
3 279 284 301
3 279 301 300
3 301 297 296
3 301 296 300
3 296 162 160
3 296 160 300
3 292 59 177
3 292 177 302
3 177 172 303
3 177 303 302
3 303 297 301
3 303 301 302
3 301 284 292
3 301 292 302
3 170 169 304
3 170 304 305
3 304 299 298
3 304 298 305
3 298 297 303
3 298 303 305
3 303 172 170
3 303 170 305
3 306 307 308
3 306 308 309
3 308 310 311
3 308 311 309
3 311 312 313
3 311 313 309
3 313 314 306
3 313 306 309
3 315 149 148
3 315 148 316
3 148 156 317
3 148 317 316
3 317 312 311
3 317 311 316
3 311 310 315
3 311 315 316
3 166 165 318
3 166 318 319
3 318 320 321
3 318 321 319
3 321 312 317
3 321 317 319
3 317 156 166
3 317 166 319
3 322 323 324
3 322 324 325
3 324 314 313
3 324 313 325
3 313 312 321
3 313 321 325
3 321 320 322
3 321 322 325
3 326 323 322
3 326 322 327
3 322 320 328
3 322 328 327
3 328 329 330
3 328 330 327
3 330 331 326
3 330 326 327
3 318 165 294
3 318 294 332
3 294 299 333
3 294 333 332
3 333 329 328
3 333 328 332
3 328 320 318
3 328 318 332
3 304 169 334
3 304 334 335
3 334 336 337
3 334 337 335
3 337 329 333
3 337 333 335
3 333 299 304
3 333 304 335
3 338 339 340
3 338 340 341
3 340 331 330
3 340 330 341
3 330 329 337
3 330 337 341
3 337 336 338
3 337 338 341
3 342 339 338
3 342 338 343
3 338 336 344
3 338 344 343
3 344 345 346
3 344 346 343
3 346 347 342
3 346 342 343
3 334 169 168
3 334 168 348
3 168 176 349
3 168 349 348
3 349 345 344
3 349 344 348
3 344 336 334
3 344 334 348
3 186 185 350
3 186 350 351
3 350 352 353
3 350 353 351
3 353 345 349
3 353 349 351
3 349 176 186
3 349 186 351
3 354 355 356
3 354 356 357
3 356 347 346
3 356 346 357
3 346 345 353
3 346 353 357
3 353 352 354
3 353 354 357
3 358 359 360
3 358 360 361
3 360 362 363
3 360 363 361
3 363 364 365
3 363 365 361
3 365 366 358
3 365 358 361
3 367 355 354
3 367 354 368
3 354 352 369
3 354 369 368
3 369 364 363
3 369 363 368
3 363 362 367
3 363 367 368
3 350 185 238
3 350 238 370
3 238 234 371
3 238 371 370
3 371 364 369
3 371 369 370
3 369 352 350
3 369 350 370
3 232 189 372
3 232 372 373
3 372 366 365
3 372 365 373
3 365 364 371
3 365 371 373
3 371 234 232
3 371 232 373
3 374 359 358
3 374 358 375
3 358 366 376
3 358 376 375
3 376 377 378
3 376 378 375
3 378 379 374
3 378 374 375
3 372 189 188
3 372 188 380
3 188 196 381
3 188 381 380
3 381 377 376
3 381 376 380
3 376 366 372
3 376 372 380
3 206 205 382
3 206 382 383
3 382 384 385
3 382 385 383
3 385 377 381
3 385 381 383
3 381 196 206
3 381 206 383
3 386 387 388
3 386 388 389
3 388 379 378
3 388 378 389
3 378 377 385
3 378 385 389
3 385 384 386
3 385 386 389
3 390 387 386
3 390 386 391
3 386 384 392
3 386 392 391
3 392 393 394
3 392 394 391
3 394 395 390
3 394 390 391
3 382 205 208
3 382 208 396
3 208 213 397
3 208 397 396
3 397 393 392
3 397 392 396
3 392 384 382
3 392 382 396
3 218 149 315
3 218 315 398
3 315 310 399
3 315 399 398
3 399 393 397
3 399 397 398
3 397 213 218
3 397 218 398
3 308 307 400
3 308 400 401
3 400 395 394
3 400 394 401
3 394 393 399
3 394 399 401
3 399 310 308
3 399 308 401
3 94 93 402
3 94 402 403
3 402 404 405
3 402 405 403
3 405 406 407
3 405 407 403
3 407 96 94
3 407 94 403
3 408 10 9
3 408 9 409
3 9 4 410
3 9 410 409
3 410 406 405
3 410 405 409
3 405 404 408
3 405 408 409
3 2 1 411
3 2 411 412
3 411 413 414
3 411 414 412
3 414 406 410
3 414 410 412
3 410 4 2
3 410 2 412
3 415 99 98
3 415 98 416
3 98 96 407
3 98 407 416
3 407 406 414
3 407 414 416
3 414 413 415
3 414 415 416
3 285 99 415
3 285 415 417
3 415 413 418
3 415 418 417
3 418 419 420
3 418 420 417
3 420 287 285
3 420 285 417
3 411 1 268
3 411 268 421
3 268 263 422
3 268 422 421
3 422 419 418
3 422 418 421
3 418 413 411
3 418 411 421
3 261 260 423
3 261 423 424
3 423 425 426
3 423 426 424
3 426 419 422
3 426 422 424
3 422 263 261
3 422 261 424
3 427 68 289
3 427 289 428
3 289 287 420
3 289 420 428
3 420 419 426
3 420 426 428
3 426 425 427
3 426 427 428
3 69 68 427
3 69 427 429
3 427 425 430
3 427 430 429
3 430 431 432
3 430 432 429
3 432 71 69
3 432 69 429
3 423 260 259
3 423 259 433
3 259 267 434
3 259 434 433
3 434 431 430
3 434 430 433
3 430 425 423
3 430 423 433
3 277 276 435
3 277 435 436
3 435 437 438
3 435 438 436
3 438 431 434
3 438 434 436
3 434 267 277
3 434 277 436
3 439 74 73
3 439 73 440
3 73 71 432
3 73 432 440
3 432 431 438
3 432 438 440
3 438 437 439
3 438 439 440
3 441 138 257
3 441 257 442
3 257 255 443
3 257 443 442
3 443 444 445
3 443 445 442
3 445 446 441
3 445 441 442
3 253 74 439
3 253 439 447
3 439 437 448
3 439 448 447
3 448 444 443
3 448 443 447
3 443 255 253
3 443 253 447
3 435 276 275
3 435 275 449
3 275 273 450
3 275 450 449
3 450 444 448
3 450 448 449
3 448 437 435
3 448 435 449
3 271 22 451
3 271 451 452
3 451 446 445
3 451 445 452
3 445 444 450
3 445 450 452
3 450 273 271
3 450 271 452
3 139 138 441
3 139 441 453
3 441 446 454
3 441 454 453
3 454 455 456
3 454 456 453
3 456 141 139
3 456 139 453
3 451 22 21
3 451 21 457
3 21 19 458
3 21 458 457
3 458 455 454
3 458 454 457
3 454 446 451
3 454 451 457
3 17 16 459
3 17 459 460
3 459 461 462
3 459 462 460
3 462 455 458
3 462 458 460
3 458 19 17
3 458 17 460
3 463 118 143
3 463 143 464
3 143 141 456
3 143 456 464
3 456 455 462
3 456 462 464
3 462 461 463
3 462 463 464
3 119 118 463
3 119 463 465
3 463 461 466
3 463 466 465
3 466 467 468
3 466 468 465
3 468 121 119
3 468 119 465
3 459 16 15
3 459 15 469
3 15 13 470
3 15 470 469
3 470 467 466
3 470 466 469
3 466 461 459
3 466 459 469
3 11 10 408
3 11 408 471
3 408 404 472
3 408 472 471
3 472 467 470
3 472 470 471
3 470 13 11
3 470 11 471
3 402 93 123
3 402 123 473
3 123 121 468
3 123 468 473
3 468 467 472
3 468 472 473
3 472 404 402
3 472 402 473
3 474 475 476
3 477 307 306
3 477 306 478
3 306 314 479
3 306 479 478
3 479 480 476
3 479 476 478
3 476 475 477
3 476 477 478
3 324 323 481
3 324 481 482
3 481 483 484
3 481 484 482
3 484 480 479
3 484 479 482
3 479 314 324
3 479 324 482
3 481 323 326
3 481 326 485
3 326 331 486
3 326 486 485
3 486 487 488
3 486 488 485
3 488 483 481
3 488 481 485
3 340 339 489
3 340 489 490
3 489 491 492
3 489 492 490
3 492 487 486
3 492 486 490
3 486 331 340
3 486 340 490
3 493 494 495
3 489 339 342
3 489 342 496
3 342 347 497
3 342 497 496
3 497 494 493
3 497 493 496
3 493 491 489
3 493 489 496
3 356 355 498
3 356 498 499
3 498 500 501
3 498 501 499
3 501 494 497
3 501 497 499
3 497 347 356
3 497 356 499
3 502 26 25
3 502 25 503
3 25 32 495
3 25 495 503
3 495 494 501
3 495 501 503
3 501 500 502
3 501 502 503
3 504 48 230
3 504 230 505
3 230 228 506
3 230 506 505
3 506 507 508
3 506 508 505
3 508 509 504
3 508 504 505
3 226 26 502
3 226 502 510
3 502 500 511
3 502 511 510
3 511 507 506
3 511 506 510
3 506 228 226
3 506 226 510
3 498 355 367
3 498 367 512
3 367 362 513
3 367 513 512
3 513 507 511
3 513 511 512
3 511 500 498
3 511 498 512
3 360 359 514
3 360 514 515
3 514 509 508
3 514 508 515
3 508 507 513
3 508 513 515
3 513 362 360
3 513 360 515
3 49 48 504
3 49 504 516
3 504 509 517
3 504 517 516
3 517 518 519
3 517 519 516
3 519 51 49
3 519 49 516
3 514 359 374
3 514 374 520
3 374 379 521
3 374 521 520
3 521 518 517
3 521 517 520
3 517 509 514
3 517 514 520
3 388 387 522
3 388 522 523
3 522 524 525
3 522 525 523
3 525 518 521
3 525 521 523
3 521 379 388
3 521 388 523
3 526 38 54
3 526 54 527
3 54 51 519
3 54 519 527
3 519 518 525
3 519 525 527
3 525 524 526
3 525 526 527
3 39 38 526
3 39 526 528
3 526 524 529
3 526 529 528
3 529 530 531
3 529 531 528
3 531 41 39
3 531 39 528
3 522 387 390
3 522 390 532
3 390 395 533
3 390 533 532
3 533 530 529
3 533 529 532
3 529 524 522
3 529 522 532
3 400 307 477
3 400 477 534
3 477 475 535
3 477 535 534
3 535 530 533
3 535 533 534
3 533 395 400
3 533 400 534
3 474 43 536
3 43 41 531
3 43 531 536
3 531 530 535
3 531 535 536
3 535 475 474
3 535 474 536
