0.247883
0.194255
0.2258
0.173687
0.0380482
0.0744837
0.112332
0.0773238
0.2412
0.216947
0.213332
0.254659
0.129162
0.158443
0.244538
0.159082
0.233696
0.220737
0.208477
0.17423
0.0749049
0.12522
0.175642
0.226165
0.142934
0.13308
0.113829
0.145846
0
0.0374687
0.185107
0.113802
0.361019
0.322317
0.376773
0.394476
0.393466
0.39722
0.4439
0.40196
0.368238
0.323757
0.417167
0.400927
0.39111
0.390671
0.381587
0.334895
0.376008
0.406268
0.400814
0.319568
0.414135
0.406415
0.384219
0.401612
0.415606
0.38864
0.376341
0.387477
0.401495
0.426014
0.405303
0.356862
0.433658
0.396419
0.340221
0.340179
0.370285
0.378234
0.359899
0.367405
0.298394
0.34314
0.362789
0.331751
0.329138
0.316166
0.355561
0.350721
0.359223
0.377125
0.369571
0.354264
0.353738
0.355241
0.355073
0.348008
0.378027
0.377808
0.357988
0.36788
0.368702
0.356941
0.365962
0.370839
0.352757
0.368759
0.380277
0.354017
0.318342
0.360518
0.285804
0.319708
0.381981
0.373755
0.386028
0.362252
0.326301
0.335833
0.366881
0.363387
0.403413
0.387441
0.363588
0.338827
0.332195
0.36098
0.385022
0.364382
0.420211
0.366982
0.320005
0.330269
0.338823
0.291498
0.363515
0.374438
0.39299
0.385606
0.369696
0.369047
0.364993
0.371263
0.364269
0.390069
0.368879
0.364219
0.358087
0.336188
0.375729
0.377692
0.348289
0.34828
0.362074
0.382742
0.363783
0.366719
0.370227
0.372133
0.367777
0.371472
0.377488
0.384761
0.373728
0.373206
0.35969
0.37078
0.364957
0.352326
0.490156
0.326583
0.397465
0.496165
0.383951
0.450133
0.44643
0.406851
0.404487
0.985587
0.392628
0.289526
0.322623
0.360382
0.464521
0.424945
0.340007
0.476578
0.482394
0.374633
0.539635
0.29477
0.340695
0.440665
0.396166
0.330301
0.451284
0.40181
0.329909
0.332662
0.294524
0.450212
0.345507
0.511318
0.530018
0.316419
0.462201
0.314443
0.361828
0.475469
0.515605
0.245562
0.431361
0.261078
0.333211
0.451117
0.279435
1
0.30821
0.270311
0.40011
0.523645
0.256669
0.422099
0.330172
0.225311
0.317192
0.398729
0.3217
0.390245
0.437899
0.387859
0.460176
0.249992
0.380233
0.435043
0.360587
0.392352
0.409399
0.386787
0.386378
0.445333
0.466758
0.417726
0.383427
0.399409
0.392372
0.368674
0.410557
0.47321
0.509612
0.300763
0.331576
0.57329
0.358746
0.4026
0.337367
0.337827
0.365771
0.382855
0.378001
0.409846
0.353436
0.404089
0.495926
0.349715
0.442373
0.310963
0.294666
0.511902
0.318058
0.532955
0.565612
0.325949
0.202667
0.432299
0.233675
0.444886
0.344606
0.330614
0.471062
0.284543
0.29768
0.389036
0.323319
0.469382
0.540187
0.371639
0.217888
0.45347
0.382706
0.368039
0.382475
0.348089
0.278007
0.308945
0.463372
0.381981
0.355511
0.446758
0.453227
0.117797
0.320141
0.856121
0.632786
0.516672
0.435344
0.265062
0.295719
0.506408
0.718912
0.386732
0.176924
0.328293
0.166397
0.374894
0.340735
0.0892474
0.349893
0.37441
0.189015
0.1747
0.744713
0.317884
0.317069
0.797677
0.36207
0.3442
0.289276
0.564603
0.296698
0.360469
0.581841
0.23769
0.486365
0.231822
0.22026
0.508692
0.415656
0.169259
0.326383
0.190706
0.172015
0.393401
0.161056
0.509127
0.420968
0.163941
0.371001
0.337533
0.176062
0.412542
0.352041
0.177903
0.541751
0.360308
0.254712
0.291312
0.349306
0.154387
0.707521
0.247263
0.528843
0.185361
0.164751
0.506827
0.416633
0.545186
0.424573
0.520331
0.147415
0.395243
0.134754
0.279438
0.436197
0.939689
0.239494
0.374242
0.359795
0.216852
0.201767
0.507767
0.432678
0.409825
0.260405
0.206752
0.27397
0.474245
0.311682
0.527677
0.362601
0.420428
0.466549
0.339983
0.525739
0.197317
0.222414
0.421109
0.18898
0.504351
0.568381
0.178963
0.157524
0.374525
0.218355
0.382885
0.468989
0.203344
0.497926
0.110572
0.179101
0.379659
0.544664
0.155128
0.495816
0.189534
0.216156
0.345885
0.608849
0.166199
0.515166
0.181292
0.183561
0.46036
0.285152
0.380825
0.206646
0.365709
0.406974
0.307028
0.345865
0.425681
0.521559
0.493467
0.316325
0.205868
0.0875634
0.29969
0.36175
0.371681
0.254206
0.309525
0.266406
0.321958
0.424271
0.377232
0.489384
0.41523
0.209397
0.363591
0.33715
0.256065
0.346326
0.310117
0.388492
0.55873
0.250588
0.430788
0.233896
0.373154
0.374825
0.264888
0.350423
0.289423
0.242371
0.408534
0.266675
0.281612
0.267509
0.265289
0.337861
0.319331
0.249273
0.358446
0.25588
0.282282
0.281952
0.373628
0.3133
0.338398
0.267719
0.291263
0.180913
0.440252
0.244811
0.426273
0.344521
0.287766
0.362429
0.23948
0.401772
0.357677
0.220881
0.399261
0.4125
0.422936
0.180554
0.284384
0.286346
0.286041
0.232981
0.261132
0.343418
0.476126
0.32468
0.444879
0.282243
0.239498
0.315764
0.386193
0.383654
0.44643
0.336326
0.342241
0.243988
0.370365
0.273087
0.418554
0.429607
0.318927
0.424975
0.235686
0.261852
0.244675
0.253848
0.427624
0.314625
0.404681
0.425718
0.276864
0.21286
0.286963
0.279317
0.259082
0.391061
0.38466
0.22277
0.403858
0.227226
0.25939
0.292186
0.367039
0.339005
0.347288
0.289698
0.283968
0.445114
0.243688
0.353037
0.275032
0.323567
0.343055
0.274998
0.326939
0.387302
0.414282
0.3115
0.338952
0.391456
0.39222
0.376701
0.278472
0.434185
0.471198
0.27259
0.402788
0.389923
0.381089
0.382655
0.386463
0.408063
0.390344
0.387884
0.453652
0.397873
0.410649
0.443588
0.393455
0.391248
0.4109
0.388512
0.393433
0.443766
0.378998
0.405333
0.394775
0.400003
0.444222
0.411928
0.354941
0.398142
0.400302
0.399474
0.450921
0.405098
0.397723
0.416899
0.433595
0.409781
0.41641
0.400705
0.444473
0.403454
0.404546
0.305253
0.423598
0.391788
0.417628
0.383118
0.407141
0.378633
0.467873
0.357521
0.387111
0.384759
0.355816
0.382424
0.37248
0.333497
0.376993
0.388611
0.388227
0.389188
0.368056
0.34251
0.410473
0.406357
0.397848
0.374125
0.385154
0.383527
0.386918
0.405202
0.393196
0.385996
0.418435
0.388294
0.410956
0.434157
0.367299
0.386572
0.396316
0.4045
0.407509
0.384397
0.385274
0.388388
0.384697
0.393435
0.352182
0.465345
0.405347
0.425034
0.409781
0.3958
0.441215
0.457875
0.375558
0.390925
0.387901
0.370341
0.392612
0.387532
0.408778
0.38372
0.403979
0.447128
0.386233
0.431581
0.400409
0.386138
0.353991
0.376132
0.400164
0.437494
0.392791
0.379444
0.362024
0.347736
0.313481
0.393185
0.400405
0.38666
0.454721
0.377981
0.385983
0.385481
0.380485
0.32851
0.368045
0.370725
0.377966
0.368321
0.368005
0.364682
0.372408
0.340963
0.388626
