OFF
565 1090 0
-17.4575 -5.28553 -1.58485
-17.4575 -5.28553 -1.52425
-17.4575 -3.45183 -1.52425
-17.4575 -3.45183 -1.58485
-17.4575 -1.61503 -1.52425
-17.4575 -1.61503 -1.58485
-17.4315 -1.61503 -1.62865
-17.4315 -3.45183 -1.62865
-17.4315 -5.28553 -1.62865
-8.72553 -6.06123 -1.52425
-9.83053 -6.06123 -1.52425
-9.83053 -6.06123 -1.58485
-8.72553 -6.06123 -1.58485
-9.83053 -6.05273 -1.62865
-8.72553 -6.05273 -1.62865
-9.68253 -3.45683 1.81415
-9.68253 -2.04073 1.81415
-9.71853 -2.04073 1.67225
-9.71853 -3.45683 1.67225
-10.5705 -2.04073 1.67225
-10.5705 -3.45683 1.67225
-10.5705 -4.87053 1.67225
-9.71853 -4.87053 1.67225
-9.68253 -4.87053 1.81415
-8.72553 -0.903627 -1.62865
-9.83053 -0.903627 -1.62865
-9.83053 -0.886127 -1.58485
-8.72553 -0.886127 -1.58485
-9.83053 -0.886127 -1.52425
-8.72553 -0.886127 -1.52425
-8.72553 -5.28553 -1.64335
-9.83053 -5.28553 -1.64335
-9.83053 -3.45183 -1.64335
-8.72553 -3.45183 -1.64335
-9.83053 -1.61503 -1.64335
-8.72553 -1.61503 -1.64335
-8.69053 -1.62623 2.98405
-8.72053 -1.63903 2.98405
-8.72053 -3.45203 2.98405
-8.73253 -0.890027 2.96815
-9.83553 -0.890027 2.96815
-9.84953 -0.901727 2.98405
-8.75253 -0.901727 2.98405
-9.87253 -0.919527 2.98405
-8.78153 -0.919527 2.98405
-8.73553 -0.936827 2.98405
-8.70553 -0.919127 2.98405
-8.67353 -0.891727 2.98645
-17.4505 -3.45183 2.96815
-17.4505 -5.28283 2.96815
-17.4305 -5.27463 2.98405
-17.4305 -3.45193 2.98405
-17.4005 -5.26213 2.98405
-17.4005 -3.45203 2.98405
-17.4005 -1.63903 2.98405
-17.4305 -1.62623 2.98405
-17.4505 -1.61783 2.96815
-8.73253 -6.05733 2.96815
-8.70553 -6.03723 2.98405
-8.75253 -6.04563 2.98405
-8.73553 -6.01953 2.98405
-8.78153 -6.02783 2.98405
-9.87253 -6.02783 2.98405
-9.84953 -6.04563 2.98405
-9.83553 -6.05733 2.96815
-9.67053 -4.87053 2.23985
-9.67053 -4.87053 2.68765
-9.67053 -3.45683 2.68765
-9.67053 -3.45683 2.23985
-9.67053 -2.04073 2.68765
-9.67053 -2.04073 2.23985
-9.71853 -1.47883 2.68765
-10.5705 -1.47883 2.68765
-10.5705 -1.47883 2.23985
-9.71853 -1.47883 2.23985
-10.5705 -1.49223 1.81415
-9.71853 -1.49223 1.81415
-9.69253 -1.50273 1.92445
-9.68253 -1.49223 2.23985
-9.68253 -1.49223 2.68765
-16.4505 -3.45683 2.68765
-16.4505 -4.87053 2.68765
-16.4505 -4.87053 2.23985
-16.4505 -3.45683 2.23985
-16.4305 -4.87053 1.81415
-16.4305 -3.45683 1.81415
-16.4305 -2.04073 1.81415
-16.4505 -2.04073 2.23985
-16.4505 -2.04073 2.68765
-10.5705 -5.46863 2.23985
-10.5705 -5.46863 2.68765
-9.71853 -5.46863 2.68765
-9.71853 -5.46863 2.23985
-9.68253 -5.46203 2.68765
-9.68253 -5.46203 2.23985
-9.69253 -5.45693 1.92445
-9.71853 -5.46203 1.81415
-10.5705 -5.46203 1.81415
-8.72053 -0.988627 2.98405
-8.69053 -0.971227 2.98405
-8.67053 -0.959927 3.00535
-9.67053 -1.53273 2.68765
-9.67053 -1.53273 2.23985
-9.68253 -1.53273 1.81415
-9.71853 -1.53273 1.67225
-10.5705 -1.53273 1.67225
-16.4505 -1.53273 2.68765
-16.4505 -1.53273 2.23985
-16.4305 -1.53273 1.81415
-16.4145 -1.50273 1.92445
-16.4305 -1.49223 2.23985
-16.4305 -1.49223 2.68765
-17.4505 -0.959927 2.96815
-17.4305 -0.971227 2.98405
-17.4005 -0.988627 2.98405
-17.3755 -0.936827 2.98405
-17.4055 -0.919127 2.98405
-17.4245 -0.907527 2.96815
-17.4575 -0.956127 -1.52425
-17.4575 -0.956127 -1.58485
-17.4315 -0.903627 -1.52425
-17.4315 -0.903627 -1.58485
-17.4115 -0.917227 -1.61735
-17.4315 -0.956127 -1.62865
-9.83053 -0.956127 -1.64335
-8.72553 -0.956127 -1.64335
-16.4505 -5.44243 2.68765
-16.4305 -5.46203 2.68765
-16.4305 -5.46203 2.23985
-16.4505 -5.44243 2.23985
-16.4145 -5.45693 1.92445
-16.4305 -5.44243 1.81415
-16.4305 -5.41163 1.81415
-16.4505 -5.41163 2.23985
-16.4505 -5.41163 2.68765
-9.68253 -5.44243 1.81415
-9.68253 -5.41163 1.81415
-9.71853 -5.41163 1.67225
-9.71853 -5.44243 1.67225
-10.5705 -5.41163 1.67225
-10.5705 -5.44243 1.67225
-9.67053 -5.44243 2.68765
-9.67053 -5.41163 2.68765
-9.67053 -5.41163 2.23985
-9.67053 -5.44243 2.23985
-8.72053 -5.99443 2.98405
-9.83053 -6.02733 -1.64335
-8.72553 -6.02733 -1.64335
-9.83053 -5.98743 -1.64335
-8.72553 -5.98743 -1.64335
-17.4315 -6.05273 -1.58485
-17.4315 -6.05273 -1.52425
-17.4575 -6.02733 -1.52425
-17.4575 -6.02733 -1.58485
-17.4575 -5.98743 -1.52425
-17.4575 -5.98743 -1.58485
-17.4315 -5.98743 -1.62865
-17.4315 -6.02733 -1.62865
-17.4115 -6.04623 -1.61735
-17.4305 -5.97233 2.98405
-17.4505 -5.98363 2.96815
-17.4505 -6.02353 2.96815
-17.4305 -6.01193 2.98405
-17.4245 -6.04893 2.96815
-17.4055 -6.03723 2.98405
-17.3755 -6.01953 2.98405
-17.4005 -5.99443 2.98405
-17.4005 -5.95503 2.98405
-17.3485 -6.05733 2.96815
-16.2145 -6.05733 2.96815
-16.2005 -6.04563 2.98405
-17.3285 -6.04563 2.98405
-16.1785 -6.02783 2.98405
-17.2995 -6.02783 2.98405
-16.2195 -6.06123 -1.58485
-16.2195 -6.06123 -1.52425
-17.3545 -6.06123 -1.52425
-17.3545 -6.06123 -1.58485
-17.3545 -6.05273 -1.62865
-16.2195 -6.05273 -1.62865
-17.3545 -5.98743 -1.64335
-16.2195 -5.98743 -1.64335
-16.2195 -6.02733 -1.64335
-17.3545 -6.02733 -1.64335
-16.2195 -3.45183 -1.64335
-16.2195 -5.28553 -1.64335
-17.3545 -5.28553 -1.64335
-17.3545 -3.45183 -1.64335
-17.3545 -1.61503 -1.64335
-16.2195 -1.61503 -1.64335
-16.2195 -0.956127 -1.64335
-17.3545 -0.956127 -1.64335
-17.3545 -0.903627 -1.62865
-16.2195 -0.903627 -1.62865
-16.2195 -0.886127 -1.58485
-17.3545 -0.886127 -1.58485
-17.3545 -0.886127 -1.52425
-16.2195 -0.886127 -1.52425
-17.2995 -0.919527 2.98405
-16.1785 -0.919527 2.98405
-16.2005 -0.901727 2.98405
-17.3285 -0.901727 2.98405
-16.2145 -0.890027 2.96815
-17.3485 -0.890027 2.96815
-15.4965 -1.47883 2.23985
-15.4965 -1.47883 2.68765
-16.3715 -1.47883 2.68765
-16.3715 -1.47883 2.23985
-16.3715 -1.49223 1.81415
-15.4965 -1.49223 1.81415
-16.3715 -2.04073 1.67225
-15.4965 -2.04073 1.67225
-15.4965 -1.53273 1.67225
-16.3715 -1.53273 1.67225
-15.4965 -3.45683 1.67225
-16.3715 -3.45683 1.67225
-16.3715 -4.87053 1.67225
-15.4965 -4.87053 1.67225
-15.4965 -5.44243 1.67225
-15.4965 -5.41163 1.67225
-16.3715 -5.41163 1.67225
-16.3715 -5.44243 1.67225
-16.3715 -5.46203 1.81415
-15.4965 -5.46203 1.81415
-16.3715 -5.46863 2.68765
-15.4965 -5.46863 2.68765
-15.4965 -5.46863 2.23985
-16.3715 -5.46863 2.23985
-9.83053 -5.93553 -1.64335
-8.72553 -5.93553 -1.64335
-16.2195 -5.93553 -1.64335
-17.3545 -5.93553 -1.64335
-17.4315 -5.93553 -1.62865
-17.4575 -5.93543 -1.52425
-17.4575 -5.93543 -1.58485
-17.4505 -5.93173 2.96815
-17.4305 -5.92063 2.98405
-17.4005 -5.90373 2.98405
-16.4505 -5.37163 2.68765
-16.4505 -5.37163 2.23985
-16.4305 -5.37163 1.81415
-15.4965 -5.37163 1.67225
-16.3715 -5.37163 1.67225
-9.68253 -5.37163 1.81415
-9.71853 -5.37163 1.67225
-10.5705 -5.37163 1.67225
-9.67053 -5.37163 2.68765
-9.67053 -5.37163 2.23985
-8.95753 -1.02413 2.98405
-10.0025 -1.02413 2.98405
-10.2505 -1.22253 2.98405
-9.28953 -1.22253 2.98405
-10.4905 -1.41473 2.96195
-9.61153 -1.41473 2.96195
-9.57453 -1.42863 2.96195
-9.24853 -1.23773 2.98405
-8.91353 -1.04073 2.98405
-9.23553 -1.85663 2.98405
-8.89853 -1.71423 2.98405
-8.89853 -1.09043 2.98405
-9.23553 -1.28343 2.98405
-9.56253 -1.47043 2.96195
-9.56253 -1.99473 2.96195
-8.89853 -3.45293 2.98405
-9.23553 -3.45463 2.98405
-9.56253 -3.45623 2.96195
-9.56253 -4.91543 2.96195
-9.23553 -5.05003 2.98405
-8.89853 -5.18893 2.98405
-8.89853 -5.80413 2.98405
-9.23553 -5.61543 2.98405
-9.56253 -5.43253 2.96195
-9.56253 -5.47393 2.96195
-9.23553 -5.66063 2.98405
-8.89853 -5.85333 2.98405
-8.89853 -5.89113 2.98405
-9.23553 -5.69533 2.98405
-9.56253 -5.50573 2.96195
-9.57453 -5.52593 2.96195
-9.24853 -5.71753 2.98405
-8.91353 -5.91513 2.98405
-8.95753 -5.92323 2.98405
-9.28953 -5.72483 2.98405
-9.61153 -5.53263 2.96195
-10.4905 -5.53263 2.96195
-10.2505 -5.72483 2.98405
-10.0025 -5.92323 2.98405
-17.1255 -5.92323 2.98405
-16.0515 -5.92323 2.98405
-15.8095 -5.72483 2.98405
-16.7965 -5.72483 2.98405
-15.5745 -5.53263 2.96195
-16.4775 -5.53263 2.96195
-16.5385 -5.52593 2.96195
-16.8635 -5.71753 2.98405
-17.1985 -5.91513 2.98405
-16.8855 -5.66063 2.98405
-17.2225 -5.85333 2.98405
-17.2225 -5.89113 2.98405
-16.8855 -5.69533 2.98405
-16.5585 -5.50573 2.96195
-16.5585 -5.47393 2.96195
-16.8855 -5.05003 2.98405
-17.2225 -5.18893 2.98405
-17.2225 -5.80413 2.98405
-16.8855 -5.61543 2.98405
-16.5585 -5.43253 2.96195
-16.5585 -4.91543 2.96195
-17.2225 -3.45293 2.98405
-16.8855 -3.45463 2.98405
-16.5585 -3.45623 2.96195
-16.5585 -1.99473 2.96195
-16.8855 -1.85663 2.98405
-17.2225 -1.71423 2.98405
-17.2225 -1.09043 2.98405
-16.8855 -1.28343 2.98405
-16.5585 -1.47043 2.96195
-16.5385 -1.42863 2.96195
-16.8635 -1.23773 2.98405
-17.1985 -1.04073 2.98405
-15.8095 -1.22253 2.98405
-16.0515 -1.02413 2.98405
-17.1255 -1.02413 2.98405
-16.7965 -1.22253 2.98405
-16.4775 -1.41473 2.96195
-15.5745 -1.41473 2.96195
-16.2195 -0.886127 -1.45975
-17.3545 -0.886127 -1.45975
-17.4315 -0.903627 -1.45975
-17.4315 -0.903627 -0.893253
-17.3545 -0.886127 -0.893253
-16.2195 -0.886127 -0.893253
-9.83053 -0.886127 -1.45975
-8.72553 -0.886127 -1.45975
-9.83053 -0.886127 -0.893253
-8.72553 -0.886127 -0.893253
-8.72553 -6.06123 -0.893253
-9.83053 -6.06123 -0.893253
-9.83053 -6.06123 -1.45975
-8.72553 -6.06123 -1.45975
-16.2195 -6.06123 -1.45975
-17.3545 -6.06123 -1.45975
-16.2195 -6.06123 -0.893253
-17.3545 -6.06123 -0.893253
-17.4315 -6.05273 -0.893253
-17.4315 -6.05273 -1.45975
-17.4575 -6.02733 -1.45975
-17.4575 -6.02733 -0.893253
-17.4575 -5.98743 -0.893253
-17.4575 -5.98743 -1.45975
-17.4575 -5.93543 -1.45975
-17.4575 -5.93543 -0.893253
-17.4575 -5.28553 -0.893253
-17.4575 -5.28553 -1.45975
-17.4575 -3.45183 -1.45975
-17.4575 -3.45183 -0.893253
-17.4575 -1.61503 -0.893253
-17.4575 -1.61503 -1.45975
-17.4575 -0.956127 -1.45975
-17.4575 -0.956127 -0.893253
-16.2195 -0.886127 2.92075
-16.2195 -0.886127 2.85855
-17.3545 -0.886127 2.85855
-17.3545 -0.886127 2.92075
-17.4315 -0.903627 2.85855
-17.4315 -0.903627 2.92075
-8.67953 -0.877427 2.92075
-8.67953 -0.877427 2.85855
-8.72553 -0.886127 2.85855
-8.72553 -0.886127 2.92075
-9.83053 -0.886127 2.85855
-9.83053 -0.886127 2.92075
-8.66353 -0.851327 2.85855
-8.66353 -0.851327 2.92075
-9.83053 -6.06123 2.92075
-8.72553 -6.06123 2.92075
-9.83053 -6.06123 2.85855
-8.72553 -6.06123 2.85855
-17.3545 -6.06123 2.85855
-16.2195 -6.06123 2.85855
-16.2195 -6.06123 2.92075
-17.3545 -6.06123 2.92075
-17.4315 -6.05273 2.92075
-17.4315 -6.05273 2.85855
-17.4575 -6.02733 2.85855
-17.4575 -6.02733 2.92075
-17.4575 -5.98743 2.92075
-17.4575 -5.98743 2.85855
-17.4575 -5.93543 2.85855
-17.4575 -5.93543 2.92075
-17.4575 -5.28553 2.92075
-17.4575 -5.28553 2.85855
-17.4575 -3.45183 2.85855
-17.4575 -3.45183 2.92075
-17.4575 -1.61503 2.92075
-17.4575 -1.61503 2.85855
-17.4575 -0.956127 2.85855
-17.4575 -0.956127 2.92075
-13.0295 -1.47883 2.68765
-13.0295 -1.47883 2.23985
-13.0295 -1.49223 1.81415
-13.0295 -2.04073 1.67225
-13.0295 -1.53273 1.67225
-13.0295 -3.45683 1.67225
-13.0295 -4.87053 1.67225
-13.0295 -5.37163 1.67225
-13.0295 -5.41163 1.67225
-13.0295 -5.44243 1.67225
-13.0295 -5.46203 1.81415
-13.0295 -5.46863 2.68765
-13.0295 -5.46863 2.23985
-13.0225 -5.92323 2.98405
-13.0255 -5.72483 2.98405
-13.0285 -5.53263 2.96195
-13.0205 -6.05733 2.96815
-13.0205 -6.04563 2.98405
-13.0205 -6.02783 2.98405
-13.0205 -6.06123 2.85855
-13.0205 -6.06123 2.92075
-13.0205 -6.06123 -1.52425
-13.0205 -6.06123 -1.45975
-13.0205 -6.06123 -0.893253
-13.0205 -6.06123 -1.58485
-13.0205 -6.05273 -1.62865
-13.0205 -5.98743 -1.64335
-13.0205 -6.02733 -1.64335
-13.0205 -5.28553 -1.64335
-13.0205 -5.93553 -1.64335
-13.0205 -3.45183 -1.64335
-13.0205 -1.61503 -1.64335
-13.0205 -0.956127 -1.64335
-13.0205 -0.903627 -1.62865
-13.0205 -0.886127 -1.58485
-13.0205 -0.886127 -1.52425
-13.0205 -0.886127 -1.45975
-13.0205 -0.886127 -0.893253
-13.0205 -0.886127 2.85855
-13.0205 -0.886127 2.92075
-13.0205 -0.890027 2.96815
-13.0205 -0.901727 2.98405
-13.0205 -0.919527 2.98405
-13.0225 -1.02413 2.98405
-13.0255 -1.22253 2.98405
-13.0285 -1.41473 2.96195
-8.75853 -1.65503 2.98405
-8.75853 -3.45223 2.98405
-8.75853 -5.24663 2.98405
-8.72053 -5.26213 2.98405
-8.72053 -5.90373 2.98405
-8.75853 -5.88253 2.98405
-8.75853 -5.93343 2.98405
-8.72053 -5.95503 2.98405
-8.75853 -5.97243 2.98405
-8.77353 -5.99733 2.98405
-8.81953 -6.00563 2.98405
-9.89953 -6.00563 2.98405
-13.0205 -6.00563 2.98405
-16.1515 -6.00563 2.98405
-17.2625 -6.00563 2.98405
-17.3375 -5.99733 2.98405
-17.3625 -5.93343 2.98405
-17.3625 -5.97243 2.98405
-17.3625 -5.24663 2.98405
-17.3625 -5.88253 2.98405
-17.3625 -3.45223 2.98405
-17.3625 -1.65503 2.98405
-17.3625 -1.01023 2.98405
-17.3375 -0.958827 2.98405
-16.1515 -0.941727 2.98405
-17.2625 -0.941727 2.98405
-9.89953 -0.941727 2.98405
-13.0205 -0.941727 2.98405
-8.81953 -0.941727 2.98405
-8.77353 -0.958827 2.98405
-8.75853 -1.01023 2.98405
-9.67053 -4.87053 2.89575
-9.67053 -3.45683 2.89575
-9.67053 -2.04073 2.89575
-9.67053 -1.53273 2.89575
-9.68253 -1.49223 2.89575
-10.5705 -1.47883 2.89575
-9.71853 -1.47883 2.89575
-15.4965 -1.47883 2.89575
-13.0295 -1.47883 2.89575
-16.3715 -1.47883 2.89575
-16.4305 -1.49223 2.89575
-16.4505 -2.04073 2.89575
-16.4505 -1.53273 2.89575
-16.4505 -4.87053 2.89575
-16.4505 -3.45683 2.89575
-16.4505 -5.37163 2.89575
-16.4505 -5.41163 2.89575
-16.4305 -5.46203 2.89575
-16.4505 -5.44243 2.89575
-15.4965 -5.46863 2.89575
-16.3715 -5.46863 2.89575
-13.0295 -5.46863 2.89575
-10.5705 -5.46863 2.89575
-9.71853 -5.46863 2.89575
-9.68253 -5.46203 2.89575
-9.67053 -5.41163 2.89575
-9.67053 -5.44243 2.89575
-9.67053 -5.37163 2.89575
-9.83053 -6.06123 2.79865
-8.72553 -6.06123 2.79865
-9.83053 -6.06123 2.23795
-8.72553 -6.06123 2.23795
-13.0205 -6.06123 2.23795
-13.0205 -6.06123 2.79865
-16.2195 -6.06123 2.79865
-16.2195 -6.06123 2.23795
-17.3545 -6.06123 2.23795
-17.3545 -6.06123 2.79865
-17.4315 -6.05273 2.79865
-17.4315 -6.05273 2.23795
-17.4575 -6.02733 2.23795
-17.4575 -6.02733 2.79865
-17.4575 -5.98743 2.79865
-17.4575 -5.98743 2.23795
-17.4575 -5.93543 2.23795
-17.4575 -5.93543 2.79865
-17.4575 -5.28553 2.79865
-17.4575 -5.28553 2.23795
-17.4575 -3.45183 2.23795
-17.4575 -3.45183 2.79865
-17.4575 -1.61503 2.79865
-17.4575 -1.61503 2.23795
-17.4575 -0.956127 2.23795
-17.4575 -0.956127 2.79865
-17.4315 -0.903627 2.79865
-17.4315 -0.903627 2.23795
-16.2195 -0.886127 2.79865
-16.2195 -0.886127 2.23795
-17.3545 -0.886127 2.23795
-17.3545 -0.886127 2.79865
-9.83053 -0.886127 2.79865
-9.83053 -0.886127 2.23795
-13.0205 -0.886127 2.23795
-13.0205 -0.886127 2.79865
-8.67953 -0.877427 2.79865
-8.67953 -0.877427 2.23795
-8.72553 -0.886127 2.23795
-8.72553 -0.886127 2.79865
-8.66353 -0.851327 2.23795
-8.66353 -0.851327 2.79865
-9.83053 -6.06123 0.673247
-8.72553 -6.06123 0.673247
-13.0205 -6.06123 0.673247
-16.2195 -6.06123 0.673247
-17.3545 -6.06123 0.673247
-17.4315 -6.05273 0.673247
-17.4575 -6.02733 0.673247
-17.4575 -5.98743 0.673247
-17.4575 -5.93543 0.673247
-17.4575 -5.28553 0.673247
-17.4575 -3.45183 0.673247
-17.4575 -1.61503 0.673247
-17.4575 -0.956127 0.673247
-17.4315 -0.903627 0.673247
-16.2195 -0.886127 0.673247
-17.3545 -0.886127 0.673247
-9.83053 -0.886127 0.673247
-13.0205 -0.886127 0.673247
-8.67953 -0.877427 0.673247
-8.72553 -0.886127 0.673247
3 0 1 2
3 0 2 3
3 2 4 5
3 2 5 3
3 5 6 7
3 5 7 3
3 7 8 0
3 7 0 3
3 9 10 11
3 9 11 12
3 11 13 14
3 11 14 12
3 15 16 17
3 15 17 18
3 17 19 20
3 17 20 18
3 20 21 22
3 20 22 18
3 22 23 15
3 22 15 18
3 24 25 26
3 24 26 27
3 26 28 29
3 26 29 27
3 30 31 32
3 30 32 33
3 32 34 35
3 32 35 33
3 36 37 38
3 39 40 41
3 39 41 42
3 41 43 44
3 41 44 42
3 44 45 46
3 44 46 42
3 46 47 39
3 46 39 42
3 48 49 50
3 48 50 51
3 50 52 53
3 50 53 51
3 53 54 55
3 53 55 51
3 55 56 48
3 55 48 51
3 57 58 59
3 58 60 61
3 58 61 59
3 61 62 63
3 61 63 59
3 63 64 57
3 63 57 59
3 65 66 67
3 65 67 68
3 67 69 70
3 67 70 68
3 70 16 15
3 70 15 68
3 15 23 65
3 15 65 68
3 71 72 73
3 71 73 74
3 73 75 76
3 73 76 74
3 76 77 78
3 76 78 74
3 78 79 71
3 78 71 74
3 80 81 82
3 80 82 83
3 82 84 85
3 82 85 83
3 85 86 87
3 85 87 83
3 87 88 80
3 87 80 83
3 89 90 91
3 89 91 92
3 91 93 94
3 91 94 92
3 94 95 96
3 94 96 92
3 96 97 89
3 96 89 92
3 98 37 36
3 98 36 99
3 36 100 99
3 100 47 46
3 100 46 99
3 46 45 98
3 46 98 99
3 70 69 101
3 70 101 102
3 101 79 78
3 101 78 102
3 78 77 103
3 78 103 102
3 103 16 70
3 103 70 102
3 17 16 103
3 17 103 104
3 103 77 76
3 103 76 104
3 76 75 105
3 76 105 104
3 105 19 17
3 105 17 104
3 106 88 87
3 106 87 107
3 87 86 108
3 87 108 107
3 108 109 110
3 108 110 107
3 110 111 106
3 110 106 107
3 112 56 55
3 112 55 113
3 55 54 114
3 55 114 113
3 114 115 116
3 114 116 113
3 116 117 112
3 116 112 113
3 5 4 118
3 5 118 119
3 118 120 121
3 118 121 119
3 121 122 123
3 121 123 119
3 123 6 5
3 123 5 119
3 35 34 124
3 35 124 125
3 124 25 24
3 124 24 125
3 126 127 128
3 126 128 129
3 128 130 131
3 128 131 129
3 131 132 133
3 131 133 129
3 133 134 126
3 133 126 129
3 135 136 137
3 135 137 138
3 137 139 140
3 137 140 138
3 140 97 96
3 140 96 138
3 96 95 135
3 96 135 138
3 141 142 143
3 141 143 144
3 143 136 135
3 143 135 144
3 135 95 94
3 135 94 144
3 94 93 141
3 94 141 144
3 145 60 58
3 14 13 146
3 14 146 147
3 146 148 149
3 146 149 147
3 150 151 152
3 150 152 153
3 152 154 155
3 152 155 153
3 155 156 157
3 155 157 153
3 157 158 150
3 157 150 153
3 159 160 161
3 159 161 162
3 161 163 164
3 161 164 162
3 164 165 166
3 164 166 162
3 166 167 159
3 166 159 162
3 168 169 170
3 168 170 171
3 170 172 173
3 170 173 171
3 173 165 164
3 173 164 171
3 164 163 168
3 164 168 171
3 174 175 176
3 174 176 177
3 176 151 150
3 176 150 177
3 150 158 178
3 150 178 177
3 178 179 174
3 178 174 177
3 180 181 182
3 180 182 183
3 182 179 178
3 182 178 183
3 178 158 157
3 178 157 183
3 157 156 180
3 157 180 183
3 184 185 186
3 184 186 187
3 186 8 7
3 186 7 187
3 7 6 188
3 7 188 187
3 188 189 184
3 188 184 187
3 190 189 188
3 190 188 191
3 188 6 123
3 188 123 191
3 123 122 192
3 123 192 191
3 192 193 190
3 192 190 191
3 194 193 192
3 194 192 195
3 192 122 121
3 192 121 195
3 121 120 196
3 121 196 195
3 196 197 194
3 196 194 195
3 198 199 200
3 198 200 201
3 200 202 203
3 200 203 201
3 203 117 116
3 203 116 201
3 116 115 198
3 116 198 201
3 204 205 206
3 204 206 207
3 206 111 110
3 206 110 207
3 110 109 208
3 110 208 207
3 208 209 204
3 208 204 207
3 210 211 212
3 210 212 213
3 212 209 208
3 212 208 213
3 208 109 108
3 208 108 213
3 108 86 210
3 108 210 213
3 214 211 210
3 214 210 215
3 210 86 85
3 210 85 215
3 85 84 216
3 85 216 215
3 216 217 214
3 216 214 215
3 218 219 220
3 218 220 221
3 220 132 131
3 220 131 221
3 131 130 222
3 131 222 221
3 222 223 218
3 222 218 221
3 224 225 226
3 224 226 227
3 226 223 222
3 226 222 227
3 222 130 128
3 222 128 227
3 128 127 224
3 128 224 227
3 149 148 228
3 149 228 229
3 228 31 30
3 228 30 229
3 186 185 230
3 186 230 231
3 230 181 180
3 230 180 231
3 180 156 232
3 180 232 231
3 232 8 186
3 232 186 231
3 155 154 233
3 155 233 234
3 233 1 0
3 233 0 234
3 0 8 232
3 0 232 234
3 232 156 155
3 232 155 234
3 50 49 235
3 50 235 236
3 235 160 159
3 235 159 236
3 159 167 237
3 159 237 236
3 237 52 50
3 237 50 236
3 82 81 238
3 82 238 239
3 238 134 133
3 238 133 239
3 133 132 240
3 133 240 239
3 240 84 82
3 240 82 239
3 241 217 216
3 241 216 242
3 216 84 240
3 216 240 242
3 240 132 220
3 240 220 242
3 220 219 241
3 220 241 242
3 243 23 22
3 243 22 244
3 22 21 245
3 22 245 244
3 245 139 137
3 245 137 244
3 137 136 243
3 137 243 244
3 246 66 65
3 246 65 247
3 65 23 243
3 65 243 247
3 243 136 143
3 243 143 247
3 143 142 246
3 143 246 247
3 248 249 250
3 248 250 251
3 250 252 253
3 250 253 251
3 253 254 255
3 253 255 251
3 255 256 248
3 255 248 251
3 257 258 259
3 257 259 260
3 259 256 255
3 259 255 260
3 255 254 261
3 255 261 260
3 261 262 257
3 261 257 260
3 263 258 257
3 263 257 264
3 257 262 265
3 257 265 264
3 265 266 267
3 265 267 264
3 267 268 263
3 267 263 264
3 269 268 267
3 269 267 270
3 267 266 271
3 267 271 270
3 271 272 273
3 271 273 270
3 273 274 269
3 273 269 270
3 275 274 273
3 275 273 276
3 273 272 277
3 273 277 276
3 277 278 279
3 277 279 276
3 279 280 275
3 279 275 276
3 281 280 279
3 281 279 282
3 279 278 283
3 279 283 282
3 283 284 285
3 283 285 282
3 285 286 281
3 285 281 282
3 287 288 289
3 287 289 290
3 289 291 292
3 289 292 290
3 292 293 294
3 292 294 290
3 294 295 287
3 294 287 290
3 296 297 298
3 296 298 299
3 298 295 294
3 298 294 299
3 294 293 300
3 294 300 299
3 300 301 296
3 300 296 299
3 302 303 304
3 302 304 305
3 304 297 296
3 304 296 305
3 296 301 306
3 296 306 305
3 306 307 302
3 306 302 305
3 308 303 302
3 308 302 309
3 302 307 310
3 302 310 309
3 310 311 312
3 310 312 309
3 312 313 308
3 312 308 309
3 314 313 312
3 314 312 315
3 312 311 316
3 312 316 315
3 316 317 318
3 316 318 315
3 318 319 314
3 318 314 315
3 320 321 322
3 320 322 323
3 322 319 318
3 322 318 323
3 318 317 324
3 318 324 323
3 324 325 320
3 324 320 323
3 326 197 196
3 326 196 327
3 196 120 328
3 196 328 327
3 328 329 330
3 328 330 327
3 330 331 326
3 330 326 327
3 29 28 332
3 29 332 333
3 332 334 335
3 332 335 333
3 336 337 338
3 336 338 339
3 338 10 9
3 338 9 339
3 176 175 340
3 176 340 341
3 340 342 343
3 340 343 341
3 343 344 345
3 343 345 341
3 345 151 176
3 345 176 341
3 152 151 345
3 152 345 346
3 345 344 347
3 345 347 346
3 347 348 349
3 347 349 346
3 349 154 152
3 349 152 346
3 233 154 349
3 233 349 350
3 349 348 351
3 349 351 350
3 351 352 353
3 351 353 350
3 353 1 233
3 353 233 350
3 2 1 353
3 2 353 354
3 353 352 355
3 353 355 354
3 355 356 357
3 355 357 354
3 357 4 2
3 357 2 354
3 118 4 357
3 118 357 358
3 357 356 359
3 357 359 358
3 359 329 328
3 359 328 358
3 328 120 118
3 328 118 358
3 360 361 362
3 360 362 363
3 362 364 365
3 362 365 363
3 365 117 203
3 365 203 363
3 203 202 360
3 203 360 363
3 366 367 368
3 366 368 369
3 368 370 371
3 368 371 369
3 371 40 39
3 371 39 369
3 39 47 366
3 39 366 369
3 372 367 366
3 372 366 373
3 57 64 374
3 57 374 375
3 374 376 377
3 374 377 375
3 378 379 380
3 378 380 381
3 380 169 168
3 380 168 381
3 168 163 382
3 168 382 381
3 382 383 378
3 382 378 381
3 384 383 382
3 384 382 385
3 382 163 161
3 382 161 385
3 161 160 386
3 161 386 385
3 386 387 384
3 386 384 385
3 388 387 386
3 388 386 389
3 386 160 235
3 386 235 389
3 235 49 390
3 235 390 389
3 390 391 388
3 390 388 389
3 392 391 390
3 392 390 393
3 390 49 48
3 390 48 393
3 48 56 394
3 48 394 393
3 394 395 392
3 394 392 393
3 396 395 394
3 396 394 397
3 394 56 112
3 394 112 397
3 112 117 365
3 112 365 397
3 365 364 396
3 365 396 397
3 398 205 204
3 398 204 399
3 204 209 400
3 204 400 399
3 400 75 73
3 400 73 399
3 73 72 398
3 73 398 399
3 401 19 105
3 401 105 402
3 105 75 400
3 105 400 402
3 400 209 212
3 400 212 402
3 212 211 401
3 212 401 402
3 20 19 401
3 20 401 403
3 401 211 214
3 401 214 403
3 214 217 404
3 214 404 403
3 404 21 20
3 404 20 403
3 245 21 404
3 245 404 405
3 404 217 241
3 404 241 405
3 241 219 406
3 241 406 405
3 406 139 245
3 406 245 405
3 140 139 406
3 140 406 407
3 406 219 218
3 406 218 407
3 218 223 408
3 218 408 407
3 408 97 140
3 408 140 407
3 226 225 409
3 226 409 410
3 409 90 89
3 409 89 410
3 89 97 408
3 89 408 410
3 408 223 226
3 408 226 410
3 411 286 285
3 411 285 412
3 285 284 413
3 285 413 412
3 413 291 289
3 413 289 412
3 289 288 411
3 289 411 412
3 414 64 63
3 414 63 415
3 63 62 416
3 63 416 415
3 416 172 170
3 416 170 415
3 170 169 414
3 170 414 415
3 417 376 374
3 417 374 418
3 374 64 414
3 374 414 418
3 414 169 380
3 414 380 418
3 380 379 417
3 380 417 418
3 419 10 338
3 419 338 420
3 338 337 421
3 338 421 420
3 421 342 340
3 421 340 420
3 340 175 419
3 340 419 420
3 11 10 419
3 11 419 422
3 419 175 174
3 419 174 422
3 174 179 423
3 174 423 422
3 423 13 11
3 423 11 422
3 424 148 146
3 424 146 425
3 146 13 423
3 146 423 425
3 423 179 182
3 423 182 425
3 182 181 424
3 182 424 425
3 426 31 228
3 426 228 427
3 228 148 424
3 228 424 427
3 424 181 230
3 424 230 427
3 230 185 426
3 230 426 427
3 32 31 426
3 32 426 428
3 426 185 184
3 426 184 428
3 184 189 429
3 184 429 428
3 429 34 32
3 429 32 428
3 124 34 429
3 124 429 430
3 429 189 190
3 429 190 430
3 190 193 431
3 190 431 430
3 431 25 124
3 431 124 430
3 26 25 431
3 26 431 432
3 431 193 194
3 431 194 432
3 194 197 433
3 194 433 432
3 433 28 26
3 433 26 432
3 332 28 433
3 332 433 434
3 433 197 326
3 433 326 434
3 326 331 435
3 326 435 434
3 435 334 332
3 435 332 434
3 371 370 436
3 371 436 437
3 436 361 360
3 436 360 437
3 360 202 438
3 360 438 437
3 438 40 371
3 438 371 437
3 41 40 438
3 41 438 439
3 438 202 200
3 438 200 439
3 200 199 440
3 200 440 439
3 440 43 41
3 440 41 439
3 250 249 441
3 250 441 442
3 441 321 320
3 441 320 442
3 320 325 443
3 320 443 442
3 443 252 250
3 443 250 442
3 38 37 444
3 38 444 445
3 444 258 263
3 444 263 445
3 263 268 446
3 263 446 445
3 446 447 38
3 446 38 445
3 448 447 446
3 448 446 449
3 446 268 269
3 446 269 449
3 269 274 450
3 269 450 449
3 450 451 448
3 450 448 449
3 145 451 450
3 145 450 452
3 450 274 275
3 450 275 452
3 275 280 453
3 275 453 452
3 453 60 145
3 453 145 452
3 61 60 453
3 61 453 454
3 453 280 281
3 453 281 454
3 281 286 455
3 281 455 454
3 455 62 61
3 455 61 454
3 416 62 455
3 416 455 456
3 455 286 411
3 455 411 456
3 411 288 457
3 411 457 456
3 457 172 416
3 457 416 456
3 173 172 457
3 173 457 458
3 457 288 287
3 457 287 458
3 287 295 459
3 287 459 458
3 459 165 173
3 459 173 458
3 460 167 166
3 460 166 461
3 166 165 459
3 166 459 461
3 459 295 298
3 459 298 461
3 298 297 460
3 298 460 461
3 462 52 237
3 462 237 463
3 237 167 460
3 237 460 463
3 460 297 304
3 460 304 463
3 304 303 462
3 304 462 463
3 53 52 462
3 53 462 464
3 462 303 308
3 462 308 464
3 308 313 465
3 308 465 464
3 465 54 53
3 465 53 464
3 114 54 465
3 114 465 466
3 465 313 314
3 465 314 466
3 314 319 467
3 314 467 466
3 467 115 114
3 467 114 466
3 322 321 468
3 322 468 469
3 468 199 198
3 468 198 469
3 198 115 467
3 198 467 469
3 467 319 322
3 467 322 469
3 470 43 440
3 470 440 471
3 440 199 468
3 440 468 471
3 468 321 441
3 468 441 471
3 441 249 470
3 441 470 471
3 44 43 470
3 44 470 472
3 470 249 248
3 470 248 472
3 248 256 473
3 248 473 472
3 473 45 44
3 473 44 472
3 444 37 98
3 444 98 474
3 98 45 473
3 98 473 474
3 473 256 259
3 473 259 474
3 259 258 444
3 259 444 474
3 475 266 265
3 475 265 476
3 265 262 477
3 265 477 476
3 477 69 67
3 477 67 476
3 67 66 475
3 67 475 476
3 101 69 477
3 101 477 478
3 477 262 261
3 477 261 478
3 261 254 479
3 261 479 478
3 479 79 101
3 479 101 478
3 253 252 480
3 253 480 481
3 480 72 71
3 480 71 481
3 71 79 479
3 71 479 481
3 479 254 253
3 479 253 481
3 443 325 482
3 443 482 483
3 482 205 398
3 482 398 483
3 398 72 480
3 398 480 483
3 480 252 443
3 480 443 483
3 206 205 482
3 206 482 484
3 482 325 324
3 482 324 484
3 324 317 485
3 324 485 484
3 485 111 206
3 485 206 484
3 316 311 486
3 316 486 487
3 486 88 106
3 486 106 487
3 106 111 485
3 106 485 487
3 485 317 316
3 485 316 487
3 310 307 488
3 310 488 489
3 488 81 80
3 488 80 489
3 80 88 486
3 80 486 489
3 486 311 310
3 486 310 489
3 238 81 488
3 238 488 490
3 488 307 306
3 488 306 490
3 306 301 491
3 306 491 490
3 491 134 238
3 491 238 490
3 300 293 492
3 300 492 493
3 492 127 126
3 492 126 493
3 126 134 491
3 126 491 493
3 491 301 300
3 491 300 493
3 292 291 494
3 292 494 495
3 494 225 224
3 494 224 495
3 224 127 492
3 224 492 495
3 492 293 292
3 492 292 495
3 409 225 494
3 409 494 496
3 494 291 413
3 494 413 496
3 413 284 497
3 413 497 496
3 497 90 409
3 497 409 496
3 91 90 497
3 91 497 498
3 497 284 283
3 497 283 498
3 283 278 499
3 283 499 498
3 499 93 91
3 499 91 498
3 277 272 500
3 277 500 501
3 500 142 141
3 500 141 501
3 141 93 499
3 141 499 501
3 499 278 277
3 499 277 501
3 271 266 475
3 271 475 502
3 475 66 246
3 475 246 502
3 246 142 500
3 246 500 502
3 500 272 271
3 500 271 502
3 377 376 503
3 377 503 504
3 503 505 506
3 503 506 504
3 507 505 503
3 507 503 508
3 503 376 417
3 503 417 508
3 417 379 509
3 417 509 508
3 509 510 507
3 509 507 508
3 511 510 509
3 511 509 512
3 509 379 378
3 509 378 512
3 378 383 513
3 378 513 512
3 513 514 511
3 513 511 512
3 515 514 513
3 515 513 516
3 513 383 384
3 513 384 516
3 384 387 517
3 384 517 516
3 517 518 515
3 517 515 516
3 519 518 517
3 519 517 520
3 517 387 388
3 517 388 520
3 388 391 521
3 388 521 520
3 521 522 519
3 521 519 520
3 523 522 521
3 523 521 524
3 521 391 392
3 521 392 524
3 392 395 525
3 392 525 524
3 525 526 523
3 525 523 524
3 527 526 525
3 527 525 528
3 525 395 396
3 525 396 528
3 396 364 529
3 396 529 528
3 529 530 527
3 529 527 528
3 531 532 533
3 531 533 534
3 533 530 529
3 533 529 534
3 529 364 362
3 529 362 534
3 362 361 531
3 362 531 534
3 535 536 537
3 535 537 538
3 537 532 531
3 537 531 538
3 531 361 436
3 531 436 538
3 436 370 535
3 436 535 538
3 539 540 541
3 539 541 542
3 541 536 535
3 541 535 542
3 535 370 368
3 535 368 542
3 368 367 539
3 368 539 542
3 543 540 539
3 543 539 544
3 539 367 372
3 539 372 544
3 506 505 545
3 506 545 546
3 545 337 336
3 545 336 546
3 421 337 545
3 421 545 547
3 545 505 507
3 545 507 547
3 507 510 548
3 507 548 547
3 548 342 421
3 548 421 547
3 343 342 548
3 343 548 549
3 548 510 511
3 548 511 549
3 511 514 550
3 511 550 549
3 550 344 343
3 550 343 549
3 347 344 550
3 347 550 551
3 550 514 515
3 550 515 551
3 515 518 552
3 515 552 551
3 552 348 347
3 552 347 551
3 351 348 552
3 351 552 553
3 552 518 519
3 552 519 553
3 519 522 554
3 519 554 553
3 554 352 351
3 554 351 553
3 355 352 554
3 355 554 555
3 554 522 523
3 554 523 555
3 523 526 556
3 523 556 555
3 556 356 355
3 556 355 555
3 359 356 556
3 359 556 557
3 556 526 527
3 556 527 557
3 527 530 558
3 527 558 557
3 558 329 359
3 558 359 557
3 559 331 330
3 559 330 560
3 330 329 558
3 330 558 560
3 558 530 533
3 558 533 560
3 533 532 559
3 533 559 560
3 561 334 435
3 561 435 562
3 435 331 559
3 435 559 562
3 559 532 537
3 559 537 562
3 537 536 561
3 537 561 562
3 563 335 564
3 335 334 561
3 335 561 564
3 561 536 541
3 561 541 564
3 541 540 563
3 541 563 564
3 563 540 543
