0.0172222
0.0270477
0.020863
0.0124822
0.00176861
0.00509419
0.0261442
0.0102102
0.0122988
0.0193968
0.0176315
0.0120095
0.000413609
0.00300076
0.0240751
0.0120958
0.0282032
0.0171203
0.0202189
0.0182931
0.00341374
0.00793593
0.0261401
0.0232807
0.018668
0.0132083
0.0207538
0.0172147
0.00207089
0.00589022
0.0184237
0.015633
0.0808972
0.0698973
0.078426
0.057441
0.0858056
0.0698451
0.0487902
0.0599539
0.0570195
0.0543129
0.0721717
0.060594
0.0505852
0.0506689
0.0817216
0.0637978
0.0954148
0.0578804
0.0540494
0.0591821
0.1873
0.179237
0.164879
0.0918833
0.0662967
0.119202
0.169757
0.0818716
0.0877714
0.0778525
0.0801725
0.0926064
0.0922949
0.0945218
0.0738307
0.07533
0.10434
0.0909918
0.0948774
0.0815321
0.0700691
0.0774443
0.0925242
0.0883687
0.0808005
0.0820703
0.0941331
0.0882425
0.0924438
0.0934497
0.0953842
0.0904541
0.0797511
0.0864057
0.201197
0.20306
0.13172
0.179256
0.10752
0.0956756
0.208547
0.0911346
0.0621253
0.0499942
0.0343264
0.0367879
0.0505346
0.0366548
0.069594
0.0535688
0.0685073
0.0636229
0.0560796
0.0480769
0.0754495
0.0552296
0.0464341
0.0690601
0.144246
0.126816
0.198837
0.17871
0.0449278
0.071867
0.0641082
0.0588669
0.18205
0.130528
0.152623
0.140331
0.118807
0.142002
0.14767
0.169053
0.07107
0.0835263
0.0929953
0.0980474
0.140402
0.118779
0.110913
0.0974314
0.075699
0.0865179
0.154294
0.112629
0.118243
0.114262
0.097792
0.102492
0.146553
0.146926
0.150135
0.149763
0.120214
0.132924
0.105822
0.115983
0.158439
0.235316
0.121224
0.183563
0.181103
0.127928
0.161883
0.182999
0.156952
0.168899
0.163862
0.172445
0.160216
0.344264
0.108989
0.256924
0.203982
0.161703
0.176549
0.190895
0.150701
0.127512
0.17943
0.134325
0.108102
0.167042
0.2537
0.406951
0.216774
0.291645
0.182153
0.160221
0.125094
0.118266
0.200721
0.184019
0.149963
0.254416
0.11679
0.127725
0.135295
0.175821
0.129639
0.153827
0.176556
0.14254
0.157993
0.155401
0.177155
0.151537
0.163669
0.1947
0.124508
0.167923
0.118596
0.14482
0.117535
0.179218
0.114264
0.167934
0.168891
0.1257
0.206917
0.123795
0.13855
0.127611
0.111238
0.147113
0.177111
0.196876
0.123706
0.125903
0.130576
0.138979
0.121522
0.152033
0.33905
0.131393
0.120899
0.170541
0.175011
0.179385
0.264982
0.177514
0.109226
0.119166
0.183462
0.173524
0.108599
0.18161
0.245214
0.164995
0.158809
0.24118
0.175762
0.116289
0.208297
0.18883
0.141799
0.218118
0.127188
0.179287
0.148821
0.104909
0.172839
0.135266
0.182164
0.124588
0.146422
0.160028
0.129603
0.157743
0.157562
0.16753
0.18754
0.124794
0.162956
0.123943
0.176202
0.142443
0.185461
0.108857
0.156713
0.128219
0.135476
0.302888
0.110972
0.195275
0.150879
0.0876894
0.0851812
0.140553
0.103563
0.142063
0.11685
0.0853773
0.0181054
0.0211553
0.0118594
0.0217745
0.0335194
0.0305527
0.0522494
0.027281
0.0322383
0.0166709
0.0306198
0.104572
0.0955608
0.0721998
0.0283278
0.014609
0.10706
0.115768
0.171382
0.159531
0.104884
0.0913296
0.0934414
0.130998
0.154423
0.0996391
0.046528
0.121928
0.0662843
0.116215
0.138062
0.0901934
0.0300221
0.0542905
0.0249903
0.0452957
0.0836896
0.0406859
0.105906
0.036531
0.0221741
0.0515587
0.0870868
0.0461084
0.0716795
0.0434064
0.0250887
0.0335987
0.146666
0.106956
0.150653
0.0985085
0.0698099
0.112173
0.0623249
0.116274
0.148453
0.13755
0.157184
0.0773772
0.0646762
0.157195
0.102363
0.1531
0.0329689
0.0232208
0.0100322
0.0233065
0.0434236
0.0773435
0.0433654
0.0571775
0.025009
0.0218045
0.105743
0.0347064
0.119265
0.0951544
0.0300005
0.0259913
0.10236
0.132612
0.125049
0.115242
0.115663
0.128233
0.0820394
0.142866
0.110263
0.156408
0.0931506
0.0767985
0.115491
0.088149
0.101572
0.16763
0.0248093
0.0253048
0.042077
0.0313302
0.0519442
0.0837792
0.0405571
0.0648579
0.0337869
0.029779
0.0466861
0.104033
0.0548608
0.0769115
0.0434732
0.0349034
0.100232
0.154334
0.101685
0.141063
0.143797
0.0850436
0.110238
0.0815674
0.0714957
0.0648083
0.090822
0.0701075
0.0726148
0.121568
0.0627928
0.0615483
0.095739
0.128022
0.145782
0.0860715
0.154423
0.109999
0.205935
0.0832303
0.104743
0.10263
0.108957
0.0918842
0.134064
0.111694
0.152903
0.122707
0.0996564
0.0574326
0.0787725
0.0548342
0.0972889
0.117986
0.0763932
0.103373
0.0896272
0.0767327
0.0663482
0.0953775
0.0894013
0.13243
0.0916028
0.0747363
0.086294
0.0790286
0.140334
0.110183
0.0978913
0.121232
0.0962313
0.0972981
0.161588
0.130107
0.0872882
0.0961248
0.120075
0.104601
0.145379
0.116008
0.0779291
0.0987683
0.095495
0.0995131
0.0899652
0.116092
0.0881955
0.097426
0.0683343
0.0627997
0.0573828
0.0819274
0.0834799
0.088942
0.0245725
0.0693497
0.177694
0.137671
0.184862
0.102499
0.0869452
0.101246
0.106906
0.131138
0.116596
0.180054
0.0887242
0.0830532
0.108557
0.10837
0.198785
0.183175
0.0537097
0.068541
0.0828839
0.0672492
0.0523564
0.108667
0.0487174
0.0566708
0.0702004
0.0779626
0.0896243
0.0889355
0.0865428
0.0732666
0.086441
0.0830563
0.0932064
0.115745
0.108611
0.144035
0.141086
0.0895577
0.0868223
0.112968
0.107585
0.132746
0.174192
0.112246
0.104124
0.123368
0.108032
0.120835
0.0792501
0.0859568
0.0908553
0.0909505
0.0991718
0.0925671
0.0927493
0.0829538
0.732756
0.112037
0.0494732
0.0139334
0.00468324
0
0.10821
0.0428216
0.0659074
0.0995064
0.142303
1
