OFF
343 664 0
-13.5278 3.46817 2.47695
-13.5278 5.02447 2.47695
-13.5278 5.02447 1.49294
-13.5278 3.46817 1.49294
-13.5278 5.02447 0.78105
-13.5278 3.46817 0.78105
-13.5041 1.92387 0.78105
-13.5041 1.92387 1.49294
-13.5041 1.92387 2.47695
-9.13477 1.40907 2.47695
-9.72477 1.40907 2.47695
-9.72477 1.40907 1.49294
-9.13477 1.40907 1.49294
-9.72477 1.40907 0.78105
-9.13477 1.40907 0.78105
-9.05337 1.59827 0.94135
-9.05337 1.59827 1.58931
-9.05337 1.59827 2.48495
-9.84267 3.48507 5.20227
-9.84267 4.49057 5.20227
-9.98947 4.42327 5.25851
-9.98947 3.48717 5.25851
-10.3444 4.42327 5.25851
-10.3444 3.48717 5.25851
-10.2751 2.46437 5.20227
-9.89387 2.46437 5.20227
-9.77887 2.67297 5.15854
-9.13477 5.62267 2.47695
-9.05337 5.43347 2.48495
-9.05337 5.43347 1.58931
-9.13477 5.62267 1.49294
-9.05337 5.43347 0.94135
-9.13477 5.62267 0.78105
-9.72477 5.62267 0.78105
-9.72477 5.62267 1.49294
-9.72477 5.62267 2.47695
-9.05337 3.47247 0.60092
-9.05337 2.06677 0.61958
-9.13477 1.92387 0.42754
-9.13477 3.46817 0.40703
-9.72477 1.92387 0.42754
-9.72477 3.46817 0.40703
-9.72477 5.02447 0.40703
-9.13477 5.02447 0.40703
-9.05337 4.88907 0.60092
-9.03937 3.47277 4.56579
-9.03937 4.88117 4.56579
-9.07847 4.99287 4.78224
-9.07847 3.46917 4.78224
-9.21407 4.90197 4.85828
-9.21407 3.47207 4.85828
-9.23777 2.05317 4.85828
-9.10377 1.95717 4.78224
-9.05297 1.83537 4.46374
-9.14597 5.61167 4.46981
-9.73297 5.61167 4.46981
-9.75737 5.57857 4.78224
-9.17967 5.57857 4.78224
-9.85107 5.45157 4.85828
-9.30897 5.45157 4.85828
-9.23777 5.44067 4.85828
-9.10377 5.56697 4.78224
-9.05297 5.48767 4.46374
-13.516 3.46847 4.46981
-13.4925 1.93217 4.46981
-13.4576 1.95717 4.78224
-13.4807 3.46917 4.78224
-13.3234 2.05317 4.85828
-13.3452 3.47207 4.85828
-13.3452 4.90197 4.85828
-13.4807 4.99287 4.78224
-13.516 5.01657 4.46981
-9.14597 1.42007 4.46981
-9.17967 1.45317 4.78224
-9.30897 1.58017 4.85828
-9.85107 1.58017 4.85828
-9.75737 1.45317 4.78224
-9.73297 1.42007 4.46981
-9.05337 1.59827 3.49377
-9.13477 1.40907 3.58531
-9.72477 1.40907 3.58531
-13.5278 5.02447 3.58531
-13.5278 3.46817 3.58531
-13.5041 1.92387 3.58531
-9.72477 5.62267 3.58531
-9.13477 5.62267 3.58531
-9.05337 5.43347 3.49377
-12.8498 5.62267 3.58531
-12.8415 5.61167 4.46981
-11.2884 5.61167 4.46981
-11.2884 5.62267 3.58531
-11.2884 5.62267 2.47695
-12.8498 5.62267 2.47695
-11.2882 5.57857 4.78224
-12.8169 5.57857 4.78224
-12.7222 5.45157 4.85828
-11.2877 5.45157 4.85828
-11.2849 4.42327 5.25851
-11.2849 3.48717 5.25851
-12.224 4.42327 5.25851
-12.224 3.48717 5.25851
-12.294 2.46437 5.20227
-11.2853 2.46437 5.20227
-11.2884 1.42007 4.46981
-11.2882 1.45317 4.78224
-11.2877 1.58017 4.85828
-12.7222 1.58017 4.85828
-12.8169 1.45317 4.78224
-12.8415 1.42007 4.46981
-12.8498 1.40907 3.58531
-11.2884 1.40907 3.58531
-12.8498 1.40907 2.47695
-11.2884 1.40907 2.47695
-12.8498 1.40907 1.49294
-11.2884 1.40907 1.49294
-12.8498 1.40907 0.78105
-11.2884 1.40907 0.78105
-11.2884 1.92387 0.42754
-11.2884 3.46817 0.40703
-12.8498 1.92387 0.42754
-12.8498 3.46817 0.40703
-12.8498 5.02447 0.40703
-11.2884 5.02447 0.40703
-11.2884 5.62267 1.49294
-11.2884 5.62267 0.78105
-12.8498 5.62267 0.78105
-12.8498 5.62267 1.49294
-10.0672 5.15877 5.03358
-11.2865 5.15877 5.03358
-12.504 5.15877 5.03358
-12.294 4.86987 5.20227
-11.2853 4.86987 5.20227
-10.2751 4.86987 5.20227
-9.60707 5.15877 5.03358
-9.89387 4.86987 5.20227
-9.77887 4.93637 5.15854
-9.54657 5.14947 5.03358
-9.52647 4.69227 5.03358
-9.52647 3.47867 5.03358
-9.54657 2.27437 5.03358
-9.60707 1.87297 5.03358
-10.0672 1.87297 5.03358
-11.2865 1.87297 5.03358
-12.504 1.87297 5.03358
-13.0143 2.27437 5.03358
-13.0327 3.47867 5.03358
-12.7829 2.67297 5.15854
-12.7178 3.48507 5.20227
-12.7178 4.49057 5.20227
-13.0327 4.69227 5.03358
-9.05337 5.43347 0.67559
-9.13477 5.62267 0.48906
-9.05337 5.42267 0.61958
-9.13477 5.61077 0.42754
-9.72477 5.61077 0.42754
-9.72477 5.62267 0.48906
-11.2884 5.62267 0.48906
-11.2884 5.61077 0.42754
-12.8498 5.61077 0.42754
-12.8498 5.62267 0.48906
-13.5278 5.02447 0.48906
-13.5278 3.46817 0.48906
-13.5041 5.02447 0.42754
-13.5041 3.46817 0.42754
-13.4857 2.32427 0.44349
-13.5041 1.92387 0.48906
-12.8498 1.40907 0.48906
-11.2884 1.40907 0.48906
-9.72477 1.40907 0.48906
-9.13477 1.40907 0.48906
-9.05337 1.59827 0.67559
-9.03937 5.37937 4.56579
-9.07847 5.53197 4.78224
-9.21407 5.40777 4.85828
-9.52647 5.12167 5.03358
-9.84267 4.84627 5.20227
-9.98947 4.75447 5.25851
-10.3444 4.75447 5.25851
-11.2849 4.75447 5.25851
-12.224 4.75447 5.25851
-13.3452 5.40777 4.85828
-13.0327 5.12167 5.03358
-12.7178 4.84627 5.20227
-12.7829 4.93637 5.15854
-13.0143 5.14947 5.03358
-13.3234 5.44067 4.85828
-13.516 5.56427 4.46981
-13.4807 5.53197 4.78224
-13.4576 5.56697 4.78224
-13.4925 5.59987 4.46981
-13.5278 5.57507 3.58531
-13.5041 5.61077 3.58531
-13.5041 5.61077 2.47695
-13.5278 5.57507 2.47695
-13.5278 5.57507 1.49294
-13.5041 5.61077 1.49294
-13.5041 5.61077 0.78105
-13.5278 5.57507 0.78105
-13.5278 5.57507 0.48906
-13.5041 5.61077 0.48906
-13.4857 5.60157 0.44349
-13.5041 5.57507 0.42754
-9.72477 5.57507 0.40703
-11.2884 5.57507 0.40703
-12.8498 5.57507 0.40703
-9.05337 5.39017 0.60092
-9.13477 5.57507 0.40703
-5.99917 4.43997 2.46787
-5.99917 4.45597 2.33654
-6.00947 4.45207 2.33672
-6.00947 4.43607 2.46749
-6.39187 4.40777 2.43434
-6.39187 4.39257 2.55893
-6.39187 4.15817 2.55893
-6.00947 4.19007 2.46749
-5.99917 4.19287 2.46787
-5.99917 3.49447 2.46787
-6.00947 3.49457 2.46749
-6.39187 3.49557 2.55893
-6.39187 2.83807 2.43434
-6.00947 2.80437 2.33672
-6.39187 2.61887 2.06058
-6.00947 2.57437 1.9444
-6.39187 2.61887 1.5887
-6.00947 2.57437 1.4491
-6.39187 2.61887 1.16976
-6.00947 2.57437 1.00936
-6.39187 2.61887 0.86667
-6.00947 2.57437 0.69123
-6.39187 2.61887 0.74236
-6.00947 2.57437 0.56074
-6.39187 2.83807 0.71617
-6.00947 2.80437 0.53325
-6.39187 3.49557 0.70744
-6.00947 3.49457 0.52408
-6.39187 4.15817 0.70744
-6.00947 4.19007 0.52408
-6.39187 4.39257 0.70744
-6.00947 4.43607 0.52408
-6.39187 4.40777 0.71617
-6.00947 4.45207 0.53325
-6.39187 4.41287 0.74236
-6.00947 4.45737 0.56074
-6.39187 4.41287 0.86667
-6.00947 4.45737 0.69123
-6.39187 4.41287 1.16976
-6.00947 4.45737 1.00936
-6.39187 4.41287 1.5887
-6.00947 4.45737 1.4491
-5.99917 4.46137 1.94257
-6.00947 4.45737 1.9444
-6.39187 4.41287 2.06058
-8.63237 4.34167 1.61797
-8.63237 4.33697 1.59385
-9.01607 4.85827 1.19573
-9.01607 4.86587 1.23515
-9.01607 4.86587 1.42225
-8.63237 4.34167 1.73241
-8.63237 4.34167 2.01143
-9.01607 4.86587 1.87842
-9.01607 4.86587 2.50896
-8.63237 4.34167 2.39711
-8.63237 4.34167 2.83152
-9.01607 4.86587 3.21918
-9.01607 4.85827 3.78172
-8.63237 4.33697 3.1756
-9.01607 4.48257 3.96923
-8.63237 4.10717 3.2903
-8.63237 4.32297 3.2903
-9.01607 4.83537 3.96923
-8.63237 3.49717 3.2903
-9.01607 3.48537 3.96923
-9.01607 2.49567 3.78172
-8.63237 2.89187 3.1756
-8.63237 2.69007 2.83152
-9.01607 2.16587 3.21918
-9.01607 2.16587 2.50896
-8.63237 2.69007 2.39711
-8.63237 2.69007 2.01143
-9.01607 2.16587 1.87842
-9.01607 2.16587 1.42225
-8.63237 2.69007 1.73241
-8.63237 2.69007 1.61797
-9.01607 2.16587 1.23515
-9.01607 2.49567 1.19573
-8.63237 2.89187 1.59385
-8.63237 3.49717 1.58581
-9.01607 3.48537 1.18259
-9.01607 4.48257 1.18259
-8.63237 4.10717 1.58581
-8.63237 4.32297 1.58581
-9.01607 4.83537 1.18259
-5.99557 4.19917 2.47552
-5.99557 4.46467 2.34299
-5.99557 4.44847 2.47552
-7.51187 4.06477 2.8267
-7.51187 3.49857 2.8267
-7.51187 2.93657 2.72022
-7.51187 2.74927 2.4008
-7.51187 2.74927 1.99753
-7.51187 2.74927 1.6395
-7.51187 2.74927 1.38048
-7.51187 2.74927 1.27424
-7.51187 2.93657 1.25185
-7.51187 3.49857 1.24439
-7.51187 4.06477 1.24439
-7.51187 4.26507 1.24439
-7.51187 4.27807 1.25185
-7.51187 4.28247 1.27424
-7.51187 4.28247 1.38048
-7.51187 4.28247 1.6395
-7.51187 4.28247 1.99753
-7.51187 4.27807 2.72022
-7.51187 4.28247 2.4008
-7.51187 4.26507 2.8267
-13.2583 1.58017 4.85828
-12.959 1.87297 5.03358
-12.671 2.46437 5.20227
-13.422 1.42007 4.46981
-13.3881 1.45317 4.78224
-13.4332 1.40907 3.58531
-13.4332 1.40907 2.47695
-13.4332 1.40907 1.49294
-13.4332 1.40907 0.78105
-13.4332 1.40907 0.48906
-13.4332 1.92387 0.42754
-13.4332 3.46817 0.40703
-13.4332 5.02447 0.40703
-13.4332 5.57507 0.40703
-13.4332 5.61077 0.42754
-13.4332 5.62267 0.78105
-13.4332 5.62267 0.48906
-13.4332 5.62267 2.47695
-13.4332 5.62267 1.49294
-13.422 5.61167 4.46981
-13.4332 5.62267 3.58531
-13.3881 5.57857 4.78224
-13.2583 5.45157 4.85828
-12.959 5.15877 5.03358
-12.671 4.86987 5.20227
-12.575 4.42327 5.25851
-12.575 4.75447 5.25851
-12.575 3.48717 5.25851
3 0 1 2
3 0 2 3
3 2 4 5
3 2 5 3
3 5 6 7
3 5 7 3
3 7 8 0
3 7 0 3
3 9 10 11
3 9 11 12
3 11 13 14
3 11 14 12
3 14 15 16
3 14 16 12
3 16 17 9
3 16 9 12
3 18 19 20
3 18 20 21
3 20 22 23
3 20 23 21
3 23 24 25
3 23 25 21
3 25 26 18
3 25 18 21
3 27 28 29
3 27 29 30
3 29 31 32
3 29 32 30
3 32 33 34
3 32 34 30
3 34 35 27
3 34 27 30
3 36 37 38
3 36 38 39
3 38 40 41
3 38 41 39
3 41 42 43
3 41 43 39
3 43 44 36
3 43 36 39
3 45 46 47
3 45 47 48
3 47 49 50
3 47 50 48
3 50 51 52
3 50 52 48
3 52 53 45
3 52 45 48
3 54 55 56
3 54 56 57
3 56 58 59
3 56 59 57
3 59 60 61
3 59 61 57
3 61 62 54
3 61 54 57
3 63 64 65
3 63 65 66
3 65 67 68
3 65 68 66
3 68 69 70
3 68 70 66
3 70 71 63
3 70 63 66
3 72 53 52
3 72 52 73
3 52 51 74
3 52 74 73
3 74 75 76
3 74 76 73
3 76 77 72
3 76 72 73
3 78 53 72
3 78 72 79
3 72 77 80
3 72 80 79
3 80 10 9
3 80 9 79
3 9 17 78
3 9 78 79
3 63 71 81
3 63 81 82
3 81 1 0
3 81 0 82
3 0 8 83
3 0 83 82
3 83 64 63
3 83 63 82
3 84 55 54
3 84 54 85
3 54 62 86
3 54 86 85
3 86 28 27
3 86 27 85
3 27 35 84
3 27 84 85
3 87 88 89
3 87 89 90
3 89 55 84
3 89 84 90
3 84 35 91
3 84 91 90
3 91 92 87
3 91 87 90
3 56 55 89
3 56 89 93
3 89 88 94
3 89 94 93
3 94 95 96
3 94 96 93
3 96 58 56
3 96 56 93
3 23 22 97
3 23 97 98
3 97 99 100
3 97 100 98
3 100 101 102
3 100 102 98
3 102 24 23
3 102 23 98
3 103 77 76
3 103 76 104
3 76 75 105
3 76 105 104
3 105 106 107
3 105 107 104
3 107 108 103
3 107 103 104
3 103 108 109
3 103 109 110
3 109 111 112
3 109 112 110
3 112 10 80
3 112 80 110
3 80 77 103
3 80 103 110
3 112 111 113
3 112 113 114
3 113 115 116
3 113 116 114
3 116 13 11
3 116 11 114
3 11 10 112
3 11 112 114
3 41 40 117
3 41 117 118
3 117 119 120
3 117 120 118
3 120 121 122
3 120 122 118
3 122 42 41
3 122 41 118
3 91 35 34
3 91 34 123
3 34 33 124
3 34 124 123
3 124 125 126
3 124 126 123
3 126 92 91
3 126 91 123
3 127 58 96
3 127 96 128
3 96 95 129
3 96 129 128
3 129 130 131
3 129 131 128
3 131 132 127
3 131 127 128
3 59 58 127
3 59 127 133
3 127 132 134
3 127 134 133
3 134 135 136
3 134 136 133
3 136 60 59
3 136 59 133
3 50 49 137
3 50 137 138
3 137 19 18
3 137 18 138
3 18 26 139
3 18 139 138
3 139 51 50
3 139 50 138
3 74 51 139
3 74 139 140
3 139 26 25
3 139 25 140
3 25 24 141
3 25 141 140
3 141 75 74
3 141 74 140
3 105 75 141
3 105 141 142
3 141 24 102
3 141 102 142
3 102 101 143
3 102 143 142
3 143 106 105
3 143 105 142
3 68 67 144
3 68 144 145
3 144 146 147
3 144 147 145
3 147 148 149
3 147 149 145
3 149 69 68
3 149 68 145
3 32 31 150
3 32 150 151
3 150 152 153
3 150 153 151
3 153 154 155
3 153 155 151
3 155 33 32
3 155 32 151
3 124 33 155
3 124 155 156
3 155 154 157
3 155 157 156
3 157 158 159
3 157 159 156
3 159 125 124
3 159 124 156
3 5 4 160
3 5 160 161
3 160 162 163
3 160 163 161
3 163 164 165
3 163 165 161
3 165 6 5
3 165 5 161
3 116 115 166
3 116 166 167
3 166 119 117
3 166 117 167
3 117 40 168
3 117 168 167
3 168 13 116
3 168 116 167
3 14 13 168
3 14 168 169
3 168 40 38
3 168 38 169
3 38 37 170
3 38 170 169
3 170 15 14
3 170 14 169
3 47 46 171
3 47 171 172
3 171 62 61
3 171 61 172
3 61 60 173
3 61 173 172
3 173 49 47
3 173 47 172
3 137 49 173
3 137 173 174
3 173 60 136
3 173 136 174
3 136 135 175
3 136 175 174
3 175 19 137
3 175 137 174
3 20 19 175
3 20 175 176
3 175 135 134
3 175 134 176
3 134 132 177
3 134 177 176
3 177 22 20
3 177 20 176
3 97 22 177
3 97 177 178
3 177 132 131
3 177 131 178
3 131 130 179
3 131 179 178
3 179 99 97
3 179 97 178
3 180 69 149
3 180 149 181
3 149 148 182
3 149 182 181
3 182 183 184
3 182 184 181
3 184 185 180
3 184 180 181
3 186 71 70
3 186 70 187
3 70 69 180
3 70 180 187
3 180 185 188
3 180 188 187
3 188 189 186
3 188 186 187
3 81 71 186
3 81 186 190
3 186 189 191
3 186 191 190
3 191 192 193
3 191 193 190
3 193 1 81
3 193 81 190
3 2 1 193
3 2 193 194
3 193 192 195
3 193 195 194
3 195 196 197
3 195 197 194
3 197 4 2
3 197 2 194
3 160 4 197
3 160 197 198
3 197 196 199
3 197 199 198
3 199 200 201
3 199 201 198
3 201 162 160
3 201 160 198
3 202 42 122
3 202 122 203
3 122 121 204
3 122 204 203
3 204 158 157
3 204 157 203
3 157 154 202
3 157 202 203
3 205 44 43
3 205 43 206
3 43 42 202
3 43 202 206
3 202 154 153
3 202 153 206
3 153 152 205
3 153 205 206
3 207 208 209
3 207 209 210
3 209 211 212
3 209 212 210
3 212 213 214
3 212 214 210
3 214 215 207
3 214 207 210
3 216 215 214
3 216 214 217
3 214 213 218
3 214 218 217
3 218 219 220
3 218 220 217
3 220 216 217
3 220 219 221
3 220 221 222
3 221 223 224
3 221 224 222
3 224 223 225
3 224 225 226
3 225 227 228
3 225 228 226
3 228 227 229
3 228 229 230
3 229 231 232
3 229 232 230
3 232 231 233
3 232 233 234
3 233 235 236
3 233 236 234
3 236 235 237
3 236 237 238
3 237 239 240
3 237 240 238
3 240 239 241
3 240 241 242
3 241 243 244
3 241 244 242
3 244 243 245
3 244 245 246
3 245 247 248
3 245 248 246
3 209 208 249
3 209 249 250
3 249 248 250
3 248 247 251
3 248 251 250
3 251 211 209
3 251 209 250
3 252 253 254
3 252 254 255
3 254 152 150
3 254 150 255
3 150 31 256
3 150 256 255
3 256 257 252
3 256 252 255
3 258 257 256
3 258 256 259
3 256 31 29
3 256 29 259
3 29 28 260
3 29 260 259
3 260 261 258
3 260 258 259
3 262 261 260
3 262 260 263
3 260 28 86
3 260 86 263
3 86 62 264
3 86 264 263
3 264 265 262
3 264 262 263
3 266 267 268
3 266 268 269
3 268 265 264
3 268 264 269
3 264 62 171
3 264 171 269
3 171 46 266
3 171 266 269
3 270 267 266
3 270 266 271
3 266 46 45
3 266 45 271
3 45 53 272
3 45 272 271
3 272 273 270
3 272 270 271
3 274 273 272
3 274 272 275
3 272 53 78
3 272 78 275
3 78 17 276
3 78 276 275
3 276 277 274
3 276 274 275
3 278 277 276
3 278 276 279
3 276 17 16
3 276 16 279
3 16 15 280
3 16 280 279
3 280 281 278
3 280 278 279
3 282 281 280
3 282 280 283
3 280 15 170
3 280 170 283
3 170 37 284
3 170 284 283
3 284 285 282
3 284 282 283
3 286 285 284
3 286 284 287
3 284 37 36
3 284 36 287
3 36 44 288
3 36 288 287
3 288 289 286
3 288 286 287
3 290 289 288
3 290 288 291
3 288 44 205
3 288 205 291
3 205 152 254
3 205 254 291
3 254 253 290
3 254 290 291
3 292 215 216
3 249 208 293
3 293 208 207
3 293 207 294
3 207 215 292
3 207 292 294
3 218 213 295
3 218 295 296
3 295 267 270
3 295 270 296
3 270 273 297
3 270 297 296
3 297 219 218
3 297 218 296
3 221 219 297
3 221 297 298
3 297 273 274
3 297 274 298
3 274 277 299
3 274 299 298
3 299 223 221
3 299 221 298
3 225 223 299
3 225 299 300
3 299 277 278
3 299 278 300
3 278 281 301
3 278 301 300
3 301 227 225
3 301 225 300
3 229 227 301
3 229 301 302
3 301 281 282
3 301 282 302
3 282 285 303
3 282 303 302
3 303 231 229
3 303 229 302
3 233 231 303
3 233 303 304
3 303 285 286
3 303 286 304
3 286 289 305
3 286 305 304
3 305 235 233
3 305 233 304
3 237 235 305
3 237 305 306
3 305 289 290
3 305 290 306
3 290 253 307
3 290 307 306
3 307 239 237
3 307 237 306
3 241 239 307
3 241 307 308
3 307 253 252
3 307 252 308
3 252 257 309
3 252 309 308
3 309 243 241
3 309 241 308
3 245 243 309
3 245 309 310
3 309 257 258
3 309 258 310
3 258 261 311
3 258 311 310
3 311 247 245
3 311 245 310
3 312 211 251
3 312 251 313
3 251 247 311
3 251 311 313
3 311 261 262
3 311 262 313
3 262 265 312
3 262 312 313
3 212 211 312
3 212 312 314
3 312 265 268
3 312 268 314
3 268 267 295
3 268 295 314
3 295 213 212
3 295 212 314
3 315 106 143
3 315 143 316
3 143 101 317
3 143 317 316
3 317 146 144
3 317 144 316
3 144 67 315
3 144 315 316
3 318 108 107
3 318 107 319
3 107 106 315
3 107 315 319
3 315 67 65
3 315 65 319
3 65 64 318
3 65 318 319
3 109 108 318
3 109 318 320
3 318 64 83
3 318 83 320
3 83 8 321
3 83 321 320
3 321 111 109
3 321 109 320
3 113 111 321
3 113 321 322
3 321 8 7
3 321 7 322
3 7 6 323
3 7 323 322
3 323 115 113
3 323 113 322
3 166 115 323
3 166 323 324
3 323 6 165
3 323 165 324
3 165 164 325
3 165 325 324
3 325 119 166
3 325 166 324
3 120 119 325
3 120 325 326
3 325 164 163
3 325 163 326
3 163 162 327
3 163 327 326
3 327 121 120
3 327 120 326
3 204 121 327
3 204 327 328
3 327 162 201
3 327 201 328
3 201 200 329
3 201 329 328
3 329 158 204
3 329 204 328
3 330 125 159
3 330 159 331
3 159 158 329
3 159 329 331
3 329 200 199
3 329 199 331
3 199 196 330
3 199 330 331
3 332 92 126
3 332 126 333
3 126 125 330
3 126 330 333
3 330 196 195
3 330 195 333
3 195 192 332
3 195 332 333
3 191 189 334
3 191 334 335
3 334 88 87
3 334 87 335
3 87 92 332
3 87 332 335
3 332 192 191
3 332 191 335
3 94 88 334
3 94 334 336
3 334 189 188
3 334 188 336
3 188 185 337
3 188 337 336
3 337 95 94
3 337 94 336
3 129 95 337
3 129 337 338
3 337 185 184
3 337 184 338
3 184 183 339
3 184 339 338
3 339 130 129
3 339 129 338
3 340 99 179
3 340 179 341
3 179 130 339
3 179 339 341
3 339 183 182
3 339 182 341
3 182 148 340
3 182 340 341
3 100 99 340
3 100 340 342
3 340 148 147
3 340 147 342
3 147 146 317
3 147 317 342
3 317 101 100
3 317 100 342
