OFF
416 813 0
-5.49678 -23.3023 5.67623
-5.01478 -23.126 5.88715
-4.73578 -23.3023 6.25048
-5.37878 -23.6265 6.16175
-4.52078 -23.4364 6.93269
-5.25078 -23.7916 6.9243
-6.22378 -23.9103 6.91284
-6.22378 -23.7356 6.09753
-6.22378 -23.3893 5.56801
-4.44978 -23.4905 7.88034
-4.44978 -23.5117 8.98569
-5.20878 -23.859 9.08682
-5.20878 -23.8505 7.9355
-6.22378 -23.9747 9.12053
-6.22378 -23.9705 7.95388
-7.23878 -23.859 9.08682
-7.99778 -23.5117 8.98569
-7.99778 -23.4905 7.88034
-7.23878 -23.8505 7.9355
-7.92678 -23.4364 6.93269
-7.19678 -23.7916 6.9243
-7.71178 -23.3023 6.25048
-7.43278 -23.126 5.88715
-6.95178 -23.3023 5.67623
-7.06878 -23.6265 6.16175
-5.38978 -6.51056 3.19457
-4.69478 -6.51056 3.50945
-4.71478 -6.55456 3.55148
-5.40078 -6.55456 3.24068
-4.72478 -6.65796 3.62254
-5.40578 -6.65796 3.31378
-6.22378 -6.65796 3.21086
-6.22378 -6.55456 3.13709
-4.72778 -6.86236 3.75079
-4.72778 -7.20956 3.96441
-5.40778 -7.20956 3.65633
-5.40778 -6.86236 3.44272
-6.22378 -7.20956 3.55364
-6.22378 -6.86236 3.34002
-7.03978 -7.20956 3.65633
-7.71978 -7.20956 3.96441
-7.71978 -6.86236 3.75079
-7.03978 -6.86236 3.44272
-7.72278 -6.65796 3.62254
-7.04178 -6.65796 3.31378
-7.04678 -6.55456 3.24068
-7.73278 -6.55456 3.55148
-4.27878 -6.51056 5.29374
-4.69478 -6.51056 5.81853
-4.71478 -6.55456 5.83064
-4.30378 -6.55456 5.31265
-4.72478 -6.65796 5.88675
-4.31578 -6.65796 5.37215
-4.17978 -6.65796 4.75464
-4.16678 -6.55456 4.69106
-4.72778 -6.86236 6.01001
-4.72778 -7.20956 6.22363
-4.32078 -7.20956 5.71017
-4.32078 -6.86236 5.49656
-4.18478 -7.20956 5.09402
-4.18478 -6.86236 4.8804
-4.32078 -7.20956 4.47787
-4.32078 -6.86236 4.26425
-4.31578 -6.65796 4.13713
-4.27878 -6.51056 4.03424
-4.30378 -6.55456 4.06947
-7.05778 -6.51056 6.1334
-7.75278 -6.51056 5.81853
-7.73278 -6.55456 5.83064
-7.04678 -6.55456 6.14144
-7.72278 -6.65796 5.88675
-7.04178 -6.65796 6.1955
-6.22378 -6.65796 6.29842
-6.22378 -6.55456 6.24504
-6.22378 -6.51056 6.23836
-7.71978 -6.86236 6.01001
-7.71978 -7.20956 6.22363
-7.03978 -7.20956 6.53171
-7.03978 -6.86236 6.31809
-6.22378 -7.20956 6.6344
-6.22378 -6.86236 6.42078
-5.40778 -7.20956 6.53171
-5.40778 -6.86236 6.31809
-5.40578 -6.65796 6.1955
-5.38978 -6.51056 6.1334
-5.40078 -6.55456 6.14144
-8.16978 -6.51056 4.03424
-8.14378 -6.55456 4.06947
-8.13178 -6.65796 4.13713
-8.26778 -6.65796 4.75464
-8.28178 -6.55456 4.69106
-8.30878 -6.51056 4.66399
-8.12778 -7.20956 4.47787
-8.12778 -6.86236 4.26425
-8.26378 -7.20956 5.09402
-8.26378 -6.86236 4.8804
-8.12778 -7.20956 5.71017
-8.12778 -6.86236 5.49656
-8.13178 -6.65796 5.37215
-8.16978 -6.51056 5.29374
-8.14378 -6.55456 5.31265
-5.40778 -9.93326 5.05138
-4.72778 -9.93326 5.35946
-4.72778 -10.6927 5.546
-5.40778 -10.6927 5.23792
-4.74078 -11.5052 5.649
-5.41478 -11.5052 5.34358
-6.22378 -11.5052 5.24178
-6.22378 -10.6927 5.13523
-6.22378 -9.93326 4.94869
-4.77978 -12.4434 5.7093
-4.85678 -13.5801 5.7677
-5.47878 -13.5801 5.48617
-5.43578 -12.4434 5.41184
-6.22378 -13.5801 5.39233
-6.22378 -12.4434 5.31269
-6.96978 -13.5801 5.48617
-7.59078 -13.5801 5.7677
-7.66778 -12.4434 5.7093
-7.01178 -12.4434 5.41184
-7.70678 -11.5052 5.649
-7.03278 -11.5052 5.34358
-7.71978 -10.6927 5.546
-7.71978 -9.93326 5.35946
-7.03978 -9.93326 5.05138
-7.03978 -10.6927 5.23792
-4.32078 -9.93326 7.10522
-4.72778 -9.93326 7.61868
-4.72778 -10.6927 7.80522
-4.32078 -10.6927 7.29176
-4.74078 -11.5052 7.88876
-4.33678 -11.5052 7.37973
-4.20178 -11.5052 6.76888
-4.18478 -10.6927 6.67561
-4.18478 -9.93326 6.48907
-4.77978 -12.4434 7.89065
-4.85678 -13.5801 7.83224
-4.48478 -13.5801 7.36303
-4.38578 -12.4434 7.39489
-4.35978 -13.5801 6.79997
-4.25478 -12.4434 6.79997
-4.48478 -13.5801 6.23691
-4.38578 -12.4434 6.20506
-4.33678 -11.5052 6.15804
-4.32078 -9.93326 5.87292
-4.32078 -10.6927 6.05946
-7.03978 -9.93326 7.92676
-7.71978 -9.93326 7.61868
-7.71978 -10.6927 7.80522
-7.03978 -10.6927 8.1133
-7.70678 -11.5052 7.88876
-7.03278 -11.5052 8.19418
-6.22378 -11.5052 8.29599
-6.22378 -10.6927 8.21599
-6.22378 -9.93326 8.02945
-7.66778 -12.4434 7.89065
-7.59078 -13.5801 7.83225
-6.96978 -13.5801 8.11377
-7.01178 -12.4434 8.1881
-6.22378 -13.5801 8.20762
-6.22378 -12.4434 8.28726
-5.47878 -13.5801 8.11377
-5.43578 -12.4434 8.1881
-5.41478 -11.5052 8.19418
-5.40778 -9.93326 7.92676
-5.40778 -10.6927 8.1133
-8.12778 -9.93326 5.87292
-8.12778 -10.6927 6.05946
-8.11078 -11.5052 6.15804
-8.24578 -11.5052 6.76888
-8.26378 -10.6927 6.67561
-8.26378 -9.93326 6.48907
-7.96378 -13.5801 6.23691
-8.06178 -12.4434 6.20506
-8.08778 -13.5801 6.79997
-8.19278 -12.4434 6.79997
-7.96378 -13.5801 7.36303
-8.06178 -12.4434 7.39489
-8.11078 -11.5052 7.37972
-8.12778 -9.93326 7.10522
-8.12778 -10.6927 7.29176
-4.98578 -14.9878 5.86504
-5.54878 -14.9878 5.61006
-5.11878 -16.547 5.96499
-5.62078 -16.547 5.73727
-6.22378 -16.547 5.66136
-6.22378 -14.9878 5.52506
-5.20578 -18.1377 6.03123
-5.20078 -19.6402 6.02745
-5.66578 -19.6402 5.81676
-5.66878 -18.1377 5.82158
-6.22378 -19.6402 5.74653
-6.22378 -18.1377 5.75169
-6.78178 -19.6402 5.81676
-7.24678 -19.6402 6.02745
-7.24178 -18.1377 6.03123
-6.77878 -18.1377 5.82158
-7.32978 -16.547 5.96499
-6.82678 -16.547 5.73727
-7.46178 -14.9878 5.86504
-6.89878 -14.9878 5.61006
-4.98578 -14.9878 7.7349
-4.64878 -14.9878 7.30993
-5.11678 -16.5657 7.67679
-4.81578 -16.5627 7.27895
-4.71578 -16.5509 6.80585
-4.53578 -14.9878 6.79997
-5.19878 -18.2125 7.73608
-5.14578 -19.9353 8.08893
-4.88378 -19.7401 7.40097
-4.92378 -18.2005 7.3134
-4.81978 -19.6651 6.84488
-4.83478 -18.1534 6.8235
-4.92178 -19.6402 6.37859
-4.92878 -18.1377 6.38066
-4.81678 -16.547 6.34453
-4.64878 -14.9878 6.29001
-7.46178 -14.9878 7.7349
-6.89878 -14.9878 7.98989
-7.33078 -16.5657 7.67679
-6.82778 -16.5433 7.91239
-6.22378 -16.5258 7.98963
-6.22378 -14.9878 8.07488
-7.24878 -18.2125 7.73608
-7.30178 -19.9353 8.08893
-6.75678 -19.4882 8.32704
-6.78378 -18.123 7.97724
-6.22378 -19.3705 8.38723
-6.22378 -18.0528 8.05244
-5.69178 -19.4882 8.32704
-5.66378 -18.123 7.97724
-5.61978 -16.5433 7.91239
-5.54878 -14.9878 7.98989
-7.79978 -14.9878 6.29001
-7.63078 -16.547 6.34453
-7.73178 -16.5509 6.80585
-7.91178 -14.9878 6.79997
-7.52578 -19.6402 6.37859
-7.51878 -18.1377 6.38066
-7.62778 -19.6651 6.84488
-7.61278 -18.1534 6.8235
-7.56378 -19.7401 7.40097
-7.52378 -18.2005 7.3134
-7.63178 -16.5627 7.27895
-7.79978 -14.9878 7.30993
-5.05478 -20.9347 5.9173
-5.58678 -20.9347 5.67658
-4.90778 -21.976 5.80602
-5.50778 -21.9879 5.52753
-6.22378 -21.9999 5.43198
-6.22378 -20.9347 5.59633
-4.89778 -22.7189 5.7988
-5.50878 -22.7667 5.49612
-6.22378 -22.8144 5.38436
-7.54978 -22.7189 5.7988
-6.93878 -22.7667 5.49612
-7.53978 -21.976 5.80602
-6.93978 -21.9879 5.52753
-7.39278 -20.9347 5.9173
-6.86178 -20.9347 5.67658
-4.67178 -21.182 8.35499
-4.60578 -21.0202 7.52933
-4.32278 -22.148 8.60048
-4.30678 -22.063 7.66847
-4.35478 -22.0187 6.88193
-4.59778 -20.9561 6.86195
-4.20178 -22.933 8.81714
-4.20178 -22.8905 7.7884
-4.27578 -22.8454 6.91204
-4.49778 -22.7667 6.25981
-4.53878 -21.9879 6.2593
-4.73678 -20.9347 6.31852
-6.71378 -21.8435 11.7859
-7.06678 -21.9203 11.6356
-7.31178 -22.2626 12.0188
-6.82378 -22.3074 12.4056
-7.51978 -22.7212 12.3648
-6.92978 -22.7851 12.7984
-6.22378 -22.8065 12.9436
-6.22378 -22.3012 12.5232
-6.22378 -21.8075 11.8601
-7.54978 -23.1477 12.4928
-7.43278 -23.4249 12.4346
-6.95178 -23.5668 12.7257
-6.93878 -23.2225 12.9177
-6.22378 -23.6349 12.8694
-6.22378 -23.269 13.0735
-5.49678 -23.5668 12.7257
-5.01478 -23.4249 12.4346
-4.89778 -23.1477 12.4928
-5.50878 -23.2225 12.9177
-4.92778 -22.7212 12.3648
-5.51778 -22.7851 12.7984
-5.13678 -22.2626 12.0188
-5.38078 -21.9203 11.6356
-5.73478 -21.8435 11.7859
-5.62378 -22.3074 12.4056
-7.71078 -20.9347 6.31852
-7.90878 -21.9879 6.2593
-8.09278 -22.0187 6.88193
-7.84978 -20.9561 6.86195
-7.94978 -22.7667 6.25981
-8.17178 -22.8454 6.91204
-8.24578 -22.933 8.81714
-8.24578 -22.8905 7.7884
-8.12478 -22.148 8.60048
-8.14078 -22.063 7.66847
-7.77578 -21.182 8.35499
-7.84178 -21.0202 7.52933
-7.24378 -20.7945 9.15812
-6.73578 -20.4003 9.1044
-7.20778 -21.3115 10.1747
-6.71678 -21.0049 10.0703
-6.22378 -20.9078 10.0533
-6.22378 -20.28 9.1179
-7.14878 -21.6792 11.0554
-6.69378 -21.4476 10.9858
-6.22378 -21.38 11.0021
-5.29878 -21.6792 11.0554
-5.75378 -21.4476 10.9858
-5.23978 -21.3115 10.1747
-5.73078 -21.0049 10.0703
-5.20378 -20.7945 9.15812
-5.71178 -20.4003 9.1044
-7.99778 -23.5472 10.141
-8.24578 -23.0039 9.92651
-7.92678 -23.5606 11.1947
-8.17178 -23.0727 10.98
-8.05378 -22.473 10.7171
-8.11678 -22.301 9.65948
-7.71178 -23.5158 11.9952
-7.94978 -23.1092 11.8412
-7.87478 -22.6151 11.645
-7.57478 -22.1034 11.3291
-7.69278 -21.8434 10.4195
-7.74378 -21.4963 9.37325
-4.44978 -23.5472 10.141
-5.20878 -23.8731 10.2697
-4.52078 -23.5606 11.1947
-5.25078 -23.8546 11.3477
-6.22378 -23.9532 11.4088
-6.22378 -23.9818 10.3126
-4.73578 -23.5158 11.9952
-5.37878 -23.765 12.1844
-6.22378 -23.8502 12.2878
-7.06878 -23.765 12.1844
-7.19678 -23.8546 11.3477
-7.23878 -23.8731 10.2697
-4.70478 -21.4963 9.37325
-4.75478 -21.8434 10.4195
-4.39378 -22.473 10.7171
-4.33078 -22.301 9.65948
-4.87278 -22.1034 11.3291
-4.57278 -22.6151 11.645
-4.49778 -23.1092 11.8412
-4.27578 -23.0727 10.98
-4.20178 -23.0039 9.92651
-4.72778 -7.74126 6.55078
-4.32078 -7.74126 6.03732
-4.72778 -8.40656 6.93199
-4.32078 -8.40656 6.41853
-4.18478 -8.40656 5.80237
-4.18478 -7.74126 5.42117
-4.72778 -9.15416 7.30778
-4.32078 -9.15416 6.79432
-4.18478 -9.15416 6.17817
-4.72778 -9.15416 5.04855
-4.32078 -9.15416 5.56201
-4.72778 -8.40656 4.67276
-4.32078 -8.40656 5.18622
-4.72778 -7.74126 4.29156
-4.32078 -7.74126 4.80502
-5.40778 -7.74126 3.98348
-5.40778 -8.40656 4.36469
-6.22378 -8.40656 4.262
-6.22378 -7.74126 3.88079
-5.40778 -9.15416 4.74048
-6.22378 -9.15416 4.63779
-7.71978 -9.15416 5.04855
-7.03978 -9.15416 4.74048
-7.71978 -8.40656 4.67276
-7.03978 -8.40656 4.36469
-7.71978 -7.74126 4.29156
-7.03978 -7.74126 3.98348
-8.12778 -7.74126 4.80502
-8.12778 -8.40656 5.18622
-8.26378 -8.40656 5.80237
-8.26378 -7.74126 5.42117
-8.12778 -9.15416 5.56201
-8.26378 -9.15416 6.17817
-7.71978 -9.15416 7.30778
-8.12778 -9.15416 6.79432
-7.71978 -8.40656 6.93199
-8.12778 -8.40656 6.41852
-7.71978 -7.74126 6.55078
-8.12778 -7.74126 6.03732
-7.03978 -7.74126 6.85885
-7.03978 -8.40656 7.24006
-6.22378 -8.40656 7.34275
-6.22378 -7.74126 6.96155
-7.03978 -9.15416 7.61585
-6.22378 -9.15416 7.71855
-5.40778 -9.15416 7.61585
-5.40778 -8.40656 7.24006
-5.40778 -7.74126 6.85885
-4.66178 -6.48416 5.82721
-4.66178 -6.48416 3.46828
-8.35378 -6.48416 4.64774
-8.21178 -6.48416 4.0044
-7.78578 -6.48416 5.82721
-7.07578 -6.48416 6.14889
-6.22378 -6.48416 6.25611
-6.22378 -6.47096 6.31796
-7.11278 -6.47096 6.20607
-5.37178 -6.48416 6.14889
-5.33478 -6.47096 6.20607
3 0 1 2
3 0 2 3
3 2 4 5
3 2 5 3
3 5 6 7
3 5 7 3
3 7 8 0
3 7 0 3
3 9 10 11
3 9 11 12
3 11 13 14
3 11 14 12
3 14 6 5
3 14 5 12
3 5 4 9
3 5 9 12
3 15 16 17
3 15 17 18
3 17 19 20
3 17 20 18
3 20 6 14
3 20 14 18
3 14 13 15
3 14 15 18
3 21 22 23
3 21 23 24
3 23 8 7
3 23 7 24
3 7 6 20
3 7 20 24
3 20 19 21
3 20 21 24
3 25 26 27
3 25 27 28
3 27 29 30
3 27 30 28
3 30 31 32
3 30 32 28
3 32 25 28
3 33 34 35
3 33 35 36
3 35 37 38
3 35 38 36
3 38 31 30
3 38 30 36
3 30 29 33
3 30 33 36
3 39 40 41
3 39 41 42
3 41 43 44
3 41 44 42
3 44 31 38
3 44 38 42
3 38 37 39
3 38 39 42
3 32 31 44
3 32 44 45
3 44 43 46
3 44 46 45
3 47 48 49
3 47 49 50
3 49 51 52
3 49 52 50
3 52 53 54
3 52 54 50
3 54 47 50
3 55 56 57
3 55 57 58
3 57 59 60
3 57 60 58
3 60 53 52
3 60 52 58
3 52 51 55
3 52 55 58
3 61 34 33
3 61 33 62
3 33 29 63
3 33 63 62
3 63 53 60
3 63 60 62
3 60 59 61
3 60 61 62
3 27 26 64
3 27 64 65
3 64 54 65
3 54 53 63
3 54 63 65
3 63 29 27
3 63 27 65
3 66 67 68
3 66 68 69
3 68 70 71
3 68 71 69
3 71 72 73
3 71 73 69
3 73 74 66
3 73 66 69
3 75 76 77
3 75 77 78
3 77 79 80
3 77 80 78
3 80 72 71
3 80 71 78
3 71 70 75
3 71 75 78
3 81 56 55
3 81 55 82
3 55 51 83
3 55 83 82
3 83 72 80
3 83 80 82
3 80 79 81
3 80 81 82
3 49 48 84
3 49 84 85
3 84 74 73
3 84 73 85
3 73 72 83
3 73 83 85
3 83 51 49
3 83 49 85
3 86 46 87
3 46 43 88
3 46 88 87
3 88 89 90
3 88 90 87
3 90 91 86
3 90 86 87
3 41 40 92
3 41 92 93
3 92 94 95
3 92 95 93
3 95 89 88
3 95 88 93
3 88 43 41
3 88 41 93
3 96 76 75
3 96 75 97
3 75 70 98
3 75 98 97
3 98 89 95
3 98 95 97
3 95 94 96
3 95 96 97
3 68 67 99
3 68 99 100
3 99 91 90
3 99 90 100
3 90 89 98
3 90 98 100
3 98 70 68
3 98 68 100
3 101 102 103
3 101 103 104
3 103 105 106
3 103 106 104
3 106 107 108
3 106 108 104
3 108 109 101
3 108 101 104
3 110 111 112
3 110 112 113
3 112 114 115
3 112 115 113
3 115 107 106
3 115 106 113
3 106 105 110
3 106 110 113
3 116 117 118
3 116 118 119
3 118 120 121
3 118 121 119
3 121 107 115
3 121 115 119
3 115 114 116
3 115 116 119
3 122 123 124
3 122 124 125
3 124 109 108
3 124 108 125
3 108 107 121
3 108 121 125
3 121 120 122
3 121 122 125
3 126 127 128
3 126 128 129
3 128 130 131
3 128 131 129
3 131 132 133
3 131 133 129
3 133 134 126
3 133 126 129
3 135 136 137
3 135 137 138
3 137 139 140
3 137 140 138
3 140 132 131
3 140 131 138
3 131 130 135
3 131 135 138
3 141 111 110
3 141 110 142
3 110 105 143
3 110 143 142
3 143 132 140
3 143 140 142
3 140 139 141
3 140 141 142
3 103 102 144
3 103 144 145
3 144 134 133
3 144 133 145
3 133 132 143
3 133 143 145
3 143 105 103
3 143 103 145
3 146 147 148
3 146 148 149
3 148 150 151
3 148 151 149
3 151 152 153
3 151 153 149
3 153 154 146
3 153 146 149
3 155 156 157
3 155 157 158
3 157 159 160
3 157 160 158
3 160 152 151
3 160 151 158
3 151 150 155
3 151 155 158
3 161 136 135
3 161 135 162
3 135 130 163
3 135 163 162
3 163 152 160
3 163 160 162
3 160 159 161
3 160 161 162
3 128 127 164
3 128 164 165
3 164 154 153
3 164 153 165
3 153 152 163
3 153 163 165
3 163 130 128
3 163 128 165
3 166 123 122
3 166 122 167
3 122 120 168
3 122 168 167
3 168 169 170
3 168 170 167
3 170 171 166
3 170 166 167
3 118 117 172
3 118 172 173
3 172 174 175
3 172 175 173
3 175 169 168
3 175 168 173
3 168 120 118
3 168 118 173
3 176 156 155
3 176 155 177
3 155 150 178
3 155 178 177
3 178 169 175
3 178 175 177
3 175 174 176
3 175 176 177
3 148 147 179
3 148 179 180
3 179 171 170
3 179 170 180
3 170 169 178
3 170 178 180
3 178 150 148
3 178 148 180
3 112 111 181
3 112 181 182
3 181 183 184
3 181 184 182
3 184 185 186
3 184 186 182
3 186 114 112
3 186 112 182
3 187 188 189
3 187 189 190
3 189 191 192
3 189 192 190
3 192 185 184
3 192 184 190
3 184 183 187
3 184 187 190
3 193 194 195
3 193 195 196
3 195 197 198
3 195 198 196
3 198 185 192
3 198 192 196
3 192 191 193
3 192 193 196
3 199 117 116
3 199 116 200
3 116 114 186
3 116 186 200
3 186 185 198
3 186 198 200
3 198 197 199
3 198 199 200
3 137 136 201
3 137 201 202
3 201 203 204
3 201 204 202
3 204 205 206
3 204 206 202
3 206 139 137
3 206 137 202
3 207 208 209
3 207 209 210
3 209 211 212
3 209 212 210
3 212 205 204
3 212 204 210
3 204 203 207
3 204 207 210
3 213 188 187
3 213 187 214
3 187 183 215
3 187 215 214
3 215 205 212
3 215 212 214
3 212 211 213
3 212 213 214
3 181 111 141
3 181 141 216
3 141 139 206
3 141 206 216
3 206 205 215
3 206 215 216
3 215 183 181
3 215 181 216
3 157 156 217
3 157 217 218
3 217 219 220
3 217 220 218
3 220 221 222
3 220 222 218
3 222 159 157
3 222 157 218
3 223 224 225
3 223 225 226
3 225 227 228
3 225 228 226
3 228 221 220
3 228 220 226
3 220 219 223
3 220 223 226
3 229 208 207
3 229 207 230
3 207 203 231
3 207 231 230
3 231 221 228
3 231 228 230
3 228 227 229
3 228 229 230
3 201 136 161
3 201 161 232
3 161 159 222
3 161 222 232
3 222 221 231
3 222 231 232
3 231 203 201
3 231 201 232
3 172 117 199
3 172 199 233
3 199 197 234
3 199 234 233
3 234 235 236
3 234 236 233
3 236 174 172
3 236 172 233
3 195 194 237
3 195 237 238
3 237 239 240
3 237 240 238
3 240 235 234
3 240 234 238
3 234 197 195
3 234 195 238
3 241 224 223
3 241 223 242
3 223 219 243
3 223 243 242
3 243 235 240
3 243 240 242
3 240 239 241
3 240 241 242
3 217 156 176
3 217 176 244
3 176 174 236
3 176 236 244
3 236 235 243
3 236 243 244
3 243 219 217
3 243 217 244
3 189 188 245
3 189 245 246
3 245 247 248
3 245 248 246
3 248 249 250
3 248 250 246
3 250 191 189
3 250 189 246
3 251 1 0
3 251 0 252
3 0 8 253
3 0 253 252
3 253 249 248
3 253 248 252
3 248 247 251
3 248 251 252
3 23 22 254
3 23 254 255
3 254 256 257
3 254 257 255
3 257 249 253
3 257 253 255
3 253 8 23
3 253 23 255
3 258 194 193
3 258 193 259
3 193 191 250
3 193 250 259
3 250 249 257
3 250 257 259
3 257 256 258
3 257 258 259
3 209 208 260
3 209 260 261
3 260 262 263
3 260 263 261
3 263 264 265
3 263 265 261
3 265 211 209
3 265 209 261
3 266 10 9
3 266 9 267
3 9 4 268
3 9 268 267
3 268 264 263
3 268 263 267
3 263 262 266
3 263 266 267
3 2 1 251
3 2 251 269
3 251 247 270
3 251 270 269
3 270 264 268
3 270 268 269
3 268 4 2
3 268 2 269
3 245 188 213
3 245 213 271
3 213 211 265
3 213 265 271
3 265 264 270
3 265 270 271
3 270 247 245
3 270 245 271
3 272 273 274
3 272 274 275
3 274 276 277
3 274 277 275
3 277 278 279
3 277 279 275
3 279 280 272
3 279 272 275
3 281 282 283
3 281 283 284
3 283 285 286
3 283 286 284
3 286 278 277
3 286 277 284
3 277 276 281
3 277 281 284
3 287 288 289
3 287 289 290
3 289 291 292
3 289 292 290
3 292 278 286
3 292 286 290
3 286 285 287
3 286 287 290
3 293 294 295
3 293 295 296
3 295 280 279
3 295 279 296
3 279 278 292
3 279 292 296
3 292 291 293
3 292 293 296
3 237 194 258
3 237 258 297
3 258 256 298
3 258 298 297
3 298 299 300
3 298 300 297
3 300 239 237
3 300 237 297
3 254 22 21
3 254 21 301
3 21 19 302
3 21 302 301
3 302 299 298
3 302 298 301
3 298 256 254
3 298 254 301
3 17 16 303
3 17 303 304
3 303 305 306
3 303 306 304
3 306 299 302
3 306 302 304
3 302 19 17
3 302 17 304
3 307 224 241
3 307 241 308
3 241 239 300
3 241 300 308
3 300 299 306
3 300 306 308
3 306 305 307
3 306 307 308
3 225 224 309
3 225 309 310
3 309 311 312
3 309 312 310
3 312 313 314
3 312 314 310
3 314 227 225
3 314 225 310
3 315 273 272
3 315 272 316
3 272 280 317
3 272 317 316
3 317 313 312
3 317 312 316
3 312 311 315
3 312 315 316
3 295 294 318
3 295 318 319
3 318 320 321
3 318 321 319
3 321 313 317
3 321 317 319
3 317 280 295
3 317 295 319
3 322 208 229
3 322 229 323
3 229 227 314
3 229 314 323
3 314 313 321
3 314 321 323
3 321 320 322
3 321 322 323
3 303 16 324
3 303 324 325
3 324 326 327
3 324 327 325
3 327 328 329
3 327 329 325
3 329 305 303
3 329 303 325
3 330 282 281
3 330 281 331
3 281 276 332
3 281 332 331
3 332 328 327
3 332 327 331
3 327 326 330
3 327 330 331
3 274 273 315
3 274 315 333
3 315 311 334
3 315 334 333
3 334 328 332
3 334 332 333
3 332 276 274
3 332 274 333
3 309 224 307
3 309 307 335
3 307 305 329
3 307 329 335
3 329 328 334
3 329 334 335
3 334 311 309
3 334 309 335
3 11 10 336
3 11 336 337
3 336 338 339
3 336 339 337
3 339 340 341
3 339 341 337
3 341 13 11
3 341 11 337
3 342 288 287
3 342 287 343
3 287 285 344
3 287 344 343
3 344 340 339
3 344 339 343
3 339 338 342
3 339 342 343
3 283 282 330
3 283 330 345
3 330 326 346
3 330 346 345
3 346 340 344
3 346 344 345
3 344 285 283
3 344 283 345
3 324 16 15
3 324 15 347
3 15 13 341
3 15 341 347
3 341 340 346
3 341 346 347
3 346 326 324
3 346 324 347
3 260 208 322
3 260 322 348
3 322 320 349
3 322 349 348
3 349 350 351
3 349 351 348
3 351 262 260
3 351 260 348
3 318 294 293
3 318 293 352
3 293 291 353
3 293 353 352
3 353 350 349
3 353 349 352
3 349 320 318
3 349 318 352
3 289 288 342
3 289 342 354
3 342 338 355
3 342 355 354
3 355 350 353
3 355 353 354
3 353 291 289
3 353 289 354
3 336 10 266
3 336 266 356
3 266 262 351
3 266 351 356
3 351 350 355
3 351 355 356
3 355 338 336
3 355 336 356
3 57 56 357
3 57 357 358
3 357 359 360
3 357 360 358
3 360 361 362
3 360 362 358
3 362 59 57
3 362 57 358
3 363 127 126
3 363 126 364
3 126 134 365
3 126 365 364
3 365 361 360
3 365 360 364
3 360 359 363
3 360 363 364
3 144 102 366
3 144 366 367
3 366 368 369
3 366 369 367
3 369 361 365
3 369 365 367
3 365 134 144
3 365 144 367
3 370 34 61
3 370 61 371
3 61 59 362
3 61 362 371
3 362 361 369
3 362 369 371
3 369 368 370
3 369 370 371
3 35 34 370
3 35 370 372
3 370 368 373
3 370 373 372
3 373 374 375
3 373 375 372
3 375 37 35
3 375 35 372
3 366 102 101
3 366 101 376
3 101 109 377
3 101 377 376
3 377 374 373
3 377 373 376
3 373 368 366
3 373 366 376
3 124 123 378
3 124 378 379
3 378 380 381
3 378 381 379
3 381 374 377
3 381 377 379
3 377 109 124
3 377 124 379
3 382 40 39
3 382 39 383
3 39 37 375
3 39 375 383
3 375 374 381
3 375 381 383
3 381 380 382
3 381 382 383
3 92 40 382
3 92 382 384
3 382 380 385
3 382 385 384
3 385 386 387
3 385 387 384
3 387 94 92
3 387 92 384
3 378 123 166
3 378 166 388
3 166 171 389
3 166 389 388
3 389 386 385
3 389 385 388
3 385 380 378
3 385 378 388
3 179 147 390
3 179 390 391
3 390 392 393
3 390 393 391
3 393 386 389
3 393 389 391
3 389 171 179
3 389 179 391
3 394 76 96
3 394 96 395
3 96 94 387
3 96 387 395
3 387 386 393
3 387 393 395
3 393 392 394
3 393 394 395
3 77 76 394
3 77 394 396
3 394 392 397
3 394 397 396
3 397 398 399
3 397 399 396
3 399 79 77
3 399 77 396
3 390 147 146
3 390 146 400
3 146 154 401
3 146 401 400
3 401 398 397
3 401 397 400
3 397 392 390
3 397 390 400
3 164 127 363
3 164 363 402
3 363 359 403
3 363 403 402
3 403 398 401
3 403 401 402
3 401 154 164
3 401 164 402
3 357 56 81
3 357 81 404
3 81 79 399
3 81 399 404
3 399 398 403
3 399 403 404
3 403 359 357
3 403 357 404
3 405 48 47
3 64 26 406
3 406 26 25
3 86 91 407
3 86 407 408
3 99 67 409
3 407 91 99
3 409 67 66
3 409 66 410
3 66 74 411
3 66 411 410
3 411 412 413
3 411 413 410
3 413 409 410
3 84 48 405
3 84 405 414
3 405 415 414
3 415 412 411
3 415 411 414
3 411 74 84
3 411 84 414
