0.629446
0.552735
0.522293
0.488424
0.287178
0.372177
0.489977
0.390964
0.577951
0.435643
0.453621
0.443116
0.112722
0.546618
0.578484
0.40941
0.503921
0.430717
0.327551
0.336688
0.228068
0.351676
0.351496
0.316515
0.499445
0.444386
0.481581
0.303389
0.0984312
0.282715
0.315646
0.329136
0.8283
0.787564
0.576038
0.65208
0.659835
0.721136
0.760117
0.475145
0.627648
0.766445
0.538063
0.637504
0.56059
0.652454
0.614845
0.749617
0.720088
0.764383
0.699113
0.673818
0.741628
0.646671
0.687228
0.751464
0.758126
0.520279
0.666941
0.756483
0.744494
0.710177
0.864164
0.84091
0.828302
0.855029
0.842273
0.903615
0.759694
0.745428
0.605589
0.773193
0.825794
0.812795
0.784105
0.823979
0.739416
0.808615
0.804211
0.725115
0.890853
0.814224
0.753387
0.590884
0.909391
0.885329
0.874438
0.905168
0.904936
0.898422
0.932648
0.70524
0.932358
0.598333
0.68042
0.910315
0.952509
0.960407
0.826828
0.767312
0.687555
0.579005
0.555351
0.607561
0.401232
0.780534
0.740246
0.699062
0.77396
0.593318
0.494734
0.642226
0.631454
0.688063
0.803017
0.908819
0.887492
0.792293
0.575347
0.778875
0.741215
0.728563
0.819366
0.75903
0.770835
0.718368
0.759078
0.664987
0.76971
0.756025
0.705588
0.763216
0.730539
0.768577
0.749347
0.769076
0.737953
0.561721
0.694783
0.798348
0.66617
0.724744
0.690653
0.513005
0.781676
0.711215
0.645037
0.753847
0.7312
0.780109
0.697728
0.648241
0.76187
0.652251
0.965534
0.819588
0.28005
0.778087
0.446576
0.538255
0.687123
0.653556
0.519113
0.560657
0.58828
0.49222
0.557909
0.779096
0.637298
0.607643
0.510978
0.648377
0.62422
0.661332
0.731491
0.749695
0.534279
0.550895
0.667732
0.553125
0.79305
0.798361
0.680074
0.71651
0.695966
0.659328
0.849705
0.779831
0.468703
0.596599
0.464538
0.745732
0.602317
0.595899
0.607249
0.616421
0.904398
0.628254
0.540205
0.508078
0.489082
0.674116
1
0.435405
0.733262
0.770664
0.751309
0.807381
0.676515
0.610833
0.72589
0.656774
0.80931
0.751889
0.602743
0.889416
0.688435
0.777385
0.882216
0.747647
0.396052
0.629948
0.419451
0.728402
0.667065
0.577123
0.678629
0.551591
0.262825
0.568454
0.611266
0.369871
0.70428
0.445672
0.485716
0.713294
0.64588
0.635123
0.674074
0.548465
0.517454
0.542018
0.501844
0.531125
0.849411
0.731677
0.686555
0.649889
0.65055
0.605517
0.848088
0.764282
0.579474
0.600539
0.578013
0.584182
0.675159
0.598877
0.635019
0.581083
0.197157
0.611675
0.817913
0.499981
0.712491
0.371695
0.287174
0.602424
0.916429
0.762486
0.888237
0.751174
0.645277
0.635238
0.652142
0.710278
0.282558
0.798906
0.273995
0.273586
0.197682
0.234299
0.343412
0.339327
0.302238
0.225085
0.292756
0.185645
0.120282
0.152474
0.275883
0.192905
0.367643
0.31988
0.304283
0.400882
0.143751
0.282397
0.324344
0.184371
0.32255
0.524466
0.461282
0.492957
0.387081
0.265523
0.340273
0.287302
0.510269
0.421824
0.29192
0.440544
0.263624
0.457035
0.566325
0.407646
0.459787
0.441864
0.383708
0.341534
0.276858
0.221856
0.428845
0.35356
0.336291
0.313481
0.290259
0.21914
0.208671
0.212451
0.321571
0.325876
0.328913
0.357935
0.43233
0.336798
0.218556
0.0498885
0.233309
0.42612
0.281428
0.32448
0.233675
0.0622486
0.231774
0
0.265922
0.328831
0.188076
0.238901
0.307882
0.218005
0.173556
0.0870605
0.11452
0.257775
0.388143
0.419395
0.306926
0.366104
0.189041
0.172096
0.277438
0.317454
0.410897
0.369655
0.533689
0.334974
0.242147
0.502552
0.274152
0.541807
0.421147
0.428276
0.38049
0.328743
0.353696
0.241395
0.340708
0.779301
0.401849
0.303961
0.292561
0.235852
0.263376
0.332451
0.288143
0.388757
0.211338
0.163836
0.231809
0.35566
0.0700186
0.31
0.221285
0.145785
0.354989
0.542447
0.488277
0.522481
0.395062
0.256092
0.2098
0.299882
0.432038
0.390923
0.562049
0.534416
0.568564
0.529608
0.353309
0.445693
0.691327
0.696206
0.709035
0.651413
0.661512
0.635961
0.644527
0.632441
0.728174
0.74264
0.72916
0.695657
0.637973
0.620215
0.697002
0.684646
0.382004
0.421266
0.390359
0.378846
0.547725
0.510815
0.491833
0.484179
0.472489
0.537554
0.564468
0.547709
0.692665
0.609232
0.472969
0.499423
0.766079
0.724569
0.678864
0.593419
0.427496
0.646786
0.654412
0.54629
0.674099
0.633068
0.647567
0.674402
0.609703
0.567231
0.619835
0.638761
0.417253
0.47995
0.554023
0.53197
0.61619
0.591345
0.632893
0.592053
0.411969
0.381722
0.550792
0.498285
0.570623
0.480913
0.387109
0.443309
0.760146
0.766765
0.727935
0.709527
0.636893
0.656077
0.643101
0.679462
0.577285
0.64431
0.479556
0.627779
0.61601
0.625625
0.70375
0.653135
0.487001
0.512318
0.391946
0.440198
0.60355
0.591143
0.555162
0.583588
0.475715
0.424124
0.673064
0.553456
0.604135
0.571346
0.454324
0.493201
0.801571
0.792241
0.794968
0.782798
0.626966
0.728553
0.649531
0.743042
0.618789
0.772851
0.67531
0.65513
0.65081
0.677784
0.761255
0.765913
0.450653
0.379227
0.378704
0.457389
0.618044
0.517491
0.554996
0.482011
0.766814
0.815458
0.848675
0.811891
0.779331
0.808594
0.764762
0.795199
0.701595
0.746215
0.650145
0.690525
0.785145
0.75664
0.845267
0.792459
0.334116
0.620381
0.791933
0.730298
0.815847
0.693156
0.584403
0.626265
0.586561
0.849018
0.70791
0.717276
0.819602
0.784643
0.872069
0.951902
0.86095
0.73088
0.967453
0.516725
0.841177
0.862299
0.843076
0.768439
0.727493
0.812602
0.555482
0.743836
0.798183
0.827827
0.719063
0.749447
0.779618
0.62978
0.79591
0.823235
0.734028
0.881491
0.721986
0.754357
0.763119
0.709821
0.763637
0.809238
0.735428
0.883031
0.766611
0.840024
0.788462
0.784018
0.852605
0.815454
0.801069
0.810314
0.782142
0.825561
0.614236
0.662272
0.583759
0.654953
0.763136
0.719909
0.794636
0.722906
0.6124
0.656035
0.741937
0.803253
0.745455
0.681248
0.599346
0.548644
0.873916
0.850367
0.698151
0.769812
0.744917
0.800681
0.668999
0.641026
0.838808
0.515937
0.946873
0.889508
0.928569
0.831539
0.782915
0.808079
0.533808
0.414134
0.460945
0.633148
0.666113
0.757259
0.810451
0.752497
0.584673
0.637204
0.860422
0.632543
0.707615
0.548873
0.492152
0.507006
0.743307
0.815285
0.685417
0.938576
0.914193
0.923628
0.833931
0.818318
0.771163
0.757156
0.766045
0.773381
0.750934
0.764634
0.741839
0.734246
0.760782
0.724784
0.803308
0.771535
0.730702
0.753302
0.735798
0.767358
0.738338
0.806974
0.803245
0.527815
0.698953
0.766539
0.757288
0.785716
0.739807
0.789991
0.763314
0.580557
0.699815
0.747703
0.843848
0.764342
0.777909
0.807416
0.702349
0.77136
0.740232
0.627709
0.641714
0.551293
0.69097
0.830298
0.639875
0.75643
0.580813
0.76561
0.873001
0.813916
0.725699
0.76182
0.742576
0.697007
0.727831
0.716784
0.673983
0.584167
0.751304
0.76679
0.590307
0.77073
0.786772
0.775023
0.734657
0.74714
0.769385
0.739041
0.762648
0.772242
0.734844
0.550022
0.598295
0.777727
0.67931
0.813448
0.763708
0.789714
0.745227
0.732076
0.766085
0.689386
0.692784
0.860469
0.79907
0.732969
0.789292
0.6859
0.703525
0.831479
0.750627
0.797438
0.733739
0.695911
0.755867
0.861214
0.801162
0.779538
0.732565
0.746851
0.862389
0.853942
0.628008
0.831858
0.70421
0.596655
0.705704
0.833435
0.719262
0.627496
0.784779
0.815094
0.836756
0.679166
0.716022
0.77123
0.749966
0.711206
0.721174
0.762603
0.577875
0.743208
0.754949
0.732631
0.64505
0.752181
0.621982
0.761276
0.750704
0.732294
