0.782419
0.721892
0.79496
0.622061
0.709371
0.713043
0.793106
0.573872
0.675062
0.836173
0.791799
0.777002
0.819788
0.655505
0.653985
0.537541
0.369061
0.768988
0.809793
0.702644
0.672999
0.399215
0.753595
0.753373
0.779726
0.750318
0.456767
0.506951
0.636827
0.79666
0.792425
0.5093
0.318983
0.658179
0.822074
0.700755
0.606274
0.785524
0.514691
0.588614
0.783261
0.694486
0.495667
0.76347
0.328804
0.628907
0.67333
0.616781
0.717435
0.898954
0.704783
0.966304
0.541533
0.415376
0.312076
0.501328
0.753587
0.680867
0.575682
0.405925
0.662385
0.392857
0.409651
0.453594
0.870325
0.690532
0.637309
0.863638
0.372155
0.652287
0.42564
0.566306
0.90737
0.620152
0.683626
0.903258
0.791189
0.815306
0.813143
0.594766
0.62438
0.667689
0.37047
0.759267
0.729462
1
0.56051
0.638881
0.703728
0.275486
0.464066
0.131612
0.125829
0.803992
0.0872397
0.103822
0.109593
0.21283
0.17434
0.217636
0.404679
0.382732
0.234867
0.546964
0.415703
0.435061
0.171461
0.193879
0.351307
0.185384
0.19638
0.157006
0.284506
0.132521
0.14211
0.145027
0.210146
0.549541
0.178536
0.110599
0.94673
0.701665
0.896031
0.482823
0.439742
0.126435
0.0353071
0.106488
0.438553
0.0557295
0.656966
0.0810167
0.0488161
0.294715
0.194746
0.159999
0.420548
0.0637186
0.304078
0.0807409
0.409825
0.270999
0.297937
0.847448
0.18256
0.102397
0.381582
0.375528
0.180933
0.38445
0.100169
0.550651
0.547889
0.19887
0.147088
0.0708412
0.16005
0.172415
0.178766
0.165907
0.25548
0.154701
0.168489
0.125387
0.194214
0.126349
0.182477
0.368718
0.0896313
0.41398
0.256698
0.493599
0.111913
0.0442651
0.11808
0.203373
0.270642
0.347318
0.255215
0.228515
0.58788
0.149376
0.355941
0.643552
0.314203
0.341693
0.141191
0.139925
0.37404
0.410884
0.239835
0.273831
0.266078
0.122094
0.116471
0.454313
0.650698
0.1405
0.49505
0.454755
0.155492
0.305673
0.294614
0.146806
0.14296
0.393899
0.891301
0.28044
0.568577
0.636532
0.514033
0.819783
0.626322
0.298861
0.369872
0.171924
0.0892603
0.0886029
0.0585043
0.108121
0.0792841
0.170431
0.222376
0.159739
0.122379
0.149918
0.10972
0.23671
0.194299
0.0971927
0.0483677
0.127789
0.0831684
0.109347
0.0640147
0.254538
0.104327
0.135719
0.0980529
0.0722208
0.357807
0.210412
0.41758
0.490578
0.356809
0.507075
0.53088
0.186025
0.798145
0.84103
0.591295
0.441922
0.810361
0.490369
0.463809
0.0813181
0.797377
0.565393
0.830506
0.278078
0.337675
0.726081
0.538479
0.288022
0.330031
0.571808
0.119481
0.155664
0.148866
0.158507
0.700954
0.449815
0.435992
0.402026
0.638884
0.791344
0.786774
0.779026
0.682902
0.503017
0.984162
0.577126
0.500938
0.520247
0.493148
0.767652
0.746898
0.346952
0.447865
0.543271
0.505742
0.329035
0.261001
0.544262
0.282368
0.729084
0.705149
0.435488
0.328235
0.324526
0.348676
0.375243
0.503919
0.303887
0.30986
0.817848
0.680268
0.713587
0.708773
0.659337
0.301253
0.0899513
0.578928
0.52706
0.151365
0.496149
0.182755
0.167766
0.106461
0.496311
0.751812
0.698182
0.815329
0.767635
0.470836
0.727482
0.466027
0.540168
0.594311
0.626333
0.325808
0.173797
0.455139
0.256238
0.230663
0.175361
0.238325
0.1653
0.237256
0.103664
0.112367
0.137661
0.183985
0.181206
0.243468
0.126678
0.441171
0.259089
0.292083
0.15293
0.142334
0.110596
0.175506
0.245956
0.389892
0.611931
0.143491
0.214861
0.139166
0.236904
0.602676
0.298284
0.117316
0.0851264
0.098046
0.0789295
0.111733
0.0891929
0.081018
0.104784
0.119127
0.534914
0.424252
0.448841
0.330414
0.455453
0.530853
0.406933
0.53031
0.610326
0.64139
0.569711
0.452782
0.797717
0.665633
0.610197
0.759362
0.655212
0.507554
0.777469
0.554931
0.706566
0.857572
0.82879
0.877297
0.845879
0.8001
0.626645
0.845592
0.866228
0.76144
0.720683
0.602123
0.742373
0.581644
0.57622
0.609201
0.397103
0.392686
0.642439
0.771631
0.613728
0.638996
0.768857
0.632286
0.703922
0.696396
0.208304
0.448248
0.280887
0.124597
0.5953
0.484237
0.405932
0.423732
0.165932
0.817425
0.661238
0.765856
0.425709
0.53299
0.129205
0.218228
0.483359
0.39695
0.490496
0.391796
0.690956
0.459715
0.465558
0.337976
0.298516
0.271943
0.48275
0.297559
0.412504
0.392952
0.591229
0.212966
0.318014
0.610031
0.162729
0.862454
0.141364
0.41419
0.308534
0.193106
0.221462
0.333598
0.201087
0.24936
0.549388
0.252137
0.169191
0.524959
0.772691
0.452497
0.272525
0.460021
0.267612
0.200573
0.321745
0.573281
0.212789
0.307157
0.166418
0.207432
0.169558
0.288101
0.179158
0.761996
0.815781
0.721129
0.616922
0.689329
0.857241
0.816257
0.795137
0.771434
0.776569
0.820661
0.797017
0.87657
0.685902
0.780022
0.728643
0.797911
0.784464
0.834023
0.659096
0.617615
0.69246
0.88433
0.129761
0.0841102
0.165519
0.13703
0.152694
0.889069
0.239397
0.215786
0.48266
0.598108
0.352537
0.370166
0.191716
0.518579
0.343003
0.227238
0.463021
0.185931
0.240607
0.180075
0.405796
0.158062
0.199661
0.230613
0.145049
0.161438
0.240119
0.304654
0.718295
0.236617
0.361898
0.541699
0.302017
0.615164
0.315763
0.282941
0.645008
0.365097
0.174798
0.534879
0.548001
0.385408
0.370426
0.541395
0.241493
0.406188
0.557101
0.426209
0.344766
0.756298
0.583581
0.572381
0.882119
0.439921
0.769495
0.909977
0.771378
0.450965
0.869614
0.647219
0.744674
0.620909
0.903107
0.639601
0.794045
0.80834
0.781682
0.775151
0.790877
0.561053
0.630481
0.894742
0.725506
0.801844
0.574178
0.790626
0.886843
0.642305
0.712906
0.684015
0.606084
0.655268
0.729495
0.688668
0.380818
0.481974
0.774402
0.615807
0.585296
0.632479
0.763521
0.617562
0.822861
0.774883
0.882973
0.661227
0.589727
0.222977
0.218695
0.706014
0.696171
0.297977
0.431884
0.611224
0.700195
0.404488
0.364631
0.690728
0.494143
0.506074
0.604715
0.248019
0.283356
0.0751215
0.0609943
0.0992164
0.136015
0.0851457
0.0572142
0.121676
0.771969
0.119131
0.137853
0.0961594
0.874187
0.159519
0.108343
0.147448
0.239245
0.0351921
0.153159
0.0559857
0.785354
0.0741941
0.173994
0.0870736
0.2896
0.543647
0.09571
0.0937244
0.22139
0.227926
0.189629
0.427223
0.263283
0.439497
0.589721
0.153763
0.211111
0.354881
0.749884
0.818824
0.659879
0.486014
0.727626
0.688926
0.580893
0.604944
0.274429
0.282314
0.301197
0.304549
0.682929
0.172613
0.205689
0.65007
0.758297
0.642414
0.502029
0.290046
0.526784
0.660592
0.791601
0.384976
0.388636
0.259848
0.465603
0.451488
0.235694
0.320461
0.390765
0.448403
0.431712
0.580925
0.299343
0.485038
0.736976
0.428067
0.336699
0.624656
0.0651878
0.318479
0.533052
0.986094
0.489036
0.58171
0.351188
0.287809
0.258271
0.468937
0.414095
0.23575
0.528726
0.292217
0.433969
0.3503
0.700031
0.386266
0.218027
0.33582
0.225338
0.606141
0.924681
0.364194
0.274098
0.838785
0.824388
0.623005
0.672093
0.602579
0.72032
0.69147
0.953303
0.697985
0.68501
0.31862
0.303593
0.586746
0.625338
0.388071
0.304285
0.311538
0.314528
0.509212
0.673311
0.570148
0.402327
0.454254
0.85855
0.517335
0.449903
0.850063
0.495809
0.720075
0.825544
0.376522
0.223339
0.263198
0.376671
0.914281
0.515957
0.725175
0.323972
0.484198
0.487278
0.508264
0.531531
0.471145
0.230673
0.462845
0.539441
0.375475
0.693939
0.553917
0.722857
0.888543
0.940943
0.413371
0.662939
0.881975
0.719328
0.170667
0.712927
0.22906
0.278263
0.861381
0.611992
0.879802
0.540064
0.30085
0.329241
0.325546
0.546591
0.487446
0.26997
0.379367
0.201014
0.439158
0.176091
0.176853
0.361931
0.254785
0.260725
0.781562
0.82101
0.860137
0.900455
0.842329
0.453805
0.783115
0.833954
0.839392
0.228747
0.370904
0.721536
0.768559
0.446818
0.171144
0.572572
0.706884
0.905359
0.220712
0.850837
0.829332
0.254843
0.349252
0.301488
0.702908
0.475342
0.620312
0.195651
0.207013
0.52074
0.410601
0.471857
0.765277
0.88527
0.651036
0.444815
0.240471
0.529144
0.190823
0.315065
0.23807
0.452945
0.322264
0.322873
0.80584
0.73195
0.454912
0.859433
0.264725
0.253293
0.818285
0.872322
0.261825
0.866003
0.269579
0.430729
0.506238
0.780669
0.692376
0.371914
0.508571
0.516936
0.228946
0.430355
0.528459
0.495605
0.445437
0.855978
0.732559
0.78259
0.767155
0.473699
0.781162
0.789423
0.356123
0.560508
0.631811
0.527471
0.868457
0.472632
0.281976
0.882521
0.4427
0.248589
0.615014
0.624298
0.850032
0.66031
0.788139
0.897249
0.173699
0.12992
0.0906075
0.548996
0.421007
0.3228
0.18113
0.544742
0.102472
0.521411
0.171745
0.151823
0.343658
0.43456
0.434389
0.526821
0.451788
0.113845
0.110598
0.466712
0.339588
0.224341
0.192688
0.70445
0.261009
0.802377
0.634424
0.65923
0.613392
0.362807
0.658418
0.730739
0.749691
0.743847
0.801422
0.810452
0.885066
0.857884
0.602137
0.729596
0.584141
0.559208
0.777603
0.597671
0.135525
0.12994
0.755551
0.101897
0.783346
0.760673
0.841508
0.610301
0.875926
0.832926
0.850431
0.422021
0.773839
0.328934
0.228603
0.811872
0.741542
0.687604
0.432736
0.434606
0.652306
0.248161
0.810901
0.59119
0.547572
0.724569
0.46894
0.166878
0.602469
0.581997
0.170242
0.661641
0.58292
0.106018
0.300144
0.2632
0.708924
0.163884
0.161898
0.181478
0.147131
0.164792
0.386907
0.301536
0.137631
0.837196
0.685777
0.779171
0.691281
0.273033
0.301301
0.810299
0.497404
0.291164
0.417956
0.444903
0.596025
0.753251
0.467741
0.300526
0.0636436
0.499295
0.689516
0.578618
0.240786
0.307152
0.450785
0.536472
0.506289
0.499238
0.360777
0.594079
0.653917
0.118782
0.151895
0.384953
0.667958
0.211833
0.755913
0.32811
0.378982
0.552529
0.388593
0.507961
0.854993
0.52875
0.472465
0.583485
0.446183
0.236042
0.283834
0.701746
0.340858
0.573853
0.785723
0.551264
0.409819
0.512868
0.176069
0.702652
0.38011
0.229368
0.819526
0.755906
0.621689
0.672182
0.206973
0.184402
0.381726
0.203432
0.178201
0.735401
0.171975
0.628938
0.75543
0.936154
0.650443
0.20216
0.259058
0.387758
0.17957
0.675848
0.690529
0.812485
0.794239
0.805226
0.704839
0.534522
0.128671
0.0862628
0.465813
0.884651
0.54808
0.441326
0.894905
0.779106
0.923877
0.845868
0.654679
0.809329
0.756028
0.279643
0.154765
0.299806
0.111764
0.333946
0.240644
0.903713
0.157156
0.157156
0.836224
0.805508
0.801037
0.831113
0.109175
0.103827
0.217939
0.572793
0.164716
0.166996
0.509009
0.362647
0.179302
0.111585
0.621199
0.109755
0.218034
0.161493
0.139087
0.521599
0.856116
0.233788
0.19017
0.776579
0.457161
0.783202
0.00936081
0.551218
0.214278
0.238737
0.225351
0.615134
0.331744
0.461802
0.439116
0.878454
0.771766
0.797508
0.716134
0.752249
0.673179
0.936691
0.731399
0.812581
0.743743
0.811048
0.433343
0.442762
0.529236
0.45388
0.764579
0.66789
0.64041
0.451953
0.751818
0.483046
0.774527
0.5734
0.955001
0.725956
0.765197
0.292449
0.452647
0.731371
0.511287
0.643549
0.567798
0.471245
0.72121
0.732883
0.785741
0.709266
0.404524
0.670738
0.559034
0.586496
0.909578
0.563808
0.632041
0.41278
0.397978
0.510774
0.522498
0.581874
0.74532
0.531673
0.514392
0.824958
0.561898
0.448139
0.705827
0.639168
0.737915
0.95935
0.627233
0.578078
0.549073
0.525553
0.701372
0.503164
0.857403
0.725444
0
0.445871
0.410019
0.463084
0.576003
0.210493
0.169394
0.145311
0.0912296
0.211995
0.53627
0.756546
0.193039
0.245793
0.845534
0.170622
0.6235
0.519218
0.137681
0.797904
0.788391
0.194182
0.155727
0.821037
0.0583412
0.301113
0.782122
0.760546
0.709432
0.757395
0.792068
0.82719
0.0817337
0.8163
0.724585
0.2341
0.436839
0.13841
0.223705
0.285478
0.733809
0.120695
0.1512
0.642954
0.105589
0.107708
0.161312
0.583326
0.633572
0.162253
0.121613
0.735312
0.219351
0.115026
0.126995
0.109475
0.110887
0.783035
0.881151
0.0703643
0.854926
0.795872
0.80733
0.797275
0.764147
0.854611
0.669614
0.773185
0.81498
0.691202
0.16271
0.11832
0.284835
0.827542
0.188142
0.165672
0.880349
0.694031
0.880163
0.791036
0.564799
0.180606
0.234112
0.207315
0.1653
0.175402
0.153336
0.107411
0.150161
0.292516
0.156529
0.19775
0.642262
0.178319
0.496445
0.433033
0.735162
0.398761
0.150958
0.101939
0.553275
0.426638
0.47394
0.592142
0.460576
0.422439
0.202113
0.175681
0.438908
0.198944
0.675948
0.370366
0.125904
0.202269
0.451577
0.60036
0.137986
0.162792
0.171809
0.753792
0.784819
0.803692
0.903451
0.53517
0.766617
0.635194
0.861389
0.858742
0.748499
0.486019
0.2203
0.0635334
0.194237
0.808611
0.142917
0.306896
0.521393
0.582491
0.404398
0.557409
0.198567
0.419515
0.141371
0.249588
0.169049
0.230266
0.0810105
0.18548
0.17572
0.132433
0.170457
0.800668
0.448849
0.18717
0.137912
0.122077
0.756558
0.169312
0.145778
0.268187
0.622944
0.403343
0.763782
0.42888
0.178239
0.14327
0.431184
0.58399
0.867466
0.709988
0.160087
0.517747
0.469609
0.0881931
0.80329
0.767155
0.816879
0.10781
0.77369
0.858178
0.900862
0.155434
0.336289
0.138525
0.802031
0.139366
0.602894
0.267412
