0.274275
0.383149
0.348162
0.270295
0.598918
0.340475
0.24876
0.288293
0.490669
0.415024
0.618456
0.573746
0.454435
0.451869
0.472128
0.389243
0.702969
0.602058
0.762511
0.410698
0.650322
0.717704
0.635994
0.631528
0.738748
0.786438
0.605913
0.276181
0.640684
0.308573
0.289132
0.288586
0.77489
0.524673
0.458919
0.429052
0.617283
0.530202
0.58509
0.724728
0.535517
0.503072
0.530566
0.555419
0.593039
0.671857
0.458212
0.471124
0.628495
0.675053
0.694656
0.708403
0.586291
0.733348
0.584667
0.685262
0.650467
0.732813
0.639615
0.625121
0.657654
0.754651
0.735837
0.73421
0.144842
0.200055
0.179021
0.929643
0.556442
0.458838
0.350008
0.282831
0.819581
0.812877
0.618895
0.238251
0.806485
0.240656
0.575816
0.731647
0.584134
0.662467
0.887896
0.790367
0.301215
0.544906
0.318157
0.28524
0.289389
0.321531
0.501786
0.290869
0.459484
0.524878
0.481617
0.310304
0.514148
0.364128
0.252985
0.30034
0.438845
0.342072
0.399289
0.368596
0.246916
0.282771
0.870395
0.324921
0.452729
0.34984
0.450715
0.248044
0.79465
0.449549
0.553162
0.721874
0.379204
0.473023
0.643844
0.436617
0.545507
0.486424
0.441738
0.480984
0.442702
0.494891
0.554321
0.510166
0.299441
0.361177
0.337665
0.222955
0.207349
0.47197
0.246181
0.466016
0.323013
0.390309
0.183242
0.152405
0.536302
0.496828
0.475266
0.501494
0.278362
0.404531
0.863139
0.627272
0.519424
0.120599
0.113541
0.554667
0.642764
0.50775
0.216605
0.839016
0.639329
0.207178
0.831716
0.596821
0.24736
0.250376
0.293584
0.251245
0.25645
0.221719
0.549346
0.292699
0.356655
0.284528
0.229979
0.232614
0.243035
0.261348
0.319627
0.316947
0.338921
0.300157
0.25626
0.219377
0.25371
0.222345
0.209635
0.30208
0.287837
0.227728
0.232097
0.21305
0.23327
0.198758
0.288457
0.253915
0.218374
0.254461
0.711706
0.166636
0.116989
0.525483
0.186538
0.244693
0.216382
0.211925
0.394315
0.270453
0.455524
0.659147
0.143437
0.233502
0.360965
0.347897
0.29682
0.104761
0.130599
0.259785
0.305615
0.259953
0.340528
0.281934
0.309307
0.519467
0.16697
0.350263
0.150567
0.239
0.277101
0.213154
0.154647
0.220647
0.125545
0.527803
0.497657
0.301369
0.413057
0.354575
0.226679
0.415054
0.37118
0.139448
0.121636
0.127492
0.233715
0.285796
0.136681
0.117191
0.16085
0.237686
0.386001
0.19548
0.206016
0.829994
0.203771
0.182325
0.201931
0.132878
0.118898
0.202932
0.371299
0.226346
0.37687
0.442946
0.329175
0.31161
0.147076
0.22998
0.514948
0.480129
0.686524
0.518695
0.44075
0.514547
0.446504
0.435258
0.735591
0.693072
0.816452
0.74616
0.616443
0.593109
0.596076
0.54975
0.159489
0.177725
0.198845
0.208393
0.546779
0.273308
0.331236
0.324893
0.299837
0.298406
0.328335
0.333883
0.289948
0.244914
0.254061
0.241213
0.736712
0.363077
0.364038
0.407829
0.278194
0.288882
0.355706
0.314935
0.690939
0.379595
0.403565
0.332798
0.290504
0.287412
0.367859
0.357698
0.296231
0.275797
0.262439
0.224934
0.284408
0.241803
0.346785
0.298868
0.199954
0.414781
0.314206
0.256435
0.44285
0.232106
0.409858
0.182303
0.635496
0.480331
0.490027
0.409763
0.282606
0.571928
0.621472
0.35458
0.439923
0.427613
0.395163
0.436757
0.550431
0.497308
0.441616
0.4794
0.312764
0.375786
0.3636
0.216842
0.254475
0.435661
0.400225
0.403938
0.161965
0.233859
0.26696
0.228264
0.22609
0.264624
0.148003
0.178211
0.736173
0.768045
0.632301
0.542479
0.339654
0.594262
0.333978
0.36463
0.460973
0.306404
0.639462
0.359219
0.316642
0.326025
0.681432
0.493743
0.248454
0.157504
0.0739982
0.170831
0.243806
0.429543
0.261402
0.20112
0.527969
0.461215
0.406047
0.552121
0.366644
0.462606
0.474067
0.404782
0.43954
0.397459
0.295291
0.334078
0.619808
0.881122
0.379723
0.376994
0.36294
0.320265
0.61147
0.546823
0.403576
0.274892
0.474356
0.312313
0.339787
0.243275
0.399406
0.427322
0.340276
0.377663
0.3656
0.301322
0.560455
0.635304
0.516434
0.365889
0.559208
0.415023
0.547156
0.485452
0.363075
0.337613
0.903309
0.385948
0.519733
0.395066
0.390278
0.527037
0.363073
0.515386
0.616005
0.533311
0.441661
0.459926
0.428139
0.370774
0.418445
0.690442
0.617889
0.617752
0.7781
0.542341
0.717907
0.423299
0.303682
0.309531
0.290113
0.233288
0.359652
0.300188
0.514889
0.337645
0.312923
0.582803
0.365229
0.320629
0.348707
0.306389
0.260164
0.283063
0.373435
0.266231
0.477433
0.402141
0.373698
0.411635
0.287995
0.370881
0.498934
0.41385
0.323285
0.396997
0.362121
0.418421
0.296026
0.586856
0.323705
0.387348
0.233883
0.275378
0.185455
0.192891
0.237636
0.239535
0.272197
0.310508
0.214005
0.512375
0.223439
0.208243
0.365414
0.250497
0.283688
0.274518
0.314988
0.690782
0.225158
0.247306
0.231495
0.233816
0.278288
0.261914
0.220026
0.144413
0.270652
0.1948
0.161809
0.323452
0.432981
0.447562
0.249502
0.243089
0.280508
0.238184
0.327041
0.333937
0.361646
0.37387
0.403517
0.432613
0.578378
0.342674
0.386126
0.555355
0.460015
0.399813
0.476215
0.37634
0.299373
0.371314
0.448771
0.23411
0.282521
0.411092
0.360557
0.276856
0.323248
0.329123
0.20534
0.202951
0.480439
0.108113
0.781123
0.240268
0.238912
0.264668
0.269438
0.335042
0.289468
0.523217
0.660564
0.323941
0.294928
0.336597
0.361643
0.692756
0.263126
0.62644
0.348839
0.885624
0.381578
0.415945
0.513801
0.638188
0.473723
0.285717
0.610241
0.273332
0.842727
0.691152
0.535278
0.389319
0.404851
0.154473
0.249091
0.275329
0.14455
0.458435
0
0.237658
0.363278
0.841004
0.19166
0.447744
0.184452
0.448105
0.241694
0.695006
0.576047
0.708241
0.114665
0.54258
0.180928
0.131073
0.57807
0.835738
0.362719
0
0.351948
1
0.558645
0.360408
0.580731
0.560099
0.54109
0.765913
0.457751
0.567304
0.826344
0.659737
0.590426
0.703226
0.542254
0.182081
0.553699
0.529155
0.56566
0.477943
0.675125
0.690526
0.568805
0.7007
0.522152
0
0.231489
0.477781
0.646281
0.648076
0.46851
0.520708
0
0.139046
0.513199
0.342965
0.56863
0.250014
0
0.138943
0.45315
0.443827
0.449526
0.457241
0.434644
0.466852
0.549909
0.514669
0.526393
0.439886
0.479273
0.219982
0.246408
0.139924
0.438614
0.396147
0.14641
0
0.287168
0.0677745
0.558182
0.565492
0.262285
0
0
0
0
0.27778
0.299911
0.277455
0.28966
0.298033
0.277159
0.326423
0.367618
0.2853
0.303907
0.343325
0.621819
0.598683
0.481162
0.279498
0.289712
0.383281
0.350843
0.353621
0.315821
0.379087
0.288916
0.353229
0.354184
0.449209
0.319566
0.3298
0.310237
0.326963
0.290207
0.372862
0.30894
0.466612
0.485914
0.443247
0.711831
0.391726
0.393819
0.490326
0.354194
0.458632
0.47211
0.455391
0.362672
0.430074
0.465105
0.370798
0.355751
0.236877
0.327712
0.396646
0.374013
0.366463
0.400148
0.33765
0.515179
0.31596
0.399353
0.814225
0.354891
0.316369
0.336305
0.33876
0.419436
0.37473
0.438386
0.384564
0.782168
0.323491
0.353585
0.355244
0.41384
0.421123
0.312343
0.31746
0.24181
0.24398
0.482431
0.817659
0.309487
0.270677
0.327475
0.322824
0.333188
0.326733
0.947179
0.570967
0.598793
0.616294
0.556582
0.575564
0.274315
0.310026
0.326072
0.358725
0.261071
0.273084
0.277254
0.278374
0.244997
0.234361
0.228563
0.233038
0.211467
0.317581
0.344257
0.240311
0.375718
0.247124
0.295956
0.595394
0.302372
0.280513
0.276
0.267988
0.296279
0.278903
0.25976
0.29809
0.26637
0.265867
0.322263
0.333842
0.293354
0.31799
0.272346
0.546014
0.575809
0.507711
0.71675
0.570779
0.507913
0.642529
0.639055
0.717434
0.895112
0.763165
0.456745
0.202452
0.892135
0.773699
0.285281
0.353867
0.798269
0.323033
0.666613
0.527405
0.780276
0.53694
0.348922
0.671553
0.588546
0.646088
0.638555
0.568047
0.695633
0.411695
0.653593
0.684706
0.736076
0.898346
0.681801
0.639822
0.686053
0.574069
0.622473
0.716378
0.311501
0.90415
0.496204
0.246526
0.479643
0.743479
0.758787
0.307332
0.722992
0.203968
0.499397
0.307034
0.277077
0.281185
0.643456
0.713771
0.727511
0.781647
0.685918
0.512831
0.653243
0.613853
0.668945
0.627707
0.565729
0.619951
0.538331
0.705266
0.724705
0.72197
0.258428
0.531358
0.703939
0.346191
0.293145
0.320089
0.683734
0.778243
0.748172
0.851421
0.604897
0.24715
0.586121
0.373351
0.395295
0.635132
0.589385
0.299266
0.557118
0.618532
0.611522
0.431146
0.41472
0.425109
0.643858
0.733675
0.593388
0.696397
0.717626
0.62754
0.67907
0.544122
0.737138
0.694157
0.633407
0.695749
0.625283
0.747128
0.669307
0.647634
0.774369
0.644991
0.42852
0.831695
0.210605
0.685042
0.40603
0.609911
0.50602
0.732559
0.611875
0.621135
0.628108
0.635596
0.710832
0.718899
0.697487
0.889679
