0.320903
0.550958
0.324499
0.474071
0.450253
0.405035
0.490768
0.34948
0.288316
0.585453
0.209878
0.467236
0.432268
0.431462
0.468988
0.548209
0.413897
0.302417
0.262883
0.554371
0.375291
0.416906
0.329003
0.335177
0.295916
0.56323
0.278406
0.337662
0.43978
0.351975
0.67044
0.382231
0.310797
0.486816
0.277059
0.800779
0.657363
0.5777
0.564843
0.544541
0.168137
0.827112
0
0.529054
0.573325
0.47435
0.264261
0.400703
0.2103
0.465839
0.690704
0.452696
0.831547
0.764166
0.623231
0.910324
0.296965
0.735725
0.839756
0.759458
0.558135
0.717977
0.79489
0.806498
0.730394
0.883132
0.710455
0.738391
0.605174
0.526962
0.889887
0.790331
0.609958
0.911602
0.394433
0.661841
0.888663
0.548534
0.594455
0.709416
0.46099
0.585706
0.761736
0.542644
0.38473
0.506713
0.358372
0.574841
0.801699
0.784838
0.523809
0.856
0.610315
0.680819
0.695337
0.520219
0.766917
0.966855
0.564006
0.557428
0.928434
0.859523
0.54434
0.744628
0.817579
0.600791
0.618539
0.434067
0.54241
0.714691
0.840204
0.719872
0.538031
0.825528
0.819478
0.723265
0.723057
0.423012
0.475999
0.775087
0.353163
0.466778
0.989187
0.863291
0.278044
0.79606
0.832243
0.84681
0.437427
0.596058
0.655419
0.879313
0.84381
0.558845
0.804664
1
0.375663
0.728116
0.682918
0.745889
0.878607
0.745988
0.798104
0.437796
0.389595
0.66106
0.658921
0.588186
0.376339
0.650862
0.712085
0.719975
0.777894
0.631316
0.87254
0.656154
0.867939
0.975814
0.493374
0.606124
0.773575
0.270755
0.788925
0.689855
0.809072
0.479856
0.674279
0.740226
0.546702
0.679855
0.714879
0.686342
0.755123
0.651826
0.591675
0.733832
0.702469
0.448238
0.648503
0.810859
0.795667
0.740184
0.590361
0.70779
0.766686
0.269687
0.791844
0.791767
0.77175
0.832099
0.216516
0.969309
0.777051
0.70573
0.809768
0.242993
0.783383
0.748955
0.808003
0.537231
0.716911
0.787961
0.494573
0.618257
0.731239
0.505906
0.347263
0.520314
0.665239
0.603379
0.715121
0.665005
0.574768
0.267155
0.720206
0.558399
0.388949
0.586209
0.936459
0.732213
0.695971
0.709274
0.727368
0.69697
0.654649
0.732999
0.515733
0.623311
0.712374
0.319725
0.601512
0.670572
0.485638
0.432568
0.43642
0.402042
0.617881
0.643146
0.618472
0.585347
0.351558
0.44025
0.443834
0.59176
0.525791
0.640434
0.543606
0.43958
0.511709
0.67553
0.48711
0.688622
0.575895
0.616662
0.414057
0.642153
0.625147
0.537697
0.397443
0.541821
0.50203
0.744643
0.70849
0.371179
0.267157
0.255952
0.388488
0.398193
0.489282
0.49572
0.342729
0.446881
0.544316
0.539754
0.540053
0.520218
0.563335
0.352202
0.395608
0.515504
0.731447
0.578358
0.681806
0.697239
0.374499
0.507054
0.565492
0.408245
0.593854
0.628369
0.515826
0.547045
0.51709
0.545283
0.726106
0.578121
0.323777
0.33098
0.3372
0.337232
0.350129
0.585082
0.47413
0.522795
0.226718
0.252967
0.235443
0.306065
0.393672
0.290996
0.535105
0.332132
0.573451
0.513739
0.584046
0.706449
0.432188
0.521165
0.545732
0.457847
0.688925
0.542977
0.64076
0.653245
0.302749
0.345415
0.736943
0.517756
0.613207
0.309216
0.347466
0.360024
0.52824
0.401379
0.467386
0.519771
0.294372
0.371696
0.261553
0.384178
0.374132
0.307577
0.330552
0.307104
0.667189
0.572465
0.588151
0.525346
0.567952
0.588752
0.542241
0.51987
0.485982
0.542935
0.307603
0.344718
0.256641
0.584954
0.36464
0.552176
0.509136
0.873387
0.344721
0.543051
0.265575
0.253985
0.522642
0.369797
0.26225
0.123105
0.145643
0.33496
0.169646
0.442685
0.282948
0.292542
0.187767
0.324679
0.276842
0.363697
0.275062
0.323731
0.193895
0.166768
0.266435
0.268129
0.153254
0.146958
0.348955
0.141253
0.234357
0.262081
0.316141
0.350238
0.288695
0.182502
0.226245
0.148776
0.165197
0.174154
0.193702
0.202618
0.630201
0.102094
0.289925
0.398767
0.415886
0.305849
0.225508
0.242163
0.183474
0.243524
0.148272
0.250947
0.53296
0.140359
0.146106
0.222292
0.0814319
0.288974
0.30397
0.549055
0.344644
0.450214
0.511403
0.210713
0.342119
0.357
0.314929
0.347599
0.14602
0.166274
0.187708
0.200287
0.15278
0.10604
0.188659
0.254952
0.342922
0.445465
0.135938
0.201968
0.272824
0.373978
0.393112
0.390267
0.114038
0.189144
0.16072
0.207265
0.225635
0.174909
0.135115
0.167482
0.273378
0.285029
0.19178
0.423298
0.324139
0.234404
0.236914
0.174787
0.182593
0.191994
0.292431
0.395035
0.382165
0.12624
0.241244
0.329278
0.358765
0.349289
0.599958
0.539141
0.427247
0.226922
0.156737
0.181087
0.267985
0.523033
