OFF
754 1490 0
-2.6571 -16.9243 1.28608
-2.79383 -16.8772 1.75218
-3.4122 -16.8924 1.81428
-3.74969 -16.9107 1.28938
-3.61802 -16.9502 0.822383
-3.05024 -16.9754 0.715083
-1.2445 -5.6588 1.77428
-1.26249 -5.0917 2.08618
-1.44779 -5.8922 2.05708
-1.54493 -6.4141 2.09118
-1.3967 -6.4297 1.79528
-1.29797 -6.1851 1.43878
-1.05305 -5.1281 1.43868
-1.63096 -7.0418 2.20488
-1.67848 -7.8179 2.48408
-1.55095 -7.7635 1.93348
-1.48755 -7.0599 1.85918
-1.51662 -7.7672 1.43998
-1.44405 -7.0694 1.43948
-1.55186 -7.8061 0.949083
-1.68174 -7.9004 0.410083
-1.63569 -7.1127 0.679383
-1.48908 -7.0991 1.02158
-1.55024 -6.4807 0.787883
-1.39862 -6.4662 1.08298
-1.45333 -5.9577 0.820283
-1.26883 -5.1625 0.791283
-1.24615 -5.6926 1.10298
-2.25842 -5.6711 2.22218
-2.42713 -5.1087 2.08498
-2.5581 -5.8922 2.05708
-2.68217 -6.41 2.08878
-2.41637 -6.3938 2.26418
-2.10189 -6.3823 2.32248
-2.00049 -5.8803 2.28198
-1.84124 -5.0793 2.32158
-2.86928 -7.0254 2.19508
-3.17641 -7.833 2.45938
-2.68256 -7.5794 2.68538
-2.56541 -6.9871 2.39408
-2.30013 -7.5165 2.75008
-2.21078 -6.9499 2.45958
-1.96175 -7.5786 2.69548
-1.88567 -6.9866 2.40078
-1.7957 -6.3937 2.26588
-1.66424 -5.7157 2.22148
-2.63328 -5.4038 1.09418
-2.44777 -5.1625 0.791283
-2.57956 -5.9577 0.820283
-2.82077 -6.3409 1.09318
-2.70433 -6.4769 0.790383
-2.8993 -6.4198 1.43928
-2.75749 -5.8626 1.43868
-2.89391 -7.0976 0.689583
-3.20791 -7.9203 0.435483
-3.36077 -7.5869 0.988883
-3.05695 -7.0317 1.02918
-3.3955 -7.4854 1.44438
-3.09953 -6.9667 1.44108
-3.34435 -7.544 1.90078
-3.04215 -6.9916 1.85358
-2.80803 -6.3053 1.78488
-2.62035 -5.3673 1.78318
-1.67423 -5.7899 0.655483
-1.80736 -6.4777 0.614083
-2.12028 -6.472 0.557983
-2.01147 -5.9344 0.597183
-1.97272 -7.6733 0.210083
-1.89693 -7.0744 0.487083
-2.31918 -7.6147 0.159183
-2.22946 -7.0425 0.430083
-2.70887 -7.6754 0.219983
-2.58994 -7.0757 0.493683
-2.43926 -6.4781 0.615783
-2.279 -5.7446 0.654683
-1.6044 -8.5965 2.55118
-1.60875 -9.4155 3.16768
-1.58646 -9.2692 2.02288
-1.57885 -9.2737 1.43648
-1.54976 -8.5091 1.43948
-1.66475 -10.0162 2.65248
-1.85137 -10.7592 2.69598
-1.77015 -10.7676 2.04718
-1.63929 -10.0398 1.42918
-1.74848 -10.7897 1.41498
-1.7711 -10.8274 0.782583
-1.85473 -10.875 0.131783
-1.66693 -10.1214 0.205883
-1.60841 -9.5308 -0.292417
-1.58625 -9.3187 0.850483
-1.60483 -8.6806 0.336483
-3.89172 -16.3263 8.54678
-4.25887 -16.3257 7.88198
-3.44676 -16.333 8.40008
-3.40703 -16.3448 7.60828
-4.15677 -16.3257 7.36428
-9.31073 -16.3292 1.39868
-8.5134 -16.3388 0.955883
-9.076 -16.3433 1.89508
-7.92968 -16.3291 1.81828
-8.62716 -16.3166 2.15788
-7.98879 -16.3324 1.10428
-3.31872 -16.3091 -5.51552
-3.23185 -16.3159 -4.73032
-4.04288 -16.343 -5.27612
-4.04707 -16.32 -4.50232
-2.08792 -11.4843 2.42758
-1.957 -11.4805 1.96208
-2.30211 -12.1676 2.25668
-2.16967 -12.182 1.85178
-1.92383 -11.5056 1.39128
-2.49349 -12.8697 2.12888
-2.64347 -13.6016 2.03088
-2.52538 -13.6198 1.70348
-2.36715 -12.8892 1.76778
-2.48637 -13.6417 1.31058
-2.32541 -12.9125 1.33428
-2.52699 -13.6635 0.917783
-2.64781 -13.6817 0.590383
-2.49814 -12.9554 0.539783
-2.36887 -12.9359 0.900883
-2.30692 -12.261 0.468383
-2.1714 -12.2331 0.873783
-2.09249 -11.5873 0.352983
-1.95846 -11.5373 0.820283
-2.93133 -11.0602 2.94898
-3.36921 -10.8499 2.75428
-3.30003 -11.543 2.44848
-3.01165 -11.5558 2.69608
-3.33958 -12.1823 2.26188
-3.09903 -12.1763 2.49698
-2.81422 -12.1801 2.57078
-2.67397 -11.5833 2.76038
-2.55618 -11.113 2.99478
-3.42407 -12.8697 2.12888
-3.53679 -13.8975 2.00198
-3.33695 -13.7722 2.19928
-3.21063 -12.858 2.34558
-3.11776 -13.9291 2.24038
-2.95672 -12.8541 2.41788
-2.84007 -13.5907 2.22728
-2.70385 -12.858 2.34558
-2.53278 -12.1721 2.49348
-2.19507 -11.035 2.92838
-2.34648 -11.539 2.68228
-3.62492 -11.2946 0.778683
-3.40177 -10.9764 0.092283
-3.32439 -11.6495 0.338383
-3.4943 -11.6905 0.811483
-3.36809 -12.359 0.482083
-3.5014 -12.3047 0.875883
-3.54394 -12.3041 1.35878
-3.54592 -11.7155 1.39378
-3.67683 -11.3571 1.42088
-3.53002 -13.6817 0.590383
-3.64603 -13.6635 0.917783
-3.68088 -13.6417 1.31058
-3.65375 -13.8026 1.68638
-3.49038 -12.2648 1.84408
-3.6082 -11.2303 2.06428
-3.47965 -11.6313 1.97688
-2.20641 -11.1718 -0.121917
-2.35746 -11.6671 0.092883
-2.54338 -12.2902 0.230283
-2.83097 -12.3063 0.152383
-2.69227 -11.7192 0.012183
-2.57588 -11.2564 -0.193217
-2.87676 -13.8716 0.411783
-2.7138 -12.9671 0.323083
-3.13156 -14.0328 0.364083
-2.97215 -12.971 0.250783
-3.35485 -13.8775 0.412383
-3.13083 -12.3577 0.242783
-2.95858 -11.2006 -0.136817
-3.03581 -11.6863 0.082983
-3.01561 -8.3493 3.17218
-2.69985 -8.0866 3.20848
-2.9691 -8.7589 3.83968
-2.69552 -8.542 3.87668
-2.37955 -8.4738 3.89648
-2.34289 -8.0153 3.25058
-3.00301 -9.1574 4.54348
-3.11419 -9.5766 5.27798
-2.86882 -9.4279 5.36708
-2.74785 -8.9789 4.60318
-2.58297 -9.3783 5.39678
-2.4506 -8.9193 4.62308
-2.27499 -9.3832 5.28968
-2.06797 -9.5766 5.27798
-1.90671 -9.1458 4.51398
-2.07455 -8.5419 3.87838
-1.76638 -8.3413 3.16318
-2.017 -8.0861 3.21528
-3.5061 -10.1257 2.92888
-3.13353 -10.507 3.23948
-3.28404 -10.0455 3.26778
-3.05376 -10.4072 3.65148
-3.19591 -10.0398 3.70508
-3.22408 -9.5917 3.76508
-3.30724 -9.4627 3.28388
-3.51858 -9.4419 2.91998
-3.07535 -10.467 4.10548
-3.18376 -10.6671 4.62458
-3.31553 -10.4192 4.77308
-3.21238 -10.1694 4.20508
-3.34373 -10.1218 4.95128
-3.24171 -9.8122 4.32448
-3.27456 -9.8244 5.12948
-3.16977 -9.4551 4.44398
-3.14688 -9.1367 3.80618
-3.4275 -8.7182 2.77948
-3.21793 -8.8526 3.22468
-1.84011 -10.4746 3.19978
-2.12863 -10.7365 3.24798
-1.86098 -10.3991 3.64148
-2.13434 -10.6158 3.62558
-2.46237 -10.6867 3.62478
-2.48105 -10.8184 3.28208
-1.94669 -10.4825 4.20538
-2.34136 -10.8158 4.53548
-2.19935 -10.6456 4.04578
-2.64383 -10.8653 4.50578
-2.51389 -10.7051 4.02588
-2.94225 -10.8158 4.53548
-2.82421 -10.6456 4.04578
-2.78904 -10.62 3.62908
-2.84094 -10.7533 3.26168
-1.63527 -8.8235 3.15508
-1.68303 -9.1295 3.78878
-1.64084 -9.5799 3.73598
-1.92789 -9.8244 5.12948
-1.7694 -9.4551 4.44398
-1.88306 -10.1218 4.95128
-1.72278 -9.8122 4.32448
-1.94972 -10.4297 4.83838
-1.77743 -10.1694 4.20508
-1.69832 -10.0285 3.68258
-3.79289 -8.3539 0.635283
-3.79566 -8.0121 1.01818
-4.34729 -8.7118 0.725083
-4.33591 -8.3884 1.07128
-3.8491 -7.9319 1.44988
-4.96392 -9.1046 0.774383
-5.65956 -9.5896 0.813783
-5.66947 -9.3033 1.12868
-4.95581 -8.7969 1.10248
-5.66873 -9.1949 1.47698
-4.94784 -8.6808 1.46578
-5.65862 -9.2662 1.82488
-5.64044 -9.5192 2.13878
-4.93807 -9.0313 2.15658
-4.94145 -8.7583 1.82888
-4.31817 -8.6361 2.18818
-4.31986 -8.3485 1.84198
-3.76243 -8.2748 2.26488
-3.77887 -7.97 1.88148
-3.5449 -10.257 -0.058217
-3.9249 -10.8856 0.360683
-3.92909 -10.3456 0.166483
-4.43239 -11.0014 0.482183
-4.42432 -10.4993 0.294983
-4.41021 -9.8805 0.301583
-3.9255 -9.6679 0.184083
-3.55898 -9.5667 -0.034817
-4.97912 -11.2454 0.545183
-6.06185 -11.8962 0.649783
-5.75315 -11.2414 0.436983
-4.97877 -10.7712 0.363983
-5.60916 -10.5982 0.422083
-4.97583 -10.1905 0.367083
-5.6377 -10.0517 0.566083
-4.38264 -9.2406 0.460483
-3.46573 -8.8285 0.115383
-3.85814 -8.9549 0.348783
-3.89483 -10.7765 2.52358
-3.95241 -11.1233 2.04998
-4.40544 -10.8999 2.42638
-4.43156 -11.2276 1.99948
-4.45082 -11.3574 1.45368
-3.99887 -11.2597 1.44008
-4.95755 -11.1487 2.38278
-6.0717 -11.8179 2.30908
-5.52978 -11.7755 1.96558
-4.96495 -11.4603 1.97868
-5.52822 -11.891 1.47178
-4.97149 -11.5842 1.46368
-5.53603 -11.8267 0.978283
-4.97645 -11.5145 0.948783
-4.44616 -11.2847 0.908183
-3.96893 -11.1854 0.831183
-3.82021 -8.8488 2.55078
-4.34952 -9.1394 2.45208
-4.37229 -9.7612 2.61048
-3.88545 -9.5459 2.71258
-5.61545 -9.9557 2.38478
-5.58779 -10.4877 2.52658
-4.9435 -10.0746 2.56238
-5.73763 -11.1317 2.51508
-4.95002 -10.6552 2.56468
-4.38955 -10.3789 2.61528
-3.89142 -10.2196 2.72398
-1.76978 -8.4623 -0.252417
-2.02815 -8.1913 -0.277517
-2.08035 -8.6874 -0.942817
-2.39684 -8.5892 -0.915817
-2.3622 -8.122 -0.307517
-1.91172 -9.2824 -1.56802
-2.05215 -9.7042 -2.29222
-2.29152 -9.5531 -2.35122
-2.75516 -9.9641 -3.11852
-2.46143 -9.0411 -1.61162
-2.87417 -9.5531 -2.35122
-3.12603 -9.7042 -2.29222
-3.02843 -9.2824 -1.56802
-2.76653 -9.1014 -1.60072
-3.00116 -8.8774 -0.887117
-2.72077 -8.6579 -0.903217
-3.0495 -8.4574 -0.248517
-2.72702 -8.1927 -0.270917
-1.84483 -10.6087 -0.380717
-1.69737 -10.163 -0.848917
-1.86418 -10.5396 -0.843717
-1.63851 -9.708 -0.859817
-1.94502 -10.6283 -1.44652
-1.93357 -10.5787 -2.03562
-1.7704 -10.308 -1.38302
-1.86232 -10.2581 -2.07562
-1.71432 -9.9461 -1.44832
-1.90835 -9.956 -2.19372
-1.76219 -9.5841 -1.51362
-1.68191 -9.2516 -0.870917
-1.63598 -8.932 -0.253317
-3.16902 -10.6467 -0.414117
-2.86973 -10.8977 -0.457317
-3.08764 -10.5491 -0.852017
-2.81617 -10.7652 -0.852417
-2.48118 -10.833 -0.856517
-2.50161 -10.9646 -0.487717
-3.10262 -10.6097 -1.32862
-3.19737 -10.8119 -1.85912
-2.94947 -10.963 -1.80002
-2.84482 -10.7907 -1.29602
-2.64316 -11.0133 -1.78032
-2.5263 -10.851 -1.28512
-2.33269 -10.963 -1.80002
-2.20345 -10.7907 -1.29602
-2.14465 -10.7604 -0.849917
-2.14055 -10.8785 -0.447417
-3.25651 -8.9699 -0.320817
-3.18347 -9.2611 -0.887817
-3.26263 -9.723 -0.887817
-3.34792 -9.5908 -0.404417
-3.29062 -9.956 -2.19372
-3.19959 -9.5841 -1.51362
-3.36161 -10.2581 -2.07562
-3.2734 -9.9461 -1.44832
-3.33264 -10.5602 -1.95752
-3.24328 -10.308 -1.38302
-3.23357 -10.177 -0.869917
-3.32359 -10.1804 -0.416017
-3.2995 -10.048 6.03758
-3.07043 -9.9198 6.14748
-3.52186 -10.5969 6.76608
-3.31237 -10.4832 6.88978
-3.06832 -10.4453 6.93108
-2.80358 -9.8771 6.18408
-3.74423 -11.2484 7.40748
-3.92953 -12.0278 7.90558
-3.75592 -11.9395 8.04288
-3.55431 -11.1469 7.53978
-3.55367 -11.9101 8.08858
-3.33305 -11.1131 7.58388
-3.35429 -11.9395 8.04288
-3.18929 -12.0278 7.90558
-2.93444 -11.2484 7.40748
-3.11494 -11.1469 7.53978
-2.62863 -10.5969 6.76608
-2.82773 -10.4832 6.88978
-2.32282 -10.048 6.03758
-2.54052 -9.9198 6.14748
-3.36444 -10.9882 5.23178
-3.48745 -10.7745 5.41488
-3.58126 -11.4301 5.85868
-3.69376 -11.2407 6.06488
-3.71784 -11.0135 6.31238
-3.51378 -10.5181 5.63468
-3.79808 -11.9925 6.43728
-3.97876 -12.675 6.89918
-4.07199 -12.5279 7.12798
-3.90007 -11.8234 6.65778
-4.09194 -12.3514 7.40238
-3.9219 -11.6204 6.92238
-4.043 -12.1748 7.67688
-3.86835 -11.4175 7.18698
-3.63883 -10.734 6.51708
-2.34121 -10.9882 5.23178
-2.57803 -11.1164 5.12188
-2.64545 -11.4301 5.85868
-2.86204 -11.5438 5.73498
-3.12028 -11.5816 5.69368
-2.8604 -11.1592 5.08518
-2.94969 -11.9925 6.43728
-3.20323 -12.675 6.89918
-3.38272 -12.7632 6.76198
-3.14605 -12.094 6.30498
-3.59673 -12.7926 6.71628
-3.38017 -12.1278 6.26088
-3.80788 -12.7632 6.76198
-3.61114 -12.094 6.30498
-3.37506 -11.5438 5.73498
-3.13898 -11.1164 5.12188
-2.19205 -10.2617 5.85438
-2.50904 -10.7862 6.55988
-2.47076 -11.0135 6.31238
-2.1502 -10.5181 5.63468
-3.09018 -12.1748 7.67688
-2.82602 -11.4175 7.18698
-3.05846 -12.3514 7.40238
-2.79133 -11.6204 6.92238
-3.09564 -12.5279 7.12798
-2.832 -11.8234 6.65778
-2.51563 -11.2407 6.06488
-6.45095 -10.2241 0.873783
-6.491 -9.9736 1.16658
-7.25571 -10.9735 0.943583
-7.33196 -10.7673 1.20988
-7.35821 -10.6874 1.50348
-6.50249 -9.8778 1.48998
-7.99148 -11.8032 1.01238
-8.57587 -12.6785 1.06928
-8.71852 -12.5637 1.28688
-8.10394 -11.6441 1.25208
-8.77189 -12.5172 1.52568
-8.14498 -11.5812 1.51578
-8.73565 -12.5406 1.76268
-8.60944 -12.6357 1.97468
-8.01296 -11.7515 2.01318
-8.11463 -11.6164 1.77798
-7.26273 -10.9142 2.05888
-7.33496 -10.7357 1.79588
-6.4436 -10.1584 2.10348
-6.48638 -9.9388 1.81278
-6.70448 -12.3904 0.747683
-6.82747 -12.0777 0.603983
-6.97759 -11.6939 0.609483
-6.29699 -11.1039 0.508283
-7.19787 -12.8859 0.830783
-7.58032 -13.4502 0.899483
-7.80008 -13.2811 0.785183
-7.37365 -12.6476 0.703083
-8.07022 -13.0725 0.792583
-7.58924 -12.3546 0.709583
-8.34429 -12.8599 0.895883
-7.80755 -12.0566 0.822083
-7.12896 -11.3041 0.733083
-6.3814 -10.6275 0.642983
-6.10327 -12.1269 1.93808
-6.72509 -12.3182 2.23038
-6.64658 -12.5265 1.90288
-6.6158 -12.6107 1.48688
-6.08839 -12.2284 1.47958
-7.23618 -12.826 2.16138
-7.63333 -13.4031 2.10338
-7.48744 -13.5186 1.83598
-7.12091 -12.9864 1.86668
-7.42758 -13.5666 1.49768
-7.07426 -13.052 1.49298
-7.45735 -13.5446 1.16128
-7.09899 -13.0196 1.12088
-6.63452 -12.5667 1.07188
-6.10112 -12.1733 1.02188
-6.37512 -10.5386 2.33078
-7.14201 -11.2247 2.26388
-6.99642 -11.6042 2.38078
-6.29389 -11.0024 2.46138
-8.39291 -12.8041 2.13878
-7.83998 -11.9884 2.19588
-8.12926 -13.0112 2.23078
-7.63 -12.2786 2.29918
-7.86167 -13.2224 2.22698
-7.4173 -12.574 2.29668
-6.84958 -11.9897 2.37968
-2.28619 -10.1747 -3.06032
-2.50966 -10.0431 -3.14242
-2.56705 -10.7179 -3.80952
-2.77141 -10.5995 -3.91092
-3.01836 -10.5601 -3.94472
-2.8479 -11.358 -4.47632
-3.08194 -12.119 -4.99782
-3.25131 -12.0238 -5.12582
-3.03318 -11.2504 -4.59312
-3.45596 -11.9921 -5.16842
-3.25706 -11.2145 -4.63212
-3.66356 -12.0238 -5.12582
-3.84176 -12.119 -4.99782
-3.67909 -11.358 -4.47632
-3.48415 -11.2504 -4.59312
-3.48389 -10.7179 -3.80952
-3.26887 -10.5995 -3.91092
-3.28869 -10.1747 -3.06032
-3.05358 -10.0431 -3.14242
-2.30501 -11.1392 -2.45862
-2.58426 -11.5861 -3.06592
-2.45102 -11.3888 -3.23492
-2.40498 -11.152 -3.43772
-2.10898 -10.657 -2.75952
-2.8635 -12.1471 -3.61982
-3.0962 -12.8168 -4.05922
-2.98579 -12.6582 -4.27252
-2.74271 -11.9678 -3.81452
-2.94763 -12.4679 -4.52852
-2.70097 -11.7526 -4.04812
-2.9802 -12.2776 -4.78452
-2.7366 -11.5373 -4.28172
-2.44428 -10.9152 -3.64052
-2.15195 -10.3939 -2.92362
-3.3553 -11.1392 -2.45862
-3.12387 -11.2708 -2.37652
-3.54481 -11.5861 -3.06592
-3.33315 -11.7045 -2.96452
-3.07163 -11.744 -2.93072
-2.83792 -11.3146 -2.34912
-3.73431 -12.1471 -3.61982
-3.89224 -12.8168 -4.05922
-3.71683 -12.9119 -3.93122
-3.54243 -12.2548 -3.50302
-3.50011 -12.9436 -3.88862
-3.30535 -12.2906 -3.46412
-3.28044 -12.9119 -3.93122
-3.06504 -12.2548 -3.50302
-2.80656 -11.7045 -2.96452
-2.54809 -11.2708 -2.37652
-3.6048 -10.8569 -3.58562
-3.68502 -11.152 -3.43772
-3.50861 -10.657 -2.75952
-3.95821 -12.2776 -4.78452
-3.80649 -11.5373 -4.28172
-4.00844 -12.4679 -4.52852
-3.86143 -11.7526 -4.04812
-3.98794 -12.6582 -4.27252
-3.83901 -11.9678 -3.81452
-3.66029 -11.3888 -3.23492
-3.48157 -10.92 -2.59532
-4.04072 -12.9602 8.20448
-3.87689 -12.8897 8.34468
-4.09631 -13.9358 8.35398
-3.93737 -13.8849 8.49568
-3.75222 -13.868 8.54288
-3.68604 -12.8662 8.39148
-4.11484 -14.8443 8.40378
-4.11414 -16.1753 8.40258
-3.95729 -16.1883 8.54478
-3.95754 -14.8123 8.54598
-3.77429 -14.8017 8.59338
-3.59396 -16.1883 8.54478
-3.43314 -14.2119 8.38248
-3.59364 -14.8123 8.54598
-3.5697 -13.8849 8.49568
-3.3422 -12.9602 8.20448
-3.4979 -12.8897 8.34468
-4.08717 -13.4772 7.17638
-4.17514 -13.3597 7.41008
-4.15203 -14.5361 7.34188
-4.23312 -14.3639 7.56828
-4.24499 -14.1222 7.83448
-4.19397 -13.2187 7.69048
-4.24307 -16.2113 7.59858
-4.26199 -14.9615 7.88248
-4.21692 -16.1977 8.16618
-4.21765 -14.8976 8.16678
-4.20018 -14.0205 8.11788
-4.14779 -13.0777 7.97088
-3.35535 -13.4772 7.17638
-3.52473 -13.5477 7.03618
-3.43141 -14.3087 7.31498
-3.59573 -14.3595 7.17338
-3.79165 -14.3765 7.12608
-3.72668 -13.5712 6.98948
-3.45677 -15.0788 7.36118
-3.45757 -16.2037 7.36238
-3.61974 -16.2207 7.22028
-3.6194 -15.1107 7.21908
-3.81226 -16.3048 7.17558
-3.8133 -15.1214 7.17168
-4.00421 -16.2207 7.22028
-3.99205 -14.4851 7.19038
-3.92592 -13.5477 7.03618
-3.24867 -13.0777 7.97088
-3.3382 -14.1699 8.13748
-3.29888 -14.1222 7.83448
-3.21874 -13.2187 7.69048
-3.3551 -16.1977 8.16618
-3.32665 -16.189 7.88248
-3.3256 -14.9615 7.88248
-3.36011 -16.2113 7.59858
-3.35929 -15.0255 7.59818
-3.33292 -14.2239 7.55118
-3.25383 -13.3597 7.41008
-8.9265 -13.5648 1.10338
-9.08726 -13.4857 1.30768
-9.10182 -14.4044 1.12038
-9.27163 -14.353 1.31818
-9.33611 -14.3313 1.53458
-9.14804 -13.4528 1.53168
-9.16025 -15.1394 1.12608
-9.15885 -16.1889 1.12678
-9.33166 -16.1992 1.32188
-9.33309 -15.1087 1.32168
-9.3969 -16.1837 1.53558
-9.3988 -15.0956 1.53558
-9.35522 -16.1981 1.74708
-9.20444 -16.1867 1.93548
-9.20592 -15.1246 1.93628
-9.35666 -15.1007 1.74738
-9.14627 -14.3809 1.94008
-9.29456 -14.3403 1.74888
-8.96733 -13.5317 1.95158
-9.10826 -13.4677 1.75348
-7.80979 -14.0906 0.940783
-8.05595 -13.9759 0.834483
-7.94732 -14.9231 0.964983
-8.20056 -14.7842 0.862383
-8.53062 -14.7912 0.872183
-8.35881 -13.8339 0.842383
-7.96426 -16.2175 0.969783
-8.22697 -16.2219 0.868783
-8.55182 -16.2031 0.877183
-8.88022 -16.2094 0.970483
-8.84825 -14.5946 0.965683
-8.66634 -13.6889 0.940183
-7.87163 -14.0555 2.06858
-7.70736 -14.135 1.81758
-7.99077 -14.7179 2.05118
-7.83065 -14.8671 1.80628
-7.74557 -14.7913 1.50198
-7.63958 -14.1685 1.50048
-8.03049 -15.3245 2.04538
-8.03179 -16.2154 2.04398
-7.85534 -16.2294 1.80478
-7.78091 -15.3684 1.50238
-7.81715 -16.2305 1.20238
-7.7931 -14.8792 1.19978
-7.67236 -14.1543 1.18548
-8.72467 -13.6462 2.10448
-8.91193 -14.5673 2.08458
-8.60711 -14.7603 2.16518
-8.42881 -13.7874 2.18978
-8.94495 -16.2071 2.08068
-8.30631 -16.2194 2.15608
-8.27895 -14.7554 2.16168
-8.12829 -13.9318 2.18518
-3.22237 -13.0249 -5.31072
-3.38219 -12.9479 -5.44542
-3.30574 -14.2387 -5.49682
-3.44763 -13.9147 -5.60512
-3.63498 -13.896 -5.65122
-3.57531 -12.9222 -5.49032
-3.46978 -16.1668 -5.65722
-3.46944 -14.8162 -5.65842
-3.65612 -16.2731 -5.70082
-3.65487 -14.8043 -5.70482
-3.84271 -16.1668 -5.65722
-4.00368 -16.1549 -5.51802
-4.00442 -14.852 -5.51922
-3.84297 -14.8162 -5.65842
-3.98816 -13.9709 -5.46712
-3.82502 -13.9147 -5.60512
-3.93936 -13.0249 -5.31072
-3.7712 -12.9479 -5.44542
-3.23583 -13.5895 -4.32292
-3.13163 -13.4612 -4.54742
-3.30564 -14.3829 -4.45472
-3.20456 -14.2892 -4.68482
-3.16963 -14.1769 -4.96092
-3.09563 -13.3072 -4.81682
-3.32891 -15.1144 -4.49862
-3.32975 -16.1899 -4.49982
-3.22886 -15.0548 -4.73062
-3.19541 -16.172 -5.00892
-3.1943 -14.9832 -5.00892
-3.2246 -16.1785 -5.28672
-3.20896 -14.2081 -5.25732
-3.12636 -13.1532 -5.08622
-3.98699 -13.5895 -4.32292
-3.82147 -13.6665 -4.18822
-4.04382 -14.599 -4.48042
-3.87995 -14.5585 -4.33252
-3.67539 -14.4578 -4.27062
-3.61696 -13.6921 -4.14332
-3.89081 -16.2072 -4.36062
-3.6934 -16.292 -4.31712
-3.69487 -15.1622 -4.31312
-3.49619 -16.2072 -4.36062
-3.49584 -15.1502 -4.35942
-3.4743 -14.4391 -4.31662
-3.40968 -13.6665 -4.18822
-4.04925 -13.1532 -5.08622
-4.09477 -14.0645 -5.23702
-4.14074 -14.1769 -4.96092
-4.09664 -13.3072 -4.81682
-4.10917 -16.1785 -5.28672
-4.10994 -14.9116 -5.28732
-4.15433 -16.172 -5.00892
-4.15544 -14.9832 -5.00892
-4.13597 -16.1958 -4.73102
-4.12755 -14.4257 -4.70162
-4.0773 -13.4612 -4.54742
-7.78555 -16.2261 1.50248
-3.77429 -16.0106 8.59338
-2.73345 -14.3746 1.94908
-2.62032 -14.392 1.65238
-2.79161 -15.3696 1.86848
-2.67303 -15.2497 1.60608
-2.63928 -15.5002 1.28808
-2.58295 -14.413 1.29638
-2.68213 -16.7945 1.53658
-2.68353 -16.8333 1.03728
-2.79722 -16.8383 0.810283
-2.79614 -15.463 0.708383
-2.6693 -15.1853 0.965383
-2.73761 -14.4513 0.643683
-2.62187 -14.4339 0.940383
-3.59866 -15.5119 1.85608
-3.4065 -15.117 2.04498
-3.19012 -15.4492 2.06468
-3.60268 -16.7643 1.76348
-3.42494 -16.7633 1.89178
-3.19612 -16.7515 1.93868
-2.96833 -16.7633 1.89178
-2.9659 -15.2142 2.03418
-2.9218 -14.3641 2.12708
-3.58279 -14.4513 0.643683
-3.71114 -14.8405 0.947483
-3.61225 -15.499 0.711083
-3.75442 -15.5002 1.28808
-3.72733 -14.413 1.29638
-3.72703 -16.8335 1.03668
-3.71858 -16.7944 1.53588
-3.71156 -15.2367 1.60668
-2.97425 -15.2955 0.541483
-3.23038 -16.8295 0.631983
-2.97688 -16.8575 0.681983
-3.44109 -16.8576 0.681883
-3.42693 -15.2901 0.540983
-1.07542 -5.0756 1.80788
-1.07714 -5.1133 1.06928
-1.86409 -5.1731 0.543083
-1.5282 -5.1408 0.577083
-2.20167 -5.1408 0.577083
-2.66411 -5.1255 1.43868
-2.64159 -5.1136 1.06928
-2.62779 -5.0742 1.80808
-2.17695 -5.0483 2.30058
-1.51492 -5.0482 2.30058
3 0 1 2
3 3 4 2
3 2 4 5
3 0 2 5
3 6 7 8
3 8 9 10
3 8 10 6
3 10 11 6
3 11 12 6
3 13 14 15
3 13 15 16
3 15 17 18
3 15 18 16
3 18 11 10
3 18 10 16
3 10 9 13
3 10 13 16
3 19 20 21
3 19 21 22
3 21 23 24
3 21 24 22
3 24 11 18
3 24 18 22
3 18 17 19
3 18 19 22
3 25 26 27
3 27 12 11
3 11 24 27
3 24 23 25
3 24 25 27
3 28 29 30
3 30 31 32
3 30 32 28
3 32 33 34
3 32 34 28
3 34 35 28
3 36 37 38
3 36 38 39
3 38 40 41
3 38 41 39
3 41 33 32
3 41 32 39
3 32 31 36
3 32 36 39
3 42 14 13
3 42 13 43
3 13 9 44
3 13 44 43
3 44 33 41
3 44 41 43
3 41 40 42
3 41 42 43
3 8 7 45
3 45 35 34
3 34 33 44
3 34 44 45
3 44 9 8
3 44 8 45
3 46 47 48
3 46 48 49
3 48 50 49
3 49 51 52
3 52 46 49
3 53 54 55
3 53 55 56
3 55 57 58
3 55 58 56
3 58 51 49
3 58 49 56
3 49 50 53
3 49 53 56
3 59 37 36
3 59 36 60
3 36 31 61
3 36 61 60
3 61 51 58
3 61 58 60
3 58 57 59
3 58 59 60
3 30 29 62
3 30 62 61
3 62 52 61
3 52 51 61
3 61 31 30
3 63 26 25
3 25 23 64
3 25 64 63
3 64 65 66
3 64 66 63
3 21 20 67
3 21 67 68
3 67 69 70
3 67 70 68
3 70 65 64
3 70 64 68
3 64 23 21
3 64 21 68
3 71 54 53
3 71 53 72
3 53 50 73
3 53 73 72
3 73 65 70
3 73 70 72
3 70 69 71
3 70 71 72
3 48 47 74
3 66 65 73
3 66 73 74
3 73 50 48
3 73 48 74
3 15 14 75
3 75 76 77
3 75 77 15
3 77 78 79
3 77 79 15
3 79 17 15
3 80 81 82
3 80 82 83
3 82 84 83
3 83 78 77
3 77 76 80
3 77 80 83
3 85 86 87
3 87 88 89
3 89 78 83
3 89 83 87
3 83 84 85
3 83 85 87
3 90 20 19
3 19 17 79
3 79 78 89
3 79 89 19
3 89 88 90
3 89 90 19
3 91 92 93
3 92 94 93
3 92 95 94
3 96 97 98
3 99 100 98
3 97 101 99
3 97 99 98
3 102 103 104
3 103 105 104
3 82 81 106
3 82 106 107
3 106 108 109
3 106 109 107
3 109 110 107
3 110 84 82
3 110 82 107
3 111 112 113
3 111 113 114
3 113 115 116
3 113 116 114
3 116 110 109
3 116 109 114
3 109 108 111
3 109 111 114
3 117 118 119
3 117 119 120
3 119 121 122
3 119 122 120
3 122 110 116
3 122 116 120
3 116 115 117
3 116 117 120
3 123 86 85
3 123 85 124
3 85 84 110
3 85 110 124
3 110 122 124
3 122 121 123
3 122 123 124
3 125 126 127
3 125 127 128
3 127 129 130
3 127 130 128
3 130 131 132
3 130 132 128
3 132 133 125
3 132 125 128
3 134 135 136
3 134 136 137
3 136 138 139
3 136 139 137
3 139 131 130
3 139 130 137
3 130 129 134
3 130 134 137
3 140 112 111
3 140 111 141
3 111 108 142
3 111 142 141
3 142 131 139
3 142 139 141
3 139 138 140
3 139 140 141
3 106 81 143
3 106 143 144
3 143 133 132
3 143 132 144
3 132 131 142
3 132 142 144
3 142 108 106
3 142 106 144
3 145 146 147
3 145 147 148
3 147 149 150
3 147 150 148
3 150 151 152
3 150 152 148
3 152 153 145
3 152 145 148
3 149 154 155
3 149 155 150
3 155 156 151
3 155 151 150
3 157 135 134
3 157 134 158
3 134 129 158
3 151 156 157
3 151 157 158
3 127 126 159
3 127 159 160
3 159 153 152
3 159 152 160
3 152 151 158
3 152 158 160
3 158 129 127
3 158 127 160
3 161 86 123
3 161 123 162
3 123 121 163
3 123 163 162
3 163 164 165
3 163 165 162
3 165 166 161
3 165 161 162
3 119 118 167
3 119 167 168
3 167 169 170
3 167 170 168
3 170 164 163
3 170 163 168
3 163 121 119
3 163 119 168
3 171 154 149
3 171 149 172
3 172 164 170
3 170 169 171
3 170 171 172
3 147 146 173
3 147 173 174
3 173 166 165
3 173 165 174
3 165 164 172
3 165 172 174
3 172 149 147
3 172 147 174
3 38 37 175
3 38 175 176
3 175 177 178
3 175 178 176
3 178 179 180
3 178 180 176
3 180 40 38
3 180 38 176
3 181 182 183
3 181 183 184
3 183 185 186
3 183 186 184
3 186 179 178
3 186 178 184
3 178 177 181
3 178 181 184
3 187 188 189
3 189 190 187
3 190 179 186
3 190 186 187
3 186 185 187
3 191 14 42
3 191 42 192
3 42 40 180
3 42 180 192
3 180 179 190
3 180 190 192
3 190 189 191
3 190 191 192
3 193 126 194
3 193 194 195
3 194 196 197
3 194 197 195
3 197 198 199
3 197 199 195
3 199 200 193
3 199 193 195
3 201 202 203
3 201 203 204
3 203 205 206
3 203 206 204
3 206 198 197
3 206 197 204
3 197 196 201
3 197 201 204
3 207 182 181
3 207 181 208
3 181 177 209
3 181 209 208
3 209 198 206
3 209 206 208
3 206 205 207
3 206 207 208
3 175 37 210
3 175 210 211
3 210 200 199
3 210 199 211
3 199 198 209
3 199 209 211
3 209 177 175
3 209 175 211
3 143 81 212
3 143 212 213
3 212 214 215
3 212 215 213
3 215 216 217
3 215 217 213
3 217 133 143
3 217 143 213
3 218 219 220
3 219 221 222
3 219 222 220
3 222 216 215
3 222 215 220
3 215 214 218
3 215 218 220
3 223 202 201
3 223 201 224
3 201 196 225
3 201 225 224
3 225 216 222
3 225 222 224
3 222 221 223
3 222 223 224
3 194 126 125
3 194 125 226
3 125 133 217
3 125 217 226
3 217 216 225
3 217 225 226
3 225 196 194
3 225 194 226
3 75 14 191
3 75 191 227
3 191 189 228
3 191 228 227
3 228 229 76
3 228 76 227
3 76 75 227
3 189 188 230
3 189 230 231
3 230 232 233
3 230 233 231
3 233 229 228
3 233 228 231
3 228 189 231
3 234 218 235
3 218 214 236
3 218 236 235
3 236 229 233
3 236 233 235
3 233 232 234
3 233 234 235
3 212 81 80
3 76 229 236
3 76 236 80
3 236 214 212
3 236 212 80
3 55 54 237
3 55 237 238
3 237 239 240
3 237 240 238
3 240 241 238
3 241 57 55
3 241 55 238
3 242 243 244
3 242 244 245
3 244 246 247
3 244 247 245
3 247 241 240
3 247 240 245
3 240 239 242
3 240 242 245
3 248 249 250
3 248 250 251
3 250 252 253
3 250 253 251
3 253 241 247
3 253 247 251
3 247 246 248
3 247 248 251
3 254 37 59
3 254 59 255
3 59 57 241
3 59 241 255
3 241 253 255
3 253 252 254
3 253 254 255
3 256 146 257
3 256 257 258
3 257 259 260
3 257 260 258
3 260 261 262
3 260 262 258
3 262 263 256
3 262 256 258
3 264 265 266
3 264 266 267
3 266 268 269
3 266 269 267
3 269 261 260
3 269 260 267
3 260 259 264
3 260 264 267
3 270 243 242
3 270 242 271
3 242 239 271
3 271 261 269
3 269 268 270
3 269 270 271
3 237 54 272
3 237 272 273
3 272 263 262
3 272 262 273
3 262 261 271
3 262 271 273
3 271 239 237
3 271 237 273
3 159 126 274
3 159 274 275
3 274 276 277
3 274 277 275
3 277 278 279
3 277 279 275
3 279 153 159
3 279 159 275
3 280 281 282
3 280 282 283
3 282 284 285
3 282 285 283
3 285 278 277
3 285 277 283
3 277 276 280
3 277 280 283
3 286 265 264
3 286 264 287
3 264 259 288
3 264 288 287
3 288 278 285
3 288 285 287
3 285 284 286
3 285 286 287
3 257 146 145
3 257 145 289
3 145 153 279
3 145 279 289
3 279 278 288
3 279 288 289
3 288 259 257
3 288 257 289
3 210 37 254
3 210 254 290
3 254 252 291
3 254 291 290
3 291 292 293
3 291 293 290
3 293 200 210
3 293 210 290
3 250 249 294
3 250 294 291
3 294 295 296
3 294 296 291
3 296 292 291
3 291 252 250
3 297 281 280
3 297 280 298
3 280 276 299
3 280 299 298
3 299 292 296
3 299 296 298
3 296 295 297
3 296 297 298
3 274 126 193
3 274 193 300
3 193 200 293
3 193 293 300
3 293 292 299
3 293 299 300
3 299 276 274
3 299 274 300
3 67 20 301
3 67 301 302
3 301 303 302
3 303 304 305
3 303 305 302
3 305 69 67
3 305 67 302
3 306 307 308
3 306 308 303
3 308 309 310
3 308 310 303
3 310 304 303
3 303 301 306
3 311 312 313
3 311 313 314
3 313 315 316
3 313 316 314
3 316 304 310
3 316 310 314
3 310 309 311
3 310 311 314
3 317 54 71
3 317 71 318
3 71 69 305
3 71 305 318
3 305 304 316
3 305 316 318
3 316 315 317
3 316 317 318
3 87 86 319
3 87 319 320
3 319 321 320
3 320 322 88
3 88 87 320
3 323 324 325
3 324 326 327
3 324 327 325
3 327 322 320
3 327 320 325
3 320 321 323
3 320 323 325
3 328 307 306
3 328 306 329
3 306 301 330
3 306 330 329
3 330 322 327
3 330 327 329
3 327 326 328
3 327 328 329
3 301 20 90
3 301 90 331
3 90 88 331
3 88 322 330
3 88 330 331
3 330 301 331
3 173 146 332
3 173 332 333
3 332 334 335
3 332 335 333
3 335 336 337
3 335 337 333
3 337 166 173
3 337 173 333
3 338 339 340
3 338 340 341
3 340 342 343
3 340 343 341
3 343 336 335
3 343 335 341
3 335 334 338
3 335 338 341
3 344 323 345
3 323 321 346
3 323 346 345
3 346 336 343
3 346 343 345
3 343 342 344
3 343 344 345
3 319 86 161
3 319 161 347
3 161 166 337
3 161 337 347
3 337 336 346
3 337 346 347
3 346 321 319
3 346 319 347
3 272 54 317
3 272 317 348
3 317 315 349
3 317 349 348
3 349 350 351
3 349 351 348
3 351 263 272
3 351 272 348
3 313 312 352
3 313 352 353
3 352 354 355
3 352 355 353
3 355 350 349
3 355 349 353
3 349 315 313
3 349 313 353
3 356 339 338
3 356 338 357
3 338 334 358
3 338 358 357
3 358 350 355
3 358 355 357
3 355 354 356
3 355 356 357
3 332 146 256
3 332 256 359
3 256 263 351
3 256 351 359
3 351 350 358
3 351 358 359
3 358 334 332
3 358 332 359
3 183 182 360
3 183 360 361
3 360 362 363
3 360 363 361
3 363 364 365
3 363 365 361
3 365 185 183
3 365 183 361
3 366 367 368
3 366 368 369
3 368 370 371
3 368 371 369
3 371 364 363
3 371 363 369
3 363 362 366
3 363 366 369
3 372 373 374
3 372 374 375
3 374 376 377
3 374 377 375
3 377 364 371
3 377 371 375
3 371 370 372
3 371 372 375
3 378 188 187
3 378 187 379
3 187 185 365
3 187 365 379
3 365 364 377
3 365 377 379
3 377 376 378
3 377 378 379
3 203 202 380
3 203 380 381
3 380 382 383
3 380 383 381
3 383 384 385
3 383 385 381
3 385 205 203
3 385 203 381
3 386 387 388
3 386 388 389
3 388 390 391
3 388 391 389
3 391 384 383
3 391 383 389
3 383 382 386
3 383 386 389
3 392 367 366
3 392 366 393
3 366 362 394
3 366 394 393
3 394 384 391
3 394 391 393
3 391 390 392
3 391 392 393
3 360 182 207
3 360 207 394
3 207 205 385
3 207 385 394
3 385 384 394
3 394 362 360
3 219 218 395
3 219 395 396
3 395 397 398
3 395 398 396
3 398 399 400
3 398 400 396
3 400 221 219
3 400 219 396
3 401 402 403
3 401 403 404
3 403 405 406
3 403 406 404
3 406 399 398
3 406 398 404
3 398 397 401
3 398 401 404
3 407 387 386
3 407 386 408
3 386 382 409
3 386 409 408
3 409 399 406
3 409 406 408
3 406 405 407
3 406 407 408
3 380 202 223
3 380 223 410
3 223 221 400
3 223 400 410
3 400 399 409
3 400 409 410
3 409 382 380
3 409 380 410
3 230 188 378
3 230 378 411
3 378 376 412
3 378 412 411
3 412 413 414
3 412 414 411
3 414 232 230
3 414 230 411
3 374 373 415
3 374 415 416
3 415 417 418
3 415 418 416
3 418 413 412
3 418 412 416
3 412 376 374
3 412 374 416
3 419 402 401
3 419 401 420
3 401 397 421
3 401 421 420
3 421 413 418
3 421 418 420
3 418 417 419
3 418 419 420
3 395 218 234
3 234 232 414
3 414 413 421
3 414 421 234
3 421 397 395
3 421 395 234
3 244 243 422
3 244 422 423
3 422 424 425
3 422 425 423
3 425 426 427
3 425 427 423
3 427 246 244
3 427 244 423
3 428 429 430
3 428 430 431
3 430 432 433
3 430 433 431
3 433 426 425
3 433 425 431
3 425 424 428
3 425 428 431
3 434 435 436
3 434 436 437
3 436 438 439
3 436 439 437
3 439 426 433
3 439 433 437
3 433 432 434
3 433 434 437
3 440 249 248
3 440 248 441
3 248 246 427
3 248 427 441
3 427 426 439
3 427 439 441
3 439 438 440
3 439 440 441
3 265 442 443
3 265 443 266
3 443 444 445
3 443 445 266
3 445 268 266
3 446 447 448
3 446 448 449
3 448 450 451
3 448 451 449
3 451 444 443
3 451 443 449
3 443 442 446
3 443 446 449
3 452 429 428
3 452 428 453
3 428 424 454
3 428 454 453
3 454 444 451
3 454 451 453
3 451 450 452
3 451 452 453
3 422 243 270
3 422 270 455
3 270 268 445
3 270 445 455
3 445 444 454
3 445 454 455
3 454 424 422
3 454 422 455
3 282 281 456
3 281 457 458
3 281 458 456
3 458 459 460
3 458 460 456
3 460 284 282
3 460 282 456
3 461 462 463
3 461 463 464
3 463 465 466
3 463 466 464
3 466 459 458
3 466 458 464
3 458 457 461
3 458 461 464
3 467 447 446
3 467 446 468
3 446 442 469
3 446 469 468
3 469 459 466
3 469 466 468
3 466 465 467
3 466 467 468
3 265 286 470
3 286 284 460
3 286 460 470
3 460 459 469
3 460 469 470
3 469 442 265
3 469 265 470
3 294 249 440
3 294 440 471
3 440 438 472
3 440 472 471
3 472 473 474
3 472 474 471
3 474 295 294
3 474 294 471
3 436 435 475
3 436 475 476
3 475 477 478
3 475 478 476
3 478 473 472
3 478 472 476
3 472 438 436
3 472 436 476
3 479 462 461
3 479 461 480
3 461 457 481
3 461 481 480
3 481 473 478
3 481 478 480
3 478 477 479
3 478 479 480
3 297 295 474
3 474 473 481
3 474 481 297
3 481 457 281
3 481 281 297
3 308 307 482
3 308 482 483
3 482 484 485
3 482 485 483
3 485 486 309
3 485 309 483
3 309 308 483
3 487 488 489
3 487 489 490
3 489 491 492
3 489 492 490
3 492 486 485
3 492 485 490
3 485 484 487
3 485 487 490
3 493 494 495
3 493 495 496
3 495 497 498
3 495 498 496
3 498 486 492
3 498 492 496
3 492 491 493
3 492 493 496
3 499 312 311
3 499 311 500
3 311 309 500
3 309 486 498
3 309 498 500
3 498 497 499
3 498 499 500
3 324 323 501
3 501 502 503
3 501 503 324
3 503 504 505
3 503 505 324
3 505 326 324
3 506 507 508
3 506 508 509
3 508 510 511
3 508 511 509
3 511 504 503
3 511 503 509
3 503 502 506
3 503 506 509
3 512 488 487
3 512 487 513
3 487 484 514
3 487 514 513
3 514 504 511
3 514 511 513
3 511 510 512
3 511 512 513
3 482 307 328
3 482 328 515
3 328 326 505
3 328 505 515
3 505 504 514
3 505 514 515
3 514 484 482
3 514 482 515
3 340 339 516
3 340 516 517
3 516 518 519
3 516 519 517
3 519 520 521
3 519 521 517
3 521 342 340
3 521 340 517
3 522 523 524
3 522 524 525
3 524 526 527
3 524 527 525
3 527 520 519
3 527 519 525
3 519 518 522
3 519 522 525
3 528 507 506
3 528 506 529
3 506 502 530
3 506 530 529
3 530 520 527
3 530 527 529
3 527 526 528
3 527 528 529
3 501 323 344
3 501 344 531
3 344 342 521
3 344 521 531
3 521 520 530
3 521 530 531
3 530 502 501
3 530 501 531
3 352 312 499
3 352 499 532
3 499 497 532
3 532 533 534
3 534 354 352
3 534 352 532
3 495 494 535
3 495 535 536
3 535 537 538
3 535 538 536
3 538 533 532
3 538 532 536
3 532 497 495
3 532 495 536
3 539 523 522
3 539 522 540
3 522 518 541
3 522 541 540
3 541 533 538
3 541 538 540
3 538 537 539
3 538 539 540
3 516 339 356
3 516 356 542
3 356 354 534
3 356 534 542
3 534 533 541
3 534 541 542
3 541 518 516
3 541 516 542
3 368 367 543
3 368 543 544
3 543 545 546
3 543 546 544
3 546 547 548
3 546 548 544
3 548 370 368
3 548 368 544
3 549 550 551
3 549 551 552
3 551 553 552
3 553 547 546
3 553 546 552
3 546 545 549
3 546 549 552
3 554 93 555
3 554 555 556
3 555 557 556
3 557 547 553
3 557 553 556
3 553 554 556
3 558 373 372
3 558 372 559
3 372 370 548
3 372 548 559
3 548 547 557
3 548 557 559
3 557 555 558
3 557 558 559
3 388 387 560
3 388 560 561
3 560 562 563
3 560 563 561
3 563 564 565
3 563 565 561
3 565 390 388
3 565 388 561
3 562 95 566
3 562 566 563
3 566 92 567
3 566 567 563
3 567 564 563
3 568 550 549
3 568 549 569
3 549 545 570
3 549 570 569
3 570 564 567
3 570 567 569
3 567 92 568
3 567 568 569
3 543 367 392
3 543 392 571
3 392 390 565
3 392 565 571
3 565 564 570
3 565 570 571
3 570 545 543
3 570 543 571
3 403 402 572
3 403 572 573
3 572 574 575
3 572 575 573
3 575 576 577
3 575 577 573
3 577 405 403
3 577 403 573
3 578 579 580
3 578 580 581
3 580 582 583
3 580 583 581
3 583 576 575
3 583 575 581
3 575 574 578
3 575 578 581
3 584 95 562
3 584 562 585
3 585 576 583
3 583 582 584
3 583 584 585
3 560 387 407
3 560 407 586
3 407 405 577
3 407 577 586
3 577 576 585
3 577 585 586
3 585 562 560
3 585 560 586
3 415 373 558
3 415 558 587
3 558 555 588
3 558 588 587
3 588 589 590
3 588 590 587
3 590 417 415
3 590 415 587
3 555 93 591
3 555 591 588
3 591 592 593
3 591 593 588
3 593 589 588
3 594 579 578
3 594 578 595
3 578 574 596
3 578 596 595
3 596 589 593
3 596 593 595
3 593 592 594
3 593 594 595
3 572 402 419
3 572 419 597
3 419 417 590
3 419 590 597
3 590 589 596
3 590 596 597
3 596 574 572
3 596 572 597
3 430 429 598
3 430 598 599
3 598 600 601
3 598 601 599
3 601 602 603
3 601 603 599
3 603 432 430
3 603 430 599
3 604 605 606
3 604 606 607
3 606 608 609
3 606 609 607
3 609 602 601
3 609 601 607
3 601 600 604
3 601 604 607
3 610 611 612
3 610 612 613
3 612 614 615
3 612 615 613
3 615 602 609
3 615 609 613
3 609 608 610
3 609 610 613
3 616 435 434
3 616 434 617
3 434 432 603
3 434 603 617
3 603 602 615
3 603 615 617
3 615 614 616
3 615 616 617
3 448 447 618
3 448 618 619
3 618 620 621
3 618 621 619
3 621 622 623
3 621 623 619
3 623 450 448
3 623 448 619
3 620 624 625
3 620 625 621
3 625 626 622
3 625 622 621
3 627 605 604
3 627 604 628
3 604 600 628
3 622 626 627
3 622 627 628
3 598 429 452
3 598 452 629
3 452 450 623
3 452 623 629
3 623 622 628
3 623 628 629
3 628 600 598
3 628 598 629
3 463 462 630
3 463 630 631
3 630 632 633
3 630 633 631
3 633 634 635
3 633 635 631
3 635 465 463
3 635 463 631
3 636 637 638
3 636 638 633
3 638 639 633
3 639 634 633
3 633 632 636
3 640 624 620
3 640 620 641
3 641 634 639
3 639 640 641
3 618 447 467
3 618 467 642
3 467 465 635
3 467 635 642
3 635 634 641
3 635 641 642
3 641 620 618
3 641 618 642
3 475 435 616
3 475 616 643
3 616 614 644
3 616 644 643
3 644 645 646
3 644 646 643
3 646 477 475
3 646 475 643
3 612 611 647
3 612 647 644
3 647 100 645
3 647 645 644
3 644 614 612
3 648 637 636
3 648 636 649
3 636 632 649
3 645 100 648
3 645 648 649
3 630 462 479
3 630 479 650
3 479 477 646
3 479 646 650
3 646 645 649
3 646 649 650
3 649 632 630
3 649 630 650
3 489 488 651
3 489 651 652
3 651 653 654
3 651 654 652
3 654 655 656
3 654 656 652
3 656 491 489
3 656 489 652
3 653 102 657
3 653 657 658
3 657 659 660
3 657 660 658
3 660 655 654
3 660 654 658
3 654 653 658
3 661 662 663
3 661 663 664
3 663 665 666
3 663 666 664
3 666 655 660
3 666 660 664
3 660 659 661
3 660 661 664
3 667 494 493
3 667 493 668
3 493 491 656
3 493 656 668
3 656 655 666
3 656 666 668
3 666 665 667
3 666 667 668
3 508 507 669
3 508 669 670
3 669 671 672
3 669 672 670
3 672 673 674
3 672 674 670
3 674 510 508
3 674 508 670
3 675 676 103
3 675 103 677
3 103 678 679
3 103 679 677
3 679 673 672
3 679 672 677
3 672 671 675
3 672 675 677
3 680 102 653
3 680 653 681
3 681 673 679
3 679 678 680
3 679 680 681
3 651 488 512
3 651 512 682
3 512 510 674
3 512 674 682
3 674 673 681
3 674 681 682
3 681 653 651
3 681 651 682
3 524 523 683
3 524 683 684
3 683 685 686
3 683 686 684
3 686 687 688
3 686 688 684
3 688 526 524
3 688 524 684
3 685 105 689
3 685 689 686
3 689 690 691
3 689 691 686
3 691 687 686
3 692 676 675
3 692 675 693
3 675 671 694
3 675 694 693
3 694 687 691
3 694 691 693
3 691 690 692
3 691 692 693
3 669 507 528
3 669 528 695
3 528 526 688
3 528 688 695
3 688 687 694
3 688 694 695
3 694 671 669
3 694 669 695
3 535 494 667
3 535 667 696
3 667 665 697
3 667 697 696
3 697 698 699
3 697 699 696
3 699 537 535
3 699 535 696
3 663 662 700
3 663 700 701
3 700 702 703
3 700 703 701
3 703 698 697
3 703 697 701
3 697 665 663
3 697 663 701
3 704 105 685
3 704 685 705
3 705 698 703
3 703 702 704
3 703 704 705
3 683 523 539
3 683 539 706
3 539 537 699
3 539 699 706
3 699 698 705
3 699 705 706
3 705 685 683
3 705 683 706
3 96 608 606
3 606 605 96
3 98 611 610
3 98 610 96
3 610 608 96
3 100 647 98
3 647 611 98
3 99 637 648
3 99 648 100
3 707 639 638
3 99 707 638
3 638 637 99
3 101 624 640
3 640 707 99
3 640 99 101
3 640 639 707
3 97 626 625
3 625 624 101
3 625 101 97
3 96 605 627
3 96 627 97
3 627 626 97
3 566 95 92
3 91 550 568
3 91 568 92
3 551 91 708
3 708 553 551
3 551 550 91
3 554 91 93
3 554 553 708
3 708 91 554
3 94 592 591
3 94 591 93
3 94 579 594
3 594 592 94
3 94 95 582
3 580 579 94
3 580 94 582
3 584 582 95
3 104 702 700
3 700 662 104
3 704 702 104
3 704 104 105
3 690 689 105
3 103 676 692
3 103 692 690
3 690 105 103
3 680 678 103
3 680 103 102
3 659 657 102
3 104 662 661
3 104 661 659
3 659 102 104
3 113 112 709
3 113 709 710
3 709 711 712
3 709 712 710
3 712 713 714
3 712 714 710
3 714 115 113
3 714 113 710
3 711 1 715
3 711 715 712
3 715 713 712
3 716 717 718
3 716 718 719
3 713 716 719
3 720 118 117
3 720 117 721
3 117 115 714
3 117 714 721
3 714 713 719
3 714 719 721
3 719 718 720
3 719 720 721
3 135 722 723
3 135 723 136
3 723 724 138
3 723 138 136
3 722 725 726
3 722 726 723
3 726 727 724
3 726 724 723
3 728 1 711
3 728 711 729
3 724 727 728
3 724 728 729
3 709 112 140
3 709 140 730
3 140 138 730
3 138 724 729
3 138 729 730
3 729 711 709
3 729 709 730
3 155 154 731
3 155 731 732
3 731 733 732
3 732 734 735
3 735 156 155
3 735 155 732
3 733 4 736
3 733 736 732
3 736 734 732
3 737 725 722
3 737 722 738
3 734 737 738
3 157 156 735
3 735 734 738
3 735 738 157
3 738 722 135
3 738 135 157
3 167 118 720
3 720 718 739
3 720 739 167
3 739 740 169
3 739 169 167
3 718 717 741
3 718 741 739
3 741 740 739
3 742 4 733
3 742 733 743
3 740 742 743
3 731 154 171
3 169 740 743
3 169 743 171
3 743 733 731
3 743 731 171
3 0 713 715
3 715 1 0
3 5 717 716
3 5 716 0
3 716 713 0
3 5 740 741
3 741 717 5
3 4 742 5
3 742 740 5
3 3 734 736
3 3 736 4
3 2 725 737
3 2 737 3
3 737 734 3
3 2 727 726
3 726 725 2
3 728 727 2
3 728 2 1
3 12 744 6
3 744 7 6
3 26 745 27
3 745 12 27
3 63 66 746
3 746 747 63
3 747 26 63
3 47 748 74
3 748 746 74
3 746 66 74
3 46 52 749
3 749 750 46
3 750 47 46
3 29 751 62
3 751 749 62
3 749 52 62
3 35 752 28
3 752 29 28
3 7 753 45
3 753 35 45
