0.667952
0.638783
0.616049
0.782359
0.522165
0.668626
0.825692
0.64849
0.342702
0.591695
0.65846
0.276026
0.389051
0.579873
0.513407
0.592832
0.799006
0.789325
0.704627
0.790541
0.602014
0.671016
0.650467
0.6544
0.75742
0.665211
0.615978
0.408733
0.59821
0.782622
0.823581
0.657775
0.814629
0.861024
0.836762
0.819247
0.795712
0.826098
0.816778
0.734109
0.782672
0.777247
0.691835
0.750438
0.720666
0.712025
0.82015
0.791727
0.621116
0.728602
0.687499
0.753713
0.832971
0.748122
0.593943
0.553448
0.38927
0.587242
0.695506
0.629638
0.849924
0.761579
0.758954
0.765311
0.665672
0.831638
0.623634
0.465379
0.483973
0.626052
0.741467
0.642614
0.535209
0.753099
0.682427
0.417471
0.621234
0.620319
0.86341
0.809552
0.805355
0.731763
0.797835
0.776749
0.809608
0.845111
0.661101
0.816731
0.735798
0.774529
0.695428
0.653573
0.745131
0.814613
0.816943
0.763053
0.869793
0.860157
0.825163
0.770388
0.844321
0.815769
0.80824
0.849059
0.810154
0.820368
0.758267
0.767196
0.818107
0.83722
0.834937
0.835411
0.770008
0.795753
0.793897
0.835564
0.806951
0.771475
0.827137
0.757525
0.700949
0.776525
0.733367
0.703126
0.810373
0.751907
0.746295
0.730242
0.610224
0.63975
0.441707
0.729786
0.654795
0.778116
0.814292
0.557462
0.771557
0.686874
0.696087
0.669131
0.619179
0.761742
0.346837
0.609728
0.792793
0.803336
0.822486
0.714849
0.805617
0.766698
0.682225
0.73873
0.838264
0.744202
0.798024
0.833604
0.698022
0.82588
0.845512
0.843013
0.532497
0.313531
0.324585
0.409368
0.181771
0.539321
0.373351
0.243742
0.358299
0.504541
0.294835
0.428274
0.342646
0.219108
0.279899
0.282203
0.354045
0.354965
0.30262
0.347061
0.527702
0.506846
0.543445
0.406168
0.497973
0.344933
0.436107
0.603612
0.337627
0.529797
0.496423
0.508738
0.446588
0.201795
0.324157
0.425588
0.338231
0.362174
0.425363
0.450966
0.363614
0.368093
0.319167
0.406685
0.443041
0.363606
0.496732
0.317591
0.346644
0.389923
0.365877
0.296279
0.447395
0.34497
0.402913
0.432081
0.337312
0.489554
0.408777
0.414337
0.37809
0.39086
0.326333
0.388875
0.422802
0.5109
0.524525
0.32552
0.346869
0.458749
0.443345
0.615074
0.370776
0.298154
0.298747
0.490431
0.456431
0.477662
0.402167
0.421077
0.293826
0.367591
0.35371
0.344195
0.265598
0.399587
0.199308
0.44256
0.466312
0.354751
0.350671
0.355361
0.285635
0.434488
0.330801
0.378605
0.397675
0.469722
0.402806
0.385151
0.394192
0.394811
0.488228
0.482484
0.541627
0.339226
0.434342
0.364423
0.388865
0.347387
0.237873
0.420794
0.608208
0.258887
0.320037
0.397779
0.414513
0.417622
0.428818
0.32702
0.46802
0.466881
0.487677
0.409779
0.376546
0.390046
0.405873
0.290644
0.5997
0.358077
0.39076
0.461304
0.386235
0.443731
0.33053
0.445947
0.261733
0.482315
0.263442
0.312903
0.320017
0.264476
0.476249
0.32587
0.432888
0.206748
0.439532
0.44922
0.469761
0.410726
0.478872
0.404222
0.376574
0.448205
0.499758
0.465278
0.581483
0.503075
0.48047
0.45786
0.49538
0.346593
0.342111
0.471122
0.340389
0.569698
0.369025
0.339199
0.254188
0.553487
0.224285
0.548067
0.265573
0.257585
0.415511
0.288007
0.243559
0.508106
0.352332
0.296356
0.266561
0.301861
0.204173
0.499173
0.424251
0.367472
0.424413
0.337162
0.317761
0.429817
0.368642
0.707227
0.408213
0.455578
0.464159
0.403304
0.459058
0.391971
0.467023
0.515901
0.394787
0.158463
0.354107
0.253512
0.506425
0.405093
0.361452
0.288287
0.30094
0.482848
0.488555
0.300948
0.526576
0.349701
0.356787
0.486885
0.485836
0.411009
0.479032
0.52297
0.473949
0.584608
0.447717
0.489634
0.31243
0.520966
0.534176
0.347306
0.37422
0.34807
0.353486
0.434375
0.4153
0.299701
0.353021
0.246957
0.32741
0.436504
0.326615
0.409706
0.368846
0.220822
0.280878
0.461577
0.308158
0.426553
0.310213
0.260515
0.316885
0.41964
0.370861
0.388438
0.378017
0.376917
0.402821
0.38145
0.347147
0.0405362
0.118666
0.292713
0.290248
0.224544
0.194264
0.162642
0.335242
0.228981
0.313036
0.280903
0.131733
0.159548
0.183937
0.160671
0.264198
0.384546
0.241497
0.127681
0.216188
0.241222
0.324416
0.266085
0.149768
0.216639
0.294578
0.290781
0.207098
0.159541
0.108333
0.0888814
0.270746
0.165701
0.0752334
0.117356
0.150492
0.172598
0.255138
0.157254
0.409435
0.335254
0.395667
0.307315
0.150954
0.235972
0.17652
0.217094
0.354569
0.283972
0.188164
0.242238
0.182043
0.199767
0.309803
0.301782
0.35442
0.164741
0.201212
0.153439
0.162586
0.247206
0.120769
0.235621
0.237154
0.340216
0.161505
0.138666
0.0632534
0.0689457
0.185155
0.35116
0.338132
0.205634
0.394149
0.367642
0.220772
0.133383
0.0264711
0.227325
0.423179
0.314686
0.158131
0.186291
0.138908
0.209155
0.420283
0.401493
0.253681
0.149793
0.223663
0.217173
0.163626
0.160553
0.163278
0.219209
0.089933
0.182848
0.239579
0.0867532
0.174792
0.0842539
0.175576
0.191716
0.27477
0.287811
0.253964
0.228455
0.146386
0.159635
0
0.20089
0.30924
0.250979
0.103433
0.180141
0.157722
0.204718
0.272718
0.254323
0.147924
0.217741
0.1705
0.267574
0.175471
0.133909
0.175352
0.116346
0.415925
0.509198
0.540177
0.550178
0.6052
0.581076
0.354445
0.484215
0.805104
0.722868
0.752266
0.693711
0.674946
0.660861
0.620922
0.612458
0.756073
0.717348
0.674731
0.59616
0.619134
0.64476
0.686123
0.76382
0.453319
0.489587
0.415309
0.443427
0.539314
0.59706
0.606869
0.509292
0.578903
0.671517
0.613176
0.69357
0.655677
0.604017
0.512645
0.663302
0.883289
0.839745
0.930626
0.875948
0.690738
0.730321
0.682547
0.826732
0.634698
0.809842
0.716174
0.637641
0.782413
0.686147
0.846621
0.648092
0.516315
0.502782
0.538379
0.600918
0.655876
0.664909
0.577413
0.590147
0.467992
0.594048
0.665174
0.596878
0.730551
0.615806
0.435196
0.580071
0.714336
0.654632
0.890951
0.696225
0.63746
0.718728
0.768544
0.746331
0.93712
0.909691
0.80176
0.848956
0.663038
0.896925
0.928341
0.831545
0.561801
0.611926
0.549195
0.56778
0.740744
0.788549
0.798629
0.760278
0.326525
0.472769
0.664156
0.583035
0.531275
0.484387
0.378291
0.425333
0.80991
0.676303
0.689138
0.615516
0.485976
0.694
0.681757
0.701852
0.85335
0.8366
0.78428
0.770865
0.563712
0.675287
0.803237
0.750834
0.319099
0.531557
0.363209
0.450259
0.448399
0.553932
0.689374
0.568306
0.829662
0.844916
0.84324
0.782952
0.954276
0.955848
0.802153
0.717354
0.750497
0.838902
0.884447
0.917907
0.931928
0.949349
0.882431
0.945894
0.776971
0.88023
0.839633
0.856949
0.831762
0.908033
0.790445
0.77224
0.801548
0.86166
0.814117
0.735855
0.835913
0.908932
0.841978
0.983825
0.583073
0.78547
0.941782
1
0.72514
0.76707
0.532428
0.598866
0.36904
0.430017
0.683088
0.625377
0.720956
0.519648
0.647352
0.492394
0.813899
0.805315
0.877955
0.775232
0.711622
0.846589
0.743978
0.739342
0.910734
0.611486
0.794819
0.886169
0.858929
0.896678
0.807246
0.772417
0.891248
0.966448
0.999784
0.904812
0.743901
0.994134
0.791115
0.748193
0.828751
0.844262
0.633086
0.822277
0.699831
0.845707
0.869777
0.882917
0.598124
0.730084
0.892404
0.803684
0.896504
0.818527
0.653197
0.77391
0.657813
0.940088
0.872334
0.909527
0.899757
0.955008
0.68199
0.825952
0.815353
0.691735
0.962635
0.776623
0.916408
0.838355
0.847605
0.747755
0.932192
0.940188
0.756164
0.838755
0.892275
0.920861
0.997984
0.961304
0.8928
0.555786
0.811221
0.831202
0.838235
0.757144
0.693909
0.774946
0.940131
0.874891
0.735288
0.899097
0.8246
0.743123
0.895044
0.963274
0.856495
0.8783
0.771197
0.820031
0.936419
0.926578
0.891024
0.849344
0.882222
0.929494
0.914012
0.87301
0.677399
0.757547
0.886069
0.764715
0.653806
0.681529
0.797841
0.862944
0.961254
0.739328
0.627652
0.793416
0.85457
0.880261
0.869241
0.812111
0.742592
0.777396
0.836818
0.787336
0.836785
0.885441
0.415835
0.637405
0.773951
0.778785
0.849901
0.83441
0.883948
0.947018
0.745272
0.874804
0.862945
0.91239
0.806166
0.768172
0.811531
0.791769
0.76909
0.690206
0.735144
0.683148
0.761346
0.7405
0.761632
0.567708
0.612331
0.526658
0.481041
0.672605
0.636776
0.687123
0.623339
0.530944
0.482807
0.695536
0.6331
0.616536
0.631772
0.575935
0.602945
0.707619
0.788206
0.809591
0.716358
0.759676
0.754724
0.711858
0.770671
0.682558
0.779999
0.745845
0.757873
0.721233
0.777022
0.67488
0.751285
0.467116
0.572983
0.499761
0.491491
0.647381
0.603516
0.668409
0.59602
0.525474
0.516691
0.650343
0.617705
0.586924
0.616259
0.487395
0.488748
0.75312
0.742861
0.640904
0.623772
0.654485
0.654166
0.703286
0.695129
0.753813
0.682717
0.702865
0.717366
0.604315
0.77282
0.736285
0.735246
0.538383
0.511355
0.414769
0.491251
0.607749
0.515736
0.684082
0.692689
0.656827
0.34333
0.608985
0.374315
0.658173
0.622716
0.613308
0.706675
0.767521
0.810775
0.731841
0.722005
0.684263
0.692247
0.692662
0.597759
0.680861
0.530704
0.548034
0.688631
0.58525
0.736781
0.732297
0.451062
0.532616
0.591762
0.629221
0.62574
0.688955
0.658218
0.659323
0.568429
0.56016
0.586788
0.693898
0.577495
0.65884
0.672404
0.53977
0.59159
0.78461
0.76556
0.662803
0.733818
0.563855
0.74524
0.711932
0.762048
