0.339534
0.335098
0.176439
0.268089
0.232756
0.231336
0.171378
0.184809
0.271854
0.292573
0.379708
0.260496
0.20142
0.229175
0.269077
0.255777
0.245836
0.287609
0.18036
0.197607
0.206068
0.208552
0.340752
0.299561
0.202979
0.218837
0.327126
0.131925
0.197957
0.186283
0.187499
0.188907
0.081338
0.558084
0.327266
0.4865
0.950719
0.270493
0.0901599
0.125606
0.273367
0.21331
0.0854603
0.104101
0.105216
0.0961963
0.493006
0.551876
0.406225
0.387106
0.427175
0.488433
0.126834
0.154144
0.10951
0.166873
0.765857
0.450894
0.868741
0.803383
0.811966
0.332793
0.507449
0.739778
0.651079
0.955451
0.935958
0.953722
0.720078
0.652057
0.46963
0.39942
0.535532
0.26583
0.67811
0.704928
0.674265
0.950993
0.908954
0.651386
0.414026
0.477951
0.833037
0.731582
0.386595
0.788468
0
0.508543
0.281549
0.63737
0.283853
0.15088
0.194908
0.245549
0.281215
0.706199
0.226243
0.776041
0.201481
0.491696
0.688614
0.105652
0.428429
0.113065
0
0.0528398
0
0.0623926
0.464503
0.127007
0.584852
0.14553
0.570211
0.906098
0.86744
0.830909
0.527307
0.927716
0.815954
0.892822
0.792579
0.861106
0.362496
0.839437
0.790514
0.754772
0.418097
0.619081
0.844538
0.634046
0.607039
0.726528
0.964002
0.923115
0.728738
0.723893
0.113102
0.287986
0.186073
0.165067
0.177954
0.183495
0.175505
0.185201
0.217009
0.285236
0.242773
0.228274
0.180942
0.198058
0.162233
0.210666
0.370293
0.355716
0.3176
0.15674
0.24383
0.203711
0.321582
0.301706
0.189173
0.300407
0.255364
0.228997
0.332762
0.300859
0.202345
0.121584
0.631451
0.671433
0.657491
0.672412
0.77614
0.749489
0.768801
0.75948
0.601337
0.6404
0.753704
0.733559
0.790654
0.678876
0.602098
0.734861
0.492232
0.397398
0.848403
0.81851
0.754557
0.810355
0.524478
0.846377
0.387039
0.613703
0.873979
0.72704
0.80899
0.63121
0.824476
0.386746
0.266826
0.211077
0.162294
0.562696
0.19132
0.20278
0.150393
0.199744
0.502416
0.289105
0.121077
0.145942
0.190113
0.160833
0.21358
0.253148
0.333865
0.177917
0.430981
0.344448
0.321993
0.338089
0.209727
0.264502
0.290047
0.239091
0.248858
0.195031
0.177742
0.185787
0.299135
0.249827
0.948609
0.795173
0.684746
0.839725
0.766119
0.773573
0.576615
0.82116
0.861717
0.843396
0.795469
0.802148
0.882884
0.760201
0.799374
0.802026
0.91184
0.768908
0.759003
0.336466
0.785946
0.766017
0.766703
0.564809
0.77216
0.536061
0.930504
0.661921
0.733263
0.715286
0.369729
0.532907
0.466174
0.211309
0.39906
0.239799
0.489722
0.686658
0.374535
0.660173
0.640461
0.75188
0.350776
0.181982
0.483826
0.22057
0.217618
0.901732
0.168792
0.183963
0.781266
0.259524
0.657662
0.562669
0.712357
0.113781
0.902967
0.249353
0.454419
0.186001
0.573051
0.513021
0.746434
0.599126
0.177127
0.28564
0.322901
0.235109
0.221608
0.300441
0.698766
0.170627
0.274322
0.280002
0.362357
0.206633
0.136528
0.70623
0.182665
0.338882
0.273331
0.382851
0.3269
0.471844
0.234184
0.157966
0.262503
0.349007
0.302501
0.341618
0.193173
0.220244
0.147217
0.204275
0.319769
0.537544
0.17181
0.209322
0.175544
0.193937
0.170107
0.501961
0.332524
0.303964
0.216316
0.224731
0.175856
0.333618
0.30442
0.269952
0.131981
0.0651756
0.506125
0.217421
0.887088
0.191449
0.269408
0.179178
0.237321
0.160322
0.218292
0.608231
0.178757
0.198026
0.225232
0.443577
0.253562
0.355868
0.271026
0.182779
0.357163
0.241297
0.171491
0.181084
0.267439
0.190623
0.239546
0.234087
0.195483
0.293268
0.165443
0.239415
0.461257
0.129041
0.214117
0.180618
0.221208
0.184182
0.133101
0.181416
0.288345
0.316413
0.225002
0.181558
0.114191
0.160968
0.133314
0.549065
0.150855
0.168479
0.56241
0.499824
0.426087
0.385945
0.41832
0.422455
0.251375
0.40058
0.52431
0.735969
0.613031
0.672788
0.610217
0.662465
0.905843
0.56941
0.440368
0.534166
0.329732
0.505974
0.800722
0.616483
0.778309
0.818291
0.459916
0.395623
0.29506
0.855621
0.228744
0.442717
0.284304
0.432024
0.37807
0.249382
0.255216
0.283712
0.286711
0.407979
0.223024
0.494091
0.669263
0.808675
0.520247
0.501287
0.3037
0.52844
0.69043
0.330149
0.68485
0.612905
0.477195
0.656923
0.684634
0.449507
0.446007
0.599652
0.45068
0.302454
0.264094
0.205056
0.464362
0.332936
0.466749
0.379293
0.258742
0.216865
0.256146
0.340188
0.432057
0.318542
0.185306
0.242659
0.839277
0.349372
0.374708
0.763625
0.357939
0.359611
0.275828
0.277593
0.687665
0.726571
0.7465
0.344355
0.390337
0.684923
0.535851
0.392368
0.230663
0.350803
0.267655
0.255339
0.391291
0.23382
0.345101
0.39678
0.306724
0.338999
0.456906
0.453654
0.248377
0.241256
0.198539
0.233748
0.386577
0.889146
0.394517
0.464143
0.297638
0.41608
0.858604
0.469922
0.806103
0.741599
0.823417
0.27458
0.520404
0.550448
0.596427
0.331618
0.228769
0.221785
0.2066
0.20843
0.230286
0.253106
0.261639
0.230126
0.441585
0.410936
0.310315
0.827064
0.483723
0.539887
0.468171
0.555206
0.698551
0.674533
0.613034
0.450605
0.495314
0.477214
0.317456
0.401966
0.70266
0.53676
0.408278
0.537732
0.527618
0.525089
0.597994
0.664895
0.418443
0.58674
0.500713
0.577486
0.608987
0.525222
0.844899
0.429888
0.469543
0.370063
0.683336
0.436684
0.509642
0.443058
0.364623
0.459916
0.438859
0.449023
0.660964
0.488177
0.60552
0.511121
0.528706
0.598585
0.446743
0.682772
0.39411
0.437844
0.521921
0.655646
0.385894
0.501752
0.30769
0.368319
0.407916
0.394168
0.446576
0.492545
0.39411
0.484594
0.299457
0.410112
0.688114
0.559709
0.609122
0.556136
0.300493
0.416205
0.554841
0.594153
0.768423
0.671488
0.88854
0.636785
0.686463
0.748686
0.877292
0.751185
0.86375
0.846699
0.80272
0.913067
0.571873
0.86336
0.884976
0.768373
0.471773
0.538228
0.801688
0.661328
0.839346
0.728897
0.827529
0.724292
0.807196
0.944352
0.492958
0.942573
0.86072
0.657856
0.864697
0.459725
0.85326
0.669146
0.649916
0.911725
0.453286
0.47629
0.778431
0.478096
0.530631
0.849946
0.915028
0.805925
0.705019
0.807454
0.474854
0.38103
0.616225
0.289526
0.651734
0.53186
0.701699
0.167889
0.613147
0.158988
0.573804
0.55847
0.273191
0.433165
0.446821
0.577484
0.708789
0.263535
0.817332
0.220989
0.760352
0.675283
0.163403
0.324836
0.297939
1
0.112042
0.6252
0.635733
0.239393
0.698803
0.670542
0.515038
0.301776
0.261314
0.199869
0.23205
0.221775
0.638565
0.460695
0.746471
0.732144
0.52692
0.830188
0.189442
0.795998
0.128183
0.21967
0.217631
0.550705
0.210364
0.36069
0.20056
0.334507
0.714817
0.413917
0.435948
0.262334
0.489141
0.23591
0.198484
0.225481
0.315692
0.130059
0.271281
0.395914
0.154563
0.269694
0.268964
0.21874
0.541844
0.452764
0.657955
0.160776
0.490071
0.222286
0.431226
0.960367
0.564678
0.147473
0.958296
0.893991
0.595263
0.81761
0.655544
0.234417
0.241477
0.499062
0.888683
0.707505
0.826589
0.598005
0.426329
0.509129
0.937575
0.71506
0.201553
0.613193
0.345774
0.234506
0.362384
0.801598
0.101921
0.17116
0.647387
0.224649
0.109285
0.718365
0.104118
0.134366
0.363224
0.231737
0.259058
0.275878
0.257308
0.455086
0.129357
0.109268
0.122704
0.130745
0.593528
0
0.487866
0.563795
0.665335
0.73546
0.874618
0
0.317426
0.790389
0.666033
0.597528
0.637719
0
0.377576
0.862609
0.310669
0.46577
0.571242
0.588515
0.48285
0.696524
0.690464
0.375422
0.555529
0.750207
0.313998
0.469668
0.509619
0.518713
0.502246
0.324518
0.15466
0.752974
0.425025
0.233464
0.179246
0.0573945
0.0954314
0.311023
0.400871
0.109198
0.086992
0.0810808
0.0899729
0.521116
0.84999
0.315136
0.901796
0.449786
0.355922
0.129245
0.392178
0.53039
0.146881
0
0
