0.288962
0.308886
0.604938
0.342411
0.404261
0.334979
0.233838
0.330354
0.540158
0.642144
0.202971
0.627958
0.572088
0.625027
0.428426
0.511958
0.285703
0.532127
0.504336
0.428791
0.486447
0.141217
0.425275
0.210468
0.340401
0.229391
0.221989
0.419392
0.384813
0.414342
0.414323
0.4844
0.619344
0.355168
0.358047
0.688136
0.885171
0.700607
0.865502
0.666484
0.643968
0.311813
0.697136
0.708078
0.83922
0.624792
0.354518
0.515198
0.254953
0.308515
0.473021
0.366977
0.565972
0.315916
0.798016
0.715138
0.707783
0.764795
0.472965
0.944128
0.309097
0.304858
0.897053
0.467142
0.396854
0.67104
0.25831
0.316574
0.58509
0.753493
0.639211
0.277573
0.453547
0.285775
0.160766
0.0583323
0.0582923
0.398298
0.138504
0.132082
0.0993052
0.287671
0.114729
0.713422
0.576997
0.100122
0.559625
0.710761
0.707762
0.201884
0.116127
0.591962
0.509428
0.267712
0.450359
0.567337
0.328845
0.790128
0.66699
0.545793
0.717416
0.893229
0.523166
0.741528
0.83547
0.276799
0.339169
0.592805
0.420955
0.633444
0.431987
0.555759
0.54832
0.563465
0.553561
0.950467
0.259716
0.614961
0.212564
0.224403
0.150354
0.433138
0.0988174
0.19159
0.246166
0.596632
0.20546
0.149293
0.0896056
0.155231
0.0293886
0.0593444
0.0544301
0.294266
0.208005
0.172743
0.104554
0.140678
0.238678
0.185812
0.168807
0.108855
0.15916
0.107249
0.123542
0.175305
0.157538
0.227998
0.157162
0.134762
0.117691
0.111088
0.0670719
0.139932
0.108859
0.171827
0.143431
0.155123
0.126664
0.117642
0.112572
0.192159
0.112497
0.258212
0.187089
0.18914
0.212935
0.18191
0.167358
0.175097
0.518595
0.132276
0.0590607
0.0518297
0.0955422
0.120622
0.312315
0.235615
0.0779581
0.0663813
0.180775
0.11876
0.0436065
0.0840976
0.234088
0.181464
0.223854
0.158463
0.203906
0.192009
0.301672
0.216249
0.194873
0.325572
0.392256
0.227042
0.368195
0.277721
0.250298
0.228342
0.208253
0.183817
0.160649
0.293437
0.210168
0.203748
0.16994
0.23958
0.260218
0.310526
0.181592
0.187478
0.222668
0.179504
0.216596
0.255173
0.220905
0.252973
0.258242
0.203938
0.137699
0.146504
0.208101
0.188064
0.289007
0.241263
0.150114
0.152972
0.20896
0.130668
0.31157
0.698017
0.702471
0.632505
0.118785
0.215488
0.153501
0.209252
0.223513
0.0883776
0.00815116
0.0349105
0.0534718
0.175501
0.112308
0.2155
0.220095
0.35541
0.236832
0.219066
0.180659
0.231861
0.224191
0.385667
0.248016
0.24628
0.192905
0.34337
0.266395
0.636132
0.637341
0.663437
0.693664
0.241268
0.663994
0.308214
0.22646
0.231206
0.492374
0.638668
0.660219
0.665427
0.869724
0.870484
0.141781
0.0879875
0.199092
0.292381
0.186095
0.305805
0.240463
0.23546
0.249927
0.272939
0.15056
0.314913
0.144442
0.237668
0.190948
0.15494
0.147017
0.139639
0.161582
0.188621
0.041096
0.131191
0.0945383
0.134005
0.21048
0.123796
0.125329
0.172756
0.0828658
0.178684
0.0956588
0.0608784
0.0871872
0.123452
0.0176058
0.303096
0.322422
0.135579
0.25543
0.372835
0.236547
0.447097
0.342806
0.0378733
0.249762
0.0244096
0.390166
0.0901898
0.0908895
0.0668676
0.0466355
0.0528934
0.120778
0.151353
0.0645923
0.106264
0.133653
0.039025
0.0310816
0.68659
0.380014
0.501407
0.535161
0.20973
0.284485
0.230832
0.183465
0.242375
0.530977
0.1728
0.178357
0.732316
0.749285
0.724178
0.155677
0.156263
0.147073
0.699325
0.549843
0.717152
0.21876
0.148032
0.092137
0.166277
0.636866
0.315155
0.258076
0.0632167
0.0714168
0.205348
0.142738
0.119317
0.34226
0.696134
0.518179
0.749083
0.0911245
0.0236763
0.121451
0.0269999
0.7045
0
0.241802
0.163657
0.245775
0.19745
0.15118
0.29948
0.112662
0.0866425
0.119415
0.504379
0.164044
0.127417
0.112387
0.167908
0.0821643
0.0472262
0.207672
0.216318
0.133862
0.117821
0.170011
0.161685
0.0490387
0.0467924
0.156016
0.131947
0.222146
0.150634
0.20285
0.24192
0.0944958
0.226682
0.256168
0.20271
0.232554
0.252326
0.16039
0.226548
0.421349
0.705945
0.722477
0.852389
0.769581
0.715926
0.693793
0.343439
0.415216
0.564223
0.629253
0.642846
0.543762
0.531553
0.441151
0.24467
0.472859
0.688567
0.669753
0.774251
0.519131
0.543248
0.430026
0.534121
0.676961
0.537691
0.634317
0.730314
0.895985
0.269874
0.289264
0.40387
0.683246
0.417591
0.571929
0.394201
0.249544
0.375644
0.263533
0.261458
0.186848
0.366799
0.193009
0.585852
0.12614
0.436647
0.170197
0.0587014
0.297438
0.595393
0.140521
0.208328
0.207152
0.426781
0.217539
0.341982
0.524411
0.420715
0.198044
0.154205
0.174651
0.103001
0.156797
0.194468
0.0626623
0.365485
0.0672694
0.107879
0.116759
0.146893
0.213092
0.0705756
0.249302
0.2833
0.169984
0.163447
0.223307
0.221268
0.791918
0.368644
0.792084
0.297334
0.421195
0.431922
0.431604
0.708377
0.927908
0.680678
0.561043
0.844256
0.61006
0.520852
0.651076
0.769126
0.544472
0.566256
0.670626
0.917894
0.992314
0.589741
0.85119
0.566655
0.65717
0.601268
0.626463
0.63399
0.872587
0.370026
0.0800598
0.650624
0.676958
0.681408
0.267832
0.669395
0.63405
0.591577
0.595258
0.804282
0.788787
0.166678
0.613653
0.672728
0.691831
0.715321
0.113433
0.692665
0.424524
0.73347
0.64643
0.427123
0.64601
0.667792
0.603553
0.359068
0.615
0.150203
0.0745852
0.651415
0.930732
1
0.673082
0.473856
0.774501
0.55033
0.601492
0.69123
0.620873
0.56706
0.639179
0.702675
0.519335
0.553864
0.42109
0.459767
0.844017
0.647239
0.770705
0.66709
0.640745
0.252496
0.166104
0.181124
0.122884
0.1471
0.181824
0.178927
0.171777
0.206303
0.146273
0.200776
0.0979159
0.160202
0.122303
0.170812
0.136896
0.13163
0.10803
0.104139
0.314874
0.296106
0.275735
0.316177
0.436661
0.386792
0.410157
0.32701
0.290538
0.325254
0.464025
0.345278
0.35693
0.437325
0.235283
0.344224
0.270692
0.363509
0.168383
0.148372
0.443508
0.53621
0.440259
0.460512
0.344534
0.323206
0.48316
0.613631
0.467686
0.537624
0.203227
0.546265
0.648064
0.649634
0.147319
0.1532
0.131027
0.1633
0.183337
0.030092
0.0924785
0.0546551
0.0984013
0.0655914
0.141945
0.107024
0.204973
0.219096
0.627268
0.409105
0.0923687
0.161764
0.174462
0.137717
0.394406
0.421974
0.237936
0.178903
0.171965
0.173048
0.388617
0.396475
0.628407
0.318577
0.115032
0.247127
0.192091
0.257101
0.584751
0.174192
0.131151
0.08607
0.115859
0.214755
0.00890376
0.0888477
0.0457755
0.0334178
0.0656377
0.130257
0.0714653
0.407586
0.250695
0.16747
0.139722
0.132719
0.12505
0.187507
0.639197
0.28037
0.148286
0.236794
0.341691
0.33494
0.464747
0.69309
0.376244
0.0683896
0.569238
0.39878
0.0690206
0.0688272
0.356058
0.0515793
0.188602
0.138503
0.342277
0.350194
0.64375
0.178693
0.345912
0.487419
0.341263
0.218435
0.353809
0.340022
0.158688
0.2476
0.193579
0.141719
0.180321
0.25809
0.117703
0.266846
0.205237
0.23402
0.136236
0.217746
0.182295
0.292849
0.183046
0.328996
0.318557
0.209446
0.248674
0.520962
0.631739
0.425411
0.635052
0.83507
0.870237
0.280886
0.291895
0.49285
0.423521
0.521469
0.385938
0.583787
0.763007
0.365159
0.464604
0.615708
0.57485
0.609555
0.632416
0.25827
0.300886
0.534059
0.356969
0.479699
0.371581
0.465172
0.378627
0.378933
0.269367
0.183412
0.210079
0.217475
0.14664
0.249883
0.246675
0.272379
0.264557
0.495373
0.221572
0.123622
0.108715
0.626555
0.880232
0.192357
0.0870192
0.103305
0.0624938
0.127348
0.262685
0.115526
0.101021
0.0782256
0.207893
0.215516
0.201785
0.121764
0.156535
0.262887
0.369512
0.752579
0.430144
0.745827
0.6726
0.54907
0.389257
0.260465
0.315189
0.596154
0.382987
0.583998
0.628909
0.747571
0.319417
0.899742
0.571943
0.763331
0.629026
0.732398
0.529486
0.555133
0.87879
0.74631
0.619356
0.609729
0.634837
0.563086
0.673301
0.748612
0.764794
0.653369
0.687838
0.51415
0.523997
0.656628
0.634634
0.717188
0.594193
0.252865
0.132979
0.587881
0.599854
0.647801
0.604421
0.552903
0.703748
0.293686
0.521773
0.177236
0.609278
0.618173
0.533034
0.239964
0.092363
0.573845
0.492572
0.732619
0.69336
0.621649
0.71481
0.328651
0.331692
0.72727
0.740318
0.705386
0.846667
0.915194
0.815526
0.637105
0.552073
0.70697
0.596538
0.717251
0.795797
0.751934
0.673909
0.538007
0.763221
0.710065
0.887795
0.711565
0.746513
0.646782
0.638235
0.670429
0.748047
0.734104
0.673913
0.650871
0.690579
0.692887
0.700539
0.718885
0.63719
0.728377
0.625824
0.761844
0.725343
0.714392
0.710107
0.711947
0.687124
0.733209
0.785311
0.733389
0.706041
0.740424
0.783693
0.877795
0.313161
0.443572
0.274635
0.624954
0.30867
0.820314
0.623283
0.536997
0.641768
0.234915
0.238508
0.34523
0.547138
0.195119
0.548193
0.0526271
0.0714408
0.0838547
0.524175
0.176187
0.0809824
0.201293
0.638961
0.644418
0.115539
0.100261
0.188438
0.686228
0.669738
0.105477
0.61639
0.0699188
0.193699
0.209703
0.802178
0.495383
0.266424
0.619206
0.697665
0.277097
0.272968
0.320235
0.997102
0.596587
0.280634
0.634341
0.636168
0.852857
0.272394
0.889321
0.638222
0.890832
0.66569
0.700511
0.858089
0.637139
0.643676
0.784575
0.996199
0.80196
0.795197
0.636393
0.719056
0.849075
0.637024
0.825304
0.912129
0.796379
0.913813
0.636918
0.666476
0.878015
0.70302
0.831519
0.69523
0.551163
0.71315
0.480073
0.6858
0.563874
0.792497
0.636524
0.269877
0.594814
0.547599
0.473327
0.575096
0.500688
0.408064
0.33095
0.592445
0.624828
0.1141
0.365206
0.112946
0.245017
0.367153
0.498554
0.378184
0.502653
0.26599
0.232073
0.311606
0.165199
0.0916676
0.235589
0.08802
