0.276136
0.247382
0.223829
0.28994
0.176659
0.309489
0.138708
0.212136
0.32602
0.247083
0.213269
0.199729
0.193051
0.235004
0.207956
0.257612
0.325857
0.241046
0.258402
0.188903
0.229054
0.221279
0.213325
0.174845
0.275739
0.25499
0.15722
0.208873
0.149223
0.175927
0.234591
0.270207
0.369224
0.414593
0.427883
0.309445
0.265504
0.368331
0.418727
0.35581
0.415645
0.356021
0.398189
0.360287
0.399272
0.431543
0.439905
0.4227
0.405303
0.402922
0.377425
0.379751
0.524879
0.440955
0.410755
0.418096
0.41724
0.434204
0.647997
0.456965
0.347259
0.488328
0.547172
0.490007
0.462925
0.428513
0.253703
0.473815
0.193039
0.560636
0.210537
0.446934
0.363241
0.271228
0.330199
0.278914
0.373407
0.197804
0.327825
0.458042
0.350452
0.499734
0.501862
0.436532
0.377076
0.434552
0.250406
0.146736
0.62364
0.528678
0.531692
0.472824
0.48182
0.365072
0.52948
0.515188
0.179269
0.460916
0.289088
0.208686
0.342035
0.289155
0.469937
0.488112
0.273876
0.370121
0.278489
0.400073
0.418258
0.445842
0.48906
0.459635
0.480046
0.389219
0.535551
0.549479
0.490508
0.362433
0.390355
0.353838
0.564181
0.573786
0.368862
0.395493
0.315633
0.420729
0.330105
0.441766
0.479101
0.36769
0.386925
0.240738
0.0003174
0.0474941
0.516059
0.485422
0.0393899
0.251129
0.470771
0.557834
0.522809
0.569371
0.565427
0.313835
0.576187
0.277858
0.358861
0.28929
0.308603
0.239494
0.264419
0.248277
0.317667
0.292926
0.255427
0.159394
0.299089
0.122253
0.210524
0.256358
0.247151
0.329002
0.329173
0.155696
0.203674
0.431315
0.213502
0.862429
0.195664
0.14515
0.327284
0.31992
0.31261
0.304156
0.270212
0.237564
0.301169
0.22444
0.327219
0.297386
0.255219
0.331601
0.215098
0.337249
0.283592
0.348683
0.1361
0.228163
0.211051
0.294528
0.340013
0.247213
0.237532
0.166014
0.265535
0.142604
0.315526
0.253394
0.383607
0.256617
0.237637
0.149706
0.339419
0.363854
0.277354
0.36541
0.344171
0.348301
0.2935
0.279792
0.299065
0.321146
0.236088
0.302374
0.224116
0.28929
0.356558
0.315729
0.114192
0.207364
0.133244
0.262721
0.306301
0.144108
0.402994
0.21147
0.129199
0.275558
0.391456
0.185108
0.432214
0.182707
0.125597
0.234244
0.297422
0.316311
0.328625
0.286628
0.21777
0.272384
0.227068
0.31212
0.360638
0.304131
0.308572
0.239439
0.345212
0.279061
0.340535
0.346195
0.262004
0.12661
0.297092
0.140877
0.252811
0.396425
0.270933
0.259881
0.115899
0.315517
0.360417
0.275135
0.354185
0.342632
0.204601
0.271126
0.372745
0.29127
0.280081
0.389392
0.380885
0.358345
0.239327
0.29659
0.0977271
0.253038
0.169682
0.044993
0.194523
0.0456947
0.0758107
0.416171
0.176636
0.104009
0.162342
0.108702
0.0897662
0.209906
0.0480158
0.267594
0.176765
0.128714
0.105349
0.256819
0.0845704
0.152482
0.144671
0.0992368
0.192759
0.261149
0.094491
0.222312
0.204114
0.0436319
0.42331
0.113834
0.300116
0
0.0854583
0.187774
0.0933928
1
0.409313
0.191706
0.089055
0.23761
0.176733
0.414654
0.218884
0.131015
0.687662
0.0817429
0.224834
0.0844883
0.124303
0.2709
0.188599
0.287739
0.239575
0.125311
0.173959
0.209398
0.289448
0.256456
0.219579
0.108757
0.432802
0.156469
0.255062
0.0632635
0.0710148
0.229336
0.0609961
0.373874
0.407822
0.069531
0.0973865
0.225506
0.107598
0.149519
0.653273
0.0604352
0.444266
0.0775428
0.115844
0.208614
0.381426
0.0577719
0.661333
0.0723373
0.101438
0.255511
0.360669
0.0783462
0.535291
0.0814683
0.0792107
0.663679
0.0611182
0.367389
0.104104
0.237474
0.356293
0.047382
0.596309
0.195097
0.174915
0.217803
0.245798
0.0945103
0.256155
0.150893
0.0802045
0.222661
0.0927978
0.258677
0.113983
0.220262
0.234948
0.12222
0.244125
0.213689
0.103229
0.265606
0.279775
0.225353
0.326799
0.215033
0.16251
0.291529
0.0962707
0.33239
0.179899
0.176958
0.138039
0.186588
0.127378
0.161548
0.16341
0.124903
0.186129
0.173211
0.181655
0.159522
0.20632
0.153646
0.170854
0.194432
0.187665
0.178661
0.190045
0.16308
0.190614
0.167099
0.185195
0.194354
0.170721
0.171578
0.168591
0.170224
0.147838
0.193833
0.157633
0.197968
0.206875
0.166111
0.205263
0.183016
0.205366
0.187413
0.169475
0.216408
0.161663
0.116083
0.189683
0.137656
0.154141
0.181143
0.14114
0.206402
0.220592
0.198674
0.215211
0.207935
0.19907
0.232307
0.228184
0.179374
0.18498
0.166032
0.135705
0.213885
0.230069
0.167861
0.220709
0.2168
0.203533
0.152826
0.174162
0.176217
0.179208
0.163378
0.17251
0.153432
0.176975
0.117842
0.171671
0.164264
0.160737
0.210556
0.177901
0.217817
0.156447
0.141996
0.149749
0.176435
0.131501
0.210129
0.155914
0.165378
0.178568
0.140022
0.175323
0.112752
0.165553
0.170737
0.209647
0.17793
0.212265
0.171373
0.159482
0.218257
0.178632
0.145386
0.202631
0.193674
0.206532
0.182449
0.188328
0.180845
0.242147
0.177103
0.21426
0.144291
0.227679
0.182606
0.231603
0.201573
0.232849
0.208934
0.215248
0.194798
0.180195
0.168577
0.167836
0.139322
0.176116
0.17379
0.190286
0.247593
0.224422
0.245899
0.300166
0.284839
0.314742
0.266144
0.228132
0.218048
0.402678
0.35378
0.349322
0.316006
0.318099
0.321567
0.319659
0.349975
0.398286
0.373697
0.329331
0.36826
0.320904
0.347827
0.371258
0.367017
0.231872
0.222383
0.216277
0.257316
0.295572
0.308698
0.332737
0.251895
0.191315
0.189842
0.236385
0.223437
0.282748
0.283273
0.234524
0.261726
0.38031
0.388645
0.356857
0.417891
0.359193
0.383318
0.351042
0.333155
0.424373
0.329835
0.341082
0.294814
0.354473
0.302205
0.368929
0.392788
0.226272
0.21394
0.240472
0.256432
0.299372
0.305872
0.336437
0.209974
0.260358
0.265085
0.260839
0.296558
0.264037
0.285864
0.201886
0.20945
0.365097
0.355181
0.385579
0.354639
0.297904
0.363
0.341125
0.344052
0.385241
0.360858
0.301916
0.320503
0.292371
0.296696
0.390885
0.33876
0.176387
0.174846
0.200572
0.19052
0.252636
0.222733
0.259234
0.216161
0.23342
0.307772
0.344172
0.312319
0.214697
0.334225
0.23946
0.309504
0.392766
0.340699
0.438424
0.414987
0.417548
0.29248
0.304851
0.361248
0.35469
0.348236
0.34609
0.344407
0.326863
0.434831
0.418823
0.456616
0.257851
0.318792
0.255929
0.294444
0.275616
0.317382
0.293462
0.34836
0.383467
0.345968
0.377276
0.379963
0.427956
0.361966
0.408574
0.377975
0.302718
0.302731
0.267458
0.352967
0.409429
0.401085
0.402988
0.358416
0.348766
0.335052
0.397581
0.359105
0.41478
0.3973
0.271895
0.345858
0.381939
0.366984
0.412855
0.342829
0.430115
0.356211
0.406633
0.467848
0.404139
0.464856
0.427486
0.452436
0.372827
0.441815
0.364147
0.437832
0.323776
0.37914
0.347889
0.387849
0.401205
0.477207
0.411311
0.457285
0.331093
0.392013
0.435388
0.445403
0.460813
0.385861
0.376769
0.396106
0.412434
0.481284
0.402175
0.481415
0.423325
0.482441
0.418834
0.435347
0.383511
0.346949
0.434719
0.363348
0.433943
0.356492
0.418336
0.386523
0.326409
0.295456
0.278554
0.347962
0.420575
0.400118
0.392525
0.382575
0.319747
0.348591
0.412194
0.391171
0.419852
0.382308
0.290188
0.324495
0.404281
0.36976
0.410835
0.377968
0.432823
0.390679
0.410278
0.394072
0.401258
0.475921
0.438179
0.408311
0.435433
0.411858
0.364484
0.487793
0.299793
0.388026
0.360841
0.39619
0.45786
0.334853
0.433749
0.448506
0.296388
0.371954
0.420449
0.450557
0.498019
0.476981
0.331553
0.358954
0.412366
0.46496
0.400402
0.420587
0.372814
0.385022
0.427483
0.449349
0.452708
0.424545
0.344063
0.421766
0.39543
0.384384
0.377359
0.385669
0.271397
0.381595
0.306578
0.301169
0.38727
0.319867
0.387478
0.367894
0.258121
0.416034
0.31674
0.38521
0.402147
0.371121
0.309895
0.281183
0.358082
0.420128
0.394491
0.386104
0.304331
0.361433
0.368851
0.34891
0.48629
0.413466
0.448538
0.327175
0.456169
0.364584
0.360041
0.436492
0.390767
0.371153
0.326213
0.448131
0.488736
0.476258
0.440688
0.421371
0.378932
0.430752
0.442884
0.450736
0.375109
0.444688
0.40716
0.28952
0.283978
0.433046
0.318231
0.289103
0.33265
0.469234
0.414139
0.343337
0.264404
0.428501
0.352891
0.393167
0.401725
0.39363
0.315361
0.418557
0.330223
0.383626
0.341136
0.387698
0.377132
0.418703
0.414097
0.408074
0.348273
0.416206
0.41691
0.32847
0.356669
0.399064
0.339932
0.361847
0.400651
0.263692
0.402192
0.394084
0.426066
0.391865
0.413758
0.395229
0.423711
0.453194
0.468107
0.354074
0.406089
0.40806
0.315876
0.330334
0.410887
0.417256
0.415228
0.255361
0.454124
0.382062
0.427344
0.457717
0.420802
0.157181
0.475215
0.458293
0.4896
0.339298
0.404765
0.262052
0.375161
0.328899
0.419661
0.474645
0.473198
0.409271
0.441042
0.314577
0.593058
0.715683
0.388149
0.440822
0.451262
