0.743454
0.619383
0.574572
0.81624
0.498905
0.733886
0.519821
0.631226
0.658643
0.652329
0.784658
0.778871
0.426826
0.629039
0.668995
0.414912
0.774259
0.779733
0.742842
0.719949
0.484824
0.0333922
0.0849998
0.411384
0.525462
0.882508
0.511585
0.788987
0.296075
0.724067
0.306048
1
0.0768373
0.268012
0.527289
0.238352
0.34868
0.71684
0.28886
0.268012
0.51159
0.552466
0.233924
0.865139
0.724004
0.381244
0.616193
0.773407
0.153189
0.409603
0.1552
0.40295
0.0438987
0.0688147
0.0750975
0.069047
0.406605
0.325019
0.198934
0.262388
0.110259
0.239699
0.768345
0.325176
0.0750976
0.08276
0.367802
0.0711343
0.246931
0.367803
0.446121
0.319385
0.768315
0.314553
0.55087
0.388638
0.554336
0.254933
0.741441
0.709085
0.197426
0.682924
0.630446
0.670995
0.698632
0.763665
0.566862
0.534236
0.361324
0.468852
0.276899
0.291432
0.689404
0.454142
0.361524
0.675286
0.462167
0.53424
0.556982
0.545235
0.757352
0.629838
0.718115
0.682927
0.521284
0.684375
0.715439
0.442673
0.325666
0.288844
0.647221
0.690154
0.584046
0.568985
0.830658
0.591035
0.533275
0.300454
0.485896
0.529887
0.964487
0.269266
0.402857
0.934936
0.973858
0.352398
0.199336
0.749504
0.236243
0.236219
0.596136
0.690858
0.684324
0.727641
0.742645
0.932919
0.651741
0.341536
0.944169
0.927658
0.537652
0.381859
0.946335
0.358296
0.392447
0.611584
0.63474
0.643903
0.503995
0.509285
0.960057
0.561808
0.641289
0.642229
0.633866
0.761904
0.781514
0.948894
0.914833
0.934004
0.853021
0.586145
0.781385
0.663178
0.619689
0.562154
0.473099
0.674906
0.895573
0.491801
0.904155
0.48441
0.771905
0.705826
0.5961
0.0751491
0.0785981
0.0992405
0.105296
0.0594239
0.398162
0.0979893
0.0974976
0.0976649
0.106518
0.0761913
0.110213
0.0842012
0.0826614
0.0800802
0.136344
0.681589
0.0701426
0.369597
0.155397
0.808718
0.67087
0.282321
0.0749459
0.219907
0.55445
0.499647
0.708173
0.491231
0.71509
0.437923
0.393496
0.730113
0.26888
0.416715
0.619926
0.0176836
0.00985318
0.297443
0.016033
0.0447857
0.0530902
0.0661217
0.062645
0.0849669
0.060087
0.059403
0.0671569
0.0804521
0.0710919
0.0446432
0.0971765
0.106615
0.049409
0.104553
0.0878856
0.5187
0.949594
0.641906
0.912614
0.16775
0.217746
0.307226
0.173355
0.673848
0.61822
0.72148
0.712324
0.574605
0.793101
0.733142
0.428276
0.243656
0.264617
0.44413
0.382109
0.550354
0.490729
0.256088
0.216956
0.495596
0.621375
0.508298
0.719448
0.508057
0.733021
0.47425
0.132885
0.798449
0.712248
0.40868
0.275521
0.405985
0.304555
0.193907
0.278349
0.773346
0.864298
0.710472
0.725599
0.756685
0.708883
0.405966
0.618173
0.672636
0.730921
0.726344
0.733236
0.639222
0.70602
0.730409
0.797796
0.38978
0.337608
0.320945
0.705803
0.820043
0.755148
0.709846
0.739074
0.444954
0.335415
0.50083
0.432985
0.796898
0.450097
0.217886
0.618134
0.704561
0.825968
0.707299
0.687097
0.596408
0.852382
0.775117
0.811189
0.630451
0.449505
0.475381
0.97045
0.295919
0.944242
0.684791
0.395324
0.418637
0.236243
0.236076
0.814628
0.793274
0.300189
0.292779
0.28628
0.331898
0.686795
0.412387
0.367845
0.509631
0.217642
0.219216
0.204843
0.272367
0.947848
0.399029
0.184394
0.145603
0.707956
0.696202
0.5648
0.692021
0.94082
0.92438
0.840411
0.701362
0.705074
0.478991
0.758562
0.541211
0.657036
0.65474
0.689204
0.502689
0.683829
0.496444
0.809106
0.492567
0.812974
0.589368
0.692142
0.79874
0.778902
0.0969595
0.665596
0.795733
0.654023
0.928319
0.281796
0.47691
0.0267692
0.128438
0.546841
0.428044
0.370786
0.0207763
0.0480784
0.636537
0.204211
0.226908
0.450636
0.576412
0.444614
0.697558
0.40807
0.0834293
0.0175406
0.0262489
0.0329938
0.104727
0.0929822
0.0704285
0.0856323
0.215611
0.307408
0.838562
0.761651
0.798108
0.757553
0.696953
0.82216
0.757678
0.93215
0.776317
0.827457
0.214033
0.70911
0.699581
0.684318
0.819125
0.866344
0.532047
0.748674
0.385487
0.11545
0.337657
0.260112
0.571845
0.82088
0.391941
0.813255
0.763825
0.83477
0.757678
0.847961
0.117677
0.065497
0.214745
0.0651989
0.0365689
0.0325854
0.043178
0.0393773
0.301174
0.262614
0.556431
0.116784
0.273782
0.726314
0.903164
0.703209
0.706758
0.141097
0.299514
0.0983582
0.366671
0.514426
0.377714
0.644288
0.0987092
0.414782
0.203144
0.230876
0.256712
0.204044
0.0907779
0.114513
0.229211
0.256482
0.364561
0.700368
0.525104
0.445082
0.227865
0.256897
0.295223
0.077188
0.298795
0.0783711
0.720183
0.710375
0.309518
0.367802
0.0940793
0.0790228
0.30463
0.078371
0.244542
0.237666
0.0963818
0.10603
0.229998
0.263988
0.308334
0.68001
0.378591
0.700215
0.228363
0.523889
0.107434
0.114256
0.121262
0.11392
0.734322
0.433836
0.137312
0.252836
0.54736
0.739321
0.153744
0.233227
0.332136
0.300756
0.54573
0.689547
0.744466
0.237737
0.404857
0.800714
0.700198
0.699423
0.507455
0.335971
0.947104
0.288284
0.189572
0.762595
0.13049
0.810642
0.628398
0.442293
0.50571
0.191496
0.770875
0.200407
0.694837
0.432713
0.721551
0.528335
0.613304
0.0870593
0.0625277
0.0757116
0.087016
0.100165
0.0265044
0.0498111
0.0822587
0.0422453
0.0561361
0.0596916
0.0655671
0.0712595
0.0594671
0.0687057
0.0628766
0.0783373
0.0752739
0.0995483
0.105292
0.281314
0.280837
0.291044
0.333199
0.325637
0.263413
0.336735
0.338815
0.00750804
0.0546036
0.404198
0.143305
0.522988
0.110834
0.0533699
0.00829585
0.0778908
0.0255224
0.12828
0.0614585
0.222876
0.731741
0.265201
0.771203
0.512409
0.711647
0.534626
0.697842
0.46108
0.0497255
0.1378
0.650865
0.364079
0.10386
0.732406
0.10106
0.197425
0.0858566
0.153584
0.0640142
0.102808
0.0745852
0.93662
0.344169
0.11112
0.0960866
0.250073
0.292019
0.384862
0.370999
0.107637
0.108794
0.0406424
0.0664278
0.0626832
0.0693326
0.0800814
0.138456
0.0989469
0.100259
0.0595083
0.0628584
0.512901
0.824409
0.0552312
0.241291
0.078392
0.096888
0.0568383
0.0920376
0.116621
0.09863
0.134168
0.537907
0.115996
0.133408
0.0855545
0.580112
0.343214
0.196035
0.376263
0.754741
0.624204
0.558014
0.747643
0.349845
0.644803
0.431336
0.714289
0.732763
0.597409
0.822438
0.69687
0.543616
0.460365
0.330705
0.40047
0.79594
0.732649
0.779578
0.712522
0.316988
0.734247
0.144994
0.297354
0.389466
0.903102
0.677179
0.578506
0.0784626
0.268012
0.311435
0.314416
0.633994
0.724997
0.300171
0.745221
0.152421
0.0761835
0.746405
0.463899
0.310261
0.367802
0.168052
0.217607
0.367802
0.103487
0.309517
0.367802
0.769856
0.479016
0.308718
0.0885415
0.469255
0.688383
0.702199
0.703175
0.693443
0.754373
0.75671
0.802708
0.783545
0.820442
0.851417
0.735998
0.653721
0.729228
0.484239
0.807484
0.738476
0.801948
0.665711
0.581201
0.405066
0.628319
0.743418
0.820338
0.666716
0.919829
0.507243
0.762615
0.498506
0.631794
0.484839
0.721825
0.64136
0.711957
0.755962
0.682445
0.682305
0.269035
0.4721
0.440044
0.194895
0.122528
0.209202
0.140108
0.474395
0.526823
0.256085
0.134264
0.277093
0.460667
0.157346
0.112744
0.11183
0.130921
0.331335
0.363537
0.770029
0.715459
0.722472
0.843516
0.417877
0.34179
0.225335
0.46584
0.199527
0.29668
0.425161
0.151232
0.107329
0.733362
0.151635
0.194067
0.489138
0.768049
0.602756
0.58173
0.74549
0.521011
0.786506
0.674102
0.108203
0.0681819
0.346852
0.260878
0.944069
0.926828
0.503821
0.506532
0.759365
0.477492
0.591807
0.543331
0.59424
0.00832974
0.0111349
0.00916031
0.0113132
0.0777016
0.0671351
0.0861677
0.0673133
0.171596
0.437838
0.701716
0.429144
0.585951
0.0411283
0.277995
0.432295
0.443766
0.878164
0.714284
0.47034
0.806422
0.416997
0.410565
0.694343
0.650305
0.221045
0.33766
0.172641
0.445995
0.857449
0.695491
0.00849483
0.133986
0.750433
0.750891
0.944931
0.449442
0.682106
0.678537
0.0875802
0.0731528
0.0828277
0.0812775
0.1791
0.106359
0.138829
0.0900721
0.862803
0.723597
0.856278
0.71783
0.826479
0.525165
0.740304
0.722751
0.809706
0.86711
0.815267
0.593221
0.536668
0.331199
0.865364
0.576691
0.105252
0.0873025
0.120604
0.131848
0.0755464
0.076404
0.0897343
0.0820718
0.205501
0.251258
0.15471
0.244302
0.636985
0.679653
0.67142
0.443701
0.673331
0.655031
0.423512
0.379044
0.953721
0.642785
0.126758
0.229659
0.470312
0.677263
0.0316092
0.0280599
0.0104572
0.0359101
0.416997
0.0730617
0.107383
0.0405878
0.0588945
0.0360458
0.0602224
0.115577
0.108614
0.623635
0.648706
0.637748
0.63383
0.522832
0.484777
0.910317
0.486568
0.60749
0.551634
0.447675
0.856339
0.0697168
0.430458
0.827246
0.680446
0.227374
0.895571
0.924915
0.429534
0.323069
0.28062
0.217975
0.2342
0.244045
0.94417
0.43995
0.718589
0.680162
0.658574
0.242247
0.312103
0.268478
0.246529
0.603756
0.880822
0.721933
0.730623
0.403856
0.712284
0.786539
0.727531
0.732828
0.694924
0.732279
0.696577
0.600621
0.806624
0.746934
0.702406
0.736859
0.733923
0.816876
0.719558
0.482306
0.440696
0.694245
0.929882
0.362358
0.474201
0.448084
0.341347
0.430091
0.440395
0.454728
0.846048
0.906172
0.714925
0.715514
0.71058
0.87806
0.724158
0.851667
0.903202
0.871439
0.821459
0.815715
0.730272
0.94519
0.102399
0.0849685
0.090119
0.05825
0.0735198
0.0525905
0.197296
0.111752
0.122436
0.0890803
0.113845
0.111716
0.0864055
0.0843802
0.089776
0.0787904
0.131817
0.115881
0.102627
0.106676
0.301239
0.296399
0.551813
0.278281
0.403927
0.373288
0.260559
0.701782
0.0159786
0.131207
0.119206
0.0697811
0.628496
0.0858566
0.0659014
0.0633409
0.375341
0.0327819
0.651247
0.0794086
0.232872
0.339681
0.775378
0.536134
0.0213244
0.0296604
0.550517
0.0555425
0.721523
0.729255
0.615371
0.773761
0.651487
0.769531
0.758848
0.362942
0.709559
0.748449
0.752891
0.362942
0.639598
0.706786
0.467919
0.0971984
0.385044
0.205604
0.0500488
0.0480457
0.0317915
0.0194032
0.519417
0.0614984
0.929598
0.0858567
0.302901
0.0899925
0.373585
0.0293792
0.0628601
0.06091
0.349315
0.250876
0.935057
0.0700687
0.0756897
0.111873
0.2603
0.268661
0.13128
0.132302
0.364887
0.295039
0.306574
0.30152
0.107857
0.110175
0.120207
0.0751208
0.0892688
0.0600633
0.086371
0.0841269
0.10541
0.0778555
0.0968293
0.672115
0.136063
0.110528
0.0726619
0.0559963
0.0906764
0.0548537
0.699039
0.597002
0.59377
0.575045
0.665803
0.595158
0.948396
0.515452
0.527617
0.498151
0.493318
0.569536
0.789203
0.482312
0.572582
0.539589
0.650265
0.597782
0.579921
0.000216919
0
0.950684
0.394024
0.00242639
0.622963
0.553612
0.602684
0.417145
0.950807
0.571791
0.513545
0.489033
0.655216
0.785273
0.64078
0.460003
0.875786
0.946092
0.917832
0.571176
0.515723
0.595349
0.82348
0.723286
0.640377
0.760626
0.76343
0.733837
0.600262
0.802341
0.547743
0.959572
0.738149
0.879945
0.945074
0.913528
0.578133
0.651859
0.62771
0.958128
0.95814
0.609188
0.515199
0.674619
0.653029
0.728223
0.664204
0.727518
0.514817
0.860937
0.514851
0.666245
0.668547
0.693075
0.723459
0.702649
0.705909
0.731288
0.670456
0.697267
0.672982
0.678256
0.678927
0.630274
0.629311
0.844953
0.76343
0.66151
0.453706
0.949766
0.552986
0.738263
0.599829
0.670108
0.973868
0.499494
0.896761
0.961134
0.577122
0.923194
0.855722
0.917933
0.434995
0.9739
0.613023
0.554294
0.573694
0.598493
0.605418
0.597791
0.564914
0.688983
0.707009
0.69478
0.853132
0.752835
0.709362
0.780278
0.88839
0.890029
0.711263
0.705564
0.738914
0.940397
0.953387
0.789664
0.964166
0.959731
0.779981
0.955339
0.911957
0.525442
0.628509
0.607904
0.517919
0.511851
0.782123
0.623069
0.610506
0.687741
0.524057
0.632377
0.657687
0.674209
0.559461
0.929721
0.538098
0.492558
0.9288
0.502133
0.804396
0.485722
0.512657
0.771163
0.715182
0.826069
0.197049
0.811471
0.705614
0.349562
0.469775
0.369629
0.944324
0.271506
0.708014
0.346985
0.29061
0.404107
0.217035
0.436865
0.558927
0.454394
0.600687
0.673953
0.506004
0.509966
0.959087
0.729274
0.698795
0.506759
0.673956
0.374071
0.631382
0.946091
0.683625
0.634322
0.711318
0.739821
0.3859
0.271782
0.463929
0.664661
0.944334
0.55722
0.337748
0.346162
0.706321
0.722078
0.264081
0.756171
0.853021
0.167736
0.510775
0.682293
0.522584
0.733359
0.50755
0.681382
0.841133
0.219925
0.338607
0.788444
0.563097
0.644844
0.723565
0.976215
0.950732
0.769636
0.405357
0.217552
0.944355
0.350811
0.522584
0.459694
0.238033
0.49114
0.259203
0.90381
0.20361
0.200951
0.548742
0.311052
0.745497
0.690931
0.196445
0.809931
0.225811
0.491289
0.177648
0.486077
0.749815
0.370965
0.530874
0.569989
0.48813
0.034267
0.341993
0.0443228
0.578602
0.0476645
0.498775
0.484098
0.472623
0.581906
0.568171
0.501877
0.518058
0.768955
0.682708
0.678212
0.50052
0.680107
0.661941
0.534909
0.619553
0.591089
0.494147
0.628704
0.168088
0.107481
0.126147
0.100236
0.105529
0.436309
0.185313
0.184324
0.0624244
0.0133419
0.133331
0.0211409
0.108747
0.0724803
0.095816
0.0494046
0.829541
0.0522122
0.791873
0.132923
0.73791
0.514177
0.80068
0.756604
0.708665
0.807458
0.0649707
0.744462
0.551154
0.448041
0.702202
0.181407
0.16382
0.117585
0.12457
0.0904083
0.0806591
0.0143297
0.00832286
0.0111563
0.11531
0.079905
0.467919
0.135119
0.0945414
0.097415
0.032384
0.0544024
0.0712845
0.16423
0.799642
0.101164
0.253063
0.171865
0.259527
0.699785
0.65577
0.298703
0.775463
0.500208
0.0704087
0.438849
0.472575
0.739176
0.575896
0.511186
0.5402
0.433352
0.0202616
0.429148
0.710336
0.677872
0.414816
0.628404
0.704706
0.257333
0.75521
0.781869
0.299172
0.286257
0.135886
0.128742
0.424066
0.400546
0.756501
0.0913557
0.0199267
0.463711
0.404946
0.211081
0.372707
0.0451053
0.0214013
0.0887651
0.0620953
