OFF
236 465 0
-8.11768 13.447 -13.2217
-7.85668 13.7821 -13.0379
-7.85068 13.6275 -13.6086
-7.55968 13.8369 -13.1414
-7.54268 13.679 -13.7294
-7.54668 13.3063 -14.0708
-7.88068 13.2697 -13.9347
-8.16768 13.1002 -13.5109
-7.30068 13.6687 -13.0706
-7.10168 13.2658 -12.4358
-7.04068 13.2814 -13.2284
-7.25368 13.5409 -13.61
-6.99868 13.0012 -13.4819
-7.23068 13.2146 -13.9186
-7.05968 12.6325 -13.5214
-7.13768 12.0585 -12.9804
-7.34168 12.291 -13.6927
-7.27668 12.772 -13.9571
-7.60668 12.2645 -13.8514
-7.56868 12.8053 -14.1239
-7.88168 12.2624 -13.7395
-8.16768 11.9762 -13.0885
-8.14168 12.6497 -13.5817
-7.87568 12.7867 -13.9882
-5.58368 5.41809 0.608285
-5.49068 5.40899 1.28948
-5.56268 6.67509 0.111685
-5.43468 5.41119 -0.0340154
-5.58168 6.15899 -0.0937154
-4.80268 5.40559 0.952185
-5.03868 6.75099 0.363385
-5.13968 5.41679 1.40408
-5.34968 6.79059 0.462085
-5.34568 5.40639 1.43698
-4.87668 5.40819 0.265385
-4.79668 6.14989 -0.0141154
-5.96168 8.24309 -1.19472
-5.87868 8.40339 -1.00122
-6.29168 9.20569 -1.76912
-6.37468 9.02839 -1.93862
-6.78668 9.98229 -2.63832
-6.86968 9.79759 -2.78332
-6.90368 9.55459 -2.96662
-6.40868 8.79499 -2.15302
-5.99368 8.03219 -1.43982
-7.27868 10.6658 -3.59972
-7.68268 11.1892 -4.64452
-7.76168 11.0127 -4.74582
-7.36068 10.482 -3.72152
-7.79268 10.7805 -4.87362
-7.39268 10.2401 -3.87522
-7.77568 10.5441 -5.00002
-7.70768 10.3553 -5.09692
-7.30468 9.79719 -4.14372
-7.37468 9.99379 -4.02722
-6.81268 9.10959 -3.28682
-6.88468 9.30719 -3.14782
-6.31668 8.36769 -2.52812
-5.90068 7.64609 -1.86972
-5.97468 7.81749 -1.68282
-6.38968 8.55739 -2.36522
-5.43568 8.37469 -0.979115
-5.26568 8.21049 -1.18982
-5.72268 9.04579 -1.84852
-5.84868 9.17389 -1.74742
-6.22168 9.81579 -2.70452
-6.34668 9.94919 -2.61842
-6.49968 10.0361 -2.56952
-6.00268 9.25739 -1.68962
-5.58968 8.44999 -0.912115
-6.72468 10.5001 -3.65472
-7.15068 11.0301 -4.69032
-7.26868 11.1575 -4.63032
-6.84768 10.6329 -3.58262
-7.41268 11.2406 -4.59642
-6.99768 10.7194 -3.54182
-7.55868 11.2581 -4.59792
-7.14968 10.7376 -3.54372
-6.65468 10.0544 -2.57162
-5.64968 8.24849 -0.711915
-6.15868 9.27499 -1.69152
-5.22768 7.90839 -1.52722
-5.32468 7.70819 -1.72732
-5.74068 8.43639 -2.40052
-5.65768 8.57559 -2.26552
-6.24068 9.18119 -3.17612
-6.15868 9.32619 -3.06052
-6.59468 10.1368 -3.76252
-5.66168 8.86559 -2.11802
-6.74368 9.86839 -4.05032
-7.11568 10.4966 -4.98162
-6.66268 10.0127 -3.95332
-7.06368 10.8184 -4.80142
-6.65268 10.3429 -3.74652
-6.14868 9.65789 -2.81402
-5.77268 7.56469 -1.94682
-6.18868 8.27769 -2.59482
-6.68568 9.01589 -3.34342
-6.53068 9.00839 -3.33332
-6.03268 8.27039 -2.58352
-5.47568 7.27559 -1.67992
-7.58868 10.2658 -5.13632
-7.18068 9.70389 -4.19112
-7.44268 10.2586 -5.12912
-7.02868 9.69639 -4.18242
-7.29468 10.3168 -5.08642
-6.87368 9.75709 -4.13112
-6.33768 9.03149 -3.21952
-5.45868 7.61109 -1.85482
-7.91368 11.4851 -5.76382
-7.98668 11.3209 -5.84902
-8.02168 11.6203 -6.85852
-8.09568 11.4769 -7.00502
-8.11668 11.267 -7.02722
-8.02168 11.0057 -6.01682
-8.05568 11.6616 -7.83002
-8.08568 11.6986 -8.97112
-8.15168 11.4553 -8.67542
-8.14668 11.3211 -7.98882
-8.14768 11.1325 -8.81802
-8.08968 10.9408 -9.06702
-8.05368 10.9287 -8.16162
-7.97668 10.7736 -6.36292
-8.10168 11.0627 -7.12022
-7.41868 11.337 -5.80222
-7.61368 11.518 -5.73452
-7.58768 11.5059 -7.37692
-7.66468 11.5929 -6.84812
-7.87768 11.6901 -6.82702
-7.55968 11.4691 -8.63232
-7.78768 11.7054 -8.47232
-7.96368 11.7397 -8.54611
-7.79868 11.5492 -5.72452
-7.47268 10.7275 -6.10652
-7.33868 10.9844 -5.97182
-7.53168 11.02 -7.10512
-7.48668 11.2995 -6.97492
-7.59568 11.0609 -8.07132
-7.63668 10.9722 -8.97262
-7.53168 11.1827 -8.76082
-7.53668 11.3262 -7.94812
-7.35568 11.1966 -5.86652
-7.82668 10.6259 -6.17752
-7.94068 10.8222 -7.22052
-7.74068 10.8327 -7.20562
-7.69068 10.6192 -6.17152
-7.93768 10.8543 -8.99992
-7.80968 10.893 -8.16042
-8.20368 11.3421 -9.10782
-8.39168 11.5619 -10.0563
-8.35068 12.0071 -9.99972
-8.22068 12.2977 -9.86042
-8.36268 11.1654 -10.1771
-8.24868 10.8573 -10.2475
-7.57768 11.6376 -9.14581
-7.92068 11.8947 -9.14772
-7.90268 11.806 -8.95292
-7.24068 12.3595 -10.4927
-7.52268 12.2995 -9.92262
-7.76568 12.4396 -9.87492
-8.01268 12.4692 -9.87702
-7.40568 10.9676 -10.1622
-7.26668 11.2039 -10.1246
-7.46268 11.3456 -9.21242
-7.20268 11.4981 -10.0998
-7.20768 11.8296 -10.114
-8.04668 10.7081 -10.0185
-7.83668 10.701 -10.2559
-8.06268 10.7941 -10.6334
-7.56568 10.8803 -10.5634
-7.64768 10.777 -9.97252
-8.23068 12.7893 -10.663
-8.38168 12.4512 -10.8245
-8.20368 13.2187 -11.5158
-8.36368 12.869 -11.701
-8.42768 12.4088 -11.9297
-8.44168 12.0061 -11.0284
-8.12768 13.5049 -12.3236
-8.28168 13.1975 -12.5429
-8.34268 12.7934 -12.7999
-8.30868 12.3277 -12.9357
-8.25468 11.5386 -12.2744
-8.39168 11.9269 -12.1264
-8.27868 11.1912 -11.3846
-8.40868 11.5531 -11.23
-7.43768 12.7287 -10.6404
-7.12468 12.907 -11.588
-7.36368 13.1726 -11.5016
-7.65368 13.3454 -11.46
-7.71368 12.8878 -10.5862
-7.32768 13.5159 -12.3397
-7.59968 13.6938 -12.3483
-7.88368 13.6802 -12.3008
-7.95068 13.3692 -11.4501
-7.99268 12.9214 -10.5887
-7.24668 11.3223 -11.2607
-7.09768 11.5878 -11.132
-7.16168 11.6664 -12.1482
-7.00268 11.956 -12.0258
-6.94068 12.2829 -11.8928
-7.04268 11.8876 -10.9937
-6.97868 12.3324 -12.85
-6.91468 12.6724 -12.7644
-6.95968 12.9684 -12.5628
-6.98268 12.6052 -11.7327
-7.07968 12.1952 -10.8577
-8.05068 11.0196 -11.4474
-8.01168 11.3595 -12.3575
-7.71468 11.3463 -12.3626
-7.77068 11.0058 -11.4359
-7.94068 11.7802 -13.1587
-7.65768 11.772 -13.216
-7.37768 11.8497 -13.092
-7.41568 11.4559 -12.2767
-7.48668 11.1175 -11.3678
-4.85068 6.26069 0.434285
-4.88868 6.84989 -0.0372154
-5.20168 6.80429 0.441085
-5.01768 7.46949 -0.493715
-5.18868 7.61889 -0.323515
-5.34368 7.68079 -0.247015
-5.63168 7.64249 -0.343615
-5.48668 6.77499 0.340685
-5.61968 6.65039 -0.523015
-5.71368 7.51069 -0.558815
-5.74568 7.33729 -0.832315
-5.65068 7.01969 -1.31352
-5.72468 7.16069 -1.10392
-5.49668 6.35069 -0.738715
-5.42268 6.64749 -1.13092
-5.21668 6.32649 -0.845115
-5.09868 5.40639 -0.0227154
-5.10768 7.01069 -1.20222
-4.97868 6.35989 -0.667015
-4.84468 6.64919 -0.436915
-4.95668 7.21619 -0.860915
3 0 1 2
3 1 3 4
3 1 4 2
3 4 5 6
3 4 6 2
3 6 7 0
3 6 0 2
3 8 9 10
3 8 10 11
3 10 12 13
3 10 13 11
3 13 5 4
3 13 4 11
3 4 3 8
3 4 8 11
3 14 15 16
3 14 16 17
3 16 18 19
3 16 19 17
3 19 5 13
3 19 13 17
3 13 12 14
3 13 14 17
3 20 21 22
3 20 22 23
3 22 7 6
3 22 6 23
3 6 5 19
3 6 19 23
3 19 18 20
3 19 20 23
3 24 25 26
3 27 24 28
3 29 30 31
3 32 25 33
3 31 32 33
3 29 34 35
3 36 37 38
3 36 38 39
3 38 40 41
3 38 41 39
3 41 42 43
3 41 43 39
3 43 44 36
3 43 36 39
3 45 46 47
3 45 47 48
3 47 49 50
3 47 50 48
3 50 42 41
3 50 41 48
3 41 40 45
3 41 45 48
3 51 52 53
3 51 53 54
3 53 55 56
3 53 56 54
3 56 42 50
3 56 50 54
3 50 49 51
3 50 51 54
3 57 58 59
3 57 59 60
3 59 44 43
3 59 43 60
3 43 42 56
3 43 56 60
3 56 55 57
3 56 57 60
3 61 62 63
3 61 63 64
3 63 65 66
3 63 66 64
3 66 67 68
3 66 68 64
3 68 69 61
3 68 61 64
3 70 71 72
3 70 72 73
3 72 74 75
3 72 75 73
3 75 67 66
3 75 66 73
3 66 65 70
3 66 70 73
3 76 46 45
3 76 45 77
3 45 40 78
3 45 78 77
3 78 67 75
3 78 75 77
3 75 74 76
3 75 76 77
3 38 37 79
3 38 79 80
3 79 69 68
3 79 68 80
3 68 67 78
3 68 78 80
3 78 40 38
3 78 38 80
3 81 82 83
3 81 83 84
3 83 85 86
3 83 86 84
3 86 87 88
3 86 88 84
3 88 81 84
3 89 90 91
3 90 92 87
3 90 87 91
3 87 86 91
3 86 85 89
3 86 89 91
3 92 71 70
3 92 70 93
3 70 65 94
3 70 94 93
3 94 87 93
3 87 92 93
3 63 62 88
3 62 81 88
3 88 87 94
3 94 65 63
3 94 63 88
3 95 58 57
3 95 57 96
3 57 55 97
3 57 97 96
3 97 98 99
3 97 99 96
3 99 100 95
3 99 95 96
3 53 52 101
3 53 101 102
3 101 103 104
3 101 104 102
3 104 98 97
3 104 97 102
3 97 55 53
3 97 53 102
3 105 90 89
3 105 89 106
3 89 85 107
3 89 107 106
3 107 98 104
3 107 104 106
3 104 103 105
3 104 105 106
3 83 82 108
3 83 108 107
3 108 100 99
3 108 99 107
3 99 98 107
3 107 85 83
3 47 46 109
3 47 109 110
3 109 111 112
3 109 112 110
3 112 113 114
3 112 114 110
3 114 49 47
3 114 47 110
3 115 116 117
3 115 117 112
3 117 118 112
3 118 113 112
3 112 111 115
3 119 120 121
3 121 122 123
3 121 123 119
3 123 113 118
3 123 118 119
3 118 117 119
3 122 52 51
3 122 51 114
3 51 49 114
3 114 113 123
3 123 122 114
3 72 71 124
3 72 124 125
3 124 126 127
3 124 127 125
3 127 128 125
3 125 74 72
3 126 129 130
3 130 128 127
3 127 126 130
3 131 116 115
3 115 111 128
3 115 128 131
3 128 130 131
3 109 46 76
3 109 76 132
3 76 74 125
3 76 125 132
3 125 128 132
3 128 111 109
3 128 109 132
3 90 133 134
3 133 135 134
3 135 136 134
3 134 92 90
3 137 138 139
3 139 140 137
3 140 136 135
3 140 135 137
3 129 126 140
3 126 136 140
3 140 139 129
3 124 71 92
3 124 92 141
3 92 134 141
3 134 136 141
3 136 126 124
3 136 124 141
3 101 52 122
3 101 122 142
3 122 143 142
3 143 144 145
3 143 145 142
3 145 103 101
3 145 101 142
3 121 120 146
3 146 147 121
3 147 144 143
3 147 143 121
3 143 122 121
3 138 137 147
3 137 135 144
3 137 144 147
3 147 146 138
3 133 90 105
3 105 103 145
3 105 145 133
3 145 144 133
3 144 135 133
3 117 116 148
3 149 148 150
3 148 116 151
3 148 151 150
3 120 119 148
3 119 117 148
3 148 149 152
3 152 153 120
3 152 120 148
3 130 129 154
3 154 155 156
3 156 130 154
3 154 157 158
3 158 159 155
3 158 155 154
3 160 151 155
3 151 116 155
3 155 159 160
3 116 131 156
3 131 130 156
3 155 116 156
3 138 161 162
3 162 163 138
3 163 139 138
3 164 163 162
3 165 157 154
3 165 154 163
3 164 165 163
3 154 129 163
3 129 139 163
3 146 120 166
3 120 153 166
3 166 167 146
3 153 168 166
3 168 167 166
3 169 161 170
3 167 169 170
3 138 146 170
3 146 167 170
3 170 161 138
3 150 151 171
3 150 171 172
3 171 173 174
3 171 174 172
3 174 175 176
3 174 176 172
3 176 149 150
3 176 150 172
3 177 1 0
3 177 0 178
3 0 7 179
3 0 179 178
3 179 175 174
3 179 174 178
3 174 173 177
3 174 177 178
3 22 21 180
3 21 181 182
3 21 182 180
3 182 175 179
3 182 179 180
3 179 7 22
3 179 22 180
3 183 153 152
3 183 152 184
3 152 149 176
3 152 176 184
3 176 175 182
3 176 182 184
3 182 181 183
3 182 183 184
3 158 157 185
3 157 186 187
3 157 187 185
3 187 188 189
3 187 189 185
3 189 159 158
3 189 158 185
3 9 8 190
3 8 3 191
3 8 191 190
3 191 188 187
3 191 187 190
3 187 186 9
3 187 9 190
3 1 177 192
3 177 173 193
3 177 193 192
3 193 188 191
3 193 191 192
3 191 3 1
3 191 1 192
3 171 151 160
3 171 160 194
3 160 159 189
3 160 189 194
3 189 188 193
3 189 193 194
3 193 173 171
3 193 171 194
3 162 161 195
3 162 195 196
3 195 197 198
3 195 198 196
3 198 199 200
3 198 200 196
3 200 164 162
3 200 162 196
3 15 14 201
3 14 12 202
3 14 202 201
3 202 199 198
3 202 198 201
3 198 197 15
3 198 15 201
3 10 9 203
3 9 186 204
3 9 204 203
3 204 199 202
3 204 202 203
3 202 12 10
3 202 10 203
3 157 165 205
3 165 164 200
3 165 200 205
3 200 199 204
3 200 204 205
3 204 186 157
3 204 157 205
3 168 153 183
3 168 183 206
3 183 181 207
3 183 207 206
3 207 208 209
3 207 209 206
3 209 167 168
3 209 168 206
3 21 20 210
3 20 18 211
3 20 211 210
3 211 208 207
3 211 207 210
3 207 181 21
3 207 21 210
3 16 15 212
3 15 197 213
3 15 213 212
3 213 208 211
3 213 211 212
3 211 18 16
3 211 16 212
3 195 161 169
3 195 169 214
3 169 167 209
3 169 209 214
3 209 208 213
3 209 213 214
3 213 197 195
3 213 195 214
3 30 29 215
3 215 216 30
3 217 31 30
3 218 62 61
3 218 61 219
3 61 69 220
3 61 220 219
3 220 217 30
3 220 30 219
3 30 216 218
3 30 218 219
3 79 37 221
3 221 222 32
3 221 32 79
3 32 217 220
3 32 220 79
3 220 69 79
3 222 25 32
3 32 31 217
3 26 25 222
3 26 223 28
3 28 24 26
3 221 37 36
3 221 36 224
3 36 44 225
3 36 225 224
3 225 223 26
3 225 26 224
3 26 222 221
3 26 221 224
3 59 58 226
3 59 226 227
3 226 228 223
3 226 223 227
3 223 225 227
3 225 44 59
3 225 59 227
3 228 27 28
3 223 228 28
3 27 228 229
3 230 231 27
3 230 27 229
3 226 58 95
3 226 95 229
3 95 100 229
3 100 230 229
3 229 228 226
3 108 82 232
3 233 230 100
3 233 100 232
3 100 108 232
3 233 34 231
3 231 230 233
3 35 34 233
3 233 234 35
3 232 82 81
3 232 81 235
3 234 233 232
3 234 232 235
3 216 234 235
3 216 235 218
3 235 81 62
3 235 62 218
3 215 29 35
3 35 234 216
3 35 216 215
3 29 31 33
3 24 33 25
3 27 231 24
