0.215173
0.0760417
0.0765567
0.0916236
0
0.0624929
0.139093
0.0902344
0.173327
0.143058
0.112663
0.0919787
0.011491
0.13216
0.16856
0.085513
0.192627
0.145382
0.0925724
0.0784184
0.00373053
0.107795
0.140267
0.0769745
0.198059
0.15767
0.157887
0.0873484
0.0503641
0.10098
0.134613
0.070569
0.246127
0.215045
0.178376
0.230148
0.170448
0.19801
0.166156
0.24164
0.208948
0.242668
0.177267
0.235627
0.194788
0.246291
0.144747
0.238025
0.258556
0.216696
0.230182
0.207654
0.291273
0.179963
0.213035
0.245748
0.235525
0.201267
0.175128
0.159823
0.218305
0.245985
0.260209
0.203325
0.275271
0.193335
0.173649
0.194867
0.178888
0.217083
0.233372
0.176109
0.194953
0.0766806
0.200055
0.210576
0.30555
0.248646
0.190455
0.246377
0.24209
0.312305
0.189684
0.224259
0.237933
0.191287
0.162653
0.182044
0.211047
0.247768
0.155506
0.122698
0.223199
0.208919
0.202502
0.203921
0.134698
0.208274
0.144899
0.227447
0.230489
0.296116
0.189406
0.257761
0.263768
0.228027
0.240218
0.248537
0.184347
0.220928
0.115342
0.213574
0.148671
0.16168
0.176492
0.233951
0.193642
0.266824
0.15978
0.160352
0.102905
0.168778
0.257638
0.232803
0.264515
0.158359
0.242703
0.365069
0.219564
0.145471
0.17292
0.1296
0.18188
0.328902
0.202145
0.1146
0.115767
0.131204
0.146284
0.191647
0.301287
0.192005
0.164816
0.168336
0.0921453
0.131732
0.12726
0.223504
0.156048
0.11285
0.106866
0.388763
0.268216
0.172568
0.22418
0.17636
0.162434
0.143293
0.160326
0.301371
0.200259
0.10588
0.153661
0.146399
0.123488
0.287683
0.16765
0.0572761
0.126073
0.0407537
0.130949
0.201031
0.243884
0.758592
0.359302
0.111622
0.146721
0.205436
0.144291
0.159007
0.112417
0.0656864
0.144697
0.538571
0.174189
0.199775
0.172327
0.132902
0.128972
0.119289
0.187174
0.197903
0.515322
0.172122
0.127974
0.146384
0.161565
0.250842
0.702583
0.113487
0.145369
0.0685393
0.138128
0.293058
0.150695
0.197017
0.268612
0.0737516
0.154772
0.300739
0.346209
0.213613
0.290524
0.110014
0.152595
0.25273
0.188648
0.23611
0.252407
0.144169
0.191875
0.13734
0.180986
0.213332
0.356139
0.153006
0.175864
0.0899082
0.158118
0.220661
0.179966
0.23703
0.0918682
1
0.0981855
0.134781
0.546015
0.174843
0.737258
0.233163
0.125548
0.185826
0.300573
0.131676
0.444464
0.112604
0.0895772
0.249236
0.20995
0.186112
0.187116
0.23427
0.164352
0.125871
0.17874
0.11731
0.102239
0.068971
0.0822793
0.0551029
0.0956414
0.118924
0.102474
0.064683
0.0646217
0.0810945
0.0636197
0.0589032
0.0748068
0.0878403
0.0541372
0.0744807
0.0608641
0.0548162
0.086954
0.0812151
0.0942692
0.0767263
0.0687063
0.0859797
0.192589
0.114235
0.108905
0.0635144
0.0691316
0.0918201
0.0660043
0.253869
0.0496539
0.0380311
0.0628249
0.0381469
0.0621728
0.185897
0.0350118
0.0735065
0.0547298
0.064535
0.0686364
0.0544558
0.019871
0.0834023
0.0398506
0.063061
0.0609459
0.0793262
0.0330126
0.0537023
0.0214581
0.05225
0.0552873
0.135545
0.0866394
0.193199
0.0685799
0.0297591
0.0523913
0.0405368
0.0783205
0.0783845
0.100684
0.0851028
0.0213807
0.0610209
0.0867662
0.09669
0.100418
0.0660851
0.055253
0.0744167
0.0550802
0.0571687
0.0865879
0.0414184
0.0749347
0.0921037
0.0701729
0.0943671
0.0653125
0.0844189
0.079535
0.0739477
0.0596596
0.195494
0.0899229
0.118882
0.113728
0.0897626
0.0852069
0.0611417
0.0776323
0.079084
0.246876
0.0650313
0.0443691
0.0918404
0.0213716
0.0529956
0.227006
0.0620063
0.0549671
0.0443717
0.0286696
0.0295946
0.0821303
0.0186769
0.080636
0.0473883
0.0270603
0.0281265
0.0835688
0.030216
0.0655063
0.0451377
0.0275994
0.0749953
0.181228
0.0394213
0.448937
0.0788189
0.028284
0.0989352
0.0325107
0.108613
0.116833
0.157331
0.141034
0.141907
0.143946
0.0950982
0.120558
0.175324
0.112909
0.233385
0.182778
0.171571
0.198511
0.160735
0.200255
0.216933
0.230572
0.134385
0.162371
0.142637
0.172304
0.220529
0.206267
0.0708616
0.0996687
0.0905433
0.111419
0.143105
0.132595
0.148992
0.14323
0.122257
0.121375
0.152389
0.171844
0.144666
0.173869
0.0994818
0.115965
0.214488
0.158464
0.266237
0.150885
0.123907
0.177347
0.172914
0.145097
0.130647
0.225732
0.155514
0.196682
0.162809
0.188188
0.230085
0.156945
0.0846714
0.117338
0.067014
0.0899687
0.144551
0.14949
0.0801717
0.115946
0.0766953
0.0771566
0.134756
0.133069
0.148816
0.12906
0.0919348
0.10746
0.226782
0.236317
0.244473
0.2139
0.159914
0.185113
0.158394
0.180664
0.185408
0.196689
0.177019
0.195801
0.163375
0.193157
0.22666
0.213641
0.125391
0.112943
0.101867
0.122733
0.134584
0.134297
0.163331
0.142608
0.0939301
0.0896476
0.132581
0.105781
0.10461
0.104343
0.0329391
0.0834094
0.171463
0.155277
0.185778
0.192182
0.0668679
0.13887
0.16457
0.18129
0.214638
0.236306
0.130823
0.128402
0.126089
0.158086
0.102862
0.157981
0.0722499
0.0711872
0.038159
0.0729973
0.117154
0.0844486
0.1268
0.106832
0.193381
0.262019
0.243211
0.193515
0.264262
0.271784
0.249959
0.237663
0.174931
0.185533
0.16785
0.204091
0.258948
0.231746
0.24539
0.259951
0.194694
0.212417
0.265648
0.231982
0.260796
0.232291
0.181144
0.20831
0.250859
0.232095
0.246966
0.23937
0.260776
0.265413
0.214091
0.268092
0.215645
0.242597
0.258558
0.194807
0.279284
0.158442
0.252152
0.198629
0.216104
0.204012
0.180983
0.199643
0.193197
0.137921
0.270655
0.208999
0.215286
0.133209
0.22069
0.196544
0.251953
0.196399
0.167146
0.216533
0.184237
0.209297
0.160342
0.23538
0.159328
0.138682
0.239457
0.245581
0.254961
0.251753
0.209415
0.174907
0.261319
0.247078
0.269536
0.280328
0.18981
0.181068
0.172037
0.206401
0.254202
0.235235
0.218866
0.233993
0.176344
0.217739
0.255665
0.247214
0.264248
0.236853
0.15725
0.2146
0.169267
0.232727
0.244045
0.264229
0.263005
0.27335
0.21562
0.251186
0.268022
0.193918
0.257582
0.252502
0.243057
0.181066
0.199632
0.201308
0.210958
0.217489
0.194854
0.199745
0.252073
0.154986
0.272724
0.178541
0.215483
0.110118
0.237299
0.226322
0.0898821
0.149038
0.202133
0.126244
0.265584
0.251538
0.214677
0.203711
0.0600639
0.246655
0.244895
0.261445
0.2737
0.159645
0.194376
0.203018
0.198409
0.252855
0.193908
0.135924
0.158475
0.216972
0.172996
0.24629
0.234987
0.17452
0.271923
0.240599
0.1758
0.20457
0.270381
0.209376
0.231194
0.198057
0.153916
0.158475
0.230459
0.132412
0.197737
0.175821
0.164813
0.267079
0.225254
0.254492
0.226685
0.140019
0.173001
0.235716
0.221943
0.227431
0.232729
0.228495
0.173583
0.216961
0.172957
0.1974
0.216099
0.166551
0.225047
0.212913
0.225192
0.225365
0.218089
0.219728
0.218978
0.227962
0.197358
0.241768
0.211445
0.226595
0.264253
0.259269
0.245689
0.239237
0.105406
0.225092
0.186239
0.196273
0.198689
0.270932
0.180715
0.231939
0.182704
0.098254
0.158739
0.132048
0.177884
0.150464
0.182363
0.225164
0.205291
0.142242
0.200964
0.0711892
0.230701
0.146278
0.145895
0.0965124
0.193401
0.168825
0.220265
0.196584
0.145895
0.212585
0.136068
0.255684
0.255194
0.246129
0.211625
0.246259
0.23813
0.233301
0.237896
0.217481
0.245565
0.234868
0.211623
0.214157
0.226848
0.190101
0.239864
0.205057
0.22998
0.048721
0.142635
0.193109
0.174971
0.233587
0.236942
0.113711
0.198131
0.130583
0.184225
0.253221
0.250069
0.230115
0.243419
0.215368
0.220921
0.231028
