0.398465
0.434731
0.608637
0.592679
0.484706
0.539972
0.512247
0.519161
0.657257
0.171532
0.527167
0.565086
0.45153
0.569048
0.62895
0.278937
0.248006
0.344344
0.454399
0.342599
0.506107
0.425841
0.550637
0.405364
0.308208
0.317293
0.512957
0.439922
0.510386
0.510523
0.200599
0.321044
0.292755
0.34584
0.295861
0.14167
0.447841
0.36684
0.27448
0.421023
0.429502
0.459576
0.511714
0.489013
0.457202
0.539493
0.439832
0.50938
0.361557
0.375321
0.364401
0.445764
0.397714
0.16048
0.552739
0.532206
0.401785
0.363257
0.383899
0.407975
0.541225
0.502278
0.452764
0.448126
0.224879
0.439773
0.520455
0.397393
0.405198
0.403064
0.447909
0.501782
0.46072
0.455708
0.409155
0.494412
0.441514
0.446529
0.541271
0.470652
0.435806
0.443971
0.620094
0.320702
0.726165
0.638694
0.632771
0.746776
0.666169
0.715589
0.589379
0.551149
0.541199
0.478774
0.64841
0.610359
0.61116
0.708951
0.429449
0.603523
0.642242
0.616323
0.701083
0.635959
0.511735
0.608727
0.641766
0.686503
0.699543
0.750453
0.683679
0.731979
0.694513
0.671392
0.658072
0.423017
0.291744
0.657984
0.747502
0.681472
0.687987
0.592222
0.694583
0.427706
0.715297
0.59243
0.657386
0.731335
0.465348
0.400745
0.646613
0.644084
0.658253
0.309331
0.685336
0.659714
0.690318
0.676571
0.647649
0.450576
0.661492
0.69471
0.695292
0.635852
0.707926
0.637153
0.584869
0.660188
0.885514
0.646129
0.582303
0.397142
0.570679
0.662548
0.257268
0.672401
0.50912
0.694245
0.549509
0.568274
0.665626
0.738544
0.530758
0.61588
0.700469
0.660068
0.585629
0.641853
0.606401
0.710365
0.428052
0.533816
0.704956
0.638821
0.687408
0.663937
0.718071
0.636053
0.651826
0.384264
0.716483
0.619687
0.232399
0.628312
0.498153
0.519818
0.64354
0.621097
0.540313
0.613053
0.765902
0.685837
0.677031
0.427687
0.67003
0.48371
0.639522
0.589237
0.741167
0.74137
0.262552
0.298432
0.831416
0.710947
0.300372
0.576318
0.613428
0.749741
0.598485
0.485119
0.185963
0.589777
0.646849
0.60691
0.29874
0.548054
0.557442
0.542813
0.442645
0.614118
0.626363
0.678621
0.665321
0.589695
0.70854
0.592557
0.627601
0.73623
0.572905
0.629161
0.563102
0.624196
0.639551
0.668638
0.525314
0.541711
0.419217
0.391168
0.577235
0.483337
0.651396
0.400342
0.51107
0.526697
0.662564
0.654751
0.671015
0.591829
0.522064
0.600726
0.71746
0.737146
0.712985
0.667775
0.673654
0.612797
0.558324
0.684837
0.693943
0.689574
0.712343
0.622455
0.622602
0.638872
0.70753
0.644409
0.367127
0.576449
0.605423
0.577458
0.413775
0.648327
0.658324
0.590859
0.498386
0.564205
0.696863
0.577932
0.56235
0.597
0.216035
0.555341
0.619841
0.746116
0.665629
0.640019
0.607962
0.583646
0.595347
0.644307
0.676348
0.691619
0.477037
0.536051
0.568079
0.578952
0.29531
0.693415
0.583711
0.632961
0.457147
0.587759
0.620668
0.580572
0.635468
0.576332
0.542839
0.37901
0.565047
0.471972
0.665268
0.451898
0.585595
0.597483
0.630538
0.61654
0.703915
0.583485
0.670913
0.668991
0.509358
0.609328
0.720678
0.465755
0.821107
0.541705
0.416133
0.627385
0.687539
0.682127
0.500586
0.614441
0.458471
0.470776
0.620851
0.463872
0.467032
0.606973
0.345529
0.362428
0.426532
0.395714
0.458109
0.446834
0.433234
0.443596
0.485779
0.575755
0.651131
0.538864
0.526955
0.690449
0.704407
0.53475
0.474573
0.576421
0.509243
0.564859
0.561153
0.810425
0.514809
0.533096
0.628567
0.6301
0.688364
0.564176
0.593207
0.612751
0.537796
0.507918
0.48499
0.622122
0.610009
0.459917
0.575702
0.537739
0.624382
0.609343
0.464719
0.597312
0.778301
0.506872
0.804626
0.67169
0.582021
0.652576
0.658439
0.718176
0.667987
0.629711
0.530778
0.677145
0.590838
0.688123
0.509203
0.592728
0.500351
0.546656
0.747107
0.683924
0.68982
0.59168
0.441461
0.570661
0.729932
0.740275
0.587318
0.722023
0.499814
0.55111
0.399606
0.137468
0.31333
0.298319
0.359418
0.590772
0.252668
0.312269
0.469266
0.562417
0.486192
0.527826
0.509072
0.482874
0.36608
0.35329
0.292047
0.314528
0.221492
0.307055
0.51211
0.427963
0.501885
0.495675
0.169306
0.19878
0.350984
0.320805
0.503579
0.869549
0.295672
0.296331
0.709325
0.790248
0.566548
0.702878
0.691266
0.572706
0.65373
0.678644
0.629596
0.503901
0.522356
0.719241
0.646898
0.65643
0.716841
0.46405
0.550067
0.577312
0.505009
0.648018
0.681475
0.610752
0.632518
0.530164
0.710006
0.683661
0.674971
0.616546
0.65991
0.719069
0.732388
0.447933
0.54303
0.515902
0.639109
0.571523
0.582211
0.675268
0.544054
0.674327
0.567408
0.677204
0.641918
0.659469
0.700933
1
0.620289
0.607797
0.365372
0.638327
0.608334
0.61432
0.792005
0.523302
0.671295
0.713231
0.549785
0.64845
0.545093
0.48247
0.536843
0.596116
0.520164
0.625577
0.510075
0.464279
0.453694
0.490082
0.309767
0.238558
0.375919
0.601097
0.394461
0.439857
0.232726
0.542651
0.208253
0.464024
0.490277
0.361291
0.485179
0.412371
0.532143
0.305338
0.370392
0.407309
0.392501
0.484748
0.610823
0.513433
0.513308
0.408449
0.50041
0.463784
0.435952
0.479759
0.505223
0.41078
0.444902
0.439475
0.356228
0.316219
0.501239
0.463024
0.470661
0.469139
0.448054
0.448371
0.448189
0.468827
0.462044
0.458069
0.460488
0.467357
0.495964
0.509202
0.657629
0.573694
0.514741
0.519231
0.536806
0.524184
0.621673
0.587491
0.5856
0.461669
0.5407
0.521927
0.514155
0.539609
0.454229
0.355989
0.500015
0.479388
0.448776
0.460176
0.487915
0.511984
0.381886
0.349247
0.523139
0.580674
0.470153
0.453689
0.366796
0.31818
0.461033
0.566732
0.584439
0.40871
0.526398
0.58243
0.553848
0.560124
0.614579
0.63157
0.61396
0.439206
0.610332
0.578372
0.600357
0.415459
0.422123
0.287304
0.323032
0.257147
0.55039
0.586651
0.452041
0.413616
0.413211
0.432064
0.537814
0.44633
0.459883
0.477113
0.46052
0.517288
0.378584
0.373898
0.433185
0.516496
0.544789
0.426286
0.450699
0.481368
0.491672
0.486507
0.505024
0.580419
0.497995
0.496817
0.535344
0.513044
0.503468
0.613529
0.523501
0.503821
0.480686
0.521019
0.545073
0.466451
0.510966
0.398299
0.513022
0.474098
0.566701
0.445018
0.396951
0.394305
0.579293
0.499666
0.490509
0.415508
0.437711
0.568102
0.480657
0.541773
0.638806
0.147834
0.582688
0.594025
0.48469
0.415817
0.538862
0.309699
0.467509
0.271138
0.084534
0.459802
0.481265
0.577042
0.304511
0.50159
0.417281
0.32953
0.416984
0.565338
0.494743
0.443676
0.371536
0.530695
0.363344
0.591127
0.574857
0.496398
0.544139
0.580099
0.569476
0.450261
0.619449
0.584982
0.544048
0.614041
0.377027
0.45658
0.412581
0.427514
0.433325
0.303011
0.418958
0.343442
0.422666
0.309178
0.445026
0.582022
0.360476
0.351012
0.274835
0.340509
0.094646
0.304247
0.554612
0.125763
0.147989
0.59465
0.289276
0.625292
0.0412533
0.0396309
0.256326
0.176263
0.41655
0.349537
0.140819
0.0916992
0.25447
0.37412
0.17908
0.237394
0.373759
0.461078
0.30605
0.473749
0.063201
0.0942006
0.317954
0.316304
0.613183
0.4127
0.421604
0.262487
0.178915
0.345151
0.429801
0.381906
0.301925
0.305622
0.339079
0.289725
0.169308
0.336245
0.353061
0.310829
0.076224
0.154639
0.0514659
0.121364
0.292234
0.387812
0.136437
0.183684
0.366265
0.247094
0.361307
0.30259
0.104503
0.161076
0.238375
0.124159
0.622832
0.209585
0.0904776
0.143514
0.135965
0.127652
0.374436
0.219684
0.0860163
0
0.146468
0.0614675
0.302523
0.309824
0.0130461
0.0577236
0.158925
0.0866904
0.0388173
0.114913
0.419134
0.376606
0.189922
0.0748627
0.350039
0.275568
0.476312
0.342109
0.180272
0.160168
0.100721
0.183081
0.330392
0.303288
0.590509
0.443084
0.159735
0.143499
0.103223
0.120314
0.315079
0.24207
0.0669265
0.113591
0.0973787
0.144257
0.355645
0.347898
0.102521
0.064202
0.15724
0.125193
0.283487
0.0440927
0.0524225
0.0332639
0.127595
0.208508
0.197625
0.333047
0.230844
0.123055
0.120783
0.178426
0.331387
0.229933
0.157943
0.12733
0.0900118
0.0810639
0.424932
0.243166
0.233904
0.188251
0.140575
0.131469
0.0241153
0.0881955
0.346277
0.223842
0.162576
0.160627
0.204405
0.118602
0.0322085
0.069763
0.157087
0.161721
0.273326
0.242759
0.31498
0.136585
0.103142
0.288437
0.394887
0.154174
0.381275
0.624241
0.290986
0.402621
0.517327
0.527208
0.623026
0.528177
0.369617
0.369382
0.545587
0.578842
0.590203
0.540588
0.285473
0.378352
0.368018
0.0859412
0.350012
0.607946
0.549592
0.513664
0.50095
0.548418
0.605158
0.604656
0.478284
0.593336
0.48005
0.590171
0.247338
0.412333
0.412818
0.465452
0.494214
0.46671
0.508282
0.48879
0.508775
0.489569
0.0717796
0.256433
0.373095
0.246108
0.508287
0.262238
0.431442
0.243284
0.476357
0.472602
0.456886
0.529151
0.374315
0.424136
0.458188
0.466047
0.457082
0.514523
0.453733
0.526784
0.395694
0.472903
0.457094
0.514703
0.510006
0.464091
0.502896
0.475352
0.453909
0.473975
0.454808
0.489426
0.447248
0.45752
0.458349
0.446108
0.466727
0.442426
0.483236
0.513094
0.210786
0.323668
0.230464
0.413693
0.46493
0.400344
0.470752
0.43537
0.309313
0.307443
0.427372
0.457072
0.427129
0.449503
0.289885
0.326902
0.292816
0.29909
0.270629
0.295963
0.279316
0.507926
0.505439
0.532799
0.202145
0.219394
0.271352
0.410532
0.144574
0.167113
0.19092
0.270669
0.157009
0.355904
0.310646
0.184355
0.216803
0.179945
0.207428
0.230226
0.295762
0.181333
0.276602
0.243567
0.239477
0.154536
0.142587
0.142651
0.458173
0.438029
0.433464
0.446221
0.424053
0.449688
0.460324
0.439948
0.344087
0.299218
0.193586
0.303297
0.420432
0.394597
0.408734
0.394727
0.279383
0.372399
0.426173
0.33585
0.396341
0.491504
0.305432
0.316141
0.481765
0.45649
0.460328
0.453745
0.439888
0.454526
0.467308
0.453571
0.447666
0.471869
0.407285
0.468435
0.425169
0.467057
0.466696
0.467342
0.434679
0.422449
0.213128
0.44068
0.403113
0.416437
0.448926
0.454004
0.191601
0.452102
0.45255
0.510113
0.412626
0.37157
0.454998
0.410243
0.454101
0.494264
0.460539
0.436106
0.43663
0.41587
0.489142
0.491206
0.574704
0.531772
0.359982
0.513267
0.41906
0.375541
0.384157
0.363189
0.31251
0.549271
0.377499
0.314586
0.469968
0.287143
0.397239
0.367851
0.137291
0.180489
0.460185
0.183873
0.434986
0.423473
0.324724
0.382291
0.452351
0.315723
0.398825
0.422125
0.399447
0.421574
0.453918
0.315798
