0.558675
0.496517
0.482122
0.642523
0.578997
0.611702
0.746749
0.53441
0.563505
0.736508
0.5793
0.587698
0.608778
0.654973
0.547603
0.794986
0.37535
0.2834
0.489391
0.554699
0.65052
0.481966
0.670286
0.610728
0.572133
0.59545
0.468846
0.510811
0.641604
0.422332
0.61245
0.673289
0.745074
0.757913
0.81204
0.584381
0.759735
0.668086
0.748948
0.772649
0.641984
0.768167
0.780573
0.785571
0.763184
0.814513
0.788374
0.736741
0.735417
0.710948
0.76514
0.631236
0.772107
0.710858
0.774589
0.614128
0.522987
0.458432
0.379959
0.755191
0.762399
0.659679
0.729754
0.80975
0.407146
0.614496
0.65059
0.808968
0.757543
0.733345
0.539905
0.468028
0.662177
0.70832
0.684466
0.830386
0.866944
0.713338
0.848161
0.760881
0.324615
0.616689
0.801912
0.578846
0.874618
0.539178
0.478588
0.632778
0.313822
0.588391
0.754876
0.649232
0.609546
0.615083
0.780088
0.571568
0.338914
0.587292
0.7845
0.774275
0.738936
0.597798
0.799749
0.646261
0.325243
0.540284
0.444814
0.632057
0.68799
0.567155
0.872259
0.555234
0.612636
0.67288
0.688925
0.70116
0.860459
0.700608
0.585835
0.695526
0.696361
0.72169
0.617074
0.608854
0.779933
0.70704
0.644784
0.58787
0.778182
0.804182
0.78055
0.745597
0.790598
0.724171
0.851686
0.799102
0.842491
0.738759
0.774959
0.722288
0.774514
0.806446
0.782998
0.79208
0.720069
0.736031
0.791332
0.793877
0.810177
0.800957
0.756652
0.629188
0.802507
0.798451
0.803886
0.800634
0.774536
0.755788
0.705206
0.776293
0.581515
0.595835
0.769852
0.721692
0.739469
0.624245
0.501211
0.56896
0.742899
0.532963
0.519877
0.600358
0.501842
0.787759
0.767308
0.64653
0.655434
0.592614
0.788381
0.665356
0.50201
0.642021
0.575508
0.618819
0.599448
0.671517
0.532171
0.782151
0.578003
0.642118
0.804143
0.585456
0.758117
0.742441
0.814068
0.718184
0.763805
0.671919
0.773039
0.644637
0.735293
0.829672
0.797971
0.785917
0.733787
0.758261
0.734024
0.731224
0.74261
0.633165
0.782725
0.749919
0.78716
0.715511
0.766957
0.732209
0.774592
0.463705
0.528989
0.767648
0.763522
0.77204
0.764194
0.783058
0.801155
0.485624
0.565026
0.53441
0.399367
0.586064
0.572332
0.649244
0.660338
0.669537
0.605369
0.444402
0.607091
0.452008
0.471591
0.606472
0.577407
0.807248
0.628285
0.606173
0.647961
0.797748
0.695272
0.558162
0.679447
0.747896
0.569655
0.637797
0.563345
0.604994
0.498899
0.5848
0.222608
0.248267
0.590727
0.287043
0.280589
0.331052
0.232476
0.229213
0.724609
0.719391
0.771201
0.79313
0.315348
0.412573
0.790639
0.351712
0.777987
0.844952
0.278946
0.835088
0.632006
0.412317
0.752768
0.857548
0.234442
0.313228
0.21214
0.231827
0.759089
0.257839
0.265064
0.266698
0.817934
0.742822
0.804
0.65591
0.846856
0.589048
0.81124
0.832383
0.740062
0.749796
0.836215
0.839617
0.83758
0.723333
0.755905
0.763228
0.794661
0.768555
0.775977
0.763641
0.777322
0.769946
0.640937
0.650308
0.416854
0.568064
0.628702
0.598377
0.658062
0.830668
0.582178
0.723788
0.500131
0.2516
0.632502
0.788276
0.552911
0.488308
0.329237
0.45626
0.665062
0.709913
0.754999
0.732345
0.211653
0.50229
0.158849
0.784745
0.782135
0.66528
0.776211
0.706289
0.732291
0.777445
0.749604
0.756048
0.561187
0.66631
0.319729
0.397523
0.657879
0.742639
0.640205
0.715274
0.38834
0.812263
0.396978
0.275866
0.376604
0.743066
0.604192
0.362254
0.449602
0.784361
0.460012
0.51562
0.579123
0.654856
0.39668
0.633816
0.603656
0.676936
0.717724
0.616338
0.838362
0.605763
0.831644
0.462031
0.363364
0.737833
0.670467
0.306082
0.409829
0.751029
0.261964
0.128054
0.246916
0.224522
0.326741
0.253021
0.631594
0.848657
0.189975
0.189512
0.742058
0.857588
0.686503
0.700858
0.564174
0.763063
0.757615
0.821755
0.72156
0.866348
0.818301
0.793467
0.788574
0.764154
0.707055
0.845655
0.214983
0.213379
0.176946
0.200671
0.780727
0.821836
0.300483
0.250489
0.786964
0.827464
0.692181
0.412421
0.841721
0.826525
0.672415
0.573849
0.839819
0.731753
0.816382
0.844301
0.823998
0.712993
0.687554
0.770093
0.752451
0.580702
0.770444
0.598232
0.843947
0.598803
0.827083
0.632297
0.644182
0.599541
0.570667
0.533966
0.814593
0.821792
0.613482
0.638585
0.804447
0.835562
0.824068
0.6984
0.230897
0.831281
0.768373
0.793205
0.837841
0.835335
0.8394
0.817739
0.865444
0.8726
0.744925
0.719112
0.840063
0.838874
0.769892
0.730081
0.865771
0.86877
0.750308
0.830292
0.802231
0.848035
0.746321
0.737932
0.239836
0.784413
0.685138
0.696912
0.79459
0.610666
0.771846
0.643569
0.768461
0.719664
0.540753
0.534584
0.74739
0.749534
0.680871
0.65221
0.793294
0.766087
0.663003
0.567573
0.853092
0.848551
0.69829
0.749242
0.853163
0.711165
0.685712
0.843652
0.79084
0.800663
0.690544
0.774862
0.844518
0.760986
0.715712
0.830652
0.165151
0.29228
0.344219
0.260846
0.747537
0.545779
0.211361
0.203706
0.587243
0.574882
0.700863
0.619938
0.59865
0.473564
0.336178
0.341341
0.737577
0.749761
0.759413
0.748498
0.641859
0.367685
0.844527
0.684289
0.217485
0.27436
0.24583
0.227925
0.543593
0.265052
0.426767
0.28038
0.385772
0.38083
0.641333
0.771781
0.480056
0.442602
1
0.705616
0.84888
0.535599
0.821894
0.655022
0.818391
0.832468
0.719184
0.666615
0.779205
0.519606
0.392124
0.638248
0.636849
0.55296
0.396711
0.553449
0.540257
0.796418
0.88346
0.535323
0.754492
0.738937
0.519319
0.421354
0.765954
0.766482
0.52006
0.694026
0.798144
0.692406
0.512474
0.745477
0.724109
0.810901
0.742866
0.786651
0.321053
0.769761
0.742857
0.693563
0.663268
0.733983
0.224334
0.13737
0.301216
0.606993
0.839803
0.676643
0.320108
0.827235
0.637447
0.221907
0.651563
0.429706
0.84492
0.633029
0.532136
0.743623
0.482793
0.720575
0.846153
0.770741
0.611803
0.563033
0.745319
0.820697
0.58635
0.639447
0.638339
0.600293
0.698591
0.636064
0.741542
0.748654
0.747047
0.767712
0.8166
0.737704
0.727411
0.566118
0.821557
0.832039
0.810447
0.612908
0.840164
0.588865
0.285441
0.596266
0.210657
0.143947
0.176251
0.0890318
0.111409
0.107635
0.13486
0.156415
0.0915991
0.0994984
0.0986543
0.0887479
0.127515
0.0996306
0.109864
0.0907769
0.0663641
0.10398
0.12926
0.0787546
0.0880388
0.0853858
0.126592
0.144144
0.184244
0.161189
0.16127
0.144523
0.10903
0.106344
0.13544
0.110799
0.236525
0.189662
0.230329
0.205335
0.161109
0.170615
0.217291
0.255588
0.177572
0.216037
0.322363
0.286855
0.141831
0.189755
0.20341
0.279277
0.0993109
0.142221
0.120687
0.124672
0.148245
0.0729278
0.229794
0.223527
0.277133
0.135969
0.172469
0.179347
0.150676
0.16061
0.143499
0.133169
0.276861
0.204805
0.368227
0.172421
0.657711
0.186056
0.5961
0.542274
0.287707
0.0882593
0.133205
0.637359
0.202096
0.136873
0.176321
0.18667
0.144044
0.358176
0.224997
0.379709
0.567298
0.161556
0.664232
0.196383
0.47976
0.252033
0.707797
0.344279
0.457226
0.662872
0.205246
0.430232
0.198647
0.158357
0.143621
0.109588
0.130028
0.109954
0.10951
0.15593
0.0794267
0.107487
0.140464
0.124257
0.137493
0.104062
0.0772588
0.0892653
0.120531
0.116355
0.124129
0.0892957
0.132907
0.131366
0.146015
0.107597
0.181326
0.187117
0.144794
0.178098
0.112281
0.131594
0.0940143
0.145572
0.218011
0.175297
0.110488
0.116339
0.113387
0.175449
0.174277
0.161652
0.558361
0.138892
0.115746
0.107064
0.0932415
0.0840057
0.114516
0.0934813
0.0843619
0.0820003
0.0941615
0.102448
0.128442
0.122146
0.160503
0.115707
0.21438
0.168264
0.190347
0.164001
0.161652
0.157367
0.118259
0.142252
0.200044
0.178043
0.117311
0.102024
0.112799
0.108041
0.132133
0.132285
0.0797307
0.102075
0.0877717
0.113959
0.109766
0.0867646
0.127842
0.0822345
0.131308
0.0512218
0.127325
0.0535955
0.138438
0.0810318
0.116286
0.112571
0.181907
0.156011
0.149664
0.168341
0.12337
0.0908419
0.164327
0.0989504
0.398549
0.24589
0.168949
0.584039
0.457858
0.734654
0.818451
0.859014
0.144604
0.36392
0.671457
0.196792
0.601278
0.391682
0.660392
0.403948
0.288428
0.392465
0.23354
0.229002
0.589366
0.642678
0.739501
0.639509
0.276662
0.354688
0.554953
0.543114
0.164124
0.184848
0.368349
0.171637
0.175404
0.14362
0.12619
0.131873
0.123864
0.138624
0.183033
0.187118
0.129718
0.137865
0.280752
0.283798
0.117802
0.0971748
0.107201
0.0475869
0.30826
0.199265
0.170862
0.270386
0.162457
0.150442
0.266741
0.253783
0.288278
0.204696
0.204167
0.211841
0.17548
0.123339
0.174024
0.363879
0.270401
0.14427
0.0885432
0.251762
0.193369
0.164439
0.0898249
0.0875636
0.157287
0.176117
0.149467
0.071477
0.0958163
0.0944771
0.107004
0.255914
0.114247
0.12865
0.141482
0.132935
0.215124
0.137489
0.152718
0.100966
0.0854939
0.0989312
0.31818
0.14588
0.106179
0.219663
0.0992152
0.0577484
0.376449
0.367587
0.140451
0.309699
0.172738
0.288593
0.245359
0.358211
0.189324
0.204435
0.202198
0.202536
0.19044
0.253724
0.25553
0.298384
0.186495
0.160665
0.220299
0.163358
0.220541
0.179675
0.140404
0.101192
0.34342
0.386843
0.227355
0.0913053
0.107537
0.262898
0.112963
0.113307
0.203523
0.100316
0.149841
0.406996
0.177007
0.109638
0.620978
0.162147
0.156961
0.343712
0.317209
0.653842
0.358132
0.120722
0.325443
0.369864
0.248333
0.349074
0.432923
0.383063
0.539759
0.162708
0.339242
0.176594
0.427906
0.485502
0.56081
0.607691
0.143216
0.413779
0.417344
0.419321
0.332146
0.116814
0.232696
0.189036
0.194809
0.179628
0.156794
0.137341
0.115772
0.120397
0.132375
0.176031
0.149311
0.182044
0.176262
0.12182
0.0922
0.212546
0.169228
0.164469
0.158465
0.194577
0.135214
0.170489
0.0981401
0.157074
0.153228
0.146436
0.196697
0.234915
0.239645
0.227154
0.129565
0.444279
0.292648
0.182711
0.281397
0.229488
0.130706
0.309272
0.242987
0.219144
0.148238
0.15945
0.316783
0.262772
0.242836
0.270548
0.136566
0.114753
0.20818
0.0969681
0.152628
0.245944
0.148314
0.166458
0.0744662
0.346284
0.125531
0.111475
0.201704
0.274043
0.293173
0.292129
0.153734
0.104401
0.101165
0.0773483
0.122201
0.226349
0.16703
0.159208
0.118028
0.129234
0.14361
0.109231
0.135256
0.180038
0.137321
0.128768
0.180023
0.123335
0.14523
0.0886969
0.0993853
0.121375
0.211126
0.27644
0.150046
0.141961
0.116645
0.0959102
0.224733
0.192949
0.0674036
0.224856
0.371929
0.491032
0.340524
0.408117
0.475047
0.454284
0.531254
0.361354
0.337685
0.428249
0.668276
0.385712
0.544764
0.395003
0.431809
0.427876
0.206796
0.557903
0.325835
0.370125
0.289967
0.422807
0.317813
0.389938
0.213644
0.375535
0.662424
0.621402
0.437845
0.109741
0.17357
0.407238
0.108493
0.348436
0.0966011
0.118839
0.140937
0.182923
0.1024
0.0850912
0.111987
0.15684
0.148545
0.151669
0.328235
0.179604
0.131238
0.259999
0.191809
0.247584
0.212099
0.311314
0.195226
0.242834
0.184561
0.149571
0.299454
0.398173
0.267564
0.286235
0.250224
0.341579
0.125254
0.272042
0.285549
0.301791
0.288635
0.732461
0.68809
0.289175
0.268625
0.289084
0.761493
0.641793
0.671025
0.701363
0.733304
0.818841
0.786669
0.635497
0.210734
0.453501
0.572045
0.352354
0.8261
0.597646
0.344315
0.730999
0.239773
0.253784
0.281143
0.2731
0.522917
0.706796
0.416031
0.296899
0.564786
0.395206
0.869274
0.631043
0.548802
0.602669
0.413614
0.311676
0.641221
0.759417
0.585194
0.627837
0.652094
0.666477
0.614221
0.521259
0.756629
0.516568
0.630813
0.635084
0.381202
0.612466
0.77448
0.554738
0.298356
0.262502
0.228597
0.340799
0.980289
0.506304
0.632264
0.352925
0.436291
0.728565
0.488516
0.666334
0.682449
0.761462
0.695095
0.534196
0.563872
0.700753
0.717875
0.54757
0.564139
0.581865
0.590908
0.732388
0.763664
0.542288
0.666624
0.55209
0.609317
0.576666
0.577859
0.542674
0.394816
0.626543
0.560979
0.6862
0.748159
0.652358
0.530092
0.570621
0.439351
0.230892
0.522128
0.734926
0.708774
0.802323
0.238938
0.230337
0.661047
0.72172
0.850389
0.828037
0.805675
0.789801
0.659163
0.812269
0.664598
0.651881
0.824686
0.813609
0.80913
0.646289
0.692606
0.670663
0.289892
0.244195
0.222369
0.221092
0.323601
0.262135
0.696935
0.71908
0.317058
0.273773
0.656164
0.768163
0.348323
0.807631
0.296763
0.269657
0.697839
0.745562
0.815272
0.773532
0.799938
0.598814
0.524525
0.455738
0.441913
0.682755
0.482455
0.457763
0.52421
0.552684
0.835953
0.746761
0.317459
0.237302
0.282944
0.276014
0.349376
0.813841
0.632651
0.75694
0.245865
0.249719
0.416148
0.292302
0.719876
0.261842
0.247781
0.273333
0.233774
0.659132
0.588867
0.601339
0.821991
0.807081
0.553332
0.350647
0.786329
0.517277
0.771211
0.646221
0.705868
0.767409
0.742236
0.739918
0.266995
0.274887
0.269114
0.298403
0.672697
0.316391
0.672407
0.702749
0.502508
0.623132
0.52675
0.570637
0.672164
0.639773
0.565231
0.842293
0.472454
0.73109
0.564128
0.852059
0.569958
0.570923
0.668094
0.538032
0.557077
0.727686
0.687087
0.815572
0.672535
0.602666
0.74557
0.660063
0.643297
0.710807
0.638506
0.746821
0.800337
0.761298
0.489027
0.658137
0.249811
0.26456
0.333872
0.36565
0.453272
0.395485
0.358754
0.323907
0.656079
0.67963
0.226663
0.588809
0.56245
0.716906
0.486057
0.596458
0.340162
0.558579
0.474509
0.577416
0.636222
0.644373
0.612537
0.220764
0.34968
0.564364
0.333374
0.334019
0.544465
0.476004
0.527374
0.595675
0.854576
0.876204
0.283438
0.590632
0.269967
0.40421
0.168678
0.83043
0.721104
0.814072
0.420932
0.651505
0.627425
0.827234
0.827959
0.837434
0.655389
0.799151
0.848032
0.675632
0.356483
0.668349
0.677402
0.816328
0.71554
0.293189
0.740231
0.180806
0.225758
0.2175
0.698083
0.212076
0.27754
0.798201
0.661192
0.466177
0.550311
0.600073
0.622321
0.512823
0.764234
0.651299
0.648838
0.584506
0.591901
0.561911
0.707291
0.668978
0.69896
0.697061
0.661404
0.673333
0.654445
0.648316
0.631549
0.74179
0.816124
0.719786
0.844934
0.851195
0.627705
0.644126
0.699655
0.706858
0.209675
0.232622
0.285245
0.261848
0.195371
0.218639
0.17656
0.196824
0.5475
0.300913
0.299438
0.275382
0.260557
0.222025
0.297639
0.282195
0.363658
0.570827
0.592231
0.598532
0.222535
0.236902
0.278361
0.246964
0.188692
0.452976
0.177724
0.167874
0.197335
0.193583
0.274743
0.218873
0.258357
0.698971
0.67543
0.843368
0.191434
0.706641
0.280511
0.733321
0.830059
0.838111
0.579139
0.547071
0.541847
0.542431
0.802096
0.658871
0.324604
0.552618
0.316702
0.657373
0.604121
0.497631
0.501158
0.500561
0.257006
0.420731
0.617658
0.44888
0.637668
0.443181
0.30132
0.394866
0.296761
0.711999
0.696496
0.839584
0.63929
0.616469
0.845001
0.659826
0.842575
0.801335
0.64241
0.639065
0.632241
0.643855
0.707179
0.829212
0.769747
0.618412
0.702666
0.653389
0.611293
0.570504
0.558655
0.58065
0.271243
0.454688
0.649225
0.626317
0.585461
0.557773
0.599145
0.700407
0.74903
0.247203
0.72461
0.218638
0.777776
0.755187
0.54226
0.205474
0.670463
0.825018
0.273667
0.67214
0.419142
0.271024
0.830683
0.805251
0.734609
0.823988
0.830349
0.836396
0.654614
0.829173
0.812806
0.818463
0.476219
0.703701
0.192831
0.824481
0.267146
0.27797
0.787888
0.287207
0.268708
0.482224
0.351081
0.722862
0.624859
0.447589
0.577498
0.454965
0.395472
0.662228
0.531881
0.46351
0.601419
0.439657
0.598085
0.61013
0.255108
0.828894
0.647971
0.616887
0.621072
0.511668
0.558628
0.564714
0.70985
0.698989
0.280506
0.74483
0.537887
0.708404
0.674927
0.843972
0.180052
0.183002
0.256936
0.217996
0.194112
0.187311
0.184954
0.170527
0.364935
0.567254
0.303165
0.256469
0.2165
0.233742
0.559962
0.596831
0.323631
0.294675
0.295388
0.271954
0.212477
0.235916
0.298723
0.270464
0.210132
0.24451
0.153368
0.207681
0.198266
0.246129
0.284298
0.258521
0.654039
0.74163
0.750008
0.846774
0.906373
0.781496
0.87896
0.674047
0.750483
0.343718
0.385211
0.472254
0.881468
0.724913
0.543878
0.863565
0.822064
0.739612
0.795234
0.838487
0.759331
0.732823
0.799721
0.614099
0.883945
0.865119
0.841954
0.70305
0.714685
0.869819
0.700428
0.672102
0.652688
0.5907
0.736034
0.72622
0.367089
0.779349
0.459676
0.860681
0.687953
0.672069
0.683087
0.513142
0.64213
0.899594
0.902205
0.686352
0.675781
0.683824
0.663917
0.757282
0.733762
0.692972
0.739619
0.70025
0.685896
0.739816
0.713138
0.359097
0.654117
0.852185
0.723841
0.838503
0.740583
0.850423
0.611049
0.659158
0.836434
0.822355
0.748382
0.723722
0.844297
0.70748
0.722613
0.836158
0.77559
0.658756
0.585441
0.498993
0.585597
0.750852
0.604453
0.736934
0.245701
0.586226
0.548034
0.644633
0.57834
0.795355
0.34714
0.740811
0.481747
0.827265
0.820811
0.326361
0.404393
0.695404
0.197204
0.332193
0.679715
0.833089
0.260555
0.839892
0.281412
0.82465
0.828467
0.785626
0.842994
0.843823
0.832225
0.814899
0.281411
0.313486
0.597228
0.625702
0.840644
0.841204
0.154869
0.419529
0.388916
0.465505
0.605746
0.821245
0.657945
0.586223
0.556954
0.347128
0.572969
0.530858
0.593639
0.601667
0.784608
0.756549
0.589277
0.755337
0.658903
0.750861
0.724255
0.637755
0.835624
0.819581
0.837711
0.827689
0.652426
0.849407
0.840657
0.724626
0.81607
0.836789
0.845595
0.659216
0.650158
0.848871
0.723466
0.716715
0.217982
0.759932
0.871819
0.20154
0.194111
0.208134
0.184686
0.189272
0.821305
0.268864
0.660761
0.659344
0.213551
0.663196
0.731702
0.253794
0.76841
0.274118
0.730552
0.71798
0.21066
0.206901
0.241171
0.358888
0.188854
0.177461
0.187593
0.191426
0.193474
0.198862
0.706805
0.207256
0.76459
0.835041
0.816232
0.761947
0.755058
0.706517
0.770755
0.797846
0.810942
0.810454
0.75802
0.41512
0.446907
0.818986
0.216838
0.418787
0.798776
0.274868
0.251293
0.853537
0.580635
0.887722
0.708047
0.902913
0.244046
0.781575
0.510852
0.328127
0.166616
0.0921194
0.0877588
0.139624
0.15326
0.072777
0.285438
0.247638
0.335686
0.783784
0.318621
0.241648
0.408676
0.31739
0.275158
0.331279
0.403902
0.425224
0.561904
0.664862
0.652669
0.47252
0.375034
0.387446
0.636157
0.443323
0.47237
0.467193
0.35825
0.391251
0.349135
0.59288
0.220911
0.164238
0.61492
0.621624
0.562724
0.595821
0.563214
0.109898
0.588671
0.642968
0.620746
0.473636
0.224025
0.646748
0.251834
0.204296
0.241224
0.299001
0.133548
0.143105
0.140247
0.221286
0.208236
0.197703
0.10569
0.100959
0.132218
0.176488
0.300234
0.18001
0.0715614
0.154584
0.104145
0.113572
0.105659
0.12742
0.105971
0.0782431
0.188843
0.152325
0.165023
0.127255
0.0885959
0.124473
0.133751
0.121016
0.175315
0.127356
0.138528
0.175357
0.151596
0.184022
0.0535775
0.27276
0.160885
0.0998397
0.122616
0.122762
0.114861
0.145086
0.227133
0.153174
0.174419
0.109818
0.160996
0.168953
0.182069
0.232938
0.105885
0.128786
0.174438
0.290749
0.293869
0.317652
0.168643
0.252762
0.199398
0.17122
0.337254
0.312276
0.355304
0.35795
0.443054
0.430459
0.531638
0.631123
0.233752
0.249942
0.646138
0.276927
0.363276
0.403143
0.321701
0.301517
0.138035
0.124798
0.743304
0.523048
0.62662
0.630985
0.573219
0.553354
0.36772
0.231187
0.555252
0.536465
0.255196
0.751611
0.275196
0.310213
0.0444738
0.617636
0.0370156
0.0740446
0.222615
0.0350738
0.18849
0.0285753
0.518723
0.465539
0.289452
0.178691
0.138663
0.149252
0.568216
0.409977
0.189943
0.185413
0.13328
0.209362
0.328258
0.578018
0.2146
0.654374
0.0481539
0.0222716
0.0344073
0.0321684
0.0849593
0.0648088
0.102003
0.0700101
0.763962
0.192634
0.492667
0.627557
0.580042
0.105228
0.607922
0.602061
0.431999
0.70133
0.0996374
0.000620332
0.582848
0.0562398
0.447491
0.612258
0.0692314
0.000741538
0.449447
0.066642
0.567953
0.0740446
0.0303806
0.643515
0.296194
0.165451
0.614593
0.801224
0.0810144
0.117412
0.0840742
0.108374
0.487017
0.78828
0.425055
0.662663
0.140779
0.147135
0.336313
0.457634
0.421429
0.316459
0.100191
0.583788
0.758299
0.670169
0.786032
0.439899
0.0921883
0.0450935
0.0840015
0.0692906
0.0600656
0.0618581
0
0.0309503
0.201031
0.185701
0.249245
0.208853
0.174272
0.481667
0.121372
0.151646
0.33732
0.407874
0.437572
0.525697
0.508738
0.452935
0.354405
0.357413
0.253082
0.2317
0.301553
0.388492
0.751062
0.270038
0.74428
0.75504
0.135274
0.231541
0.576971
0.560215
0.50661
0.529398
0.535303
0.529407
0.244093
0.246365
0.684535
0.586229
0.376268
0.427923
0.636647
0.276588
0.175379
0.127413
0.227721
0.172906
0.151081
0.217965
0.190803
0.191088
0.299158
0.290927
0.185685
0.170496
0.14957
0.246688
0.29432
0.295229
0.160967
0.115675
0.122784
0.129596
0.183776
0.236775
0.192453
0.150421
0.170978
0.105285
0.120623
0.128983
0.160576
0.111189
0.102168
0.166281
0.27033
0.222703
0.165606
0.181799
0.113154
0.11851
0.214985
0.299116
0.18756
0.166975
0.133407
0.156115
0.133073
0.120739
0.185371
0.190446
0.0670358
0.124088
0.10502
0.0659965
0.104795
0.0760075
0.131491
0.112773
0.191983
0.199502
0.291543
0.218009
0.131381
0.165075
0.1063
0.104942
0.297307
0.122277
0.237203
0.175059
0.761458
0.648771
0.589457
0.48574
0.651475
0.605917
0.550708
0.575708
0.635826
0.619703
0.180787
0.66834
0.377207
0.387173
0.322452
0.568924
0.473417
0.46853
0.599685
0.443751
0.278396
0.39997
0.653505
0.610955
0.626404
0.650314
0.410558
0.426616
0.801627
0.507773
0.807189
0.422749
0.205313
0.410759
0.800594
0.748888
0.30289
0.507687
0.123228
0.797369
0.210647
0.257369
0.315551
0.787651
0.860872
0.344599
0.588706
0.096777
0.146642
0.137791
0.313828
0.0917862
0.828271
0.84867
0.205602
0.740887
0.130774
0.769533
0.136877
0.883558
0.799329
0.28247
0.803367
0.509012
0.126003
0.76523
0.746819
0.720459
0.801305
0.77002
0.749592
0.771333
0.102938
0.776299
0.599637
0.787769
0.793191
0.870468
0.514383
0.866713
0.0545456
0.794845
0.758849
0.8264
0.503775
0.87988
0.803848
0.817727
0.749829
0.810611
0.919196
0.873082
0.453699
0.467278
0.487399
0.421351
0.738283
0.631375
0.373599
0.469666
0.515647
0.357462
0.404675
0.74321
0.749756
0.540752
0.533818
0.51311
0.213097
0.508543
0.521834
0.411796
0.371052
0.357602
0.634739
0.577209
0.615471
0.595223
0.426354
0.614093
0.681598
0.593199
0.697131
0.574382
0.355113
0.184429
0.197743
0.492939
0.116058
0.171601
0.185164
0.218973
0.209097
0.190202
0.0785036
0.110311
0.135916
0.148097
0.375306
0.196888
0.0956765
0.090883
0.135316
0.0935238
0.104761
0.110432
0.0833546
0.0932681
0.163087
0.0577074
0.0709619
0.0777581
0.091789
0.0792717
0.155788
0.142684
0.190732
0.695984
0.182233
0.209966
0.260588
0.237765
0.778712
0.740968
0.130547
0.116888
0.208549
0.158142
0.221415
0.185934
0.152769
0.152038
0.384615
0.298365
0.49526
0.34711
0.233548
0.690579
0.173902
0.695741
0.762036
0.308659
0.405657
0.710378
0.261511
0.421399
0.61982
0.27646
0.660208
0.669066
0.646396
0.625377
0.616629
0.249914
0.683162
0.67153
0.72526
0.705124
0.116792
0.415718
0.585379
0.162309
0.754089
0.498681
0.371241
0.674533
0.534381
0.654149
0.569589
0.144037
0.116402
0.415719
0.671995
0.676439
0.681227
0.292726
0.606547
0.264331
0.597706
0.631776
0.758733
0.626869
0.593008
0.643349
0.377038
0.666594
0.671635
0.295925
0.428168
0.405725
0.274335
0.280452
0.357534
0.410529
0.764654
0.464361
0.164166
0.118812
0.156923
0.159937
0.224636
0.198679
0.19209
0.161003
0.195836
0.764278
0.671567
0.274582
0.243483
0.249013
0.186106
0.242921
0.273509
0.210493
0.202593
0.215077
0.117531
0.451155
0.197779
0.394925
0.128881
0.0614805
0.15891
0.146283
0.0796595
0.0823736
0.10179
0.103374
0.0991115
0.0921143
0.0879828
0.0954662
0.076864
0.112252
0.138003
0.0971277
0.157501
0.150927
0.239355
0.168454
0.104646
0.150869
0.0800157
0.111414
0.633831
0.70341
0.502165
0.550906
0.396716
0.497042
0.388674
0.727639
0.177449
0.502539
0.614362
0.575167
0.369682
0.35577
0.412095
0.411572
0.667209
0.270225
0.513861
0.303842
0.657212
0.537863
0.402505
0.72832
0.781809
0.411785
0.533408
0.551217
0.660526
0.605351
0.390766
0.4127
0.731394
0.680291
0.315284
0.671018
0.521121
0.20662
0.248977
0.575006
0.651142
0.166553
0.1264
0.164554
0.627011
0.19612
0.211057
0.18105
0.18855
0.230766
0.537618
0.17671
0.600114
0.578449
0.110745
0.184048
0.670603
0.274914
0.244757
0.652843
0.197096
0.673572
0.256187
0.232139
0.715929
0.828386
0.642897
0.746419
0.598256
0.626875
0.765787
0.708281
0.254806
0.414073
0.48705
0.440376
0.547867
0.533811
0.471522
0.645896
0.259453
0.414009
0.767609
0.725356
0.59791
0.606096
0.489711
0.436434
0.713214
0.683548
0.78373
0.684717
0.20511
0.238842
0.700983
0.769376
0.291999
0.271393
0.256423
0.226058
0.17414
0.680938
0.238581
0.697456
0.377053
0.128378
0.250453
0.46401
0.145942
0.594222
0.536703
0.170968
0.113306
0.204229
0.230601
0.213513
0.283191
0.241397
0.106706
0.164291
0.171968
0.223528
0.356194
0.599886
0.260597
0.283339
0.15843
0.623973
0.122997
0.125331
0.146857
0.157709
0.218747
0.220304
0.179445
0.133524
0.236791
0.190148
0.240657
0.491345
0.193926
0.212652
0.209174
0.340666
0.366182
0.2953
0.313454
0.242733
0.201494
0.27387
0.282179
0.252567
0.213643
0.337294
0.282402
0.278295
0.217474
0.279484
0.316007
0.324108
0.278576
0.336512
0.3742
0.383401
0.373396
0.61085
0.330215
0.386172
0.595046
0.582023
0.299535
0.378423
0.396391
0.432533
0.324687
0.356991
0.403195
0.420902
0.573313
0.227221
0.704523
0.270788
0.539349
0.32009
0.212647
0.375254
0.294118
0.176278
0.230789
0.206202
0.545234
0.397
0.315011
0.290248
0.224635
0.211178
0.267233
0.329736
0.185994
0.239055
0.351897
0.294334
0.381144
0.400798
0.358491
0.351915
0.305156
0.25848
0.296738
0.241987
0.221096
0.227889
0.224605
0.252995
0.24353
0.317746
0.155874
0.223975
0.210659
0.210964
0.265115
0.248215
0.188426
0.190346
0.177078
0.182884
0.196994
0.194672
0.185651
0.179662
0.214213
0.253019
0.245636
0.218875
0.272256
0.264528
0.220528
0.201792
0.22656
0.211961
0.252627
0.208448
0.321766
0.551959
0.220254
0.218979
0.249407
0.244881
0.104692
0.233518
0.14704
0.179753
0.171024
0.212788
0.213035
0.225987
0.143164
0.188479
0.207173
0.213488
0.212513
0.178142
0.247449
0.191902
0.269547
0.257217
0.256057
0.287433
0.224212
0.206506
0.226305
0.196638
0.256789
0.284707
0.299694
0.665567
0.197918
0.239882
0.250272
0.24349
0.201669
0.169708
0.171082
0.195236
0.19325
0.204842
0.205423
0.200949
0.25318
0.240494
0.143725
0.208433
0.19019
0.193757
0.239563
0.190979
0.290911
0.569939
0.242678
0.265004
0.237792
0.202567
0.177685
0.604796
0.256261
0.220931
0.23621
0.211563
0.203223
0.206091
0.273247
0.230102
0.187172
0.182647
0.196623
0.20205
0.176316
0.218417
0.213111
0.196526
0.314683
0.280044
0.192606
0.216352
0.253062
0.255968
0.208262
0.396813
0.177595
0.176191
0.18793
0.201414
0.207856
0.218115
0.213527
0.210495
0.241682
0.239861
0.492789
0.411111
0.213359
0.279093
0.212965
0.214302
0.351875
0.294536
0.305134
0.258385
0.328309
0.393641
0.399553
0.414836
0.188564
0.375127
0.544074
0.191733
0.230607
0.206086
0.416823
0.176176
0.403016
0.285537
0.5381
0.319838
0.705268
0.657835
0.571534
0.227221
0.58336
0.594628
0.549205
0.720468
0.434336
0.452818
0.467937
0.412867
0.342972
0.22558
0.425118
0.398506
0.28631
0.434532
0.448739
0.380662
0.24158
0.270805
0.349348
0.252131
0.223444
0.249324
0.22532
0.181952
0.376537
0.282313
0.266511
0.235929
0.262622
0.329216
0.507129
0.302559
0.240871
0.181095
0.284099
0.192002
0.200237
0.170574
0.255851
0.465147
0.176715
0.137068
0.13643
0.126332
0.191612
0.220143
0.147939
0.151646
0.181534
0.139983
0.211086
0.205848
0.172809
0.202694
0.137464
0.140369
0.21241
0.275788
0.270045
0.755594
0.217197
0.227977
0.20233
0.352505
0.258411
0.211939
0.223922
0.224263
0.219251
0.302725
0.271823
0.277755
0.144681
0.128991
0.17175
0.17935
0.303838
0.274124
0.185394
0.14545
0.476329
0.516219
0.527525
0.376783
0.58724
0.532855
0.287365
0.683482
0.309073
0.624527
0.475935
0.514671
0.485404
0.494811
0.366824
0.30474
0.526634
0.418471
0.573945
0.658277
0.528825
0.609497
0.419284
0.401288
0.713061
0.504692
0.633984
0.49663
0.604171
0.649883
0.704234
0.669445
0.16238
0.112099
0.306948
0.120971
0.0733005
0.102514
0.0717827
0.0901173
0.204708
0.153809
0.10859
0.103619
0.0704062
0.104144
0.103668
0.134765
0.061083
0.0492628
0.0920151
0.0716188
0.0530754
0.056747
0.08423
0.0591716
0.0800155
0.0568139
0.0704606
0.0602855
0.0706101
0.0689416
0.0579322
0.0485834
0.130903
0.139477
0.0966108
0.115528
0.0858188
0.108241
0.119065
0.151787
0.0327258
0.0297524
0.0709147
0.0676165
0.300884
0.09831
0.106539
0.11548
0.414239
0.194964
0.55694
0.526581
0.792659
0.536656
0.761887
0.798368
0.450939
0.697158
0.727899
0.708035
0.813747
0.794165
0.747429
0.748524
0.463154
0.737641
0.74509
0.718547
0.0594499
0.625297
0.117058
0.649639
0.717639
0.712299
0.0104766
0.805758
0.820371
0.812458
0.79675
0.796814
0.685635
0.811326
0.790143
0.792771
0.807104
0.580209
0.827291
0.0193905
0.778424
0.722774
0.127445
0.672406
0.117284
0.0713362
0.682777
0.770417
0.411327
0.346554
0.52719
0.331733
0.79707
0.117048
0.154738
0.132741
0.0103294
0.399768
0.811804
0.0570069
0.58474
0.211042
0.0247746
0.548307
0.0330027
0.0182484
0.0504741
0.0548937
0.134725
0.611014
0.0410279
0.0704451
0.132021
0.142903
0.124147
0.155433
0.0903045
0.0975703
0.100184
0.118423
0.161874
0.166167
0.0721655
0.0906554
0.0711662
0.0857023
0.0643306
0.0854966
0.0836716
0.083168
0.060841
0.0508264
0.0308265
0.0679235
0.0750664
0.0635991
0.0642441
0.0423173
0.0846015
0.0598197
0.0539762
0.0579878
0.0791799
0.07489
0.156309
0.156168
0.105523
0.121211
0.0732904
0.106784
0.110468
0.1011
0.248144
0.475426
0.571883
0.320672
0.725844
0.543458
0.632843
0.490998
0.701146
0.41535
0.418105
0.39906
0.371873
0.618881
0.505872
0.661855
0.362218
0.587466
0.29214
0.459691
0.491095
0.49627
0.510982
0.470037
0.469467
0.288712
0.367677
0.674277
0.576123
0.508009
0.470279
0.260365
0.138871
0.101596
0.546882
0.088693
0.0598708
0.0740695
0.0983495
0.606878
0.169626
0.176046
0.645117
0.592015
0.528338
0.503308
0.546608
0.159427
0.330071
0.494718
0.201738
0.49887
0.454606
0.0884441
0.491813
0.29783
0.232376
0.195517
0.301008
0.225042
0.550134
0.0520395
0.0891852
0.120708
0.773694
0.630038
0.690627
0.424982
0.717742
0.0291089
0.536299
0.0603159
0.630215
0.621294
0.560966
0.545678
0.604911
0.696861
0.616154
0.792658
0.649963
0.637343
0.379333
0.780831
0.62523
0.114128
0.591485
0.599383
0.117363
0.631549
0.602129
0.590402
0.0277801
0.445203
0.429989
0.442383
0.350691
0.208164
0.677183
0.50502
0.547933
0.554915
0.296981
0.29869
0.257469
0.471663
0.245058
0.476394
0.418485
0.460526
0.134881
0.482593
0.180846
0.181995
0.105764
0.14014
0.566113
0.584952
0.620785
0.607278
0.184621
0.0712564
0.107005
0.109655
0.0614866
0.0686712
0.51835
0.175399
0.802502
0.758904
0.785426
0.739758
0.805066
0.640593
0.648719
0.760086
0.747083
0.759855
0.769316
0.653664
0.526337
0.727355
0.726682
0.693332
0.844659
0.77507
0.624735
0.736789
0.706523
0.798809
0.812034
0.771186
0.831382
0.720238
0.701985
0.718114
0.795431
0.754392
0.797504
0.779395
0.651149
0.695712
0.855206
0.878063
0.776687
0.704231
0.580916
0.85048
0.613636
0.817512
0.770976
0.657896
0.824605
0.814995
0.617117
0.63278
0.670067
0.440647
0.708314
0.720321
0.641501
0.674833
0.415269
0.770324
0.649304
0.638968
0.590294
0.829769
0.558836
0.60174
0.737204
0.746671
0.731225
0.616583
0.554205
0.603659
0.704124
0.643912
0.43498
0.646058
0.521726
0.636572
0.49501
0.430499
0.570682
0.436289
0.595535
0.55935
0.398247
0.357384
0.48051
0.442818
0.700473
0.294719
0.844408
0.401968
0.83414
0.575618
0.625095
0.492907
0.502408
0.512356
0.372055
0.634003
0.501276
0.700205
0.356966
0.574366
0.585512
0.388166
0.560397
0.499716
0.340415
0.489785
0.558096
0.469057
0.577636
0.361676
0.345015
0.460304
0.554021
0.549159
0.320707
0.34065
0.325406
0.413541
0.460819
0.5551
0.582534
0.473548
0.676078
0.657124
0.400188
0.471536
0.405684
0.519364
0.514579
0.39123
0.495427
0.329666
0.360464
0.441485
0.494336
0.46442
0.475396
0.337906
0.642586
0.657575
0.48395
0.447459
0.489551
0.6398
0.578935
0.430251
0.518853
0.454519
0.490299
0.574902
0.594616
0.498155
0.355935
0.668613
0.850496
0.577598
0.749993
0.678868
0.640402
0.663306
0.659194
0.660072
0.559323
0.79118
0.567092
0.606799
0.75121
0.609025
0.558954
0.785741
0.835028
0.719615
0.830207
0.724933
0.536278
0.569109
0.67523
0.660623
0.838206
0.756517
0.836186
0.672245
0.501595
0.774213
0.736436
0.74038
0.854231
0.82048
0.806854
0.682721
0.720573
0.799731
0.798426
0.72337
0.736501
0.809626
0.820599
0.738089
0.722378
0.833711
0.826162
0.664023
0.785591
0.69517
0.624139
0.843438
0.644681
0.737466
0.801313
0.665835
0.702553
0.685813
0.648474
0.636
0.551701
0.699188
0.655267
0.642623
0.883871
0.812098
0.662809
0.771894
0.769076
0.60545
0.614136
0.623742
0.591377
0.446479
0.811971
0.800678
0.728147
0.716373
0.827806
0.648667
0.657781
0.612109
0.831879
0.635136
0.730441
0.768859
0.831309
0.720921
0.834876
0.792528
0.842649
0.687398
0.743981
0.675242
0.831636
0.682267
0.719548
0.838748
0.839034
0.843836
0.824132
0.834083
0.81877
0.927684
0.848142
0.842712
0.778815
0.836013
0.721414
0.688805
0.837254
0.841088
0.844268
0.838127
0.731234
0.827005
0.688938
0.831864
0.844501
0.718868
0.836148
0.857925
0.809198
0.852384
0.842102
0.721485
0.839343
0.834881
0.677092
0.833922
0.681478
0.630752
0.835264
0.751838
0.827231
0.730264
0.768698
0.835448
0.857392
0.565524
0.646381
0.66978
0.668251
0.635515
0.781469
0.813126
0.665179
0.646725
0.711705
0.566447
0.570967
0.800607
0.774373
0.328335
0.860058
0.349803
0.784984
0.72102
0.302847
0.272988
0.289472
0.729456
0.437383
0.548596
0.836465
0.254651
0.300734
0.591476
0.392034
0.5688
0.836789
