0.690685
0.506593
0.810998
0.68397
0.744715
0.783162
0.716787
0.764763
0.578188
0.732922
0.736529
0.71384
0.724205
0.694614
0.727711
0.730586
0.626304
0.761239
0.731975
0.764769
0.713599
0.703971
0.622799
0.594429
0.6318
0.526113
0.815598
0.811064
0.75239
0.827262
0.561794
0.734583
0.807983
0.553548
0.657196
0.586803
0.741412
0.746056
0.801863
0.814592
0.694802
0.832432
0.714523
0.821205
0.630639
0.818198
0.800639
0.812055
0.710154
0.486014
0.639988
0.752001
0.788743
0.710497
0.726186
0.698801
0.506663
0.572282
0.575622
0.39681
0.826536
0.703256
0.641826
0.731472
0.556355
0.740045
0.613686
0.756644
0.654735
0.703226
0.57561
0.565463
0.60799
0.53126
0.733916
0.681606
0.811874
0.607534
0.542771
0.645866
0.363719
0.474981
0.860908
0.437317
0.279352
0.638842
0.672009
0.478331
0.348296
0.796693
0.801911
0.483862
0.797873
0.138905
0.657505
0.66594
0.761961
0.41735
0.86332
0.698427
0.740149
0.347506
0.696676
0.659563
0.36037
0.658408
0.511883
0.392085
0.249922
0.42972
0.542542
0.273323
0.515802
0.715859
0.540853
0.449577
0.751571
0.349037
0.547595
0.33432
0.451815
0.552756
0.123726
0.305759
0.446768
0.476079
0.561184
0.642846
0.403381
0.293572
0.631288
0.402968
0.566693
0.456202
0.814746
0.482669
0.672984
0.476298
0.799932
0.551023
0.767878
0.375804
0.669593
0.746516
0.762081
0.724883
0.544925
0.215214
0.703985
0.385637
0.494688
0.486318
0.366402
0.602739
0.379981
0.373673
0.391397
0.340039
0.531538
0.529894
0.67044
0.593146
0.472494
0.751023
0.390805
0.353613
0.380287
0.434831
0.523253
0.542102
0.773656
0.552603
0.729448
0
0.520994
0.772634
0.680432
0.383254
0.743417
0.116002
0.43088
0.146186
0.422403
0.172083
0.354814
0.400512
0.411376
0.216244
0.423638
0.237327
0.56695
0.413369
0.687056
0.322456
0.690501
0.269601
0.161539
0.350284
0.173439
0.226254
0.501764
0.535099
0.410222
0.660909
0.191779
0.35601
0.67349
0.341455
0.510675
0.435441
0.427679
0.591074
0.212955
0.359178
0.396649
0.303955
0.383606
0.321255
0.238721
0.597307
0.325568
0.319491
0.393159
0.534934
0.567655
0.354639
0.488376
0.390793
0.595133
0.506611
0.418488
0.295457
0.708107
0.438376
0.409358
0.342138
0.416344
0.21769
0.614703
0.11623
0.561015
0.731576
0.628591
0.741929
0.749162
0.708908
0.873542
0.673239
0.424028
0.240798
0.69383
0.401582
0.550119
0.561204
0.487323
0.482922
0.481118
0.609406
0.400355
0.34753
0.540182
0.566532
0.406694
0.669432
0.561475
0.633065
0.664261
0.786771
0.737513
0.744808
0.822596
0.60525
0.31493
0.499863
0.566767
0.511023
0.440713
0.388946
0.390425
0.288985
0.594184
0.520322
0.27885
0.739321
0.68586
0.490418
0.267937
0.407891
0.66796
0.329524
0.628026
0.592083
0.786084
0.553974
0.628696
0.268031
0.583891
0.697836
0.323131
0.382087
0.693351
0.452061
0.499741
0.695814
0.577221
0.643753
0.443896
0.3771
0.707337
0.501266
0.325396
0.709829
0.370403
0.370017
0.234881
0.207328
0.559843
0.826663
0.569091
0.344012
0.132324
0.472275
0.0971259
0.252456
0.529422
0.414105
0.749268
0.244213
0.37876
0.376496
0.336403
0.647692
0.435411
0.529597
0.470314
0.518329
0.452448
0.387383
0.511865
0.480871
0.335709
0.240979
0.225288
0.419171
0.877762
0.455894
0.660011
0.626669
0.539139
0.463754
0.733702
0.442266
0.758891
0.644003
0.812195
0.643043
0.516568
0.347954
0.646339
0.905821
0.330774
0.413085
0.261285
0.406213
0.692275
0.326829
0.344667
0.521169
0.768051
0.794577
0.583031
0.917453
0.769883
0.476849
0.494865
0.723972
0.656166
0.685797
0.686359
0.817674
0.818493
0.805117
0.699696
0.78553
0.611957
0.644903
0.675824
0.708052
0.717493
0.762895
0.743805
0.716812
0.473959
0.719971
0.464344
0.60998
0.754629
0.734878
0.738159
0.582101
0.693871
0.458244
0.62183
0.906283
0.639647
0.618244
0.214532
0.212219
0.660925
0.661613
0.446344
0.4656
0.776488
0.587352
0.610872
0.687581
0.675278
0.899889
0.712591
0.853638
0.284331
0.295173
0.670461
0.555554
0.47302
0.680729
0.594186
0.565243
0.272014
0.503578
0.200717
0.569945
0.575572
0.658796
0.597419
0.632743
0.606965
0.41468
0.560206
0.365914
0.785144
0.614155
0.636402
0.72287
0.661891
0.843415
0.752823
0.448959
0.766546
0.632146
0.607869
0.729121
0.699477
0.841768
0.705358
0.733921
0.313301
0.595673
0.362181
0.4812
0.549524
0.77488
0.692987
0.632417
0.95922
0.615818
0.793158
0.716739
0.742204
0.737918
0.858317
0.790699
0.650415
0.822021
0.690972
0.661878
0.747938
0.82196
0.839324
0.718763
0.73553
0.404852
0.421454
0.534633
0.351687
0.615564
0.472165
0.351006
0.817481
0.635056
0.538086
0.662924
0.598087
0.660921
0.463126
0.618976
0.747573
0.736093
0.449701
0.469641
0.601851
0.845597
0.542078
0.642038
0.491173
0.335069
0.365977
0.880704
0.459453
0.662786
0.763083
0.611332
0.370568
0.588535
0.390606
0.492577
0.538028
0.839945
0.341214
0.386593
0.753334
0.628495
0.619339
0.759964
0.667905
0.62676
0.701207
0.584356
0.66404
0.603525
0.513864
0.678419
0.478972
0.816647
0.34679
0.722736
0.612569
0.773689
0.453893
0.418711
0.618654
0.295445
0.390409
0.653789
0.689123
0.358499
0.368952
0.751732
0.598334
0.275612
0.391969
0.239209
0.577905
0.837475
0.653239
0.328188
0.524886
0.673153
0.612426
0.628004
0.644528
0.650469
0.431207
0.653162
0.724226
0.639145
0.918515
0.659092
0.667343
0.594923
0.505959
0.539804
0.89795
0.419739
0.533183
0.673214
0.700502
0.797429
0.783873
0.687772
0.772764
0.776734
0.45936
0.687197
0.59668
0.798229
0.656907
0.778475
0.224069
0.393646
0.84179
0.497327
0.907326
0.646529
0.748329
0.769663
0.771712
0.785438
0.246665
0.633465
0.821112
0.561732
0.678166
0.781257
0.765891
0.787341
0.420512
0.63101
0.807939
0.647721
0.628057
0.66219
0.856625
0.378443
0.330368
0.745945
0.158766
0.609244
0.620744
0.208326
0.662585
0.715702
0.561113
0.68152
0.796734
0.702048
0.603553
0.606942
0.466325
0.566082
0.887394
0.409521
0.659133
0.501115
0.498613
0.830168
0.832809
0.0953775
0.564171
0.516193
0.450544
0.245191
0.371892
0.45184
0.20876
0.521738
0.564265
0.807917
0.422417
0.243643
0.574716
0.51497
0.149692
0.638905
0.662833
0.840259
0.532693
0.699969
0.561806
0.488041
0.650882
0.788842
0.586813
0.622586
0.499141
0.704955
0.752944
0.804626
0.793124
0.374697
0.223839
0.206666
0.429433
0.626453
0.417708
0.49827
0.179201
0.392206
0.708756
0.584651
0.565514
0.704468
0.663194
0.685853
0.625845
0.722355
0.787094
0.747509
0.717961
0.724503
0.846005
0.564543
0.616435
0.599284
0.743981
0.643036
0.728311
0.73629
0.821506
0.746858
0.716349
0.51317
0.663475
0.643992
0.271104
0.771507
0.674579
0.574278
0.648382
0.405938
0.514443
0.476412
0.531834
0.139973
0.395394
0.152182
0.289134
0.33044
0.662409
0.367753
0.552554
0.354685
0.411
0.430407
0.728993
0.212044
0.480512
0.298211
0.625201
0.321847
0.203645
0.223771
0.389429
0.483067
0.18124
0.41526
0.135157
0.120012
0.521032
0.449749
0.375767
0.359737
0.406432
0.252598
0.438278
0.205408
0.161978
0.35879
0.150403
0.31128
0.473921
0.375493
0.561837
0.167393
0.260279
0.635855
0.573309
0.665532
0.640768
0.623857
0.371022
0.160216
0.393349
0.18709
0.230907
0.699683
0.3206
0.201874
0.310889
0.147417
0.32115
0.591576
0.294934
0.336011
0.607329
0.548218
0.612063
0.45264
0.397242
0.572554
0.376412
0.664083
0.552682
0.493297
0.615023
0.677981
0.544518
0.757478
0.645936
0.725799
0.539974
0.757409
0.581323
0.49218
0.550148
0.631767
0.389937
0.303476
0.447968
0.572588
0.622979
0.441501
0.395062
0.500974
0.557895
0.882994
0.836855
0.887673
0.609932
0.876436
0.761355
0.65467
0.658135
0.74294
0.87086
0.631419
0.714038
0.856945
0.756324
0.744552
0.668169
0.789656
0.534513
0.795847
0.67943
0.906753
0.780897
0.735352
0.579612
0.710505
0.677188
0.775005
0.805484
0.793452
0.522571
0.875691
0.884427
0.782392
0.556425
0.605166
0.698118
0.586877
0.774015
0.942092
0.636897
0.759579
0.826938
0.593456
0.794797
0.792468
0.635311
0.676463
0.769313
0.758541
0.901447
0.894138
0.693022
0.764812
0.879741
0.840582
0.864423
0.879803
1
0.90569
0.672625
0.822309
0.742869
0.810153
0.802354
0.77724
0.759732
0.796624
0.745065
0.82274
0.748916
0.764691
0.743753
0.766491
0.693426
0.737646
0.7087
0.723787
0.594597
0.804027
0.835329
0.755705
0.640867
0.72326
0.674275
0.974377
0.800304
0.71146
0.697347
0.70542
0.677943
0.748498
0.793021
0.699205
0.634497
0.664324
0.689901
0.981098
0.664468
0.528562
0.472612
0.638985
0.677256
0.775946
0.699629
0.658817
0.648755
0.672797
0.871486
0.587905
0.863898
0.654186
0.658823
0.583642
0.649706
0.51477
0.681591
0.399128
0.647597
0.806163
0.632739
0.740609
0.680098
0.356032
0.785342
0.547986
0.606168
0.807927
0.191352
0.808019
0.626036
0.411992
0.71458
0.0720376
0.289722
0.796329
0.475779
0.463153
0.510621
0.692872
0.661499
0.709523
0.311469
0.338647
0.259114
0.319163
0.451718
0.748034
0.412252
0.142049
0.423357
0.115655
0.390042
0.560448
0.414872
0.501172
0.557171
0.66308
0.55615
0.631379
0.75751
0.385849
0.471507
0.386999
0.479055
0.530325
0.410646
0.832591
0.548376
0.763696
0.550828
0.543726
0.499126
0.763672
0.60936
0.660178
0.481461
0.49676
0.625439
0.609619
0.537752
0.594009
0.807083
0.608799
0.748435
0.611219
0.602913
0.715153
0.410129
0.666472
0.638287
0.769938
0.349322
0.723588
0.309618
0.583573
0.711183
0.423872
0.377447
0.499964
0.737274
0.6695
0.327025
0.330505
0.851058
0.545601
0.703415
0.797978
0.443376
0.270049
0.323715
0.292812
0.314169
0.815463
0.632119
0.836229
0.442112
0.668648
0.280021
0.703516
0.299046
0.504519
0.730768
0.640303
0.782064
0.80204
0.864468
0.758417
0.756901
0.774878
0.729332
0.59631
0.810061
0.723249
0.770758
0.723304
0.669456
0.752068
0.782594
0.739056
0.846731
0.772244
0.747836
0.486047
0.63064
0.801551
0.763945
0.588316
0.734511
0.501399
0.575674
0.497326
0.673252
0.667228
0.681257
0.534099
0.535199
0.488274
0.553059
0.735859
0.82216
0.822153
0.64096
0.512809
0.533773
0.508282
0.516449
0.437869
0.619561
0.246331
0.282103
0.617458
0.60872
0.829594
0.856449
0.425373
0.450743
0.245364
0.615987
0.358373
0.486133
0.634382
0.527415
0.76424
0.94687
0.798305
0.611331
0.745601
0.558749
0.393708
0.602109
0.717643
0.507178
0.802209
0.757179
0.744682
0.767728
0.507895
0.688137
0.478192
0.503105
0.582729
0.830042
0.55094
0.75454
0.694137
0.697005
0.418846
0.921463
0.461628
0.599901
0.507349
0.721955
0.621723
0.657562
0.438391
0.41377
0.752507
0.573087
0.457584
0.603428
0.221314
0.310005
0.648813
0.592131
0.700433
0.809568
0.635189
0.569565
0.32094
0.273113
0.659362
0.598343
0.659892
0.514956
0.375895
0.516996
0.706035
0.819724
0.446796
0.626575
0.300931
0.769585
0.566709
0.509091
0.542355
0.69353
0.815986
0.77119
0.58799
0.826245
0.90135
0.775309
0.679292
0.68758
0.753978
0.710841
0.802844
0.804086
0.879756
0.883262
0.836928
0.824517
0.80807
0.768624
0.745085
0.879925
0.845114
0.702938
0.722118
0.824497
0.481463
0.724457
0.776987
0.71495
0.702931
0.758733
0.562814
0.655287
0.443206
0.734096
0.788879
0.797458
0.690023
0.663461
0.620162
0.594555
0.808204
0.71327
0.435359
0.870191
0.833871
0.284509
0.655299
0.755861
0.719051
0.685731
0.71392
0.725503
0.410756
0.744777
0.410002
0.798678
0.615415
0.758957
0.69923
0.691638
0.884029
0.844984
0.801027
0.751892
0.72046
0.79148
0.777717
0.83977
0.85985
0.864968
0.880551
0.802039
0.722394
0.634745
0.924591
0.771877
0.834267
0.790529
0.916371
0.895765
0.844367
0.836097
0.753138
0.896955
0.862173
0.692902
0.718184
0.779124
0.895924
0.783886
0.82033
0.444018
0.753604
0.682533
0.749697
0.727754
0.433268
0.894315
0.907999
0.306028
0.754982
0.856723
0.749021
0.372164
0.686324
0.641933
0.679224
0.663595
0.766787
0.741766
0.69204
0.756397
0.46555
0.592717
0.842076
0.519064
0.713303
0.744329
0.715456
0.741116
0.638719
0.644521
0.83114
0.75096
0.718325
0.696883
0.714054
0.706664
0.735827
0.604595
0.870108
0.77413
0.568959
0.586336
0.737845
0.688302
0.549506
0.658483
0.69762
0.773587
0.795903
0.622456
0.610213
0.731319
0.551742
0.725771
0.716006
0.634037
0.647474
0.56412
0.668693
0.793128
0.618824
0.723217
0.708549
0.666219
0.671043
0.656194
0.663436
0.750604
0.889281
0.771665
0.719106
0.757124
0.688379
0.734519
0.790442
0.755276
0.84064
0.878409
0.850803
0.837648
0.69709
0.710098
0.695302
0.709336
0.708941
0.658034
0.680841
0.708187
0.698667
0.875326
0.693347
0.752161
0.734312
0.697508
0.733775
0.804653
0.773573
0.574056
0.632421
0.820962
0.597088
0.784725
0.658876
0.873969
0.783699
0.767204
0.805653
0.779598
0.814889
0.76985
0.725943
0.728105
0.806429
0.828401
0.81016
0.728537
0.570242
0.742028
0.764453
0.816885
0.789262
