OFF
194 374 0
5.28767 -21.8332 0.315713
4.19967 -21.5041 0.0187131
5.13167 -21.3243 -0.251687
4.23967 -20.8294 -0.682287
6.32767 -21.3688 -0.221087
6.37667 -21.8806 0.353513
6.15267 -20.5597 -1.01439
5.11767 -20.3021 -1.22749
7.35067 -21.0029 -0.536887
7.20367 -21.5252 -0.0163869
3.18567 -3.16751 2.29921
4.09067 -3.15281 2.31531
3.70067 -3.16191 2.22411
3.00067 -4.08831 3.80471
3.71867 -5.04831 3.97571
3.36667 -3.45501 3.91721
4.66567 -6.59751 4.07591
3.98667 -3.47751 3.94921
2.82767 -3.42421 3.79091
4.56067 -3.45651 3.87121
5.01367 -3.70731 3.68081
4.98767 -3.43391 3.70391
2.59267 -3.26351 2.82541
2.83967 -3.54071 2.70301
2.63367 -3.53961 2.99361
2.46467 -3.36931 3.38421
3.45067 -6.16411 2.67021
3.26167 -6.26151 2.97431
2.64767 -3.97771 3.29631
3.13467 -5.85951 3.62371
2.63067 -3.63541 3.57081
3.43067 -3.50991 2.28821
4.04967 -4.64691 2.25511
4.02367 -6.06781 2.29761
3.37667 -4.68031 2.45071
3.08467 -3.44711 2.45821
5.02067 -3.37021 3.33481
5.69067 -6.43711 3.46291
5.51067 -6.32341 3.06731
4.83767 -3.28931 2.94941
4.84067 -4.74241 2.63491
4.49367 -3.19241 2.57501
5.12067 -13.1663 3.67421
4.55967 -13.0547 3.47861
4.64967 -15.2891 2.95601
5.25567 -15.4252 3.16091
4.61767 -17.3348 2.30791
5.27667 -17.4947 2.51931
6.07967 -17.548 2.58951
5.98767 -15.4704 3.22851
5.79467 -13.2031 3.73751
4.51867 -19.0847 1.64571
4.33867 -21.2533 0.733113
5.11567 -21.4307 0.964413
5.23167 -19.2659 1.86121
6.09467 -21.5227 1.02931
6.10567 -19.3262 1.93311
7.05467 -21.421 0.967813
7.75967 -21.2558 0.732013
7.57967 -19.0847 1.64571
6.95067 -19.2659 1.86121
7.41267 -17.3345 2.30611
6.85067 -17.4946 2.51851
7.18067 -15.2879 2.94871
6.87167 -13.0516 3.46061
6.42967 -13.165 3.66691
6.68467 -15.4247 3.15801
4.28467 -12.4216 2.36341
4.51267 -12.2338 2.02671
4.64367 -14.2903 1.44601
4.37767 -14.5178 1.79181
4.66267 -16.1622 0.755913
4.35067 -16.4288 1.10931
4.20467 -16.7486 1.53261
4.25867 -14.7902 2.20391
4.18667 -12.6455 2.75991
4.61467 -17.7564 0.0650131
4.50367 -19.7519 -0.889187
4.14867 -19.3099 -0.154887
4.25567 -18.0583 0.424313
3.87367 -20.5066 -0.0795869
4.08467 -18.4206 0.855413
3.94067 -20.9171 0.360113
4.15367 -18.7828 1.28641
4.27667 -17.0684 1.95561
4.26267 -12.8689 3.15281
4.33267 -15.0624 2.61441
5.61367 -12.113 1.77701
6.04467 -12.2233 1.96531
6.38667 -14.2861 1.42141
5.91167 -14.1506 1.21941
6.65667 -16.1611 0.749813
6.13067 -16.0014 0.539113
5.59567 -15.9484 0.470313
5.44267 -14.1064 1.15761
5.19967 -12.0786 1.72801
6.86267 -17.7564 0.0650131
7.09867 -19.754 -0.890187
6.45967 -19.523 -1.09499
6.28467 -17.5753 -0.150487
5.75667 -19.4753 -1.18269
5.68267 -17.5149 -0.222387
5.06967 -19.4961 -1.08119
5.10867 -17.5753 -0.150487
5.09167 -16.002 0.542713
4.82467 -12.1192 1.81311
5.00967 -14.1531 1.23381
6.96967 -12.8627 3.11661
7.31567 -15.0599 2.60001
7.59167 -17.0678 1.95201
7.47067 -16.7477 1.52721
7.17267 -14.7865 2.18221
6.80767 -12.6362 2.70571
7.95267 -20.1018 0.717313
7.80267 -18.7828 1.28641
7.97667 -20.5086 -0.0804869
7.70367 -18.4206 0.855413
7.62767 -20.0928 -0.525487
7.36267 -18.0583 0.424313
7.13067 -16.4277 1.10281
6.47167 -12.4104 2.29841
6.83467 -14.5133 1.76581
3.53767 -6.54661 3.87871
4.05367 -6.59591 4.03271
3.92667 -8.51241 3.87691
4.44767 -8.57951 4.04491
5.06867 -8.60091 4.09511
4.29267 -10.7388 3.76451
4.82767 -10.827 3.94711
5.46667 -10.8558 4.00431
6.47367 -10.7326 3.72841
6.06367 -10.8245 3.93261
6.04067 -8.50251 3.81901
5.64767 -8.57561 4.02181
5.62967 -6.53291 3.79911
5.24167 -6.59051 4.00081
6.10567 -8.38061 3.48111
5.92767 -8.23541 3.08141
6.54867 -10.5794 3.38801
6.37667 -10.3961 2.98311
5.62767 -10.0646 2.26681
6.04067 -10.2141 2.58551
5.18567 -7.97631 2.39011
5.59267 -8.09221 2.69331
4.77167 -6.12471 2.39921
5.17567 -6.21241 2.68771
4.38367 -6.08081 2.27711
4.79367 -7.91321 2.24511
4.42967 -7.89971 2.24121
5.22167 -9.97891 2.09871
4.84067 -9.95511 2.07031
4.22167 -10.0857 2.38961
4.50167 -9.99131 2.17091
3.84367 -8.01011 2.58671
4.10767 -7.93301 2.36091
3.71067 -6.10811 2.43631
3.64967 -8.12791 2.90151
3.57067 -8.26521 3.25491
3.18467 -6.36431 3.30611
4.01667 -10.2365 2.71561
3.93067 -10.4147 3.09161
4.00867 -10.5918 3.46031
3.64867 -8.40051 3.59681
4.36167 -21.6902 0.502513
5.13467 -21.8987 0.715513
6.08767 -21.969 0.786413
4.53067 -21.7911 0.341613
5.22467 -21.9849 0.533413
6.07167 -22.0526 0.596513
7.53967 -21.7911 0.341613
6.90067 -21.9849 0.533413
7.72967 -21.6902 0.502513
7.01867 -21.8987 0.715513
8.04567 -20.9212 0.358413
8.02067 -21.3457 0.146613
7.96567 -20.9324 -0.280087
7.81667 -21.48 0.0190131
7.78767 -21.107 -0.366887
7.03667 -20.4097 -1.06689
7.50567 -20.7274 -0.748487
7.11367 -20.1713 -1.06049
7.63767 -20.5175 -0.705787
6.46967 -19.9645 -1.27469
5.77567 -19.8959 -1.34659
6.44267 -20.2225 -1.26289
5.79667 -20.1615 -1.33029
4.63067 -20.4097 -1.06689
4.52067 -20.1713 -1.06049
5.10267 -19.9645 -1.27469
4.08167 -20.0873 -0.519687
4.10067 -20.5175 -0.705787
3.89767 -20.9324 -0.280087
4.08067 -21.107 -0.366887
3.96667 -21.3457 0.146613
3 0 1 2
3 1 3 2
3 4 5 0
3 4 0 2
3 6 4 2
3 6 2 7
3 2 3 7
3 8 4 6
3 5 4 9
3 4 8 9
3 10 11 12
3 13 14 15
3 14 16 17
3 14 17 15
3 15 18 13
3 17 16 19
3 19 20 21
3 22 23 24
3 24 25 22
3 23 26 27
3 23 27 24
3 27 28 24
3 28 25 24
3 29 13 30
3 13 18 30
3 30 25 28
3 28 29 30
3 30 18 25
3 12 31 10
3 11 32 12
3 32 33 31
3 32 31 12
3 34 26 23
3 34 23 35
3 31 33 34
3 31 34 35
3 10 31 35
3 35 23 22
3 35 22 10
3 21 20 36
3 20 37 36
3 37 38 39
3 37 39 36
3 40 11 41
3 39 38 40
3 39 40 41
3 42 43 44
3 42 44 45
3 44 46 47
3 44 47 45
3 47 48 49
3 47 49 45
3 49 50 42
3 49 42 45
3 51 52 53
3 51 53 54
3 53 55 56
3 53 56 54
3 56 48 47
3 56 47 54
3 47 46 51
3 47 51 54
3 57 58 59
3 57 59 60
3 59 61 62
3 59 62 60
3 62 48 56
3 62 56 60
3 56 55 57
3 56 57 60
3 63 64 65
3 63 65 66
3 65 50 49
3 65 49 66
3 49 48 62
3 49 62 66
3 62 61 63
3 62 63 66
3 67 68 69
3 67 69 70
3 69 71 72
3 69 72 70
3 72 73 74
3 72 74 70
3 74 75 67
3 74 67 70
3 76 77 78
3 76 78 79
3 78 80 81
3 78 81 79
3 81 73 72
3 81 72 79
3 72 71 76
3 72 76 79
3 82 52 51
3 82 51 83
3 51 46 84
3 51 84 83
3 84 73 81
3 84 81 83
3 81 80 82
3 81 82 83
3 44 43 85
3 44 85 86
3 85 75 74
3 85 74 86
3 74 73 84
3 74 84 86
3 84 46 44
3 84 44 86
3 87 88 89
3 87 89 90
3 89 91 92
3 89 92 90
3 92 93 94
3 92 94 90
3 94 95 87
3 94 87 90
3 96 97 98
3 96 98 99
3 98 100 101
3 98 101 99
3 101 93 92
3 101 92 99
3 92 91 96
3 92 96 99
3 102 77 76
3 102 76 103
3 76 71 104
3 76 104 103
3 104 93 101
3 104 101 103
3 101 100 102
3 101 102 103
3 69 68 105
3 69 105 106
3 105 95 94
3 105 94 106
3 94 93 104
3 94 104 106
3 104 71 69
3 104 69 106
3 107 64 63
3 107 63 108
3 63 61 109
3 63 109 108
3 109 110 111
3 109 111 108
3 111 112 107
3 111 107 108
3 59 58 113
3 59 113 114
3 113 115 116
3 113 116 114
3 116 110 109
3 116 109 114
3 109 61 59
3 109 59 114
3 117 97 96
3 117 96 118
3 96 91 119
3 96 119 118
3 119 110 116
3 119 116 118
3 116 115 117
3 116 117 118
3 89 88 120
3 89 120 121
3 120 112 111
3 120 111 121
3 111 110 119
3 111 119 121
3 119 91 89
3 119 89 121
3 14 13 122
3 14 122 123
3 122 124 125
3 122 125 123
3 125 126 16
3 125 16 123
3 16 14 123
3 127 43 42
3 127 42 128
3 42 50 129
3 42 129 128
3 129 126 125
3 129 125 128
3 125 124 127
3 125 127 128
3 65 64 130
3 65 130 131
3 130 132 133
3 130 133 131
3 133 126 129
3 133 129 131
3 129 50 65
3 129 65 131
3 134 20 19
3 134 19 135
3 19 16 135
3 16 126 133
3 16 133 135
3 133 132 134
3 133 134 135
3 37 20 134
3 134 132 136
3 134 136 37
3 136 137 38
3 136 38 37
3 130 64 107
3 130 107 138
3 107 112 139
3 107 139 138
3 139 137 136
3 139 136 138
3 136 132 130
3 136 130 138
3 120 88 140
3 120 140 141
3 140 142 143
3 140 143 141
3 143 137 139
3 143 139 141
3 139 112 120
3 139 120 141
3 144 11 40
3 144 40 145
3 40 38 145
3 38 137 143
3 38 143 145
3 143 142 144
3 143 144 145
3 32 11 144
3 32 144 146
3 144 142 147
3 144 147 146
3 147 148 33
3 147 33 146
3 33 32 146
3 140 88 87
3 140 87 149
3 87 95 150
3 87 150 149
3 150 148 147
3 150 147 149
3 147 142 140
3 147 140 149
3 105 68 151
3 105 151 152
3 151 153 154
3 151 154 152
3 154 148 150
3 154 150 152
3 150 95 105
3 150 105 152
3 26 34 155
3 34 33 155
3 33 148 154
3 33 154 155
3 154 153 26
3 154 26 155
3 26 153 156
3 26 156 27
3 156 157 158
3 156 158 27
3 158 28 27
3 151 68 67
3 151 67 159
3 67 75 160
3 67 160 159
3 160 157 156
3 160 156 159
3 156 153 151
3 156 151 159
3 85 43 127
3 85 127 161
3 127 124 162
3 127 162 161
3 162 157 160
3 162 160 161
3 160 75 85
3 160 85 161
3 122 13 29
3 29 28 158
3 158 157 162
3 158 162 29
3 162 124 122
3 162 122 29
3 52 163 164
3 52 164 53
3 164 165 55
3 164 55 53
3 166 1 0
3 166 0 167
3 0 5 168
3 0 168 167
3 168 165 164
3 168 164 167
3 164 163 166
3 164 166 167
3 5 9 169
3 5 169 170
3 169 171 172
3 169 172 170
3 172 165 168
3 172 168 170
3 168 5 170
3 55 165 172
3 55 172 57
3 172 171 58
3 172 58 57
3 113 58 173
3 58 171 174
3 58 174 173
3 174 175 115
3 174 115 173
3 115 113 173
3 169 9 176
3 9 8 177
3 9 177 176
3 177 175 174
3 177 174 176
3 174 171 169
3 174 169 176
3 8 6 178
3 8 178 179
3 178 180 181
3 178 181 179
3 181 175 177
3 181 177 179
3 177 8 179
3 115 175 181
3 115 181 117
3 181 180 97
3 181 97 117
3 97 180 182
3 97 182 98
3 182 183 100
3 182 100 98
3 178 6 184
3 6 185 184
3 185 183 182
3 185 182 184
3 182 180 178
3 182 178 184
3 186 187 188
3 186 188 7
3 188 183 185
3 188 185 7
3 185 6 7
3 100 183 188
3 100 188 102
3 188 187 77
3 188 77 102
3 78 77 189
3 77 187 190
3 77 190 189
3 190 191 80
3 190 80 189
3 80 78 189
3 186 7 3
3 192 191 190
3 192 190 3
3 190 187 186
3 190 186 3
3 166 163 193
3 166 193 1
3 193 191 192
3 193 192 1
3 192 3 1
3 80 191 193
3 80 193 82
3 193 163 52
3 193 52 82
