OFF
267 526 0
1.11943 -4.90491 -15.3663
0.934434 -4.59169 -15.4943
0.996434 -4.6357 -15.3653
-0.545566 -4.41094 -15.0363
1.06143 -5.02972 -15.3763
1.12743 -5.03548 -15.4263
1.04443 -5.06067 -15.4643
-2.89357 7.19746 -11.2063
-2.36457 7.45186 -9.90032
-2.28757 7.47856 -9.89932
-4.65857 5.44786 -14.8063
-4.82057 5.40126 -14.7913
-4.44357 6.17966 -13.7703
-3.80557 6.73576 -12.5413
-3.58757 6.81126 -12.5373
-4.22157 6.25236 -13.7723
-3.17857 7.09556 -11.2173
-2.63357 7.35196 -9.90632
-4.45057 4.93886 -14.6703
-4.46657 4.97986 -14.6803
-3.98957 5.62896 -13.7363
-3.32657 6.04346 -12.6203
-4.03057 5.73756 -13.7433
-2.66657 6.39726 -11.4123
-2.10457 6.63766 -10.2153
-2.02257 6.23046 -10.3783
-2.62057 6.22736 -11.4583
-2.41357 6.19796 -10.3383
-4.97357 4.91046 -14.6523
-3.58857 6.27896 -11.3933
-4.12757 6.17406 -12.5993
-4.05557 5.98196 -12.6213
-3.55557 6.15096 -11.4303
-3.27757 6.20586 -10.2433
-4.58857 5.58156 -13.7363
-5.03857 5.03626 -14.6893
-3.26657 6.13016 -10.2683
-3.61757 0.602561 -16.3313
-3.75557 0.610161 -16.2723
-4.16057 1.73446 -16.2283
-4.70757 3.03046 -15.9343
-4.56657 3.03916 -15.9763
-4.82857 4.31346 -15.5063
-4.75257 4.32906 -15.5203
-4.55357 3.92766 -15.2913
-3.41157 0.446661 -15.8953
-3.47757 0.496061 -16.0373
-3.96557 1.53516 -15.8413
-4.58757 3.99826 -15.3303
-4.36957 2.74756 -15.6603
-4.73957 3.92456 -15.2783
-5.03357 3.92236 -15.2563
-2.31657 -0.873389 -16.3033
-2.76657 -0.817629 -16.1053
-2.97757 -0.259439 -16.3493
-1.71557 -1.28245 -16.2573
-2.84257 -0.335639 -16.0423
-2.77157 -0.377339 -15.8833
-2.11457 -0.971239 -15.8243
-2.91657 -0.359039 -15.8533
-2.17257 -1.23156 -16.0363
-1.72457 -1.48708 -15.9723
-1.49657 -1.57834 -15.5453
-1.96557 -1.31427 -15.6423
-2.56857 -0.901769 -15.7323
-0.932566 -1.69106 -16.2193
-0.985566 -1.65538 -15.6533
-0.422566 -1.96559 -15.5223
-1.22657 -1.73834 -15.4583
-1.03557 -2.03728 -15.3073
-1.40757 -2.15419 -16.0233
-0.990566 -2.32158 -15.2403
-0.140566 -3.23494 -16.7733
-0.189566 -3.24422 -16.7553
-0.386566 -2.69735 -16.5963
-0.515566 -2.24515 -16.4693
0.332434 -4.52702 -17.1183
0.163434 -4.23905 -17.0213
-0.026566 -3.79301 -16.8903
-1.28657 -3.13241 -16.2073
0.754434 -4.10178 -15.3723
0.442434 -3.52329 -15.4983
0.204434 -2.95818 -15.4083
0.402434 -3.53338 -15.3673
-0.897566 -2.79345 -15.1763
-0.760566 -3.43673 -15.1123
-0.690566 -3.89564 -15.1353
-1.06257 -3.23916 -15.6533
-5.11057 4.94356 -6.82332
-4.81457 5.42316 -6.75032
-4.79957 5.15196 -7.11432
-5.19257 4.89706 -6.75232
-4.13557 5.75296 -7.59732
-4.61957 5.35366 -7.19232
-1.55257 5.33686 -7.65932
-1.55757 5.20046 -7.56832
-1.50057 5.63906 -8.29232
-1.69857 5.19956 -7.55832
-1.55457 5.15956 -7.52632
-1.94657 5.59856 -8.20232
-2.52857 5.34066 -7.72332
-1.55657 5.80786 -7.38032
-1.56357 6.23206 -6.95532
-1.52057 6.06486 -8.04232
-1.55657 6.26036 -6.86532
-1.57857 8.36076 -5.68132
-2.00357 8.14916 -5.84732
-1.56357 8.39316 -5.58532
-1.62257 8.10116 -6.90232
-1.66857 8.09316 -6.89232
-1.70757 7.93826 -7.71932
-1.83057 7.89236 -7.71432
-1.90757 7.73036 -8.72032
-2.14057 7.64076 -8.72532
-2.26257 7.72186 -7.69132
-1.96457 7.97486 -6.86832
-3.73857 5.71646 -8.44532
-3.72257 5.83476 -8.37732
-3.37557 5.96846 -9.28832
-4.20857 5.48746 -7.74832
-4.22657 5.42916 -7.76932
-3.36857 6.17756 -9.17532
-2.22857 5.82416 -8.68732
-1.52757 5.88296 -8.81532
-1.95457 6.07296 -9.45432
-1.67857 6.09766 -9.49632
-1.71557 6.37996 -9.35732
-3.33757 5.07106 -7.19832
-3.25457 5.15326 -7.34232
-2.86157 5.53146 -8.03232
-3.67857 5.25726 -7.49232
-4.39957 5.07076 -7.10432
-2.52657 6.02896 -9.38232
-2.87157 6.16156 -10.3023
-3.77757 5.46436 -7.86232
-3.04057 5.76356 -8.55632
-3.09957 5.98506 -9.31032
-3.24357 6.17606 -11.4363
-3.69057 6.01246 -12.6213
-4.51357 2.74756 -15.6453
-4.82657 2.75806 -15.6103
-4.68057 2.75216 -15.6263
-4.42057 1.58586 -15.7733
-3.85557 0.494961 -15.8153
-3.63257 0.468261 -15.8553
-4.18857 1.54926 -15.8083
-3.22557 -0.306939 -15.7963
-1.49457 -1.38559 -15.7403
-0.054566 -2.46256 -15.4373
-0.242566 -2.15687 -15.4743
-0.555566 -3.93333 -15.0923
-0.360566 -4.82014 -15.0663
-0.488566 -4.66716 -15.0233
-0.029566 -4.8148 -15.9133
-0.389566 -4.84978 -15.1343
-1.38757 -2.59637 -16.0973
-1.19257 -3.67405 -16.3073
-0.751566 -1.81213 -16.2643
-1.48457 -1.63478 -15.9433
-1.38357 -1.76627 -15.9463
-0.632566 -1.97265 -16.3493
-3.19657 -0.236439 -16.2493
-3.91057 0.614361 -16.2053
-3.40957 -0.219839 -16.1503
-4.04657 0.619061 -16.1473
-4.98457 4.27826 -15.4773
-5.00657 5.34646 -14.7753
-4.38457 1.74756 -16.1463
-4.60657 1.75546 -16.0653
-5.00957 2.99386 -15.8493
-4.86857 3.00856 -15.8893
-5.21857 4.23236 -15.4323
-4.28257 6.56776 -12.5663
-4.80357 6.06036 -13.7663
-3.75757 6.88596 -11.2563
-3.30257 7.10376 -9.92032
-3.03357 7.20366 -9.91432
-2.35157 7.93466 -6.20632
-2.66757 7.69266 -6.81332
-2.85957 7.79956 -5.75832
-2.61257 7.45946 -8.71732
-3.08557 7.27806 -8.70932
-2.90457 7.46886 -7.65832
-3.37057 7.41046 -6.75832
-3.21957 7.58226 -6.12332
-2.89857 7.82396 -5.53432
-4.08857 7.32566 -5.46232
-4.29857 7.29556 -5.22432
-1.54457 8.41616 -5.55132
-4.26657 7.28486 -5.28332
-4.02257 7.12616 -6.14032
-4.26857 6.91056 -5.84832
-3.37257 7.00716 -9.94632
-3.34457 6.77806 -10.0313
-3.32657 6.98856 -8.79832
-3.55057 6.76616 -7.88432
-3.48257 7.13916 -7.68632
-3.31657 7.19046 -8.68532
-3.79757 6.97076 -6.90332
-3.72657 7.27206 -6.69432
-3.46157 7.24826 -7.62532
-3.37857 7.07446 -9.92032
-3.72057 6.76756 -11.2713
-4.20957 6.38556 -12.5773
-5.16857 5.29996 -14.7593
-5.10857 5.17636 -14.7273
-4.76857 5.98206 -13.7613
-4.91857 2.87426 -15.7323
-1.09457 -1.86708 -15.3803
-1.20157 -4.37503 -16.3623
-1.25957 -3.6676 -16.2033
-1.18857 -4.13098 -16.2353
0.343434 -4.67425 -17.1043
-1.11757 -4.52703 -16.3833
0.286434 -4.52835 -17.1033
-1.02657 -4.59056 -16.3443
0.348434 -4.73639 -17.0043
0.409434 -4.6978 -17.0293
-0.103566 -3.26395 -16.7173
-0.325566 -2.70842 -16.5923
0.098434 -3.80921 -16.8613
-4.59257 5.28876 -14.7623
-4.71957 4.26466 -15.4823
-2.26657 7.39066 -9.93232
-2.20157 7.08756 -10.0463
-2.84757 7.03936 -11.2463
-3.50457 6.57076 -12.5613
-4.18357 6.15066 -13.7663
-1.87057 7.46146 -8.85432
-1.69257 7.79296 -7.79832
-1.57457 8.21466 -5.76932
-1.61857 8.05336 -6.92932
-1.60057 7.70616 -7.12332
-1.58657 7.92916 -6.29132
-4.88157 5.03706 -7.00332
-3.64157 5.71906 -8.45932
-0.455566 -4.8008 -15.0723
-1.10957 -4.53726 -16.3043
-3.33757 7.29846 -7.63532
-4.44657 5.86706 -6.88832
-4.82457 5.70576 -6.35532
-4.54057 6.16866 -6.29832
-4.50357 6.54676 -5.84032
-4.19257 6.61936 -6.44132
-3.30457 6.43816 -10.1573
-3.34757 6.58416 -8.98632
-3.65257 6.21276 -8.17732
-3.96657 6.36356 -7.24932
-3.65457 6.52396 -11.3323
-4.69757 5.82456 -13.7513
-5.12657 4.07426 -15.3473
-3.95157 0.556061 -15.9833
-3.55357 0.554961 -16.1943
-4.51757 5.10546 -14.7143
-4.65357 4.13186 -15.4063
-4.06857 1.64646 -16.0363
-2.75757 6.71906 -11.3293
-3.41257 6.29386 -12.5933
-4.10657 5.94456 -13.7543
-1.79257 6.92206 -9.10532
-1.58357 6.55016 -8.44932
-1.64857 7.29276 -8.06032
-1.57757 7.35206 -6.79432
-1.56057 6.88746 -7.58232
-1.55257 6.33506 -7.38632
-1.56757 6.81696 -6.78232
-1.56957 7.37136 -6.27432
3 0 1 2
3 2 3 0
3 4 5 0
3 5 4 6
3 7 8 9
3 10 11 12
3 12 13 14
3 14 15 12
3 15 10 12
3 16 17 8
3 8 7 16
3 7 14 16
3 14 13 16
3 18 19 20
3 21 20 22
3 20 19 22
3 23 24 25
3 25 26 23
3 26 21 23
3 25 27 26
3 20 28 18
3 29 30 31
3 31 32 29
3 32 33 29
3 34 35 28
3 31 30 34
3 36 33 32
3 37 38 39
3 39 40 41
3 42 11 10
3 10 43 42
3 43 41 42
3 41 40 42
3 44 19 18
3 45 46 47
3 19 44 48
3 44 49 48
3 18 28 50
3 49 44 50
3 44 18 50
3 28 35 51
3 52 53 54
3 55 53 52
3 54 38 37
3 56 46 45
3 45 57 56
3 57 58 56
3 58 57 59
3 57 45 59
3 60 61 62
3 62 63 60
3 63 64 60
3 65 61 55
3 66 67 65
3 66 68 67
3 62 61 68
3 69 70 71
3 72 73 74
3 74 75 72
3 76 77 78
3 76 78 72
3 78 73 72
3 78 79 73
3 73 79 74
3 80 81 82
3 2 1 80
3 83 80 82
3 80 3 2
3 71 70 84
3 3 85 86
3 85 87 86
3 84 87 85
3 88 89 90
3 91 89 88
3 89 92 93
3 93 90 89
3 94 95 96
3 95 97 96
3 97 95 98
3 99 97 100
3 101 102 95
3 95 94 101
3 94 103 101
3 95 102 104
3 95 104 98
3 105 106 107
3 105 108 109
3 108 110 109
3 110 111 109
3 9 8 112
3 112 111 110
3 8 17 113
3 113 114 111
3 111 112 113
3 112 8 113
3 115 106 105
3 105 109 115
3 109 111 115
3 111 114 115
3 116 117 118
3 118 33 36
3 90 119 120
3 119 117 116
3 119 116 120
3 117 119 92
3 119 90 93
3 119 93 92
3 33 118 121
3 118 117 121
3 99 122 123
3 123 96 99
3 96 97 99
3 124 27 25
3 25 125 124
3 125 123 124
3 123 122 124
3 25 24 126
3 123 125 126
3 125 25 126
3 103 94 96
3 96 123 103
3 100 97 127
3 100 127 128
3 128 129 100
3 91 127 98
3 127 97 98
3 91 88 127
3 130 129 128
3 130 128 131
3 128 127 131
3 127 88 131
3 122 132 124
3 132 133 27
3 132 27 124
3 100 129 99
3 129 122 99
3 130 131 134
3 130 134 129
3 134 135 129
3 135 122 129
3 133 132 136
3 132 122 135
3 132 135 136
3 26 27 137
3 27 133 137
3 138 21 26
3 138 26 137
3 20 21 138
3 138 34 20
3 34 28 20
3 139 49 50
3 28 51 50
3 51 140 141
3 51 141 50
3 141 139 50
3 142 143 144
3 142 144 145
3 145 139 141
3 141 140 142
3 141 142 145
3 144 45 47
3 47 49 139
3 139 145 47
3 145 144 47
3 59 45 144
3 144 143 146
3 144 146 59
3 146 58 59
3 63 62 147
3 58 63 147
3 147 62 66
3 66 62 68
3 71 148 69
3 67 69 149
3 69 148 149
3 148 84 82
3 84 83 82
3 84 85 83
3 84 148 71
3 83 85 150
3 3 80 150
3 80 83 150
3 151 4 0
3 151 0 152
3 0 3 152
3 153 6 154
3 6 4 151
3 6 151 154
3 75 74 155
3 74 79 155
3 77 156 78
3 156 79 78
3 70 75 155
3 157 158 65
3 158 61 65
3 159 157 160
3 160 75 70
3 160 70 159
3 158 157 159
3 53 161 54
3 161 162 38
3 161 38 54
3 55 61 60
3 53 55 60
3 163 164 162
3 163 162 161
3 53 163 161
3 40 165 42
3 165 166 11
3 165 11 42
3 39 38 167
3 38 162 167
3 40 39 167
3 162 164 168
3 162 168 167
3 168 169 170
3 168 170 167
3 170 40 167
3 166 165 171
3 165 40 170
3 165 170 171
3 170 169 171
3 11 166 12
3 172 13 12
3 172 12 173
3 12 166 173
3 174 175 176
3 174 176 16
3 176 17 16
3 16 13 172
3 172 174 16
3 177 106 115
3 114 178 115
3 178 179 177
3 178 177 115
3 17 180 113
3 180 114 113
3 176 175 181
3 176 181 180
3 181 182 180
3 182 114 180
3 180 17 176
3 183 184 178
3 184 179 178
3 178 114 182
3 182 183 178
3 107 106 185
3 177 179 106
3 179 185 106
3 184 186 185
3 184 185 179
3 187 188 107
3 187 107 189
3 107 185 189
3 185 186 189
3 190 191 189
3 192 193 194
3 194 195 196
3 196 197 194
3 197 192 194
3 198 191 190
3 190 199 198
3 199 196 198
3 196 195 198
3 200 196 199
3 201 192 197
3 197 196 200
3 202 193 192
3 192 174 202
3 174 172 202
3 172 203 202
3 174 192 201
3 204 205 206
3 206 203 172
3 172 173 206
3 173 204 206
3 171 205 204
3 169 207 171
3 168 207 169
3 159 208 158
3 79 209 210
3 209 211 210
3 210 87 155
3 155 79 210
3 212 213 214
3 153 215 216
3 215 213 212
3 215 212 216
3 209 77 214
3 213 209 214
3 76 212 214
3 214 77 76
3 217 212 76
3 212 217 216
3 82 81 218
3 218 219 82
3 219 75 82
3 220 1 76
3 218 81 220
3 76 72 220
3 72 218 220
3 72 75 219
3 219 218 72
3 55 66 65
3 65 67 157
3 157 67 160
3 10 221 222
3 41 43 222
3 43 10 222
3 223 224 225
3 225 226 14
3 14 7 225
3 7 223 225
3 227 221 10
3 10 15 227
3 15 14 227
3 14 226 227
3 9 223 7
3 228 224 223
3 223 112 228
3 112 229 228
3 110 229 112
3 112 223 9
3 105 230 231
3 105 231 108
3 231 229 110
3 231 110 108
3 229 231 232
3 231 230 233
3 231 233 232
3 107 230 105
3 88 234 131
3 234 88 120
3 88 90 120
3 36 133 136
3 136 135 235
3 235 118 136
3 118 36 136
3 131 234 120
3 131 120 134
3 120 235 134
3 235 135 134
3 116 235 120
3 118 235 116
3 137 133 36
3 36 32 137
3 32 31 137
3 31 138 137
3 34 138 31
3 64 58 146
3 63 58 64
3 208 67 68
3 69 67 208
3 3 150 85
3 151 236 154
3 152 236 151
3 237 213 215
3 209 213 237
3 156 77 209
3 156 209 79
3 204 166 171
3 173 166 204
3 201 175 174
3 183 182 238
3 238 199 183
3 199 186 183
3 175 197 181
3 197 238 181
3 238 182 181
3 200 238 197
3 197 175 201
3 199 238 200
3 183 186 184
3 199 190 186
3 186 190 189
3 239 92 89
3 240 241 89
3 241 239 89
3 187 240 91
3 240 89 91
3 189 191 242
3 242 240 189
3 240 187 189
3 191 243 241
3 241 240 242
3 242 191 241
3 244 33 121
3 244 121 245
3 121 117 246
3 121 246 245
3 246 195 245
3 245 193 244
3 239 241 247
3 239 247 92
3 247 195 246
3 247 246 92
3 246 117 92
3 243 191 198
3 243 198 247
3 198 195 247
3 247 241 243
3 193 245 194
3 245 195 194
3 29 33 244
3 244 193 248
3 244 248 29
3 248 30 29
3 193 202 248
3 202 203 248
3 203 30 248
3 206 205 249
3 249 30 203
3 203 206 249
3 30 249 34
3 249 205 35
3 249 35 34
3 51 35 250
3 35 205 250
3 207 140 51
3 207 51 250
3 205 171 250
3 171 207 250
3 168 164 251
3 168 251 142
3 207 168 142
3 251 143 142
3 142 140 207
3 146 143 251
3 146 53 64
3 251 164 163
3 251 163 146
3 163 53 146
3 64 53 60
3 68 61 158
3 208 68 158
3 70 69 159
3 69 208 159
3 84 70 155
3 87 84 155
3 210 211 86
3 87 210 86
3 211 3 86
3 215 236 237
3 236 215 154
3 215 153 154
3 152 3 211
3 237 236 152
3 237 152 209
3 152 211 209
3 76 1 0
3 0 5 217
3 217 76 0
3 153 216 6
3 216 5 6
3 217 5 216
3 82 75 148
3 81 80 220
3 80 1 220
3 149 148 160
3 148 75 160
3 67 149 160
3 56 252 46
3 66 55 147
3 55 58 147
3 52 58 55
3 54 37 252
3 54 252 56
3 56 58 52
3 52 54 56
3 253 19 48
3 253 48 254
3 48 49 254
3 47 46 255
3 46 252 255
3 49 47 255
3 252 37 39
3 252 39 255
3 39 41 255
3 41 49 255
3 222 221 254
3 221 253 254
3 254 49 41
3 41 222 254
3 24 23 256
3 23 21 257
3 23 257 256
3 257 226 256
3 256 224 24
3 22 19 253
3 22 253 258
3 258 226 257
3 257 21 22
3 257 22 258
3 221 227 258
3 227 226 258
3 258 253 221
3 225 224 256
3 226 225 256
3 24 224 259
3 24 259 126
3 259 260 126
3 260 123 126
3 228 229 261
3 261 260 259
3 261 259 228
3 259 224 228
3 232 233 262
3 232 262 263
3 263 260 261
3 261 229 232
3 261 232 263
3 103 123 260
3 260 263 103
3 263 264 103
3 101 103 264
3 264 263 265
3 264 265 101
3 265 266 102
3 265 102 101
3 262 233 265
3 233 230 266
3 233 266 265
3 265 263 262
3 104 266 107
3 266 230 107
3 102 266 104
