OFF
296 577 0
-14.2038 -3.23733 5.79979
-13.8318 -1.86233 6.14479
-15.3248 -6.72093 4.43679
-13.8658 -1.98943 6.04379
-15.3268 -6.75133 4.37579
-13.7648 -1.63203 6.18879
-8.28783 -6.75453 2.56179
-7.92883 -6.79353 2.47279
-8.28283 -6.76503 2.58979
-6.82783 -2.97163 6.12279
-6.69683 -2.33693 6.12279
-7.19683 -4.16043 5.89079
-6.81583 -2.35983 6.11579
-7.11783 -3.45263 5.97279
-7.22183 -2.85813 6.13679
-7.62283 -2.49063 6.38779
-7.89883 -3.45263 6.24079
-8.30483 -4.86763 6.02579
-7.58383 -4.16043 5.95779
-7.94483 -5.46033 5.77879
-7.85083 -6.12503 5.62579
-7.50483 -4.86763 5.78879
-7.74383 -6.15593 5.63779
-7.70283 -6.16763 5.73879
-7.22383 -4.51403 6.00279
-7.29883 -1.59553 3.43379
-6.95183 -1.58893 3.32379
-6.83383 -1.60213 3.19579
-7.31183 -1.61193 3.40779
-7.28383 -1.59003 3.46679
-6.82783 -1.58563 3.27179
-7.63083 -5.84153 2.54979
-7.84883 -6.31443 2.51979
-7.62083 -5.07253 2.71179
-7.28483 -3.23733 2.99679
-7.32583 -4.15533 2.80479
-8.65583 -5.07253 3.03479
-7.79983 -4.15533 2.97379
-8.11883 -5.84153 2.69679
-8.28683 -3.23733 3.37079
-8.03683 -1.98943 3.59979
-7.47983 -2.46613 3.25279
-7.05583 -1.98943 3.18979
-7.02083 -2.46613 3.06079
-5.27883 -1.61923 6.85079
-5.91383 -2.95793 6.82879
-6.45983 -5.21743 6.58679
-6.75983 -6.74033 6.41379
-12.1858 -1.60353 9.82179
-5.67083 -1.59763 7.00879
-5.43883 -1.58893 6.83479
-12.2188 -1.64223 9.80679
-14.3078 -6.74853 8.34979
-13.1678 -4.15553 9.06979
-7.10983 -6.75563 6.49279
-6.81583 -6.87783 6.36079
-6.92683 -6.79343 6.39679
-7.10583 -6.52553 6.54179
-9.34383 -6.67793 7.09279
-7.34583 -5.46033 6.32779
-7.47183 -6.17253 6.52979
-6.96983 -4.16043 6.47779
-6.83183 -3.45263 6.37979
-7.34683 -5.16393 6.08679
-7.59283 -6.13093 6.06179
-6.68383 -3.50923 6.82179
-6.73383 -2.85813 6.27779
-6.51283 -2.39293 6.55079
-6.84883 -2.18433 6.68479
-6.60683 -2.18803 6.53979
-6.77583 -2.18273 6.86179
-6.98083 -2.19953 6.36879
-6.65883 -2.21133 6.16679
-6.91983 -2.18943 6.51179
-6.29683 -2.18713 6.96079
-13.0738 -5.46033 8.03279
-12.9018 -4.86763 8.00779
-12.5728 -4.16043 8.38479
-13.1748 -5.46033 7.66079
-13.4678 -6.16373 7.31679
-12.7248 -4.16013 7.87079
-12.4428 -3.50923 8.20179
-11.9718 -2.34433 8.61579
-12.3638 -3.45263 8.39579
-12.1568 -3.15543 8.73679
-8.00883 -6.17163 6.16779
-8.07883 -6.16673 5.90879
-7.11583 -1.78493 7.59179
-7.05983 -2.29503 6.22779
-7.02083 -2.21643 6.28179
-7.11983 -2.49063 6.18679
-12.0668 -2.39333 8.36979
-12.0048 -2.21343 8.34579
-11.9038 -2.21213 8.67679
-11.7058 -2.18823 9.17079
-6.88783 -1.67313 3.19279
-7.34083 -1.73583 3.37379
-7.96283 -1.63373 3.67079
-13.3818 -6.13093 7.66079
-13.2718 -6.17213 8.11579
-8.13083 -6.14493 5.69979
-8.13283 -6.13083 5.68679
-8.28283 -6.71133 2.55279
-7.80583 -6.72143 2.42279
-8.28783 -6.74393 2.55379
-14.1488 -6.76413 8.21779
-13.7438 -6.75783 8.18979
-15.1328 -6.76413 4.37979
-14.7628 -6.76413 4.25979
-14.7578 -6.76513 4.28379
-15.2938 -6.76073 4.37079
-11.5008 -6.66533 3.39779
-15.1388 -6.72033 4.32079
-12.8528 -6.56463 3.78479
-15.2928 -6.74393 4.35479
-14.6408 -5.07253 4.89279
-14.0048 -4.15533 5.08679
-14.5038 -5.84153 4.51879
-13.0618 -3.23733 5.14779
-13.5838 -5.07253 4.56279
-15.0168 -5.84153 4.67179
-14.5038 -4.15533 5.26379
-13.9888 -2.46613 5.85679
-13.7098 -1.98943 5.96379
-14.0868 -3.23733 5.52979
-13.5058 -2.46613 5.65679
-12.7078 -1.98943 5.54479
-13.2888 -1.73583 5.90479
-13.7348 -1.63393 6.15079
-12.6038 -1.63373 5.66379
-13.2468 -1.61193 5.95979
-13.7148 -1.59883 6.18479
-13.5608 -1.59223 6.17079
-13.2258 -1.59223 5.99979
-13.7268 -1.61193 6.23279
-13.2158 -1.59003 6.02279
-11.7028 -1.59003 9.53379
-11.6788 -1.59343 9.58279
-12.1788 -1.59963 9.77279
-11.9108 -1.79003 9.62379
-9.94183 -1.74253 8.80679
-11.7908 -2.18953 8.63479
-11.5428 -2.18943 8.40279
-11.3978 -2.18273 8.75279
-11.6048 -2.19953 8.25879
-11.8998 -2.85813 7.93879
-10.5498 -2.85813 7.41879
-11.2568 -2.49063 7.83479
-11.7678 -2.49063 8.03779
-11.6908 -2.29503 8.10479
-11.9808 -2.35823 8.19679
-11.6458 -2.21643 8.16879
-12.1198 -2.49063 8.24379
-11.5938 -3.45263 7.58779
-12.3818 -3.45263 7.89179
-12.3688 -4.16043 7.58579
-12.7348 -4.16043 7.77579
-13.4698 -6.15603 7.21679
-13.3598 -6.12563 7.14979
-12.8988 -4.86763 7.49779
-12.0908 -4.86763 7.22579
-12.8368 -5.46033 7.23379
-13.0788 -6.14493 7.06379
-13.0878 -6.13083 7.05579
-13.0478 -6.16433 7.19479
-13.0078 -6.16923 7.34479
-12.9328 -6.17203 7.62379
-10.1028 -6.56463 3.06279
-8.90483 -6.31443 2.80679
-13.9358 -6.31443 4.16779
-14.3238 -6.72663 8.32079
-13.4708 -5.35433 8.67079
-12.4268 -5.82503 6.98079
-11.6118 -6.01793 6.68379
-8.57883 -5.82503 5.88079
-9.51183 -6.01793 6.09679
-5.82183 -1.93543 7.00379
-6.10883 -2.10483 7.06279
-6.71783 -4.15943 6.84679
-5.98983 -2.03553 7.04279
-6.27483 -3.75833 6.79979
-6.64883 -4.55773 6.76479
-7.34083 -6.25353 6.62779
-7.23283 -6.34283 6.59879
-6.77083 -5.68893 6.59579
-9.19583 -6.42953 7.11179
-8.64383 -6.57023 6.93579
-13.7038 -6.42843 8.31079
-12.7868 -4.15783 8.93679
-12.9238 -4.15733 8.98579
-13.4978 -6.31703 8.28779
-13.3788 -6.25093 8.26879
-12.5458 -4.15943 8.83079
-12.6538 -4.15903 8.88279
-11.8088 -2.01763 9.47179
-12.4748 -2.74403 9.42879
-11.7248 -2.10153 9.38379
-10.8998 -1.82723 9.17979
-11.1128 -1.97403 9.20379
-13.7738 -6.76513 8.12079
-7.28983 -6.76513 6.45879
-14.9478 -6.56463 5.74579
-14.9598 -5.84153 5.07779
-15.0148 -6.31443 5.26379
-14.7748 -5.07253 5.15879
-14.4278 -4.15533 5.66179
-14.6108 -5.07253 5.68679
-13.8938 -2.46613 6.24679
-14.0138 -3.23733 6.31179
-13.3008 -1.73583 7.34279
-13.6078 -1.98943 6.73679
-12.0478 -1.59223 9.68179
-5.75783 -1.59123 7.01179
-5.77083 -1.59003 6.97779
-7.28183 -6.76393 6.49479
-13.7618 -6.76393 8.15679
-14.2948 -6.76093 8.25579
-13.6988 -5.07253 8.62879
-14.0638 -5.84153 8.21979
-13.1058 -3.73283 9.15579
-12.3808 -1.99053 9.67979
-12.3558 -1.73583 9.56279
-8.55983 -2.85813 6.65179
-9.43683 -2.49063 7.10979
-8.38383 -2.29503 6.76479
-9.32583 -2.21643 7.22179
-10.3548 -2.29503 7.56379
-9.74283 -3.45263 6.91379
-8.95183 -4.16043 6.42279
-10.9878 -4.16043 7.11579
-11.4248 -5.46033 6.81379
-10.4998 -5.82503 6.42979
-10.1938 -4.86763 6.62479
-9.34383 -5.46033 6.19479
-11.5838 -6.42953 7.74679
-10.4208 -6.52793 7.41279
-10.3358 -6.25253 7.44179
-10.3578 -6.33263 7.44079
-12.2328 -6.57023 7.87579
-10.4858 -6.72063 7.37679
-12.3668 -6.68513 7.87379
-11.5178 -6.72943 3.38379
-9.94483 -5.84153 3.21779
-11.4158 -6.31443 3.48579
-12.6608 -5.84153 3.99279
-11.1148 -5.07253 3.79779
-12.2138 -4.15533 4.47779
-9.57383 -4.15533 3.57879
-11.7658 -2.46613 4.96279
-10.6708 -3.23733 4.25779
-9.20283 -2.46613 3.93979
-10.3678 -1.98943 4.57079
-11.5718 -1.73583 5.17479
-9.04183 -1.73583 4.09779
-10.2788 -1.63373 4.66579
-8.69483 -1.64853 8.30679
-8.78183 -1.82723 8.28379
-9.92283 -1.92563 8.72779
-7.71483 -1.92563 7.80079
-8.89083 -2.10263 8.21279
-8.85583 -2.02253 8.23979
-7.40383 -6.20493 6.62879
-6.19683 -2.15293 7.06179
-6.84183 -4.16003 6.81679
-6.24983 -2.17513 7.03379
-6.66883 -2.18273 7.12279
-9.83483 -2.15063 8.55879
-11.2908 -2.18273 9.01479
-11.6818 -2.17463 9.26079
-11.6908 -2.15023 9.32379
-12.2248 -3.50923 8.82979
-13.2978 -6.20383 8.23979
-13.2658 -6.18023 8.19379
-12.4668 -4.16003 8.73179
-7.44383 -6.18063 6.59679
-10.3258 -6.20453 7.42679
-14.5938 -6.56463 7.09279
-14.3478 -6.31443 7.73279
-13.8608 -5.07253 8.10479
-12.9538 -3.23733 9.16179
-13.3878 -4.15533 8.71479
-13.6868 -4.15533 7.83679
-12.7098 -2.46613 9.21179
-12.6538 -1.98943 9.02879
-13.1418 -3.23733 8.65479
-12.7478 -1.63373 8.56179
-14.3218 -5.84153 7.31579
-14.6808 -6.31443 6.49879
-14.7018 -5.84153 5.98479
-14.2358 -5.07253 6.89679
-14.1268 -4.15533 6.54279
-13.0508 -2.46613 8.35879
-13.5518 -2.46613 7.10279
-13.5778 -3.23733 7.48379
-13.1298 -1.98943 7.88279
-12.7728 -1.73583 8.58279
3 0 1 2
3 3 4 5
3 4 2 5
3 6 7 8
3 9 10 11
3 10 12 13
3 10 13 11
3 14 15 16
3 16 17 18
3 16 18 14
3 18 13 14
3 13 12 14
3 17 19 18
3 19 20 21
3 19 21 18
3 21 13 18
3 22 23 24
3 22 24 11
3 24 9 11
3 11 13 21
3 21 20 22
3 21 22 11
3 25 26 27
3 27 28 25
3 26 25 29
3 27 26 30
3 31 32 33
3 33 34 35
3 33 35 31
3 36 37 38
3 37 34 33
3 37 33 38
3 33 32 38
3 39 40 41
3 41 42 34
3 34 37 41
3 37 36 39
3 37 39 41
3 35 34 43
3 34 42 43
3 44 45 46
3 44 46 47
3 48 44 49
3 49 44 50
3 48 51 52
3 53 48 52
3 47 54 55
3 54 56 55
3 57 58 47
3 59 60 61
3 61 62 63
3 61 63 59
3 63 64 59
3 61 65 62
3 9 24 66
3 24 62 66
3 62 67 66
3 24 23 63
3 63 62 24
3 68 69 70
3 71 72 69
3 71 69 73
3 69 68 73
3 74 69 72
3 75 76 77
3 78 79 80
3 80 81 78
3 81 76 78
3 81 82 83
3 83 76 81
3 77 76 83
3 83 82 84
3 83 84 77
3 85 23 86
3 23 22 86
3 87 45 44
3 62 65 74
3 67 62 74
3 72 10 67
3 67 74 72
3 9 66 67
3 67 10 9
3 72 12 10
3 88 12 72
3 88 72 89
3 72 71 89
3 15 14 90
3 14 12 90
3 12 88 90
3 88 15 90
3 81 80 91
3 81 91 82
3 82 91 92
3 82 92 93
3 94 82 93
3 5 2 1
3 43 42 95
3 40 96 41
3 96 42 41
3 97 28 95
3 28 27 95
3 95 42 96
3 96 97 95
3 98 99 79
3 98 75 99
3 100 22 20
3 100 20 101
3 60 59 64
3 23 64 63
3 23 60 64
3 47 46 57
3 102 103 7
3 102 7 104
3 7 6 104
3 52 105 106
3 107 108 109
3 108 107 110
3 111 112 113
3 4 114 110
3 115 116 117
3 116 118 119
3 116 119 117
3 120 4 3
3 3 121 120
3 121 115 120
3 122 123 124
3 124 115 121
3 124 121 122
3 121 3 122
3 125 126 118
3 118 116 125
3 116 115 124
3 116 124 125
3 124 123 125
3 123 127 125
3 127 126 125
3 122 3 128
3 3 5 128
3 123 122 128
3 127 123 128
3 127 128 129
3 128 130 129
3 130 128 131
3 131 132 133
3 128 5 131
3 131 5 134
3 133 132 135
3 132 136 135
3 137 138 48
3 51 48 138
3 48 139 140
3 141 142 143
3 94 93 141
3 93 92 141
3 141 92 144
3 141 144 142
3 145 146 147
3 145 147 148
3 147 149 148
3 149 150 148
3 150 145 148
3 144 92 151
3 92 150 149
3 92 149 151
3 91 80 152
3 150 92 152
3 92 91 152
3 153 146 145
3 145 150 154
3 154 155 145
3 155 153 145
3 80 156 152
3 156 154 152
3 154 150 152
3 80 79 157
3 157 158 159
3 159 154 156
3 159 156 157
3 156 80 157
3 160 155 161
3 155 154 159
3 155 159 161
3 159 158 161
3 158 157 162
3 158 162 163
3 157 79 164
3 164 79 165
3 79 166 165
3 99 166 79
3 103 32 31
3 167 168 102
3 168 32 103
3 168 103 102
3 38 32 168
3 117 119 169
3 113 112 169
3 112 117 169
3 114 117 112
3 4 120 114
3 120 115 117
3 120 117 114
3 51 170 52
3 171 53 52
3 98 76 75
3 98 79 78
3 78 76 98
3 172 160 161
3 172 161 163
3 161 158 163
3 163 173 172
3 174 175 19
3 20 19 101
3 19 175 101
3 87 176 45
3 177 178 179
3 45 176 180
3 178 181 179
3 181 180 179
3 180 176 179
3 178 182 183
3 181 178 183
3 46 180 184
3 180 181 184
3 184 181 57
3 57 181 183
3 185 57 183
3 185 186 57
3 171 187 188
3 188 189 171
3 190 191 192
3 190 192 193
3 188 187 190
3 188 190 193
3 194 139 188
3 188 193 194
3 193 192 194
3 189 188 195
3 188 139 195
3 194 192 196
3 197 140 139
3 198 197 139
3 139 194 198
3 196 198 194
3 199 8 200
3 8 7 200
3 2 201 202
3 201 203 202
3 204 2 202
3 204 205 0
3 0 2 204
3 202 206 204
3 206 205 204
3 207 0 208
3 0 205 208
3 0 207 1
3 207 209 1
3 210 209 207
3 1 209 5
3 211 138 136
3 136 138 137
3 212 50 213
3 49 50 212
3 56 54 214
3 56 214 200
3 215 105 199
3 106 105 215
3 105 52 216
3 217 218 170
3 219 217 170
3 51 220 170
3 220 219 170
3 219 220 221
3 51 221 220
3 143 142 68
3 144 73 142
3 73 68 142
3 144 71 73
3 143 68 70
3 222 15 223
3 15 88 224
3 15 224 223
3 89 71 144
3 144 225 89
3 225 224 89
3 224 88 89
3 151 149 226
3 226 224 225
3 226 225 151
3 225 144 151
3 147 146 223
3 146 222 223
3 223 224 226
3 226 149 147
3 226 147 223
3 16 15 222
3 222 227 16
3 227 228 16
3 228 17 16
3 153 155 229
3 229 228 227
3 229 227 153
3 227 222 146
3 227 146 153
3 230 231 232
3 230 232 160
3 232 228 229
3 232 229 160
3 229 155 160
3 233 19 17
3 17 228 233
3 228 232 233
3 232 231 233
3 174 19 233
3 231 175 233
3 175 174 233
3 230 160 172
3 173 231 172
3 231 230 172
3 175 231 173
3 173 101 175
3 173 163 101
3 163 162 100
3 163 100 101
3 164 22 157
3 22 100 157
3 100 162 157
3 164 86 22
3 164 165 86
3 165 85 86
3 165 166 85
3 185 234 235
3 185 235 186
3 183 182 236
3 236 237 183
3 237 234 185
3 237 185 183
3 236 191 190
3 190 187 234
3 234 237 190
3 237 236 190
3 235 234 238
3 234 187 238
3 52 106 54
3 47 58 239
3 52 54 47
3 239 240 52
3 47 239 52
3 200 214 215
3 215 199 200
3 214 54 106
3 106 215 214
3 8 199 109
3 109 108 8
3 6 8 110
3 8 108 110
3 167 102 111
3 102 241 111
3 241 102 104
3 6 110 114
3 114 112 241
3 241 104 114
3 104 6 114
3 241 112 111
3 242 38 168
3 168 167 242
3 167 243 242
3 111 243 167
3 113 243 111
3 169 119 244
3 243 113 244
3 113 169 244
3 36 38 242
3 242 243 245
3 242 245 36
3 245 246 247
3 245 247 36
3 119 118 246
3 246 245 119
3 245 243 244
3 245 244 119
3 118 126 248
3 118 248 246
3 248 249 246
3 250 40 39
3 39 36 247
3 39 247 250
3 247 246 249
3 247 249 250
3 249 248 250
3 250 248 251
3 250 251 40
3 251 252 253
3 251 253 40
3 253 96 40
3 126 127 252
3 252 251 126
3 251 248 126
3 130 254 129
3 254 252 129
3 252 127 129
3 130 28 97
3 97 96 253
3 253 252 254
3 253 254 97
3 254 130 97
3 25 28 130
3 25 130 131
3 133 25 131
3 29 25 133
3 133 135 29
3 136 29 135
3 136 212 213
3 137 49 212
3 212 136 137
3 137 48 49
3 48 255 44
3 256 257 258
3 256 258 87
3 258 176 87
3 197 198 257
3 257 256 197
3 256 140 197
3 198 196 259
3 198 259 260
3 257 198 260
3 259 177 179
3 179 176 258
3 258 257 260
3 258 260 179
3 260 259 179
3 45 180 46
3 57 46 184
3 186 58 57
3 58 240 239
3 186 235 58
3 238 240 58
3 58 235 238
3 238 187 240
3 240 187 52
3 52 187 171
3 171 189 53
3 53 189 195
3 48 53 195
3 48 195 139
3 255 48 140
3 140 256 255
3 255 256 87
3 255 87 44
3 261 182 178
3 178 262 261
3 262 263 261
3 262 264 263
3 263 264 65
3 263 65 60
3 65 61 60
3 65 264 74
3 262 178 177
3 70 69 74
3 70 74 265
3 74 264 265
3 259 196 266
3 143 265 267
3 265 268 267
3 265 264 268
3 265 143 70
3 262 177 259
3 262 259 266
3 268 264 262
3 268 262 266
3 268 94 267
3 94 141 143
3 94 143 267
3 266 196 269
3 268 266 269
3 196 192 269
3 270 84 82
3 270 82 94
3 268 270 94
3 192 191 271
3 271 272 273
3 273 269 271
3 269 192 271
3 99 75 77
3 77 270 99
3 270 273 99
3 273 272 99
3 270 268 273
3 270 77 84
3 273 268 269
3 99 272 274
3 274 60 99
3 60 166 99
3 271 191 236
3 236 275 271
3 275 274 271
3 274 272 271
3 236 182 261
3 236 261 275
3 261 274 275
3 85 166 60
3 60 23 85
3 261 263 274
3 274 263 60
3 52 4 216
3 170 2 52
3 276 170 218
3 218 277 276
3 218 278 277
3 217 279 280
3 217 280 218
3 280 281 278
3 280 278 218
3 279 219 221
3 217 219 279
3 282 283 284
3 284 281 280
3 284 280 282
3 280 279 282
3 279 221 282
3 282 221 283
3 138 134 285
3 221 51 285
3 51 138 285
3 136 213 29
3 200 7 56
3 199 105 107
3 107 109 199
3 107 105 216
3 107 216 110
3 216 4 110
3 52 2 4
3 170 276 2
3 201 2 276
3 277 278 286
3 277 286 276
3 286 287 276
3 287 201 276
3 288 202 203
3 201 287 203
3 287 286 288
3 287 288 203
3 206 202 288
3 288 286 289
3 289 290 288
3 290 205 206
3 290 206 288
3 278 281 286
3 281 289 286
3 284 283 291
3 291 292 293
3 293 289 281
3 293 281 291
3 281 284 291
3 292 207 208
3 208 205 290
3 208 290 292
3 290 289 293
3 290 293 292
3 210 207 292
3 292 294 210
3 294 295 209
3 294 209 210
3 283 221 295
3 295 294 283
3 294 292 291
3 294 291 283
3 295 221 285
3 134 5 285
3 5 209 285
3 209 295 285
3 136 132 211
3 134 138 131
3 138 211 131
3 211 132 131
3 30 26 50
3 50 26 29
3 50 29 213
