0.30432
0.176433
0.33552
0.301675
0.522746
0.567202
0.477002
0.497061
0.486804
0.72575
0.663646
0.637754
0.667749
0.538686
0.540184
0.582468
0.634785
0.70256
0.660572
0.545966
0.537928
0.535257
0.566784
0.603562
0.563278
0.568919
0.500147
0.547645
0.478479
0.535464
0.533892
0.58655
0.496622
0.621025
0.479748
0.594201
0.734588
0.726573
0.707722
0.687189
0.629506
0.512195
0.633101
0.642045
0.659209
0.726131
0.620963
0.658614
0.52235
0.578447
0.714032
0.716467
0.566211
0.585961
0.610446
0.454603
0.557649
0.533944
0.538508
0.477121
0.464803
0.476492
0.536435
0.764356
0.696307
0.655652
0.544038
0.56085
0.608061
0.585625
0.580953
0.682069
0.654432
0.579842
0.630286
0.543435
0.554703
0.678458
0.598987
0.554793
0.562553
0.540284
0.540243
0.573609
0.526612
0.464716
0.54691
0.568039
0.474316
0.716204
0.759386
0.755582
0.67739
0.515963
0.48924
0.542519
0.571177
0.717013
0.607919
0.695977
0.614011
0.543438
0.533454
0.673596
0.661615
0.541318
0.602795
0.554912
0.558366
0.548011
0.712777
0.730569
0.793887
0.817245
0.755635
0.701902
0.915057
0.800676
0.828596
0.798305
0.751639
0.864713
0.801336
0.717945
0.817898
0.850431
0.885575
0.8325
0.721221
0.789897
0.800595
0.772048
0.813451
0.791405
0.203015
0.261623
0.207054
0.28559
0.360019
0.219062
0.441041
0.244798
0.22863
0.726491
0.695612
0.607718
0.655804
0.840804
0.876891
0.65023
0.487248
0.480792
0.511195
0.528844
0.537035
0.575527
0.597552
0.593534
0.487449
0.518673
0.570066
0.489571
0.547976
0.550393
0.528318
0.543907
0.727119
0.763664
0.682352
0.673113
0.615706
0.7347
0.662273
0.789803
0.545545
0.710416
0.632619
0.687013
0.598256
0.804943
0.740736
0.457565
0.473043
0.295826
0.565277
0.723324
0.611409
0.615041
0.501299
0.535528
0.488479
0.538579
0.587044
0.562048
0.401093
0.498898
0.432896
0.557295
0.730727
0.723145
0.712904
0.577291
0.435655
0.562293
0.752008
0.651543
0.653605
0.657104
0.557361
0.571165
0.581657
0.654442
0.664036
0.474106
0.546405
0.508981
0.532883
0.447108
0.462351
0.537531
0.500798
0.551762
0.511952
0.704789
0.63934
0.652898
0.554302
0.622347
0.550571
0.652996
0.644772
0.718998
0.603048
0.615977
0.6674
0.541215
0.702624
0.718495
0.396478
0.65913
0.521128
0.595245
0.721298
0.629655
0.644167
0.493208
0.550411
0.4398
0.563792
0.495289
0.673666
0.83382
0.466556
0.785251
0.732674
0.704703
0.652435
0.694693
0.721988
0.717777
0.694167
0.666873
0.749927
0.700947
0.723324
0.762069
0.868933
0.562284
0.573096
0.484544
0.599468
0.47766
0.622479
0.646887
0.583234
0.609185
0.588726
0.61039
0.598841
0.531588
0.715221
0.833578
0.828709
0.865501
0.838704
0.767508
0.698925
0.702733
0.847329
0.827512
0.606079
0.628408
0.590136
0.610702
0.61963
0.663504
0.529552
0.560987
0.536957
0.544952
0.569194
0.596967
0.501214
0.559198
0.494514
0.55913
0.618149
0.553223
0.572307
0.558021
0.548042
0.520666
0.717336
0.741371
0.695034
0.672731
0.61048
0.602201
0.625725
0.624928
0.644175
0.720181
0.705548
0.641873
0.55092
0.507573
0.697955
0.708941
0.55682
0.534088
0.524971
0.534143
0.535933
0.630758
0.6038
0.545457
0.46868
0.524012
0.463172
0.455283
0.564968
0.577222
0.532703
0.773849
0.650593
0.587416
0.715979
0.557349
0.443516
0.643745
0.577309
0.737764
0.830575
0.58268
0.644058
0.596111
0.604641
0.781541
0.587337
0.560013
0.532048
0.563361
0.560224
0.556895
0.575766
0.551543
0.56538
0.558604
0.558212
0.577735
0.524153
0.56822
0.64815
0.556282
0.616719
0.579753
0.631919
0.884802
0.903147
0.907701
0.793379
0.8557
0.89253
0.960306
0.744357
0.691031
0.751938
0.765684
0.878181
0.832705
0.757664
0.776519
0.734858
0.568796
1
0.937287
0.848336
0.813886
0.784425
0.788045
0.812244
0.786628
0.687252
0.933714
0.858858
0.823082
0.776241
0.755915
0.82575
0.751036
0.81093
0.774362
0.85467
0.961433
0.737102
0.591606
0.690925
0.730488
0.740714
0.746905
0.655053
0.739704
0.71285
0.610635
0.956164
0.750174
0.906865
0.724652
0.664529
0.7857
0.863444
0.844441
0.871484
0.784466
0.796165
0.872803
0.852566
0.796145
0.78701
0.794521
0.758366
0.763724
0.861864
0.820516
0.796723
0.688938
0.698797
0.61464
0.709865
0.655098
0.64705
0.784743
0.559008
0.696862
0.745624
0.760151
0.724268
0.720376
0.71351
0.423796
0.668713
0.859314
0.758749
0.771602
0.767275
0.789893
0.841299
0.765961
0.6805
0.803719
0.786842
0.857458
0.812859
0.788852
0.887012
0.857622
0.807524
0.707834
0.723065
0.699377
0.8217
0.792701
0.740539
0.576686
0.626819
0.775432
0.522937
0.751948
0.852176
0.780269
0.730669
0.785192
0.806514
0.778388
0.943163
0.745036
0.84278
0.77236
0.857032
0.772731
0.749235
0.791163
0.853455
0.874829
0.901488
0.948587
0.56025
0.563715
0.552865
0.595902
0.549654
0.657634
0.592724
0.654483
0.669435
0.629839
0.568681
0.59569
0.555993
0.556923
0.72205
0.708024
0.72805
0.861009
0.788922
0.550122
0.675081
0.736857
0.660268
0.655072
0.561422
0.593619
0.644147
0.526425
0.497933
0.580175
0.564611
0.57741
0.595039
0.565629
0.552223
0.585756
0.620654
0.607402
0.559878
0.598637
0.544698
0.592823
0.60996
0.734999
0.823145
0.619566
0.687378
0.713711
0.783414
0.730951
0.644954
0.431407
0.37674
0.500929
0.565303
0.512472
0.563393
0.545584
0.499698
0.529361
0.48173
0.480743
0.59496
0.519976
0.510033
0.623554
0.584117
0.551587
0.613706
0.566833
0.491099
0.667317
0.619329
0.677992
0.576671
0.45865
0.491275
0.556168
0.620014
0.745083
0.732163
0.644763
0.675798
0.622376
0.591384
0.822669
0.810179
0.483631
0.53165
0.521336
0.56252
0.580284
0.551658
0.610949
0.5652
0.515815
0.535055
0.534008
0.575947
0.619209
0.606426
0.524564
0.561848
0.808135
0.887409
0.687456
0.626353
0.607552
0.688709
0.580746
0.597555
0.499839
0.524103
0.576583
0.427749
0.481687
0.551385
0.504065
0.485533
0.433803
0.415087
0.446012
0.492724
0.49174
0.488736
0.506778
0.54746
0.520328
0.53684
0.449939
0.478496
0.564733
0.530972
0.464993
0.49145
0.605237
0.543151
0.546037
0.530622
0.52647
0.535091
0.545918
0.549821
0.535606
0.548446
0.47449
0.459213
0.458776
0.458496
0.533635
0.50935
0.361067
0.467474
0.459597
0.446527
0.463956
0.456695
0.39842
0.394328
0.460323
0.450681
0.47451
0.491867
0.460144
0.475275
0.441372
0.446289
0.53704
0.503379
0.525242
0.499353
0.479715
0.543826
0.526593
0.558522
0.3918
0.471995
0.524452
0.596229
0.522684
0.511992
0.388215
0.449772
0.457941
0.46757
0.512987
0.551143
0.510135
0.473428
0.470387
0.384124
0.555331
0.461872
0.399753
0.464631
0.285448
0.519505
0.488106
0.419743
0.506637
0.574944
0.515183
0.382659
0.524538
0.55756
0.552684
0.539974
0.524067
0.529216
0.535496
0.518251
0.489613
0.518578
0.416905
0.510269
0.436304
0.46665
0.444221
0.509023
0.522044
0.442941
0.444089
0.477274
0.435115
0.432562
0.453699
0.487034
0.442834
0.465264
0.581185
0.525586
0.505532
0.503499
0.496569
0.504689
0.694251
0.691341
0.589022
0.65659
0.590828
0.666911
0.423779
0.692225
0.566616
0.567076
0.598955
0.604852
0.562194
0.613553
0.570976
0.58457
0.600215
0.631542
0.654183
0.58045
0.555417
0.619049
0.573656
0.593181
0.733245
0.663366
0.666747
0.670925
0.621051
0.687794
0.614851
0.727906
0.6273
0.609212
0.721058
0.667016
0.688295
0.559364
0.582367
0.490633
0.617332
0.642462
0.619982
0.623632
0.629169
0.531327
0.521628
0.559988
0.550946
0.609494
0.550016
0.530667
0.546813
0.69488
0.637727
0.640028
0.630437
0.619631
0.669972
0.567797
0.679317
0.61592
0.600552
0.644901
0.492381
0.62821
0.560142
0.567559
0.558604
0.575733
0.526598
0.56482
0.618367
0.499197
0.552924
0.540329
0.561325
0.58803
0.535385
0.573205
0.601842
0.533843
0.537368
0.487732
0.649618
0.606089
0.527183
0.509714
0.658135
0.631235
0.663081
0.669039
0.733443
0.627626
0.724437
0.60607
0.634261
0.589589
0.644895
0.575445
0.583709
0.544525
0.54887
0.579994
0.639067
0.594793
0.588046
0.531276
0.566932
0.639776
0.650392
0.616098
0.593755
0.587337
0.541064
0.658039
0.637162
0.649636
0.68159
0.650857
0.567458
0.516505
0.529994
0.549073
0.539413
0.526825
0.52957
0.49336
0.490899
0.506334
0.509496
0.561668
0.538342
0.464818
0.516943
0.513913
0.537309
0.533937
0.523184
0.547363
0.500263
0.495326
0.486846
0.574366
0.56728
0.52554
0.493476
0.504577
0.451277
0.558316
0.56446
0.50821
0.52912
0.502521
0.554413
0.513615
0.457041
0.484142
0.46567
0.42119
0.454751
0.498856
0.449485
0.480093
0.41374
0.50073
0.541579
0.45018
0.430653
0.474153
0.447511
0.48396
0.548402
0.539304
0.520625
0.546357
0.521822
0.518008
0.53904
0.543523
0.522881
0.505991
0.511615
0.530841
0.489612
0.528538
0.54497
0.552572
0.450382
0.455895
0.560543
0.421261
0.502158
0.479023
0.527104
0.50125
0.394094
0.410819
0.503715
0.492846
0.509527
0.55578
0.523752
0.537846
0.512109
0.573353
0.522873
0.5399
0.547085
0.556313
0.558226
0.556586
0.53432
0.476935
0.529785
0.4791
0.506073
0.496495
0.402952
0.485142
0.450453
0.483599
0.45294
0.460901
0.483246
0.503695
0.48835
0.420153
0.446391
0.4742
0.496478
0.45815
0.471764
0.450296
0.52445
0.540214
0.505908
0.544755
0.496571
0.484894
0.470564
0.513446
0.37985
0.424318
0.5046
0.389167
0.45431
0.517825
0.469973
0.451604
0.477112
0.498075
0.533856
0.442192
0.486737
0.397752
0.487948
0.509895
0.428146
0.455254
0.4299
0.505471
0.478936
0.420563
0.465419
0.438254
0.479023
0.474028
0.433947
0.37059
0.37742
0.483366
0.441069
0.366937
0.419679
0.41281
0.403226
0.440874
0.456084
0.393442
0.351719
0.403526
0.399274
0.406184
0.442798
0.443318
0.439776
0.333
0.406565
0.422825
0.373301
0.429394
0.439538
0.428034
0.412986
0.40178
0.460285
0.428447
0.445056
0.449181
0.50531
0.386548
0.447627
0.400463
0.501473
0.416429
0.510152
0.333602
0.344608
0.497779
0.331046
0.324809
0.43105
0.457071
0.411256
0.435388
0.33394
0.331729
0.463811
0.317941
0.576665
0.456255
0.399609
0.449548
0.474258
0.515911
0.542057
0.461139
0.541994
0.390022
0.457924
0.400899
0.444699
0.408314
0.450337
0.445978
0.462863
0.512237
0.400963
0.382937
0.407959
0.400205
0.339489
0.406996
0.332104
0.38509
0.41456
0.396614
0.366608
0.464134
0.500446
0.484495
0.429803
0.442334
0.413671
0.459749
0.415184
0.426636
0.570123
0.52511
0.556251
0.590132
0.532318
0.548283
0.595585
0.572784
0.492017
0.60124
0.512403
0.586459
0.504972
0.554121
0.53442
0.452741
0.412789
0.573581
0.572922
0.557504
0.544153
0.523643
0.43004
0.486673
0.586979
0.590283
0.555682
0.543933
0.48628
0.50843
0.572353
0.595119
0.507118
0.485473
0.488545
0.501804
0.515346
0.429166
0.512472
0.556174
0.401815
0.549013
0.505814
0.489231
0.440133
0.51868
0.500755
0.503986
0.490891
0.533694
0.549331
0.478186
0.505231
0.517308
0.497839
0.509618
0.474647
0.560195
0.512836
0.520419
0.510211
0.46285
0.517671
0.500697
0.522949
0.265714
0.470705
0.49171
0.559112
0.55314
0.529192
0.415146
0.531517
0.376008
0.568644
0.448447
0.499874
0.434824
0.453731
0.383306
0.312941
0.528388
0.533345
0.582564
0.615837
0.511651
0.490164
0.493555
0.465219
0.550866
0.359927
0.564438
0.478499
0.503374
0.392808
0.326038
0.513529
0.481383
0.498388
0.47725
0.545578
0.537453
0.503083
0.521604
0.472074
0.521639
0.522304
0.538991
0.509646
0.428308
0.433363
0.326075
0.451282
0.485362
0.441086
0.462063
0.502917
0.501215
0.398228
0.411884
0.40614
0.473572
0.461192
0.467512
0.507243
0.541547
0.478299
0.46738
0.470908
0.364396
0.439101
0.360018
0.399416
0.358202
0.48495
0.505078
0.415347
0.475202
0.421173
0.483656
0.449508
0.443227
0.42996
0.407453
0.466164
0.46483
0.41156
0.320995
0.451648
0.37462
0.435119
0.405853
0.386459
0.373903
0.389397
0.48618
0.420956
0.41016
0.380285
0.400933
0.409535
0.449274
0.446669
0.400775
0.414515
0.411028
0.422956
0.418062
0.441979
0.446968
0.476898
0.481931
0.353937
0.490329
0.491552
0.506567
0.380433
0.363482
0.317148
0.56204
0.455928
0.335094
0.503548
0.458746
0.359434
0.473574
0.459132
0.299611
0.377022
0.486986
0.469981
0.522601
0.389987
0.404052
0.423606
0.42102
0.474049
0.402495
0.432924
0.414856
0.409073
0.442773
0.425948
0.447912
0.38308
0.460791
0.460979
0.391926
0.424749
0.414647
0.408043
0.460808
0.376562
0.365698
0.355718
0.418313
0.366973
0.388471
0.478812
0.453304
0.415475
0.444458
0.408834
0.422609
0.343664
0.445622
0.0985626
0.134202
0.0769503
0.26439
0.0852652
0.242387
0.2032
0.127245
0.315326
0.311383
0.0744608
0.23222
0.0566121
0.330408
0.329007
0.3701
0.11431
0.116384
0.127723
0.205113
0.368617
0.457307
0.319022
0.184569
0.230563
0.133637
0.417024
0.0513817
0.206534
0.454354
0.0999581
0.317914
0.312794
0.0438589
0.113238
0.214152
0.104249
0.146227
0.0710815
0.0633762
0.109589
0.273208
0.34817
0.092134
0.0711615
0.119192
0.140832
0.344449
0.253857
0.0698241
0.200716
0.122846
0.245252
0.500237
0.451811
0.384738
0.482099
0.459554
0.462626
0.500335
0.480433
0.450832
0.446419
0.449119
0.410289
0.448583
0.460466
0.457438
0.490597
0.462532
0.484077
0.455016
0.452943
0.480695
0.428432
0.477726
0.496453
0.488865
0.491213
0.388696
0.442566
0.487589
0.564785
0.373069
0.417186
0.487061
0.555275
0.571631
0.585557
0.500908
0.425738
0.515284
0.487397
0.506007
0.451126
0.424054
0.443606
0.464049
0.472692
0.484645
0.351504
0.472257
0.462014
0.458609
0.489556
0.488946
0.454303
0.476706
0.470936
0.47939
0.421921
0.593524
0.376626
0.384231
0.448318
0.522228
0.447359
0.484103
0.559976
0.426175
0.520232
0.475759
0.442471
0.44122
0.528484
0.444906
0.422025
0.457621
0
0.30454
0.235725
0.455741
0.0934657
0.127965
0.221841
0.223388
0.441342
0.151302
0.219059
0.25973
0.446635
0.196771
0.134386
0.13406
0.145878
0.521359
0.537318
0.500152
0.465558
0.552544
0.453117
0.568618
0.543285
0.507512
0.614887
0.519971
0.546753
0.566655
0.510868
0.526732
0.552005
0.568857
0.457118
0.557408
0.424308
