0.514713
0.340156
0.274621
0.32869
0.538397
0.769451
0.656895
0.605224
0.389095
0.622335
0.215279
0.467918
0.432789
0.797453
0.352719
0.405551
0.925681
0.271999
0.325649
0.555783
0.433303
0.577004
0.88432
0.547934
0.546581
0.323321
0.531707
0.574518
0.463613
0.999136
0.292035
0.461311
0.649733
0.422963
0.606302
0.492593
0.66641
0.385929
0.549134
0.473476
0.9259
0.393391
0.661763
0.543555
0.353611
0.412138
0.852444
0.67463
0.17275
0.0426484
0.664456
0.436009
0.821962
0.528679
0.569072
0.549241
0.704251
0.430837
0.258775
0.351411
0.433006
0.323451
0.647611
0.858657
0.716805
0.423483
0.390629
0.707608
0.676206
0.791539
0.744812
0.903188
0.53787
0.420978
0.684461
0.805289
0.378966
0.512611
0.801966
0.157239
0.773317
0.863891
0.790665
0.87741
0.654651
0.718227
0.766399
0.383137
0.708987
0.646801
1
0.855913
0.678946
0.865833
0.329108
0.788482
0.425905
0.599995
0.397501
0.821698
0.695481
0.790443
0.657618
0.404084
0.744638
0.758721
0.890979
0.373227
0.779696
0.766888
0.764663
0.798972
0.673092
0.819014
0.482222
0.654606
0.849026
0.793835
0.668072
0.438759
0.376776
0.825135
0.828258
0.946376
0.456468
0.788083
0.516094
0.742059
0.655202
0.895148
0.829585
0.86754
0.669353
0.432286
0.292187
0.6025
0.744297
0.774708
0.529494
0.4093
0.650593
0.774235
0.827771
0.776456
0.756801
0.491911
0.755304
0.408561
0.630263
0.712807
0.620493
0.701816
0.857436
0.629302
0.805129
0.754434
0.647237
0.810543
0.6249
0.748128
0.379677
0.938623
0.687431
0.770767
0.399859
0.480938
0.787669
0.536075
0.603148
0.647527
0.752058
0.62401
0.630054
0.810881
0.745811
0.564989
0.788552
0.696356
0.603785
0.772066
0.813833
0.344653
0.663146
0.670129
0.677932
0.827652
0.518342
0.399476
0.762279
0.649266
0.369645
0.87285
0.31263
0.321931
0.602909
0.610011
0.605694
0.700615
0.587309
0.554403
0.396319
0.61366
0.562162
0.516147
0.66784
0.59849
0.458285
0.558224
0.403352
0.488552
0.630702
0.458179
0.537797
0.574244
0.427757
0.649245
0.224646
0.44769
0.710936
0.732341
0.372674
0.388701
0.205004
0.26422
0.699012
0.511556
0.470328
0.575431
0.593902
0.757271
0.667824
0.69784
0.181022
0.268361
0.392644
0.226513
0.459707
0.674982
0.540751
0.215012
0.360119
0.430185
0.603191
0.576448
0.722142
0.397667
0.672674
0.525045
0.531156
0.854252
0.65355
0.667156
0.487728
0.702251
0.412906
0.560486
0.668846
0.703138
0.490234
0.382992
0.373445
0.57554
0.69177
0.580971
0.378583
0.154141
0.286143
0.345801
0.552841
0.327877
0.283152
0.595801
0.284951
0.186291
0.600866
0.606816
0.43488
0.595657
0.54361
0.147529
0.73011
0.73301
0.616778
0.67816
0.389762
0.569429
0.311639
0.530853
0.648436
0.657233
0.591268
0.399775
0.569101
0.258636
0.746971
0.64489
0.406454
0.494569
0.270276
0.479528
0.353534
0.405856
0.216754
0.64438
0.288823
0.171788
0.36682
0.314146
0.360537
0.432854
0.113995
0.316932
0.791896
0.629963
0.811067
0.66984
0.382012
0.497446
0.67357
0.466837
0.149972
0.412822
0.288538
0.164034
0.295168
0.328596
0.321807
0.268343
0.344912
0.160856
0.529758
0.531707
0.521055
0.488812
0.220894
0.399603
0.480311
0.417771
0.270184
0.555058
0.28849
0.407995
0.592653
0.297263
0.19316
0.370603
0.549496
0.596575
0.618813
0.28943
0.106188
0.482939
0.642893
0.268319
0.121727
0.197631
0.109318
0.0440679
0.407431
0.366907
0.276111
0.236731
0.205551
0.353766
0.0933844
0.214681
0.100536
0.0978452
0.251455
0.210095
0.170283
0.107644
0.267094
0.121371
0.402401
0.150557
0.0968489
0.102739
0.386648
0.0496289
0.266618
0.0549713
0.177005
0.116684
0.456976
0.407491
0.0127678
0.540084
0.248697
0.427491
0.487353
0.585073
0.343001
0.608622
0.325466
0.223487
0.228916
0.403034
0.268967
0.426838
0.196625
0.486207
0.057417
0.0545535
0.253198
0.429172
0.425778
0.440308
0.342125
0.358773
0.50229
0.383317
0.590146
0.182573
0.120442
0.495381
0.229917
0.0974398
0.162555
0
0.0382706
0.0747103
0.222532
0.129162
0.289674
0.226695
0.34151
0.156445
0.101483
0.0777604
0.130434
0.0828698
0.202306
0.216361
0.132388
0.111442
0.114914
0.0941261
0.323474
0.144248
0.141012
0.0977788
0.315807
0.284527
0.053935
0.259051
0.0758203
0.190979
