OFF
189 368 0
9.23674 -13.4288 8.25508
9.31174 -12.8071 8.47058
9.11974 -13.383 8.71928
9.05074 -13.8015 8.36938
8.88574 -13.8687 8.54608
8.81874 -13.3014 8.86518
8.59574 -12.8093 8.88648
8.50673 -13.3335 8.76958
8.65274 -13.8016 8.60028
8.35874 -13.3664 8.60188
8.30074 -13.3925 8.38358
8.31274 -13.3656 8.11868
8.51674 -13.7571 8.31058
8.53474 -13.4356 7.90788
8.76474 -13.8455 8.15698
8.73874 -13.4258 7.85228
8.89074 -12.9261 7.71788
9.05074 -13.3937 7.94818
5.59574 -2.27909 5.55148
7.36074 -2.6833 5.63258
5.61774 -2.81179 5.01008
6.79774 -2.51719 6.30838
5.55274 -2.23549 5.82188
5.34474 -2.89669 6.43928
7.17074 -2.76429 6.59528
7.35074 -3.40109 5.36048
5.47974 -3.46099 5.22168
9.09173 -2.95549 6.53308
9.04774 -2.90669 6.77208
9.61773 -3.13899 7.18658
9.69374 -3.25999 6.87038
10.1107 -3.47939 7.57468
10.1417 -3.74289 7.23368
9.11474 -3.09069 6.30858
10.4057 -3.88619 8.17128
10.7007 -4.5066 8.54618
10.7397 -4.5877 8.37248
10.4967 -4.08859 7.86148
10.6927 -4.76899 8.20998
10.5697 -4.90699 8.13168
10.3637 -4.37499 7.63928
10.0657 -3.96059 7.09038
9.67474 -3.63859 6.55818
9.08774 -3.5074 6.03408
9.11374 -3.2841 6.13128
8.88474 -3.24429 7.26448
8.79274 -3.5548 7.29848
9.36174 -3.61139 7.67098
9.91273 -3.9442 8.22038
9.84074 -3.63339 7.99858
9.51873 -3.24449 7.48928
10.3617 -4.62859 8.81068
10.2077 -3.99029 8.40128
10.5887 -4.49339 8.69308
9.99374 -3.47569 7.81368
8.98474 -2.97269 6.99288
8.62574 -4.068 6.69028
8.54574 -4.09409 6.37148
9.33574 -4.2246 7.04398
9.70674 -4.3342 7.54298
9.67673 -4.0779 7.90378
9.29074 -3.97979 7.47898
8.76474 -3.8552 7.14918
10.1907 -4.9746 8.50058
9.98274 -4.38279 8.30408
10.0017 -4.58569 7.98888
10.2357 -4.7591 8.72898
9.00874 -3.81379 6.06848
9.59873 -4.01559 6.63808
9.94474 -4.15809 7.08108
10.3457 -5.0305 8.23998
10.1617 -4.57979 7.74878
9.78773 -4.29709 7.21228
8.89573 -4.0758 6.32928
10.9387 -5.34109 8.88768
11.0657 -6.29079 9.11228
11.0707 -6.3054 8.95368
10.9027 -5.4149 8.59098
11.0927 -7.28509 9.23288
10.9127 -8.2323 9.32838
10.9207 -8.2451 9.06228
11.0107 -7.29149 8.96348
10.7817 -8.29159 8.90818
10.6117 -8.3173 8.85698
10.8457 -7.41299 8.88168
10.8207 -6.4996 8.75818
10.9727 -6.43829 8.81518
10.7657 -5.6445 8.51798
10.5017 -5.47019 9.11118
10.7047 -5.34339 9.08998
10.7327 -6.3338 9.36068
10.9727 -6.28419 9.25088
10.6657 -7.33149 9.48348
10.6337 -8.2564 9.50478
10.8877 -7.2963 9.45638
10.4017 -5.6916 8.74478
10.3747 -5.58789 8.92308
10.5387 -6.5504 8.90408
10.4857 -6.496 9.15608
10.4827 -7.4342 9.09488
10.3407 -8.33669 9.02798
10.3327 -8.31969 9.29688
10.4947 -7.3798 9.31398
10.4657 -8.28139 9.45278
10.5787 -6.38379 9.30058
10.5287 -5.71979 8.59748
10.6637 -7.4364 8.91148
10.6177 -9.0568 9.08338
10.1417 -9.736 8.96698
10.0477 -9.8532 8.58118
10.5007 -9.07909 8.80218
9.73174 -10.2055 8.80418
9.12973 -10.9679 8.13018
9.35774 -10.4902 8.12378
9.83174 -9.78599 8.46398
10.3277 -9.1025 8.71048
10.2447 -9.07699 9.35728
10.4307 -9.06059 9.32328
9.87574 -9.73209 9.14388
8.88173 -10.7631 8.64578
9.01574 -10.9478 8.41168
9.96474 -9.11779 8.97888
9.56474 -9.78949 8.63118
9.56474 -9.7709 8.91308
10.0797 -9.0912 9.26668
9.03574 -10.3792 8.39758
9.03074 -10.4023 8.66888
9.69274 -9.7613 9.07648
10.1447 -9.1172 8.74268
9.00074 -10.8021 7.88438
9.18174 -10.3806 8.22198
9.26873 -11.7854 8.35918
9.23974 -11.7716 7.99488
8.98474 -11.5187 7.67768
8.82874 -11.9083 7.57468
8.64573 -11.3714 7.54208
8.50473 -10.9381 8.54358
8.80474 -10.9799 8.56648
8.51974 -11.7862 8.79298
8.86174 -11.7063 8.77158
9.14774 -11.6829 8.55168
8.22574 -11.0938 8.06278
8.24973 -11.3592 8.51858
8.08774 -11.3905 8.05878
8.43974 -11.1289 7.69888
8.26373 -11.4189 7.69798
9.31674 -12.5298 8.20538
9.23573 -12.9509 8.02998
9.07073 -12.4417 7.75208
8.79673 -12.4882 8.88448
9.03474 -12.8717 8.82498
9.20473 -12.4861 8.64778
8.11773 -12.3742 8.05028
8.12174 -12.4377 8.30238
8.19674 -12.3156 8.53398
8.35573 -12.373 8.74468
8.64074 -12.4855 7.61978
8.41074 -12.4007 7.68838
8.23474 -12.4826 7.85518
7.39374 -2.5527 5.89338
7.35674 -2.51219 6.16538
8.33673 -2.71189 6.45578
8.38074 -2.75699 6.19998
8.40474 -2.89569 5.96038
8.38774 -3.33649 5.66938
8.40773 -3.0987 5.77188
7.36974 -3.14319 5.33698
7.64974 -2.94519 5.51788
6.92974 -2.82399 5.34778
8.34074 -3.57949 5.68798
8.27874 -3.79729 5.80298
7.26774 -3.6266 5.47768
8.21274 -3.95899 5.99018
7.04874 -3.86699 5.90728
7.23774 -3.80449 5.68038
5.38774 -3.61769 5.58668
7.13074 -3.8457 6.19188
7.12374 -3.71429 6.45158
5.32074 -3.44339 6.11038
8.08473 -3.85929 6.72718
8.10274 -3.4275 7.02478
8.08174 -3.66229 6.92008
7.09174 -3.26119 6.74858
7.09974 -3.5083 6.64458
8.14974 -3.18149 7.00408
8.21074 -2.95779 6.88448
7.16974 -3.0088 6.73248
7.97174 -2.7223 6.58738
5.34574 -3.57829 5.85608
3 0 1 2
3 0 2 3
3 2 4 3
3 5 6 7
3 5 7 8
3 7 9 8
3 4 2 5
3 4 5 8
3 10 11 12
3 11 13 14
3 11 14 12
3 14 4 8
3 14 8 12
3 8 9 10
3 8 10 12
3 15 16 17
3 15 17 14
3 17 0 3
3 17 3 14
3 3 4 14
3 14 13 15
3 18 19 20
3 21 22 23
3 23 24 21
3 20 25 26
3 27 28 29
3 27 29 30
3 29 31 30
3 31 32 30
3 30 33 27
3 34 35 36
3 34 36 37
3 37 32 31
3 31 34 37
3 38 39 40
3 38 40 37
3 40 41 32
3 40 32 37
3 37 36 38
3 42 43 44
3 44 33 30
3 44 30 42
3 30 32 42
3 32 41 42
3 45 46 47
3 47 48 49
3 49 50 47
3 50 45 47
3 48 51 52
3 51 53 52
3 49 48 52
3 53 35 34
3 34 31 54
3 54 49 52
3 54 52 34
3 52 53 34
3 29 28 55
3 29 55 50
3 55 45 50
3 50 49 54
3 54 31 29
3 54 29 50
3 56 57 58
3 59 60 61
3 59 61 58
3 61 62 56
3 61 56 58
3 63 64 65
3 64 60 59
3 64 59 65
3 66 51 48
3 66 48 64
3 48 60 64
3 64 63 66
3 47 46 62
3 47 62 61
3 60 48 47
3 60 47 61
3 67 43 42
3 67 42 68
3 42 41 69
3 42 69 68
3 39 70 71
3 39 71 40
3 71 69 40
3 69 41 40
3 70 63 65
3 70 65 71
3 65 59 72
3 65 72 71
3 72 69 71
3 58 57 73
3 58 73 72
3 73 67 68
3 73 68 72
3 68 69 72
3 72 59 58
3 36 35 74
3 74 75 76
3 76 77 74
3 77 36 74
3 78 79 80
3 80 81 78
3 81 76 78
3 76 75 78
3 82 83 84
3 82 84 81
3 84 85 86
3 84 86 81
3 86 76 81
3 81 80 82
3 87 39 38
3 87 38 77
3 38 36 77
3 77 76 86
3 86 85 87
3 86 87 77
3 51 88 89
3 88 90 89
3 90 91 89
3 89 53 51
3 92 93 94
3 93 79 94
3 94 91 90
3 90 92 94
3 78 75 91
3 91 94 78
3 94 79 78
3 74 35 53
3 53 89 74
3 89 91 74
3 91 75 74
3 63 95 96
3 95 97 98
3 95 98 96
3 99 100 101
3 99 101 102
3 98 97 99
3 98 99 102
3 103 93 92
3 92 90 104
3 104 98 102
3 104 102 92
3 102 101 103
3 102 103 92
3 88 51 66
3 66 63 96
3 66 96 88
3 96 98 104
3 96 104 88
3 104 90 88
3 85 97 105
3 85 105 87
3 105 70 39
3 105 39 87
3 84 83 106
3 83 100 106
3 106 97 85
3 85 84 106
3 97 106 99
3 106 100 99
3 95 63 70
3 95 70 105
3 97 95 105
3 80 79 107
3 107 108 109
3 109 110 107
3 110 80 107
3 111 112 109
3 109 108 111
3 113 114 109
3 109 112 113
3 115 83 82
3 115 82 110
3 82 80 110
3 109 114 115
3 109 115 110
3 93 116 117
3 116 118 117
3 118 108 117
3 117 79 93
3 119 120 111
3 111 108 118
3 118 119 111
3 120 112 111
3 79 117 107
3 117 108 107
3 101 100 121
3 121 122 123
3 123 124 121
3 124 101 121
3 123 122 125
3 123 125 126
3 119 118 127
3 119 127 126
3 127 123 126
3 116 93 103
3 116 103 124
3 103 101 124
3 124 123 127
3 127 118 116
3 127 116 124
3 83 115 128
3 115 114 128
3 114 122 128
3 128 100 83
3 113 129 130
3 130 122 114
3 114 113 130
3 122 130 125
3 100 128 121
3 128 122 121
3 112 131 132
3 132 129 112
3 133 134 135
3 135 129 133
3 129 132 133
3 113 112 129
3 119 136 137
3 137 120 119
3 136 138 139
3 136 139 137
3 140 131 112
3 140 112 120
3 137 139 140
3 137 140 120
3 126 125 141
3 136 126 141
3 142 136 141
3 142 141 143
3 142 138 136
3 119 126 136
3 129 135 144
3 144 130 129
3 145 144 135
3 143 141 144
3 143 144 145
3 141 125 130
3 141 130 144
3 131 1 146
3 131 146 132
3 146 147 132
3 147 146 0
3 146 1 0
3 16 148 17
3 148 147 17
3 147 0 17
3 134 133 148
3 133 132 148
3 132 147 148
3 148 16 134
3 138 6 149
3 138 149 139
3 149 150 139
3 5 2 150
3 150 149 5
3 149 6 5
3 1 151 2
3 151 150 2
3 139 150 151
3 139 151 140
3 151 1 131
3 151 131 140
3 143 152 153
3 154 142 143
3 154 143 153
3 9 154 153
3 9 153 10
3 153 152 11
3 153 11 10
3 6 155 7
3 155 154 9
3 155 9 7
3 138 142 155
3 142 154 155
3 155 6 138
3 135 134 156
3 134 16 156
3 157 145 135
3 157 135 156
3 13 157 156
3 13 156 15
3 156 16 15
3 11 152 158
3 158 157 13
3 158 13 11
3 152 143 145
3 152 145 158
3 145 157 158
3 159 22 160
3 161 28 27
3 161 27 162
3 27 33 163
3 27 163 162
3 163 19 159
3 163 159 162
3 159 160 161
3 159 161 162
3 44 43 164
3 44 164 165
3 164 166 167
3 164 167 165
3 167 19 163
3 167 163 165
3 163 33 44
3 163 44 165
3 19 167 168
3 167 166 168
3 164 43 67
3 164 67 169
3 67 170 169
3 170 171 25
3 170 25 169
3 25 166 164
3 25 164 169
3 73 57 172
3 57 173 174
3 57 174 172
3 174 171 170
3 174 170 172
3 170 67 73
3 170 73 172
3 173 175 174
3 176 175 173
3 177 178 176
3 56 62 179
3 179 177 176
3 179 176 56
3 176 173 57
3 176 57 56
3 62 46 180
3 62 180 181
3 180 182 183
3 180 183 181
3 183 177 179
3 183 179 181
3 179 62 181
3 183 178 177
3 180 46 45
3 180 45 184
3 45 185 184
3 185 24 186
3 185 186 184
3 186 182 180
3 186 180 184
3 55 28 161
3 55 161 187
3 161 160 187
3 187 24 185
3 185 45 55
3 185 55 187
3 160 22 21
3 24 187 21
3 187 160 21
3 20 166 25
3 25 171 26
3 174 175 26
3 26 171 174
3 178 188 176
3 188 175 176
3 183 182 23
3 23 178 183
3 23 182 186
3 186 24 23
3 22 159 18
3 159 19 18
3 168 166 20
3 20 19 168
