OFF
264 511 0
-7.12121 14.5182 -13.8094
-6.99121 13.978 -13.4364
-6.70521 14.6601 -13.4464
-6.95121 14.8739 -13.8094
-6.65721 14.9867 -13.7774
-6.67421 15.051 -14.1554
-6.96621 14.9217 -14.2894
-7.14521 14.5597 -14.1344
-6.20221 14.5346 -13.4384
-5.89221 14.459 -13.7014
-6.28421 14.9279 -13.9804
-5.88321 14.461 -14.1754
-5.84821 13.7158 -14.6844
-6.18421 14.3129 -14.6794
-6.49521 14.8492 -14.5024
-6.58621 14.3954 -14.7634
-7.03821 14.2416 -14.4344
-2.50221 1.80449 -13.7394
-2.44621 1.82629 -13.5994
-2.95321 3.15019 -14.2734
-3.01121 3.12759 -14.4174
-3.60321 4.34129 -14.7684
-3.67021 4.30809 -14.9684
-2.98621 3.08429 -14.6504
-2.46721 1.75739 -13.9944
-4.25121 5.45609 -15.0164
-4.87821 6.52839 -15.1114
-4.94621 6.49629 -15.3124
-4.34121 5.42729 -15.2054
-4.31521 5.38339 -15.4424
-4.82121 6.42629 -15.6684
-4.11821 5.32319 -15.7224
-3.54221 4.23209 -15.3204
-2.78921 3.01899 -14.9204
-2.33121 1.71519 -14.1894
-1.95021 1.82009 -13.4844
-1.80421 1.79949 -13.5554
-2.29021 3.12249 -14.2274
-2.44121 3.14379 -14.1534
-2.87421 4.29879 -14.7764
-3.14821 4.34159 -14.6284
-2.71621 3.15999 -14.1434
-2.13221 1.83249 -13.4694
-3.56521 5.41399 -15.0434
-4.14621 6.48729 -15.1204
-4.35421 6.52179 -14.9894
-3.86121 5.45329 -14.9134
-4.67121 6.53919 -14.9874
-3.46021 4.35049 -14.6734
-2.31021 1.83509 -13.5084
-1.73621 1.72599 -13.9444
-1.90121 1.68489 -14.2164
-2.33421 3.01449 -14.8494
-2.21121 3.05189 -14.5974
-3.03021 4.19449 -15.4184
-2.85721 4.23619 -15.1314
-3.68621 5.30509 -15.6924
-4.24521 6.38959 -15.7004
-4.12821 6.42309 -15.4764
-3.52321 5.34899 -15.3884
-1.73321 1.77229 -13.6864
-2.21521 3.09439 -14.3634
-2.15821 1.67779 -14.2764
-3.30321 4.19659 -15.4864
-2.51821 2.99999 -14.9744
-4.62921 6.39039 -15.8124
-4.41021 6.37689 -15.8224
-3.89821 5.30159 -15.7784
-5.31021 7.61739 -14.9394
-5.62321 9.17229 -14.3074
-5.59521 8.62549 -14.7354
-5.31021 7.55919 -15.2864
-5.85821 10.5097 -13.5664
-5.85521 10.239 -13.8814
-5.83221 10.1341 -14.1234
-5.71821 10.1597 -14.3464
-5.38021 8.67829 -15.1584
-5.52821 8.66879 -14.9904
-5.15421 7.50889 -15.5254
-4.56021 7.58989 -14.8874
-4.85621 7.62919 -14.7574
-4.90021 8.65179 -14.4264
-5.31721 8.68009 -14.4004
-4.90821 9.53729 -14.0724
-5.05121 10.2468 -13.5734
-5.22721 9.58259 -13.9304
-5.51221 9.99329 -13.7314
-5.13321 7.63559 -14.8054
-4.67921 7.47749 -15.5374
-4.51821 7.52589 -15.2324
-4.97821 9.11619 -14.8784
-4.76321 8.56009 -14.8994
-4.96021 10.4585 -14.1324
-4.86321 9.46659 -14.4454
-4.86521 10.3107 -13.8004
-4.75921 8.61179 -14.6204
-4.95021 7.47919 -15.6274
-5.09821 8.66439 -15.1994
-5.42621 10.1105 -14.5414
-5.18221 10.0984 -14.5044
-6.40921 11.5041 -13.7514
-5.96921 10.7554 -13.9094
-6.45021 11.6025 -13.4194
-6.23321 11.4246 -13.1094
-6.44621 11.8581 -14.1814
-6.26721 11.9202 -14.4964
-5.74521 10.7256 -14.2364
-4.81721 11.0476 -13.1774
-5.28521 11.1311 -12.9164
-4.91921 11.4266 -13.0234
-5.36821 12.0446 -12.8774
-5.60121 11.4867 -12.8434
-6.18321 12.0788 -12.9334
-5.83621 11.198 -12.9734
-4.74721 11.3059 -13.6294
-4.92721 11.3672 -14.1744
-4.87621 11.9429 -13.3374
-5.49621 10.7831 -14.3924
-5.23421 10.6612 -14.3394
-5.95521 11.7558 -14.6414
-5.70321 11.8614 -14.7084
-5.38121 11.7316 -14.6014
-6.62121 12.4484 -13.1774
-6.92721 12.9657 -13.5624
-6.85021 13.2322 -13.2784
-6.86521 12.7603 -13.9294
-7.11821 13.9305 -13.7214
-7.12321 13.9233 -14.0664
-6.69721 13.3668 -14.6554
-6.82021 13.0562 -14.3354
-5.14321 12.3866 -13.0764
-5.38821 13.1711 -13.1784
-5.72521 13.2316 -13.0164
-6.14221 13.2733 -12.9834
-5.89721 12.4626 -12.8774
-5.67521 13.8677 -13.3344
-5.99121 13.9641 -13.1904
-6.37521 14.0432 -13.1644
-6.71921 13.9945 -13.2404
-6.54421 13.2658 -13.0724
-5.35921 12.5614 -14.5204
-5.21321 12.7506 -14.2064
-5.07521 12.6854 -13.8064
-5.54921 13.8811 -14.0754
-5.53621 13.8644 -13.6134
-5.22721 13.1222 -13.4804
-6.32121 12.9469 -14.7994
-6.19921 13.501 -14.8744
-6.53121 13.705 -14.8124
-5.73621 12.9224 -14.7594
-1.82121 -4.02081 -9.32641
-1.62421 -4.06721 -9.36541
-1.59421 -2.76581 -10.6414
-1.81221 -2.72331 -10.5854
-1.55121 -1.27041 -11.7634
-1.73821 -1.24801 -11.6854
-1.59021 0.293292 -12.7344
-1.72721 0.312692 -12.6674
-1.89921 0.324492 -12.6534
-2.19521 0.318592 -12.7764
-2.06721 0.326892 -12.6904
-2.12421 -1.24951 -11.8054
-2.00221 -1.23801 -11.7264
-2.15421 -2.75451 -10.6904
-2.21121 -4.07311 -9.43341
-2.08621 -4.02911 -9.36941
-2.03521 -2.73251 -10.6194
-2.26721 -4.14851 -9.53141
-2.20521 -2.79581 -10.8004
-2.18221 -1.28601 -11.9704
-2.19821 -2.84671 -10.9274
-2.26321 -4.23851 -9.64141
-2.24721 0.297992 -12.9084
-2.22521 0.257992 -13.1194
-2.04721 0.185692 -13.3584
-1.96621 -1.44971 -12.3154
-2.10921 -1.34121 -12.2054
-2.09521 -2.96771 -11.0864
-2.12021 -4.39551 -9.80941
-2.21021 -4.32651 -9.74141
-2.00121 -4.42901 -9.82341
-1.88421 -3.00971 -11.1604
-1.72721 -1.41231 -12.3684
-1.79121 -4.44531 -9.73941
-1.79921 0.184692 -13.4184
-1.59421 0.197492 -13.2584
-1.58621 -1.38281 -12.2744
-1.65221 -2.95211 -11.0944
-1.58621 -4.30981 -9.62141
-1.55021 -2.89561 -10.9584
-1.48821 -1.35361 -12.0894
-1.51621 -2.85041 -10.8414
-1.53321 -4.14641 -9.45341
-1.51321 0.239992 -13.0114
-1.52221 0.267692 -12.8584
-1.48621 -1.29841 -11.8744
-1.52821 -2.80491 -10.7294
-1.23721 -6.24711 -5.17441
-0.930207 -6.88311 -3.02241
-0.756207 -7.17201 -2.83941
-1.10221 -6.45501 -5.07141
-0.677207 -7.54731 -2.64041
-1.04721 -6.71481 -4.96641
-1.25021 -6.11061 -6.39741
-1.29221 -5.91591 -6.44141
-1.40421 -5.75951 -6.49041
-1.07321 -6.98951 -4.89641
-0.815207 -8.35731 -2.32041
-1.17921 -7.24201 -4.89741
-1.37121 -6.50311 -6.40641
-1.27721 -6.31561 -6.37841
-1.53821 -5.54291 -8.05041
-1.45721 -5.41991 -7.99341
-1.42821 -5.28421 -7.95841
-1.54721 -5.04901 -7.93441
-1.45621 -5.15441 -7.94041
-2.14621 -6.34341 -5.35841
-2.05521 -7.03311 -3.27741
-1.80321 -6.77911 -3.25341
-1.95121 -6.17261 -5.31541
-1.70521 -6.10581 -5.27041
-1.80921 -5.64771 -6.55141
-2.02221 -5.69841 -6.58441
-2.19021 -5.82421 -6.63341
-1.20421 -6.71421 -3.15641
-1.45321 -6.12821 -5.23941
-1.59021 -5.66901 -6.52341
-1.82121 -4.96021 -7.94941
-2.21821 -5.08191 -8.03641
-2.07521 -5.00081 -7.98041
-2.04521 -7.47261 -5.47141
-1.94721 -8.62091 -3.31941
-2.12021 -8.30141 -3.42741
-2.18721 -7.24231 -5.50941
-2.20221 -7.93091 -3.25341
-2.26821 -6.60191 -6.13341
-2.21721 -6.49371 -6.83341
-2.09421 -6.66671 -6.83041
-2.18521 -7.42661 -3.33941
-2.27321 -6.02821 -6.70841
-2.28521 -5.21551 -8.12241
-2.28621 -5.37241 -8.21441
-2.12521 -5.63941 -8.32441
-2.22921 -5.52341 -8.29041
-1.10221 -8.57111 -2.65441
-1.36621 -7.43521 -5.00441
-1.38321 -8.70691 -2.89641
-1.59721 -7.55041 -5.16941
-1.72021 -6.72911 -6.62941
-1.52821 -6.64541 -6.50241
-1.83621 -7.56911 -5.34141
-1.91921 -6.74061 -6.75041
-1.98221 -5.69111 -8.29541
-1.82221 -5.68671 -8.22441
-1.66721 -5.63461 -8.13541
-0.917207 -8.64911 -2.07041
-1.33021 -8.74991 -2.19441
-2.02421 -8.53691 -2.41541
-1.68121 -8.76181 -3.07941
-1.70521 -8.75201 -2.16941
-2.41221 -7.37351 -2.70841
-2.27721 -8.14721 -2.42941
-0.699207 -8.07141 -2.35041
-1.51021 -6.68311 -3.18841
3 0 1 2
3 0 2 3
3 2 4 3
3 4 5 6
3 4 6 3
3 6 7 0
3 6 0 3
3 8 9 10
3 9 11 10
3 10 5 4
3 4 2 8
3 4 8 10
3 11 12 13
3 11 13 14
3 13 15 14
3 14 5 10
3 10 11 14
3 15 16 6
3 16 7 6
3 6 5 14
3 14 15 6
3 17 18 19
3 17 19 20
3 19 21 22
3 19 22 20
3 22 23 20
3 23 24 17
3 23 17 20
3 25 26 27
3 25 27 28
3 27 29 28
3 29 22 28
3 22 21 25
3 22 25 28
3 30 31 29
3 31 32 29
3 32 22 29
3 29 27 30
3 33 34 24
3 33 24 23
3 23 22 32
3 32 33 23
3 35 36 37
3 35 37 38
3 37 39 40
3 37 40 38
3 40 41 38
3 41 42 35
3 41 35 38
3 43 44 45
3 43 45 46
3 45 47 46
3 40 39 43
3 40 43 46
3 47 26 25
3 25 21 48
3 48 40 46
3 48 46 25
3 46 47 25
3 19 18 49
3 19 49 41
3 49 42 41
3 41 40 48
3 48 21 19
3 48 19 41
3 50 51 52
3 50 52 53
3 52 54 55
3 52 55 53
3 56 57 58
3 56 58 59
3 55 54 56
3 55 56 59
3 39 55 59
3 39 59 43
3 59 58 44
3 59 44 43
3 37 36 60
3 37 60 61
3 60 50 53
3 60 53 61
3 53 55 39
3 53 39 61
3 39 37 61
3 62 34 33
3 33 32 63
3 63 64 33
3 64 62 33
3 31 30 65
3 65 66 67
3 65 67 31
3 67 63 31
3 63 32 31
3 66 57 56
3 54 63 67
3 54 67 56
3 67 66 56
3 52 51 64
3 51 62 64
3 64 63 54
3 54 52 64
3 27 26 68
3 68 69 70
3 70 71 68
3 71 27 68
3 69 72 73
3 74 70 73
3 70 69 73
3 75 76 77
3 77 70 74
3 74 75 77
3 78 30 71
3 30 27 71
3 71 70 77
3 77 76 78
3 77 78 71
3 45 44 79
3 45 79 80
3 79 81 80
3 81 82 80
3 80 47 45
3 83 84 85
3 84 86 85
3 85 82 81
3 81 83 85
3 86 72 69
3 69 82 86
3 82 85 86
3 68 26 47
3 68 47 87
3 47 80 87
3 80 82 87
3 82 69 68
3 82 68 87
3 58 57 88
3 58 88 89
3 88 90 91
3 88 91 89
3 90 92 93
3 92 94 93
3 91 90 93
3 94 84 83
3 83 81 95
3 95 91 93
3 95 93 83
3 93 94 83
3 44 58 89
3 44 89 79
3 89 91 95
3 89 95 79
3 95 81 79
3 65 30 78
3 65 78 96
3 78 76 96
3 76 97 96
3 96 66 65
3 76 75 98
3 98 97 76
3 99 92 90
3 90 97 99
3 97 98 99
3 88 57 66
3 66 96 88
3 96 97 88
3 97 90 88
3 72 100 101
3 101 74 73
3 101 73 72
3 100 72 102
3 72 103 102
3 104 105 106
3 104 106 101
3 100 104 101
3 106 75 101
3 75 74 101
3 84 107 108
3 108 86 84
3 109 110 108
3 110 111 108
3 108 107 109
3 112 103 113
3 113 108 111
3 111 112 113
3 72 86 113
3 86 108 113
3 113 103 72
3 92 114 94
3 114 92 115
3 116 109 107
3 114 116 107
3 107 84 94
3 94 114 107
3 98 75 106
3 117 118 106
3 118 98 106
3 106 105 119
3 106 119 117
3 119 120 117
3 121 115 118
3 115 92 118
3 117 120 121
3 117 121 118
3 92 99 118
3 99 98 118
3 102 103 122
3 102 122 123
3 122 124 123
3 125 100 102
3 125 102 123
3 1 0 126
3 0 7 127
3 0 127 126
3 127 125 123
3 127 123 126
3 123 124 1
3 123 1 126
3 128 129 16
3 129 125 127
3 129 127 16
3 127 7 16
3 104 100 125
3 125 129 104
3 129 128 105
3 129 105 104
3 110 109 130
3 130 131 132
3 130 132 110
3 132 133 134
3 132 134 110
3 134 111 110
3 135 9 8
3 135 8 136
3 8 2 137
3 8 137 136
3 137 133 132
3 137 132 136
3 132 131 135
3 132 135 136
3 2 1 138
3 1 124 139
3 1 139 138
3 139 133 137
3 139 137 138
3 137 2 138
3 122 103 112
3 112 111 134
3 134 133 139
3 134 139 112
3 139 124 122
3 139 122 112
3 115 140 141
3 142 114 115
3 142 115 141
3 12 11 143
3 143 142 141
3 141 140 12
3 141 12 143
3 9 135 144
3 135 131 145
3 135 145 144
3 145 142 143
3 145 143 144
3 143 11 9
3 143 9 144
3 130 109 116
3 116 114 142
3 142 145 116
3 145 131 130
3 145 130 116
3 105 128 146
3 105 146 119
3 146 147 120
3 146 120 119
3 128 16 15
3 128 15 148
3 15 147 148
3 147 146 148
3 146 128 148
3 12 140 149
3 149 147 12
3 147 15 13
3 147 13 12
3 140 115 121
3 120 147 149
3 120 149 121
3 149 140 121
3 150 151 152
3 150 152 153
3 152 154 155
3 152 155 153
3 156 36 35
3 156 35 157
3 35 42 158
3 35 158 157
3 158 155 157
3 155 154 156
3 155 156 157
3 49 18 159
3 49 159 160
3 159 161 162
3 159 162 160
3 162 155 158
3 162 158 160
3 158 42 49
3 158 49 160
3 163 164 165
3 163 165 166
3 165 150 153
3 165 153 166
3 153 155 162
3 153 162 166
3 162 161 163
3 162 163 166
3 167 164 163
3 167 163 168
3 163 161 169
3 163 169 168
3 169 170 168
3 170 171 167
3 170 167 168
3 159 18 17
3 159 17 172
3 17 24 173
3 17 173 172
3 173 169 172
3 169 161 159
3 169 159 172
3 24 34 174
3 24 174 173
3 174 175 176
3 174 176 173
3 176 169 173
3 177 178 179
3 179 171 170
3 179 170 177
3 170 169 176
3 170 176 177
3 176 175 177
3 180 178 177
3 180 177 181
3 177 175 181
3 175 182 181
3 181 183 180
3 174 34 62
3 62 184 174
3 184 182 175
3 184 175 174
3 51 185 184
3 185 186 182
3 185 182 184
3 184 62 51
3 187 188 183
3 183 181 187
3 181 182 187
3 182 186 187
3 188 187 189
3 187 186 190
3 187 190 189
3 190 191 189
3 191 192 188
3 191 188 189
3 185 51 50
3 50 193 185
3 193 190 185
3 190 186 185
3 60 36 156
3 60 156 194
3 156 154 195
3 156 195 194
3 195 190 193
3 195 193 194
3 193 50 60
3 193 60 194
3 152 151 192
3 152 192 196
3 192 191 196
3 191 190 195
3 191 195 196
3 195 154 152
3 195 152 196
3 197 198 199
3 197 199 200
3 199 201 202
3 199 202 200
3 202 203 204
3 202 204 200
3 204 205 197
3 204 197 200
3 206 207 208
3 208 209 210
3 208 210 206
3 210 203 202
3 210 202 206
3 202 201 206
3 211 188 212
3 188 192 213
3 188 213 212
3 213 203 210
3 213 210 212
3 210 209 211
3 210 211 212
3 192 151 214
3 192 214 215
3 214 205 204
3 214 204 215
3 204 203 213
3 204 213 215
3 213 192 215
3 216 217 218
3 216 218 219
3 218 220 219
3 220 221 222
3 220 222 219
3 222 223 216
3 222 216 219
3 224 198 197
3 224 197 225
3 197 205 226
3 197 226 225
3 226 221 220
3 226 220 225
3 220 224 225
3 214 151 150
3 214 150 227
3 227 221 226
3 226 205 214
3 226 214 227
3 165 164 228
3 165 228 229
3 228 223 222
3 228 222 229
3 222 221 227
3 222 227 229
3 227 150 165
3 227 165 229
3 230 231 232
3 230 232 233
3 232 234 235
3 232 235 233
3 235 236 233
3 236 237 230
3 236 230 233
3 238 217 216
3 238 216 239
3 216 223 239
3 235 234 238
3 235 238 239
3 228 164 167
3 228 167 240
3 167 171 241
3 167 241 240
3 241 235 239
3 241 239 240
3 239 223 228
3 239 228 240
3 179 178 242
3 179 242 243
3 242 237 236
3 242 236 243
3 236 235 241
3 236 241 243
3 241 171 179
3 241 179 243
3 208 207 244
3 208 244 245
3 244 246 247
3 244 247 245
3 247 248 249
3 247 249 245
3 249 209 208
3 249 208 245
3 250 231 230
3 230 237 251
3 230 251 250
3 251 248 247
3 251 247 250
3 247 246 250
3 242 178 180
3 242 180 252
3 180 183 253
3 180 253 252
3 253 248 251
3 253 251 252
3 251 237 242
3 251 242 252
3 183 188 211
3 183 211 254
3 211 209 249
3 211 249 254
3 249 248 253
3 249 253 254
3 253 183 254
3 207 255 244
3 255 256 244
3 257 231 258
3 257 258 259
3 258 256 259
3 234 260 238
3 260 217 238
3 232 231 257
3 232 257 261
3 234 232 261
3 260 234 261
3 207 206 262
3 206 201 262
3 244 256 246
3 246 256 258
3 231 250 258
3 250 246 258
3 263 220 218
3 224 220 263
