0.40509
0.428432
0.759146
0.430806
0.962171
0.648072
0.752965
0.702008
0.47111
0.858361
0.609486
0.920575
0.907022
0.602772
0.609738
0.48987
0.71077
0.859251
0.887589
0.906667
0.815015
0.53615
0.882085
0.920786
0.584738
0.685043
0.8301
0.848685
0.447216
0.879081
0.235209
0.833113
0.285822
0.350817
0.54193
0.348039
0.284856
0.577991
0.424348
0.502836
0.482823
0.296473
0.467461
0.459346
0.305426
0.238229
0.282436
0.221627
0.204498
0.483714
0.44867
0.260758
0.369874
0.416469
0.469852
0.539621
0.170036
0.531425
0.488257
0.490222
0.476723
0.356878
0.495145
0.47983
0.23644
0.412194
0.450229
0.447948
0.368093
0.438906
0.247714
0.274518
0.293633
0.333781
0.439238
0.447459
0.398839
0.333539
0.408305
0.469372
0.536976
0.483844
0.498666
0.515551
0.332896
0.331244
0.361287
0.22514
0.367464
0.498348
0.0900819
0.169223
0.204661
0.462339
0.302932
0.35389
0.336965
0.364559
0.331998
0.403689
0.469959
0.264188
0.320973
0.382851
0.338543
0.283072
0.324064
0.473971
0.430786
0.237611
0.16886
0.584712
0.637421
0.441897
0.441203
0.173202
0.304095
0.39082
0.303043
0.189678
0.573695
0.233328
0.384847
0.173776
0.392281
0.248528
0.368484
0.424555
0.09469
0.340029
0.259112
0.215634
0.311159
0.361882
0.414059
0.255648
0.571562
0.35686
0.771674
0.676559
0.508975
0.693237
0.632852
0.485318
0.597419
0.830707
0.519674
0.507592
0.645942
0.738784
0.666199
0.578444
0.540653
0.513976
0.692916
0.579504
0.524927
0.852859
0.723015
0.714557
0.643814
0.304032
0.664022
0.582275
0.729244
0.599803
0.71318
0.666719
0.55143
0.582075
0.643335
0.603153
0.744399
0.840266
0.439709
0.538852
0.6095
0.480015
0.288169
0.389921
0.339796
0.380589
0.49255
0.662859
0.59738
0.449071
0.394135
0.306248
0.394436
0.486004
0.476795
0.318622
0.255864
0.246758
0.838181
0.566688
0.61404
0.651688
0.42986
0.66203
0.423325
0.452406
0.598335
0.657895
0.579965
0.262785
0.47614
0.293497
0.682943
0.600844
0.480061
0.49266
0.764849
0.648271
0.677643
0.659547
0.712617
0.315586
0.51863
0.563219
0.653434
0.442165
0.664159
0.732817
0.754175
0.635097
0.779132
0.510289
0.349421
0.591023
0.3523
0.608485
0.525994
0.577358
0.54903
0.587501
0.962376
0.209581
0.636219
0.681391
0.606472
0.974687
0.740614
0.19879
0.936183
0.594447
0.235302
0.297433
0.518398
0.236141
0.570843
0.719611
0.206119
0.197628
0.262507
0.51464
0.998409
0.588107
0.668462
0.433085
0.641416
0.569636
0.334188
0.561273
0.499804
0.522374
0.420003
0.804503
0.405815
0.545074
0.794035
0.546009
0.791748
0.732598
0.468637
0.830094
0.835276
0.658985
0.848353
0.788147
0.841834
0.550609
0.914297
0.860413
0.41372
0.805872
0.849194
0.83362
0.724219
0.785368
0.878228
0.853042
0.746824
0.808413
0.774586
0.433793
0.829609
0.848926
0.833194
0.827423
0.594262
0.444479
0.806465
0.923911
0.813594
0.836546
0.630752
0.486031
0.642116
0.957773
0.81369
0.538329
0.606997
0.850089
0.591284
0.401429
0.464661
0.972794
0.830188
0.52459
0.635091
0.629859
0.836378
0.483462
0.566812
0.730523
0.825775
0.592008
0.830445
0.654634
0.699218
0.72211
0.619527
0.74644
0.792576
0.797492
0.801605
0.799816
0.285359
0.799736
0.598005
0.853909
0.679767
0.724847
0.883888
0.92969
0.365456
0.517034
0.542987
0.491119
0.726036
0.54147
0.592698
0.731885
0.409184
0.740086
0.649917
0.671869
0.840375
0.639968
0.484173
0.549733
0.824434
0.883903
0.928237
0.705535
0.686559
0.522723
0.740638
0.996105
0.614071
0.799788
0.241625
0.772632
0.892942
0.902989
0.596708
0.936597
0.749577
0.929627
0.655236
0.780919
0.927183
0.58279
0.867556
0.565108
0.493514
0.707751
0.682442
0.557803
0.960699
0.758217
0.869023
0.717171
0.235805
0.188516
0.152534
0.151554
0.124367
0.140395
0.210516
0.184852
0.173047
0.379149
0.197839
0.186159
0.230666
0.380312
0.442261
0.691633
0.343831
0.222044
0.0906333
0.2803
0.102732
0.0706712
0.60762
0.244637
0.23616
0.181981
0.232839
0.209318
0.159877
0.162142
0.0898005
0.142128
0.31102
0.220115
0.124477
0.159782
0.243498
0.296138
0.339109
0.445265
0.133487
0.109625
0.120377
0.13396
0.251494
0.0683395
0.173629
0.107337
0.213421
0.0936025
0.521466
0.104099
0.193617
0.322637
0.341659
0.154652
0.274531
0.223598
0.409611
0.439966
0.135597
0.1728
0.208819
0.171694
0.316285
0.153002
0.127962
0.109571
0.133072
0.182836
0.305862
0.215726
0.129971
0.124389
0.355798
0.11391
0.282706
0.056727
0.06831
0.201197
0.150403
0.170537
0.331091
0.073264
0.357544
0.0216383
0.287603
0.324113
0.299097
0.244092
0.239983
0.25577
0.128882
0.148057
0.121446
0.186209
0.30173
0.189579
0.105331
0.153002
0.0991051
0.148167
0.248982
0.18964
0.103108
0.33931
0.119841
0.0925126
0.14181
0.707548
0.0972318
0.0915262
0.152045
0
0.0819545
0.066919
0.160226
0.0460668
0.108334
0.153474
0.20941
0.181272
0.225034
0.175536
0.188618
0.120841
0.0680911
0.102464
0.151948
0.240857
0.385304
0.243194
0.198308
0.244893
0.158969
0.15167
0.440879
0.749763
0.639921
0.335686
0.328136
0.331786
0.331107
0.453431
0.353165
0.879038
0.384451
0.494403
0.390998
1
0.91348
0.715435
0.136598
0.136223
0.231297
0.130009
0.245546
0.357841
0.176188
0.175602
0.108224
0.148523
0.207416
0.133155
0.149449
0.215738
0.126431
0.198416
0.74412
0.864967
0.807383
0.636254
0.658242
0.54114
0.1907
0.307434
0.6567
0.627339
0.675281
0.502148
0.467292
0.675505
0.759866
0.668439
0.313224
0.176617
0.139965
0.131505
0.285643
0.1901
0.217144
0.11498
0.0769133
0.13117
0.205305
0.412022
0.191797
0.211019
0.236837
0.130107
0.951415
0.89813
0.455971
0.447057
0.349358
0.501642
0.229923
0.242475
0.668086
0.841622
0.29308
0.88867
0.649791
0.840686
0.650175
0.800119
0.152618
0.111152
0.14744
0.117395
0.234923
0.678356
0.350997
0.144556
0.135618
0.105095
0.240553
0.163073
0.168828
0.191006
0.126248
0.161384
0.581007
0.454458
0.98973
0.386192
0.528375
0.236266
0.285535
0.679849
0.444884
0.264089
0.308423
0.204062
0.583831
0.228697
0.948436
0.312016
0.127564
0.0986168
0.115764
0.155469
0.179566
0.193733
0.353532
0.106667
0.311132
0.297523
0.204732
0.473959
0.524727
0.328978
0.502106
0.335158
0.655214
0.583101
0.438712
0.53646
0.520324
0.398653
0.624576
0.593061
0.492435
0.525358
0.37961
0.429597
0.605489
0.462002
0.550112
0.590017
0.451051
0.245469
0.327453
0.446051
0.449682
0.448872
0.294552
0.345976
0.209241
0.48271
0.504983
0.468971
0.474596
0.444419
0.376156
0.439777
0.592263
0.492116
0.636625
0.374179
0.485939
0.454696
0.423811
0.51503
0.662037
0.483471
0.424076
0.44827
0.483913
0.933531
0.5764
0.574893
0.325591
0.361778
0.463431
0.454062
0.427826
0.491063
0.200648
0.313508
0.534657
0.37982
0.341435
0.290973
0.435471
0.395629
0.470482
0.323608
0.498952
0.343641
0.59724
0.475616
0.44606
0.500477
0.519247
0.570207
0.581716
0.56783
0.529619
0.45242
0.451507
0.337415
0.602681
0.597438
0.437322
0.41109
0.309736
0.481916
0.553578
0.288153
0.525578
0.21542
0.372219
0.454397
0.523673
0.533652
0.581436
0.523501
0.485177
0.504944
0.504233
0.563127
0.52359
0.707349
0.572433
0.591692
0.639005
0.539699
0.120441
0.674086
0.251001
0.534505
0.643609
0.315803
0.496575
0.672137
0.465367
0.288669
0.472245
0.499882
0.475359
0.436311
0.265158
0.584453
