0.18664
0.196726
0.631375
0.241883
0.272983
0.335529
0.40733
0.271124
0.168797
0.330722
0.257386
0.632236
0.491486
0.386142
0.21946
0.218859
0.535314
0.517512
0.509063
0.576833
0.299901
0.354587
0.386523
0.352829
0.33944
0.334553
0.612356
0.35162
0.597412
0.519454
0.468639
0.520906
0.198274
0.362378
0.390589
0.242082
0.420391
0.314882
0.470819
0.323008
0.375249
0.361511
0.162818
0.453422
0.091097
0.418572
0.459705
0.0909328
0.290795
0.258734
0.365304
0.379499
0.364339
0.377654
0.327122
0.333941
0.263918
0.359466
0.377867
0.281944
0.421792
0.344751
0.389437
0.319857
0.453398
0.278871
0.381925
0.401904
0.429567
0.33856
0.517203
0.305827
0.27142
0.263297
0.207659
0.374062
0.444389
0.325494
0.457184
0.376473
0.405795
0.365684
0.483129
0.385241
0.306799
0.355912
0.355239
0.35904
0.241532
0.204143
0.477939
0.261838
0.19853
0.361464
0.195381
0.424002
0.392989
0.184817
0.255636
0.305229
0.313776
0.382289
0.33228
0.464798
0.492167
0.310506
0.339449
0.237886
0.350478
0.466056
0.345527
0.403171
0.343262
0.336135
0.188223
0.439749
0.39393
0.332516
0.43236
0.427997
0.402052
0.376773
0.467138
0.303451
0.354678
0.496809
0.492535
0.451249
0.351713
0.449864
0.338686
0.287239
0.328294
0.365131
0.409259
0.413733
0.326384
0.458778
0.25015
0.293099
0.288497
0.354337
0.411869
0.328332
0.264737
0.248875
0.328775
0.472684
0.375152
0.489621
0.353135
0.346905
0.497317
0.441039
0.328033
0.448438
0.40459
0.138914
0.395783
0.481208
0.504152
0.48509
0.294468
0.345619
0.23361
0.241758
0.342727
0.366851
0.33911
0.352213
0.246088
0.271754
0.384304
0.216439
0.439634
0.44374
0.391928
0.361766
0.172702
0.534221
0.338952
0.526569
0.579576
0.34408
0.176481
0.47878
0.509845
0.509926
0.490411
0.497154
0.522698
0.576988
0.493524
0.386033
0.236229
0.498156
0.407835
0.477953
0.371124
0.357881
0.560168
0.489174
0.522623
0.418276
0.517064
0.540899
0.41536
0.351798
0.514568
0.392748
0.417189
0.421019
0.488906
0.451553
0.546585
0.46726
0.494266
0.542841
0.393085
0.507002
0.463309
0.552605
0.451541
0.551796
0.539591
0.415399
0.440397
0.519427
0.473558
0.401306
0.556383
0.498742
0.540253
0.456569
0.373159
0.363708
0.527842
0.466098
0.518573
0.508271
0.347915
0.383179
0.509317
0.59651
0.565096
0.512923
0.181822
0.189837
0.196037
0.22614
0.374456
0.313918
0.372543
0.21867
0.217468
0.283594
0.390892
0.265872
0.346515
0.28074
0.189752
0.28249
0.504475
0.487798
0.510358
0.380806
0.347423
0.271382
0.336933
0.415516
0.465431
0.327073
0.277654
0.127504
0.186799
0.269018
0.503697
0.543175
0.47615
0.487821
0.517287
0.582698
0.361507
0.546378
0.290958
0.525916
0.513824
0.456012
0.368111
0.297079
0.523751
0.430844
0.430311
0.503292
0.151206
0.141538
0.0827781
0.0971879
0.136773
0.0940137
0.149294
0.106849
0.0557067
0.0745233
0.147096
0.344001
0.117973
0.182071
0.0891545
0.0623567
0.0683262
0.13251
0.0735093
0.0508999
0.452472
0.0897197
0.287104
0.197796
0.136225
0.126527
0.162239
0.260255
0.0964607
0.135154
0.162658
0.135346
0.138028
0.107948
0.0477236
0.0796559
0.073344
0.0725472
0.129918
0.0866111
0.0886725
0.0490168
0.00902357
0.0949097
0.0600183
0.0720591
0.0639803
0.0572888
0.101278
0.0415566
0.0843848
0.0416158
0.0810729
0.0995798
0.053679
0.0789843
0.371491
0.112747
0.17443
0.100443
0.0823664
0.0984086
0.0831997
0.0822245
0.116514
0.125284
0.0605408
0.0799682
0.141516
0.134938
0.133115
0.161314
0.0753675
0.0763351
0.516988
0.0701848
0.224286
0.0747323
0.061501
0.0477744
0.0918966
0.0597026
0.0864214
0.0402756
0.227777
0.0729373
0.0876439
0.113985
0.138966
0.110182
0.143457
0.117305
0.0972337
0.0821865
0.0901303
0.083193
0.142028
0.27361
0.0875677
0.129183
0.0609689
0.0868848
0.185631
0.106842
0.0559828
0.0594601
0.0957682
0.0343474
0.0433189
0
0.0557875
0.0483321
0.0558836
0.0308477
0.0754591
0.0320189
0.0916331
0.0525524
0.205063
0.207884
0.157463
0.0898669
0.172418
0.0963544
0.0824163
0.0716423
0.0695432
0.0629678
0.107341
0.0528134
0.174809
0.140733
0.104388
0.136646
0.345748
0.0968062
0.0946652
0.066595
0.0696666
0.0572267
0.0434011
0.0584254
0.0661081
0.0981769
0.0766955
0.0554525
0.0870307
0.104234
0.0919675
0.0905748
0.0879304
0.0829734
0.0714335
0.0852182
0.0897949
0.0561106
0.0710071
0.0623891
0.109032
0.05894
0.0740953
0.044141
0.42939
0.33294
0.309391
0.305203
0.296498
0.325801
0.45676
0.280537
0.410689
0.214326
0.319466
0.348445
0.447786
0.380941
0.340316
0.357739
0.454953
0.243585
0.0770767
0.121801
0.47265
0.234576
0.124959
0.184995
0.335273
0.279541
0.403792
0.294187
0.536193
0.328034
0.332357
0.399947
0.308925
0.201431
0.198981
0.284194
0.24878
0.234806
0.295278
0.184696
0.206875
0.221232
0.191889
0.206915
0.248563
0.223338
0.289752
0.202542
0.239593
0.185641
0.277421
0.294195
0.25826
0.228653
0.116992
0.179424
0.15672
0.184921
0.22535
0.176531
0.264483
0.326367
0.253174
0.292961
0.285987
0.177614
0.199435
0.284652
0.312417
0.268718
0.27115
0.305137
0.297938
0.306927
0.316032
0.248307
0.245228
0.365348
0.345494
0.239199
0.271826
0.259109
0.251688
0.239749
0.187839
0.217423
0.114707
0.101939
0.289569
0.29345
0.279344
0.287503
0.306877
0.183129
0.325302
0.277918
0.304648
0.248188
0.200752
0.311142
0.278759
0.269699
0.303611
0.229127
0.2707
0.307531
0.270054
0.195406
0.199247
0.245561
0.148566
0.240603
0.257343
0.368978
0.309139
0.341294
0.229606
0.410252
0.270887
0.291466
0.243544
0.279838
0.293957
0.323906
0.314053
0.153918
0.211979
0.207484
0.289047
0.286646
0.30887
0.303493
0.200815
0.26003
0.376049
0.396479
0.300744
0.200793
0.258471
0.236563
0.129667
0.163197
0.124513
0.143154
0.470124
0.465846
0.434511
0.463858
0.413103
0.48984
0.348493
0.652386
0.214681
0.483101
0.289274
0.245699
0.225753
0.507137
0.438477
0.365098
0.180616
0.127626
0.15644
0.203604
0.131813
0.210481
0.126045
0.141622
0.525071
0.352593
0.31508
0.248587
0.287296
0.204451
1
0.404286
0.330734
0.528219
0.522514
0.534668
0.555795
0.517876
0.179482
0.128349
0.216468
0.302487
0.180861
0.258401
0.491086
0.207922
0.424956
0.472336
0.502307
0.354556
0.504984
0.484652
0.458342
0.508637
0.545538
0.480346
0.381648
0.475748
0.483215
0.442513
0.532569
0.429757
0.510155
0.233502
0.310945
0.191429
0.404658
0.178283
0.170079
0.154082
0.395788
0.397079
0.519446
0.325823
0.338525
0.508766
0.373526
0.186154
0.201321
0.145092
0.269414
0.304138
0.514313
0.412029
0.140368
0.287404
0.304742
0.155659
0.088596
0.0914984
0.0981883
0.113227
0.111329
0.103237
0.098405
0.122802
0.0733829
0.0989286
0.103633
0.0987389
0.108264
0.112189
0.107639
0.116311
0.0983896
0.158449
0.161409
0.153543
0.15031
0.111747
0.144811
0.177699
0.078048
0.135752
0.0979305
0.0978728
0.101748
0.0869764
0.176625
0.186519
0.150124
0.182767
0.18062
0.24179
0.25778
0.192682
0.320399
0.280138
0.279391
0.30817
0.18973
0.222834
0.192534
0.228217
0.310264
0.264546
0.250167
0.248268
0.162361
0.185051
0.266101
0.210274
0.198913
0.211637
0.181137
0.183246
0.196108
0.1514
0.177686
0.167609
0.227824
0.148308
0.132608
0.207068
0.159621
0.201502
0.238884
0.236213
0.275137
0.267922
0.315419
0.279403
0.154582
0.23593
0.230248
0.25941
0.236596
0.165053
0.213911
0.22665
0.167208
0.2086
0.2496
0.250064
0.218395
0.216936
0.211283
0.215981
0.191765
0.176146
0.199904
0.18354
0.228756
0.177263
0.187655
0.210296
0.199261
0.209646
0.230866
0.226797
0.239858
0.197733
0.201938
0.278038
0.208156
0.187364
0.292759
0.235136
0.173219
0.194812
0.190199
0.180005
0.225257
0.232551
0.197815
0.221061
0.181125
0.189333
0.136143
0.153969
0.181479
0.186347
0.181772
0.207807
0.227567
0.185647
0.195396
0.179651
0.208052
0.184385
0.276536
0.26918
0.352929
0.17151
0.24481
0.208379
0.155691
0.243531
0.255243
0.24014
0.210635
0.209104
0.193363
0.224146
0.267663
0.270189
0.227772
0.208679
0.197258
0.197797
0.163309
0.202084
0.182809
0.162718
