OFF
163 317 0
9.24267 5.38149 12.8901
9.88567 5.24809 12.565
9.83267 5.37769 12.9647
9.63167 5.59469 13.3019
10.0607 5.67029 13.1368
9.35367 5.88339 13.3916
9.20467 5.63289 13.2125
10.3497 6.00479 12.8216
9.84167 6.34899 13.2409
9.64867 6.09199 13.4178
9.44467 6.58599 13.1453
9.25567 6.82279 12.743
8.91267 6.41849 13.0509
9.24767 6.35149 13.2989
9.05567 6.10369 13.2841
8.75167 6.06959 12.8702
8.69667 5.90429 12.4036
8.87867 5.67129 12.8101
8.93867 5.85419 13.1165
7.09567 3.80769 0.317413
7.06067 3.99399 -0.359287
7.12767 3.90069 -0.123087
7.68367 3.63329 1.23641
7.25467 3.86579 1.02531
7.05267 3.90839 1.17651
7.68067 3.90809 0.563313
7.05567 4.32279 -0.485387
7.56467 4.20609 0.365113
7.05167 4.77699 -0.0459869
7.42167 4.44499 0.265513
7.22467 4.68519 1.23171
7.69167 4.45919 1.42011
7.05867 4.87079 0.949113
7.43467 4.59879 0.655513
7.04667 4.46529 1.48101
7.66267 3.84369 1.98251
7.30267 4.24229 1.51661
7.53267 4.38769 1.75511
8.70367 3.89289 3.47591
9.04067 4.46689 4.45911
8.79567 4.47959 4.43891
9.32567 5.74989 6.36061
9.04867 5.10509 5.36631
8.84467 5.17959 5.32431
8.35767 3.97849 3.47171
9.39767 6.26189 7.31611
9.06267 5.81009 6.31691
9.06967 6.40669 7.25631
8.82967 6.00479 6.28341
8.61367 5.17579 5.05411
8.54367 4.57359 4.35281
8.89667 4.11359 3.42761
8.76667 4.34989 3.43191
9.06467 4.77229 4.39941
9.15267 4.61579 4.46071
9.23267 5.42779 5.41721
9.32367 5.29259 5.43211
9.29167 5.17129 5.42121
9.45967 5.99319 6.42421
9.51667 6.61819 7.40311
9.61867 6.40669 7.39161
9.45367 5.82529 6.42101
9.54567 6.29589 7.36161
8.83767 3.95359 3.42681
8.63167 4.96599 4.38791
8.96467 6.21969 6.29241
8.81667 4.88259 4.32461
8.43067 4.46069 3.45831
9.19167 6.76619 7.34821
9.22767 6.19419 6.39901
8.23167 4.23149 3.50421
8.47167 4.86209 4.40681
8.96867 6.61559 7.26201
8.83767 6.17639 6.29061
9.04367 6.73109 7.30131
8.52467 4.92349 4.36781
8.28767 4.39149 3.49381
9.55467 6.46049 8.21921
9.78367 6.45459 9.04471
9.54067 6.47199 8.99001
9.28567 6.56059 8.17341
9.79867 6.28099 9.68211
10.0167 6.03699 10.2865
9.63067 6.06049 10.3009
9.48167 6.40099 9.63141
9.36967 6.28919 10.3208
9.33067 6.57129 9.93101
9.28767 6.64889 8.96751
9.12467 6.73739 8.16611
9.75367 6.71929 8.29741
9.83167 6.87559 9.11401
9.92167 6.62349 9.10731
9.72867 6.53079 8.27841
10.2687 6.30419 10.4073
10.0197 6.38239 9.75511
10.2297 6.55829 10.4039
9.29367 6.99899 8.25741
9.54567 6.93719 8.30791
9.49567 7.05199 9.17121
9.60167 6.90909 10.5491
9.92767 6.86969 10.4814
10.1197 6.71739 10.3812
9.13367 6.90849 8.17881
9.42767 6.82589 10.2032
9.29367 6.98159 9.01301
10.1177 5.51459 10.947
9.59167 5.61359 10.8115
9.71767 5.41199 11.1959
8.97667 6.14549 10.8972
9.14967 5.86099 10.8944
10.6367 6.42469 11.2314
10.6727 6.12609 11.1751
10.5747 5.85599 11.0971
10.3877 5.63049 11.0192
9.87567 7.08309 11.2625
10.1957 6.93189 11.2708
9.53767 7.11169 11.2296
10.4717 6.70259 11.2691
9.28967 6.61469 10.5173
9.04767 6.75359 11.0582
8.93667 6.45619 10.9892
9.24667 6.98929 11.1776
9.96667 5.26139 11.7867
9.50567 5.24049 12.1732
9.24167 5.44359 11.6555
9.12267 5.39159 12.428
8.85867 5.62299 12.3788
8.73667 6.00379 11.6552
8.91167 5.68559 11.7199
10.5657 6.27189 12.1343
10.5747 5.91849 12.1547
10.4877 5.62789 11.9833
10.2427 5.53999 12.7164
10.2447 5.37069 11.9658
9.35767 7.05509 12.042
9.70167 7.00089 12.2
10.0707 6.85199 12.1562
9.57467 6.79559 12.8076
9.88567 6.63789 12.878
10.1577 6.40839 12.8497
10.3597 6.56669 12.2471
8.69567 6.33299 11.8133
8.82467 6.66749 11.8279
8.66867 6.20919 12.4653
8.76567 6.48949 12.5896
8.97667 6.71669 12.6538
9.04167 6.90859 12.0269
7.80967 4.21859 2.24951
7.96167 4.31299 1.97281
8.11867 4.26309 2.75191
8.28267 4.27349 2.63911
8.06067 4.16559 1.51221
8.49467 4.11659 2.50171
8.17767 3.96369 1.58221
8.18667 3.73259 1.62621
8.57467 3.88769 2.49171
8.45667 3.64009 2.52601
8.07867 3.57069 1.77101
7.76867 3.67409 0.995413
7.87367 3.62509 2.01751
8.17867 3.66689 2.66111
8.02667 3.85519 2.79481
8.02367 4.13089 2.82101
3 0 1 2
3 0 2 3
3 2 4 3
3 3 5 6
3 6 0 3
3 4 7 8
3 4 8 9
3 9 5 3
3 3 4 9
3 10 11 12
3 10 12 13
3 12 14 13
3 14 5 9
3 14 9 13
3 9 8 10
3 9 10 13
3 15 16 17
3 15 17 18
3 17 0 6
3 17 6 18
3 6 5 14
3 6 14 18
3 14 12 15
3 14 15 18
3 19 20 21
3 21 22 19
3 22 23 19
3 19 23 24
3 25 26 27
3 26 28 29
3 26 29 27
3 25 21 20
3 20 26 25
3 30 31 32
3 31 33 32
3 33 28 32
3 29 28 33
3 24 23 34
3 23 35 36
3 34 23 36
3 30 34 36
3 36 37 30
3 30 32 34
3 38 39 40
3 39 41 42
3 39 42 40
3 42 43 40
3 40 44 38
3 41 45 46
3 45 47 46
3 46 43 42
3 42 41 46
3 47 48 46
3 48 49 43
3 48 43 46
3 44 40 50
3 40 43 50
3 43 49 50
3 51 52 53
3 51 53 54
3 53 55 56
3 53 56 54
3 56 57 54
3 58 59 60
3 60 61 58
3 61 57 56
3 61 56 58
3 56 55 58
3 62 45 41
3 62 41 61
3 41 57 61
3 61 60 62
3 39 38 63
3 63 51 54
3 63 54 39
3 54 57 39
3 57 41 39
3 64 65 66
3 66 52 67
3 66 67 64
3 65 68 69
3 68 59 69
3 66 65 69
3 59 58 69
3 58 55 69
3 55 66 69
3 52 66 53
3 66 55 53
3 70 44 50
3 70 50 49
3 71 70 49
3 48 47 72
3 72 73 48
3 73 71 49
3 73 49 48
3 74 68 65
3 74 65 73
3 65 75 73
3 75 71 73
3 73 72 74
3 64 67 76
3 64 76 75
3 76 70 71
3 76 71 75
3 75 65 64
3 77 78 79
3 79 80 77
3 80 47 45
3 80 45 77
3 81 82 83
3 83 84 81
3 84 79 81
3 79 78 81
3 85 86 84
3 86 87 84
3 87 79 84
3 84 83 85
3 88 47 80
3 80 79 87
3 87 88 80
3 60 59 89
3 89 90 91
3 91 92 89
3 92 60 89
3 93 94 95
3 94 91 95
3 91 90 95
3 82 81 94
3 81 78 94
3 78 91 94
3 94 93 82
3 77 45 62
3 77 62 92
3 62 60 92
3 92 91 78
3 78 77 92
3 68 96 97
3 96 98 97
3 98 90 97
3 97 59 68
3 98 99 100
3 100 90 98
3 95 90 101
3 90 100 101
3 89 59 97
3 90 89 97
3 72 47 88
3 88 87 102
3 102 72 88
3 103 104 102
3 103 102 86
3 102 87 86
3 103 99 98
3 98 104 103
3 96 68 74
3 96 74 102
3 74 72 102
3 104 98 96
3 104 96 102
3 82 105 106
3 106 83 82
3 105 107 106
3 108 85 83
3 108 83 109
3 83 106 109
3 95 110 111
3 95 111 93
3 111 112 93
3 93 112 113
3 93 113 82
3 113 105 82
3 99 114 100
3 114 115 100
3 114 99 116
3 101 100 95
3 100 115 117
3 100 117 95
3 117 110 95
3 86 85 118
3 118 103 86
3 119 118 120
3 118 85 108
3 118 108 120
3 116 99 121
3 99 118 119
3 99 119 121
3 103 118 99
3 107 105 122
3 122 123 107
3 123 124 107
3 124 106 107
3 1 0 123
3 0 125 123
3 125 124 123
3 123 122 1
3 17 16 126
3 16 127 128
3 16 128 126
3 128 124 125
3 128 125 126
3 125 0 17
3 125 17 126
3 127 108 109
3 127 109 128
3 109 106 124
3 109 124 128
3 111 110 129
3 111 129 130
3 131 112 111
3 131 111 130
3 4 132 7
3 132 131 130
3 132 130 7
3 130 129 7
3 1 122 133
3 133 131 132
3 133 132 1
3 132 4 2
3 132 2 1
3 122 105 113
3 122 113 133
3 113 112 131
3 113 131 133
3 114 116 134
3 114 134 135
3 136 115 114
3 136 114 135
3 11 10 137
3 10 8 138
3 10 138 137
3 138 136 135
3 138 135 137
3 135 134 11
3 135 11 137
3 8 7 139
3 7 129 140
3 7 140 139
3 140 136 138
3 140 138 139
3 138 8 139
3 129 110 117
3 129 117 140
3 117 115 136
3 117 136 140
3 120 108 127
3 120 127 141
3 142 119 120
3 142 120 141
3 16 15 143
3 15 12 144
3 15 144 143
3 144 142 141
3 144 141 143
3 141 127 16
3 141 16 143
3 12 11 145
3 11 134 146
3 11 146 145
3 146 142 144
3 146 144 145
3 144 12 145
3 134 116 121
3 134 121 146
3 121 119 142
3 121 142 146
3 31 30 37
3 37 147 148
3 37 148 31
3 149 67 150
3 67 52 150
3 148 147 149
3 148 149 150
3 151 148 150
3 151 150 152
3 150 52 152
3 151 29 33
3 33 31 151
3 31 148 151
3 27 29 151
3 151 153 27
3 153 154 25
3 153 25 27
3 152 52 51
3 152 51 155
3 155 154 153
3 153 151 152
3 153 152 155
3 63 38 156
3 156 157 154
3 154 155 156
3 155 51 63
3 155 63 156
3 158 21 25
3 154 157 158
3 154 158 25
3 22 21 158
3 158 157 22
3 157 159 22
3 38 44 160
3 38 160 156
3 160 159 157
3 160 157 156
3 44 161 160
3 161 35 159
3 161 159 160
3 35 23 159
3 23 22 159
3 35 147 37
3 37 36 35
3 161 44 70
3 70 162 161
3 162 147 35
3 162 35 161
3 76 67 149
3 76 149 162
3 149 147 162
3 162 70 76
