OFF
279 539 0
-7.02737 -14.0542 4.00937
-7.58637 -14.0497 3.62837
-7.84137 -14.0564 2.82137
-7.11137 -14.0649 2.95337
-7.97937 -14.0585 1.65537
-7.19537 -14.0671 1.68437
-6.25137 -14.0661 1.71937
-6.23437 -14.0644 3.08937
-6.21737 -14.0537 4.22837
-7.87737 -14.0525 0.497365
-7.64537 -14.0432 -0.292635
-7.09237 -14.0463 -0.632635
-7.14637 -14.0605 0.419365
-6.27937 -14.0451 -0.791635
-6.26737 -14.0595 0.348365
-5.46037 -14.0383 -0.604635
-4.89537 -14.03 -0.240635
-4.64637 -14.0361 0.583365
-5.38537 -14.051 0.468365
-4.51637 -14.0404 1.78137
-5.30637 -14.0567 1.75337
-4.62437 -14.0401 2.96937
-4.85737 -14.0367 3.77437
-5.40937 -14.0463 4.09837
-5.35737 -14.0555 3.03237
-5.41137 -5.81635 2.26237
-6.01537 -5.79082 1.93537
-5.99837 -5.81408 1.92937
-5.40337 -5.83897 2.25237
-6.00137 -5.89265 1.93637
-5.41037 -5.91852 2.25737
-4.70937 -6.02594 2.41537
-4.69637 -5.94669 2.41237
-4.69237 -5.92588 2.42537
-6.02937 -6.08181 1.96237
-6.08737 -6.43685 2.01037
-5.49837 -6.47445 2.32737
-5.44037 -6.11152 2.28137
-4.79837 -6.58697 2.48037
-4.74037 -6.22044 2.43737
-4.10337 -6.75249 2.45637
-3.52737 -6.94911 2.23737
-3.46937 -6.58953 2.20337
-4.04537 -6.38697 2.41737
-3.43437 -6.39947 2.18537
-4.01237 -6.19342 2.39737
-3.41037 -6.32424 2.18137
-3.38637 -6.30916 2.19137
-3.97837 -6.09747 2.40737
-3.99337 -6.11565 2.39437
-6.06037 -6.47461 0.00236524
-6.06237 -6.54049 0.0213652
-6.40237 -6.32162 0.429365
-6.40237 -6.25235 0.413365
-6.50137 -6.12209 0.940365
-6.50237 -6.04921 0.926365
-6.09037 -6.70329 0.0463652
-6.14837 -7.00855 0.0843652
-6.48637 -6.80653 0.498365
-6.42837 -6.49039 0.456365
-6.58637 -6.6275 1.01237
-6.52837 -6.298 0.967365
-6.45137 -6.49607 1.54437
-6.39337 -6.15289 1.49637
-6.36637 -5.9698 1.47037
-6.38937 -5.87125 1.45937
-6.36637 -5.89365 1.45937
-4.02837 -6.9751 -0.150635
-3.44137 -7.01093 0.181365
-4.04237 -6.98169 -0.129635
-3.46537 -7.07293 0.196365
-4.06037 -7.04279 -0.112635
-4.77237 -6.92683 -0.246635
-4.75937 -6.86525 -0.265635
-4.75737 -6.8567 -0.288635
-3.49937 -7.2356 0.213365
-3.55737 -7.54347 0.237365
-4.15137 -7.50209 -0.0666348
-4.09337 -7.20179 -0.0926348
-4.86137 -7.38202 -0.195635
-4.80337 -7.08468 -0.225635
-5.56737 -7.20894 -0.146635
-5.50937 -6.90995 -0.179635
-5.47937 -6.75081 -0.203635
-5.48137 -6.67625 -0.245635
-5.47237 -6.68757 -0.222635
-3.03437 -6.53901 1.76337
-3.06337 -6.55087 1.75837
-3.09037 -6.62261 1.76437
-2.98037 -6.83068 1.22937
-2.95337 -6.76272 1.22037
-3.18337 -7.1549 1.81137
-3.12537 -6.80653 1.78137
-3.07437 -7.34149 1.27237
-3.01637 -7.00712 1.24537
-3.19837 -7.48048 0.716365
-3.14037 -7.16043 0.691365
-3.10537 -6.99151 0.674365
-3.07837 -6.92701 0.662365
-6.08637 -9.71777 2.99337
-6.71537 -9.63931 2.61537
-6.99337 -10.6707 2.94537
-6.32637 -10.7401 3.39337
-7.29037 -11.6725 3.31137
-6.57537 -11.7253 3.84637
-5.72737 -11.7966 4.06437
-5.53337 -10.837 3.57837
-5.34037 -9.83389 3.15237
-7.57037 -12.5656 3.66537
-7.79837 -13.271 3.95737
-6.99637 -13.2871 4.65437
-6.80837 -12.5991 4.28837
-6.04437 -13.3082 4.93637
-5.90337 -12.6434 4.54037
-5.09737 -13.3305 4.78237
-4.31237 -13.3505 4.17137
-4.25837 -12.7341 3.85837
-5.00437 -12.691 4.40337
-4.18437 -11.9457 3.48337
-4.88337 -11.8742 3.94837
-4.09237 -11.0465 3.10037
-3.98437 -10.0977 2.76437
-4.59937 -9.96731 3.08037
-4.74537 -10.9447 3.48537
-7.14137 -9.72006 0.678365
-6.78037 -9.82569 0.122365
-7.06337 -10.7871 -0.0526348
-7.44637 -10.7089 0.618365
-7.36437 -11.7397 -0.286635
-7.77537 -11.6869 0.520365
-7.89537 -11.6562 1.49337
-7.55937 -10.6602 1.42837
-7.24737 -9.64846 1.35037
-7.64937 -12.6 -0.533635
-7.88237 -13.2848 -0.746635
-8.34337 -13.2708 0.311365
-8.08737 -12.5691 0.410365
-8.47837 -13.2634 1.58337
-8.21537 -12.552 1.54537
-8.29437 -13.2632 2.86637
-8.04137 -12.5504 2.69037
-7.73237 -11.6504 2.47537
-7.10337 -9.61887 2.03237
-7.40637 -10.6458 2.24637
-4.65137 -10.212 -0.186635
-4.01737 -10.2918 0.175365
-4.12737 -11.1678 -0.0136348
-4.80037 -11.0977 -0.442635
-4.22137 -12.0158 -0.253635
-4.94237 -11.9625 -0.765635
-5.80337 -11.8902 -0.937635
-5.60437 -10.9991 -0.588635
-5.40837 -10.0933 -0.313635
-4.29837 -12.77 -0.501635
-4.35437 -13.3649 -0.713635
-5.16337 -13.3487 -1.38063
-5.06637 -12.7362 -1.09763
-6.13037 -13.3274 -1.60163
-5.98437 -12.6914 -1.29563
-7.09037 -13.3049 -1.38763
-6.89737 -12.6434 -1.10463
-6.65937 -11.8117 -0.775635
-6.16037 -9.95733 -0.209635
-6.40437 -10.8897 -0.456635
-3.61837 -10.2046 2.19237
-3.70337 -11.1255 2.40937
-3.76737 -11.999 2.65237
-3.63437 -12.0307 1.63337
-3.57937 -11.1759 1.56137
-3.50137 -10.2788 1.48837
-3.84537 -13.3647 3.08337
-3.81437 -12.7653 2.88837
-3.69637 -13.3723 1.75137
-3.67237 -12.7828 1.69937
-3.86537 -13.3726 0.407365
-3.83337 -12.785 0.499365
-3.78637 -12.0374 0.605365
-3.63437 -10.3109 0.774365
-3.72037 -11.192 0.704365
-3.62037 -7.53287 2.28937
-3.27637 -7.71999 1.85637
-3.73537 -8.28767 2.38037
-3.39037 -8.45071 1.92737
-3.27937 -8.585 1.36237
-3.16737 -7.88325 1.31137
-3.86137 -9.16032 2.53137
-3.50937 -9.29594 2.03637
-3.39637 -9.39931 1.42137
-3.89337 -9.45328 0.268365
-3.52437 -9.45643 0.796365
-3.76637 -8.69036 0.291365
-3.40537 -8.6713 0.783365
-3.65037 -8.04107 0.272365
-3.29137 -7.99838 0.751365
-4.24537 -7.98707 -0.0296348
-4.36437 -8.62293 -0.0136348
-5.07937 -8.4943 -0.132635
-4.95437 -7.86206 -0.152635
-4.50337 -9.37585 -0.0546348
-5.23137 -9.24823 -0.173635
-6.55237 -8.93873 0.192365
-5.95537 -9.09449 -0.0906348
-6.37437 -8.15464 0.188365
-5.78937 -8.32977 -0.0656348
-6.24137 -7.50179 0.142365
-5.66037 -7.69173 -0.0956348
-6.57937 -7.31791 0.562365
-6.71537 -7.9942 0.628365
-6.81537 -7.86509 1.16837
-6.67937 -7.16115 1.08237
-6.90037 -8.80503 0.674365
-7.00237 -8.70548 1.26137
-6.48937 -8.65725 2.37237
-6.86337 -8.65219 1.85837
-6.31237 -7.76752 2.20037
-6.67937 -7.78399 1.72137
-6.18037 -7.01307 2.08437
-6.54437 -7.05253 1.61737
-5.59137 -7.06383 2.39837
-5.71937 -7.83236 2.51837
-5.01537 -7.9558 2.66337
-4.89137 -7.18235 2.54737
-5.88437 -8.73277 2.70937
-5.16637 -8.85656 2.85637
-4.45337 -9.00647 2.80137
-4.31637 -8.11513 2.62137
-4.19637 -7.34617 2.51537
-4.75637 -6.85798 -0.321635
-5.50037 -6.67291 -0.277635
-6.04837 -5.76758 1.95137
-4.69037 -5.90672 2.45237
-4.34637 -13.7339 4.36537
-3.86437 -13.7374 3.20437
-4.42437 -13.9393 4.37737
-3.95037 -13.9377 3.21737
-3.79837 -13.9363 1.79837
-3.71037 -13.7388 1.78337
-4.61237 -14.0219 4.14037
-4.17937 -14.0197 3.08437
-4.04037 -14.0185 1.79637
-4.65437 -14.0143 -0.591635
-4.20037 -14.0155 0.497365
-4.46837 -13.9335 -0.827635
-3.97137 -13.9345 0.367365
-4.38937 -13.7349 -0.845635
-3.88537 -13.738 0.350365
-5.22437 -13.7295 -1.55663
-5.28837 -13.9342 -1.54063
-6.26737 -13.9357 -1.77863
-6.22037 -13.7229 -1.79163
-5.39737 -14.0182 -1.24863
-6.28337 -14.0234 -1.47263
-7.88937 -14.0286 -0.635635
-7.16237 -14.026 -1.26363
-8.04337 -13.9383 -0.863635
-7.24037 -13.9368 -1.54863
-8.02737 -13.7106 -0.878635
-7.21037 -13.7163 -1.56263
-8.50237 -13.7071 0.250365
-8.51137 -13.9407 0.265365
-8.64937 -13.9429 1.62237
-8.64137 -13.7057 1.60737
-8.31737 -14.0342 0.397365
-8.44637 -14.0388 1.63637
-7.81537 -14.0359 3.95137
-8.27537 -14.0382 2.88737
-7.95937 -13.9438 4.15637
-8.46337 -13.9437 2.99137
-7.94137 -13.7096 4.13937
-8.45237 -13.7065 2.97537
-7.11437 -13.715 4.88237
-7.14537 -13.944 4.89937
-6.18037 -13.9435 5.19937
-6.13237 -13.7216 5.18237
-7.07837 -14.0355 4.63337
-6.20437 -14.0338 4.90637
-5.33437 -14.0279 4.74537
-5.22137 -13.9415 5.03137
-5.15637 -13.7282 5.01737
3 0 1 2
3 0 2 3
3 2 4 5
3 2 5 3
3 5 6 7
3 5 7 3
3 7 8 0
3 7 0 3
3 9 10 11
3 9 11 12
3 11 13 14
3 11 14 12
3 14 6 5
3 14 5 12
3 5 4 9
3 5 9 12
3 15 16 17
3 15 17 18
3 17 19 20
3 17 20 18
3 20 6 14
3 20 14 18
3 14 13 15
3 14 15 18
3 21 22 23
3 21 23 24
3 23 8 7
3 23 7 24
3 7 6 20
3 7 20 24
3 20 19 21
3 20 21 24
3 25 26 27
3 25 27 28
3 27 29 30
3 27 30 28
3 30 31 32
3 30 32 28
3 32 33 25
3 32 25 28
3 34 35 36
3 34 36 37
3 36 38 39
3 36 39 37
3 39 31 30
3 39 30 37
3 30 29 34
3 30 34 37
3 40 41 42
3 40 42 43
3 42 44 45
3 42 45 43
3 45 31 39
3 45 39 43
3 39 38 40
3 39 40 43
3 46 47 48
3 46 48 49
3 48 33 32
3 48 32 49
3 32 31 45
3 32 45 49
3 45 44 46
3 45 46 49
3 50 51 52
3 50 52 53
3 52 54 55
3 52 55 53
3 56 57 58
3 56 58 59
3 58 60 61
3 58 61 59
3 61 54 52
3 61 52 59
3 52 51 56
3 52 56 59
3 62 35 34
3 62 34 63
3 34 29 64
3 34 64 63
3 64 54 61
3 64 61 63
3 61 60 62
3 61 62 63
3 27 26 65
3 27 65 66
3 65 55 66
3 55 54 64
3 55 64 66
3 64 29 27
3 64 27 66
3 67 68 69
3 68 70 71
3 68 71 69
3 71 72 73
3 71 73 69
3 73 74 67
3 73 67 69
3 75 76 77
3 75 77 78
3 77 79 80
3 77 80 78
3 80 72 71
3 80 71 78
3 71 70 75
3 71 75 78
3 81 57 56
3 81 56 82
3 56 51 83
3 56 83 82
3 83 72 80
3 83 80 82
3 80 79 81
3 80 81 82
3 50 84 85
3 84 74 73
3 84 73 85
3 73 72 83
3 73 83 85
3 83 51 50
3 83 50 85
3 86 47 46
3 86 46 87
3 46 44 88
3 46 88 87
3 88 89 90
3 88 90 87
3 90 86 87
3 42 41 91
3 42 91 92
3 91 93 94
3 91 94 92
3 94 89 88
3 94 88 92
3 88 44 42
3 88 42 92
3 95 76 75
3 95 75 96
3 75 70 97
3 75 97 96
3 97 89 94
3 97 94 96
3 94 93 95
3 94 95 96
3 90 89 97
3 90 97 98
3 97 70 68
3 97 68 98
3 99 100 101
3 99 101 102
3 101 103 104
3 101 104 102
3 104 105 106
3 104 106 102
3 106 107 99
3 106 99 102
3 108 109 110
3 108 110 111
3 110 112 113
3 110 113 111
3 113 105 104
3 113 104 111
3 104 103 108
3 104 108 111
3 114 115 116
3 114 116 117
3 116 118 119
3 116 119 117
3 119 105 113
3 119 113 117
3 113 112 114
3 113 114 117
3 120 121 122
3 120 122 123
3 122 107 106
3 122 106 123
3 106 105 119
3 106 119 123
3 119 118 120
3 119 120 123
3 124 125 126
3 124 126 127
3 126 128 129
3 126 129 127
3 129 130 131
3 129 131 127
3 131 132 124
3 131 124 127
3 133 134 135
3 133 135 136
3 135 137 138
3 135 138 136
3 138 130 129
3 138 129 136
3 129 128 133
3 129 133 136
3 139 109 108
3 139 108 140
3 108 103 141
3 108 141 140
3 141 130 138
3 141 138 140
3 138 137 139
3 138 139 140
3 101 100 142
3 101 142 143
3 142 132 131
3 142 131 143
3 131 130 141
3 131 141 143
3 141 103 101
3 141 101 143
3 144 145 146
3 144 146 147
3 146 148 149
3 146 149 147
3 149 150 151
3 149 151 147
3 151 152 144
3 151 144 147
3 153 154 155
3 153 155 156
3 155 157 158
3 155 158 156
3 158 150 149
3 158 149 156
3 149 148 153
3 149 153 156
3 159 134 133
3 159 133 160
3 133 128 161
3 133 161 160
3 161 150 158
3 161 158 160
3 158 157 159
3 158 159 160
3 126 125 162
3 126 162 163
3 162 152 151
3 162 151 163
3 151 150 161
3 151 161 163
3 161 128 126
3 161 126 163
3 164 121 120
3 164 120 165
3 120 118 166
3 120 166 165
3 166 167 168
3 166 168 165
3 168 169 164
3 168 164 165
3 116 115 170
3 116 170 171
3 170 172 173
3 170 173 171
3 173 167 166
3 173 166 171
3 166 118 116
3 166 116 171
3 174 154 153
3 174 153 175
3 153 148 176
3 153 176 175
3 176 167 173
3 176 173 175
3 173 172 174
3 173 174 175
3 146 145 177
3 146 177 178
3 177 169 168
3 177 168 178
3 168 167 176
3 168 176 178
3 176 148 146
3 176 146 178
3 91 41 179
3 91 179 180
3 179 181 182
3 179 182 180
3 182 183 184
3 182 184 180
3 184 93 91
3 184 91 180
3 185 121 164
3 185 164 186
3 164 169 187
3 164 187 186
3 187 183 182
3 187 182 186
3 182 181 185
3 182 185 186
3 177 145 188
3 177 188 189
3 188 190 191
3 188 191 189
3 191 183 187
3 191 187 189
3 187 169 177
3 187 177 189
3 192 76 95
3 192 95 193
3 95 93 184
3 95 184 193
3 184 183 191
3 184 191 193
3 191 190 192
3 191 192 193
3 77 76 192
3 77 192 194
3 192 190 195
3 192 195 194
3 195 196 197
3 195 197 194
3 197 79 77
3 197 77 194
3 188 145 144
3 188 144 198
3 144 152 199
3 144 199 198
3 199 196 195
3 199 195 198
3 195 190 188
3 195 188 198
3 162 125 200
3 162 200 201
3 200 202 203
3 200 203 201
3 203 196 199
3 203 199 201
3 199 152 162
3 199 162 201
3 204 57 81
3 204 81 205
3 81 79 197
3 81 197 205
3 197 196 203
3 197 203 205
3 203 202 204
3 203 204 205
3 58 57 204
3 58 204 206
3 204 202 207
3 204 207 206
3 207 208 209
3 207 209 206
3 209 60 58
3 209 58 206
3 200 125 124
3 200 124 210
3 124 132 211
3 124 211 210
3 211 208 207
3 211 207 210
3 207 202 200
3 207 200 210
3 142 100 212
3 142 212 213
3 212 214 215
3 212 215 213
3 215 208 211
3 215 211 213
3 211 132 142
3 211 142 213
3 216 35 62
3 216 62 217
3 62 60 209
3 62 209 217
3 209 208 215
3 209 215 217
3 215 214 216
3 215 216 217
3 36 35 216
3 36 216 218
3 216 214 219
3 216 219 218
3 219 220 221
3 219 221 218
3 221 38 36
3 221 36 218
3 212 100 99
3 212 99 222
3 99 107 223
3 99 223 222
3 223 220 219
3 223 219 222
3 219 214 212
3 219 212 222
3 122 121 185
3 122 185 224
3 185 181 225
3 185 225 224
3 225 220 223
3 225 223 224
3 223 107 122
3 223 122 224
3 179 41 40
3 179 40 226
3 40 38 221
3 40 221 226
3 221 220 225
3 221 225 226
3 225 181 179
3 225 179 226
3 67 74 227
3 227 74 84
3 227 84 228
3 65 26 229
3 229 26 25
3 25 33 230
3 230 33 48
3 170 115 231
3 170 231 232
3 231 233 234
3 231 234 232
3 234 235 236
3 234 236 232
3 236 172 170
3 236 170 232
3 237 22 21
3 237 21 238
3 21 19 239
3 21 239 238
3 239 235 234
3 239 234 238
3 234 233 237
3 234 237 238
3 17 16 240
3 17 240 241
3 240 242 243
3 240 243 241
3 243 235 239
3 243 239 241
3 239 19 17
3 239 17 241
3 244 154 174
3 244 174 245
3 174 172 236
3 174 236 245
3 236 235 243
3 236 243 245
3 243 242 244
3 243 244 245
3 155 154 244
3 155 244 246
3 244 242 247
3 244 247 246
3 247 248 249
3 247 249 246
3 249 157 155
3 249 155 246
3 240 16 15
3 240 15 250
3 15 13 251
3 15 251 250
3 251 248 247
3 251 247 250
3 247 242 240
3 247 240 250
3 11 10 252
3 11 252 253
3 252 254 255
3 252 255 253
3 255 248 251
3 255 251 253
3 251 13 11
3 251 11 253
3 256 134 159
3 256 159 257
3 159 157 249
3 159 249 257
3 249 248 255
3 249 255 257
3 255 254 256
3 255 256 257
3 135 134 256
3 135 256 258
3 256 254 259
3 256 259 258
3 259 260 261
3 259 261 258
3 261 137 135
3 261 135 258
3 252 10 9
3 252 9 262
3 9 4 263
3 9 263 262
3 263 260 259
3 263 259 262
3 259 254 252
3 259 252 262
3 2 1 264
3 2 264 265
3 264 266 267
3 264 267 265
3 267 260 263
3 267 263 265
3 263 4 2
3 263 2 265
3 268 109 139
3 268 139 269
3 139 137 261
3 139 261 269
3 261 260 267
3 261 267 269
3 267 266 268
3 267 268 269
3 110 109 268
3 110 268 270
3 268 266 271
3 268 271 270
3 271 272 273
3 271 273 270
3 273 112 110
3 273 110 270
3 264 1 0
3 264 0 274
3 0 8 275
3 0 275 274
3 275 272 271
3 275 271 274
3 271 266 264
3 271 264 274
3 23 22 237
3 23 237 276
3 237 233 277
3 237 277 276
3 277 272 275
3 277 275 276
3 275 8 23
3 275 23 276
3 231 115 114
3 231 114 278
3 114 112 273
3 114 273 278
3 273 272 277
3 273 277 278
3 277 233 231
3 277 231 278
