0.280313
0.164432
0.182676
0.151694
0.00854639
0.285861
0.174856
0.0347354
0.257321
0.324323
0.278623
0.0478877
0.193027
0.135007
0.226156
0.433763
0.347028
0.298198
0.157317
0.251119
0.240157
0.212336
0.0959853
0.219004
0.149212
0.136255
0.0901242
0.213527
0.162448
0.168676
0.080992
0.110559
0.152786
0.207955
0.0956029
0.204088
0.0441889
0.206768
0.0997576
0.129335
0.0762467
0.0883553
0.0423117
0.0441105
0.0724559
0.0665234
0.150381
0.227903
0.0643347
0.143284
0.226505
0.153596
0.10607
0.219638
0.08387
0.170497
0.135609
0.265665
0.241649
0.210548
0.0337898
0.109232
0.220286
0.141689
0.291046
0.177421
0.181896
0.0488791
0.187493
0.292038
0.129159
0.108161
0.0607861
0.0809156
0.112689
0.110091
0.11994
0.049102
0.108262
0.0686238
0.0834983
0.187034
0.142256
0.0528166
0.242971
0.0276426
0.278247
0.0773579
0.0409923
0.278427
0.183193
0.117976
0.148324
0.168354
0.246073
0.287594
0.0791787
0.168097
0.188094
0.130957
0.261593
0.160223
0.0796716
0.203614
0.118318
0.204845
0.163066
0.232307
0.127223
0.0202053
0.207907
0.114634
0.103714
0.110909
0.156959
0.171273
0.169455
0.129486
0.207887
0.21973
0.179556
0.19035
0.14002
0.0549698
0.0518754
0.0861377
0.193366
0.102696
0.142449
0.109401
0.0966648
0.108713
0.111383
0.103811
0.114471
0.123916
0.221044
0.0989495
0.167993
0.157662
0.0485089
0.23928
0.0989321
0.0423426
0.18023
0.0696031
0.10933
0.156585
0.175318
0.110989
0.190172
0.145799
0.213703
0.172813
0.257037
0.128729
0.24144
0.074762
0.0803871
0.135666
0.190988
0.144162
0.104198
0.134515
0.147668
0.427747
0.110129
0.21155
0.465519
0.478527
0.578727
0.494973
0.546522
0.259753
0.229982
0.306623
0.268643
0.471893
0.108614
0.430789
0.512607
0.444702
0.405371
0.314862
0.260437
0.414033
0.254471
0.37536
0.249853
0.117619
0.513627
0.285197
0.403947
0.370841
0.255886
0.218257
0.220427
0.525539
0.402269
0.568952
0.488331
0.318713
0.541978
0.383215
0.102183
0.212754
0.313079
0.54012
0.577156
0.565157
0.501864
0.355832
0.265777
0.32673
0.502155
0.406193
0.524411
0.425785
0.501415
0.541553
0.426489
0.271807
0.534132
0.506371
0.492899
0.491314
0.546457
0.430918
0.390413
0.425121
0.385315
0.506402
0.153215
0.470407
0.331398
0.343197
0.272684
0.554191
0.522307
0.415886
0.281773
0.335671
0.410823
0.298023
0.456906
0.260404
0.294125
0.514343
0.508074
0.40467
0.603053
0.395285
0.490655
0.565999
0.497288
0.495639
0.512751
0.528724
0.398826
0.542432
0.416337
0.493749
0.527138
0.533265
0.499034
0.403293
0.447051
0.491846
0.512409
0.535754
0.563522
0.56107
0.574839
0.539223
0.62481
0.410534
0.348709
0.523019
0.51075
0.276768
0.337542
0.560645
0.54987
0.365135
0.505216
0.528919
0.601797
0.61506
0.621105
0.202517
0.262213
0.103436
0.133008
0.0604371
0.0365058
0.136682
0.908381
0.09126
0.0555429
0.0290721
0.0395619
0.402348
0.0974368
0.0778949
0.0463864
0.144115
0.384184
0.176782
0.0366373
0.294649
0.153406
0.720145
0.0846456
0.225325
0.0514503
0.447446
0.390027
0.410917
0.0800752
0.326549
0.138986
0.357743
0.127878
0.195088
0.100433
0.224811
0.199079
0.382524
0.0574715
0.236785
0.205127
0.210262
0.215938
0.13902
0.196663
0.115116
0.359802
0.094551
0.304578
0.31944
0.12354
0.0880336
0.283886
0.0314219
0.213102
0.457618
0.21282
0.0382549
0.130262
0.0589364
0.27654
0.0916701
0.290486
0.0527893
0.21188
0.0719173
0.350703
0.0648559
0.273
0.066756
0.0927805
0.175006
0.290324
0.0945711
0.130637
0.142742
0.00413735
0.199475
0.0600312
0.176013
0.185724
0.23751
0.212869
0.0555398
0.0629337
0.134464
0.12564
0.328197
0.28264
0.0260814
0.167353
0.226761
0.39405
0
0.177348
0.0696218
0.524923
0.646421
0.488899
0.436237
0.542834
0.513543
0.531687
0.497813
0.240044
0.214617
0.171383
0.201947
0.298663
0.342947
0.337613
0.283513
0.165073
0.179981
0.331897
0.306944
0.285069
0.260086
0.209884
0.171756
0.576566
0.676603
0.315219
0.49773
0.36969
0.528254
0.362438
0.463838
0.236945
0.272959
0.259243
0.432769
0.246387
0.157572
0.202964
0.344364
0.290302
0.224584
0.47515
0.47762
0.545568
0.345378
1
0.408794
0.493653
0.385616
0.142006
0.250894
0.273998
0.167073
0.333978
0.201893
0.157107
0.251447
0.227495
0.307692
0.268618
0.272804
0.185464
0.211801
0.541693
0.379386
0.268167
0.555288
0.785407
0.422436
0.743633
0.392092
0.190947
0.282486
0.126782
0.240571
0.442664
0.284453
0.376238
0.215162
0.225068
0.212087
0.233402
0.197881
0.248694
0.31949
0.220685
0.226618
