0.340723
0.44483
0.53542
0.411547
0.536182
0.52395
0.551128
0.467523
0.538775
0.574603
0.57403
0.5616
0.535805
0.584906
0.414708
0.36367
0.369289
0.37584
0.275014
0.341649
0.579917
0.484605
0.548671
0.526402
0.375647
0.331066
0.488975
0.45099
0.540624
0.469056
0.233406
0.321658
0.317052
0.501747
0.0424294
0.288277
0.79389
0.466968
0.436479
0.32364
0.561028
0.448583
0.494924
0.530676
0.533247
0.472869
0.490558
0.428302
0.432156
0.404119
0.482837
0.435232
0.345783
0.369822
0.491836
0.421452
0.502356
0.623589
0.477723
0.75205
0.750955
0.710237
0.535922
0.62877
0.881317
0.615827
0.655484
0.491704
0.588333
0.474476
0.529403
0.694688
0.636003
0.604893
0.585662
0.548375
0.615512
0.644731
0.647806
0.656674
0.660313
0.551737
0.579444
0.676606
0.777046
0.706824
0.595043
0.658827
0.708549
0.636897
0.710873
0.721911
0.567339
0.319672
0.680162
0.57195
0.624747
0.891652
0.642291
0.522035
0.697938
0.577547
0.590812
0.725932
0.664932
0.684008
0.616339
0.521606
0.705636
0.639839
0.747871
0.738923
0.534085
0.602862
0.549692
0.632048
0.7127
0.549274
0.6864
0.748679
0.539081
0.750839
0.671319
0.686017
0.591431
0.662902
0.704741
0.65828
0.605881
0.444162
0.753882
0.508308
0.612425
0.592732
0.497537
0.622596
0.735573
0.725689
0.761689
0.705554
0.701684
0.616802
0.700898
0.65499
0.734815
0.752876
0.622371
0.663951
0.602572
0.652789
0.651531
0.627502
0.738104
0.733718
0.689338
0.692974
0.345313
0.777629
0.508867
0.659567
0.71807
0.785472
0.476115
0.429424
0.592271
0.765471
0.521317
0.774265
0.547036
0.705025
0.648809
0.583723
0.415199
0.664646
0.37895
0.657985
0.692078
0.770905
0.55693
0.651363
0.585827
0.766965
0.73144
0.734877
0.739489
0.674771
0.721912
0.568142
0.661873
0.60737
0.62628
0.629583
0.597714
0.619891
0.616441
0.497955
0.715393
0.823014
0.708352
0.688169
0.616569
0.594873
0.60269
0.652204
0.647252
0.691556
0.628905
0.806193
0.659051
0.59546
0.574964
0.707685
0.565565
0.586989
0.677025
0.709757
0.676458
0.567393
0.551702
0.569931
0.632056
0.63787
0.369921
0.665928
0.660718
0.523435
0.630367
0.74005
0.777988
0.792666
0.612343
0.672336
0.812309
0.712618
0.567636
0.638863
0.595151
0.711071
0.782363
0.688744
0.61107
0.577512
0.67983
0.536669
0.652442
0.628787
0.606727
0.453714
0.576338
0.664111
0.669614
0.541171
0.683095
0.634699
0.606359
0.734677
0.600487
0.589887
0.569636
0.557036
0.696018
0.490258
0.731827
0.654221
0.662403
0.635427
0.59766
0.64665
0.728553
0.572703
0.641362
0.709818
0.629745
0.686396
0.627197
0.624614
0.584405
0.577996
0.750033
0.551911
0.704674
0.513007
0.673476
0.655175
0.667225
0.698194
0.621212
0.530864
0.66319
0.447843
0.615768
0.3731
0.613872
0.728632
0.597787
0.598396
0.680093
0.580865
0.69759
0.656216
0.579513
0.537402
0.675063
0.477074
0.596775
0.637784
0.597728
0.495654
0.627105
0.405902
0.506199
0.661008
0.388583
0.605419
0.576998
0.382221
0.407559
0.395102
0.425956
0.475378
0.470163
0.421752
0.450076
0.570872
0.558886
0.54249
0.547643
0.605845
0.569025
0.55785
0.593733
0.57088
0.502458
0.486464
0.517151
0.634184
0.560866
0.513892
0.420808
0.71012
0.74288
0.704603
0.632122
0.586283
0.679006
0.668353
0.361015
0.691745
0.658103
0.641986
0.627145
0.592544
0.704542
0.565258
0.666899
0.684609
0.686755
0.695309
0.71277
0.720262
0.677326
0.661155
0.676064
0.683031
0.707873
0.670419
0.6727
0.652822
0.640272
0.677623
0.725531
0.583674
0.550699
0.613133
0.6672
0.721181
0.715217
0.7341
0.671498
0.614933
0.541232
0.736947
0.673049
0.558394
0.716004
0.561087
0.519679
0.317141
0.166166
0.30483
0.274589
0.379579
0.357555
0.248648
0.205713
0.54959
0.540806
0.516295
0.503555
0.534224
0.52558
0.392329
0.384103
0.294398
0.565331
0.419427
0.327282
0.497251
0.464522
0.529131
0.447036
0.138041
0.219438
0.277492
0.298655
0.483874
0.461567
0.326198
0.279647
0.714317
0.662073
0.688984
0.731467
0.704912
0.714727
0.564599
0.669752
0.545608
0.662389
0.628942
0.536407
0.624891
0.627059
0.547131
0.721058
0.53933
0.452816
0.717513
0.682743
0.70887
0.74994
0.538747
0.530521
0.703519
0.631613
0.636772
0.761823
0.709261
0.655438
0.844688
0.699194
0.553698
0.556265
0.566796
1
0.597942
0.550222
0.540911
0.563793
0.615471
0.542498
0.624902
0.651244
0.539623
0.681671
0.604314
0.519371
0.747631
0.593014
0.609956
0.668499
0.567777
0.649888
0.692433
0.635997
0.546463
0.500216
0.52062
0.531643
0.596004
0.601283
0.586424
0.487836
0.311963
0.4392
0.351564
0.283068
0.501715
0.431198
0.434112
0.441811
0.34419
0.597254
0.472194
0.551864
0.590848
0.557138
0.407658
0.494459
0.498524
0.524777
0.470033
0.489345
0.543859
0.503422
0.529155
0.582741
0.575143
0.39478
0.457072
0.297865
0.44644
0.516764
0.45636
0.491608
0.40339
0.442344
0.469182
0.485328
0.463935
0.487406
0.476182
0.469042
0.482085
0.536559
0.508044
0.524429
0.529411
0.49857
0.478001
0.423367
0.513517
0.494501
0.564993
0.529968
0.553089
0.531023
0.516649
0.505573
0.519034
0.429774
0.445764
0.435522
0.468589
0.45986
0.487808
0.511587
0.495825
0.33597
0.39288
0.448385
0.457197
0.41533
0.494389
0.26926
0.25109
0.61295
0.534488
0.645442
0.563369
0.425523
0.528366
0.541326
0.609816
0.634781
0.617693
0.598365
0.613116
0.576057
0.553368
0.394402
0.664364
0.302824
0.418771
0.352231
0.251729
0.464059
0.476427
0.476268
0.449838
0.479706
0.517042
0.474477
0.487709
0.485306
0.484062
0.533922
0.496869
0.455719
0.481255
0.494319
0.53855
0.527179
0.481627
0.474635
0.469289
0.478162
0.483054
0.473901
0.484256
0.514647
0.417409
0.593717
0.530412
0.510546
0.53877
0.496346
0.514513
0.485901
0.470801
0.492532
0.520825
0.473352
0.486172
0.477614
0.505572
0.476978
0.480112
0.481052
0.539756
0.553221
0.578364
0.533611
0.549599
0.495066
0.482988
0.528775
0.629801
0.59289
0.476419
0.513456
0.627693
0.433933
0.577573
0.612278
0.533014
0.416137
0.518363
0.456375
0.452246
0.548779
0.430819
0.471367
0.517564
0.383237
0.3381
0.579968
0.556033
0.456456
0.404719
0.372461
0.455917
0.479955
0.564232
0.613604
0.511651
0.574064
0.540997
0.632161
0.56198
0.577411
0.370639
0.463316
0.584144
0.522519
0.445292
0.629644
0.511526
0.476458
0.492913
0.374603
0.437568
0.43033
0.457459
0.415447
0.403818
0.392546
0.369528
0.275579
0.326537
0.0933883
0.116274
0.631701
0.354764
0.30203
0.52085
0.592222
0.31083
0.483421
0.129
0.174571
0.196824
0.314057
0.29809
0.0763253
0.200837
0.0821185
0.104748
0.264142
0.386258
0.639907
0.3587
0.401277
0.124651
0.0587152
0.108795
0.196115
0.296752
0.50187
0.421164
0.224656
0.371675
0.581453
0.47124
0.54748
0.347306
0.272752
0.268012
0.327542
0.266463
0.416444
0.438195
0.124482
0.370018
0.126544
0.0736598
0.0294354
0.0603455
0.114455
0.199511
0.170697
0.176892
0.395116
0.321788
0.437857
0.39555
0.139147
0.146271
0.126939
0.188071
0.431782
0.231669
0.101347
0.117811
0.0807123
0.117891
0.398739
0.409301
0.358314
0.00471867
0.177821
0.111447
0.121641
0.00172842
0.102532
0.0114652
0.152279
0.0914278
0.0144351
0.0948661
0.286263
0.163436
0.143917
0.0641229
0.341112
0.254211
0.436768
0.32425
0.188606
0.270196
0.0330584
0.169509
0.42399
0.340611
0.383218
0.372594
0.113384
0.185719
0.153232
0.17883
0.354345
0.323678
0.0988844
0.143017
0.053723
0.121314
0.415946
0.352294
0.110601
0.0764657
0.252675
0.0952501
0
0.0617441
0.0206795
0.0387093
0.142852
0.139331
0.0755558
0.0704236
0.162855
0.0752476
0.35017
0.176535
0.554385
0.296047
0.134875
0.250667
0.0829799
0.163323
0.342603
0.217461
0.34962
0.172326
0.149837
0.111711
0.0728513
0.0838829
0.102989
0.0835838
0.271059
0.204038
0.0885767
0.116743
0.0181169
0.0316495
0.221391
0.128822
0.28025
0.244921
0.391262
0.401205
0.0684718
0.0761674
0.236693
0.232981
0.488597
0.62443
0.228632
0.399075
0.542926
0.486393
0.562481
0.572764
0.353693
0.37965
0.574513
0.501819
0.585877
0.560629
0.300743
0.363027
0.384435
0.36372
0.414402
0.416446
0.529557
0.533569
0.602188
0.600484
0.472188
0.704827
0.660265
0.576691
0.536193
0.564329
0.375324
0.456588
0.450389
0.477925
0.451722
0.241971
0.504357
0.520606
0.522588
0.533917
0.493684
0.488241
0.308995
0.488703
0.508777
0.527617
0.240147
0.0638189
0.410606
0.404897
0.48693
0.479987
0.476768
0.445245
0.353404
0.345479
0.47433
0.475628
0.432323
0.412231
0.475176
0.443135
0.47397
0.483802
0.503199
0.528099
0.498248
0.506871
0.48674
0.479932
0.475906
0.471938
0.44671
0.504326
0.470634
0.499911
0.493502
0.471109
0.489514
0.495964
0.391716
0.355893
0.523492
0.365061
0.504386
0.39206
0.475576
0.485243
0.306046
0.347866
0.49899
0.558279
0.504499
0.589255
0.283092
0.329578
0.240664
0.491167
0.496244
0.359386
0.201114
0.299217
0.041202
0.480333
0.325194
0.3034
0.172584
0.21747
0.210586
0.207191
0.513488
0.316821
0.194324
0.316982
0.130645
0.165971
0.167633
0.241366
0.15163
0.169734
0.341666
0.245411
0.323662
0.274033
0.137517
0.152923
0.366015
0.0949567
0.478975
0.469878
0.422106
0.446943
0.445645
0.457474
0.478936
0.557869
0.381528
0.384034
0.262214
0.428004
0.366456
0.395895
0.395743
0.395442
0.254681
0.393361
0.470312
0.447626
0.423882
0.420118
0.398504
0.41507
0.480998
0.479488
0.475783
0.476193
0.455224
0.487958
0.529772
0.48814
0.475104
0.463993
0.4804
0.473752
0.472331
0.480895
0.483734
0.484297
0.473062
0.299359
0.372015
0.474336
0.406021
0.48555
0.480161
0.429686
0.462031
0.357291
0.455312
0.460638
0.454103
0.414102
0.385684
0.474325
0.452336
0.378954
0.390511
0.390844
0.379719
0.385731
0.479932
0.440249
0.401302
0.380113
0.311906
0.382081
0.50961
0.348955
0.492346
0.366504
0.405219
0.378999
0.444733
0.377976
0.136741
0.249944
0.416753
0.391966
0.385578
0.43283
0.414687
0.423379
0.277433
0.50194
0.263919
0.455447
0.192107
0.461911
