0.429773
0.26014
0.286715
0.535744
0.690892
0.521438
0.710461
0.280354
0.397745
0.636047
0.681391
0.818897
0.750522
0.607751
0.409463
0.559793
0.895356
0.458648
0.705046
0.530638
0.220277
0.681001
0.508685
0.637918
0.660851
0.594747
0.212751
0.511273
0.815608
0.831732
0.661399
0.708701
0.671582
0.481579
0.398217
0.45437
0.356722
0.471566
0.408753
0.364176
0.427822
0.129636
0.461029
0.554505
0.329324
0.469296
0.873795
0.55171
0.510986
0.693215
0.669374
0.690775
0.88081
0.400419
0.67179
0.638043
0.215373
0.655833
0.483198
0.557966
0.421275
0.25745
0.123713
0.548061
0.650046
0.568441
0.531882
0.62485
0.594915
0.596502
0.404114
0.226913
0.600412
0.256697
0.581829
0.764499
0.538794
0.524958
0.446889
0.526796
0.594556
0.669595
0.696079
0.330333
0.591592
0.178119
0.435958
0.652905
0.712879
0.828956
0.420281
0.338179
0.44028
0.491766
0.537002
0.727802
0.559832
0.580165
0.436774
0.304594
0.25028
0.674751
0.357762
0.667218
0.469058
0.583056
0.609908
0.103466
0.791626
0.631283
0.149531
0.594063
0.318911
0.575704
0.303657
0.372958
0.141507
0.200995
0.205134
0.454409
0.386017
0.49708
0.178956
0.576493
0.65128
0.744325
0.319971
0.655069
0.656218
0.646623
0.522729
0.537202
0.82006
0.899259
0.237265
0.700846
0.713489
0.588704
0.478253
0.661029
0.40142
0.678566
0.92463
0.617757
0.330628
0.772992
0.658832
0.668628
0.311125
0.467379
0.527182
0.500569
0.67682
0.529075
0.695379
0.200683
0.589487
0.313347
0.483167
0.154054
0.410568
0.621063
0.636096
0.386429
0.336878
0.530889
0.440553
0.572208
0.579559
0.415392
0.293046
0.507343
0.654614
0.19763
0.53621
0.301921
0.588726
0.58202
0.537319
0.570054
0.673572
0.662717
0.861555
0.532262
0.534413
0.716259
0.708481
0.682402
0.645021
0.599075
0.703179
0.67958
0.670408
0.453058
0.651721
0.729427
0.662659
0.6214
0.62778
0.561834
0.647288
0.638762
0.514384
0.666802
0.667925
0.724302
0.676186
0.687793
0.863353
0.785907
0.755546
0.372403
0.885419
0.577198
0.576211
0.945065
0.7167
0.261921
0.581648
1
0.586019
0.657414
0.566813
0.340686
0.581606
0.611733
0.268106
0.259545
0.38495
0.586887
0.518945
0.589344
0.31249
0.690045
0.600793
0.434965
0.601472
0.406416
0.393912
0.665081
0.667583
0.660751
0.707876
0.78584
0.738068
0.686412
0.648455
0.808775
0.672219
0.66292
0.695481
0.795311
0.613924
0.557243
0.706722
0.514743
0.808968
0.65551
0.688821
0.669122
0.579692
0.615405
0.766735
0.53146
0.603164
0.702458
0.713959
0.685976
0.699476
0.649062
0.776162
0.670772
0.643662
0.382533
0.654047
0.728171
0.359688
0.638288
0.711663
0.154531
0.276844
0.672526
0.70733
0.556376
0.479946
0.075989
0.718069
0.692734
0.480064
0.526405
0.164133
0.256852
0.666795
0.270433
0.388024
0.157332
0.31945
0.0460224
0.134332
0
0.348295
0.149411
0.231655
0.373522
0.533799
0.61128
0.77297
0.646288
0.547648
0.158939
0.737581
0.169219
0.764984
0.277231
0.18289
0.4405
0.0342096
0.391356
0.261266
0.337517
0.65366
0.432088
0.430026
0.324519
0.170635
0.211489
0.62693
0.461769
0.0445713
0.186868
0.16814
0.162557
0.285081
0.423266
0.536682
0.216419
0.115122
0.212278
0.175754
0.285565
0.291379
0.0790666
0.419033
0.0119897
0.185483
0.465293
0.738242
0.600213
0.106076
0.0420464
0.167397
0.833201
0.47159
0.540877
0.546789
0.384075
0.741945
0.399705
0.532316
0.376389
0.0772554
0.149727
0.202322
0.358108
0.189912
0.593446
0.054007
0.116812
0.0623147
0.0679654
0.636034
0.669572
0.490482
0.745967
0.653682
0.468442
0.622382
0.66291
0.659507
0.68181
0.542809
0.462149
0.686544
0.146828
0.569847
0.524607
0.731766
0.74267
0.885894
0.636049
0.750199
0.572078
0.48142
0.459801
0.858739
0.178318
0.49961
0.189314
0.453634
0.215701
0.436752
0.609908
0.323775
0.671304
0.686346
0.480351
0.354438
0.67235
0.371838
0.183364
0.698578
0.591993
0.769492
0.15003
0.687273
0.660497
0.995138
0.529868
0.73105
0.773398
0.546023
0.108215
0.878527
0.418717
0.248334
0.437726
0.405304
0.887916
0.458577
0.589883
0.494557
0.401482
0.441112
0.282798
0.364944
0.457753
0.47692
0.374061
0.45026
0.39956
0.444589
0.584446
0.477335
0.491117
0.482174
0.450118
0.339853
0.412638
0.374162
0.834725
0.442828
0.262041
0.602598
0.429709
0.290264
0.465379
0.490258
0.493863
0.32669
0.47928
0.102506
0.576292
0.525874
0.543474
0.582917
0.572932
0.527148
0.463986
0.127428
0.172814
0.316967
0.378119
0.534265
0.604151
0.494905
0.366922
0.42936
0.410461
0.447267
0.307472
0.482338
0.396392
0.465054
0.406493
0.428048
0.696113
0.422932
0.487659
0.462867
0.355496
0.39363
0.363415
0.163298
0.16515
0.446928
0.207697
0.492711
0.488847
0.810209
0.544131
0.514894
0.465083
0.0854421
0.370065
0.452816
0.289173
0.335888
0.462234
0.448402
0.121426
0.400031
0.527561
0.426074
0.341448
0.315727
0.445897
0.343978
0.492829
