OFF
258 501 0
8.58608 -11.3553 -6.12784
8.48974 -10.9507 -5.81384
8.40077 -11.3841 -5.81284
8.47403 -11.6306 -6.11184
8.23237 -11.4872 -5.78184
8.29508 -11.754 -6.10584
8.32211 -11.8526 -6.50184
8.51395 -11.7199 -6.47784
8.63378 -11.4247 -6.46384
8.03802 -11.4647 -5.85684
7.77742 -11.1088 -5.89784
7.86688 -11.5151 -6.21784
8.08214 -11.7177 -6.16084
7.86153 -11.5964 -6.56384
8.09291 -11.8136 -6.53184
7.88131 -11.5372 -6.90784
7.80588 -11.1525 -7.25584
8.06658 -11.5084 -7.22284
8.09769 -11.7415 -6.90484
8.26295 -11.5339 -7.24584
8.31177 -11.7795 -6.90384
8.42918 -11.4276 -7.17284
8.51777 -10.9934 -7.15584
8.60038 -11.3772 -6.81184
8.48952 -11.6542 -6.85284
5.42704 1.40122 3.17216
5.47555 1.51032 3.27516
5.44345 1.81832 3.40416
5.66515 2.28762 1.91116
6.22241 1.17162 1.23816
5.5525 1.64372 2.35316
5.76604 3.14252 2.21216
5.73122 3.18282 2.04716
5.68191 3.11962 2.56216
7.1534 0.144323 1.39816
7.24946 0.301923 1.17416
7.15853 0.443623 1.37716
7.30221 0.738723 0.863162
7.19912 0.712423 1.21116
7.3263 0.315823 0.672162
7.28663 0.0536227 0.843162
7.21927 -0.184977 0.942162
7.30697 0.744823 0.235162
7.2459 1.10852 0.655162
7.33439 0.560023 0.458162
6.79039 1.70202 1.21616
7.21015 0.992623 0.982162
7.00535 -0.198077 1.23116
6.87559 -0.166977 1.11916
6.9382 -0.470577 0.690162
6.80524 -0.0791773 0.916162
6.87117 -0.388777 0.490162
7.11279 -0.193577 1.18216
6.99735 0.0339227 1.48016
6.89525 0.914723 0.168162
6.86705 0.512023 0.109162
6.78187 0.752223 0.341162
6.78726 0.377223 0.454162
6.96013 0.554323 -0.226838
6.97411 -0.504677 -1.09784
6.85247 0.0469227 0.049162
6.78145 0.126223 0.670162
6.84397 -0.201777 0.265162
7.1806 1.21002 0.456162
7.14961 0.819823 -0.124838
7.06543 1.25072 0.330162
7.24015 0.828823 0.033162
6.99366 1.08912 0.167162
7.05104 0.725723 -0.218838
7.27432 -1.31268 -0.664838
7.3385 -1.12028 -0.748838
7.32348 -2.23098 -1.88684
7.38527 -2.07428 -1.96184
7.42742 -1.89798 -2.08684
7.37985 -0.906377 -0.892838
7.38837 -3.29458 -3.14184
7.46999 -4.43508 -4.24684
7.52731 -4.35038 -4.32084
7.44775 -3.17538 -3.21284
7.56779 -4.25248 -4.42884
7.48983 -3.03928 -3.32384
7.58656 -4.15718 -4.55284
7.57879 -4.08038 -4.67284
7.50186 -2.80408 -3.58884
7.50955 -2.90818 -3.45584
7.40457 -1.07478 -1.82484
7.44504 -1.73028 -2.23884
6.97256 -1.45568 -1.02784
7.02715 -1.52818 -0.864838
7.05286 -2.33018 -2.18284
7.09924 -2.39468 -2.04584
7.16807 -2.39628 -1.94184
7.10484 -1.52378 -0.738838
7.14166 -3.35358 -3.36884
7.23054 -4.46688 -4.41284
7.26997 -4.50848 -4.31584
7.18209 -3.40778 -3.25584
7.33034 -4.51588 -4.25184
7.24423 -3.41388 -3.17384
7.40068 -4.49088 -4.22584
7.31676 -3.37518 -3.13284
7.24695 -2.34008 -1.88484
7.19183 -1.44948 -0.666838
7.0756 -0.682277 -1.62484
7.1642 -1.68948 -2.69884
7.10214 -1.84778 -2.62284
7.01441 -1.56058 -1.94384
7.25677 -2.85598 -3.82184
7.34089 -4.10708 -4.84484
7.28331 -4.19268 -4.76984
7.19713 -2.97648 -3.75084
7.24232 -4.29228 -4.65984
7.15451 -3.11488 -3.63784
7.22302 -4.38918 -4.53384
7.13424 -3.24828 -3.50284
7.04132 -2.19778 -2.34084
7.32156 -0.475877 -1.41884
7.38712 -1.53328 -2.53384
7.31882 -1.52868 -2.63984
7.24435 -0.476677 -1.54684
7.53962 -4.03788 -4.77084
7.4617 -2.74868 -3.70284
7.47976 -4.02878 -4.83684
7.4001 -2.74018 -3.78784
7.40995 -4.05218 -4.86484
7.32811 -2.77658 -3.83084
7.24047 -1.58198 -2.69984
7.15785 -0.547277 -1.62184
7.56933 -5.58408 -5.01584
7.62534 -5.52608 -5.10584
7.67712 -6.66608 -5.51084
7.73341 -6.62778 -5.62684
7.76556 -6.58648 -5.77684
7.66202 -5.45968 -5.22884
7.78412 -7.60528 -5.79284
7.88107 -8.32618 -5.92384
7.96106 -8.27628 -6.18384
7.86284 -7.53008 -6.03684
7.89677 -8.22108 -6.74884
7.74525 -6.52038 -6.07884
7.77051 -6.54848 -5.93584
7.9399 -8.19178 -6.55384
7.66104 -5.34428 -5.48784
7.67528 -5.39548 -5.36284
7.31108 -5.61098 -5.13984
7.35714 -5.63798 -5.04684
7.3776 -6.70458 -5.60784
7.43628 -6.71588 -5.50784
7.51488 -6.71198 -5.45484
7.42341 -5.64148 -4.99084
7.4244 -7.66588 -5.87584
7.44599 -8.72098 -6.04484
7.58038 -8.34628 -5.81984
7.50011 -7.66198 -5.75984
7.59622 -7.64878 -5.70584
7.77874 -8.34848 -5.82384
7.69636 -7.62888 -5.71584
7.59972 -6.69478 -5.45484
7.49808 -5.62308 -4.97884
7.40411 -5.36778 -5.61784
7.34788 -5.42638 -5.52684
7.4467 -6.55678 -6.18484
7.39024 -6.59538 -6.06784
7.38133 -7.64038 -6.24784
7.31076 -5.49398 -5.40184
7.46894 -7.59298 -6.58784
7.46885 -8.55628 -6.93284
7.40466 -8.50468 -6.71784
7.37429 -8.61448 -6.50084
7.39056 -8.55358 -6.23784
7.3855 -7.65748 -6.04884
7.35249 -6.67608 -5.75284
7.29705 -5.55928 -5.26584
7.6152 -5.31678 -5.58184
7.69086 -6.57688 -6.21384
7.60845 -6.51198 -6.23584
7.54937 -5.31208 -5.63884
7.8223 -8.46328 -6.97884
7.6996 -8.54918 -7.07284
7.65652 -7.55008 -6.67084
7.57492 -8.46408 -7.00784
7.5285 -6.60788 -6.27684
7.47514 -5.32938 -5.65384
7.9753 -8.83418 -5.96784
8.08057 -8.82988 -6.32784
8.18546 -9.43938 -5.81984
8.36489 -9.65608 -6.10684
8.32983 -9.41448 -6.52284
8.37936 -9.67858 -6.91784
8.18202 -9.40738 -7.25584
8.06645 -8.85668 -6.80884
7.97579 -8.76928 -6.98984
7.54592 -8.94468 -5.87984
7.6942 -8.89898 -5.81084
7.41679 -9.53578 -5.92284
7.63724 -9.80128 -5.64684
7.87027 -9.83808 -5.54284
8.06898 -9.70868 -5.59684
7.8556 -8.90198 -5.83484
7.42748 -9.46508 -7.34384
7.32226 -9.49138 -7.04584
7.28642 -9.50328 -6.66284
7.31288 -9.52178 -6.27184
7.96203 -9.28058 -7.41784
7.79779 -9.41728 -7.54884
8.10553 -9.76578 -7.50084
7.676 -9.86768 -7.56484
7.58233 -9.32328 -7.45884
8.3097 -9.91708 -5.76184
8.41897 -10.4369 -5.75184
8.53621 -10.4326 -6.07684
8.58267 -10.4464 -6.47884
8.47014 -9.90908 -6.49684
8.59828 -10.9362 -6.10284
8.64698 -10.9759 -6.46584
8.61368 -10.9597 -6.83984
8.44985 -10.4847 -7.24384
8.55298 -10.4586 -6.88984
8.33995 -9.96558 -7.26984
7.5103 -10.0946 -5.85584
7.62649 -10.6128 -5.84384
7.80431 -10.5751 -5.61684
8.02091 -10.5338 -5.52284
7.93323 -11.0656 -5.68484
8.13559 -11.0555 -5.59784
8.32521 -10.9787 -5.63884
8.23651 -10.4792 -5.56784
7.54098 -10.1438 -7.38484
7.50419 -10.536 -7.04384
7.65778 -10.6613 -7.35684
7.50153 -10.6868 -6.61884
7.38034 -10.1515 -6.63884
7.69664 -11.1639 -6.96384
7.66316 -11.1947 -6.59284
7.68101 -11.14 -6.21584
7.48601 -10.5061 -6.19884
8.27594 -10.5402 -7.47384
8.06332 -10.5994 -7.57384
7.94601 -10.0636 -7.60384
8.36141 -11.0341 -7.37184
8.17456 -11.1151 -7.46184
7.96967 -11.1214 -7.42784
7.84403 -10.6366 -7.53684
6.18861 2.46542 1.95016
6.47441 2.17342 1.33516
6.17802 2.52692 1.46716
5.721 2.76152 1.80116
5.74766 2.99812 1.85716
6.42704 0.359823 1.41516
6.18814 0.870323 1.48016
5.58743 1.30032 2.54316
6.19134 0.561723 1.98816
5.46548 1.32922 2.91116
6.33748 0.950723 2.35716
5.51308 2.15762 3.29216
5.65169 2.49552 2.98816
6.47761 1.86482 1.84316
5.67891 2.84172 2.77216
3 0 1 2
3 0 2 3
3 2 4 5
3 2 5 3
3 5 6 7
3 5 7 3
3 7 8 0
3 7 0 3
3 9 10 11
3 9 11 12
3 11 13 14
3 11 14 12
3 14 6 5
3 14 5 12
3 5 4 9
3 5 9 12
3 15 16 17
3 15 17 18
3 17 19 20
3 17 20 18
3 20 6 14
3 20 14 18
3 14 13 15
3 14 15 18
3 21 22 23
3 21 23 24
3 23 8 7
3 23 7 24
3 7 6 20
3 7 20 24
3 20 19 21
3 20 21 24
3 25 26 27
3 28 29 30
3 31 32 33
3 34 35 36
3 35 37 38
3 35 38 36
3 39 37 35
3 39 35 40
3 35 34 41
3 35 41 40
3 42 43 37
3 42 37 44
3 37 39 44
3 43 45 46
3 38 37 46
3 37 43 46
3 47 48 49
3 48 50 51
3 48 51 49
3 41 34 52
3 47 52 53
3 52 34 53
3 54 55 56
3 55 57 56
3 58 59 55
3 59 60 55
3 60 57 55
3 55 54 58
3 51 50 61
3 51 61 62
3 61 57 60
3 61 60 62
3 63 45 43
3 64 65 63
3 64 63 66
3 63 43 42
3 63 42 66
3 58 54 67
3 58 67 68
3 67 65 64
3 67 64 68
3 40 41 69
3 40 69 70
3 69 71 72
3 69 72 70
3 72 73 74
3 72 74 70
3 74 39 40
3 74 40 70
3 75 76 77
3 75 77 78
3 77 79 80
3 77 80 78
3 80 73 72
3 80 72 78
3 72 71 75
3 72 75 78
3 81 82 83
3 81 83 84
3 83 85 86
3 83 86 84
3 86 73 80
3 86 80 84
3 80 79 81
3 80 81 84
3 85 42 44
3 85 44 86
3 44 39 74
3 44 74 86
3 74 73 86
3 49 51 87
3 49 87 88
3 87 89 90
3 87 90 88
3 90 91 92
3 90 92 88
3 92 47 49
3 92 49 88
3 93 94 95
3 93 95 96
3 95 97 98
3 95 98 96
3 98 91 90
3 98 90 96
3 90 89 93
3 90 93 96
3 99 76 75
3 99 75 100
3 75 71 101
3 75 101 100
3 101 91 98
3 101 98 100
3 98 97 99
3 98 99 100
3 69 41 52
3 69 52 102
3 52 47 92
3 52 92 102
3 92 91 101
3 92 101 102
3 101 71 69
3 101 69 102
3 59 58 103
3 103 104 105
3 103 105 59
3 105 106 59
3 106 60 59
3 107 108 109
3 107 109 110
3 109 111 112
3 109 112 110
3 112 106 105
3 112 105 110
3 105 104 107
3 105 107 110
3 113 94 93
3 113 93 114
3 93 89 115
3 93 115 114
3 115 106 112
3 115 112 114
3 112 111 113
3 112 113 114
3 87 51 62
3 87 62 115
3 62 60 106
3 62 106 115
3 115 89 87
3 66 42 85
3 66 85 116
3 85 117 116
3 117 118 119
3 117 119 116
3 119 64 66
3 119 66 116
3 83 82 120
3 83 120 121
3 120 122 123
3 120 123 121
3 123 118 117
3 123 117 121
3 117 85 83
3 117 83 121
3 124 108 107
3 124 107 125
3 107 104 126
3 107 126 125
3 126 118 123
3 126 123 125
3 123 122 124
3 123 124 125
3 103 58 68
3 103 68 127
3 68 64 119
3 68 119 127
3 119 118 126
3 119 126 127
3 126 104 103
3 126 103 127
3 77 76 128
3 77 128 129
3 128 130 131
3 128 131 129
3 131 132 133
3 131 133 129
3 133 79 77
3 133 77 129
3 134 135 136
3 134 136 137
3 137 132 131
3 131 130 134
3 131 134 137
3 138 139 140
3 138 140 141
3 140 132 137
3 140 137 141
3 137 136 141
3 142 82 81
3 142 81 143
3 81 79 133
3 81 133 143
3 133 132 140
3 133 140 143
3 140 139 142
3 140 142 143
3 95 94 144
3 95 144 145
3 144 146 147
3 144 147 145
3 147 148 149
3 147 149 145
3 149 97 95
3 149 95 145
3 150 151 152
3 150 152 153
3 152 154 153
3 154 148 147
3 154 147 153
3 147 146 150
3 147 150 153
3 155 135 134
3 155 134 156
3 134 130 157
3 134 157 156
3 157 148 154
3 157 154 156
3 154 152 155
3 154 155 156
3 128 76 99
3 128 99 158
3 99 97 149
3 99 149 158
3 149 148 157
3 149 157 158
3 157 130 128
3 157 128 158
3 109 108 159
3 109 159 160
3 159 161 162
3 159 162 160
3 162 163 164
3 162 164 160
3 164 111 109
3 164 109 160
3 165 166 167
3 165 167 162
3 167 168 163
3 167 163 162
3 162 161 165
3 169 151 150
3 169 150 170
3 150 146 171
3 150 171 170
3 171 163 170
3 163 168 169
3 163 169 170
3 144 94 113
3 144 113 172
3 113 111 164
3 113 164 172
3 164 163 171
3 164 171 172
3 171 146 144
3 171 144 172
3 120 82 142
3 120 142 173
3 142 139 174
3 142 174 173
3 174 175 176
3 174 176 173
3 176 122 120
3 176 120 173
3 138 177 174
3 177 178 179
3 177 179 174
3 179 175 174
3 174 139 138
3 180 166 165
3 180 165 181
3 165 161 181
3 181 175 179
3 179 178 180
3 179 180 181
3 159 108 124
3 159 124 182
3 124 122 176
3 124 176 182
3 176 175 181
3 176 181 182
3 181 161 159
3 181 159 182
3 136 135 183
3 136 183 184
3 185 186 184
3 186 187 184
3 184 183 185
3 188 189 190
3 190 184 187
3 187 188 190
3 191 138 141
3 191 141 190
3 141 136 184
3 141 184 190
3 190 189 191
3 152 151 192
3 193 152 192
3 194 195 192
3 195 196 193
3 195 193 192
3 192 151 194
3 197 185 198
3 185 183 198
3 193 196 197
3 193 197 198
3 183 135 155
3 183 155 198
3 155 152 193
3 155 193 198
3 166 199 200
3 166 200 167
3 200 201 168
3 200 168 167
3 194 151 202
3 168 201 202
3 168 202 169
3 202 151 169
3 177 138 191
3 191 189 203
3 191 203 177
3 203 204 178
3 203 178 177
3 189 205 203
3 205 204 203
3 206 199 207
3 204 206 207
3 178 204 207
3 178 207 180
3 207 199 166
3 207 166 180
3 186 185 208
3 208 209 210
3 208 210 186
3 210 211 212
3 210 212 186
3 212 187 186
3 1 0 213
3 0 8 214
3 0 214 213
3 214 211 210
3 214 210 213
3 210 209 1
3 210 1 213
3 23 22 215
3 22 216 217
3 22 217 215
3 217 211 214
3 217 214 215
3 214 8 23
3 214 23 215
3 218 189 188
3 188 187 212
3 212 211 217
3 212 217 188
3 217 216 218
3 217 218 188
3 195 194 219
3 219 220 221
3 219 221 195
3 221 222 196
3 221 196 195
3 10 9 223
3 9 4 224
3 9 224 223
3 224 222 221
3 224 221 223
3 221 220 10
3 221 10 223
3 2 1 225
3 1 209 226
3 1 226 225
3 226 222 224
3 226 224 225
3 224 4 2
3 224 2 225
3 208 185 197
3 196 222 226
3 196 226 197
3 226 209 208
3 226 208 197
3 200 199 227
3 200 227 228
3 227 229 228
3 228 230 231
3 231 201 200
3 231 200 228
3 16 15 232
3 15 13 233
3 15 233 232
3 233 230 228
3 233 228 232
3 228 229 16
3 228 16 232
3 11 10 234
3 10 220 235
3 10 235 234
3 235 230 233
3 235 233 234
3 233 13 11
3 233 11 234
3 219 194 202
3 219 202 235
3 202 201 231
3 202 231 235
3 231 230 235
3 235 220 219
3 205 189 218
3 218 216 236
3 218 236 205
3 236 237 238
3 236 238 205
3 238 204 205
3 22 21 239
3 21 19 240
3 21 240 239
3 240 237 236
3 240 236 239
3 236 216 22
3 236 22 239
3 17 16 241
3 16 229 242
3 16 242 241
3 242 237 240
3 242 240 241
3 240 19 17
3 240 17 241
3 227 199 206
3 206 204 238
3 238 237 242
3 238 242 206
3 242 229 227
3 242 227 206
3 31 33 243
3 243 45 244
3 243 244 31
3 244 245 31
3 245 32 31
3 65 245 244
3 65 244 63
3 244 45 63
3 67 54 246
3 67 245 65
3 247 32 245
3 245 67 247
3 67 246 247
3 246 56 28
3 56 29 28
3 246 54 56
3 56 57 29
3 61 50 248
3 248 249 61
3 249 29 61
3 29 57 61
3 29 249 30
3 249 248 250
3 249 250 30
3 250 248 251
3 250 251 252
3 251 25 252
3 248 50 48
3 47 25 251
3 47 251 48
3 251 248 48
3 53 34 253
3 53 25 47
3 253 27 26
3 25 53 26
3 53 253 26
3 254 27 253
3 253 36 254
3 36 38 255
3 36 255 254
3 253 34 36
3 45 256 46
3 256 38 46
3 243 33 257
3 243 257 256
3 257 255 256
3 255 38 256
3 256 45 243
