0.586733
0.885167
0.855825
0.832181
0.576502
0.822995
0.587615
0.657576
0.622927
0.276803
0.827221
0.705216
0.578661
0.958875
0.344171
0.913975
0.622933
0.276806
0.374071
0.913975
0.573753
1
0.826652
0.579242
0.570609
0.857993
0.587618
0.619959
0.852087
0.841247
0.855825
0.688086
0.701901
0.700262
0.139836
0.653229
0.807323
0.52401
0.685513
0.801289
0.689412
0.928109
0.817299
0.787179
0.808764
0.255048
0.182925
0.228617
0.643993
0.696602
0.778381
0.228612
0.838107
0.198751
0.835991
0.78718
0.701928
0.700282
0.675082
0.701671
0.664511
0.444587
0.13847
0.227414
0.589654
0.30115
0.365134
0.353188
0.30897
0.271703
0.282368
0.272482
0.422289
0.414454
0.223916
0.16994
0.254917
0.231759
0.386921
0.396859
0.214204
0.174919
0.322974
0.272103
0.254887
0.213528
0.166741
0.17382
0.265444
0.331566
0.293941
0.326173
0.273286
0.275429
0.308272
0.266886
0.356656
0.349632
0.392896
0.413185
0.33696
0.35169
0.4206
0.3867
0.417365
0.377598
0.33618
0.34734
0.337006
0.346752
0.336187
0.360161
0.372318
0.39221
0.411136
0.374378
0.409989
0.369213
0.357484
0.353639
0.490075
0.434403
0.493809
0.500363
0.253169
0.189931
0.176688
0.158328
0.345573
0.366084
0.304378
0.302518
0.308557
0.321062
0.428881
0.414307
0.265422
0.331565
0.307463
0.266866
0.273281
0.275412
0.30433
0.326165
0.214198
0.268807
0.166685
0.146823
0.253158
0.18936
0.347374
0.272218
0.387985
0.37654
0.358471
0.354464
0.361021
0.382953
0.435533
0.412791
0.360334
0.347193
0.419024
0.387116
0.373129
0.392802
0.356384
0.349916
0.360485
0.352184
0.356371
0.343467
0.41766
0.392826
0.400347
0.410457
0.282405
0.332049
0.432781
0.364752
0.374523
0.407653
0.357632
0.350649
0.366024
0.28859
0.35668
0.341369
0.0671365
0.091646
0.0749983
0.131642
0.341224
0.218875
0.0916362
0.448356
0.356602
0.198577
0.356758
0.319419
0.590754
0.590628
0.113602
0.0784883
0.0455317
0.052466
0.404205
0.399802
0.105167
0.083703
0.0514083
0.0580673
0.0440229
0.0455287
0.0741125
0.0834674
0.545384
0.577596
0.160791
0.390319
0.0453606
0.372916
0.11347
0.122165
0.39241
0.37051
0.356781
0.341468
0.356534
0.124001
0.355282
0.36327
0.366024
0.288622
0.0751178
0.332495
0.0671414
0.0916446
0.356679
0.341384
0.105137
0.08334
0.0740681
0.0837807
0.0440638
0.0457217
0.0516285
0.0576188
0.711358
0.54765
0.465215
0.543281
0.465814
0.712
0.745674
0.37804
0.399977
0.449776
0.242292
0.588488
0.618346
0.566226
0.298829
0.676794
0.469451
0.871223
0.451108
0.541827
0.372482
0.815511
0.422214
0.772898
0.692671
0.626187
0.672431
0.412833
0.494533
0.655471
0.630667
0.672603
0.607663
0.508066
0.583564
0.667678
0.573378
0.53453
0.592281
0.517168
0.575245
0.691373
0.72862
0.642433
0.593231
0.61703
0.561039
0.761941
0.575246
0.710904
0.767636
0.71704
0.593235
0.629639
0.72862
0.644123
0.608817
0.508071
0.496802
0.514081
0.573383
0.534528
0.583564
0.667678
0.692671
0.626164
0.602912
0.672605
0.736018
0.69635
0.661296
0.412827
0.469423
0.895338
0.462918
0.772895
0.592902
0.815511
0.372883
0.541827
0.3998
0.449769
0.218263
0.676794
0.618345
0.560947
0.734074
0.588494
0.711353
0.547649
0.692671
0.409224
0.465815
0.711999
0.418114
0.543283
0.593647
0.467703
0.722266
0.685454
0.583927
0.594774
0.509959
0.510091
0.569829
0.487591
0.652095
0.577256
0.630511
0.617065
0.653211
0.714646
0.596386
0.487591
0.608708
0.714647
0.630594
0.617065
0.634328
0.577255
0.58333
0.468406
0.522253
0.514931
0.58378
0.594764
0.516009
0.685458
0.68294
0.614798
0.42996
0.512004
0.120906
0.585819
0.858986
0.749487
0.207178
0.259548
0.220985
0.686049
0.436506
0.541517
0.360026
0.509266
0.285658
0.578113
0.599705
0.536643
0.585324
0.403333
0.673754
0.186508
0.426563
0.44124
0.465973
0.501871
0.606983
0.641775
0.714702
0.746653
0.474814
0.406267
0.437142
0.762421
0.606992
0.641777
0.466161
0.501736
0.286707
0.578117
0.673884
0.183498
0.54704
0.403353
0.599705
0.536669
0.258832
0.259548
0.265159
0.34956
0.436498
0.541553
0.221029
0.688789
0.682942
0.577703
0.622021
0.677057
0.121299
0.528572
0.429959
0.43795
0.410603
0.890722
0.760579
0.852845
0.867905
0.629508
0.609398
0.337406
0.657501
0.534481
0.820024
0.3556
0.754384
0.796784
0.37298
0.56025
0.590335
0.656003
0.756851
0.822151
0.768844
0.667674
0.834261
0.776754
0.855824
0.88363
0.908472
0.864605
0.869241
0.917325
0.768665
0.7674
0.666633
0.631857
0.834514
0.846924
0.715072
0.791702
0.765873
0.707661
0.636221
0.808494
0.905153
0.689614
0.777642
0.714156
0.784709
0.69896
0.635179
0.809376
0.784709
0.698663
0.776324
0.714152
0.905154
0.628183
0.66651
0.63187
0.782018
0.703725
0.78349
0.746933
0.828097
0.846923
0.855821
0.883632
0.768665
0.763135
0.86924
0.917312
0.873987
0.864603
0.602777
0.656004
0.834261
0.687922
0.740093
0.705503
0.756859
0.822148
0.859607
0.534462
0.372979
0.561709
0.754388
0.497892
0.820024
0.355589
0.410592
0.890719
0.6094
0.337408
0.867905
0.640396
0.760579
0.852845
0.552482
0.519039
0.293693
0.262554
0.521518
0.879556
0.441044
0.315019
0.548928
0.51682
0.279383
0.374001
0.518366
0.831046
0.293676
0.465106
0.691711
0.517241
0.292925
0.523634
0.514871
0.58264
0.261846
0.396162
0.552479
0.519087
0.295137
0.309779
0.518176
0.828722
0.292942
0.258341
0.400379
0.437032
0.738605
0.605167
0.704025
0.759569
0.487719
0.589621
0.661961
0.267177
0.791791
0.224756
0.436294
0.656593
0.443063
0.536391
0.886496
0.69793
0.800924
0.20784
0.832499
0.569493
0.833629
0.214066
0.255538
0.197007
0.232098
0.248661
0.744787
0.848898
0.838854
0.472862
0.254547
0.197029
0.838787
0.472861
0.744478
0.929673
0.23164
0.248664
0.886264
0.697967
0.804069
0.714009
0.832491
0.577348
0.800656
0.600416
0.661958
0.227346
0.443062
0.536396
0.436497
0.608001
0.865422
0.224756
0.377629
0.437032
0.48785
0.501406
0.703979
0.759568
0.73295
0.605169
0.669259
0.763773
0.475249
0.734191
0.639842
0.713172
0.622132
0.666711
0.521467
0.553695
0.24539
0.642115
0.641191
0.616794
0.616899
0.674561
0.521455
0.553686
0.653806
0.675322
0.641474
0.63257
0.558284
0.642445
0.669263
0.751239
0.62501
0.666349
0.639836
0.699296
0.496374
0.741499
0.21157
0.436501
0.543273
0.550029
0.485941
0.704301
0.449142
0.52177
0.882234
0.77141
0.782729
0.370863
0.583009
0.463302
0.504246
0.463528
0.798285
0.655242
0.46207
0.552339
0.456871
0.802824
0.862331
0.38478
0.524272
0.83956
0.599311
0.697215
0.456697
0.708291
0.500627
0.606183
0.546183
0.445888
0.585563
0.492459
0.643146
0.442357
0.526707
0.201677
0.910234
0.699461
0.224791
0.331253
0.446932
0.476496
0.476869
0.482916
0.910237
0.667926
0.480434
0.482915
0.506987
0.476495
0.288725
0.394637
0.715371
0.712817
0.707876
0.401213
0.674797
0.492553
0.585571
0.515536
0.524332
0.690994
0.50056
0.606179
0.45661
0.708316
0.599272
0.697216
0.798285
0.65524
0.86233
0.38478
0.45686
0.79499
0.462075
0.654752
0.882235
0.77141
0.504256
0.463538
0.583197
0.463306
0.782729
0.416916
0.211578
0.49777
0.449059
0.447989
0.485919
0.679013
0.543272
0.550019
0.365546
0.677029
0.377679
0.8347
0.850974
0.72833
0.554659
0.759769
0.217907
0.236835
0.471824
0.231144
0.393064
0.461862
0.666526
0.42484
0.217908
0.236848
0.666523
0.427682
0.26246
0.526084
0.707016
0.232271
0.755484
0.528571
0.554667
0.702117
0.825947
0.770805
0.508977
0.664664
0.729784
0.522048
0.731738
0.666428
0.325068
0.508778
0.278705
0.711603
0.589435
0.230977
0.480469
0.24935
0.36239
0.537863
0.396474
0.477605
0.221591
0.217656
0.422492
0.477518
0.360948
0.887741
0.777395
0.249938
0.716499
0.522047
0.278812
0.7116
0.851638
0.50707
0.763347
0.832715
0.755484
0.880378
0.511547
0.515925
0.8741
0.728614
0.839362
0.88861
0.217678
0.238053
0.922379
0.917235
0.370214
0.526461
0.563765
0.427272
0.217678
0.238047
0.57061
0.428289
0.394045
0.527394
0.898717
0.918657
0.811856
0.880379
0.607774
0.887822
0.899665
0.728391
0.51152
0.664759
0.785137
0.522137
0.731987
0.838536
0.851625
0.507062
0.278818
0.754365
0.221862
0.21765
0.510424
0.210955
0.388711
0.885433
0.286827
0.463961
0.507633
0.230968
0.258819
0.464052
0.390224
0.537879
0.510418
0.286629
0.740035
0.522138
0.27871
0.711616
0.325088
0.50877
0.731953
0.666437
0.589654
0.589528
0.266528
0.255282
0.288816
0.271725
0.279404
0.330635
0.233659
0.272881
0.309152
0.243375
0.271884
0.286582
0.266279
0.315688
0.275223
0.260528
0.245194
0.151233
0.327306
0.228887
0.314319
0.27741
0.393251
0.402307
0.369623
0.381312
0.327324
0.228951
0.245254
0.157724
0.686789
0.660543
0.625937
0.607597
0.55087
0.424749
0.348008
0.54168
0.412868
0.499949
0.593676
0.4555
0.417478
0.71563
0.621954
0.596388
0.426804
0.412815
0.397223
0.489098
0.631918
0.473542
0.406521
0.373874
0.402172
0.409564
0.459308
0.699017
0.336419
0.778412
0.447792
0.799111
0.346259
0.85979
0.828018
0.717984
0.847475
0.507183
0.714664
0.605168
0.638871
0.490391
0.614097
0.914689
0.86084
0.783117
0.852987
0.888321
0.585671
0.644708
0.695795
0.889672
0.719315
0.665375
0.900074
0.54577
0.888297
0.766927
0.273272
0.764279
0.803302
0.831779
0.817244
0.728586
0.628907
0.756903
0.669612
0.874336
0.823939
0.967166
0.79007
0.97498
0.588778
0.915786
0.797381
0.601259
0.821862
0.670451
0.594688
0.790624
0.740577
0.915786
0.50373
0.888119
0.793115
0.878234
0.783637
0.601261
0.273512
0.748892
0.983379
0.847586
0.834766
0.985082
0.718968
0.874336
0.346252
0.859789
0.714666
0.605169
0.847475
0.507184
0.822415
0.717976
0.888297
0.754191
0.81765
0.517336
0.803303
0.814774
0.27442
0.363194
0.585671
0.644708
0.900075
0.545774
0.71932
0.793247
0.695794
0.889673
0.638867
0.491258
0.852982
0.888317
0.838535
0.783117
0.644358
0.914752
0.687682
0.461665
0.347006
0.619992
0.550869
0.454035
0.625923
0.654902
0.402139
0.409561
0.44777
0.825864
0.590226
0.778411
0.460813
0.654208
0.426749
0.412812
0.406525
0.373892
0.631918
0.473542
0.397198
0.489099
0.544727
0.499942
0.621957
0.566665
0.448744
0.715628
0.593675
0.4555
0.284555
0.340229
0.404627
0.366527
0.271912
0.281034
0.336904
0.32489
0.510579
0.504203
0.245204
0.263239
0.216962
0.214084
0.380429
0.490183
0.27522
0.260524
0.351271
0.277664
0.216905
0.187655
0.245186
0.220826
0.233653
0.272878
0.336882
0.315682
0.271874
0.286571
0.287888
0.243368
0.152823
0.351729
0.30473
0.350101
0.35194
0.397829
0.130312
0.364272
0.348488
0.360585
0.360645
0.351002
0.360818
0.335449
0.337698
0.114926
0.0690447
0.0770077
0.0685319
0.369185
0.19778
0.135099
0.141798
0.590754
0.590628
0.403575
0.399891
0.369943
0.364141
0.11338
0.0642732
0.68432
0.50068
0.676059
0.691516
0.176542
0.531631
0.414927
0.220853
0.475033
0.441357
0.733696
0.471901
0.524959
0.50272
0.657427
0.665525
0.815554
0.645374
0.255854
0.247898
0.269273
0.59061
0.45347
0.587889
0.401991
0.312555
0.207682
0.478976
0.290853
0.219121
0.578273
0.635776
0.357108
0.274609
0.196597
0.213682
0.9172
0.683088
0.659098
0.875901
0.707917
0.63828
0.640145
0.824057
0.892249
0.661065
0.640043
0.258133
0.68015
0.388721
0.7164
0.719229
0.674437
0.650919
0.712432
0.703068
0.657501
0.517369
0.429321
0.557853
0.362707
0.421772
0.755077
0.685065
0.880335
0.879269
0.771925
0.311811
0.281938
0.343538
0.829135
0.843711
0.874207
0.668325
0.730841
0.693262
0.690399
0.719602
0.680053
0.314224
0.88248
0.668337
0.679518
0.345196
0.690456
0.793836
0.742999
0.673667
0.880334
0.869381
0.828501
0.822392
0.220576
0.740952
0.293246
0.318333
0.357106
0.274613
0.659098
0.8759
0.851402
0.684246
0.196591
0.239692
0.657493
0.582442
0.754801
0.685045
0.695629
0.421778
0.822317
0.762206
0.552145
0.837142
0.71287
0.352352
0.67483
0.580531
0.716402
0.719226
0.712921
0.638239
0.640526
0.258175
0.862203
0.661014
0.664665
0.824052
0.684318
0.497436
0.397527
0.220863
0.176335
0.531639
0.676051
0.648099
0.400281
0.338405
0.578221
0.635414
0.328906
0.219792
0.207194
0.478989
0.855974
0.645357
0.453471
0.587872
0.455148
0.623744
0.255857
0.247847
0.602209
0.441346
0.657548
0.665511
0.526886
0.634307
0.732656
0.475591
0.361212
0.343232
0.338736
0.350009
0.360141
0.352003
0.337916
0.549044
0.528819
0.113307
0.0649197
0.368475
0.353251
0.0615513
0.061694
0.114907
0.0690061
0.05552
0.15794
0.0436585
0.325294
0.0769847
0.0685027
0.363896
0.283559
0.335453
0.337712
0.351009
0.360821
0.360657
0.360651
0.880049
0.485995
0.739966
0.894802
0.635823
0.677335
0.734283
0.443545
0.796239
0.662276
0.690362
0.404326
0.755395
0.791768
0.896447
0.647371
0.843308
0.417774
0.684788
0.685634
0.755674
0.681411
0.701848
0.731025
0.821794
0.522806
0.723403
0.651704
0.785896
0.753826
0.637182
0.868434
0.551564
0.632407
0.694625
0.631625
0.803467
0.652015
0.659044
0.639368
0.774131
0.705738
0.715314
0.560836
0.643494
0.746557
0.803879
0.77757
0.812121
0.70574
0.803855
0.64393
0.65436
0.727528
0.727974
0.560834
0.550934
0.643262
0.690093
0.559687
0.80347
0.650638
0.694374
0.650608
0.821794
0.52281
0.637205
0.868423
0.877851
0.753863
0.723407
0.651706
0.843313
0.715106
0.72816
0.559079
0.77643
0.663768
0.760864
0.685666
0.85332
0.708418
0.896464
0.569432
0.789418
0.791828
0.709346
0.445233
0.880049
0.48601
0.593214
0.526578
0.635537
0.677719
0.739918
0.658385
0.920286
0.616749
0.669034
0.650643
0.692353
0.684322
0.305049
0.368419
0.658726
0.721381
0.682787
0.602925
0.570682
0.857321
0.715228
0.637431
0.820509
0.52193
0.71523
0.7792
0.577437
0.827005
0.667489
0.602927
0.920305
0.572456
0.312644
0.38993
0.692348
0.684308
0.669049
0.652673
0.353937
0.387276
0.478087
0.432086
0.396564
0.415855
0.461088
0.41384
0.509703
0.472677
0.485682
0.529377
0.52881
0.413785
0.392219
0.475534
0.50969
0.469129
0.503138
0.448921
0.422531
0.408905
0.507249
0.456307
0.353903
0.38728
0.449857
0.413844
0.405575
0.412953
0.478083
0.430637
0.58518
0.575173
0.506482
0.376994
0.606423
0.384033
0.589064
0.473432
0.361295
0.390584
0.354916
0.338564
0.371534
0.369553
0.364525
0.373528
0.48027
0.379438
0.0945094
0.440103
0.448412
0.290459
0.390129
0.438291
0.399818
0.445503
0.473236
0.613683
0.413805
0.523226
0.599858
0.544763
0.35262
0.37821
0.461855
0.288014
0.274648
0.305029
0.336943
0.388812
0.58518
0.399043
0.453513
0.351158
0.191311
0.383098
0.413584
0.380355
0.669568
0.389319
0.475897
0.337158
0.413431
0.458998
0.417189
0.597285
0.339448
0.603981
0.593553
0.47238
0.385669
0.581528
0.495515
0.670823
0.58518
0.55773
0.585164
0.376578
0.369495
0.307883
0.587763
0.297323
0.379121
0.464112
0.516543
0.407154
0.223063
0.195676
0.416973
0.266417
0.611696
0.688726
0.42197
0.591624
0.421912
0.575464
0.559637
0.58219
0.669109
0.407953
0.425996
0.60578
0.405095
0.603509
0.3778
0.377012
0.357068
0.389525
0.360979
0.375427
0.424488
0.369012
0.319511
0.191045
0.585189
0.575894
0.592546
0.0765183
0.616425
0.38172
0.379358
0.386287
0.406717
0.516689
0.615142
0.612105
0.405954
0.555008
0.439823
0.601885
0.503146
0.319255
0.421239
0.344621
0.415753
0.295142
0.417162
0.203208
0.352411
0.394785
0.36345
0.563301
0.412336
0.405319
0.446805
0.413208
0.476172
0.537024
0.486921
0.495439
0.492845
0.586276
0.414741
0.410716
0.476167
0.537001
0.375759
0.431197
0.463681
0.458388
0.48686
0.496112
0.35215
0.403837
0.421162
0.413204
0.407216
0.407316
0.363424
0.563327
0.378212
0.379409
0.346689
0.190943
0.424431
0.369018
0.360975
0.375407
0.49957
0.319246
0.0943489
0.247504
0.415776
0.295148
0.398447
0.371556
0.290277
0.514624
0.43982
0.601871
0.339457
0.542802
0.0350546
0.613112
0.585128
0.575887
0.475991
0.3678
0.528938
0.381937
0.592578
0.0765355
0.316881
0.46411
0.397366
0.266422
0.223648
0.195685
0.55077
0.279937
0.585118
0.557725
0.587797
0.410566
0.40528
0.370402
0.585102
0.36811
0.669084
0.352725
0.377844
0.37704
0.405083
0.621296
0.425994
0.626182
0.611757
0.668936
0.464059
0.582165
0.421896
0.575438
0.422001
0.591291
0.338246
0.37821
0.336945
0.272811
0.229944
0.25517
0.274393
0.288017
0.636398
0.604049
0.495577
0.670886
0.479595
0.581657
0.427473
0.490307
0.625309
0.389347
0.417177
0.604731
0.413418
0.458957
0.475935
0.30843
0.585118
0.399046
0.379621
0.381743
0.191318
0.383102
0.453521
0.351164
0.361296
0.380166
0.380268
0.373679
0.393303
0.369549
0.354885
0.338531
0.585118
0.575169
0.589096
0.473433
0.606424
0.384235
0.539391
0.499215
0.39982
0.453491
0.411054
0.56851
0.410093
0.522561
0.473234
0.605926
0.48028
0.379434
0.421753
0.46978
0.449529
0.290419
0.627541
0.402632
0.561849
0.383298
0.368121
0
0.151271
0.229758
0.324698
0.298555
0
0
0.346971
0.45763
0.396228
0.395133
0.231828
0
0.260609
0.400134
0.41496
0
0.174789
0.298806
0.40622
0.400214
0
0
0
0
0
0.302473
0.348064
0.367294
0.323841
0
0.129941
0
0.178122
0.409142
0.41583
0
0.175235
0
0.225146
0.424615
0.41987
0
0.563475
0.384211
0.352489
0.363804
0
0.149153
0
0.200521
0.563475
0.563562
0
0.255878
0
0.206005
0.328144
0.314775
0.563475
0.563562
0.348085
0.3366
0
0.135997
0
0.287425
0.403769
0.396088
0
0.165195
0
0.202972
0.369155
0.378807
0.417015
0.422631
0.41992
0.415515
0.245565
0
0.248793
0.0750186
0.321137
0.561924
