OFF
1339 2645 0
-15.513 3.8037 8.38294
-15.145 3.9677 8.33391
-15.002 4.275 8.38294
-15.493 4.1897 8.48193
-14.869 4.7259 8.43324
-15.426 4.6576 8.55068
-16.07 4.5564 8.63431
-16.081 4.0531 8.55068
-16.066 3.6202 8.43324
-14.795 5.2458 8.46834
-14.797 5.7958 8.48209
-15.401 5.7417 8.61067
-15.388 5.1862 8.59478
-16.092 5.6798 8.70274
-16.066 5.1073 8.68536
-16.841 5.6127 8.75812
-17.619 5.543 8.77664
-17.566 4.9439 8.75812
-16.801 5.0223 8.73988
-17.514 4.3671 8.70274
-16.775 4.4528 8.68536
-17.466 3.8349 8.61067
-17.425 3.3694 8.48209
-16.719 3.4688 8.46834
-16.752 3.9272 8.59478
-15.269 7.2559 8.38294
-15.464 7.533 8.33391
-15.855 7.629 8.38294
-15.768 7.2526 8.48193
-16.433 7.7112 8.43324
-16.37 7.2826 8.55068
-16.27 6.7892 8.63431
-15.619 6.804 8.55068
-15.058 6.8359 8.43324
-17.102 7.7442 8.46834
-17.814 7.7166 8.48209
-17.772 7.2511 8.61067
-17.053 7.2872 8.59478
-17.725 6.7189 8.70274
-16.983 6.7659 8.68536
-17.673 6.1421 8.75812
-16.907 6.2008 8.73988
-16.169 6.2477 8.68536
-14.892 6.3375 8.46834
-15.487 6.2906 8.59478
-19.726 7.2823 8.38294
-20.094 7.1183 8.33391
-20.237 6.811 8.38294
-19.745 6.8963 8.48193
-20.37 6.36 8.43324
-19.812 6.4284 8.55068
-19.169 6.5295 8.63431
-19.158 7.0329 8.55068
-19.173 7.4658 8.43324
-20.444 5.8402 8.46834
-20.442 5.2902 8.48209
-19.838 5.3443 8.61067
-19.85 5.8998 8.59478
-19.146 5.4062 8.70274
-19.172 5.9786 8.68536
-18.397 5.4733 8.75812
-18.437 6.0637 8.73988
-18.463 6.6332 8.68536
-18.52 7.6172 8.46834
-18.487 7.1588 8.59478
-19.97 3.83 8.38294
-19.775 3.553 8.33391
-19.384 3.457 8.38294
-19.471 3.8334 8.48193
-18.806 3.3748 8.43324
-18.868 3.8034 8.55068
-18.969 4.2967 8.63431
-19.62 4.282 8.55068
-20.181 4.2501 8.43324
-18.137 3.3418 8.46834
-18.186 3.7988 8.59478
-18.256 4.3201 8.68536
-18.332 4.8852 8.73988
-19.07 4.8383 8.68536
-20.346 4.7485 8.46834
-19.752 4.7953 8.59478
-14.495 9.7914 5.87025
-13.526 9.3227 5.87025
-13.477 9.3677 4.98812
-14.458 9.8421 4.98812
-13.457 9.3858 3.97206
-14.443 9.8624 3.97087
-15.53 10.1845 3.97048
-15.557 10.1599 4.99264
-15.605 10.1012 5.87705
-13.482 9.3627 2.88419
-13.567 9.2844 1.78662
-14.528 9.7494 1.77471
-14.463 9.8368 2.87942
-15.627 10.0618 1.75604
-15.56 10.1577 2.87333
-16.815 10.2426 1.74768
-18.14 10.3057 1.78057
-17.704 10.4381 2.93504
-16.7 10.3496 2.87411
-17.585 10.4631 3.98179
-16.626 10.3759 3.97407
-17.7 10.4196 4.9762
-18.136 10.2984 5.94
-16.804 10.2689 5.89742
-16.697 10.3426 5.00623
-14.211 8.6896 -0.978565
-14.454 8.4653 -1.49057
-15.026 8.6167 -1.73206
-14.965 9.0311 -1.06796
-15.873 8.7486 -1.97982
-15.867 9.2344 -1.22893
-15.796 9.6048 -0.334795
-14.805 9.3442 -0.245385
-13.947 8.9339 -0.198015
-16.859 8.8053 -2.15271
-17.908 8.7681 -2.22043
-17.955 9.2951 -1.40806
-16.885 9.3254 -1.35429
-17.999 9.7038 -0.457274
-16.879 9.7269 -0.413585
-18.05 10.0248 0.591325
-16.865 10.0339 0.636095
-15.711 9.8791 0.673436
-13.727 9.1368 0.741466
-14.65 9.5844 0.717645
-20.718 8.1068 -1.73206
-21.253 7.8564 -1.49057
-21.532 8.0339 -0.978565
-20.851 8.5039 -1.06796
-21.851 8.2433 -0.202395
-21.075 8.7948 -0.271475
-20.141 9.2196 -0.376085
-20.0 8.8641 -1.22893
-19.907 8.3873 -1.97982
-22.146 8.452 0.723975
-22.427 8.692 1.83058
-21.437 9.2464 1.42349
-21.3 9.0375 0.613275
-20.421 9.6701 1.29974
-20.291 9.4848 0.508285
-19.347 10.0208 1.38613
-19.2 9.8278 0.524845
-19.101 9.5287 -0.441395
-18.948 8.6182 -2.15271
-19.015 9.1346 -1.35429
-14.155 8.0627 -1.73206
-14.88 8.0728 -2.21964
-13.83 7.4481 -1.97982
-14.645 7.4138 -2.55827
-15.607 7.4014 -2.97023
-15.767 8.1283 -2.55827
-13.576 6.7158 -2.15271
-13.431 5.9181 -2.22043
-14.309 5.8395 -2.85378
-14.441 6.6544 -2.77551
-15.332 5.7479 -3.30728
-15.448 6.5961 -3.22168
-16.451 5.6476 -3.58005
-17.619 5.543 -3.67126
-17.7 6.4424 -3.58005
-16.551 6.5293 -3.49021
-17.777 7.3045 -3.30728
-16.668 7.3726 -3.22168
-17.848 8.0922 -2.85378
-16.779 8.1428 -2.77551
-13.763 3.679 -1.73206
-13.985 3.2296 -1.49057
-14.521 2.9791 -1.73206
-14.474 3.5404 -2.21964
-15.331 2.6987 -1.97982
-15.338 3.328 -2.55827
-15.308 4.0718 -2.97023
-14.36 4.2305 -2.55827
-13.552 4.3416 -1.97982
-16.291 2.4677 -2.15271
-17.331 2.3179 -2.22043
-17.391 2.9938 -2.85378
-16.33 3.1339 -2.77551
-17.462 3.7815 -3.30728
-16.358 3.9116 -3.22168
-17.539 4.6436 -3.58005
-16.393 4.7622 -3.49021
-15.296 4.8925 -3.22168
-13.432 5.1073 -2.15271
-14.294 5.0142 -2.77551
-20.213 2.4693 -1.73205
-20.784 2.6207 -1.49057
-21.083 3.0233 -1.73206
-20.359 3.0132 -2.21964
-21.408 3.6379 -1.97982
-20.594 3.6722 -2.55827
-19.632 3.6846 -2.97023
-19.471 2.9577 -2.55827
-19.365 2.3374 -1.97982
-21.662 4.3702 -2.15271
-21.807 5.1679 -2.22043
-20.93 5.2465 -2.85378
-20.798 4.4316 -2.77551
-19.907 5.3381 -3.30728
-19.79 4.4899 -3.22168
-18.787 5.4384 -3.58005
-18.688 4.5567 -3.49021
-18.571 3.7134 -3.22168
-18.38 2.2807 -2.15271
-18.46 2.9432 -2.77551
-21.476 7.407 -1.73205
-20.765 7.5456 -2.21964
-19.901 7.758 -2.55827
-19.93 7.0142 -2.97023
-20.879 6.8555 -2.55827
-21.687 6.7444 -1.97982
-18.909 7.9521 -2.77551
-18.881 7.1744 -3.22168
-18.846 6.3238 -3.49021
-19.943 6.1935 -3.22168
-21.806 5.9787 -2.15271
-20.945 6.0718 -2.77551
-13.707 3.0521 -0.978565
-14.388 2.5821 -1.06796
-13.385 2.8434 -0.205725
-14.161 2.2916 -0.276585
-15.096 1.8662 -0.382125
-15.238 2.2219 -1.22893
-13.08 2.6366 0.710645
-12.773 2.4031 1.79817
-13.767 1.8439 1.36866
-13.927 2.0499 0.592825
-14.796 1.4139 1.23747
-14.94 1.6005 0.484125
-15.886 1.0576 1.33073
-17.106 0.770098 1.74723
-17.19 1.0579 0.577725
-16.037 1.2556 0.504205
-17.24 1.3814 -0.460685
-16.137 1.5567 -0.446555
-17.283 1.7909 -1.40806
-16.224 1.9514 -1.35429
-20.743 1.2945 5.87025
-21.713 1.7633 5.87025
-21.762 1.7183 4.98812
-20.781 1.2439 4.98812
-21.781 1.7002 3.97206
-20.795 1.2235 3.97087
-19.711 0.899998 3.97039
-19.684 0.924898 4.99424
-19.635 0.984098 5.8795
-21.756 1.7233 2.88419
-21.672 1.8016 1.78662
-20.711 1.3366 1.77471
-20.776 1.2492 2.87942
-19.613 1.0232 1.75349
-19.68 0.926898 2.87159
-18.428 0.839298 1.73749
-17.554 0.632698 2.91385
-18.546 0.730798 2.86715
-17.677 0.607298 3.98091
-18.622 0.703998 3.97373
-17.558 0.654198 4.99583
-17.111 0.782298 5.97242
-18.439 0.814598 5.90723
-18.549 0.738798 5.0126
-21.027 2.3964 -0.978565
-20.273 2.0549 -1.06795
-19.372 1.8516 -1.22893
-19.443 1.4811 -0.335215
-20.434 1.7418 -0.245385
-21.292 2.1521 -0.198015
-18.354 1.7606 -1.35429
-18.36 1.3585 -0.415275
-18.375 1.05 0.629335
-19.528 1.2064 0.671745
-21.512 1.9492 0.741466
-20.588 1.5016 0.717645
-13.229 3.6518 -1.06796
-12.924 4.3591 -1.22893
-12.448 4.3183 -0.335634
-12.82 3.5322 -0.245305
-12.747 5.9794 -1.40806
-12.758 5.1517 -1.35429
-12.235 6.0253 -0.455475
-12.251 5.1616 -0.417025
-11.874 6.0576 0.598525
-11.643 6.0783 1.71515
-11.661 5.1342 1.72706
-11.892 5.151 0.622346
-11.86 4.1984 1.75101
-12.098 4.254 0.670075
-12.218 3.2975 1.77523
-12.482 3.3936 0.717955
-13.635 8.1842 -1.06796
-13.263 8.3627 -0.245385
-12.75 7.6643 -0.335654
-13.209 7.5425 -1.22893
-12.795 8.6461 1.77471
-12.984 8.5233 0.717636
-12.214 7.873 1.75089
-12.424 7.7808 0.669995
-11.828 7.0042 1.72706
-12.053 6.9466 0.622346
-12.404 6.8723 -0.417025
-12.905 6.7919 -1.35429
-12.747 8.6781 5.87025
-12.689 8.7155 4.98812
-12.161 7.8971 5.87025
-12.096 7.9252 4.98812
-12.07 7.9364 3.96849
-12.665 8.7304 3.97087
-11.773 7.0191 5.87025
-11.587 6.0833 5.87025
-11.515 6.0898 4.98812
-11.704 7.0367 4.98812
-11.485 6.0924 3.96491
-11.675 7.0437 3.9661
-11.521 6.0892 2.8556
-11.71 7.0347 2.86036
-12.102 7.9219 2.86989
-12.694 8.7112 2.87942
-12.185 3.2885 5.90761
-12.778 2.4133 5.97334
-12.387 2.6139 4.99738
-12.04 3.3118 5.01318
-12.271 2.6593 3.98724
-11.962 3.3372 3.97746
-11.679 4.1865 3.97013
-11.72 4.1839 4.99438
-11.809 4.1875 5.87959
-12.369 2.5983 2.93371
-12.034 3.3056 2.87993
-11.723 4.1836 2.87002
-11.539 5.1252 2.86036
-11.503 5.1225 3.9661
-11.604 5.1293 5.87025
-11.532 5.1244 4.98812
-22.492 2.4079 5.87025
-22.55 2.3705 4.98812
-23.078 3.1889 5.87025
-23.143 3.1608 4.98812
-23.169 3.1496 3.96849
-22.574 2.3556 3.97087
-23.465 4.0669 5.87025
-23.652 5.0026 5.87025
-23.724 4.9962 4.98812
-23.535 4.0493 4.98812
-23.753 4.9936 3.96491
-23.563 4.0423 3.9661
-23.718 4.9968 2.8556
-23.596 5.0077 1.71515
-23.41 4.0818 1.72706
-23.529 4.0513 2.86036
-23.025 3.213 1.75089
-23.136 3.164 2.86989
-22.444 2.4399 1.77471
-22.544 2.3748 2.87942
-23.04 7.8027 5.89742
-22.424 8.6863 5.94
-22.794 8.4918 4.9762
-23.178 7.7815 5.00623
-22.904 8.4472 3.98637
-23.252 7.7568 3.97712
-23.554 6.9015 3.97005
-23.514 6.9039 4.99264
-23.426 6.8998 5.87705
-22.812 8.5046 2.95334
-23.005 7.7923 1.78503
-23.184 7.7868 2.8863
-23.375 6.8886 1.75347
-23.51 6.904 2.87161
-23.578 5.9518 1.72706
-23.7 5.9608 2.86036
-23.735 5.9635 3.9661
-23.635 5.9567 5.87025
-23.706 5.9616 4.98812
-22.01 7.4341 -1.06795
-22.315 6.7268 -1.22893
-22.791 6.7678 -0.335225
-22.417 7.5542 -0.243665
-22.492 5.1066 -1.40806
-22.481 5.9342 -1.35429
-23.004 5.0607 -0.455475
-22.988 5.9244 -0.417025
-23.365 5.0284 0.598525
-23.347 5.935 0.622346
-23.139 6.8325 0.671715
-22.749 7.6942 0.724526
-21.604 2.9018 -1.06796
-21.976 2.7233 -0.245385
-22.489 3.4217 -0.335654
-22.03 3.5435 -1.22893
-22.255 2.5627 0.717636
-22.815 3.3052 0.669995
-23.186 4.1394 0.622346
-22.835 4.2137 -0.417025
-22.334 4.2941 -1.35429
-13.762 1.8457 6.31437
-12.941 2.5512 6.62495
-13.813 1.9459 6.70636
-13.063 2.6391 7.08514
-13.909 2.0312 7.1055
-14.917 1.5623 7.11802
-14.854 1.4822 6.75644
-14.79 1.4133 6.40499
-13.169 2.7096 7.42673
-13.266 2.772 7.6541
-14.073 2.1852 7.6541
-13.993 2.1096 7.42673
-15.035 1.7315 7.6541
-14.977 1.6457 7.42673
-16.104 1.4152 7.6541
-17.234 1.2404 7.6541
-17.225 1.1437 7.42673
-16.07 1.3223 7.42673
-17.21 1.042 7.08508
-16.032 1.2285 7.10545
-17.181 0.929098 6.62467
-15.883 1.0597 6.3138
-15.987 1.1314 6.70617
-13.553 2.9544 7.76375
-13.634 3.006 7.68134
-14.373 2.4687 7.68134
-14.307 2.4063 7.76375
-15.253 2.0533 7.68134
-15.205 1.9825 7.76375
-15.151 1.9031 7.80106
-14.233 2.3363 7.80106
-13.462 2.8967 7.80106
-16.232 1.7637 7.68134
-17.267 1.6038 7.68134
-17.259 1.5238 7.76375
-16.204 1.687 7.76375
-17.251 1.4341 7.80106
-16.172 1.601 7.80106
-17.243 1.3385 7.77169
-16.139 1.5092 7.77169
-15.094 1.8183 7.77169
-13.366 2.8351 7.77169
-14.154 2.2617 7.77169
-20.268 1.9406 7.68134
-21.09 2.3381 7.68134
-21.161 2.273 7.76375
-20.322 1.8675 7.76375
-21.24 2.2001 7.80106
-20.382 1.7855 7.80106
-19.402 1.5224 7.80106
-19.363 1.6101 7.76375
-19.328 1.6883 7.68134
-21.324 2.1223 7.77169
-21.411 2.0425 7.6541
-20.513 1.6084 7.6541
-20.447 1.698 7.77169
-19.486 1.3328 7.6541
-19.443 1.4288 7.77169
-18.377 1.2116 7.6541
-18.36 1.3103 7.77169
-18.343 1.4066 7.80106
-18.313 1.5773 7.68134
-18.327 1.4968 7.76375
-21.65 1.8212 6.55636
-20.695 1.3596 6.55636
-19.599 1.0599 6.56253
-19.566 1.1465 7.06954
-20.639 1.4359 7.068
-21.577 1.889 7.068
-18.406 0.910898 6.58104
-18.405 1.0149 7.07417
-18.394 1.1142 7.42673
-19.528 1.2381 7.42673
-21.496 1.9638 7.42673
-20.578 1.5199 7.42673
-13.589 9.2648 6.55636
-12.821 8.6301 6.55636
-13.662 9.197 7.068
-12.909 8.5738 7.068
-12.343 7.8188 7.068
-12.245 7.8611 6.55636
-13.743 9.1222 7.42673
-13.828 9.0435 7.6541
-13.107 8.4465 7.6541
-13.005 8.5118 7.42673
-12.564 7.7232 7.6541
-12.451 7.7723 7.42673
-12.205 6.91 7.6541
-12.032 6.0434 7.6541
-11.907 6.0547 7.42673
-12.083 6.9408 7.42673
-11.787 6.0654 7.068
-11.968 6.97 7.068
-11.679 6.0751 6.55636
-11.863 6.9965 6.55636
-14.078 8.813 7.76375
-14.148 8.7479 7.68134
-13.488 8.2013 7.68134
-13.404 8.2553 7.76375
-12.991 7.5391 7.68134
-12.897 7.5796 7.76375
-12.792 7.6251 7.80106
-13.31 8.3158 7.80106
-13.999 8.8859 7.80106
-12.662 6.7946 7.68134
-12.504 6.0012 7.68134
-12.4 6.0105 7.76375
-12.562 6.82 7.76375
-12.284 6.0209 7.80106
-12.449 6.8485 7.80106
-12.159 6.032 7.77169
-12.329 6.8789 7.77169
-12.68 7.6735 7.77169
-13.915 8.9637 7.77169
-13.209 8.3804 7.77169
-13.081 3.6612 7.68134
-12.989 3.623 7.76375
-12.886 3.5802 7.80106
-12.499 4.3519 7.80106
-12.611 4.3779 7.76375
-12.71 4.4011 7.68134
-12.662 3.4877 7.6541
-12.775 3.5345 7.77169
-12.257 4.2958 7.6541
-12.38 4.3242 7.77169
-12.048 5.1599 7.6541
-12.175 5.1686 7.77169
-12.299 5.1771 7.80106
-12.519 5.1922 7.68134
-12.415 5.1851 7.76375
-12.316 3.3267 6.58123
-11.91 4.2092 6.56258
-12.02 4.2391 7.06955
-12.437 3.3898 7.07422
-11.696 5.1356 6.55636
-11.804 5.143 7.068
-11.923 5.1512 7.42673
-12.137 4.2677 7.42673
-12.551 3.4414 7.42673
-21.444 9.2524 6.25897
-22.286 8.5392 6.61134
-21.414 9.1443 6.68572
-22.173 8.448 7.08174
-21.327 9.0559 7.10034
-20.32 9.5244 7.11198
-20.377 9.6065 6.73228
-20.43 9.6796 6.34272
-22.07 8.3764 7.42673
-21.972 8.314 7.6541
-21.166 8.9008 7.6541
-21.245 8.9764 7.42673
-20.204 9.3545 7.6541
-20.262 9.4403 7.42673
-19.135 9.6708 7.6541
-18.005 9.8455 7.6541
-18.013 9.9423 7.42673
-19.169 9.7637 7.42673
-18.029 10.0437 7.08174
-19.206 9.8576 7.10034
-18.06 10.1556 6.61134
-19.351 10.0267 6.25897
-19.25 9.955 6.68572
-21.686 8.1315 7.76375
-21.605 8.08 7.68134
-20.866 8.6173 7.68134
-20.932 8.6797 7.76375
-19.986 9.0327 7.68134
-20.034 9.1035 7.76375
-20.088 9.1829 7.80106
-21.006 8.7497 7.80106
-21.776 8.1893 7.80106
-19.007 9.3223 7.68134
-17.972 9.4822 7.68134
-17.979 9.5622 7.76375
-19.035 9.399 7.76375
-17.987 9.6518 7.80106
-19.066 9.485 7.80106
-17.996 9.7475 7.77169
-19.1 9.5768 7.77169
-20.145 9.2677 7.77169
-21.873 8.2509 7.77169
-21.085 8.8243 7.77169
-14.971 9.1454 7.68134
-14.917 9.2185 7.76375
-14.856 9.3005 7.80106
-15.837 9.5636 7.80106
-15.876 9.4759 7.76375
-15.911 9.3977 7.68134
-14.726 9.4776 7.6541
-14.792 9.3879 7.77169
-15.753 9.7532 7.6541
-15.796 9.6572 7.77169
-16.862 9.8744 7.6541
-16.879 9.7757 7.77169
-16.896 9.6794 7.80106
-16.926 9.5086 7.68134
-16.912 9.5892 7.76375
-14.543 9.7264 6.55636
-15.64 10.0258 6.56089
-15.673 9.9394 7.06913
-14.599 9.6501 7.068
-16.835 10.174 6.57447
-16.834 10.0708 7.07253
-16.845 9.9718 7.42673
-15.711 9.8479 7.42673
-14.661 9.5661 7.42673
-22.418 2.4559 6.55636
-22.33 2.5121 7.068
-22.896 3.2672 7.068
-22.994 3.2249 6.55636
-22.132 2.6395 7.6541
-22.234 2.5742 7.42673
-22.674 3.3628 7.6541
-22.788 3.3137 7.42673
-23.034 4.176 7.6541
-23.207 5.0426 7.6541
-23.332 5.0313 7.42673
-23.155 4.1452 7.42673
-23.452 5.0206 7.068
-23.271 4.116 7.068
-23.56 5.0109 6.55636
-23.376 4.0895 6.55636
-21.751 2.8846 7.68134
-21.835 2.8307 7.76375
-22.247 3.5469 7.68134
-22.341 3.5063 7.76375
-22.447 3.4609 7.80106
-21.929 2.7702 7.80106
-22.576 4.2914 7.68134
-22.735 5.0848 7.68134
-22.839 5.0755 7.76375
-22.677 4.266 7.76375
-22.955 5.0651 7.80106
-22.79 4.2375 7.80106
-23.079 5.054 7.77169
-22.91 4.2071 7.77169
-22.559 3.4124 7.77169
-22.029 2.7056 7.77169
-22.158 7.4248 7.68134
-22.25 7.463 7.76375
-22.353 7.5058 7.80106
-22.74 6.7341 7.80106
-22.628 6.7081 7.76375
-22.529 6.6849 7.68134
-22.576 7.5983 7.6541
-22.463 7.5515 7.77169
-22.981 6.7902 7.6541
-22.859 6.7618 7.77169
-23.19 5.9261 7.6541
-23.063 5.9174 7.77169
-22.939 5.9089 7.80106
-22.72 5.8938 7.68134
-22.823 5.9009 7.76375
-22.916 7.7621 6.57447
-23.327 6.8775 6.56089
-23.218 6.847 7.06913
-22.8 7.6969 7.07253
-23.542 5.9504 6.55636
-23.435 5.9429 7.068
-23.316 5.9348 7.42673
-23.102 6.8183 7.42673
-22.688 7.6446 7.42673
-13.702 3.0489 7.57539
-14.427 2.5207 7.57539
-13.758 3.0848 7.45674
-14.473 2.5643 7.45674
-15.327 2.1618 7.45674
-15.293 2.1124 7.57539
-13.806 3.1153 7.33628
-13.848 3.1418 7.22485
-14.546 2.6334 7.22485
-14.512 2.6012 7.33628
-15.38 2.2402 7.22485
-15.355 2.2037 7.33628
-16.306 1.9661 7.22485
-17.285 1.8147 7.22485
-17.282 1.7735 7.33628
-16.292 1.9266 7.33628
-17.278 1.7262 7.45674
-16.275 1.8812 7.45674
-17.273 1.6704 7.57539
-16.256 1.8277 7.57539
-13.96 3.2135 7.05341
-14.001 3.2399 7.08674
-14.672 2.7521 7.08674
-14.638 2.7202 7.05341
-15.471 2.3751 7.08674
-15.447 2.3388 7.05341
-15.424 2.3056 7.07255
-14.607 2.691 7.07255
-13.922 3.1894 7.07255
-16.36 2.1122 7.08674
-17.299 1.967 7.08674
-17.295 1.926 7.05341
-16.346 2.0729 7.05341
-17.292 1.8886 7.07255
-16.332 2.037 7.07255
-17.289 1.8523 7.13332
-16.32 2.0022 7.13332
-15.402 2.2735 7.13332
-13.885 3.166 7.13332
-14.577 2.6627 7.13332
-20.024 2.2728 7.08674
-20.77 2.6336 7.08674
-20.807 2.6003 7.05341
-20.052 2.2353 7.05341
-20.839 2.5698 7.07255
-20.077 2.2011 7.07255
-19.204 1.967 7.07255
-19.188 2.0036 7.05341
-19.17 2.0437 7.08674
-20.871 2.5403 7.13332
-20.905 2.5098 7.22485
-20.126 2.1336 7.22485
-20.101 2.1679 7.13332
-19.236 1.8948 7.22485
-19.22 1.9315 7.13332
-18.276 1.7897 7.22485
-18.269 1.8275 7.13332
-18.263 1.8641 7.07255
-18.249 1.943 7.08674
-18.256 1.9017 7.05341
-21.032 2.3924 7.57539
-20.223 2.0016 7.57539
-19.299 1.7536 7.57539
-19.275 1.8082 7.45674
-20.186 2.0526 7.45674
-20.983 2.4377 7.45674
-18.301 1.6445 7.57539
-18.291 1.7006 7.45674
-18.283 1.7482 7.33628
-19.254 1.8545 7.33628
-20.941 2.4762 7.33628
-20.154 2.0959 7.33628
-14.207 8.6936 7.57539
-13.558 8.1563 7.57539
-14.256 8.6482 7.45674
-13.616 8.1187 7.45674
-13.135 7.4771 7.45674
-13.07 7.5053 7.57539
-14.298 8.6098 7.33628
-14.334 8.5762 7.22485
-13.709 8.059 7.22485
-13.666 8.0868 7.33628
-13.239 7.4322 7.22485
-13.191 7.4531 7.33628
-12.928 6.7276 7.22485
-12.778 5.9766 7.22485
-12.724 5.9814 7.33628
-12.876 6.7407 7.33628
-12.663 5.9869 7.45674
-12.817 6.7557 7.45674
-12.591 5.9934 7.57539
-12.746 6.7734 7.57539
-14.432 8.4857 7.05341
-14.468 8.4524 7.08674
-13.869 7.9563 7.08674
-13.826 7.9839 7.05341
-13.418 7.3551 7.08674
-13.37 7.3758 7.05341
-13.326 7.3948 7.07255
-13.786 8.0091 7.07255
-14.399 8.5162 7.07255
-13.119 6.6792 7.08674
-12.976 5.9589 7.08674
-12.922 5.9637 7.05341
-13.068 6.6922 7.05341
-12.874 5.968 7.07255
-13.021 6.7041 7.07255
-12.827 5.9723 7.13332
-12.975 6.7156 7.13332
-13.283 7.4132 7.13332
-14.367 8.5457 7.13332
-13.748 8.0336 7.13332
-13.499 3.8347 7.08674
-13.452 3.8151 7.05341
-13.409 3.7973 7.07255
-13.065 4.4836 7.07255
-13.112 4.4945 7.05341
-13.163 4.5064 7.08674
-13.324 3.762 7.22485
-13.367 3.7799 7.13332
-12.973 4.4623 7.22485
-13.02 4.4731 7.13332
-12.792 5.211 7.22485
-12.841 5.2143 7.13332
-12.888 5.2176 7.07255
-12.989 5.2245 7.08674
-12.936 5.2209 7.05341
-13.158 3.6931 7.57539
-12.793 4.4204 7.57539
-12.863 4.4366 7.45674
-13.222 3.7197 7.45674
-12.605 5.1981 7.57539
-12.677 5.2031 7.45674
-12.739 5.2073 7.33628
-12.922 4.4503 7.33628
-13.277 3.7423 7.33628
-21.537 8.0371 7.57539
-20.811 8.5653 7.57539
-21.481 8.0012 7.45674
-20.765 8.5217 7.45674
-19.912 8.9242 7.45674
-19.946 8.9736 7.57539
-21.433 7.9707 7.33628
-21.391 7.9442 7.22485
-20.692 8.4526 7.22485
-20.726 8.4848 7.33628
-19.859 8.8458 7.22485
-19.884 8.8823 7.33628
-18.932 9.1199 7.22485
-17.953 9.2712 7.22485
-17.957 9.3125 7.33628
-18.947 9.1594 7.33628
-17.961 9.3598 7.45674
-18.964 9.2048 7.45674
-17.966 9.4155 7.57539
-18.983 9.2583 7.57539
-21.279 7.8725 7.05341
-21.237 7.8461 7.08674
-20.567 8.3338 7.08674
-20.601 8.3658 7.05341
-19.768 8.7109 7.08674
-19.792 8.7472 7.05341
-19.815 8.7804 7.07255
-20.632 8.395 7.07255
-21.317 7.8966 7.07255
-18.879 8.9738 7.08674
-17.94 9.119 7.08674
-17.943 9.16 7.05341
-18.893 9.0131 7.05341
-17.947 9.1974 7.07255
-18.906 9.049 7.07255
-17.95 9.2337 7.13332
-18.919 9.0838 7.13332
-19.836 8.8125 7.13332
-21.353 7.92 7.13332
-20.661 8.4233 7.13332
-15.215 8.8132 7.08674
-15.187 8.8507 7.05341
-15.162 8.8849 7.07255
-16.034 9.119 7.07255
-16.051 9.0823 7.05341
-16.068 9.0423 7.08674
-15.112 8.9524 7.22485
-15.138 8.9181 7.13332
-16.002 9.1912 7.22485
-16.019 9.1545 7.13332
-16.963 9.2963 7.22485
-16.97 9.2585 7.13332
-16.976 9.2219 7.07255
-16.99 9.143 7.08674
-16.983 9.1843 7.05341
-15.015 9.0844 7.57539
-15.94 9.3324 7.57539
-15.964 9.2778 7.45674
-15.053 9.0334 7.45674
-16.938 9.4415 7.57539
-16.947 9.3854 7.45674
-16.956 9.3377 7.33628
-15.984 9.2315 7.33628
-15.085 8.9901 7.33628
-21.681 2.9296 7.57539
-21.623 2.9673 7.45674
-22.104 3.6089 7.45674
-22.169 3.5807 7.57539
-21.53 3.027 7.22485
-21.573 2.9992 7.33628
-22.0 3.6538 7.22485
-22.048 3.6329 7.33628
-22.311 4.3584 7.22485
-22.461 5.1094 7.22485
-22.514 5.1046 7.33628
-22.363 4.3453 7.33628
-22.576 5.0991 7.45674
-22.422 4.3303 7.45674
-22.648 5.0926 7.57539
-22.492 4.3126 7.57539
-21.37 3.1297 7.08674
-21.413 3.1021 7.05341
-21.821 3.7309 7.08674
-21.869 3.7101 7.05341
-21.913 3.6912 7.07255
-21.452 3.0768 7.07255
-22.119 4.4068 7.08674
-22.263 5.1271 7.08674
-22.316 5.1223 7.05341
-22.171 4.3938 7.05341
-22.365 5.1179 7.07255
-22.218 4.3819 7.07255
-22.412 5.1137 7.13332
-22.264 4.3704 7.13332
-21.955 3.6728 7.13332
-21.49 3.0524 7.13332
-21.739 7.2513 7.08674
-21.787 7.2708 7.05341
-21.83 7.2887 7.07255
-22.174 6.6023 7.07255
-22.127 6.5915 7.05341
-22.076 6.5796 7.08674
-21.915 7.324 7.22485
-21.871 7.3061 7.13332
-22.266 6.6237 7.22485
-22.219 6.6129 7.13332
-22.447 5.875 7.22485
-22.398 5.8717 7.13332
-22.351 5.8684 7.07255
-22.25 5.8614 7.08674
-22.303 5.8651 7.05341
-22.081 7.3929 7.57539
-22.445 6.6656 7.57539
-22.376 6.6494 7.45674
-22.017 7.3663 7.45674
-22.634 5.8878 7.57539
-22.561 5.8829 7.45674
-22.5 5.8787 7.33628
-22.317 6.6357 7.33628
-21.962 7.3437 7.33628
-14.049 3.2701 7.18343
-14.711 2.7888 7.18343
-14.113 3.3106 7.3279
-14.762 2.8379 7.32814
-15.537 2.4724 7.32862
-15.499 2.4166 7.18343
-14.202 3.3678 7.50461
-14.329 3.4482 7.698
-14.938 3.0051 7.70042
-14.835 2.9074 7.50558
-15.665 2.6628 7.70526
-15.59 2.5515 7.50751
-16.474 2.4242 7.7101
-17.328 2.2923 7.71252
-17.317 2.1664 7.51041
-16.43 2.3034 7.50944
-17.309 2.0769 7.32935
-16.399 2.2177 7.32911
-17.303 2.0139 7.18343
-16.377 2.1572 7.18343
-14.941 3.8381 8.22996
-15.407 3.5214 8.24811
-15.99 3.2809 8.28079
-15.881 3.0182 8.10238
-15.24 3.3105 8.08406
-14.709 3.6905 8.07444
-17.391 2.993 8.31716
-16.666 3.1007 8.30624
-17.364 2.6951 8.12671
-16.601 2.8114 8.1189
-17.344 2.465 7.92155
-16.534 2.5897 7.91672
-15.768 2.8153 7.90704
-14.502 3.5582 7.89253
-15.079 3.139 7.89737
-19.952 3.3893 8.22996
-19.438 3.1603 8.24811
-20.154 3.2029 8.07444
-19.564 2.9233 8.08405
-18.881 2.7495 8.10238
-18.821 3.0274 8.28079
-20.335 3.0357 7.89253
-20.485 2.8967 7.698
-19.807 2.569 7.70042
-19.692 2.7257 7.89737
-19.031 2.3613 7.70526
-18.957 2.5296 7.90704
-18.192 2.2702 7.7101
-18.163 2.4438 7.91672
-18.136 2.6739 8.1189
-18.124 2.9701 8.30624
-20.729 2.6718 7.18343
-19.992 2.3157 7.18343
-19.15 2.0896 7.18343
-19.123 2.1513 7.32862
-19.95 2.3732 7.32814
-20.674 2.7229 7.3279
-18.241 1.9902 7.18343
-18.23 2.0537 7.32911
-18.214 2.1436 7.50944
-19.084 2.2385 7.50751
-20.595 2.7952 7.50461
-19.891 2.4546 7.50558
-14.51 8.4142 7.18343
-13.918 7.9246 7.18343
-14.565 8.3631 7.3279
-13.984 7.8822 7.32814
-13.547 7.2995 7.32862
-13.473 7.3313 7.18343
-14.643 8.2908 7.50461
-14.753 8.1893 7.698
-14.209 7.7382 7.70042
-14.077 7.8223 7.50558
-13.8 7.1913 7.70526
-13.652 7.2545 7.50751
-13.529 6.5764 7.7101
-13.398 5.9211 7.71252
-13.235 5.9357 7.51041
-13.37 6.6161 7.50944
-13.118 5.9461 7.32935
-13.258 6.6443 7.32911
-13.037 5.9535 7.18343
-13.178 6.6643 7.18343
-15.287 7.6967 8.22996
-14.899 7.3513 8.24811
-14.615 6.9107 8.28079
-14.27 7.0074 8.10238
-14.618 7.4899 8.08406
-15.085 7.8831 8.07444
-14.308 5.8396 8.31716
-14.413 6.3961 8.30624
-13.921 5.8742 8.12671
-14.036 6.4598 8.1189
-13.622 5.901 7.92155
-13.746 6.5221 7.91672
-14.002 7.1049 7.90704
-14.904 8.0503 7.89253
-14.388 7.6231 7.89737
-14.621 4.247 8.24811
-14.32 4.1605 8.08405
-14.063 4.6972 8.10238
-14.42 4.731 8.28079
-13.873 3.9889 7.70042
-14.07 4.0702 7.89737
-13.567 4.5997 7.70526
-13.782 4.6488 7.90704
-13.41 5.253 7.7101
-13.633 5.2678 7.91672
-13.93 5.2776 8.1189
-14.313 5.2732 8.30624
-13.553 3.8571 7.18343
-13.221 4.52 7.18343
-13.3 4.5382 7.32862
-13.626 3.8871 7.32814
-13.05 5.2287 7.18343
-13.132 5.2343 7.32911
-13.247 5.2421 7.50944
-13.411 4.5638 7.50751
-13.729 3.9295 7.50558
-21.19 7.8159 7.18343
-20.528 8.2972 7.18343
-21.126 7.7754 7.3279
-20.476 8.2481 7.32814
-19.702 8.6135 7.32862
-19.739 8.6694 7.18343
-21.036 7.7182 7.50461
-20.91 7.6378 7.698
-20.301 8.0809 7.70042
-20.403 8.1786 7.50558
-19.574 8.4232 7.70526
-19.648 8.5345 7.50751
-18.765 8.6618 7.7101
-17.911 8.7937 7.71252
-17.922 8.9196 7.51041
-18.809 8.7826 7.50944
-17.93 9.009 7.32935
-18.84 8.8683 7.32911
-17.935 9.0721 7.18343
-18.862 8.9288 7.18343
-20.298 7.2479 8.22996
-19.832 7.5646 8.24811
-19.249 7.8051 8.28079
-19.358 8.0678 8.10238
-19.998 7.7755 8.08406
-20.529 7.3954 8.07444
-17.848 8.093 8.31716
-18.573 7.9853 8.30624
-17.874 8.3909 8.12671
-18.638 8.2746 8.1189
-17.895 8.621 7.92155
-18.705 8.4963 7.91672
-19.471 8.2707 7.90704
-20.737 7.5278 7.89253
-20.16 7.947 7.89737
-15.801 7.9256 8.24811
-15.675 8.1627 8.08405
-16.358 8.3365 8.10238
-16.418 8.0586 8.28079
-15.432 8.5169 7.70042
-15.546 8.3603 7.89737
-16.208 8.7246 7.70526
-16.282 8.5564 7.90704
-17.046 8.8157 7.7101
-17.076 8.6422 7.91672
-17.103 8.4121 8.1189
-17.115 8.1159 8.30624
-15.246 8.7703 7.18343
-16.089 8.9964 7.18343
-16.116 8.9347 7.32862
-15.289 8.7128 7.32814
-16.998 9.0958 7.18343
-17.009 9.0323 7.32911
-17.025 8.9424 7.50944
-16.154 8.8474 7.50751
-15.348 8.6314 7.50558
-21.321 3.1614 7.18343
-21.255 3.2038 7.32814
-21.692 3.7865 7.32862
-21.766 3.7547 7.18343
-21.03 3.3478 7.70042
-21.162 3.2637 7.50558
-21.439 3.8947 7.70526
-21.587 3.8315 7.50751
-21.71 4.5096 7.7101
-21.841 5.1649 7.71252
-22.004 5.1503 7.51041
-21.868 4.4699 7.50944
-22.12 5.1399 7.32935
-21.981 4.4417 7.32911
-22.202 5.1325 7.18343
-22.06 4.4217 7.18343
-20.34 3.7347 8.24811
-20.624 4.1753 8.28079
-20.969 4.0786 8.10238
-20.621 3.5961 8.08406
-20.931 5.2464 8.31716
-20.825 4.6899 8.30624
-21.318 5.2118 8.12671
-21.203 4.6262 8.1189
-21.616 5.185 7.92155
-21.493 4.5638 7.91672
-21.237 3.981 7.90704
-20.85 3.4629 7.89737
-20.618 6.839 8.24811
-20.919 6.9255 8.08405
-21.176 6.3888 8.10238
-20.819 6.355 8.28079
-21.366 7.0971 7.70042
-21.169 7.0158 7.89737
-21.671 6.4863 7.70526
-21.457 6.4372 7.90704
-21.829 5.833 7.7101
-21.605 5.8182 7.91672
-21.309 5.8084 8.1189
-20.926 5.8128 8.30624
-21.685 7.2289 7.18343
-22.017 6.566 7.18343
-21.939 6.5478 7.32862
-21.613 7.1989 7.32814
-22.189 5.8573 7.18343
-22.107 5.8517 7.32911
-21.992 5.8439 7.50944
-21.828 6.5222 7.50751
-21.51 7.1565 7.50558
-13.075 2.0297 5.6235
-12.658 2.1963 4.89985
-13.249 1.8464 5.4235
-12.86 1.9739 4.78412
-12.721 2.0023 4.00824
-12.523 2.2376 3.99866
-13.359 1.7544 5.2975
-13.422 1.7081 5.22365
-13.09 1.8067 4.67428
-13.001 1.8619 4.71372
-12.967 1.8249 4.01418
-12.868 1.8833 4.0125
-13.057 1.7655 3.35341
-13.365 1.6313 2.80205
-13.299 1.679 2.72535
-12.966 1.8215 3.31074
-13.19 1.7782 2.57534
-12.825 1.9373 3.22639
-13.028 1.9805 2.30856
-12.63 2.1693 3.07496
-16.458 0.789998 5.62099
-15.671 1.0419 6.01324
-16.096 0.816398 5.41927
-15.448 1.0517 5.79353
-14.668 1.3309 5.91466
-14.725 1.3633 6.12665
-15.876 0.844498 5.29162
-15.75 0.860798 5.21644
-15.225 1.0651 5.54831
-15.309 1.0629 5.64371
-14.593 1.2996 5.66035
-14.625 1.3144 5.76223
-13.957 1.5265 5.55224
-13.938 1.5584 5.64691
-13.893 1.6139 5.79583
-13.812 1.7223 6.01459
-16.443 0.728498 2.28772
-16.887 0.604598 3.05943
-16.073 0.734698 2.56647
-16.464 0.619498 3.21787
-16.594 0.599198 4.00162
-17.023 0.581398 3.992
-15.852 0.755698 2.71939
-15.727 0.771598 2.79473
-16.053 0.675198 3.34413
-16.204 0.650498 3.30318
-16.165 0.661098 4.00427
-16.325 0.633498 4.00443
-16.064 0.724598 4.66507
-16.215 0.699698 4.70622
-16.474 0.665198 4.77869
-16.894 0.639798 4.89655
-13.765 1.6608 1.8793
-13.83 1.5242 2.19182
-14.614 1.2307 2.06559
-14.688 1.2959 1.74557
-13.895 1.425 2.47016
-13.872 1.4583 2.37325
-14.539 1.1864 2.35809
-14.568 1.2024 2.2547
-15.186 0.955298 2.46617
-15.267 0.953898 2.36999
-15.409 0.952898 2.18642
-15.646 0.972098 1.86573
-13.452 1.6615 5.18015
-13.136 1.7548 4.65142
-13.124 1.6314 4.64417
-13.01 1.6467 4.02107
-13.019 1.7711 4.01598
-13.398 1.584 2.84887
-13.105 1.7132 3.37981
-13.093 1.5896 3.3972
-15.667 0.851898 5.17214
-15.168 1.0476 5.49188
-14.567 1.2719 5.60003
-15.645 0.762398 2.84074
-22.062 9.0935 5.53242
-22.458 8.9322 4.84989
-21.816 9.3001 5.26797
-22.173 9.1802 4.69784
-22.3 9.1504 4.00519
-22.584 8.8907 3.99686
-21.63 9.4099 5.07616
-21.496 9.463 4.9413
-21.77 9.3785 4.51706
-21.944 9.3131 4.59061
-21.872 9.3579 4.00796
-22.061 9.2895 4.00796
-21.797 9.3999 3.49887
-21.541 9.5033 3.07462
-21.682 9.456 2.93976
-21.974 9.3376 3.42531
-21.869 9.3472 2.72635
-22.204 9.2054 3.30697
-22.106 9.1302 2.39711
-22.484 8.9526 3.1216
-18.803 10.2814 5.53242
-19.561 10.0436 5.89619
-19.183 10.2414 5.26797
-19.782 10.0294 5.59861
-20.504 9.7754 5.70406
-20.473 9.7369 5.99838
-19.421 10.1929 5.07616
-19.565 10.1472 4.9413
-20.001 9.9853 5.19585
-19.919 10.0076 5.36748
-20.525 9.7969 5.2807
-20.519 9.792 5.46459
-21.052 9.6127 5.19585
-21.122 9.5811 5.36748
-21.221 9.5154 5.59861
-21.354 9.391 5.89619
-18.817 10.3297 2.37881
-18.392 10.4486 3.1094
-19.202 10.3008 2.72178
-18.842 10.4086 3.30392
-18.723 10.4308 4.00442
-18.263 10.4724 3.99381
-19.44 10.2505 2.93976
-19.582 10.1975 3.07462
-19.312 10.2804 3.49887
-19.131 10.3453 3.42531
-19.22 10.2977 4.00796
-19.026 10.3651 4.00796
-19.305 10.2523 4.51706
-19.122 10.3132 4.59061
-18.833 10.3751 4.69784
-18.385 10.4205 4.84989
-21.396 9.436 1.99635
-21.277 9.5778 2.38646
-20.552 9.8458 2.27594
-20.506 9.786 1.87385
-21.101 9.6669 2.82007
-21.178 9.6432 2.64844
-20.567 9.8586 2.73522
-20.567 9.8626 2.55133
-20.03 10.0462 2.82007
-19.953 10.0773 2.64844
-19.816 10.1 2.38341
-19.584 10.0964 1.98415
-20.136 9.9629 4.92853
-19.798 10.0884 4.73127
-19.819 10.0968 4.7194
-20.151 9.9733 4.91343
-20.55 9.8297 4.9781
-20.542 9.8169 4.99429
-20.95 9.6742 4.92853
-19.556 10.2115 4.00796
-19.531 10.205 4.00796
-19.602 10.1916 3.61343
-19.596 10.1699 4.40249
-19.62 10.1769 4.39602
-19.666 10.1155 4.84773
-20.057 9.9698 5.07675
-19.731 10.0962 4.78709
-20.095 9.961 4.99958
-20.532 9.8038 5.07041
-20.529 9.8003 5.15309
-19.772 10.0877 4.75105
-20.119 9.9588 4.95371
-20.536 9.8088 5.02127
-21.294 9.5582 4.73127
-21.309 9.543 4.75105
-20.956 9.6621 4.95371
-21.343 9.5251 4.78709
-20.972 9.65 4.99958
-21.403 9.4999 4.84773
-21.003 9.6346 5.07675
-21.65 9.4239 4.46601
-21.572 9.4545 4.43294
-21.657 9.4373 4.00796
-21.741 9.4053 4.00796
-21.507 9.4927 4.40249
-21.528 9.4757 4.41328
-21.609 9.4592 4.00796
-21.345 9.575 3.26487
-21.38 9.5587 3.22883
-21.594 9.4723 3.58299
-21.443 9.5362 3.1682
-21.673 9.4431 3.54991
-21.047 9.6834 2.93917
-21.013 9.6953 3.01634
-20.567 9.8553 2.94551
-20.567 9.8559 2.86283
-20.57 9.858 2.99465
-20.995 9.7053 3.06221
-20.159 10.0102 3.08739
-19.811 10.1274 3.28465
-19.786 10.1278 3.26487
-20.143 10.0073 3.06221
-19.745 10.1382 3.22883
-20.12 10.0119 3.01634
-19.68 10.1608 3.1682
-20.084 10.0246 2.93917
-19.438 10.2353 3.54991
-19.52 10.2074 3.58299
-19.443 10.2218 4.00796
-19.355 10.2509 4.00796
-19.571 10.1937 3.60264
-19.497 10.2075 4.00796
-19.565 10.1714 4.41328
-19.514 10.184 4.43294
-19.431 10.2101 4.46601
3 0 1 2
3 0 2 3
3 2 4 5
3 2 5 3
3 5 6 7
3 5 7 3
3 7 8 0
3 7 0 3
3 9 10 11
3 9 11 12
3 11 13 14
3 11 14 12
3 14 6 5
3 14 5 12
3 5 4 9
3 5 9 12
3 15 16 17
3 15 17 18
3 17 19 20
3 17 20 18
3 20 6 14
3 20 14 18
3 14 13 15
3 14 15 18
3 21 22 23
3 21 23 24
3 23 8 7
3 23 7 24
3 7 6 20
3 7 20 24
3 20 19 21
3 20 21 24
3 25 26 27
3 25 27 28
3 27 29 30
3 27 30 28
3 30 31 32
3 30 32 28
3 32 33 25
3 32 25 28
3 34 35 36
3 34 36 37
3 36 38 39
3 36 39 37
3 39 31 30
3 39 30 37
3 30 29 34
3 30 34 37
3 40 16 15
3 40 15 41
3 15 13 42
3 15 42 41
3 42 31 39
3 42 39 41
3 39 38 40
3 39 40 41
3 11 10 43
3 11 43 44
3 43 33 32
3 43 32 44
3 32 31 42
3 32 42 44
3 42 13 11
3 42 11 44
3 45 46 47
3 45 47 48
3 47 49 50
3 47 50 48
3 50 51 52
3 50 52 48
3 52 53 45
3 52 45 48
3 54 55 56
3 54 56 57
3 56 58 59
3 56 59 57
3 59 51 50
3 59 50 57
3 50 49 54
3 50 54 57
3 60 16 40
3 60 40 61
3 40 38 62
3 40 62 61
3 62 51 59
3 62 59 61
3 59 58 60
3 59 60 61
3 36 35 63
3 36 63 64
3 63 53 52
3 63 52 64
3 52 51 62
3 52 62 64
3 62 38 36
3 62 36 64
3 65 66 67
3 65 67 68
3 67 69 70
3 67 70 68
3 70 71 72
3 70 72 68
3 72 73 65
3 72 65 68
3 74 22 21
3 74 21 75
3 21 19 76
3 21 76 75
3 76 71 70
3 76 70 75
3 70 69 74
3 70 74 75
3 17 16 60
3 17 60 77
3 60 58 78
3 60 78 77
3 78 71 76
3 78 76 77
3 76 19 17
3 76 17 77
3 56 55 79
3 56 79 80
3 79 73 72
3 79 72 80
3 72 71 78
3 72 78 80
3 78 58 56
3 78 56 80
3 81 82 83
3 81 83 84
3 83 85 86
3 83 86 84
3 86 87 88
3 86 88 84
3 88 89 81
3 88 81 84
3 90 91 92
3 90 92 93
3 92 94 95
3 92 95 93
3 95 87 86
3 95 86 93
3 86 85 90
3 86 90 93
3 96 97 98
3 96 98 99
3 98 100 101
3 98 101 99
3 101 87 95
3 101 95 99
3 95 94 96
3 95 96 99
3 102 103 104
3 102 104 105
3 104 89 88
3 104 88 105
3 88 87 101
3 88 101 105
3 101 100 102
3 101 102 105
3 106 107 108
3 106 108 109
3 108 110 111
3 108 111 109
3 111 112 113
3 111 113 109
3 113 114 106
3 113 106 109
3 115 116 117
3 115 117 118
3 117 119 120
3 117 120 118
3 120 112 111
3 120 111 118
3 111 110 115
3 111 115 118
3 121 97 96
3 121 96 122
3 96 94 123
3 96 123 122
3 123 112 120
3 123 120 122
3 120 119 121
3 120 121 122
3 92 91 124
3 92 124 125
3 124 114 113
3 124 113 125
3 113 112 123
3 113 123 125
3 123 94 92
3 123 92 125
3 126 127 128
3 126 128 129
3 128 130 131
3 128 131 129
3 131 132 133
3 131 133 129
3 133 134 126
3 133 126 129
3 135 136 137
3 135 137 138
3 137 139 140
3 137 140 138
3 140 132 131
3 140 131 138
3 131 130 135
3 131 135 138
3 141 97 121
3 141 121 142
3 121 119 143
3 121 143 142
3 143 132 140
3 143 140 142
3 140 139 141
3 140 141 142
3 117 116 144
3 117 144 145
3 144 134 133
3 144 133 145
3 133 132 143
3 133 143 145
3 143 119 117
3 143 117 145
3 108 107 146
3 108 146 147
3 146 148 149
3 146 149 147
3 149 150 151
3 149 151 147
3 151 110 108
3 151 108 147
3 152 153 154
3 152 154 155
3 154 156 157
3 154 157 155
3 157 150 149
3 157 149 155
3 149 148 152
3 149 152 155
3 158 159 160
3 158 160 161
3 160 162 163
3 160 163 161
3 163 150 157
3 163 157 161
3 157 156 158
3 157 158 161
3 164 116 115
3 164 115 165
3 115 110 151
3 115 151 165
3 151 150 163
3 151 163 165
3 163 162 164
3 163 164 165
3 166 167 168
3 166 168 169
3 168 170 171
3 168 171 169
3 171 172 173
3 171 173 169
3 173 174 166
3 173 166 169
3 175 176 177
3 175 177 178
3 177 179 180
3 177 180 178
3 180 172 171
3 180 171 178
3 171 170 175
3 171 175 178
3 181 159 158
3 181 158 182
3 158 156 183
3 158 183 182
3 183 172 180
3 183 180 182
3 180 179 181
3 180 181 182
3 154 153 184
3 154 184 185
3 184 174 173
3 184 173 185
3 173 172 183
3 173 183 185
3 183 156 154
3 183 154 185
3 186 187 188
3 186 188 189
3 188 190 191
3 188 191 189
3 191 192 193
3 191 193 189
3 193 194 186
3 193 186 189
3 195 196 197
3 195 197 198
3 197 199 200
3 197 200 198
3 200 192 191
3 200 191 198
3 191 190 195
3 191 195 198
3 201 159 181
3 201 181 202
3 181 179 203
3 181 203 202
3 203 192 200
3 203 200 202
3 200 199 201
3 200 201 202
3 177 176 204
3 177 204 205
3 204 194 193
3 204 193 205
3 193 192 203
3 193 203 205
3 203 179 177
3 203 177 205
3 206 127 126
3 206 126 207
3 126 134 208
3 126 208 207
3 208 209 210
3 208 210 207
3 210 211 206
3 210 206 207
3 144 116 164
3 144 164 212
3 164 162 213
3 164 213 212
3 213 209 208
3 213 208 212
3 208 134 144
3 208 144 212
3 160 159 201
3 160 201 214
3 201 199 215
3 201 215 214
3 215 209 213
3 215 213 214
3 213 162 160
3 213 160 214
3 197 196 216
3 197 216 217
3 216 211 210
3 216 210 217
3 210 209 215
3 210 215 217
3 215 199 197
3 215 197 217
3 168 167 218
3 168 218 219
3 218 220 221
3 218 221 219
3 221 222 223
3 221 223 219
3 223 170 168
3 223 168 219
3 224 225 226
3 224 226 227
3 226 228 229
3 226 229 227
3 229 222 221
3 229 221 227
3 221 220 224
3 221 224 227
3 230 231 232
3 230 232 233
3 232 234 235
3 232 235 233
3 235 222 229
3 235 229 233
3 229 228 230
3 229 230 233
3 236 176 175
3 236 175 237
3 175 170 223
3 175 223 237
3 223 222 235
3 223 235 237
3 235 234 236
3 235 236 237
3 238 239 240
3 238 240 241
3 240 242 243
3 240 243 241
3 243 244 245
3 243 245 241
3 245 246 238
3 245 238 241
3 247 248 249
3 247 249 250
3 249 251 252
3 249 252 250
3 252 244 243
3 252 243 250
3 243 242 247
3 243 247 250
3 253 231 254
3 253 254 255
3 254 256 257
3 254 257 255
3 257 244 252
3 257 252 255
3 252 251 253
3 252 253 255
3 258 259 260
3 258 260 261
3 260 246 245
3 260 245 261
3 245 244 257
3 245 257 261
3 257 256 258
3 257 258 261
3 262 187 186
3 262 186 263
3 186 194 264
3 186 264 263
3 264 265 266
3 264 266 263
3 266 267 262
3 266 262 263
3 204 176 236
3 204 236 268
3 236 234 269
3 236 269 268
3 269 265 264
3 269 264 268
3 264 194 204
3 264 204 268
3 232 231 253
3 232 253 270
3 253 251 271
3 253 271 270
3 271 265 269
3 271 269 270
3 269 234 232
3 269 232 270
3 249 248 272
3 249 272 273
3 272 267 266
3 272 266 273
3 266 265 271
3 266 271 273
3 271 251 249
3 271 249 273
3 218 167 166
3 218 166 274
3 166 174 275
3 166 275 274
3 275 276 277
3 275 277 274
3 277 220 218
3 277 218 274
3 184 153 278
3 184 278 279
3 278 280 281
3 278 281 279
3 281 276 275
3 281 275 279
3 275 174 184
3 275 184 279
3 282 283 284
3 282 284 285
3 284 286 287
3 284 287 285
3 287 276 281
3 287 281 285
3 281 280 282
3 281 282 285
3 288 225 224
3 288 224 289
3 224 220 277
3 224 277 289
3 277 276 287
3 277 287 289
3 287 286 288
3 287 288 289
3 146 107 106
3 146 106 290
3 106 114 291
3 106 291 290
3 291 292 293
3 291 293 290
3 293 148 146
3 293 146 290
3 124 91 294
3 124 294 295
3 294 296 297
3 294 297 295
3 297 292 291
3 297 291 295
3 291 114 124
3 291 124 295
3 298 283 282
3 298 282 299
3 282 280 300
3 282 300 299
3 300 292 297
3 300 297 299
3 297 296 298
3 297 298 299
3 278 153 152
3 278 152 301
3 152 148 293
3 152 293 301
3 293 292 300
3 293 300 301
3 300 280 278
3 300 278 301
3 83 82 302
3 83 302 303
3 302 304 305
3 302 305 303
3 305 306 307
3 305 307 303
3 307 85 83
3 307 83 303
3 308 309 310
3 308 310 311
3 310 312 313
3 310 313 311
3 313 306 305
3 313 305 311
3 305 304 308
3 305 308 311
3 314 283 298
3 314 298 315
3 298 296 316
3 298 316 315
3 316 306 313
3 316 313 315
3 313 312 314
3 313 314 315
3 294 91 90
3 294 90 317
3 90 85 307
3 90 307 317
3 307 306 316
3 307 316 317
3 316 296 294
3 316 294 317
3 318 319 320
3 318 320 321
3 320 322 323
3 320 323 321
3 323 324 325
3 323 325 321
3 325 326 318
3 325 318 321
3 327 225 288
3 327 288 328
3 288 286 329
3 288 329 328
3 329 324 323
3 329 323 328
3 323 322 327
3 323 327 328
3 284 283 314
3 284 314 330
3 314 312 331
3 314 331 330
3 331 324 329
3 331 329 330
3 329 286 284
3 329 284 330
3 310 309 332
3 310 332 333
3 332 326 325
3 332 325 333
3 325 324 331
3 325 331 333
3 331 312 310
3 331 310 333
3 240 239 334
3 240 334 335
3 334 336 337
3 334 337 335
3 337 338 339
3 337 339 335
3 339 242 240
3 339 240 335
3 340 341 342
3 340 342 343
3 342 344 345
3 342 345 343
3 345 338 337
3 345 337 343
3 337 336 340
3 337 340 343
3 346 347 348
3 346 348 349
3 348 350 351
3 348 351 349
3 351 338 345
3 351 345 349
3 345 344 346
3 345 346 349
3 352 248 247
3 352 247 353
3 247 242 339
3 247 339 353
3 339 338 351
3 339 351 353
3 351 350 352
3 351 352 353
3 354 355 356
3 354 356 357
3 356 358 359
3 356 359 357
3 359 360 361
3 359 361 357
3 361 362 354
3 361 354 357
3 363 136 364
3 363 364 365
3 364 366 367
3 364 367 365
3 367 360 359
3 367 359 365
3 359 358 363
3 359 363 365
3 368 347 346
3 368 346 369
3 346 344 370
3 346 370 369
3 370 360 367
3 370 367 369
3 367 366 368
3 367 368 369
3 342 341 371
3 342 371 372
3 371 362 361
3 371 361 372
3 361 360 370
3 361 370 372
3 370 344 342
3 370 342 372
3 128 127 206
3 128 206 373
3 206 211 374
3 206 374 373
3 374 375 376
3 374 376 373
3 376 130 128
3 376 128 373
3 216 196 377
3 216 377 378
3 377 379 380
3 377 380 378
3 380 375 374
3 380 374 378
3 374 211 216
3 374 216 378
3 381 347 368
3 381 368 382
3 368 366 383
3 368 383 382
3 383 375 380
3 383 380 382
3 380 379 381
3 380 381 382
3 364 136 135
3 364 135 384
3 135 130 376
3 135 376 384
3 376 375 383
3 376 383 384
3 383 366 364
3 383 364 384
3 188 187 262
3 188 262 385
3 262 267 386
3 262 386 385
3 386 387 388
3 386 388 385
3 388 190 188
3 388 188 385
3 272 248 352
3 272 352 389
3 352 350 390
3 352 390 389
3 390 387 386
3 390 386 389
3 386 267 272
3 386 272 389
3 348 347 381
3 348 381 391
3 381 379 392
3 381 392 391
3 392 387 390
3 392 390 391
3 390 350 348
3 390 348 391
3 377 196 195
3 377 195 393
3 195 190 388
3 195 388 393
3 388 387 392
3 388 392 393
3 392 379 377
3 392 377 393
3 394 319 395
3 394 395 396
3 395 397 398
3 395 398 396
3 398 399 400
3 398 400 396
3 400 401 394
3 400 394 396
3 402 403 404
3 402 404 405
3 404 406 407
3 404 407 405
3 407 399 398
3 407 398 405
3 398 397 402
3 398 402 405
3 408 409 410
3 408 410 411
3 410 412 413
3 410 413 411
3 413 399 407
3 413 407 411
3 407 406 408
3 407 408 411
3 414 259 415
3 414 415 416
3 415 401 400
3 415 400 416
3 400 399 413
3 400 413 416
3 413 412 414
3 413 414 416
3 417 418 419
3 417 419 420
3 419 421 422
3 419 422 420
3 422 423 424
3 422 424 420
3 424 425 417
3 424 417 420
3 426 427 428
3 426 428 429
3 428 430 431
3 428 431 429
3 431 423 422
3 431 422 429
3 422 421 426
3 422 426 429
3 432 409 408
3 432 408 433
3 408 406 434
3 408 434 433
3 434 423 431
3 434 431 433
3 431 430 432
3 431 432 433
3 404 403 435
3 404 435 436
3 435 425 424
3 435 424 436
3 424 423 434
3 424 434 436
3 434 406 404
3 434 404 436
3 437 438 439
3 437 439 440
3 439 441 442
3 439 442 440
3 442 443 444
3 442 444 440
3 444 445 437
3 444 437 440
3 446 447 448
3 446 448 449
3 448 450 451
3 448 451 449
3 451 443 442
3 451 442 449
3 442 441 446
3 442 446 449
3 452 409 432
3 452 432 453
3 432 430 454
3 432 454 453
3 454 443 451
3 454 451 453
3 451 450 452
3 451 452 453
3 428 427 455
3 428 455 456
3 455 445 444
3 455 444 456
3 444 443 454
3 444 454 456
3 454 430 428
3 454 428 456
3 457 239 238
3 457 238 458
3 238 246 459
3 238 459 458
3 459 460 461
3 459 461 458
3 461 462 457
3 461 457 458
3 260 259 414
3 260 414 463
3 414 412 464
3 414 464 463
3 464 460 459
3 464 459 463
3 459 246 260
3 459 260 463
3 410 409 452
3 410 452 465
3 452 450 466
3 452 466 465
3 466 460 464
3 466 464 465
3 464 412 410
3 464 410 465
3 448 447 467
3 448 467 468
3 467 462 461
3 467 461 468
3 461 460 466
3 461 466 468
3 466 450 448
3 466 448 468
3 302 82 469
3 302 469 470
3 469 471 472
3 469 472 470
3 472 473 474
3 472 474 470
3 474 304 302
3 474 302 470
3 475 476 477
3 475 477 478
3 477 479 480
3 477 480 478
3 480 473 472
3 480 472 478
3 472 471 475
3 472 475 478
3 481 482 483
3 481 483 484
3 483 485 486
3 483 486 484
3 486 473 480
3 486 480 484
3 480 479 481
3 480 481 484
3 487 309 308
3 487 308 488
3 308 304 474
3 308 474 488
3 474 473 486
3 474 486 488
3 486 485 487
3 486 487 488
3 489 490 491
3 489 491 492
3 491 493 494
3 491 494 492
3 494 495 496
3 494 496 492
3 496 497 489
3 496 489 492
3 498 499 500
3 498 500 501
3 500 502 503
3 500 503 501
3 503 495 494
3 503 494 501
3 494 493 498
3 494 498 501
3 504 482 481
3 504 481 505
3 481 479 506
3 481 506 505
3 506 495 503
3 506 503 505
3 503 502 504
3 503 504 505
3 477 476 507
3 477 507 508
3 507 497 496
3 507 496 508
3 496 495 506
3 496 506 508
3 506 479 477
3 506 477 508
3 509 418 417
3 509 417 510
3 417 425 511
3 417 511 510
3 511 512 513
3 511 513 510
3 513 514 509
3 513 509 510
3 435 403 515
3 435 515 516
3 515 517 518
3 515 518 516
3 518 512 511
3 518 511 516
3 511 425 435
3 511 435 516
3 519 482 504
3 519 504 520
3 504 502 521
3 504 521 520
3 521 512 518
3 521 518 520
3 518 517 519
3 518 519 520
3 500 499 522
3 500 522 523
3 522 514 513
3 522 513 523
3 513 512 521
3 513 521 523
3 521 502 500
3 521 500 523
3 395 319 318
3 395 318 524
3 318 326 525
3 318 525 524
3 525 526 527
3 525 527 524
3 527 397 395
3 527 395 524
3 332 309 487
3 332 487 528
3 487 485 529
3 487 529 528
3 529 526 525
3 529 525 528
3 525 326 332
3 525 332 528
3 483 482 519
3 483 519 530
3 519 517 531
3 519 531 530
3 531 526 529
3 531 529 530
3 529 485 483
3 529 483 530
3 515 403 402
3 515 402 532
3 402 397 527
3 402 527 532
3 527 526 531
3 527 531 532
3 531 517 515
3 531 515 532
3 533 355 534
3 533 534 535
3 534 536 537
3 534 537 535
3 537 538 539
3 537 539 535
3 539 540 533
3 539 533 535
3 541 542 543
3 541 543 544
3 543 545 546
3 543 546 544
3 546 538 537
3 546 537 544
3 537 536 541
3 537 541 544
3 547 548 549
3 547 549 550
3 549 551 552
3 549 552 550
3 552 538 546
3 552 546 550
3 546 545 547
3 546 547 550
3 553 103 554
3 553 554 555
3 554 540 539
3 554 539 555
3 539 538 552
3 539 552 555
3 552 551 553
3 552 553 555
3 556 557 558
3 556 558 559
3 558 560 561
3 558 561 559
3 561 562 563
3 561 563 559
3 563 564 556
3 563 556 559
3 565 566 567
3 565 567 568
3 567 569 570
3 567 570 568
3 570 562 561
3 570 561 568
3 561 560 565
3 561 565 568
3 571 548 547
3 571 547 572
3 547 545 573
3 547 573 572
3 573 562 570
3 573 570 572
3 570 569 571
3 570 571 572
3 543 542 574
3 543 574 575
3 574 564 563
3 574 563 575
3 563 562 573
3 563 573 575
3 573 545 543
3 573 543 575
3 576 490 489
3 576 489 577
3 489 497 578
3 489 578 577
3 578 579 580
3 578 580 577
3 580 581 576
3 580 576 577
3 507 476 582
3 507 582 583
3 582 584 585
3 582 585 583
3 585 579 578
3 585 578 583
3 578 497 507
3 578 507 583
3 586 548 571
3 586 571 587
3 571 569 588
3 571 588 587
3 588 579 585
3 588 585 587
3 585 584 586
3 585 586 587
3 567 566 589
3 567 589 590
3 589 581 580
3 589 580 590
3 580 579 588
3 580 588 590
3 588 569 567
3 588 567 590
3 469 82 81
3 469 81 591
3 81 89 592
3 81 592 591
3 592 593 594
3 592 594 591
3 594 471 469
3 594 469 591
3 104 103 553
3 104 553 595
3 553 551 596
3 553 596 595
3 596 593 592
3 596 592 595
3 592 89 104
3 592 104 595
3 549 548 586
3 549 586 597
3 586 584 598
3 586 598 597
3 598 593 596
3 598 596 597
3 596 551 549
3 596 549 597
3 582 476 475
3 582 475 599
3 475 471 594
3 475 594 599
3 594 593 598
3 594 598 599
3 598 584 582
3 598 582 599
3 334 239 457
3 334 457 600
3 457 462 601
3 457 601 600
3 601 602 603
3 601 603 600
3 603 336 334
3 603 334 600
3 467 447 604
3 467 604 605
3 604 606 607
3 604 607 605
3 607 602 601
3 607 601 605
3 601 462 467
3 601 467 605
3 608 609 610
3 608 610 611
3 610 612 613
3 610 613 611
3 613 602 607
3 613 607 611
3 607 606 608
3 607 608 611
3 614 341 340
3 614 340 615
3 340 336 603
3 340 603 615
3 603 602 613
3 603 613 615
3 613 612 614
3 613 614 615
3 439 438 616
3 439 616 617
3 616 618 619
3 616 619 617
3 619 620 621
3 619 621 617
3 621 441 439
3 621 439 617
3 622 623 624
3 622 624 625
3 624 626 627
3 624 627 625
3 627 620 619
3 627 619 625
3 619 618 622
3 619 622 625
3 628 609 608
3 628 608 629
3 608 606 630
3 608 630 629
3 630 620 627
3 630 627 629
3 627 626 628
3 627 628 629
3 604 447 446
3 604 446 631
3 446 441 621
3 446 621 631
3 621 620 630
3 621 630 631
3 630 606 604
3 630 604 631
3 632 557 556
3 632 556 633
3 556 564 634
3 556 634 633
3 634 635 636
3 634 636 633
3 636 637 632
3 636 632 633
3 574 542 638
3 574 638 639
3 638 640 641
3 638 641 639
3 641 635 634
3 641 634 639
3 634 564 574
3 634 574 639
3 642 609 628
3 642 628 643
3 628 626 644
3 628 644 643
3 644 635 641
3 644 641 643
3 641 640 642
3 641 642 643
3 624 623 645
3 624 645 646
3 645 637 636
3 645 636 646
3 636 635 644
3 636 644 646
3 644 626 624
3 644 624 646
3 534 355 354
3 534 354 647
3 354 362 648
3 354 648 647
3 648 649 650
3 648 650 647
3 650 536 534
3 650 534 647
3 371 341 614
3 371 614 651
3 614 612 652
3 614 652 651
3 652 649 648
3 652 648 651
3 648 362 371
3 648 371 651
3 610 609 642
3 610 642 653
3 642 640 654
3 642 654 653
3 654 649 652
3 654 652 653
3 652 612 610
3 652 610 653
3 638 542 541
3 638 541 655
3 541 536 650
3 541 650 655
3 650 649 654
3 650 654 655
3 654 640 638
3 654 638 655
3 419 418 656
3 419 656 657
3 656 658 659
3 656 659 657
3 659 660 661
3 659 661 657
3 661 421 419
3 661 419 657
3 662 663 664
3 662 664 665
3 664 666 667
3 664 667 665
3 667 660 659
3 667 659 665
3 659 658 662
3 659 662 665
3 668 669 670
3 668 670 671
3 670 672 673
3 670 673 671
3 673 660 667
3 673 667 671
3 667 666 668
3 667 668 671
3 674 427 426
3 674 426 675
3 426 421 661
3 426 661 675
3 661 660 673
3 661 673 675
3 673 672 674
3 673 674 675
3 676 677 678
3 676 678 679
3 678 680 681
3 678 681 679
3 681 682 683
3 681 683 679
3 683 684 676
3 683 676 679
3 685 686 687
3 685 687 688
3 687 689 690
3 687 690 688
3 690 682 681
3 690 681 688
3 681 680 685
3 681 685 688
3 691 669 668
3 691 668 692
3 668 666 693
3 668 693 692
3 693 682 690
3 693 690 692
3 690 689 691
3 690 691 692
3 664 663 694
3 664 694 695
3 694 684 683
3 694 683 695
3 683 682 693
3 683 693 695
3 693 666 664
3 693 664 695
3 696 697 698
3 696 698 699
3 698 700 701
3 698 701 699
3 701 702 703
3 701 703 699
3 703 704 696
3 703 696 699
3 705 706 707
3 705 707 708
3 707 709 710
3 707 710 708
3 710 702 701
3 710 701 708
3 701 700 705
3 701 705 708
3 711 669 691
3 711 691 712
3 691 689 713
3 691 713 712
3 713 702 710
3 713 710 712
3 710 709 711
3 710 711 712
3 687 686 714
3 687 714 715
3 714 704 703
3 714 703 715
3 703 702 713
3 703 713 715
3 713 689 687
3 713 687 715
3 716 438 437
3 716 437 717
3 437 445 718
3 437 718 717
3 718 719 720
3 718 720 717
3 720 721 716
3 720 716 717
3 455 427 674
3 455 674 722
3 674 672 723
3 674 723 722
3 723 719 718
3 723 718 722
3 718 445 455
3 718 455 722
3 670 669 711
3 670 711 724
3 711 709 725
3 711 725 724
3 725 719 723
3 725 723 724
3 723 672 670
3 723 670 724
3 707 706 726
3 707 726 727
3 726 721 720
3 726 720 727
3 720 719 725
3 720 725 727
3 725 709 707
3 725 707 727
3 491 490 728
3 491 728 729
3 728 730 731
3 728 731 729
3 731 732 733
3 731 733 729
3 733 493 491
3 733 491 729
3 734 735 736
3 734 736 737
3 736 738 739
3 736 739 737
3 739 732 731
3 739 731 737
3 731 730 734
3 731 734 737
3 740 741 742
3 740 742 743
3 742 744 745
3 742 745 743
3 745 732 739
3 745 739 743
3 739 738 740
3 739 740 743
3 746 499 498
3 746 498 747
3 498 493 733
3 498 733 747
3 733 732 745
3 733 745 747
3 745 744 746
3 745 746 747
3 748 749 750
3 748 750 751
3 750 752 753
3 750 753 751
3 753 754 755
3 753 755 751
3 755 756 748
3 755 748 751
3 757 758 759
3 757 759 760
3 759 761 762
3 759 762 760
3 762 754 753
3 762 753 760
3 753 752 757
3 753 757 760
3 763 741 740
3 763 740 764
3 740 738 765
3 740 765 764
3 765 754 762
3 765 762 764
3 762 761 763
3 762 763 764
3 736 735 766
3 736 766 767
3 766 756 755
3 766 755 767
3 755 754 765
3 755 765 767
3 765 738 736
3 765 736 767
3 768 677 676
3 768 676 769
3 676 684 770
3 676 770 769
3 770 771 772
3 770 772 769
3 772 773 768
3 772 768 769
3 694 663 774
3 694 774 775
3 774 776 777
3 774 777 775
3 777 771 770
3 777 770 775
3 770 684 694
3 770 694 775
3 778 741 763
3 778 763 779
3 763 761 780
3 763 780 779
3 780 771 777
3 780 777 779
3 777 776 778
3 777 778 779
3 759 758 781
3 759 781 782
3 781 773 772
3 781 772 782
3 772 771 780
3 772 780 782
3 780 761 759
3 780 759 782
3 656 418 509
3 656 509 783
3 509 514 784
3 509 784 783
3 784 785 786
3 784 786 783
3 786 658 656
3 786 656 783
3 522 499 746
3 522 746 787
3 746 744 788
3 746 788 787
3 788 785 784
3 788 784 787
3 784 514 522
3 784 522 787
3 742 741 778
3 742 778 789
3 778 776 790
3 778 790 789
3 790 785 788
3 790 788 789
3 788 744 742
3 788 742 789
3 774 663 662
3 774 662 791
3 662 658 786
3 662 786 791
3 786 785 790
3 786 790 791
3 790 776 774
3 790 774 791
3 558 557 792
3 558 792 793
3 792 794 795
3 792 795 793
3 795 796 797
3 795 797 793
3 797 560 558
3 797 558 793
3 798 799 800
3 798 800 801
3 800 802 803
3 800 803 801
3 803 796 795
3 803 795 801
3 795 794 798
3 795 798 801
3 804 805 806
3 804 806 807
3 806 808 809
3 806 809 807
3 809 796 803
3 809 803 807
3 803 802 804
3 803 804 807
3 810 566 565
3 810 565 811
3 565 560 797
3 565 797 811
3 797 796 809
3 797 809 811
3 809 808 810
3 809 810 811
3 812 813 814
3 812 814 815
3 814 816 817
3 814 817 815
3 817 818 819
3 817 819 815
3 819 820 812
3 819 812 815
3 821 822 823
3 821 823 824
3 823 825 826
3 823 826 824
3 826 818 817
3 826 817 824
3 817 816 821
3 817 821 824
3 827 805 804
3 827 804 828
3 804 802 829
3 804 829 828
3 829 818 826
3 829 826 828
3 826 825 827
3 826 827 828
3 800 799 830
3 800 830 831
3 830 820 819
3 830 819 831
3 819 818 829
3 819 829 831
3 829 802 800
3 829 800 831
3 832 749 748
3 832 748 833
3 748 756 834
3 748 834 833
3 834 835 836
3 834 836 833
3 836 837 832
3 836 832 833
3 766 735 838
3 766 838 839
3 838 840 841
3 838 841 839
3 841 835 834
3 841 834 839
3 834 756 766
3 834 766 839
3 842 805 827
3 842 827 843
3 827 825 844
3 827 844 843
3 844 835 841
3 844 841 843
3 841 840 842
3 841 842 843
3 823 822 845
3 823 845 846
3 845 837 836
3 845 836 846
3 836 835 844
3 836 844 846
3 844 825 823
3 844 823 846
3 728 490 576
3 728 576 847
3 576 581 848
3 576 848 847
3 848 849 850
3 848 850 847
3 850 730 728
3 850 728 847
3 589 566 810
3 589 810 851
3 810 808 852
3 810 852 851
3 852 849 848
3 852 848 851
3 848 581 589
3 848 589 851
3 806 805 842
3 806 842 853
3 842 840 854
3 842 854 853
3 854 849 852
3 854 852 853
3 852 808 806
3 852 806 853
3 838 735 734
3 838 734 855
3 734 730 850
3 734 850 855
3 850 849 854
3 850 854 855
3 854 840 838
3 854 838 855
3 616 438 716
3 616 716 856
3 716 721 857
3 716 857 856
3 857 858 859
3 857 859 856
3 859 618 616
3 859 616 856
3 726 706 860
3 726 860 861
3 860 862 863
3 860 863 861
3 863 858 857
3 863 857 861
3 857 721 726
3 857 726 861
3 864 865 866
3 864 866 867
3 866 868 869
3 866 869 867
3 869 858 863
3 869 863 867
3 863 862 864
3 863 864 867
3 870 623 622
3 870 622 871
3 622 618 859
3 622 859 871
3 859 858 869
3 859 869 871
3 869 868 870
3 869 870 871
3 698 697 872
3 698 872 873
3 872 874 875
3 872 875 873
3 875 876 877
3 875 877 873
3 877 700 698
3 877 698 873
3 878 879 880
3 878 880 881
3 880 882 883
3 880 883 881
3 883 876 875
3 883 875 881
3 875 874 878
3 875 878 881
3 884 865 864
3 884 864 885
3 864 862 886
3 864 886 885
3 886 876 883
3 886 883 885
3 883 882 884
3 883 884 885
3 860 706 705
3 860 705 887
3 705 700 877
3 705 877 887
3 877 876 886
3 877 886 887
3 886 862 860
3 886 860 887
3 888 813 812
3 888 812 889
3 812 820 890
3 812 890 889
3 890 891 892
3 890 892 889
3 892 893 888
3 892 888 889
3 830 799 894
3 830 894 895
3 894 896 897
3 894 897 895
3 897 891 890
3 897 890 895
3 890 820 830
3 890 830 895
3 898 865 884
3 898 884 899
3 884 882 900
3 884 900 899
3 900 891 897
3 900 897 899
3 897 896 898
3 897 898 899
3 880 879 901
3 880 901 902
3 901 893 892
3 901 892 902
3 892 891 900
3 892 900 902
3 900 882 880
3 900 880 902
3 792 557 632
3 792 632 903
3 632 637 904
3 632 904 903
3 904 905 906
3 904 906 903
3 906 794 792
3 906 792 903
3 645 623 870
3 645 870 907
3 870 868 908
3 870 908 907
3 908 905 904
3 908 904 907
3 904 637 645
3 904 645 907
3 866 865 898
3 866 898 909
3 898 896 910
3 898 910 909
3 910 905 908
3 910 908 909
3 908 868 866
3 908 866 909
3 894 799 798
3 894 798 911
3 798 794 906
3 798 906 911
3 906 905 910
3 906 910 911
3 910 896 894
3 910 894 911
3 678 677 912
3 678 912 913
3 912 914 915
3 912 915 913
3 915 916 917
3 915 917 913
3 917 680 678
3 917 678 913
3 918 919 920
3 918 920 921
3 920 922 923
3 920 923 921
3 923 916 915
3 923 915 921
3 915 914 918
3 915 918 921
3 924 925 926
3 924 926 927
3 926 928 929
3 926 929 927
3 929 916 923
3 929 923 927
3 923 922 924
3 923 924 927
3 930 686 685
3 930 685 931
3 685 680 917
3 685 917 931
3 917 916 929
3 917 929 931
3 929 928 930
3 929 930 931
3 932 1 0
3 932 0 933
3 0 8 934
3 0 934 933
3 934 935 936
3 934 936 933
3 936 937 932
3 936 932 933
3 23 22 938
3 23 938 939
3 938 940 941
3 938 941 939
3 941 935 934
3 941 934 939
3 934 8 23
3 934 23 939
3 942 925 924
3 942 924 943
3 924 922 944
3 924 944 943
3 944 935 941
3 944 941 943
3 941 940 942
3 941 942 943
3 920 919 945
3 920 945 946
3 945 937 936
3 945 936 946
3 936 935 944
3 936 944 946
3 944 922 920
3 944 920 946
3 67 66 947
3 67 947 948
3 947 949 950
3 947 950 948
3 950 951 952
3 950 952 948
3 952 69 67
3 952 67 948
3 953 954 955
3 953 955 956
3 955 957 958
3 955 958 956
3 958 951 950
3 958 950 956
3 950 949 953
3 950 953 956
3 959 925 942
3 959 942 960
3 942 940 961
3 942 961 960
3 961 951 958
3 961 958 960
3 958 957 959
3 958 959 960
3 938 22 74
3 938 74 962
3 74 69 952
3 74 952 962
3 952 951 961
3 952 961 962
3 961 940 938
3 961 938 962
3 963 697 696
3 963 696 964
3 696 704 965
3 696 965 964
3 965 966 967
3 965 967 964
3 967 968 963
3 967 963 964
3 714 686 930
3 714 930 969
3 930 928 970
3 930 970 969
3 970 966 965
3 970 965 969
3 965 704 714
3 965 714 969
3 926 925 959
3 926 959 971
3 959 957 972
3 959 972 971
3 972 966 970
3 972 970 971
3 970 928 926
3 970 926 971
3 955 954 973
3 955 973 974
3 973 968 967
3 973 967 974
3 967 966 972
3 967 972 974
3 972 957 955
3 972 955 974
3 750 749 975
3 750 975 976
3 975 977 978
3 975 978 976
3 978 979 980
3 978 980 976
3 980 752 750
3 980 750 976
3 981 982 983
3 981 983 984
3 983 985 986
3 983 986 984
3 986 979 978
3 986 978 984
3 978 977 981
3 978 981 984
3 987 988 989
3 987 989 990
3 989 991 992
3 989 992 990
3 992 979 986
3 992 986 990
3 986 985 987
3 986 987 990
3 993 758 757
3 993 757 994
3 757 752 980
3 757 980 994
3 980 979 992
3 980 992 994
3 992 991 993
3 992 993 994
3 995 26 25
3 995 25 996
3 25 33 997
3 25 997 996
3 997 998 999
3 997 999 996
3 999 1000 995
3 999 995 996
3 43 10 1001
3 43 1001 1002
3 1001 1003 1004
3 1001 1004 1002
3 1004 998 997
3 1004 997 1002
3 997 33 43
3 997 43 1002
3 1005 988 987
3 1005 987 1006
3 987 985 1007
3 987 1007 1006
3 1007 998 1004
3 1007 1004 1006
3 1004 1003 1005
3 1004 1005 1006
3 983 982 1008
3 983 1008 1009
3 1008 1000 999
3 1008 999 1009
3 999 998 1007
3 999 1007 1009
3 1007 985 983
3 1007 983 1009
3 2 1 932
3 2 932 1010
3 932 937 1011
3 932 1011 1010
3 1011 1012 1013
3 1011 1013 1010
3 1013 4 2
3 1013 2 1010
3 945 919 1014
3 945 1014 1015
3 1014 1016 1017
3 1014 1017 1015
3 1017 1012 1011
3 1017 1011 1015
3 1011 937 945
3 1011 945 1015
3 1018 988 1005
3 1018 1005 1019
3 1005 1003 1020
3 1005 1020 1019
3 1020 1012 1017
3 1020 1017 1019
3 1017 1016 1018
3 1017 1018 1019
3 1001 10 9
3 1001 9 1021
3 9 4 1013
3 9 1013 1021
3 1013 1012 1020
3 1013 1020 1021
3 1020 1003 1001
3 1020 1001 1021
3 912 677 768
3 912 768 1022
3 768 773 1023
3 768 1023 1022
3 1023 1024 1025
3 1023 1025 1022
3 1025 914 912
3 1025 912 1022
3 781 758 993
3 781 993 1026
3 993 991 1027
3 993 1027 1026
3 1027 1024 1023
3 1027 1023 1026
3 1023 773 781
3 1023 781 1026
3 989 988 1018
3 989 1018 1028
3 1018 1016 1029
3 1018 1029 1028
3 1029 1024 1027
3 1029 1027 1028
3 1027 991 989
3 1027 989 1028
3 1014 919 918
3 1014 918 1030
3 918 914 1025
3 918 1025 1030
3 1025 1024 1029
3 1025 1029 1030
3 1029 1016 1014
3 1029 1014 1030
3 814 813 1031
3 814 1031 1032
3 1031 1033 1034
3 1031 1034 1032
3 1034 1035 1036
3 1034 1036 1032
3 1036 816 814
3 1036 814 1032
3 1037 1038 1039
3 1037 1039 1040
3 1039 1041 1042
3 1039 1042 1040
3 1042 1035 1034
3 1042 1034 1040
3 1034 1033 1037
3 1034 1037 1040
3 1043 1044 1045
3 1043 1045 1046
3 1045 1047 1048
3 1045 1048 1046
3 1048 1035 1042
3 1048 1042 1046
3 1042 1041 1043
3 1042 1043 1046
3 1049 822 821
3 1049 821 1050
3 821 816 1036
3 821 1036 1050
3 1036 1035 1048
3 1036 1048 1050
3 1048 1047 1049
3 1048 1049 1050
3 1051 46 45
3 1051 45 1052
3 45 53 1053
3 45 1053 1052
3 1053 1054 1055
3 1053 1055 1052
3 1055 1056 1051
3 1055 1051 1052
3 63 35 1057
3 63 1057 1058
3 1057 1059 1060
3 1057 1060 1058
3 1060 1054 1053
3 1060 1053 1058
3 1053 53 63
3 1053 63 1058
3 1061 1044 1043
3 1061 1043 1062
3 1043 1041 1063
3 1043 1063 1062
3 1063 1054 1060
3 1063 1060 1062
3 1060 1059 1061
3 1060 1061 1062
3 1039 1038 1064
3 1039 1064 1065
3 1064 1056 1055
3 1064 1055 1065
3 1055 1054 1063
3 1055 1063 1065
3 1063 1041 1039
3 1063 1039 1065
3 27 26 995
3 27 995 1066
3 995 1000 1067
3 995 1067 1066
3 1067 1068 1069
3 1067 1069 1066
3 1069 29 27
3 1069 27 1066
3 1008 982 1070
3 1008 1070 1071
3 1070 1072 1073
3 1070 1073 1071
3 1073 1068 1067
3 1073 1067 1071
3 1067 1000 1008
3 1067 1008 1071
3 1074 1044 1061
3 1074 1061 1075
3 1061 1059 1076
3 1061 1076 1075
3 1076 1068 1073
3 1076 1073 1075
3 1073 1072 1074
3 1073 1074 1075
3 1057 35 34
3 1057 34 1077
3 34 29 1069
3 34 1069 1077
3 1069 1068 1076
3 1069 1076 1077
3 1076 1059 1057
3 1076 1057 1077
3 975 749 832
3 975 832 1078
3 832 837 1079
3 832 1079 1078
3 1079 1080 1081
3 1079 1081 1078
3 1081 977 975
3 1081 975 1078
3 845 822 1049
3 845 1049 1082
3 1049 1047 1083
3 1049 1083 1082
3 1083 1080 1079
3 1083 1079 1082
3 1079 837 845
3 1079 845 1082
3 1045 1044 1074
3 1045 1074 1084
3 1074 1072 1085
3 1074 1085 1084
3 1085 1080 1083
3 1085 1083 1084
3 1083 1047 1045
3 1083 1045 1084
3 1070 982 981
3 1070 981 1086
3 981 977 1081
3 981 1081 1086
3 1081 1080 1085
3 1081 1085 1086
3 1085 1072 1070
3 1085 1070 1086
3 872 697 963
3 872 963 1087
3 963 968 1088
3 963 1088 1087
3 1088 1089 1090
3 1088 1090 1087
3 1090 874 872
3 1090 872 1087
3 973 954 1091
3 973 1091 1092
3 1091 1093 1094
3 1091 1094 1092
3 1094 1089 1088
3 1094 1088 1092
3 1088 968 973
3 1088 973 1092
3 1095 1096 1097
3 1095 1097 1098
3 1097 1099 1100
3 1097 1100 1098
3 1100 1089 1094
3 1100 1094 1098
3 1094 1093 1095
3 1094 1095 1098
3 1101 879 878
3 1101 878 1102
3 878 874 1090
3 878 1090 1102
3 1090 1089 1100
3 1090 1100 1102
3 1100 1099 1101
3 1100 1101 1102
3 947 66 65
3 947 65 1103
3 65 73 1104
3 65 1104 1103
3 1104 1105 1106
3 1104 1106 1103
3 1106 949 947
3 1106 947 1103
3 79 55 1107
3 79 1107 1108
3 1107 1109 1110
3 1107 1110 1108
3 1110 1105 1104
3 1110 1104 1108
3 1104 73 79
3 1104 79 1108
3 1111 1096 1095
3 1111 1095 1112
3 1095 1093 1113
3 1095 1113 1112
3 1113 1105 1110
3 1113 1110 1112
3 1110 1109 1111
3 1110 1111 1112
3 1091 954 953
3 1091 953 1114
3 953 949 1106
3 953 1106 1114
3 1106 1105 1113
3 1106 1113 1114
3 1113 1093 1091
3 1113 1091 1114
3 47 46 1051
3 47 1051 1115
3 1051 1056 1116
3 1051 1116 1115
3 1116 1117 1118
3 1116 1118 1115
3 1118 49 47
3 1118 47 1115
3 1064 1038 1119
3 1064 1119 1120
3 1119 1121 1122
3 1119 1122 1120
3 1122 1117 1116
3 1122 1116 1120
3 1116 1056 1064
3 1116 1064 1120
3 1123 1096 1111
3 1123 1111 1124
3 1111 1109 1125
3 1111 1125 1124
3 1125 1117 1122
3 1125 1122 1124
3 1122 1121 1123
3 1122 1123 1124
3 1107 55 54
3 1107 54 1126
3 54 49 1118
3 54 1118 1126
3 1118 1117 1125
3 1118 1125 1126
3 1125 1109 1107
3 1125 1107 1126
3 1031 813 888
3 1031 888 1127
3 888 893 1128
3 888 1128 1127
3 1128 1129 1130
3 1128 1130 1127
3 1130 1033 1031
3 1130 1031 1127
3 901 879 1101
3 901 1101 1131
3 1101 1099 1132
3 1101 1132 1131
3 1132 1129 1128
3 1132 1128 1131
3 1128 893 901
3 1128 901 1131
3 1097 1096 1123
3 1097 1123 1133
3 1123 1121 1134
3 1123 1134 1133
3 1134 1129 1132
3 1134 1132 1133
3 1132 1099 1097
3 1132 1097 1133
3 1119 1038 1037
3 1119 1037 1135
3 1037 1033 1130
3 1037 1130 1135
3 1130 1129 1134
3 1130 1134 1135
3 1134 1121 1119
3 1134 1119 1135
3 320 319 1136
3 320 1136 1137
3 1136 1138 1139
3 1136 1139 1137
3 1139 1140 1141
3 1139 1141 1137
3 1141 322 320
3 1141 320 1137
3 1142 1143 1144
3 1142 1144 1145
3 1144 1146 1147
3 1144 1147 1145
3 1147 1140 1139
3 1147 1139 1145
3 1139 1138 1142
3 1139 1142 1145
3 1148 1149 1150
3 1148 1150 1151
3 1150 1152 1153
3 1150 1153 1151
3 1153 1140 1147
3 1153 1147 1151
3 1147 1146 1148
3 1147 1148 1151
3 1154 225 327
3 1154 327 1155
3 327 322 1141
3 327 1141 1155
3 1141 1140 1153
3 1141 1153 1155
3 1153 1152 1154
3 1153 1154 1155
3 415 259 1156
3 415 1156 1157
3 1156 1158 1159
3 1156 1159 1157
3 1159 1160 1161
3 1159 1161 1157
3 1161 401 415
3 1161 415 1157
3 1162 1163 1164
3 1162 1164 1165
3 1164 1166 1167
3 1164 1167 1165
3 1167 1160 1159
3 1167 1159 1165
3 1159 1158 1162
3 1159 1162 1165
3 1168 1143 1142
3 1168 1142 1169
3 1142 1138 1170
3 1142 1170 1169
3 1170 1160 1167
3 1170 1167 1169
3 1167 1166 1168
3 1167 1168 1169
3 1136 319 394
3 1136 394 1171
3 394 401 1161
3 394 1161 1171
3 1161 1160 1170
3 1161 1170 1171
3 1170 1138 1136
3 1170 1136 1171
3 254 231 1172
3 254 1172 1173
3 1172 1174 1175
3 1172 1175 1173
3 1175 1176 1177
3 1175 1177 1173
3 1177 256 254
3 1177 254 1173
3 1178 1179 1180
3 1178 1180 1181
3 1180 1182 1183
3 1180 1183 1181
3 1183 1176 1175
3 1183 1175 1181
3 1175 1174 1178
3 1175 1178 1181
3 1184 1163 1162
3 1184 1162 1185
3 1162 1158 1186
3 1162 1186 1185
3 1186 1176 1183
3 1186 1183 1185
3 1183 1182 1184
3 1183 1184 1185
3 1156 259 258
3 1156 258 1187
3 258 256 1177
3 258 1177 1187
3 1177 1176 1186
3 1177 1186 1187
3 1186 1158 1156
3 1186 1156 1187
3 226 225 1154
3 226 1154 1188
3 1154 1152 1189
3 1154 1189 1188
3 1189 1190 1191
3 1189 1191 1188
3 1191 228 226
3 1191 226 1188
3 1150 1149 1192
3 1150 1192 1193
3 1192 1194 1195
3 1192 1195 1193
3 1195 1190 1189
3 1195 1189 1193
3 1189 1152 1150
3 1189 1150 1193
3 1196 1179 1178
3 1196 1178 1197
3 1178 1174 1198
3 1178 1198 1197
3 1198 1190 1195
3 1198 1195 1197
3 1195 1194 1196
3 1195 1196 1197
3 1172 231 230
3 1172 230 1199
3 230 228 1191
3 230 1191 1199
3 1191 1190 1198
3 1191 1198 1199
3 1198 1174 1172
3 1198 1172 1199
3 1144 1143 1200
3 1144 1200 1201
3 1200 1202 1201
3 1202 1203 1204
3 1202 1204 1201
3 1204 1146 1144
3 1204 1144 1201
3 1205 1149 1148
3 1205 1148 1206
3 1148 1146 1204
3 1148 1204 1206
3 1204 1203 1207
3 1204 1207 1206
3 1207 1205 1206
3 1164 1163 1208
3 1164 1208 1209
3 1210 1166 1164
3 1210 1164 1209
3 1200 1143 1168
3 1168 1166 1210
3 1180 1179 1211
3 1208 1163 1184
3 1192 1149 1205
3 1211 1179 1196
3 356 355 1212
3 356 1212 1213
3 1212 1214 1215
3 1212 1215 1213
3 1215 1216 1217
3 1215 1217 1213
3 1217 358 356
3 1217 356 1213
3 1218 1219 1220
3 1218 1220 1221
3 1220 1222 1223
3 1220 1223 1221
3 1223 1216 1215
3 1223 1215 1221
3 1215 1214 1218
3 1215 1218 1221
3 1224 1225 1226
3 1224 1226 1227
3 1226 1228 1229
3 1226 1229 1227
3 1229 1216 1223
3 1229 1223 1227
3 1223 1222 1224
3 1223 1224 1227
3 1230 136 363
3 1230 363 1231
3 363 358 1217
3 363 1217 1231
3 1217 1216 1229
3 1217 1229 1231
3 1229 1228 1230
3 1229 1230 1231
3 554 103 1232
3 554 1232 1233
3 1232 1234 1235
3 1232 1235 1233
3 1235 1236 1237
3 1235 1237 1233
3 1237 540 554
3 1237 554 1233
3 1238 1239 1240
3 1238 1240 1241
3 1240 1242 1243
3 1240 1243 1241
3 1243 1236 1235
3 1243 1235 1241
3 1235 1234 1238
3 1235 1238 1241
3 1244 1219 1218
3 1244 1218 1245
3 1218 1214 1246
3 1218 1246 1245
3 1246 1236 1243
3 1246 1243 1245
3 1243 1242 1244
3 1243 1244 1245
3 1212 355 533
3 1212 533 1247
3 533 540 1237
3 533 1237 1247
3 1237 1236 1246
3 1237 1246 1247
3 1246 1214 1212
3 1246 1212 1247
3 98 97 1248
3 98 1248 1249
3 1248 1250 1251
3 1248 1251 1249
3 1251 1252 1253
3 1251 1253 1249
3 1253 100 98
3 1253 98 1249
3 1254 1255 1256
3 1254 1256 1257
3 1256 1258 1259
3 1256 1259 1257
3 1259 1252 1251
3 1259 1251 1257
3 1251 1250 1254
3 1251 1254 1257
3 1260 1239 1238
3 1260 1238 1261
3 1238 1234 1262
3 1238 1262 1261
3 1262 1252 1259
3 1262 1259 1261
3 1259 1258 1260
3 1259 1260 1261
3 1232 103 102
3 1232 102 1263
3 102 100 1253
3 102 1253 1263
3 1253 1252 1262
3 1253 1262 1263
3 1262 1234 1232
3 1262 1232 1263
3 137 136 1230
3 137 1230 1264
3 1230 1228 1265
3 1230 1265 1264
3 1265 1266 1267
3 1265 1267 1264
3 1267 139 137
3 1267 137 1264
3 1226 1225 1268
3 1226 1268 1269
3 1268 1270 1271
3 1268 1271 1269
3 1271 1266 1265
3 1271 1265 1269
3 1265 1228 1226
3 1265 1226 1269
3 1272 1255 1254
3 1272 1254 1273
3 1254 1250 1274
3 1254 1274 1273
3 1274 1266 1271
3 1274 1271 1273
3 1271 1270 1272
3 1271 1272 1273
3 1248 97 141
3 1248 141 1275
3 141 139 1267
3 141 1267 1275
3 1267 1266 1274
3 1267 1274 1275
3 1274 1250 1248
3 1274 1248 1275
3 1276 1277 1278
3 1276 1278 1279
3 1280 1281 1276
3 1280 1276 1279
3 1282 1281 1280
3 1283 1284 1285
3 1278 1277 1286
3 1278 1286 1287
3 1286 1284 1283
3 1286 1283 1287
3 1240 1239 1288
3 1240 1288 1289
3 1288 1290 1291
3 1288 1291 1289
3 1291 1292 1293
3 1291 1293 1289
3 1293 1242 1240
3 1293 1240 1289
3 1294 1277 1276
3 1294 1276 1295
3 1276 1281 1296
3 1276 1296 1295
3 1296 1292 1291
3 1296 1291 1295
3 1291 1290 1294
3 1291 1294 1295
3 1282 1297 1298
3 1282 1298 1299
3 1298 1300 1301
3 1298 1301 1299
3 1301 1292 1296
3 1301 1296 1299
3 1296 1281 1282
3 1296 1282 1299
3 1302 1219 1244
3 1302 1244 1303
3 1244 1242 1293
3 1244 1293 1303
3 1293 1292 1301
3 1293 1301 1303
3 1301 1300 1302
3 1301 1302 1303
3 1220 1219 1302
3 1220 1302 1304
3 1302 1300 1305
3 1302 1305 1304
3 1305 1306 1307
3 1305 1307 1304
3 1307 1222 1220
3 1307 1220 1304
3 1298 1297 1308
3 1298 1308 1309
3 1308 1310 1309
3 1310 1306 1305
3 1310 1305 1309
3 1305 1300 1298
3 1305 1298 1309
3 1311 1312 1313
3 1314 1225 1224
3 1314 1224 1315
3 1224 1222 1307
3 1224 1307 1315
3 1307 1306 1313
3 1307 1313 1315
3 1313 1312 1314
3 1313 1314 1315
3 1268 1225 1314
3 1268 1314 1316
3 1314 1312 1317
3 1314 1317 1316
3 1317 1318 1319
3 1317 1319 1316
3 1319 1270 1268
3 1319 1268 1316
3 1320 1318 1317
3 1320 1317 1321
3 1317 1312 1311
3 1317 1311 1321
3 1322 1323 1324
3 1322 1324 1325
3 1324 1326 1327
3 1324 1327 1325
3 1327 1318 1320
3 1327 1320 1325
3 1320 1322 1325
3 1328 1255 1272
3 1328 1272 1329
3 1272 1270 1319
3 1272 1319 1329
3 1319 1318 1327
3 1319 1327 1329
3 1327 1326 1328
3 1327 1328 1329
3 1256 1255 1328
3 1256 1328 1330
3 1328 1326 1331
3 1328 1331 1330
3 1331 1332 1333
3 1331 1333 1330
3 1333 1258 1256
3 1333 1256 1330
3 1324 1323 1285
3 1324 1285 1334
3 1285 1284 1335
3 1285 1335 1334
3 1335 1332 1331
3 1335 1331 1334
3 1331 1326 1324
3 1331 1324 1334
3 1286 1277 1294
3 1286 1294 1336
3 1294 1290 1337
3 1294 1337 1336
3 1337 1332 1335
3 1337 1335 1336
3 1335 1284 1286
3 1335 1286 1336
3 1288 1239 1260
3 1288 1260 1338
3 1260 1258 1333
3 1260 1333 1338
3 1333 1332 1337
3 1333 1337 1338
3 1337 1290 1288
3 1337 1288 1338
