0.011079
0.00668709
0.207153
0.10021
0.64635
0.121042
0.0923143
0.0640699
0.648651
0.1165
0.217984
0.130489
0.0592544
0.154263
0.0630586
0.0345505
0.409309
0.397773
0.622582
0.0309057
0.378203
0.0377759
0.375556
0.444035
0.603832
0.42056
0.584913
0.571781
0.112397
0.0476078
0.103674
0.111839
0.0319267
0.0233177
0.0436504
0.0218599
0.046209
0.0324382
0.268981
0.17872
0.174127
0.154431
0.0172816
0.00918407
0.0150659
0.019218
0.0369816
0.0284225
0.0591521
0.0872222
0.15136
0.0512516
0.0485438
0.0189022
0.159888
0.121789
0.268981
0.178637
0.0335865
0.0286437
0.04836
0.290783
0.103422
0.296988
0.112454
0.0503367
0.0211206
0.0330121
0.09217
0.275634
0.126523
0.142329
0.200287
0.145498
0.154341
0.0639622
0.0932777
0.0410283
0.191241
0.202317
0.226146
0.232684
0.263364
0.259922
0.160327
0.0339555
0.135819
0.168402
0.144635
0.141454
0.0749759
0.109106
0.241704
0.169086
0.780316
0.26683
0.0279558
0.713048
0.549759
0.551523
0.00702233
0.00657736
0.447801
0.134554
0.144088
0.1625
0.231708
0.233675
0.425558
0.411308
0.0136345
0.0177656
0.120257
0.132447
0.27223
0.286745
0.538843
0.540173
0.203471
0.171725
0.59612
0.136028
0.015238
0.0188956
0.499746
0.634254
0.16529
0.684036
0.381897
0.593367
0.123077
0.356714
0.246939
0.245229
0.424037
0.337953
0.348919
0.393214
0.501448
0.235843
0.0293729
0.00960368
0.022667
0.0276897
0.104823
0.0564922
0.169359
0.0880803
0.552307
0.258246
0.473378
0.44204
0.131371
0.29795
0.095425
0.678294
0.417726
0.394451
0.368327
0.36314
0.0604003
0.0306907
0.402021
0.398273
0.230039
0.660749
0.189256
0.354278
0.422415
0.623459
0.324926
0.593367
0.137096
0.0999724
0.167022
0.0519104
0.0946037
0.0271065
0.0254697
0.0754734
0.378908
0.593367
0.165216
0.345273
0.376899
0.389243
0.39891
0.256889
0.076953
0.35303
0.373686
0.429767
0.0893335
0.950818
0.113861
0.370429
0.478411
0.401517
0.556484
0.22843
0.0349398
0.0243811
0.0306604
0.0205773
0.101117
0.0592983
0.292019
0.0531648
0.486678
0.442288
0.507216
0.52629
0.143716
0.296428
0.230577
0.295247
0.367825
0.36198
0.369092
0.361202
0.354022
0.0306801
0.0603698
0.0306817
0.189033
0.376072
0.374806
0.581297
0.623342
0.420834
0.623392
0.101021
0.050923
0.0700367
0.0610614
0.0238119
0.0449103
0.0275604
0.0617254
0.0310205
0.0618663
0.0310334
0.34979
0.077023
0.351481
0.381085
0.47545
0.3646
0.382879
0.762163
0.775656
0.47677
0.774328
0.115434
0.0990119
0.153588
0.187785
0.486075
0.176316
0.151771
0.197671
0.0630012
0.280174
0.0832773
0.791366
0.781948
0.210318
0.173969
0.267076
0.150325
0.180139
0.14826
0.165745
0.162318
0.168356
0.206228
0.174327
0.161628
0.236498
0.103459
0.166463
0.12397
0.20151
0.158489
0.139916
0.560028
0.572284
0.79066
0.732859
0.734753
0.410157
0.645655
0.723986
0.369932
0.613729
0.35718
0.428515
0.57428
0.729563
0.572315
0.832845
0.727531
0.6728
0.669367
0.62338
0.624946
0.621383
0.0164796
0.687144
0.697448
0.727459
0.660555
0.713034
0.617284
0.617117
0.681709
0.673343
0.461399
0.711911
0.661174
0.712027
0.589923
0.590071
0.6472
0.885861
0.660627
0.713034
0.667337
0.728192
0.738518
0.73867
0.719152
0.723737
0.728192
0.728192
0.628923
0.885861
0.723859
0.723832
0.243152
0.24941
0.596879
0.351211
0.976146
0.665384
0.280104
0.224692
0.269075
0.236872
0.796746
0.687736
0.976146
0.655021
0.293248
0.201906
0.975054
0.687477
0.599119
0.668195
0.642283
0.670427
0.605887
0.585593
0.281987
0.226092
0.976146
0.666492
0.498149
0.687736
0.269075
0.247926
0.0330992
0.0177626
0.00297667
0.00436119
0.602468
0.0122425
0.000332029
0
0.0027597
0.00257178
0.600351
0.020335
0.000209935
0.000230087
0.0183954
0.0118856
0.521511
0.417627
0.562253
0.556423
0.537577
0.536029
0.881732
0.484958
0.881757
0.485285
0.637387
0.639285
0.472687
0.466993
0.761258
0.491466
0.614941
0.600307
0.857975
0.838003
0.569358
0.561644
0.603901
0.595215
0.748328
0.756769
0.472687
0.466993
0.571594
0.569241
0.881757
0.756962
0.0747735
0.0236675
0.398409
0.133916
0.604056
0.136112
0.00909859
0.0306332
0.110479
0.216912
0.12179
0.119632
0.0423312
0.0645975
0.0205667
0.186593
0.0136542
0.021743
0.604056
0.136112
0.398515
0.13288
0.0696491
0.0239606
0.0273439
0.0700713
0.0923648
0.0978054
0.130297
0.126283
0.0956526
0.111975
0.0184962
0.00731541
0.568915
0.0791977
0.391471
0.0666004
0.042489
0.036579
0.152247
0.096796
0.558328
0.121711
0.0291482
0.020973
0.0282992
0.0359475
0.0555307
0.035105
0.391263
0.0665656
0.118864
0.107636
0.0109522
0.0142036
0.0327975
0.0336615
0.0170847
0.0119266
0.558328
0.0699686
0.0849098
0.0647488
0.20576
0.0885663
0.222035
0.190787
0.223764
0.0125329
0.0753805
0.243184
0.0641819
0.480533
0.30939
0.667288
0.0114454
0.0105168
0.115017
0.136975
0.161796
0.124742
0.47383
0.0159869
0.2618
0.185781
0.0126805
0.0337984
0.165892
0.201867
0.0118832
0.0117991
0.267043
0.278176
0.070342
0.233667
0.165109
0.194853
0.182079
0.166079
0.135033
0.143549
0.150854
0.167424
0.153392
0.133346
0.198737
0.460386
0.202076
0.19485
0.109092
0.182719
0.111602
0.163882
0.102843
0.157622
0.261867
0.155889
0.180136
0.174291
0.12967
0.179045
0.276633
0.229889
0.28006
0.221429
0.233328
0.18277
0.125223
0.156776
0.105274
0.128496
0.161565
0.125235
0.23647
0.235751
0.313822
0.163748
0.148143
0.123805
0.111016
0.171428
0.105193
0.118473
0.152467
0.164235
0.223114
0.212197
0.140537
0.424264
0.0686897
0.162753
0.0816037
0.0935438
0.0529987
0.181166
0.123287
0.133205
0.197318
0.132696
0.759638
0.832911
0.607594
0.697543
0.607602
0.682177
0.756428
0.512137
0.608466
0.503716
0.459691
0.490212
0.841646
0.506018
0.875877
0.527699
0.881723
0.581309
0.881723
0.75324
0.512752
0.518226
0.728372
0.726008
0.548982
0.756905
0.586369
0.610606
0.433042
0.589416
0.481251
0.600627
0.792233
0.693051
0.851735
0.505055
0.879755
0.718013
0.774789
0.755723
0.608466
0.451673
0.407779
0.550565
0.761278
0.51823
0.459691
0.477329
0.408189
0.417269
0.780175
0.686281
0.78256
0.514497
0.643455
0.168861
0.557548
0.516564
0.646318
0.935451
0.630727
0.803388
0.605576
0.809839
0.643127
0.716338
0.636175
0.614295
0.618235
0.687125
0.611103
0.673261
0.555462
0.814311
0.717043
0.556257
0.486242
0.623856
0.530941
0.660287
0.293003
0.283857
0.588892
0.344525
0.607728
0.54327
0.61547
0.699418
0.609308
0.181585
0.261287
0.190516
0.262479
0.647746
0.251269
0.535607
0.32973
0.518278
0.354936
0.504102
0.393438
0.60994
0.42617
0.60994
0.448251
0.426724
0.406616
0.426724
0.379706
0.247207
0.482607
0.272134
0.489161
0.486701
0.489161
0.486701
0.374608
0.655488
0.399002
0.369635
0.412783
0.638316
0.414015
0.65885
0.591342
0.556377
0.457143
0.669155
0.352018
0.63231
0.333844
0.63231
0.696657
0.514323
0.685568
0.781975
0.842129
0.682209
0.84644
0.870982
0.594808
0.323051
0.547862
0.320211
0.592319
0.544049
0.259572
0.153498
0.261291
0.153498
0.596162
0.550277
0.210731
0.559917
0.208957
0.672475
0.207918
0.32398
0.84689
0.617747
0.32864
0.64922
0.835853
0.327242
0.841154
0.514323
0.332148
0.405974
0.272982
0.646852
0.248214
0.669155
0.576887
0.556377
0.426836
0.550552
0.696489
0.298615
0.295062
0.298034
0.305838
0.336863
0.467676
0.254623
0.354725
0.465396
0.414785
0.412882
0.464503
0.408152
0.359942
0.465396
0.755378
0.452767
0.632352
0.382293
0.464548
0.391054
0.0824711
0.658801
0.226358
0.244423
0.22723
0.535512
0.172352
0.351685
0.275112
0.273955
0.164387
0.0387678
0.166774
0.0875966
0.0430214
0.0326737
0.0173114
0.0159371
0.242692
0.248687
0.291463
0.203331
0.976146
0.653565
0.640909
0.665201
0.494861
0.76769
0.881732
0.758973
0.48215
0.479395
0.563242
0.562663
0.035496
0.0193659
0.0257632
0.0309422
0.529316
0.542273
0.00300658
0.00314163
0.606174
0.594831
0.81115
0.942649
0.569123
0.566922
0.614746
0.600058
0.600594
0.695615
0.59837
0.667772
0.651291
0.753632
0.746115
0.55977
0.657501
0.0900924
0.0333697
0.019213
0.559227
0.223484
0.644452
0.152921
0.65242
0.211137
0.590021
0.213969
0.328233
0.593367
0.319438
0.606011
0.399694
0.403858
0.419843
0.396352
0.400402
0.399011
0.415088
0.0309059
0.260237
0.243241
0.358455
0.396391
0.528147
0.261465
0.212767
0.232881
0.442461
0.0986525
0.0666527
0.0433578
0.0619377
0.0456248
0.191523
0.213233
0.190477
0.219704
0.10624
0.18182
0.144661
0.164165
0.180847
0.218127
0.227465
0.0540636
0.182792
0.225475
0.0112485
0.010069
0.0118017
0.666045
0.272634
0.2785
0.0205095
0.0320782
0.111337
0.0502884
0.104033
0.296988
0.153392
0.454285
0.202941
0.416307
0.490355
0.45883
0.270448
0.472938
0.237908
0.204438
0.424446
0.557946
0.0271103
0.0482606
0.918634
0.26752
0.185215
0.116496
0.0345605
0.0130401
0.0539313
0.0482709
0.122078
0.12291
0.156891
0.092042
0.0309794
0.03694
0.0139342
0.0197354
0.741058
0.133405
0.0969326
0.0641289
0.467253
0.124325
0.204862
0.0675134
0.0130948
0.0189131
0.104349
0.0947891
0.56175
0.105017
0.026245
0.0150773
0.0338812
0.0323902
0.188959
0.121732
0.135272
0.122307
0.062898
0.0940515
0.0114565
0.0673428
0.262417
0.204438
0.123779
0.155196
0.0151984
0.024021
0.412572
0.413969
0.233328
0.159097
0.280059
0.257035
0.273099
0.212214
0.129666
0.182326
0.229702
0.262927
0.226146
0.219806
0.0932009
0.238199
0.024993
0.040462
0.0703419
0.0684514
0.224412
0.275697
0.0115638
0.0106178
0.0801476
0.0387254
0.145651
0.140958
0.269765
0.212922
0.311507
0.188034
0.108533
0.141672
0.116717
0.202369
0.157158
0.128947
0.139502
0.168023
0.0962048
0.144843
0.181779
0.131645
0.316104
0.046765
0.0507728
0.0317246
0.0229838
0.0153829
0.0614808
0.151992
0.150859
0.224049
0.147464
0.173886
0.152105
0.204764
0.247888
0.277482
0.6691
0.750569
0.744364
0.847823
0.604139
0.682182
0.776555
0.776495
0.795632
0.80442
0.474376
0.398257
0.684646
0.618522
0.743269
0.740944
0.769099
0.728192
0.613221
0.652277
0.718064
0.606882
0.0385789
0.058233
0.184296
0.726793
0.754002
0.508319
0.208903
0.963264
0.644452
0.132305
0.203045
0.161609
0.0463755
0.0431157
0.665009
0.152555
0.660661
0.664352
0.780175
0.676395
0.756027
0.864215
0.758306
0.863045
0.644452
0.116654
0.110571
0.114786
0.0383242
0.433454
0.23319
0.233893
0.778049
0.782498
0.800224
0.792657
0.667865
0.668116
0.627191
0.622972
0.660954
0.712027
0.508378
0.711911
0.648017
0.761161
0.45156
0.657158
0.151776
0.197606
0.0539985
0.0376551
0.0291671
0.0229908
0.703178
0.0390864
0.11733
0.169202
0.0647163
0.136707
0.136249
0.170071
0.185862
0.136925
0.121536
0.121819
0.135946
0.192416
0.013061
0.00833682
0.18758
0.195863
0.0623415
0.13463
0.228994
0.23053
0.209362
0.250335
0.0756396
0.125526
0.109245
0.137165
0.247911
0.385057
0.166439
0.199375
0.179388
0.133664
0.223728
0.15051
0.219505
0.220726
0.00685405
0.00902515
0.646387
0.168365
0.159574
0.117262
0.0321145
0.0454603
0.00953181
0.00403914
0.162292
0.128883
0.110339
0.15421
0.0248521
0.020456
0.019364
0.0139309
0.0648542
0.110253
0.0871049
0.067584
0.644786
0.123919
0.0441587
0.145521
0.00648477
0.00655645
0.18389
0.150742
0.701125
0.556876
0.853544
0.55431
0.264692
0.150742
0.467253
0.113203
0.106619
0.0703546
0.0112448
0.00630534
0.0531639
0.0956926
0.0998374
0.15421
0.0446056
0.0952564
0.0167091
0.00632067
0.0243236
0.0310453
0.159123
0.10086
0.209962
0.128862
0.068118
0.0177133
0.0328404
0.0425663
0.170711
0.1625
0.609543
0.168417
0.0716073
0.00696477
0.609619
0.608866
0.155771
0.158544
0.16224
0.162184
0.212157
0.17942
0.183958
0.162321
0.0656342
0.13941
0.149768
0.137611
0.193844
0.186169
0.207004
0.187871
0.357292
0.124018
0.18127
0.192418
0.216547
0.212438
0.18139
0.183569
0.820564
0.832544
0.516819
0.375938
0.748848
0.951737
0.71913
1
0.0589018
0.0195425
0.0849138
0.0837222
0.0935004
0.165851
0.113874
0.140404
0.0421268
0.017609
0.1543
0.104006
0.186948
0.100786
0.155414
0.127429
0.117336
0.124191
0.178066
0.262076
0.153391
0.107283
0.0414148
0.0186339
0.516819
0.380447
0.59354
0.530989
0.738793
0.705161
0.76042
0.383714
0.204333
0.277778
0.159865
0.135598
0.024587
0.0189463
0.171584
0.110728
0.120566
0.138899
0.179631
0.0885579
0.170765
0.0778924
0.0244638
0.00569657
0.310953
0.148019
0.108089
0.639757
0.0767708
0.0706018
0.0253975
0.0256064
0.727671
0.728192
0.788558
0.705373
0.705227
0.70522
0.800415
0.793013
0.813562
0.66403
0.114236
0.0305807
0.385124
0.528991
0.985413
0.449266
0.638552
0.658312
0.104347
0.412465
0.385589
0.561933
0.985413
0.45427
0.639005
0.684945
0.61572
0.798268
0.698214
0.801504
0.639005
0.651388
0.483592
0.648469
0.676335
0.373727
0.19934
0.258509
0.354505
0.58824
0.353439
0.644572
0.197842
0.330261
0.287041
0.503569
0.360797
0.296511
0.36007
0.278944
0.453457
0.426165
0.516524
0.424657
0.0889651
0.0473209
0.159276
0.065284
0.0673981
0.0494154
0.385875
0.0977714
0.203558
0.0737086
0.0971517
0.0308897
0.0503005
0.0119764
0.037273
0.979029
0.21689
0.165804
0.470759
0.76537
0.344243
0.175394
0.201608
0.204856
0.760529
0.598903
0.618851
0.533626
0.669808
0.55626
0.776555
0.77452
0.575693
0.6357
0.728376
0.803387
0.795632
0.791312
0.708301
0.788198
0.704897
0.704883
0.584913
0.571781
0.726561
0.727227
0.14315
0.162639
0.169368
0.161416
0.536747
0.308236
0.779907
0.165804
0.08623
0.125847
0.0581707
0.0316829
0.07283
0.0470683
0.126933
0.0730325
0.196864
0.588862
0.760618
0.642678
0.650085
0.655313
0.796746
0.394123
0.735989
0.755219
0.615254
0.600898
0.958952
0.725095
0.729722
0.738416
0.580696
0.185611
0.00634481
0.00462967
0.186332
0.185611
0.00169213
0.00234855
0.6753
0.599841
0.729722
0.738416
0.726429
0.728221
0.615311
0.60092
0.42969
0.628688
0.796746
0.392401
0.598118
0.673912
0.76111
0.677646
0.105837
0.135774
0.085847
0.74389
0.0752221
0.0720351
0.0697371
0.0560326
0.718503
0.717132
0.705181
0.705232
0.705445
0.705434
0.853141
0.727438
0.734096
0.655671
0.732934
0.486377
0.712499
0.647484
0.749249
0.714305
0.30214
0.670275
0.423644
0.813557
0.419711
0.218291
0.351778
0.218349
0.577463
0.40948
0.36387
0.158593
0.487291
0.594999
0.558128
0.367344
0.425971
0.731885
0.427832
0.731831
0.427675
0.36387
0.56073
0.363205
0.939412
0.51533
0.600292
0.942188
0.600292
0.942127
0.939661
0.535022
0.214978
0.379455
0.430657
0.500383
0.414387
0.371581
0.440093
0.368748
0.438716
0.367113
0.414387
0.367344
0.448677
0.502189
0.350838
0.484568
0.350261
0.336553
0.448034
0.353731
0.341074
0.343279
0.336805
0.339985
0.375044
0.365781
0.367199
0.343239
0.315091
0.230256
0.3725
0.278438
0.67005
0.380505
0.458753
0.231567
0.32194
0.41351
0.698297
0.438326
0.455591
0.516394
0.541081
0.616528
0.676965
0.296169
0.374606
0.962078
0.606063
0.646977
0.600768
0.624351
0.723819
0.760632
0.72512
0.593108
0.735579
0.717073
0.737333
0.728192
0.630204
0.73992
0.73992
0.652499
0.728192
0.735579
0.717073
0.455277
0.368848
0.311797
0.368848
0.47337
0.378119
0.530375
0.381276
0.297672
0.626052
0.697828
0.700368
0.527227
0.638575
0.742643
0.673086
0.298851
0.50935
0.539567
0.526451
0.654203
0.516466
0.656129
0.401039
0.883955
0.535053
0.882182
0.536192
0.899687
0.896766
0.537013
0.897278
0.542069
0.550249
0.603278
0.577393
0.602379
0.564659
0.546163
0.424101
0.8835
0.903541
0.507994
0.898682
0.547889
0.898681
0.606087
0.902447
0.38714
0.53008
0.438563
0.492376
0.597671
0.508852
0.838398
0.526029
0.328935
0.672849
0.283096
0.673086
0.527227
0.700819
0.319276
0.853985
0.728196
0.601793
0.742132
0.742118
0.742118
0.718207
0.560407
0.691175
0.703896
0.761173
0.659188
0.774743
0.565544
0.2838
0.543717
0.715845
0.747218
0.729935
0.737898
0.885013
0.907037
0.905086
0.730982
0.897461
0.720258
0.150801
0.743473
0.200447
0.733432
0.332128
0.720224
0.867921
0.700133
0.293975
0.460648
0.271306
0.279083
0.617169
0.682126
0.256976
0.701898
0.685184
0.60767
0.177815
0.381724
0.240842
0.381724
0.248217
0.0951472
0.100232
0.0667882
0.248504
0.11505
0.435686
0.23828
0.239129
0.41464
0.239129
0.242883
0.680948
0.594572
0.680948
0.741044
0.665871
0.4392
0.654058
0.438071
0.567357
0.820784
0.545408
0.820784
0.510833
0.578518
0.562239
0.814792
0.76175
0.760652
0.701743
0.699464
0.36595
0.601648
0.671415
0.602473
0.733324
0.425443
0.870896
0.425443
0.489118
0.67137
0.489311
0.762174
0.283144
0.762174
0.619243
0.562729
0.870896
0.645989
0.56279
0.64274
0.786347
0.709777
0.753734
0.742995
0.583435
0.80197
0.696882
0.627343
0.629769
0.627342
0.562323
0.81466
0.665871
0.58079
0.467033
0.754586
0.567341
0.754586
0.27111
0.765426
0.718472
0.742
0.718472
0.625911
0.328074
0.32991
0.39382
0.329909
0.248329
0.338009
0.608439
0.601502
0.435733
0.601502
0.248329
0.416811
0.263534
0.26027
0.240647
0.557048
0.243391
0.557596
0.258007
0.701898
0.867825
0.700133
0.617135
0.681814
0.681594
0.279005
0.381558
0.394841
0.730286
0.688215
0.624407
0.720224
0.227013
0.293846
0.740943
0.731231
0.755502
0.717182
0.866153
0.906388
0.6793
0.634015
0.268009
0.56065
0.571922
0.559599
0.720418
0.707484
0.728196
0.813562
0.728196
0.813562
0.810029
0.742489
0.813522
0.728177
0.811557
0.706336
0.811557
0.547723
0.720956
0.728192
0.654886
0.627585
0.728192
0.614956
0.728192
0.692939
0.634809
0.728192
0.682323
0.728192
0.761469
0.735375
0.717426
0.735375
0.627974
0.750757
0.728461
0.748601
0.728264
0.71143
0.721977
0.73418
0.810029
0.728177
0.716369
0.718167
0.702881
0.718167
0.813522
0.712986
0.599139
0.833828
0.728196
0.73193
0.728196
0.813562
0.63046
0.833828
0.723619
0.706004
0.690022
0.725554
0.689096
0.717962
0.717319
0.738082
0.677099
0.6707
0.659377
0.663885
0.596125
0.67463
0.672802
0.6707
0.540041
0.772511
0.685016
0.739768
0.718125
0.738885
0.773568
0.772511
0.707682
0.601763
0.710936
0.601763
0.7747
0.740143
0.761171
0.74875
0.285279
0.193911
0.211911
0.346137
0.72327
0.695785
0.528137
0.698986
0.592903
0.641841
0.631254
0.845988
0.703747
0.659621
0.733703
0.512777
0.512777
0.549487
0.886499
0.628527
0.241751
0.291755
0.186672
0.19435
0.219896
0.2473
0.597024
0.219961
0.932953
0.546249
0.644146
0.423714
0.431905
0.720248
0.349117
0.326502
0.590439
0.424148
0.529428
0.564093
0.691227
0.560969
0.451045
0.175542
0.934908
0.580592
0.591191
0.42768
0.731001
0.720745
0.716433
0.676274
0.745933
0.705303
0.717162
0.618467
0.682853
0.613722
0.862253
0.705323
0.606862
0.610987
0.47111
0.387752
0.568491
0.415515
0.592695
0.570848
0.607745
0.64462
0.720027
0.00157797
0.71681
0.501012
0.724032
0.563907
0.731603
0.485644
0.594041
0.741558
0.505787
0.754478
0.6667
0.656641
0.203427
0.201592
0.533194
0.295449
0.308163
0.208494
0.301221
0.201693
0.190282
0.231398
0.203796
0.178979
0.212308
0.421859
0.30257
0.862242
0.705323
0.682832
0.613745
0.717142
0.813562
0.782854
0.705303
0.185114
0.189391
0.159535
0.181745
0.185096
0.188007
0.201716
0.462644
0.132048
0.166473
0.195814
0.185441
0.672629
0.325484
0.832512
0.357201
0.639611
0.326529
0.210044
0.189057
0.316847
0.264082
0.398773
0.57172
0.440934
0.63337
0.728193
0.571716
0.661384
0.559651
0.476872
0.504924
0.186167
0.590565
0.639611
0.889983
0.420471
0.739101
0.305228
0.576163
0.640358
0.62073
0.567387
0.592372
0.485683
0.72199
0.849787
0.628351
0.805676
0.722791
0.72767
0.819734
0.813008
0.727627
0.66582
0.723374
0.728192
0.555692
0.141955
0.154458
0.213672
0.702805
0.535573
0.603138
0.473058
0.577848
0.732043
0.813558
0.535496
0.728196
0.686117
0.457634
0.573112
0.47952
0.514137
0.476894
0.47637
0.484101
0.549169
0.738532
0.714602
0.813558
0.448269
0.305142
0.0661092
0.186143
0.297591
0.469519
0.297795
0.384723
0.169077
0.202346
0.137967
0.380518
0.649752
0.504573
0.609001
0.814937
0.728192
0.773029
0.728192
0.690749
0.584208
0.671565
0.800678
0.735042
0.858611
0.860725
0.641346
0.870601
0.74883
0.725178
0.783823
0.755421
0.740213
0.697647
0.783728
0.742345
0.783728
0.807458
0.763034
0.830221
0.726846
0.778279
0.00157153
0.744032
0.766323
0.870634
0.74796
0.714687
0.820576
0.549069
0.864176
0.728572
0.704687
0.776866
0.749056
0.744565
0.557742
0.734918
0.788909
0.762566
0.686513
0.766948
0.756471
0.837237
