0.118615
0.112139
0.132427
0.145199
0.0341311
0.0658617
0.132925
0.0858689
0.0917987
0.0864025
0.0184073
0.124126
0.0146598
0.0448801
0.126952
0.111232
0.114726
0.0959557
0.119569
0.0937734
0.00949302
0.0395191
0.0439496
0.0965398
0.0837213
0.0664814
0.0368621
0.0759606
0
0.0237001
0.109467
0.0876128
0.428518
0.402039
0.35255
0.324535
0.544208
0.483046
0.498789
0.440379
0.367707
0.272406
0.470604
0.380416
0.503492
0.452349
0.446054
0.402203
0.365562
0.463991
0.449157
0.419654
0.528534
0.498263
0.701229
0.384759
0.385906
0.398869
0.350666
0.458465
0.539898
0.514811
0.487345
0.450721
0.473435
0.50892
0.491162
0.495387
0.481317
0.4304
0.466971
0.458304
0.497487
0.431492
0.429121
0.50336
0.481282
0.497829
0.488328
0.507299
0.490019
0.450174
0.496934
0.498029
0.396594
0.354033
0.389931
0.481093
0.713859
0.701826
0.401557
0.397216
0.435128
0.393766
0.400937
0.307952
0.407984
0.388124
0.431356
0.480272
0.435721
0.403502
0.403517
0.298598
0.447272
0.397348
0.505259
0.714755
0.703018
0.397793
0.353149
0.436552
0.355633
0.577718
0.556199
0.442081
0.462523
0.507747
0.512973
0.50262
0.475505
0.455977
0.527735
0.498761
0.49019
0.494429
0.451605
0.458063
0.444404
0.449992
0.455008
0.456715
0.505541
0.498458
0.528205
0.493676
0.508281
0.516579
0.438057
0.481702
0.469238
0.613942
0.50918
0.591129
0.670232
0.283337
0.487051
0.240845
0.392838
0.514203
0.178809
0.308016
0.435303
0.231247
0.462469
0.314596
0.503413
0.339202
0.47375
0.587461
0.374557
0.629974
0.68245
0.370063
0.524152
0.649361
0.568082
0.389614
0.504521
0.42631
0.861085
0.485192
0.576997
0.459733
0.47319
0.504705
0.440112
0.6949
0.504746
0.390591
0.317686
0.735417
0.274346
0.576986
0.59166
0.36593
0.993331
0.355798
0.408642
0.782613
0.764414
0.294159
0.761145
0.353139
0.301395
0.749482
0.566808
0.899095
0.498828
0.585077
0.435054
0.698566
0.865739
0.813712
0.63103
0.56492
0.516008
0.429954
0.462921
0.504374
0.586975
0.604461
0.449713
0.311934
0.321632
0.270082
0.182823
0.535743
0.428361
0.508653
0.291992
0.506377
0.903534
0.417001
0.585816
0.328511
0.291204
0.484101
0.702042
0.355642
0.469676
0.502378
0.483813
0.438306
0.469318
0.528236
0.527221
0.712478
0.845009
0.504171
0.626816
0.480197
0.482784
0.696351
0.549294
0.304382
0.599138
0.373768
0.378006
0.657763
0.449071
0.795293
0.721223
0.387518
0.761788
0.72745
0.415976
0.665393
0.710931
0.284853
0.776542
0.792586
0.485654
0.67111
0.697534
0.471282
0.733996
0.817911
0.448075
0.260072
0.312318
0.396766
0.663941
0.334308
0.416032
0.476335
0.399282
0.303186
0.387296
0.320905
0.339504
0.421967
0.336539
0.589123
0.482999
0.369916
0.331427
0.343696
0.36291
0.422613
0.438486
0.311021
0.30804
0.534543
0.405983
0.702253
0.47774
0.307274
0.636707
0.300087
0.617365
0.253614
0.294989
0.419038
0.284468
0.334765
0.772796
0.270025
0.368979
0.368779
0.472595
0.367686
0.562165
0.330653
0.438873
0.321934
0.420097
0.304249
0.371372
0.595649
0.533003
0.280315
0.42567
0.297787
0.456214
0.343532
0.378973
0.256571
0.290021
0.403007
0.246951
0.560693
0.34564
0.310583
0.437229
0.434111
0.355705
0.634272
0.415356
0.393901
0.323324
0.338302
0.266178
0.425852
0.343304
0.352718
0.544941
0.347356
0.356687
0.394151
0.390346
0.325382
0.367843
0.350064
0.286491
0.386513
0.536521
0.292119
1
0.319438
0.316899
0.476998
0.280701
0.411681
0.295415
0.424675
0.453917
0.310027
0.730196
0.299421
0.283051
0.739724
0.462802
0.382401
0.441193
0.342393
0.324638
0.499982
0.325113
0.369973
0.322795
0.338951
0.352763
0.496968
0.324263
0.50063
0.308685
0.339578
0.49183
0.431568
0.269007
0.741282
0.708656
0.269958
0.401949
0.285393
0.265646
0.392621
0.38849
0.21303
0.386532
0.154096
0.244074
0.375198
0.18707
0.136786
0.0744017
0.137066
0.335571
0.0948621
0.184651
0.331258
0.107234
0.126756
0.329689
0.109784
0.448289
0.0884631
0.120642
0.209238
0.41013
0.431978
0.294728
0.418155
0.437761
0.319464
0.339833
0.377398
0.197237
0.301555
0.417551
0.188309
0.334899
0.230099
0.247845
0.44275
0.159349
0.201521
0.190375
0.171208
0.291258
0.308238
0.175367
0.352735
0.146169
0.152313
0.218486
0.311693
0.266222
0.271102
0.167743
0.167862
0.276875
0.347202
0.270092
0.374545
0.320879
0.267535
0.355862
0.241132
0.410939
0.249216
0.208011
0.337884
0.22093
0.38699
0.318821
0.270354
0.308436
0.120745
0.106436
0.19167
0.401445
0.0997175
0.433411
0.12659
0.214713
0.168882
0.319375
0.336324
0.449608
0.249042
0.180489
0.288587
0.239783
0.349772
0.386036
0.31708
0.305408
0.403518
0.391161
0.244109
0.379025
0.303789
0.250383
0.250018
0.217936
0.390812
0.380514
0.28306
0.117688
0.139949
0.13887
0.209678
0.296026
0.171527
0.392701
0.169408
0.172929
0.16442
0.324138
0.194324
0.282973
0.193509
0.149806
0.197165
0.40677
0.272925
0.366719
0.267014
0.23084
0.321425
0.220855
0.307678
0.434546
0.481996
0.440226
0.494683
0.463492
0.447494
0.487881
0.492104
0.476683
0.518861
0.433287
0.443493
0.585509
0.581361
0.552121
0.551739
0.458349
0.387527
0.526041
0.557908
0.594803
0.54044
0.501736
0.420719
0.436235
0.493753
0.478221
0.492372
0.449882
0.472237
0.491606
0.479149
0.394619
0.450318
0.480712
0.473739
0.568686
0.372535
0.399092
0.412006
0.498346
0.492376
0.541793
0.481178
0.614801
0.662329
0.547757
0.543679
0.347022
0.377677
0.57913
0.393232
0.57583
0.550164
0.442898
0.523016
0.454043
0.495825
0.407615
0.512145
0.399979
0.421104
0.419847
0.470057
0.483654
0.472934
0.403513
0.448701
0.427234
0.464848
0.48026
0.480924
0.47103
0.537743
0.408521
0.554798
0.613721
0.455675
0.532561
0.402889
0.416525
0.548883
0.499929
0.470823
0.537518
0.418565
0.397028
0.577124
0.489557
0.443778
0.476212
0.485656
0.4409
0.47205
0.401455
0.441637
0.399105
0.503048
0.407598
0.463374
0.393669
0.530198
0.42928
0.530948
0.402554
0.462883
0.340475
0.384144
0.581558
0.553252
0.580639
0.44536
0.516848
0.517726
0.621609
0.472
0.640624
0.590123
0.393777
0.567712
0.406289
0.529431
0.390516
0.39252
0.540569
0.545301
0.40917
0.497403
0.479406
0.425531
0.456435
0.600409
