0.102369
0.062394
0.0767945
0.0452003
0.189145
0.0509982
0.0181535
0.0448977
0.95121
0.63476
0.586007
0.548332
0.568104
0.629352
0.0432505
0.0746058
0.745455
0.0273761
0.150099
0.658056
0.696533
0.770169
0.0264959
0.0806708
0.0585142
0.0858761
0.203896
0.192944
0.132226
0.172563
0.00723016
0.144872
0.11671
0.151488
0.161925
0.0644517
0.170131
0.104401
0.0603034
0.49769
0.433556
0.0827574
0.662565
0.455316
0.26425
0.590261
0.664777
0.69458
0.577491
0.648726
0.577837
0.68077
0.576373
0.31101
0.582386
0.745564
0.567666
0.650946
0.685581
0.810396
0.746429
0.693506
0.627688
0.856475
0.184335
0.463419
0.653726
0.112451
0.0757828
0.399951
0.178893
0.743937
0.138351
0.393653
0.902387
0.206014
0.530774
0.0880814
0.0714491
0.186007
0.286104
0.488503
0.0156053
0.162176
0.44639
0.224629
0.203145
0.267033
0.720329
0.529511
0.663886
0.543887
0.422194
0.63366
0.52145
0.482643
0.5274
0.791797
0.574301
0.440856
0.506573
0.795005
0.641582
0.662731
0.0648101
0.0305647
0.0544684
0.709246
0.193164
0.0944007
0.0490342
0.0962315
0.120177
0.674034
0.359035
0.0643473
0.552667
0.295989
0.138076
0.23194
0.687802
0.146863
0.722425
0.683932
0.141495
0.603163
0.0413857
0.722573
0.259487
0.00284543
0.434411
0.675698
0.0674934
0.0430193
0.0873794
0.772131
0.651033
0.888613
0.567283
0.771732
0.761858
0.747624
0.850514
0.692948
0.784656
0.704096
0.618392
0.808779
0.765304
0.817104
0.474361
0.580491
0.93881
0.603147
0.650603
0.221453
0.645591
0.252754
0.23859
0.224124
0.330402
0.313622
0.770142
0.65991
0.558921
0.666748
0.653034
0.730764
0.874546
0.585117
0.690227
0.653156
0.645358
0.672632
0.806061
0.30937
0.533309
0.30937
0.435592
0.375323
0.628463
0.12316
0.393431
0.248635
0.0447377
0.0200257
0.0401467
0.133778
0.274483
0.0770244
0.0525857
0.0912839
0.143146
0.671362
0.379858
0.546618
0.598412
0.757312
0.718241
0.00820663
0.092253
0.0548289
0.0489321
0.513748
0.170351
0.440697
0.583227
0.583611
0.591538
0.613173
0.362189
0.819572
0.871851
0.51374
0.488339
0.430185
0.590926
0.651598
0.633934
0.850092
0.451614
0.342727
0.139439
0.375829
0.265023
0.194171
0.672464
0.259609
0.285744
0.230493
0.242642
0.295513
0.266294
0.279198
0.171914
0.437888
0.305058
0.357831
0.663365
0.287967
0.322117
0.182822
0.217635
0.0863058
0.240196
0.232574
0.288385
0.280058
0.578726
0.570378
0.571462
0.640237
0.275986
0.527146
0.636128
0.682397
0.586982
0.68471
0.568888
0.625096
0.640311
0.559809
0.421894
0.417463
0.78711
0.805462
0.551493
0.586428
0.549121
0.680647
0.581896
0.583486
0.634918
0.637786
0.653196
0.443584
0.800798
0.704403
0.757842
0.624701
0.588741
0.366374
0.529451
0.889678
0.637262
0.654069
0.62287
0.681009
0.660722
0.616847
0.455668
0.515747
0.659383
0.187655
0.144445
0.0956829
0.105781
0.355239
0.276096
0.160605
0.14601
0.681302
0.181898
0.201402
0.670367
0.756568
0.313163
0.670501
0.357774
0.670045
0.171959
0.69301
0.17892
0.690953
0.321483
0.693924
0.30101
0.539875
0.76714
0.826758
0.684443
0.833173
0.748278
0.62974
0.626725
0.687626
0.67038
0.691138
0.672551
0.577533
0.693324
0.777209
0.75681
0.929514
0.773306
0.696108
0.863891
0.894114
0.688727
0.680631
0.71582
0.652429
0.782157
0.656784
0.651753
0.693612
0.653632
0.581917
0.661803
0.579003
0.738785
0.64653
0.668362
0.224848
0.352609
0.104188
0.111137
0.140788
0.342606
0.701317
0.077886
0.0830578
0.057365
0.628653
0.579543
0.518494
0.126521
0.0714557
0.0639059
0.0174501
0.107432
0.469434
0.275007
0.320409
0.318393
0.356768
0.180241
0
0.00562939
0.0456439
0.0237069
0.296771
0.691582
0.688051
0.776401
0.236736
0.0415043
0.357386
0.73345
0.0432037
0.664045
0.49177
0.67127
0.395887
0.732992
0.673196
0.0715485
0.249444
0.0497233
0.0474655
0.157878
0.0975111
0.242222
0.56171
0.672094
0.380071
0.679036
0.223824
0.745014
0.717699
0.708512
0.782164
0.039766
0.170989
0.206838
0.236287
0.702482
0.0418635
0.268195
0.0808048
0.531519
0.790162
0.123962
0.811757
0.761854
0.339964
0.195003
0.287667
0.225892
0.818004
0.79034
0.330404
0.608695
0.112738
0.607887
0.164633
0.209724
0.0012808
0.193587
0.191745
0.138197
0.554138
0.676233
0.418446
0.627322
0.0267629
0.554592
0.269611
0.605176
0.481184
0.288504
0.0623568
0.174164
0.164447
0.737926
0.263426
0.0899705
0.268069
0.0385569
0.0566059
0.0833648
0.0425321
0.251468
0.0788264
0.124807
0.0112026
0.00374553
0.533686
0.441294
0.255042
0.381641
0.493957
0.303117
0.301907
0.305045
0.165905
0.365322
0.369424
0.412088
0.411621
0.168153
0.478425
0.192621
0.32614
0.371455
0.213127
0.481942
0.700044
0.182618
0.566494
0.267947
0.326046
0.316256
0.278886
0.320683
0.429302
0.260174
0.328066
0.32625
0.316585
0.212804
0.549813
0.637422
0.467173
0.329383
0.211833
0.581435
0.458233
0.31934
0.28116
0.228368
0.252027
0.168261
0.272114
0.288972
0.134567
0.278966
0.39029
0.332419
0.255656
0.31835
0.0829575
0.589941
0.794639
0.361461
0.524636
0.101158
0.0740642
0.0671481
0.479828
0.70474
0.322156
1
0.537773
0.816986
0.632697
0.824051
0.408871
0.466905
0.831364
0.939327
0.665555
0.643554
0.447374
0.655876
0.295136
0.424354
0.436381
0.464664
0.882998
0.598386
0.364194
0.418113
0.529298
0.576257
0.784483
0.551072
0.509819
0.725976
0.490034
0.420661
0.383046
0.647157
0.555614
0.346514
0.33499
0.334886
0.481833
0.743532
0.602446
0.0379167
0.604894
0.948114
0.663324
0.493407
0.437413
