OFF
400 782 0
-2.05836 1.99376 -18.4602
-2.15536 1.91226 -18.2562
-2.33636 1.86926 -18.4362
-2.28336 1.97526 -18.8032
-2.57736 1.87606 -18.5232
-2.53936 1.99206 -18.9142
-2.48336 2.16806 -19.0622
-2.21136 2.13716 -18.9422
-1.97436 2.14676 -18.5742
-2.79536 1.95286 -18.4272
-2.92936 2.05346 -18.2412
-2.96836 2.15866 -18.4432
-2.77836 2.06436 -18.7942
-2.95136 2.32326 -18.5572
-2.74436 2.23246 -18.9322
-2.86136 2.50166 -18.4852
-2.74836 2.63436 -18.3112
-2.58336 2.62616 -18.5092
-2.66336 2.42616 -18.8372
-2.34936 2.59406 -18.6082
-2.41636 2.37756 -18.9602
-2.12436 2.54226 -18.5162
-1.97536 2.49266 -18.3242
-1.95136 2.33656 -18.5012
-2.16836 2.33696 -18.8462
-11.9094 0.201158 1.64576
-12.1324 -0.103142 1.64776
-12.1374 -0.0787423 1.63776
-11.9194 0.216958 1.63676
-12.1124 -0.0701423 1.55276
-11.8974 0.219758 1.55076
-11.7644 0.597758 1.55376
-11.7844 0.602358 1.63976
-11.7714 0.597958 1.64876
-12.0344 -0.0763423 1.31876
-11.8804 -0.0963423 0.867765
-11.6724 0.180558 0.865765
-11.8224 0.208158 1.31776
-11.5434 0.541658 0.868765
-11.6914 0.579158 1.32076
-11.5074 0.925058 0.874765
-11.5784 1.26856 0.883765
-11.7264 1.32576 1.33476
-11.6544 0.972858 1.32676
-11.8004 1.35816 1.56776
-11.7274 0.998858 1.55976
-11.8204 1.37786 1.65276
-11.7324 1.01916 1.65476
-11.7464 1.01136 1.64476
-13.2054 0.180258 1.67676
-13.1654 0.183858 1.58976
-12.9684 -0.0688423 1.57976
-13.0054 -0.0773423 1.66676
-12.6954 -0.202942 1.56876
-12.7284 -0.214242 1.65476
-13.0744 0.173258 1.35676
-12.9054 0.147458 0.903765
-12.7134 -0.0941423 0.893765
-12.8804 -0.0747423 1.34676
-12.4484 -0.222742 0.882765
-12.6104 -0.206542 1.33576
-12.1544 -0.227142 0.873765
-12.3124 -0.210842 1.32576
-12.3934 -0.207242 1.55876
-12.4254 -0.247042 1.65476
-12.4234 -0.218542 1.64476
-12.8884 1.63816 1.68576
-12.8534 1.61346 1.59876
-13.0674 1.32326 1.60176
-12.7674 1.57656 1.36576
-12.6034 1.51356 0.914765
-12.8114 1.23646 0.916765
-12.9784 1.29176 1.36776
-12.9404 0.874958 0.915765
-13.1104 0.920458 1.36776
-13.2004 0.944958 1.60076
-12.9764 0.491258 0.911765
-13.1464 0.526258 1.36376
-13.2374 0.543458 1.59676
-11.9964 1.61106 1.57676
-12.0204 1.63576 1.66276
-12.2694 1.74566 1.58576
-12.2974 1.77296 1.67176
-11.7704 1.51046 0.892765
-11.9204 1.57396 1.34376
-12.0364 1.63936 0.901765
-12.1904 1.70616 1.35276
-12.3294 1.64416 0.908765
-12.4884 1.71086 1.35976
-12.5714 1.75036 1.59376
-12.6084 1.80856 1.68976
-12.6024 1.77776 1.67976
-9.88036 -0.195042 -2.62924
-10.0494 -0.399142 -2.63024
-9.16936 -0.578442 -3.32624
-9.01836 -0.399642 -3.32424
-8.16136 -0.720442 -4.01424
-8.02936 -0.567442 -4.01124
-7.94836 -0.367242 -4.00624
-8.92636 -0.165742 -3.31924
-9.77636 0.0719577 -2.62424
-7.08736 -0.736842 -4.87724
-6.01136 -0.539242 -6.10124
-5.91236 -0.432042 -6.10024
-6.97336 -0.608242 -4.87524
-5.85236 -0.291242 -6.09624
-6.90436 -0.439842 -4.87024
-5.83736 -0.141242 -6.09024
-5.87436 -0.00614226 -6.08424
-6.92836 -0.0993423 -4.85524
-6.88636 -0.260542 -4.86324
-7.97536 0.0374577 -3.99024
-7.92836 -0.154142 -3.99824
-8.95636 0.306558 -3.30224
-9.80936 0.610758 -2.60824
-9.74936 0.355858 -2.61724
-8.90236 0.0830577 -3.31124
-10.7304 -0.393442 -2.60924
-10.8884 -0.213442 -2.59924
-9.92136 -0.414742 -3.29824
-9.77936 -0.572642 -3.30724
-8.81936 -0.579342 -3.98924
-8.69536 -0.714842 -3.99724
-8.52436 -0.787742 -4.00524
-9.58436 -0.657542 -3.31624
-10.5124 -0.490042 -2.61924
-7.65636 -0.617042 -4.85624
-6.50836 -0.437542 -6.08324
-6.41436 -0.533342 -6.08924
-7.54936 -0.731242 -4.86324
-6.28536 -0.585342 -6.09524
-7.40136 -0.792942 -4.87024
-6.14336 -0.588842 -6.09924
-7.23836 -0.796542 -4.87524
-8.33636 -0.791742 -4.01124
-10.2724 -0.494742 -2.62624
-9.36936 -0.661942 -3.32324
-10.8174 0.593058 -2.58124
-10.6484 0.797358 -2.58124
-9.70836 0.471058 -3.27724
-9.85936 0.292158 -3.27824
-8.63336 0.179158 -3.96724
-8.76536 0.0260577 -3.96924
-8.84636 -0.174442 -3.97424
-9.95136 0.0580577 -3.28324
-10.9214 0.325758 -2.58524
-7.49736 0.0209577 -4.83524
-6.37136 0.0958577 -6.06724
-6.47036 -0.0114423 -6.06824
-7.61136 -0.107642 -4.83724
-6.53036 -0.152242 -6.07224
-7.68036 -0.276242 -4.84224
-6.54536 -0.302342 -6.07724
-7.69836 -0.455742 -4.84824
-8.86636 -0.387742 -3.98124
-10.9484 0.0416577 -2.59124
-9.97536 -0.191042 -3.28924
-9.96736 0.790958 -2.59924
-9.09736 0.464658 -3.29324
-8.09936 0.172958 -3.98124
-8.27036 0.246158 -3.97424
-9.29336 0.549858 -3.28624
-10.1854 0.887758 -2.59124
-5.96836 0.0897577 -6.07824
-7.03536 0.0149577 -4.84824
-6.09736 0.141758 -6.07324
-7.18336 0.0767577 -4.84224
-6.23936 0.145458 -6.06924
-7.34636 0.0805577 -4.83724
-8.45836 0.250358 -3.96924
-10.4254 0.892758 -2.58424
-9.50836 0.554458 -3.28024
-4.99636 -0.0394423 -7.86824
-4.90736 0.0514577 -7.86924
-4.08236 0.621558 -9.88224
-3.99536 0.702258 -9.88524
-3.94236 0.809058 -9.88824
-4.85236 0.171158 -7.86824
-3.30536 1.30246 -11.8442
-2.70636 1.86236 -13.4572
-2.60536 1.94626 -13.4672
-3.21536 1.38056 -11.8512
-2.54536 2.05816 -13.4782
-3.16136 1.48406 -11.8572
-2.53336 2.17856 -13.4882
-2.57436 2.28836 -13.4962
-3.18536 1.69646 -11.8662
-3.14936 1.59536 -11.8632
-3.96436 1.02666 -9.88824
-3.93036 0.923258 -9.88924
-4.87336 0.414158 -7.86224
-4.83936 0.298858 -7.86524
-5.45136 0.0496577 -7.85324
-5.36436 -0.0324423 -7.85724
-4.52436 0.704358 -9.86924
-4.43936 0.630258 -9.87123
-4.32436 0.589258 -9.87424
-5.24636 -0.0773423 -7.86224
-3.77036 1.38686 -11.8322
-3.22836 1.95706 -13.4452
-3.12836 1.87736 -13.4432
-3.68036 1.31396 -11.8322
-2.99136 1.83216 -13.4442
-3.55936 1.27306 -11.8342
-2.84336 1.82576 -13.4492
-3.42736 1.26796 -11.8392
-4.19836 0.585058 -9.87824
-5.11736 -0.0810423 -7.86624
-5.32736 0.503458 -7.84724
-5.41736 0.412458 -7.84624
-4.40636 1.10976 -9.87624
-4.49336 1.02896 -9.87324
-4.54636 0.922158 -9.87024
-5.47136 0.292758 -7.84724
-3.64936 1.78096 -11.8552
-3.09636 2.38326 -13.4862
-3.19836 2.29936 -13.4752
-3.74036 1.70296 -11.8482
-3.25736 2.18736 -13.4642
-3.79436 1.59926 -11.8422
-3.27036 2.06686 -13.4532
-3.80636 1.48796 -11.8362
-4.55836 0.807858 -9.86924
-5.48436 0.164958 -7.84924
-4.95936 0.496258 -7.85724
-4.04936 1.10086 -9.88724
-4.16436 1.14196 -9.88323
-5.07836 0.541258 -7.85324
-2.67536 2.36806 -13.4992
-3.27436 1.76936 -11.8672
-2.81136 2.41336 -13.4982
-3.39536 1.81036 -11.8652
-2.96036 2.41986 -13.4932
-3.52736 1.81556 -11.8612
-4.29036 1.14616 -9.88024
-5.20736 0.545058 -7.84924
-2.32336 2.15996 -14.4222
-2.20436 2.25956 -14.4372
-2.10836 2.25986 -14.9692
-1.96736 2.38006 -14.9872
-1.88536 2.54086 -15.0082
-2.13436 2.39276 -14.4532
-2.01436 2.22656 -15.3252
-1.99236 2.12456 -15.7182
-1.81136 2.28006 -15.7422
-1.85136 2.36706 -15.3462
-1.70636 2.48846 -15.7692
-1.75636 2.55516 -15.3702
-1.68736 2.71356 -15.7942
-1.76436 2.91936 -15.8132
-1.80736 2.94376 -15.4112
-1.73836 2.75826 -15.3932
-1.92836 2.87286 -15.0422
-1.86936 2.71436 -15.0272
-2.16936 2.66746 -14.4792
-2.12036 2.53636 -14.4672
-2.94236 2.27496 -14.4102
-2.82236 2.17956 -14.4052
-2.84336 2.40006 -14.9552
-2.70136 2.28456 -14.9482
-2.50936 2.21846 -14.9492
-2.66136 2.12516 -14.4062
-2.86436 2.39156 -15.3092
-2.93936 2.30886 -15.7012
-2.75536 2.15846 -15.6912
-2.69936 2.25616 -15.3012
-2.50736 2.07216 -15.6922
-2.47736 2.17856 -15.3012
-2.23936 2.05806 -15.7012
-2.23636 2.16626 -15.3092
-2.30036 2.20806 -14.9562
-2.48536 2.11686 -14.4122
-2.78836 2.78286 -14.4692
-2.90836 2.68316 -14.4542
-2.66336 3.01356 -15.0312
-2.80436 2.89326 -15.0122
-2.88636 2.73236 -14.9912
-2.97836 2.54986 -14.4372
-2.65736 3.10936 -15.3992
-2.71136 3.10436 -15.8002
-2.89236 2.94876 -15.7762
-2.82036 2.96876 -15.3772
-2.99736 2.74016 -15.7482
-2.91636 2.78056 -15.3522
-3.01636 2.51476 -15.7212
-2.93336 2.57726 -15.3282
-2.90236 2.55866 -14.9712
-2.99136 2.40606 -14.4222
-2.28936 2.76286 -14.4842
-2.07036 2.98846 -15.0492
-2.26336 3.05476 -15.0502
-2.45136 2.81746 -14.4842
-1.94836 3.06976 -15.8232
-1.97236 3.07926 -15.4202
-2.19636 3.15646 -15.8242
-2.19536 3.15706 -15.4212
-2.46436 3.17076 -15.8162
-2.43636 3.16966 -15.4142
-2.47136 3.06526 -15.0442
-2.62736 2.82586 -14.4792
-1.99536 2.01846 -16.3782
-1.80436 2.17856 -16.4022
-2.02636 1.93466 -17.1332
-1.83636 2.08656 -17.1692
-1.72636 2.29156 -17.2082
-1.69236 2.39346 -16.4292
-2.08636 1.89966 -17.8132
-1.91536 2.02796 -17.8862
-1.81636 2.20376 -17.9602
-1.87336 2.59636 -17.8952
-1.79836 2.40856 -17.9302
-1.78936 2.72376 -17.2262
-1.70736 2.51706 -17.2202
-1.75536 2.83876 -16.4752
-1.67336 2.62596 -16.4552
-3.00036 2.21116 -16.3592
-2.80436 2.05546 -16.3492
-3.02636 2.12276 -17.1132
-2.83136 1.97106 -17.1182
-2.57036 1.88246 -17.1322
-2.54136 1.96566 -16.3502
-2.99636 2.06776 -17.7952
-2.82036 1.92926 -17.8402
-2.58436 1.84606 -17.8922
-2.32536 1.83756 -17.8492
-2.28636 1.86846 -17.1282
-2.25636 1.95036 -16.3602
-2.76036 3.03226 -16.4612
-2.95236 2.87206 -16.4352
-2.79036 2.91276 -17.2112
-2.98136 2.75726 -17.1992
-3.09136 2.54846 -17.1852
-3.06336 2.65686 -16.4072
-2.78236 2.76516 -17.8812
-2.95836 2.62286 -17.9112
-3.06136 2.43296 -17.9382
-3.07536 2.24176 -17.8642
-3.11036 2.32616 -17.1462
-3.08336 2.42406 -16.3792
-1.95136 2.99456 -16.4852
-1.98536 2.87216 -17.2482
-2.24736 2.95756 -17.2612
-2.21436 3.08476 -16.4862
-2.05336 2.72106 -17.9542
-2.29336 2.79066 -18.0052
-2.54836 2.81326 -17.9472
-2.53036 2.97526 -17.2402
-2.49936 3.10026 -16.4782
-12.3354 1.41036 0.173765
-12.5374 1.14586 0.175765
-11.9364 1.26076 -0.735235
-12.1314 1.01296 -0.734235
-12.2514 0.689258 -0.736235
-12.6634 0.800458 0.173765
-11.3834 1.05846 -1.69324
-11.5664 0.830958 -1.69324
-11.6794 0.533658 -1.69624
-11.6444 -0.0659423 -1.71024
-11.7094 0.217558 -1.70224
-12.2164 0.0371577 -0.749235
-12.2834 0.345458 -0.741235
-12.6274 0.105258 0.161765
-12.6974 0.433858 0.169765
-12.4404 -0.125942 0.151765
-12.0354 -0.179942 -0.759235
-11.7864 -0.295842 -0.769235
-12.1814 -0.249142 0.141765
-11.4744 -0.265842 -1.72024
-11.2384 -0.372742 -1.73024
-10.7364 -0.270842 -1.74324
-10.9784 -0.377542 -1.73824
-11.2554 -0.184042 -0.784235
-11.5114 -0.300542 -0.778235
-11.6284 -0.129042 0.125765
-11.8954 -0.253642 0.131765
-11.4264 0.135358 0.125765
-11.0604 0.0636577 -0.784235
-10.9414 0.386958 -0.780235
-11.3014 0.480258 0.128765
-10.5534 -0.0435423 -1.74324
-10.4404 0.253458 -1.73824
-10.4744 0.852558 -1.72224
-10.4104 0.569158 -1.73124
-10.9764 1.03846 -0.765235
-10.9084 0.730358 -0.774235
-11.3364 1.17506 0.143765
-11.2664 0.846558 0.134765
-11.5234 1.40636 0.152765
-11.1564 1.25576 -0.756235
-11.4054 1.37206 -0.747235
-11.7824 1.52986 0.161765
-10.6454 1.05266 -1.71324
-10.8814 1.15986 -1.70424
-11.1414 1.16496 -1.69824
-11.6804 1.37706 -0.740235
-12.0684 1.53486 0.168765
-12.1204 -0.144442 1.65076
-11.8894 0.174158 1.64976
-11.7454 0.589658 1.65276
-11.8444 0.118958 1.64476
3 0 1 2
3 0 2 3
3 2 4 5
3 2 5 3
3 5 6 7
3 5 7 3
3 7 8 0
3 7 0 3
3 9 10 11
3 9 11 12
3 11 13 14
3 11 14 12
3 14 6 5
3 14 5 12
3 5 4 9
3 5 9 12
3 15 16 17
3 15 17 18
3 17 19 20
3 17 20 18
3 20 6 14
3 20 14 18
3 14 13 15
3 14 15 18
3 21 22 23
3 21 23 24
3 23 8 7
3 23 7 24
3 7 6 20
3 7 20 24
3 20 19 21
3 20 21 24
3 25 26 27
3 25 27 28
3 27 29 30
3 27 30 28
3 30 31 32
3 30 32 28
3 32 33 25
3 32 25 28
3 34 35 36
3 34 36 37
3 36 38 39
3 36 39 37
3 39 31 30
3 39 30 37
3 30 29 34
3 30 34 37
3 40 41 42
3 40 42 43
3 42 44 45
3 42 45 43
3 45 31 39
3 45 39 43
3 39 38 40
3 39 40 43
3 46 47 48
3 47 33 32
3 47 32 48
3 32 31 45
3 32 45 48
3 45 44 46
3 45 46 48
3 49 50 51
3 49 51 52
3 51 53 54
3 51 54 52
3 55 56 57
3 55 57 58
3 57 59 60
3 57 60 58
3 60 53 51
3 60 51 58
3 51 50 55
3 51 55 58
3 61 35 34
3 61 34 62
3 34 29 63
3 34 63 62
3 63 53 60
3 63 60 62
3 60 59 61
3 60 61 62
3 27 26 64
3 27 64 65
3 64 54 65
3 54 53 63
3 54 63 65
3 63 29 27
3 63 27 65
3 66 67 68
3 69 70 71
3 69 71 72
3 71 73 74
3 71 74 72
3 74 75 68
3 74 68 72
3 68 67 69
3 68 69 72
3 76 56 55
3 76 55 77
3 55 50 78
3 55 78 77
3 78 75 74
3 78 74 77
3 74 73 76
3 74 76 77
3 78 50 49
3 46 44 79
3 46 79 80
3 79 81 82
3 79 82 80
3 42 41 83
3 42 83 84
3 83 85 86
3 83 86 84
3 86 81 79
3 86 79 84
3 79 44 42
3 79 42 84
3 87 70 69
3 87 69 88
3 69 67 89
3 69 89 88
3 89 81 86
3 89 86 88
3 86 85 87
3 86 87 88
3 66 90 91
3 90 82 91
3 82 81 89
3 82 89 91
3 89 67 66
3 89 66 91
3 92 93 94
3 92 94 95
3 94 96 97
3 94 97 95
3 97 98 99
3 97 99 95
3 99 100 92
3 99 92 95
3 101 102 103
3 101 103 104
3 103 105 106
3 103 106 104
3 106 98 97
3 106 97 104
3 97 96 101
3 97 101 104
3 107 108 109
3 107 109 110
3 109 111 112
3 109 112 110
3 112 98 106
3 112 106 110
3 106 105 107
3 106 107 110
3 113 114 115
3 113 115 116
3 115 100 99
3 115 99 116
3 99 98 112
3 99 112 116
3 112 111 113
3 112 113 116
3 117 118 119
3 117 119 120
3 119 121 122
3 119 122 120
3 122 123 124
3 122 124 120
3 124 125 117
3 124 117 120
3 126 127 128
3 126 128 129
3 128 130 131
3 128 131 129
3 131 123 122
3 131 122 129
3 122 121 126
3 122 126 129
3 132 102 101
3 132 101 133
3 101 96 134
3 101 134 133
3 134 123 131
3 134 131 133
3 131 130 132
3 131 132 133
3 94 93 135
3 94 135 136
3 135 125 124
3 135 124 136
3 124 123 134
3 124 134 136
3 134 96 94
3 134 94 136
3 137 138 139
3 137 139 140
3 139 141 142
3 139 142 140
3 142 143 144
3 142 144 140
3 144 145 137
3 144 137 140
3 146 147 148
3 146 148 149
3 148 150 151
3 148 151 149
3 151 143 142
3 151 142 149
3 142 141 146
3 142 146 149
3 152 127 126
3 152 126 153
3 126 121 154
3 126 154 153
3 154 143 151
3 154 151 153
3 151 150 152
3 151 152 153
3 119 118 155
3 119 155 156
3 155 145 144
3 155 144 156
3 144 143 154
3 144 154 156
3 154 121 119
3 154 119 156
3 157 114 113
3 157 113 158
3 113 111 159
3 113 159 158
3 159 160 161
3 159 161 158
3 161 162 157
3 161 157 158
3 109 108 163
3 109 163 164
3 163 165 166
3 163 166 164
3 166 160 159
3 166 159 164
3 159 111 109
3 159 109 164
3 167 147 146
3 167 146 168
3 146 141 169
3 146 169 168
3 169 160 166
3 169 166 168
3 166 165 167
3 166 167 168
3 139 138 170
3 139 170 171
3 170 162 161
3 170 161 171
3 161 160 169
3 161 169 171
3 169 141 139
3 169 139 171
3 103 102 172
3 103 172 173
3 172 174 175
3 172 175 173
3 175 176 177
3 175 177 173
3 177 105 103
3 177 103 173
3 178 179 180
3 178 180 181
3 180 182 183
3 180 183 181
3 183 176 175
3 183 175 181
3 175 174 178
3 175 178 181
3 184 185 186
3 184 186 187
3 186 188 189
3 186 189 187
3 189 176 183
3 189 183 187
3 183 182 184
3 183 184 187
3 190 108 107
3 190 107 191
3 107 105 177
3 107 177 191
3 177 176 189
3 177 189 191
3 189 188 190
3 189 190 191
3 128 127 192
3 128 192 193
3 192 194 195
3 192 195 193
3 195 196 197
3 195 197 193
3 197 130 128
3 197 128 193
3 198 199 200
3 198 200 201
3 200 202 203
3 200 203 201
3 203 196 195
3 203 195 201
3 195 194 198
3 195 198 201
3 204 179 178
3 204 178 205
3 178 174 206
3 178 206 205
3 206 196 203
3 206 203 205
3 203 202 204
3 203 204 205
3 172 102 132
3 172 132 207
3 132 130 197
3 132 197 207
3 197 196 206
3 197 206 207
3 206 174 172
3 206 172 207
3 148 147 208
3 148 208 209
3 208 210 211
3 208 211 209
3 211 212 213
3 211 213 209
3 213 150 148
3 213 148 209
3 214 215 216
3 214 216 217
3 216 218 219
3 216 219 217
3 219 212 211
3 219 211 217
3 211 210 214
3 211 214 217
3 220 199 198
3 220 198 221
3 198 194 222
3 198 222 221
3 222 212 219
3 222 219 221
3 219 218 220
3 219 220 221
3 192 127 152
3 192 152 223
3 152 150 213
3 152 213 223
3 213 212 222
3 213 222 223
3 222 194 192
3 222 192 223
3 163 108 190
3 163 190 224
3 190 188 225
3 190 225 224
3 225 226 227
3 225 227 224
3 227 165 163
3 227 163 224
3 186 185 228
3 186 228 229
3 228 230 231
3 228 231 229
3 231 226 225
3 231 225 229
3 225 188 186
3 225 186 229
3 232 215 214
3 232 214 233
3 214 210 234
3 214 234 233
3 234 226 231
3 234 231 233
3 231 230 232
3 231 232 233
3 208 147 167
3 208 167 235
3 167 165 227
3 167 227 235
3 227 226 234
3 227 234 235
3 234 210 208
3 234 208 235
3 180 179 236
3 180 236 237
3 236 238 239
3 236 239 237
3 239 240 241
3 239 241 237
3 241 182 180
3 241 180 237
3 242 243 244
3 242 244 245
3 244 246 247
3 244 247 245
3 247 240 239
3 247 239 245
3 239 238 242
3 239 242 245
3 248 249 250
3 248 250 251
3 250 252 253
3 250 253 251
3 253 240 247
3 253 247 251
3 247 246 248
3 247 248 251
3 254 185 184
3 254 184 255
3 184 182 241
3 184 241 255
3 241 240 253
3 241 253 255
3 253 252 254
3 253 254 255
3 200 199 256
3 200 256 257
3 256 258 259
3 256 259 257
3 259 260 261
3 259 261 257
3 261 202 200
3 261 200 257
3 262 263 264
3 262 264 265
3 264 266 267
3 264 267 265
3 267 260 259
3 267 259 265
3 259 258 262
3 259 262 265
3 268 243 242
3 268 242 269
3 242 238 270
3 242 270 269
3 270 260 267
3 270 267 269
3 267 266 268
3 267 268 269
3 236 179 204
3 236 204 271
3 204 202 261
3 204 261 271
3 261 260 270
3 261 270 271
3 270 238 236
3 270 236 271
3 216 215 272
3 216 272 273
3 272 274 275
3 272 275 273
3 275 276 277
3 275 277 273
3 277 218 216
3 277 216 273
3 278 279 280
3 278 280 281
3 280 282 283
3 280 283 281
3 283 276 275
3 283 275 281
3 275 274 278
3 275 278 281
3 284 263 262
3 284 262 285
3 262 258 286
3 262 286 285
3 286 276 283
3 286 283 285
3 283 282 284
3 283 284 285
3 256 199 220
3 256 220 287
3 220 218 277
3 220 277 287
3 277 276 286
3 277 286 287
3 286 258 256
3 286 256 287
3 228 185 254
3 228 254 288
3 254 252 289
3 254 289 288
3 289 290 291
3 289 291 288
3 291 230 228
3 291 228 288
3 250 249 292
3 250 292 293
3 292 294 295
3 292 295 293
3 295 290 289
3 295 289 293
3 289 252 250
3 289 250 293
3 296 279 278
3 296 278 297
3 278 274 298
3 278 298 297
3 298 290 295
3 298 295 297
3 295 294 296
3 295 296 297
3 272 215 232
3 272 232 299
3 232 230 291
3 232 291 299
3 291 290 298
3 291 298 299
3 298 274 272
3 298 272 299
3 244 243 300
3 244 300 301
3 300 302 303
3 300 303 301
3 303 304 305
3 303 305 301
3 305 246 244
3 305 244 301
3 306 1 0
3 306 0 307
3 0 8 308
3 0 308 307
3 308 304 303
3 308 303 307
3 303 302 306
3 303 306 307
3 23 22 309
3 23 309 310
3 309 311 312
3 309 312 310
3 312 304 308
3 312 308 310
3 308 8 23
3 308 23 310
3 313 249 248
3 313 248 314
3 248 246 305
3 248 305 314
3 305 304 312
3 305 312 314
3 312 311 313
3 312 313 314
3 264 263 315
3 264 315 316
3 315 317 318
3 315 318 316
3 318 319 320
3 318 320 316
3 320 266 264
3 320 264 316
3 321 10 9
3 321 9 322
3 9 4 323
3 9 323 322
3 323 319 318
3 323 318 322
3 318 317 321
3 318 321 322
3 2 1 306
3 2 306 324
3 306 302 325
3 306 325 324
3 325 319 323
3 325 323 324
3 323 4 2
3 323 2 324
3 300 243 268
3 300 268 326
3 268 266 320
3 268 320 326
3 320 319 325
3 320 325 326
3 325 302 300
3 325 300 326
3 280 279 327
3 280 327 328
3 327 329 330
3 327 330 328
3 330 331 332
3 330 332 328
3 332 282 280
3 332 280 328
3 333 16 15
3 333 15 334
3 15 13 335
3 15 335 334
3 335 331 330
3 335 330 334
3 330 329 333
3 330 333 334
3 11 10 321
3 11 321 336
3 321 317 337
3 321 337 336
3 337 331 335
3 337 335 336
3 335 13 11
3 335 11 336
3 315 263 284
3 315 284 338
3 284 282 332
3 284 332 338
3 332 331 337
3 332 337 338
3 337 317 315
3 337 315 338
3 292 249 313
3 292 313 339
3 313 311 340
3 313 340 339
3 340 341 342
3 340 342 339
3 342 294 292
3 342 292 339
3 309 22 21
3 309 21 343
3 21 19 344
3 21 344 343
3 344 341 340
3 344 340 343
3 340 311 309
3 340 309 343
3 17 16 333
3 17 333 345
3 333 329 346
3 333 346 345
3 346 341 344
3 346 344 345
3 344 19 17
3 344 17 345
3 327 279 296
3 327 296 347
3 296 294 342
3 296 342 347
3 342 341 346
3 342 346 347
3 346 329 327
3 346 327 347
3 71 70 348
3 71 348 349
3 348 350 351
3 348 351 349
3 351 352 353
3 351 353 349
3 353 73 71
3 353 71 349
3 354 138 137
3 354 137 355
3 137 145 356
3 137 356 355
3 356 352 351
3 356 351 355
3 351 350 354
3 351 354 355
3 155 118 357
3 155 357 358
3 357 359 360
3 357 360 358
3 360 352 356
3 360 356 358
3 356 145 155
3 356 155 358
3 361 56 76
3 361 76 362
3 76 73 353
3 76 353 362
3 353 352 360
3 353 360 362
3 360 359 361
3 360 361 362
3 57 56 361
3 57 361 363
3 361 359 364
3 361 364 363
3 364 365 366
3 364 366 363
3 366 59 57
3 366 57 363
3 357 118 117
3 357 117 367
3 117 125 368
3 117 368 367
3 368 365 364
3 368 364 367
3 364 359 357
3 364 357 367
3 135 93 369
3 135 369 370
3 369 371 372
3 369 372 370
3 372 365 368
3 372 368 370
3 368 125 135
3 368 135 370
3 373 35 61
3 373 61 374
3 61 59 366
3 61 366 374
3 366 365 372
3 366 372 374
3 372 371 373
3 372 373 374
3 36 35 373
3 36 373 375
3 373 371 376
3 373 376 375
3 376 377 378
3 376 378 375
3 378 38 36
3 378 36 375
3 369 93 92
3 369 92 379
3 92 100 380
3 92 380 379
3 380 377 376
3 380 376 379
3 376 371 369
3 376 369 379
3 115 114 381
3 115 381 382
3 381 383 384
3 381 384 382
3 384 377 380
3 384 380 382
3 380 100 115
3 380 115 382
3 385 41 40
3 385 40 386
3 40 38 378
3 40 378 386
3 378 377 384
3 378 384 386
3 384 383 385
3 384 385 386
3 83 41 385
3 83 385 387
3 385 383 388
3 385 388 387
3 388 389 390
3 388 390 387
3 390 85 83
3 390 83 387
3 381 114 157
3 381 157 391
3 157 162 392
3 157 392 391
3 392 389 388
3 392 388 391
3 388 383 381
3 388 381 391
3 170 138 354
3 170 354 393
3 354 350 394
3 354 394 393
3 394 389 392
3 394 392 393
3 392 162 170
3 392 170 393
3 348 70 87
3 348 87 395
3 87 85 390
3 87 390 395
3 390 389 394
3 390 394 395
3 394 350 348
3 394 348 395
3 64 26 396
3 396 26 25
3 396 25 397
3 25 33 398
3 25 398 397
3 398 399 397
3 399 396 397
3 398 33 47
