0.599224
0.517041
0.679221
0.810144
0.679071
0.796914
0.462899
0.871168
0.710227
0.686995
0.672325
0.63782
0.712482
0.658452
0.611811
0.780295
0.685841
0.709051
0.638572
0.646648
0.631176
0.632607
0.634428
0.635299
0.653648
0.773736
0.767162
0.738223
0.664799
0.694876
0.750501
0.58672
0.647413
0.745085
0.5984
0.645043
0.750808
0.643095
0.773449
0.533264
0.343714
0.406106
0.456643
0.759965
0.728362
0.8179
0.802273
0.847577
0.342991
0.813971
0.886118
0.710557
0.816157
0.519286
0.384061
0.402838
0.558438
0.533999
0.506365
0.680016
0.795561
0.735839
0.811316
0.681394
0.0585345
0.0945428
0.126684
0.0996472
0.219047
0.124164
0.224122
0.11339
0.156055
0.183046
0.167799
0.184719
0.214372
0.20731
0.139814
0.171079
0.325173
0.316938
0.318957
0.609366
0.284602
0.451184
0.295123
0.42168
0.24144
0.291379
0.179604
0.389282
0.20108
0.277275
0.327394
0.28961
0.607434
0.702001
0.526356
0.707171
0.799144
0.213856
0.740314
0.766589
0.739174
0.187106
0.226124
0.400002
0.780797
0.669643
0.532193
0.530084
0.356965
0.394293
0.412395
0.499134
0.553998
0.734412
0.514924
0.465316
0.321351
0.352384
0.590855
0.228942
0.603678
0.645571
0.329921
0.327961
0.181114
0.193144
0.374707
0.275667
0.296231
0.319041
0.210475
0.171578
0.322273
0.508237
0.164915
0.270869
0.239206
0.341882
0.525583
0.274042
0.214785
0.276797
0.296548
0.380265
0.328128
0.275318
0.307686
0.30911
0.182362
0.2479
0.166651
0.199296
0.229871
0.181468
0.394955
0.229471
0.305206
0.30978
0.4289
0.691514
0.552417
0.474566
0.588836
0.198276
0.428594
0.417836
0.19166
0.632827
0.71441
0.503335
0.400009
0.422967
0.817906
0.755546
0.529047
0.40879
0.811981
0.727604
0.231405
0.756708
0.461252
0.442696
0.759783
0.712385
0.835879
0.758425
0.52365
0.73457
0.16594
0.15417
0.198952
0.195851
0.235646
0.227168
0.201823
0.356787
0.175368
0.186262
0.172592
0.223422
0.182243
0.213492
0.179639
0.200279
0.354421
0.341156
0.345683
0.343136
0.2018
0.259298
0.195496
0.250165
0.349918
0.324059
0.286785
0.434598
0.250375
0.341852
0.377796
0.336875
0.364178
0.433261
0.288049
0.273065
0.644673
0.246339
0.751403
0.413938
0.184024
0.146548
0.429081
0.432638
0.170534
0.673866
0.235608
0.330696
0.334788
0.31993
0.411352
0.431092
0.17184
0.265808
0.105691
0.340198
0.584044
0.442401
0.520044
0.563496
0.240681
0.314148
0.44371
0.557252
0.331661
0.265383
0.24816
0.267713
0.268343
0.31757
0.244816
0.302417
0.202828
0.236523
0.188737
0.169938
0.253472
0.301526
0.26031
0.274212
0.20161
0.189596
0.202816
0.210585
0.19706
0.188095
0.19729
0.198438
0.187214
0.20925
0.303091
0.237558
0.280882
0.295382
0.147802
0.14898
0.358874
0.390787
0.374019
0.452674
0.492683
0.234142
0.526412
0.602535
0.343488
0.292048
0.0998645
0.236159
0.214281
0.27599
0.407121
0.371135
0.340384
0.304689
0.312348
0.332305
0.249921
0.216379
0.427637
0.435468
0.411367
0.320216
0.75202
0.773372
0.876024
0.227594
0.336448
0.288583
0.25175
0.223671
0.289566
0.258003
0.654248
0.382916
0.28687
0.22496
0.662969
0.686707
0.411217
0.823155
0.625812
0.663206
0.678445
0.429363
0.344486
0.64672
0.429353
0.655821
0.269803
0.242852
0.597851
0.46609
0.399337
0.396927
0.479537
0.312281
0.721852
0.321588
0.381923
0.719675
0.471296
0.377579
0.414131
0.706476
0.633348
0.691827
0.662509
0.439904
0.558757
0.709921
0.662432
0.687614
0.662909
0.723767
0.488739
0.455362
0.544273
0.421652
0.472814
0.489972
0.597711
0.771249
0.608866
0.520445
0.414167
0.418098
0.556337
0.229459
0.6879
0.575456
0.459095
0.653378
0.329728
0.325573
0.551356
0.559218
0.3853
0.592147
0.298226
0.300219
0.390028
0.385706
0.458425
0.447637
0.432826
0.493336
0.491383
0.560737
0.474691
0.5373
0.376135
0.443195
0.55899
0.629146
0.496347
0.426631
0.30127
0.319087
0.275119
0.302852
0.511764
0.488411
0.459642
0.530618
0.444557
0.383074
0.457699
0.498884
0.65791
0.472408
0.180748
0.548242
0.554627
0.675388
0.729968
0.550454
0.620187
0.634206
0.516313
0.472784
0.514177
0.775247
0.439101
0.536924
0.662621
0.690974
0.64652
0.667216
0.372454
0.345324
0.422221
0.469484
0.528874
0.687221
0.588231
0.673826
0.343266
0.340615
0.720312
0.402352
0.437924
0.424083
0.47283
0.508856
0.483119
0.457007
0.476215
0.44935
0.521742
0.527394
0.673012
0.378005
0.498866
0.473665
0.470367
0.488537
0.544726
0.509425
0.420465
0.45184
0.289399
0.696097
0.240017
0.505878
0.762393
0.843094
0.383848
0.843681
0.23588
0.36884
0.857838
0.409595
0.465283
0.399941
0.532666
0.408577
0.54926
0.353196
0.427989
0.528188
0.542306
0.543992
0.729725
0.563315
0.459113
0.474088
0.426626
0.477874
0.435657
0.469193
0.46023
0.465319
0.500859
0.511797
0.389892
0.456034
0.853302
0.808937
0.475554
0.666702
0.659986
0.627952
0.410802
0.494265
0.708731
0.523443
0.482653
0.381997
0.461549
0.476849
0.459069
0.365802
0.486331
0.442342
0.467784
0.353418
0.671666
0.624687
0.635979
0.633129
0.422177
0.482086
0.44831
0.500191
0.442458
0.461313
0.477671
0.277405
0.723166
0.477458
0.639818
0.552856
0.51102
0.510117
0.48487
0.862149
0.431766
0.807687
0.510294
0.473889
0.400729
0.441765
0.403669
0.513289
0.457476
0.519167
0.455693
0.482203
0.844585
0.87648
0.866272
0.513382
0.448556
0.542427
0.337663
0.332319
0.410387
0.372142
0.368915
0.3697
0.45356
0.384599
0.859847
0.412641
0.442983
0.440258
0.0493424
0.0533162
0.51499
0.492562
0.505973
0.454295
0.483091
0.483745
0.479163
0.483915
0.513212
0.0371834
0.449592
0.427121
0.440174
0.451288
0.456438
0.0838046
0.397259
0.0658887
0.437272
0.435544
0.399211
0.455088
0.422354
0.390837
0.465253
0.478249
0.488293
0.477212
0.487086
0.496171
0.479413
0.47833
0.508456
0.490082
0.437704
0.408002
0.450054
0.467059
0.445122
0.440275
0.443362
0.450593
0.181668
0.189982
0.100615
0.140817
0.233254
0.214615
0.294947
0.286766
0.131024
0.162619
0.235316
0.192342
0.208491
0.170119
0.133114
0.132119
0.307057
0.328172
0.301147
0.315851
0.252547
0.228485
0.259983
0.241479
0.375662
0.367985
0.371701
0.322635
0.21919
0.289342
0.314669
0.278768
0.710789
0.738072
0.820454
0.715143
0.767385
0.668103
0.815572
0.455053
0.780163
0.725335
0.772692
0.741094
0.7666
0.708054
0.755313
0.753649
0.508616
0.82632
0.443796
0.45639
0.874239
0.605145
0.788773
0.57072
0.319853
0.384699
0.553474
0.717779
0.858974
0.603073
0.440691
0.431504
0.611531
0.652031
0.481576
0.57019
0.645032
0.614583
0.499909
0.623712
0.505067
0.327561
0.731646
0.634539
0.635493
0.355278
0.509839
0.416424
0.792507
0.624645
0.685667
0.709809
0.634733
0.699248
0.797122
0.778581
0.737021
0.71677
0.527792
0.550438
0.466844
0.489264
0.686576
0.695368
0.233324
0.41134
0.388382
0.394104
0.469008
0.659667
0.546263
0.448462
0.458154
0.536254
0.607547
0.551427
0.52098
0.497046
0.423912
0.430625
0.775031
0.695988
0.712689
0.711913
0.46124
0.736725
0.578345
0.736893
0.61534
0.766442
0.683649
0.70379
0.770832
0.694222
0.771097
0.539578
0.517044
0.310342
0.619749
0.73169
0.359015
0.392307
0.357859
0.396286
0.827165
0.829368
0.717871
0.674924
0.79812
0.770605
0.748137
0.769987
0.748391
0.743436
0.746489
0.49524
0.418564
0.728691
0.669741
0.697975
0.764978
0.76259
0.796803
0.831533
0.816344
0.726949
0.663629
0.74229
0.750461
0.782764
0.759165
0.82593
0.822716
0.749642
0.765165
0.857326
0.703264
0.756757
0.652806
0.748451
0.733757
0.667963
0.738016
0.825595
0.745737
0.885269
0.254824
0.23829
0.297998
0.331505
0.210529
0.247838
0.198291
0.207605
0.524677
0.28245
0.436403
0.336276
0.162522
0.372255
0.341186
0.629635
0.201879
0.187622
0.133758
0.169167
0.158309
0.217864
0.228865
0.192388
0.0655274
0.121534
0.186017
0.051849
0.137074
0.101627
0.120576
0.117772
0.226791
0.206878
0.233547
0.255654
0.265477
0.192952
0.223164
0.186272
0.346941
0.32847
0.349908
0.318099
0.416406
0.292221
0.399022
0.368157
0.360172
0.377219
0.291613
0.324787
0.328546
0.250306
0.379163
0.314444
0.177146
0.184861
0.158724
0.190589
0.221374
0.199795
0.17065
0.225154
0.243718
0.233003
0.259749
0.235254
0.283288
0.453284
0.677982
0.232578
0.352497
0.371191
0.610475
0.36712
0.805427
0.416516
0.316445
0.293514
0.634121
0.631404
0.728958
0.406941
0.293589
0.34688
0.514828
0.488461
0.707096
0.826477
0.32019
0.373139
0.229263
0.537696
0.395163
0.51998
0.519119
0.720864
0.810346
0.714787
0.678245
0.793869
0.642204
0.635841
0.624431
0.674808
0.563871
0.573109
0.678016
0.671982
0.562879
0.739835
0.597529
0.704718
0.514018
0.667571
0.675688
0.647764
0.607892
0.646625
0.506282
0.538672
0.739961
0.623204
0.722166
0.622459
0.50236
0.646992
0.268886
0.246926
0.482673
0.47347
0.49327
0.443841
0.269306
0.247436
0.476306
0.502216
0.514524
0.48461
0.416595
0.445095
0.465845
0.442424
0.410688
0.379433
0.476377
0.509268
0.434714
0.594771
0.424101
0.420432
0.274963
0.378509
0.337692
0.297934
0.357448
0.401232
0.490933
0.394545
0.193789
0.195929
0.119538
0.100131
0.228762
0.271944
0.293902
0.150773
0.188186
0.182358
0.154472
0.12996
0.186054
0.192345
0.209196
0.211341
0.178317
0.222312
0.312366
0.376302
0.239892
0.250956
0.135246
0.118749
0.29142
0.32686
0.278429
0.290484
0.283785
0.358004
0.391484
0.267423
0.161485
0.240586
0.292319
0.217922
0.124831
0.19791
0.182393
0.14036
0.300334
0.284464
0.289635
0.326219
0.203488
0.274967
0.295844
0.379266
0.433515
0.455473
0.329275
0.30145
0.221297
0.308507
0.296188
0.330838
0.238729
0.180113
0.163689
0.249578
0.215806
0.214055
0.337575
0.418833
0.639082
0.616048
0.650796
0.567843
0.433114
0.468982
0.598388
0.602408
0.258306
0.337166
0.487342
0.473117
0.465145
0.31929
0.741508
0.376946
0.805466
0.700478
0.616879
0.84339
0.495349
0.539221
0.390136
0.391029
0.476215
0.439282
0.37154
0.433001
0.465999
0.394294
0.53408
0.383587
0.402073
0.475171
0.429933
0.452191
0.0210717
0.0281148
0.039904
0.034067
0.453439
0.454556
0.502528
0.396236
0.547964
0.059498
0.488977
0.489535
0.477752
0.478878
0.472144
0.454014
0.454237
0.45841
0.486932
0.487634
0.44171
0.294096
0.655055
0.411771
0.573224
0.465759
0.520683
0.484648
0.671281
0.43908
0.43978
0.454105
0.429716
0.489485
0.483824
0.500419
0.452294
0.483005
0.411832
0.45026
0.51762
0.484657
0.465425
0.451128
0.662585
0.629083
0.438359
0.544404
0.541582
0.522707
0.520825
0.751347
0.614431
0.807081
0.676033
0.736197
0.699178
0.610821
0.723222
0.768852
0.719978
0.531277
0.737578
0.688854
0.82091
0.711172
0.348099
0.693283
0.351263
0.547265
0.418346
0.457323
0.738139
0.558631
0.87082
0.481275
0.47947
0.604845
0.823188
0.525173
0.67957
0.561139
0.35421
0.680635
0.27571
0.245545
0.0990346
0.357697
0.586267
0.138594
0.852718
0.409596
0.854984
0.0497382
0.163849
0.664765
0.975817
0.958111
0.925304
0.643864
0.172597
0.233463
0.163745
0.361407
0.416937
0.500746
0.322363
0.427507
0.270513
0.268594
0.346644
0.343043
0.350168
0.332626
0.127905
0.185315
0.00611138
0.0960736
0.043976
0.423044
0.11775
0.063761
0.0726866
0.032646
0.673744
0.818088
0.306289
0.701294
0.115219
0.122438
0.556709
0.549937
0.668476
0.584853
0.306279
0.560462
0.192822
0.486075
0.507335
0.752912
0.302185
0.575258
0.152987
0.426662
0.176604
0.289173
0.299275
0.532349
0.176134
0.173716
0.132663
0.100789
0.520704
0.409422
0.546115
0.421059
0.259589
0.291147
0.431372
0.194815
0.184289
0.265641
0.190825
0.328947
0.12748
0.11865
0.0728615
0.0561095
0.105793
0.203269
0.165616
0.213095
0.00809726
0.796453
0.576207
0.572911
0.577084
0.160965
0.144
0.0253781
0.125838
0.0862568
0.0262167
0.0545952
0.0207471
0.023652
0.0693991
0.0533077
0.127362
0.05318
0.0568919
0.0766555
0.0064805
0.0558738
0.0881863
0.0674974
0.141194
0.0442702
0.997233
0.0706102
0.0279354
0.12888
0.0656175
0.0696245
0.0876023
0.114258
0.0801768
0.0733269
0.0143869
0.0784659
0.141073
0.0775435
0.193106
0.674989
0.515784
0.73592
0.126058
0.642827
0.713447
0.701361
0.00674527
0.537733
0.074063
0.0744574
0.109733
0.494647
0.0504143
0.287866
0.302848
0.747183
0.311796
0.749047
0.172724
0.455757
0.148911
0.319249
0.750321
0.721099
0.514041
0.538218
0.454105
0.512999
0.850921
0.812055
0.266984
0.260953
0.125138
0.179412
0.268039
0.311281
0.324978
0.284671
0.195381
0.310224
0.32492
0.3081
0.419086
0.499941
0.173147
0.319051
0.0973404
0.0713035
0.641599
0.684947
0.757841
0.904707
0.119102
0.691447
0.214902
0.263197
0.434604
0.363149
0.348823
0.113198
0.0559009
0.143711
0.11494
0.0753248
0.0680697
0.0460914
0
0.0332429
0.0606853
0.0331981
0.13843
0.0789501
0.0686632
0.0549746
0.0324693
0.0275209
0.0744593
0.0527976
0.0917732
0.144417
0.180599
0.109113
0.0341203
0.0870974
0.0863323
0.0599163
0.138219
0.0805905
0.069507
0.0914102
0.0235737
0.0877275
0.277259
0.0587835
0.662447
0.0649056
0.497258
0.0148755
0.204077
0.133534
0.183098
0.0773057
0.145451
0.60691
0.13117
0.24706
0.148085
0.211516
0.105446
0.0710685
0.198597
0.127774
0.149228
0.159344
0.244464
0.304253
0.345793
0.345468
0.155361
0.18199
0.179508
0.158591
0.401619
0.233038
0.0288473
0.162568
0.851604
0.801043
0.867685
0.868254
0.799023
0.938515
0.924987
0.773722
0.809329
0.826196
0.831603
0.847918
0.491978
0.766312
0.878874
0.524642
0.669432
0.629605
0.617978
0.427268
0.544596
0.71963
0.935555
0.894666
0.800804
0.811434
0.806591
0.780994
0.782761
0.758802
0.907452
0.867665
0.862562
0.939781
0.43022
0.749963
0.385853
0.361325
0.7557
0.412306
0.836485
0.787653
0.856278
0.897034
0.407541
0.745512
0.689685
0.855819
0.493919
0.458124
0.465942
0.551694
0.468548
0.608715
0.598659
0.742886
0.592794
0.809322
0.800848
0.775464
0.803109
0.716383
0.688175
0.710144
0.706226
0.83915
0.871363
0.723044
0.659292
0.740391
0.735812
0.714004
0.752525
0.665424
0.687762
0.760944
0.681935
0.509887
0.450707
0.467888
0.577242
0.519128
0.456404
0.439418
0.583471
0.606395
0.663811
0.755161
0.751736
0.738917
0.736913
0.686287
0.718504
0.826058
0.867992
0.726264
0.423365
0.658747
0.618639
0.419689
0.623412
0.590768
0.55245
0.656785
0.663446
0.663642
0.744587
0.576174
0.397585
0.39968
0.400256
0.400345
0.553392
0.54673
0.883764
0.859888
0.396553
0.39731
0.478075
0.540272
0.524065
0.566932
0.437348
0.571855
0.623592
0.580268
0.620018
0.598526
0.43707
0.476179
0.446554
0.44635
0.396298
0.877304
0.401184
0.402487
0.409843
0.449537
0.425534
0.394154
0.396584
0.396478
0.408342
0.40699
0.508429
0.551791
0.512907
0.468615
0.599162
0.554511
0.595962
0.589842
0.527045
0.582381
0.857569
0.857091
0.550865
0.631751
0.865881
0.865847
0.428227
0.417095
0.870305
0.510722
0.656592
0.655996
0.442355
0.448616
0.456242
0.674197
0.488514
0.484918
0.83202
0.619133
0.818484
0.817784
0.64835
0.651642
0.907315
0.907331
0.866148
0.898354
0.678358
0.679121
0.669965
0.432601
0.445223
0.614159
0.6566
0.658919
0.665067
0.438466
0.665944
0.417779
0.626969
0.4406
0.623498
0.625098
0.432458
0.416721
0.675757
0.675691
0.68053
0.699892
0.614513
0.619741
0.818177
0.619586
0.481271
0.664621
0.618396
0.617826
0.821045
0.817687
0.606527
0.487717
0.432487
0.423978
0.456727
0.431258
0.557717
0.599381
0.532283
0.522046
0.487564
0.602832
0.591305
0.632849
0.514104
0.63074
0.617534
0.615928
0.486032
0.516929
0.527989
0.542019
0.50445
0.533801
0.470513
0.450008
0.482412
0.414374
0.661592
0.611498
0.4095
0.409639
0.457299
0.410344
0.445262
0.491184
0.420973
0.452806
0.426888
0.473573
0.442075
0.59087
0.409423
0.41144
0.560476
0.442877
0.575636
0.566162
0.625441
0.414955
0.489398
0.408496
0.543425
0.597346
0.622274
0.543517
0.436069
0.409655
0.453699
0.544873
0.539631
0.557481
0.449291
0.453814
0.487181
0.5961
0.663337
0.663343
0.444811
0.445565
0.714424
0.713033
0.732179
0.541016
0.803751
0.802594
0.826673
0.82691
0.784816
0.786161
0.762108
0.789302
0.7283
0.62932
0.784089
0.685393
0.77703
0.77978
0.800723
0.836462
0.78416
0.780909
0.748708
0.735268
0.76961
0.771091
0.657737
0.614724
0.732097
0.609307
0.720481
0.735894
0.766278
0.764124
0.714103
0.742289
0.87104
0.850992
0.790415
0.843171
0.779136
0.631223
0.854266
0.693106
0.869617
0.850062
0.682601
0.878871
0.61824
0.704134
0.834649
0.844459
0.847607
0.885297
0.359107
0.414984
0.854542
0.853145
0.61024
0.845624
0.363379
0.38286
0.564385
0.956052
0.877036
0.86376
0.818473
0.751546
0.392435
0.375426
0.413323
0.406651
0.362786
0.39305
0.434585
0.411107
0.349794
0.36536
0.288234
0.309228
0.340836
0.341519
0.388785
0.366671
0.564965
0.561107
0.535765
0.496842
0.34736
0.355427
0.266909
0.294054
0.59091
0.54885
0.30955
0.522252
0.427368
0.399784
0.518232
0.387459
0.399978
0.403636
0.393819
0.395866
0.453312
0.425905
0.450325
0.400951
0.433554
0.500254
0.881227
0.550501
0.444951
0.428763
0.416656
0.43794
0.840534
0.836908
0.580222
0.823072
0.618215
0.54719
0.55148
0.752521
0.792554
0.745679
0.595873
0.62565
0.624425
0.633138
0.812603
0.789604
0.698089
0.610331
0.498931
0.570456
0.53878
0.622324
0.428743
0.550413
0.827981
0.840339
0.687687
0.703844
0.634372
0.624131
0.842015
0.504056
0.415816
0.470836
0.537205
0.403693
0.445075
0.449164
0.551886
0.617887
0.377089
0.3893
0.402966
0.491649
0.432734
0.421583
0.725399
0.384698
0.376821
0.402136
0.470904
0.394179
0.344633
0.337288
0.415986
0.364877
0.587333
0.276704
0.592647
0.419812
0.346863
0.38502
0.492899
0.400813
0.253319
0.261167
0.275314
0.284991
0.340476
0.330186
0.558821
0.481571
0.366951
0.355134
0.389113
0.351165
0.323535
0.325673
0.28413
0.290784
0.360249
0.775995
0.344124
0.733698
0.885876
0.827389
0.736896
0.45805
0.906301
0.412459
0.909332
0.854434
0.880429
0.845085
0.36178
0.372011
0.856022
0.862027
0.857877
0.836719
0.858855
0.593009
0.508014
0.680978
0.829338
0.628343
0.871446
0.469221
0.856806
0.771998
0.803409
0.62821
0.857448
0.845054
0.777238
0.833944
0.803113
0.791996
0.800468
0.674632
0.469381
0.521047
0.75677
0.755384
0.755846
0.72103
0.841894
0.706128
0.643991
0.641632
0.680955
0.648855
0.596815
0.558868
0.766125
0.76004
0.607743
0.605503
0.547986
0.606247
0.582343
0.770743
0.560374
0.809018
0.546724
0.235919
0.534691
0.441787
0.50793
0.43655
0.611462
0.593124
0.390523
0.312392
0.840545
0.869862
0.830881
0.884929
0.446621
0.546839
0.305999
0.733723
0.291194
0.543183
0.512133
0.423956
0.690698
0.525361
0.41289
0.511713
0.660168
0.596531
0.51848
0.477082
0.483093
0.342599
0.178856
0.394985
0.394564
0.292057
0.126468
0.0788178
0.114319
0.123225
0.446203
0.308496
0.208263
0.160815
0.274049
0.479236
0.202218
0.217651
0.586898
0.522602
0.175265
0.17197
0.134347
0.155424
0.152055
0.135298
0.582718
0.149796
0.114538
0.129252
0.183937
0.260346
0.169905
0.597841
0.194398
0.109606
0.0943078
0.187721
0.0959312
0.108839
0.190821
0.175626
0.122885
0.078062
0.106503
0.140137
0.148778
0.110465
0.10728
0.0949524
0.356939
0.107577
0.33933
0.603368
0.202847
0.105869
0.146827
0.131538
0.350946
0.217207
0.164628
0.293378
0.467914
0.161801
0.16251
0.232104
0.266537
0.465099
0.488246
0.235801
0.588058
0.383777
0.331799
0.45825
0.303819
0.553919
0.458181
0.322209
0.509495
0.512943
0.534386
0.579004
0.340725
0.851104
0.558677
0.520972
0.747965
0.613928
0.51275
0.576789
0.477866
0.560027
0.229415
0.646046
0.618691
0.434019
0.429032
0.551449
0.481883
0.46089
0.255441
0.434839
0.293997
0.323891
0.388773
0.419445
0.237012
0.14897
0.153369
0.119673
0.15905
0.236512
0.421042
0.289551
0.458356
0.479778
0.278958
0.350844
0.207297
0.407352
0.43883
0.136549
0.279811
0.201266
0.544662
0.565126
0.38319
0.611512
0.156004
0.155807
0.348196
0.20455
0.160762
0.205207
0.186856
0.605544
0.586338
0.606313
0.60518
0.588556
0.130344
0.10213
0.143564
0.318354
0.116231
0.285523
0.415488
0.405227
0.351636
0.413765
0.136869
0.145386
0.13948
0.153758
0.477146
0.576019
0.43137
0.452797
0.359422
0.394721
0.554987
0.566531
0.33579
0.317397
0.244705
0.252431
0.227436
0.24399
0.345171
0.283037
0.222248
0.252571
0.284004
0.243211
0.214727
0.206868
0.237688
0.272863
0.134494
0.158936
0.109566
0.138523
0.215913
0.190418
0.242045
0.218365
0.198271
0.167073
0.25003
0.20146
0.204548
0.178216
0.132788
0.139724
0.199822
0.262283
0.307815
0.288578
0.370063
0.341586
0.32267
0.478303
0.361749
0.386799
0.446236
0.833059
0.638865
0.466386
0.353806
0.434652
0.854347
0.674275
0.629739
0.662122
0.444015
0.748696
0.870117
0.789574
0.149536
0.543964
0.357053
0.563813
0.544966
0.600019
0.865784
0.861463
0.748568
0.424194
0.333095
0.59655
0.338705
0.595437
0.745243
0.709879
0.326585
0.487491
0.506336
0.482932
0.580944
0.553569
0.533037
0.83533
0.690473
0.788517
0.732712
0.710678
0.799483
0.860206
0.541388
0.582162
0.77586
0.754452
0.75248
0.745357
0.642744
0.730347
0.742537
0.748237
0.392071
0.471469
0.240455
0.410665
0.254021
0.517029
0.377441
0.433846
0.674737
0.702672
0.731701
0.412606
0.365313
0.487249
0.574765
0.602548
0.380877
0.376293
0.321325
0.325553
0.519481
0.439661
0.399764
0.495904
0.340535
0.302136
0.205531
0.359715
0.374148
0.418408
0.289509
0.341803
0.603073
0.610697
0.689185
0.64183
0.832431
0.801105
0.322684
0.305313
0.80728
0.655921
0.769954
0.740904
0.81206
0.767102
0.717073
0.729025
0.706661
0.664956
0.529191
0.555677
0.619078
0.359827
0.712207
0.696008
0.71708
0.564092
0.547086
0.516489
0.574771
0.606634
0.518349
0.504615
0.704904
0.596134
0.828214
0.53859
0.618765
0.592524
0.615125
0.187535
0.887912
0.856533
0.784796
0.772099
0.384245
0.823257
0.677245
0.867849
0.362417
0.760588
0.348279
0.487299
0.608796
0.625088
0.622663
0.465438
0.235514
0.2697
0.331548
0.504822
0.413591
0.208997
0.286066
0.288552
0.331903
0.324115
0.298608
0.315272
0.242071
0.31002
0.244166
0.247415
0.169176
0.173426
0.11804
0.148423
0.222254
0.174396
0.240419
0.196782
0.133297
0.179237
0.333031
0.225999
0.186068
0.197219
0.114881
0.145756
0.535075
0.369293
0.272595
0.836265
0.254246
0.246689
0.293615
0.253825
0.19499
0.329357
0.309045
0.347491
0.444699
0.317863
0.441783
0.22222
0.38997
0.379957
0.637332
0.606986
0.399786
0.445276
0.335905
0.390489
0.703436
0.656173
0.587446
0.693504
0.336106
0.306638
0.454687
0.556941
0.427919
0.408348
0.560743
0.385678
0.429909
0.48184
0.505789
0.508258
0.493908
0.716941
0.513995
0.524166
0.417087
0.389259
0.371177
0.411436
0.527564
0.519378
0.625121
0.612351
0.483243
0.579861
0.578493
0.611405
0.715483
0.466002
0.683233
0.53918
0.516582
0.506939
0.699151
0.737425
0.846346
0.467768
0.47799
0.43429
0.523357
0.472997
0.480246
0.456617
0.471196
0.485863
0.785201
0.5137
0.487003
0.433898
0.439874
0.433236
0.672929
0.706222
0.510229
0.46642
0.523272
0.50798
0.554514
0.481445
0.709677
0.552095
0.63655
0.583329
0.50976
0.609118
0.550168
0.436949
0.491414
0.526648
0.402657
0.456386
0.432756
0.431506
0.481514
0.613462
0.56035
0.601044
0.432171
0.595365
0.648646
0.685077
0.659884
0.68742
0.684991
0.727609
0.775671
0.685529
0.673378
0.709134
0.619072
0.682588
0.682863
0.689085
0.598237
0.591015
0.641322
0.572267
0.650228
0.873731
0.521144
0.49441
0.58946
0.531599
0.600676
0.61942
0.506933
0.58394
0.259918
0.367174
0.407144
0.180293
0.684187
0.349163
0.327221
0.74215
0.576363
0.471164
0.581624
0.248558
0.452977
0.533668
0.725049
0.472217
0.802377
0.605717
0.490465
0.515522
0.670646
0.50293
0.454696
0.478016
0.548895
0.381908
0.43041
0.345558
0.576497
0.381555
0.547451
0.496512
0.659443
0.659857
0.308776
0.73061
0.466576
0.790908
0.409381
0.272765
0.708322
0.441748
0.577151
0.450897
0.588359
0.444569
0.43512
0.374783
0.557306
0.806548
0.446123
0.498254
0.439642
0.37851
0.463254
0.534501
0.548244
0.692845
0.565745
0.617641
0.329343
0.880939
0.459279
0.315742
0.537727
0.500134
0.441801
0.606992
0.696557
0.650936
0.731383
0.594097
0.67865
0.743869
0.678926
0.737745
0.546126
0.541262
0.722366
0.619448
0.499933
0.492874
0.658107
0.574503
0.635976
0.728231
0.773711
0.556647
0.477474
0.754402
0.649243
0.732141
0.702495
0.666712
0.425454
0.549447
0.190071
0.227328
0.188824
0.242945
0.216095
0.201468
0.223616
0.188421
0.259389
0.242602
0.239488
0.252815
0.180191
0.24586
0.244962
0.250417
0.259745
0.260091
0.210056
0.216858
0.209675
0.205201
0.218956
0.241456
0.206281
0.179274
0.203408
0.194844
0.197756
0.202021
0.188796
0.184615
0.199662
0.174829
0.205046
0.210432
0.189119
0.174723
0.176564
0.152073
0.257388
0.258277
0.214323
0.207236
0.180147
0.19303
0.237333
0.232738
0.271043
0.287918
0.22995
0.242546
0.217216
0.221475
0.271755
0.256218
0.174286
0.234844
0.16239
0.163892
0.195434
0.231932
0.203822
0.20867
0.180309
0.150393
0.204866
0.166995
0.474471
0.15358
0.44302
0.446702
0.213475
0.249493
0.178441
0.175269
0.194803
0.180538
0.189643
0.168021
0.427134
0.428167
0.351607
0.297507
0.131777
0.21187
0.171453
0.21623
0.334679
0.173061
0.117866
0.265842
0.14757
0.205845
0.357102
0.204556
0.145713
0.153697
0.179323
0.205634
0.179777
0.262202
0.163897
0.159897
0.358454
0.357398
0.338999
0.373405
0.217279
0.282913
0.209409
0.271947
0.345795
0.344269
0.285897
0.304487
0.263417
0.216338
0.342433
0.302873
0.208033
0.221009
0.173756
0.206028
0.221502
0.200097
0.206
0.212705
0.160282
0.157246
0.151921
0.163036
0.200686
0.247784
0.169774
0.21622
0.206003
0.213978
0.200184
0.205378
0.200097
0.200971
0.162406
0.215167
0.343457
0.284472
0.385223
0.297718
0.206709
0.39434
0.221907
0.31628
0.35586
0.373745
0.205175
0.247824
0.220781
0.257915
0.380457
0.400712
0.343639
0.296581
0.367587
0.344459
0.158942
0.16315
0.127187
0.224453
0.417044
0.426059
0.21462
0.261618
0.196857
0.203386
0.372924
0.324236
0.233842
0.236281
0.160038
0.220643
0.234166
0.196078
0.199565
0.186688
0.368647
0.116678
0.446165
0.145064
0.475421
0.1683
0.263539
0.157065
0.327429
0.767521
0.302374
0.631005
0.898311
0.273326
0.202323
0.0596881
0.301183
0.161474
0.269218
0.266328
0.656328
0.21751
0.205297
0.254968
0.210985
0.811442
0.772387
0.435178
0.615012
0.251502
0.203948
0.400774
0.881755
0.749732
0.756004
0.814367
0.209292
0.173407
0.213937
0.72282
0.248106
0.863238
0.746614
0.059689
0.530302
0.221473
0.623444
0.26907
0.418253
0.599109
0.191756
0.754802
0.2252
0.314665
0.148881
0.737268
0.537148
0.231677
0.607893
0.262001
0.138018
0.332747
0.185644
0.23913
0.176708
0.255534
0.544628
0.793861
0.540372
0.274822
0.183267
0.575595
0.229205
0.255914
0.457601
0.243324
0.952639
0.732025
0.280811
0.656922
0.274416
0.288722
0.684496
0.681169
0.928953
0.633236
0.551358
0.68432
0.258051
0.583694
0.560506
0.557488
0.249911
0.310604
0.542173
0.580401
0.619401
0.279689
0.280657
0.582038
0.264325
0.764651
0.941144
0.670588
0.786802
0.288722
0.288333
0.274645
0.263463
0.804887
0.830289
0.655209
0.684027
0.815505
0.733273
0.741168
0.650142
0.790744
0.753587
0.743899
0.697661
0.773217
0.739725
0.685038
0.781891
0.832067
0.841714
0.851382
0.813813
0.739846
0.829195
0.751195
0.807046
0.847452
0.769126
0.773102
0.756134
0.755213
0.744791
0.768591
0.832607
0.725239
0.747862
0.761712
0.757168
0.763034
0.762965
0.763794
0.76635
0.789078
0.779282
0.765346
0.783899
0.795545
0.802471
0.774809
0.828946
0.860229
0.842059
0.810316
0.819947
0.795974
0.829902
0.77746
0.839138
0.852625
0.851392
0.801371
0.785951
0.803317
0.818488
0.822407
0.823927
0.695819
0.721893
0.788335
0.750721
0.812457
0.753941
0.796285
0.804514
0.717905
0.724094
0.720105
0.723165
0.788165
0.740276
0.80019
0.730555
0.698211
0.6999
0.789184
0.762043
0.788027
0.742954
0.72216
0.699005
0.846027
0.843186
0.707635
0.852004
0.777323
0.790657
0.816625
0.730397
0.707328
0.831472
0.77407
0.738305
0.784847
0.775161
0.707407
0.832481
0.843598
0.853627
0.735917
0.742706
0.813616
0.77109
0.824492
0.818143
0.718389
0.72501
0.799919
0.739259
0.807924
0.776483
0.71787
0.741809
0.707313
0.83004
0.722544
0.829177
0.763421
0.758055
0.765254
0.767272
0.878286
0.824733
0.814825
0.77504
0.817354
0.815224
0.835246
0.822654
0.752387
0.774979
0.787927
0.861092
0.758266
0.83047
0.751044
0.753849
0.80443
0.748752
0.794827
0.801853
0.778067
0.794201
0.778145
0.711386
0.883186
0.833826
0.81505
0.855713
0.780683
0.839281
0.797421
0.828781
0.858646
0.774979
0.750294
0.850582
0.7801
0.832935
0.777867
0.84836
0.823199
0.844713
0.775349
0.803833
0.8001
0.738209
0.752369
0.714429
0.727526
0.744454
0.749403
0.743273
0.731331
0.736448
0.72873
0.722052
0.864002
0.741216
0.838379
0.737954
0.74514
0.729037
0.751194
0.860343
0.800043
0.848748
0.719377
0.830888
0.813362
0.819532
0.814019
0.822293
0.888115
0.917648
0.943514
0.915982
0.917602
0.763044
0.793612
0.800492
0.839763
0.274487
0.640998
0.644188
0.679962
0.943053
0.940843
0.257921
0.479258
0.262823
0.275142
0.915493
0.911871
0.260475
0.640673
0.236258
0.254389
0.625471
0.261429
0.342039
0.557141
0.260474
0.649975
0.626201
0.611453
0.77309
0.255649
0.68303
0.249244
0.290131
0.588275
0.511138
0.210783
0.599407
0.256618
0.286897
0.21021
0.290132
0.621336
0.247987
0.215488
0.336433
0.254057
0.223314
0.217129
0.413872
0.133989
0.793766
0.539651
0.248198
0.544911
0.234971
0.205542
0.163098
0.13299
0.25924
0.150021
0.22478
0.542227
0.964972
0.537993
0.244933
0.204491
0.946019
0.788289
0.75264
0.768232
0.250104
0.196171
0.236526
0.261453
0.313949
0.199571
0.183455
0.745153
0.146283
0.284248
0.220108
0.226812
0.196379
0.536989
0.801707
0.418734
0.793561
0.218895
0.24178
0.204491
0.284914
0.225235
0.877473
0.913902
0.402188
1
0.172826
0.182355
0.496707
0.593707
0.252672
0.667316
0.242302
0.296084
0.186606
0.331226
0.247333
0.194229
0.692168
0.165689
0.496707
0.206968
0.366252
0.299029
0.56841
0.54266
0.694066
0.208643
0.210217
0.370394
0.480534
0.334506
0.222929
0.500568
0.732886
0.211008
0.568037
0.246398
0.575672
0.513604
0.653902
0.669128
0.582816
0.656008
0.660999
0.668305
0.67433
0.719416
0.779599
0.775371
0.787209
0.525167
0.78163
0.789053
0.84144
0.819372
0.578627
0.819375
0.818321
0.81022
0.797254
0.773561
0.661737
0.698577
0.777434
0.728334
0.766004
0.794503
0.778665
0.800422
0.781213
0.723834
0.766054
0.482164
0.105908
0.151604
0.139218
0.115587
0.0353471
0.0823093
0.0805262
0.0937911
0.163957
0.068698
0.0875998
0.0774262
0.0380177
0.151618
0.610325
0.0910392
0.193106
0.111545
0.117113
0.0834441
0.0176117
0.052372
0.0659661
0.0479319
0.134326
0.0821671
0.075988
0.0592273
0.0386805
0.0426746
0.137498
0.113478
0.262886
0.262571
0.211199
0.235711
0.226353
0.233269
0.282476
0.256181
0.151558
0.185543
0.103382
0.14874
0.187072
0.196074
0.249525
0.229655
0.134982
0.183726
0.256018
0.172311
0.242805
0.22413
0.112278
0.162265
0.378877
0.300707
0.289173
0.266572
0.264367
0.282077
0.259117
0.276355
0.661809
0.280618
0.967573
0.307673
0.321255
0.385556
0.280554
0.294459
0.271665
0.311097
0.331535
0.342485
0.346494
0.715721
0.423841
0.32788
0.355567
0.40421
0.372651
0.317897
0.317782
0.282913
0.312932
0.890882
0.353924
0.378176
0.346507
0.338189
0.73278
0.395469
0.371963
0.815152
0.813861
0.851195
0.848494
0.758762
0.719338
0.873777
0.858795
0.835628
0.808885
0.798107
0.806181
0.865854
0.765032
0.821391
0.843602
0.810506
0.803073
0.843871
0.784233
0.785519
0.782481
0.807967
0.821428
0.708828
0.719572
0.758931
0.757394
0.871718
0.766953
0.759544
0.744998
0.816874
0.846497
0.818985
0.856065
0.870777
0.86647
0.873758
0.86729
0.799822
0.682778
0.77935
0.777773
0.811583
0.83779
0.805075
0.779116
0.620222
0.891228
0.948539
0.827646
0.795
0.774768
0.885711
0.871788
0.665024
0.712899
0.256502
0.408013
0.651085
0.238126
0.842467
0.806592
0.850758
0.673809
0.793614
0.845831
0.666712
0.699716
0.612007
0.694461
0.722852
0.726511
0.72296
0.726189
0.133055
0.218249
0.192737
0.398226
0.676704
0.854205
0.744469
0.180445
0.110903
0.188451
0.722749
0.728353
0.121746
0.0972037
0.0336065
0.160087
0.26628
0.514756
0.108258
0.111781
0.134207
0.0627514
0.0517543
0.0519066
0.0333608
0.0478085
0.0451535
0.0588858
0.845193
0.699184
0.850899
0.722072
0.205202
0.455902
0.439241
0.835338
0.722877
0.726717
0.151707
0.166292
0.127536
0.171731
0.700032
0.727844
0.156116
0.0586972
0.0546421
0.0274439
0.239808
0.422797
0.095765
0.153221
0.310357
0.113543
0.142359
0.105697
0.0531503
0.0914525
0.00379866
0.0843309
0.793538
0.868119
0.865399
0.873049
0.872509
0.874307
0.741959
0.758212
0.799375
0.822609
0.843293
0.623525
0.773537
0.775072
0.861663
0.791066
0.179213
0.199252
0.749786
0.776429
0.284242
0.669044
0.411475
0.247008
0.584701
0.347492
0.74155
0.903288
0.82596
0.831787
0.686942
0.625111
0.828808
0.598362
0.834993
0.868728
0.790632
0.825493
0.804734
0.811652
0.834229
0.815299
0.875435
0.873626
0.763543
0.829938
0.870463
0.85164
0.878081
0.874487
0.844876
0.699182
0.744665
0.576398
0.842002
0.725169
0.80215
0.880469
0.864317
0.865104
0.833505
0.813383
0.834859
0.816056
0.883591
0.869949
0.643582
0.379613
0.595554
0.363287
0.328204
0.294466
0.30367
0.552628
0.276549
0.343762
0.340022
0.368934
0.475605
0.801138
0.498863
0.789348
0.822801
0.353107
0.322763
0.350682
0.346208
0.287254
0.324401
0.345597
0.338329
0.272468
0.286318
0.317276
0.306832
0.406729
0.343572
0.241946
0.264917
0.33681
0.279405
0.284339
0.459727
0.268329
0.252055
0.222248
0.262051
0.262133
0.230389
0.255616
0.212201
0.223403
0.206668
0.335673
0.308395
0.25823
0.260438
0.231245
0.261474
0.305808
0.278082
0.193431
0.176324
0.130264
0.15969
0.229857
0.204659
0.210985
0.183669
0.138845
0.176293
0.227902
0.21047
0.208404
0.190265
0.108333
0.153497
0.12193
0.0419632
0.110689
0.108438
0.0170062
0.106506
0.0863329
0.0794434
0.106137
0.159836
0.0746389
0.0597096
0.0198458
0.0739536
0.155301
0.143106
0.169631
0.0827253
0.123111
0.0619304
0.0249535
0.0440629
0.0813565
0.0749929
0.174148
0.109009
0.0797691
0.0755814
0.0139796
0.0436361
0.164431
0.0774253
0.214899
0.186255
0.249239
0.2139
0.222745
0.203438
0.104908
0.135277
0.380868
0.382794
0.302559
0.289306
0.245957
0.279463
0.353394
0.342036
0.318804
0.292228
0.226646
0.239095
0.247837
0.226274
0.320464
0.268166
0.143761
0.181946
0.108969
0.137607
0.218141
0.192941
0.215697
0.208873
0.469771
0.372596
0.365259
0.42811
0.456843
0.372669
0.378916
0.434199
0.631897
0.622493
0.567385
0.560409
0.601246
0.611711
0.609179
0.593402
0.679231
0.494802
0.275534
0.589399
0.161111
0.48236
0.640173
0.637383
0.701789
0.232179
0.521033
0.106881
0.645296
0.205121
0.180941
0.210941
0.548505
0.553085
0.447115
0.540944
0.582513
0.622106
0.678699
0.64645
0.0656892
0.610886
0.648203
0.625159
0.647714
0.225148
0.364334
0.465675
0.300641
0.508802
0.646634
0.414468
0.583515
0.650544
0.598727
0.500063
0.598258
0.61284
0.553054
0.603986
0.628821
0.6245
0.644415
0.549981
0.739465
0.597318
0.64971
0.785519
0.841341
0.794334
0.665305
0.822894
0.76338
0.7644
0.651685
0.624083
0.540791
0.613774
0.581803
0.628367
0.747106
0.544198
0.66598
0.613495
0.630625
0.616364
0.633654
0.618759
0.731143
0.736438
0.801804
0.56624
0.674258
0.659757
0.787181
0.519443
0.749721
0.702452
0.504779
0.660962
0.726929
0.67442
0.63537
0.66471
0.5771
0.849812
0.675922
0.601535
0.642991
0.666016
0.513199
0.511127
0.62172
0.570609
0.751599
0.577446
0.874534
0.720809
0.896244
0.574801
0.620194
0.449006
0.535724
0.413526
0.714517
0.703816
0.688287
0.679511
0.643915
0.661089
0.669664
0.656502
0.671404
0.787944
0.737433
0.797065
0.647879
0.704723
0.712299
0.726825
0.587475
0.516616
0.761673
0.655504
0.664317
0.463299
0.564396
0.503924
0.587906
0.586422
0.656179
0.626185
0.59118
0.570586
0.599274
0.54625
0.656388
0.613012
0.558764
0.619832
0.60772
0.47886
0.579721
0.542787
0.547771
0.621193
0.505262
0.538824
0.670125
0.352019
0.570822
0.658201
0.64081
0.64112
0.804993
0.747073
0.800296
0.808245
0.621619
0.648335
0.527744
0.660123
0.60667
0.643282
0.61489
0.826312
0.738995
0.829404
0.635734
0.650296
0.644698
0.823012
0.617808
0.823548
0.637829
0.649123
0.664558
0.709675
0.668864
0.772758
0.798387
0.806041
0.80761
0.535425
0.680778
0.56636
0.777276
0.675257
0.779423
0.751374
0.636184
0.586509
0.697877
0.660803
0.727095
0.684156
0.725386
0.682854
0.712891
0.679221
0.754943
0.749155
0.741745
0.750287
0.783443
0.785177
0.782686
0.760114
0.551768
0.631788
0.791835
0.768753
0.706482
0.766089
0.787637
0.641494
0.450401
0.617921
0.445466
0.617156
0.754289
0.624254
0.763684
0.589149
0.657334
0.703011
0.756636
0.680328
0.755458
0.649751
0.462031
0.699797
0.747842
0.733817
0.801555
0.733545
0.693918
0.738354
0.667907
0.738647
0.800011
0.756358
0.678485
0.629882
0.772154
0.746644
0.804118
0.754754
0.481425
0.361579
0.478091
0.39814
0.351565
0.344916
0.348582
0.472263
0.388506
0.299523
0.333789
0.32159
0.356771
0.441066
0.391135
0.393527
0.321034
0.340132
0.340772
0.3063
0.305833
0.292559
0.307371
0.420504
0.338506
0.307446
0.634891
0.305597
0.342581
0.336828
0.772048
0.789707
0.609255
0.850903
0.925154
0.892229
0.326643
0.911048
0.340542
0.488259
0.611941
0.605253
0.926165
0.294574
0.943455
0.857056
0.50303
0.350146
0.89422
0.312954
0.767183
0.899747
0.611941
0.899696
0.772047
0.311785
0.631357
0.897984
0.766514
0.898767
0.694256
0.306338
0.585984
0.309099
0.510029
0.30696
0.61125
0.69838
0.61547
0.730162
0.398918
0.317184
0.33216
0.35139
0.311959
0.312699
0.572661
0.344065
0.354383
0.329888
0.385289
0.356901
0.306268
0.310798
0.325297
0.289351
0.394872
0.426344
0.355939
0.360486
0.321335
0.356666
0.38472
0.374499
0.686095
0.635338
0.75667
0.745116
0.748434
0.760065
0.674938
0.747133
0.615269
0.551419
0.68616
0.653999
0.757138
0.725569
0.694537
0.730029
0.77024
0.7676
0.741189
0.748604
0.748328
0.74862
0.762711
0.771538
0.833594
0.67484
0.672664
0.64134
0.758255
0.743123
0.713613
0.719578
0.764511
0.626209
0.647914
0.620465
0.724944
0.622216
0.647454
0.647617
0.630791
0.831549
0.731311
0.731733
0.719648
0.719364
0.620664
0.62848
0.643095
0.733865
0.619769
0.748207
0.737012
0.763665
0.734716
0.760528
0.623117
0.746968
0.742125
0.743896
0.773101
0.774082
0.616067
0.74854
0.66835
0.660881
0.792001
0.75949
0.690468
0.711529
0.728516
0.763341
0.670492
0.786792
0.54644
0.553401
0.703759
0.71938
0.756198
0.815429
0.511501
0.459719
0.452213
0.465144
0.638962
0.413168
0.713737
0.474762
0.448801
0.409713
0.648729
0.422253
0.638359
0.528328
0.388878
0.382499
0.622267
0.594497
0.494846
0.630759
0.788598
0.621567
0.608803
0.610898
0.549731
0.602247
0.607903
0.605582
0.624154
0.538032
0.548507
0.486257
0.504351
0.673569
0.630595
0.570552
0.834668
0.826926
0.673541
0.646806
0.642329
0.644489
0.87991
0.660593
0.754779
0.704041
0.787408
0.663705
0.669083
0.0529105
0.746383
0.610217
0.639209
0.612786
0.520841
0.572399
0.725666
0.832399
0.728013
0.720502
0.684815
0.682811
0.813441
0.78466
0.748705
0.774558
0.706089
0.661323
0.676883
0.650524
0.70706
0.723278
0.880563
0.620365
0.625954
0.631056
0.627368
0.578064
0.804583
0.677091
0.33931
0.386755
0.434233
0.566203
0.689849
0.611994
0.557379
0.737813
0.57417
0.827571
0.764941
0.56496
0.781249
0.867291
0.425711
0.445299
0.805127
0.725691
0.768623
0.757078
0.682396
0.714739
0.656011
0.784583
0.689878
0.736149
0.720986
0.80715
0.765073
0.810996
0.838125
0.724715
0.366343
0.389722
0.345652
0.29779
0.266727
0.288708
0.301715
0.299352
0.231964
0.193414
0.109332
0.139795
0.220093
0.212524
0.300384
0.231542
0.142564
0.179613
0.235765
0.210042
0.22554
0.181554
0.102312
0.138132
0.33853
0.297807
0.338028
0.297421
0.204964
0.218881
0.237908
0.252469
0.372996
0.217223
0.209021
0.859899
0.694489
0.277285
0.574093
0.548822
0.200414
0.342666
0.49609
0.575995
0.700298
0.239147
0.31904
0.19614
0.1476
0.335219
0.229711
0.228539
0.255126
0.712938
0.49609
0.593924
0.52132
0.590651
0.575064
0.249765
0.732986
0.215209
0.208474
0.502649
0.31737
0.338915
0.216997
0.255669
0.206644
0.207562
0.29336
0.320534
0.120297
0.160208
0.10152
0.13173
0.220367
0.200655
0.246501
0.208489
0.181282
0.171093
0.258962
0.233446
0.253265
0.184417
0.100256
0.121802
0.357748
0.29607
0.302893
0.299102
0.223596
0.311874
0.318769
0.296219
0.674508
0.536495
0.715716
0.454462
0.541471
0.705192
0.650488
0.700862
0.629008
0.684153
0.556574
0.762469
0.496133
0.688063
0.724279
0.614815
0.445264
0.447106
0.389868
0.41309
0.497933
0.494187
0.674936
0.506763
0.285884
0.429457
0.764529
0.421386
0.517979
0.474387
0.3786
0.385418
0.745992
0.742784
0.715762
0.735777
0.610035
0.637061
0.689631
0.687775
0.407415
0.716411
0.356932
0.595322
0.756774
0.605705
0.580994
0.767196
0.608681
0.62068
0.733903
0.416232
0.756069
0.581821
0.688571
0.370397
0.62664
0.645107
0.799833
0.622618
0.597061
0.549567
0.731739
0.732613
0.658595
0.76483
0.645196
0.682672
0.643767
0.695603
0.70737
0.690607
0.424956
0.525615
0.586908
0.552614
0.638751
0.353636
0.702487
0.586052
0.652681
0.669849
0.623864
0.604087
0.654068
0.320198
0.591089
0.626036
0.748234
0.742363
0.674415
0.709096
0.664947
0.527904
0.633649
0.623703
0.655738
0.687001
0.722786
0.657996
0.703757
0.668281
0.610997
0.689106
0.606882
0.595734
0.603119
0.594341
0.589894
0.58786
0.59265
0.589529
0.618684
0.742024
0.712787
0.719475
0.586753
0.742617
0.747522
0.778841
0.685165
0.746573
0.536294
0.709613
0.719266
0.670978
0.612135
0.591408
0.491879
0.60727
0.592756
0.614561
0.688792
0.665558
0.670264
0.641761
0.605236
0.677511
0.754854
0.750871
0.714701
0.749696
0.598992
0.651784
0.739393
0.738896
0.709629
0.737759
0.685976
0.718518
0.686234
0.718409
0.727068
0.763356
0.678103
0.758191
0.685691
0.729109
0.714554
0.767441
0.483513
0.496428
0.478697
0.41187
0.408717
0.453325
0.434397
0.575635
0.396312
0.355623
0.320472
0.334905
0.426588
0.474673
0.506234
0.3876
0.388877
0.355888
0.536336
0.373316
0.346889
0.342079
0.320223
0.306556
0.494514
0.491471
0.377573
0.471141
0.363465
0.443844
0.535289
0.378122
0.570544
0.502852
0.562351
0.429683
0.660826
0.897603
0.649849
0.897359
0.60438
0.716837
0.277532
0.898759
0.650593
0.901882
0.550232
0.54715
0.32796
0.716837
0.56698
0.82096
0.650593
0.916261
0.60691
0.60295
0.579439
0.752264
0.656501
0.66456
0.660826
0.661533
0.574034
0.787177
0.450709
0.427938
0.439828
0.381165
0.367866
0.359343
0.363536
0.362316
0.393743
0.309053
0.324712
0.372116
0.324551
0.412288
0.443312
0.34097
0.456923
0.403125
0.41095
0.377459
0.360614
0.352945
0.295469
0.341868
0.409627
0.385649
0.392441
0.4322
0.386643
0.428878
0.405263
0.394349
0.834778
0.604999
0.787859
0.760404
0.776167
0.751786
0.772972
0.734897
0.739448
0.735468
0.713677
0.752021
0.749677
0.752206
0.804385
0.735092
0.586537
0.66656
0.554742
0.664473
0.759433
0.678293
0.760732
0.680452
0.597008
0.858892
0.819436
0.600463
0.759051
0.570241
0.544356
0.856099
0.765313
0.787369
0.723601
0.793732
0.791686
0.794226
0.76502
0.794768
0.834621
0.712865
0.700899
0.708
0.778643
0.768135
0.777666
0.756046
0.681516
0.766704
0.767194
0.645046
0.779617
0.717292
0.792916
0.691404
0.740403
0.742603
0.790336
0.795399
0.721126
0.744201
0.715377
0.782924
0.541159
0.782744
0.782668
0.799578
0.76127
0.799962
0.536754
0.782834
0.849813
0.835308
0.850421
0.835681
0.579679
0.822478
0.601182
0.82206
0.78474
0.629263
0.735401
0.671488
0.57738
0.674604
0.860861
0.838596
0.671286
0.625822
0.628752
0.781279
0.782271
0.801199
0.785636
0.739521
