OFF
400 780 0
-5.94298 13.8904 0.831977
-5.13298 13.3754 1.21098
-4.52898 13.4281 -0.064023
-5.35098 13.9575 -0.451023
-3.92798 13.3908 -1.55202
-4.71198 13.9112 -1.95202
-5.63898 14.085 -2.39502
-6.31098 14.134 -0.879023
-6.87998 14.0621 0.413977
-3.52598 13.2086 -2.93702
-3.39298 12.9508 -3.87902
-3.77098 13.2086 -4.49302
-4.19198 13.6828 -3.37302
-4.47398 13.3359 -5.01402
-4.99398 13.8425 -3.84702
-5.33698 13.2086 -5.14702
-6.03498 12.9508 -4.97702
-6.62798 13.2086 -4.24402
-5.87998 13.6828 -4.09202
-7.35498 13.3908 -3.00802
-6.57798 13.9112 -2.75602
-8.02198 13.4281 -1.55102
-8.53098 13.3754 -0.234023
-7.79298 13.8904 0.032977
-7.25298 13.9575 -1.27202
-5.41698 5.93725 0.175977
-4.94598 5.93725 -0.070023
-4.95198 5.94565 -0.089023
-5.41698 5.94565 0.153977
-4.95798 5.99675 -0.103023
-5.42098 5.99675 0.136977
-5.88798 5.99675 0.124977
-5.88698 5.94565 0.141977
-5.89298 5.93725 0.163977
-4.96798 6.13005 -0.120023
-4.98498 6.38495 -0.147023
-5.44898 6.38495 0.088977
-5.42998 6.13005 0.117977
-5.91498 6.38495 0.073977
-5.89598 6.13005 0.105977
-6.31098 6.38495 -0.171023
-6.56598 6.38495 -0.625023
-6.55098 6.13005 -0.590023
-6.29398 6.13005 -0.138023
-6.54598 5.99675 -0.570023
-6.28698 5.99675 -0.117023
-6.54998 5.94565 -0.557023
-6.29898 5.93725 -0.082023
-6.28898 5.94565 -0.102023
-4.20298 5.94565 -2.64702
-4.21098 5.99675 -2.64502
-4.16398 5.99675 -2.00402
-4.15498 5.94565 -2.00202
-4.29598 5.99675 -1.28902
-4.28698 5.94565 -1.28302
-4.21598 6.13005 -2.65602
-4.21998 6.38495 -2.67902
-4.17898 6.38495 -2.03902
-4.17098 6.13005 -2.01502
-4.31498 6.38495 -1.32602
-4.30398 6.13005 -1.30302
-4.59598 6.38495 -0.658023
-4.58098 6.13005 -0.633023
-4.57198 5.99675 -0.617023
-4.55398 5.93725 -0.593023
-4.56398 5.94565 -0.606023
-5.33498 5.99675 -3.35302
-4.86798 5.99675 -3.34102
-4.86498 5.94565 -3.34602
-5.33498 5.94565 -3.35702
-5.79898 6.13005 -3.12502
-5.80198 6.38495 -3.15702
-5.33798 6.38495 -3.39302
-5.33598 6.13005 -3.36402
-4.87198 6.38495 -3.37802
-4.86998 6.13005 -3.35102
-5.79798 5.99675 -3.11202
-4.47598 6.38495 -3.13302
-4.47298 6.13005 -3.10802
-4.46998 5.99675 -3.09802
-4.45198 5.93725 -3.11902
-4.46298 5.94565 -3.10202
-4.85898 5.93725 -3.36602
-6.59198 5.99675 -1.21102
-6.59698 5.94565 -1.20202
-6.45998 5.99675 -1.92602
-6.46498 5.94565 -1.92102
-6.60798 6.38495 -1.26502
-6.59598 6.13005 -1.23102
-6.47098 6.38495 -1.97802
-6.46298 6.13005 -1.94302
-6.19098 6.38495 -2.64602
-6.18598 6.13005 -2.61302
-6.18398 5.99675 -2.59802
-5.60598 8.20115 0.242977
-5.03598 8.20115 -0.023023
-4.98098 8.44775 0.266977
-5.65098 8.44775 0.575977
-4.89998 8.63155 0.679977
-5.68998 8.60915 1.02698
-6.47398 8.59645 0.948977
-6.30998 8.44775 0.527977
-6.16898 8.20115 0.203977
-4.80898 8.85425 1.19598
-4.72498 9.28775 1.86198
-5.79498 8.93085 2.02298
-5.72098 8.76485 1.54898
-6.80498 8.83535 1.80498
-6.64798 8.71405 1.40398
-7.74398 8.93085 1.32298
-8.53398 9.28775 0.478977
-7.97598 8.85425 0.072977
-7.46998 8.76485 0.927977
-7.54598 8.63155 -0.245023
-7.13898 8.60915 0.519977
-7.19398 8.44775 -0.499023
-6.92598 8.20115 -0.669023
-6.63798 8.20115 -0.109023
-6.85798 8.44775 0.157977
-3.97998 8.20115 -2.27502
-4.00298 8.20115 -3.05102
-3.75498 8.44775 -3.27702
-3.73198 8.44775 -2.36702
-3.45298 8.66085 -3.53602
-3.42998 8.66085 -2.46602
-3.70698 8.65755 -1.28102
-3.96498 8.44775 -1.36602
-4.17498 8.20115 -1.42002
-3.14798 8.97145 -3.79802
-2.88998 9.51045 -4.02802
-2.87898 9.51045 -2.66402
-3.12798 8.97145 -2.56702
-3.23798 9.49075 -1.11202
-3.44998 8.95835 -1.18102
-3.85998 9.43175 0.442977
-4.03098 8.91895 0.179977
-4.21898 8.64775 -0.160023
-4.54298 8.20115 -0.623023
-4.39998 8.44775 -0.434023
-5.32298 8.20115 -3.96202
-5.89298 8.20115 -3.69602
-5.96698 8.44775 -4.04202
-5.29698 8.44775 -4.35102
-6.05198 8.66085 -4.44602
-5.26298 8.66085 -4.80702
-4.48798 8.66085 -4.74802
-4.63798 8.44775 -4.30402
-4.75998 8.20115 -3.92402
-6.13098 8.97145 -4.86002
-6.18798 9.51045 -5.23302
-5.17498 9.51045 -5.67902
-5.22098 8.97145 -5.27002
-4.18798 9.51045 -5.59102
-4.32998 8.97145 -5.19702
-3.37698 9.51045 -5.02202
-3.59398 8.97145 -4.69002
-3.84498 8.66085 -4.31102
-4.29098 8.20115 -3.61002
-4.08998 8.44775 -3.93402
-6.94898 8.20115 -1.44502
-7.21698 8.44775 -1.40902
-7.55698 8.64775 -1.32902
-7.25998 8.65755 -2.52402
-6.98298 8.44775 -2.41002
-6.75298 8.20115 -2.30002
-8.31098 9.43175 -1.18002
-7.94998 8.91895 -1.21202
-7.79798 9.49075 -2.77802
-7.54798 8.95835 -2.63902
-7.07598 9.51045 -4.19702
-6.92498 8.97145 -3.91902
-6.73798 8.66085 -3.62502
-6.38598 8.20115 -3.09602
-6.54798 8.44775 -3.34102
-6.24998 10.2546 1.54398
-5.89498 10.4391 1.71998
-5.74498 10.8653 1.69798
-6.21898 10.8153 1.41998
-5.70598 11.4868 1.64598
-6.21598 11.4868 1.33898
-6.85898 11.4868 1.04698
-6.81398 10.7653 1.15698
-6.80098 10.1635 1.31298
-5.84898 12.1083 1.57198
-6.06998 12.5345 1.50498
-6.45098 12.7191 1.28098
-6.32698 12.1583 1.27698
-7.01098 12.8102 1.01698
-6.92698 12.2083 0.995977
-7.57398 12.7191 0.815977
-7.96298 12.5345 0.722977
-8.07898 12.1083 0.662977
-7.54198 12.1583 0.781977
-8.10598 11.4868 0.683977
-7.52498 11.4868 0.814977
-7.98398 10.8653 0.815977
-7.80198 10.4391 0.978977
-7.38198 10.2546 1.10598
-7.43898 10.8153 0.938977
-2.73098 10.4088 -4.19602
-2.73798 10.4088 -2.75102
-2.74398 11.4344 -4.24402
-2.76998 11.4519 -2.80602
-3.15398 11.4736 -1.19802
-3.11698 10.3957 -1.12402
-3.00398 12.3552 -4.11502
-3.04198 12.4251 -2.80902
-3.41698 12.5251 -1.32102
-4.60098 12.5169 1.47698
-4.00098 12.5457 0.201977
-4.34698 11.46 1.65598
-3.74198 11.4689 0.375977
-4.36698 10.3493 1.77598
-3.72998 10.3564 0.481977
-6.20598 10.4088 -5.51802
-5.12798 10.4088 -5.97702
-6.18398 11.4344 -5.60602
-5.10198 11.4519 -6.05002
-4.06398 11.4694 -5.93102
-4.08298 10.4088 -5.86902
-6.11798 12.3552 -5.38502
-5.12498 12.4251 -5.78702
-4.17898 12.495 -5.67802
-3.42798 12.4251 -5.09602
-3.22598 11.4519 -5.30702
-3.23198 10.4088 -5.25502
-8.93598 10.3493 0.033977
-8.55498 10.3564 -1.35402
-9.06598 11.46 -0.220023
-8.62498 11.4689 -1.56402
-7.97298 11.4736 -3.11102
-7.95598 10.3957 -2.96502
-8.94298 12.5169 -0.314023
-8.46298 12.5457 -1.63902
-7.79598 12.5251 -3.12602
-7.01098 12.4251 -4.43602
-7.14998 11.4519 -4.54202
-7.16098 10.4088 -4.43402
-5.19498 9.57865 2.45698
-5.96498 9.12335 2.33098
-5.46298 9.76455 2.66398
-6.14098 9.31115 2.47398
-6.99098 9.16595 2.19098
-6.92098 8.99545 2.06698
-5.60998 9.89675 2.65898
-5.66498 9.98455 2.52398
-6.25098 9.57485 2.33198
-6.22898 9.46315 2.45598
-6.98798 9.43825 2.06698
-7.00898 9.31855 2.17798
-7.74898 9.57485 1.77198
-8.40698 9.98455 1.48498
-8.51298 9.89675 1.56398
-7.81498 9.46315 1.86598
-8.59298 9.76455 1.49298
-7.85498 9.31115 1.84198
-8.61898 9.57865 1.19098
-7.85198 9.12335 1.64498
-5.54198 13.2876 1.95898
-5.02498 12.4691 2.21598
-5.79098 13.1822 2.29898
-5.29998 12.4116 2.54398
-5.06898 11.4824 2.68898
-4.78098 11.4689 2.38098
-5.91498 13.0768 2.34898
-5.94898 12.989 2.22998
-5.51398 12.3062 2.44798
-5.45398 12.3541 2.57998
-5.31198 11.4868 2.57498
-5.23798 11.4868 2.71398
-5.35698 10.6674 2.60298
-5.28498 10.6195 2.74198
-5.11498 10.5442 2.73198
-4.81898 10.433 2.46798
-8.78298 13.2876 0.582977
-8.08498 13.7787 0.835977
-8.84398 13.1822 1.00498
-8.18898 13.6446 1.24198
-7.37198 13.7987 1.58098
-7.21598 13.9424 1.19698
-8.77898 13.0768 1.13898
-8.65598 12.989 1.08798
-8.07598 13.3987 1.29798
-8.16598 13.5105 1.36098
-7.35098 13.5353 1.59598
-7.39898 13.655 1.67698
-6.60198 13.3987 1.92598
-6.60598 13.5105 2.02798
-6.52698 13.6446 1.95598
-6.31998 13.7787 1.59498
-9.08098 10.433 0.833977
-9.06498 10.5442 1.20698
-9.26798 11.4824 1.01298
-9.25698 11.4689 0.598977
-8.83598 10.6674 1.24898
-8.96798 10.6195 1.31398
-9.02698 11.4868 1.08898
-9.17098 11.4868 1.14198
-8.96998 12.3062 1.02698
-9.11098 12.3541 1.07498
-9.19898 12.4116 0.936977
-9.16598 12.4691 0.508977
-5.66098 10.0373 2.34298
-6.22698 9.64195 2.15698
-5.66598 10.1092 2.13098
-6.20398 9.73255 1.94998
-6.87798 9.60675 1.70298
-6.93798 9.51015 1.89998
-5.74998 10.2546 1.90598
-6.22898 9.91525 1.73298
-6.82698 9.80095 1.50098
-7.99598 10.2546 1.04298
-7.45398 9.91525 1.26698
-8.17898 10.1092 1.17198
-7.57598 9.73255 1.43298
-8.30598 10.0373 1.33698
-7.67198 9.64195 1.61398
-5.92698 12.9364 2.05898
-5.50898 12.2775 2.26998
-5.91098 12.8645 1.86098
-5.51398 12.2381 2.05898
-5.33098 11.4868 2.17198
-5.31598 11.4868 2.39198
-5.96298 12.7191 1.65998
-5.60298 12.1583 1.82898
-5.43598 11.4868 1.92298
-5.48498 10.8153 1.95898
-5.37798 10.7355 2.20098
-5.36198 10.6962 2.41898
-8.53998 12.9364 0.958977
-7.97898 13.3317 1.16098
-8.39498 12.8645 0.817977
-7.85998 13.241 1.00598
-7.19198 13.3668 1.27598
-7.27898 13.4635 1.44898
-8.18698 12.7191 0.731977
-7.70198 13.0584 0.890977
-7.10098 13.1727 1.12098
-6.49198 13.0584 1.40098
-6.50698 13.241 1.58098
-6.55598 13.3317 1.76698
-8.71898 10.6962 1.11098
-8.56898 10.7355 0.954977
-8.73998 11.4868 0.805977
-8.90098 11.4868 0.956977
-8.34298 10.8153 0.838977
-8.49298 11.4868 0.697977
-8.44598 12.1583 0.665977
-8.68498 12.2381 0.755977
-8.84398 12.2775 0.897977
-4.93698 5.93225 -0.039023
-5.90198 5.93225 0.199977
-5.01298 6.80085 -0.191023
-5.47898 6.80085 0.041977
-5.03898 7.29635 -0.212023
-5.51698 7.29635 0.020977
-5.99298 7.29635 -0.00302298
-5.94498 6.80085 0.022977
-5.05098 7.79025 -0.170023
-5.56098 7.79025 0.072977
-6.06498 7.79025 0.042977
-6.74998 7.79025 -0.735023
-6.48798 7.79025 -0.235023
-6.64498 7.29635 -0.729023
-6.39298 7.29635 -0.260023
-6.59098 6.80085 -0.682023
-6.33898 6.80085 -0.226023
-6.62798 6.80085 -1.32202
-6.67698 7.29635 -1.38302
-6.52398 7.29635 -2.10802
-6.48498 6.80085 -2.03402
-6.77698 7.79025 -1.43002
-6.60698 7.79025 -2.19802
-5.84598 7.79025 -3.45602
-6.28298 7.79025 -2.91402
-5.81898 7.29635 -3.30002
-6.22598 7.29635 -2.78602
-5.80598 6.80085 -3.20802
-6.19998 6.80085 -2.70002
-5.34098 6.80085 -3.44102
-5.34098 7.29635 -3.53402
-4.86498 7.29635 -3.51002
-4.87498 6.80085 -3.42202
-5.33598 7.79025 -3.69802
-4.83098 7.79025 -3.66802
-4.14598 7.79025 -2.89102
-4.40898 7.79025 -3.39002
-4.21298 7.29635 -2.78402
-4.46498 7.29635 -3.25202
-4.22798 6.80085 -2.71802
-4.47998 6.80085 -3.17402
-4.19198 6.80085 -2.07702
-4.18198 7.29635 -2.12902
-4.33398 7.29635 -1.40402
-4.33398 6.80085 -1.36502
-4.11998 7.79025 -2.19502
-4.28998 7.79025 -1.42702
-4.61398 7.79025 -0.711023
-4.63298 7.29635 -0.726023
-4.61998 6.80085 -0.699023
3 0 1 2
3 0 2 3
3 2 4 5
3 2 5 3
3 5 6 7
3 5 7 3
3 7 8 0
3 7 0 3
3 9 10 11
3 9 11 12
3 11 13 14
3 11 14 12
3 14 6 5
3 14 5 12
3 5 4 9
3 5 9 12
3 15 16 17
3 15 17 18
3 17 19 20
3 17 20 18
3 20 6 14
3 20 14 18
3 14 13 15
3 14 15 18
3 21 22 23
3 21 23 24
3 23 8 7
3 23 7 24
3 7 6 20
3 7 20 24
3 20 19 21
3 20 21 24
3 25 26 27
3 25 27 28
3 27 29 30
3 27 30 28
3 30 31 32
3 30 32 28
3 32 33 25
3 32 25 28
3 34 35 36
3 34 36 37
3 36 38 39
3 36 39 37
3 39 31 30
3 39 30 37
3 30 29 34
3 30 34 37
3 40 41 42
3 40 42 43
3 42 44 45
3 42 45 43
3 45 31 39
3 45 39 43
3 39 38 40
3 39 40 43
3 46 47 48
3 47 33 32
3 47 32 48
3 32 31 45
3 32 45 48
3 45 44 46
3 45 46 48
3 49 50 51
3 49 51 52
3 51 53 54
3 51 54 52
3 55 56 57
3 55 57 58
3 57 59 60
3 57 60 58
3 60 53 51
3 60 51 58
3 51 50 55
3 51 55 58
3 61 35 34
3 61 34 62
3 34 29 63
3 34 63 62
3 63 53 60
3 63 60 62
3 60 59 61
3 60 61 62
3 27 26 64
3 27 64 65
3 64 54 65
3 54 53 63
3 54 63 65
3 63 29 27
3 63 27 65
3 66 67 68
3 66 68 69
3 70 71 72
3 70 72 73
3 72 74 75
3 72 75 73
3 75 67 66
3 75 66 73
3 66 76 70
3 66 70 73
3 77 56 55
3 77 55 78
3 55 50 79
3 55 79 78
3 79 67 75
3 79 75 78
3 75 74 77
3 75 77 78
3 49 80 81
3 80 82 68
3 80 68 81
3 68 67 79
3 68 79 81
3 79 50 49
3 79 49 81
3 46 44 83
3 46 83 84
3 83 85 86
3 83 86 84
3 42 41 87
3 42 87 88
3 87 89 90
3 87 90 88
3 90 85 83
3 90 83 88
3 83 44 42
3 83 42 88
3 91 71 70
3 91 70 92
3 70 76 93
3 70 93 92
3 93 85 90
3 93 90 92
3 90 89 91
3 90 91 92
3 86 85 93
3 94 95 96
3 94 96 97
3 96 98 99
3 96 99 97
3 99 100 101
3 99 101 97
3 101 102 94
3 101 94 97
3 103 104 105
3 103 105 106
3 105 107 108
3 105 108 106
3 108 100 99
3 108 99 106
3 99 98 103
3 99 103 106
3 109 110 111
3 109 111 112
3 111 113 114
3 111 114 112
3 114 100 108
3 114 108 112
3 108 107 109
3 108 109 112
3 115 116 117
3 115 117 118
3 117 102 101
3 117 101 118
3 101 100 114
3 101 114 118
3 114 113 115
3 114 115 118
3 119 120 121
3 119 121 122
3 121 123 124
3 121 124 122
3 124 125 126
3 124 126 122
3 126 127 119
3 126 119 122
3 128 129 130
3 128 130 131
3 130 132 133
3 130 133 131
3 133 125 124
3 133 124 131
3 124 123 128
3 124 128 131
3 134 104 103
3 134 103 135
3 103 98 136
3 103 136 135
3 136 125 133
3 136 133 135
3 133 132 134
3 133 134 135
3 96 95 137
3 96 137 138
3 137 127 126
3 137 126 138
3 126 125 136
3 126 136 138
3 136 98 96
3 136 96 138
3 139 140 141
3 139 141 142
3 141 143 144
3 141 144 142
3 144 145 146
3 144 146 142
3 146 147 139
3 146 139 142
3 148 149 150
3 148 150 151
3 150 152 153
3 150 153 151
3 153 145 144
3 153 144 151
3 144 143 148
3 144 148 151
3 154 129 128
3 154 128 155
3 128 123 156
3 128 156 155
3 156 145 153
3 156 153 155
3 153 152 154
3 153 154 155
3 121 120 157
3 121 157 158
3 157 147 146
3 157 146 158
3 146 145 156
3 146 156 158
3 156 123 121
3 156 121 158
3 159 116 115
3 159 115 160
3 115 113 161
3 115 161 160
3 161 162 163
3 161 163 160
3 163 164 159
3 163 159 160
3 111 110 165
3 111 165 166
3 165 167 168
3 165 168 166
3 168 162 161
3 168 161 166
3 161 113 111
3 161 111 166
3 169 149 148
3 169 148 170
3 148 143 171
3 148 171 170
3 171 162 168
3 171 168 170
3 168 167 169
3 168 169 170
3 141 140 172
3 141 172 173
3 172 164 163
3 172 163 173
3 163 162 171
3 163 171 173
3 171 143 141
3 171 141 173
3 174 175 176
3 174 176 177
3 176 178 179
3 176 179 177
3 179 180 181
3 179 181 177
3 181 182 174
3 181 174 177
3 183 184 185
3 183 185 186
3 185 187 188
3 185 188 186
3 188 180 179
3 188 179 186
3 179 178 183
3 179 183 186
3 189 190 191
3 189 191 192
3 191 193 194
3 191 194 192
3 194 180 188
3 194 188 192
3 188 187 189
3 188 189 192
3 195 196 197
3 195 197 198
3 197 182 181
3 197 181 198
3 181 180 194
3 181 194 198
3 194 193 195
3 194 195 198
3 130 129 199
3 130 199 200
3 199 201 202
3 199 202 200
3 202 203 204
3 202 204 200
3 204 132 130
3 204 130 200
3 205 10 9
3 205 9 206
3 9 4 207
3 9 207 206
3 207 203 202
3 207 202 206
3 202 201 205
3 202 205 206
3 2 1 208
3 2 208 209
3 208 210 211
3 208 211 209
3 211 203 207
3 211 207 209
3 207 4 2
3 207 2 209
3 212 104 134
3 212 134 213
3 134 132 204
3 134 204 213
3 204 203 211
3 204 211 213
3 211 210 212
3 211 212 213
3 150 149 214
3 150 214 215
3 214 216 217
3 214 217 215
3 217 218 219
3 217 219 215
3 219 152 150
3 219 150 215
3 220 16 15
3 220 15 221
3 15 13 222
3 15 222 221
3 222 218 217
3 222 217 221
3 217 216 220
3 217 220 221
3 11 10 205
3 11 205 223
3 205 201 224
3 205 224 223
3 224 218 222
3 224 222 223
3 222 13 11
3 222 11 223
3 199 129 154
3 199 154 225
3 154 152 219
3 154 219 225
3 219 218 224
3 219 224 225
3 224 201 199
3 224 199 225
3 165 110 226
3 165 226 227
3 226 228 229
3 226 229 227
3 229 230 231
3 229 231 227
3 231 167 165
3 231 165 227
3 232 22 21
3 232 21 233
3 21 19 234
3 21 234 233
3 234 230 229
3 234 229 233
3 229 228 232
3 229 232 233
3 17 16 220
3 17 220 235
3 220 216 236
3 220 236 235
3 236 230 234
3 236 234 235
3 234 19 17
3 234 17 235
3 214 149 169
3 214 169 237
3 169 167 231
3 169 231 237
3 231 230 236
3 231 236 237
3 236 216 214
3 236 214 237
3 105 104 238
3 105 238 239
3 238 240 241
3 238 241 239
3 241 242 243
3 241 243 239
3 243 107 105
3 243 105 239
3 244 245 246
3 244 246 247
3 246 248 249
3 246 249 247
3 249 242 241
3 249 241 247
3 241 240 244
3 241 244 247
3 250 251 252
3 250 252 253
3 252 254 255
3 252 255 253
3 255 242 249
3 255 249 253
3 249 248 250
3 249 250 253
3 256 110 109
3 256 109 257
3 109 107 243
3 109 243 257
3 243 242 255
3 243 255 257
3 255 254 256
3 255 256 257
3 208 1 258
3 208 258 259
3 258 260 261
3 258 261 259
3 261 262 263
3 261 263 259
3 263 210 208
3 263 208 259
3 264 265 266
3 264 266 267
3 266 268 269
3 266 269 267
3 269 262 261
3 269 261 267
3 261 260 264
3 261 264 267
3 270 245 244
3 270 244 271
3 244 240 272
3 244 272 271
3 272 262 269
3 272 269 271
3 269 268 270
3 269 270 271
3 238 104 212
3 238 212 273
3 212 210 263
3 212 263 273
3 263 262 272
3 263 272 273
3 272 240 238
3 272 238 273
3 23 22 274
3 23 274 275
3 274 276 277
3 274 277 275
3 277 278 279
3 277 279 275
3 279 8 23
3 279 23 275
3 280 281 282
3 280 282 283
3 282 284 285
3 282 285 283
3 285 278 277
3 285 277 283
3 277 276 280
3 277 280 283
3 286 265 264
3 286 264 287
3 264 260 288
3 264 288 287
3 288 278 285
3 288 285 287
3 285 284 286
3 285 286 287
3 258 1 0
3 258 0 289
3 0 8 279
3 0 279 289
3 279 278 288
3 279 288 289
3 288 260 258
3 288 258 289
3 226 110 256
3 226 256 290
3 256 254 291
3 256 291 290
3 291 292 293
3 291 293 290
3 293 228 226
3 293 226 290
3 252 251 294
3 252 294 295
3 294 296 297
3 294 297 295
3 297 292 291
3 297 291 295
3 291 254 252
3 291 252 295
3 298 281 280
3 298 280 299
3 280 276 300
3 280 300 299
3 300 292 297
3 300 297 299
3 297 296 298
3 297 298 299
3 274 22 232
3 274 232 301
3 232 228 293
3 232 293 301
3 293 292 300
3 293 300 301
3 300 276 274
3 300 274 301
3 246 245 302
3 246 302 303
3 302 304 305
3 302 305 303
3 305 306 307
3 305 307 303
3 307 248 246
3 307 246 303
3 308 175 174
3 308 174 309
3 174 182 310
3 174 310 309
3 310 306 305
3 310 305 309
3 305 304 308
3 305 308 309
3 197 196 311
3 197 311 312
3 311 313 314
3 311 314 312
3 314 306 310
3 314 310 312
3 310 182 197
3 310 197 312
3 315 251 250
3 315 250 316
3 250 248 307
3 250 307 316
3 307 306 314
3 307 314 316
3 314 313 315
3 314 315 316
3 266 265 317
3 266 317 318
3 317 319 320
3 317 320 318
3 320 321 322
3 320 322 318
3 322 268 266
3 322 266 318
3 323 184 183
3 323 183 324
3 183 178 325
3 183 325 324
3 325 321 320
3 325 320 324
3 320 319 323
3 320 323 324
3 176 175 308
3 176 308 326
3 308 304 327
3 308 327 326
3 327 321 325
3 327 325 326
3 325 178 176
3 325 176 326
3 302 245 270
3 302 270 328
3 270 268 322
3 270 322 328
3 322 321 327
3 322 327 328
3 327 304 302
3 327 302 328
3 282 281 329
3 282 329 330
3 329 331 332
3 329 332 330
3 332 333 334
3 332 334 330
3 334 284 282
3 334 282 330
3 335 190 189
3 335 189 336
3 189 187 337
3 189 337 336
3 337 333 332
3 337 332 336
3 332 331 335
3 332 335 336
3 185 184 323
3 185 323 338
3 323 319 339
3 323 339 338
3 339 333 337
3 339 337 338
3 337 187 185
3 337 185 338
3 317 265 286
3 317 286 340
3 286 284 334
3 286 334 340
3 334 333 339
3 334 339 340
3 339 319 317
3 339 317 340
3 294 251 315
3 294 315 341
3 315 313 342
3 315 342 341
3 342 343 344
3 342 344 341
3 344 296 294
3 344 294 341
3 311 196 195
3 311 195 345
3 195 193 346
3 195 346 345
3 346 343 342
3 346 342 345
3 342 313 311
3 342 311 345
3 191 190 335
3 191 335 347
3 335 331 348
3 335 348 347
3 348 343 346
3 348 346 347
3 346 193 191
3 346 191 347
3 329 281 298
3 329 298 349
3 298 296 344
3 298 344 349
3 344 343 348
3 344 348 349
3 348 331 329
3 348 329 349
3 350 26 25
3 25 33 351
3 351 33 47
3 64 26 350
3 36 35 352
3 36 352 353
3 352 354 355
3 352 355 353
3 355 356 357
3 355 357 353
3 357 38 36
3 357 36 353
3 358 95 94
3 358 94 359
3 94 102 360
3 94 360 359
3 360 356 355
3 360 355 359
3 355 354 358
3 355 358 359
3 117 116 361
3 117 361 362
3 361 363 364
3 361 364 362
3 364 356 360
3 364 360 362
3 360 102 117
3 360 117 362
3 365 41 40
3 365 40 366
3 40 38 357
3 40 357 366
3 357 356 364
3 357 364 366
3 364 363 365
3 364 365 366
3 87 41 365
3 87 365 367
3 365 363 368
3 365 368 367
3 368 369 370
3 368 370 367
3 370 89 87
3 370 87 367
3 361 116 159
3 361 159 371
3 159 164 372
3 159 372 371
3 372 369 368
3 372 368 371
3 368 363 361
3 368 361 371
3 172 140 373
3 172 373 374
3 373 375 376
3 373 376 374
3 376 369 372
3 376 372 374
3 372 164 172
3 372 172 374
3 377 71 91
3 377 91 378
3 91 89 370
3 91 370 378
3 370 369 376
3 370 376 378
3 376 375 377
3 376 377 378
3 72 71 377
3 72 377 379
3 377 375 380
3 377 380 379
3 380 381 382
3 380 382 379
3 382 74 72
3 382 72 379
3 373 140 139
3 373 139 383
3 139 147 384
3 139 384 383
3 384 381 380
3 384 380 383
3 380 375 373
3 380 373 383
3 157 120 385
3 157 385 386
3 385 387 388
3 385 388 386
3 388 381 384
3 388 384 386
3 384 147 157
3 384 157 386
3 389 56 77
3 389 77 390
3 77 74 382
3 77 382 390
3 382 381 388
3 382 388 390
3 388 387 389
3 388 389 390
3 57 56 389
3 57 389 391
3 389 387 392
3 389 392 391
3 392 393 394
3 392 394 391
3 394 59 57
3 394 57 391
3 385 120 119
3 385 119 395
3 119 127 396
3 119 396 395
3 396 393 392
3 396 392 395
3 392 387 385
3 392 385 395
3 137 95 358
3 137 358 397
3 358 354 398
3 358 398 397
3 398 393 396
3 398 396 397
3 396 127 137
3 396 137 397
3 352 35 61
3 352 61 399
3 61 59 394
3 61 394 399
3 394 393 398
3 394 398 399
3 398 354 352
3 398 352 399
