OFF
337 665 0
-13.4472 13.901 8.69757
-13.3582 13.7251 8.63257
-13.4212 13.6186 8.71657
-13.0752 13.4059 8.45657
-13.1742 13.3709 8.55557
-12.8642 14.3955 8.20957
-12.7932 14.3499 8.14057
-13.2602 14.176 8.51957
-12.8172 14.1018 8.16957
-12.7262 13.6867 8.14357
-3.94115 4.34549 5.13357
-2.48615 4.44049 5.14257
-3.71615 4.55389 4.95557
-2.46815 4.63629 4.95557
-4.02215 4.30159 5.21357
-2.43015 4.44349 2.90657
-1.99315 4.67149 3.04757
-1.74015 4.48749 2.92757
-2.66015 4.39209 2.86757
-3.93915 4.34579 2.94057
-3.33915 4.57669 3.04957
-4.99315 8.78219 4.04257
-4.95415 8.78409 4.02457
-4.60515 7.80709 3.91757
-4.73815 8.84369 3.99457
-4.48915 7.81989 3.89457
-3.94415 6.91119 3.71857
-4.22515 6.87449 3.74357
-3.79415 6.08819 3.54757
-3.37015 5.45109 3.36357
-3.69115 5.42989 3.38657
-3.90715 6.06449 3.56257
-2.90515 5.49219 4.85357
-3.06715 6.15779 4.94657
-3.40915 6.11999 4.95857
-3.57115 6.95979 5.09257
-3.77115 7.91969 5.21157
-4.28115 8.91729 5.30857
-4.11115 7.86749 5.23757
-4.62315 8.82099 5.33957
-4.44415 7.81229 5.24957
-3.92015 6.90859 5.10357
-3.75215 6.08229 4.96057
-3.43415 5.44179 4.85957
-2.58715 5.52119 3.36757
-2.84515 5.48739 3.35457
-3.02515 6.15399 3.52757
-3.53215 6.95379 3.70357
-3.32915 6.99299 3.70857
-2.92015 6.19259 3.54657
-3.82315 7.93339 3.85757
-4.40315 8.93849 3.96557
-4.20415 9.00519 3.95757
-3.72015 7.97429 3.86857
-3.29415 7.00869 3.72257
-4.17415 9.03179 3.96957
-3.35715 6.11419 3.52757
-4.15315 7.87549 3.86957
-5.73115 10.6978 4.12857
-5.69315 10.6883 4.10657
-5.31415 9.65879 4.08157
-6.73815 12.2458 4.43157
-6.71815 12.2689 4.40457
-6.18315 11.5543 4.21657
-6.64115 12.4718 4.33957
-6.12115 11.6565 4.17257
-5.56115 10.8655 4.05857
-5.24415 9.81589 4.05257
-4.51815 10.0255 5.28157
-4.76115 9.89629 5.32357
-4.95915 10.978 5.27157
-5.17815 10.7896 5.32957
-5.28315 11.9838 5.26257
-5.86115 12.63 5.44757
-5.43815 11.7678 5.33457
-5.99615 12.3349 5.53557
-5.60115 11.5371 5.39857
-5.00615 9.76749 5.35657
-4.75715 10.0718 3.97657
-5.34315 11.0519 4.00157
-5.19515 11.1758 3.97057
-5.14915 11.1949 3.97157
-4.60215 10.0357 3.97457
-5.80815 12.0809 4.03857
-6.50915 12.746 4.25157
-6.41515 12.9336 4.20257
-5.72115 12.1644 4.02057
-6.38715 12.9593 4.20257
-5.00115 9.94399 4.01057
-5.96615 11.869 4.10157
-7.44215 12.7139 4.81657
-9.54415 13.2042 6.17757
-9.48215 13.4616 6.08357
-8.90815 13.2847 5.72957
-8.13915 13.2549 5.20257
-8.19715 13.0543 5.27557
-8.20615 13.0037 5.30057
-8.93515 13.1525 5.78357
-7.40915 12.8363 4.76557
-6.50515 13.278 5.76057
-6.59615 12.9804 5.85057
-7.28615 13.4432 6.27057
-7.38215 13.1396 6.36957
-8.52915 13.8126 7.16957
-8.66215 13.3643 7.31857
-8.06215 13.3895 6.84357
-7.95015 13.7698 6.71557
-8.13515 13.1429 6.91657
-6.69415 12.6874 5.93157
-7.21615 13.3927 4.59457
-8.02315 13.617 5.08557
-7.97815 13.7737 5.04757
-7.15715 13.48 4.56757
-8.73615 13.8602 5.53957
-9.34715 13.9043 5.93657
-9.28415 14.1087 5.88357
-8.65215 13.9821 5.48757
-7.94315 13.8001 5.03857
-7.31315 13.1001 4.67657
-8.80115 13.6512 5.60557
-10.8702 13.063 6.90557
-10.8572 13.1229 6.86557
-10.5032 13.1036 6.67957
-9.94115 13.1977 6.40457
-10.2172 13.1566 6.54857
-10.7812 13.3985 6.76357
-10.4402 13.3621 6.57257
-9.89815 13.3964 6.32957
-8.83815 13.9295 7.44657
-9.20015 14.037 7.85457
-9.41315 14.3074 8.03357
-9.55415 13.8181 8.20557
-9.04815 13.2583 7.67357
-9.45915 13.1533 8.13557
-9.71115 13.2968 8.37657
-9.70415 14.0277 6.11457
-10.0962 14.4084 6.23557
-9.64515 14.2221 6.07357
-10.4452 14.4872 6.40757
-10.1842 14.2074 6.29257
-10.6312 13.9104 6.58957
-11.4312 13.0597 7.28357
-12.6912 13.2024 8.19857
-12.5512 13.3413 8.05557
-11.9822 13.3286 7.62457
-12.0862 13.1037 7.74757
-11.3692 13.2919 7.18357
-9.95915 14.2398 8.49457
-10.0692 13.8613 8.62557
-10.6022 14.1585 9.00657
-10.7702 13.6251 9.19457
-11.1282 14.3281 9.37757
-11.7002 14.0709 9.83857
-11.2832 13.933 9.54857
-11.6082 13.6412 9.82057
-11.4402 13.2815 9.72657
-10.8682 13.2527 9.30157
-10.2692 13.1998 8.84057
-10.1962 13.4359 8.76657
-11.0652 14.3119 6.84257
-11.7242 14.2167 7.32957
-11.6492 14.4672 7.25857
-10.9772 14.5427 6.77957
-12.2452 14.3674 7.71157
-12.2922 14.5166 7.75357
-11.6162 14.5594 7.25257
-11.2622 13.663 7.05457
-11.8922 13.6936 7.51057
-12.4072 13.9793 7.86657
-3.69215 5.42149 4.84857
-3.90815 6.06509 4.36757
-4.21915 6.86759 4.18557
-4.58715 7.78159 4.15157
-4.94715 8.75449 4.46157
-4.97515 8.76009 4.15057
-5.70515 10.7026 4.23357
-5.31015 9.74869 4.31357
-5.61715 10.6847 4.52657
-6.09515 11.541 4.43157
-6.53715 12.2092 4.80657
-6.68615 12.2371 4.52957
-7.96815 12.9662 5.67057
-7.32115 12.6939 5.02257
-8.61815 13.1083 6.27057
-9.14915 13.1541 6.78757
-10.1662 13.0675 7.18557
-10.3462 13.0113 7.68257
-11.2332 13.0428 7.56957
-11.7142 13.0765 8.27757
-12.4922 13.1911 8.49057
-12.6312 13.3497 9.36757
-12.3222 14.3849 9.02157
-12.0992 14.5107 8.04857
-11.2772 14.5435 7.78757
-10.7902 14.5318 7.07357
-9.91815 14.449 7.20457
-8.87715 14.0642 6.48657
-9.41715 14.2805 6.85057
-6.33515 12.9513 4.30057
-7.71315 13.769 5.40857
-7.03515 13.4617 4.77357
-6.18615 12.9254 4.57657
-5.12215 11.2003 4.07957
-4.16115 9.02199 4.07857
-5.63815 12.1596 4.23657
-5.03415 11.1835 4.37357
-4.60115 10.1215 4.20357
-4.13315 9.01669 4.38957
-3.28815 7.00399 4.15657
-3.70815 7.96679 4.10557
-3.90815 6.06639 4.94657
-4.15215 6.87449 5.10157
-4.53415 7.73159 5.23257
-4.83515 8.75729 5.34757
-4.86715 8.73009 5.33457
-5.12915 9.75209 5.35857
-5.33315 10.6438 5.36057
-5.37215 10.6448 5.35357
-6.09115 12.1578 5.58457
-5.68315 11.4694 5.41357
-6.12015 12.1313 5.58457
-6.75415 12.5962 5.95857
-7.45315 12.9202 6.42757
-7.48415 12.891 6.43357
-8.75315 13.1041 7.39357
-8.18015 13.0472 6.94057
-9.09915 13.0963 7.70157
-9.31315 13.0522 7.92757
-9.80215 13.018 8.45857
-9.51015 12.9982 8.16157
-9.82515 12.9595 8.45557
-10.3472 12.965 8.89357
-10.9252 13.1144 9.34857
-10.9692 13.0222 9.37057
-11.9762 13.3631 10.1076
-11.5952 13.142 9.83457
-12.0902 13.3282 10.1756
-12.2422 13.6029 10.2806
-12.3422 13.5888 10.3336
-12.1492 13.8676 10.1886
-12.3642 13.8829 10.3186
-11.6892 14.326 9.78557
-12.0842 14.1343 10.1036
-12.1732 14.1588 10.1446
-11.7832 14.374 9.82857
-9.90815 14.4778 8.39957
-9.40515 14.4112 7.98357
-11.2022 14.4831 9.39157
-10.5372 14.4147 8.91557
-10.5532 14.5102 8.89657
-9.11615 14.3291 7.72157
-8.47015 14.0189 7.08457
-8.78115 14.1346 7.35057
-6.46615 13.3719 5.70857
-5.78115 12.8263 5.38057
-5.76615 12.8533 5.35457
-7.22715 13.6465 6.19657
-7.21915 13.6981 6.17157
-7.93015 13.8968 6.66557
-4.44315 10.1798 5.24457
-4.08615 8.98079 5.28057
-4.04915 8.98499 5.26257
-5.21915 12.0837 5.21757
-4.81615 11.104 5.22457
-4.78415 11.1409 5.20457
-2.91115 6.17419 4.92557
-2.63315 5.51869 4.83657
-2.58615 5.52089 4.82057
-3.65715 7.92779 5.18857
-3.33815 6.99389 5.07557
-3.27915 6.99899 5.06157
-1.71715 4.47279 5.12457
-4.02615 4.30119 2.87957
-1.59715 4.45349 2.82957
-2.89015 4.36999 2.78457
-1.66415 4.45489 2.88657
-3.33315 5.00609 4.84557
-2.58415 5.06439 4.83457
-2.74015 4.77439 4.88557
-3.63715 4.71059 4.87657
-3.61615 4.98519 4.82457
-3.61615 4.98519 3.25557
-3.34615 5.01759 3.23357
-3.63815 4.71079 3.14357
-3.71715 4.55219 3.08057
-2.75915 4.77289 3.11857
-2.51815 5.06969 3.22357
-2.13715 4.81779 3.13357
-2.33215 5.08479 3.24057
-2.33215 5.08409 4.81457
-2.13615 4.81759 4.85657
-1.99015 4.66949 4.92657
-4.21515 6.86679 4.65657
-4.87915 8.74039 5.22757
-4.90715 8.74609 4.91757
-4.55715 7.77549 5.00257
-5.16115 9.71799 5.13157
-5.12915 9.71129 5.30957
-5.39915 10.6407 5.25157
-5.48715 10.6584 4.95857
-6.17115 12.1401 5.48857
-5.76715 11.4764 5.20057
-6.87415 12.6163 5.75457
-7.71215 12.926 6.06657
-10.5442 12.9821 8.61157
-11.3342 13.0494 8.85057
-11.7912 13.1534 9.54557
-10.2682 14.5 7.85057
-10.8942 14.5263 8.35757
-11.5702 14.495 8.83657
-9.07215 14.1639 6.91857
-5.81715 12.8612 5.25757
-5.96615 12.8872 4.98257
-6.58615 13.3901 5.50457
-7.45615 13.7323 5.80357
-8.18115 13.9274 6.27057
-4.06515 9.00359 5.15557
-4.09215 9.00889 4.84557
-4.45115 10.0928 5.02157
-4.90315 11.159 4.80457
-4.81515 11.1422 5.09757
-5.30815 12.0994 5.00457
-5.23715 12.0862 5.17057
-2.91115 6.17489 4.45757
-3.28415 7.00319 4.62657
-3.67815 7.96109 4.95657
-4.57215 7.77859 4.57757
-5.23615 9.73329 4.72257
-6.31915 12.1681 5.21257
-5.93115 11.5087 4.81657
-7.09715 12.6551 5.38957
-10.8882 13.0124 8.09057
-12.1422 13.1723 9.01857
-6.81115 13.4259 5.13957
-4.52615 10.1071 4.61257
-5.47315 12.1295 4.62057
-3.69315 7.96389 4.53157
3 0 1 2
3 1 3 4
3 1 4 2
3 5 6 7
3 6 8 7
3 8 9 1
3 8 1 7
3 1 0 7
3 9 3 1
3 10 11 12
3 11 13 12
3 10 14 11
3 15 16 17
3 18 19 15
3 15 19 20
3 15 20 16
3 21 22 23
3 22 24 25
3 25 26 27
3 27 23 25
3 23 22 25
3 28 29 30
3 30 31 28
3 31 27 28
3 27 26 28
3 32 33 34
3 33 35 34
3 36 37 38
3 37 39 38
3 35 36 38
3 39 40 38
3 40 41 38
3 41 35 38
3 42 43 34
3 43 32 34
3 34 35 41
3 41 42 34
3 44 45 46
3 46 47 48
3 48 49 46
3 49 44 46
3 50 51 52
3 52 53 50
3 53 48 50
3 48 47 50
3 54 48 53
3 53 52 55
3 49 48 54
3 29 28 56
3 28 26 56
3 25 24 57
3 26 25 57
3 51 50 57
3 50 47 57
3 47 26 57
3 57 24 51
3 46 45 56
3 45 29 56
3 56 26 47
3 47 46 56
3 58 59 60
3 60 22 21
3 61 62 63
3 63 59 58
3 62 64 65
3 65 66 59
3 59 63 65
3 63 62 65
3 67 24 22
3 22 60 67
3 60 59 67
3 59 66 67
3 37 68 69
3 68 70 69
3 70 71 69
3 69 39 37
3 72 73 74
3 74 71 70
3 70 72 74
3 75 76 74
3 76 71 74
3 74 73 75
3 77 39 69
3 71 77 69
3 52 51 78
3 78 79 80
3 80 81 82
3 80 82 78
3 82 52 78
3 83 84 85
3 85 86 83
3 86 81 80
3 86 80 83
3 80 79 83
3 86 85 87
3 55 52 82
3 24 67 88
3 67 66 88
3 65 64 89
3 64 84 89
3 66 65 89
3 84 83 89
3 83 79 89
3 79 66 89
3 78 51 88
3 51 24 88
3 88 66 79
3 79 78 88
3 90 62 61
3 91 92 93
3 93 94 95
3 95 96 97
3 95 97 93
3 97 91 93
3 98 64 62
3 62 90 98
3 90 96 95
3 90 95 98
3 95 94 98
3 73 99 100
3 99 101 100
3 101 102 100
3 103 104 105
3 103 105 106
3 105 102 101
3 105 101 106
3 104 107 105
3 107 102 105
3 108 75 100
3 75 73 100
3 102 108 100
3 85 84 109
3 109 110 111
3 111 112 109
3 112 85 109
3 113 114 115
3 115 116 113
3 116 111 113
3 111 110 113
3 117 111 116
3 87 85 112
3 112 111 117
3 64 98 118
3 98 94 118
3 118 84 64
3 92 119 93
3 119 94 93
3 114 113 119
3 113 110 119
3 110 94 119
3 119 92 114
3 109 84 118
3 118 94 110
3 110 109 118
3 120 121 122
3 122 123 124
3 121 125 126
3 126 123 122
3 122 121 126
3 127 92 91
3 127 91 123
3 126 127 123
3 128 104 103
3 129 130 131
3 132 129 133
3 129 131 134
3 129 134 133
3 104 128 132
3 128 129 132
3 115 114 135
3 135 136 137
3 137 115 135
3 138 136 139
3 136 135 139
3 126 135 127
3 135 92 127
3 125 140 126
3 140 138 139
3 126 140 139
3 114 92 135
3 135 126 139
3 141 121 120
3 4 3 142
3 3 9 143
3 143 144 145
3 145 142 143
3 142 3 143
3 146 125 121
3 121 141 146
3 141 145 146
3 145 144 146
3 131 130 147
3 131 147 148
3 147 149 148
3 149 150 148
3 151 152 153
3 152 154 153
3 153 150 149
3 149 151 153
3 155 156 150
3 155 150 154
3 150 153 154
3 157 134 158
3 134 131 148
3 134 148 158
3 148 150 158
3 150 156 157
3 150 157 158
3 159 160 161
3 161 162 159
3 162 138 159
3 163 8 6
3 6 164 163
3 164 161 163
3 161 160 163
3 165 161 164
3 164 6 5
3 162 161 165
3 125 146 166
3 146 144 167
3 146 167 166
3 166 140 125
3 168 167 9
3 167 144 143
3 167 143 9
3 8 163 168
3 163 160 168
3 160 167 168
3 168 9 8
3 159 138 140
3 140 166 159
3 166 167 160
3 166 160 159
3 30 169 31
3 170 171 27
3 27 31 170
3 31 169 170
3 172 173 174
3 174 23 172
3 23 27 172
3 27 171 172
3 23 174 21
3 21 174 60
3 60 175 58
3 174 173 176
3 176 177 175
3 175 60 176
3 60 174 176
3 178 179 180
3 178 180 63
3 175 177 178
3 175 178 63
3 58 175 63
3 63 180 61
3 61 180 90
3 90 181 96
3 180 179 182
3 181 90 182
3 90 180 182
3 183 184 91
3 91 97 183
3 97 181 183
3 96 181 97
3 91 184 123
3 185 186 120
3 120 122 185
3 122 124 185
3 120 186 187
3 187 188 145
3 145 141 187
3 141 120 187
3 189 190 4
3 4 142 189
3 142 145 189
3 145 188 189
3 4 190 2
3 7 191 5
3 5 191 192
3 192 193 165
3 165 164 192
3 164 5 192
3 194 195 138
3 138 162 194
3 162 165 194
3 165 193 194
3 138 195 136
3 137 196 115
3 136 197 137
3 112 198 87
3 115 196 116
3 116 199 117
3 200 201 198
3 198 112 200
3 112 117 200
3 117 199 200
3 81 202 82
3 82 203 55
3 87 198 86
3 86 202 81
3 198 201 204
3 204 205 202
3 202 86 204
3 86 198 204
3 206 207 203
3 203 82 206
3 82 202 206
3 202 205 206
3 54 208 49
3 55 203 53
3 53 208 54
3 203 207 209
3 208 53 209
3 53 203 209
3 210 211 212
3 169 43 42
3 42 41 211
3 211 210 42
3 210 169 42
3 40 39 213
3 213 212 40
3 212 211 40
3 211 41 40
3 212 213 214
3 214 213 215
3 215 216 217
3 213 39 77
3 77 71 216
3 216 215 77
3 215 213 77
3 76 75 218
3 218 219 76
3 219 216 76
3 216 71 76
3 217 216 219
3 219 218 220
3 220 218 221
3 221 222 223
3 218 75 108
3 108 102 222
3 222 221 108
3 221 218 108
3 107 104 224
3 224 225 107
3 225 222 107
3 222 102 107
3 223 222 225
3 226 133 227
3 224 104 132
3 133 226 132
3 226 224 132
3 133 134 228
3 228 229 133
3 227 133 229
3 229 228 230
3 230 228 231
3 228 134 157
3 157 156 232
3 232 233 231
3 232 231 157
3 231 228 157
3 155 154 234
3 234 235 155
3 235 233 232
3 235 232 155
3 232 156 155
3 235 234 236
3 236 234 237
3 236 237 238
3 237 239 240
3 237 240 238
3 234 154 237
3 154 239 237
3 152 241 242
3 239 154 152
3 239 152 242
3 240 239 242
3 240 242 243
3 242 241 244
3 242 244 243
3 245 130 246
3 244 241 247
3 241 152 151
3 151 149 248
3 248 249 247
3 248 247 151
3 247 241 151
3 130 245 147
3 245 249 248
3 245 248 147
3 248 149 147
3 246 130 250
3 128 250 129
3 250 130 129
3 128 103 251
3 251 252 128
3 252 250 128
3 253 254 255
3 251 103 106
3 106 101 256
3 256 257 258
3 256 258 106
3 258 251 106
3 99 73 254
3 254 253 99
3 253 257 256
3 253 256 99
3 256 101 99
3 259 260 261
3 255 254 262
3 254 73 72
3 72 70 263
3 263 264 262
3 263 262 72
3 262 254 72
3 68 37 260
3 260 259 68
3 259 264 263
3 259 263 68
3 263 70 68
3 265 266 267
3 261 260 268
3 260 37 36
3 36 35 269
3 269 270 268
3 269 268 36
3 268 260 36
3 33 32 266
3 266 265 33
3 265 270 269
3 265 269 33
3 269 35 33
3 271 13 11
3 272 273 274
3 272 19 18
3 18 273 272
3 18 15 275
3 15 17 275
3 273 18 275
3 32 276 277
3 276 278 277
3 276 279 278
3 276 32 43
3 13 278 12
3 278 279 12
3 276 43 169
3 169 280 276
3 280 279 276
3 281 169 30
3 30 29 282
3 283 281 282
3 281 30 282
3 19 284 20
3 284 283 20
3 20 283 285
3 285 283 282
3 285 282 286
3 282 29 45
3 282 45 286
3 20 285 16
3 16 285 287
3 286 45 44
3 44 288 286
3 288 287 286
3 287 285 286
3 267 266 289
3 266 32 277
3 266 277 289
3 277 278 290
3 277 290 289
3 13 271 291
3 290 278 13
3 290 13 291
3 279 283 12
3 280 283 279
3 170 169 210
3 292 170 210
3 212 292 210
3 214 293 212
3 293 294 295
3 292 212 295
3 212 293 295
3 296 294 293
3 293 297 296
3 297 298 296
3 298 299 296
3 214 215 297
3 215 217 297
3 217 298 297
3 297 293 214
3 220 300 219
3 219 298 217
3 301 299 298
3 298 219 301
3 219 300 301
3 300 221 302
3 221 223 302
3 223 303 302
3 221 300 220
3 224 184 183
3 183 303 223
3 223 225 183
3 225 224 183
3 226 184 224
3 227 124 226
3 230 186 229
3 229 124 227
3 304 186 230
3 230 231 304
3 231 233 304
3 233 305 304
3 236 190 306
3 306 305 233
3 233 235 306
3 235 236 306
3 238 190 236
3 244 191 243
3 246 195 307
3 307 308 249
3 249 245 307
3 245 246 307
3 309 191 244
3 244 247 309
3 247 249 309
3 249 308 309
3 251 196 310
3 250 252 310
3 252 251 310
3 250 195 246
3 311 312 313
3 314 253 313
3 253 311 313
3 315 196 251
3 251 258 315
3 258 314 315
3 257 314 258
3 255 311 253
3 253 314 257
3 316 317 318
3 318 319 320
3 320 264 259
3 320 259 318
3 259 316 318
3 321 312 311
3 321 311 322
3 322 264 320
3 320 319 321
3 320 321 322
3 264 322 262
3 322 311 255
3 322 255 262
3 261 316 259
3 267 323 265
3 323 324 265
3 325 317 316
3 316 268 325
3 268 324 325
3 270 324 268
3 268 316 261
3 265 324 270
3 267 289 288
3 289 290 288
3 19 272 14
3 14 10 19
3 12 284 19
3 12 19 10
3 283 284 12
3 169 281 280
3 281 283 280
3 170 292 171
3 295 294 326
3 294 173 326
3 292 295 326
3 173 172 326
3 172 171 326
3 171 292 326
3 173 327 176
3 327 177 176
3 299 177 327
3 299 327 296
3 327 173 294
3 327 294 296
3 301 300 328
3 328 179 329
3 328 329 301
3 329 177 299
3 329 299 301
3 177 329 178
3 329 179 178
3 182 179 330
3 181 182 330
3 328 300 302
3 328 302 330
3 302 303 330
3 303 181 330
3 330 179 328
3 183 181 303
3 123 184 226
3 124 123 226
3 229 186 185
3 124 229 185
3 187 186 331
3 331 305 188
3 188 187 331
3 186 304 331
3 304 305 331
3 306 190 332
3 305 306 332
3 190 189 332
3 189 188 332
3 188 305 332
3 190 238 2
3 238 240 2
3 240 0 2
3 243 191 7
3 240 243 7
3 7 0 240
3 195 194 307
3 194 193 307
3 192 191 309
3 193 192 309
3 308 193 309
3 307 193 308
3 196 137 310
3 137 197 310
3 197 136 250
3 136 195 250
3 197 250 310
3 201 200 333
3 200 199 333
3 333 312 201
3 116 196 315
3 199 116 315
3 314 199 315
3 313 312 333
3 333 199 314
3 314 313 333
3 207 206 334
3 206 205 334
3 201 312 335
3 201 335 204
3 335 205 204
3 312 321 335
3 321 319 335
3 319 205 335
3 317 207 334
3 317 334 318
3 334 205 319
3 334 319 318
3 267 44 49
3 267 49 323
3 49 208 323
3 209 207 336
3 208 209 336
3 324 208 336
3 324 336 325
3 336 207 317
3 336 317 325
3 323 208 324
3 16 287 290
3 288 44 267
3 290 287 288
3 290 291 16
3 271 275 17
3 291 271 17
3 17 16 291
