OFF
1388 2758 0
1.19646 -16.3935 5.53445
1.29646 -16.3823 7.21152
0.33746 -16.3938 7.12235
0.35046 -16.3966 5.55384
-0.68854 -16.3968 7.09908
-0.67454 -16.3982 5.53825
-0.65754 -16.3958 3.95795
0.33946 -16.3954 3.96195
1.17446 -16.3946 3.95745
-1.71554 -16.3938 7.1222
-2.67854 -16.3822 7.21109
-2.54554 -16.3935 5.53395
-1.69954 -16.3965 5.55365
-2.48854 -16.3946 3.95685
-1.65554 -16.3953 3.96175
-2.46554 -16.3851 2.52585
-2.46154 -16.363 1.39425
-1.62454 -16.363 1.39425
-1.63354 -16.3851 2.52585
-0.62754 -16.363 1.39435
-0.64154 -16.3851 2.52595
0.36946 -16.363 1.39455
1.20846 -16.363 1.39485
1.18546 -16.3851 2.52645
0.35146 -16.3851 2.52615
2.44846 -2.51781 3.40395
2.43046 -2.64581 3.39725
2.64846 -2.57261 2.96375
2.39146 -2.95181 3.39505
2.31546 -3.52651 3.39505
2.53446 -3.47131 2.96255
2.60846 -2.88471 2.96255
2.61446 -3.46711 2.44365
2.68946 -2.87631 2.44365
2.73046 -2.56211 2.44365
2.55346 -3.51121 1.92465
2.34846 -3.60061 1.49215
2.42746 -3.02501 1.49215
2.63046 -2.92401 1.92465
2.46946 -2.71871 1.48995
2.67146 -2.61161 1.92345
2.48846 -2.59111 1.48325
0.91446 -3.19161 3.40395
0.90546 -3.30071 3.39725
1.24946 -3.14071 3.65735
1.26046 -3.02731 3.66585
1.66346 -2.95891 3.74405
1.67646 -2.84031 3.75315
0.86346 -3.56241 3.39505
0.77646 -4.05171 3.39505
1.12446 -3.92131 3.65455
1.20846 -3.41261 3.65455
1.54246 -3.77471 3.74105
1.62346 -3.24281 3.74105
1.96246 -3.63541 3.65455
2.04046 -3.08021 3.65455
2.07946 -2.78421 3.65735
2.10046 -2.62211 3.68285
2.09546 -2.66051 3.66585
0.69746 -3.32211 1.91255
0.91446 -3.24741 1.46995
0.92546 -3.27731 1.48325
0.71146 -3.35091 1.91975
0.91646 -3.38561 1.48995
0.70246 -3.45681 1.92345
0.63046 -3.46331 2.44365
0.63846 -3.35811 2.44365
0.87246 -3.64691 1.49215
0.78146 -4.13551 1.49215
0.56746 -4.18911 1.92465
0.65946 -3.71211 1.92465
0.49646 -4.19001 2.44365
0.58746 -3.71671 2.44365
0.56646 -4.14281 2.96255
0.65646 -3.66531 2.96255
0.69846 -3.40971 2.96375
0.70646 -3.30351 2.96745
2.14346 -2.72041 1.20435
2.13746 -2.75751 1.22135
2.12046 -2.88071 1.22985
1.69746 -3.06651 1.14315
1.71146 -2.94861 1.13405
1.99546 -3.73261 1.23265
2.07846 -3.17671 1.23265
1.56846 -3.88241 1.14615
1.65446 -3.35031 1.14615
1.13846 -4.02501 1.23265
1.22846 -3.51661 1.23265
1.27146 -3.24521 1.22985
1.27746 -3.10071 1.20435
1.28346 -3.13261 1.22135
1.97546 -7.65751 2.97815
1.75346 -7.62581 3.41075
1.66846 -8.20521 3.42645
1.89146 -8.24821 2.99385
1.59946 -8.56831 3.46475
1.82346 -8.61591 3.03205
1.89846 -8.64741 2.51275
1.96646 -8.27851 2.47465
2.05146 -7.68391 2.45915
1.51746 -8.85601 3.54235
1.39146 -9.20941 3.67545
1.61446 -9.25141 3.24175
1.74046 -8.90281 3.10925
1.69146 -9.27871 2.72145
1.81646 -8.93321 2.58955
1.61846 -9.28801 2.20105
1.39546 -9.27601 1.76745
1.51646 -8.93021 1.63675
1.74246 -8.94351 2.06985
1.59746 -8.64671 1.56065
1.82346 -8.65891 1.99335
1.66646 -8.28531 1.52295
1.75546 -7.70591 1.50755
1.97946 -7.70121 1.94005
1.89246 -8.29211 1.95555
0.50246 -7.53911 3.67025
0.13146 -7.52761 3.41075
0.0354603 -8.02421 3.42645
0.40946 -8.05481 3.68595
-0.0355397 -8.35101 3.46475
0.33946 -8.39011 3.72445
0.78446 -8.44581 3.81105
0.85446 -8.10041 3.77255
0.94446 -7.56231 3.75675
-0.11454 -8.63751 3.54235
-0.23154 -9.01311 3.67545
0.14046 -9.04901 3.93565
0.25946 -8.67741 3.80215
0.58246 -9.09951 4.02235
0.70446 -8.73361 3.88875
1.02346 -9.15581 3.93565
1.14746 -8.79641 3.80215
1.22946 -8.50841 3.72445
1.38546 -7.59261 3.67025
1.29846 -8.15331 3.68595
-0.11454 -7.57451 1.94005
0.10346 -7.60581 1.50755
0.00446026 -8.10101 1.52295
-0.21454 -8.05851 1.95555
-0.0685397 -8.42541 1.56065
-0.28654 -8.37851 1.99335
-0.35254 -8.34841 2.51275
-0.27954 -8.02941 2.47465
-0.18054 -7.54871 2.45915
-0.14554 -8.70761 1.63675
-0.25754 -9.07611 1.76745
-0.47554 -9.03471 2.20105
-0.36354 -8.66151 2.06985
-0.54154 -9.00861 2.72145
-0.42954 -8.63251 2.58955
-0.45954 -9.00051 3.24175
-0.34554 -8.62351 3.10925
-0.26754 -8.33821 3.03205
-0.0975397 -7.53191 2.97815
-0.19554 -8.01691 2.99385
1.37946 -7.69401 1.24805
1.28746 -8.25421 1.26335
1.21746 -8.60701 1.30095
0.76146 -8.55001 1.21445
0.83246 -8.20741 1.17685
0.92746 -7.67031 1.16155
1.01846 -9.23951 1.50725
1.13746 -8.88961 1.37685
0.56646 -9.18781 1.42055
0.68346 -8.83201 1.29025
0.11546 -9.13031 1.50725
0.22946 -8.76791 1.37685
0.30746 -8.48601 1.30095
0.47646 -7.63931 1.24805
0.37946 -8.15351 1.26335
0.57246 -12.5186 4.58285
0.30746 -12.5003 5.10024
0.43746 -12.6979 5.37724
0.74746 -12.7336 4.78085
0.64546 -12.9488 5.78645
0.99746 -12.9956 5.06165
1.12046 -13.0565 4.18875
0.86346 -12.7762 4.06515
0.67146 -12.5402 3.96205
0.93546 -13.2447 6.35924
1.37746 -13.658 7.25179
1.60546 -13.5344 5.72715
1.30746 -13.2828 5.43875
1.67946 -13.5935 4.42615
1.41046 -13.3476 4.32174
1.62246 -13.7683 3.19525
1.35546 -14.0822 2.03735
0.97846 -13.6048 2.40985
1.32946 -13.4769 3.25475
0.70346 -13.2026 2.62235
1.03146 -13.1335 3.32835
0.49346 -12.8542 2.75305
0.35546 -12.5792 2.82375
0.60046 -12.5616 3.34115
0.78046 -12.8188 3.34945
-1.12954 -12.4875 5.41075
-1.54854 -12.4977 5.10024
-1.73054 -12.6968 5.37724
-1.24154 -12.6757 5.73515
-1.97554 -12.9485 5.78645
-1.38854 -12.9139 6.20265
-0.67154 -12.8996 6.33362
-0.65254 -12.6689 5.85444
-0.62554 -12.4847 5.51425
-2.29154 -13.2446 6.35912
-2.75854 -13.6579 7.25147
-1.70954 -13.5014 7.64957
-1.58054 -13.1952 6.8367
-0.69354 -13.4584 7.75526
-0.68454 -13.1677 6.96476
0.32346 -13.5015 7.64966
0.21246 -13.1953 6.83676
0.0474603 -12.914 6.20265
-0.11954 -12.489 5.41075
-0.0615397 -12.6763 5.73515
-1.79354 -12.5582 3.34115
-1.53454 -12.5765 2.82375
-1.71454 -12.8531 2.75305
-2.01754 -12.8174 3.34945
-1.94454 -13.2023 2.62235
-2.29254 -13.1331 3.32825
-2.40554 -13.056 4.18865
-2.12054 -12.7747 4.06515
-1.88154 -12.5366 3.96205
-2.22654 -13.6047 2.40965
-2.59954 -14.0821 2.03695
-2.89554 -13.7683 3.19475
-2.60054 -13.4768 3.25445
-2.98654 -13.5934 4.42555
-2.71154 -13.3475 4.32155
-2.94754 -13.5344 5.72655
-2.63854 -13.2828 5.43855
-2.30754 -12.9952 5.06154
-1.79954 -12.5152 4.58285
-2.02354 -12.7322 4.78085
-0.0695397 -12.5893 2.51335
-0.00153974 -12.8752 2.39525
0.11146 -13.2401 2.21295
-0.61354 -13.2508 2.08235
-0.60354 -12.882 2.27595
-0.58454 -12.5922 2.40985
0.39846 -14.1348 1.64175
0.27046 -13.6655 1.95945
-0.61554 -14.148 1.53825
-0.61654 -13.679 1.83285
-1.63354 -14.1347 1.64155
-1.50654 -13.6655 1.95935
-1.34154 -13.2399 2.21295
-1.10154 -12.5878 2.51335
-1.20854 -12.8746 2.39525
4.31346 -14.1049 5.75215
4.28246 -14.1325 6.9
4.59146 -14.5207 6.87631
4.62246 -14.495 5.69915
4.87746 -14.9893 6.84395
4.90846 -14.966 5.63155
4.91546 -14.993 4.30564
4.63846 -14.5432 4.43825
4.33946 -14.174 4.53935
5.12146 -15.4633 6.8097
5.30846 -15.8675 6.78038
5.34046 -15.8507 5.50355
5.15346 -15.4429 5.56215
5.33846 -15.8501 4.09255
5.15446 -15.4534 4.18635
5.26346 -15.8588 2.73795
5.07346 -15.87 1.63005
4.91546 -15.51 1.78835
5.08846 -15.4805 2.86695
4.71946 -15.1044 2.03495
4.86546 -15.0494 3.05125
4.50946 -14.7288 2.39475
4.33646 -14.4734 2.77055
4.34846 -14.3175 3.46975
4.61646 -14.6423 3.29445
-1.33954 -14.7079 11.0998
-1.78154 -14.7549 10.8981
-1.95154 -15.0012 11.0998
-1.37154 -15.0441 11.4706
-2.07454 -15.3456 11.2491
-1.43654 -15.3956 11.658
-0.70154 -15.4086 11.7946
-0.70154 -15.0437 11.5955
-0.70154 -14.6861 11.1993
-2.11554 -15.7011 11.2989
-2.11554 -16.0067 11.2989
-1.45754 -16.0286 11.7204
-1.45754 -15.74 11.7204
-0.70154 -16.0359 11.8609
-0.70154 -15.753 11.8609
0.0544603 -16.0286 11.7204
0.71246 -16.0068 11.2989
0.71246 -15.7011 11.2989
0.0544603 -15.74 11.7204
0.67146 -15.3457 11.2491
0.0334603 -15.3956 11.658
0.54846 -15.0013 11.0998
0.37946 -14.7549 10.8981
-0.0635397 -14.7079 11.0998
-0.0315397 -15.0441 11.4706
-5.59954 -14.3174 3.39505
-5.57354 -14.4733 2.69845
-5.74254 -14.7287 2.31995
-5.86854 -14.6422 3.21475
-5.95254 -15.1043 1.95815
-6.12154 -15.0493 2.96895
-6.20254 -14.9929 4.22064
-5.91854 -14.5432 4.35595
-5.61654 -14.1739 4.46265
-6.15654 -15.5099 1.71085
-6.32254 -15.8699 1.55255
-6.53854 -15.8587 2.65485
-6.35354 -15.4804 2.78385
-6.64654 -15.85 4.00665
-6.45254 -15.4533 4.10054
-6.68254 -15.8506 5.41675
-6.68254 -15.8675 6.69365
-6.48554 -15.4632 6.72297
-6.48554 -15.4429 5.47535
-6.22954 -14.9893 6.75815
-6.22954 -14.9659 5.54574
-5.93454 -14.5207 6.79332
-5.62154 -14.1324 6.82265
-5.62154 -14.1049 5.67475
-5.93454 -14.4949 5.61615
1.27846 -14.6315 1.36385
0.42046 -14.6312 1.26685
1.24346 -15.1134 0.932445
0.39646 -15.1133 0.907945
-0.61454 -15.1152 0.893345
-0.61554 -14.6391 1.20925
1.23146 -15.5395 0.638545
1.23146 -15.8811 0.450945
0.38846 -15.8811 0.450545
0.38846 -15.5394 0.638145
-0.61454 -15.8811 0.450345
-0.61454 -15.5394 0.637945
-1.61654 -15.8811 0.450245
-2.45754 -15.8811 0.450245
-2.45754 -15.5394 0.637945
-1.61654 -15.5394 0.637945
-2.47054 -15.1133 0.931845
-1.62554 -15.1132 0.907645
-2.51054 -14.6315 1.36325
-1.65154 -14.6312 1.26665
-2.44754 -14.0347 8.61199
-1.66754 -13.814 8.65359
-2.23154 -14.3227 9.63766
-1.53954 -14.1208 9.66173
-0.70054 -14.0596 9.69013
-0.69854 -13.7567 8.71253
-2.00254 -14.5706 10.4323
-1.41254 -14.4094 10.487
-0.70154 -14.3637 10.5416
0.59946 -14.5706 10.4323
0.00946026 -14.4095 10.487
0.82946 -14.3228 9.6377
0.13846 -14.1208 9.66175
1.05146 -14.0347 8.61211
0.27146 -13.8141 8.65364
-3.03354 -14.305 7.87953
-2.85154 -14.4671 8.72289
-3.14554 -14.8837 8.12547
-3.01254 -14.9897 8.86327
-2.81554 -15.1223 9.73464
-2.62854 -14.6835 9.67906
-3.18254 -15.4156 8.20747
-3.18254 -15.8461 8.20747
-3.06654 -15.8826 8.91006
-3.06654 -15.4805 8.91006
-2.87854 -15.9264 9.75317
-2.87854 -15.5583 9.75317
-2.57454 -15.9702 10.5963
-2.57454 -15.6362 10.5963
-2.51854 -15.2477 10.569
-2.34954 -14.8713 10.487
1.02446 -16.3787 8.56048
0.25446 -16.3922 8.48839
0.82346 -16.3774 9.62479
0.13446 -16.39 9.62043
-0.70054 -16.3941 9.63021
-0.69654 -16.396 8.47289
0.59946 -16.375 10.4323
0.37946 -16.3712 10.8981
-0.0635397 -16.3774 11.0998
0.00946026 -16.3858 10.487
-0.70154 -16.3804 11.1993
-0.70154 -16.3895 10.5416
-1.33954 -16.3774 11.0998
-1.78154 -16.3712 10.8981
-2.00254 -16.3749 10.4323
-1.41254 -16.3858 10.487
-2.22454 -16.3774 9.62475
-1.53454 -16.39 9.62041
-2.42054 -16.3787 8.56034
-1.64754 -16.3921 8.48831
1.64046 -14.3051 7.88005
1.45246 -14.4672 8.72307
1.22646 -14.6835 9.6791
1.41346 -15.1223 9.7347
1.61246 -14.9897 8.86351
1.74746 -14.8838 8.12609
0.94646 -14.8713 10.487
1.11546 -15.2478 10.569
1.17246 -15.9703 10.5963
1.17246 -15.6362 10.5963
1.47546 -15.9265 9.75323
1.47546 -15.5584 9.75323
1.66546 -15.8827 8.91032
1.78246 -15.8462 8.20811
1.78246 -15.4156 8.20811
1.66546 -15.4805 8.91032
2.19046 -4.46031 3.39505
2.40946 -4.42501 2.96255
2.03846 -5.57421 3.39665
2.25846 -5.56271 2.96415
2.33646 -5.57401 2.44515
2.48846 -4.42791 2.44365
1.88446 -6.68911 3.40135
2.10646 -6.70121 2.96885
2.18346 -6.72081 2.44985
1.89346 -6.76821 1.49835
2.11346 -6.74431 1.93085
2.05546 -5.65171 1.49375
2.27046 -5.60471 1.92615
2.21546 -4.53601 1.49215
2.42546 -4.46591 1.92465
1.85746 -4.63521 1.23265
1.69046 -5.71161 1.23425
1.25146 -5.77431 1.14775
1.42446 -4.74541 1.14615
1.52246 -6.78881 1.23885
1.07646 -6.80421 1.15235
0.26046 -6.81141 1.49835
0.63046 -6.81251 1.23885
0.44546 -5.86811 1.49375
0.81046 -5.82981 1.23425
0.62846 -4.92601 1.49215
0.99046 -4.84841 1.23265
0.41446 -4.96011 1.92465
0.22946 -5.87891 1.92615
0.16146 -5.86641 2.44515
0.34446 -4.95491 2.44365
0.0434603 -6.79921 1.93085
-0.0235397 -6.77931 2.44985
0.28046 -6.73161 3.40135
0.0564603 -6.75561 2.96885
0.45746 -5.78671 3.39665
0.23746 -5.83431 2.96415
0.63146 -4.84331 3.39505
0.41746 -4.91461 2.96255
0.98546 -4.74521 3.65455
0.81746 -5.72751 3.65615
1.24746 -5.66601 3.74265
1.40846 -4.63741 3.74105
0.64746 -6.71111 3.66085
1.08346 -6.69591 3.74735
1.51946 -6.68791 3.66085
1.67746 -5.61181 3.65615
1.83346 -4.53681 3.65455
0.89646 -3.22161 1.44775
-0.41654 -9.60741 3.88055
-0.0495397 -9.63701 4.14125
-0.63854 -10.3109 4.12164
-0.27554 -10.3332 4.38295
0.15746 -10.3644 4.47005
0.38846 -9.67861 4.22815
-0.86454 -11.0145 4.36284
-1.06454 -11.6088 4.56795
-0.71054 -11.6174 4.83035
-0.50754 -11.0294 4.62465
-0.28654 -11.6294 4.91775
-0.0795397 -11.0503 4.71195
0.13846 -11.6429 4.83035
0.49646 -11.6557 4.56795
0.71046 -11.0958 4.36284
0.34946 -11.0736 4.62465
0.95346 -10.4325 4.12164
0.59046 -10.3994 4.38295
1.19246 -9.76931 3.88055
0.82646 -9.72511 4.14125
1.41446 -9.80401 3.44605
1.17546 -10.4586 3.68615
1.25446 -10.4755 3.16365
1.49246 -9.82651 2.92465
0.71746 -11.6658 4.13065
0.93146 -11.1132 3.92635
0.79846 -11.6723 3.60585
1.01146 -11.1245 3.40255
0.73646 -11.6745 3.08105
0.52746 -11.6717 2.64375
0.73546 -11.1233 2.44235
0.94646 -11.1283 2.87875
0.97046 -10.4738 2.20555
1.18646 -10.4812 2.64105
1.20246 -9.82431 1.96885
1.42246 -9.83411 2.40335
0.83046 -9.79421 1.70815
0.60346 -10.4512 1.94425
0.16046 -10.4192 1.85715
0.38246 -9.75151 1.62125
0.16946 -11.6629 2.38135
0.37246 -11.1082 2.18045
-0.26354 -11.6506 2.29385
-0.0645397 -11.0868 2.09315
-0.69854 -11.6368 2.38135
-1.06154 -11.6238 2.64375
-0.86854 -11.0406 2.44235
-0.50354 -11.063 2.18045
-0.64954 -10.35 2.20555
-0.28254 -10.3835 1.94425
-0.43554 -9.65931 1.96885
-0.0655397 -9.70401 1.70815
-0.65354 -9.62511 2.40335
-0.86754 -10.3243 2.64105
-0.93654 -10.3081 3.16365
-0.72154 -9.60361 2.92465
-1.27754 -11.6139 3.08105
-1.08554 -11.0234 2.87875
-1.34954 -11.6077 3.60585
-1.15554 -11.0126 3.40255
-1.27754 -11.6058 4.13065
-1.08154 -11.0093 3.92635
-0.85954 -10.3031 3.68615
-0.64154 -9.59701 3.44605
-1.20454 -11.9844 4.70105
-0.85354 -11.9889 4.96375
-1.31254 -12.2113 4.80535
-0.95654 -12.2123 5.07305
-0.52854 -12.215 5.16225
-0.43254 -11.9953 5.05135
-1.41854 -12.3591 4.92405
-1.04154 -12.3558 5.20605
-0.58854 -12.3557 5.30005
0.25046 -12.3644 4.92405
-0.13354 -12.3587 5.20605
0.26446 -12.223 4.80535
-0.0985397 -12.2187 5.07305
0.34746 -12.0091 4.70105
-0.00953974 -12.0024 4.96375
0.56746 -12.0144 4.26314
0.48946 -12.2273 4.35925
0.57346 -12.231 3.82395
0.64946 -12.0178 3.73775
0.48846 -12.3726 4.45414
0.57746 -12.3818 3.89015
0.29246 -12.3973 2.85635
0.51346 -12.3906 3.32625
0.30346 -12.2347 2.84255
0.51246 -12.2337 3.28865
0.38246 -12.0175 2.77445
0.58846 -12.019 3.21235
0.0274603 -12.0129 2.51175
-0.0575397 -12.2336 2.57495
-0.49554 -12.2309 2.48575
-0.40354 -12.0064 2.42415
-0.0885397 -12.4006 2.57435
-0.55154 -12.4006 2.48035
-1.40654 -12.3919 2.85635
-1.01754 -12.3977 2.57435
-1.30354 -12.2228 2.84255
-0.93554 -12.2271 2.57495
-1.19754 -11.9923 2.77445
-0.83654 -11.9991 2.51175
-1.41354 -11.9871 3.21235
-1.52354 -12.2186 3.28865
-1.59754 -12.2149 3.82395
-1.48554 -11.9838 3.73775
-1.63954 -12.3837 3.32625
-1.71854 -12.3745 3.89015
-1.64454 -12.3658 4.45414
-1.52654 -12.2123 4.35925
-1.41554 -11.9828 4.26314
1.77446 -13.8482 6.80575
1.82246 -13.6897 5.74155
1.94446 -13.9236 6.62421
1.97646 -13.7699 5.65015
2.01446 -13.8085 4.46705
1.87346 -13.738 4.46355
2.06146 -13.9488 6.56516
2.17746 -13.9488 6.56791
2.20446 -13.7967 5.62395
2.08846 -13.7967 5.62115
2.23646 -13.832 4.47245
2.12146 -13.832 4.46965
2.26946 -14.0197 3.28335
2.29646 -14.3248 2.22685
2.18146 -14.3248 2.22405
2.15446 -14.0197 3.28065
2.04346 -14.3039 2.20525
2.03446 -13.9966 3.26355
1.81346 -14.2411 2.15305
1.85746 -13.9272 3.21665
1.87046 -15.8243 7.7872
1.87046 -15.3767 7.7872
1.94846 -15.8133 7.57755
1.94846 -15.3573 7.57755
1.94546 -14.8268 7.48324
1.85346 -14.8383 7.69319
2.03446 -15.8097 7.50912
2.14946 -15.8097 7.51189
2.14946 -15.3508 7.51188
2.03446 -15.3508 7.50912
2.15246 -14.8229 7.41749
2.03746 -14.8229 7.41472
2.16046 -14.3232 7.13429
2.04546 -14.3232 7.13153
1.93946 -14.3124 7.20035
1.80346 -14.2799 7.41117
1.72846 -16.363 1.39555
1.70346 -16.3851 2.52715
2.02246 -16.363 1.39665
1.99546 -16.3851 2.52825
1.96646 -16.3936 3.89685
1.68346 -16.394 3.92785
2.18146 -16.363 1.39845
2.29646 -16.363 1.40125
2.26946 -16.3851 2.53285
2.15446 -16.3851 2.53005
2.23646 -16.3935 3.89075
2.12146 -16.3935 3.88805
2.20446 -16.389 5.24865
2.17746 -16.3725 6.38029
2.06146 -16.3725 6.37752
2.08846 -16.389 5.24594
1.93046 -16.3734 6.44873
1.94246 -16.3895 5.28695
1.71846 -16.376 6.66673
1.68646 -16.3911 5.41435
1.78046 -14.6639 1.42485
2.04746 -14.7003 1.45765
2.04846 -15.1306 0.957245
1.76146 -15.1215 0.948245
2.31246 -14.7124 1.47285
2.19746 -14.7124 1.47005
2.32146 -15.1336 0.964445
2.20546 -15.1336 0.961745
2.32346 -15.5395 0.644945
2.32346 -15.8812 0.457245
2.20846 -15.8812 0.454545
2.20846 -15.5395 0.642145
2.04946 -15.8812 0.452645
2.04946 -15.5395 0.640345
1.75446 -15.8812 0.451545
1.75446 -15.5395 0.639245
-3.05954 -14.241 2.15185
-3.13054 -13.9271 3.21545
-3.28854 -14.3038 2.20285
-3.30654 -13.9965 3.26115
-3.31854 -13.8084 4.46464
-3.18054 -13.738 4.46224
-3.42354 -14.3247 2.21985
-3.53754 -14.3247 2.21985
-3.53754 -14.0196 3.27635
-3.42354 -14.0196 3.27635
-3.53754 -13.8319 4.46545
-3.42354 -13.8319 4.46545
-3.53754 -13.7966 5.61695
-3.53754 -13.9487 6.5609
-3.42354 -13.9487 6.5609
-3.42354 -13.7966 5.61695
-3.31054 -13.9236 6.62183
-3.31454 -13.7699 5.64785
-3.14654 -13.8482 6.80457
-3.16454 -13.6896 5.74035
-2.97654 -15.8811 0.450245
-2.97654 -15.5394 0.637945
-3.26754 -15.8811 0.450245
-3.26754 -15.5394 0.637945
-3.27054 -15.1305 0.954845
-2.98554 -15.1214 0.946945
-3.42354 -15.8811 0.450245
-3.53754 -15.8811 0.450245
-3.53754 -15.5394 0.637945
-3.42354 -15.5394 0.637945
-3.53754 -15.1335 0.957445
-3.42354 -15.1335 0.957445
-3.53754 -14.7123 1.46585
-3.42354 -14.7123 1.46585
-3.27654 -14.7002 1.45525
-3.01254 -14.6639 1.42365
-3.09054 -16.376 6.66551
-3.03054 -16.391 5.41304
-3.29654 -16.3733 6.44634
-3.28154 -16.3894 5.28454
-3.27254 -16.3935 3.89445
-2.99354 -16.3939 3.92665
-3.42354 -16.3725 6.37328
-3.53754 -16.3725 6.37328
-3.53754 -16.3889 5.24165
-3.42354 -16.3889 5.24165
-3.53754 -16.3934 3.88375
-3.42354 -16.3934 3.88375
-3.53754 -16.3851 2.52585
-3.53754 -16.3629 1.39425
-3.42354 -16.3629 1.39425
-3.42354 -16.3851 2.52585
-3.26854 -16.3629 1.39425
-3.26854 -16.3851 2.52585
-2.97854 -16.3629 1.39425
-2.98054 -16.3851 2.52585
-3.19054 -14.2799 7.40996
-3.32154 -14.3123 7.19796
-3.33554 -14.8267 7.48083
-3.24754 -14.8382 7.69192
-3.53754 -14.3232 7.12729
-3.42354 -14.3232 7.12729
-3.53754 -14.8229 7.41048
-3.42354 -14.8228 7.41048
-3.53754 -15.3507 7.50488
-3.53754 -15.8096 7.50488
-3.42354 -15.8096 7.50488
-3.42354 -15.3507 7.50488
-3.34054 -15.8132 7.57514
-3.34054 -15.3572 7.57514
-3.26654 -15.8242 7.78591
-3.26654 -15.3766 7.78591
3.07346 -13.7667 5.82135
3.02646 -13.9128 7.08848
3.34146 -13.8024 6.96607
3.36846 -13.7426 5.82405
3.65046 -13.7976 6.9229
3.68046 -13.7608 5.79555
3.72246 -13.8492 4.55435
3.41346 -13.8185 4.55034
3.11746 -13.8245 4.54095
3.96646 -13.8995 6.90821
3.99746 -13.8709 5.77795
4.03246 -13.9552 4.56445
4.13846 -14.3976 2.52185
4.06846 -14.1334 3.45025
3.84946 -14.343 2.33475
3.77546 -14.0481 3.35925
3.52746 -14.3248 2.26395
3.20646 -14.3248 2.25245
3.16146 -14.0197 3.30905
3.46546 -14.0197 3.32055
3.26846 -15.799 9.11227
3.29746 -16.0618 9.11227
3.65546 -16.0898 9.29623
3.59646 -15.8488 9.29623
4.08746 -16.0992 9.36567
3.99446 -15.8654 9.36567
3.88446 -15.573 9.33819
3.53646 -15.554 9.27073
3.24946 -15.4877 9.09231
4.52346 -16.0898 9.31874
4.88946 -16.0618 9.15353
4.73146 -15.799 9.15353
4.39446 -15.8488 9.31874
4.53746 -15.4877 9.13227
4.23946 -15.554 9.29251
4.33546 -15.1746 9.06845
4.17146 -14.9413 8.98223
3.96346 -14.9166 9.05953
4.08246 -15.2389 9.21383
3.69646 -14.9063 9.09169
3.77946 -15.2481 9.25576
3.45746 -14.9166 9.0414
3.30746 -14.9413 8.95166
3.26346 -15.1746 9.03249
3.49446 -15.2389 9.19423
3.33646 -16.3851 2.55845
3.36346 -16.363 1.42685
3.84346 -16.363 1.43835
3.81646 -16.3851 2.56995
4.33146 -16.3607 1.53035
4.31346 -16.3822 2.62595
4.29046 -16.3929 3.98395
3.77846 -16.3954 3.97205
3.29646 -16.3946 3.96435
4.74146 -16.3537 1.78075
4.99246 -16.3444 2.11175
5.08746 -16.3558 2.86465
4.74846 -16.3734 2.76845
5.14146 -16.3654 4.05564
4.76346 -16.3839 4.02455
5.13646 -16.3704 5.43554
5.10446 -16.3732 6.74168
4.71446 -16.3892 6.73231
4.74546 -16.3881 5.42615
4.22446 -16.3958 6.74328
4.25646 -16.3961 5.42954
3.69546 -16.394 6.79871
3.15446 -16.3826 6.95999
3.24046 -16.3936 5.46625
3.72946 -16.3966 5.46235
3.25146 -14.7124 1.49845
3.60246 -14.7124 1.50995
3.95746 -14.7192 1.60535
4.07846 -15.132 1.11335
3.68046 -15.1336 1.00165
3.29446 -15.1336 0.990145
4.27546 -14.7396 1.86595
4.44146 -15.127 1.42345
4.72846 -15.8767 0.959245
4.59946 -15.5277 1.13515
4.28746 -15.88 0.616945
4.19446 -15.5365 0.801645
3.81146 -15.8812 0.494445
3.36146 -15.8812 0.482945
3.33246 -15.5395 0.670545
3.75346 -15.5395 0.682045
-4.43254 -14.0196 3.27635
-4.45054 -14.3247 2.21985
-4.76654 -14.3247 2.21985
-4.72954 -14.0196 3.27635
-5.08254 -14.3429 2.27885
-5.03154 -14.048 3.30315
-5.00954 -13.8491 4.49804
-4.70954 -13.8184 4.50625
-4.42154 -13.8244 4.50854
-5.37054 -14.3975 2.45605
-5.32054 -14.1333 3.38365
-5.31254 -13.9551 4.49675
-5.30954 -13.8994 6.84024
-5.30954 -13.8708 5.70995
-5.00354 -13.7975 6.86666
-5.00154 -13.7607 5.73924
-4.70754 -13.8023 6.92248
-4.40654 -13.9128 7.05775
-4.41554 -13.7667 5.78935
-4.70154 -13.7425 5.78034
-4.55554 -15.5394 0.637945
-4.58654 -15.8811 0.450245
-5.03754 -15.8811 0.450245
-4.97554 -15.5394 0.637945
-5.51454 -15.88 0.560545
-5.41654 -15.5364 0.745245
-5.29754 -15.1319 1.05705
-4.90154 -15.1335 0.957445
-4.51854 -15.1335 0.957445
-5.96254 -15.8766 0.891245
-5.82654 -15.5276 1.06715
-5.66354 -15.127 1.35575
-5.49854 -14.7395 1.79935
-5.17854 -14.7191 1.54925
-4.48154 -14.7123 1.46585
-4.82754 -14.7123 1.46585
-4.59154 -16.3935 5.43435
-4.54154 -16.3826 6.92927
-5.08054 -16.3939 6.75511
-5.08154 -16.3965 5.41864
-5.60854 -16.3957 6.68703
-5.60954 -16.3961 5.37325
-5.60854 -16.3929 3.92765
-5.09454 -16.3953 3.92805
-4.61054 -16.3946 3.93195
-6.09754 -16.3892 6.66433
-6.48854 -16.3731 6.66433
-6.48854 -16.3704 5.35815
-6.09754 -16.388 5.35815
-6.46154 -16.3654 3.97885
-6.08254 -16.3838 3.95685
-6.37754 -16.3557 2.78985
-6.26554 -16.3443 2.03965
-6.00654 -16.3536 1.71485
-6.03654 -16.3733 2.70185
-5.59054 -16.3606 1.47445
-5.59854 -16.3821 2.56985
-5.09854 -16.3629 1.39425
-4.61754 -16.3629 1.39425
-4.61754 -16.3851 2.52585
-5.09854 -16.3851 2.52585
-4.69354 -15.1745 8.99409
-4.73154 -14.9413 8.91055
-4.87754 -14.9166 8.99409
-4.92254 -15.2389 9.1477
-5.11054 -14.9062 9.03533
-5.20254 -15.248 9.19944
-5.31554 -15.5729 9.28191
-4.97054 -15.5539 9.22532
-4.68454 -15.4876 9.05593
-5.37054 -14.9166 8.99409
-5.57354 -14.9413 8.91055
-5.74254 -15.1745 8.99409
-5.49854 -15.2389 9.1477
-5.95254 -15.4876 9.05593
-5.66354 -15.5539 9.22532
-6.15654 -15.7989 9.07656
-6.32254 -16.0618 9.07656
-5.96254 -16.0898 9.25119
-5.82654 -15.8487 9.25119
-5.52954 -16.0991 9.30939
-5.43154 -15.8653 9.30939
-5.09754 -16.0898 9.25119
-4.73754 -16.0618 9.07656
-4.70654 -15.7989 9.07656
-5.03654 -15.8487 9.25119
2.81946 -15.4338 7.81908
2.81946 -15.8564 7.81908
2.90046 -15.9031 8.11217
2.90046 -15.5168 8.11217
2.97246 -15.9591 8.46334
2.96946 -15.6164 8.46334
2.98646 -15.2118 8.45253
2.92146 -15.0548 8.07757
2.83746 -14.9265 7.75478
3.08746 -16.0151 8.81567
3.07646 -15.716 8.81567
3.08146 -15.3648 8.80519
3.22846 -14.741 8.75605
3.12546 -15.0179 8.77374
3.16346 -14.4771 8.3904
3.04346 -14.8073 8.42012
3.11346 -14.1982 7.86124
2.89146 -14.4027 7.56187
2.98246 -14.5812 7.97373
5.08146 -16.3763 7.71161
4.69046 -16.3905 7.70223
5.03746 -16.3783 8.38262
4.65946 -16.3904 8.37918
4.20246 -16.3946 8.37767
4.20946 -16.3957 7.70582
4.94446 -16.3778 8.79203
4.82846 -16.3752 8.98223
4.56646 -16.381 9.05953
4.60346 -16.3877 8.80647
4.18846 -16.3837 9.09169
4.19446 -16.3911 8.81931
3.81146 -16.381 9.0414
3.55446 -16.3752 8.95166
3.44646 -16.3778 8.75605
3.78646 -16.3877 8.78687
3.35246 -16.3791 8.37903
3.73946 -16.3909 8.37226
3.28046 -16.3796 7.81582
3.70446 -16.3925 7.73911
4.25846 -14.2788 7.77494
4.56846 -14.6436 7.76884
4.23646 -14.4973 8.39845
4.53446 -14.8229 8.40662
4.80946 -15.219 8.41434
4.85346 -15.0837 7.75758
4.20646 -14.741 8.79203
4.47146 -15.0179 8.8196
4.71646 -15.3648 8.85606
5.11346 -16.0151 8.8682
4.93746 -15.716 8.8682
5.23246 -15.9602 8.41162
5.04846 -15.6193 8.41456
5.28546 -15.9075 7.73272
5.09846 -15.5286 7.74445
3.34346 -14.0079 7.80066
3.36846 -14.2952 8.38764
3.63246 -14.2445 8.3953
3.63346 -13.974 7.77633
3.41046 -14.6001 8.78687
3.65046 -14.5636 8.81931
3.92346 -14.6001 8.80647
3.92846 -14.3082 8.39678
3.94246 -14.06 7.77259
-4.28954 -14.4027 7.53606
-4.51354 -14.1981 7.82711
-4.39154 -14.5811 7.9452
-4.57654 -14.4771 8.35429
-4.46354 -14.8073 8.38947
-4.41054 -15.2117 8.42455
-4.33554 -15.0547 8.05153
-4.24154 -14.9264 7.73096
-4.64954 -14.741 8.71759
-4.55254 -15.0178 8.74022
-4.51254 -15.3648 8.77419
-4.52154 -16.0151 8.78551
-4.50854 -15.7159 8.78551
-4.39854 -15.959 8.43624
-4.39454 -15.6163 8.43624
-4.31654 -15.903 8.08698
-4.22654 -15.8563 7.79593
-4.22654 -15.4337 7.79593
-4.31654 -15.5167 8.08698
-5.62154 -14.2788 7.69767
-5.30954 -14.0599 7.70471
-5.61654 -14.4972 8.32193
-5.31254 -14.3081 8.32936
-5.02454 -14.2445 8.33883
-5.00954 -13.9739 7.71997
-5.59954 -14.741 8.71759
-5.32054 -14.6 8.74022
-5.05454 -14.5635 8.76287
-4.82354 -14.6 8.74022
-4.77154 -14.2951 8.34227
-4.73154 -14.0078 7.75641
-6.68254 -15.9075 7.64607
-6.48554 -15.5285 7.65779
-6.64654 -15.9601 8.32602
-6.45254 -15.6193 8.32895
-6.20254 -15.2189 8.32963
-6.22954 -15.0837 7.67186
-6.53854 -16.0151 8.78551
-6.35354 -15.7159 8.78551
-6.12154 -15.3648 8.77419
-5.86854 -15.0178 8.74022
-5.91854 -14.8229 8.32467
-5.93454 -14.6436 7.68594
-4.68954 -16.3796 7.7817
-5.11154 -16.3925 7.69486
-4.77654 -16.379 8.34295
-5.16254 -16.3909 8.32689
-5.62554 -16.3945 8.32121
-5.61654 -16.3956 7.64947
-4.87854 -16.3778 8.71759
-4.99154 -16.3751 8.91055
-5.25054 -16.3809 8.99409
-5.22054 -16.3876 8.74022
-5.62854 -16.3836 9.03533
-5.62854 -16.391 8.76287
-6.00654 -16.3809 8.99409
-6.26554 -16.3751 8.91055
-6.37754 -16.3778 8.71759
-6.03654 -16.3876 8.74022
-6.46154 -16.3782 8.3061
-6.08254 -16.3903 8.31176
-6.48854 -16.3762 7.63434
-6.09754 -16.3904 7.63434
5.42146 -16.1272 6.76278
5.39746 -16.15 7.72569
5.34346 -16.1779 8.40987
5.36046 -16.301 8.40524
5.41446 -16.2878 7.72123
5.43846 -16.2757 6.75306
4.98346 -16.2296 9.15353
5.21846 -16.206 8.8682
5.00446 -16.3235 9.13227
5.23646 -16.3134 8.85606
4.93846 -16.365 9.06845
5.15046 -16.3619 8.8196
5.26546 -16.3581 8.39373
5.33946 -16.3465 6.7473
5.31646 -16.3526 7.71724
5.45246 -16.1142 5.46835
5.46946 -16.2666 5.44985
5.46646 -16.2597 4.01825
5.44946 -16.1085 4.03625
5.37046 -16.341 5.44114
5.36946 -16.3347 4.03914
5.11246 -16.3208 1.78965
5.29546 -16.3265 2.78165
5.18646 -16.2507 1.56705
5.38546 -16.2542 2.66495
5.16846 -16.1086 1.53505
5.36846 -16.1075 2.66055
3.37946 -16.1098 0.370345
3.84746 -16.1098 0.381845
4.34346 -16.1097 0.506145
4.36546 -16.2498 0.560645
3.86146 -16.2499 0.438745
3.38546 -16.2499 0.427145
4.80546 -16.1093 0.853745
4.82646 -16.2497 0.901145
4.78646 -16.3218 1.18425
4.35546 -16.325 0.871945
3.38046 -16.3261 0.747945
3.85946 -16.3261 0.759445
1.23146 -16.1098 0.338345
1.75446 -16.1098 0.338945
2.04946 -16.1098 0.340145
2.04646 -16.2499 0.396945
1.75146 -16.2499 0.395845
1.22946 -16.2499 0.395245
2.32346 -16.1098 0.344745
2.20846 -16.1098 0.341945
2.32146 -16.2499 0.401545
2.20546 -16.2499 0.398845
2.31246 -16.3261 0.722345
2.19746 -16.3261 0.719545
2.03846 -16.3261 0.717745
1.22246 -16.3261 0.715945
1.74446 -16.3261 0.716545
0.38846 -16.1098 0.337945
0.38646 -16.2499 0.394845
-0.61554 -16.2499 0.394645
-0.61454 -16.1097 0.337745
0.38046 -16.3261 0.715545
-0.61954 -16.3261 0.715345
-2.45854 -16.3261 0.715245
-1.61954 -16.3261 0.715245
-2.45754 -16.2498 0.394545
-1.61754 -16.2499 0.394545
-2.45754 -16.1097 0.337745
-1.61654 -16.1097 0.337745
-2.97654 -16.1097 0.337745
-2.97654 -16.2498 0.394545
-3.26754 -16.2498 0.394545
-3.26754 -16.1097 0.337745
-2.97754 -16.3261 0.715245
-3.26854 -16.3261 0.715245
-3.53754 -16.3261 0.715245
-3.42354 -16.3261 0.715245
-3.53754 -16.2498 0.394545
-3.42354 -16.2498 0.394545
-3.53754 -16.1097 0.337745
-3.42354 -16.1097 0.337745
-4.60454 -16.1097 0.337745
-5.07454 -16.1097 0.337745
-4.61454 -16.2498 0.394545
-5.09254 -16.2498 0.394545
-5.59954 -16.2498 0.504345
-5.57354 -16.1096 0.449645
-4.61754 -16.3261 0.715245
-5.09854 -16.3261 0.715245
-5.59854 -16.325 0.815845
-6.37754 -16.3207 1.71485
-6.03654 -16.3217 1.11765
-6.44454 -16.2506 1.49025
-6.06854 -16.2496 0.833445
-6.42254 -16.1086 1.45755
-6.04354 -16.1092 0.785645
-6.64954 -16.1074 2.57745
-6.67054 -16.2541 2.58275
-6.78354 -16.2596 3.93325
-6.76354 -16.1084 3.95035
-6.58454 -16.3265 2.70185
-6.68854 -16.3346 3.95685
-6.72354 -16.3465 6.66433
-6.72354 -16.3409 5.35815
-6.82054 -16.2756 6.66725
-6.82054 -16.2665 5.36395
-6.80054 -16.1271 6.67605
-6.80054 -16.1141 5.38155
-6.80054 -16.15 7.63903
-6.82054 -16.2877 7.63552
-6.78354 -16.301 8.32055
-6.76354 -16.1778 8.32425
-6.72354 -16.3526 7.63434
-6.68854 -16.3581 8.31176
-6.37754 -16.3649 8.99409
-6.58454 -16.3618 8.74022
-6.44454 -16.3235 9.05593
-6.67054 -16.3133 8.77419
-6.42254 -16.2295 9.07656
-6.64954 -16.206 8.78551
-4.75554 -16.2295 9.07656
-5.13454 -16.2436 9.25119
-5.58954 -16.2483 9.30939
-5.61854 -16.3324 9.28191
-5.16854 -16.33 9.22532
-4.79254 -16.3235 9.05593
-6.04354 -16.2436 9.25119
-6.06854 -16.33 9.22532
-6.03654 -16.3687 9.1477
-5.62854 -16.3708 9.19944
-4.87854 -16.3649 8.99409
-5.22054 -16.3687 9.1477
-4.22654 -16.126 7.79593
-4.31654 -16.1495 8.08698
-4.39954 -16.1777 8.43624
-4.43754 -16.3014 8.42305
-4.35154 -16.2893 8.04553
-4.25354 -16.2791 7.7196
-4.52854 -16.206 8.78551
-4.56754 -16.3133 8.77419
-4.67254 -16.3618 8.74022
-4.54854 -16.3588 8.38348
-4.33754 -16.3522 7.49064
-4.45554 -16.3556 7.92118
-3.18254 -16.1208 8.20747
-3.26654 -16.1098 7.78591
-3.34054 -16.1043 7.57514
-3.33454 -16.269 7.46391
-3.24354 -16.2718 7.68048
-3.13854 -16.2769 8.12004
-3.53754 -16.1024 7.50488
-3.42354 -16.1024 7.50488
-3.53754 -16.268 7.39172
-3.42354 -16.268 7.39172
-3.53754 -16.3451 7.05224
-3.42354 -16.3451 7.05224
-3.31754 -16.3459 7.13022
-3.00654 -16.3513 7.85774
-3.17254 -16.3483 7.36416
-3.06654 -16.1392 8.91006
-3.00854 -16.2848 8.8612
-2.81454 -16.2941 9.73413
-2.87854 -16.1613 9.75317
-2.83354 -16.3538 8.71463
-2.62354 -16.3557 9.67698
-1.95154 -16.3592 11.0998
-2.34954 -16.3572 10.487
-2.07454 -16.311 11.2491
-2.51854 -16.3032 10.569
-2.11554 -16.2018 11.2989
-2.57454 -16.1834 10.5963
-1.45754 -16.2128 11.7204
-1.43654 -16.3163 11.658
-0.70154 -16.3183 11.7946
-0.70154 -16.2165 11.8609
-1.37154 -16.3627 11.4706
-0.70154 -16.3647 11.5955
0.54846 -16.3593 11.0998
-0.0315397 -16.3627 11.4706
0.67146 -16.3111 11.2491
0.0334603 -16.3163 11.658
0.71246 -16.2018 11.2989
0.0544603 -16.2128 11.7204
1.78246 -16.1209 8.20811
1.66546 -16.1393 8.91032
1.47546 -16.1614 9.75323
1.41246 -16.2941 9.73419
1.60746 -16.2849 8.86145
1.74046 -16.2769 8.12066
1.17246 -16.1834 10.5963
1.11546 -16.3033 10.569
0.94646 -16.3573 10.487
1.22146 -16.3558 9.67704
1.61346 -16.3514 7.85831
1.43446 -16.3538 8.71484
1.87046 -16.1099 7.7872
1.84946 -16.2718 7.68175
1.94446 -16.269 7.46631
1.94846 -16.1044 7.57755
1.78546 -16.3484 7.3654
1.93446 -16.346 7.13262
2.16046 -16.3452 7.05925
2.04546 -16.3452 7.05648
2.15246 -16.2681 7.39873
2.03746 -16.2681 7.39596
2.14946 -16.1025 7.51188
2.03446 -16.1025 7.50912
2.81946 -16.126 7.81908
2.90046 -16.1496 8.11217
2.84846 -16.2792 7.74343
2.93646 -16.2894 8.07156
3.01246 -16.3014 8.45103
2.97446 -16.1778 8.46334
2.93746 -16.3523 7.51647
3.04346 -16.3557 7.94971
3.12446 -16.3589 8.41411
3.43946 -16.365 9.03249
3.23946 -16.3619 8.77374
3.35246 -16.3235 9.09231
3.13346 -16.3134 8.80519
3.31546 -16.2296 9.11227
3.09446 -16.206 8.81567
3.69046 -16.2437 9.29623
3.72346 -16.3301 9.27073
4.17246 -16.3325 9.33819
4.14446 -16.2484 9.36567
3.77746 -16.3688 9.19423
4.18446 -16.3708 9.25576
4.59346 -16.3688 9.21383
4.62446 -16.3301 9.29251
4.60046 -16.2437 9.31874
2.34046 -13.9488 6.57185
2.36746 -13.7967 5.62785
2.54146 -13.9454 6.62005
2.57146 -13.7934 5.65945
2.60546 -13.8312 4.48835
2.40046 -13.832 4.47635
2.76646 -13.9353 6.75562
2.80746 -13.7835 5.74515
2.84646 -13.8287 4.51505
2.91846 -14.3248 2.24325
2.88446 -14.0197 3.29985
2.66846 -14.3248 2.23615
2.63946 -14.0197 3.29275
2.46046 -14.3248 2.23075
2.43346 -14.0197 3.28735
2.47646 -14.7124 1.47675
2.68746 -14.7124 1.48215
2.69946 -15.1336 0.973845
2.48446 -15.1336 0.968445
2.94646 -14.7124 1.48925
2.96846 -15.1336 0.980945
2.99746 -15.8812 0.473745
2.98546 -15.5395 0.661345
2.70846 -15.8812 0.466645
2.70546 -15.5395 0.654245
2.48746 -15.8812 0.461245
2.48746 -15.5395 0.648845
2.48746 -16.1098 0.348645
2.71046 -16.1098 0.354045
2.70846 -16.2499 0.410845
2.48446 -16.2499 0.405545
3.00446 -16.1098 0.361145
3.00446 -16.2499 0.418045
2.98146 -16.363 1.41765
2.99746 -16.3261 0.738745
2.68446 -16.363 1.41055
2.70046 -16.3261 0.731645
2.46046 -16.363 1.40515
2.47646 -16.3261 0.726245
2.43346 -16.3851 2.53675
2.65746 -16.3851 2.54215
2.62346 -16.3936 3.90745
2.40046 -16.3935 3.89475
2.95446 -16.3851 2.54925
2.91646 -16.394 3.93675
2.81146 -16.3762 6.58824
2.86846 -16.3911 5.38345
2.55246 -16.3734 6.43748
2.58746 -16.3895 5.28755
2.34046 -16.3725 6.38422
2.36746 -16.389 5.25265
2.31346 -15.8097 7.51581
2.31346 -16.1025 7.51581
2.31646 -16.2681 7.40265
2.50446 -16.2693 7.44006
2.49846 -16.1049 7.54935
2.49846 -15.8143 7.54935
2.32446 -16.3452 7.06317
2.52346 -16.3461 7.11221
2.74546 -16.3488 7.2503
2.69346 -16.2727 7.54328
2.67546 -15.8283 7.64095
2.67546 -16.1119 7.64095
2.31346 -15.3508 7.51581
2.49846 -15.3591 7.54935
2.50346 -14.832 7.45798
2.31646 -14.8229 7.42142
2.67546 -15.384 7.64095
2.68746 -14.8594 7.55868
2.72146 -14.3352 7.31185
2.51746 -14.3262 7.18389
2.32446 -14.3232 7.13823
-3.70354 -13.9487 6.5609
-3.70354 -14.3232 7.12729
-3.90754 -13.9454 6.60401
-3.90054 -14.3262 7.16815
-3.89354 -14.832 7.44251
-3.70354 -14.8228 7.41048
-4.13854 -13.9353 6.73329
-4.11054 -14.3352 7.29072
-4.08354 -14.8593 7.53865
-4.07454 -15.8283 7.62129
-4.07454 -15.3839 7.62129
-3.89154 -15.8143 7.53398
-3.89154 -15.359 7.53398
-3.70354 -15.8096 7.50488
-3.70354 -15.3507 7.50488
-3.70354 -16.1024 7.50488
-3.89154 -16.1048 7.53398
-3.89554 -16.2692 7.4246
-3.70354 -16.268 7.39172
-4.07454 -16.1119 7.62129
-4.09054 -16.2727 7.52327
-4.18554 -16.3761 6.56593
-4.13554 -16.3487 7.22918
-3.91954 -16.3734 6.42144
-3.90654 -16.346 7.09647
-3.70354 -16.3725 6.37328
-3.70354 -16.3451 7.05224
-3.70354 -16.3889 5.24165
-3.92654 -16.3894 5.27135
-3.92954 -16.3935 3.89115
-3.70354 -16.3934 3.88375
-4.21454 -16.3911 5.36045
-4.22754 -16.394 3.91345
-4.23154 -16.3629 1.39425
-4.23154 -16.3851 2.52585
-3.93054 -16.3629 1.39425
-3.93054 -16.3851 2.52585
-3.70354 -16.3629 1.39425
-3.70354 -16.3851 2.52585
-3.70354 -15.8811 0.450245
-3.70354 -16.1097 0.337745
-3.70354 -16.2498 0.394545
-3.93054 -16.2498 0.394545
-3.92954 -16.1097 0.337745
-3.92754 -15.8811 0.450245
-3.70354 -16.3261 0.715245
-3.93054 -16.3261 0.715245
-4.23154 -16.3261 0.715245
-4.23054 -16.2498 0.394545
-4.21954 -15.8811 0.450245
-4.22654 -16.1097 0.337745
-3.70354 -15.5394 0.637945
-3.92454 -15.5394 0.637945
-3.92054 -15.1335 0.957445
-3.70354 -15.1335 0.957445
-4.20654 -15.5394 0.637945
-4.19154 -15.1335 0.957445
-4.16454 -14.3247 2.21985
-4.17754 -14.7123 1.46585
-3.91354 -14.3247 2.21985
-3.91654 -14.7123 1.46585
-3.70354 -14.3247 2.21985
-3.70354 -14.7123 1.46585
-3.70354 -14.0196 3.27635
-3.91154 -14.0196 3.27635
-3.91054 -13.8311 4.47204
-3.70354 -13.8319 4.46545
-4.15754 -14.0196 3.27635
-4.15354 -13.8286 4.49174
-4.14954 -13.7835 5.72215
-3.90954 -13.7933 5.64325
-3.70354 -13.7966 5.61695
3 0 1 2
3 0 2 3
3 2 4 5
3 2 5 3
3 5 6 7
3 5 7 3
3 7 8 0
3 7 0 3
3 9 10 11
3 9 11 12
3 11 13 14
3 11 14 12
3 14 6 5
3 14 5 12
3 5 4 9
3 5 9 12
3 15 16 17
3 15 17 18
3 17 19 20
3 17 20 18
3 20 6 14
3 20 14 18
3 14 13 15
3 14 15 18
3 21 22 23
3 21 23 24
3 23 8 7
3 23 7 24
3 7 6 20
3 7 20 24
3 20 19 21
3 20 21 24
3 25 26 27
3 28 29 30
3 28 30 31
3 30 32 33
3 30 33 31
3 33 34 27
3 33 27 31
3 27 26 28
3 27 28 31
3 35 36 37
3 35 37 38
3 37 39 40
3 37 40 38
3 40 34 33
3 40 33 38
3 33 32 35
3 33 35 38
3 40 39 41
3 42 43 44
3 42 44 45
3 44 46 47
3 44 47 45
3 48 49 50
3 48 50 51
3 50 52 53
3 50 53 51
3 53 46 44
3 53 44 51
3 44 43 48
3 44 48 51
3 54 29 28
3 54 28 55
3 28 26 56
3 28 56 55
3 56 46 53
3 56 53 55
3 53 52 54
3 53 54 55
3 25 57 58
3 57 47 58
3 47 46 56
3 47 56 58
3 56 26 25
3 56 25 58
3 59 60 61
3 59 61 62
3 61 63 64
3 61 64 62
3 64 65 66
3 64 66 62
3 66 59 62
3 67 68 69
3 67 69 70
3 69 71 72
3 69 72 70
3 72 65 64
3 72 64 70
3 64 63 67
3 64 67 70
3 73 49 48
3 73 48 74
3 48 43 75
3 48 75 74
3 75 65 72
3 75 72 74
3 72 71 73
3 72 73 74
3 66 65 75
3 66 75 76
3 75 43 42
3 75 42 76
3 77 41 78
3 41 39 79
3 41 79 78
3 79 80 81
3 79 81 78
3 81 77 78
3 37 36 82
3 37 82 83
3 82 84 85
3 82 85 83
3 85 80 79
3 85 79 83
3 79 39 37
3 79 37 83
3 86 68 67
3 86 67 87
3 67 63 88
3 67 88 87
3 88 80 85
3 88 85 87
3 85 84 86
3 85 86 87
3 61 60 89
3 61 89 90
3 89 81 90
3 81 80 88
3 81 88 90
3 88 63 61
3 88 61 90
3 91 92 93
3 91 93 94
3 93 95 96
3 93 96 94
3 96 97 98
3 96 98 94
3 98 99 91
3 98 91 94
3 100 101 102
3 100 102 103
3 102 104 105
3 102 105 103
3 105 97 96
3 105 96 103
3 96 95 100
3 96 100 103
3 106 107 108
3 106 108 109
3 108 110 111
3 108 111 109
3 111 97 105
3 111 105 109
3 105 104 106
3 105 106 109
3 112 113 114
3 112 114 115
3 114 99 98
3 114 98 115
3 98 97 111
3 98 111 115
3 111 110 112
3 111 112 115
3 116 117 118
3 116 118 119
3 118 120 121
3 118 121 119
3 121 122 123
3 121 123 119
3 123 124 116
3 123 116 119
3 125 126 127
3 125 127 128
3 127 129 130
3 127 130 128
3 130 122 121
3 130 121 128
3 121 120 125
3 121 125 128
3 131 101 100
3 131 100 132
3 100 95 133
3 100 133 132
3 133 122 130
3 133 130 132
3 130 129 131
3 130 131 132
3 93 92 134
3 93 134 135
3 134 124 123
3 134 123 135
3 123 122 133
3 123 133 135
3 133 95 93
3 133 93 135
3 136 137 138
3 136 138 139
3 138 140 141
3 138 141 139
3 141 142 143
3 141 143 139
3 143 144 136
3 143 136 139
3 145 146 147
3 145 147 148
3 147 149 150
3 147 150 148
3 150 142 141
3 150 141 148
3 141 140 145
3 141 145 148
3 151 126 125
3 151 125 152
3 125 120 153
3 125 153 152
3 153 142 150
3 153 150 152
3 150 149 151
3 150 151 152
3 118 117 154
3 118 154 155
3 154 144 143
3 154 143 155
3 143 142 153
3 143 153 155
3 153 120 118
3 153 118 155
3 156 113 112
3 156 112 157
3 112 110 158
3 112 158 157
3 158 159 160
3 158 160 157
3 160 161 156
3 160 156 157
3 108 107 162
3 108 162 163
3 162 164 165
3 162 165 163
3 165 159 158
3 165 158 163
3 158 110 108
3 158 108 163
3 166 146 145
3 166 145 167
3 145 140 168
3 145 168 167
3 168 159 165
3 168 165 167
3 165 164 166
3 165 166 167
3 138 137 169
3 138 169 170
3 169 161 160
3 169 160 170
3 160 159 168
3 160 168 170
3 168 140 138
3 168 138 170
3 171 172 173
3 171 173 174
3 173 175 176
3 173 176 174
3 176 177 178
3 176 178 174
3 178 179 171
3 178 171 174
3 180 181 182
3 180 182 183
3 182 184 185
3 182 185 183
3 185 177 176
3 185 176 183
3 176 175 180
3 176 180 183
3 186 187 188
3 186 188 189
3 188 190 191
3 188 191 189
3 191 177 185
3 191 185 189
3 185 184 186
3 185 186 189
3 192 193 194
3 192 194 195
3 194 179 178
3 194 178 195
3 178 177 191
3 178 191 195
3 191 190 192
3 191 192 195
3 196 197 198
3 196 198 199
3 198 200 201
3 198 201 199
3 201 202 203
3 201 203 199
3 203 204 196
3 203 196 199
3 205 206 207
3 205 207 208
3 207 209 210
3 207 210 208
3 210 202 201
3 210 201 208
3 201 200 205
3 201 205 208
3 211 181 180
3 211 180 212
3 180 175 213
3 180 213 212
3 213 202 210
3 213 210 212
3 210 209 211
3 210 211 212
3 173 172 214
3 173 214 215
3 214 204 203
3 214 203 215
3 203 202 213
3 203 213 215
3 213 175 173
3 213 173 215
3 216 217 218
3 216 218 219
3 218 220 221
3 218 221 219
3 221 222 223
3 221 223 219
3 223 224 216
3 223 216 219
3 225 226 227
3 225 227 228
3 227 229 230
3 227 230 228
3 230 222 221
3 230 221 228
3 221 220 225
3 221 225 228
3 231 206 205
3 231 205 232
3 205 200 233
3 205 233 232
3 233 222 230
3 233 230 232
3 230 229 231
3 230 231 232
3 198 197 234
3 198 234 235
3 234 224 223
3 234 223 235
3 223 222 233
3 223 233 235
3 233 200 198
3 233 198 235
3 236 193 192
3 236 192 237
3 192 190 238
3 192 238 237
3 238 239 240
3 238 240 237
3 240 241 236
3 240 236 237
3 188 187 242
3 188 242 243
3 242 244 245
3 242 245 243
3 245 239 238
3 245 238 243
3 238 190 188
3 238 188 243
3 246 226 225
3 246 225 247
3 225 220 248
3 225 248 247
3 248 239 245
3 248 245 247
3 245 244 246
3 245 246 247
3 218 217 249
3 218 249 250
3 249 241 240
3 249 240 250
3 240 239 248
3 240 248 250
3 248 220 218
3 248 218 250
3 251 252 253
3 251 253 254
3 253 255 256
3 253 256 254
3 256 257 258
3 256 258 254
3 258 259 251
3 258 251 254
3 260 261 262
3 260 262 263
3 262 264 265
3 262 265 263
3 265 257 256
3 265 256 263
3 256 255 260
3 256 260 263
3 266 267 268
3 266 268 269
3 268 270 271
3 268 271 269
3 271 257 265
3 271 265 269
3 265 264 266
3 265 266 269
3 272 273 274
3 272 274 275
3 274 259 258
3 274 258 275
3 258 257 271
3 258 271 275
3 271 270 272
3 271 272 275
3 276 277 278
3 276 278 279
3 278 280 281
3 278 281 279
3 281 282 283
3 281 283 279
3 283 284 276
3 283 276 279
3 285 286 287
3 285 287 288
3 287 289 290
3 287 290 288
3 290 282 281
3 290 281 288
3 281 280 285
3 281 285 288
3 291 292 293
3 291 293 294
3 293 295 296
3 293 296 294
3 296 282 290
3 296 290 294
3 290 289 291
3 290 291 294
3 297 298 299
3 297 299 300
3 299 284 283
3 299 283 300
3 283 282 296
3 283 296 300
3 296 295 297
3 296 297 300
3 301 302 303
3 301 303 304
3 303 305 306
3 303 306 304
3 306 307 308
3 306 308 304
3 308 309 301
3 308 301 304
3 310 311 312
3 310 312 313
3 312 314 315
3 312 315 313
3 315 307 306
3 315 306 313
3 306 305 310
3 306 310 313
3 316 317 318
3 316 318 319
3 318 320 321
3 318 321 319
3 321 307 315
3 321 315 319
3 315 314 316
3 315 316 319
3 322 323 324
3 322 324 325
3 324 309 308
3 324 308 325
3 308 307 321
3 308 321 325
3 321 320 322
3 321 322 325
3 242 187 326
3 242 326 327
3 326 328 329
3 326 329 327
3 329 330 331
3 329 331 327
3 331 244 242
3 331 242 327
3 332 333 334
3 332 334 335
3 334 336 337
3 334 337 335
3 337 330 329
3 337 329 335
3 329 328 332
3 329 332 335
3 338 339 340
3 338 340 341
3 340 342 343
3 340 343 341
3 343 330 337
3 343 337 341
3 337 336 338
3 337 338 341
3 344 226 246
3 344 246 345
3 246 244 331
3 246 331 345
3 331 330 343
3 331 343 345
3 343 342 344
3 343 344 345
3 207 206 346
3 207 346 347
3 346 348 349
3 346 349 347
3 349 350 351
3 349 351 347
3 351 209 207
3 351 207 347
3 352 277 276
3 352 276 353
3 276 284 354
3 276 354 353
3 354 350 349
3 354 349 353
3 349 348 352
3 349 352 353
3 299 298 355
3 299 355 356
3 355 357 358
3 355 358 356
3 358 350 354
3 358 354 356
3 354 284 299
3 354 299 356
3 359 181 211
3 359 211 360
3 211 209 351
3 211 351 360
3 351 350 358
3 351 358 360
3 358 357 359
3 358 359 360
3 346 206 361
3 346 361 362
3 361 363 364
3 361 364 362
3 364 365 366
3 364 366 362
3 366 348 346
3 366 346 362
3 367 368 369
3 367 369 370
3 369 371 372
3 369 372 370
3 372 365 364
3 372 364 370
3 364 363 367
3 364 367 370
3 373 286 285
3 373 285 374
3 285 280 375
3 285 375 374
3 375 365 372
3 375 372 374
3 372 371 373
3 372 373 374
3 278 277 352
3 278 352 376
3 352 348 366
3 352 366 376
3 366 365 375
3 366 375 376
3 375 280 278
3 375 278 376
3 2 1 377
3 2 377 378
3 377 379 380
3 377 380 378
3 380 381 382
3 380 382 378
3 382 4 2
3 382 2 378
3 383 384 385
3 383 385 386
3 385 387 388
3 385 388 386
3 388 381 380
3 388 380 386
3 380 379 383
3 380 383 386
3 389 390 391
3 389 391 392
3 391 393 394
3 391 394 392
3 394 381 388
3 394 388 392
3 388 387 389
3 388 389 392
3 395 10 9
3 395 9 396
3 9 4 382
3 9 382 396
3 382 381 394
3 382 394 396
3 394 393 395
3 394 395 396
3 397 181 359
3 397 359 398
3 359 357 399
3 359 399 398
3 399 400 401
3 399 401 398
3 401 402 397
3 401 397 398
3 355 298 297
3 355 297 403
3 297 295 404
3 297 404 403
3 404 400 399
3 404 399 403
3 399 357 355
3 399 355 403
3 293 292 405
3 293 405 406
3 405 407 408
3 405 408 406
3 408 400 404
3 408 404 406
3 404 295 293
3 404 293 406
3 409 410 411
3 409 411 412
3 411 402 401
3 411 401 412
3 401 400 408
3 401 408 412
3 408 407 409
3 408 409 412
3 30 29 413
3 30 413 414
3 413 415 416
3 413 416 414
3 416 417 418
3 416 418 414
3 418 32 30
3 418 30 414
3 419 92 91
3 419 91 420
3 91 99 421
3 91 421 420
3 421 417 416
3 421 416 420
3 416 415 419
3 416 419 420
3 114 113 422
3 114 422 423
3 422 424 425
3 422 425 423
3 425 417 421
3 425 421 423
3 421 99 114
3 421 114 423
3 426 36 35
3 426 35 427
3 35 32 418
3 35 418 427
3 418 417 425
3 418 425 427
3 425 424 426
3 425 426 427
3 82 36 426
3 82 426 428
3 426 424 429
3 426 429 428
3 429 430 431
3 429 431 428
3 431 84 82
3 431 82 428
3 422 113 156
3 422 156 432
3 156 161 433
3 156 433 432
3 433 430 429
3 433 429 432
3 429 424 422
3 429 422 432
3 169 137 434
3 169 434 435
3 434 436 437
3 434 437 435
3 437 430 433
3 437 433 435
3 433 161 169
3 433 169 435
3 438 68 86
3 438 86 439
3 86 84 431
3 86 431 439
3 431 430 437
3 431 437 439
3 437 436 438
3 437 438 439
3 69 68 438
3 69 438 440
3 438 436 441
3 438 441 440
3 441 442 443
3 441 443 440
3 443 71 69
3 443 69 440
3 434 137 136
3 434 136 444
3 136 144 445
3 136 445 444
3 445 442 441
3 445 441 444
3 441 436 434
3 441 434 444
3 154 117 446
3 154 446 447
3 446 448 449
3 446 449 447
3 449 442 445
3 449 445 447
3 445 144 154
3 445 154 447
3 450 49 73
3 450 73 451
3 73 71 443
3 73 443 451
3 443 442 449
3 443 449 451
3 449 448 450
3 449 450 451
3 50 49 450
3 50 450 452
3 450 448 453
3 450 453 452
3 453 454 455
3 453 455 452
3 455 52 50
3 455 50 452
3 446 117 116
3 446 116 456
3 116 124 457
3 116 457 456
3 457 454 453
3 457 453 456
3 453 448 446
3 453 446 456
3 134 92 419
3 134 419 458
3 419 415 459
3 419 459 458
3 459 454 457
3 459 457 458
3 457 124 134
3 457 134 458
3 413 29 54
3 413 54 460
3 54 52 455
3 54 455 460
3 455 454 459
3 455 459 460
3 459 415 413
3 459 413 460
3 89 60 461
3 461 60 59
3 127 126 462
3 127 462 463
3 462 464 465
3 462 465 463
3 465 466 467
3 465 467 463
3 467 129 127
3 467 127 463
3 468 469 470
3 468 470 471
3 470 472 473
3 470 473 471
3 473 466 465
3 473 465 471
3 465 464 468
3 465 468 471
3 474 475 476
3 474 476 477
3 476 478 479
3 476 479 477
3 479 466 473
3 479 473 477
3 473 472 474
3 473 474 477
3 480 101 131
3 480 131 481
3 131 129 467
3 131 467 481
3 467 466 479
3 467 479 481
3 479 478 480
3 479 480 481
3 102 101 480
3 102 480 482
3 480 478 483
3 480 483 482
3 483 484 485
3 483 485 482
3 485 104 102
3 485 102 482
3 476 475 486
3 476 486 487
3 486 488 489
3 486 489 487
3 489 484 483
3 489 483 487
3 483 478 476
3 483 476 487
3 490 491 492
3 490 492 493
3 492 494 495
3 492 495 493
3 495 484 489
3 495 489 493
3 489 488 490
3 489 490 493
3 496 107 106
3 496 106 497
3 106 104 485
3 106 485 497
3 485 484 495
3 485 495 497
3 495 494 496
3 495 496 497
3 162 107 496
3 162 496 498
3 496 494 499
3 496 499 498
3 499 500 501
3 499 501 498
3 501 164 162
3 501 162 498
3 492 491 502
3 492 502 503
3 502 504 505
3 502 505 503
3 505 500 499
3 505 499 503
3 499 494 492
3 499 492 503
3 506 507 508
3 506 508 509
3 508 510 511
3 508 511 509
3 511 500 505
3 511 505 509
3 505 504 506
3 505 506 509
3 512 146 166
3 512 166 513
3 166 164 501
3 166 501 513
3 501 500 511
3 501 511 513
3 511 510 512
3 511 512 513
3 147 146 512
3 147 512 514
3 512 510 515
3 512 515 514
3 515 516 517
3 515 517 514
3 517 149 147
3 517 147 514
3 508 507 518
3 508 518 519
3 518 520 521
3 518 521 519
3 521 516 515
3 521 515 519
3 515 510 508
3 515 508 519
3 522 469 468
3 522 468 523
3 468 464 524
3 468 524 523
3 524 516 521
3 524 521 523
3 521 520 522
3 521 522 523
3 462 126 151
3 462 151 525
3 151 149 517
3 151 517 525
3 517 516 524
3 517 524 525
3 524 464 462
3 524 462 525
3 470 469 526
3 470 526 527
3 526 528 529
3 526 529 527
3 529 530 531
3 529 531 527
3 531 472 470
3 531 470 527
3 532 197 196
3 532 196 533
3 196 204 534
3 196 534 533
3 534 530 529
3 534 529 533
3 529 528 532
3 529 532 533
3 214 172 535
3 214 535 536
3 535 537 538
3 535 538 536
3 538 530 534
3 538 534 536
3 534 204 214
3 534 214 536
3 539 475 474
3 539 474 540
3 474 472 531
3 474 531 540
3 531 530 538
3 531 538 540
3 538 537 539
3 538 539 540
3 486 475 539
3 486 539 541
3 539 537 542
3 539 542 541
3 542 543 544
3 542 544 541
3 544 488 486
3 544 486 541
3 535 172 171
3 535 171 545
3 171 179 546
3 171 546 545
3 546 543 542
3 546 542 545
3 542 537 535
3 542 535 545
3 194 193 547
3 194 547 548
3 547 549 550
3 547 550 548
3 550 543 546
3 550 546 548
3 546 179 194
3 546 194 548
3 551 491 490
3 551 490 552
3 490 488 544
3 490 544 552
3 544 543 550
3 544 550 552
3 550 549 551
3 550 551 552
3 502 491 551
3 502 551 553
3 551 549 554
3 551 554 553
3 554 555 556
3 554 556 553
3 556 504 502
3 556 502 553
3 547 193 236
3 547 236 557
3 236 241 558
3 236 558 557
3 558 555 554
3 558 554 557
3 554 549 547
3 554 547 557
3 249 217 559
3 249 559 560
3 559 561 562
3 559 562 560
3 562 555 558
3 562 558 560
3 558 241 249
3 558 249 560
3 563 507 506
3 563 506 564
3 506 504 556
3 506 556 564
3 556 555 562
3 556 562 564
3 562 561 563
3 562 563 564
3 518 507 563
3 518 563 565
3 563 561 566
3 563 566 565
3 566 567 568
3 566 568 565
3 568 520 518
3 568 518 565
3 559 217 216
3 559 216 569
3 216 224 570
3 216 570 569
3 570 567 566
3 570 566 569
3 566 561 559
3 566 559 569
3 234 197 532
3 234 532 571
3 532 528 572
3 532 572 571
3 572 567 570
3 572 570 571
3 570 224 234
3 570 234 571
3 526 469 522
3 526 522 573
3 522 520 568
3 522 568 573
3 568 567 572
3 568 572 573
3 572 528 526
3 572 526 573
3 182 181 574
3 182 574 575
3 574 576 577
3 574 577 575
3 577 578 579
3 577 579 575
3 579 184 182
3 579 182 575
3 580 581 582
3 580 582 583
3 582 584 585
3 582 585 583
3 585 578 577
3 585 577 583
3 577 576 580
3 577 580 583
3 586 587 588
3 586 588 589
3 588 590 591
3 588 591 589
3 591 578 585
3 591 585 589
3 585 584 586
3 585 586 589
3 592 187 186
3 592 186 593
3 186 184 579
3 186 579 593
3 579 578 591
3 579 591 593
3 591 590 592
3 591 592 593
3 411 410 594
3 411 594 595
3 594 596 597
3 594 597 595
3 597 598 599
3 597 599 595
3 599 402 411
3 599 411 595
3 600 601 602
3 600 602 603
3 602 604 605
3 602 605 603
3 605 598 597
3 605 597 603
3 597 596 600
3 597 600 603
3 606 581 580
3 606 580 607
3 580 576 608
3 580 608 607
3 608 598 605
3 608 605 607
3 605 604 606
3 605 606 607
3 574 181 397
3 574 397 609
3 397 402 599
3 397 599 609
3 599 598 608
3 599 608 609
3 608 576 574
3 608 574 609
3 23 22 610
3 23 610 611
3 610 612 613
3 610 613 611
3 613 614 615
3 613 615 611
3 615 8 23
3 615 23 611
3 616 617 618
3 616 618 619
3 618 620 621
3 618 621 619
3 621 614 613
3 621 613 619
3 613 612 616
3 613 616 619
3 622 623 624
3 622 624 625
3 624 626 627
3 624 627 625
3 627 614 621
3 627 621 625
3 621 620 622
3 621 622 625
3 628 1 0
3 628 0 629
3 0 8 615
3 0 615 629
3 615 614 627
3 615 627 629
3 627 626 628
3 627 628 629
3 326 187 592
3 326 592 630
3 592 590 631
3 592 631 630
3 631 632 633
3 631 633 630
3 633 328 326
3 633 326 630
3 588 587 634
3 588 634 635
3 634 636 637
3 634 637 635
3 637 632 631
3 637 631 635
3 631 590 588
3 631 588 635
3 638 639 640
3 638 640 641
3 640 642 643
3 640 643 641
3 643 632 637
3 643 637 641
3 637 636 638
3 637 638 641
3 644 333 332
3 644 332 645
3 332 328 633
3 332 633 645
3 633 632 643
3 633 643 645
3 643 642 644
3 643 644 645
3 227 226 646
3 227 646 647
3 646 648 649
3 646 649 647
3 649 650 651
3 649 651 647
3 651 229 227
3 651 227 647
3 652 653 654
3 652 654 655
3 654 656 657
3 654 657 655
3 657 650 649
3 657 649 655
3 649 648 652
3 649 652 655
3 658 659 660
3 658 660 661
3 660 662 663
3 660 663 661
3 663 650 657
3 663 657 661
3 657 656 658
3 657 658 661
3 664 206 231
3 664 231 665
3 231 229 651
3 231 651 665
3 651 650 663
3 651 663 665
3 663 662 664
3 663 664 665
3 340 339 666
3 340 666 667
3 666 668 669
3 666 669 667
3 669 670 671
3 669 671 667
3 671 342 340
3 671 340 667
3 672 673 674
3 672 674 675
3 674 676 677
3 674 677 675
3 677 670 669
3 677 669 675
3 669 668 672
3 669 672 675
3 678 653 652
3 678 652 679
3 652 648 680
3 652 680 679
3 680 670 677
3 680 677 679
3 677 676 678
3 677 678 679
3 646 226 344
3 646 344 681
3 344 342 671
3 344 671 681
3 671 670 680
3 671 680 681
3 680 648 646
3 680 646 681
3 11 10 682
3 11 682 683
3 682 684 685
3 682 685 683
3 685 686 687
3 685 687 683
3 687 13 11
3 687 11 683
3 688 689 690
3 688 690 691
3 690 692 693
3 690 693 691
3 693 686 685
3 693 685 691
3 685 684 688
3 685 688 691
3 694 695 696
3 694 696 697
3 696 698 699
3 696 699 697
3 699 686 693
3 699 693 697
3 693 692 694
3 693 694 697
3 700 16 15
3 700 15 701
3 15 13 687
3 15 687 701
3 687 686 699
3 687 699 701
3 699 698 700
3 699 700 701
3 361 206 664
3 361 664 702
3 664 662 703
3 664 703 702
3 703 704 705
3 703 705 702
3 705 363 361
3 705 361 702
3 660 659 706
3 660 706 707
3 706 708 709
3 706 709 707
3 709 704 703
3 709 703 707
3 703 662 660
3 703 660 707
3 710 711 712
3 710 712 713
3 712 714 715
3 712 715 713
3 715 704 709
3 715 709 713
3 709 708 710
3 709 710 713
3 716 368 367
3 716 367 717
3 367 363 705
3 367 705 717
3 705 704 715
3 705 715 717
3 715 714 716
3 715 716 717
3 718 719 720
3 718 720 721
3 720 722 723
3 720 723 721
3 723 724 725
3 723 725 721
3 725 726 718
3 725 718 721
3 727 252 251
3 727 251 728
3 251 259 729
3 251 729 728
3 729 724 723
3 729 723 728
3 723 722 727
3 723 727 728
3 274 273 730
3 274 730 731
3 730 732 733
3 730 733 731
3 733 724 729
3 733 729 731
3 729 259 274
3 729 274 731
3 734 735 736
3 734 736 737
3 736 726 725
3 736 725 737
3 725 724 733
3 725 733 737
3 733 732 734
3 733 734 737
3 738 739 740
3 738 740 741
3 740 742 743
3 740 743 741
3 743 744 745
3 743 745 741
3 745 746 738
3 745 738 741
3 747 748 749
3 747 749 750
3 749 751 752
3 749 752 750
3 752 744 743
3 752 743 750
3 743 742 747
3 743 747 750
3 753 754 755
3 753 755 756
3 755 757 758
3 755 758 756
3 758 744 752
3 758 752 756
3 752 751 753
3 752 753 756
3 759 760 761
3 759 761 762
3 761 746 745
3 761 745 762
3 745 744 758
3 745 758 762
3 758 757 759
3 758 759 762
3 763 764 765
3 763 765 766
3 765 767 768
3 765 768 766
3 768 769 770
3 768 770 766
3 770 771 763
3 770 763 766
3 772 773 774
3 772 774 775
3 774 776 777
3 774 777 775
3 777 769 768
3 777 768 775
3 768 767 772
3 768 772 775
3 778 779 780
3 778 780 781
3 780 782 783
3 780 783 781
3 783 769 777
3 783 777 781
3 777 776 778
3 777 778 781
3 784 785 786
3 784 786 787
3 786 771 770
3 786 770 787
3 770 769 783
3 770 783 787
3 783 782 784
3 783 784 787
3 788 735 734
3 788 734 789
3 734 732 790
3 734 790 789
3 790 791 792
3 790 792 789
3 792 793 788
3 792 788 789
3 730 273 272
3 730 272 794
3 272 270 795
3 272 795 794
3 795 791 790
3 795 790 794
3 790 732 730
3 790 730 794
3 268 267 796
3 268 796 797
3 796 798 799
3 796 799 797
3 799 791 795
3 799 795 797
3 795 270 268
3 795 268 797
3 800 801 802
3 800 802 803
3 802 793 792
3 802 792 803
3 792 791 799
3 792 799 803
3 799 798 800
3 799 800 803
3 804 805 806
3 804 806 807
3 806 808 809
3 806 809 807
3 809 810 811
3 809 811 807
3 811 812 804
3 811 804 807
3 813 302 301
3 813 301 814
3 301 309 815
3 301 815 814
3 815 810 809
3 815 809 814
3 809 808 813
3 809 813 814
3 324 323 816
3 324 816 817
3 816 818 819
3 816 819 817
3 819 810 815
3 819 815 817
3 815 309 324
3 815 324 817
3 820 821 822
3 820 822 823
3 822 812 811
3 822 811 823
3 811 810 819
3 811 819 823
3 819 818 820
3 819 820 823
3 824 825 826
3 824 826 827
3 826 828 829
3 826 829 827
3 829 830 831
3 829 831 827
3 831 832 824
3 831 824 827
3 833 311 310
3 833 310 834
3 310 305 835
3 310 835 834
3 835 830 829
3 835 829 834
3 829 828 833
3 829 833 834
3 303 302 813
3 303 813 836
3 813 808 837
3 813 837 836
3 837 830 835
3 837 835 836
3 835 305 303
3 835 303 836
3 806 805 838
3 806 838 839
3 838 832 831
3 838 831 839
3 831 830 837
3 831 837 839
3 837 808 806
3 837 806 839
3 840 841 842
3 840 842 843
3 842 844 845
3 842 845 843
3 845 846 847
3 845 847 843
3 847 848 840
3 847 840 843
3 849 850 851
3 849 851 852
3 851 853 854
3 851 854 852
3 854 846 845
3 854 845 852
3 845 844 849
3 845 849 852
3 855 856 857
3 855 857 858
3 857 859 860
3 857 860 858
3 860 846 854
3 860 854 858
3 854 853 855
3 854 855 858
3 861 862 863
3 861 863 864
3 863 848 847
3 863 847 864
3 847 846 860
3 847 860 864
3 860 859 861
3 860 861 864
3 865 866 867
3 865 867 868
3 867 869 870
3 867 870 868
3 870 871 872
3 870 872 868
3 872 873 865
3 872 865 868
3 874 875 876
3 874 876 877
3 876 878 879
3 876 879 877
3 879 871 870
3 879 870 877
3 870 869 874
3 870 874 877
3 880 881 882
3 880 882 883
3 882 884 885
3 882 885 883
3 885 871 879
3 885 879 883
3 879 878 880
3 879 880 883
3 886 887 888
3 886 888 889
3 888 873 872
3 888 872 889
3 872 871 885
3 872 885 889
3 885 884 886
3 885 886 889
3 890 891 892
3 890 892 893
3 892 894 895
3 892 895 893
3 895 896 897
3 895 897 893
3 897 898 890
3 897 890 893
3 899 739 738
3 899 738 900
3 738 746 901
3 738 901 900
3 901 896 895
3 901 895 900
3 895 894 899
3 895 899 900
3 761 760 902
3 761 902 903
3 902 904 905
3 902 905 903
3 905 896 901
3 905 901 903
3 901 746 761
3 901 761 903
3 906 719 907
3 906 907 908
3 907 898 897
3 907 897 908
3 897 896 905
3 897 905 908
3 905 904 906
3 905 906 908
3 780 779 909
3 780 909 910
3 909 911 912
3 909 912 910
3 912 913 914
3 912 914 910
3 914 782 780
3 914 780 910
3 915 916 917
3 915 917 918
3 917 919 920
3 917 920 918
3 920 913 912
3 920 912 918
3 912 911 915
3 912 915 918
3 921 922 923
3 921 923 924
3 923 925 926
3 923 926 924
3 926 913 920
3 926 920 924
3 920 919 921
3 920 921 924
3 927 785 784
3 927 784 928
3 784 782 914
3 784 914 928
3 914 913 926
3 914 926 928
3 926 925 927
3 926 927 928
3 253 252 929
3 253 929 930
3 929 931 932
3 929 932 930
3 932 933 934
3 932 934 930
3 934 255 253
3 934 253 930
3 935 754 753
3 935 753 936
3 753 751 937
3 753 937 936
3 937 933 932
3 937 932 936
3 932 931 935
3 932 935 936
3 749 748 938
3 749 938 939
3 938 940 941
3 938 941 939
3 941 933 937
3 941 937 939
3 937 751 749
3 937 749 939
3 942 261 260
3 942 260 943
3 260 255 934
3 260 934 943
3 934 933 941
3 934 941 943
3 941 940 942
3 941 942 943
3 720 719 906
3 720 906 944
3 906 904 945
3 906 945 944
3 945 946 947
3 945 947 944
3 947 722 720
3 947 720 944
3 902 760 759
3 902 759 948
3 759 757 949
3 759 949 948
3 949 946 945
3 949 945 948
3 945 904 902
3 945 902 948
3 755 754 935
3 755 935 950
3 935 931 951
3 935 951 950
3 951 946 949
3 951 949 950
3 949 757 755
3 949 755 950
3 929 252 727
3 929 727 952
3 727 722 947
3 727 947 952
3 947 946 951
3 947 951 952
3 951 931 929
3 951 929 952
3 953 821 954
3 953 954 955
3 954 956 957
3 954 957 955
3 957 958 959
3 957 959 955
3 959 960 953
3 959 953 955
3 961 866 865
3 961 865 962
3 865 873 963
3 865 963 962
3 963 958 957
3 963 957 962
3 957 956 961
3 957 961 962
3 888 887 964
3 888 964 965
3 964 966 967
3 964 967 965
3 967 958 963
3 967 963 965
3 963 873 888
3 963 888 965
3 968 969 970
3 968 970 971
3 970 960 959
3 970 959 971
3 959 958 967
3 959 967 971
3 967 966 968
3 967 968 971
3 816 323 972
3 816 972 973
3 972 974 975
3 972 975 973
3 975 976 977
3 975 977 973
3 977 818 816
3 977 816 973
3 978 875 874
3 978 874 979
3 874 869 980
3 874 980 979
3 980 976 975
3 980 975 979
3 975 974 978
3 975 978 979
3 867 866 961
3 867 961 981
3 961 956 982
3 961 982 981
3 982 976 980
3 982 980 981
3 980 869 867
3 980 867 981
3 954 821 820
3 954 820 983
3 820 818 977
3 820 977 983
3 977 976 982
3 977 982 983
3 982 956 954
3 982 954 983
3 318 317 984
3 318 984 985
3 984 986 987
3 984 987 985
3 987 988 989
3 987 989 985
3 989 320 318
3 989 318 985
3 990 881 880
3 990 880 991
3 880 878 992
3 880 992 991
3 992 988 987
3 992 987 991
3 987 986 990
3 987 990 991
3 876 875 978
3 876 978 993
3 978 974 994
3 978 994 993
3 994 988 992
3 994 992 993
3 992 878 876
3 992 876 993
3 972 323 322
3 972 322 995
3 322 320 989
3 322 989 995
3 989 988 994
3 989 994 995
3 994 974 972
3 994 972 995
3 842 841 996
3 842 996 997
3 996 998 999
3 996 999 997
3 999 1000 1001
3 999 1001 997
3 1001 844 842
3 1001 842 997
3 1002 1003 1004
3 1002 1004 1005
3 1004 1006 1007
3 1004 1007 1005
3 1007 1000 999
3 1007 999 1005
3 999 998 1002
3 999 1002 1005
3 1008 1009 1010
3 1008 1010 1011
3 1010 1012 1013
3 1010 1013 1011
3 1013 1000 1007
3 1013 1007 1011
3 1007 1006 1008
3 1007 1008 1011
3 1014 850 849
3 1014 849 1015
3 849 844 1001
3 849 1001 1015
3 1001 1000 1013
3 1001 1013 1015
3 1013 1012 1014
3 1013 1014 1015
3 1016 261 942
3 1016 942 1017
3 942 940 1018
3 942 1018 1017
3 1018 1019 1020
3 1018 1020 1017
3 1020 1021 1016
3 1020 1016 1017
3 938 748 1022
3 938 1022 1023
3 1022 1024 1025
3 1022 1025 1023
3 1025 1019 1018
3 1025 1018 1023
3 1018 940 938
3 1018 938 1023
3 1026 916 915
3 1026 915 1027
3 915 911 1028
3 915 1028 1027
3 1028 1019 1025
3 1028 1025 1027
3 1025 1024 1026
3 1025 1026 1027
3 909 779 1029
3 909 1029 1030
3 1029 1021 1020
3 1029 1020 1030
3 1020 1019 1028
3 1020 1028 1030
3 1028 911 909
3 1028 909 1030
3 262 261 1016
3 262 1016 1031
3 1016 1021 1032
3 1016 1032 1031
3 1032 1033 1034
3 1032 1034 1031
3 1034 264 262
3 1034 262 1031
3 1029 779 778
3 1029 778 1035
3 778 776 1036
3 778 1036 1035
3 1036 1033 1032
3 1036 1032 1035
3 1032 1021 1029
3 1032 1029 1035
3 774 773 1037
3 774 1037 1038
3 1037 1039 1040
3 1037 1040 1038
3 1040 1033 1036
3 1040 1036 1038
3 1036 776 774
3 1036 774 1038
3 1041 267 266
3 1041 266 1042
3 266 264 1034
3 266 1034 1042
3 1034 1033 1040
3 1034 1040 1042
3 1040 1039 1041
3 1040 1041 1042
3 1043 801 800
3 1043 800 1044
3 800 798 1045
3 800 1045 1044
3 1045 1046 1047
3 1045 1047 1044
3 1047 1048 1043
3 1047 1043 1044
3 796 267 1041
3 796 1041 1049
3 1041 1039 1050
3 1041 1050 1049
3 1050 1046 1045
3 1050 1045 1049
3 1045 798 796
3 1045 796 1049
3 1037 773 772
3 1037 772 1051
3 772 767 1052
3 772 1052 1051
3 1052 1046 1050
3 1052 1050 1051
3 1050 1039 1037
3 1050 1037 1051
3 765 764 1053
3 765 1053 1054
3 1053 1048 1047
3 1053 1047 1054
3 1047 1046 1052
3 1047 1052 1054
3 1052 767 765
3 1052 765 1054
3 1055 333 644
3 1055 644 1056
3 644 642 1057
3 644 1057 1056
3 1057 1058 1059
3 1057 1059 1056
3 1059 1060 1055
3 1059 1055 1056
3 640 639 1061
3 640 1061 1062
3 1061 1063 1064
3 1061 1064 1062
3 1064 1058 1057
3 1064 1057 1062
3 1057 642 640
3 1057 640 1062
3 1065 617 616
3 1065 616 1066
3 616 612 1067
3 616 1067 1066
3 1067 1058 1064
3 1067 1064 1066
3 1064 1063 1065
3 1064 1065 1066
3 610 22 1068
3 610 1068 1069
3 1068 1060 1059
3 1068 1059 1069
3 1059 1058 1067
3 1059 1067 1069
3 1067 612 610
3 1067 610 1069
3 334 333 1055
3 334 1055 1070
3 1055 1060 1071
3 1055 1071 1070
3 1071 1072 1073
3 1071 1073 1070
3 1073 336 334
3 1073 334 1070
3 1068 22 21
3 1068 21 1074
3 21 19 1075
3 21 1075 1074
3 1075 1072 1071
3 1075 1071 1074
3 1071 1060 1068
3 1071 1068 1074
3 17 16 1076
3 17 1076 1077
3 1076 1078 1079
3 1076 1079 1077
3 1079 1072 1075
3 1079 1075 1077
3 1075 19 17
3 1075 17 1077
3 1080 339 338
3 1080 338 1081
3 338 336 1073
3 338 1073 1081
3 1073 1072 1079
3 1073 1079 1081
3 1079 1078 1080
3 1079 1080 1081
3 666 339 1080
3 666 1080 1082
3 1080 1078 1083
3 1080 1083 1082
3 1083 1084 1085
3 1083 1085 1082
3 1085 668 666
3 1085 666 1082
3 1076 16 700
3 1076 700 1086
3 700 698 1087
3 700 1087 1086
3 1087 1084 1083
3 1087 1083 1086
3 1083 1078 1076
3 1083 1076 1086
3 696 695 1088
3 696 1088 1089
3 1088 1090 1091
3 1088 1091 1089
3 1091 1084 1087
3 1091 1087 1089
3 1087 698 696
3 1087 696 1089
3 1092 673 672
3 1092 672 1093
3 672 668 1085
3 672 1085 1093
3 1085 1084 1091
3 1085 1091 1093
3 1091 1090 1092
3 1091 1092 1093
3 826 825 1094
3 826 1094 1095
3 1094 1096 1097
3 1094 1097 1095
3 1097 1098 1099
3 1097 1099 1095
3 1099 828 826
3 1099 826 1095
3 1100 862 861
3 1100 861 1101
3 861 859 1102
3 861 1102 1101
3 1102 1098 1097
3 1102 1097 1101
3 1097 1096 1100
3 1097 1100 1101
3 857 856 1103
3 857 1103 1104
3 1103 1105 1106
3 1103 1106 1104
3 1106 1098 1102
3 1106 1102 1104
3 1102 859 857
3 1102 857 1104
3 1107 311 833
3 1107 833 1108
3 833 828 1099
3 833 1099 1108
3 1099 1098 1106
3 1099 1106 1108
3 1106 1105 1107
3 1106 1107 1108
3 312 311 1107
3 312 1107 1109
3 1107 1105 1110
3 1107 1110 1109
3 1110 1111 1112
3 1110 1112 1109
3 1112 314 312
3 1112 312 1109
3 1103 856 855
3 1103 855 1113
3 855 853 1114
3 855 1114 1113
3 1114 1111 1110
3 1114 1110 1113
3 1110 1105 1103
3 1110 1103 1113
3 851 850 1115
3 851 1115 1116
3 1115 1117 1118
3 1115 1118 1116
3 1118 1111 1114
3 1118 1114 1116
3 1114 853 851
3 1114 851 1116
3 1119 317 316
3 1119 316 1120
3 316 314 1112
3 316 1112 1120
3 1112 1111 1118
3 1112 1118 1120
3 1118 1117 1119
3 1118 1119 1120
3 984 317 1119
3 984 1119 1121
3 1119 1117 1122
3 1119 1122 1121
3 1122 1123 1124
3 1122 1124 1121
3 1124 986 984
3 1124 984 1121
3 1115 850 1014
3 1115 1014 1125
3 1014 1012 1126
3 1014 1126 1125
3 1126 1123 1122
3 1126 1122 1125
3 1122 1117 1115
3 1122 1115 1125
3 1010 1009 1127
3 1010 1127 1128
3 1127 1129 1130
3 1127 1130 1128
3 1130 1123 1126
3 1130 1126 1128
3 1126 1012 1010
3 1126 1010 1128
3 1131 881 990
3 1131 990 1132
3 990 986 1124
3 990 1124 1132
3 1124 1123 1130
3 1124 1130 1132
3 1130 1129 1131
3 1130 1131 1132
3 1133 887 886
3 1133 886 1134
3 886 884 1135
3 886 1135 1134
3 1135 1136 1137
3 1135 1137 1134
3 1137 1138 1133
3 1137 1133 1134
3 882 881 1131
3 882 1131 1139
3 1131 1129 1140
3 1131 1140 1139
3 1140 1136 1135
3 1140 1135 1139
3 1135 884 882
3 1135 882 1139
3 1127 1009 1008
3 1127 1008 1141
3 1008 1006 1142
3 1008 1142 1141
3 1142 1136 1140
3 1142 1140 1141
3 1140 1129 1127
3 1140 1127 1141
3 1004 1003 1143
3 1004 1143 1144
3 1143 1138 1137
3 1143 1137 1144
3 1137 1136 1142
3 1137 1142 1144
3 1142 1006 1004
3 1142 1004 1144
3 1145 969 968
3 1145 968 1146
3 968 966 1147
3 968 1147 1146
3 1147 1148 1149
3 1147 1149 1146
3 1149 1150 1145
3 1149 1145 1146
3 964 887 1133
3 964 1133 1151
3 1133 1138 1152
3 1133 1152 1151
3 1152 1148 1147
3 1152 1147 1151
3 1147 966 964
3 1147 964 1151
3 1143 1003 1002
3 1143 1002 1153
3 1002 998 1154
3 1002 1154 1153
3 1154 1148 1152
3 1154 1152 1153
3 1152 1138 1143
3 1152 1143 1153
3 996 841 1155
3 996 1155 1156
3 1155 1150 1149
3 1155 1149 1156
3 1149 1148 1154
3 1149 1154 1156
3 1154 998 996
3 1154 996 1156
3 1157 368 716
3 1157 716 1158
3 716 714 1159
3 716 1159 1158
3 1159 1160 1161
3 1159 1161 1158
3 1161 1162 1157
3 1161 1157 1158
3 712 711 1163
3 712 1163 1164
3 1163 1165 1166
3 1163 1166 1164
3 1166 1160 1159
3 1166 1159 1164
3 1159 714 712
3 1159 712 1164
3 1167 689 688
3 1167 688 1168
3 688 684 1169
3 688 1169 1168
3 1169 1160 1166
3 1169 1166 1168
3 1166 1165 1167
3 1166 1167 1168
3 682 10 1170
3 682 1170 1171
3 1170 1162 1161
3 1170 1161 1171
3 1161 1160 1169
3 1161 1169 1171
3 1169 684 682
3 1169 682 1171
3 369 368 1157
3 369 1157 1172
3 1157 1162 1173
3 1157 1173 1172
3 1173 1174 1175
3 1173 1175 1172
3 1175 371 369
3 1175 369 1172
3 1170 10 395
3 1170 395 1176
3 395 393 1177
3 395 1177 1176
3 1177 1174 1173
3 1177 1173 1176
3 1173 1162 1170
3 1173 1170 1176
3 391 390 1178
3 391 1178 1179
3 1178 1180 1181
3 1178 1181 1179
3 1181 1174 1177
3 1181 1177 1179
3 1177 393 391
3 1177 391 1179
3 1182 286 373
3 1182 373 1183
3 373 371 1175
3 373 1175 1183
3 1175 1174 1181
3 1175 1181 1183
3 1181 1180 1182
3 1181 1182 1183
3 287 286 1182
3 287 1182 1184
3 1182 1180 1185
3 1182 1185 1184
3 1185 1186 1187
3 1185 1187 1184
3 1187 289 287
3 1187 287 1184
3 1178 390 389
3 1178 389 1188
3 389 387 1189
3 389 1189 1188
3 1189 1186 1185
3 1189 1185 1188
3 1185 1180 1178
3 1185 1178 1188
3 385 384 1190
3 385 1190 1191
3 1190 1192 1193
3 1190 1193 1191
3 1193 1186 1189
3 1193 1189 1191
3 1189 387 385
3 1189 385 1191
3 1194 292 291
3 1194 291 1195
3 291 289 1187
3 291 1187 1195
3 1187 1186 1193
3 1187 1193 1195
3 1193 1192 1194
3 1193 1194 1195
3 1196 410 409
3 1196 409 1197
3 409 407 1198
3 409 1198 1197
3 1198 1199 1200
3 1198 1200 1197
3 1200 1201 1196
3 1200 1196 1197
3 405 292 1194
3 405 1194 1202
3 1194 1192 1203
3 1194 1203 1202
3 1203 1199 1198
3 1203 1198 1202
3 1198 407 405
3 1198 405 1202
3 1190 384 383
3 1190 383 1204
3 383 379 1205
3 383 1205 1204
3 1205 1199 1203
3 1205 1203 1204
3 1203 1192 1190
3 1203 1190 1204
3 377 1 1206
3 377 1206 1207
3 1206 1201 1200
3 1206 1200 1207
3 1200 1199 1205
3 1200 1205 1207
3 1205 379 377
3 1205 377 1207
3 594 410 1196
3 594 1196 1208
3 1196 1201 1209
3 1196 1209 1208
3 1209 1210 1211
3 1209 1211 1208
3 1211 596 594
3 1211 594 1208
3 1206 1 628
3 1206 628 1212
3 628 626 1213
3 628 1213 1212
3 1213 1210 1209
3 1213 1209 1212
3 1209 1201 1206
3 1209 1206 1212
3 624 623 1214
3 624 1214 1215
3 1214 1216 1217
3 1214 1217 1215
3 1217 1210 1213
3 1217 1213 1215
3 1213 626 624
3 1213 624 1215
3 1218 601 600
3 1218 600 1219
3 600 596 1211
3 600 1211 1219
3 1211 1210 1217
3 1211 1217 1219
3 1217 1216 1218
3 1217 1218 1219
3 892 891 1220
3 892 1220 1221
3 1220 1222 1223
3 1220 1223 1221
3 1223 1224 1225
3 1223 1225 1221
3 1225 894 892
3 1225 892 1221
3 1226 785 927
3 1226 927 1227
3 927 925 1228
3 927 1228 1227
3 1228 1224 1223
3 1228 1223 1227
3 1223 1222 1226
3 1223 1226 1227
3 923 922 1229
3 923 1229 1230
3 1229 1231 1232
3 1229 1232 1230
3 1232 1224 1228
3 1232 1228 1230
3 1228 925 923
3 1228 923 1230
3 1233 739 899
3 1233 899 1234
3 899 894 1225
3 899 1225 1234
3 1225 1224 1232
3 1225 1232 1234
3 1232 1231 1233
3 1232 1233 1234
3 740 739 1233
3 740 1233 1235
3 1233 1231 1236
3 1233 1236 1235
3 1236 1237 1238
3 1236 1238 1235
3 1238 742 740
3 1238 740 1235
3 1229 922 921
3 1229 921 1239
3 921 919 1240
3 921 1240 1239
3 1240 1237 1236
3 1240 1236 1239
3 1236 1231 1229
3 1236 1229 1239
3 917 916 1026
3 917 1026 1241
3 1026 1024 1242
3 1026 1242 1241
3 1242 1237 1240
3 1242 1240 1241
3 1240 919 917
3 1240 917 1241
3 1022 748 747
3 1022 747 1243
3 747 742 1238
3 747 1238 1243
3 1238 1237 1242
3 1238 1242 1243
3 1242 1024 1022
3 1242 1022 1243
3 582 581 1244
3 582 1244 1245
3 1244 1246 1247
3 1244 1247 1245
3 1247 1248 1249
3 1247 1249 1245
3 1249 584 582
3 1249 582 1245
3 1250 719 718
3 1250 718 1251
3 718 726 1252
3 718 1252 1251
3 1252 1248 1247
3 1252 1247 1251
3 1247 1246 1250
3 1247 1250 1251
3 736 735 1253
3 736 1253 1254
3 1253 1255 1256
3 1253 1256 1254
3 1256 1248 1252
3 1256 1252 1254
3 1252 726 736
3 1252 736 1254
3 1257 587 586
3 1257 586 1258
3 586 584 1249
3 586 1249 1258
3 1249 1248 1256
3 1249 1256 1258
3 1256 1255 1257
3 1256 1257 1258
3 634 587 1257
3 634 1257 1259
3 1257 1255 1260
3 1257 1260 1259
3 1260 1261 1262
3 1260 1262 1259
3 1262 636 634
3 1262 634 1259
3 1253 735 788
3 1253 788 1263
3 788 793 1264
3 788 1264 1263
3 1264 1261 1260
3 1264 1260 1263
3 1260 1255 1253
3 1260 1253 1263
3 802 801 1265
3 802 1265 1266
3 1265 1267 1268
3 1265 1268 1266
3 1268 1261 1264
3 1268 1264 1266
3 1264 793 802
3 1264 802 1266
3 1269 639 638
3 1269 638 1270
3 638 636 1262
3 638 1262 1270
3 1262 1261 1268
3 1262 1268 1270
3 1268 1267 1269
3 1268 1269 1270
3 1061 639 1269
3 1061 1269 1271
3 1269 1267 1272
3 1269 1272 1271
3 1272 1273 1274
3 1272 1274 1271
3 1274 1063 1061
3 1274 1061 1271
3 1265 801 1043
3 1265 1043 1275
3 1043 1048 1276
3 1043 1276 1275
3 1276 1273 1272
3 1276 1272 1275
3 1272 1267 1265
3 1272 1265 1275
3 1053 764 1277
3 1053 1277 1278
3 1277 1279 1280
3 1277 1280 1278
3 1280 1273 1276
3 1280 1276 1278
3 1276 1048 1053
3 1276 1053 1278
3 1281 617 1065
3 1281 1065 1282
3 1065 1063 1274
3 1065 1274 1282
3 1274 1273 1280
3 1274 1280 1282
3 1280 1279 1281
3 1280 1281 1282
3 618 617 1281
3 618 1281 1283
3 1281 1279 1284
3 1281 1284 1283
3 1284 1285 1286
3 1284 1286 1283
3 1286 620 618
3 1286 618 1283
3 1277 764 763
3 1277 763 1287
3 763 771 1288
3 763 1288 1287
3 1288 1285 1284
3 1288 1284 1287
3 1284 1279 1277
3 1284 1277 1287
3 786 785 1289
3 786 1289 1290
3 1289 1291 1292
3 1289 1292 1290
3 1292 1285 1288
3 1292 1288 1290
3 1288 771 786
3 1288 786 1290
3 1293 623 622
3 1293 622 1294
3 622 620 1286
3 622 1286 1294
3 1286 1285 1292
3 1286 1292 1294
3 1292 1291 1293
3 1292 1293 1294
3 1295 601 1218
3 1295 1218 1296
3 1218 1216 1297
3 1218 1297 1296
3 1297 1298 1299
3 1297 1299 1296
3 1299 1300 1295
3 1299 1295 1296
3 1214 623 1293
3 1214 1293 1301
3 1293 1291 1302
3 1293 1302 1301
3 1302 1298 1297
3 1302 1297 1301
3 1297 1216 1214
3 1297 1214 1301
3 1289 785 1226
3 1289 1226 1303
3 1226 1222 1304
3 1226 1304 1303
3 1304 1298 1302
3 1304 1302 1303
3 1302 1291 1289
3 1302 1289 1303
3 1220 891 1305
3 1220 1305 1306
3 1305 1300 1299
3 1305 1299 1306
3 1299 1298 1304
3 1299 1304 1306
3 1304 1222 1220
3 1304 1220 1306
3 602 601 1295
3 602 1295 1307
3 1295 1300 1308
3 1295 1308 1307
3 1308 1309 1310
3 1308 1310 1307
3 1310 604 602
3 1310 602 1307
3 1305 891 890
3 1305 890 1311
3 890 898 1312
3 890 1312 1311
3 1312 1309 1308
3 1312 1308 1311
3 1308 1300 1305
3 1308 1305 1311
3 907 719 1250
3 907 1250 1313
3 1250 1246 1314
3 1250 1314 1313
3 1314 1309 1312
3 1314 1312 1313
3 1312 898 907
3 1312 907 1313
3 1244 581 606
3 1244 606 1315
3 606 604 1310
3 606 1310 1315
3 1310 1309 1314
3 1310 1314 1315
3 1314 1246 1244
3 1314 1244 1315
3 706 659 1316
3 706 1316 1317
3 1316 1318 1319
3 1316 1319 1317
3 1319 1320 1321
3 1319 1321 1317
3 1321 708 706
3 1321 706 1317
3 1322 821 953
3 1322 953 1323
3 953 960 1324
3 953 1324 1323
3 1324 1320 1319
3 1324 1319 1323
3 1319 1318 1322
3 1319 1322 1323
3 970 969 1325
3 970 1325 1326
3 1325 1327 1328
3 1325 1328 1326
3 1328 1320 1324
3 1328 1324 1326
3 1324 960 970
3 1324 970 1326
3 1329 711 710
3 1329 710 1330
3 710 708 1321
3 710 1321 1330
3 1321 1320 1328
3 1321 1328 1330
3 1328 1327 1329
3 1328 1329 1330
3 1163 711 1329
3 1163 1329 1331
3 1329 1327 1332
3 1329 1332 1331
3 1332 1333 1334
3 1332 1334 1331
3 1334 1165 1163
3 1334 1163 1331
3 1325 969 1145
3 1325 1145 1335
3 1145 1150 1336
3 1145 1336 1335
3 1336 1333 1332
3 1336 1332 1335
3 1332 1327 1325
3 1332 1325 1335
3 1155 841 1337
3 1155 1337 1338
3 1337 1339 1340
3 1337 1340 1338
3 1340 1333 1336
3 1340 1336 1338
3 1336 1150 1155
3 1336 1155 1338
3 1341 689 1167
3 1341 1167 1342
3 1167 1165 1334
3 1167 1334 1342
3 1334 1333 1340
3 1334 1340 1342
3 1340 1339 1341
3 1340 1341 1342
3 690 689 1341
3 690 1341 1343
3 1341 1339 1344
3 1341 1344 1343
3 1344 1345 1346
3 1344 1346 1343
3 1346 692 690
3 1346 690 1343
3 1337 841 840
3 1337 840 1347
3 840 848 1348
3 840 1348 1347
3 1348 1345 1344
3 1348 1344 1347
3 1344 1339 1337
3 1344 1337 1347
3 863 862 1349
3 863 1349 1350
3 1349 1351 1352
3 1349 1352 1350
3 1352 1345 1348
3 1352 1348 1350
3 1348 848 863
3 1348 863 1350
3 1353 695 694
3 1353 694 1354
3 694 692 1346
3 694 1346 1354
3 1346 1345 1352
3 1346 1352 1354
3 1352 1351 1353
3 1352 1353 1354
3 1355 673 1092
3 1355 1092 1356
3 1092 1090 1357
3 1092 1357 1356
3 1357 1358 1359
3 1357 1359 1356
3 1359 1360 1355
3 1359 1355 1356
3 1088 695 1353
3 1088 1353 1361
3 1353 1351 1362
3 1353 1362 1361
3 1362 1358 1357
3 1362 1357 1361
3 1357 1090 1088
3 1357 1088 1361
3 1349 862 1100
3 1349 1100 1363
3 1100 1096 1364
3 1100 1364 1363
3 1364 1358 1362
3 1364 1362 1363
3 1362 1351 1349
3 1362 1349 1363
3 1094 825 1365
3 1094 1365 1366
3 1365 1360 1359
3 1365 1359 1366
3 1359 1358 1364
3 1359 1364 1366
3 1364 1096 1094
3 1364 1094 1366
3 674 673 1355
3 674 1355 1367
3 1355 1360 1368
3 1355 1368 1367
3 1368 1369 1370
3 1368 1370 1367
3 1370 676 674
3 1370 674 1367
3 1365 825 824
3 1365 824 1371
3 824 832 1372
3 824 1372 1371
3 1372 1369 1368
3 1372 1368 1371
3 1368 1360 1365
3 1368 1365 1371
3 838 805 1373
3 838 1373 1374
3 1373 1375 1376
3 1373 1376 1374
3 1376 1369 1372
3 1376 1372 1374
3 1372 832 838
3 1372 838 1374
3 1377 653 678
3 1377 678 1378
3 678 676 1370
3 678 1370 1378
3 1370 1369 1376
3 1370 1376 1378
3 1376 1375 1377
3 1376 1377 1378
3 654 653 1377
3 654 1377 1379
3 1377 1375 1380
3 1377 1380 1379
3 1380 1381 1382
3 1380 1382 1379
3 1382 656 654
3 1382 654 1379
3 1373 805 804
3 1373 804 1383
3 804 812 1384
3 804 1384 1383
3 1384 1381 1380
3 1384 1380 1383
3 1380 1375 1373
3 1380 1373 1383
3 822 821 1322
3 822 1322 1385
3 1322 1318 1386
3 1322 1386 1385
3 1386 1381 1384
3 1386 1384 1385
3 1384 812 822
3 1384 822 1385
3 1316 659 658
3 1316 658 1387
3 658 656 1382
3 658 1382 1387
3 1382 1381 1386
3 1382 1386 1387
3 1386 1318 1316
3 1386 1316 1387
