0.5456
0.96106
0.612227
0.534415
0.820084
0.878978
0.883674
0.867156
0.50964
0.266526
0.882834
0.911107
0.8184
0.403675
0.620435
0.604047
0.6404
0.6175
0.533076
0.798781
0.87296
0.916752
0.722873
0.533577
0.554385
0.664564
0.769028
0.766152
0.87296
0.728872
0.495141
0.798351
0.498052
0.497766
0.177141
0.597755
0.841907
0.643229
0
0.437525
0.625151
0.508776
0.627863
0.430033
0.655523
0.805193
0.506113
0.665137
0.500004
0.596522
0.426114
0.403167
0.491721
0.516007
0.495331
0.729374
0.59394
0.433484
0.499902
0.382549
0.728477
0.547751
0.673271
0.710445
0.23356
0.660733
0.599182
0.696196
0.350945
0.591087
0.419548
0.404036
0.712002
0.320888
0.432092
0.744749
0.585936
0.658234
0.786185
0.698549
0.734093
0.681413
0.536082
0.671352
0.570056
0.548401
0.844912
0.710466
0.789962
0.593988
0.575782
0.657807
0.558153
0.764897
0.626892
0.640547
0.822681
0.57657
0.563875
0.706912
0.770188
0.767735
0.625441
0.731597
0.848909
0.719118
0.642079
0.663434
0.555535
0.726399
0.782192
0.778207
0.66567
0.785002
0.497027
0.881339
0.944045
0.689755
0.865398
0.597593
0.347005
0.668392
0.588827
0.750632
0.714269
0.617957
0.855614
0.790356
0.774914
0.806545
0.629171
0.777917
0.888147
0.79106
0.829317
0.764933
0.728826
0.788062
0.517658
0.764751
0.878678
0.68294
0.960623
0.659694
0.929827
0.588026
0.351429
0.322755
0.44944
0.416616
0.445593
0.377852
0.314244
0.624949
0.424133
0.349367
0.5816
0.678435
0.314034
0.433744
0.496862
0.42848
0.517767
0.694275
0.727058
0.892361
0.999914
0.454797
0.878844
0.738716
0.608964
0.783194
0.701615
0.788485
0.824806
0.765952
0.822096
0.734091
0.545199
0.695473
0.774914
0.737229
0.773426
0.797424
0.682963
0.765901
0.499871
0.725531
1
0.680062
0.718272
0.565514
0.914928
0.689999
0.6369
0.580519
0.767488
0.829649
0.781964
0.838217
0.580066
0.799847
0.32867
0.310503
0.40987
0.431133
0.400472
0.394651
0.566903
0.344466
0.419171
0.492689
0.449204
0.593914
0.603251
0.530093
0.469032
0.496035
0.34827
0.464227
0.469346
0.39247
0.386062
0.505196
0.3661
0.545577
0.360223
0.489956
0.51292
0.386098
0.401567
0.506654
0.368807
0.452259
0.572912
0.251198
0.202923
0.2122
0.137627
0.156832
0.284163
0.221615
0.0772293
0.125515
0.309346
0.370173
0.14008
0.0672983
0.151168
0.103398
0.078081
0.110526
0.152705
0.107625
0.107339
0.0721515
0.0852938
0.133329
0.670972
0.256816
0.262531
0.208367
0.120993
0.151699
0.34959
0.211231
0.591289
0.417832
0.0866809
0.209824
0.0904955
0.176711
0.499285
0.690298
0.131137
0.142767
0.0353842
0.091369
0.0596788
0.0709237
0.0470611
0.0891923
0.15183
0.11102
0.0755311
0.124736
0.0349134
0.0631175
0.024318
0.0159852
0.507128
0.502961
0.526571
0.514048
0.65443
0.14492
0.107226
0.186819
0.308828
0.399559
0.179321
0.230977
0.164826
0.148896
0.567656
0.420221
0.160006
0.0575869
0.0728166
0.11181
0.11983
0.0396647
0.159964
0.102697
0.11575
0.0593529
0.0607774
0.0834423
0.229422
0.0493674
0.193137
0.144537
0.537358
0.355015
0.552972
0.493357
0.169866
0.165322
0.181255
0.230977
0.468875
0.505518
0.119687
0.200872
0.172285
0.198128
0.526528
0.51502
0.158685
0.130216
0.0242494
0.00815674
0.035
0.0635875
0.0736125
0.0535519
0.13227
0.132065
0.0478902
0.0588995
0.0597893
0.0710927
0.0328242
0.103051
0.668835
0.341265
0.508269
0.686216
0.090566
0.170838
0.0784661
0.209486
0.0879062
0.0927291
0.120949
0.141042
0.142142
0.122815
0.242437
0.160811
0.159528
0.109391
0.218629
0.12673
0.178024
0.164948
0.0724606
0.0999444
0.103182
0.117161
0.0737536
0.115318
0.133992
0.149657
0.146968
0.133714
0.15693
0.0908352
0.218871
0.131289
0.0629833
0.127659
0.0799341
0.0993534
0.0755493
0.0485828
0.0990965
0.109462
0.0408476
0.195991
0.0430555
0.128554
0.117192
0.0940327
0.0848923
0.127194
0.065258
0.169357
0.0973532
0.0799338
0.142562
0.0896501
0.110949
0.126925
0.0381649
0.0844824
0.0982481
0.0956228
0.192801
0.152574
0.000308224
0.160572
0.0222245
0.0727856
0.16356
0.169304
0.0789008
0.0824372
0.157554
0.126633
0.0352697
0.141976
0.072866
0.128675
0.0932573
0.100463
0.0727939
0.105206
0.0420408
0.151712
0.0805746
0.111786
0.0992022
0.105071
0.0824952
0.0976418
0.196312
0.15534
0.142516
0.180687
0.0787525
0.0791184
0.199387
0.143639
0.168508
0.121091
0.146509
0.0933393
0.194062
0.181347
0.102432
0.115204
0.0623977
0.104202
0.000392002
0.191765
0.144822
0.0866412
0.0912302
0.0957808
0.0748886
0.0613154
0.108394
0.127596
0.1172
0.0917737
0.0973513
0.0623691
0.0652959
0.169453
0.0806131
0.12725
0.0754686
0.0597341
0.0431402
0.130096
0.0398991
0.125531
0.100344
0.109475
0.868629
0.589195
0.713609
0.54367
0.695073
0.577923
0.36545
0.30707
0.476412
0.504851
0.642255
0.465268
0.498663
0.496201
0.553469
0.498714
0.724088
0.612675
0.591497
0.579472
0.431699
0.496075
0.447208
0.461761
0.743206
0.462226
0.335209
0.327056
0.53804
0.53699
0.690512
0.561701
0.247206
0.234874
0.420416
0.38818
0.590167
0.620681
0.176281
0.248528
0.282354
0.28432
0.631254
0.532463
0.648368
0.615256
0.405479
0.623137
0.685446
0.692661
0.413642
0.750232
0.472903
0.431903
0.28858
0.487382
0.227548
0.177418
0.303426
0.532162
0.573407
0.643681
0.695886
0.42724
0.208403
0.228204
0.354578
0.755819
0.375121
0.406518
0.790505
0.256305
0.511293
0.367143
0.31141
0.274201
0.522743
0.328795
0.484447
0.505839
0.538766
0.358723
0.539491
0.606228
0.388061
0.401992
0.311658
0.373061
0.224685
0.229828
0.342678
0.265323
0.509909
0.392105
0.588776
0.639828
0.532463
0.179522
0.736235
0.583949
0.573657
0.696207
0.59519
0.858288
0.68691
0.635094
0.434951
0.50219
0.524882
0.460882
0.454854
0.742651
0.516234
0.284325
0.644641
0.314472
0.697736
0.616039
0.568355
0.431885
0.350811
0.257849
0.93816
0.256641
0.532609
0.649317
0.457321
0.368824
0.454724
0.7651
0.523738
0.393644
0.424914
0.69279
0.659382
0.435575
0.450938
0.530468
0.681532
0.512254
0.465069
0.597665
0.478519
0.546004
0.711661
0.734174
0.409667
0.437535
0.526187
0.53588
0.687897
0.910788
0.411403
0.39523
0.505425
0.649923
0.523867
0.702904
0.303186
0.399588
0.353968
0.363319
0.492293
0.675255
0.68398
0.711915
0.514901
0.287728
0.510574
0.758559
0.664213
0.277151
0.673681
0.758729
0.722648
0.432037
0.454528
0.416763
0.486452
0.456401
0.507262
0.761967
0.240331
0.361657
0.410474
0.424318
0.355233
0.229364
0.399637
0.618467
0.503191
0.68201
0.4845
0.727438
0.52217
0.727114
0.559644
0.534748
0.570639
0.555734
0.535169
0.691112
0.484881
0.771731
0.552533
0.562264
0.527847
0.515999
0.69121
0.458777
0.371433
0.466963
0.502631
0.382004
0.500438
0.622351
0.427006
0.449555
0.554108
0.577625
0.46341
0.57699
0.469559
0.530586
0.416229
0.262732
0.682549
0.254244
0.446493
0.569485
0.255893
0.301545
0.295648
0.289414
0.77508
0.437069
0.672824
0.576889
0.471148
0.285637
0.717473
0.541956
0.35054
0.32489
0.621113
0.479258
0.323421
0.372734
0.530143
0.425665
0.245028
0.812707
0.418905
0.168592
0.456081
0.427264
0.774546
0.825578
0.174339
0.600927
0.645783
0.567496
0.748805
0.755649
0.64158
0.324973
0.796787
0.340317
0.509567
0.661481
0.449085
0.490404
0.75003
0.662062
0.598685
0.519567
0.658136
0.554066
0.892239
0.528642
0.750813
0.719358
0.954495
0.603617
0.425196
0.448456
0.556408
0.548846
0.61614
0.481193
0.594381
0.603003
0.618565
0.697843
0.622297
0.433452
0.684581
0.53079
0.505587
0.572001
0.625953
0.650431
0.530111
0.491191
0.471248
0.607705
0.688215
0.700142
0.579174
0.794512
0.817314
0.675121
0.634622
0.662654
0.629907
0.6347
0.858145
0.778371
0.772053
0.76366
0.537295
0.190902
0.363891
0.37582
0.359821
0.137708
0.635171
0.594083
0.332993
0.262589
0.288709
0.577867
0.18055
0.153954
0.182829
0.166735
0.365856
0.260005
0.177161
0.163992
0.172357
0.219439
0.286508
0.396972
0.538733
0.639289
0.439796
0.349818
0.256135
0.132609
0.439099
0.444598
0.386075
0.379414
0.427623
0.61861
0.360907
0.412229
0.51116
0.3199
0.316233
0.364895
0.66091
0.331121
0.565579
0.590548
0.494238
0.272553
0.295262
0.259928
0.445788
0.756117
0.308801
0.462044
0.345749
0.391003
0.591889
0.533668
0.539667
0.505033
0.328069
0.34885
0.512532
0.380102
0.383498
0.424628
0.304059
0.259438
0.488111
0.43388
0.376708
0.34869
0.32066
0.306792
0.310418
0.283259
0.205116
0.764476
0.195951
0.191668
0.336965
0.293856
0.217076
0.192566
0.229267
0.178482
0.284408
0.363839
0.434158
0.356587
0.436246
0.348467
0.496754
0.489154
0.216181
0.272616
0.591897
0.533017
0.605723
0.412179
0.395147
0.361195
0.572066
0.485216
0.66459
0.247448
0.347733
0.469929
0.221087
0.462043
0.431456
0.671554
0.425126
0.374477
0.482962
0.447594
0.584663
0.266787
0.647451
0.566562
0.648255
0.493376
0.252887
0.550637
0.358697
0.41452
0.40048
0.478467
0.112689
0.150306
0.127831
0.194714
0.271061
0.178638
0.232284
0.165759
0.205274
0.2773
0.226786
0.271252
0.244516
0.195977
0.149329
0.193035
0.157012
0.182229
0.146077
0.199528
0.207506
0.189055
0.244247
0.23105
0.112786
0.149967
0.169604
0.139
0.201793
0.169667
0.173042
0.1754
0.174261
0.109009
0.186336
0.103578
0.0965563
0.155669
0.110563
0.152767
0.198754
0.130174
0.163771
0.187376
0.133594
0.225323
0.181718
0.131981
0.21875
0.119793
0.20728
0.10615
0.124768
0.20823
0.143034
0.127321
0.162071
0.087993
0.116475
0.13016
0.121318
0.129489
0.197645
0.110424
0.103486
0.173521
0.116566
0.169143
0.14778
0.138345
0.0968373
0.117
0.137693
0.163648
0.160889
0.175485
0.14943
0.15229
0.122963
0.163549
0.170651
0.152444
0.114463
0.154182
0.188061
0.214453
0.188676
0.17499
0.0998231
0.14381
0.150447
0.129914
0.175998
0.139766
0.10625
0.145675
0.16207
0.10513
0.133831
0.110416
0.1234
0.10997
0.0953656
0.130112
0.154279
0.11579
0.142991
0.127296
0.124615
0.20812
0.207274
0.11472
0.197561
0.129446
0.181253
0.126427
0.146909
0.181901
0.163653
0.177355
0.189888
0.108506
0.116596
0.151468
0.107081
0.155165
0.196763
0.103124
0.519111
0.688686
0.473526
0.252454
0.159175
0.145543
0.0797032
0.407332
0.278464
0.258541
0.171824
0.10557
0.160121
0.779887
0.184804
0.337426
0.497615
0.377065
0.425751
0.25402
0.40308
0.175607
0.38769
0.148087
0.375048
0.744472
0.713368
0.471513
0.465016
0.584156
0.6112
0.461594
0.437588
0.537783
0.606763
0.501936
0.491476
0.488108
0.559829
0.334317
0.52835
0.491986
0.417741
0.625515
0.527476
0.616464
0.492977
0.600838
0.483812
0.466782
0.38796
0.366177
0.350451
0.192548
0.198473
0.204318
0.296534
0.127733
0.258661
0.175555
0.520708
0.454426
0.338199
0.420781
0.379946
0.470931
0.383146
0.272481
0.260184
0.298247
0.529114
0.216692
0.158443
0.503109
0.297815
0.415805
0.541892
0.604038
0.942195
0.619364
0.496403
0.649903
0.512893
0.678341
0.572447
0.575172
0.702502
0.577295
0.526811
0.652464
0.616463
0.591945
0.480533
0.559596
0.677198
0.709973
0.655293
0.702002
0.486654
0.0133849
0.648951
0.400979
0.710217
0.755186
0.507786
0.563617
