0.65466
0.29973
0.871825
0.405566
0.57819
0.798872
0.80948
0.450831
0.670225
0.714583
0.759724
0.609488
0.7346
0.812929
0.79781
0.400004
0.6096
0.738292
0.466012
0.275583
0.421326
0.697203
0.797426
0.842954
0.790637
0.772399
0.784436
0.405223
0.693462
0.552268
0.659973
0.733701
0.307345
0.463168
0.282968
0.594496
0.583584
0.343302
0.472895
0.811151
0.638833
0.386913
0.58732
0.582083
0.572687
0.583733
0.804257
0.587594
0.398676
0.61204
0.695424
0.790994
0.683799
0.681904
0.756639
0.464924
0.252443
0.27523
0.419099
0.793561
0.787219
0.773921
0.80983
0.563823
0.80671
0.516595
0.610417
0.782998
0.758328
0.454517
0.575999
0.587519
0.473245
0.8013
0.76205
0.573367
0.758944
0.603225
0.483726
0.667239
0.827025
0.787352
0.454762
0.557694
0.802525
0.549641
0.77325
0.751174
0.879219
0.567764
0.873866
0.734071
0.794101
0.704298
0.797041
0.701038
0.682701
0.540231
0.56594
0.735982
0.749327
0.547798
0.765691
0.532567
0.885841
0.651262
0.728799
0.798505
0.701198
0.322294
0.493599
0.807254
0.313618
0.845989
0.563963
0.855139
0.729325
0.6565
0.591363
0.872431
0.862258
0.823535
0.820726
0.605545
0.839424
0.55981
0.855665
0.483952
0.826249
0.811017
0.703654
0.805881
0.727821
0.780975
0.749123
0.728449
0.553473
0.649065
0.606544
0.845077
0.760533
0.308345
0.729294
0.5007
0.744515
0.877265
0.802526
0.782202
0.706333
0.763888
0.894512
0.89291
0.824304
0.491951
0.882623
0.832052
0.710486
0.511422
0.717219
0.556792
0.658298
0.830602
0.869565
0.734424
0.873749
0.770692
0.745512
0.715638
0.620811
0.752044
0.286248
0.607914
0.637544
0.250317
0.654262
0.559935
0.264003
0.707527
0.715875
0.721819
0.933414
0.874341
0.872647
0.58018
0.651597
0.731549
0.813245
0.636555
0.701173
0.715113
0.707561
0.761825
0.735973
0.945937
0.636781
0.661072
0.251499
0.622065
0.767494
0.732904
0.590463
0.716095
0.954187
0.728427
0.256167
0.694991
0.656638
0.744649
0.258393
0.633534
0.670858
0.711193
0.700496
0.654842
1
0.593502
0.468938
0.638916
0.942654
0.671536
0.552431
0.687727
0.527725
0.615845
0.981615
0.883788
0.580254
0.695749
0.583492
0.350312
0.746293
0.722946
0.693018
0.660394
0.287989
0.643698
0.591827
0.625733
0.673906
0.690741
0.531753
0.46442
0.28324
0.71842
0.66767
0.597566
0.647942
0.81033
0.652243
0.685386
0.771104
0.653192
0.734452
0.641874
0.910827
0.735451
0.968553
0.742372
0.636652
0.670605
0.22596
0.642284
0.76634
0.719842
0.590979
0.418584
0.96358
0.716524
0.745724
0.671952
0.705902
0.759343
0.268539
0.630923
0.635662
0.684737
0.700357
0.825292
0.995563
0.830505
0.411209
0.646642
0.803276
0.291005
0.622452
0.297611
0.559289
0.665688
0.643856
0.830465
0.944776
0.620548
0.555492
0.344121
0.795212
0.721118
0.651157
0.751159
0.817139
0.545545
0.311221
0.699421
0.706728
0.896096
0.666478
0.752334
0.736896
0.803848
0.882445
0.841593
0.802393
0.672502
0.589914
0.815813
0.519489
0.756701
0.919298
0.618264
0.831361
0.945929
0.735303
0.695023
0.802389
0.704521
0.679849
0.74313
0.573415
0.759146
0.638751
0.437191
0.648864
0.82337
0.787274
0.68394
0.575865
0.829061
0.695702
0.773273
0.746701
0.768371
0.78024
0.840905
0.716542
0.795031
0.704208
0.798227
0.703165
0.584625
0.622855
0.811946
0.736787
0.750232
0.801565
0.828444
0.592986
0.784525
0.651607
0.754396
0.588227
0.750225
0.723744
0.662531
0.830866
0.320035
0.845119
0.527111
0.902537
0.729788
0.656408
0.313287
0.878274
0.862296
0.79384
0.820536
0.616238
0.794003
0.80717
0.858128
0.828501
0.822542
0.790335
0.701847
0.836375
0.727602
0.807451
0.749201
0.897858
0.641656
0.719528
0.260211
0.830979
0.289978
0.670169
0.539509
0.651044
0.64976
0.742192
0.288726
0.670454
0.459996
0.899035
0.916779
0.647938
0.726257
0.725289
0.63158
0.74863
0.833654
0.641763
0.456895
0.727682
0.51886
0.748548
0.854184
0.682858
0.708202
0.721959
0.715691
0.576295
0.802129
0.737253
0.909935
0.949504
0.62307
0.740921
0.732726
0.488005
0.86839
0.86515
0.674923
0.871456
0.249991
0.814811
0.929486
0.833544
0.617942
0.260981
0.768049
0.551174
0.957645
0.65631
0.606726
0.57726
0.664086
0.65016
0.501157
0.570404
0.831815
0.699335
0.570409
0.389966
0.445015
0.619434
0.673001
0.751726
0.614822
0.671586
0.685225
0.667612
0.750393
0.754256
0.424336
0.690653
0.734138
0.716464
0.795928
0.700132
0.684236
0.707622
0.792467
0.701706
0.818899
0.741802
0.572696
0.785575
0.545842
0.647952
0.905415
0.648411
0.72055
0.390703
0.427752
0.645255
0.494285
0.784355
0.772899
0.69817
0.556406
0.770147
0.670861
0.877336
0.670445
0.777877
0.372228
0.78908
0.586644
0.686357
0.793902
0.741502
0.835624
0.771801
0.789757
0.95517
0.396717
0.911155
0.426682
0.421636
0.720696
0.787359
0.651742
0.988385
0.612165
0.711787
0.53623
0.653089
0.729464
0.722838
0.672236
0.751797
0.615437
0.667346
0.69588
0.763526
0.762863
0.69099
0.378015
0.690793
0.679876
0.728683
0.860639
0.699827
0.739455
0.703757
0.814747
0.677529
0.835563
0.739758
0.728299
0.781029
0.713556
0.698386
0.90975
0.627605
0.715175
0.793361
0.676783
0.80941
0.615574
0.799408
0.772554
0.646909
0.53527
0.738042
0.570538
0.706818
0.646026
0.689815
0.844134
0.663467
0.619088
0.715369
0.870664
0.741246
0.836231
0.775115
0.828707
0.616586
0.437912
0.709602
0.432266
0.410129
0.48856
0.786178
0.405283
0.709113
0.598897
0.89807
0.277131
0.662788
0.706096
0.857771
0.575867
0.636767
0.547495
0.675164
0.575807
0.659066
0.64996
0.431879
0.486624
0.890846
0.840388
0.648937
0.704537
0.845074
0.644655
0.697487
0.809397
0.641775
0.27826
0.650194
0.663877
0.753261
0.774499
0.370717
0.885569
0.651485
0.676548
0.577043
0.85596
0.597394
0.909218
0.691115
0.547445
0.766949
0.743099
0.375679
0.868018
0.717232
0.695266
0.846466
0.896303
0.870831
0.944361
0.769491
0.672969
0.261435
0.756947
0.545186
0.923068
0.581868
0.801364
0.694375
0.630894
0.905069
0.714565
0.536899
0.791627
0.45371
0.203059
0.812768
0.51505
0.408954
0.134008
0.212198
0.0995695
0.372811
0.468712
0.769873
0.369239
0.794072
0.68472
0.905388
0.351427
0.119369
0.132583
0.161757
0.0856406
0.0692863
0.528973
0.111448
0.14097
0.507692
0.925988
0.168751
0.448813
0.135333
0.173463
0.0484013
0.344575
0.319987
0.416613
0.694691
0.437598
0.124439
0.115016
0.158652
0.136349
0.0780474
0.289208
0.124339
0.114103
0.0453255
0.0808031
0.504818
0.687749
0.589142
0.312565
0.0916355
0.0973551
0.113935
0.47922
0.0987221
0.0741024
0.556534
0.762639
0.544157
0.685062
0.596304
0.633658
0.260997
0.57618
0.360052
0.808366
0.475081
0.799455
0.176828
0.822978
0.774677
0.810565
0.1639
0.38014
0.351373
0.22806
0.12058
0.165502
0.395665
0.087318
0.790855
0.708899
0.823729
0.444936
0.146471
0.597724
0.580627
0.622427
0.0835075
0.108366
0.140188
0.646099
0.0921667
0.164391
0.150878
0.0839453
0.63999
0.686677
0.603135
0.25789
0.834167
0.567217
0.682551
0.775931
0.147947
0.245735
0.0968741
0.134846
0.200298
0.124152
0.152216
0.163022
0.0753294
0
0.0618954
0.000650902
0.0676927
0.393826
0.139173
0.193877
0.490149
0.0577929
0.127056
0.0898377
0.162306
0.111631
0.187734
0.20091
0.0545331
0.108965
0.0843184
0.120694
0.0413603
0.042539
0.0713358
0.0945706
0.117664
0.0828301
0.0789207
0.0355113
0.163567
0.195463
0.132373
0.131387
0.451283
0.24464
0.612627
0.674302
0.178937
0.26165
0.781452
0.861489
0.453612
0.564079
0.417519
0.510317
0.176224
0.226609
0.350393
0.54366
0.0898325
0.109246
0.165549
0.1453
0.102892
0.119625
0.111139
0.0806436
0.664851
0.536795
0.819489
0.360879
0.395705
0.362017
0.144864
0.167396
0.236039
0.385609
0.468962
0.42226
0.391087
0.80732
0.404612
0.923001
0.820813
0.86348
0.211477
0.00821804
0.100865
0.103396
0.0689439
0.0880415
0.125373
0.113959
0.167411
0.491929
0.513125
0.443344
0.371234
0.0674832
0.0506243
0.168884
0.0783128
0.47426
0.283069
0.416883
0.133837
0.105576
0.157498
0.0994844
0.102822
0.160369
0.383549
0.114064
0.0362856
0.120416
0.493666
0.465626
0.260238
0.111522
0.355878
0.464363
0.0802156
0.122095
0.04671
0.0739864
0.479776
0.469106
0.539857
0.435202
0.776502
0.477713
0.185119
0.576175
0.434731
0.813475
0.493345
0.435546
0.639003
0.462271
0.685691
0.810509
0.371499
0.394231
0.314678
0.555379
0.110449
0.166666
0.390444
0.256087
0.750527
0.876151
0.628019
0.267087
0.167018
0.71844
0.561963
0.658742
0.0758284
0.0824886
0.127141
0.72808
0.103068
0.159492
0.134427
0.604974
0.694173
0.654583
0.598982
0.714204
0.59218
0.566651
0.678632
0.787139
0.133459
0.22113
0.0462834
0.151159
0.18647
0.132879
0.255564
0.168088
0.140943
0.0713257
0.0746693
0.0952737
0.101281
0.419258
0.130995
0.12081
0.527972
0.0407509
0.0199
0.0596843
0.139995
0.103596
0.0482129
0.116432
0.0678344
0.0370502
0.0945022
0.116075
0.0154572
0.101732
0.0891127
0.120263
0.152403
0.146024
0.0766525
0.0717612
0.177914
0.109458
0.155215
0.15649
0.474932
0.692977
0.573774
0.634733
0.167468
0.251457
0.779365
0.23398
0.563317
0.646625
0.524506
0.913555
0.29528
0.220262
0.386741
0.249126
0.661406
0.106075
0.165846
0.145539
0.11639
0.129854
0.0986917
0.0833845
0.0650001
0.0665043
0.0673667
0.0811671
0.527934
0.492126
0.314932
0.138528
0.128866
0.148008
0.264407
0.306697
0.212105
0.159015
0.114217
0.12085
0.274461
0.480065
0.0969082
0.253526
0.153561
0.0864191
0.0788708
0.163788
0.168912
0.146719
0.210662
0.160676
0.185462
0.192483
0.199113
0.165051
0.164676
0.138267
0.168521
0.148432
0.106824
0.153378
0.0650016
0.277143
0.332953
0.304996
0.170477
0.490974
0.454266
0.119142
0.144017
0.19292
0.109772
0.284333
0.186531
0.153099
0.262729
0.12128
0.210847
0.388653
0.169863
0.0532595
0.126819
0.0808784
0.079384
0.110782
0.169017
0.150064
0.21039
0.187938
0.216246
0.19314
0.195587
0.220578
0.160918
0.138226
0.176992
0.12886
0.106347
0.152728
0.72894
0.687898
0.626721
0.619512
0.482767
0.597017
0.540154
0.706114
0.545948
0.731242
0.575037
0.562189
0.645098
0.771258
0.203
0.239667
0.827407
0.70202
0.243689
0.611878
0.506778
0.517546
0.8175
0.748448
0.735213
0.633329
0.501917
0.441321
0.81338
0.60944
0.751105
0.701112
0.373107
0.665359
0.665921
0.244456
0.372337
0.262788
0.356646
0.384302
0.60885
0.74092
0.667401
0.61176
0.396203
0.623846
0.406084
0.393201
0.56555
0.527139
0.523356
0.486852
0.733023
0.475032
0.521286
0.662328
0.610013
0.490894
0.555506
0.636174
0.636558
0.401247
0.572542
0.500875
0.532587
0.583703
0.604544
0.462624
0.724795
0.595235
0.610136
0.580717
0.619594
0.616274
0.171164
0.741118
0.332106
0.136394
0.178354
0.682432
0.167427
0.586656
0.552544
0.636433
0.164717
0.640268
0.594963
0.540219
0.165627
0.192799
0.215632
0.547961
0.166685
0.651705
0.166738
0.479916
0.711298
0.261171
0.6247
0.65374
0.609171
0.563265
0.553702
0.567716
0.75178
0.556328
0.422321
0.85742
0.791533
0.521479
0.732549
0.577043
0.178123
0.555062
0.728628
0.650374
0.621735
0.430745
0.483166
0.594837
0.678418
0.706711
0.51711
0.517141
0.616332
0.499888
0.641146
0.550658
0.185583
0.196923
0.695221
0.624033
0.325934
0.31037
0.497514
0.737644
0.464633
0.722043
0.642832
0.506838
0.221884
0.265623
0.618076
0.781017
0.653992
0.526191
0.66478
0.664934
0.334084
0.282883
0.261178
0.643027
0.284747
0.632966
0.650849
0.660755
0.882171
0.611542
0.52726
0.285643
0.566795
0.47653
0.547964
0.541561
0.715662
0.485974
0.730531
0.475085
0.553981
0.393495
0.660991
0.435287
0.510168
0.51742
0.559079
0.334453
0.51232
0.70431
0.506476
0.435462
0.512885
0.462245
0.725732
0.491346
0.393424
0.583219
0.507954
0.18223
0.561199
0.286928
0.599211
0.189643
0.684407
0.15747
0.320054
0.536402
0.636873
0.646817
0.592642
0.542682
0.626095
0.169153
0.302677
0.179874
0.610154
0.60811
0.653599
0.173824
0.869137
0.60967
0.782796
0.666975
0.615636
0.545255
0.577325
0.503908
0.554454
0.671667
0.765144
0.755873
0.422772
0.856485
0.821256
0.526653
0.565315
0.536105
0.411613
0.534602
0.751699
0.50892
0.75518
0.604983
0.681682
0.585179
0.590192
0.758873
0.723847
0.318528
0.670906
0.715069
0.779551
0.709046
0.812773
0.610519
0.732228
0.826108
0.637423
0.707142
0.613456
0.75488
0.714654
0.522844
0.43206
0.419499
0.503628
0.827113
0.59452
0.870339
0.808806
0.665887
0.71472
0.381876
0.791281
0.752483
0.846173
0.789169
0.617576
0.811465
0.44317
0.772108
0.577481
0.758933
0.790472
0.568965
0.506689
0.698936
0.846535
0.692075
0.684487
0.809994
0.663951
0.84077
0.65348
0.921668
0.815182
0.799418
0.826971
0.686374
0.87465
0.766757
0.890944
0.823623
0.875531
0.838279
0.681142
0.580078
0.520628
0.631619
0.782412
0.887415
0.909782
0.624837
0.735634
0.548893
0.545134
0.657615
0.547286
0.613405
0.77576
0.684814
0.265717
0.699654
0.609209
0.838063
0.703766
0.450011
0.528735
0.470561
0.630305
0.546134
0.665528
0.646977
0.277444
0.681384
0.526123
0.691908
0.765751
0.775635
0.779805
0.789183
0.811924
0.736869
0.60001
0.607602
0.713417
0.664966
0.537193
0.596399
0.791419
0.561258
0.78332
0.687021
0.776817
0.801371
0.753633
0.516476
0.73358
0.79389
0.8404
0.832978
0.576365
0.797445
0.667311
0.771743
0.831759
0.775065
0.728854
0.792844
0.484462
0.596117
0.44987
0.739528
0.67631
0.66236
0.788485
0.80238
0.605088
0.816585
0.686467
0.674228
0.81592
0.816265
0.703923
0.830883
0.638551
0.677936
0.574501
0.539877
