0.270976
0.225934
0.254088
0.204555
0.147132
0.181525
0.180903
0.172428
0.216153
0.225066
0.257799
0.244032
0.17168
0.108121
0.233514
0.216937
0.415585
0.275251
0.247288
0.184812
0.190598
0.140106
0.261724
0.217709
0.282623
0.281094
0.223338
0.219902
0.231065
0.16919
0.252951
0.143104
0.385822
0.356466
0.451057
0.417313
0.119449
0.446793
0.436618
0.280233
0.255695
0.441044
0.354439
0.316342
0.149799
0.159241
0.384516
0.289555
0.351156
0.341149
0.428291
0.254184
0.566339
0.242514
0.25282
1
0.198591
0.462142
0.336032
0.242846
0.215933
0.648765
0.161419
0.401613
0.435653
0.180794
0.445611
0.237172
0.209848
0.284868
0.421083
0.264959
0.343809
0.178474
0.163388
0.238155
0.40032
0.231576
0.440141
0.237539
0.210348
0.423285
0.220246
0.59102
0.139516
0.329953
0.539781
0.238145
0.414532
0.343737
0.407821
0.356722
0.300877
0.239258
0.223303
0.251569
0.267669
0.439444
0.211977
0.380524
0.208057
0.437609
0.307828
0.257681
0.317031
0.272936
0.237901
0.277744
0.48244
0.296704
0.423344
0.34001
0.30733
0.360922
0.277673
0.387495
0.23974
0.465074
0.486085
0.232542
0.423674
0.210235
0.245191
0.360532
0.345378
0.181914
0.368583
0.190509
0.214857
0.3461
0.210907
0.959663
0.278393
0.212047
0.232417
0.423077
0.2162
0.308833
0.267242
0.219632
0.276392
0.421805
0.288126
0.346783
0.375102
0.191629
0.369535
0.229485
0.528625
0.214045
0.204649
0.632997
0.282141
0.380988
0.511201
0.361478
0.186798
0.24852
0.226197
0.300915
0.307468
0.243732
0.466656
0.214319
0.234393
0.20792
0.266352
0.376022
0.268316
0.39399
0.253642
0.202781
0.26767
0.503461
0.291724
0.491014
0.425446
0.279753
0.424074
0.260818
0.289646
0.144825
0.281467
0.0918963
0.17864
0.156784
0.413564
0.188759
0.218514
0.127609
0.229035
0.129878
0.0915946
0.367574
0.106513
0.171294
0.258803
0.147145
0.157945
0.264881
0.167842
0.903475
0.21582
0.09885
0.248998
0.142875
0.211542
0.167217
0
0.240524
0.123919
0.23891
0.163945
0.127532
0.102881
0.128151
0.0873919
0.13672
0.10583
0.122925
0.246084
0.268414
0.157616
0.00647649
0.189231
0.216386
0.231909
0.150585
0.219321
0.0853092
0.177065
0.229336
0.145015
0.200949
0.235076
0.0835298
0.191212
0.16074
0.100369
0.175543
0.0896564
0.130028
0.279864
0.0765263
0.405213
0.143014
0.131246
0.242712
0.128421
0.376951
0.281774
0.174081
0.143
0.26093
0.164639
0.268002
0.263401
0.134056
0.200153
0.135659
0.202717
0.17465
0.382673
0.157421
0.256702
0.114274
0.159662
0.320223
0.264576
0.177707
0.574481
0.170895
0.134043
0.403312
0.138923
0.392517
0.383618
0.121706
0.183424
0.253769
0.0780619
0.27165
0.365194
0.116191
0.168266
0.178285
0.140345
0.158618
0.241929
0.0910527
0.23024
0.241488
0.138415
0.257066
0.294922
0.130844
0.26084
0.102652
0.123137
0.169244
0.218074
0.120718
0.382757
0.111528
0.100321
0.293593
0.107154
0.246623
0.143244
0.180523
0.276513
0.160022
0.11666
0.137905
0.453512
0.340976
0.199182
0.331813
0.159909
0.292874
0.504339
0.169213
0.156051
0.135282
0.313178
0.335304
0.161736
0.254262
0.284461
0.275441
0.153502
0.226225
0.280743
0.384933
0.371854
0.361185
0.391181
0.373364
0.393054
0.397144
0.130402
0.14273
0.143485
0.265551
0.30129
0.21825
0.216618
0.323513
0.38728
0.230044
0.320567
0.488657
0.269326
0.240036
0.307319
0.284561
0.255013
0.432301
0.202007
0.267718
0.26927
0.27854
0.311949
0.331068
0.345358
0.17693
0.189557
0.270959
0.273949
0.358779
0.302209
0.157937
0.152174
0.2853
0.32181
0.41387
0.330941
0.368861
0.403263
0.416434
0.390635
0.196579
0.282752
0.178632
0.246295
0.387754
0.352881
0.428216
0.393697
0.444821
0.265748
0.37547
0.444735
0.330278
0.293164
0.383335
0.432525
0.441544
0.402734
0.377183
0.228285
0.314965
0.282671
0.403584
0.324849
0.18478
0.204793
0.386692
0.368347
0.253087
0.309927
0.566385
0.281524
0.239823
0.33317
0.277595
0.35372
0.380591
0.379599
0.439859
0.457534
0.423834
0.417828
0.331913
0.406343
0.431126
0.44274
0.418429
0.434904
0.355191
0.370774
0.423658
0.429126
0.412003
0.303541
0.381697
0.45611
0.437846
0.43117
0.389739
0.411456
0.356369
0.415522
0.414441
0.290407
0.420772
0.374914
0.177621
0.359338
0.261429
0.437931
0.230514
0.435083
0.362999
0.292757
0.367022
0.425311
0.315146
0.455668
0.265046
0.387575
0.406513
0.433294
0.320805
0.243195
0.338887
0.183955
0.323519
0.424833
0.319388
0.357483
0.480838
0.364216
0.451551
0.393502
0.283934
0.303406
0.293354
0.431588
0.316853
0.388416
0.438252
0.361409
0.405544
0.460132
0.457745
0.43015
0.32245
0.386269
0.340585
0.382506
0.440676
0.481398
0.431236
0.42719
0.405586
0.478626
0.40314
0.427546
0.413052
0.375605
0.410279
0.296652
0.408731
0.354435
0.304666
0.346298
0.387761
0.392736
0.388206
0.429932
0.313381
0.352483
0.337215
0.350782
0.379278
0.355257
0.316075
0.358346
0.426158
0.401902
0.330845
0.36798
0.363566
0.285995
0.237828
0.313215
0.294783
0.298403
0.273975
0.317187
0.285089
0.310969
0.32224
0.335003
0.346501
0.332278
0.301404
0.373726
0.347865
0.396716
0.381517
0.379973
0.405041
0.361604
0.447534
0.344621
0.324117
0.375842
0.350199
0.487426
0.392246
0.369786
0.328895
0.360477
0.364347
0.340135
0.413973
0.378357
0.46981
0.369061
0.341497
0.423595
0.308494
0.392466
0.356683
0.31525
0.391734
0.326595
0.33061
0.408083
0.401048
0.422133
0.331405
0.3979
0.379482
0.383159
0.286774
0.360746
0.374196
0.368211
0.315502
0.356805
0.367253
0.268757
0.290833
0.275523
0.312431
0.321805
0.266884
0.356185
0.297768
0.288105
0.327372
0.39611
0.379431
0.326744
0.271278
0.313613
0.352692
0.365065
0.344452
0.406994
0.413944
0.420421
0.128731
