0.149907
0.186345
0.0970767
0.133593
0.162699
0.149372
0.131881
0.0658464
0.233829
0.213734
0.221131
0.23682
0.16989
0.189857
0.159626
0.163951
0.216854
0.274855
0.2146
0.202394
0.175443
0.216193
0.210385
0.220511
0.199203
0.154067
0.179981
0.198151
0.178601
0.157168
0.211625
0.235068
0.248512
0.220896
0.356934
0.271896
0.165557
0.17969
0.288751
0.173194
0.299463
0.275153
0.227601
0.197552
0.22553
0.137429
0.34432
0.17454
0.250559
0.223791
0.197538
0.136965
0.118645
0.193427
0.155351
0.221125
0.471902
0.244768
0.168698
0.267188
0.102469
0.217205
0.170485
0.130682
0.696238
0.890365
0.687157
0.777375
0.68551
0.783531
0.77673
0.727907
0.255609
0.355311
0.720018
0.577977
0.802945
0.807152
0.34082
0.545248
0.594934
0.675445
0.459327
0.628058
0.905538
0.800156
0.768969
0.781448
0.964854
0.77743
0.787863
0.710163
0.64299
0.837363
0.866905
0.422235
0.177885
0.10563
0.146548
0.226558
0.231052
0.162719
0.152796
0.101091
0.297168
0.242839
0.218499
0.263132
0.161024
0.179224
0.160358
0.233351
0.238645
0.343383
0.135639
0.17264
0.299793
0.255063
0.27219
0.232436
0.251045
0.314892
0.264614
0.11366
0.294032
0.114523
0.242827
0.0855297
0.908385
0.651513
0.859529
0.486629
0.82679
0.653338
0.767251
0.673052
0.461049
0.658516
0.809302
0.743083
0.815661
0.751189
0.762717
0.801554
0.659744
0.828075
0.665735
0.612791
0.779954
0.905119
0.724292
0.529574
0.662428
0.85348
0.758264
0.767128
0.709368
0.788775
0.662721
0.683032
0.427958
0.419545
0.195624
0.123214
0.74228
0.581798
0.430363
0.70651
0.230444
0.231757
0.0656522
0.476288
0.729209
0.860948
0.232798
0.669824
0.475203
0.0217196
0.654806
0.567858
0.891754
0.459805
0.562027
0.00557321
0.778708
0.658628
0.266892
0.683114
0.817919
0.93435
0.923537
0.181822
0.216778
0.163793
0.152776
0.119437
0.872286
0.164238
0.243928
0.156293
0.306261
0.23002
0.47662
0.0697162
0.493936
0.100533
0.253909
0.177405
0.217919
0.161484
0.213575
0.180136
0.145962
0
0.119052
0.410826
0.1928
0.26405
0.244646
0.345536
0.134162
0.375379
0.279527
0.144021
0.20791
0.13656
0.399961
0.103787
0.163506
0.471483
0.0919147
0.140682
0.374453
0.181202
0.175789
0.290694
0.167444
0.0424724
0.107833
0.13629
0.173683
0.17406
0.175009
0.393252
0.196572
0.0540561
0.182271
0.18085
0.228182
0.35423
0.124505
0.197445
0.148584
0.2418
0.167496
0.24095
0.139525
0.735437
0.162904
0.18399
0.132581
0.145013
0.170617
0.1921
0.27222
0.3698
0.195263
0.848958
0.1754
0.54795
0.209795
0.768025
0.427896
0.424755
0.179339
0.397923
0.403506
0.801755
0.323742
0.575453
0.390833
0.200252
0.352309
0.39718
0.246277
0.234899
0.436283
0.17403
0.318516
0.235304
0.326255
0.237827
0.198553
0.588465
0.295994
0.395543
0.872063
0.411612
0.866974
0.846663
0.700016
0.395518
0.339607
0.359044
0.815904
0.565267
0.556436
0.885474
0.758428
0.57964
0.739973
0.882797
0.439087
0.230517
0.248259
0.178274
0.18334
0.44595
0.455719
0.386615
0.188719
0.301435
0.244453
0.551717
0.236324
0.157824
0.258553
0.154893
0.264805
0.46091
0.830126
0.293654
0.249671
0.325009
0.238548
0.326839
0.367345
0.500595
0.332981
0.843617
0.256618
0.609836
0.796429
0.6492
0.203934
0.316027
0.126765
0.185626
0.216254
0.190837
0.224152
0.169911
0.194799
0.185415
0.280799
0.233746
0.226654
0.281929
0.288353
0.218352
0.511199
0.586507
0.782109
0.788722
0.30081
0.309924
0.502555
0.318954
0.332969
0.340411
0.274475
0.370089
0.341143
0.3032
0.593768
0.309023
0.870398
0.201084
0.172626
0.20427
0.218401
0.18823
0.220696
0.258098
0.371623
0.399003
0.391578
0.417232
0.3472
0.143359
0.204784
0.270868
0.607889
0.670688
0.627388
0.643396
0.506241
0.437179
0.713271
0.528759
0.818329
0.706274
0.746827
0.379883
0.29869
0.349322
0.376432
0.738693
0.172809
0.203286
0.200076
0.229049
0.277503
0.193777
0.283488
0.312345
0.44708
0.295067
0.0529464
0.142605
0.0796048
0.298283
0.459571
0.24284
0.216789
0.438014
0.564082
0.135022
0.0265544
0.0274992
0.0409545
0.494847
0.0370469
0.11115
0.0987863
0.168579
0.469144
0.360047
0.16708
0.860164
0.717406
0.74816
0.914515
0.920844
0.947972
0.695652
0.858563
0.778837
0.839304
0.79691
0.753308
0.811115
0.368899
0.396152
0.955455
0.933537
0.873162
0.553146
0.817878
0.84068
0.802794
0.658261
0.320605
0.462698
0.0430115
0.0931224
0.383916
0.343174
0.370543
0.185288
0.046525
0.601972
0.271763
0.433982
0.114106
0.104151
0.0444408
0.0604351
0.292497
0.481177
0.147677
0.236398
0.40157
0.146811
0.114218
0.103369
0.993116
0.166079
0.648412
0.355237
0.256702
0.510024
0.334162
0.728242
0.944992
0.485946
0.927899
0.683335
0.439459
0.532978
0.568646
0.276286
0.955401
0.744349
0.923585
0.869238
0.251037
0.205483
0.861728
0.668715
0.444432
0.955791
1
0.662437
0.563476
0.925584
0.463323
0.949892
0.882031
0.87965
0.774416
0.426622
0.723237
0.873602
0.73535
0.734897
0.841962
0.904181
0.479337
0.864343
0.958087
0.945002
0.700043
0.658019
0.821023
0.89527
0.438883
0.383267
0.831216
0.456527
0.819476
0.742522
0.327567
0.450338
0.820352
0.497826
0.842503
0.888563
0.719047
0.70182
0.844429
0.774528
0.618565
0.82479
0.809071
0.733173
0.641521
0.801803
0.498892
0.760721
0.287272
0.553586
0.76523
0.497291
0.75337
0.437792
0.644911
0.522449
0.405148
0.403192
0.585423
0.50376
0.642908
0.480487
0.35353
0.458762
0.804099
0.360269
0.550626
0.636801
0.775567
0.552042
0.650579
0.538972
0.711803
0.58842
0.604695
0.549341
0.563445
0.596997
0.727353
0.484145
0.380918
0.288504
0.25798
0.283811
0.449249
0.498257
0.404875
0.592741
0.576094
0.430906
0.568185
0.429377
0.722192
0.390263
0.295023
0.332464
0.563543
0.599434
0.679802
0.803611
0.795898
0.475866
0.410564
0.441696
0.639668
0.58649
0.665149
0.649284
0.602784
0.633799
0.454246
0.848702
0.583667
0.87946
0.356355
0.543369
0.569767
0.426087
0.464439
0.418643
0.214604
0.909446
0.423698
0.495293
0.354465
0.655131
0.795152
0.457405
0.451049
0.485308
0.500059
0.549282
0.446236
0.732203
0.468217
0.657577
0.498471
0.442509
0.560226
0.917531
0.723128
0.440769
0.463709
0.5299
0.435429
0.330984
0.521126
0.416502
0.758358
0.625755
0.738654
0.58322
0.649883
0.333315
0.483675
0.624061
0.297882
0.442333
0.423122
0.503589
0.511351
0.629322
0.647519
0.211719
0.614718
0.69677
0.664455
0.481263
0.635352
0.590085
0.453724
0.562056
0.828763
0.763706
0.718188
0.759972
0.730036
0.734823
0.0800344
0.0490689
0.0357635
0.0499675
0.931089
0.142383
0.773573
0.184527
0.263829
0.302611
0.695838
0.638833
0.667349
0.20307
0.691582
0.656285
0.536461
0.755384
0.689836
0.70553
0.0755683
0.0662187
0.0774715
0.0961946
0.950194
0.228572
0.310961
0.14059
0.0332866
0.0458491
0.200208
0.0976078
0.0606887
0.922907
0.0485326
0.0223791
0.228657
0.181221
0.400754
0.203412
0.912594
0.216986
0.0581636
0.0861451
0.0908085
0.159454
0.401959
0.228435
0.568835
0.747307
0.87342
0.829038
0.839595
0.96459
0.565044
0.114961
0.15065
0.330532
0.210362
0.717968
0.783231
0.738297
0.491199
0.535082
0.54446
0.759146
0.249421
0.875438
0.704692
0.513434
0.711781
0.3054
0.792533
0.768377
0.123062
0.590764
0.161278
0.375577
0.337827
0.215697
0.16757
0.155131
0.0962265
0.417516
0.280816
0.325974
0.200204
0.862293
0.464909
0.314595
0.338219
0.0875175
0.235368
0.255057
0.664361
0.521324
0.637844
0.190818
0.276512
0.303132
0.723216
0.474315
0.499252
0.336171
0.689629
0.221958
0.284006
0.36905
0.754714
0.157266
