OFF
653 1286 0
5.4421 -5.90683 -1.20379
5.54879 -5.76453 -1.70397
5.79519 -5.90683 -1.92053
5.76629 -6.16853 -1.26247
6.15448 -5.97713 -2.02741
6.15448 -6.25673 -1.32115
6.15448 -6.39203 -0.459802
5.72448 -6.29593 -0.445132
5.36598 -6.00843 -0.430462
6.51377 -5.90683 -1.92053
6.76017 -5.76453 -1.70397
6.86686 -5.90683 -1.20379
6.54268 -6.16853 -1.26247
6.94298 -6.00843 -0.430462
6.58448 -6.29593 -0.445132
6.96071 -6.03203 0.430886
6.94352 -6.00913 1.18536
6.58487 -6.29623 1.18536
6.59424 -6.32543 0.430886
6.15448 -6.39193 1.18536
6.15448 -6.42323 0.430886
5.72409 -6.29623 1.18536
5.36543 -6.00913 1.18536
5.34825 -6.03203 0.430886
5.71472 -6.32543 0.430886
2.66525 0.549575 -1.11574
2.82382 0.549575 -1.65013
2.82683 0.546775 -1.64324
2.66956 0.546775 -1.11198
2.82853 0.542375 -1.63875
2.67204 0.542375 -1.10953
2.61988 0.542375 -0.474473
2.61713 0.546775 -0.474473
2.6124 0.549575 -0.474473
2.82943 0.535675 -1.63549
2.83002 0.526275 -1.63228
2.67447 0.526275 -1.10601
2.67344 0.535675 -1.10775
2.62261 0.526275 -0.474473
2.62144 0.535675 -0.474473
2.67447 0.526275 0.157062
2.83002 0.526275 0.68334
2.82943 0.535675 0.686543
2.67344 0.535675 0.158809
2.82853 0.542375 0.689804
2.67204 0.542375 0.160587
2.82683 0.546775 0.694294
2.82382 0.549575 0.701187
2.66525 0.549575 0.166796
2.66956 0.546775 0.163037
3.71152 0.526275 -1.94805
3.40041 0.526275 -2.0533
3.40139 0.535675 -2.05767
3.08929 0.526275 -1.94805
3.08941 0.535675 -1.95213
3.08935 0.542375 -1.95628
3.0881 0.549575 -1.97076
3.08895 0.546775 -1.96199
3.98017 0.546775 0.694294
3.97611 0.542375 0.689804
4.1326 0.542375 0.160587
3.97335 0.535675 0.686543
3.97079 0.526275 0.68334
4.12635 0.526275 0.157062
4.12933 0.535675 0.158809
4.1782 0.526275 -0.474473
4.18133 0.535675 -0.474473
4.12635 0.526275 -1.10601
3.0881 0.549575 1.02183
3.08895 0.546775 1.01305
3.08935 0.542375 1.00734
3.40232 0.542375 1.11318
3.4035 0.546775 1.1193
3.40523 0.549575 1.1287
3.08929 0.526275 0.999107
3.08941 0.535675 1.00319
3.40041 0.526275 1.10437
3.40139 0.535675 1.10873
3.71152 0.526275 0.999107
3.71336 0.535675 1.00319
3.7153 0.542375 1.00734
3.72236 0.549575 1.02183
3.71805 0.546775 1.01305
5.75597 -3.82743 -2.38085
5.42056 -3.82743 -1.97234
5.50433 -3.49193 -1.81039
5.80347 -3.49193 -2.17474
5.55736 -3.24133 -1.62407
5.81479 -3.24133 -1.9376
6.1237 -3.24133 -2.04211
6.16245 -3.49193 -2.29619
6.15846 -3.82743 -2.51703
5.51543 -2.97773 -1.45379
5.3143 -2.60313 -1.33997
5.50811 -2.60313 -1.57601
5.73473 -2.97773 -1.72088
5.74068 -2.60313 -1.65469
5.99788 -2.97773 -1.80991
5.97324 -2.60313 -1.57601
6.16705 -2.60313 -1.33997
6.48033 -2.97773 -1.45379
6.26104 -2.97773 -1.72088
6.69003 -3.24133 -1.62407
6.43261 -3.24133 -1.9376
6.82057 -3.49193 -1.81039
6.89637 -3.82743 -1.97234
6.56096 -3.82743 -2.38085
6.52143 -3.49193 -2.17474
7.09762 -3.82743 -1.29149
7.00006 -3.49193 -1.20316
6.84449 -3.24133 -1.10153
6.89777 -3.23963 -0.470282
7.06708 -3.48493 -0.457712
7.1796 -3.81713 -0.449332
6.28333 -2.60313 -0.946561
6.61191 -2.97773 -1.00865
6.32209 -2.60313 -0.474472
6.65577 -2.97773 -0.474472
6.28333 -2.60313 -0.00238399
6.16705 -2.60313 0.391024
6.48033 -2.97773 0.504853
6.61191 -2.97773 0.059705
6.70081 -3.22543 0.700273
6.85167 -3.23443 0.169345
6.86368 -3.42843 0.962017
7.01736 -3.70953 1.3116
7.15723 -3.78603 0.443113
7.0288 -3.46423 0.321256
5.21931 -3.82743 -1.29149
5.3703 -4.34623 -2.06951
5.156 -4.34623 -1.34449
5.3715 -4.92373 -2.06466
5.15738 -4.93333 -1.34165
5.05603 -4.94553 -0.462947
5.06073 -4.33923 -0.457712
5.13711 -3.81713 -0.449332
5.4421 -5.43583 -1.92053
5.24594 -5.47433 -1.26247
5.15047 -5.53013 -0.445132
5.15024 -5.53063 1.18536
5.12837 -5.54313 0.430886
5.06885 -4.93963 1.19725
5.03815 -4.94363 0.438813
5.11162 -4.31503 1.23292
5.29706 -3.70953 1.3116
5.15884 -3.78603 0.443113
5.06068 -4.31853 0.462594
6.94185 -4.34623 -2.06951
6.58468 -4.34623 -2.50453
6.93826 -4.92373 -2.06466
6.58209 -4.93333 -2.4993
6.15488 -4.94303 -2.64453
6.15607 -4.34623 -2.64953
6.86686 -5.43583 -1.92053
6.54268 -5.47433 -2.31872
6.15448 -5.51293 -2.45285
5.76629 -5.47433 -2.31872
5.72767 -4.93333 -2.4993
5.72747 -4.34623 -2.50453
7.19927 -4.31503 1.23292
7.2509 -4.31853 0.462594
7.24059 -4.93963 1.19725
7.27146 -4.94363 0.438813
7.2537 -4.94553 -0.462947
7.25127 -4.33923 -0.457712
7.15872 -5.53063 1.18536
7.18059 -5.54313 0.430886
7.15849 -5.53013 -0.445132
7.06302 -5.47433 -1.26247
7.15238 -4.93333 -1.34165
7.15615 -4.34623 -1.34449
5.93501 -4.38163 1.96905
5.78281 -4.46063 1.95473
5.72359 -4.66363 1.96905
5.92289 -4.64753 1.99538
5.69487 -4.95643 1.97612
5.90772 -4.95643 2.00424
6.15448 -4.95643 2.01366
6.15448 -4.62723 2.00424
6.15448 -4.34323 1.97612
5.72359 -5.24923 1.96905
5.78281 -5.45233 1.95473
5.93501 -5.53133 1.96905
5.92289 -5.26543 1.99538
6.15448 -5.56963 1.97612
6.15448 -5.28563 2.00424
6.37395 -5.53133 1.96905
6.52615 -5.45233 1.95473
6.58537 -5.24923 1.96905
6.38607 -5.26543 1.99538
6.61409 -4.95643 1.97612
6.40124 -4.95643 2.00424
6.58537 -4.66363 1.96905
6.52615 -4.46063 1.95473
6.37395 -4.38163 1.96905
6.38607 -4.64753 1.99538
5.71825 -3.49983 1.5702
5.36824 -3.87473 1.71154
5.72315 -3.61413 1.77352
5.42199 -3.97103 1.88089
5.75432 -3.71083 1.89639
6.15484 -3.62733 1.9054
6.15593 -3.53983 1.80956
6.15825 -3.44353 1.63723
5.46282 -4.03373 1.93239
5.49146 -4.07193 1.92124
5.79284 -3.83063 1.92124
5.77721 -3.78203 1.93239
6.15448 -3.75023 1.92124
6.15448 -3.69813 1.93239
6.51612 -3.83063 1.92124
6.8175 -4.07193 1.92124
6.84614 -4.03373 1.93239
6.53175 -3.78203 1.93239
6.88745 -3.97103 1.88089
6.55529 -3.71083 1.89639
6.94265 -3.87473 1.71154
6.59782 -3.49983 1.5702
6.58842 -3.61413 1.77352
5.39408 -5.97093 1.63804
5.1867 -5.50983 1.63804
5.42845 -5.92503 1.86252
5.23044 -5.48483 1.86252
5.16335 -4.95373 1.8645
5.11323 -4.94553 1.64596
5.46282 -5.87923 1.93239
5.49146 -5.84103 1.92124
5.31064 -5.43893 1.92124
5.27419 -5.45973 1.93239
5.25037 -4.95643 1.92124
5.21131 -4.95643 1.93239
5.31064 -4.47393 1.92124
5.27419 -4.45313 1.93239
5.2261 -4.41723 1.87044
5.16934 -4.35953 1.66974
6.91488 -5.97093 1.63804
6.56924 -6.24763 1.63804
6.88051 -5.92503 1.86252
6.5505 -6.18923 1.86252
6.15448 -6.27733 1.86252
6.15448 -6.33983 1.63804
6.84614 -5.87923 1.93239
6.81749 -5.84103 1.92124
6.51612 -6.08223 1.92124
6.53175 -6.13083 1.93239
6.15448 -6.16263 1.92124
6.15448 -6.21473 1.93239
5.79284 -6.08223 1.92124
5.77721 -6.13083 1.93239
5.75846 -6.18923 1.86252
5.73972 -6.24763 1.63804
7.14065 -4.35953 1.66974
7.08311 -4.41723 1.87044
7.14567 -4.95373 1.8645
7.19599 -4.94553 1.64596
6.99832 -4.47393 1.92124
7.03477 -4.45313 1.93239
7.05859 -4.95643 1.92124
7.09765 -4.95643 1.93239
6.99832 -5.43893 1.92124
7.03477 -5.45973 1.93239
7.07852 -5.48483 1.86252
7.12226 -5.50983 1.63804
5.50865 -4.09483 1.90266
5.80221 -3.85983 1.90266
5.51724 -4.10633 1.87712
5.8069 -3.87443 1.87712
6.15448 -3.79713 1.87712
6.15448 -3.78153 1.90266
5.52011 -4.11013 1.84508
5.52011 -4.11013 1.80703
5.80846 -3.87933 1.80703
5.80846 -3.87933 1.84508
6.15448 -3.80233 1.80703
6.15448 -3.80233 1.84508
6.5005 -3.87933 1.80703
6.78885 -4.11013 1.80703
6.78885 -4.11013 1.84508
6.5005 -3.87933 1.84508
6.79172 -4.10633 1.87712
6.50206 -3.87443 1.87712
6.80031 -4.09483 1.90266
6.50675 -3.85983 1.90266
5.50865 -5.81803 1.90266
5.33252 -5.42643 1.90266
5.51724 -5.80663 1.87712
5.34345 -5.42013 1.87712
5.28552 -4.95643 1.87712
5.2738 -4.95643 1.90266
5.52011 -5.80283 1.84508
5.52011 -5.80283 1.80703
5.3471 -5.41813 1.80703
5.3471 -5.41813 1.84508
5.28943 -4.95643 1.80703
5.28943 -4.95643 1.84508
5.3471 -4.49483 1.80703
5.3471 -4.49483 1.84508
5.34345 -4.49273 1.87712
5.33252 -4.48643 1.90266
6.80031 -5.81803 1.90266
6.50675 -6.05303 1.90266
6.79172 -5.80663 1.87712
6.50206 -6.03843 1.87712
6.15448 -6.11573 1.87712
6.15448 -6.13143 1.90266
6.78885 -5.80283 1.84508
6.78885 -5.80283 1.80703
6.5005 -6.03363 1.80703
6.5005 -6.03363 1.84508
6.15448 -6.11053 1.80703
6.15448 -6.11053 1.84508
5.80846 -6.03363 1.80703
5.80846 -6.03363 1.84508
5.8069 -6.03843 1.87712
5.80221 -6.05303 1.90266
6.97644 -4.48643 1.90266
6.96551 -4.49273 1.87712
7.02344 -4.95643 1.87712
7.03516 -4.95643 1.90266
6.96186 -4.49483 1.80703
6.96186 -4.49483 1.84508
7.01953 -4.95643 1.80703
7.01953 -4.95643 1.84508
6.96186 -5.41813 1.80703
6.96186 -5.41813 1.84508
6.96551 -5.42013 1.87712
6.97644 -5.42643 1.90266
5.81207 -3.89053 1.66138
5.52672 -4.11893 1.66138
5.53333 -4.12773 1.65763
5.81567 -3.90173 1.65763
5.54336 -4.14113 1.67175
5.82114 -3.91873 1.67175
6.15448 -3.84463 1.67175
6.15448 -3.82643 1.65763
6.15448 -3.81443 1.66138
5.55759 -4.16013 1.70234
5.57678 -4.18573 1.74799
5.83937 -3.97553 1.74799
5.8289 -3.94293 1.70234
6.15448 -3.90543 1.74799
6.15448 -3.87053 1.70234
6.46959 -3.97553 1.74799
6.73217 -4.18573 1.74799
6.75137 -4.16013 1.70234
6.48006 -3.94293 1.70234
6.7656 -4.14113 1.67175
6.48782 -3.91873 1.67175
6.77563 -4.12773 1.65763
6.78224 -4.11893 1.66138
6.49689 -3.89053 1.66138
6.49329 -3.90173 1.65763
5.35551 -5.41323 1.66138
5.52672 -5.79393 1.66138
5.53333 -5.78513 1.65763
5.36393 -5.40843 1.65763
5.54336 -5.77173 1.67175
5.37669 -5.40113 1.67175
5.32114 -4.95643 1.67175
5.30746 -4.95643 1.65763
5.29844 -4.95643 1.66138
5.55759 -5.75283 1.70234
5.57678 -5.72713 1.74799
5.41923 -5.37683 1.74799
5.3948 -5.39083 1.70234
5.36671 -4.95643 1.74799
5.34054 -4.95643 1.70234
5.41923 -4.53603 1.74799
5.3948 -4.52213 1.70234
5.37669 -4.51173 1.67175
5.35551 -4.49963 1.66138
5.36393 -4.50443 1.65763
6.49689 -6.02233 1.66138
6.78224 -5.79393 1.66138
6.77563 -5.78513 1.65763
6.49329 -6.01113 1.65763
6.7656 -5.77173 1.67175
6.48782 -5.99413 1.67175
6.15448 -6.06823 1.67175
6.15448 -6.08653 1.65763
6.15448 -6.09853 1.66138
6.75137 -5.75283 1.70234
6.73217 -5.72713 1.74799
6.46959 -5.93733 1.74799
6.48006 -5.96993 1.70234
6.15448 -6.00743 1.74799
6.15448 -6.04233 1.70234
5.83937 -5.93733 1.74799
5.8289 -5.96993 1.70234
5.82114 -5.99413 1.67175
5.81206 -6.02233 1.66138
5.81567 -6.01113 1.65763
6.95345 -4.49963 1.66138
6.94503 -4.50443 1.65763
6.93227 -4.51173 1.67175
6.98782 -4.95643 1.67175
7.0015 -4.95643 1.65763
7.01052 -4.95643 1.66138
6.88973 -4.53603 1.74799
6.91416 -4.52213 1.70234
6.94225 -4.95643 1.74799
6.96842 -4.95643 1.70234
6.88973 -5.37683 1.74799
6.91416 -5.39083 1.70234
6.93227 -5.40113 1.67175
6.95345 -5.41323 1.66138
6.94503 -5.40843 1.65763
4.49512 -0.0856254 0.103807
4.35268 -0.0856254 0.585706
4.74669 -0.653225 0.503258
4.87805 -0.653225 0.058835
5.22835 -1.33353 0.422087
5.3488 -1.33353 0.01456
5.38896 -1.33353 -0.474472
4.92184 -0.653225 -0.474472
4.5426 -0.0856254 -0.474472
5.72576 -2.01923 0.374055
5.83976 -2.01923 -0.011639
5.87777 -2.01923 -0.474472
5.72576 -2.01923 -1.323
5.83976 -2.01923 -0.937306
5.22835 -1.33353 -1.37103
5.3488 -1.33353 -0.963505
4.74669 -0.653225 -1.4522
4.35268 -0.0856254 -1.53465
4.49512 -0.0856254 -1.05275
4.87805 -0.653225 -1.00778
4.11527 -0.0856254 -1.82379
4.52775 -0.653225 -1.71885
5.02758 -1.33353 -1.61554
4.78667 -1.33353 -1.69705
4.26502 -0.653225 -1.80774
3.83039 -0.0856254 -1.92017
5.53575 -2.01923 -1.55441
5.30774 -2.01923 -1.63155
4.88973 -2.01923 -1.323
5.07974 -2.01923 -1.55441
4.34499 -1.33353 -1.37103
4.54575 -1.33353 -1.61554
3.78336 -0.653225 -1.4522
3.30811 -0.0856254 -1.53465
3.54551 -0.0856254 -1.82379
4.0023 -0.653225 -1.71885
3.16567 -0.0856254 -1.05275
3.652 -0.653225 -1.00778
4.22453 -1.33353 -0.963505
4.18438 -1.33353 -0.474472
3.60821 -0.653225 -0.474472
3.11819 -0.0856254 -0.474472
5.19802 -2.60313 -0.946561
4.77572 -2.01923 -0.937306
5.15926 -2.60313 -0.474472
4.73772 -2.01923 -0.474472
5.19802 -2.60313 -0.00238399
5.3143 -2.60313 0.391024
4.88973 -2.01923 0.374055
4.77572 -2.01923 -0.011639
4.34499 -1.33353 0.422087
4.22453 -1.33353 0.01456
3.78336 -0.653225 0.503257
3.30811 -0.0856254 0.585706
3.16567 -0.0856254 0.103807
3.652 -0.653225 0.058835
3.54551 -0.0856254 0.874847
4.0023 -0.653225 0.769907
4.54575 -1.33353 0.666603
4.78667 -1.33353 0.748109
4.26503 -0.653225 0.858797
3.83039 -0.0856254 0.971227
5.50811 -2.60313 0.627068
5.07974 -2.01923 0.605472
5.74067 -2.60313 0.70575
5.30774 -2.01923 0.682611
5.97324 -2.60313 0.627068
5.53575 -2.01923 0.605472
5.02758 -1.33353 0.666603
4.11527 -0.0856254 0.874847
4.52775 -0.653225 0.769907
6.26104 -2.97773 0.771937
5.99788 -2.97773 0.860967
6.12366 -3.20483 1.10155
6.43979 -3.21243 1.00542
5.51543 -2.97773 0.504853
5.73473 -2.97773 0.771937
5.54637 -3.22543 0.700273
5.80746 -3.21243 1.00542
5.46035 -3.42843 0.962017
5.77416 -3.37623 1.29284
6.1623 -3.34603 1.38077
6.55017 -3.37623 1.29284
5.38385 -2.97773 0.059705
5.34 -2.97773 -0.474472
5.34959 -3.23963 -0.470282
5.39558 -3.23443 0.169345
5.38385 -2.97773 -1.00865
5.40291 -3.24133 -1.10153
5.32484 -3.49193 -1.20316
5.25768 -3.48493 -0.457712
5.29552 -3.46423 0.321256
5.60173 -4.21903 1.80731
5.85298 -4.01783 1.80731
5.64228 -4.27313 1.86897
5.87499 -4.08743 1.86994
6.15448 -4.02583 1.87091
6.15448 -3.95083 1.80731
5.70833 -4.36123 1.92167
5.91069 -4.20183 1.92554
6.15448 -4.14973 1.92942
6.60063 -4.36123 1.92167
6.39827 -4.20183 1.92554
6.66668 -4.27313 1.86897
6.43397 -4.08743 1.86994
6.70723 -4.21903 1.80731
6.45598 -4.01783 1.80731
6.85798 -4.55423 1.80731
6.80582 -4.58353 1.86994
6.852 -4.95643 1.87091
6.90824 -4.95643 1.80731
6.72012 -4.63123 1.92554
6.75915 -4.95643 1.92942
6.60063 -5.55163 1.92167
6.72012 -5.28173 1.92554
6.66668 -5.63983 1.86897
6.80582 -5.32933 1.86994
6.70723 -5.69393 1.80731
6.85799 -5.35873 1.80731
6.45598 -5.89503 1.80731
6.43397 -5.82543 1.86994
6.15448 -5.88703 1.87091
6.15448 -5.96203 1.80731
6.39827 -5.71113 1.92554
6.15448 -5.76313 1.92942
5.70833 -5.55163 1.92167
5.91069 -5.71113 1.92554
5.64228 -5.63983 1.86897
5.87499 -5.82543 1.86994
5.60173 -5.69393 1.80731
5.85298 -5.89503 1.80731
5.45098 -5.35873 1.80731
5.50314 -5.32933 1.86994
5.45696 -4.95643 1.87091
5.40072 -4.95643 1.80731
5.58884 -5.28173 1.92554
5.54981 -4.95643 1.92942
5.58884 -4.63123 1.92554
5.50314 -4.58353 1.86994
5.45098 -4.55423 1.80731
5.52011 -4.11013 1.76343
5.80846 -3.87933 1.76343
5.52077 -4.11103 1.72048
5.80882 -3.88043 1.72048
6.15448 -3.80353 1.72048
6.15448 -3.80233 1.76343
5.52275 -4.11363 1.6844
5.8099 -3.88383 1.6844
6.15448 -3.80713 1.6844
6.78621 -4.11363 1.6844
6.49906 -3.88383 1.6844
6.78819 -4.11103 1.72048
6.50014 -3.88043 1.72048
6.78885 -4.11013 1.76343
6.5005 -3.87933 1.76343
6.96186 -4.49483 1.76343
6.96102 -4.49533 1.72048
7.01863 -4.95643 1.72048
7.01953 -4.95643 1.76343
6.9585 -4.49673 1.6844
7.01593 -4.95643 1.6844
6.78621 -5.79923 1.6844
6.9585 -5.41613 1.6844
6.78819 -5.80193 1.72048
6.96102 -5.41763 1.72048
6.78885 -5.80283 1.76343
6.96186 -5.41813 1.76343
6.5005 -6.03363 1.76343
6.50014 -6.03253 1.72048
6.15448 -6.10933 1.72048
6.15448 -6.11053 1.76343
6.49906 -6.02913 1.6844
6.15448 -6.10573 1.6844
5.52275 -5.79923 1.6844
5.8099 -6.02913 1.6844
5.52077 -5.80193 1.72048
5.80882 -6.03253 1.72048
5.52011 -5.80283 1.76343
5.80846 -6.03363 1.76343
5.3471 -5.41813 1.76343
5.34794 -5.41763 1.72048
5.29033 -4.95643 1.72048
5.28943 -4.95643 1.76343
5.35046 -5.41613 1.6844
5.29303 -4.95643 1.6844
5.35046 -4.49673 1.6844
5.34794 -4.49533 1.72048
5.3471 -4.49483 1.76343
2.81899 0.551275 0.711656
3.40779 0.551275 1.14298
2.81899 0.551275 -1.6606
2.64155 0.552075 -1.13519
2.58639 0.552075 -0.474472
2.54872 0.552375 -0.474472
2.65841 0.551275 -1.12145
2.60488 0.551275 -0.474472
2.65841 0.551275 0.172507
2.64155 0.552075 0.186246
2.83083 0.513675 0.679022
3.08913 0.513675 0.993607
2.8792 0.443575 0.666221
3.13464 0.443575 0.977317
3.44115 0.443575 1.08102
3.39908 0.513675 1.09848
3.02251 0.261875 0.637572
3.27153 0.261875 0.940857
3.57035 0.261875 1.04195
4.11818 0.261875 0.637572
3.86916 0.261875 0.940857
4.0031 0.443575 0.666221
3.74767 0.443575 0.977317
3.96734 0.513675 0.679022
3.70904 0.513675 0.993607
4.12232 0.513675 0.154706
4.15636 0.443575 0.147724
4.20745 0.443575 -0.474473
4.17398 0.513675 -0.474473
4.26759 0.261875 0.132097
4.31739 0.261875 -0.474473
4.11818 0.261875 -1.58651
4.26759 0.261875 -1.08104
4.0031 0.443575 -1.61516
4.15636 0.443575 -1.09667
3.96734 0.513675 -1.62796
4.12232 0.513675 -1.10365
3.70904 0.513675 -1.94255
3.74767 0.443575 -1.92626
3.44115 0.443575 -2.02996
3.39908 0.513675 -2.04742
3.86916 0.261875 -1.8898
3.57035 0.261875 -1.99089
3.02251 0.261875 -1.58651
3.27153 0.261875 -1.8898
2.8792 0.443575 -1.61516
3.13464 0.443575 -1.92626
2.83083 0.513675 -1.62796
3.08913 0.513675 -1.94255
2.67585 0.513675 -1.10365
2.72595 0.443575 -1.09667
2.67486 0.443575 -0.474473
2.62419 0.513675 -0.474472
2.8731 0.261875 -1.08104
2.8233 0.261875 -0.474473
2.8731 0.261875 0.132097
2.72595 0.443575 0.147724
2.67585 0.513675 0.154706
3 0 1 2
3 0 2 3
3 2 4 5
3 2 5 3
3 5 6 7
3 5 7 3
3 7 8 0
3 7 0 3
3 9 10 11
3 9 11 12
3 11 13 14
3 11 14 12
3 14 6 5
3 14 5 12
3 5 4 9
3 5 9 12
3 15 16 17
3 15 17 18
3 17 19 20
3 17 20 18
3 20 6 14
3 20 14 18
3 14 13 15
3 14 15 18
3 21 22 23
3 21 23 24
3 23 8 7
3 23 7 24
3 7 6 20
3 7 20 24
3 20 19 21
3 20 21 24
3 25 26 27
3 25 27 28
3 27 29 30
3 27 30 28
3 30 31 32
3 30 32 28
3 32 33 25
3 32 25 28
3 34 35 36
3 34 36 37
3 36 38 39
3 36 39 37
3 39 31 30
3 39 30 37
3 30 29 34
3 30 34 37
3 40 41 42
3 40 42 43
3 42 44 45
3 42 45 43
3 45 31 39
3 45 39 43
3 39 38 40
3 39 40 43
3 46 47 48
3 46 48 49
3 48 33 32
3 48 32 49
3 32 31 45
3 32 45 49
3 45 44 46
3 45 46 49
3 50 51 52
3 53 35 34
3 53 34 54
3 34 29 55
3 34 55 54
3 55 52 54
3 52 51 53
3 52 53 54
3 27 26 56
3 27 56 57
3 55 29 27
3 55 27 57
3 58 59 60
3 61 62 63
3 61 63 64
3 63 65 66
3 63 66 64
3 66 60 64
3 60 59 61
3 60 61 64
3 66 65 67
3 68 47 46
3 68 46 69
3 46 44 70
3 46 70 69
3 70 71 72
3 70 72 69
3 72 73 68
3 72 68 69
3 42 41 74
3 42 74 75
3 74 76 77
3 74 77 75
3 77 71 70
3 77 70 75
3 70 44 42
3 70 42 75
3 78 62 61
3 78 61 79
3 61 59 80
3 61 80 79
3 80 71 77
3 80 77 79
3 77 76 78
3 77 78 79
3 58 81 82
3 81 73 72
3 81 72 82
3 72 71 80
3 72 80 82
3 80 59 58
3 80 58 82
3 83 84 85
3 83 85 86
3 85 87 88
3 85 88 86
3 88 89 90
3 88 90 86
3 90 91 83
3 90 83 86
3 92 93 94
3 92 94 95
3 94 96 97
3 94 97 95
3 97 89 88
3 97 88 95
3 88 87 92
3 88 92 95
3 98 99 100
3 98 100 101
3 100 102 103
3 100 103 101
3 103 89 97
3 103 97 101
3 97 96 98
3 97 98 101
3 104 105 106
3 104 106 107
3 106 91 90
3 106 90 107
3 90 89 103
3 90 103 107
3 103 102 104
3 103 104 107
3 108 105 104
3 108 104 109
3 104 102 110
3 104 110 109
3 110 111 112
3 110 112 109
3 112 113 108
3 112 108 109
3 100 99 114
3 100 114 115
3 114 116 117
3 114 117 115
3 117 111 110
3 117 110 115
3 110 102 100
3 110 100 115
3 118 119 120
3 118 120 121
3 120 122 123
3 120 123 121
3 123 111 117
3 123 117 121
3 117 116 118
3 117 118 121
3 124 125 126
3 124 126 127
3 126 113 112
3 126 112 127
3 112 111 123
3 112 123 127
3 123 122 124
3 123 124 127
3 128 84 129
3 128 129 130
3 129 131 132
3 129 132 130
3 132 133 134
3 132 134 130
3 134 135 128
3 134 128 130
3 136 1 0
3 136 0 137
3 0 8 138
3 0 138 137
3 138 133 132
3 138 132 137
3 132 131 136
3 132 136 137
3 23 22 139
3 23 139 140
3 139 141 142
3 139 142 140
3 142 133 138
3 142 138 140
3 138 8 23
3 138 23 140
3 143 144 145
3 143 145 146
3 145 135 134
3 145 134 146
3 134 133 142
3 134 142 146
3 142 141 143
3 142 143 146
3 106 105 147
3 106 147 148
3 147 149 150
3 147 150 148
3 150 151 152
3 150 152 148
3 152 91 106
3 152 106 148
3 153 10 9
3 153 9 154
3 9 4 155
3 9 155 154
3 155 151 150
3 155 150 154
3 150 149 153
3 150 153 154
3 2 1 136
3 2 136 156
3 136 131 157
3 136 157 156
3 157 151 155
3 157 155 156
3 155 4 2
3 155 2 156
3 129 84 83
3 129 83 158
3 83 91 152
3 83 152 158
3 152 151 157
3 152 157 158
3 157 131 129
3 157 129 158
3 126 125 159
3 126 159 160
3 159 161 162
3 159 162 160
3 162 163 164
3 162 164 160
3 164 113 126
3 164 126 160
3 165 16 15
3 165 15 166
3 15 13 167
3 15 167 166
3 167 163 162
3 167 162 166
3 162 161 165
3 162 165 166
3 11 10 153
3 11 153 168
3 153 149 169
3 153 169 168
3 169 163 167
3 169 167 168
3 167 13 11
3 167 11 168
3 147 105 108
3 147 108 170
3 108 113 164
3 108 164 170
3 164 163 169
3 164 169 170
3 169 149 147
3 169 147 170
3 171 172 173
3 171 173 174
3 173 175 176
3 173 176 174
3 176 177 178
3 176 178 174
3 178 179 171
3 178 171 174
3 180 181 182
3 180 182 183
3 182 184 185
3 182 185 183
3 185 177 176
3 185 176 183
3 176 175 180
3 176 180 183
3 186 187 188
3 186 188 189
3 188 190 191
3 188 191 189
3 191 177 185
3 191 185 189
3 185 184 186
3 185 186 189
3 192 193 194
3 192 194 195
3 194 179 178
3 194 178 195
3 178 177 191
3 178 191 195
3 191 190 192
3 191 192 195
3 196 144 197
3 196 197 198
3 197 199 200
3 197 200 198
3 200 201 202
3 200 202 198
3 202 203 196
3 202 196 198
3 204 205 206
3 204 206 207
3 206 208 209
3 206 209 207
3 209 201 200
3 209 200 207
3 200 199 204
3 200 204 207
3 210 211 212
3 210 212 213
3 212 214 215
3 212 215 213
3 215 201 209
3 215 209 213
3 209 208 210
3 209 210 213
3 216 125 217
3 216 217 218
3 217 203 202
3 217 202 218
3 202 201 215
3 202 215 218
3 215 214 216
3 215 216 218
3 139 22 219
3 139 219 220
3 219 221 222
3 219 222 220
3 222 223 224
3 222 224 220
3 224 141 139
3 224 139 220
3 225 226 227
3 225 227 228
3 227 229 230
3 227 230 228
3 230 223 222
3 230 222 228
3 222 221 225
3 222 225 228
3 231 205 204
3 231 204 232
3 204 199 233
3 204 233 232
3 233 223 230
3 233 230 232
3 230 229 231
3 230 231 232
3 197 144 143
3 197 143 234
3 143 141 224
3 143 224 234
3 224 223 233
3 224 233 234
3 233 199 197
3 233 197 234
3 17 16 235
3 17 235 236
3 235 237 238
3 235 238 236
3 238 239 240
3 238 240 236
3 240 19 17
3 240 17 236
3 241 242 243
3 241 243 244
3 243 245 246
3 243 246 244
3 246 239 238
3 246 238 244
3 238 237 241
3 238 241 244
3 247 226 225
3 247 225 248
3 225 221 249
3 225 249 248
3 249 239 246
3 249 246 248
3 246 245 247
3 246 247 248
3 219 22 21
3 219 21 250
3 21 19 240
3 21 240 250
3 240 239 249
3 240 249 250
3 249 221 219
3 249 219 250
3 159 125 216
3 159 216 251
3 216 214 252
3 216 252 251
3 252 253 254
3 252 254 251
3 254 161 159
3 254 159 251
3 212 211 255
3 212 255 256
3 255 257 258
3 255 258 256
3 258 253 252
3 258 252 256
3 252 214 212
3 252 212 256
3 259 242 241
3 259 241 260
3 241 237 261
3 241 261 260
3 261 253 258
3 261 258 260
3 258 257 259
3 258 259 260
3 235 16 165
3 235 165 262
3 165 161 254
3 165 254 262
3 254 253 261
3 254 261 262
3 261 237 235
3 261 235 262
3 206 205 263
3 206 263 264
3 263 265 266
3 263 266 264
3 266 267 268
3 266 268 264
3 268 208 206
3 268 206 264
3 269 270 271
3 269 271 272
3 271 273 274
3 271 274 272
3 274 267 266
3 274 266 272
3 266 265 269
3 266 269 272
3 275 276 277
3 275 277 278
3 277 279 280
3 277 280 278
3 280 267 274
3 280 274 278
3 274 273 275
3 274 275 278
3 281 211 210
3 281 210 282
3 210 208 268
3 210 268 282
3 268 267 280
3 268 280 282
3 280 279 281
3 280 281 282
3 227 226 283
3 227 283 284
3 283 285 286
3 283 286 284
3 286 287 288
3 286 288 284
3 288 229 227
3 288 227 284
3 289 290 291
3 289 291 292
3 291 293 294
3 291 294 292
3 294 287 286
3 294 286 292
3 286 285 289
3 286 289 292
3 295 270 269
3 295 269 296
3 269 265 297
3 269 297 296
3 297 287 294
3 297 294 296
3 294 293 295
3 294 295 296
3 263 205 231
3 263 231 298
3 231 229 288
3 231 288 298
3 288 287 297
3 288 297 298
3 297 265 263
3 297 263 298
3 243 242 299
3 243 299 300
3 299 301 302
3 299 302 300
3 302 303 304
3 302 304 300
3 304 245 243
3 304 243 300
3 305 306 307
3 305 307 308
3 307 309 310
3 307 310 308
3 310 303 302
3 310 302 308
3 302 301 305
3 302 305 308
3 311 290 289
3 311 289 312
3 289 285 313
3 289 313 312
3 313 303 310
3 313 310 312
3 310 309 311
3 310 311 312
3 283 226 247
3 283 247 314
3 247 245 304
3 247 304 314
3 304 303 313
3 304 313 314
3 313 285 283
3 313 283 314
3 255 211 281
3 255 281 315
3 281 279 316
3 281 316 315
3 316 317 318
3 316 318 315
3 318 257 255
3 318 255 315
3 277 276 319
3 277 319 320
3 319 321 322
3 319 322 320
3 322 317 316
3 322 316 320
3 316 279 277
3 316 277 320
3 323 306 305
3 323 305 324
3 305 301 325
3 305 325 324
3 325 317 322
3 325 322 324
3 322 321 323
3 322 323 324
3 299 242 259
3 299 259 326
3 259 257 318
3 259 318 326
3 318 317 325
3 318 325 326
3 325 301 299
3 325 299 326
3 327 328 329
3 327 329 330
3 329 331 332
3 329 332 330
3 332 333 334
3 332 334 330
3 334 335 327
3 334 327 330
3 336 337 338
3 336 338 339
3 338 340 341
3 338 341 339
3 341 333 332
3 341 332 339
3 332 331 336
3 332 336 339
3 342 343 344
3 342 344 345
3 344 346 347
3 344 347 345
3 347 333 341
3 347 341 345
3 341 340 342
3 341 342 345
3 348 349 350
3 348 350 351
3 350 335 334
3 350 334 351
3 334 333 347
3 334 347 351
3 347 346 348
3 347 348 351
3 352 353 354
3 352 354 355
3 354 356 357
3 354 357 355
3 357 358 359
3 357 359 355
3 359 360 352
3 359 352 355
3 361 362 363
3 361 363 364
3 363 365 366
3 363 366 364
3 366 358 357
3 366 357 364
3 357 356 361
3 357 361 364
3 367 337 336
3 367 336 368
3 336 331 369
3 336 369 368
3 369 358 366
3 369 366 368
3 366 365 367
3 366 367 368
3 329 328 370
3 329 370 371
3 370 360 359
3 370 359 371
3 359 358 369
3 359 369 371
3 369 331 329
3 369 329 371
3 372 373 374
3 372 374 375
3 374 376 377
3 374 377 375
3 377 378 379
3 377 379 375
3 379 380 372
3 379 372 375
3 381 382 383
3 381 383 384
3 383 385 386
3 383 386 384
3 386 378 377
3 386 377 384
3 377 376 381
3 377 381 384
3 387 362 361
3 387 361 388
3 361 356 389
3 361 389 388
3 389 378 386
3 389 386 388
3 386 385 387
3 386 387 388
3 354 353 390
3 354 390 391
3 390 380 379
3 390 379 391
3 379 378 389
3 379 389 391
3 389 356 354
3 389 354 391
3 392 349 348
3 392 348 393
3 348 346 394
3 348 394 393
3 394 395 396
3 394 396 393
3 396 397 392
3 396 392 393
3 344 343 398
3 344 398 399
3 398 400 401
3 398 401 399
3 401 395 394
3 401 394 399
3 394 346 344
3 394 344 399
3 402 382 381
3 402 381 403
3 381 376 404
3 381 404 403
3 404 395 401
3 404 401 403
3 401 400 402
3 401 402 403
3 374 373 405
3 374 405 406
3 405 397 396
3 405 396 406
3 396 395 404
3 396 404 406
3 404 376 374
3 404 374 406
3 407 408 409
3 407 409 410
3 409 411 412
3 409 412 410
3 412 413 414
3 412 414 410
3 414 415 407
3 414 407 410
3 416 119 118
3 416 118 417
3 118 116 418
3 118 418 417
3 418 413 412
3 418 412 417
3 412 411 416
3 412 416 417
3 114 99 419
3 114 419 420
3 419 421 422
3 419 422 420
3 422 413 418
3 422 418 420
3 418 116 114
3 418 114 420
3 423 424 425
3 423 425 426
3 425 415 414
3 425 414 426
3 414 413 422
3 414 422 426
3 422 421 423
3 422 423 426
3 427 424 423
3 427 423 428
3 423 421 429
3 423 429 428
3 429 430 431
3 429 431 428
3 431 432 427
3 431 427 428
3 419 99 98
3 419 98 433
3 98 96 434
3 98 434 433
3 434 430 429
3 434 429 433
3 429 421 419
3 429 419 433
3 94 93 435
3 94 435 436
3 435 437 438
3 435 438 436
3 438 430 434
3 438 434 436
3 434 96 94
3 434 94 436
3 439 440 441
3 439 441 442
3 441 432 431
3 441 431 442
3 431 430 438
3 431 438 442
3 438 437 439
3 438 439 442
3 443 440 439
3 443 439 444
3 439 437 445
3 439 445 444
3 445 446 447
3 445 447 444
3 447 448 443
3 447 443 444
3 435 93 449
3 435 449 450
3 449 451 452
3 449 452 450
3 452 446 445
3 452 445 450
3 445 437 435
3 445 435 450
3 453 454 455
3 453 455 456
3 455 457 458
3 455 458 456
3 458 446 452
3 458 452 456
3 452 451 453
3 452 453 456
3 459 460 461
3 459 461 462
3 461 448 447
3 461 447 462
3 447 446 458
3 447 458 462
3 458 457 459
3 458 459 462
3 463 460 459
3 463 459 464
3 459 457 465
3 459 465 464
3 465 466 467
3 465 467 464
3 467 468 463
3 467 463 464
3 455 454 469
3 455 469 470
3 469 471 472
3 469 472 470
3 472 466 465
3 472 465 470
3 465 457 455
3 465 455 470
3 473 119 416
3 473 416 474
3 416 411 475
3 416 475 474
3 475 466 472
3 475 472 474
3 472 471 473
3 472 473 474
3 409 408 476
3 409 476 477
3 476 468 467
3 476 467 477
3 467 466 475
3 467 475 477
3 475 411 409
3 475 409 477
3 120 119 473
3 120 473 478
3 473 471 479
3 473 479 478
3 479 480 481
3 479 481 478
3 481 122 120
3 481 120 478
3 469 454 482
3 469 482 483
3 482 484 485
3 482 485 483
3 485 480 479
3 485 479 483
3 479 471 469
3 479 469 483
3 486 144 196
3 486 196 487
3 196 203 488
3 196 488 487
3 488 480 485
3 488 485 487
3 485 484 486
3 485 486 487
3 217 125 124
3 217 124 489
3 124 122 481
3 124 481 489
3 481 480 488
3 481 488 489
3 488 203 217
3 488 217 489
3 482 454 453
3 482 453 490
3 453 451 491
3 453 491 490
3 491 492 493
3 491 493 490
3 493 484 482
3 493 482 490
3 449 93 92
3 449 92 494
3 92 87 495
3 92 495 494
3 495 492 491
3 495 491 494
3 491 451 449
3 491 449 494
3 85 84 128
3 85 128 496
3 128 135 497
3 128 497 496
3 497 492 495
3 497 495 496
3 495 87 85
3 495 85 496
3 145 144 486
3 145 486 498
3 486 484 493
3 486 493 498
3 493 492 497
3 493 497 498
3 497 135 145
3 497 145 498
3 338 337 499
3 338 499 500
3 499 501 502
3 499 502 500
3 502 503 504
3 502 504 500
3 504 340 338
3 504 338 500
3 505 172 171
3 505 171 506
3 171 179 507
3 171 507 506
3 507 503 502
3 507 502 506
3 502 501 505
3 502 505 506
3 194 193 508
3 194 508 509
3 508 510 511
3 508 511 509
3 511 503 507
3 511 507 509
3 507 179 194
3 507 194 509
3 512 343 342
3 512 342 513
3 342 340 504
3 342 504 513
3 504 503 511
3 504 511 513
3 511 510 512
3 511 512 513
3 398 343 512
3 398 512 514
3 512 510 515
3 512 515 514
3 515 516 517
3 515 517 514
3 517 400 398
3 517 398 514
3 508 193 192
3 508 192 518
3 192 190 519
3 192 519 518
3 519 516 515
3 519 515 518
3 515 510 508
3 515 508 518
3 188 187 520
3 188 520 521
3 520 522 523
3 520 523 521
3 523 516 519
3 523 519 521
3 519 190 188
3 519 188 521
3 524 382 402
3 524 402 525
3 402 400 517
3 402 517 525
3 517 516 523
3 517 523 525
3 523 522 524
3 523 524 525
3 383 382 524
3 383 524 526
3 524 522 527
3 524 527 526
3 527 528 529
3 527 529 526
3 529 385 383
3 529 383 526
3 520 187 186
3 520 186 530
3 186 184 531
3 186 531 530
3 531 528 527
3 531 527 530
3 527 522 520
3 527 520 530
3 182 181 532
3 182 532 533
3 532 534 535
3 532 535 533
3 535 528 531
3 535 531 533
3 531 184 182
3 531 182 533
3 536 362 387
3 536 387 537
3 387 385 529
3 387 529 537
3 529 528 535
3 529 535 537
3 535 534 536
3 535 536 537
3 363 362 536
3 363 536 538
3 536 534 539
3 536 539 538
3 539 540 541
3 539 541 538
3 541 365 363
3 541 363 538
3 532 181 180
3 532 180 542
3 180 175 543
3 180 543 542
3 543 540 539
3 543 539 542
3 539 534 532
3 539 532 542
3 173 172 505
3 173 505 544
3 505 501 545
3 505 545 544
3 545 540 543
3 545 543 544
3 543 175 173
3 543 173 544
3 499 337 367
3 499 367 546
3 367 365 541
3 367 541 546
3 541 540 545
3 541 545 546
3 545 501 499
3 545 499 546
3 271 270 547
3 271 547 548
3 547 549 550
3 547 550 548
3 550 551 552
3 550 552 548
3 552 273 271
3 552 271 548
3 553 328 327
3 553 327 554
3 327 335 555
3 327 555 554
3 555 551 550
3 555 550 554
3 550 549 553
3 550 553 554
3 350 349 556
3 350 556 557
3 556 558 559
3 556 559 557
3 559 551 555
3 559 555 557
3 555 335 350
3 555 350 557
3 560 276 275
3 560 275 561
3 275 273 552
3 275 552 561
3 552 551 559
3 552 559 561
3 559 558 560
3 559 560 561
3 319 276 560
3 319 560 562
3 560 558 563
3 560 563 562
3 563 564 565
3 563 565 562
3 565 321 319
3 565 319 562
3 556 349 392
3 556 392 566
3 392 397 567
3 392 567 566
3 567 564 563
3 567 563 566
3 563 558 556
3 563 556 566
3 405 373 568
3 405 568 569
3 568 570 571
3 568 571 569
3 571 564 567
3 571 567 569
3 567 397 405
3 567 405 569
3 572 306 323
3 572 323 573
3 323 321 565
3 323 565 573
3 565 564 571
3 565 571 573
3 571 570 572
3 571 572 573
3 307 306 572
3 307 572 574
3 572 570 575
3 572 575 574
3 575 576 577
3 575 577 574
3 577 309 307
3 577 307 574
3 568 373 372
3 568 372 578
3 372 380 579
3 372 579 578
3 579 576 575
3 579 575 578
3 575 570 568
3 575 568 578
3 390 353 580
3 390 580 581
3 580 582 583
3 580 583 581
3 583 576 579
3 583 579 581
3 579 380 390
3 579 390 581
3 584 290 311
3 584 311 585
3 311 309 577
3 311 577 585
3 577 576 583
3 577 583 585
3 583 582 584
3 583 584 585
3 291 290 584
3 291 584 586
3 584 582 587
3 584 587 586
3 587 588 589
3 587 589 586
3 589 293 291
3 589 291 586
3 580 353 352
3 580 352 590
3 352 360 591
3 352 591 590
3 591 588 587
3 591 587 590
3 587 582 580
3 587 580 590
3 370 328 553
3 370 553 592
3 553 549 593
3 553 593 592
3 593 588 591
3 593 591 592
3 591 360 370
3 591 370 592
3 547 270 295
3 547 295 594
3 295 293 589
3 295 589 594
3 589 588 593
3 589 593 594
3 593 549 547
3 593 547 594
3 595 47 68
3 68 73 596
3 596 73 81
3 56 26 597
3 598 599 600
3 597 26 25
3 597 25 601
3 25 33 602
3 25 602 601
3 602 599 598
3 602 598 601
3 598 597 601
3 48 47 595
3 48 595 603
3 595 604 603
3 604 599 602
3 604 602 603
3 602 33 48
3 602 48 603
3 600 599 604
3 74 41 605
3 74 605 606
3 605 607 608
3 605 608 606
3 608 609 610
3 608 610 606
3 610 76 74
3 610 74 606
3 611 460 463
3 611 463 612
3 463 468 613
3 463 613 612
3 613 609 608
3 613 608 612
3 608 607 611
3 608 611 612
3 476 408 614
3 476 614 615
3 614 616 617
3 614 617 615
3 617 609 613
3 617 613 615
3 613 468 476
3 613 476 615
3 618 62 78
3 618 78 619
3 78 76 610
3 78 610 619
3 610 609 617
3 610 617 619
3 617 616 618
3 617 618 619
3 63 62 618
3 63 618 620
3 618 616 621
3 618 621 620
3 621 622 623
3 621 623 620
3 623 65 63
3 623 63 620
3 614 408 407
3 614 407 624
3 407 415 625
3 407 625 624
3 625 622 621
3 625 621 624
3 621 616 614
3 621 614 624
3 425 424 626
3 425 626 627
3 626 628 629
3 626 629 627
3 629 622 625
3 629 625 627
3 625 415 425
3 625 425 627
3 630 67 631
3 67 65 623
3 67 623 631
3 623 622 629
3 623 629 631
3 629 628 630
3 629 630 631
3 50 630 632
3 630 628 633
3 630 633 632
3 633 634 635
3 633 635 632
3 635 51 50
3 635 50 632
3 626 424 427
3 626 427 636
3 427 432 637
3 427 637 636
3 637 634 633
3 637 633 636
3 633 628 626
3 633 626 636
3 441 440 638
3 441 638 639
3 638 640 641
3 638 641 639
3 641 634 637
3 641 637 639
3 637 432 441
3 637 441 639
3 642 35 53
3 642 53 643
3 53 51 635
3 53 635 643
3 635 634 641
3 635 641 643
3 641 640 642
3 641 642 643
3 36 35 642
3 36 642 644
3 642 640 645
3 642 645 644
3 645 646 647
3 645 647 644
3 647 38 36
3 647 36 644
3 638 440 443
3 638 443 648
3 443 448 649
3 443 649 648
3 649 646 645
3 649 645 648
3 645 640 638
3 645 638 648
3 461 460 611
3 461 611 650
3 611 607 651
3 611 651 650
3 651 646 649
3 651 649 650
3 649 448 461
3 649 461 650
3 605 41 40
3 605 40 652
3 40 38 647
3 40 647 652
3 647 646 651
3 647 651 652
3 651 607 605
3 651 605 652
