OFF
278 542 0
-11.0034 0.585923 -6.62384
-10.668 1.00562 -6.62984
-10.7015 0.632223 -6.86484
-10.9692 0.331223 -6.77384
-10.5673 0.491823 -6.91384
-10.8429 0.158323 -6.81284
-11.0786 -0.0968773 -6.54484
-11.1995 0.103623 -6.52884
-11.2214 0.391523 -6.39284
-10.4283 0.385323 -6.79684
-10.1308 0.521623 -6.49684
-10.4634 0.0946227 -6.48684
-10.6751 0.0634227 -6.69884
-10.6434 -0.138077 -6.24284
-10.8843 -0.185077 -6.44684
-10.8081 -0.250177 -5.92484
-10.8083 -0.156177 -5.39284
-11.1099 -0.296477 -5.68384
-11.0464 -0.308077 -6.09284
-11.2974 -0.238377 -5.72184
-11.2409 -0.239777 -6.16284
-11.3796 -0.0458773 -5.75684
-11.3371 0.336823 -5.53584
-11.3445 0.244823 -6.06584
-11.3388 -0.0383773 -6.16984
-5.9574 7.62932 -0.737838
-5.967 7.91002 -0.678838
-5.8812 8.12312 -0.506838
-5.94892 8.14092 -0.279838
-5.903 8.07812 -0.00483798
-6.17059 6.24602 0.632162
-6.62763 5.90542 0.108162
-6.19785 6.00052 0.341162
-6.5796 5.96922 -0.306838
-6.15645 6.27832 -0.212838
-7.71912 6.52532 -0.443838
-7.78197 6.73542 -0.640838
-8.08247 6.15322 -0.702838
-8.01315 5.95642 -0.523838
-8.30261 5.49912 -0.770838
-8.23578 5.31332 -0.607838
-8.09881 5.07182 -0.462838
-7.88317 5.69762 -0.363838
-7.38693 6.57172 -0.186838
-8.44563 4.83812 -0.898838
-8.51476 4.23472 -1.14284
-8.4732 4.05922 -1.00884
-8.38859 4.65962 -0.750838
-8.35413 3.83612 -0.889838
-8.2555 4.43042 -0.620838
-8.18155 3.60282 -0.800838
-7.97946 3.39652 -0.760838
-7.86519 3.97422 -0.483838
-8.07236 4.18912 -0.524838
-7.71032 4.71592 -0.287838
-7.91786 4.81552 -0.357838
-7.22579 5.85992 -0.028838
-7.563 5.79422 -0.181838
-7.65973 6.63912 -1.12484
-7.35704 6.70072 -1.14384
-7.82441 5.45812 -1.20184
-8.0114 5.50412 -1.17084
-8.01994 6.17152 -1.02684
-7.71348 6.81352 -1.00284
-7.89831 4.71112 -1.29084
-7.92897 4.12862 -1.48684
-8.13566 4.26832 -1.46084
-8.10247 4.85912 -1.25884
-8.31971 4.33532 -1.38484
-8.27808 4.93292 -1.17084
-8.45484 4.32542 -1.27284
-8.32782 5.39852 -0.934838
-7.77557 6.82832 -0.834838
-8.06675 6.24392 -0.880838
-7.13162 5.47142 -0.815838
-6.93402 5.60222 -0.552838
-7.17104 4.80792 -0.684838
-7.29982 4.60302 -0.907838
-7.43894 4.84902 -1.05384
-7.33837 5.42452 -1.01284
-7.04213 6.15792 -0.920838
-7.31153 3.83422 -0.871838
-7.388 3.27772 -1.10284
-7.43051 3.45532 -1.23684
-7.36963 4.01492 -1.01984
-7.55146 3.68272 -1.35784
-7.50483 4.24842 -1.15184
-7.72592 3.92032 -1.44684
-7.69007 4.49402 -1.24884
-7.62205 5.10982 -1.16084
-7.43958 5.92142 -1.12084
-7.21563 5.42382 -0.144838
-7.52852 4.42122 -0.347838
-7.47609 3.80372 -0.575838
-7.23788 4.88552 -0.341838
-7.08189 5.34672 -0.245838
-7.77182 3.25472 -0.786838
-7.65997 3.82402 -0.514838
-7.58589 3.18352 -0.862838
-7.44887 3.18912 -0.972838
-7.35759 3.74692 -0.726838
-7.20443 4.66962 -0.500838
-6.97631 5.43592 -0.383838
-8.51322 3.75372 -1.55684
-8.4912 3.57592 -1.43484
-8.49037 3.37222 -2.08384
-8.49058 3.19122 -1.97184
-8.39056 3.31622 -1.34084
-8.4955 3.06742 -2.66684
-8.57801 2.81642 -3.24684
-8.6254 2.64242 -3.14084
-8.51932 2.88622 -2.55984
-8.61592 2.23222 -2.96884
-8.48736 2.65642 -2.45184
-8.50949 1.97292 -2.85084
-8.29264 2.20452 -2.30184
-8.40876 2.41632 -2.36084
-8.1565 2.51602 -1.72984
-8.30866 2.72492 -1.77884
-8.06432 2.91192 -1.19684
-8.24662 3.11762 -1.23884
-7.9278 3.65802 -1.84884
-8.12251 3.79582 -1.83184
-7.94582 2.99402 -2.72684
-8.10559 3.41632 -2.31484
-8.27271 3.48122 -2.26584
-8.30254 3.86012 -1.76784
-8.11619 2.69022 -3.36784
-8.20043 2.85202 -3.34184
-8.43183 2.77672 -3.64684
-8.27633 3.17252 -2.82184
-8.48238 2.90332 -3.32884
-8.40677 3.16152 -2.75684
-8.40935 3.46772 -2.18584
-8.44156 3.84732 -1.67184
-7.47437 2.80342 -1.48684
-7.5735 2.61982 -1.98784
-7.59615 2.40742 -1.96384
-7.76443 2.52212 -2.63484
-7.59423 3.21222 -1.72084
-7.77885 2.08562 -2.47784
-8.04797 1.83402 -2.96984
-8.00368 2.06642 -3.13684
-7.75527 2.26892 -2.58484
-8.03773 2.47792 -3.29384
-7.86678 2.74752 -2.78584
-7.78041 3.06552 -2.27084
-7.74475 3.45032 -1.80584
-7.86886 2.77202 -1.21384
-7.98401 2.31982 -1.80284
-7.81533 2.30492 -1.78284
-7.68732 2.70352 -1.27584
-8.39528 1.82582 -2.82384
-8.04814 1.90042 -2.48484
-8.14355 1.74932 -2.88884
-7.86782 1.99362 -2.38784
-7.67767 2.31402 -1.86284
-7.54679 2.71202 -1.37184
-8.80628 2.57212 -3.72484
-9.06607 2.41542 -4.22284
-9.1558 2.26242 -4.04884
-8.88052 2.19232 -3.47484
-9.58084 1.98122 -4.26084
-9.63894 2.13792 -4.67384
-9.42095 2.25492 -4.67084
-9.9613 1.74762 -4.27884
-9.62598 1.62492 -3.94884
-9.23123 1.85832 -3.75584
-8.81483 1.77332 -3.28384
-8.44162 2.46632 -3.93484
-8.83786 2.10812 -4.41084
-8.74619 2.36002 -4.30684
-9.03838 2.31332 -4.60284
-9.33715 1.84172 -4.98284
-9.25747 2.04912 -4.94484
-9.37348 2.08632 -5.10984
-8.80777 2.55562 -4.09384
-9.41503 2.22422 -4.92384
-8.4129 1.62492 -3.30584
-8.30153 1.96212 -3.55684
-8.72954 1.60312 -3.72684
-8.66315 1.99472 -4.08984
-9.27971 1.41232 -3.95584
-9.78854 1.27212 -4.24784
-9.47126 1.42772 -4.27884
-9.55328 1.45582 -4.57284
-9.06916 1.68022 -4.25984
-9.40658 1.66432 -4.79884
-8.32712 2.23832 -3.74084
-9.17715 1.57782 -3.63184
-8.75926 1.54862 -3.38584
-9.94747 1.39392 -4.02484
-9.66189 1.35672 -3.96284
-8.97043 1.46452 -3.63784
-9.89596 2.17542 -5.37784
-10.0981 2.08842 -5.14384
-10.2152 1.93352 -4.76884
-10.1538 1.84722 -5.92184
-10.3669 1.80392 -5.60084
-10.4022 1.85082 -5.01384
-10.7678 1.40152 -4.93684
-10.8985 1.10172 -4.69184
-10.509 1.53362 -4.33084
-10.4231 1.74382 -4.57384
-9.56229 1.97842 -5.71784
-9.46892 1.75152 -5.70484
-9.4372 1.53922 -5.50984
-9.88268 1.87672 -5.99484
-9.70236 2.15052 -5.52684
-10.1386 0.855123 -4.30084
-10.023 0.705423 -4.74084
-9.82317 0.830923 -5.12084
-9.61101 1.12132 -5.40884
-10.4842 1.34642 -4.17084
-10.497 1.04452 -4.12984
-10.8283 0.928523 -4.43984
-10.382 0.832323 -4.20484
-10.4456 1.39922 -6.36684
-10.6999 1.29822 -6.11684
-10.9333 1.11462 -5.79784
-10.7069 1.46842 -5.44384
-10.8948 0.926123 -6.40284
-11.1187 0.742123 -6.13184
-11.2625 0.558623 -5.80084
-11.1896 0.655023 -5.14884
-11.105 0.893023 -5.45284
-9.61931 1.20252 -5.88184
-9.6529 1.42972 -6.08484
-9.84741 0.861523 -6.21984
-9.88445 1.08082 -6.42684
-10.0175 1.25552 -6.52784
-9.7834 1.61182 -6.18184
-10.1539 0.728623 -6.68484
-10.2855 0.869923 -6.79584
-10.4499 0.994323 -6.75684
-10.2113 1.37332 -6.50584
-10.3817 0.437723 -4.63684
-10.6021 0.105823 -4.98884
-10.3536 0.197223 -5.25284
-10.1242 0.373023 -5.58784
-10.5789 -0.0733773 -5.61984
-10.3824 0.0674227 -5.94084
-10.2056 0.300123 -6.22784
-9.9414 0.610023 -5.92484
-11.1619 0.422223 -4.95184
-11.04 0.232123 -4.85784
-10.8153 0.577023 -4.49384
-11.3142 0.130123 -5.34484
-11.2156 -0.0603773 -5.27684
-11.0237 -0.141577 -5.26484
-10.8422 0.122123 -4.86384
-10.6198 0.459923 -4.50484
-6.69689 7.27572 -0.965838
-6.83826 7.47752 -0.936838
-6.82566 7.66232 -0.778838
-7.27513 7.12502 -1.05084
-7.34972 7.25412 -0.921838
-7.3979 7.18132 -0.527838
-7.39388 7.27682 -0.738838
-6.84945 7.60592 -0.351838
-6.90435 7.66022 -0.594838
-5.95536 7.75212 0.291162
-6.89518 7.30602 -0.129838
-6.69313 7.09972 0.139162
-6.02504 7.38922 0.486162
-7.35208 6.95592 -0.315838
-6.91285 6.57182 0.147162
-6.62597 6.38102 0.359162
-6.17822 6.55002 0.676162
-6.14374 6.91512 0.614162
-6.84889 5.93482 0.108162
-6.8932 5.65822 -0.106838
-6.63328 5.84262 -0.118838
-6.74714 6.11262 -0.629838
-6.57401 6.56402 -0.722838
-6.07548 6.79162 -0.511838
-6.82364 6.83362 -0.960838
-6.01845 7.25972 -0.685838
3 0 1 2
3 0 2 3
3 2 4 5
3 2 5 3
3 5 6 7
3 5 7 3
3 7 8 0
3 7 0 3
3 9 10 11
3 9 11 12
3 11 13 14
3 11 14 12
3 14 6 5
3 14 5 12
3 5 4 9
3 5 9 12
3 15 16 17
3 15 17 18
3 17 19 20
3 17 20 18
3 20 6 14
3 20 14 18
3 14 13 15
3 14 15 18
3 21 22 23
3 21 23 24
3 23 8 7
3 23 7 24
3 7 6 20
3 7 20 24
3 20 19 21
3 20 21 24
3 25 26 27
3 27 28 29
3 30 31 32
3 32 33 34
3 35 36 37
3 35 37 38
3 37 39 40
3 37 40 38
3 40 41 42
3 40 42 38
3 42 43 35
3 42 35 38
3 44 45 46
3 44 46 47
3 46 48 49
3 46 49 47
3 49 41 40
3 49 40 47
3 40 39 44
3 40 44 47
3 50 51 52
3 50 52 53
3 52 54 55
3 52 55 53
3 55 41 49
3 55 49 53
3 49 48 50
3 49 50 53
3 54 56 57
3 57 43 42
3 42 41 55
3 42 55 57
3 55 54 57
3 58 59 60
3 60 61 58
3 61 62 58
3 62 63 58
3 64 65 66
3 64 66 67
3 66 68 69
3 66 69 67
3 69 62 61
3 69 61 67
3 61 60 64
3 61 64 67
3 70 45 44
3 70 44 71
3 44 39 71
3 71 62 69
3 69 68 70
3 69 70 71
3 37 36 72
3 37 72 73
3 72 63 62
3 72 62 73
3 62 71 73
3 71 39 37
3 71 37 73
3 74 75 76
3 76 77 74
3 77 78 79
3 77 79 74
3 79 80 74
3 81 82 83
3 81 83 84
3 83 85 86
3 83 86 84
3 86 78 77
3 86 77 84
3 77 76 81
3 77 81 84
3 87 65 64
3 87 64 88
3 64 60 89
3 64 89 88
3 89 78 86
3 89 86 88
3 86 85 87
3 86 87 88
3 60 59 90
3 90 80 79
3 79 78 89
3 79 89 90
3 89 60 90
3 91 56 54
3 54 92 91
3 92 93 94
3 92 94 91
3 94 95 91
3 52 51 96
3 52 96 97
3 96 98 93
3 96 93 97
3 93 92 97
3 92 54 52
3 92 52 97
3 99 82 81
3 99 81 100
3 81 76 101
3 81 101 100
3 101 93 100
3 93 98 99
3 93 99 100
3 76 75 102
3 76 102 101
3 102 95 94
3 102 94 101
3 94 93 101
3 46 45 103
3 46 103 104
3 103 105 106
3 103 106 104
3 106 107 104
3 107 48 46
3 107 46 104
3 108 109 110
3 108 110 111
3 110 112 113
3 110 113 111
3 113 107 106
3 113 106 111
3 106 105 108
3 106 108 111
3 112 114 115
3 112 115 116
3 115 117 118
3 115 118 116
3 118 107 113
3 118 113 116
3 113 112 116
3 119 51 50
3 119 50 120
3 50 48 107
3 50 107 120
3 107 118 120
3 118 117 119
3 118 119 120
3 66 65 121
3 66 121 122
3 121 123 124
3 121 124 122
3 124 125 126
3 124 126 122
3 126 68 66
3 126 66 122
3 123 127 128
3 128 129 130
3 130 125 124
3 130 124 128
3 124 123 128
3 131 109 108
3 131 108 132
3 108 105 133
3 108 133 132
3 133 125 130
3 133 130 132
3 130 129 131
3 130 131 132
3 103 45 70
3 103 70 134
3 70 68 126
3 70 126 134
3 126 125 133
3 126 133 134
3 133 105 103
3 133 103 134
3 83 82 135
3 83 135 136
3 135 137 136
3 136 138 139
3 139 85 83
3 139 83 136
3 140 141 142
3 140 142 143
3 142 138 143
3 138 136 143
3 136 137 140
3 136 140 143
3 144 127 123
3 144 123 145
3 123 146 145
3 146 138 145
3 138 142 144
3 138 144 145
3 121 65 87
3 121 87 147
3 87 85 139
3 87 139 147
3 139 138 146
3 139 146 147
3 146 123 121
3 146 121 147
3 96 51 119
3 96 119 148
3 119 117 149
3 119 149 148
3 149 150 151
3 149 151 148
3 151 98 96
3 151 96 148
3 115 114 152
3 115 152 149
3 152 153 149
3 153 150 149
3 149 117 115
3 154 141 140
3 154 140 155
3 140 137 156
3 140 156 155
3 156 150 153
3 156 153 155
3 153 154 155
3 135 82 99
3 135 99 157
3 99 98 151
3 99 151 157
3 151 150 156
3 151 156 157
3 156 137 135
3 156 135 157
3 110 109 158
3 158 159 160
3 160 161 158
3 161 112 110
3 161 110 158
3 162 160 163
3 160 159 164
3 160 164 163
3 165 166 162
3 166 167 162
3 167 160 162
3 168 114 112
3 168 112 161
3 161 160 167
3 167 168 161
3 128 127 169
3 169 170 171
3 171 172 129
3 171 129 169
3 129 128 169
3 170 173 174
3 174 175 172
3 172 171 174
3 171 170 174
3 164 159 176
3 164 176 177
3 176 172 177
3 172 175 177
3 158 109 131
3 158 131 176
3 131 129 176
3 129 172 176
3 176 159 158
3 142 141 178
3 142 178 179
3 178 180 179
3 180 181 179
3 182 183 184
3 184 185 186
3 186 181 180
3 186 180 184
3 180 182 184
3 187 173 170
3 170 181 187
3 181 186 187
3 186 185 187
3 169 127 144
3 169 144 188
3 144 142 179
3 144 179 188
3 179 181 188
3 181 170 169
3 181 169 188
3 152 114 168
3 168 167 189
3 189 190 168
3 190 153 152
3 190 152 168
3 166 165 191
3 191 192 166
3 192 190 189
3 192 189 166
3 189 167 166
3 192 183 182
3 182 180 193
3 182 193 192
3 193 190 192
3 178 141 154
3 154 153 190
3 154 190 178
3 190 193 178
3 193 180 178
3 163 164 194
3 163 194 195
3 196 162 163
3 196 163 195
3 194 197 198
3 194 198 195
3 198 199 195
3 199 196 195
3 200 201 202
3 200 202 203
3 203 196 199
3 199 200 203
3 202 165 203
3 165 162 196
3 165 196 203
3 174 173 175
3 204 175 205
3 175 173 206
3 175 206 205
3 207 197 194
3 207 194 208
3 204 207 208
3 194 164 177
3 194 177 208
3 177 175 208
3 175 204 208
3 185 184 183
3 209 210 183
3 210 211 185
3 210 185 183
3 212 206 187
3 206 173 187
3 185 211 212
3 185 212 187
3 191 165 202
3 191 202 213
3 213 214 191
3 202 201 215
3 202 215 213
3 215 214 213
3 209 191 216
3 191 214 216
3 183 192 191
3 191 209 183
3 197 217 218
3 197 218 198
3 218 219 220
3 218 220 198
3 220 199 198
3 1 0 221
3 0 8 222
3 0 222 221
3 222 219 218
3 222 218 221
3 218 217 1
3 218 1 221
3 23 22 223
3 22 224 225
3 22 225 223
3 225 219 222
3 225 222 223
3 222 8 23
3 222 23 223
3 200 199 220
3 220 219 225
3 220 225 200
3 225 224 201
3 225 201 200
3 205 206 226
3 205 226 227
3 226 228 229
3 226 229 227
3 229 230 231
3 229 231 227
3 231 204 205
3 231 205 227
3 10 9 232
3 9 4 233
3 9 233 232
3 233 230 229
3 233 229 232
3 229 228 10
3 229 10 232
3 2 1 234
3 1 217 235
3 1 235 234
3 235 230 233
3 235 233 234
3 233 4 2
3 233 2 234
3 207 204 231
3 231 230 235
3 231 235 207
3 235 217 197
3 235 197 207
3 210 209 236
3 236 237 238
3 236 238 210
3 238 239 211
3 238 211 210
3 16 15 240
3 15 13 241
3 15 241 240
3 241 239 238
3 241 238 240
3 238 237 16
3 238 16 240
3 11 10 242
3 10 228 243
3 10 243 242
3 243 239 241
3 243 241 242
3 241 13 11
3 241 11 242
3 226 206 212
3 211 239 243
3 211 243 212
3 243 228 226
3 243 226 212
3 201 224 244
3 201 244 215
3 244 245 246
3 244 246 215
3 246 214 215
3 22 21 247
3 21 19 248
3 21 248 247
3 248 245 244
3 248 244 247
3 244 224 22
3 244 22 247
3 17 16 249
3 16 237 250
3 16 250 249
3 250 245 248
3 250 248 249
3 248 19 17
3 248 17 249
3 236 209 216
3 236 216 251
3 216 214 246
3 216 246 251
3 246 245 250
3 246 250 251
3 250 237 236
3 250 236 251
3 26 25 252
3 26 252 253
3 254 27 26
3 254 26 253
3 59 58 255
3 58 63 256
3 58 256 255
3 256 254 253
3 256 253 255
3 253 252 59
3 253 59 255
3 72 36 257
3 72 257 258
3 257 259 260
3 257 260 258
3 260 254 256
3 260 256 258
3 256 63 72
3 256 72 258
3 259 29 28
3 259 28 260
3 28 27 254
3 28 254 260
3 261 29 259
3 261 259 262
3 263 264 261
3 263 261 262
3 257 36 35
3 257 35 265
3 35 43 265
3 43 263 262
3 43 262 265
3 262 259 257
3 262 257 265
3 57 56 266
3 56 267 266
3 266 263 43
3 43 57 266
3 267 268 269
3 269 264 263
3 263 266 269
3 266 267 269
3 30 268 267
3 30 267 270
3 31 30 270
3 56 91 270
3 91 95 271
3 91 271 270
3 271 31 270
3 270 267 56
3 75 33 272
3 75 272 102
3 272 31 271
3 272 271 102
3 271 95 102
3 33 32 272
3 32 31 272
3 34 33 273
3 274 275 34
3 274 34 273
3 75 74 273
3 74 80 273
3 80 274 273
3 273 33 75
3 90 59 276
3 59 252 276
3 276 274 80
3 80 90 276
3 252 25 277
3 252 277 276
3 277 275 274
3 277 274 276
