OFF
195 377 0
-2.27668 -10.9678 -13.1178
-1.24568 -12.2708 -12.859
-1.86368 -12.1215 -12.7
-2.53568 -12.4169 -12.2672
-2.89268 -11.5572 -12.564
-1.28468 -13.3007 -12.2812
-1.24468 -13.9941 -11.8787
-2.18968 -13.9745 -11.5372
-2.16968 -13.2703 -11.9499
-3.07168 -13.7501 -11.2745
-3.65068 -13.6496 -11.0355
-3.69868 -12.955 -11.4349
-3.19868 -12.706 -11.8139
-3.82468 -11.9014 -11.9554
-3.24868 -10.5273 -12.9107
-2.24568 -3.06951 -0.239915
-1.94768 -3.05011 -0.000215363
-2.48468 -3.06061 -1.07182
-2.42268 -3.07561 -0.616915
-0.812682 -3.06791 -1.79902
-0.856682 -3.35431 -2.08962
-1.15868 -3.36711 -2.32422
-1.45068 -3.05951 -2.22952
-1.52268 -3.34051 -2.37692
-0.346682 -5.26551 -3.56412
-1.03768 -5.12191 -3.73142
-1.92168 -3.25751 -2.22142
-1.71368 -5.19961 -3.40112
-2.24768 -3.06511 -1.87282
-0.926682 -3.07641 -0.245715
-0.324682 -5.81751 -2.14892
-0.442682 -4.42331 -1.57442
-0.745682 -3.08511 -0.620115
-0.0866823 -5.55361 -2.88622
-0.688682 -3.08631 -1.05282
-0.448682 -4.27281 -2.40732
-0.693682 -3.30691 -1.68202
-1.69168 -5.75081 -1.98562
-1.65568 -4.49341 -0.945015
-1.00368 -5.88451 -1.80992
-1.57368 -3.06691 0.0624846
-0.925682 -4.51161 -0.989515
-1.22368 -3.07961 -0.0197154
-2.41968 -3.06241 -1.51512
-1.95168 -5.46271 -2.66352
-2.14668 -4.38091 -1.47052
-0.0756823 -8.71771 -7.35392
0.310318 -8.99951 -7.31222
0.162318 -9.79111 -8.77252
-0.273682 -9.44451 -8.79482
-0.136682 -10.3016 -10.1863
-0.629682 -9.89601 -10.1995
-1.20968 -9.70191 -10.0597
-0.786682 -9.27851 -8.67892
-0.530682 -8.58281 -7.26752
-0.495682 -10.6038 -11.4451
-1.02868 -10.8753 -13.0635
-1.65268 -10.3566 -13.076
-1.04368 -10.148 -11.4561
-1.68968 -9.92981 -11.2976
-3.11068 -10.1479 -12.5651
-2.84368 -10.2676 -10.622
-2.32468 -9.96461 -11.0071
-2.24668 -10.0024 -9.45382
-1.78068 -9.73281 -9.80002
-1.70568 -9.53541 -8.14651
-1.34668 -8.79161 -6.80322
-0.979682 -8.60431 -7.07632
-1.29268 -9.30501 -8.45332
0.589318 -10.3572 -6.48972
0.378318 -10.7198 -6.15802
0.246318 -11.9071 -7.56562
0.482318 -11.461 -7.92522
-0.0376823 -12.7774 -8.86852
0.227318 -12.2555 -9.26792
0.296318 -11.5939 -9.66061
0.544318 -10.8956 -8.28292
0.645318 -9.89751 -6.82762
-0.384682 -13.3861 -9.99292
-0.902682 -14.0411 -11.4112
-0.566682 -13.3738 -11.9144
-0.0896823 -12.7997 -10.4352
-0.479682 -12.5277 -12.4077
-0.0126823 -12.0561 -10.8687
-0.635682 -11.647 -12.8156
-0.149682 -11.282 -11.2273
0.173318 -10.9051 -9.98672
0.551318 -9.41881 -7.11932
0.436318 -10.3069 -8.58362
-0.892682 -10.7937 -5.60732
-1.27868 -10.5119 -5.64912
-1.62168 -11.6513 -6.93962
-1.18568 -11.998 -6.91732
-2.14768 -12.4781 -8.13601
-1.65468 -12.8837 -8.12282
-1.07468 -13.0779 -8.26262
-0.671682 -12.1639 -7.03312
-0.437682 -10.9286 -5.69372
-2.73368 -13.0499 -9.16971
-2.95068 -14.1772 -10.4621
-2.18468 -13.5057 -9.15882
-2.21568 -14.4254 -10.6424
-1.53868 -13.7239 -9.31732
-1.49268 -14.3859 -10.973
-0.903682 -13.6891 -9.60782
-0.503682 -13.047 -8.52232
0.0113177 -10.9071 -5.88502
-0.166682 -12.1375 -7.25872
-1.55768 -9.15421 -6.47152
-1.94068 -9.98141 -7.78682
-2.51168 -10.5242 -9.05452
-2.58068 -11.1859 -8.66182
-2.00268 -10.5469 -7.42922
-1.61368 -9.61391 -6.13362
-4.03668 -11.16 -11.6236
-3.13868 -10.8541 -10.1797
-4.12368 -12.006 -11.1305
-3.21568 -11.5976 -9.74622
-3.96768 -12.8868 -10.7224
-3.07868 -12.3717 -9.38752
-2.45868 -11.8747 -8.33562
-1.51968 -10.0926 -5.84202
-1.89468 -11.1356 -7.12852
-0.660682 -5.17511 -3.72002
-0.0336823 -6.54541 -4.64282
-0.361682 -6.39691 -4.75812
-0.750682 -6.32591 -4.74382
0.214318 -7.85381 -5.91382
-0.135682 -7.63981 -5.98892
-0.550682 -7.53741 -5.93772
-1.29768 -7.69591 -5.52742
-0.960682 -7.55371 -5.77812
-1.45468 -6.43591 -4.37472
-1.13668 -6.33721 -4.61192
-1.40568 -5.13871 -3.63092
-1.89468 -5.31521 -3.05692
-1.63968 -6.62691 -4.04432
-1.69468 -6.86901 -3.67952
-1.49168 -7.97131 -5.20322
-1.54668 -8.32041 -4.85992
-1.24568 -9.00231 -4.33312
-1.46368 -8.68381 -4.55182
-1.41868 -7.34201 -3.08182
-1.61968 -7.12111 -3.33912
-1.88268 -5.61621 -2.28502
-1.37768 -5.84121 -1.82972
-1.09068 -7.49051 -2.96652
-0.701682 -7.56151 -2.98082
-0.894682 -9.21631 -4.25802
-0.479682 -9.31871 -4.30922
0.266318 -9.16011 -4.71952
-0.0696823 -9.30241 -4.46882
0.00231766 -7.45151 -3.34992
-0.315682 -7.55021 -3.11272
-0.632682 -5.87761 -1.91882
-0.142682 -5.70111 -2.49282
0.187318 -7.26051 -3.68032
0.242318 -7.01841 -4.04512
0.461318 -8.88481 -5.04372
0.515318 -8.53571 -5.38702
0.433318 -8.17221 -5.69512
0.168318 -6.76631 -4.38552
-0.154682 -5.40011 -3.26482
-3.57468 -13.6585 -10.4746
-3.70768 -13.7388 -10.7903
-3.08868 -14.2545 -10.7781
-2.36068 -14.5017 -10.9572
-3.08868 -14.1238 -11.0222
-2.42868 -14.3514 -11.1856
-1.77668 -14.3116 -11.4821
-1.05768 -14.1182 -11.7191
-1.64368 -14.4614 -11.2846
-0.723682 -13.4565 -12.2194
-0.636682 -12.6181 -12.7093
-0.937682 -13.3946 -12.3351
-0.857682 -12.6342 -12.783
-1.35668 -11.1421 -13.3662
-0.999682 -11.84 -13.1465
-1.18268 -10.9787 -13.3578
-0.791682 -11.7445 -13.113
-1.80168 -10.4634 -13.3714
-2.53068 -10.2166 -13.1938
-2.38768 -10.1084 -12.8957
-1.92168 -10.6709 -13.3824
-2.58468 -10.4449 -13.2246
-3.76468 -10.7973 -12.522
-3.83268 -10.5992 -12.429
-3.24768 -10.2565 -12.8649
-3.70068 -10.4927 -12.1269
-4.16668 -11.2613 -11.9301
-4.25368 -12.1002 -11.4416
-4.07268 -11.4 -12.0694
-4.15568 -12.1621 -11.6272
-4.01068 -12.9546 -11.258
-4.09868 -12.9733 -11.0366
3 0 1 2
3 2 3 4
3 4 0 2
3 5 6 7
3 5 7 8
3 8 3 2
3 2 1 5
3 2 5 8
3 9 10 11
3 9 11 12
3 11 13 12
3 12 3 8
3 8 7 9
3 8 9 12
3 13 14 4
3 14 0 4
3 4 3 12
3 12 13 4
3 15 16 17
3 15 17 18
3 19 20 21
3 19 21 22
3 21 23 22
3 20 24 21
3 21 25 23
3 26 27 28
3 23 25 26
3 28 22 26
3 22 23 26
3 29 30 31
3 29 31 32
3 31 33 34
3 31 34 32
3 35 24 20
3 35 20 36
3 34 33 35
3 34 35 36
3 34 36 19
3 36 20 19
3 15 37 38
3 15 38 16
3 38 39 40
3 38 40 16
3 41 30 29
3 41 29 42
3 40 39 41
3 40 41 42
3 28 27 43
3 43 44 17
3 45 37 15
3 45 15 18
3 17 44 45
3 17 45 18
3 46 47 48
3 46 48 49
3 48 50 51
3 48 51 49
3 51 52 53
3 51 53 49
3 53 54 46
3 53 46 49
3 55 56 57
3 55 57 58
3 57 59 58
3 59 52 51
3 59 51 58
3 51 50 55
3 51 55 58
3 60 61 62
3 61 63 64
3 61 64 62
3 64 52 59
3 64 59 62
3 59 60 62
3 65 66 67
3 65 67 68
3 67 54 53
3 67 53 68
3 53 52 64
3 53 64 68
3 64 63 65
3 64 65 68
3 69 70 71
3 69 71 72
3 71 73 74
3 71 74 72
3 74 75 76
3 74 76 72
3 76 77 69
3 76 69 72
3 78 79 80
3 78 80 81
3 80 82 83
3 80 83 81
3 83 75 74
3 83 74 81
3 74 73 78
3 74 78 81
3 84 56 55
3 84 55 85
3 55 50 86
3 55 86 85
3 86 75 83
3 86 83 85
3 83 82 84
3 83 84 85
3 48 47 87
3 48 87 88
3 87 77 76
3 87 76 88
3 76 75 86
3 76 86 88
3 86 50 48
3 86 48 88
3 89 90 91
3 89 91 92
3 91 93 94
3 91 94 92
3 94 95 96
3 94 96 92
3 96 97 89
3 96 89 92
3 98 99 100
3 99 101 102
3 99 102 100
3 102 95 94
3 102 94 100
3 94 93 98
3 94 98 100
3 103 79 78
3 103 78 104
3 78 73 105
3 78 105 104
3 105 95 102
3 105 102 104
3 102 101 103
3 102 103 104
3 71 70 106
3 71 106 107
3 106 97 96
3 106 96 107
3 96 95 105
3 96 105 107
3 105 73 71
3 105 71 107
3 108 66 65
3 108 65 109
3 65 63 110
3 65 110 109
3 110 111 112
3 110 112 109
3 112 113 108
3 112 108 109
3 61 114 115
3 114 116 117
3 114 117 115
3 117 111 110
3 117 110 115
3 110 63 61
3 110 61 115
3 118 98 119
3 98 93 120
3 98 120 119
3 120 111 117
3 120 117 119
3 117 116 118
3 117 118 119
3 91 90 121
3 91 121 122
3 121 113 112
3 121 112 122
3 112 111 120
3 112 120 122
3 120 93 91
3 120 91 122
3 21 24 123
3 24 124 125
3 24 125 123
3 125 126 25
3 125 25 123
3 25 21 123
3 127 47 46
3 127 46 128
3 46 54 129
3 46 129 128
3 129 126 125
3 129 125 128
3 125 124 127
3 125 127 128
3 67 66 130
3 67 130 131
3 130 132 133
3 130 133 131
3 133 126 129
3 133 129 131
3 129 54 67
3 129 67 131
3 27 26 134
3 26 25 134
3 25 126 133
3 25 133 134
3 133 132 27
3 133 27 134
3 43 27 135
3 27 132 136
3 27 136 135
3 136 137 44
3 136 44 135
3 44 43 135
3 130 66 108
3 130 108 138
3 108 113 139
3 108 139 138
3 139 137 136
3 139 136 138
3 136 132 130
3 136 130 138
3 121 90 140
3 121 140 141
3 140 142 143
3 140 143 141
3 143 137 139
3 143 139 141
3 139 113 121
3 139 121 141
3 37 45 144
3 45 44 144
3 44 137 143
3 44 143 144
3 143 142 37
3 143 37 144
3 38 37 145
3 37 142 146
3 37 146 145
3 146 147 39
3 146 39 145
3 39 38 145
3 140 90 89
3 140 89 148
3 89 97 149
3 89 149 148
3 149 147 146
3 149 146 148
3 146 142 140
3 146 140 148
3 106 70 150
3 106 150 151
3 150 152 153
3 150 153 151
3 153 147 149
3 153 149 151
3 149 97 106
3 149 106 151
3 30 41 154
3 41 39 154
3 39 147 153
3 39 153 154
3 153 152 30
3 153 30 154
3 31 30 155
3 30 152 156
3 30 156 155
3 156 157 33
3 156 33 155
3 33 31 155
3 150 70 69
3 150 69 158
3 69 77 159
3 69 159 158
3 159 157 156
3 159 156 158
3 156 152 150
3 156 150 158
3 87 47 127
3 87 127 160
3 127 124 161
3 127 161 160
3 161 157 159
3 161 159 160
3 159 77 87
3 159 87 160
3 24 35 162
3 35 33 162
3 33 157 161
3 33 161 162
3 161 124 24
3 161 24 162
3 99 98 163
3 163 164 165
3 163 165 99
3 165 166 101
3 165 101 99
3 10 9 167
3 9 7 168
3 9 168 167
3 168 166 165
3 168 165 167
3 165 164 10
3 165 10 167
3 7 6 169
3 6 170 171
3 6 171 169
3 171 166 168
3 171 168 169
3 168 7 169
3 101 166 171
3 101 171 103
3 171 170 79
3 171 79 103
3 79 170 172
3 79 172 80
3 172 173 82
3 172 82 80
3 6 5 174
3 5 1 175
3 5 175 174
3 175 173 172
3 175 172 174
3 172 170 6
3 172 6 174
3 1 0 176
3 1 176 177
3 176 178 179
3 176 179 177
3 179 173 175
3 179 175 177
3 175 1 177
3 82 173 179
3 82 179 84
3 179 178 56
3 179 56 84
3 56 178 180
3 56 180 57
3 180 181 182
3 180 182 57
3 182 59 57
3 176 0 183
3 0 184 183
3 184 181 180
3 184 180 183
3 180 178 176
3 180 176 183
3 185 186 187
3 185 187 14
3 187 181 184
3 187 184 14
3 184 0 14
3 188 61 60
3 60 59 182
3 182 181 187
3 182 187 60
3 187 186 188
3 187 188 60
3 114 61 188
3 188 186 189
3 188 189 114
3 189 190 116
3 189 116 114
3 185 14 13
3 185 13 191
3 13 192 191
3 192 190 189
3 192 189 191
3 189 186 185
3 189 185 191
3 11 10 193
3 10 164 194
3 10 194 193
3 194 190 192
3 194 192 193
3 192 13 11
3 192 11 193
3 163 98 118
3 116 190 194
3 116 194 118
3 194 164 163
3 194 163 118
