0.058701
0.179244
0.0434184
0.14156
0.0240069
0.285712
0.250538
0.188808
0.411174
1
0.744843
0.290739
0.476747
0.0414496
0.119191
0.660352
0.199993
0.203879
0.10435
0.236934
0.106437
0.0500278
0.436601
0.0653273
0.0859957
0.204234
0.286669
0.168028
0.480584
0.698056
0.429763
0.0406299
0.274587
0.163921
0.0783707
0.178582
0.0784751
0.0586023
0.0196898
0.0405491
0.0213401
0.588356
0.316217
0.588412
0.393137
0.128694
0.201863
0.178514
0.203536
0.0731931
0.0310813
0.142719
0.0302047
0.392787
0.21292
0.449805
0.0829872
0.133332
0.189879
0.136246
0.190195
0.166658
0.622342
0.178334
0.61979
0.399083
0.366167
0.130579
0.051922
0.150078
0.160606
0.0510119
0.199475
0.243474
0.388177
0.32375
0.177203
0.224459
0.196066
0.506458
0.845075
0.412732
0.444318
0.124898
0.190122
0.110949
0.090073
0.101314
0.221635
0.13594
0.339277
0.420162
0.625516
0.235285
0.380514
0.227346
0.333751
0.240316
0.164886
0.484239
0.378876
0.625897
0.437468
0.165361
0.323944
0.0532368
0.0578562
0.0100146
0.0103573
0.161686
0.0383614
0.119821
0.0615358
0.126788
0.169459
0.338536
0.081626
0.167579
0.90766
0.25628
0.280086
0.0718163
0.104765
0.183793
0.0637427
0
0.0656554
0.0769206
0.035704
0.19658
0.541979
0.168767
0.58726
0.210421
0.472358
0.881962
0.508034
0.531486
0.166911
0.117458
0.0288927
0.164157
0.0651781
0.0913507
0.1319
0.25076
0.578177
0.59427
0.596906
0.553847
0.561051
0.155683
0.213058
0.241642
0.070456
0.116049
0.107314
0.0834005
0.0213944
0.14188
0.0824903
0.137046
0.361559
0.159558
0.197133
0.633753
0.227463
0.160943
0.619103
0.0859971
0.107458
0.0678283
0.0868405
0.603594
0.0498189
0.0959511
0.0280459
0.588896
0.23405
0.308649
0.266851
0.173754
0.692561
0.116815
0.21592
0.180793
0.08235
0.0995589
0.0660462
0.0788815
0.0198103
0.0452457
0.025082
0.230543
0.339432
0.690775
0.510643
0.580889
0.480628
0.561521
0.274263
0.198196
0.0699819
0.134449
0.223325
0.345407
0.40609
0.398647
0.128679
0.380315
0.283789
0.405732
0.241813
0.723683
0.569424
0.420736
0.344651
0.413885
0.321204
0.164173
0.0780001
0.16009
0.665432
0.225215
0.182897
0.0546672
0.0351635
0.137012
0.0830577
0.137064
0.0698181
0.0484356
0.0276376
0.0447344
0.0287099
0.370799
0.0685901
0.368829
0.068539
0.0359078
0.021656
0.0526743
0.0187633
0.257643
0.0921824
0.296635
0.350585
0.276492
0.416565
0.55316
0.577176
0.664643
0.609678
0.388796
0.11118
0.229775
0.242271
0.0966688
0.0405306
0.346581
0.066181
0.203322
0.165275
0.507312
0.317629
0.549635
0.216409
0.127425
0.563695
0.238157
0.085761
0.0617721
0.0366872
0.0679909
0.0787022
0.16102
0.0622418
0.230783
0.313845
0.310568
0.36366
0.71416
0.354761
0.166727
0.343649
0.0610115
0.25407
0.173343
0.0591106
0.0241371
0.0668856
0.138187
0.179238
0.109682
0.155849
0.144185
0.10531
0.133088
0.145027
0.859535
0.152431
0.562541
0.435002
0.213342
0.0741256
0.219385
0.0655225
0.668029
0.672033
0.273809
0.414276
0.645492
0.479662
0.436476
0.522986
0.465008
0.461748
0.0767419
0.0602976
0.618586
0.0693954
0.113538
0.0417139
0.0772583
0.0240622
0.427109
0.386909
0.422863
0.0686397
0.0849765
0.0338233
0.0982585
0.041834
0.438564
0.404973
0.100687
0.0588106
0.390923
0.391464
0.393566
0.390878
0.389936
0.338328
0.390347
0.397664
0.398547
0.380455
0.398319
0.340589
0.386495
0.353239
0.402594
0.348875
0.390767
0.388349
0.383726
0.388365
0.552372
0.592384
0.438685
0.400722
0.416374
0.498526
0.482513
0.457275
0.570455
0.443475
0.543822
0.292393
0.441466
0.377613
0.743114
0.343312
0.441191
0.510105
0.404955
0.387982
0.225938
0.344429
0.591755
0.66183
0.669966
0.242945
0.573156
0.50008
0.474338
0.433716
0.498905
0.366668
0.667107
0.686104
0.431534
0.283381
0.34465
0.544476
0.401557
0.148002
0.521078
0.17758
0.223764
0.33293
0.737666
0.575305
0.338491
0.485825
0.365125
0.547032
0.652608
0.41684
0.35728
0.425667
0.470409
0.502882
0.550508
0.507527
0.399839
0.563274
0.481873
0.161036
0.358912
0.301822
0.463767
0.539174
0.644797
0.401777
0.407942
0.318898
0.285885
0.426909
0.462534
0.488995
0.460949
0.336982
0.300408
0.430657
0.432463
0.465771
0.432781
0.614957
0.420672
0.339903
0.440013
0.0219939
0.185859
0.430145
0.431949
0.339812
0.439465
0.326945
0.032809
