OFF
728 1424 0
9.75008 1.00746 9.0787
10.7341 1.13556 8.8328
10.6581 1.82906 9.2309
10.1411 1.76786 9.3459
9.52008 2.12496 9.5747
9.19108 1.26316 9.3062
10.5791 2.48486 9.4774
10.7491 3.33016 9.6044
10.1651 3.16946 9.7147
9.06608 2.85006 9.8043
7.93208 3.09236 9.9065
8.33008 2.18586 9.697
8.47908 1.64256 9.5226
8.11008 1.10516 9.3274
8.51108 0.712662 9.1074
10.4391 4.26956 9.7367
10.3821 5.06576 9.6473
9.39909 4.91676 9.8889
9.92408 4.19136 9.8481
8.90108 4.50096 9.9772
9.38208 3.67296 9.8955
8.47908 4.96366 9.9686
7.40408 4.89546 9.9878
7.81008 4.45086 10.0209
7.44508 3.87736 10.0011
8.64209 3.73456 9.9657
6.16408 4.62686 9.8889
5.17108 4.59886 9.6474
5.25608 3.80526 9.7367
5.77608 3.81986 9.8481
6.40208 3.40606 9.8955
6.72808 4.30626 9.9772
5.11708 2.82576 9.6044
5.75508 2.38636 9.6349
5.73008 3.12666 9.7707
6.43508 2.62276 9.7643
7.15908 2.91486 9.8685
5.47408 1.36486 9.2309
5.52208 0.668862 8.8328
6.51408 0.717662 9.0787
5.99308 1.39636 9.3458
7.01809 1.06846 9.3062
6.54008 1.85806 9.5747
7.43608 0.649662 9.1009
7.28208 1.77916 9.5887
5.22908 2.02346 9.424
11.1811 7.78846 0.798704
10.3721 7.87606 0.117104
10.4451 8.14836 0.849904
9.52108 8.05366 -0.0836955
9.54208 8.37826 0.749404
9.63309 8.57376 1.6592
10.6291 8.30756 1.6929
11.4901 7.89876 1.6634
8.53208 8.14216 -0.223796
7.48208 8.11746 -0.278696
7.45008 8.47006 0.623904
8.52209 8.49076 0.663304
7.43909 8.68006 1.6383
8.55509 8.70186 1.6386
7.45209 8.78686 2.7315
7.51508 8.83326 3.9557
8.74508 8.85036 3.5355
8.61609 8.81246 2.648
9.86008 8.71876 3.4002
9.75008 8.67716 2.5827
10.9351 8.46456 3.454
12.0141 8.02306 3.7574
11.7611 7.96526 2.6187
10.8231 8.40266 2.6134
4.68008 7.36626 0.117104
3.89608 7.13926 0.810704
4.56008 7.62116 0.849904
3.59008 7.17326 1.6639
4.36208 7.72906 1.7156
5.29008 8.17246 1.6984
5.40808 8.00796 0.749404
5.48708 7.69226 -0.0836955
3.35508 7.14096 2.6209
3.19108 7.04466 3.6713
4.05408 7.66406 3.7706
4.18508 7.73946 2.7043
5.08108 8.16206 3.8352
5.17608 8.21876 2.7396
6.21908 8.54676 3.8853
6.28508 8.57836 2.7554
6.33308 8.49656 1.6655
6.44408 7.95516 -0.223796
6.39208 8.30006 0.663304
3.14508 6.46446 6.8218
3.21708 6.25196 7.6776
4.08908 6.87416 7.7894
4.02708 7.09406 6.935
5.12708 7.36646 7.8783
5.05308 7.59256 7.0231
5.00408 7.81736 6.0267
3.99108 7.31596 5.9426
3.10408 6.68296 5.83
6.27808 7.73476 7.953
7.58708 7.98916 8.023
7.12108 8.22276 7.0964
6.14508 7.96636 7.0934
6.98208 8.44416 6.1307
6.05008 8.19356 6.0884
7.08408 8.65156 5.1041
6.10808 8.40276 5.0077
5.01908 8.01776 4.9474
3.11308 6.88416 4.7604
3.99408 7.51436 4.8689
11.2421 7.33506 -0.0100955
10.5091 7.44176 -0.472496
11.5611 6.78346 -0.382396
10.7361 6.86496 -0.941096
9.76709 6.93396 -1.3297
9.61508 7.56266 -0.776996
11.8101 6.10146 -0.703696
11.9531 5.33406 -0.933296
11.0641 5.38296 -1.5536
10.9351 6.16516 -1.3105
10.0331 5.38266 -1.9977
9.91908 6.19606 -1.741
8.90808 5.33736 -2.2649
7.73908 5.25106 -2.3542
7.66108 6.11356 -2.0823
8.81209 6.18266 -1.9975
7.59108 6.90296 -1.6402
8.70109 6.95436 -1.5626
7.53008 7.58306 -1.0362
8.60009 7.61886 -0.968596
11.6261 3.04186 -0.899896
11.6761 2.29566 -0.328396
10.8671 2.35496 -1.0271
10.9061 3.00296 -1.3925
10.0511 2.12866 -1.3116
10.0361 2.86146 -1.7513
10.0591 3.67316 -2.0055
11.0151 3.74736 -1.5872
11.8331 3.74116 -1.0129
9.08809 1.93546 -1.5102
8.04809 1.80036 -1.5879
7.97708 2.58996 -2.071
9.03908 2.71336 -1.9853
7.90008 3.45266 -2.3553
9.00508 3.56486 -2.2651
7.81908 4.35186 -2.4474
8.96708 4.45206 -2.3562
10.0691 4.52756 -2.0868
11.9511 4.52626 -1.0302
11.0791 4.55886 -1.6434
5.17408 1.84506 -1.0271
4.39208 1.65256 -0.340096
4.30508 2.38616 -0.899896
5.02108 2.47576 -1.3925
3.97708 3.03746 -1.0129
4.78109 3.18896 -1.5872
5.73509 3.28586 -2.0055
5.90208 2.49126 -1.7513
6.01708 1.76736 -1.3116
3.72108 3.78916 -1.0302
3.57708 4.58386 -0.933296
4.44308 4.78996 -1.5536
4.57408 3.97626 -1.6434
5.45808 4.97286 -1.9977
5.57408 4.12506 -2.0868
6.57208 5.12806 -2.2649
6.67208 4.24656 -2.3562
6.79208 3.36666 -2.2651
6.99908 1.74836 -1.5102
6.90908 2.52256 -1.9853
3.92108 6.67926 -0.0100955
4.62309 6.91456 -0.472496
5.48108 7.19246 -0.776996
5.44308 6.54666 -1.3297
4.50208 6.30656 -0.941096
3.70508 6.07986 -0.382396
6.47008 7.42806 -0.968596
6.48908 6.75626 -1.5626
6.51708 5.97716 -1.9975
5.42508 5.79346 -1.741
3.58008 5.36436 -0.703696
4.43008 5.58256 -1.3105
11.0111 1.83256 -0.459096
12.0121 1.93016 0.430804
11.2391 1.39346 0.286304
10.3081 0.985962 0.128004
10.1571 1.51056 -0.673896
12.2811 1.58406 1.314
12.4831 1.25956 2.3107
11.6191 0.644962 2.1881
11.4511 0.995162 1.1839
10.5931 0.154062 2.0844
10.4581 0.533562 1.0604
9.45908 -0.228338 2.0104
8.17008 -0.529338 1.9821
8.18209 -0.00173805 0.896204
9.35009 0.188562 0.966604
8.15508 0.527662 -0.0546955
9.26208 0.693562 0.00540447
8.10808 1.12066 -0.899296
9.16908 1.26906 -0.833396
12.6441 0.550462 5.431
12.6041 0.407662 6.3031
11.7321 -0.214538 6.1912
11.7621 -0.0791381 5.3178
10.6961 -0.710438 6.1178
10.7391 -0.580638 5.2398
10.7511 -0.393838 4.2325
11.7621 0.108662 4.3177
12.6491 0.741162 4.4326
9.55009 -1.08974 6.0892
8.24908 -1.36764 6.1226
8.69409 -1.21564 5.1485
9.65508 -0.963338 5.1998
8.80108 -1.03564 4.1472
9.71408 -0.774738 4.1767
8.65708 -0.817838 3.1051
9.61508 -0.539638 3.097
10.6971 -0.151938 3.1613
12.6001 0.977962 3.3714
11.7191 0.349762 3.2536
5.12508 1.30536 -0.459096
6.02308 1.14036 -0.673896
5.96008 0.601962 0.0812045
4.96808 0.826262 0.253304
4.10808 1.20716 0.419904
7.03908 1.07826 -0.833396
7.03808 0.499762 -0.0254955
6.91108 -0.383238 1.6101
7.01008 0.000561946 0.843204
5.86908 0.144062 0.873204
4.68808 -0.00563805 1.7674
3.61908 0.271762 2.2827
3.86108 0.769762 1.2702
4.79508 0.377062 1.0519
12.1711 2.88256 -0.264596
12.4751 3.60826 -0.285296
12.9641 3.39176 0.573204
12.5841 2.61036 0.511804
12.6521 5.23176 -0.137696
12.6401 4.41026 -0.251496
13.1811 5.08586 0.795204
13.1641 4.23206 0.659304
13.5611 4.90596 1.8274
13.8121 4.70176 2.921
13.7931 3.77456 2.7429
13.5421 4.01306 1.6686
13.5671 2.86476 2.5843
13.3241 3.13436 1.5405
13.1311 2.01296 2.4415
12.9051 2.31086 1.4276
11.7741 7.32136 0.655304
12.1681 7.34266 1.4943
12.6731 6.66906 1.2529
12.1961 6.72586 0.360804
12.7411 7.26716 3.5403
12.4881 7.34106 2.477
13.2641 6.46756 3.3335
13.0231 6.58996 2.2584
13.6291 5.60596 3.1225
13.3841 5.77156 2.033
13.0141 5.90746 1.0065
12.4961 6.01656 0.0814045
12.4651 7.26246 6.8006
12.0851 7.19056 7.7759
12.8471 6.45546 7.569
12.9711 6.63876 6.6947
13.3871 5.65716 7.3747
13.4561 5.85466 6.5111
13.4781 6.06526 5.5099
13.0291 6.83516 5.6837
12.5621 7.43796 5.8257
13.7581 4.78636 7.1821
13.9431 3.87016 6.9903
13.9991 4.05426 6.1264
13.8121 4.98136 6.3205
14.0101 4.26286 5.1243
13.8221 5.19416 5.3205
13.9551 4.48306 4.0379
13.7681 5.40786 4.2364
13.4151 6.28106 4.434
12.4431 7.68446 4.8253
12.9371 7.07156 4.6207
13.2581 1.16586 6.4469
13.3061 1.31766 5.5765
13.3131 1.51226 4.5777
13.7591 2.38246 4.746
13.7501 2.18336 5.7463
13.6971 2.02136 6.6147
13.2611 1.74536 3.5121
13.7051 2.61196 3.6724
13.9351 3.53776 3.8488
13.9911 3.31256 4.9305
13.9241 2.93566 6.7985
13.9801 3.10856 5.9323
3.26008 -0.237038 5.4513
3.69808 -0.558138 6.3738
2.95908 0.194062 6.4749
2.79608 0.371062 5.601
2.43008 0.999962 6.6217
2.32708 1.15896 5.7525
2.26808 1.36056 4.7492
2.69608 0.590462 4.5904
3.11908 -0.0104381 4.4691
2.06308 1.87326 6.7985
1.87808 2.78946 6.9903
1.79008 2.96066 6.1264
1.97708 2.03356 5.9323
1.74208 3.16406 5.1243
1.93008 2.23236 4.9305
1.75808 3.39056 4.0379
1.85908 3.63116 2.921
2.04308 2.72216 2.7429
1.94508 2.46386 3.8488
2.40408 1.85076 2.5815
2.29208 1.58706 3.672
2.91608 1.04076 2.4303
3.20808 0.160262 3.4268
2.75208 0.793562 3.5105
2.56308 5.49386 7.5337
2.48408 5.69726 6.6763
2.44008 5.91236 5.6826
1.99308 5.04306 5.5097
2.04008 4.83156 6.5065
2.12408 4.63836 7.3659
2.54208 6.29606 3.5171
2.45208 6.11876 4.6104
2.10608 5.45376 3.3277
2.00808 5.25606 4.4314
1.87908 4.55356 3.1225
1.77808 4.33396 4.2364
1.76208 4.11396 5.3205
1.89708 3.72406 7.1821
1.81008 3.90636 6.3205
3.39908 6.57126 0.655404
3.09008 5.91026 0.360804
2.63308 5.76716 1.2519
3.01708 6.51216 1.4902
2.90708 4.35896 -0.137696
2.92008 5.15886 0.0814045
2.41208 4.12126 0.795204
2.43008 4.95956 1.0065
2.07008 3.87676 1.8274
2.09008 4.75996 2.033
2.31008 5.61956 2.2543
2.73108 6.42376 2.4606
3.79708 2.13246 -0.264596
3.43008 1.77956 0.509604
2.92408 2.48966 0.572704
3.36908 2.79266 -0.285296
3.13908 1.39256 1.419
2.60908 2.16366 1.5384
2.24808 3.00146 1.6686
2.58008 3.28416 0.659304
3.06408 3.55256 -0.251496
12.5451 0.314262 6.9856
11.6861 -0.298438 6.8754
12.4701 0.263662 7.499
11.6081 -0.344438 7.5447
10.6221 -0.805738 7.3147
10.6601 -0.781338 6.8013
12.3551 0.248362 7.9659
11.4821 -0.311938 7.9973
10.5621 -0.786938 7.7904
9.45008 -1.06984 7.8788
8.32008 -1.24304 7.864
8.32208 -1.30634 7.5268
9.52708 -1.12734 7.4364
8.30408 -1.34514 6.7922
9.51208 -1.13854 6.7679
12.0541 0.384062 8.2761
11.8521 0.549862 8.0977
11.1651 -0.0209381 8.0823
10.2601 -0.370038 7.938
10.3811 -0.582238 8.1083
11.3671 -0.232338 8.1686
9.31508 -0.710838 7.9745
8.28109 -0.806338 7.8847
8.30208 -1.04064 8.0523
9.40208 -0.964938 8.0542
8.31409 -1.17074 7.9991
10.4631 -0.696738 8.057
12.1931 0.302362 8.2305
5.30408 -0.545938 8.0823
4.52608 -0.106438 8.0978
4.35708 -0.305338 8.2761
5.14208 -0.789838 8.1686
6.17508 -0.959038 8.1083
6.25608 -0.728638 7.938
4.18909 -0.443438 8.1863
5.04308 -0.888638 7.9973
6.04908 -1.18524 7.8278
6.11408 -1.08634 8.057
7.17708 -1.27344 7.8788
7.20608 -1.16174 8.0542
7.24608 -0.896138 7.9745
3.84608 -0.527838 7.0426
4.77208 -1.00064 6.6112
4.92308 -0.947238 7.5764
5.94608 -1.24024 7.1764
4.03508 -0.503738 7.7964
6.99809 -1.38494 6.4906
7.15008 -1.34264 7.4955
11.9891 6.88886 8.4026
12.7451 6.25796 8.2219
11.8441 6.56916 9.0927
12.6341 5.99776 8.8427
13.2131 5.32966 8.528
13.3061 5.48056 8.0382
11.6991 6.35246 9.4453
12.4601 5.82296 9.2406
13.0771 5.16766 8.9688
13.3581 4.31956 8.915
13.6141 3.50456 8.6121
13.5521 4.45336 8.4957
13.7641 3.61106 8.1633
13.8631 3.72376 7.6623
13.6811 4.62596 7.8511
11.5341 6.18896 9.4792
11.3571 6.07526 9.2429
12.0551 5.56296 9.214
12.4921 4.91396 8.9832
12.7261 4.96886 9.2064
12.3121 5.69746 9.3704
12.8721 4.19466 8.9176
12.9681 3.43456 8.6704
13.2261 3.41466 8.8777
13.1801 4.24446 9.0557
13.4051 3.43596 8.8525
12.8881 5.04296 9.1924
12.4511 1.14266 8.2978
12.7321 1.00336 8.3975
13.0101 1.79646 8.5489
12.7621 1.89426 8.3574
12.8951 0.966462 8.2341
13.3821 1.76576 8.2589
13.1821 1.76276 8.5126
13.5121 2.60556 8.5597
13.3291 2.58756 8.7123
13.0121 2.63456 8.5943
13.1881 1.06086 7.1272
13.6201 1.90326 7.2924
13.5261 1.82366 7.8002
13.0711 0.979862 7.788
13.8441 2.80356 7.4734
13.7111 2.67986 8.1257
3.30108 6.06906 8.339
4.16008 6.68176 8.4491
3.39408 5.91356 8.8277
4.26208 6.46096 9.079
5.24308 6.98246 9.0145
5.18708 7.16236 8.5335
3.52608 5.74446 9.2584
4.40308 6.25316 9.4774
5.32008 6.77856 9.4419
6.43508 7.01116 9.5958
7.56508 7.18436 9.6106
7.55208 7.37896 9.3195
6.34608 7.23896 9.2139
7.54708 7.70286 8.6518
6.33708 7.51256 8.5978
3.83708 5.49946 9.4792
4.03109 5.41906 9.243
4.72108 5.95456 9.4295
5.62309 6.33876 9.4027
5.51008 6.46586 9.6471
4.52408 6.11326 9.5993
6.57108 6.64446 9.5373
7.60108 6.78926 9.4906
7.58908 6.92426 9.703
6.48808 6.84596 9.7138
7.57608 7.06466 9.7059
5.42608 6.59066 9.648
3.69708 5.59156 9.4745
10.5831 6.47956 9.4295
10.7481 6.67086 9.5993
9.71608 6.84266 9.6471
9.63708 6.71116 9.4371
10.8431 6.82996 9.4774
9.81608 7.09796 9.5514
9.77608 6.98026 9.648
8.71309 7.26086 9.5457
8.68508 7.04266 9.7138
8.64009 6.82976 9.5373
11.0211 7.47636 8.2393
9.92608 7.55726 8.7007
9.86808 7.28486 9.2671
10.9281 7.03446 9.1475
8.83508 7.87736 8.301
8.73708 7.58836 8.9555
3.09308 0.118262 7.1447
3.23308 0.115762 7.8059
2.65108 0.847162 7.8013
2.53808 0.901062 7.2968
3.42508 0.118262 8.2341
2.80408 0.824262 8.266
2.52708 1.62166 8.5597
2.26708 2.48816 8.6121
2.31808 1.66356 8.1295
2.10008 2.56626 8.1633
1.98308 2.65956 7.6623
2.16508 1.75746 7.4734
3.83108 0.370662 8.2979
3.39108 1.05476 8.3575
3.16508 0.914662 8.5489
3.57908 0.183462 8.3975
3.01408 1.73906 8.5942
2.91508 2.53426 8.6703
2.66508 2.46876 8.8776
2.71108 1.63666 8.7123
2.48508 2.45796 8.8525
3.00208 0.850962 8.5126
3.43508 4.79096 9.214
3.15908 4.87766 9.3704
2.88108 4.08716 9.2064
3.12108 4.07456 8.9833
2.99008 4.97476 9.2406
2.49908 4.22696 8.9653
2.70808 4.13116 9.1924
2.37308 3.33566 8.915
2.56208 3.29336 9.0556
2.87408 3.29906 8.9176
2.65708 5.32256 8.1973
2.22508 4.48016 8.0321
2.33808 4.35366 8.5264
2.79808 5.13706 8.8321
2.00208 3.57986 7.8511
2.15908 3.43716 8.4943
10.9211 0.326462 7.4852
9.20508 -0.313838 7.3852
8.24708 -0.423038 7.4249
8.25508 -0.510138 7.4402
10.0981 -0.0330381 7.4219
11.5851 0.825862 7.5712
4.74008 0.212862 7.5712
5.48108 -0.160738 7.4852
6.35608 -0.368238 7.4219
7.28508 -0.485838 7.3852
11.7471 5.50916 8.5356
12.5061 4.23916 8.2605
12.6271 3.52096 8.106
12.1821 4.90346 8.3985
11.1221 5.98796 8.6411
12.1151 1.40646 7.6853
12.4351 2.08156 7.8136
12.6361 2.79106 7.9604
4.94108 5.87256 8.7357
6.65808 6.51286 8.8357
7.61009 6.68506 8.9442
7.61708 6.60446 8.8814
5.76508 6.23396 8.7902
4.27808 5.37486 8.6411
10.3811 6.35986 8.7357
9.53508 6.61116 8.8936
9.49508 6.53256 8.832
8.56909 6.61236 8.8952
8.58309 6.69986 8.8846
4.11508 0.689962 7.6853
3.35608 1.95996 7.9604
3.23608 2.67996 8.106
3.68008 1.29736 7.8136
3.74708 4.79256 8.5356
3.42808 4.11936 8.3985
3.22608 3.40786 8.2605
10.6901 0.438662 8.0992
11.3681 0.871862 8.0637
9.97308 0.0658619 7.9268
11.1421 0.949162 8.4231
9.83908 0.206562 8.3214
9.05208 -0.0431381 8.2651
8.22208 -0.145338 8.3021
8.23708 -0.316838 7.8832
9.13208 -0.188638 7.8642
9.77708 0.606662 8.8009
10.3941 0.644462 8.5824
8.18709 0.238362 8.7878
8.92908 0.303162 8.7434
6.55808 0.318362 8.8009
5.94408 0.245862 8.5823
5.15408 0.412862 8.4232
5.68909 -0.00923805 8.0992
6.56808 -0.0864381 8.3214
7.44608 0.170262 8.7434
7.38708 -0.192238 8.2651
6.46108 -0.248638 7.9269
4.94508 0.296562 8.0637
7.33408 -0.349738 7.8642
11.5171 5.26956 8.9391
10.9341 5.71536 9.0675
11.9271 4.69716 8.843
10.7371 5.46506 9.3592
11.2971 5.05646 9.2384
11.6461 4.50876 9.1727
11.9411 3.92816 9.0285
12.2661 3.36876 8.685
12.2271 4.07796 8.6844
10.8601 4.72976 9.5552
11.0981 4.24356 9.5197
11.2661 3.13376 9.3867
11.3781 3.72846 9.4025
11.8131 3.24136 9.1041
11.1451 1.55686 8.8976
11.2941 2.05036 9.0651
11.8671 2.04126 8.6614
11.6191 1.46116 8.4932
12.0531 2.67256 8.7682
11.4781 2.60956 9.1706
11.8611 1.42436 8.1421
12.1641 2.04906 8.2942
12.3491 2.72186 8.4035
5.19308 5.52906 9.247
4.51208 5.14016 9.0675
5.90708 5.94476 9.2104
4.74908 4.92876 9.3592
6.05308 5.66076 9.5125
6.84009 5.91816 9.5315
7.67108 6.00356 9.5765
7.64208 6.32626 9.2601
6.74608 6.20956 9.2236
6.12908 5.10456 9.7929
5.50408 5.15146 9.599
7.72008 5.45966 9.8699
6.97608 5.41226 9.8298
9.34908 5.39296 9.7929
9.95508 5.55016 9.599
10.1941 5.97696 9.247
9.32508 5.95386 9.5125
8.46008 5.54516 9.8298
8.50508 6.06736 9.5315
9.41809 6.25926 9.2104
8.54508 6.37056 9.2236
4.36108 0.752562 8.1422
3.95208 1.31346 8.2942
4.59408 0.831962 8.4932
4.24608 1.35866 8.6613
3.95108 1.94686 8.7683
3.61708 2.59406 8.685
3.65108 1.94286 8.4034
5.04308 1.01036 8.8976
4.80808 1.46946 9.0651
4.64309 2.54056 9.3867
4.52808 1.98706 9.1706
4.08608 2.54906 9.1041
4.75908 4.18326 9.5552
4.61208 3.66266 9.5197
4.02508 3.82616 9.1727
4.27208 4.42726 9.2383
3.83808 3.20256 9.0285
4.42708 3.10586 9.4026
4.01708 4.59786 8.939
3.71508 3.96166 8.843
3.53008 3.29896 8.6845
4.06108 -0.813338 5.9433
4.91608 -1.09294 6.0611
5.80208 -1.25834 6.3476
4.50008 -0.996638 5.4809
5.02408 -1.12684 5.7593
5.65108 -1.24304 5.8355
6.77708 -1.37514 5.3395
7.57709 -1.40584 5.753
6.29508 -1.34554 5.6697
3.96708 -0.217838 2.7288
3.54208 -0.235838 3.4834
3.79608 -0.472238 3.6026
3.71508 -0.595938 4.3688
3.44208 -0.374738 4.3999
4.39108 -0.606838 3.1662
4.12608 -0.673038 3.7335
4.04908 -0.764238 4.3617
4.17208 -0.863238 4.9782
3.84708 -0.734838 5.1031
3.59908 -0.572238 5.2766
7.49908 -0.812938 2.5272
6.58808 -0.677738 2.2655
5.69808 -0.447638 2.0428
6.76809 -0.999338 3.0361
6.19208 -0.879438 2.7721
5.56908 -0.727938 2.6803
4.93008 -0.689638 2.849
4.78408 -0.429138 2.4536
7.88208 -1.35024 5.0431
8.08008 -1.19184 4.1279
7.06208 -1.35414 4.8111
7.21408 -1.25864 4.1404
7.09908 -1.13704 3.5355
7.84608 -1.03144 3.2679
11.6461 7.60316 7.4484
10.7751 7.82106 7.6374
11.2761 7.87816 7.131
10.0381 7.93686 7.7708
10.8341 8.04796 6.7803
8.37109 8.45916 6.7576
8.28908 8.19106 7.5854
9.19909 8.06636 7.7435
11.6261 8.27456 4.399
12.0401 8.02516 5.0767
11.3571 8.37556 4.7643
11.7191 8.18246 5.3061
11.7641 8.04096 5.9939
12.1641 7.80776 5.9198
11.3101 8.34496 5.1403
11.0641 8.09046 6.4333
11.7181 7.87506 6.652
12.0491 7.65446 6.7577
8.19209 8.85326 4.5625
9.09308 8.83146 4.3404
8.69308 8.80616 5.0298
9.96808 8.72716 4.1315
9.75908 8.71496 4.6802
10.7411 8.55696 4.5749
10.8371 8.39176 5.3003
10.8701 8.52416 4.0571
7.79808 8.36936 6.983
8.24408 8.70526 5.7538
7.65408 8.56926 6.1563
7.76809 8.74636 5.2912
9.19108 8.30986 6.8644
8.95809 8.42596 6.5415
8.87908 8.53136 6.1404
9.17008 8.65736 5.3856
8.94508 8.61646 5.7324
9.54608 8.64696 5.162
10.0021 8.58836 5.0735
10.4591 8.50226 5.1173
11.0691 8.28576 5.6254
11.1411 8.18466 6.0275
10.4641 8.06226 7.0046
10.0141 8.11516 7.0912
9.56709 8.20956 7.0512
3 0 1 2
3 0 2 3
3 3 4 5
3 5 0 3
3 6 7 8
3 8 9 4
3 8 4 6
3 4 3 6
3 3 2 6
3 9 10 11
3 12 4 11
3 4 9 11
3 13 14 5
3 14 0 5
3 5 4 12
3 12 13 5
3 15 16 17
3 15 17 18
3 17 19 18
3 19 20 18
3 21 22 23
3 21 23 19
3 23 24 25
3 23 25 19
3 25 20 19
3 19 17 21
3 10 9 25
3 9 20 25
3 25 24 10
3 7 15 18
3 7 18 8
3 18 20 8
3 20 9 8
3 26 27 28
3 26 28 29
3 29 30 31
3 31 26 29
3 32 33 34
3 33 35 30
3 33 30 34
3 30 29 34
3 29 28 32
3 29 32 34
3 10 24 36
3 24 30 36
3 30 35 36
3 23 22 31
3 22 26 31
3 31 30 24
3 24 23 31
3 37 38 39
3 37 39 40
3 39 41 40
3 41 42 40
3 43 14 13
3 43 13 41
3 13 12 44
3 13 44 41
3 44 42 41
3 41 39 43
3 11 10 36
3 11 36 44
3 36 35 42
3 36 42 44
3 44 12 11
3 33 32 45
3 45 37 40
3 45 40 33
3 40 42 33
3 42 35 33
3 46 47 48
3 47 49 50
3 47 50 48
3 50 51 52
3 50 52 48
3 52 53 46
3 52 46 48
3 54 55 56
3 54 56 57
3 56 58 59
3 56 59 57
3 59 51 50
3 59 50 57
3 50 49 54
3 50 54 57
3 60 61 62
3 60 62 63
3 62 64 65
3 62 65 63
3 65 51 59
3 65 59 63
3 59 58 60
3 59 60 63
3 66 67 68
3 66 68 69
3 68 53 52
3 68 52 69
3 52 51 65
3 52 65 69
3 65 64 66
3 65 66 69
3 70 71 72
3 71 73 74
3 71 74 72
3 74 75 76
3 74 76 72
3 76 77 70
3 76 70 72
3 78 79 80
3 78 80 81
3 80 82 83
3 80 83 81
3 83 75 74
3 83 74 81
3 74 73 78
3 74 78 81
3 84 61 60
3 84 60 85
3 60 58 86
3 60 86 85
3 86 75 83
3 86 83 85
3 83 82 84
3 83 84 85
3 56 55 87
3 56 87 88
3 87 77 76
3 87 76 88
3 76 75 86
3 76 86 88
3 86 58 56
3 86 56 88
3 89 90 91
3 89 91 92
3 91 93 94
3 91 94 92
3 94 95 96
3 94 96 92
3 96 97 89
3 96 89 92
3 98 99 100
3 98 100 101
3 100 102 103
3 100 103 101
3 103 95 94
3 103 94 101
3 94 93 98
3 94 98 101
3 104 61 84
3 104 84 105
3 84 82 106
3 84 106 105
3 106 95 103
3 106 103 105
3 103 102 104
3 103 104 105
3 80 79 107
3 80 107 108
3 107 97 96
3 107 96 108
3 96 95 106
3 96 106 108
3 106 82 80
3 106 80 108
3 47 46 109
3 47 109 110
3 109 111 112
3 109 112 110
3 112 113 114
3 112 114 110
3 114 49 47
3 114 47 110
3 115 116 117
3 115 117 118
3 117 119 120
3 117 120 118
3 120 113 112
3 120 112 118
3 112 111 115
3 112 115 118
3 121 122 123
3 121 123 124
3 123 125 126
3 123 126 124
3 126 113 120
3 126 120 124
3 120 119 121
3 120 121 124
3 127 55 54
3 127 54 128
3 54 49 114
3 54 114 128
3 114 113 126
3 114 126 128
3 126 125 127
3 126 127 128
3 129 130 131
3 129 131 132
3 131 133 134
3 131 134 132
3 134 135 136
3 134 136 132
3 136 137 129
3 136 129 132
3 138 139 140
3 138 140 141
3 140 142 143
3 140 143 141
3 143 135 134
3 143 134 141
3 134 133 138
3 134 138 141
3 144 122 121
3 144 121 145
3 121 119 146
3 121 146 145
3 146 135 143
3 146 143 145
3 143 142 144
3 143 144 145
3 117 116 147
3 117 147 148
3 147 137 136
3 147 136 148
3 136 135 146
3 136 146 148
3 146 119 117
3 146 117 148
3 149 150 151
3 149 151 152
3 151 153 154
3 151 154 152
3 154 155 156
3 154 156 152
3 156 157 149
3 156 149 152
3 158 159 160
3 158 160 161
3 160 162 163
3 160 163 161
3 163 155 154
3 163 154 161
3 154 153 158
3 154 158 161
3 164 122 144
3 164 144 165
3 144 142 166
3 144 166 165
3 166 155 163
3 166 163 165
3 163 162 164
3 163 164 165
3 140 139 167
3 140 167 168
3 167 157 156
3 167 156 168
3 156 155 166
3 156 166 168
3 166 142 140
3 166 140 168
3 169 71 70
3 169 70 170
3 70 77 171
3 70 171 170
3 171 172 173
3 171 173 170
3 173 174 169
3 173 169 170
3 87 55 127
3 87 127 175
3 127 125 176
3 127 176 175
3 176 172 171
3 176 171 175
3 171 77 87
3 171 87 175
3 123 122 164
3 123 164 177
3 164 162 178
3 164 178 177
3 178 172 176
3 178 176 177
3 176 125 123
3 176 123 177
3 160 159 179
3 160 179 180
3 179 174 173
3 179 173 180
3 173 172 178
3 173 178 180
3 178 162 160
3 178 160 180
3 131 130 181
3 130 182 183
3 130 183 181
3 183 184 185
3 183 185 181
3 185 133 131
3 185 131 181
3 186 187 188
3 186 188 189
3 188 190 191
3 188 191 189
3 191 184 183
3 191 183 189
3 183 182 186
3 183 186 189
3 192 193 194
3 192 194 195
3 194 196 197
3 194 197 195
3 197 184 191
3 197 191 195
3 191 190 192
3 191 192 195
3 198 139 138
3 198 138 199
3 138 133 185
3 138 185 199
3 185 184 197
3 185 197 199
3 197 196 198
3 197 198 199
3 200 201 202
3 200 202 203
3 202 204 205
3 202 205 203
3 205 206 207
3 205 207 203
3 207 208 200
3 207 200 203
3 209 210 211
3 209 211 212
3 211 213 214
3 211 214 212
3 214 206 205
3 214 205 212
3 205 204 209
3 205 209 212
3 215 193 192
3 215 192 216
3 192 190 217
3 192 217 216
3 217 206 214
3 217 214 216
3 214 213 215
3 214 215 216
3 188 187 218
3 188 218 219
3 218 208 207
3 218 207 219
3 207 206 217
3 207 217 219
3 217 190 188
3 217 188 219
3 150 149 220
3 149 157 221
3 149 221 220
3 221 222 223
3 221 223 220
3 223 224 150
3 223 150 220
3 167 139 198
3 167 198 225
3 198 196 226
3 198 226 225
3 226 222 221
3 226 221 225
3 221 157 167
3 221 167 225
3 194 193 227
3 194 227 228
3 227 229 228
3 229 222 226
3 229 226 228
3 226 196 194
3 226 194 228
3 230 231 232
3 230 232 233
3 232 224 223
3 232 223 233
3 223 222 229
3 223 229 233
3 229 230 233
3 130 129 234
3 129 137 235
3 129 235 234
3 235 236 237
3 235 237 234
3 237 182 130
3 237 130 234
3 147 116 238
3 147 238 239
3 238 240 241
3 238 241 239
3 241 236 235
3 241 235 239
3 235 137 147
3 235 147 239
3 242 243 244
3 242 244 245
3 244 246 247
3 244 247 245
3 247 236 241
3 247 241 245
3 241 240 242
3 241 242 245
3 248 187 186
3 248 186 249
3 186 182 237
3 186 237 249
3 237 236 247
3 237 247 249
3 247 246 248
3 247 248 249
3 109 46 250
3 46 53 251
3 46 251 250
3 251 252 253
3 251 253 250
3 253 111 109
3 253 109 250
3 68 67 254
3 68 254 255
3 254 256 257
3 254 257 255
3 257 252 251
3 257 251 255
3 251 53 68
3 251 68 255
3 258 243 242
3 258 242 259
3 242 240 260
3 242 260 259
3 260 252 257
3 260 257 259
3 257 256 258
3 257 258 259
3 238 116 115
3 238 115 261
3 115 111 253
3 115 253 261
3 253 252 260
3 253 260 261
3 260 240 238
3 260 238 261
3 262 263 264
3 262 264 265
3 264 266 267
3 264 267 265
3 267 268 269
3 267 269 265
3 269 270 262
3 269 262 265
3 271 272 273
3 271 273 274
3 273 275 276
3 273 276 274
3 276 268 267
3 276 267 274
3 267 266 271
3 267 271 274
3 277 243 258
3 277 258 278
3 258 256 279
3 258 279 278
3 279 268 276
3 279 276 278
3 276 275 277
3 276 277 278
3 254 67 280
3 254 280 281
3 280 270 269
3 280 269 281
3 269 268 279
3 269 279 281
3 279 256 254
3 279 254 281
3 282 201 200
3 282 200 283
3 200 208 284
3 200 284 283
3 284 285 286
3 284 286 283
3 286 287 282
3 286 282 283
3 218 187 248
3 218 248 288
3 248 246 289
3 248 289 288
3 289 285 284
3 289 284 288
3 284 208 218
3 284 218 288
3 244 243 277
3 244 277 290
3 277 275 291
3 277 291 290
3 291 285 289
3 291 289 290
3 289 246 244
3 289 244 290
3 273 272 292
3 273 292 293
3 292 287 286
3 292 286 293
3 286 285 291
3 286 291 293
3 291 275 273
3 291 273 293
3 294 295 296
3 294 296 297
3 296 298 299
3 296 299 297
3 299 300 301
3 299 301 297
3 301 302 294
3 301 294 297
3 303 304 305
3 303 305 306
3 305 307 308
3 305 308 306
3 308 300 299
3 308 299 306
3 299 298 303
3 299 303 306
3 309 310 311
3 309 311 312
3 311 313 314
3 311 314 312
3 314 300 308
3 314 308 312
3 308 307 309
3 308 309 312
3 315 231 316
3 315 316 317
3 316 302 301
3 316 301 317
3 301 300 314
3 301 314 317
3 314 313 315
3 314 315 317
3 318 90 89
3 318 89 319
3 89 97 320
3 89 320 319
3 320 321 322
3 320 322 319
3 322 323 318
3 322 318 319
3 107 79 324
3 107 324 325
3 324 326 327
3 324 327 325
3 327 321 320
3 327 320 325
3 320 97 107
3 320 107 325
3 328 310 309
3 328 309 329
3 309 307 330
3 309 330 329
3 330 321 327
3 330 327 329
3 327 326 328
3 327 328 329
3 305 304 331
3 305 331 332
3 331 323 322
3 331 322 332
3 322 321 330
3 322 330 332
3 330 307 305
3 330 305 332
3 71 169 333
3 169 174 334
3 169 334 333
3 334 335 336
3 334 336 333
3 336 73 71
3 336 71 333
3 179 159 337
3 179 337 338
3 337 339 340
3 337 340 338
3 340 335 334
3 340 334 338
3 334 174 179
3 334 179 338
3 341 310 328
3 341 328 342
3 328 326 343
3 328 343 342
3 343 335 340
3 343 340 342
3 340 339 341
3 340 341 342
3 324 79 78
3 324 78 344
3 78 73 336
3 78 336 344
3 336 335 343
3 336 343 344
3 343 326 324
3 343 324 344
3 151 150 345
3 150 224 346
3 150 346 345
3 346 347 348
3 346 348 345
3 348 153 151
3 348 151 345
3 232 231 315
3 232 315 349
3 315 313 350
3 315 350 349
3 350 347 346
3 350 346 349
3 346 224 232
3 346 232 349
3 311 310 341
3 311 341 351
3 341 339 352
3 341 352 351
3 352 347 350
3 352 350 351
3 350 313 311
3 350 311 351
3 337 159 158
3 337 158 353
3 158 153 348
3 158 348 353
3 348 347 352
3 348 352 353
3 352 339 337
3 352 337 353
3 202 201 354
3 202 354 355
3 354 356 357
3 354 357 355
3 357 358 359
3 357 359 355
3 359 204 202
3 359 202 355
3 360 361 357
3 361 362 357
3 362 358 357
3 357 356 360
3 363 364 365
3 363 365 366
3 366 358 362
3 362 363 366
3 367 210 209
3 367 209 368
3 209 204 359
3 209 359 368
3 359 358 366
3 359 366 368
3 366 365 367
3 366 367 368
3 369 370 371
3 371 372 373
3 373 374 371
3 374 369 371
3 375 376 377
3 377 378 375
3 378 373 375
3 373 372 375
3 379 364 363
3 379 363 378
3 363 362 380
3 363 380 378
3 380 373 378
3 378 377 379
3 361 360 381
3 361 381 374
3 381 369 374
3 374 373 380
3 380 362 361
3 380 361 374
3 382 383 384
3 384 385 382
3 385 386 382
3 386 387 382
3 388 389 385
3 389 390 391
3 389 391 385
3 391 386 385
3 385 384 388
3 392 364 379
3 392 379 393
3 379 377 393
3 393 386 391
3 391 390 392
3 391 392 393
3 377 376 394
3 394 387 386
3 386 393 394
3 393 377 394
3 395 295 396
3 395 396 397
3 396 398 397
3 397 399 395
3 400 210 367
3 367 365 401
3 367 401 400
3 401 398 400
3 365 364 392
3 365 392 401
3 392 390 401
3 390 398 401
3 389 388 399
3 389 399 397
3 397 398 390
3 390 389 397
3 264 263 402
3 264 402 403
3 402 404 405
3 402 405 403
3 405 406 407
3 405 407 403
3 407 266 264
3 407 264 403
3 404 408 409
3 404 409 405
3 409 410 405
3 410 406 405
3 411 412 413
3 412 414 413
3 413 406 410
3 410 411 413
3 415 272 271
3 415 271 416
3 271 266 407
3 271 407 416
3 407 406 413
3 407 413 416
3 413 414 415
3 413 415 416
3 417 418 419
3 419 420 421
3 421 422 419
3 422 417 419
3 423 424 425
3 425 426 423
3 426 421 423
3 421 420 423
3 427 412 411
3 427 411 426
3 411 410 428
3 411 428 426
3 428 421 426
3 426 425 427
3 409 408 422
3 408 417 422
3 422 421 428
3 428 410 409
3 428 409 422
3 429 370 369
3 369 430 429
3 430 431 429
3 431 432 429
3 381 360 433
3 381 433 430
3 433 434 435
3 433 435 430
3 435 431 430
3 430 369 381
3 436 412 427
3 436 427 437
3 427 425 437
3 437 431 435
3 435 434 436
3 435 436 437
3 425 424 438
3 438 432 431
3 431 437 438
3 437 425 438
3 354 201 282
3 354 282 439
3 282 287 440
3 282 440 439
3 440 441 442
3 440 442 439
3 442 356 354
3 442 354 439
3 292 272 415
3 292 415 443
3 415 414 444
3 415 444 443
3 444 441 440
3 444 440 443
3 440 287 292
3 440 292 443
3 412 436 444
3 436 434 444
3 434 441 444
3 444 414 412
3 433 360 442
3 360 356 442
3 442 441 434
3 434 433 442
3 91 90 445
3 91 445 446
3 445 447 448
3 445 448 446
3 448 449 450
3 448 450 446
3 450 93 91
3 450 91 446
3 451 452 448
3 452 453 448
3 453 449 448
3 448 447 451
3 454 455 456
3 454 456 457
3 457 449 453
3 453 454 457
3 458 99 98
3 458 98 459
3 98 93 450
3 98 450 459
3 450 449 457
3 450 457 459
3 457 456 458
3 457 458 459
3 460 461 462
3 462 463 464
3 464 465 462
3 465 460 462
3 466 467 468
3 468 469 466
3 469 464 466
3 464 463 466
3 470 455 454
3 470 454 469
3 454 453 471
3 454 471 469
3 471 464 469
3 469 468 470
3 452 451 472
3 452 472 465
3 472 460 465
3 465 464 471
3 471 453 452
3 471 452 465
3 473 418 417
3 417 474 473
3 474 475 473
3 475 476 473
3 408 477 474
3 477 478 479
3 477 479 474
3 479 475 474
3 474 417 408
3 480 455 470
3 480 470 481
3 470 468 481
3 481 475 479
3 479 478 480
3 479 480 481
3 468 467 482
3 482 476 475
3 475 481 482
3 481 468 482
3 402 263 483
3 484 485 486
3 484 486 483
3 486 404 402
3 486 402 483
3 487 99 458
3 487 458 488
3 458 456 488
3 488 485 484
3 484 487 488
3 456 455 480
3 480 478 485
3 485 488 480
3 488 456 480
3 477 408 404
3 477 404 486
3 485 478 477
3 485 477 486
3 296 295 395
3 296 395 489
3 395 399 490
3 395 490 489
3 490 491 492
3 490 492 489
3 492 298 296
3 492 296 489
3 399 388 493
3 399 493 490
3 493 494 490
3 494 491 490
3 495 496 497
3 496 498 497
3 497 491 494
3 494 495 497
3 499 304 303
3 499 303 500
3 303 298 492
3 303 492 500
3 492 491 497
3 492 497 500
3 497 498 499
3 497 499 500
3 384 383 501
3 501 502 503
3 503 504 501
3 504 384 501
3 505 506 507
3 507 508 505
3 508 503 505
3 503 502 505
3 509 496 495
3 509 495 508
3 495 494 510
3 495 510 508
3 510 503 508
3 508 507 509
3 493 388 504
3 388 384 504
3 504 503 510
3 510 494 493
3 510 493 504
3 511 461 460
3 460 512 511
3 512 513 511
3 513 514 511
3 472 451 515
3 472 515 512
3 515 516 517
3 515 517 512
3 517 513 512
3 512 460 472
3 518 496 509
3 518 509 519
3 509 507 519
3 519 513 517
3 517 516 518
3 517 518 519
3 507 506 520
3 520 514 513
3 513 519 520
3 519 507 520
3 445 90 318
3 445 318 521
3 318 323 522
3 318 522 521
3 522 523 524
3 522 524 521
3 524 447 445
3 524 445 521
3 331 304 499
3 331 499 525
3 499 498 526
3 499 526 525
3 526 523 522
3 526 522 525
3 522 323 331
3 522 331 525
3 496 518 526
3 518 516 526
3 516 523 526
3 526 498 496
3 515 451 524
3 451 447 524
3 524 523 516
3 516 515 524
3 370 527 371
3 527 372 371
3 528 376 375
3 372 528 375
3 529 530 528
3 530 376 528
3 528 372 531
3 527 370 532
3 531 372 527
3 533 383 534
3 534 387 535
3 536 376 530
3 535 387 536
3 536 530 529
3 376 536 394
3 536 387 394
3 534 383 382
3 387 534 382
3 418 537 419
3 537 420 419
3 538 424 423
3 420 538 423
3 539 424 538
3 538 420 540
3 537 418 541
3 540 420 537
3 532 370 542
3 542 432 543
3 544 424 539
3 543 432 544
3 424 544 438
3 544 432 438
3 542 370 429
3 432 542 429
3 461 545 462
3 545 463 462
3 546 547 466
3 547 467 466
3 463 546 466
3 548 547 546
3 546 463 549
3 545 461 550
3 549 463 545
3 551 552 553
3 541 418 551
3 548 554 555
3 554 553 555
3 553 552 555
3 555 547 548
3 547 555 482
3 555 552 482
3 552 476 482
3 482 467 547
3 551 418 473
3 473 476 552
3 552 551 473
3 383 556 501
3 556 502 501
3 557 506 505
3 502 557 505
3 558 506 557
3 557 502 559
3 556 383 533
3 559 502 556
3 550 461 560
3 560 514 561
3 562 506 558
3 561 514 562
3 506 562 520
3 562 514 520
3 560 461 511
3 514 560 511
3 527 532 563
3 532 564 563
3 563 565 531
3 531 527 563
3 564 566 563
3 563 567 565
3 568 569 570
3 568 570 571
3 565 567 568
3 565 568 571
3 529 528 571
3 528 531 571
3 531 565 571
3 571 570 529
3 1 0 572
3 573 1 572
3 14 574 575
3 572 0 14
3 572 14 575
3 567 572 575
3 567 575 568
3 575 574 569
3 575 569 568
3 563 566 573
3 566 1 573
3 573 572 567
3 567 563 573
3 39 38 576
3 38 577 576
3 578 579 577
3 579 580 577
3 580 576 577
3 577 38 578
3 569 574 581
3 569 581 582
3 581 576 580
3 581 580 582
3 574 14 43
3 574 43 581
3 43 39 576
3 43 576 581
3 533 534 579
3 534 535 579
3 535 583 579
3 579 584 533
3 536 529 585
3 529 570 585
3 585 583 535
3 535 536 585
3 570 569 582
3 570 582 585
3 582 580 583
3 582 583 585
3 579 578 584
3 583 580 579
3 537 541 586
3 541 587 586
3 586 588 540
3 540 537 586
3 587 589 590
3 587 590 586
3 590 591 588
3 590 588 586
3 592 593 594
3 588 591 592
3 588 592 594
3 539 538 594
3 538 540 594
3 540 588 594
3 594 593 539
3 16 15 595
3 15 596 595
3 7 597 598
3 597 599 598
3 596 15 7
3 596 7 598
3 599 593 592
3 591 596 598
3 591 598 592
3 598 599 592
3 589 16 595
3 589 595 590
3 595 596 591
3 595 591 590
3 2 1 600
3 601 2 600
3 602 601 600
3 602 600 603
3 600 1 566
3 600 566 603
3 604 593 599
3 599 605 604
3 605 601 602
3 605 602 604
3 597 7 6
3 597 6 605
3 6 2 601
3 6 601 605
3 605 599 597
3 532 542 606
3 542 543 606
3 543 607 606
3 606 564 532
3 544 539 608
3 539 593 608
3 608 607 543
3 543 544 608
3 593 604 608
3 604 602 607
3 604 607 608
3 603 566 564
3 603 564 606
3 607 602 603
3 607 603 606
3 545 550 609
3 550 610 609
3 609 611 549
3 549 545 609
3 610 612 609
3 609 613 611
3 614 615 616
3 614 616 617
3 611 613 614
3 611 614 617
3 548 546 617
3 546 549 617
3 549 611 617
3 617 616 548
3 27 26 618
3 619 27 618
3 22 620 621
3 618 26 22
3 618 22 621
3 613 618 621
3 613 621 614
3 621 620 615
3 621 615 614
3 609 612 619
3 612 27 619
3 619 618 613
3 613 609 619
3 17 16 622
3 16 623 622
3 589 624 623
3 624 625 623
3 625 622 623
3 623 16 589
3 615 620 626
3 615 626 627
3 626 622 625
3 626 625 627
3 620 22 21
3 620 21 626
3 21 17 622
3 21 622 626
3 541 551 624
3 551 553 624
3 553 628 624
3 624 587 541
3 554 548 629
3 548 616 629
3 629 628 553
3 553 554 629
3 616 615 627
3 616 627 629
3 627 625 628
3 627 628 629
3 624 589 587
3 628 625 624
3 556 533 630
3 533 584 630
3 630 631 559
3 559 556 630
3 584 578 632
3 584 632 630
3 632 633 631
3 632 631 630
3 634 635 636
3 631 633 634
3 631 634 636
3 558 557 636
3 557 559 636
3 559 631 636
3 636 635 558
3 38 37 637
3 37 638 637
3 45 32 639
3 45 639 640
3 639 641 640
3 638 37 45
3 638 45 640
3 641 635 634
3 633 638 640
3 633 640 634
3 640 641 634
3 578 38 637
3 578 637 632
3 637 638 633
3 637 633 632
3 28 27 642
3 643 28 642
3 644 643 642
3 644 642 645
3 642 27 612
3 642 612 645
3 646 635 641
3 641 647 646
3 647 643 644
3 647 644 646
3 639 32 647
3 32 28 643
3 32 643 647
3 647 641 639
3 550 560 648
3 560 561 648
3 561 649 648
3 648 610 550
3 562 558 650
3 558 635 650
3 650 649 561
3 561 562 650
3 635 646 650
3 646 644 649
3 646 649 650
3 645 612 610
3 645 610 648
3 649 644 645
3 649 645 648
3 396 295 651
3 396 651 652
3 653 398 396
3 653 396 652
3 654 655 652
3 655 656 652
3 656 653 652
3 652 651 654
3 657 658 659
3 659 653 656
3 658 210 400
3 400 398 653
3 653 659 400
3 659 658 400
3 316 231 660
3 316 660 661
3 660 662 661
3 662 663 664
3 662 664 661
3 664 302 316
3 664 316 661
3 665 666 662
3 666 667 663
3 666 663 662
3 662 660 665
3 668 654 669
3 654 651 669
3 663 667 668
3 663 668 669
3 651 295 294
3 651 294 670
3 294 302 664
3 294 664 670
3 664 663 669
3 664 669 670
3 669 651 670
3 227 193 671
3 227 671 672
3 673 229 227
3 673 227 672
3 674 675 672
3 675 676 672
3 676 673 672
3 672 671 674
3 677 665 678
3 665 660 678
3 678 673 676
3 676 677 678
3 660 231 230
3 660 230 678
3 230 229 673
3 230 673 678
3 211 210 658
3 211 658 679
3 680 213 211
3 680 211 679
3 657 681 679
3 681 682 679
3 682 680 679
3 679 658 657
3 683 674 684
3 674 671 684
3 684 680 682
3 682 683 684
3 671 193 215
3 671 215 684
3 215 213 680
3 215 680 684
3 483 263 685
3 483 685 686
3 685 687 686
3 688 484 483
3 688 483 686
3 687 689 688
3 686 687 688
3 690 691 692
3 690 692 688
3 691 99 487
3 691 487 692
3 487 484 688
3 487 688 692
3 280 67 693
3 280 693 694
3 693 695 696
3 693 696 694
3 696 697 698
3 696 698 694
3 698 270 280
3 698 280 694
3 699 700 697
3 697 696 699
3 696 695 699
3 701 697 687
3 697 700 687
3 685 263 262
3 685 262 702
3 262 270 698
3 262 698 702
3 698 697 701
3 698 701 702
3 701 687 685
3 701 685 702
3 62 61 703
3 62 703 704
3 703 705 704
3 706 64 62
3 706 62 704
3 707 706 704
3 704 705 707
3 708 709 699
3 699 695 708
3 708 706 707
3 693 67 66
3 693 66 710
3 66 64 706
3 66 706 710
3 706 708 710
3 708 695 693
3 708 693 710
3 100 99 691
3 100 691 711
3 691 690 711
3 690 712 713
3 690 713 711
3 713 102 100
3 713 100 711
3 703 61 104
3 703 104 714
3 104 102 713
3 104 713 714
3 713 712 714
3 712 705 703
3 712 703 714
3 690 715 716
3 717 712 690
3 717 690 716
3 718 705 719
3 705 712 717
3 705 717 719
3 707 705 718
3 707 718 720
3 721 707 720
3 709 708 722
3 708 707 721
3 708 721 722
3 709 723 699
3 723 724 700
3 723 700 699
3 700 689 687
3 688 689 725
3 726 688 725
3 715 690 688
3 726 727 688
3 727 715 688
