OFF
324 638 0
3.71985 -21.0682 -8.54243
3.96885 -21.1903 -8.51743
3.72285 -21.0618 -8.42043
3.95685 -21.1111 -8.41443
3.87885 -21.1532 -8.90143
3.71785 -21.0703 -8.83343
3.96985 -21.177 -8.92143
3.94785 -21.1817 -8.92543
4.76085 -11.6334 -0.802426
4.68285 -11.8514 -0.925426
4.80885 -11.5324 -0.319426
4.79785 -11.5289 -4.45443
4.88285 -11.5527 -0.300426
4.70385 -11.4966 -2.53443
6.90785 -12.1695 -0.566426
6.85885 -12.1559 -0.552426
6.28085 -13.8437 -3.20443
4.58485 -12.1125 -1.54443
4.21685 -13.1277 -2.86243
6.23885 -13.8293 -6.90943
6.89085 -12.1674 -5.10243
6.28085 -13.8437 -6.91043
6.28985 -13.8471 -6.89943
6.55285 -12.6734 -5.67643
5.60785 -12.1018 -5.26643
6.29585 -13.8492 -3.23243
6.91685 -12.1751 -0.605426
6.29885 -13.8502 -3.30543
6.78385 -12.5418 -1.25943
6.60185 -13.0369 -2.23443
6.83185 -12.4148 -1.27743
5.26685 -16.5966 -7.03443
4.28585 -16.1863 -6.77543
4.90085 -17.0003 -7.23843
4.47685 -17.1569 -6.95943
5.32985 -17.5334 -7.20443
5.31285 -17.1781 -7.35743
4.85385 -17.6031 -6.73443
5.06185 -18.0751 -6.57343
5.34985 -17.8222 -6.88543
5.30485 -18.1843 -6.66343
5.38185 -16.6447 -7.07243
2.84885 -16.1174 -6.92743
2.60985 -16.3406 -10.0734
2.61185 -16.3412 -6.63343
2.85185 -16.1187 -6.72243
3.12785 -15.7022 -6.70043
2.13385 -16.7509 -6.07343
2.13985 -16.7528 -5.73543
2.38585 -16.5087 -6.07743
2.38185 -16.5068 -6.36243
2.17885 -16.7714 -5.68943
2.43885 -16.5325 -6.01943
2.62785 -16.3467 -6.43143
2.89685 -16.1379 -6.68243
3.15985 -15.7155 -6.48443
3.13585 -15.7055 -6.49743
5.36685 -16.6383 -10.0384
5.38285 -16.6453 -10.0224
5.30285 -17.1767 -10.7004
5.28485 -17.1624 -10.7024
5.26685 -16.5966 -10.0184
5.34985 -17.8241 -11.5124
5.30185 -18.1841 -11.8984
5.27885 -18.1733 -11.9284
5.27685 -17.7932 -11.5454
5.16285 -18.1246 -11.9074
5.11785 -17.4375 -11.1274
4.31285 -17.7364 -11.6394
5.12385 -17.0962 -10.6634
4.28585 -16.1863 -9.76043
5.38785 -16.6472 -7.29543
5.35285 -17.8248 -7.24243
5.30885 -18.1869 -7.05743
5.31585 -17.1788 -7.61243
4.56785 -18.4824 -6.58643
3.80285 -18.8818 -6.74243
4.68185 -19.2964 -7.05343
5.06385 -18.7114 -6.75543
3.99085 -19.7473 -7.34843
3.25285 -20.03 -7.55643
3.72085 -20.6889 -8.07343
4.45085 -19.9816 -7.53243
4.51785 -20.0308 -7.57843
4.83985 -19.3826 -7.15643
4.81585 -19.3711 -7.11743
5.11285 -18.7364 -6.80543
1.51985 -17.7782 -6.37443
1.52285 -17.7796 -6.08943
1.83885 -17.2101 -5.77143
1.83485 -17.2079 -6.11543
1.22785 -18.3633 -6.44643
1.22485 -18.3618 -6.73443
1.26885 -18.3797 -6.30643
1.56685 -17.8019 -5.95243
1.53185 -17.7838 -5.97743
1.23585 -18.3677 -6.33343
1.87685 -17.2277 -5.70543
5.09585 -18.7295 -12.4174
4.84085 -19.3832 -12.9034
4.81585 -19.3711 -12.9474
4.66885 -19.3001 -12.9064
5.02385 -18.6951 -12.4044
4.53385 -20.0195 -13.4414
3.98385 -21.1642 -14.3234
4.51885 -20.0117 -13.4554
4.45185 -19.9785 -13.4394
4.03085 -20.6417 -13.9554
3.25285 -20.03 -13.4714
3.99085 -19.7473 -13.2634
3.80285 -18.8818 -12.5964
4.56785 -18.4824 -12.2554
5.11785 -18.7393 -6.92943
5.11985 -18.74 -7.20743
4.84485 -19.3855 -7.28243
4.84685 -19.3862 -7.56943
4.20085 -20.7303 -8.16243
4.54385 -20.0242 -7.61243
4.54785 -20.0266 -7.73043
4.54985 -20.0274 -8.02043
4.07885 -20.9922 -8.48443
4.03385 -21.0844 -8.84543
3.99085 -21.1603 -8.90643
4.12585 -20.9018 -8.70143
3.96785 -21.1682 -14.3484
3.85985 -20.9916 -14.2244
3.74085 -21.0274 -14.2434
3.00485 -20.5377 -13.8534
0.751848 -19.3414 -7.41943
0.794848 -19.2573 -7.07143
0.832848 -19.1703 -7.29843
0.731848 -19.4478 -7.49843
0.727848 -19.4234 -7.06943
0.724848 -19.4186 -7.47543
0.763848 -19.4391 -7.04543
3.39285 -20.7435 -8.11343
2.39685 -20.3103 -7.76143
5.93085 -14.82 -4.69043
5.94685 -14.8259 -4.71543
5.95085 -14.8273 -4.94243
5.60785 -15.8058 -6.07943
5.62185 -15.8111 -6.16143
5.62285 -15.8115 -6.30843
6.29985 -13.8505 -3.48743
5.94685 -14.8259 -7.95443
5.93085 -14.82 -7.98143
5.83785 -14.7856 -7.96843
5.61885 -15.8098 -9.05343
5.60285 -15.8034 -9.07743
5.55985 -15.7865 -9.07243
5.35885 -15.7067 -9.02643
4.92785 -14.4473 -7.78043
6.04285 -13.7613 -6.87643
5.57585 -12.7012 -5.87943
3.85485 -14.0482 -4.50743
3.85685 -14.0489 -4.34643
4.21085 -13.1258 -2.93443
4.20985 -13.1252 -3.11543
3.48085 -14.9605 -5.65043
3.47885 -14.9598 -5.79743
3.48785 -14.9616 -5.58543
3.89185 -14.0619 -4.26643
3.86185 -14.0509 -4.28243
4.22785 -13.1316 -2.84843
6.49285 -12.6901 -1.44743
5.57585 -12.7012 -1.75943
6.04285 -13.7613 -3.15643
4.92785 -14.4473 -4.47643
5.83785 -14.7856 -4.66543
6.23885 -13.8293 -3.19243
4.96885 -15.5516 -5.92043
5.55985 -15.7865 -6.06343
4.24585 -13.138 -2.84243
4.50885 -13.229 -2.88243
4.29785 -13.156 -2.84743
3.99985 -14.1021 -4.28343
3.53885 -14.9834 -5.58243
3.28485 -15.7675 -6.51243
3.78585 -15.0817 -5.63843
3.31785 -16.3194 -6.79843
2.36085 -16.8551 -5.73543
3.20785 -17.2367 -5.99743
2.94785 -16.7576 -6.16843
2.45985 -17.4995 -5.88543
2.00485 -17.2865 -5.73543
1.83885 -17.9323 -6.03743
1.36485 -18.4349 -6.33743
1.85785 -18.6788 -6.52243
0.895848 -19.4181 -7.02843
1.30385 -19.4181 -7.04243
0.775848 -19.4867 -7.12243
1.01685 -19.6004 -7.19143
0.832848 -19.5249 -7.55943
0.753848 -19.4753 -7.51943
1.00785 -19.6186 -7.34643
1.00685 -19.6206 -7.63743
0.848848 -19.4387 -12.9484
1.36585 -18.4326 -12.2444
1.37985 -19.2613 -12.8464
1.86785 -20.028 -13.4204
1.01685 -19.6004 -13.0484
0.721848 -19.4484 -12.9004
1.28285 -18.3912 -12.2034
1.25385 -18.3765 -12.1724
2.35285 -16.8502 -11.0304
2.45985 -17.4995 -11.5544
2.00085 -17.2869 -11.4024
1.74985 -17.8894 -11.8574
1.85785 -18.6788 -12.4374
1.57885 -17.8065 -11.7854
2.17885 -16.7703 -10.9634
1.87585 -17.2284 -11.3464
3.28485 -15.7675 -9.49543
3.08485 -16.2192 -10.0974
2.79885 -16.4229 -10.4604
2.91585 -16.1464 -10.0474
2.61785 -16.3434 -10.3904
2.44285 -16.5293 -10.6964
2.85385 -16.1186 -9.99443
3.15985 -15.7153 -9.45643
4.68685 -12.278 -5.60743
4.50885 -13.229 -6.60343
3.99985 -14.1021 -7.58643
4.29785 -13.156 -6.56343
4.18185 -15.2391 -8.74543
3.54285 -14.9854 -8.58943
3.48885 -14.9602 -8.55143
3.89185 -14.0619 -7.55743
4.24585 -13.138 -6.54843
4.22785 -13.1316 -6.53243
4.91985 -11.5624 -4.84643
4.81185 -11.5306 -4.81443
5.80085 -12.0931 -0.797426
5.28185 -13.4971 -3.02043
4.11385 -16.6616 -7.01943
3.53085 -16.743 -6.68743
4.31285 -17.7364 -6.34043
3.90485 -17.1825 -6.45243
3.51885 -17.9935 -6.23743
2.64585 -18.3222 -6.32643
2.10185 -19.4364 -7.08343
2.92985 -19.2158 -6.93643
2.52085 -20.0581 -7.56043
1.86085 -19.9304 -7.44643
1.86085 -19.9304 -13.3554
2.52085 -20.0581 -13.4764
2.10185 -19.4364 -12.9984
2.64585 -18.3222 -12.1804
3.51885 -17.9935 -11.9064
3.20785 -17.2367 -11.2964
2.92985 -19.2158 -12.8524
3.90485 -17.1825 -11.1354
5.28185 -13.4971 -6.74043
6.91685 -12.1725 -5.04343
5.38785 -16.6472 -9.80043
5.35285 -17.8248 -11.1734
5.32985 -17.53 -10.8544
5.30885 -18.1869 -11.5054
5.31585 -17.1788 -10.4354
6.29985 -13.8505 -6.60943
5.95085 -14.8273 -7.71543
5.62285 -15.8115 -8.83643
6.78485 -12.5421 -5.13543
6.91185 -12.1944 -4.74543
4.58485 -12.1125 -5.10343
4.20985 -13.1252 -6.23843
3.85485 -14.0482 -7.28043
3.12785 -15.7022 -9.20543
3.47885 -14.9598 -8.32543
2.84885 -16.1174 -9.74943
2.13385 -16.7509 -10.5204
2.38185 -16.5068 -10.2924
1.51985 -17.7782 -11.2874
1.83485 -17.2079 -10.8734
1.22485 -18.3618 -11.6984
0.983848 -18.8591 -12.0454
0.751848 -19.3414 -12.3834
0.832848 -19.1703 -12.2634
0.724848 -19.4186 -12.4394
0.731848 -19.4478 -12.4624
0.753848 -19.4753 -12.4834
0.832848 -19.5249 -12.5234
1.00685 -19.6206 -12.6014
3.71785 -21.0703 -13.7974
3.87885 -21.1532 -13.8664
3.96985 -21.177 -13.8854
3.94785 -21.1817 -13.8894
4.28985 -20.5652 -13.4034
4.03385 -21.0844 -13.8104
3.99085 -21.1603 -13.8714
4.12585 -20.9018 -13.6664
5.11985 -18.74 -11.9654
4.84585 -19.3859 -12.6304
4.54985 -20.0274 -12.9844
5.31285 -17.1891 -10.6624
6.29885 -13.8502 -6.79843
5.62185 -15.8111 -8.98943
6.29585 -13.8492 -6.87843
6.78385 -12.5418 -5.35643
4.68285 -11.8514 -5.03443
4.21685 -13.1277 -6.50843
4.21085 -13.1258 -6.42743
3.85685 -14.0489 -7.44843
3.86185 -14.0509 -7.52143
3.13585 -15.7055 -9.42343
3.48085 -14.9605 -8.47943
2.13985 -16.7526 -10.8784
2.38585 -16.5088 -10.5934
1.83885 -17.2103 -11.2384
1.52285 -17.7796 -11.5854
1.53185 -17.7838 -11.7154
1.23585 -18.3677 -12.1314
0.794848 -19.2573 -12.6254
1.22785 -18.3633 -12.0004
1.00785 -19.6186 -12.9004
1.01085 -19.6125 -13.0234
3.71985 -21.0682 -14.0964
3.72285 -21.0618 -14.2184
3.93085 -21.174 -14.2804
4.07885 -20.9922 -14.0384
4.54785 -20.0266 -13.2844
4.54385 -20.0242 -13.4104
5.11785 -18.7393 -12.2524
5.11385 -18.7372 -12.3734
3 0 1 2
3 1 3 2
3 4 1 0
3 4 0 5
3 6 1 7
3 1 4 7
3 8 9 10
3 8 10 11
3 10 12 13
3 10 13 11
3 14 15 16
3 9 8 17
3 10 9 18
3 19 20 21
3 20 22 21
3 23 20 19
3 23 24 20
3 14 25 26
3 25 27 28
3 25 28 26
3 28 27 29
3 28 29 30
3 26 28 30
3 31 32 33
3 33 34 35
3 35 36 33
3 36 31 33
3 37 38 39
3 35 34 37
3 35 37 39
3 39 38 40
3 41 31 36
3 42 43 44
3 44 45 42
3 45 46 42
3 47 48 49
3 47 49 50
3 49 44 50
3 44 43 50
3 48 51 52
3 48 52 49
3 52 53 49
3 53 44 49
3 54 55 56
3 54 56 45
3 56 46 45
3 45 44 53
3 53 54 45
3 57 58 59
3 57 59 60
3 60 61 57
3 62 63 64
3 62 64 65
3 64 66 65
3 65 67 60
3 60 59 62
3 60 62 65
3 66 68 65
3 69 70 61
3 61 60 69
3 60 67 69
3 36 71 41
3 35 39 72
3 39 40 73
3 39 73 72
3 71 36 74
3 36 35 74
3 75 76 77
3 77 78 75
3 78 38 75
3 79 80 81
3 81 82 79
3 82 77 79
3 77 76 79
3 83 84 85
3 85 77 82
3 85 82 83
3 86 40 78
3 40 38 78
3 78 77 85
3 85 84 86
3 85 86 78
3 87 88 89
3 87 89 90
3 89 48 47
3 89 47 90
3 91 88 87
3 91 87 92
3 93 94 95
3 93 95 96
3 95 88 91
3 95 91 96
3 97 51 48
3 97 48 89
3 89 88 95
3 95 94 97
3 95 97 89
3 64 63 98
3 98 99 100
3 100 101 102
3 100 102 98
3 102 66 64
3 102 64 98
3 103 104 105
3 106 101 100
3 106 100 105
3 100 99 103
3 100 103 105
3 107 108 109
3 109 110 101
3 101 106 109
3 106 107 109
3 111 68 66
3 66 102 111
3 102 101 111
3 101 110 111
3 73 40 112
3 73 112 113
3 112 114 115
3 112 115 113
3 84 114 112
3 84 112 86
3 112 40 86
3 83 116 117
3 116 118 117
3 118 114 84
3 118 84 117
3 84 83 117
3 115 114 118
3 115 118 119
3 116 3 1
3 1 120 116
3 120 118 116
3 121 120 1
3 121 1 122
3 1 6 122
3 119 118 120
3 119 120 123
3 120 121 123
3 104 124 105
3 124 125 107
3 124 107 105
3 107 106 105
3 126 127 125
3 125 124 126
3 125 108 107
3 128 129 130
3 129 91 92
3 129 92 130
3 131 132 133
3 132 129 128
3 132 128 133
3 134 93 96
3 134 96 132
3 96 91 129
3 96 129 132
3 135 3 81
3 3 82 81
3 136 2 3
3 135 136 3
3 83 82 3
3 3 116 83
3 25 14 16
3 16 137 138
3 16 138 25
3 138 139 27
3 138 27 25
3 140 41 141
3 41 71 141
3 141 139 138
3 138 137 140
3 138 140 141
3 139 141 142
3 141 71 142
3 29 27 143
3 27 139 143
3 22 144 145
3 22 145 21
3 145 146 19
3 145 19 21
3 147 58 57
3 147 57 148
3 57 61 149
3 57 149 148
3 149 146 145
3 149 145 148
3 145 144 147
3 145 147 148
3 61 70 150
3 150 151 146
3 146 149 150
3 149 61 150
3 152 153 23
3 23 19 152
3 19 146 152
3 146 151 152
3 154 155 156
3 154 156 157
3 156 9 17
3 156 17 157
3 46 158 159
3 158 155 154
3 158 154 159
3 56 55 160
3 160 161 162
3 162 155 158
3 162 158 160
3 158 46 56
3 158 56 160
3 163 10 18
3 18 9 156
3 156 155 162
3 156 162 18
3 162 161 163
3 162 163 18
3 164 165 166
3 166 167 168
3 168 169 166
3 169 15 164
3 169 164 166
3 170 32 31
3 31 171 170
3 171 168 170
3 168 167 170
3 137 168 171
3 137 171 140
3 171 31 41
3 171 41 140
3 16 15 169
3 169 168 137
3 169 137 16
3 12 10 172
3 173 165 12
3 173 12 174
3 174 175 173
3 175 167 173
3 172 10 163
3 163 161 172
3 161 175 174
3 161 174 172
3 174 12 172
3 160 55 176
3 55 177 176
3 176 175 161
3 161 160 176
3 177 32 178
3 178 167 175
3 175 176 178
3 176 177 178
3 179 32 177
3 179 177 54
3 53 179 54
3 54 177 55
3 51 180 52
3 180 181 182
3 180 182 52
3 182 53 52
3 183 181 180
3 183 180 184
3 185 183 184
3 94 185 184
3 94 184 97
3 184 180 51
3 184 51 97
3 134 186 93
3 186 185 94
3 186 94 93
3 185 186 187
3 187 186 188
3 187 188 189
3 188 186 134
3 132 190 134
3 134 190 191
3 192 190 193
3 190 132 131
3 190 131 193
3 194 190 192
3 194 192 195
3 196 197 198
3 199 200 196
3 200 201 196
3 202 197 196
3 196 201 203
3 196 203 202
3 204 205 206
3 205 207 206
3 198 197 208
3 197 207 208
3 203 209 202
3 209 207 197
3 209 197 202
3 210 204 206
3 210 206 211
3 206 207 209
3 206 209 211
3 212 70 213
3 214 215 213
3 215 212 213
3 216 214 217
3 217 204 210
3 218 219 215
3 219 212 215
3 215 214 216
3 216 218 215
3 220 153 221
3 221 151 222
3 222 223 221
3 223 220 221
3 224 70 212
3 212 225 224
3 225 222 224
3 222 151 224
3 219 226 225
3 226 227 225
3 227 222 225
3 225 212 219
3 228 220 223
3 223 222 227
3 223 227 228
3 227 229 228
3 24 153 220
3 24 220 230
3 229 231 228
3 231 230 220
3 231 220 228
3 12 232 15
3 232 164 15
3 165 232 12
3 165 164 232
3 166 165 233
3 167 166 233
3 167 233 173
3 233 165 173
3 178 32 170
3 167 178 170
3 33 32 234
3 234 235 34
3 34 33 234
3 179 53 235
3 235 234 179
3 234 32 179
3 181 236 237
3 181 237 182
3 237 235 182
3 235 53 182
3 236 38 37
3 236 37 237
3 37 34 237
3 34 235 237
3 75 38 236
3 75 236 238
3 238 239 76
3 76 75 238
3 183 185 239
3 239 238 183
3 238 236 181
3 238 181 183
3 187 240 241
3 239 185 187
3 239 187 241
3 76 239 241
3 76 241 79
3 241 240 80
3 241 80 79
3 81 80 242
3 80 240 242
3 242 243 135
3 135 81 242
3 240 187 189
3 189 188 243
3 243 242 189
3 242 240 189
3 191 136 134
3 136 243 134
3 243 188 134
3 191 2 136
3 135 243 136
3 191 190 2
3 190 0 2
3 190 194 0
3 0 194 195
3 5 0 195
3 127 244 245
3 127 245 125
3 245 246 108
3 245 108 125
3 126 124 200
3 126 200 199
3 199 244 127
3 127 126 199
3 199 196 244
3 198 246 245
3 244 196 198
3 244 198 245
3 110 247 248
3 110 248 111
3 248 249 68
3 248 68 111
3 108 246 250
3 108 250 109
3 250 247 110
3 250 110 109
3 246 198 208
3 208 207 247
3 247 250 208
3 250 246 208
3 205 204 249
3 249 248 205
3 248 247 205
3 247 207 205
3 68 249 251
3 68 251 65
3 251 67 65
3 249 204 217
3 249 217 251
3 217 214 251
3 214 67 251
3 70 69 213
3 69 67 214
3 69 214 213
3 153 152 252
3 152 151 252
3 150 70 224
3 151 150 224
3 221 153 252
3 151 221 252
3 23 153 24
3 20 24 230
3 20 230 253
3 74 254 71
3 73 255 72
3 255 35 72
3 256 35 255
3 255 73 257
3 254 74 258
3 74 35 256
3 74 256 258
3 29 143 259
3 143 139 259
3 139 260 259
3 142 71 261
3 71 254 261
3 261 260 139
3 139 142 261
3 262 29 259
3 30 262 263
3 30 29 262
3 30 263 26
3 11 264 8
3 8 264 17
3 17 264 265
3 17 265 157
3 265 266 157
3 266 154 157
3 267 46 268
3 46 159 268
3 159 154 266
3 159 266 268
3 43 42 269
3 42 46 267
3 42 267 269
3 270 47 50
3 43 271 50
3 271 270 50
3 90 47 270
3 90 272 87
3 272 90 273
3 90 270 273
3 87 272 274
3 87 274 92
3 274 275 92
3 130 92 275
3 276 128 130
3 276 130 277
3 130 275 277
3 278 128 276
3 279 131 133
3 128 278 133
3 278 279 133
3 193 131 279
3 279 280 193
3 280 192 193
3 280 281 192
3 282 283 195
3 192 281 282
3 192 282 195
3 195 283 5
3 5 284 4
3 283 284 5
3 285 7 286
3 7 284 286
3 4 284 7
3 7 285 6
3 287 119 123
3 121 288 123
3 6 285 122
3 122 288 121
3 285 289 122
3 289 288 122
3 287 123 290
3 123 288 290
3 257 73 291
3 115 292 291
3 115 291 113
3 291 73 113
3 119 287 293
3 115 119 293
3 293 292 115
3 256 294 258
3 294 254 258
3 257 62 255
3 62 256 255
3 62 59 294
3 294 256 62
3 62 257 63
3 59 58 294
3 58 254 294
3 260 295 259
3 295 262 259
3 254 296 261
3 296 260 261
3 144 260 296
3 144 296 147
3 296 254 58
3 296 58 147
3 295 260 144
3 295 144 297
3 144 22 297
3 262 298 253
3 262 253 263
3 262 295 298
3 22 20 253
3 22 253 297
3 253 298 297
3 298 295 297
3 253 26 263
3 13 231 11
3 231 299 11
3 299 264 11
3 299 231 300
3 231 229 300
3 264 299 301
3 264 301 265
3 301 302 266
3 301 266 265
3 229 227 303
3 229 303 300
3 303 302 301
3 303 301 300
3 301 299 300
3 226 219 304
3 304 267 305
3 304 305 226
3 305 302 303
3 305 303 226
3 303 227 226
3 266 302 305
3 266 305 268
3 305 267 268
3 267 218 269
3 218 216 43
3 218 43 269
3 304 219 218
3 218 267 304
3 217 210 306
3 217 306 307
3 216 217 307
3 43 216 307
3 43 307 271
3 307 306 270
3 307 270 271
3 270 306 308
3 270 308 273
3 308 309 272
3 308 272 273
3 306 210 211
3 306 211 308
3 211 209 310
3 211 310 308
3 310 309 308
3 311 312 313
3 313 309 310
3 313 310 311
3 310 209 203
3 310 203 311
3 272 309 313
3 272 313 274
3 313 312 275
3 313 275 274
3 275 312 277
3 312 276 277
3 203 201 311
3 201 312 311
3 276 312 201
3 276 201 278
3 201 279 278
3 281 314 282
3 279 201 280
3 201 314 281
3 201 281 280
3 314 201 315
3 201 200 315
3 314 316 283
3 314 283 282
3 315 316 314
3 200 124 317
3 316 315 317
3 315 200 317
3 316 318 284
3 316 284 283
3 124 318 317
3 318 316 317
3 124 104 318
3 284 318 286
3 318 104 285
3 318 285 286
3 288 319 290
3 319 320 287
3 319 287 290
3 285 104 289
3 104 319 288
3 104 288 289
3 321 320 319
3 319 104 321
3 292 322 291
3 322 257 291
3 287 320 293
3 320 292 293
3 321 104 103
3 103 99 321
3 99 292 320
3 99 320 321
3 98 63 323
3 63 257 322
3 63 322 323
3 322 292 99
3 322 99 323
3 99 98 323
