OFF
181 346 0
-9.6965 -16.9059 -1.88109
-9.2375 -16.8824 -3.33809
-9.2595 -16.9277 -1.94109
-8.3115 -16.8898 -3.31009
-8.4685 -16.9277 -2.38909
-8.4515 -16.935 -1.63209
-7.6335 -16.8677 -2.73909
-7.7395 -16.9059 -2.00809
-7.7735 -16.903 -1.05609
-7.6315 -16.8678 -0.648089
-8.2405 -16.903 -0.332089
-8.4685 -16.9277 -0.867089
-9.1505 -16.8879 0.255911
-9.4495 -16.9136 -0.769089
-2.9665 -2.76408 -1.28109
-3.2885 -2.77178 0.211911
-3.0645 -2.78328 -0.559089
-3.2715 -2.76208 -2.39609
-3.0705 -2.79148 -1.87509
-5.0345 -2.79368 -2.15509
-5.1835 -3.34368 -2.04209
-5.2665 -2.80438 -1.11709
-5.4385 -3.14848 0.102911
-5.3505 -2.79368 0.101911
-5.6305 -4.08878 -0.998089
-5.6285 -4.08878 1.12691
-5.7445 -5.30318 1.66491
-5.0235 -2.80278 1.96991
-5.2655 -2.81408 1.22091
-3.4145 -3.13178 -2.30909
-3.6975 -2.79328 -2.72509
-4.0965 -4.08878 -2.47209
-4.1645 -2.79088 -2.85109
-5.0175 -4.08878 -2.43809
-4.6405 -2.81358 -2.68209
-3.4715 -3.34368 0.205911
-3.1035 -3.14848 -1.22809
-4.0565 -5.30318 0.197911
-3.4665 -4.08878 -0.498089
-3.6645 -4.69598 -1.61609
-4.6315 -2.77698 2.07491
-4.3025 -3.25918 1.64691
-4.1615 -2.77648 1.71891
-5.0075 -4.08878 1.90291
-4.0805 -4.09478 0.941911
-3.6905 -2.76528 1.02591
-7.5495 -10.3448 -0.862089
-7.3235 -10.3448 -1.48609
-7.9115 -12.0188 -1.72709
-8.1485 -12.0188 -1.10409
-8.4725 -13.528 -2.09309
-8.7245 -13.528 -1.43709
-8.8065 -13.528 -0.643089
-8.2255 -12.0188 -0.355089
-7.6225 -10.3448 -0.118089
-8.9675 -14.8056 -2.49709
-9.8855 -16.3929 -2.30009
-9.2345 -14.8054 -1.79309
-9.9845 -16.3967 -1.33209
-9.3225 -14.8054 -0.933089
-9.8765 -16.378 -0.371089
-9.5975 -16.3966 0.330911
-8.9585 -14.8054 0.523911
-8.7185 -13.528 0.119911
-8.4585 -13.528 0.677911
-7.8935 -12.0188 0.858911
-7.3035 -10.3448 1.06091
-7.5415 -10.3448 0.578911
-8.1415 -12.0188 0.354911
-6.0335 -10.3448 -1.81809
-5.6455 -10.3448 -1.57609
-6.1565 -12.0188 -1.76109
-6.5625 -12.0188 -2.02709
-6.6145 -13.528 -2.06709
-7.0425 -13.528 -2.37609
-7.5495 -13.528 -2.51409
-7.0415 -12.0188 -2.14209
-6.4925 -10.3448 -1.91609
-7.0015 -14.8054 -2.41609
-7.4805 -16.3967 -2.92309
-7.9725 -16.3635 -3.34609
-7.4515 -14.8054 -2.77209
-8.5415 -16.3967 -3.55109
-7.9885 -14.8054 -2.93709
-9.1205 -16.4003 -3.47909
-8.5225 -14.8054 -2.86209
-8.0535 -13.528 -2.43609
-6.9465 -10.3448 -1.82109
-7.5165 -12.0188 -2.05709
-5.3605 -10.3448 -0.373089
-5.5785 -10.3448 0.106911
-6.0955 -12.0188 0.0289106
-5.8655 -12.0188 -0.461089
-6.7675 -14.1667 -0.108089
-6.3205 -13.528 -0.590089
-5.8025 -12.0188 -0.944089
-5.3025 -10.3448 -0.829089
-7.4725 -16.3967 -0.278089
-7.1825 -16.3877 -0.927089
-7.0905 -16.3967 -1.64209
-6.6255 -14.8054 -1.33909
-7.1815 -16.3501 -2.33909
-6.7245 -14.8054 -1.91909
-6.3495 -13.528 -1.63709
-5.3995 -10.3448 -1.23809
-5.9015 -12.0188 -1.38909
-6.9065 -10.3448 1.15891
-7.4805 -12.0188 0.992911
-8.0255 -13.528 0.857911
-6.9955 -12.0529 0.837911
-5.8875 -8.62638 1.11291
-8.8685 -15.7623 0.676911
-8.5335 -16.3968 0.576911
-7.9595 -14.8054 0.664911
-7.9475 -16.3962 0.241911
-6.9295 -13.3404 0.420911
-5.9635 -10.3448 0.585911
-4.0875 -5.30318 -1.94809
-4.4695 -5.30318 -2.24309
-4.5655 -6.84518 -1.73909
-4.9455 -6.84518 -2.00509
-5.3955 -6.84518 -2.10509
-4.9245 -5.30318 -2.35409
-5.1005 -8.57298 -1.59209
-5.4805 -8.57298 -1.83709
-5.9305 -8.57298 -1.93109
-6.7465 -8.57298 -1.45609
-6.3765 -8.57298 -1.82209
-6.2135 -6.84518 -1.56709
-5.8415 -6.84518 -1.97909
-5.7545 -5.30318 -1.74909
-5.3775 -5.30318 -2.21209
-5.9805 -5.30318 -0.898089
-6.4355 -6.84518 -0.809089
-6.5085 -6.84518 0.0899106
-6.0545 -5.30318 0.109911
-6.9685 -8.57298 -0.780089
-7.0405 -8.57298 0.0229106
-6.7285 -8.57298 1.27391
-6.9615 -8.57298 0.767911
-6.1995 -6.84518 1.48091
-6.4305 -6.84518 0.921911
-5.9765 -5.30318 1.04091
-5.8145 -6.84518 1.55891
-4.9045 -5.33758 1.43191
-6.3405 -8.57298 1.35491
-5.0015 -8.44208 0.164911
-5.4165 -8.57298 0.685911
-4.8955 -6.84518 0.783911
-4.3015 -6.84518 -0.386089
-4.7665 -8.57298 -0.831089
-3.7675 -5.30318 -1.02609
-4.8245 -8.57298 -0.356089
-4.8605 -8.57298 -1.25009
-4.3295 -6.84518 -1.36809
-9.1135 -16.3967 0.628911
-9.6955 -16.7287 0.223911
-9.2215 -16.7295 0.528911
-8.6545 -16.7302 0.490911
-9.6455 -16.8651 0.00491062
-8.5115 -16.873 0.226911
-7.6125 -16.7287 -0.338089
-8.0855 -16.7295 0.178911
-7.3285 -16.7295 -0.990089
-7.2355 -16.7302 -1.70109
-7.4165 -16.8713 -1.71409
-7.6155 -16.7287 -2.98709
-7.3305 -16.7295 -2.39209
-8.0895 -16.7295 -3.41109
-8.6575 -16.7302 -3.61209
-8.7065 -16.8713 -3.46209
-9.6455 -16.8651 -3.00509
-9.6965 -16.7287 -3.13809
-9.2235 -16.7295 -3.53709
-9.5995 -16.3967 -3.07809
-9.9815 -16.7295 -2.36809
-10.0765 -16.7302 -1.42009
-9.9065 -16.8682 -2.31309
-9.9955 -16.8713 -1.46909
-9.9065 -16.8682 -0.639089
-9.9805 -16.7295 -0.491089
3 0 1 2
3 1 3 4
3 1 4 2
3 4 5 2
3 3 6 7
3 3 7 4
3 7 5 4
3 8 9 10
3 8 10 11
3 10 12 11
3 5 7 8
3 5 8 11
3 13 0 2
3 2 5 11
3 2 11 13
3 11 12 13
3 14 15 16
3 17 14 18
3 19 20 21
3 21 22 23
3 22 21 24
3 21 20 24
3 25 26 27
3 25 27 28
3 22 25 28
3 23 22 28
3 17 29 30
3 29 31 30
3 31 32 30
3 33 20 34
3 32 33 34
3 34 20 19
3 15 35 16
3 16 36 14
3 35 37 38
3 36 16 38
3 16 35 38
3 39 29 18
3 36 39 18
3 14 36 18
3 18 29 17
3 40 41 42
3 27 26 43
3 27 43 40
3 43 41 40
3 44 37 35
3 44 35 45
3 41 44 45
3 42 41 45
3 45 35 15
3 46 47 48
3 46 48 49
3 48 50 51
3 48 51 49
3 51 52 53
3 51 53 49
3 53 54 46
3 53 46 49
3 55 56 57
3 56 58 59
3 56 59 57
3 59 52 51
3 59 51 57
3 51 50 55
3 51 55 57
3 60 61 62
3 60 62 63
3 62 64 63
3 63 52 59
3 59 58 60
3 59 60 63
3 65 66 67
3 65 67 68
3 67 54 53
3 67 53 68
3 53 52 63
3 53 63 68
3 63 64 65
3 63 65 68
3 69 70 71
3 69 71 72
3 71 73 74
3 71 74 72
3 74 75 76
3 74 76 72
3 76 77 69
3 76 69 72
3 78 79 80
3 78 80 81
3 80 82 83
3 80 83 81
3 83 75 74
3 83 74 81
3 74 73 78
3 74 78 81
3 84 55 85
3 55 50 86
3 55 86 85
3 86 75 83
3 86 83 85
3 83 82 84
3 83 84 85
3 48 47 87
3 48 87 88
3 87 77 76
3 87 76 88
3 76 75 86
3 76 86 88
3 86 50 48
3 86 48 88
3 89 90 91
3 89 91 92
3 91 93 94
3 91 94 92
3 94 95 92
3 95 96 89
3 95 89 92
3 93 97 98
3 93 98 94
3 98 99 100
3 98 100 94
3 100 95 94
3 101 79 78
3 101 78 102
3 78 73 103
3 78 103 102
3 103 95 100
3 103 100 102
3 100 99 101
3 100 101 102
3 71 70 104
3 71 104 105
3 104 96 95
3 104 95 105
3 95 103 105
3 103 73 71
3 103 71 105
3 106 66 65
3 106 65 107
3 65 64 108
3 65 108 107
3 108 109 107
3 109 110 106
3 109 106 107
3 62 61 111
3 111 112 113
3 113 109 108
3 113 108 111
3 108 64 62
3 108 62 111
3 114 97 93
3 114 93 115
3 115 109 113
3 113 112 114
3 113 114 115
3 91 90 116
3 91 116 115
3 116 110 109
3 116 109 115
3 115 93 91
3 31 29 117
3 31 117 118
3 117 119 120
3 117 120 118
3 120 121 122
3 120 122 118
3 122 32 31
3 122 31 118
3 123 70 69
3 123 69 124
3 69 77 125
3 69 125 124
3 125 121 120
3 125 120 124
3 120 119 123
3 120 123 124
3 87 47 126
3 87 126 127
3 126 128 129
3 126 129 127
3 129 121 125
3 129 125 127
3 125 77 87
3 125 87 127
3 130 20 33
3 130 33 131
3 33 32 122
3 33 122 131
3 122 121 129
3 122 129 131
3 129 128 130
3 129 130 131
3 24 20 130
3 24 130 132
3 130 128 133
3 130 133 132
3 133 134 135
3 133 135 132
3 135 22 24
3 135 24 132
3 126 47 46
3 126 46 136
3 46 54 137
3 46 137 136
3 137 134 133
3 137 133 136
3 133 128 126
3 133 126 136
3 67 66 138
3 67 138 139
3 138 140 141
3 138 141 139
3 141 134 137
3 141 137 139
3 137 54 67
3 137 67 139
3 26 25 142
3 25 22 135
3 25 135 142
3 135 134 141
3 135 141 142
3 141 140 26
3 141 26 142
3 43 26 143
3 26 140 143
3 144 41 43
3 144 43 143
3 138 66 106
3 138 106 145
3 106 110 145
3 110 144 143
3 110 143 145
3 143 140 138
3 143 138 145
3 116 90 146
3 116 146 147
3 146 148 147
3 148 144 110
3 148 110 147
3 110 116 147
3 44 41 144
3 144 148 44
3 148 146 37
3 148 37 44
3 38 37 149
3 37 146 149
3 149 150 151
3 151 36 38
3 151 38 149
3 146 90 89
3 146 89 152
3 89 96 150
3 89 150 152
3 150 149 152
3 149 146 152
3 104 70 123
3 104 123 153
3 123 119 154
3 123 154 153
3 154 150 153
3 150 96 104
3 150 104 153
3 117 29 39
3 39 36 151
3 151 150 154
3 151 154 39
3 154 119 117
3 154 117 39
3 111 61 155
3 61 156 157
3 61 157 155
3 157 158 112
3 157 112 155
3 112 111 155
3 159 13 12
3 160 158 157
3 160 157 12
3 157 156 159
3 157 159 12
3 10 9 160
3 9 161 162
3 9 162 160
3 162 158 160
3 160 12 10
3 112 158 162
3 112 162 114
3 162 161 97
3 162 97 114
3 97 161 163
3 97 163 98
3 163 164 99
3 163 99 98
3 8 7 165
3 8 165 9
3 165 164 163
3 165 163 9
3 163 161 9
3 6 166 167
3 167 164 165
3 167 165 6
3 165 7 6
3 99 164 167
3 99 167 101
3 167 166 79
3 167 79 101
3 79 166 168
3 79 168 80
3 168 169 82
3 168 82 80
3 170 169 168
3 170 168 3
3 168 166 6
3 168 6 3
3 171 172 173
3 171 173 1
3 173 169 170
3 173 170 1
3 170 3 1
3 174 55 84
3 82 169 173
3 82 173 84
3 173 172 174
3 173 174 84
3 56 55 174
3 174 172 175
3 174 175 56
3 175 176 58
3 175 58 56
3 171 1 0
3 171 0 177
3 0 178 177
3 178 176 175
3 178 175 177
3 175 172 171
3 175 171 177
3 13 159 179
3 159 156 180
3 159 180 179
3 180 176 178
3 180 178 179
3 178 0 13
3 178 13 179
3 58 176 180
3 58 180 60
3 180 156 61
3 180 61 60
