0.0447624
0.0409005
0.0665708
0.046677
0.0826732
0.0631528
0.0857694
0.0734709
0.154397
0.165099
0.162985
0.196692
0.180925
0.157368
0.192647
0.149802
0.217411
0.246218
0.127851
0.172873
0.0706248
0.138005
0.213671
0.254522
0.190164
0.170159
0.155398
0.184225
0.133138
0.187034
0.22289
0.331024
0.134676
0.0941589
0.0515215
0.0600782
0.0437771
0.29842
0.2265
0.314566
0.168695
0.212766
0.259414
0.231578
0.335809
0.221444
0.258309
0.360111
0.260828
0.242604
0.289373
0.181149
0.182969
0.247926
0.210773
0.3787
0.476474
0.402433
0.440951
0.343484
0.408654
0.294135
0.125577
0.444857
0.249801
0.25925
0.211583
0.223034
0.253679
0.196322
0.134724
0.0189094
0.276308
0.155792
0.214399
0.142506
0.228879
0.136658
0.255031
0.220196
0.0368238
0.365873
0.560107
0.65381
0.244942
0.446207
0.368471
0.21082
0.397745
0.215472
0.0542626
0.208354
0.38742
0.323174
0.390744
0.138408
0.145901
0.27189
0.753232
0.465544
0.202394
0.287482
0.137194
0.262078
0.138456
0.0415862
0
0.0418445
0.170933
0.117373
0.177428
0.152432
0.0638952
0.175466
0.0564885
0.206175
0.644221
0.154859
0.166312
1
0.00839633
0.0544608
0.0588285
0.0415788
0.156191
0.127176
0.231024
0.123801
0.372079
0.145922
0.155838
0.144075
0.346592
0.154983
0.0573034
0.0639175
0.10569
0.0861285
0.095529
0.0844583
0.0513434
0.06603
0.0581039
0.0568614
0.0995595
0.0494941
0.110983
0.0736147
0.036116
0.0514778
0.054172
0.0676853
0.0921721
0.0913371
0.0879777
0.0849447
0.0575508
0.0685965
0.0481118
0.0702245
0.113043
0.0886218
0.11282
0.0896702
0.0501406
0.0679981
0.111908
0.10352
0.0580529
0.0863639
0.0919906
0.105947
0.0962209
0.107266
0.0946882
0.10077
0.0639316
0.0708916
0.0563393
0.0573657
0.101012
0.109717
0.0902381
0.117343
0.0929047
0.110138
0.0506739
0.0837393
0.111981
0.113699
0.0695131
0.0602449
0.107018
0.0812186
0.078214
0.0854772
0.0699655
0.105898
0.203467
0.132647
0.182631
0.316262
0.342121
0.238985
0.379361
0.168868
0.276756
0.238646
0.195927
0.209539
0.561787
0.19286
0.179538
0.269433
0.126483
0.212196
0.258968
0.218306
0.342096
0.127204
0.158883
0.281076
0.185136
0.187333
0.222711
0.198118
0.605009
0.369082
0.326163
0.199326
0.0974686
0.126658
0.227086
0.281471
