0.758724
0.7128
0.449523
0.798219
0.812925
0.619618
0.888862
0.546571
0.425916
0.787383
0.761156
0.456092
0.779607
0.377128
0.795094
0.808405
0.550543
0.412397
0.659308
0.766609
0.707546
0.447922
0.729459
0.827706
0.511144
0.512118
0.403546
0.735132
0.832745
0.840334
0.299153
0.789557
0.399956
0.382291
0.308041
0.288201
0.276201
0.188116
0.103517
0.0455754
0.269499
0.240731
0.256713
0.150044
0.183679
0.3742
0.224214
0.338859
0.111147
0.371792
0.153508
0.260256
0.365539
0.439343
0.528431
0.158912
0.155054
0.098969
0.315797
0.274057
0.243435
0.487197
0.433294
0.492163
0.469288
0.420048
0.29916
0.145333
0.43183
0.549062
0.869573
0.448401
0.325858
0.459722
0.428129
0.389489
0.434666
0.374212
0.461936
0.354644
0.48974
0.364169
0.543277
0.408113
0.45991
0.426145
0.433602
0.280393
0.44216
0.576435
0.374724
0.482774
0.360997
0.438667
0.470193
0.424497
0.332535
0.383237
0.567924
0.158918
0.432303
0.446713
0.390472
0.230705
0.371884
0.364808
0.330202
0.421317
0.194932
0.299297
0.133059
0.21317
0.323997
0.319173
0.52604
0.432611
0.57762
0.444208
0.437704
0.266731
0.457651
0.461261
0.445525
0.235391
0.163
0.451627
0.405134
0.503072
0.379694
0.280475
0.290908
0.294513
0.378807
0.523801
0.489918
0.452114
0.380387
0.402284
0.455631
0.550869
0.519761
0.44624
0.442597
0.39348
0.279473
0.482774
0.615682
0.360078
0.819558
0.427464
0.642791
0.395129
0.638102
0.837267
0.434606
0.373652
0.228097
0.266141
0.30656
0.313804
0.390725
0.316785
0.248903
0.391983
0.380174
0.459606
0.346087
0.270804
0.211797
0.302056
0.590354
0.495891
0.388462
0.495426
0.534005
0.38486
0.604368
0.487106
0.42447
0.468616
0.49207
0.663867
0.434388
0.518269
0.56003
0.62702
0.580073
0.60584
0.693271
0.529747
0.634246
0.403541
0.439753
0.33423
0.505184
0.22171
0.488031
0.577954
0.589272
0.601178
0.642405
0.632024
0.52094
0.560218
0.537551
0.538996
0.735142
0.523236
0.574777
0.562313
0.483046
0.446607
0.385498
0.526511
0.54526
0.359161
0.632639
0.243131
0.565857
0.843126
0.579926
0.263875
0.503968
0.479501
0.336731
0.206515
0.676782
0.352308
0.743282
0.153945
0.519599
0.460961
0.726751
0.628404
0.775029
0.76841
0.781943
0.402278
0.486045
0.291566
0.369317
0.684312
0.564295
0.590521
0.482263
0.550405
0.535267
0.508743
0.707583
0.499979
0.557879
0.451065
0.649885
0.483009
0.622199
0.639148
0.403017
0.751304
0.239343
0.508155
0.582854
0.304571
0.589464
0.597285
0.690778
0.541307
0.537326
0.629589
0.717897
0.768613
0.659545
0.793181
0.574281
0.641103
0.585275
0.461378
0.749829
0.490905
0.615004
0.870377
0.559128
0.777873
0.684965
0.656283
0.736777
0.684309
0.743942
0.84831
0.852324
0.594848
0.776228
0.861602
0.914814
0.602636
0.699562
0.796054
0.509986
0.742104
0.819858
0.676975
0.785421
0.764586
0.581024
0.657967
0.818346
0.538679
0.349912
0.397224
0.740379
0.594403
0.713426
0.687513
0.640077
0.380489
0.61869
0.74585
0.685149
0.782588
0.765958
0.781882
0.652378
0.616812
0.40267
0.6418
0.65088
0.54771
0.775333
0.649513
0.748667
0.688362
0.404231
0.541252
0.675182
0.738326
0.763333
0.701591
0.77546
0.760907
0.678071
0.252662
0.479391
0.494
0.921969
0.5534
0.580521
0.952309
0.28976
0.537589
0.705683
1
0.796474
0.938834
0.280444
0.644536
0.685603
0.910848
0.205721
0.497299
0.522782
0.985948
0.745478
0.635935
0.67638
0.864547
0.643486
0.627384
0.703492
0.521993
0.415886
0.294328
0.316818
0.740066
0.712918
0.432671
0.687274
0.64091
0.654571
0.623366
0.40172
0.486245
0.713772
0.571584
0.66637
0.517765
0.435631
0.665388
0.577623
0.71323
0.663169
0.64047
0.740265
0.780758
0.650904
0.442465
0.467927
0.277568
0.688871
0.551495
0.760073
0.337917
0.539643
0.568313
0.252643
0.163788
0.0931638
0.0978181
0.100998
0.13432
0.139367
0.13889
0.125515
0.144598
0.0616932
0.124243
0.162967
0.583557
0.112194
0.068736
0.754418
0.17399
0.145936
0.427934
0.727008
0.211569
0.15949
0.113438
0.249552
0.143873
0.194276
0.179522
0.0686174
0.110042
0.0959786
0.166026
0.29428
0.230117
0.0875139
0.146272
0.165758
0.13676
0.247576
0.209367
0.0429598
0.125524
0.139636
0.113386
0.254606
0.0882965
0.0978437
0.0552449
0.0845329
0.0148746
0.100203
0.277557
0.0541871
0.0312367
0.0327109
0.447939
0.374388
0.169422
0.338712
0.253187
0.111011
0.1093
0.119955
0.665864
0.294496
0.261756
0.0911735
0.19633
0.203137
0.161955
0.285918
0.253834
0.114434
0.0329269
0.116495
0.176336
0.1242
0.287999
0.0356909
0.0831952
0.0645322
0.271685
0.439078
0.152104
0.0265423
0.7086
0.0954564
0.0727099
0.31768
0.239669
0.255603
0.238329
0.0995605
0.193815
0.101017
0.109617
0.193929
0.155298
0.0736156
0.162384
0.0649459
0.158063
0.654292
0.529616
0.106802
0.274387
0.130543
0.141679
0.150153
0.514975
0.030161
0.331191
0.159059
0.062985
0.0744178
0.00516143
0.0631962
0
0.120802
0.165718
0.299632
0.206288
0.256415
0.2164
0.106271
0.082538
0.0921011
0.136794
0.276607
0.125602
0.235444
0.221773
0.244265
0.299618
0.17206
0.278398
0.775469
0.603699
0.816017
0.697312
0.355084
0.302883
0.414299
0.398863
0.543198
0.528713
0.233637
0.28421
0.61174
0.275572
0.314418
0.489084
0.199942
0.252975
0.135434
0.189371
0.181165
0.262773
0.285427
0.181125
0.0699594
0.0909926
0.88336
0.104318
0.171004
0.0634473
0.296375
0.129661
0.544247
0.819736
0.828832
0.800488
0.192036
0.258398
0.175387
0.340589
0.589449
0.490975
0.282062
0.40803
0.797442
0.14025
0.833564
0.543547
0.0764816
0.0893032
0.0277427
0.0842141
0.10866
0.1728
0.291141
0.22572
0.117693
0.232563
0.137507
0.12134
0.175114
0.132721
0.0177379
0.120719
0.823791
0.631075
0.683829
0.273134
0.421406
0.256904
0.286106
0.523029
0.602889
0.187856
0.413884
0.471637
0.187732
0.69885
0.477283
0.543204
0.0752167
0.0962506
0.146815
0.198434
0.126471
0.113607
0.125614
0.161789
0.176998
0.342424
0.206385
0.120578
0.154371
0.514741
0.227297
0.109584
0.656735
0.365118
0.659586
0.425908
0.219638
0.189135
0.778533
0.179115
0.438555
0.406619
0.303377
0.436405
0.15833
0.444481
0.866792
0.679941
0.124957
0.0815937
0.0877197
0.143704
0.102773
0.135131
0.221853
0.102859
0.458042
0.446564
0.479183
0.308309
0.0855398
0.453993
0.340132
0.46445
0.238691
0.305368
0.169641
0.347293
0.418386
0.719807
0.29336
0.465183
0.389289
0.440118
0.412601
0.592299
0.669374
0.406533
0.469481
0.487518
0.456589
0.620021
0.317442
0.186763
0.580185
0.337555
0.271065
0.338962
0.24151
0.430725
0.578331
0.253905
0.490204
0.41021
0.313013
0.45078
0.292985
0.436758
0.437213
0.626843
0.415928
0.529338
0.534107
0.453458
0.438637
0.369028
0.534403
0.635577
0.566123
0.504117
0.453229
0.497354
0.52389
0.673289
0.579787
0.386516
0.406799
0.436736
0.463564
0.460756
0.458093
0.38821
0.441683
0.130789
0.436876
0.245566
0.298131
0.223532
0.198755
0.537822
0.207727
0.358857
0.611194
0.909292
0.443265
0.219122
0.574008
0.331462
0.595958
0.620368
0.663825
0.338811
0.23543
0.178089
0.204779
0.549113
0.483121
0.488145
0.386438
0.275485
0.219592
0.353666
0.275584
0.309525
0.366868
0.376992
0.5018
0.39153
0.515098
0.460557
0.397496
0.310458
0.385411
0.608464
0.409107
0.51711
0.426022
0.446071
0.379817
0.507184
0.257565
0.555825
0.535413
0.553421
0.46326
0.458681
0.483502
0.524846
0.45403
0.473522
0.420574
0.446389
0.448934
0.4591
0.461701
0.492519
0.401149
