0.183574
0.0366535
0.204216
0.176804
0.160076
0.189157
0.151813
0.113569
0.396238
0.299223
0.383267
0.217843
0.14196
0.217763
0.396237
0.299402
0.0592989
0.0429285
0.0495298
0.0289902
0.0142448
0.00373985
0
0.0020677
0.39401
0.297972
0.140885
0.217196
0.119663
0.217275
0.394011
0.297792
3.3266e-07
0.00206797
0.0147708
0.00383943
0.0494748
0.0288907
0.29241
0.0427676
0.323338
0.25911
0.375245
0.333192
0.368024
0.321555
0.438688
0.359926
0.65541
0.550142
0.27029
0.333969
0.244569
0.342707
0.371401
0.236584
0.434956
0.483293
0.326493
0.32121
0.236219
0.324553
0.363942
0.253784
0.259054
0.326632
0.343371
0.391331
0.343091
0.48926
0.377125
0.667303
0.440238
0.272076
0.298509
0.156914
0.34935
0.451449
0.321151
0.171319
0.234783
0.309813
0.324198
0.288383
0.351258
0.253707
0.675072
0.357316
0.300339
0.35471
0.352277
0.283468
0.311123
0.286747
0.424123
0.286639
0.135343
0.276773
0.330016
0.351393
0.360306
0.325114
0.296852
0.320136
0.294893
0.228127
0.266133
0.305146
0.266425
0.304839
0.337092
0.195417
0.23885
0.293349
0.315385
0.330085
0.293978
0.364606
0.345804
0.29729
0.340952
0.2463
0.256083
0.13816
0.25607
0.309566
0.280564
0.289277
0.366097
0.291436
0.271548
0.257386
0.318896
0.288857
0.281393
0.37643
0.228046
0.213677
0.295849
0.232093
0.295849
0.232093
0.228048
0.213688
0.0585722
0.0382244
0.205353
0.334773
0.377479
0.353416
0.00968157
0.00749445
0.156903
0.214177
0.380134
0.236565
0.382159
0.236565
0.156307
0.214165
0.00968163
0.00746714
0.368014
0.354298
0.159527
0.334778
0.0583719
0.0383943
0.369955
0.339328
0.311974
0.304787
0.808604
0.325787
0.39239
0.342322
0.424934
0.438738
0.39059
0.42
0.254744
0.30098
0.384997
0.330923
0.376405
0.318212
0.126535
0.302831
0.135102
0.302831
0.370824
0.318212
0.384997
0.340333
0.254741
0.300982
0.401829
0.400705
0.420424
0.438734
0.00731521
0.0106008
0.274247
0.184477
0.0999358
0.0605162
0.0317478
0.0340483
0.258585
0.327781
0.467079
0.327117
0.341568
0.244683
0.342558
0.0506709
0.175488
0.112977
0.212732
0.201399
0.351511
0.267631
0.365308
0.153692
0.379181
0.438215
0.368951
0.25908
0.294069
0.253222
0.266348
0.253224
0.0163965
0.0368233
0.258798
0.0809148
0.333148
0.340677
0.366825
0.331382
0.410412
0.380989
0.357288
0.468914
0.105383
0.363274
0.254933
0.331291
0.156633
0.154759
0.16472
0.0689206
0.14895
0.125516
0.188309
0.147124
0.410412
0.357745
0.254933
0.343867
0.105383
0.329816
0.357285
0.468547
0.0163965
0.0368232
0.375875
0.330215
0.356058
0.339624
0.258618
0.0809148
0.347194
0.356479
0.266344
0.369116
0.294005
0.345591
0.346376
0.324263
0.678831
0.356705
0.355488
0.253121
0.349474
0.25373
0.702196
0.356839
0.372044
0.235889
0.244302
0.341025
0.264274
0.128639
0.369631
0.23613
0.00731534
0.0106007
0.0308969
0.0360295
0.0998494
0.0601499
0.273624
0.184481
0.308705
0.379745
0.347652
0.339074
0.345945
0.341013
0.128498
0.379544
0.0412276
0.0226769
0.341256
0.440779
0.253404
0.388931
0.0195359
0.00353751
0.0363051
0.0263948
0.253499
0.38872
0.11788
0.38872
0.0809345
0.0428194
0.129324
0.383331
0.258686
0.199061
0.244371
0.306129
0.122475
0.383578
0.0363183
0.0440606
0.10357
0.0628076
0.295348
0.278965
0.284598
0.214171
0.019609
0.0047126
0.284993
0.27865
0.373587
0.371928
0.0456911
0.0225601
0.230099
0.385275
0.336461
0.393221
0.344602
0.450157
0.406467
0.1782
0.397232
0.163479
0.263339
0.156308
0.261669
0.160313
0.309054
0.324584
0.300691
0.263097
0.323831
0.24077
0.31649
0.332127
0.228653
0.409483
0.242137
0.248625
0.272944
0.284512
0.259188
0.310989
0.343346
1
0.292698
0.319916
0.260706
0.332326
0.24475
0.226384
0.24206
0.224397
0.254678
0.27466
0.273135
0.281397
0.28724
0.357333
0.289155
0.349544
0.326335
0.366166
0.375611
0.325404
0.362901
0.314341
0.36462
0.319212
0.36382
0.185787
0.204867
0.192795
0.270506
0.176847
0.237903
0.171242
0.254506
0.373008
0.383476
0.319212
0.364046
0.314291
0.357529
0.37452
0.383524
0.270306
0.271404
0.349544
0.306448
0.352847
0.280074
0.278524
0.288097
0.319117
0.260569
0.224394
0.255023
0.238597
0.239746
0.330699
0.22522
0.261812
0.307004
0.310859
0.252792
0.333641
0.221087
0.258989
0.394796
0.372269
0.251258
0.470555
0.34061
0.587207
0.185337
0.374278
0.2869
0.16354
0.263338
0.24758
0.245189
0.235335
0.24724
0.156451
0.261669
0.177435
0.336458
0.169188
0.284519
0.156968
0.273194
0.165664
0.3446
0.0857597
0.223185
0.0262415
0.0610964
0.0265675
0.383249
0.0299665
0.0590401
0.0367533
0.0642479
0.0453643
0.0509188
0.0332363
0.0756882
0.164368
0.367364
0.334461
0.209496
0.450652
0.24947
0.318537
0.451074
0.328616
0.33213
0.335186
0.258991
0.258845
0.297584
0.251718
0.302346
0.326668
0.253015
0.340194
0.853295
0.295664
0.33301
0.435645
0.333322
0.282089
0.367312
0.401429
0.146741
0.0675287
0.0569975
0.0439065
0.185624
0.326018
0.386274
0.086581
0.360602
0.42877
0.400521
0.440438
0.402288
0.414899
0.31891
0.378743
0.228563
0.194723
0.127339
0.0810155
0.178592
0.0965507
0.236379
0.194713
0.360603
0.428866
0.318888
0.378736
0.390761
0.414899
0.400521
0.415214
0.114113
0.0675286
0.390119
0.106311
0.185625
0.326014
0.0569975
0.0487938
0.355515
0.359776
0.357291
0.26904
0.315435
0.279321
0.351248
0.291472
0.446469
0.259534
0.353012
0.30514
0.336333
0.342406
0.253751
0.284944
0.35869
0.522441
0.239208
0.336255
0.346075
0.649753
0.433444
0.302521
0.0642257
0.0389731
0.234767
0.241191
0.290692
0.57264
0.0399528
0.0333221
0.223193
0.0262432
0.0588305
0.0364382
0.377207
0.0300606
0.0613563
0.0267304
0.108595
0.0535483
0.103778
0.0792281
