0.147644
0.0550033
0.392775
0.111284
0.458179
0.141046
0.225967
0.156733
0.0276397
0.0276397
0.435334
0.48421
0.689
0.438396
0.443018
0.4417
0.214212
0.43189
0.600702
0.319316
0.715321
0.36521
0.379691
0.381181
0.331778
0.331928
0.350753
0.473173
0.89673
0.658464
0.473332
0.561616
0.470464
0.473182
0.232746
0.25001
0.912254
0.326866
0.401684
0.745057
0.298348
0.139717
0.319414
0.832045
0.497989
0.518798
0.972793
0.384253
0.370646
0.416477
0.826912
0.51671
0.823538
0.744557
0.63368
0.769692
0.435703
0.83158
0.341812
0.824488
0.779329
0.355402
0.513229
0.847341
0.288034
0.395634
0.194103
0.245413
0.174167
0.155225
0.267046
0.176036
0.187038
0.689884
0.304215
0.347488
0.229217
0.269167
0.4059
0.655252
0.325844
0.72491
0.23888
0.0747518
0.236907
0.1308
0.0730159
0.125326
0.166659
0.143638
0.288218
0.285117
0.588659
0.244465
0.208055
0.886814
0.505738
0.349731
0.204694
0.105706
0.0498716
0.0754159
0.1414
0.268344
0.0951173
0.0703977
0.195149
0.272102
0.188115
0.329108
0.459234
0.449476
0.40398
0.390189
0.159666
0.171825
0.0583728
0.0430457
0.0569033
0.0733001
0.0974491
0.133458
0.425181
0.217147
0.397174
0.661393
0.399764
0.466841
0.353621
0.449155
0.185676
0.176462
0.043473
0.0492287
0.178877
0.168616
0.0758802
0.136712
0.196139
0.929331
0.882151
0.840622
0.343738
0.19165
0.0367572
0.49256
0.0349137
0.0253192
0.68975
0.104785
0.107167
0.10593
0.0482513
0.308239
0.351895
0.191382
0.586784
0.338251
0.602928
0.833948
0.612491
0.832609
0.798363
0.824625
0.847466
0.727051
0.841125
0.844449
0.830123
0.963845
0.166087
0.173889
0.51857
0.788896
0.846971
0.788275
0.829251
0.592253
0.0488151
0.0360265
0.359515
0.327121
0.269911
0.377347
0.104998
0.0642727
0.426136
0.0537891
0.199057
0.0871011
0.158451
0.122162
0.144803
0.13766
0.10023
0.0549199
0.130935
0.206084
0.242806
0.321194
0.0444295
0.0109758
0.187678
0.138494
0.231661
0.132315
0.188785
0.0578577
0.199388
0.0723829
0.371402
0.280684
0.410502
0.334092
0.621348
0.403277
0.333615
0.391325
0.340244
0.603724
0.672248
0.361058
0.107299
0.128254
0.167786
0.410805
0.315666
0.388922
0.290682
0.415127
0.375777
0.321618
0.304854
0.315707
0.317045
0.233257
0.115719
0.147659
0.36958
0.251954
0.585857
0.335021
0.479746
0.424012
0.943635
0.873685
0.622099
0.799294
0.448571
0.585121
0.420266
0.395986
0.599572
0.477982
0.40436
0.304446
0.309431
0.614819
0.332298
0.441452
0.588753
0.451354
0.45242
0.449233
0.79491
0.469196
0.569068
0.250233
0.402209
0.301288
0.584123
0.778733
0.551862
0.567281
0.218888
0.563952
0.144641
0.375234
0.501274
0.67663
0.503463
0.553905
0.171834
0.138258
0.143927
0.0668122
0.0450215
0.0107686
0.285872
0.138513
0.373714
0.167711
0.0369581
0.00779528
0.0557527
0.060035
0.217463
0.12548
0.259508
0.275621
0.248307
0.284547
0.834384
0.831273
0.831181
0.82987
0.455165
0.140422
0.169848
0.154274
0.0534018
0.0626275
0.0414333
0.0391264
0.0806685
0.101332
0.411032
0.27839
0.410706
0.22847
0.393162
0.432243
0.600248
0.270399
0.201466
0.197616
0.161201
0.230178
0.143876
0.145166
0.0782133
0.0263241
0.0697981
0.163854
0.158196
0.145838
0.0781303
0.0872325
0.125964
0.117592
0.315524
0.299401
0.844326
0.342763
0.639541
0.169772
0.411958
0.360365
0.57527
0.580743
0.467011
0.500847
0.862129
0.831251
0.829726
0.511134
0.800793
0.847197
0.623023
0.791424
0.746158
0.507357
0.44482
0.408664
0.711713
0.673811
0.779335
0.354621
0.245416
0.303073
0.406434
0.176587
0.375386
0.263332
0.37228
0.357317
0.161578
0.427566
0.924994
0.0780798
0.0652413
0.0642036
0.125823
0.103724
0.0949219
0.0879297
0.247792
0.247818
0.213975
0.148921
0.177268
0.20343
0.169896
0.194371
0.276489
0.260039
0.236588
0.375737
0.0660013
0.0267618
0.101179
0.0822059
0.343348
0.511583
0.413668
0.780478
0.800031
0.702891
0.522685
0.368773
0.190796
0.487827
0.302049
0.814947
0.329704
0.467024
1
0.217136
0.0701586
0.0750518
0.0933432
0.208695
0.463809
0.202603
0.949901
0.152359
0.2112
0.151776
0.448924
0.230977
0.523178
0.194714
0.0482709
0.0717818
0.232183
0.175662
0.236032
0.167217
0.179867
0.847649
0.0807644
0.387163
0.176173
0.202842
0.187939
0.168756
0.0564067
0.084915
0.139277
0.0708453
0.364018
0.121436
0.423749
0.550072
0.468123
0.344729
0.298206
0.418861
0.2083
0.119867
0.259552
0.750705
0.72851
0.367181
0.370237
0.28372
0.130768
0.113509
0.0481674
0.0537738
0.0710621
0.108376
0.174911
0.212585
0.763392
0.891388
0.798255
0.847523
0.845147
0.813497
0.889022
0.888741
0.862954
0.829232
0.492047
0.252326
0.314063
0.572268
0.86367
0.860668
0.227988
0.234297
0.63503
0.453328
0.281012
0.41963
0.236259
0.563882
0.247382
0.194006
0.120594
0.154353
0.281013
0.888982
0.468076
0.549033
0.889126
0.870212
0.603399
0.888868
0.72999
0.870647
0.768921
0.608765
0.790228
0.849923
0.71472
0.875529
0.771818
0.833442
0.604494
0.773289
0.505519
0.581554
0.51209
0.713026
0.587847
0.857327
0.724486
0.491822
0.522815
0.631725
0.374896
0.661442
0.396978
0.874004
0.633165
0.617065
0.471596
0.850622
0.748895
0.775739
0.887377
0.794641
0.700069
0.968003
0.837824
0.67584
0.683969
0.690258
0.619374
0.638372
0.490353
0.808712
0.754057
0.586742
0.783809
0.563004
0.767648
0.707423
0.738149
0.580588
0.725088
0.397458
0.785461
0.632537
0.580844
0.760258
0.787039
0.655378
0.450355
0.68485
0.503748
0.820162
0.617656
0.762054
0.746108
0.63708
0.802256
0.635422
0.624139
0.491763
0.891789
0.669703
0.506878
0.608287
0.324136
0.67887
0.456188
0.369656
0.786062
0.682443
0.826262
0.589505
0.470686
0.672992
0.857284
0.657234
0.771289
0.771806
0.642289
0.700348
0.291277
0.628271
0.858715
0.836477
0.691117
0.870817
0.108747
0.468973
0.851584
0.621284
0.516546
0.31428
0.315215
0.201747
0.450282
0.722481
0.703569
0.950235
0.811442
0.771778
0.667342
0.308387
0.420782
0.839744
0.84256
0.768579
0.506384
0.312182
0.72224
0.782615
0.350438
0.589982
0.592316
0.859877
0.803061
0.810625
0.84884
0.629054
0.865599
0.857089
0.82922
0.521993
0.81412
0.830793
0.826178
0.696625
0.833426
0.737504
0.847741
0.426032
0.627548
0.453365
0.88375
0.691131
0.868498
0.575229
0.20043
0.460507
0.836355
0.832976
0.78941
0.599352
0.812718
0.645873
0.735532
0.408193
0.81474
0.25444
0.645344
0.629208
0.868426
0.239431
0.866004
0.86147
0.652101
0.740654
0.872591
0.101591
0.865878
0.117043
0.775094
0.707835
0.847291
0.553127
0.526877
0.884852
0.911017
0.906808
0.911015
0.895872
0.217269
0.865414
0.213794
0.312621
0.189858
0.363014
0.262024
0.860952
0.259385
0.321124
0.23985
0.83651
0.773549
0.831053
0.910658
0.919232
0.829147
0.783716
0.809678
0.818436
0.815205
0.803958
0.729595
0.490942
0.324687
0.804151
0.912209
0.510171
0.781129
0.524239
0.202443
0.417175
0.239598
0.447741
0.836298
0.779818
0.675863
0.417454
0.67291
0.520737
0.617076
0.760029
0.914124
0.892622
0.57316
0.12049
0.178568
0.642595
0.879865
0.112414
0.879869
0.198936
0.862995
0.16597
0.243959
0.324108
0.836117
0.186653
0.560674
0.455353
0.828337
0.408653
0.600659
0.0086503
0.00539427
0.28239
0.085216
0.0961542
0.0590301
0.00203151
0.0138561
0
0.081153
0.0390555
0.144477
0.694012
0.179308
0.581291
0.516739
0.517999
0.448026
0.0982977
0.0697059
0.00954561
0.0111293
0.110326
0.0637
0.00295589
0.0126269
0.718954
0.60476
0.469927
0.40672
0.00921935
0.00409753
0.162079
0.115669
0.0188021
0.0266609
0.107565
0.0809974
0.741532
0.485896
0.196005
0.479732
0.00181682
0.000231816
0.0848793
0.0627032
0.151768
0.0956127
0.00372504
0.00721388
0.70472
0.606822
0.768992
0.85034
0.181437
0.823042
0.14317
0.109139
0.0243971
0.00705629
0.467698
0.00470303
0.673305
0.26858
0.001744
0.000516116
0.125195
0.0540056
0.464791
0.706644
0.675544
0.890492
0.720747
0.53916
0.341565
0.709925
0.569589
0.645591
0.191013
0.0670356
0.0621715
0.0546866
0.013846
0.0398257
0.917409
0.02076
0.586133
0.532386
0.0426781
0.580619
0.552352
0.0933868
0.764874
0.11055
0.768018
0.663574
0.763466
0.518021
0.316902
0.519726
0.810297
0.821056
0.810811
0.0903089
0.119002
0.152692
0.0328941
0.0111104
0.966814
0.651676
0.493752
0.792875
0.0602426
0.638951
0.801255
0.107544
0.544456
0.747919
0.834241
0.72086
0.967105
0.331823
0.424696
0.825858
0.788394
0.709016
0.743371
0.544401
0.116394
0.678334
0.734621
0.590204
0.891044
0.724702
0.742393
0.68432
0.725587
0.00692035
0.182655
0.755753
0.821042
0.153546
0.663059
0.873979
0.746921
0.621616
0.609027
0.808662
0.767219
0.626003
