OFF
164 315 0
7.38532 18.5812 -5.90692
7.73732 18.1899 -5.55762
7.78332 18.1707 -6.26822
7.56932 18.3145 -6.43152
7.28632 18.2572 -6.57322
7.18632 18.5038 -6.26492
7.74532 17.805 -6.53332
7.73732 17.2585 -6.37722
7.38532 17.5552 -6.80982
7.38532 17.9201 -6.77862
7.05732 17.5666 -6.74302
6.83432 17.2584 -6.37722
6.82632 17.805 -6.53332
7.00232 18.1094 -6.61202
6.78832 18.1707 -6.26822
6.83432 18.1899 -5.55772
7.04632 18.5086 -5.79422
4.31432 5.41279 1.52898
4.14432 6.31589 1.27328
4.03332 5.42089 1.75438
3.47732 6.33579 1.42848
3.08432 5.41299 1.52758
3.56432 5.40619 1.84188
4.31532 5.40949 -0.162215
4.14432 6.31579 0.0819846
4.47832 5.42089 0.225285
4.47832 5.42089 1.14278
3.08232 5.40599 -0.163915
3.27632 6.31559 0.0819846
3.36432 5.42089 -0.386315
4.03332 5.42089 -0.386315
2.91932 5.42089 1.14278
3.11032 6.28919 0.679785
2.91232 5.41249 0.237485
4.41132 7.84549 0.812085
4.56132 7.81399 0.658685
5.06732 8.67269 0.322685
5.70532 9.60119 -0.129015
5.58632 9.58979 -0.0106154
5.15632 9.11769 0.240185
4.03532 7.40629 1.03678
6.34332 10.6145 -0.615215
6.89632 11.6653 -1.19302
6.80532 11.6837 -1.10662
6.21232 10.6286 -0.518915
6.67432 11.688 -1.09362
6.53532 11.6674 -1.22842
5.99132 10.6105 -0.613115
5.95532 10.3885 -0.407715
5.31932 9.58919 -0.0750154
4.08332 7.84309 0.780085
4.73232 8.77139 0.345985
4.59932 7.80669 0.264185
4.51132 7.80589 0.0409846
5.06332 8.69929 -0.198215
5.10132 8.65109 0.0183846
6.33732 10.5258 -0.815915
6.31232 10.6073 -1.04002
6.91732 11.6431 -1.47012
4.12232 7.80589 -0.0533154
3.75132 7.40619 0.115685
4.65632 8.66639 -0.233115
5.35932 9.58969 -0.592615
5.55832 9.59099 -0.631715
4.87332 8.65129 -0.294715
4.35132 7.81159 -0.0802154
6.00932 10.5901 -1.00422
6.55332 11.6398 -1.50292
6.64532 11.623 -1.59112
6.12732 10.5867 -1.08082
6.77932 11.6269 -1.60852
3.97132 7.85499 0.563385
5.26532 9.59579 -0.231015
3.94332 7.84799 0.387085
5.95732 10.604 -0.849715
5.24332 9.54939 -0.411515
3.93932 7.80589 0.197985
7.18632 12.7677 -1.75422
7.40132 13.7901 -2.43282
7.28132 13.8428 -2.34802
7.02732 12.7866 -1.71722
7.46132 14.715 -2.98712
7.48332 15.8613 -3.68952
7.32832 14.8062 -2.94122
7.20232 14.2834 -2.62872
7.08832 15.8613 -3.68952
7.10732 14.8671 -3.09082
7.05632 13.7906 -2.43272
6.91932 12.7651 -1.77892
7.21032 12.6697 -2.13422
7.39132 13.9832 -2.97612
7.42432 13.6947 -2.61872
7.25432 12.7205 -1.90542
7.42932 15.1987 -3.86642
7.52732 15.3248 -3.71522
7.49332 14.6172 -3.19942
6.90032 12.6743 -2.10592
7.02632 12.6534 -2.19242
7.04132 13.6854 -2.67102
7.17732 13.6224 -2.78652
7.13032 14.7422 -3.46182
7.22232 15.1768 -3.89912
7.24732 14.484 -3.37482
6.86532 12.7232 -1.90642
7.04432 15.3251 -3.71542
7.07032 14.6177 -3.19242
7.45732 17.1012 -4.40022
7.68832 17.5429 -4.90522
7.28632 16.868 -4.20322
7.28632 17.785 -4.85412
7.11432 17.1012 -4.40022
6.88332 17.5428 -4.90512
7.56532 16.0268 -4.49682
7.59132 16.1338 -4.11532
7.70332 16.7694 -5.74992
7.81332 16.945 -5.55142
7.85132 17.1841 -5.34722
7.80932 17.3927 -5.11972
7.09832 15.6899 -4.29152
7.06132 16.0722 -4.75242
7.36832 16.0246 -4.81102
7.33932 15.6432 -4.34152
6.86832 16.7695 -5.75002
7.06032 16.6345 -5.82452
7.28532 16.6121 -5.88612
7.51132 16.6345 -5.82452
6.98032 16.1339 -4.11542
6.72032 17.1842 -5.34712
6.76232 17.3928 -5.11982
6.75832 16.9449 -5.55142
6.97832 16.0957 -4.43102
7.53332 18.0834 -5.17872
7.28632 18.4137 -5.45382
7.52132 18.4044 -5.57882
7.03832 18.0834 -5.17872
7.87032 17.4414 -6.15512
7.91032 17.7703 -6.01982
7.87032 17.9462 -5.71072
7.04132 17.091 -6.46322
7.28532 17.1271 -6.58602
7.53032 17.091 -6.46322
6.70132 17.9462 -5.71082
6.66132 17.7703 -6.01982
6.70132 17.4414 -6.15492
3.97532 6.68419 1.29648
3.71732 6.34499 1.47808
4.28832 7.10529 0.950885
3.65732 7.13559 1.04978
3.28732 6.34519 1.26368
3.19932 6.41829 0.979585
3.51332 7.09879 0.805885
3.49632 7.12209 0.451785
3.19932 6.41819 0.354185
3.56832 6.68429 -0.00591536
3.71732 6.34509 -0.129415
3.69832 5.41299 -0.466315
4.00632 7.10679 -0.0386154
4.24432 7.09879 0.123385
3.95832 6.41839 -0.0627154
4.26232 6.41839 0.354185
4.30232 6.34499 0.674285
4.53932 5.40599 0.683085
4.36332 7.10259 0.454385
4.26232 6.41839 0.979585
3 0 1 2
3 0 2 3
3 3 4 5
3 5 0 3
3 6 7 8
3 6 8 9
3 9 4 3
3 3 2 6
3 3 6 9
3 10 11 12
3 10 12 13
3 12 14 13
3 13 4 9
3 9 8 10
3 9 10 13
3 14 15 16
3 14 16 5
3 16 0 5
3 5 4 13
3 13 14 5
3 17 18 19
3 20 21 22
3 23 24 25
3 26 18 17
3 27 28 29
3 30 24 23
3 31 32 33
3 33 28 27
3 34 35 36
3 36 37 38
3 36 38 34
3 38 39 34
3 39 40 34
3 41 42 43
3 41 43 44
3 43 45 44
3 44 39 38
3 38 37 41
3 38 41 44
3 45 46 47
3 45 47 48
3 47 49 48
3 48 39 44
3 44 45 48
3 50 40 39
3 50 39 51
3 39 48 51
3 48 49 51
3 52 53 54
3 52 54 55
3 54 56 55
3 57 58 56
3 56 54 57
3 37 56 41
3 56 58 42
3 56 42 41
3 35 52 55
3 35 55 36
3 55 56 37
3 55 37 36
3 59 60 61
3 62 63 64
3 62 64 61
3 64 65 59
3 64 59 61
3 66 67 68
3 66 68 69
3 68 70 69
3 69 63 62
3 62 66 69
3 70 58 57
3 57 54 63
3 63 69 57
3 69 70 57
3 54 53 65
3 54 65 64
3 63 54 64
3 71 50 51
3 51 49 72
3 51 72 71
3 72 73 71
3 46 74 47
3 74 72 47
3 72 49 47
3 67 66 74
3 66 62 75
3 66 75 74
3 75 72 74
3 74 46 67
3 61 60 76
3 61 76 75
3 76 73 75
3 73 72 75
3 75 62 61
3 43 42 77
3 77 78 79
3 79 80 77
3 80 45 43
3 80 43 77
3 81 82 83
3 79 78 81
3 79 81 83
3 84 85 86
3 86 87 84
3 84 79 83
3 88 46 45
3 88 45 80
3 80 79 84
3 84 87 88
3 84 88 80
3 89 90 91
3 91 92 89
3 92 58 89
3 90 93 94
3 90 94 95
3 91 90 95
3 78 91 95
3 78 95 81
3 95 94 81
3 77 42 92
3 42 58 92
3 92 91 78
3 78 77 92
3 68 67 96
3 68 96 97
3 96 98 99
3 96 99 97
3 97 70 68
3 100 101 102
3 99 98 100
3 99 100 102
3 90 99 102
3 102 101 93
3 102 93 90
3 89 58 70
3 70 97 89
3 97 99 90
3 97 90 89
3 46 88 103
3 88 87 103
3 87 98 103
3 86 104 105
3 105 98 87
3 105 87 86
3 104 100 105
3 100 98 105
3 67 46 103
3 67 103 96
3 103 98 96
3 83 82 106
3 82 107 106
3 108 83 106
3 106 109 108
3 108 109 110
3 85 84 110
3 84 83 108
3 84 108 110
3 110 111 85
3 94 93 112
3 113 94 112
3 112 114 115
3 115 116 112
3 116 113 112
3 107 113 117
3 113 116 117
3 82 81 113
3 81 94 113
3 113 107 82
3 101 100 118
3 119 120 121
3 119 121 118
3 121 101 118
3 119 122 123
3 123 124 120
3 123 120 119
3 125 114 112
3 125 112 120
3 120 124 125
3 112 93 121
3 93 101 121
3 120 112 121
3 86 85 126
3 85 111 126
3 126 104 86
3 127 126 128
3 126 111 128
3 129 122 119
3 129 119 130
3 130 126 127
3 127 129 130
3 118 100 104
3 118 104 130
3 104 126 130
3 130 119 118
3 106 107 131
3 107 1 131
3 131 132 109
3 109 106 131
3 1 0 133
3 0 132 133
3 132 131 133
3 131 1 133
3 15 134 16
3 134 132 16
3 132 0 16
3 111 110 134
3 110 109 134
3 109 132 134
3 134 15 111
3 114 7 135
3 114 135 115
3 135 136 116
3 135 116 115
3 7 6 135
3 6 2 136
3 6 136 135
3 2 1 137
3 136 2 137
3 116 136 137
3 116 137 117
3 137 1 107
3 137 107 117
3 122 11 138
3 122 138 123
3 138 139 124
3 138 124 123
3 11 10 138
3 10 8 139
3 10 139 138
3 8 7 140
3 139 8 140
3 124 139 140
3 124 140 125
3 140 7 114
3 140 114 125
3 111 15 141
3 111 141 128
3 141 142 127
3 141 127 128
3 15 14 141
3 14 142 141
3 12 11 143
3 142 14 12
3 142 12 143
3 127 142 143
3 127 143 129
3 143 11 122
3 143 122 129
3 19 18 144
3 145 22 19
3 145 19 144
3 146 35 34
3 146 34 144
3 34 40 144
3 40 145 144
3 144 18 146
3 147 148 20
3 20 145 40
3 20 40 147
3 40 50 147
3 148 21 20
3 20 22 145
3 31 21 148
3 31 148 149
3 32 31 149
3 147 50 71
3 147 71 150
3 71 73 151
3 71 151 150
3 151 32 149
3 151 149 150
3 149 148 147
3 149 147 150
3 76 60 151
3 60 28 152
3 60 152 151
3 152 32 151
3 151 73 76
3 28 33 152
3 33 32 152
3 29 28 153
3 154 155 29
3 154 29 153
3 60 59 153
3 59 65 156
3 59 156 153
3 156 154 153
3 153 28 60
3 65 53 157
3 65 157 156
3 157 24 158
3 157 158 156
3 158 154 156
3 24 30 158
3 30 155 154
3 30 154 158
3 25 24 159
3 160 161 25
3 160 25 159
3 157 53 52
3 157 52 162
3 162 160 159
3 159 24 157
3 159 157 162
3 146 18 163
3 163 160 162
3 163 162 146
3 162 52 35
3 162 35 146
3 18 26 163
3 26 161 160
3 26 160 163
3 21 31 33
3 155 30 23
3 23 25 161
