OFF
261 504 0
-8.33651 0.243221 -26.3965
-7.81001 -0.0137795 -26.2445
-7.57021 0.199921 -26.4415
-8.33481 0.532821 -26.6335
-7.59751 -0.101679 -26.6675
-8.36391 0.211821 -26.8745
-9.13101 -0.0248795 -26.5855
-9.10371 0.276721 -26.3595
-8.86671 0.0390205 -26.1875
-11.1674 -3.29008 -2.35849
-11.1129 -3.19738 -2.21449
-11.0131 -3.24048 -2.21449
-11.0725 -3.33098 -2.35849
-11.0743 -3.39228 -2.21449
-11.1282 -3.46938 -2.35849
-11.3583 -3.64728 -3.66249
-11.304 -3.51498 -3.66049
-11.3947 -3.47558 -3.65849
-11.9007 -4.28138 -2.21449
-12.2029 -4.15908 -2.21449
-12.1847 -4.15638 -2.35849
-11.8972 -4.27278 -2.35849
-12.377 -4.30238 -3.66649
-12.1019 -4.41448 -3.67049
-11.8263 -4.52548 -3.67549
-11.6094 -4.38798 -2.35849
-11.5981 -4.40258 -2.21449
-11.7428 -3.05848 -2.35849
-11.9446 -3.25268 -3.65049
-12.0372 -3.21768 -3.64849
-11.8396 -3.02218 -2.35849
-12.0917 -3.34998 -3.65049
-11.8953 -3.16058 -2.35849
-11.8807 -3.06768 -2.21449
-11.8196 -2.91578 -2.21449
-11.7178 -2.95388 -2.21449
-11.415 -3.07478 -2.21449
-11.4548 -3.17358 -2.35849
-11.6694 -3.36338 -3.65449
-10.1276 -1.94428 -14.9485
-12.1363 -3.88548 -13.1215
-12.0802 -3.90788 -13.1315
-10.0716 -1.95818 -14.9565
-12.1165 -3.98398 -13.1465
-10.0944 -2.03208 -14.9685
-8.16221 -0.475979 -17.5645
-8.15151 -0.396479 -17.5415
-8.21381 -0.390179 -17.5365
-12.5959 -4.42578 -13.1995
-12.7691 -4.36338 -13.1685
-10.6443 -2.45228 -14.9995
-10.4743 -2.48928 -15.0225
-8.66581 -0.985479 -17.6775
-8.47941 -1.00028 -17.6935
-8.29301 -1.01588 -17.7105
-10.3043 -2.52708 -15.0465
-12.4223 -4.48818 -13.2315
-10.4662 -1.86878 -14.9015
-8.58861 -0.360579 -17.5035
-8.65121 -0.356979 -17.4985
-10.5229 -1.85748 -14.8945
-8.66031 -0.436479 -17.5205
-10.5449 -1.93178 -14.9075
-12.5703 -3.81558 -13.0635
-12.5336 -3.73878 -13.0495
-12.4764 -3.75868 -13.0595
-12.3061 -3.82168 -13.0905
-10.2968 -1.90618 -14.9245
-8.40111 -0.374879 -17.5195
-7.75661 -0.807379 -20.7115
-7.67761 -0.81258 -20.7185
-7.68601 -0.909579 -20.7725
-7.85661 -1.94098 -23.4875
-7.84561 -1.82058 -23.3985
-7.94651 -1.81348 -23.3905
-8.29851 -1.55198 -21.1095
-8.05971 -1.56278 -21.1245
-8.64801 -2.73728 -24.0675
-8.34111 -2.75278 -24.0855
-8.03401 -2.76748 -24.1015
-7.82091 -1.57378 -21.1395
-8.23191 -0.786179 -20.6795
-8.55321 -1.78308 -23.3515
-8.65451 -1.77998 -23.3465
-8.31121 -0.784279 -20.6745
-8.66661 -1.90038 -23.4375
-8.31931 -0.881279 -20.7295
-7.99421 -0.796179 -20.6955
-8.24981 -1.79768 -23.3705
-7.97381 -2.02618 -24.4855
-7.85131 -2.03478 -24.4945
-7.86441 -2.17818 -24.6045
-7.74201 -1.78648 -25.0945
-7.72571 -1.60658 -24.9595
-7.88081 -1.59578 -24.9485
-8.82001 -3.12688 -25.3245
-8.44941 -3.14598 -25.3455
-8.94441 -2.97668 -25.9745
-8.47751 -3.00078 -26.0005
-8.01051 -3.02338 -26.0255
-8.07871 -3.16398 -25.3645
-8.70971 -1.98878 -24.4425
-8.81341 -1.54898 -24.8975
-8.96911 -1.54408 -24.8915
-8.83261 -1.98488 -24.4375
-8.98561 -1.72408 -25.0265
-8.84671 -2.12828 -24.5485
-8.34171 -2.00668 -24.4635
-8.34701 -1.57138 -24.9225
-7.71021 -0.67278 -25.7315
-7.49951 -0.687379 -25.7455
-7.52161 -0.93108 -25.9285
-9.15091 -2.54258 -27.1125
-8.51811 -2.57528 -27.1465
-9.07221 -2.23238 -27.8905
-8.55311 -2.14978 -28.1905
-8.01561 -2.28528 -27.9475
-7.88511 -2.60598 -27.1805
-8.97601 -0.609479 -25.6635
-9.18731 -0.602979 -25.6545
-9.20931 -0.846579 -25.8375
-8.34291 -0.63978 -25.6965
-10.9495 -2.91908 -2.16649
-11.2957 -2.77848 -2.16649
-11.6428 -2.63998 -2.16649
-11.7597 -2.59658 -2.16649
-11.8372 -2.78908 -2.16649
-12.2576 -4.16708 -2.16649
-11.9112 -4.30738 -2.16649
-11.5642 -4.44618 -2.16649
-10.9127 -3.16118 -2.16649
-10.8352 -2.96878 -2.16649
-12.0766 -4.03218 -7.17649
-12.3132 -3.93308 -7.15849
-12.7314 -4.55248 -10.7525
-12.9276 -4.46778 -10.7215
-13.1243 -4.38418 -10.6915
-12.5503 -3.83518 -7.14149
-13.1905 -4.35768 -10.6825
-12.6301 -3.80418 -7.13549
-13.2371 -4.45168 -10.6965
-12.681 -3.91828 -7.14449
-12.954 -4.74048 -7.20649
-12.7158 -4.83968 -7.22449
-13.4941 -5.12998 -10.8035
-13.295 -5.21468 -10.8335
-13.0954 -5.29848 -10.8645
-12.4771 -4.93798 -7.24149
-11.9984 -4.06688 -7.18249
-12.0488 -4.18098 -7.19049
-12.7125 -4.67598 -10.7765
-12.6667 -4.58208 -10.7625
-13.5758 -5.13008 -12.2805
-13.3956 -5.20548 -12.3145
-13.2149 -5.28028 -12.3495
-12.8778 -4.62918 -12.2285
-12.8196 -4.65578 -12.2395
-12.8621 -4.73778 -12.2555
-13.0542 -4.55308 -12.1945
-13.231 -4.47788 -12.1605
-13.2906 -4.45408 -12.1495
-13.334 -4.53648 -12.1645
-11.4965 -4.44128 -2.21449
-11.4477 -4.49038 -2.16649
-11.4356 -4.28998 -2.21449
-11.3706 -4.29868 -2.16649
-11.4573 -4.28708 -2.35849
-11.5128 -4.42488 -2.35849
-11.7338 -4.56098 -3.67649
-11.6797 -4.42918 -3.67449
-12.3467 -4.85528 -7.23949
-12.3969 -4.96918 -7.24749
-13.0285 -5.32508 -10.8745
-12.983 -5.23118 -10.8615
-13.113 -5.22238 -12.3475
-13.1548 -5.30418 -12.3615
-12.3652 -4.50848 -13.2435
-12.3303 -4.43318 -13.2305
-10.2282 -2.46798 -15.0435
-10.249 -2.54008 -15.0555
-8.23261 -1.02208 -17.7165
-8.22411 -0.944979 -17.6955
-7.73521 -1.48238 -21.0915
-7.74231 -1.57758 -21.1445
-7.93181 -2.77148 -24.1065
-7.92131 -2.65198 -24.0175
-7.94191 -3.02568 -25.2595
-7.95501 -3.16838 -25.3705
-7.85461 -3.02898 -26.0315
-7.83841 -2.84988 -25.8965
-7.65191 -2.37098 -27.0075
-7.67381 -2.61348 -27.1895
-7.78601 -2.18448 -28.2285
-7.75881 -1.88418 -28.0035
-8.53551 -1.68488 -28.2955
-8.56441 -2.00438 -28.5355
-9.31951 -2.10778 -28.1465
-9.29231 -1.80748 -27.9205
-9.09981 -2.96668 -25.9645
-9.08341 -2.78748 -25.8295
-9.33961 -2.28648 -26.9165
-9.36161 -2.52908 -27.0985
-8.75001 -2.73118 -24.0615
-8.73771 -2.61168 -23.9715
-8.92951 -2.97608 -25.2055
-8.94341 -3.11888 -25.3165
-8.72621 -0.981979 -17.6725
-8.71531 -0.905379 -17.6515
-8.36781 -1.45378 -21.0505
-8.37701 -1.54878 -21.1045
-12.8254 -4.34328 -13.1585
-12.7877 -4.26848 -13.1465
-10.6755 -2.36968 -14.9805
-10.6991 -2.44118 -14.9925
-13.5596 -5.10088 -10.7935
-13.5127 -5.00738 -10.7805
-13.5907 -5.02358 -12.2555
-13.6347 -5.10488 -12.2695
-12.4681 -4.26358 -3.66449
-12.4138 -4.13188 -3.66349
-12.9818 -4.59258 -7.19349
-13.0327 -4.70618 -7.20149
-12.303 -4.11668 -2.21449
-12.2421 -3.96538 -2.21449
-12.2244 -3.97838 -2.35849
-12.2799 -4.11608 -2.35849
-12.295 -3.92658 -2.16649
-12.3722 -4.11818 -2.16649
-11.255 -3.84128 -2.21449
-11.1417 -3.73008 -2.16649
-11.2928 -3.87838 -2.35849
-11.519 -4.03828 -3.66849
-12.1978 -4.51818 -7.21549
-12.8478 -4.95358 -10.8195
-12.2236 -4.20868 -13.1885
-12.9877 -4.98008 -12.3015
-8.19351 -0.71088 -17.6295
-10.1616 -2.25028 -15.0065
-7.88901 -2.29658 -23.7525
-7.71081 -1.19628 -20.9315
-7.79021 -2.31828 -25.4955
-7.90321 -2.60198 -24.9325
-7.67821 -0.99318 -27.3355
-7.58681 -1.65118 -26.4685
-9.21171 -0.91638 -27.2535
-8.44971 -0.73678 -27.5855
-9.03451 -2.25588 -25.4285
-9.27451 -1.56668 -26.3775
-8.70211 -2.25618 -23.7045
-8.88811 -2.55228 -24.8775
-8.68751 -0.671479 -17.5865
-8.34341 -1.16788 -20.8905
-12.6788 -4.04238 -13.1055
-10.6099 -2.15118 -14.9445
-13.3749 -4.72968 -10.7385
-13.4622 -4.78018 -12.2105
-12.2528 -3.74108 -3.65649
-12.8314 -4.25548 -7.16849
-12.0615 -3.51668 -2.21449
-12.0599 -3.56958 -2.35849
-12.0662 -3.35798 -2.16649
3 0 1 2
3 0 2 3
3 2 4 5
3 2 5 3
3 5 6 7
3 5 7 3
3 7 8 0
3 7 0 3
3 9 10 11
3 9 11 12
3 11 13 14
3 11 14 12
3 14 15 16
3 14 16 12
3 16 17 9
3 16 9 12
3 18 19 20
3 18 20 21
3 20 22 23
3 20 23 21
3 23 24 25
3 23 25 21
3 25 26 18
3 25 18 21
3 27 28 29
3 27 29 30
3 29 31 32
3 29 32 30
3 32 33 34
3 32 34 30
3 34 35 27
3 34 27 30
3 36 10 9
3 36 9 37
3 9 17 38
3 9 38 37
3 38 28 27
3 38 27 37
3 27 35 36
3 27 36 37
3 39 40 41
3 39 41 42
3 41 43 44
3 41 44 42
3 44 45 46
3 44 46 42
3 46 47 39
3 46 39 42
3 48 49 50
3 48 50 51
3 50 52 53
3 50 53 51
3 53 54 55
3 53 55 51
3 55 56 48
3 55 48 51
3 57 58 59
3 57 59 60
3 59 61 62
3 59 62 60
3 62 63 64
3 62 64 60
3 64 65 57
3 64 57 60
3 66 40 39
3 66 39 67
3 39 47 68
3 39 68 67
3 68 58 57
3 68 57 67
3 57 65 66
3 57 66 67
3 69 47 46
3 69 46 70
3 46 45 71
3 46 71 70
3 71 72 73
3 71 73 70
3 73 74 69
3 73 69 70
3 53 52 75
3 53 75 76
3 75 77 78
3 75 78 76
3 78 79 80
3 78 80 76
3 80 54 53
3 80 53 76
3 81 82 83
3 81 83 84
3 83 85 86
3 83 86 84
3 86 61 59
3 86 59 84
3 59 58 81
3 59 81 84
3 68 47 69
3 68 69 87
3 69 74 88
3 69 88 87
3 88 82 81
3 88 81 87
3 81 58 68
3 81 68 87
3 89 74 73
3 89 73 90
3 73 72 91
3 73 91 90
3 91 92 93
3 91 93 90
3 93 94 89
3 93 89 90
3 78 77 95
3 78 95 96
3 95 97 98
3 95 98 96
3 98 99 100
3 98 100 96
3 100 79 78
3 100 78 96
3 101 102 103
3 101 103 104
3 103 105 106
3 103 106 104
3 106 85 83
3 106 83 104
3 83 82 101
3 83 101 104
3 88 74 89
3 88 89 107
3 89 94 108
3 89 108 107
3 108 102 101
3 108 101 107
3 101 82 88
3 101 88 107
3 109 94 93
3 109 93 110
3 93 92 111
3 93 111 110
3 111 4 2
3 111 2 110
3 2 1 109
3 2 109 110
3 98 97 112
3 98 112 113
3 112 114 115
3 112 115 113
3 115 116 117
3 115 117 113
3 117 99 98
3 117 98 113
3 118 8 7
3 118 7 119
3 7 6 120
3 7 120 119
3 120 105 103
3 120 103 119
3 103 102 118
3 103 118 119
3 108 94 109
3 108 109 121
3 109 1 0
3 109 0 121
3 0 8 118
3 0 118 121
3 118 102 108
3 118 108 121
3 122 10 36
3 122 36 123
3 36 35 124
3 36 124 123
3 124 35 34
3 124 34 125
3 34 33 126
3 34 126 125
3 127 19 18
3 127 18 128
3 18 26 129
3 18 129 128
3 130 13 11
3 130 11 131
3 11 10 122
3 11 122 131
3 38 17 132
3 38 132 133
3 132 134 135
3 132 135 133
3 135 136 137
3 135 137 133
3 137 28 38
3 137 38 133
3 137 136 138
3 137 138 139
3 138 140 141
3 138 141 139
3 141 31 29
3 141 29 139
3 29 28 137
3 29 137 139
3 23 22 142
3 23 142 143
3 142 144 145
3 142 145 143
3 145 146 147
3 145 147 143
3 147 24 23
3 147 23 143
3 132 17 16
3 132 16 148
3 16 15 149
3 16 149 148
3 149 150 151
3 149 151 148
3 151 134 132
3 151 132 148
3 145 144 152
3 145 152 153
3 152 49 48
3 152 48 153
3 48 56 154
3 48 154 153
3 154 146 145
3 154 145 153
3 155 134 151
3 155 151 156
3 151 150 157
3 151 157 156
3 157 43 41
3 157 41 156
3 41 40 155
3 41 155 156
3 135 134 155
3 135 155 158
3 155 40 66
3 155 66 158
3 66 65 159
3 66 159 158
3 159 136 135
3 159 135 158
3 159 65 64
3 159 64 160
3 64 63 161
3 64 161 160
3 161 140 138
3 161 138 160
3 138 136 159
3 138 159 160
3 129 26 162
3 129 162 163
3 162 164 165
3 162 165 163
3 166 164 162
3 166 162 167
3 162 26 25
3 162 25 167
3 25 24 168
3 25 168 167
3 168 169 166
3 168 166 167
3 170 169 168
3 170 168 171
3 168 24 147
3 168 147 171
3 147 146 172
3 147 172 171
3 172 173 170
3 172 170 171
3 174 173 172
3 174 172 175
3 172 146 154
3 172 154 175
3 154 56 176
3 154 176 175
3 176 177 174
3 176 174 175
3 178 177 176
3 178 176 179
3 176 56 55
3 176 55 179
3 55 54 180
3 55 180 179
3 180 181 178
3 180 178 179
3 182 181 180
3 182 180 183
3 180 54 80
3 180 80 183
3 80 79 184
3 80 184 183
3 184 185 182
3 184 182 183
3 186 185 184
3 186 184 187
3 184 79 100
3 184 100 187
3 100 99 188
3 100 188 187
3 188 189 186
3 188 186 187
3 190 189 188
3 190 188 191
3 188 99 117
3 188 117 191
3 117 116 192
3 117 192 191
3 192 193 190
3 192 190 191
3 194 193 192
3 194 192 195
3 192 116 115
3 192 115 195
3 115 114 196
3 115 196 195
3 196 197 194
3 196 194 195
3 198 199 200
3 198 200 201
3 200 197 196
3 200 196 201
3 196 114 112
3 196 112 201
3 112 97 198
3 112 198 201
3 202 203 204
3 202 204 205
3 204 199 198
3 204 198 205
3 198 97 95
3 198 95 205
3 95 77 202
3 95 202 205
3 206 207 208
3 206 208 209
3 208 203 202
3 208 202 209
3 202 77 75
3 202 75 209
3 75 52 206
3 75 206 209
3 210 211 212
3 210 212 213
3 212 207 206
3 212 206 213
3 206 52 50
3 206 50 213
3 50 49 210
3 50 210 213
3 214 215 216
3 214 216 217
3 216 211 210
3 216 210 217
3 210 49 152
3 210 152 217
3 152 144 214
3 152 214 217
3 218 219 220
3 218 220 221
3 220 215 214
3 220 214 221
3 214 144 142
3 214 142 221
3 142 22 218
3 142 218 221
3 222 223 224
3 222 224 225
3 224 219 218
3 224 218 225
3 218 22 20
3 218 20 225
3 20 19 222
3 20 222 225
3 226 223 222
3 226 222 227
3 222 19 127
3 222 127 227
3 228 13 130
3 228 130 229
3 165 164 228
3 165 228 229
3 14 13 228
3 14 228 230
3 228 164 166
3 228 166 230
3 166 169 231
3 166 231 230
3 231 15 14
3 231 14 230
3 149 15 231
3 149 231 232
3 231 169 170
3 231 170 232
3 170 173 233
3 170 233 232
3 233 150 149
3 233 149 232
3 234 43 157
3 234 157 235
3 157 150 233
3 157 233 235
3 233 173 174
3 233 174 235
3 174 177 234
3 174 234 235
3 236 45 44
3 236 44 237
3 44 43 234
3 44 234 237
3 234 177 178
3 234 178 237
3 178 181 236
3 178 236 237
3 238 72 71
3 238 71 239
3 71 45 236
3 71 236 239
3 236 181 182
3 236 182 239
3 182 185 238
3 182 238 239
3 240 92 91
3 240 91 241
3 91 72 238
3 91 238 241
3 238 185 186
3 238 186 241
3 186 189 240
3 186 240 241
3 242 4 111
3 242 111 243
3 111 92 240
3 111 240 243
3 240 189 190
3 240 190 243
3 190 193 242
3 190 242 243
3 244 6 5
3 244 5 245
3 5 4 242
3 5 242 245
3 242 193 194
3 242 194 245
3 194 197 244
3 194 244 245
3 246 105 120
3 246 120 247
3 120 6 244
3 120 244 247
3 244 197 200
3 244 200 247
3 200 199 246
3 200 246 247
3 248 85 106
3 248 106 249
3 106 105 246
3 106 246 249
3 246 199 204
3 246 204 249
3 204 203 248
3 204 248 249
3 250 61 86
3 250 86 251
3 86 85 248
3 86 248 251
3 248 203 208
3 248 208 251
3 208 207 250
3 208 250 251
3 252 63 62
3 252 62 253
3 62 61 250
3 62 250 253
3 250 207 212
3 250 212 253
3 212 211 252
3 212 252 253
3 254 140 161
3 254 161 255
3 161 63 252
3 161 252 255
3 252 211 216
3 252 216 255
3 216 215 254
3 216 254 255
3 256 31 141
3 256 141 257
3 141 140 254
3 141 254 257
3 254 215 220
3 254 220 257
3 220 219 256
3 220 256 257
3 258 33 32
3 258 32 259
3 32 31 256
3 32 256 259
3 256 219 224
3 256 224 259
3 224 223 258
3 224 258 259
3 126 33 258
3 126 258 260
3 258 223 226
3 258 226 260
