OFF
200 389 0
18.9561 0.622762 -9.2878
18.7991 0.459562 -8.6655
19.2731 0.794862 -8.9702
19.2871 0.775262 -9.5195
19.5311 0.812662 -9.474
19.5581 0.651162 -8.8406
19.5781 0.262362 -8.4654
19.7641 0.422262 -8.9515
19.7361 0.614762 -9.4793
19.8051 0.251462 -9.0948
19.7461 0.103962 -9.2571
19.5901 -0.0563381 -9.4019
19.3301 -0.00503805 -9.5701
19.4161 0.500662 -9.711
19.1371 0.0827619 -9.5804
18.7791 -0.170438 -9.2661
18.9311 0.311962 -9.4691
6.34608 -4.99814 -3.1867
7.22608 -5.24904 -3.3221
6.24708 -5.56274 -3.6239
10.3701 -4.92584 -1.9169
9.81508 -5.22404 -1.9201
11.3341 -4.70344 -1.7851
12.4001 -4.22614 -1.7472
12.2471 -4.18404 -1.836
12.0351 -4.17184 -2.0955
11.0011 -4.60654 -2.0163
9.92408 -4.93444 -2.1036
13.5091 -3.63024 -1.8015
14.2811 -3.00964 -2.042
14.1931 -2.98204 -2.1825
13.2871 -3.63134 -1.9121
13.2131 -3.60504 -2.1076
14.1681 -3.02524 -2.4692
13.2111 -3.66754 -2.401
12.0341 -4.19324 -2.3378
10.8521 -4.61964 -2.4172
9.73708 -4.91974 -2.5404
9.79809 -4.90724 -2.3113
10.8931 -4.59754 -2.2103
10.7071 -5.38014 -2.2398
10.7371 -5.43984 -2.4617
11.8451 -5.00664 -2.2579
11.7961 -4.94934 -2.0654
12.9171 -4.48034 -2.0832
12.7861 -4.42234 -1.8768
11.6791 -4.87044 -1.9077
10.6061 -5.28914 -2.05
13.9521 -3.85944 -2.0538
14.7321 -3.13204 -2.0665
13.7921 -3.75814 -1.8393
14.4701 -3.02944 -1.9911
12.5681 -4.28844 -1.7434
10.4551 -5.18344 -1.9198
11.5171 -4.78384 -1.8068
10.3721 -5.36264 -3.0411
9.62208 -5.41484 -3.2115
11.3501 -4.92094 -2.8776
11.5311 -4.98154 -2.8
12.5381 -4.44634 -2.6648
12.6931 -4.48864 -2.5775
12.9611 -4.47244 -2.3177
11.6891 -5.01874 -2.6525
10.5431 -5.42354 -2.891
13.6621 -3.87684 -2.5466
14.7581 -3.19364 -2.5623
13.9451 -3.84694 -2.3738
14.8181 -3.20374 -2.2811
10.6741 -5.45184 -2.6883
11.8021 -5.02844 -2.4627
9.80308 -5.00494 -2.8385
10.8991 -4.67664 -2.6076
12.1591 -4.25534 -2.5402
11.0121 -4.75484 -2.7612
14.3211 -3.11634 -2.6385
13.4631 -3.77654 -2.5722
14.5201 -3.20524 -2.6488
12.3721 -4.38424 -2.6701
10.0081 -5.17344 -3.0697
11.1701 -4.84084 -2.8579
14.9151 -2.30554 -2.4906
15.4901 -1.58694 -3.0743
15.4181 -1.64024 -3.1968
14.8801 -2.32194 -2.7513
15.9021 -1.01034 -3.7769
16.4441 -0.521938 -4.4562
16.3041 -0.663938 -4.6327
15.8661 -1.16814 -3.9618
16.3491 -0.813938 -4.7773
16.4641 -0.933538 -4.8435
15.9891 -1.26214 -4.1095
15.5571 -1.83294 -3.4702
15.4531 -1.73274 -3.3781
14.9391 -2.41774 -2.9118
15.4481 -2.41874 -2.4957
15.3091 -2.37504 -2.407
15.9571 -1.74254 -3.0073
15.8301 -1.63304 -2.9645
15.6431 -1.56094 -3.0049
15.1081 -2.35114 -2.3703
16.7621 -0.577538 -4.3871
16.0951 -0.964938 -3.6589
16.3501 -1.03304 -3.6437
15.3471 -2.55854 -2.9133
15.5121 -2.47674 -2.7472
15.8721 -1.90334 -3.447
15.9981 -1.86974 -3.2222
16.4251 -1.33874 -4.001
16.7731 -0.990238 -4.7736
16.9131 -0.848538 -4.592
16.4581 -1.19144 -3.7446
16.8761 -0.697538 -4.4532
15.0931 -2.50774 -2.9744
16.1531 -1.34454 -4.122
16.8271 -0.401638 -5.2722
17.3691 -0.395238 -5.9101
17.2821 -0.613538 -6.251
16.7801 -0.623638 -5.476
17.7651 -0.488538 -6.4096
18.1451 -0.837838 -7.4732
17.8021 -0.958838 -7.089
17.3691 -0.850138 -6.2911
16.8761 -0.770438 -5.5662
17.2681 -0.460438 -5.1466
17.0991 -0.375038 -5.1399
17.6691 -0.458438 -5.8182
18.5391 -0.801438 -7.0113
18.5171 -0.755938 -7.2336
17.3061 -0.829338 -5.4396
17.6661 -0.914538 -6.2109
17.8091 -0.696338 -5.9407
17.3561 -0.606438 -5.2285
18.1661 -1.06894 -6.8882
18.3121 -0.890938 -6.7055
17.0421 -0.856038 -5.5727
18.0751 -1.12624 -7.5793
17.9331 -1.06664 -7.0114
18.4681 -0.196038 -7.8388
18.2601 -0.417238 -8.1702
18.2111 -0.893138 -8.1958
18.4111 -0.839138 -8.5744
18.3571 -1.25834 -8.1954
18.8411 -0.997738 -7.2423
19.2441 -0.388138 -7.7396
18.9381 -0.234038 -7.6628
18.8641 -1.36364 -7.6886
19.1701 -0.942238 -7.6049
19.0701 -1.29084 -7.9317
18.5181 -1.42434 -7.9265
18.7541 -1.37664 -8.166
18.5641 0.159462 -8.6176
18.6791 0.234762 -9.06
18.4931 -0.301338 -8.855
19.3111 0.211862 -8.2017
19.2231 0.529162 -8.5157
18.8671 0.323562 -8.3148
19.3731 -0.748438 -8.6948
19.5221 -0.566238 -8.585
19.5431 -0.451638 -8.339
19.5461 -0.201038 -8.2375
18.7771 -0.617838 -9.008
18.9651 -0.764538 -8.9187
19.2171 -0.731638 -8.8917
7.29508 -5.45174 -2.2348
6.49108 -5.75564 -2.2522
8.11708 -5.57084 -2.0918
8.66308 -5.32064 -2.0816
7.84408 -5.25814 -2.3085
6.48908 -5.29124 -2.4184
8.98508 -5.12874 -2.1941
8.79208 -5.05764 -2.5724
7.82208 -5.10514 -2.7643
8.08908 -5.13264 -2.5006
6.41608 -4.95904 -2.8999
7.30608 -5.12394 -2.5829
7.89008 -5.16254 -3.0101
8.64709 -5.25424 -3.1228
8.80108 -5.12554 -2.8893
8.54508 -5.41764 -3.3062
7.74809 -5.62974 -3.4759
7.03408 -5.42084 -3.4918
8.32808 -5.75874 -3.3565
7.30808 -5.83894 -3.4718
8.10608 -5.93374 -3.2648
6.16108 -6.12314 -3.4416
9.29109 -5.61184 -3.2239
9.44708 -5.70834 -3.0721
9.64209 -5.77234 -2.6222
9.57208 -5.76624 -2.8618
8.25708 -6.09774 -2.7979
8.55509 -5.98934 -2.9898
6.23708 -6.43054 -2.9744
7.40808 -6.17354 -3.1174
8.22009 -6.05724 -2.5388
9.63408 -5.71334 -2.3825
9.56308 -5.60924 -2.1734
8.25809 -5.91564 -2.3046
9.07708 -5.56644 -2.0578
6.42708 -6.04604 -2.33
6.34108 -6.30524 -2.5468
3 0 1 2
3 0 2 3
3 2 4 3
3 5 6 7
3 5 7 8
3 7 9 8
3 4 2 5
3 4 5 8
3 10 11 8
3 11 12 13
3 11 13 8
3 13 4 8
3 8 9 10
3 14 15 16
3 14 16 13
3 16 0 3
3 16 3 13
3 3 4 13
3 13 12 14
3 17 18 19
3 20 21 22
3 22 23 24
3 22 24 20
3 24 25 26
3 24 26 20
3 26 27 20
3 28 29 30
3 28 30 31
3 30 32 31
3 32 25 24
3 32 24 31
3 24 23 28
3 24 28 31
3 33 34 32
3 34 35 25
3 34 25 32
3 32 30 33
3 36 37 38
3 36 38 39
3 38 27 26
3 38 26 39
3 26 25 39
3 25 35 36
3 25 36 39
3 40 41 42
3 40 42 43
3 42 44 45
3 42 45 43
3 45 46 43
3 46 47 40
3 46 40 43
3 48 49 50
3 49 51 50
3 45 44 48
3 45 48 50
3 51 29 28
3 28 23 52
3 52 45 50
3 52 50 28
3 50 51 28
3 22 21 53
3 22 53 54
3 53 47 46
3 53 46 54
3 46 45 52
3 46 52 54
3 52 23 22
3 52 22 54
3 55 56 57
3 55 57 58
3 57 59 60
3 57 60 58
3 60 61 62
3 60 62 58
3 62 63 55
3 62 55 58
3 64 65 66
3 65 67 66
3 66 61 60
3 60 59 64
3 60 64 66
3 67 49 48
3 48 44 61
3 61 66 48
3 66 67 48
3 42 41 68
3 42 68 69
3 68 63 62
3 68 62 69
3 62 61 69
3 61 44 42
3 61 42 69
3 70 37 36
3 70 36 71
3 36 35 72
3 36 72 71
3 72 73 71
3 73 70 71
3 34 33 74
3 74 75 34
3 75 72 34
3 72 35 34
3 76 65 64
3 76 64 75
3 64 59 77
3 64 77 75
3 77 72 75
3 75 74 76
3 57 56 78
3 57 78 79
3 78 70 73
3 78 73 79
3 73 72 77
3 73 77 79
3 77 59 57
3 77 57 79
3 30 29 80
3 80 81 82
3 82 83 80
3 83 30 80
3 84 85 86
3 86 87 84
3 87 82 84
3 82 81 84
3 88 89 90
3 88 90 87
3 90 91 92
3 90 92 87
3 92 82 87
3 87 86 88
3 93 33 83
3 33 30 83
3 83 82 92
3 92 91 93
3 92 93 83
3 49 94 95
3 94 96 97
3 94 97 95
3 97 98 99
3 97 99 95
3 99 51 49
3 99 49 95
3 100 85 101
3 100 101 102
3 101 98 97
3 101 97 102
3 97 96 102
3 85 84 101
3 84 81 98
3 84 98 101
3 80 29 51
3 80 51 99
3 98 81 80
3 98 80 99
3 65 103 104
3 103 105 106
3 103 106 104
3 104 67 65
3 107 108 109
3 109 110 107
3 110 106 107
3 106 105 107
3 111 100 102
3 111 102 110
3 102 96 110
3 96 106 110
3 110 109 111
3 94 49 67
3 67 104 94
3 104 106 96
3 104 96 94
3 74 33 93
3 74 93 112
3 93 91 112
3 91 105 112
3 90 89 113
3 89 108 113
3 113 105 91
3 91 90 113
3 105 113 107
3 113 108 107
3 103 65 76
3 76 74 112
3 76 112 103
3 112 105 103
3 86 85 114
3 114 115 116
3 116 117 114
3 117 86 114
3 118 119 116
3 116 115 118
3 120 121 116
3 116 119 120
3 122 89 88
3 122 88 117
3 88 86 117
3 116 121 122
3 116 122 117
3 100 123 124
3 123 125 124
3 125 115 124
3 124 85 100
3 126 127 118
3 118 115 125
3 125 126 118
3 127 119 118
3 85 124 114
3 124 115 114
3 109 108 128
3 128 129 130
3 130 131 128
3 131 109 128
3 130 129 132
3 130 132 133
3 126 125 130
3 126 130 133
3 123 100 111
3 123 111 131
3 111 109 131
3 130 125 123
3 130 123 131
3 89 122 134
3 122 121 134
3 121 129 134
3 134 108 89
3 120 135 136
3 136 129 121
3 121 120 136
3 129 136 132
3 108 134 128
3 134 129 128
3 119 137 138
3 138 135 119
3 139 140 141
3 141 135 139
3 135 138 139
3 120 119 135
3 126 142 127
3 142 143 144
3 142 144 127
3 137 119 127
3 127 144 137
3 133 132 145
3 142 133 145
3 146 142 145
3 146 145 147
3 146 143 142
3 126 133 142
3 136 135 148
3 135 141 148
3 149 148 141
3 147 145 148
3 147 148 149
3 145 132 148
3 132 136 148
3 137 1 150
3 137 150 138
3 150 151 138
3 151 150 0
3 150 1 0
3 15 152 16
3 152 151 16
3 151 0 16
3 140 139 152
3 139 138 152
3 138 151 152
3 152 15 140
3 143 6 153
3 143 153 144
3 153 154 144
3 5 2 154
3 154 153 5
3 153 6 5
3 1 155 2
3 155 154 2
3 144 154 155
3 144 155 137
3 155 1 137
3 147 156 157
3 158 146 147
3 158 147 157
3 9 158 157
3 9 157 10
3 157 156 11
3 157 11 10
3 6 159 7
3 159 158 9
3 159 9 7
3 143 146 159
3 146 158 159
3 159 6 143
3 141 140 160
3 140 15 160
3 161 149 141
3 161 141 160
3 12 161 160
3 12 160 14
3 160 15 14
3 11 156 162
3 162 161 12
3 162 12 11
3 156 147 149
3 156 149 162
3 149 161 162
3 163 164 165
3 165 166 163
3 166 167 163
3 167 168 163
3 21 20 166
3 20 27 169
3 20 169 166
3 169 167 166
3 166 165 21
3 38 37 170
3 170 171 172
3 172 167 169
3 172 169 170
3 169 27 38
3 169 38 170
3 171 173 174
3 174 168 167
3 167 172 174
3 172 171 174
3 17 173 171
3 17 171 175
3 175 176 18
3 18 17 175
3 170 37 70
3 170 70 177
3 70 176 177
3 176 175 177
3 175 171 170
3 175 170 177
3 78 56 178
3 56 179 178
3 176 70 78
3 176 78 178
3 18 176 178
3 18 178 180
3 178 179 180
3 179 181 182
3 181 183 182
3 183 184 182
3 56 55 185
3 55 63 186
3 55 186 185
3 186 183 181
3 186 181 185
3 181 179 56
3 181 56 185
3 68 41 187
3 68 187 188
3 187 189 190
3 187 190 188
3 190 183 186
3 190 186 188
3 186 63 68
3 186 68 188
3 189 191 192
3 192 184 183
3 183 190 192
3 190 189 192
3 193 191 189
3 187 41 40
3 187 40 194
3 40 47 195
3 40 195 194
3 195 196 193
3 195 193 194
3 193 189 187
3 193 187 194
3 53 21 197
3 21 165 197
3 197 196 195
3 195 47 53
3 195 53 197
3 165 164 198
3 196 197 198
3 197 165 198
3 180 179 19
3 19 18 180
3 19 179 182
3 184 19 182
3 191 184 192
3 193 196 199
3 199 191 193
3 199 196 198
3 168 164 163
3 173 168 174
