0.248228
0.329644
0.34892
0.550883
0.514599
0.617952
0.508466
0.422791
0.593552
0.538148
0.470627
0.637037
0.265581
0.449784
0.39744
0.46731
0.638255
0.582313
0.580042
0.500408
0.750541
0.462131
0.494907
0.338065
0.463388
0.591015
0.451557
0.345947
0.608904
0.969075
0.877607
0.517984
0.75388
0.387362
0.481217
0.848421
0.918604
0.786963
0.815897
0.158429
0.641429
0.548828
0.466243
0.588661
0.465629
0.411987
0.597495
0.341199
0.876782
0.670912
0.0955308
0.535193
0.169902
0.087163
0.478749
0.668705
0.420239
0.775134
0.263913
0.408743
0.791661
0.585155
0.327241
0.371499
0.799804
0.888068
0.851559
0.197407
0.630466
0.367452
0.342684
0.355205
0.726273
0.260619
0.353354
0.25477
0.73069
0.611828
1
0.439607
0.171964
0.628969
0.200524
0.365103
0.522263
0.447387
0.874394
0.427025
0.472253
0.244501
0.0678477
0.163134
0.919131
0.640336
0.579328
0.612147
0.870992
0.205593
0.419893
0.23294
0.50597
0.77431
0.821143
0.525025
0.0567775
0.566991
0.86801
0.853734
0.720852
0.676498
0.681385
0.635453
0.604828
0.569892
0.859536
0.742235
0.647485
0.462191
0.467292
0.555141
0.628619
0.544755
0.6131
0.514144
0.457251
0.471205
0.640352
0.51802
0.528894
0.611457
0.480633
0.543816
0.355429
0.438888
0.650174
0.692504
0.540193
0.625422
0.677079
0.421695
0.823852
0.493507
0.555802
0.535713
0.505849
0.433731
0.718855
0.649546
0.634525
0.378784
0.222837
0.468518
0.786474
0.452038
0.30587
0.216443
0.584438
0.572153
0.234974
0.44972
0.430014
0.637098
0.538213
0.476753
0.736404
0.801503
0.391159
0.763685
0.457699
0.146492
0.604307
0.513599
0.629967
0.25067
0.305965
0.517453
0.562803
0.445201
0.753709
0.763297
0.415249
0.304822
0.53173
0.529753
0.51161
0.743325
0.627522
0.527366
0.608064
0.47748
0.612332
0.566415
0.61909
0.62614
0.492471
0.49384
0.365919
0.64156
0.554792
0.690875
0.555663
0.506958
0.434308
0.633484
0.616729
0.342953
0.630938
0.574699
0.473837
0.500072
0.70899
0.601721
0.435881
0.503527
0.314974
0.372707
0.33181
0.543905
0.624103
0.509456
0.491423
0.425382
0.680911
0.303748
0.328105
0.627095
0.375356
0.472413
0.602009
0.908304
0.353661
0.598144
0.459745
0.67946
0.493737
0.760548
0.3936
0.490328
0.576741
0.579902
0.580643
0.582147
0.532233
0.623764
0.374133
0.297082
0.57391
0.510931
0.557444
0.44635
0.565041
0.554369
0.325771
0.300961
0.593333
0.499457
0.545913
0.492223
0.504443
0.486941
0.377572
0.518939
0.51307
0.486178
0.600376
0.52937
0.551006
0.457254
0.490134
0.493474
0.547257
0.482111
0.508951
0.572186
0.450988
0.55925
0.313259
0.20513
0.30787
0.397672
0.440896
0.294365
0.531668
0.459899
0.420645
0.319715
0.472657
0.58331
0.334182
0.420931
0.372293
0.259842
0.407918
0.596281
0.507811
0.498386
0.506207
0.306844
0.557558
0.569769
0.537507
0.455038
0.52978
0.539556
0.540639
0.488246
0.476658
0.559512
0.642141
0.464802
0.52298
0.287672
0.456607
0.503541
0.42349
0.540661
0.59256
0.247952
0.451282
0.488776
0.50352
0.580255
0.521458
0.889049
0.425982
0.389978
0.425899
0.598877
0.524625
0.591561
0.562701
0.562101
0.548056
0.329221
0.577205
0.40974
0.305704
0.629263
0.281877
0.377235
0.601348
0.483998
0.254248
0.410866
0.411166
0.35211
0.417481
0.498443
0.374613
0.4839
0.61652
0.335176
0.440538
0.328603
0.321588
0.493742
0.68497
0.288146
0.336743
0.487742
0.457021
0.653736
0.563207
0.541173
0.146243
0.287312
0.0604378
0.203192
0.301715
0.270108
0.338224
0.315502
0.381071
0.138993
0.67533
0.408185
0.360766
0.0348827
0.0720262
0.0873948
0.197893
0.327722
0.657424
0.387538
0.227466
0.550096
0.141807
0.181771
0.33881
0.322022
0.310875
0.200053
0.0988861
0.18846
0.109382
0.140447
0.329929
0.0507597
0.0956405
0.24382
0.167164
0.147089
0.242248
0.124207
0.185428
0.160952
0.128893
0.138815
0.0791891
0.0837954
0.209287
0.212434
0.232084
0.161986
0.0801227
0.234119
0.103567
0.413895
0.0802161
0.366566
0.325686
0.0973308
0.279894
0.0797564
0.446787
0.355503
0.15994
0.264281
0.212916
0.309113
0.121523
0.339128
0.125709
0.466204
0.398916
0.48871
0.296929
0.360732
0.27514
0.39491
0.557434
0.637578
0.232537
0.341418
0.344239
0.384571
0.545527
0.382724
0.565809
0.286752
0.195629
0.35029
0.224193
0.349842
0.267737
0.230914
0.378972
0.211999
0.132709
0.299934
0.104906
0.0513983
0.594759
0.360722
0.133588
0.26832
0.246073
0.285151
0.111673
0.160279
0.103687
0.0957102
0.263849
0.127098
0.124172
0.45076
0.10732
0.0443839
0.279195
0.0776099
0.130944
0.193542
0.115615
0.150273
0
0.109411
0.0413462
0.0345276
0.900256
0.833218
0.880398
0.52795
0.875874
0.49344
0.838966
0.783148
0.357307
0.361503
0.387344
0.64085
0.636692
0.405265
0.546322
0.679291
0.403396
0.780032
0.182488
0.738199
0.486514
0.597704
0.401498
0.543405
0.501043
0.541414
0.380987
0.541217
0.321485
0.800636
0.467659
0.476879
0.499161
0.763278
0.489903
0.545409
0.786662
0.507834
0.233393
0.31819
0.406459
0.651374
0.434575
0.195169
0.474759
0.392405
0.399162
0.524344
0.542467
0.829492
0.730224
0.337679
0.541408
0.596115
0.370135
0.724299
0.404504
0.258988
0.437867
0.21118
0.2174
0.768249
0.650898
0.660919
0.22097
0.584062
0.593219
0.654004
0.332535
0.448268
0.143077
0.336734
0.663878
0.620274
0.199217
0.7414
0.820875
0.633587
0.359534
0.761201
0.64578
0.471009
0.629546
0.450009
0.216046
0.457062
0.415525
0.818498
0.368631
0.467381
0.827918
0.522053
0.712736
0.588525
0.591235
0.355205
0.475119
0.408212
0.688418
0.822113
0.61859
0.809687
0.0930489
0.380612
0.215398
0.312335
0.760956
0.330001
0.554174
0.564027
0.271165
0.637316
0.132381
0.110754
