OFF
453 888 0
-7.68729 12.2348 1.30202
-7.64929 12.1829 2.23601
-7.15229 12.5973 2.17816
-7.17329 12.6633 1.26974
-6.55629 12.7354 2.10873
-6.55629 12.8061 1.23101
-6.55629 12.7726 0.194822
-7.16229 12.6314 0.217512
-7.66829 12.2091 0.238342
-5.95929 12.5973 2.0393
-5.46229 12.1829 1.98144
-5.42429 12.2348 1.16001
-5.93829 12.6633 1.19229
-5.44329 12.2091 0.219582
-5.94929 12.6314 0.206272
-5.54829 12.0626 -0.63722
-5.69929 11.8531 -1.20119
-6.04829 12.0626 -1.47105
-6.00729 12.4478 -0.722734
-6.55629 12.166 -1.62887
-6.55629 12.5776 -0.807233
-7.06429 12.0626 -1.53801
-7.41229 11.8531 -1.304
-7.56329 12.0626 -0.704179
-7.10429 12.4478 -0.755199
-7.41729 5.31565 1.21399
-7.39829 5.36225 1.12941
-7.62129 5.36225 0.703032
-7.64529 5.31565 0.749722
-7.69629 5.36225 0.177762
-7.72129 5.31565 0.177762
-7.37729 5.45205 1.08317
-7.34129 5.60285 1.04258
-7.54829 5.60285 0.655112
-7.59329 5.45205 0.677512
-7.61729 5.60285 0.177762
-7.66529 5.45205 0.177762
-7.54829 5.60285 -0.299596
-7.34129 5.60285 -0.687071
-7.37729 5.45205 -0.727658
-7.59329 5.45205 -0.321998
-7.39829 5.36225 -0.773891
-7.62129 5.36225 -0.347517
-7.41729 5.31565 -0.858475
-7.67829 5.29495 -0.480112
-7.64529 5.31565 -0.394204
-5.74329 5.31565 1.10271
-5.76529 5.36225 1.02721
-6.13629 5.36225 1.28984
-6.12429 5.31565 1.38869
-6.58229 5.36225 1.40578
-6.58029 5.31565 1.51493
-5.78729 5.45205 0.985942
-5.82329 5.60285 0.949712
-6.16829 5.60285 1.18839
-6.14929 5.45205 1.23581
-6.58229 5.60285 1.29374
-6.58229 5.45205 1.34612
-6.99629 5.60285 1.2503
-7.01529 5.45205 1.30064
-7.02729 5.36225 1.35798
-7.03729 5.31565 1.46287
-5.54229 5.36225 -0.279384
-5.46729 5.36225 0.177762
-5.43929 5.31565 0.177762
-5.78729 5.45205 -0.630423
-5.82329 5.60285 -0.594195
-5.61629 5.60285 -0.237678
-5.57129 5.45205 -0.257175
-5.54729 5.60285 0.177762
-5.49929 5.45205 0.177762
-5.76529 5.36225 -0.671691
-5.61629 5.60285 0.593192
-5.57129 5.45205 0.612692
-5.54229 5.36225 0.634902
-5.51529 5.31565 0.675532
-7.02729 5.36225 -1.00246
-6.99629 5.60285 -0.894789
-7.01529 5.45205 -0.945124
-6.58229 5.60285 -0.938229
-6.58229 5.45205 -0.990603
-6.58229 5.36225 -1.05026
-6.16829 5.60285 -0.832871
-6.14929 5.45205 -0.880301
-6.13629 5.36225 -0.934328
-7.61129 8.08845 0.750672
-7.39029 8.08845 1.21572
-7.47429 8.23235 1.42944
-7.71929 8.23235 0.868642
-7.56229 8.35455 1.69072
-7.82629 8.36715 1.01667
-7.90929 8.37475 0.183292
-7.80129 8.23235 0.177762
-7.68529 8.08845 0.177762
-7.66429 8.52925 2.00492
-7.80129 8.88765 2.42569
-8.03529 8.99745 1.34517
-7.93429 8.57975 1.20153
-8.08229 9.04295 0.211922
-8.00529 8.61005 0.199902
-7.96429 9.05815 -0.852982
-7.66329 9.05815 -1.68965
-7.61429 8.62025 -1.51651
-7.90129 8.62025 -0.757417
-7.55029 8.37725 -1.30199
-7.81829 8.37725 -0.639006
-7.47429 8.23235 -1.07393
-7.39029 8.08845 -0.860206
-7.61129 8.08845 -0.39516
-7.71929 8.23235 -0.513127
-6.13529 8.08845 1.39071
-5.76629 8.08845 1.10425
-5.67429 8.23235 1.29502
-6.08329 8.23235 1.64046
-5.57529 8.35455 1.52241
-6.02529 8.33695 1.92285
-6.56929 8.32695 2.09675
-6.57429 8.23235 1.79295
-6.57829 8.08845 1.51716
-5.46329 8.52925 1.78538
-5.31629 8.88765 2.11935
-5.92129 8.60475 2.49697
-5.95729 8.45895 2.2212
-6.55929 8.52945 2.66648
-6.56429 8.41875 2.4021
-7.19729 8.60475 2.67267
-7.17029 8.45895 2.36756
-7.11229 8.33695 2.03506
-7.02129 8.08845 1.46502
-7.06529 8.23235 1.73008
-5.54529 8.08845 -0.320847
-5.76629 8.08845 -0.748737
-5.67429 8.23235 -0.939507
-5.42829 8.23235 -0.423513
-5.58729 8.37725 -1.14307
-5.32029 8.37725 -0.533064
-5.22929 8.37475 0.181732
-5.34629 8.23235 0.177762
-5.47129 8.08845 0.177762
-5.51329 8.62025 -1.33456
-5.45629 9.05815 -1.4891
-5.15529 9.05815 -0.719285
-5.22729 8.62025 -0.636116
-5.03729 9.04295 0.200642
-5.12329 8.61005 0.193642
-5.08329 8.99745 1.16632
-5.19329 8.57975 1.05516
-5.31129 8.36715 0.904462
-5.54529 8.08845 0.676362
-5.42829 8.23235 0.779032
-7.02129 8.08845 -1.10951
-7.06529 8.23235 -1.37457
-7.10429 8.37725 -1.6574
-6.56929 8.37725 -1.73172
-6.57429 8.23235 -1.43744
-6.57829 8.08845 -1.16165
-7.16229 9.05815 -2.13817
-7.13729 8.62025 -1.92345
-6.56029 9.05815 -2.23197
-6.56429 8.62025 -2.00855
-5.95829 9.05815 -2.00447
-5.99129 8.62025 -1.80215
-6.03429 8.37725 -1.55145
-6.13529 8.08845 -1.0352
-6.08329 8.23235 -1.28495
-8.02429 9.74615 2.34297
-8.12229 9.74755 1.36954
-8.06629 10.6415 2.30036
-8.13029 10.6489 1.33988
-8.11529 10.6529 0.198902
-8.13529 9.77785 0.203682
-7.94829 11.4924 2.27073
-7.99529 11.5207 1.32138
-7.97229 11.5065 0.221292
-7.56329 11.3693 -1.58366
-7.84029 11.426 -0.791722
-7.67029 10.6212 -1.77569
-7.97429 10.6354 -0.899784
-7.69229 9.78795 -1.79353
-8.00229 9.78795 -0.91032
-6.24329 9.80545 2.28558
-6.02729 9.93035 2.28443
-5.93729 10.2294 2.23253
-6.22029 10.1982 2.21499
-5.89329 10.6637 2.20697
-6.19629 10.6637 2.18837
-6.55629 10.6637 2.2269
-6.55629 10.165 2.25077
-6.55629 9.74415 2.32202
-5.93729 11.0981 2.23253
-6.02729 11.3972 2.28443
-6.24329 11.5221 2.28558
-6.22029 11.1293 2.21499
-6.55629 11.5834 2.32202
-6.55629 11.1625 2.25077
-6.86829 11.5221 2.39426
-7.08429 11.3972 2.46795
-7.17429 11.0981 2.4473
-6.89129 11.1293 2.33147
-7.21829 10.6637 2.43707
-6.91529 10.6637 2.31317
-7.17429 10.2294 2.4473
-7.08429 9.93035 2.46795
-6.86829 9.80545 2.39426
-6.89129 10.1982 2.33147
-5.42229 9.78795 -1.58183
-5.11329 9.78795 -0.769186
-5.44229 10.6212 -1.57363
-5.13829 10.6354 -0.765076
-4.99729 10.6529 0.183192
-4.97929 9.77785 0.189862
-5.54829 11.3693 -1.4254
-5.27129 11.426 -0.686211
-5.13929 11.5065 0.202492
-5.16329 11.4924 1.94673
-5.11629 11.5207 1.14065
-5.04529 10.6415 1.94734
-4.98229 10.6489 1.14231
-5.08929 9.74615 1.99544
-4.99229 9.74755 1.17312
-7.17629 9.78795 -2.267
-7.16329 10.6354 -2.24833
-6.55629 10.6496 -2.35015
-6.55729 9.78795 -2.36602
-7.10429 11.426 -2.02052
-6.55629 11.4828 -2.12381
-6.00729 11.426 -1.91501
-5.94929 10.6354 -2.11362
-5.93829 9.78795 -2.12587
-5.47229 9.14205 2.5619
-5.95929 8.78095 2.71164
-5.58729 9.31405 2.74641
-6.02629 8.95945 2.83896
-6.55629 8.84615 2.93903
-6.55729 8.68045 2.84734
-5.67729 9.44435 2.78335
-5.74629 9.53955 2.71943
-6.11429 9.23285 2.78337
-6.07729 9.11185 2.85269
-6.55629 9.13065 2.86009
-6.55629 9.00095 2.9359
-6.99729 9.23285 2.93681
-7.36529 9.53955 3.00074
-7.43429 9.44435 3.08846
-7.03429 9.11185 3.01911
-7.52529 9.31405 3.07189
-7.08629 8.95945 3.01721
-7.64129 9.14205 2.8937
-7.15529 8.78095 2.89547
-5.52429 12.0965 2.48123
-5.24329 11.4452 2.43919
-5.60029 11.9912 2.72624
-5.33929 11.3878 2.68265
-5.25029 10.66 2.67016
-5.14029 10.6489 2.4333
-5.67729 11.8832 2.78335
-5.74629 11.788 2.71943
-5.52529 11.277 2.68107
-5.43829 11.3289 2.74174
-5.45229 10.6637 2.66829
-5.35829 10.6637 2.72787
-5.52529 10.0505 2.68107
-5.43829 9.99865 2.74174
-5.33029 9.92485 2.69077
-5.20829 9.82295 2.47166
-7.58729 12.0965 2.78949
-7.11829 12.4872 2.71943
-7.51129 11.9912 3.04584
-7.07729 12.3533 2.9732
-6.55629 12.474 2.88604
-6.55629 12.6174 2.63536
-7.43429 11.8832 3.08846
-7.36529 11.788 3.00074
-6.99729 12.0946 2.93681
-7.03429 12.2157 3.01911
-6.55629 12.1969 2.86009
-6.55629 12.3266 2.9359
-6.11429 12.0946 2.78337
-6.07729 12.2157 2.85269
-6.03429 12.3533 2.79887
-5.99329 12.4872 2.55129
-7.90429 9.82295 2.87969
-7.78129 9.92485 3.10146
-7.86129 10.66 3.10696
-7.97129 10.6489 2.85758
-7.58629 10.0505 3.0391
-7.67329 9.99865 3.13006
-7.65929 10.6637 3.05189
-7.75329 10.6637 3.14393
-7.58629 11.277 3.0391
-7.67329 11.3289 3.13006
-7.77229 11.3878 3.08942
-7.86929 11.4452 2.83152
-5.79429 9.60585 2.60137
-6.14029 9.31725 2.66154
-5.84629 9.67905 2.46628
-6.16929 9.41045 2.51982
-6.55629 9.32095 2.58456
-6.55629 9.22105 2.73373
-5.93029 9.79495 2.35126
-6.21429 9.55805 2.39084
-6.55629 9.47905 2.4403
-7.18129 9.79495 2.56866
-6.89729 9.55805 2.50942
-7.26529 9.67905 2.71267
-6.94229 9.41045 2.65422
-7.31729 9.60585 2.86609
-6.97129 9.31725 2.80593
-5.79429 11.7217 2.60137
-5.58629 11.2408 2.56527
-5.84629 11.6485 2.46628
-5.65329 11.2009 2.43022
-5.58929 10.6637 2.41656
-5.51729 10.6637 2.55324
-5.93029 11.5326 2.35126
-5.75929 11.1377 2.31179
-5.70229 10.6637 2.29209
-5.75929 10.1898 2.31179
-5.65329 10.1266 2.43022
-5.58629 10.0867 2.56527
-7.31729 11.7217 2.86609
-6.97129 12.0103 2.80593
-7.26529 11.6485 2.71267
-6.94229 11.9171 2.65422
-6.55629 12.0066 2.58456
-6.55629 12.1065 2.73373
-7.18129 11.5326 2.56866
-6.89729 11.7695 2.50942
-6.55629 11.8485 2.4403
-6.21429 11.7695 2.39084
-6.16929 11.9171 2.51982
-6.14029 12.0103 2.66154
-7.52529 10.0867 2.90219
-7.45829 10.1266 2.74381
-7.52229 10.6637 2.75256
-7.59429 10.6637 2.91422
-7.35229 10.1898 2.58847
-7.40929 10.6637 2.58852
-7.35229 11.1377 2.58847
-7.45829 11.2009 2.74381
-7.52529 11.2408 2.90219
-5.88229 5.83195 0.889332
-6.20029 5.83195 1.10934
-5.94829 6.12205 0.822912
-6.23629 6.12205 1.02238
-6.58229 6.12205 1.11044
-6.58229 5.83195 1.20645
-6.00129 6.45605 0.768572
-6.02529 6.81665 0.744422
-6.27829 6.81665 0.919622
-6.26529 6.45605 0.951242
-6.58229 6.81665 0.996962
-6.58229 6.45605 1.03187
-6.88629 6.81665 0.965072
-7.13929 6.81665 0.812592
-7.16329 6.45605 0.839652
-6.89929 6.45605 0.998632
-7.21629 6.12205 0.900532
-6.92829 6.12205 1.07413
-7.28229 5.83195 0.974942
-6.96429 5.83195 1.16641
-7.47229 5.83195 0.617772
-7.38929 6.12205 0.576702
-7.44729 6.12205 0.177762
-7.53629 5.83195 0.177762
-7.29129 6.81665 0.528162
-7.32129 6.45605 0.543102
-7.34229 6.81665 0.177762
-7.37429 6.45605 0.177762
-7.29129 6.81665 -0.172648
-7.13929 6.81665 -0.457078
-7.16329 6.45605 -0.484136
-7.32129 6.45605 -0.187583
-7.21629 6.12205 -0.545017
-7.38929 6.12205 -0.221187
-7.28229 5.83195 -0.619426
-7.47229 5.83195 -0.262258
-6.96429 5.83195 -0.810897
-6.92829 6.12205 -0.718616
-6.58229 6.12205 -0.754921
-6.58229 5.83195 -0.85094
-6.88629 6.81665 -0.609556
-6.89929 6.45605 -0.643113
-6.58229 6.81665 -0.641444
-6.58229 6.45605 -0.67636
-6.27829 6.81665 -0.564105
-6.02529 6.81665 -0.388902
-6.00129 6.45605 -0.413054
-6.26529 6.45605 -0.595725
-5.94829 6.12205 -0.467396
-6.23629 6.12205 -0.666869
-5.88229 5.83195 -0.533814
-6.20029 5.83195 -0.753822
-5.69229 5.83195 -0.205184
-5.77529 6.12205 -0.16944
-5.71729 6.12205 0.177762
-5.62829 5.83195 0.177762
-5.87329 6.81665 -0.127197
-5.84329 6.45605 -0.140195
-5.82229 6.81665 0.177762
-5.79029 6.45605 0.177762
-5.87329 6.81665 0.482712
-5.84329 6.45605 0.495712
-5.77529 6.12205 0.524952
-5.69229 5.83195 0.560702
-7.16329 7.18645 0.839652
-7.32129 7.18645 0.543102
-7.22129 7.53915 0.917842
-7.39629 7.53915 0.586262
-7.45429 7.53915 0.177762
-7.37429 7.18645 0.177762
-7.30129 7.84865 1.04419
-7.49829 7.84865 0.656002
-7.56329 7.84865 0.177762
-7.30129 7.84865 -0.68868
-7.49829 7.84865 -0.300484
-7.22129 7.53915 -0.56233
-7.39629 7.53915 -0.230743
-7.16329 7.18645 -0.484136
-7.32129 7.18645 -0.187583
-6.89929 7.18645 -0.643113
-6.93029 7.53915 -0.740088
-6.58229 7.53915 -0.777263
-6.58229 7.18645 -0.67636
-6.97329 7.84865 -0.896785
-6.58029 7.84865 -0.940306
-5.86029 7.84865 -0.595631
-6.18729 7.84865 -0.834752
-5.94229 7.53915 -0.48285
-6.23329 7.53915 -0.687101
-6.00129 7.18645 -0.413054
-6.26529 7.18645 -0.595725
-5.84329 7.18645 -0.140195
-5.76829 7.53915 -0.177757
-5.71029 7.53915 0.177762
-5.79029 7.18645 0.177762
-5.66329 7.84865 -0.238451
-5.59829 7.84865 0.177762
-5.86029 7.84865 0.951152
-5.66329 7.84865 0.593972
-5.94229 7.53915 0.838362
-5.76829 7.53915 0.533272
-6.00129 7.18645 0.768572
-5.84329 7.18645 0.495712
-6.26529 7.18645 0.951242
-6.23329 7.53915 1.04262
-6.58229 7.53915 1.13278
-6.58229 7.18645 1.03187
-6.18729 7.84865 1.19027
-6.58029 7.84865 1.29582
-6.97329 7.84865 1.2523
-6.93029 7.53915 1.0956
-6.89929 7.18645 0.998632
3 0 1 2
3 0 2 3
3 2 4 5
3 2 5 3
3 5 6 7
3 5 7 3
3 7 8 0
3 7 0 3
3 9 10 11
3 9 11 12
3 11 13 14
3 11 14 12
3 14 6 5
3 14 5 12
3 5 4 9
3 5 9 12
3 15 16 17
3 15 17 18
3 17 19 20
3 17 20 18
3 20 6 14
3 20 14 18
3 14 13 15
3 14 15 18
3 21 22 23
3 21 23 24
3 23 8 7
3 23 7 24
3 7 6 20
3 7 20 24
3 20 19 21
3 20 21 24
3 25 26 27
3 25 27 28
3 27 29 30
3 27 30 28
3 31 32 33
3 31 33 34
3 33 35 36
3 33 36 34
3 36 29 27
3 36 27 34
3 27 26 31
3 27 31 34
3 37 38 39
3 37 39 40
3 39 41 42
3 39 42 40
3 42 29 36
3 42 36 40
3 36 35 37
3 36 37 40
3 43 44 45
3 44 30 45
3 30 29 42
3 30 42 45
3 42 41 43
3 42 43 45
3 46 47 48
3 46 48 49
3 48 50 51
3 48 51 49
3 52 53 54
3 52 54 55
3 54 56 57
3 54 57 55
3 57 50 48
3 57 48 55
3 48 47 52
3 48 52 55
3 58 32 31
3 58 31 59
3 31 26 60
3 31 60 59
3 60 50 57
3 60 57 59
3 57 56 58
3 57 58 59
3 51 50 60
3 51 60 61
3 60 26 25
3 60 25 61
3 62 63 64
3 65 66 67
3 65 67 68
3 67 69 70
3 67 70 68
3 70 63 62
3 70 62 68
3 62 71 65
3 62 65 68
3 72 53 52
3 72 52 73
3 52 47 74
3 52 74 73
3 74 63 70
3 74 70 73
3 70 69 72
3 70 72 73
3 64 63 74
3 64 74 75
3 74 47 46
3 74 46 75
3 43 41 76
3 39 38 77
3 39 77 78
3 77 79 80
3 77 80 78
3 80 81 76
3 80 76 78
3 76 41 39
3 76 39 78
3 82 66 65
3 82 65 83
3 65 71 84
3 65 84 83
3 84 81 80
3 84 80 83
3 80 79 82
3 80 82 83
3 85 86 87
3 85 87 88
3 87 89 90
3 87 90 88
3 90 91 92
3 90 92 88
3 92 93 85
3 92 85 88
3 94 95 96
3 94 96 97
3 96 98 99
3 96 99 97
3 99 91 90
3 99 90 97
3 90 89 94
3 90 94 97
3 100 101 102
3 100 102 103
3 102 104 105
3 102 105 103
3 105 91 99
3 105 99 103
3 99 98 100
3 99 100 103
3 106 107 108
3 106 108 109
3 108 93 92
3 108 92 109
3 92 91 105
3 92 105 109
3 105 104 106
3 105 106 109
3 110 111 112
3 110 112 113
3 112 114 115
3 112 115 113
3 115 116 117
3 115 117 113
3 117 118 110
3 117 110 113
3 119 120 121
3 119 121 122
3 121 123 124
3 121 124 122
3 124 116 115
3 124 115 122
3 115 114 119
3 115 119 122
3 125 95 94
3 125 94 126
3 94 89 127
3 94 127 126
3 127 116 124
3 127 124 126
3 124 123 125
3 124 125 126
3 87 86 128
3 87 128 129
3 128 118 117
3 128 117 129
3 117 116 127
3 117 127 129
3 127 89 87
3 127 87 129
3 130 131 132
3 130 132 133
3 132 134 135
3 132 135 133
3 135 136 137
3 135 137 133
3 137 138 130
3 137 130 133
3 139 140 141
3 139 141 142
3 141 143 144
3 141 144 142
3 144 136 135
3 144 135 142
3 135 134 139
3 135 139 142
3 145 120 119
3 145 119 146
3 119 114 147
3 119 147 146
3 147 136 144
3 147 144 146
3 144 143 145
3 144 145 146
3 112 111 148
3 112 148 149
3 148 138 137
3 148 137 149
3 137 136 147
3 137 147 149
3 147 114 112
3 147 112 149
3 150 107 106
3 150 106 151
3 106 104 152
3 106 152 151
3 152 153 154
3 152 154 151
3 154 155 150
3 154 150 151
3 102 101 156
3 102 156 157
3 156 158 159
3 156 159 157
3 159 153 152
3 159 152 157
3 152 104 102
3 152 102 157
3 160 140 139
3 160 139 161
3 139 134 162
3 139 162 161
3 162 153 159
3 162 159 161
3 159 158 160
3 159 160 161
3 132 131 163
3 132 163 164
3 163 155 154
3 163 154 164
3 154 153 162
3 154 162 164
3 162 134 132
3 162 132 164
3 96 95 165
3 96 165 166
3 165 167 168
3 165 168 166
3 168 169 170
3 168 170 166
3 170 98 96
3 170 96 166
3 171 1 0
3 171 0 172
3 0 8 173
3 0 173 172
3 173 169 168
3 173 168 172
3 168 167 171
3 168 171 172
3 23 22 174
3 23 174 175
3 174 176 177
3 174 177 175
3 177 169 173
3 177 173 175
3 173 8 23
3 173 23 175
3 178 101 100
3 178 100 179
3 100 98 170
3 100 170 179
3 170 169 177
3 170 177 179
3 177 176 178
3 177 178 179
3 180 181 182
3 180 182 183
3 182 184 185
3 182 185 183
3 185 186 187
3 185 187 183
3 187 188 180
3 187 180 183
3 189 190 191
3 189 191 192
3 191 193 194
3 191 194 192
3 194 186 185
3 194 185 192
3 185 184 189
3 185 189 192
3 195 196 197
3 195 197 198
3 197 199 200
3 197 200 198
3 200 186 194
3 200 194 198
3 194 193 195
3 194 195 198
3 201 202 203
3 201 203 204
3 203 188 187
3 203 187 204
3 187 186 200
3 187 200 204
3 200 199 201
3 200 201 204
3 141 140 205
3 141 205 206
3 205 207 208
3 205 208 206
3 208 209 210
3 208 210 206
3 210 143 141
3 210 141 206
3 211 16 15
3 211 15 212
3 15 13 213
3 15 213 212
3 213 209 208
3 213 208 212
3 208 207 211
3 208 211 212
3 11 10 214
3 11 214 215
3 214 216 217
3 214 217 215
3 217 209 213
3 217 213 215
3 213 13 11
3 213 11 215
3 218 120 145
3 218 145 219
3 145 143 210
3 145 210 219
3 210 209 217
3 210 217 219
3 217 216 218
3 217 218 219
3 156 101 178
3 156 178 220
3 178 176 221
3 178 221 220
3 221 222 223
3 221 223 220
3 223 158 156
3 223 156 220
3 174 22 21
3 174 21 224
3 21 19 225
3 21 225 224
3 225 222 221
3 225 221 224
3 221 176 174
3 221 174 224
3 17 16 211
3 17 211 226
3 211 207 227
3 211 227 226
3 227 222 225
3 227 225 226
3 225 19 17
3 225 17 226
3 205 140 160
3 205 160 228
3 160 158 223
3 160 223 228
3 223 222 227
3 223 227 228
3 227 207 205
3 227 205 228
3 121 120 229
3 121 229 230
3 229 231 232
3 229 232 230
3 232 233 234
3 232 234 230
3 234 123 121
3 234 121 230
3 235 236 237
3 235 237 238
3 237 239 240
3 237 240 238
3 240 233 232
3 240 232 238
3 232 231 235
3 232 235 238
3 241 242 243
3 241 243 244
3 243 245 246
3 243 246 244
3 246 233 240
3 246 240 244
3 240 239 241
3 240 241 244
3 247 95 125
3 247 125 248
3 125 123 234
3 125 234 248
3 234 233 246
3 234 246 248
3 246 245 247
3 246 247 248
3 214 10 249
3 214 249 250
3 249 251 252
3 249 252 250
3 252 253 254
3 252 254 250
3 254 216 214
3 254 214 250
3 255 256 257
3 255 257 258
3 257 259 260
3 257 260 258
3 260 253 252
3 260 252 258
3 252 251 255
3 252 255 258
3 261 236 235
3 261 235 262
3 235 231 263
3 235 263 262
3 263 253 260
3 263 260 262
3 260 259 261
3 260 261 262
3 229 120 218
3 229 218 264
3 218 216 254
3 218 254 264
3 254 253 263
3 254 263 264
3 263 231 229
3 263 229 264
3 2 1 265
3 2 265 266
3 265 267 268
3 265 268 266
3 268 269 270
3 268 270 266
3 270 4 2
3 270 2 266
3 271 272 273
3 271 273 274
3 273 275 276
3 273 276 274
3 276 269 268
3 276 268 274
3 268 267 271
3 268 271 274
3 277 256 255
3 277 255 278
3 255 251 279
3 255 279 278
3 279 269 276
3 279 276 278
3 276 275 277
3 276 277 278
3 249 10 9
3 249 9 280
3 9 4 270
3 9 270 280
3 270 269 279
3 270 279 280
3 279 251 249
3 279 249 280
3 165 95 247
3 165 247 281
3 247 245 282
3 247 282 281
3 282 283 284
3 282 284 281
3 284 167 165
3 284 165 281
3 243 242 285
3 243 285 286
3 285 287 288
3 285 288 286
3 288 283 282
3 288 282 286
3 282 245 243
3 282 243 286
3 289 272 271
3 289 271 290
3 271 267 291
3 271 291 290
3 291 283 288
3 291 288 290
3 288 287 289
3 288 289 290
3 265 1 171
3 265 171 292
3 171 167 284
3 171 284 292
3 284 283 291
3 284 291 292
3 291 267 265
3 291 265 292
3 237 236 293
3 237 293 294
3 293 295 296
3 293 296 294
3 296 297 298
3 296 298 294
3 298 239 237
3 298 237 294
3 299 181 180
3 299 180 300
3 180 188 301
3 180 301 300
3 301 297 296
3 301 296 300
3 296 295 299
3 296 299 300
3 203 202 302
3 203 302 303
3 302 304 305
3 302 305 303
3 305 297 301
3 305 301 303
3 301 188 203
3 301 203 303
3 306 242 241
3 306 241 307
3 241 239 298
3 241 298 307
3 298 297 305
3 298 305 307
3 305 304 306
3 305 306 307
3 257 256 308
3 257 308 309
3 308 310 311
3 308 311 309
3 311 312 313
3 311 313 309
3 313 259 257
3 313 257 309
3 314 190 189
3 314 189 315
3 189 184 316
3 189 316 315
3 316 312 311
3 316 311 315
3 311 310 314
3 311 314 315
3 182 181 299
3 182 299 317
3 299 295 318
3 299 318 317
3 318 312 316
3 318 316 317
3 316 184 182
3 316 182 317
3 293 236 261
3 293 261 319
3 261 259 313
3 261 313 319
3 313 312 318
3 313 318 319
3 318 295 293
3 318 293 319
3 273 272 320
3 273 320 321
3 320 322 323
3 320 323 321
3 323 324 325
3 323 325 321
3 325 275 273
3 325 273 321
3 326 196 195
3 326 195 327
3 195 193 328
3 195 328 327
3 328 324 323
3 328 323 327
3 323 322 326
3 323 326 327
3 191 190 314
3 191 314 329
3 314 310 330
3 314 330 329
3 330 324 328
3 330 328 329
3 328 193 191
3 328 191 329
3 308 256 277
3 308 277 331
3 277 275 325
3 277 325 331
3 325 324 330
3 325 330 331
3 330 310 308
3 330 308 331
3 285 242 306
3 285 306 332
3 306 304 333
3 306 333 332
3 333 334 335
3 333 335 332
3 335 287 285
3 335 285 332
3 302 202 201
3 302 201 336
3 201 199 337
3 201 337 336
3 337 334 333
3 337 333 336
3 333 304 302
3 333 302 336
3 197 196 326
3 197 326 338
3 326 322 339
3 326 339 338
3 339 334 337
3 339 337 338
3 337 199 197
3 337 197 338
3 320 272 289
3 320 289 340
3 289 287 335
3 289 335 340
3 335 334 339
3 335 339 340
3 339 322 320
3 339 320 340
3 54 53 341
3 54 341 342
3 341 343 344
3 341 344 342
3 344 345 346
3 344 346 342
3 346 56 54
3 346 54 342
3 347 348 349
3 347 349 350
3 349 351 352
3 349 352 350
3 352 345 344
3 352 344 350
3 344 343 347
3 344 347 350
3 353 354 355
3 353 355 356
3 355 357 358
3 355 358 356
3 358 345 352
3 358 352 356
3 352 351 353
3 352 353 356
3 359 32 58
3 359 58 360
3 58 56 346
3 58 346 360
3 346 345 358
3 346 358 360
3 358 357 359
3 358 359 360
3 33 32 359
3 33 359 361
3 359 357 362
3 359 362 361
3 362 363 364
3 362 364 361
3 364 35 33
3 364 33 361
3 355 354 365
3 355 365 366
3 365 367 368
3 365 368 366
3 368 363 362
3 368 362 366
3 362 357 355
3 362 355 366
3 369 370 371
3 369 371 372
3 371 373 374
3 371 374 372
3 374 363 368
3 374 368 372
3 368 367 369
3 368 369 372
3 375 38 37
3 375 37 376
3 37 35 364
3 37 364 376
3 364 363 374
3 364 374 376
3 374 373 375
3 374 375 376
3 77 38 375
3 77 375 377
3 375 373 378
3 375 378 377
3 378 379 380
3 378 380 377
3 380 79 77
3 380 77 377
3 371 370 381
3 371 381 382
3 381 383 384
3 381 384 382
3 384 379 378
3 384 378 382
3 378 373 371
3 378 371 382
3 385 386 387
3 385 387 388
3 387 389 390
3 387 390 388
3 390 379 384
3 390 384 388
3 384 383 385
3 384 385 388
3 391 66 82
3 391 82 392
3 82 79 380
3 82 380 392
3 380 379 390
3 380 390 392
3 390 389 391
3 390 391 392
3 67 66 391
3 67 391 393
3 391 389 394
3 391 394 393
3 394 395 396
3 394 396 393
3 396 69 67
3 396 67 393
3 387 386 397
3 387 397 398
3 397 399 400
3 397 400 398
3 400 395 394
3 400 394 398
3 394 389 387
3 394 387 398
3 401 348 347
3 401 347 402
3 347 343 403
3 347 403 402
3 403 395 400
3 403 400 402
3 400 399 401
3 400 401 402
3 341 53 72
3 341 72 404
3 72 69 396
3 72 396 404
3 396 395 403
3 396 403 404
3 403 343 341
3 403 341 404
3 365 354 405
3 365 405 406
3 405 407 408
3 405 408 406
3 408 409 410
3 408 410 406
3 410 367 365
3 410 365 406
3 411 86 85
3 411 85 412
3 85 93 413
3 85 413 412
3 413 409 408
3 413 408 412
3 408 407 411
3 408 411 412
3 108 107 414
3 108 414 415
3 414 416 417
3 414 417 415
3 417 409 413
3 417 413 415
3 413 93 108
3 413 108 415
3 418 370 369
3 418 369 419
3 369 367 410
3 369 410 419
3 410 409 417
3 410 417 419
3 417 416 418
3 417 418 419
3 381 370 418
3 381 418 420
3 418 416 421
3 418 421 420
3 421 422 423
3 421 423 420
3 423 383 381
3 423 381 420
3 414 107 150
3 414 150 424
3 150 155 425
3 150 425 424
3 425 422 421
3 425 421 424
3 421 416 414
3 421 414 424
3 163 131 426
3 163 426 427
3 426 428 429
3 426 429 427
3 429 422 425
3 429 425 427
3 425 155 163
3 425 163 427
3 430 386 385
3 430 385 431
3 385 383 423
3 385 423 431
3 423 422 429
3 423 429 431
3 429 428 430
3 429 430 431
3 397 386 430
3 397 430 432
3 430 428 433
3 430 433 432
3 433 434 435
3 433 435 432
3 435 399 397
3 435 397 432
3 426 131 130
3 426 130 436
3 130 138 437
3 130 437 436
3 437 434 433
3 437 433 436
3 433 428 426
3 433 426 436
3 148 111 438
3 148 438 439
3 438 440 441
3 438 441 439
3 441 434 437
3 441 437 439
3 437 138 148
3 437 148 439
3 442 348 401
3 442 401 443
3 401 399 435
3 401 435 443
3 435 434 441
3 435 441 443
3 441 440 442
3 441 442 443
3 349 348 442
3 349 442 444
3 442 440 445
3 442 445 444
3 445 446 447
3 445 447 444
3 447 351 349
3 447 349 444
3 438 111 110
3 438 110 448
3 110 118 449
3 110 449 448
3 449 446 445
3 449 445 448
3 445 440 438
3 445 438 448
3 128 86 411
3 128 411 450
3 411 407 451
3 411 451 450
3 451 446 449
3 451 449 450
3 449 118 128
3 449 128 450
3 405 354 353
3 405 353 452
3 353 351 447
3 353 447 452
3 447 446 451
3 447 451 452
3 451 407 405
3 451 405 452
