0.0888094
0.395788
0.228456
0.244473
0.19873
0.264057
0.350217
0.0765122
0.668018
0.428378
0.214763
0.509594
0.206351
0.342782
0.595012
0.339367
0.0915782
0.104711
0.0543317
0.0249478
0.00447439
0.019342
0.00560608
0.641492
0.602777
0.214243
0.342625
0.21448
0.509512
0.668035
0.428178
0.019351
0.00561293
0.0249632
0.00907594
0.104586
0.0541392
0.337216
0.0913078
0.520213
0.874079
0.488753
0.524558
0.494094
0.421203
0.556398
0.539889
0.368148
0.511242
0.401373
0.460414
0.317105
0.380568
0.458047
0.114059
0.447845
0.531213
0.602078
0.454984
0.531099
0.394884
0.312938
0.565826
0.581701
0.552856
0.546393
0.628692
0.645671
0.541464
0.569121
0.516895
0.465602
0.397053
0.436211
0.494699
0.511309
0.290646
0.511257
0.450468
0.664106
0.46267
0.41952
0.509292
0.550187
0.684512
0.472537
0.662688
0.44375
0.43355
0.494306
0.450071
0.516048
0.447111
0.450607
0.443804
0.430819
0.630841
0.331798
0.490867
0.441566
0.417045
0.427828
1
0.466433
0.314036
0.478166
0.443423
0.529843
0.450018
0.824737
0.35241
0.427504
0.422973
0.480287
0.461199
0.507568
0.524345
0.399797
0.535714
0.288617
0.496307
0.529906
0.448494
0.478009
0.494996
0.41274
0.316348
0.39818
0.534924
0.543031
0.595404
0.49918
0.581264
0.409332
0.444566
0.486117
0.470868
0.454356
0.522938
0.480797
0.371686
0.464557
0.497643
0.436674
0.509528
0.169346
0.105676
0.0349954
0.0147681
0.0343762
0.0241768
0.345701
0.523945
0.4684
0.371525
0.475494
0.551246
0.470412
0.469902
0.030689
0.0158199
0.534225
0.506032
0.23135
0.326603
0.426454
0.0797953
0.474407
0.641847
0.586764
0.598076
0.58688
0.59716
0.501739
0.644023
0.561341
0.595008
0.587062
0.571861
0.503882
0.551324
0.655416
0.63557
0.612166
0.639996
0.587047
0.584268
0.586839
0.597307
0.605534
0.585383
0.652146
0.635995
0.482688
0.547372
0.582823
0.576915
0.556382
0.656111
0.0159648
0.055481
0.43452
0.0783408
0.127379
0.104211
0.0347274
0.032016
0.57923
0.233403
0.52755
0.37812
0.350195
0.628692
0.546393
0.628692
0.458347
0.630841
0.378319
0.912294
0.505715
0.470622
0.408639
0.485277
0.39818
0.256045
0.481997
0.469657
0.532724
0.598415
0.464819
0.591952
0.0466871
0.0724829
0.261323
0.138454
0.543253
0.418342
0.205482
0.320546
0.650065
0.633455
0.567791
0.68385
0.474472
0.658353
0.500187
0.606566
0.247817
0.229564
0.10186
0.373884
0.318162
0.101342
0.277285
0.19173
0.653247
0.658389
0.502952
0.622167
0.207982
0.664026
0.568878
0.66909
0.0494782
0.086706
0.0635934
0.061066
0.381458
0.33884
0.26193
0.457354
0.399797
0.401629
0.550854
0.416376
0.488827
0.589654
0.48119
0.401547
0.703655
0.662688
0.550187
0.677306
0.568159
0.65863
0.666902
0.504989
0.458047
0.364346
0.494071
0.380568
0.48825
0.380568
0.621977
0.456832
0.0159623
0.0554784
0.0346921
0.0320074
0.127376
0.104201
0.435683
0.0783288
0.105243
0.0545284
0.0268776
0.0100578
0.589066
0.367402
0.566141
0.470625
0.481082
0.534447
0.363206
0.918809
0.534129
0.718194
0.427887
0.541395
0.757526
0.424704
0.681621
0.374349
0.538009
0.534328
0.446506
0.446574
0.536031
0.460866
0.447372
0.635476
0.0330836
0.0184887
0.442616
0.0658701
0.237116
0.563965
0.546257
0.476502
0.651955
0.635875
0.550479
0.621018
0.582926
0.590862
0.483176
0.534547
0.20611
0.244978
0.0892238
0.395788
0.350218
0.0767113
0.29853
0.276947
0.655228
0.635454
0.50379
0.588822
0.587153
0.588773
0.563377
0.596108
0.0370295
0.0316663
0.037368
0.0163457
0.182106
0.0832106
0.453485
0.532661
0.538153
0.402704
0.508688
0.354893
0.49951
0.482746
0.444555
0.435108
0.529688
0.68383
0.505371
0.461926
0.462496
0.458204
0.596346
0.450104
0.668102
0.595849
0.620769
0.490232
0.526855
0.531593
0.411768
0.481064
0.00414581
0.00614961
0.0268594
0.00966875
0.105364
0.0547201
0.344293
0.0928364
0.460933
0.545689
0.293238
0.547056
0.372236
0.47343
0.210416
0.558912
0.0281063
0.000257153
0.122304
0.0547929
0.396093
0.60202
0.351941
0.454661
0.0457193
0.0349211
0.127637
0.0758653
0.260334
0.387483
0.278941
0.167982
0.0259438
0
0.212478
0.454661
0.455563
0.559094
0.120172
0.0533643
0.2103
0.557981
0.390516
0.354798
0.467953
0.534291
0.461097
0.545448
0.120172
0.0533646
0.44329
0.531912
0.240553
0.298126
0.0428754
0.144453
0.0721236
0.0472757
0.306097
0.549969
0.427417
0.558574
0.119895
0.110726
0.0592408
0.000257087
0.387315
0.648478
0.174199
0.504193
0.115583
0.0547929
0.0269212
0.0100288
0.60239
0.346074
0.602114
0.0539951
0.0637948
0.126276
0.103333
0.126661
0.0752922
0.0588455
0.0221532
0.375523
0.454661
0.276528
0.454661
0.589066
0.535611
0.489759
0.363832
0.40844
0.918809
0.460957
0.578612
0.534129
0.679061
0.534129
0.694284
0.678044
0.374349
0.64026
0.580005
0.399717
0.534328
0.538009
0.534328
0.4614
0.591069
0.533322
0.379282
0.236696
0.372323
0.0488435
0.0735188
0.520094
0.506588
0.510816
0.563371
0.559011
0.684408
0.64992
0.63339
0.500132
0.60657
0.474472
0.658353
0.102091
0.373883
0.247173
0.203494
0.262131
0.161131
0.318162
0.101201
0.538152
0.684393
0.207134
0.721123
0.502882
0.606528
0.653105
0.658309
0.196043
0.467692
0.207704
0.327932
0.0559513
0.043044
0.055139
0.0878268
0.397855
0.402167
0.523421
0.407128
0.494109
0.407128
0.538154
0.402704
0.352675
0.452955
0.44957
0.516434
0.502071
0.516434
0.529688
0.467915
0.458047
0.517269
0.49011
0.490232
0.495002
0.490232
0.668102
0.589103
0.126659
0.106112
0.426803
0.56346
0.411401
0.648478
0.0904053
0.0352166
0.494027
0.264293
0.126272
0.103321
0.0539607
0.0592641
0.016063
0.0215687
0.213081
0.113389
0.0118298
0.0649166
0.566503
0.499025
0.499663
0.280727
0.428188
0.241237
0.429076
0.264146
0.405087
0.264083
0.404991
0.309715
0.437037
0.289565
0.472388
0.49382
0.422731
0.530665
0.360239
0.390724
0.479058
0.40844
0.492457
0.379029
0.519382
0.534129
0.390591
0.513173
0.374349
0.538289
0.372167
0.452319
0.535581
0.512054
0.374492
0.519001
0.39657
0.518366
0.397148
0.428718
0.382684
0.268785
0.382215
0.515514
0.438938
0.515184
0.439118
0.529133
0.563875
0.512052
0.564178
0.388761
0.517908
0.390237
0.518236
0.289113
0.399569
0.29019
0.399802
0.313567
0.39013
0.311662
0.38968
0.551849
0.563924
0.367778
0.52016
0.366858
0.517739
0.552354
0.564223
0.429351
0.382703
0.50562
0.498579
0.512848
0.498579
0.313349
0.413894
0.475452
0.401629
0.502123
0.397262
0.487375
0.396692
0.528625
0.403488
0.477165
0.516036
0.550187
0.550343
0.384887
0.498
0.421606
0.387347
0.48298
0.622272
0.504106
0.3803
0.511956
0.454855
0.371885
0.389222
0.264114
0.405088
0.31999
0.535052
0.2484
0.472458
0.264046
0.404993
0.275955
0.499028
0.606641
0.429073
0.268049
0.428184
0.274937
0.499666
0.244866
