0.72959
0.69087
0.67278
0.710519
0.672403
0.616744
0.68462
0.726505
0.775938
0.776514
0.735625
0.651297
0.713421
0.664465
0.622179
0.718572
0.682098
0.851553
0.743738
0.762018
0.705256
0.714612
0.705388
0.721758
0.632848
0.657106
0.559975
0.666211
0.648133
0.629237
0.753647
0.813404
0.754842
0.824655
0.672482
0.752075
0.743624
0.84179
0.688085
0.754702
0.744617
0.728491
0.775649
0.824853
0.808153
0.854067
0.831701
0.821639
0.737418
0.788259
0.692488
0.746352
0.792203
0.781064
0.815425
0.792291
0.793138
0.706781
0.720349
0.70177
0.790625
0.736539
0.774002
0.871882
0.754851
0.824666
0.688408
0.754745
0.743625
0.84181
0.672691
0.752021
0.793213
0.721083
0.774117
0.789309
0.790598
0.750886
0.720425
0.727067
0.721236
0.788147
0.82595
0.792385
0.792129
0.787525
0.692459
0.746356
0.882109
0.690763
0.831588
0.821078
0.808161
0.847007
0.805005
0.824764
0.575273
0.688216
0.739965
0.726706
0.672469
0.616761
0.673807
0.690804
0.780431
0.657113
0.859045
0.813561
0.635008
0.62925
0.589952
0.66627
0.677244
0.851567
0.774633
0.916752
0.705257
0.714625
0.762002
0.76194
0.787256
0.776524
0.62229
0.718578
0.713423
0.664462
0.735583
0.662159
0.35877
0.390721
0.749053
0.399463
0.741989
0.729868
0.773274
0.910622
0.733235
0.374591
0.750713
0.738926
0.754975
0.714157
0.497049
0.739795
0.707059
0.728693
0.690938
0.73349
0.734972
0.711335
0.569983
0.7253
0.393112
0.725667
0.748475
0.926293
0.691377
0.676347
0.679154
0.617396
0.8105
0.941349
0.724266
0.752365
0.763827
0.712488
0.823679
0.884998
0.709811
0.717941
0.709807
0.759222
0.730059
0.918402
0.726709
0.886066
0.767112
0.757607
0.919508
0.718251
0.890609
0.884835
0.67477
0.742916
0.76579
0.71959
0.811505
0.877368
0.839726
0.727957
0.864318
0.914091
0.809338
0.941013
0.769967
0.884866
0.750942
0.712614
0.741833
0.745255
0.742191
0.719476
0.874574
0.791109
0.83788
0.727666
0.817396
0.700325
0.749399
0.766023
0.723366
0.751142
0.890392
0.925499
0.919499
0.705848
0.928486
0.718704
0.737245
0.88672
0.731972
0.919017
0.72495
0.813452
0.357022
0.733932
0.684078
0.901973
0.742441
0.737962
0.756691
0.399215
0.6172
0.745976
0.694696
0.664128
0.55186
0.585504
0.766177
0.929776
0.733321
0.724695
0.637407
0.921204
0.734788
0.737498
0.73217
0.929552
0.790701
0.75764
0.749671
0.739976
0.753432
0.712187
0.689056
0.738297
0.737783
0.724722
0.870608
0.733633
0.833926
0.710396
0.736735
0.72166
0.695806
0.898282
0.696953
0.675191
0.720879
0.89155
0.915974
0.898703
0.661467
0.75926
0.734192
0.668731
0.934616
0.900705
0.829243
0.878726
0.739936
0.706657
0.718089
0.721018
0.759734
0.916881
0.718786
0.708059
0.838447
0.869781
0.948549
0.747977
0.742457
0.754143
0.727284
0.843838
0.536343
0.748596
0.766639
0.767332
0.867445
0.504681
0.808124
0.736287
0.721789
0.651911
0.708746
0.925046
0.699266
0.909481
0.714691
0.835955
0.719679
0.719799
0.304429
0.619223
0.723187
0.909029
0.614982
0.676567
0.838468
0.8699
0.727283
0.843738
0.742733
0.781663
0.95116
0.748074
0.719641
0.72062
0.683837
0.926396
0.723182
0.89766
0.911229
0.619267
0.721799
0.652793
0.714746
0.886815
0.700242
0.906115
0.708795
0.752673
0.844013
0.744657
0.623297
0.736484
0.841661
0.509155
0.825188
0.817427
0.73853
0.724867
0.73679
0.722693
0.800666
0.705509
0.772644
0.723381
0.719568
0.739451
0.707885
0.705754
0.741781
0.916445
0.71813
0.711655
0.867406
0.914073
0.799038
0.878728
0.934564
0.900631
0.732976
0.680833
0.696107
0.898278
0.904376
0.8987
0.356942
0.88371
0.69646
0.863938
0.735042
0.900394
0.650747
0.69288
0.712107
0.829433
0.817428
0.752439
0.733599
0.602508
0.866073
0.83663
0.880971
0.661692
0.868156
0.877624
0.85754
0.828966
0.874088
0.898963
0.895727
0.83634
0.901327
0.826229
0.450683
0.909147
0.403029
0.596047
0.911878
0.782901
0.838839
0.805839
0.734632
0.894877
0.615138
0.937639
0.803004
0.840007
0.624138
0.693016
0.862022
0.924358
0.866075
0.696536
0.874585
0.828794
0.812331
0.713542
0.868454
0.828694
0.906081
0.826259
0.892022
0.836499
0.843779
0.868173
0.733813
0.665649
0.868256
0.87767
0.879845
0.662077
0.894334
0.85441
0.712371
0.698094
0.609056
0.881024
0.612871
0.641113
0.828804
0.688515
0.821116
0.702534
0.70765
0.718523
0.881113
0.673457
0.841709
0.861722
0.713447
0.815697
0.760779
0.731823
0.831018
0.843624
0.706749
0.779998
0.582556
0.797668
0.824128
0.588824
0.611357
0.523582
0.779312
0.77181
0.81564
0.854937
0.827228
0.790007
0.740399
0.856661
0.619527
0.731864
0.783599
0.697909
0.742796
0.688859
0.739015
0.738542
0.69311
0.406537
0.770888
0.727279
0.729397
0.592008
0.903196
0.803869
0.779043
0.797004
0.71962
0.735684
0.768083
0.553818
0.743888
0.813016
0.336277
0.674921
0.815078
0.830275
0.618716
0.715375
0.728132
0.878807
0.384197
0.789967
0.721084
0.735763
0.7413
0.538394
0.743944
0.824937
0.766382
0.492711
0.740322
0.749442
0.883443
0.7917
0.717593
0.803848
0.801588
0.592168
0.783266
0.696046
0.778726
0.683748
0.739089
0.738339
0.717675
0.688425
0.766971
0.698327
0.788658
0.688531
0.474526
0.853584
0.607476
0.636695
0.582392
0.798408
0.671383
0.724433
0.814477
0.523611
0.824277
0.589753
0.712869
0.787494
0.706732
0.748793
0.818497
0.842956
0.760578
0.715361
0.8214
0.702808
0.872831
0.851279
0.881094
0.863325
0.718545
0.748759
0.454172
0.512955
0.421049
0.503194
0.538308
0.418445
0.532624
0.483737
0.143657
0.480923
0.329044
0.430717
0.505943
0.449125
0.408763
0.379337
0.561618
0.542487
0.587609
0.652933
0.650354
0.508835
0.129181
0.472944
0.462033
0.682635
0.406691
0.594962
0.623199
0.716303
0.793827
0.56831
0.169309
0.100077
0.0804025
0.10109
0.206307
0.608122
0.0728988
0.240166
0.117796
0.313609
0.589003
0.10917
0.726337
0.073104
0.414199
0.141314
0.198528
0.156511
0.127519
0.24511
0.163521
0.406647
0.409546
0.439808
0.0962327
0.126169
0.110201
0.120682
0.086965
0.113676
0.185468
0.12771
0.169337
0.10008
0.120782
0.334395
0.206379
0.60874
0.080422
0.101444
0.096244
0.12621
0.186098
0.127505
0.0865611
0.113683
0.0835339
0.158691
0.473742
0.12564
0.816299
0.500042
0.163923
0.804254
0.12753
0.183305
0.23637
0.230757
0.414194
0.121531
0.725046
0.0731053
0.585655
0.170606
0.38236
0.49067
0.533456
0.483633
0.432995
0.418395
0.372741
0.48262
0.439962
0.498412
0.45609
0.55264
0.62328
0.715713
0.406256
0.682688
0.60055
0.541852
0.0985821
0.485491
0.650327
0.55475
0.472159
0.652443
0.145559
0.481099
0.408887
0.379457
0.505824
0.484983
0.237657
0.185733
0.736722
0.425035
0.820999
0.631149
0.512212
0.515183
0.494192
0.64518
0.236334
0.215371
0.300362
0.798564
0.576338
0.47686
0.612729
0.401694
0.223845
0.255792
0.415459
0.311075
0.487468
0.641117
0.217019
0.272316
0.516484
0.413644
0.511957
0.556512
0.357904
0.59539
0.443141
0.586276
0.358383
0.397753
0.345673
0.360779
0.443363
0.4236
0.155574
0.162776
0.375702
0.488525
0.394102
0.54801
0.443088
0.201192
0.692956
0.42213
0.111616
0.170476
0.66012
0.105505
0.130708
0.101712
0.369429
0.434047
0.881852
0.120916
0.122872
0.106097
0.193821
0.129808
0.132377
0.750353
0.204414
0.291588
0.233173
0.39481
0.445026
0.329709
0.146625
0.150425
0.141496
0.101251
0.198429
0.107337
0.591887
0.125216
0.0789778
0.121311
0.141808
0.10554
0.613803
0.115116
0.132397
0.623506
0.553804
0.620968
0.312861
0.195757
0.389923
0.488663
0.194155
0.182006
0.646258
0.65799
0.29947
0.485288
0.576741
0.532602
0.500261
0.340559
0.32496
0.385716
0.510213
0.515182
0.567391
0.504143
0.506977
0.597032
0.499952
1
0.155193
0.166555
0.469909
0.231171
0.539702
0.240846
0.39469
0.561001
0.239123
0.143593
0.616738
0.343929
0.341044
0.412695
0.201809
0.225393
0.744589
0.551775
0.403914
0.725247
0.688763
0.42813
0.817241
0.583512
0.122569
0.72175
0.713135
0.740405
0.333234
0.788316
0.235888
0.328567
0.728027
0.310426
0.723126
0.299898
0.243859
0.238311
0.16092
0.18398
0.65048
0.744043
0.40481
0.391923
0.753517
0.939832
0.753476
0.739783
0.451933
0.215815
0.106388
0.128914
0.105239
0.102535
0.11579
0.38436
0.138789
0.145885
0.479359
0.140831
0.0616497
0.0889818
0.047753
0.168292
0.641631
0.115656
0.0701465
0.168222
0.0636194
0.15451
0.682984
0.315728
0.0930534
0.554118
0.0737689
0.203429
0.645893
0.101044
0.749107
0.392041
0.510767
0.214298
0.697636
0.431199
0.104609
0.103931
0.145843
0.128352
0.0937454
0.553502
0.682948
0.165421
0.64422
0.161425
0.073438
0.148912
0.160621
0.106212
0.0288928
0.111077
0.0636125
0.0908771
0.0701307
0.251394
0.025547
0.049959
0.0477402
0.167838
0.0615591
0.100125
0.0282328
0.0636704
0.354186
0.550609
0.816361
0.485664
0.689437
0.427145
0.403402
0.797699
0.562031
0.743997
0.753416
0.73964
0.754131
0.939999
0.747691
0.422582
0.136936
0.172409
0.173854
0.183577
0.244027
0.30502
0.241246
0.231685
0.121746
0.721756
0.253945
0.421094
0.231582
0.905235
0.712721
0.189803
0.651974
0.506507
0.351133
0.415844
0.498929
0.46408
0.576322
0.532558
0.227009
0.137547
0.202036
0.225538
0.282315
0.411162
0.618048
0.205132
0.211365
0.47459
0.395402
0.534219
0.539351
0.223312
0.469924
0.231973
0.508167
0.540877
0.499546
0.650113
0.50166
0.597537
0.56845
0.492674
0.204496
0.291784
0.146742
0.1506
0.44498
0.268529
0.233218
0.395078
0.389985
0.183068
0.644455
0.645393
0.19432
0.147664
0.348949
0.446138
0.142119
0.105767
0.553956
0.621239
0.132915
0.480913
0.65658
0.185007
0.141603
0.168093
0.0829207
0.121312
0.592306
0.12568
0.198466
0.107382
0.385243
0.378489
0.202812
0.163246
0.445101
0.424297
0.32623
0.439518
0.881852
0.120011
0.132788
0.750628
0.194509
0.130462
0.123837
0.10812
0.111785
0.748223
0.371338
0.636767
0.129451
0.373204
0.161996
0.105807
0.376739
0.48922
0.693337
0.42495
0.443826
0.201864
0.593188
0.54843
0.745989
0.432259
0.567447
0.924342
0.534918
0.680703
0.729832
0.638508
0.570323
0.482837
0.557349
0.586472
0.359001
0.573395
0.572465
0.619935
0.507
0.257429
0.187966
0.278664
0.448225
0.626187
0.451813
0.302166
0.238949
0.219471
0.397373
0.419269
0.609272
0.478328
0.302623
0.755393
0.141088
0.129999
0.232428
0.118444
0.10613
0.292704
0.0862531
0.158947
0.147481
0.137958
0.088115
0.196756
0.133061
0.122719
0.154889
0.159484
0.0991393
0.233787
0.181816
0.251815
0.359413
0.13589
0.304882
0.147471
0.124623
0.366909
0.243434
0.192828
0.18986
0.212349
0.143551
0.259555
0.119524
0.112563
0.0922917
0.17399
0.101096
0.146042
0.113664
0.120429
0.0907459
0.195719
0.0761861
0.212353
0.231374
0.162598
0.2124
0.104635
0.0935019
0.244692
0.179356
0.159893
0.14274
0.132771
0.0889643
0.113792
0.136058
0.122056
0.1412
0.125714
0.0959646
0.145397
0.0712651
0.186417
0.119526
0.112568
0.113666
0.120434
0.0840293
0.161033
0.0923043
0.214149
0.13696
0.121594
0.0712758
0.186437
0.0959783
0.145411
0.141218
0.125723
0.153869
0.244687
0.236924
0.113793
0.142744
0.132773
0.17936
0.159894
0.217571
0.195718
0.212407
0.104637
0.23138
0.1626
0.239855
0.212349
0.142685
0.13002
0.086271
0.158976
0.106145
0.292706
0.232459
0.11845
0.241343
0.292071
0.244962
0.295027
0.189865
0.212679
0.257342
0.130928
0.230512
0.246954
0.304883
0.147476
0.359424
0.135371
0.306957
0.268211
0.146203
0.137967
0.154907
0.159506
0.133077
0.122723
0.0881251
0.196787
0.171645
0.19403
0.342188
0.356256
0.41948
0.369108
0.134693
0.0710655
0.0630778
0.103574
0.0694224
0.0587293
0.279621
0.11286
0.173809
0.204678
0.0817594
0.07445
0.186132
0.171816
0.12419
0.135282
0.0486111
0.0538233
0.407636
0.104697
0.0901097
0.187355
0.425281
0.415028
0.397723
0.369574
0.0634122
0.0899152
0.0873063
0.0666177
0.10039
0.0666418
0.0573016
0.187822
0.0917459
0.094008
0.100341
0.0882754
0.056506
0.0682317
0.0694119
0.190636
0.195766
0.0763025
0.073475
0.321231
0.0724682
0.183925
0.0997328
0.0803718
0.0587752
0.104521
0.0599668
0.199153
0.102834
0.0767833
0.0612537
0.101443
0.133585
0.116267
0.121742
0.121464
0.0977847
0.115556
0.10372
0.113121
0.131633
0.165673
0.103722
0.110133
0.106506
0.141195
0.12533
0.146601
0.0688061
0.133888
0.0648371
0.132789
0.139277
0.105676
0.161706
0.0685948
0.0743467
0.0784225
0.108169
0.0660666
0.124597
0.0989463
0.0630653
0.0810773
0.432699
0.485015
0.161911
0.258082
0.178998
0.169558
0.220727
0.144783
0.154242
0.353506
0.387362
0.394352
0.166795
0.388379
0.219659
0.198587
0.105353
0.23138
0.109485
0.188989
0.15894
0.161544
0.175815
0.101822
0.134473
0.13729
0.143414
0.167751
0.304888
0.107655
0.120746
0.108144
0.318767
0.354698
0.360795
0.409414
0.104469
0.0905193
0.0823035
0.109252
0.090125
0.0713744
0.0872322
0.0864764
0.0988759
0.0923527
0.0983458
0.270071
0.180957
0.119446
0.182722
0.168163
0
0.106316
0.0167114
0.144415
0.0841849
0.0964803
0.018446
0.233986
0.0269676
0.0861714
0.200274
0.189751
0.106472
0.0706002
0.0504403
0.0917653
0.0513301
0.0571109
0.0717765
0.0688427
0.160236
0.069296
0.0949676
0.0515925
0.0479623
0.114118
0.0742869
0.0892424
0.136028
0.0702444
0.0804259
0.0772636
0.0754601
0.0911529
0.102089
0.0636827
0.0553937
0.0813461
0.0722367
0.0550699
0.0550491
0.0598074
0.0720475
0.0874483
0.106445
0.0705929
0.0988446
0.0688312
0.0513251
0.0571036
0.0504402
0.0917571
0.0553969
0.0813173
0.0720429
0.0874366
0.0550482
0.0597974
0.0716725
0.0550373
0.0247432
0.0768196
0.0422748
0.0540496
0.0943567
0.101627
0.101406
0.0848496
0.0453804
0.0702217
0.0812037
0.0892417
0.0689255
0.125238
0.0393783
0.0624869
0.134961
0.353419
0.0822723
0.109038
0.104301
0.0903699
0.325824
0.412687
0.0172574
0.0594537
0.0321941
0.0484862
0.0471263
0.0867341
0.292353
0.203022
0.0309047
0.0869667
0.12419
0.123306
0.0279628
0.120965
0.0357398
0.153152
0.154243
0.0697204
0.144383
0.267724
0.098741
0.0922766
0.0872103
0.0864477
0.432935
0.485135
0.220733
0.144117
0.178995
0.16833
0.161983
0.25822
0.133331
0.137297
0.120767
0.105339
0.305092
0.0732368
0.143423
0.266008
0.110632
0.231805
0.176213
0.11656
0.159044
0.160709
0.114817
0.189153
0.154536
0.378109
0.249743
0.171856
0.17609
0.389252
0.388294
0.395172
0.133596
0.116267
0.103724
0.113112
0.0977793
0.115557
0.121735
0.121462
0.0743486
0.0784225
0.0630842
0.0810773
0.133615
0.0989957
0.108184
0.0764553
0.0574376
0.157215
0.161805
0.0686098
0.139998
0.10581
0.064835
0.132862
0.14164
0.16569
0.11727
0.146594
0.106604
0.141203
0.103711
0.110129
0.0634081
0.0899429
0.0572962
0.188286
0.103012
0.0666405
0.0873135
0.0666154
0.05881
0.065495
0.100263
0.0705637
0.11661
0.0768174
0.0599589
0.199765
0.125171
0.0763656
0.0998547
0.0643796
0.0686775
0.184132
0.0734599
0.322756
0.0954308
0.0940589
0.0694075
0.0894082
0.0574971
0.0682027
0.100349
0.0883231
0.270356
0.218055
0.132572
0.0710001
0.387991
0.370038
0.334877
0.357753
0.409164
0.10511
0.415363
0.42314
0.433143
0.415856
0.0906881
0.188135
0.144215
0.074493
0.0485914
0.0550865
0.124477
0.135446
0.186409
0.143615
0.0632312
0.109819
0.305897
0.205369
0.309553
0.113109
0.0695117
0.0444371
0.362757
0.335304
0.467544
0.510753
0.543596
0.456786
0.300461
0.441813
0.452424
0.296161
0.299986
0.309558
0.377051
0.301064
0.604281
0.403975
0.522454
0.916355
0.607495
0.617155
0.473419
0.793642
0.614384
0.446014
0.449817
0.28524
0.204794
0.345868
0.654455
0.482073
0.43623
0.786022
0.427538
0.396072
0.641618
0.650562
0.623078
0.645436
0.473493
0.709445
0.834403
0.782297
0.845276
0.777084
0.312157
0.648857
0.200862
0.553132
0.733262
0.702631
0.629817
0.548392
0.268521
0.641871
0.633546
0.636206
0.311069
0.817536
0.458028
0.398698
0.822761
0.536136
0.398403
0.385229
0.430412
0.713177
0.474102
0.709621
0.623144
0.653992
0.22162
0.650631
0.311115
0.817531
0.521502
0.409483
0.822747
0.536149
0.458035
0.623066
0.816719
0.702707
0.795621
0.533166
0.301364
0.642821
0.632868
0.571047
0.839589
0.723841
0.265089
0.553158
0.312142
0.690259
0.896138
0.777091
0.364481
0.624306
0.300467
0.43574
0.543667
0.483613
0.472882
0.515896
0.429927
0.412546
0.553957
0.786292
0.774245
0.482063
0.204807
0.345848
0.586518
0.917459
0.833793
0.446022
0.501131
0.793809
0.606522
0.618993
0.427821
0.296209
0.57645
0.648678
0.377044
0.305553
0.325533
0.309871
0.506282
0.387939
0.535467
0.794968
0.72815
0.806417
0.486533
0.326497
0.479388
0.795799
0.801101
0.553749
0.532127
0.51176
0.513623
0.339045
0.609384
0.616123
0.496385
0.501575
0.535203
0.480667
0.508666
0.685396
0.582551
0.391463
0.459498
0.394429
0.756456
0.718569
0.658481
0.670144
0.731648
0.811875
0.806297
0.74162
0.386227
0.736307
0.503478
0.432479
0.399801
0.517846
0.564525
0.49126
0.715862
0.752524
0.721614
0.668225
0.643572
0.613208
0.469107
0.424588
0.776021
0.715551
0.632886
0.636402
0.62982
0.430612
0.379865
0.402685
0.396887
0.398614
0.410919
0.456703
0.68675
0.633242
0.697904
0.68022
0.684186
0.470951
0.729539
0.649548
0.30605
0.349265
0.394237
0.442913
0.338126
0.46583
0.677528
0.665134
0.607582
0.506704
0.420946
0.47808
0.828637
0.565651
0.486645
0.557975
0.410636
0.500173
0.515532
0.798208
0.83156
0.697131
0.381631
0.343474
0.250056
0.32992
0.445981
0.652458
0.651694
0.636827
0.559518
0.562879
0.408437
0.343338
0.697855
0.600095
0.630842
0.465381
0.587399
0.390116
0.895563
0.356313
0.63214
0.593556
0.541106
0.635142
0.504548
0.503177
0.309037
0.336258
0.522981
0.383109
0.564764
0.359348
0.613689
0.49955
0.481295
0.424806
0.537372
0.568476
0.602158
0.796103
0.424525
0.228985
0.836176
0.555111
0.556662
0.329719
0.527785
0.773437
0.501839
0.491142
0.395142
0.717099
0.733361
0.519369
0.739177
0.739911
0.339933
0.609196
0.40999
0.387897
0.642329
0.370226
0.571594
0.824342
0.85507
0.662991
0.861865
0.444064
0.453893
0.799292
0.644006
0.795878
0.87365
0.461091
0.770999
0.897461
0.730427
0.889027
0.913897
0.712367
0.885036
0.708171
0.817477
0.696021
0.753246
0.869346
0.868695
0.697358
0.760318
0.708317
0.705849
0.615229
0.879874
0.424012
0.650731
0.780637
0.482643
0.503407
0.869995
0.443282
0.874505
0.714503
0.618669
0.77515
0.469159
0.736791
0.705902
0.57964
0.482236
0.464092
0.648839
0.512487
0.720012
0.610673
0.423615
0.638068
0.483448
0.708193
0.893626
0.697144
0.75309
0.725225
0.429405
0.860927
0.885105
0.708164
0.906903
0.712277
0.412726
0.888341
0.464416
0.452205
0.422214
0.228558
0.572986
0.7961
0.537251
0.568062
0.346728
0.672639
0.685741
0.669981
0.571007
0.780736
0.599357
0.490321
0.457482
0.717068
0.307901
0.713856
0.739936
0.740505
0.730037
0.732875
0.840493
0.471151
0.501473
0.490285
0.527673
0.773665
0.557644
0.799065
0.251082
0.352502
0.551562
0.549185
0.592075
0.636856
0.58264
0.623013
0.309099
0.506021
0.614092
0.499678
0.564804
0.392629
0.523115
0.381208
0.895541
0.356964
0.533429
0.509501
0.541869
0.614103
0.632272
0.59372
0.404932
0.342944
0.366392
0.389054
0.617008
0.465974
0.698184
0.600357
0.707131
0.563834
0.730981
0.649615
0.280574
0.472096
0.69769
0.67974
0.411276
0.645571
0.381485
0.346228
0.831735
0.369427
0.553384
0.695809
0.607615
0.507116
0.517958
0.558255
0.828825
0.316002
0.421416
0.48816
0.305205
0.349688
0.269534
0.664864
0.338358
0.465977
0.273705
0.743804
0.72998
0.811868
0.68479
0.433946
0.386516
0.734946
0.454802
0.736526
0.647797
0.412615
0.42319
0.507535
0.410785
0.391333
0.721215
0.77737
0.643887
0.613568
0.633691
0.701846
0.425546
0.715753
0.457337
0.425095
0.566576
0.496046
0.721759
0.73458
0.715258
0.734183
0.565245
0.494545
0.507473
0.410496
0.447888
0.3286
0.728235
0.806401
0.537241
0.825053
0.615911
0.391779
0.631995
0.664165
0.820288
0.718631
0.501687
0.39514
0.609901
0.618264
0.491223
0.578844
0.477442
0.487017
0.496068
0.502245
0.480048
0.442872
0.514249
0.498807
0.532563
0.49263
0.805766
0.554536
0.138891
0.132492
0.127343
0.129851
0.112918
0.134312
0.109835
0.127679
0.136503
0.13138
0.136722
0.161749
0.116459
0.150279
0.126896
0.12336
0.120523
0.111447
0.0857441
0.118547
0.133755
0.123736
0.142784
0.131631
0.0700162
0.0909542
0.116143
0.0960494
0.130472
0.0876492
0.0800476
0.10371
0.383501
0.397613
0.335247
0.281565
0.186763
0.218749
0.204427
0.209029
0.400716
0.385904
0.174903
0.403772
0.149966
0.140328
0.309051
0.15702
0.128631
0.160902
0.151507
0.146505
0.155938
0.16
0.117506
0.154531
0.153633
0.146181
0.171166
0.155534
0.149358
0.175811
0.145572
0.188553
0.114451
0.289047
0.102409
0.157408
0.153612
0.111506
0.242701
0.159369
0.0879845
0.0957212
0.111071
0.101748
0.132338
0.11687
0.0864896
0.114778
0.139936
0.104274
0.157351
0.0991661
0.114579
0.13965
0.109694
0.128562
0.373738
0.286572
0.168641
0.258064
0.126918
0.298846
0.265348
0.175675
0.0544649
0.107132
0.0977231
0.0661652
0.106593
0.0764858
0.0628468
0.113976
0.103293
0.0833751
0.123306
0.0891131
0.082968
0.146289
0.0809952
0.136595
0.134143
0.1148
0.0863609
0.118019
0.0888735
0.120208
0.11813
0.0960577
0.0675835
0.0934707
0.0593409
0.0877438
0.11123
0.0725449
0.110938
0.0708748
0.124259
0.0738849
0.108856
0.0789325
0.0605233
0.0659169
0.0559049
0.0711978
0.11579
0.10426
0.0656329
0.08977
0.0666711
0.0725348
0.11559
0.129861
0.0913308
0.077662
0.0901468
0.0733467
0.100966
0.104976
0.103788
0.108642
0.163634
0.066399
0.0957587
0.0951596
0.0771531
0.133027
0.156746
0.0580471
0.140078
0.147371
0.150242
0.132259
0.0875166
0.101535
0.132616
0.126737
0.116798
0.162495
0.1238
0.100185
0.108019
0.112818
0.153933
0.138283
0.115394
0.0850974
0.0937321
0.079702
0.0968219
0.0924089
0.100171
0.0914959
0.123309
0.102406
0.124915
0.0889427
0.0838337
0.0932905
0.0709072
0.0856103
0.139966
0.146169
0.132508
0.126641
0.0824193
0.101495
0.151612
0.136056
0.123228
0.102347
0.0709029
0.0855829
0.0838201
0.102472
0.114368
0.0932421
0.0725089
0.0797594
0.0813853
0.0862414
0.0967973
0.0923951
0.0937194
0.079701
0.107568
0.128384
0.153818
0.140178
0.107977
0.130194
0.0906928
0.0969348
0.124221
0.0738804
0.0559044
0.0711885
0.0628272
0.074928
0.10882
0.0789201
0.0505197
0.0582372
0.0579285
0.0607387
0.101881
0.0985003
0.0957553
0.0951587
0.0667637
0.0714603
0.112616
0.10865
0.106299
0.104985
0.0620865
0.0705417
0.115752
0.104212
0.115537
0.12964
0.0671442
0.0725317
0.0660903
0.0789973
0.0544777
0.0985128
0.062846
0.113919
0.106574
0.0764805
0.0977095
0.0542603
0.0675812
0.0934449
0.110862
0.0708775
0.111203
0.0827739
0.0593435
0.0877288
0.134077
0.1147
0.167984
0.0959897
0.0888519
0.12017
0.0863631
0.11735
0.106775
0.0833276
0.0809893
0.136634
0.0829483
0.146285
0.12328
0.0890588
0.11341
0.21543
0.24181
0.15991
0.181287
0.111439
0.10234
0.156876
0.418043
0.249059
0.264755
0.175468
0.120177
0.335916
0.167824
0.240792
0.1398
0.104162
0.101375
0.132062
0.114109
0.139565
0.157066
0.0991218
0.087974
0.0957189
0.0864658
0.114773
0.132342
0.116784
0.110693
0.101729
0.329767
0.397451
0.199289
0.208945
0.173323
0.287498
0.334952
0.351694
0.153626
0.146177
0.141335
0.175409
0.13
0.175752
0.171135
0.155508
0.128483
0.151263
0.117458
0.142754
0.150937
0.148004
0.160358
0.14701
0.392463
0.385521
0.392389
0.158293
0.185853
0.146239
0.174748
0.360852
0.138874
0.132488
0.109833
0.12768
0.112934
0.134092
0.127342
0.129846
0.0700161
0.0909542
0.0800447
0.103703
0.123157
0.0966021
0.107484
0.0960058
0.120414
0.111432
0.142767
0.137992
0.133744
0.129438
0.0857429
0.118531
0.1365
0.121819
0.126896
0.123357
0.116458
0.150278
0.136713
0.16172
0.124057
0.111943
0.140711
0.123583
0.109292
0.174276
0.0967103
0.169925
0.140535
0.137684
0.123658
0.123198
0.113477
0.269283
0.127806
0.128897
0.11461
0.294499
0.106548
0.28343
0.21132
0.111677
0.139947
0.133381
0.0947741
0.257128
0.215341
0.110776
0.221575
0.107377
0.102274
0.269695
0.248944
0.253481
0.241747
0.196082
0.184568
0.178033
0.179525
0.163987
0.176237
0.187375
0.132303
0.168058
0.202977
0.144517
0.32272
0.154955
0.119936
0.343021
0.171864
0.124586
0.182445
0.112434
0.129801
0.148419
0.144951
0.12872
0.213547
0.129409
0.168161
0.172695
0.130692
0.158298
0.246018
0.223127
0.162363
0.164048
0.184577
0.17804
0.24176
0.196094
0.144962
0.128724
0.130704
0.158301
0.168173
0.172701
0.2136
0.129415
0.18224
0.343016
0.16517
0.353447
0.182448
0.112436
0.171874
0.124592
0.210972
0.260557
0.322731
0.180602
0.218532
0.144518
0.201189
0.355629
0.124059
0.111947
0.0967252
0.220349
0.109303
0.245417
0.140714
0.123589
0.220323
0.257124
0.227502
0.269693
0.221585
0.107379
0.215348
0.110779
0.260554
0.294494
0.139957
0.133388
0.211332
0.111679
0.250822
0.283423
0.140543
0.137691
0.127808
0.128904
0.113488
0.265597
0.123665
0.1232
0.518614
0.810869
0.452036
0.65876
0.778283
0.35868
0.847138
0.744744
0.658943
0.70389
0.671766
0.683082
0.51435
0.731522
0.65694
0.51973
0.637837
0.680576
0.677392
0.513808
0.459355
0.868078
0.725264
0.540605
0.424662
0.544066
0.720676
0.669995
0.540009
0.607481
0.659878
0.503063
0.776822
0.538954
0.725471
0.730999
0.713696
0.704958
0.80056
0.737101
0.775203
0.723826
0.708306
0.712318
0.684982
0.692294
0.735489
0.646816
0.662639
0.506317
0.760701
0.648088
0.7233
0.624016
0.648167
0.657419
0.778411
0.696026
0.835854
0.725693
0.774524
0.706057
0.695453
0.77263
0.660236
0.630926
0.626872
0.703965
0.503258
0.614151
0.739324
0.59656
0.547946
0.516138
0.47048
0.497371
0.525565
0.53683
0.50254
0.548778
0.570807
0.561981
0.607364
0.595739
0.565902
0.562598
0.680128
0.548409
0.780728
0.759924
0.706666
0.725847
0.662838
0.711732
0.621671
0.528384
0.715147
0.607853
0.728923
0.597063
0.446553
0.408455
0.581091
0.324699
0.381059
0.516784
0.613884
0.167535
0.582618
0.611623
0.518222
0.787334
0.632575
0.719727
0.5036
0.675463
0.520305
0.747063
0.69734
0.544288
0.53419
0.387188
0.507841
0.453582
0.459739
0.622418
0.456636
0.595223
0.42328
0.389531
0.522266
0.807338
0.669481
0.789305
0.639948
0.617688
0.631534
0.376783
0.590007
0.550125
0.568596
0.874772
0.344266
0.452796
0.654033
0.511686
0.544498
0.514472
0.448499
0.488767
0.554992
0.619241
0.834176
0.825414
0.432155
0.824642
0.358169
0.70154
0.579421
0.489226
0.64569
0.578032
0.74977
0.733374
0.618808
0.634615
0.612912
0.651385
0.615489
0.575727
0.650314
0.566033
0.521551
0.842107
0.732685
0.826748
0.554419
0.473679
0.661713
0.668153
0.575087
0.639006
0.780528
0.710654
0.432044
0.524943
0.57248
0.533716
0.515893
0.665609
0.493012
0.69746
0.622213
0.5738
0.631106
0.604847
0.689192
0.625198
0.74998
0.736312
0.582125
0.523006
0.526128
0.711092
0.530551
0.665606
0.573247
0.531718
0.652394
0.472783
0.828439
0.710561
0.5747
0.652435
0.664292
0.665975
0.615084
0.575727
0.732734
0.779181
0.470676
0.838731
0.692764
0.593424
0.423252
0.667236
0.206273
0.653492
0.669601
0.833042
0.522243
0.807767
0.853693
0.77304
0.984314
0.371453
0.30009
0.402613
0.432178
0.824776
0.61994
0.578118
0.536391
0.619258
0.417655
0.489566
0.367673
0.540542
0.631771
0.378622
0.23083
0.701754
0.568568
0.512288
0.570657
0.550257
0.687256
0.520169
0.567292
0.324133
0.468672
0.417663
0.291674
0.563769
0.565592
0.387182
0.455591
0.595011
0.459851
0.644232
0.428715
0.453506
0.628327
0.71982
0.444049
0.584963
0.521817
0.747336
0.504766
0.643669
0.421206
0.54287
0.488099
0.78717
0.709353
0.610758
0.614906
0.239217
0.641108
0.618643
0.718004
0.643363
0.41934
0.614236
0.648129
0.664457
0.780751
0.760185
0.622229
0.528774
0.663341
0.712001
0.706665
0.731312
0.815026
0.56204
0.680209
0.548606
0.490221
0.562663
0.607576
0.766762
0.62666
0.51707
0.519587
0.548961
0.509817
0.536875
0.470666
0.496139
0.883175
0.552178
0.790134
0.7755
0.713875
0.728724
0.725645
0.731177
0.832918
0.761163
0.843776
0.772695
0.790872
0.70683
0.841972
0.725778
0.662914
0.472989
0.646352
0.685527
0.723311
0.726356
0.760724
0.648094
0.775222
0.723847
0.735548
0.693506
0.704408
0.686841
0.757987
0.790765
0.731068
0.810863
0.847027
0.739889
0.808323
0.358978
0.452664
0.847506
0.423602
0.544472
0.63956
0.530574
0.540454
0.608322
0.720827
0.671808
0.638013
0.680707
0.725277
0.540782
0.488652
0.880794
0.712337
0.51217
0.416109
0.703924
0.656951
0.517673
0.516033
0.730783
0.671086
0.664229
0.433455
0.728476
0.821821
0.533751
0.396955
0.808168
0.484287
0.738366
0.64107
0.640278
0.604432
0.57283
0.542618
0.684769
0.757161
0.70833
0.871608
0.755525
0.47155
0.457897
0.696947
0.725685
0.714699
0.70227
0.735968
0.899242
0.762802
0.696886
0.78046
0.615786
0.859804
0.856503
0.807988
0.585638
0.827186
0.82138
0.471514
0.579781
0.816835
0.540419
0.736351
0.751613
0.70133
0.736183
0.867779
0.815479
0.641482
0.81257
0.682689
0.522783
0.45582
0.729618
0.858065
0.778435
0.900519
0.653818
0.599898
0.598487
0.832408
0.791007
0.49372
0.599891
0.615572
0.625891
0.807991
0.833609
0.816956
0.539918
0.844635
0.577857
0.827266
0.821667
0.600985
0.598272
0.374395
0.625008
0.493641
0.599715
0.831731
0.791047
0.615213
0.663675
0.669475
0.691599
0.858104
0.778438
0.412943
0.764961
0.764773
0.751638
0.834242
0.812579
0.867735
0.815486
0.68436
0.736202
0.86964
0.729003
0.440364
0.739796
0.748044
0.771881
0.834098
0.534537
0.431055
0.870238
0.396211
0.850337
0.780264
0.71795
0.874073
0.696875
0.69809
0.755422
0.698442
0.702136
0.696816
0.512758
0.460495
0.428733
0.631777
0.62411
0.75609
0.707483
0.539628
0.682591
0.640782
0.607847
0.414445
0.627313
0.75844
0.778462
0.850483
0.773873
0.813165
0.785174
0.716844
0.712818
0.776896
0.776438
0.772509
0.525731
0.773039
0.70431
0.654714
0.637745
0.689413
0.751825
0.775321
0.662637
0.746322
0.720273
0.6872
0.789425
0.74183
0.749971
0.791442
0.734851
0.591919
0.543982
0.753322
0.512809
0.674657
0.651884
0.700879
0.682431
0.578855
0.74826
0.688728
0.683417
0.735076
0.752754
0.709703
0.661053
0.48121
0.66858
0.910222
0.468115
0.706298
0.469994
0.70533
0.714834
0.712423
0.761874
0.785054
0.638783
0.547103
0.726558
0.702894
0.435811
0.772792
0.629636
0.763476
0.672774
0.71877
0.816594
0.789421
0.630989
0.630751
0.621395
0.830624
0.817015
0.766931
0.767187
0.628257
0.778052
0.807301
0.813805
0.692336
0.548551
0.70897
0.666133
0.562437
0.652094
0.617799
0.560458
0.706649
0.583492
0.598452
0.525871
0.784093
0.714875
0.81473
0.61338
0.547213
0.79251
0.500418
0.588015
0.428034
0.696001
0.725905
0.72051
0.86277
0.885553
0.598422
0.676779
0.616516
0.664986
0.901192
0.788191
0.875004
0.933257
0.814411
0.690349
0.749694
0.679138
0.745311
0.697021
0.762169
0.773045
0.764219
0.704741
0.426984
0.713613
0.776129
0.59613
0.802593
0.719355
0.775312
0.487031
0.623811
0.449789
0.892013
0.727143
0.647097
0.682461
0.709068
0.739397
0.687465
0.739978
0.727396
0.730661
0.684444
0.683214
0.479287
0.559234
0.740538
0.699629
0.721823
0.831904
0.797883
0.423214
0.516936
0.844868
0.722575
0.844925
0.6918
0.62494
0.685952
0.513541
0.783941
0.853795
0.808733
0.7823
0.741589
0.749594
0.653781
0.638089
0.755918
0.642752
0.777737
0.661037
0.696174
0.750569
0.731258
0.65873
0.847856
0.692397
0.782178
0.558356
0.778926
0.746818
0.687697
0.603289
0.786612
0.378508
0.865048
0.760944
0.769197
0.800379
0.721656
0.693596
0.746977
0.727869
0.427779
0.713882
0.708682
0.436851
0.876582
0.929778
0.650784
0.696556
0.752708
0.678978
0.81024
0.661734
0.856481
0.815101
0.899508
0.764221
0.617382
0.643095
0.856824
0.791587
0.547304
0.80542
0.709703
0.622992
0.426079
0.656032
0.743143
0.563093
0.704882
0.612027
0.803927
0.54905
0.785091
0.71315
0.598328
0.572403
0.687934
0.547858
0.565506
0.563337
0.555277
0.652883
0.70465
0.665122
0.548015
0.814629
0.770288
0.585146
0.587432
0.661055
0.69249
0.779337
0.701095
0.690723
0.629922
0.623166
0.807413
0.63007
0.688775
0.816292
0.678433
0.717453
0.711416
0.711833
0.77533
0.749431
0.569585
0.685999
0.705836
0.503651
0.779546
0.705169
0.728594
0.525698
0.721929
0.587591
0.591786
0.597361
0.778532
0.819664
0.813008
0.811314
0.86784
0.786622
0.59898
0.422129
0.367663
0.501896
0.430915
0.430116
0.538022
0.420425
0.541913
0.511848
0.810131
0.719471
0.564721
0.51861
0.430255
0.553281
0.716051
0.727344
0.656314
0.62713
0.5498
0.581379
0.508204
0.485773
0.674069
0.60248
0.485983
0.745681
0.517193
0.679956
0.642862
0.728058
0.569788
0.651615
0.588994
0.331607
0.66074
0.692623
0.648568
0.697979
0.628288
0.670522
0.836036
0.817327
0.668987
0.669305
0.716148
0.580428
0.852868
0.51707
0.449747
0.609038
0.700295
0.471264
0.73376
0.528806
0.529381
0.597397
0.63878
0.653218
0.575939
0.583094
0.600114
0.596265
0.734266
0.656156
0.741104
0.671531
0.756417
0.690378
0.687858
0.699119
0.690496
0.801135
0.676463
0.643979
0.666976
0.668516
0.58316
0.678079
0.681571
0.732405
0.785511
0.820549
0.403009
0.750977
0.636895
0.686742
0.742798
0.403751
0.576845
0.714967
0.607508
0.674107
0.536256
0.47498
0.592552
0.783314
0.495208
0.698331
0.707215
0.617768
0.412921
0.48587
0.563699
0.690238
0.637146
0.509646
0.661679
0.552795
0.566145
0.605261
0.657755
0.647025
0.67442
0.718154
0.668029
0.604984
0.594188
0.818923
0.696746
0.684933
0.583939
0.62954
0.736763
0.7112
0.747705
0.706883
0.528693
0.719522
0.592424
0.586983
0.786778
0.584659
0.637886
0.65188
0.853299
0.514877
0.44732
0.527559
0.716759
0.38456
0.587934
0.682666
0.626975
0.712612
0.715661
0.582353
0.69337
0.6726
0.630246
0.673027
0.600981
0.675294
0.64617
0.697385
0.625068
0.603129
0.588927
0.741094
0.704562
0.60235
0.64158
0.727746
0.517317
0.57686
0.52823
0.677922
0.597426
0.744547
0.508225
0.486874
0.550069
0.580951
0.85918
0.747815
0.562746
0.730239
0.453208
0.552765
0.524022
0.49767
0.7935
0.71918
0.356968
0.326598
0.539743
0.365978
0.483318
0.429077
0.367236
0.501738
0.69602
0.717732
0.804845
0.694679
0.738426
0.710842
0.588503
0.602758
0.626776
0.621857
0.594522
0.607794
0.630549
0.605172
0.674894
0.719492
0.564114
0.709946
0.587056
0.723938
0.661564
0.553115
0.576428
0.504936
0.64369
0.778858
0.236576
0.483323
0.721935
0.616406
0.492774
0.737823
0.746192
0.478422
0.536885
0.549785
0.62716
0.676796
0.575852
0.40148
0.680652
0.732029
0.689122
0.741033
0.490364
0.729818
0.743304
0.820747
0.690405
0.797685
0.626054
0.700509
0.69456
0.669204
0.674907
0.591121
0.72934
0.656023
0.687546
0.698899
0.757006
0.701594
0.741504
0.705564
0.566904
0.630507
0.778472
0.580724
0.586754
0.67831
0.62657
0.799802
0.579817
0.644844
0.721088
0.640166
0.678166
0.630302
0.869073
0.729607
0.675862
0.689472
0.682917
0.571678
0.5969
0.662115
0.754459
0.626387
0.691781
0.694904
0.739537
0.642952
0.553647
0.651061
0.671836
0.651195
0.606197
0.712788
0.488226
0.567477
0.555855
0.594806
0.719771
0.663386
0.609132
0.684944
0.589649
0.787039
0.799336
0.718409
0.81082
0.713396
0.702924
0.59165
0.714358
0.753816
0.325948
0.624063
0.629166
0.59934
0.629509
0.580784
0.796342
0.710568
0.734209
0.633358
0.559638
0.634805
0.604022
0.476739
0.66899
0.585279
0.722774
0.665977
0.597622
0.664432
0.541922
0.671974
0.601009
0.69366
0.564019
0.606193
0.522232
0.684002
0.564255
0.60208
0.540438
0.731278
0.410836
0.59356
0.500745
0.631112
0.631743
0.486994
0.662422
0.563342
0.818363
0.817233
0.803882
0.780546
0.855367
0.853682
0.655722
0.798418
0.81398
0.858176
0.780054
0.784293
0.710951
0.781863
0.717436
0.79618
0.620012
0.692113
0.714043
0.789963
0.823405
0.67685
0.713666
0.663197
0.740397
0.601912
0.640992
0.634927
0.814824
0.659118
0.721932
0.794675
0.702305
0.725045
0.756744
0.652777
0.847969
0.524448
0.897042
0.704325
0.743404
0.709929
0.844506
0.798487
0.762911
0.696963
0.766322
0.652559
0.836352
0.907846
0.832341
0.66187
0.716972
0.788126
0.888128
0.866194
0.838391
0.75931
0.893685
0.862639
0.743338
0.775994
0.803786
0.774597
0.425382
0.628029
0.688222
0.563522
0.63189
0.487065
0.67967
0.621947
0.563376
0.605546
0.556524
0.731155
0.564126
0.55847
0.522128
0.724118
0.853312
0.666285
0.600705
0.660068
0.541681
0.603013
0.589746
0.619587
0.734394
0.632963
0.694874
0.599964
0.640119
0.51589
0.568276
0.634789
0.366682
0.689311
0.79587
0.674897
0.604346
0.583505
0.596953
0.598904
0.79931
0.759875
0.612223
0.681647
0.584486
0.590672
0.81103
0.740509
0.554414
0.594218
0.58951
0.7743
0.609183
0.685943
0.693122
0.649504
0.554954
0.441989
0.59003
0.567877
0.609104
0.693465
0.672016
0.71277
0.851646
0.825006
0.80382
0.763813
0.759576
0.776007
0.89384
0.862788
0.828918
0.889586
0.887746
0.866171
0.716167
0.799994
0.814234
0.660919
0.744314
0.724619
0.76706
0.65939
0.763368
0.739344
0.844706
0.815827
0.702443
0.729995
0.889983
0.676832
0.751904
0.524692
0.7626
0.632475
0.773027
0.757435
0.722344
0.794951
0.802034
0.676501
0.822203
0.691423
0.566823
0.683136
0.74168
0.687103
0.823464
0.719943
0.738516
0.79004
0.805161
0.858183
0.686846
0.784633
0.73101
0.773843
0.841721
0.840405
0.85457
0.799127
0.864564
0.775782
0.756823
0.858886
0.804333
0.796172
0.789544
0.733643
0.636743
0.67776
0.716655
0.727322
0.700135
0.725767
0.687399
0.700488
0.741477
0.747279
0.734671
0.727837
0.650978
0.776075
0.694611
0.805641
0.804482
0.8037
0.546192
0.794198
0.594195
0.580554
0.798044
0.730393
0.682199
0.658386
0.734445
0.663483
0.794239
0.844562
0.688014
0.689458
0.70342
0.736472
0.708309
0.590561
0.659168
0.675475
0.659536
0.649289
0.733981
0.677222
0.718527
0.593605
0.690792
0.621941
0.637636
0.669465
0.737945
0.757205
0.659873
0.588066
0.645613
0.69632
0.634528
0.700167
0.618585
0.624903
0.665468
0.63401
0.660968
0.635559
0.738223
0.86044
0.876518
0.860506
0.748337
0.756919
0.757033
0.760414
0.727342
0.831115
0.813628
0.775856
0.769541
0.77739
0.789813
0.842783
0.722095
0.804109
0.765152
0.801569
0.763584
0.741784
0.770461
0.740682
0.672449
0.670401
0.708503
0.675989
0.77111
0.746099
0.575686
0.680686
0.728979
0.787142
0.789902
0.788763
0.844282
0.835093
0.84364
0.828106
0.714587
0.730818
0.824046
0.829467
0.83249
0.815371
0.757884
0.775007
0.713778
0.812456
0.793262
0.869678
0.760782
0.781776
0.74702
0.79858
0.907636
0.863656
0.88782
0.875841
0.889108
0.754915
0.844295
0.86975
0.64885
0.661063
0.661308
0.641805
0.646915
0.702567
0.655637
0.680966
0.682209
0.754807
0.638103
0.673282
0.614457
0.624621
0.582023
0.710832
0.699722
0.598473
0.709426
0.583583
0.694752
0.727004
0.741327
0.671138
0.688229
0.924845
0.592516
0.632467
0.68612
0.615403
0.735058
0.773278
0.797088
0.730095
0.802724
0.599074
0.735274
0.67706
0.638358
0.726121
0.679011
0.804527
0.72921
0.759624
0.755495
0.761579
0.804199
0.879731
0.766823
0.76718
0.648824
0.769917
0.727831
0.716283
0.727873
0.717632
0.78841
0.725738
0.706879
0.703438
0.738662
0.733624
0.635225
0.715733
0.906327
0.774758
0.843547
0.876365
0.901744
0.755279
0.887863
0.875013
0.717377
0.677225
0.766413
0.808372
0.760413
0.766546
0.794175
0.869814
0.790063
0.717312
0.716034
0.774636
0.730427
0.815903
0.8237
0.700746
0.743725
0.706219
0.843904
0.827921
0.84468
0.835858
0.789764
0.788997
0.676589
0.577539
0.575718
0.591045
0.770685
0.73333
0.718988
0.68698
0.766486
0.805328
0.814194
0.733166
0.750598
0.826101
0.765017
0.78394
0.786825
0.829891
0.800084
0.84413
0.749247
0.754455
0.784162
0.757711
0.738165
0.660742
0.855364
0.769955
0.758187
0.757219
0.924556
0.659259
0.732326
0.681022
0.741742
0.711074
0.797858
0.839758
0.815441
0.687227
0.913971
0.719705
0.808069
0.807757
0.792779
0.713793
0.69982
0.706574
0.699503
0.697341
0.674884
0.668728
0.742575
0.675678
0.693827
0.772524
0.7879
0.782574
0.793683
0.854599
0.707771
0.694347
0.728904
0.699479
0.725552
0.793709
0.705367
0.717967
0.721655
0.707317
0.731989
0.711855
0.743704
0.72037
0.853093
0.698092
0.573875
0.702682
0.666289
0.614304
0.777559
0.783225
0.660694
0.66365
0.682822
0.718023
0.700474
0.732514
0.772942
0.773177
0.767617
0.808508
0.708422
0.590004
0.765227
0.772559
0.648756
0.791454
0.839953
0.77893
0.736061
0.75365
0.821426
0.825539
0.819065
0.813993
0.875441
0.740006
0.724529
0.788844
0.804077
0.727541
0.757854
0.692169
0.763017
0.886654
0.783928
0.818459
0.805991
0.82306
0.743644
0.766536
0.71259
0.855132
0.756159
0.783057
0.781885
0.740081
0.794254
0.794458
0.789431
0.866266
0.895684
0.798276
0.769167
0.757338
0.812635
0.76617
0.765776
0.846878
0.829905
0.769407
0.765974
0.772459
0.81141
0.7948
0.782826
0.794217
0.786158
0.827442
0.770669
0.785513
0.729402
0.71993
0.831667
0.695852
0.692768
0.726026
0.748855
0.634245
0.775545
0.629638
0.722886
0.722475
0.824886
0.631803
0.71021
0.860236
0.754296
0.849638
0.712021
0.708609
0.641385
0.640405
0.798478
0.704077
0.775098
0.640915
0.676339
0.594661
0.667369
0.63501
0.676406
0.766259
0.649315
0.778689
0.782078
0.692315
0.712482
0.80585
0.825994
0.753533
0.721191
0.758883
0.8188
0.839681
0.7003
0.77916
0.657919
0.800928
0.890282
0.804347
0.770895
0.763711
0.710507
0.739294
0.842036
0.714908
0.787235
0.830314
0.817458
0.773004
0.770444
0.759248
0.823225
0.869428
0.689623
0.855284
0.795048
0.782341
0.776188
0.740498
0.765463
0.768332
0.754878
0.807429
0.774086
0.762692
0.7977
0.797353
0.863032
0.80038
0.719362
0.696497
0.736656
0.806388
0.75254
0.766721
0.767098
0.777802
0.779129
0.823976
0.827149
0.834562
0.827558
0.778956
0.795925
0.681436
0.807681
0.777917
0.79194
0.767011
0.771719
0.725499
0.62297
0.799702
0.660123
0.637754
0.787109
0.782863
0.68878
0.789412
0.766149
0.683601
0.765875
0.77164
0.73676
0.643128
0.643313
0.767712
0.770966
0.723733
0.676137
0.735923
0.716014
0.729631
0.582364
0.62904
0.680694
0.636129
0.645711
0.635329
0.639726
0.617017
0.667418
0.636095
0.699111
0.877048
0.618675
0.636617
0.651095
0.66098
0.744487
0.790755
0.773618
0.743083
0.883018
0.707557
0.764911
0.698823
0.649984
0.730878
0.654093
0.720961
0.717532
0.664677
0.623958
0.421815
0.403005
0.606987
0.464233
0.499131
0.50284
0.547228
0.564501
0.882392
0.584288
0.7222
0.459077
0.433829
0.439869
0.445784
0.740412
0.659767
0.944285
0.793763
0.731331
0.756846
0.530523
0.816187
0.785179
0.513128
0.426152
0.558891
0.654198
0.747293
0.58667
0.561045
0.631128
0.780042
0.620836
0.645151
0.635715
0.61836
0.499301
0.607124
0.680175
0.573069
0.6557
0.744171
0.721624
0.735109
0.741158
0.726202
0.738133
0.639222
0.692963
0.719182
0.59284
0.689567
0.589494
0.663094
0.553798
0.582646
0.564723
0.61153
0.627826
0.760884
0.728558
0.755103
0.775754
0.66743
0.635608
0.656233
0.783371
0.703983
0.859853
0.717215
0.69615
0.837688
0.69786
0.676825
0.705757
0.661613
0.681787
0.789946
0.732072
0.649568
0.670696
0.633388
0.797112
0.799399
0.739201
0.550765
0.925279
0.752432
0.66739
0.714458
0.733319
0.605844
0.624569
0.662991
0.585931
0.717139
0.785835
0.657068
0.815676
0.579681
0.416224
0.733061
0.676427
0.695639
0.622191
0.868706
0.653686
0.700629
0.513249
0.579871
0.784336
0.598269
0.558291
0.438707
0.530794
0.611898
0.669168
0.504834
0.586033
0.596304
0.535995
0.595731
0.565587
0.747517
0.678221
0.732834
0.525132
0.886808
0.62716
0.62452
0.759743
0.910039
0.692273
0.441959
0.667879
0.761626
0.744518
0.720353
0.709445
0.70906
0.622262
0.633811
0.816516
0.702538
0.588882
0.561142
0.554721
0.618424
0.787697
0.647859
0.633415
0.640954
0.69104
0.71819
0.88318
0.723759
0.690305
0.742465
0.805911
0.795837
0.680996
0.688794
0.699273
0.666957
0.857138
0.665519
0.652113
0.646824
0.538941
0.635808
0.869563
0.617363
0.658929
0.784876
0.678584
0.647203
0.653128
0.644111
0.630419
0.654242
0.663282
0.613364
0.714336
0.605408
0.600986
0.605157
0.669995
0.60273
0.663289
0.735276
0.658279
0.793599
0.687393
0.687501
0.597528
0.657868
0.633375
0.446657
0.501981
0.869156
0.504613
0.872566
0.738491
0.579649
0.631106
0.579712
0.641656
0.663543
0.671967
0.601381
0.592113
0.658481
0.783514
0.746106
0.828178
0.562302
0.457328
0.543812
0.528238
0.635839
0.542711
0.674754
0.513466
0.582396
0.594779
0.421579
0.537632
0.582982
0.398392
0.419182
0.460378
0.423307
0.876746
0.791469
0.533582
0.73856
0.54665
0.542021
0.541905
0.472008
0.389805
0.357096
0.911066
0.789163
0.470756
0.758629
0.47363
0.469772
0.707522
0.714131
0.788731
0.73493
0.713509
0.841483
0.61354
0.502583
0.732921
0.476771
0.758544
0.759974
0.777325
0.746786
0.734584
0.731852
0.663032
0.59671
0.703275
0.731892
0.736726
0.806629
0.4732
0.480617
0.900014
0.863241
0.706533
0.654688
0.699446
0.700536
0.770477
0.696821
0.705733
0.536099
0.860742
0.73753
0.725085
0.740499
0.728018
0.74964
0.751532
0.81879
0.668436
0.645416
0.724834
0.72367
0.834602
0.574397
0.822057
0.782975
0.705825
0.756704
0.717923
0.670247
0.722993
0.686765
0.720748
0.715591
0.717227
0.74979
0.718743
0.694646
0.705778
0.787444
0.802603
0.718221
0.722264
0.739981
0.689624
0.746257
0.730408
0.545304
0.707838
0.796478
0.808782
0.859602
0.843798
0.770395
0.574248
0.784855
0.77191
0.771416
0.684224
0.791633
0.749515
0.789638
0.563338
0.721734
0.651055
0.746783
0.745152
0.750734
0.751802
0.795288
0.791703
0.830149
0.90148
0.78166
0.777179
0.928399
0.902469
0.77061
0.785672
0.761831
0.754075
0.751917
0.752564
0.928697
0.74896
0.757329
0.762259
0.750936
0.761074
0.778613
0.777086
0.786419
0.506399
0.558538
0.70568
0.523527
0.53765
0.785319
0.782884
0.766882
0.86684
0.552181
0.550029
0.832826
0.793516
0.752922
0.754456
0.686963
0.611105
0.736717
0.578896
0.759754
0.768553
0.790862
0.786179
0.80535
0.806536
0.556902
0.790738
0.591045
0.565642
0.835411
0.752629
0.657486
0.67284
0.610898
0.613557
0.748659
0.538466
0.733116
0.758689
0.632285
0.751236
0.725548
0.891295
0.747675
0.671262
0.601676
0.721243
0.737986
0.744962
0.746305
0.779103
0.754231
0.744413
0.752602
0.827555
0.699773
0.744263
0.666108
0.765345
0.66015
0.620258
0.692123
0.734381
0.749992
0.761989
0.730124
0.755201
0.516603
0.67955
0.736958
0.761473
0.914847
0.751933
0.777194
0.696261
0.856218
0.649989
0.700034
0.716416
0.709498
0.625842
0.774509
0.763122
0.751812
0.750789
0.697801
0.735323
0.731576
0.846789
0.469615
0.476434
0.709762
0.766968
0.917666
0.905376
0.776675
0.761683
0.650593
0.633795
0.660058
0.629308
0.710258
0.708895
0.575131
0.753464
0.568281
0.570988
0.702567
0.732655
0.938623
0.766648
0.714926
0.719119
0.471045
0.467539
0.753553
0.7626
