0.125539
0.101766
0.122903
0.0988961
0.030871
0.0779933
0.0677264
0.0679351
0.118413
0.0891974
0.0246339
0.0521937
0.00914402
0.040148
0.10955
0.0860011
0.104096
0.0909517
0.108507
0.0816521
0.00549146
0.0463379
0.0181585
0.0537826
0.0897999
0.0857125
0.0847637
0.0591923
0
0.0274617
0.0873736
0.069275
0.462121
0.430481
0.435943
0.388329
0.355616
0.416831
0.372904
0.390958
0.379903
0.347415
0.359468
0.327735
0.353938
0.369311
0.355877
0.370081
0.405183
0.39746
0.388621
0.377863
0.365811
0.3644
0.415998
0.355605
0.358243
0.396073
0.360019
0.431058
0.484074
0.478763
0.461147
0.403027
0.420898
0.454927
0.444599
0.470843
0.446838
0.401976
0.420015
0.390764
0.424522
0.396912
0.430589
0.473237
0.437343
0.451251
0.44261
0.448952
0.529952
0.470766
0.477081
0.457034
0.42924
0.479376
0.430775
0.416513
0.35695
0.370712
0.447638
0.311461
0.388054
0.387253
0.387088
0.368745
0.409477
0.37884
0.403659
0.43146
0.397532
0.370058
0.39807
0.395796
0.389502
0.377962
0.385002
0.361177
0.360401
0.431672
0.311663
0.385346
0.368082
0.382488
0.371514
0.388978
0.419488
0.501351
0.477346
0.461555
0.385576
0.417402
0.454951
0.440383
0.473025
0.441892
0.392352
0.417607
0.379459
0.421988
0.407585
0.437908
0.469515
0.43732
0.451256
0.443958
0.470771
0.457436
0.425157
0.471356
0.472273
0.413666
0.552875
0.412005
0.577677
0.45755
0.505942
0.548128
0.2202
0.431127
0.239553
0.370136
0.395096
0.53923
0.440201
0.532731
0.625188
0.285375
0.349905
1
0.487726
0.610939
0.660621
0.256999
0.354605
0.620513
0.434646
0.459992
0.527301
0.553891
0.593638
0.614884
0.507725
0.378413
0.392539
0.888406
0.366915
0.814375
0.477345
0.510022
0.295919
0.455062
0.299797
0.332342
0.400659
0.354316
0.550048
0.440964
0.345796
0.440769
0.466792
0.445788
0.489853
0.363751
0.307278
0.437112
0.383032
0.529498
0.460777
0.450422
0.455159
0.576539
0.445653
0.522191
0.426519
0.339188
0.47213
0.636285
0.482092
0.524915
0.438025
0.475303
0.437553
0.403444
0.430797
0.377982
0.400571
0.397407
0.421079
0.596814
0.256355
0.511945
0.576134
0.353383
0.54895
0.439596
0.374476
0.48754
0.428781
0.445577
0.516302
0.428763
0.180653
0.40061
0.385557
0.607434
0.416925
0.504423
0.721773
0.438754
0.801111
0.467095
0.362916
0.434458
0.458351
0.270261
0.430383
0.301916
0.320815
0.831849
0.338833
0.559397
0.362357
0.244686
0.538636
0.47367
0.391513
0.580037
0.438516
0.278516
0.399893
0.450068
0.367506
0.456639
0.650217
0.55698
0.479483
0.515683
0.257122
0.315028
0.363927
0.300394
0.387661
0.407957
0.397441
0.492364
0.405111
0.283775
0.293237
0.294246
0.329372
0.520878
0.312487
0.49426
0.255101
0.308955
0.283157
0.418353
0.267381
0.314082
0.532561
0.321432
0.286713
0.477175
0.321857
0.528816
0.426208
0.357812
0.359999
0.300498
0.384646
0.262914
0.252906
0.414182
0.26207
0.385392
0.509608
0.256706
0.355803
0.515864
0.489415
0.288784
0.410201
0.2612
0.36208
0.271844
0.360645
0.284063
0.375745
0.296957
0.39396
0.232046
0.455463
0.280967
0.388203
0.291898
0.41722
0.247843
0.233711
0.399746
0.274908
0.385205
0.229208
0.417095
0.381725
0.457174
0.334879
0.441733
0.302443
0.231955
0.307659
0.363224
0.282304
0.324076
0.554095
0.30255
0.413637
0.330584
0.305711
0.3851
0.498987
0.263715
0.277693
0.298962
0.338172
0.560425
0.400302
0.22018
0.60791
0.241884
0.232213
0.424028
0.286155
0.338619
0.267479
0.430779
0.461313
0.291073
0.405084
0.260956
0.269352
0.543195
0.414501
0.298143
0.388752
0.307491
0.288005
0.4579
0.282417
0.418275
0.300078
0.446755
0.356711
0.328857
0.288592
0.332687
0.3
0.291721
0.338434
0.443744
0.27329
0.431104
0.403327
0.26001
0.391511
0.373741
0.262076
0.380054
0.73668
0.28567
0.48164
0.388908
0.322598
0.722635
0.214053
0.119078
0.0295732
0.139357
0.132588
0.305928
0.177175
0.714059
0.121761
0.196313
0.236442
0.312858
0.352988
0.495725
0.0324687
0.346213
0.34904
0.388711
0.360992
0.228211
0.272002
0.333294
0.139848
0.43813
0.317953
0.317752
0.322376
0.202308
0.355738
0.248219
0.255467
0.360654
0.32416
0.150568
0.221467
0.171661
0.173127
0.253038
0.151104
0.212508
0.24525
0.149803
0.173106
0.307536
0.1872
0.276876
0.23802
0.168239
0.277814
0.397095
0.260863
0.345393
0.439407
0.232812
0.384647
0.259383
0.419617
0.25618
0.210698
0.478971
0.25594
0.471986
0.422893
0.279723
0.148512
0.242637
0.0543944
0.116005
0.258018
0.146913
0.356109
0.292289
0.260115
0.0731913
0.131197
0.332608
0.172107
0.30756
0.0560482
0.23471
0.309382
0.286903
0.167435
0.324618
0.270053
0.21815
0.333735
0.269914
0.315937
0.187005
0.145878
0.377174
0.239522
0.353151
0.372117
0.21583
0.0997003
0.193615
0.130352
0.165422
0.345553
0.147637
0.313006
0.163613
0.15793
0.238043
0.333265
0.210972
0.329466
0.182335
0.13775
0.205068
0.302272
0.236472
0.360384
0.229591
0.210645
0.418544
0.23848
0.428345
0.399361
0.400542
0.570258
0.637305
0.5475
0.543845
0.444944
0.421793
0.537677
0.386542
0.528818
0.389753
0.39709
0.418958
0.379407
0.451929
0.333768
0.428171
0.37129
0.445804
0.403309
0.430448
0.471692
0.401495
0.391425
0.401478
0.438058
0.414629
0.551682
0.519417
0.531872
0.590313
0.35167
0.338986
0.562635
0.667902
0.653849
0.625569
0.373746
0.325243
0.580552
0.415699
0.595427
0.328257
0.360523
0.574803
0.397603
0.474085
0.527354
0.471418
0.49246
0.554239
0.519325
0.540961
0.516235
0.443716
0.372319
0.339199
0.360034
0.396069
0.554705
0.61637
0.575778
0.617334
0.380233
0.40884
0.464052
0.535191
0.430923
0.518673
0.441083
0.418276
0.345362
0.427932
0.447394
0.407289
0.407448
0.413562
0.36481
0.471832
0.343916
0.436438
0.364309
0.466987
0.409976
0.424606
0.367988
0.402198
0.368861
0.394044
0.435905
0.416411
0.430407
0.5023
0.618714
0.582394
0.360788
0.335056
0.53481
0.611618
0.557233
0.649647
0.385698
0.390639
0.46877
0.445755
0.489799
0.558317
0.384263
0.522608
0.501208
0.507969
0.558366
0.371628
0.402363
0.495893
0.392476
0.532983
0.557804
0.51772
0.356623
0.354842
0.410719
0.386502
0.521096
0.575953
0.596384
0.658649
