0.112543
0.161736
0.250363
0.392271
0.438388
0.460232
0.368901
0.477841
0.306142
0.427766
0.372151
0.292892
0.306357
0.371508
0.403646
0.217501
0.480824
0.244872
0.335757
0.294646
0.375685
0.378777
0.395752
0.401695
0.393292
1
0.256359
0.176519
0.254134
0.39185
0.513981
0.375838
0.349929
0.269509
0.395652
0.1639
0.279638
0.181631
0.34971
0.202528
0.40985
0.507161
0.3092
0.36741
0.519214
0.461243
0.449841
0.411857
0.329651
0.453973
0.373563
0.367723
0.349205
0.318677
0.515724
0.465634
0.528886
0.484167
0.290561
0.449893
0.517113
0.354807
0.468251
0.520374
0.281833
0.446286
0.311064
0.714409
0.322151
0.710786
0.448774
0.421827
0.518493
0.321744
0.459206
0.332896
0.486452
0.426827
0.467471
0.617775
0.345679
0.450928
0.313949
0.387909
0.525019
0.505514
0.400937
0.44944
0.5132
0.514872
0.535307
0.376813
0.498961
0.29903
0.512332
0.517458
0.553399
0.514541
0.467963
0.524146
0.442101
0.472802
0.585713
0.316464
0.534983
0.320724
0.442764
0.34358
0.373866
0.401603
0.29087
0.39828
0.326696
0.399591
0.43905
0.327085
0.327927
0.3171
0.439502
0.238395
0.477778
0.406422
0.387926
0.33319
0.53073
0.463607
0.328384
0.225893
0.220752
0.388878
0.413485
0.364157
0.356901
0.413915
0.312531
0.427334
0.45877
0.366671
0.424825
0.458031
0.602562
0.301851
0.592913
0.443424
0.416302
0.458824
0.558563
0.484531
0.577227
0.359003
0.494048
0.516902
0.497647
0.381074
0.321715
0.313501
0.485043
0.470668
0.400586
0.497634
0.412681
0.344903
0.370033
0.475074
0.491782
0.483222
0.488681
0.450899
0.388055
0.48305
0.488177
0.521038
0.46828
0.38348
0.51458
0.524443
0.378926
0.512789
0.462027
0.365573
0.466857
0.529441
0.395893
0.32671
0.392301
0.342725
0.266771
0.36829
0.359922
0.480791
0.322197
0.458607
0.488202
0.704995
0.413059
0.407364
0.433922
0.259274
0.385248
0.378174
0.410835
0.474207
0.30856
0.780452
0.437304
0.466891
0.368917
0.334362
0.37022
0.432564
0.362277
0.440607
0.433461
0.375185
0.624108
0.313277
0.361037
0.345379
0.346664
0.348407
0.517562
0.323256
0.37431
0.360098
0.376947
0.382101
0.669954
0.436047
0.416309
0.112017
0.470724
0.288404
0.32261
0.29273
0.401826
0.45998
0.325809
0.394161
0.396998
0.412023
0.680041
0.421555
0.409159
0.373469
0.314451
0.270195
0.382653
0.480781
0.467966
0.211732
0.160452
0.410795
0.362836
0.178752
0.283799
0.345826
0.328851
0.234373
0.380879
0.448411
0.33326
0.417824
0.251376
0.402292
0.372045
0.605398
0.307368
0.482055
0.190749
0.377696
0.249238
0.403216
0.264011
0.37288
0.325363
0.446374
0.370486
0.282102
0.319103
0.312349
0.401451
0.306008
0
0.0266483
0.110381
0.33362
0.140815
0.122592
0.098648
0.144137
0.0804299
0.0851907
0.131569
0.239361
0.154021
0.056986
0.238874
0.515122
0.141386
0.41838
0.190221
0.0689096
0.147729
0.434124
0.439516
0.208855
0.315075
0.459978
0.117102
0.115029
0.154507
0.177253
0.149019
0.080733
0.133862
0.0886194
0.108376
0.454766
0.487647
0.221979
0.214584
0.247771
0.205994
0.100251
0.169824
0.0485794
0.427634
0.192396
0.0817298
0.115494
0.20087
0.0628484
0.111905
0.480836
0.179406
0.0939519
0.106845
0.122974
0.0847802
0.128421
0.26028
0.182151
0.171178
0.167216
0.137557
0.0974707
0.166468
0.103674
0.168947
0.304975
0.225635
0.0720776
0.16411
0.221231
0.103342
0.121656
