OFF
313 582 0
-0.299485 11.1676 -16.6754
-0.0411854 11.1585 -16.6757
-0.0736854 11.2481 -16.9313
-0.344385 11.2576 -16.931
-0.0814854 11.0279 -16.9737
-0.352185 11.0375 -16.9734
-0.321585 10.9548 -16.7165
-0.314085 11.165 -16.676
-0.274885 11.0946 -16.4773
0.0909146 8.3758 2.90177
0.140215 9.0835 2.63487
-0.0253854 9.084 2.63547
-0.0910854 8.3758 2.90177
-0.0338854 9.0844 2.63537
-0.101385 8.3758 2.90107
1.32951 8.3748 2.74847
1.27181 9.0793 2.49707
1.27181 9.0847 2.63347
1.32951 8.3758 2.89877
1.26821 9.0846 2.63537
1.32521 8.3758 2.90107
-0.101385 8.3678 1.67507
-0.0336854 9.042 1.52477
-0.0251854 9.042 1.52027
-0.0910854 8.3678 1.66987
0.140415 9.042 1.52027
0.0909146 8.3678 1.66987
-0.0366854 9.0845 2.63347
-0.104885 8.3758 2.89877
-0.0366854 9.0791 2.49707
-0.104885 8.3748 2.74847
0.361415 13.2026 0.131665
0.433715 13.1972 0.128665
0.474915 14.2167 -2.86783
0.406015 14.2295 -2.86793
0.461515 13.9878 -6.48403
0.380115 14.0059 -6.48613
0.394615 14.0206 -6.48703
0.417115 14.2405 -2.86743
0.365815 13.2075 0.134665
0.960115 13.2068 0.136965
0.959715 13.1724 0.0925654
1.00421 14.1734 -2.86023
1.00591 14.2321 -2.85853
1.09371 13.9266 -6.45773
1.09651 14.0048 -6.47963
1.10051 14.0005 -6.47943
1.00911 14.229 -2.85913
0.961215 13.2055 0.136465
0.358615 12.9419 -0.219835
0.362915 12.9409 -0.219735
0.402215 13.7921 -2.88163
0.391415 13.7946 -2.88063
0.371415 13.4253 -6.31513
0.357515 13.4288 -6.31343
0.439915 13.427 -6.31053
0.461015 13.7939 -2.87843
0.431015 12.9421 -0.219235
0.367215 13.2087 0.134965
0.420715 14.2433 -2.86723
0.399415 14.0245 -6.48703
0.396615 13.9464 -6.46573
0.419015 14.1846 -2.86933
0.366915 13.1743 0.0904654
0.442815 12.3513 -10.0512
0.358515 12.3665 -10.0491
0.397415 10.6584 -12.8703
0.303215 10.6681 -12.864
0.309015 10.6736 -12.8574
0.370515 12.3779 -10.0462
1.08941 12.2791 -10.0442
1.09241 12.3609 -10.0594
1.09021 10.5675 -12.8917
1.09321 10.6537 -12.888
1.09351 10.6519 -12.8858
1.09501 12.3573 -10.0579
0.354315 11.7503 -9.92053
0.343915 11.7528 -9.91823
0.299115 9.9976 -12.8764
0.295315 9.9979 -12.8742
0.389315 9.9949 -12.8745
0.428715 11.7505 -9.91673
0.374415 12.3806 -10.045
0.310915 10.6743 -12.8552
0.309515 10.5888 -12.859
0.372315 12.2993 -10.0302
0.303615 10.2601 -14.2424
0.176315 10.2672 -14.2376
0.182715 10.5398 -14.9837
0.00961458 10.5465 -14.9824
0.00111458 10.5467 -14.9813
0.174615 10.2692 -14.233
1.19501 10.1282 -14.2725
1.19881 10.2367 -14.2557
1.36381 10.3555 -15.0149
1.36891 10.4976 -14.9886
1.36511 10.4995 -14.9878
1.19691 10.2369 -14.254
0.153715 9.3975 -14.3613
-0.0374854 9.3913 -15.194
-0.0287854 9.3865 -15.1945
0.156615 9.3952 -14.3603
0.144315 9.3804 -15.1948
0.283715 9.3909 -14.361
-0.00178542 10.5449 -14.9813
0.174015 10.2685 -14.2317
-0.00658542 10.4029 -15.0076
0.171315 10.1603 -14.2485
0.0561146 10.8808 -15.9107
-0.165285 10.8886 -15.9104
-0.177885 10.8881 -15.9106
1.55661 10.6439 -15.9478
1.56301 10.8239 -15.9131
1.70381 10.8833 -16.7188
1.71121 11.0934 -16.6784
1.66681 11.026 -16.4795
1.55791 10.8268 -15.9126
-0.230085 9.42 -16.1934
-0.217685 9.4134 -16.1946
-0.333285 9.4515 -16.7938
-0.360385 9.4546 -17.0054
-0.102085 9.4454 -17.0057
0.00361458 9.4056 -16.1949
-0.182185 10.8856 -15.9111
-0.188585 10.7055 -15.9458
0.288315 11.0884 1.83667
0.171515 11.0902 1.83917
0.168615 11.0919 1.84107
0.167715 11.0922 1.84037
0.167815 11.0757 1.74517
0.169315 10.9619 1.07107
0.172215 10.9622 1.06877
0.289015 10.9625 1.06887
1.09871 11.0765 1.74507
1.09871 11.093 1.84027
1.09721 11.0926 1.84087
1.12801 8.3758 2.90177
1.08961 9.0837 2.63477
0.614515 9.0835 2.63467
0.609015 8.3758 2.90177
0.631115 11.088 1.83577
0.974415 11.0888 1.83657
0.891015 13.1953 0.129665
0.662115 13.1945 0.128065
0.711215 14.208 -2.86583
0.948015 14.2071 -2.86313
1.02801 13.9706 -6.47743
0.744315 13.9739 -6.48033
0.727715 12.3373 -10.0496
1.01401 12.332 -10.0487
0.994815 10.6376 -12.8728
0.695215 10.6455 -12.8716
0.680915 10.2456 -14.2439
1.05961 10.2335 -14.2453
1.17761 10.5047 -14.9854
0.679715 10.5219 -14.9846
0.686515 10.8585 -15.9114
1.31801 10.8362 -15.9121
1.43161 11.1064 -16.6774
0.694615 11.1325 -16.6766
0.697215 11.2208 -16.9322
1.46941 11.1936 -16.9331
1.46151 10.9734 -16.9755
0.689415 11.0007 -16.9746
0.640315 9.3629 -15.1962
0.634115 9.3833 -16.1956
0.633715 9.4195 -17.0066
1.37071 9.3934 -17.0074
1.26551 9.361 -16.1963
1.13711 9.3453 -15.198
0.681915 9.9848 -12.8782
0.657315 9.3777 -14.3644
1.03171 9.3645 -14.3697
0.975315 9.9745 -12.8848
0.723515 13.4187 -6.30493
0.711015 11.7412 -9.91563
0.994015 11.7315 -9.91623
1.00761 13.4101 -6.29933
0.659615 12.9415 -0.218035
0.698315 13.7895 -2.87413
0.936015 13.7847 -2.86963
0.888615 12.9406 -0.216935
0.614715 9.0421 1.52027
0.631715 10.9629 1.06887
0.974915 10.9631 1.06887
1.08971 9.0422 1.52027
0.609015 8.3678 1.66987
1.12801 8.3678 1.66987
1.25751 9.0842 2.63537
1.31241 8.3758 2.90177
1.09281 11.0908 1.83897
0.964415 13.2004 0.133265
1.01851 14.2174 -2.86073
1.11221 13.9842 -6.47793
1.10261 12.3432 -10.0529
1.09411 10.6432 -12.8791
1.19111 10.2332 -14.2496
1.35371 10.4995 -14.9866
1.54231 10.8283 -15.9124
1.69341 11.0972 -16.6777
1.74371 11.1839 -16.9334
1.73591 10.9637 -16.9758
1.31271 9.3391 -15.1998
1.48991 9.3531 -16.1966
1.63261 9.3842 -17.0077
1.60841 9.3829 -16.7961
1.50571 9.3587 -16.1954
1.32411 9.3432 -15.2005
1.07141 9.9708 -12.8936
1.16101 9.3598 -14.3762
1.16611 9.3619 -14.3821
1.06961 9.9709 -12.9028
1.09171 13.407 -6.29663
1.08081 11.7281 -9.91963
1.07221 11.7263 -9.92513
1.07951 13.4043 -6.29703
0.962015 12.9402 -0.216335
1.00681 13.7829 -2.86683
0.997115 13.7809 -2.86623
0.958615 12.9394 -0.215735
1.25761 9.0422 1.52027
1.09321 10.9632 1.06877
1.09751 10.963 1.07117
1.26831 9.0422 1.52477
1.31241 8.3678 1.66987
1.32521 8.3678 1.67507
1.27181 9.0423 1.53817
1.32951 8.3679 1.69057
1.27181 9.0476 1.68597
1.32951 8.369 1.85407
1.09881 10.9788 1.17967
1.09891 10.9627 1.07857
0.957215 12.9377 -0.214835
0.957315 12.9698 -0.170235
0.994515 13.8282 -2.86923
0.993415 13.7757 -2.86823
1.07491 13.3969 -6.30093
1.07701 13.4666 -6.32683
1.07181 11.7974 -9.95253
1.06911 11.7216 -9.93193
1.06921 9.9717 -12.9105
1.07241 10.0575 -12.912
1.17251 9.4836 -14.3711
1.16831 9.3693 -14.3858
1.32841 9.3568 -15.1991
1.33391 9.5105 -15.1714
1.51851 9.573 -16.1541
1.51161 9.3771 -16.1918
1.65121 9.4049 -17.0037
1.65941 9.6335 -16.9596
1.40651 9.4244 -17.2739
1.41501 9.6639 -17.2278
1.68931 9.6542 -17.2281
1.68081 9.4147 -17.2742
-0.136585 9.4789 -17.2721
-0.128085 9.7184 -17.226
0.642915 9.6912 -17.2269
0.634315 9.4517 -17.273
-0.398685 9.7279 -17.2257
-0.407185 9.4884 -17.2718
-0.374085 9.4764 -17.0013
-0.365985 9.705 -16.9573
-0.0399854 9.405 -15.192
-0.0348854 9.5585 -15.1641
-0.226685 9.6346 -16.1521
-0.233585 9.4388 -16.1898
0.300015 9.9979 -12.8804
0.301115 10.0826 -12.8803
0.155315 9.5183 -14.3473
0.152715 9.4046 -14.3627
0.376415 13.4175 -6.31703
0.379615 13.487 -6.33953
0.359915 11.8201 -9.94173
0.357815 11.745 -9.92413
0.364515 12.9391 -0.218535
0.364915 12.9714 -0.173335
0.408315 13.8392 -2.88153
0.406215 13.7866 -2.88273
-0.0364854 9.042 1.53817
-0.0365854 9.0474 1.68597
0.168315 10.9778 1.17967
0.168415 10.9617 1.07847
-0.104885 8.369 1.85407
-0.104885 8.3679 1.69057
1.27181 9.0635 2.09347
1.32951 8.3719 2.30347
1.09871 11.0275 1.46337
0.958515 13.0708 -0.0387346
0.999315 13.9998 -2.86513
1.08521 13.6952 -6.39293
1.08051 12.0373 -9.99923
1.08131 10.3124 -12.9027
1.18381 9.8068 -14.3222
1.34891 9.9349 -15.0929
1.53761 10.1111 -16.0505
1.68171 10.2615 -16.8386
1.43841 10.3219 -17.101
1.71271 10.3122 -17.1013
-0.104685 10.3764 -17.0992
0.666215 10.3491 -17.1001
-0.375285 10.3859 -17.0989
-0.343685 10.333 -16.8363
-0.0206854 9.9826 -15.0856
-0.207585 10.1727 -16.0484
0.305215 10.3355 -12.8703
0.163315 9.8402 -14.2981
0.388215 13.7152 -6.40283
0.366115 12.0587 -9.98643
0.365915 13.0725 -0.0413346
0.413715 14.0109 -2.87553
-0.0365854 9.0632 2.09347
0.168015 11.0267 1.46347
-0.104885 8.3719 2.30347
3 0 1 2
3 0 2 3
3 2 4 5
3 2 5 3
3 5 6 7
3 5 7 3
3 7 8 0
3 7 0 3
3 9 10 11
3 9 11 12
3 11 13 14
3 11 14 12
3 15 16 17
3 15 17 18
3 17 19 20
3 17 20 18
3 21 22 23
3 21 23 24
3 23 25 26
3 23 26 24
3 14 13 27
3 14 27 28
3 27 29 30
3 27 30 28
3 31 32 33
3 31 33 34
3 33 35 36
3 33 36 34
3 36 37 38
3 36 38 34
3 38 39 31
3 38 31 34
3 40 41 42
3 40 42 43
3 42 44 45
3 42 45 43
3 45 46 47
3 45 47 43
3 47 48 40
3 47 40 43
3 49 50 51
3 49 51 52
3 51 53 54
3 51 54 52
3 54 55 56
3 54 56 52
3 56 57 49
3 56 49 52
3 58 39 38
3 58 38 59
3 38 37 60
3 38 60 59
3 60 61 62
3 60 62 59
3 62 63 58
3 62 58 59
3 36 35 64
3 36 64 65
3 64 66 67
3 64 67 65
3 67 68 69
3 67 69 65
3 69 37 36
3 69 36 65
3 45 44 70
3 45 70 71
3 70 72 73
3 70 73 71
3 73 74 75
3 73 75 71
3 75 46 45
3 75 45 71
3 54 53 76
3 54 76 77
3 76 78 79
3 76 79 77
3 79 80 81
3 79 81 77
3 81 55 54
3 81 54 77
3 60 37 69
3 60 69 82
3 69 68 83
3 69 83 82
3 83 84 85
3 83 85 82
3 85 61 60
3 85 60 82
3 67 66 86
3 67 86 87
3 86 88 89
3 86 89 87
3 89 90 91
3 89 91 87
3 73 72 92
3 73 92 93
3 92 94 95
3 92 95 93
3 95 96 97
3 95 97 93
3 73 93 97
3 73 97 74
3 98 99 100
3 98 100 101
3 100 102 103
3 100 103 101
3 103 80 79
3 103 79 101
3 91 90 104
3 91 104 105
3 104 106 107
3 104 107 105
3 107 84 83
3 107 83 105
3 89 88 108
3 89 108 109
3 108 1 0
3 108 0 109
3 0 8 110
3 0 110 109
3 110 90 89
3 110 89 109
3 95 94 111
3 95 111 112
3 111 113 114
3 111 114 112
3 114 115 116
3 114 116 112
3 116 96 95
3 116 95 112
3 100 99 117
3 100 117 118
3 117 119 120
3 117 120 118
3 120 121 122
3 120 122 118
3 122 102 100
3 122 100 118
3 104 90 110
3 104 110 123
3 110 8 7
3 110 7 123
3 7 6 124
3 7 124 123
3 124 106 104
3 124 104 123
3 11 10 125
3 11 125 126
3 125 32 31
3 125 31 126
3 31 39 127
3 31 127 126
3 127 13 11
3 127 11 126
3 27 13 127
3 27 127 128
3 58 63 129
3 58 129 128
3 129 29 27
3 129 27 128
3 23 22 130
3 23 130 131
3 49 57 132
3 49 132 131
3 132 25 23
3 132 23 131
3 17 16 133
3 17 133 134
3 133 41 40
3 133 40 134
3 135 19 17
3 135 17 134
3 136 137 138
3 136 138 139
3 138 10 9
3 138 9 139
3 125 10 138
3 125 138 140
3 138 137 141
3 138 141 140
3 141 142 143
3 141 143 140
3 143 32 125
3 143 125 140
3 33 32 143
3 33 143 144
3 143 142 145
3 143 145 144
3 145 146 147
3 145 147 144
3 147 35 33
3 147 33 144
3 64 35 147
3 64 147 148
3 147 146 149
3 147 149 148
3 149 150 151
3 149 151 148
3 151 66 64
3 151 64 148
3 86 66 151
3 86 151 152
3 151 150 153
3 151 153 152
3 153 154 155
3 153 155 152
3 155 88 86
3 155 86 152
3 108 88 155
3 108 155 156
3 155 154 157
3 155 157 156
3 157 158 159
3 157 159 156
3 159 1 108
3 159 108 156
3 2 1 159
3 2 159 160
3 159 158 161
3 159 161 160
3 161 162 163
3 161 163 160
3 163 4 2
3 163 2 160
3 164 102 122
3 164 122 165
3 122 121 166
3 122 166 165
3 166 167 168
3 166 168 165
3 168 169 164
3 168 164 165
3 170 80 103
3 170 103 171
3 103 102 164
3 103 164 171
3 164 169 172
3 164 172 171
3 172 173 170
3 172 170 171
3 174 55 81
3 174 81 175
3 81 80 170
3 81 170 175
3 170 173 176
3 170 176 175
3 176 177 174
3 176 174 175
3 178 57 56
3 178 56 179
3 56 55 174
3 56 174 179
3 174 177 180
3 174 180 179
3 180 181 178
3 180 178 179
3 182 25 132
3 182 132 183
3 132 57 178
3 132 178 183
3 178 181 184
3 178 184 183
3 184 185 182
3 184 182 183
3 26 25 182
3 26 182 186
3 182 185 187
3 182 187 186
3 20 19 188
3 20 188 189
3 188 137 136
3 188 136 189
3 141 137 188
3 141 188 190
3 188 19 135
3 188 135 190
3 135 48 191
3 135 191 190
3 191 142 141
3 191 141 190
3 145 142 191
3 145 191 192
3 191 48 47
3 191 47 192
3 47 46 193
3 47 193 192
3 193 146 145
3 193 145 192
3 149 146 193
3 149 193 194
3 193 46 75
3 193 75 194
3 75 74 195
3 75 195 194
3 195 150 149
3 195 149 194
3 153 150 195
3 153 195 196
3 195 74 97
3 195 97 196
3 97 96 197
3 97 197 196
3 197 154 153
3 197 153 196
3 157 154 197
3 157 197 198
3 197 96 116
3 197 116 198
3 116 115 199
3 116 199 198
3 199 158 157
3 199 157 198
3 161 158 199
3 161 199 200
3 199 115 114
3 199 114 200
3 114 113 201
3 114 201 200
3 201 162 161
3 201 161 200
3 202 169 168
3 202 168 203
3 168 167 204
3 168 204 203
3 204 205 206
3 204 206 203
3 206 207 202
3 206 202 203
3 208 173 172
3 208 172 209
3 172 169 202
3 172 202 209
3 202 207 210
3 202 210 209
3 210 211 208
3 210 208 209
3 212 177 176
3 212 176 213
3 176 173 208
3 176 208 213
3 208 211 214
3 208 214 213
3 214 215 212
3 214 212 213
3 216 181 180
3 216 180 217
3 180 177 212
3 180 212 217
3 212 215 218
3 212 218 217
3 218 219 216
3 218 216 217
3 220 185 184
3 220 184 221
3 184 181 216
3 184 216 221
3 222 223 220
3 222 220 221
3 187 185 220
3 187 220 224
3 220 223 225
3 220 225 224
3 225 223 226
3 225 226 227
3 226 228 229
3 226 229 227
3 230 228 226
3 230 226 231
3 226 223 222
3 226 222 231
3 232 233 230
3 232 230 231
3 234 233 232
3 234 232 235
3 232 219 218
3 232 218 235
3 218 215 236
3 218 236 235
3 236 237 234
3 236 234 235
3 238 237 236
3 238 236 239
3 236 215 214
3 236 214 239
3 240 241 238
3 240 238 239
3 242 241 240
3 242 240 243
3 240 211 210
3 240 210 243
3 210 207 244
3 210 244 243
3 244 245 242
3 244 242 243
3 246 245 244
3 246 244 247
3 244 207 206
3 244 206 247
3 206 205 248
3 206 248 247
3 248 249 246
3 248 246 247
3 250 251 252
3 250 252 253
3 252 249 248
3 252 248 253
3 248 205 204
3 248 204 253
3 204 167 250
3 204 250 253
3 254 255 256
3 254 256 257
3 256 251 250
3 256 250 257
3 250 167 166
3 250 166 257
3 166 121 254
3 166 254 257
3 258 255 254
3 258 254 259
3 254 121 120
3 254 120 259
3 120 119 260
3 120 260 259
3 260 261 258
3 260 258 259
3 262 263 264
3 262 264 265
3 264 261 260
3 264 260 265
3 260 119 117
3 260 117 265
3 117 99 262
3 117 262 265
3 266 267 268
3 266 268 269
3 268 263 262
3 268 262 269
3 262 99 98
3 262 98 269
3 98 78 266
3 98 266 269
3 270 271 272
3 270 272 273
3 272 267 266
3 272 266 273
3 273 266 78
3 273 78 76
3 76 53 270
3 76 270 273
3 274 275 276
3 274 276 277
3 276 271 270
3 276 270 277
3 270 53 51
3 270 51 277
3 51 50 274
3 51 274 277
3 278 279 280
3 278 280 281
3 280 275 274
3 280 274 281
3 130 281 274
3 130 274 50
3 130 22 278
3 130 278 281
3 282 279 278
3 282 278 283
3 278 22 21
3 278 21 283
3 229 228 284
3 229 284 285
3 284 16 15
3 284 15 285
3 133 16 284
3 133 284 286
3 284 228 230
3 284 230 286
3 230 233 287
3 230 287 286
3 287 41 133
3 287 133 286
3 42 41 287
3 42 287 288
3 287 233 234
3 287 234 288
3 234 237 289
3 234 289 288
3 289 44 42
3 289 42 288
3 70 44 289
3 70 289 290
3 289 237 238
3 289 238 290
3 238 241 291
3 238 291 290
3 291 72 70
3 291 70 290
3 92 72 291
3 92 291 292
3 291 241 242
3 291 242 292
3 242 245 293
3 242 293 292
3 293 94 92
3 293 92 292
3 111 94 293
3 111 293 294
3 293 245 246
3 293 246 294
3 246 249 295
3 246 295 294
3 295 113 111
3 295 111 294
3 296 162 201
3 296 201 297
3 201 113 295
3 201 295 297
3 295 249 252
3 295 252 297
3 252 251 296
3 252 296 297
3 298 4 163
3 298 163 299
3 163 162 296
3 163 296 299
3 296 251 256
3 296 256 299
3 256 255 298
3 256 298 299
3 5 4 298
3 5 298 300
3 298 255 258
3 298 258 300
3 258 261 301
3 258 301 300
3 301 6 5
3 301 5 300
3 302 106 124
3 302 124 303
3 124 6 301
3 124 301 303
3 301 261 264
3 301 264 303
3 264 263 302
3 264 302 303
3 304 84 107
3 304 107 305
3 107 106 302
3 107 302 305
3 302 263 268
3 302 268 305
3 268 267 304
3 268 304 305
3 306 61 85
3 306 85 307
3 85 84 304
3 85 304 307
3 304 267 272
3 304 272 307
3 272 271 306
3 272 306 307
3 308 63 62
3 308 62 309
3 62 61 306
3 62 306 309
3 306 271 276
3 306 276 309
3 276 275 308
3 276 308 309
3 310 29 129
3 310 129 311
3 129 63 308
3 129 308 311
3 308 275 280
3 308 280 311
3 280 279 310
3 280 310 311
3 30 29 310
3 30 310 312
3 310 279 282
3 310 282 312
