OFF
249 480 0
5.61995 -20.6941 0.599808
5.51695 -20.6878 0.926208
5.28695 -20.6974 1.06021
5.31895 -20.7095 0.626708
4.95395 -20.7052 1.11771
4.95795 -20.7167 0.651108
4.96295 -20.7207 0.0919083
5.35095 -20.7136 0.107208
5.67495 -20.6977 0.120108
4.62295 -20.7073 1.03391
4.39495 -20.7055 0.881808
4.29795 -20.7112 0.547408
4.59795 -20.7168 0.598108
4.25095 -20.7141 0.0636083
4.57495 -20.7203 0.0765083
4.30195 -20.7121 -0.416192
4.40295 -20.7072 -0.742792
4.63495 -20.7089 -0.876692
4.60495 -20.7175 -0.442992
4.97195 -20.7066 -0.933992
4.96795 -20.7173 -0.467392
5.30695 -20.6989 -0.849992
5.53595 -20.6894 -0.697892
5.63195 -20.695 -0.363592
5.32895 -20.7101 -0.414292
3.37695 -15.6873 1.26061
3.47395 -16.0357 1.16371
3.73595 -15.8385 0.618108
3.68795 -15.4504 0.659408
3.83195 -15.7972 -0.0426917
3.80195 -15.3976 -0.0669917
3.97195 -14.9902 -0.0851917
3.85295 -15.0234 0.753908
3.49895 -15.2735 1.44131
3.75795 -15.9067 -0.708092
3.51095 -16.1621 -1.26759
3.42095 -15.8233 -1.40969
3.71395 -15.5237 -0.797192
3.54695 -15.4014 -1.63759
3.88195 -15.0941 -0.931692
1.17695 -17.6466 1.21951
1.61895 -17.6892 1.11321
2.03795 -17.295 1.45631
1.67395 -17.1813 1.59301
2.54195 -16.8383 1.58061
2.27195 -16.6408 1.72561
2.12795 -16.5062 1.94941
1.37095 -17.1716 1.81471
0.751954 -17.7248 1.40931
3.04795 -16.3938 1.48381
2.87195 -16.1134 1.61541
2.88095 -15.8207 1.83231
1.18695 -17.798 -1.45149
1.62695 -17.8276 -1.31889
1.36895 -18.0228 -0.773092
0.880954 -18.0323 -0.850092
1.28295 -18.0601 -0.112092
0.778954 -18.08 -0.123592
0.315954 -18.2176 -0.127492
0.417954 -18.1559 -0.971492
0.762954 -17.87 -1.66939
1.36695 -17.9466 0.553508
0.877954 -17.9488 0.606808
0.413954 -18.0736 0.714008
3.08695 -16.5584 -1.61089
2.91795 -16.2912 -1.78339
2.57295 -17.019 -1.73539
2.30895 -16.8368 -1.91619
2.16495 -16.6751 -2.19579
2.92895 -15.9785 -2.05489
2.05695 -17.4675 -1.63889
1.69695 -17.3693 -1.80619
1.39395 -17.341 -2.07239
3.81695 -16.4471 1.12581
4.04995 -16.2737 0.613408
4.29995 -16.9158 1.12891
4.51895 -16.7566 0.633208
4.59895 -16.726 0.0315083
4.13495 -16.2393 -0.00789171
4.81695 -17.4357 1.15511
5.26295 -18.0012 1.18671
5.47695 -17.8668 0.696608
5.03095 -17.2875 0.665108
5.55495 -17.8414 0.101408
5.10995 -17.2594 0.0699083
5.49495 -17.9207 -0.499192
5.29395 -18.1009 -1.00569
4.84795 -17.5457 -1.03719
5.04995 -17.347 -0.530692
4.33195 -17.0319 -1.08739
4.53695 -16.8194 -0.575592
3.84995 -16.5679 -1.16219
4.06995 -16.339 -0.634492
2.16895 -17.9171 1.06961
2.54195 -17.5656 1.39451
2.75595 -18.2742 1.06991
3.10495 -17.9487 1.38561
3.52495 -17.5731 1.50241
2.98895 -17.1593 1.51381
3.30795 -18.7041 1.09531
3.75395 -19.1505 1.12681
4.09495 -18.875 1.43941
3.64995 -18.4 1.40791
4.50495 -18.557 1.55541
4.05895 -18.0492 1.52391
4.91595 -18.2485 1.47211
4.47095 -17.7087 1.44051
3.94595 -17.2083 1.41771
3.43895 -16.7644 1.42501
2.17595 -18.0478 -1.21919
1.94695 -18.2195 -0.706692
2.76195 -18.3991 -1.14719
2.54795 -18.5568 -0.651492
2.47595 -18.5844 -0.0493917
1.87095 -18.2506 -0.0850917
3.31395 -18.8222 -1.09799
3.75995 -19.2576 -1.06649
3.54995 -19.3907 -0.576292
3.10495 -18.9691 -0.607792
3.47995 -19.4137 0.0192083
3.03495 -18.9945 -0.0123917
3.54795 -19.3318 0.620108
3.10295 -18.9042 0.588608
2.54595 -18.4882 0.558008
1.94495 -18.1477 0.541808
3.47295 -16.921 -1.48719
3.97795 -17.3588 -1.40329
3.54995 -17.7374 -1.52039
3.01695 -17.3307 -1.60679
4.94795 -18.3776 -1.31849
4.50295 -17.8512 -1.35009
4.52995 -18.698 -1.43479
4.08495 -18.2047 -1.46629
4.10995 -19.009 -1.35169
3.66495 -18.5479 -1.38329
3.12095 -18.1051 -1.43589
2.55795 -17.7289 -1.51829
5.52995 -18.6062 1.20561
5.74395 -18.495 0.715508
5.66395 -19.202 1.21501
5.87695 -19.1188 0.725008
5.95595 -19.1031 0.129808
5.82195 -18.474 0.120408
5.70795 -19.7399 1.21821
5.70795 -20.1711 1.21821
5.92195 -20.1403 0.728108
5.92195 -19.685 0.728108
5.99995 -20.1344 0.133008
5.99995 -19.6746 0.133008
5.93995 -20.1527 -0.467692
5.73895 -20.194 -0.974192
5.73895 -19.7807 -0.974192
5.93995 -19.7071 -0.467692
5.69495 -19.2638 -0.977292
5.89595 -19.1522 -0.470792
5.56095 -18.6887 -0.986792
5.76195 -18.5396 -0.480292
4.02095 -19.5572 1.14571
4.36195 -19.3292 1.45841
4.15495 -19.9138 1.15521
4.49595 -19.7432 1.46781
4.90595 -19.5463 1.58381
4.77195 -19.0662 1.57431
4.19895 -20.21 1.15831
4.19895 -20.4353 1.15831
4.53995 -20.3719 1.47101
4.53995 -20.0973 1.47101
4.94995 -20.2989 1.58701
4.94995 -19.9673 1.58701
5.36195 -20.228 1.50361
5.36195 -19.8411 1.50361
5.31695 -19.3552 1.50041
5.18395 -18.8108 1.49101
4.02695 -19.6458 -1.04759
3.81695 -19.756 -0.557292
4.15995 -19.9801 -1.03809
3.95095 -20.0626 -0.547892
3.88095 -20.0768 0.0476083
3.74695 -19.775 0.0381083
4.20495 -20.2538 -1.03489
4.20495 -20.4599 -1.03489
3.99495 -20.4905 -0.544692
3.99495 -20.3082 -0.544692
3.92495 -20.4957 0.0507083
3.92495 -20.3176 0.0507083
3.99395 -20.4769 0.651708
3.99395 -20.2841 0.651708
3.94895 -20.0262 0.648508
3.81595 -19.7073 0.639108
5.21595 -18.9177 -1.29959
5.34895 -19.4352 -1.29009
4.93095 -19.6336 -1.40639
4.79695 -19.1828 -1.41589
5.39395 -20.2577 -1.28699
5.39395 -19.8939 -1.28699
4.97595 -20.3313 -1.40329
4.97595 -20.0249 -1.40329
4.55495 -20.4027 -1.32019
4.55495 -20.1521 -1.32019
4.51095 -19.8262 -1.32329
4.37695 -19.4401 -1.33279
5.70795 -20.4468 1.21821
5.92195 -20.4314 0.728108
5.68395 -20.6017 1.18191
5.89195 -20.5954 0.707508
5.96795 -20.5947 0.131708
5.99995 -20.4284 0.133008
5.61295 -20.6701 1.07321
5.80095 -20.6696 0.645808
5.86995 -20.6712 0.127808
5.63795 -20.6724 -0.836892
5.81595 -20.6708 -0.394992
5.71395 -20.6067 -0.939892
5.90895 -20.5982 -0.449492
5.73895 -20.4583 -0.974192
5.93995 -20.4376 -0.467692
5.39395 -20.4902 -1.28699
5.37995 -20.6212 -1.24319
4.97495 -20.6379 -1.35619
4.97595 -20.5272 -1.40329
5.33695 -20.68 -1.11199
4.97395 -20.689 -1.21499
4.30395 -20.6989 -0.889792
4.60895 -20.6948 -1.14079
4.22995 -20.6658 -0.998692
4.56895 -20.6535 -1.27529
4.20495 -20.5916 -1.03489
4.55495 -20.563 -1.32019
3.99495 -20.607 -0.544692
4.02595 -20.6727 -0.524092
3.95795 -20.6741 0.0520083
3.92495 -20.6096 0.0507083
4.11895 -20.7025 -0.462292
4.05595 -20.7038 0.0559083
4.29695 -20.6964 1.02101
4.11595 -20.7011 0.579008
4.22395 -20.6603 1.12401
4.02395 -20.6697 0.633508
4.19895 -20.5793 1.15831
3.99395 -20.6002 0.651708
4.53995 -20.5476 1.47101
4.55395 -20.6467 1.42721
4.95095 -20.6308 1.53991
4.94995 -20.5109 1.58701
4.59495 -20.6919 1.29591
4.95195 -20.6861 1.39871
5.31095 -20.6772 1.32431
5.34895 -20.6146 1.45881
5.36195 -20.4754 1.50361
3 0 1 2
3 0 2 3
3 2 4 5
3 2 5 3
3 5 6 7
3 5 7 3
3 7 8 0
3 7 0 3
3 9 10 11
3 9 11 12
3 11 13 14
3 11 14 12
3 14 6 5
3 14 5 12
3 5 4 9
3 5 9 12
3 15 16 17
3 15 17 18
3 17 19 20
3 17 20 18
3 20 6 14
3 20 14 18
3 14 13 15
3 14 15 18
3 21 22 23
3 21 23 24
3 23 8 7
3 23 7 24
3 7 6 20
3 7 20 24
3 20 19 21
3 20 21 24
3 25 26 27
3 25 27 28
3 27 29 30
3 27 30 28
3 30 31 32
3 30 32 28
3 32 33 25
3 32 25 28
3 34 35 36
3 34 36 37
3 36 38 39
3 36 39 37
3 39 31 30
3 39 30 37
3 30 29 34
3 30 34 37
3 40 41 42
3 40 42 43
3 42 44 45
3 42 45 43
3 45 46 47
3 45 47 43
3 47 48 40
3 47 40 43
3 49 26 25
3 49 25 50
3 25 33 51
3 25 51 50
3 51 46 45
3 51 45 50
3 45 44 49
3 45 49 50
3 52 53 54
3 52 54 55
3 54 56 57
3 54 57 55
3 57 58 59
3 57 59 55
3 59 60 52
3 59 52 55
3 61 41 40
3 61 40 62
3 40 48 63
3 40 63 62
3 63 58 57
3 63 57 62
3 57 56 61
3 57 61 62
3 36 35 64
3 36 64 65
3 64 66 67
3 64 67 65
3 67 68 69
3 67 69 65
3 69 38 36
3 69 36 65
3 70 53 52
3 70 52 71
3 52 60 72
3 52 72 71
3 72 68 67
3 72 67 71
3 67 66 70
3 67 70 71
3 27 26 73
3 27 73 74
3 73 75 76
3 73 76 74
3 76 77 78
3 76 78 74
3 78 29 27
3 78 27 74
3 79 80 81
3 79 81 82
3 81 83 84
3 81 84 82
3 84 77 76
3 84 76 82
3 76 75 79
3 76 79 82
3 85 86 87
3 85 87 88
3 87 89 90
3 87 90 88
3 90 77 84
3 90 84 88
3 84 83 85
3 84 85 88
3 91 35 34
3 91 34 92
3 34 29 78
3 34 78 92
3 78 77 90
3 78 90 92
3 90 89 91
3 90 91 92
3 42 41 93
3 42 93 94
3 93 95 96
3 93 96 94
3 96 97 98
3 96 98 94
3 98 44 42
3 98 42 94
3 99 100 101
3 99 101 102
3 101 103 104
3 101 104 102
3 104 97 96
3 104 96 102
3 96 95 99
3 96 99 102
3 105 80 79
3 105 79 106
3 79 75 107
3 79 107 106
3 107 97 104
3 107 104 106
3 104 103 105
3 104 105 106
3 73 26 49
3 73 49 108
3 49 44 98
3 49 98 108
3 98 97 107
3 98 107 108
3 107 75 73
3 107 73 108
3 54 53 109
3 54 109 110
3 109 111 112
3 109 112 110
3 112 113 114
3 112 114 110
3 114 56 54
3 114 54 110
3 115 116 117
3 115 117 118
3 117 119 120
3 117 120 118
3 120 113 112
3 120 112 118
3 112 111 115
3 112 115 118
3 121 100 99
3 121 99 122
3 99 95 123
3 99 123 122
3 123 113 120
3 123 120 122
3 120 119 121
3 120 121 122
3 93 41 61
3 93 61 124
3 61 56 114
3 61 114 124
3 114 113 123
3 114 123 124
3 123 95 93
3 123 93 124
3 64 35 91
3 64 91 125
3 91 89 126
3 91 126 125
3 126 127 128
3 126 128 125
3 128 66 64
3 128 64 125
3 87 86 129
3 87 129 130
3 129 131 132
3 129 132 130
3 132 127 126
3 132 126 130
3 126 89 87
3 126 87 130
3 133 116 115
3 133 115 134
3 115 111 135
3 115 135 134
3 135 127 132
3 135 132 134
3 132 131 133
3 132 133 134
3 109 53 70
3 109 70 136
3 70 66 128
3 70 128 136
3 128 127 135
3 128 135 136
3 135 111 109
3 135 109 136
3 81 80 137
3 81 137 138
3 137 139 140
3 137 140 138
3 140 141 142
3 140 142 138
3 142 83 81
3 142 81 138
3 143 144 145
3 143 145 146
3 145 147 148
3 145 148 146
3 148 141 140
3 148 140 146
3 140 139 143
3 140 143 146
3 149 150 151
3 149 151 152
3 151 153 154
3 151 154 152
3 154 141 148
3 154 148 152
3 148 147 149
3 148 149 152
3 155 86 85
3 155 85 156
3 85 83 142
3 85 142 156
3 142 141 154
3 142 154 156
3 154 153 155
3 154 155 156
3 101 100 157
3 101 157 158
3 157 159 160
3 157 160 158
3 160 161 162
3 160 162 158
3 162 103 101
3 162 101 158
3 163 164 165
3 163 165 166
3 165 167 168
3 165 168 166
3 168 161 160
3 168 160 166
3 160 159 163
3 160 163 166
3 169 144 143
3 169 143 170
3 143 139 171
3 143 171 170
3 171 161 168
3 171 168 170
3 168 167 169
3 168 169 170
3 137 80 105
3 137 105 172
3 105 103 162
3 105 162 172
3 162 161 171
3 162 171 172
3 171 139 137
3 171 137 172
3 117 116 173
3 117 173 174
3 173 175 176
3 173 176 174
3 176 177 178
3 176 178 174
3 178 119 117
3 178 117 174
3 179 180 181
3 179 181 182
3 181 183 184
3 181 184 182
3 184 177 176
3 184 176 182
3 176 175 179
3 176 179 182
3 185 164 163
3 185 163 186
3 163 159 187
3 163 187 186
3 187 177 184
3 187 184 186
3 184 183 185
3 184 185 186
3 157 100 121
3 157 121 188
3 121 119 178
3 121 178 188
3 178 177 187
3 178 187 188
3 187 159 157
3 187 157 188
3 129 86 155
3 129 155 189
3 155 153 190
3 155 190 189
3 190 191 192
3 190 192 189
3 192 131 129
3 192 129 189
3 151 150 193
3 151 193 194
3 193 195 196
3 193 196 194
3 196 191 190
3 196 190 194
3 190 153 151
3 190 151 194
3 197 180 179
3 197 179 198
3 179 175 199
3 179 199 198
3 199 191 196
3 199 196 198
3 196 195 197
3 196 197 198
3 173 116 133
3 173 133 200
3 133 131 192
3 133 192 200
3 192 191 199
3 192 199 200
3 199 175 173
3 199 173 200
3 145 144 201
3 145 201 202
3 201 203 204
3 201 204 202
3 204 205 206
3 204 206 202
3 206 147 145
3 206 145 202
3 207 1 0
3 207 0 208
3 0 8 209
3 0 209 208
3 209 205 204
3 209 204 208
3 204 203 207
3 204 207 208
3 23 22 210
3 23 210 211
3 210 212 213
3 210 213 211
3 213 205 209
3 213 209 211
3 209 8 23
3 209 23 211
3 214 150 149
3 214 149 215
3 149 147 206
3 149 206 215
3 206 205 213
3 206 213 215
3 213 212 214
3 213 214 215
3 193 150 214
3 193 214 216
3 214 212 217
3 214 217 216
3 217 218 219
3 217 219 216
3 219 195 193
3 219 193 216
3 210 22 21
3 210 21 220
3 21 19 221
3 21 221 220
3 221 218 217
3 221 217 220
3 217 212 210
3 217 210 220
3 17 16 222
3 17 222 223
3 222 224 225
3 222 225 223
3 225 218 221
3 225 221 223
3 221 19 17
3 221 17 223
3 226 180 197
3 226 197 227
3 197 195 219
3 197 219 227
3 219 218 225
3 219 225 227
3 225 224 226
3 225 226 227
3 181 180 226
3 181 226 228
3 226 224 229
3 226 229 228
3 229 230 231
3 229 231 228
3 231 183 181
3 231 181 228
3 222 16 15
3 222 15 232
3 15 13 233
3 15 233 232
3 233 230 229
3 233 229 232
3 229 224 222
3 229 222 232
3 11 10 234
3 11 234 235
3 234 236 237
3 234 237 235
3 237 230 233
3 237 233 235
3 233 13 11
3 233 11 235
3 238 164 185
3 238 185 239
3 185 183 231
3 185 231 239
3 231 230 237
3 231 237 239
3 237 236 238
3 237 238 239
3 165 164 238
3 165 238 240
3 238 236 241
3 238 241 240
3 241 242 243
3 241 243 240
3 243 167 165
3 243 165 240
3 234 10 9
3 234 9 244
3 9 4 245
3 9 245 244
3 245 242 241
3 245 241 244
3 241 236 234
3 241 234 244
3 2 1 207
3 2 207 246
3 207 203 247
3 207 247 246
3 247 242 245
3 247 245 246
3 245 4 2
3 245 2 246
3 201 144 169
3 201 169 248
3 169 167 243
3 169 243 248
3 243 242 247
3 243 247 248
3 247 203 201
3 247 201 248
