OFF
472 926 0
14.2895 7.26177 -12.7912
14.2605 7.38757 -12.8232
14.3885 7.39227 -12.9092
14.4915 7.21417 -12.8912
14.5385 7.43027 -12.9512
14.6605 7.24437 -12.9322
14.7275 7.11607 -12.8252
14.5435 7.09007 -12.7922
14.3245 7.14737 -12.6952
14.6535 7.50017 -12.9092
14.7085 7.56957 -12.8232
14.8155 7.47567 -12.7912
14.7775 7.33077 -12.8912
14.8895 7.37717 -12.6952
14.8515 7.21537 -12.7922
14.8795 7.31787 -12.5502
14.8165 7.30357 -12.4192
14.7805 7.18737 -12.4322
14.8475 7.16037 -12.6322
14.6755 7.09427 -12.4392
14.7345 7.06117 -12.6532
14.5155 7.07947 -12.4322
14.3695 7.12167 -12.4192
14.3535 7.10397 -12.5502
14.5605 7.04377 -12.6322
11.0225 3.66077 -0.830156
10.9995 3.75067 -0.840156
10.9065 3.71317 -1.00916
10.9265 3.62207 -1.00216
10.8765 3.70067 -1.21216
10.8955 3.60917 -1.20816
10.9425 3.90137 -0.843156
10.8465 4.13747 -0.843156
10.7555 4.10037 -1.01216
10.8515 3.86427 -1.01216
10.7245 4.08807 -1.21416
10.8205 3.85197 -1.21416
10.7555 4.10037 -1.41616
10.8465 4.13747 -1.58416
10.9425 3.90137 -1.58416
10.8515 3.86427 -1.41616
10.9995 3.75067 -1.58516
10.9065 3.71317 -1.41616
10.9265 3.62207 -1.41416
11.0225 3.66077 -1.58616
11.5925 3.84127 -0.705156
11.7615 3.91007 -0.811156
11.7205 3.94507 -0.830156
11.5625 3.88047 -0.727156
11.6745 4.02557 -0.840156
11.5215 3.96307 -0.738156
11.3365 3.88817 -0.704156
11.3715 3.80297 -0.693156
11.3895 3.75857 -0.669156
11.6105 4.17317 -0.843156
11.5145 4.40927 -0.843156
11.3625 4.34747 -0.742156
11.4585 4.11137 -0.742156
11.1805 4.27337 -0.708156
11.2765 4.03727 -0.708156
10.9975 4.19917 -0.742156
11.0945 3.96307 -0.742156
11.1525 3.81317 -0.738156
11.1865 3.67597 -0.705156
11.1805 3.72547 -0.727156
11.8635 3.95137 -1.41216
11.7615 3.91007 -1.58916
11.7205 3.94507 -1.58616
11.8165 3.98387 -1.41416
11.6745 4.02557 -1.58516
11.7665 4.06307 -1.41616
11.7975 4.07557 -1.21216
11.8475 3.99677 -1.20816
11.8975 3.96517 -1.20016
11.6105 4.17317 -1.58416
11.5145 4.40927 -1.58416
11.6055 4.44627 -1.41616
11.7015 4.21017 -1.41616
11.6355 4.45867 -1.21416
11.7315 4.22257 -1.21416
11.6055 4.44627 -1.01216
11.7015 4.21017 -1.01216
11.7665 4.06307 -1.00916
11.8635 3.95137 -0.987156
11.8165 3.98387 -1.00216
11.1865 3.67597 -1.69516
11.1805 3.72547 -1.68916
11.1525 3.81317 -1.68716
11.3365 3.88817 -1.72016
11.3715 3.80297 -1.72416
11.3895 3.75857 -1.73016
10.9975 4.19917 -1.68616
11.0945 3.96307 -1.68616
11.1805 4.27337 -1.71916
11.2765 4.03727 -1.71916
11.3625 4.34747 -1.68616
11.4585 4.11137 -1.68616
11.5215 3.96307 -1.68716
11.5925 3.84127 -1.69516
11.5625 3.88047 -1.68916
10.1655 6.12647 -1.33416
10.2485 6.18247 -1.17516
10.1625 6.96867 -1.50716
10.0875 6.89377 -1.65616
10.1375 7.79347 -1.97616
10.0715 7.69727 -2.11216
10.0705 7.61357 -2.27516
10.0755 6.83597 -1.83516
10.1435 6.09137 -1.52516
10.1825 8.58557 -2.58516
10.3095 9.27357 -3.33716
10.2645 9.14797 -3.43716
10.1275 8.47077 -2.70416
10.2825 9.02627 -3.55716
10.1365 8.36377 -2.84716
10.3545 8.92677 -3.67716
10.4745 8.86797 -3.77716
10.3245 8.23687 -3.11016
10.2045 8.28057 -2.99016
10.2445 7.53147 -2.57416
10.1295 7.55437 -2.43816
10.2305 6.80217 -2.16316
10.2825 6.09917 -1.87416
10.1835 6.08107 -1.71516
10.1245 6.80297 -2.01416
10.7595 6.40377 -1.08016
10.9165 6.45417 -1.17516
10.8305 7.24047 -1.50716
10.6695 7.20137 -1.41816
10.7985 8.06257 -1.97616
10.6335 8.03717 -1.89416
10.4485 7.97567 -1.86716
10.4845 7.13477 -1.38816
10.5765 6.33347 -1.04816
10.8245 8.84657 -2.58516
10.9115 9.51847 -3.33716
10.7525 9.51807 -3.27716
10.6585 8.83487 -2.51316
10.5805 9.46977 -3.25716
10.4775 8.77947 -2.48916
10.4235 9.38457 -3.27716
10.3095 8.69247 -2.51316
10.2735 7.89037 -1.89416
10.3955 6.25557 -1.08016
10.3055 7.05317 -1.41816
11.0335 6.42697 -1.71516
10.9505 6.37097 -1.87416
10.8985 7.07397 -2.16316
10.9745 7.14887 -2.01416
10.9055 7.80057 -2.57416
10.9715 7.89687 -2.43816
10.9725 7.98047 -2.27516
10.9865 7.20657 -1.83516
11.0545 6.46197 -1.52516
10.9655 8.49787 -3.11016
11.0765 9.11287 -3.77716
11.1205 9.23847 -3.67716
11.0215 8.61277 -2.99016
11.1035 9.36017 -3.55716
11.0115 8.71967 -2.84716
11.0305 9.45967 -3.43716
10.9435 8.80297 -2.70416
10.9135 8.03977 -2.11216
11.0155 6.47237 -1.33416
10.9375 7.23967 -1.65616
10.4385 6.14957 -1.96916
10.3915 6.84127 -2.25316
10.4085 7.55697 -2.65516
10.5945 7.61847 -2.68216
10.5775 6.90777 -2.28316
10.6225 6.21997 -2.00116
10.6335 8.86837 -3.83716
10.4895 8.24867 -3.18116
10.8055 8.91667 -3.85716
10.6715 8.30397 -3.20516
10.9625 9.00197 -3.83716
10.8395 8.39107 -3.18116
10.7695 7.70367 -2.65516
10.8035 6.29787 -1.96916
10.7565 6.98947 -2.25316
10.5285 9.78607 -4.23716
10.4935 9.66287 -4.31516
10.8235 10.1201 -5.23916
10.7965 10.0079 -5.29416
10.8175 9.89527 -5.36116
10.5155 9.54067 -4.40916
11.1745 10.2725 -6.30016
11.5645 10.2402 -7.37616
11.5485 10.1596 -7.38816
11.1535 10.1759 -6.33316
11.5645 10.0777 -7.40116
11.1735 10.0782 -6.37216
11.6105 10.0074 -7.41516
11.6785 9.96127 -7.42716
11.3095 9.93967 -6.44416
11.2275 9.99437 -6.41116
10.9785 9.73797 -5.48216
10.8805 9.79947 -5.42716
10.6965 9.37457 -4.58116
10.5855 9.43837 -4.50316
11.0645 10.0041 -4.23716
10.9205 10.0107 -4.19016
11.2795 10.3059 -5.23916
11.1545 10.3158 -5.20616
11.0235 10.2825 -5.19516
10.7665 9.96997 -4.17416
11.5515 10.426 -6.30016
11.8755 10.3669 -7.37616
11.7895 10.3761 -7.36916
11.4475 10.4365 -6.28116
11.6995 10.3543 -7.36716
11.3385 10.4098 -6.27416
11.6205 10.307 -7.36916
11.2415 10.3528 -6.28116
10.9055 10.2144 -5.20616
10.6275 9.89177 -4.19016
11.2325 9.59257 -4.58116
11.2675 9.71577 -4.50316
11.4355 9.92367 -5.48216
11.4625 10.0359 -5.42716
11.4405 10.1486 -5.36116
11.2455 9.83797 -4.40916
11.6865 10.0932 -6.44416
11.9895 10.0879 -7.42716
12.0065 10.1686 -7.41516
11.7075 10.1898 -6.41116
11.9895 10.2504 -7.40116
11.6875 10.2875 -6.37216
11.9445 10.3207 -7.38816
11.6335 10.3713 -6.33316
11.3775 10.2444 -5.29416
11.1755 9.94027 -4.31516
10.8405 9.36797 -4.62816
11.1035 9.72807 -5.51516
11.2355 9.76137 -5.52716
10.9945 9.40867 -4.64316
11.7645 9.95197 -7.43316
11.4135 9.92917 -6.46316
11.8545 9.97387 -7.43616
11.5225 9.95597 -6.47016
11.9345 10.0211 -7.43316
11.6195 10.013 -6.46316
11.3525 9.82937 -5.51616
11.1335 9.48687 -4.62816
11.9765 10.0202 -8.42216
11.9615 9.95147 -8.41516
12.3785 9.68497 -9.39216
12.3625 9.62377 -9.37016
12.3735 9.56277 -9.34216
11.9755 9.88207 -8.40716
12.7395 9.30737 -10.2422
13.0265 8.95987 -10.9242
13.0035 8.89867 -10.8712
12.7205 9.24887 -10.2042
13.0115 8.83977 -10.8062
12.7295 9.19147 -10.1582
13.0465 8.79197 -10.7422
13.1065 8.76417 -10.6892
12.8175 9.11517 -10.0742
12.7635 9.14397 -10.1122
12.4625 9.47857 -9.29216
12.4085 9.51127 -9.31516
12.0725 9.78407 -8.39316
12.0135 9.82267 -8.39916
12.2485 10.1307 -8.42216
12.1735 10.1378 -8.42616
12.6365 9.78967 -9.39216
12.5665 9.79407 -9.40616
12.4925 9.77487 -9.41116
12.0955 10.1184 -8.42716
13.0065 9.41617 -10.2422
13.3275 9.08237 -10.9242
13.2485 9.08117 -10.9562
12.9355 9.41767 -10.2642
13.1625 9.05667 -10.9672
12.8585 9.39677 -10.2722
13.0845 9.01437 -10.9562
12.7895 9.35827 -10.2642
12.4255 9.73697 -9.40616
12.0255 10.0775 -8.42616
12.3445 9.89457 -8.39316
12.3595 9.96327 -8.39916
12.7205 9.58327 -9.29216
12.7365 9.64447 -9.31516
12.7245 9.70557 -9.34216
12.3455 10.0327 -8.40716
13.0845 9.22407 -10.0742
13.4075 8.88667 -10.6892
13.4305 8.94787 -10.7422
13.1035 9.28257 -10.1122
13.4225 9.00687 -10.8062
13.0945 9.33987 -10.1582
13.3865 9.05457 -10.8712
13.0605 9.38737 -10.2042
12.6905 9.75707 -9.37016
12.3075 10.0921 -8.41516
12.1475 9.77697 -8.38916
12.5325 9.47427 -9.27816
12.6065 9.49347 -9.27416
12.2265 9.79637 -8.38816
13.1855 8.76537 -10.6572
12.8885 9.11367 -10.0512
13.2715 8.78987 -10.6462
12.9655 9.13467 -10.0442
13.3495 8.83217 -10.6572
13.0345 9.17307 -10.0512
12.6735 9.53137 -9.27916
12.2955 9.83727 -8.38916
13.2095 8.71507 -11.3942
13.1805 8.64547 -11.3242
13.3275 8.53367 -11.7122
13.2935 8.45237 -11.6262
13.3025 8.37527 -11.5222
13.1885 8.57917 -11.2402
13.4225 8.37617 -11.9402
13.5345 8.20297 -12.1382
13.4905 8.09857 -12.0252
13.3825 8.28237 -11.8392
13.5015 7.99957 -11.8902
13.3925 8.19357 -11.7172
13.5625 7.92087 -11.7552
13.6675 7.87717 -11.6422
13.5415 8.08367 -11.4952
13.4475 8.12287 -11.5962
13.4305 8.27957 -11.3322
13.3495 8.31377 -11.4182
13.2985 8.49607 -11.0852
13.2295 8.52597 -11.1562
13.5665 8.86047 -11.3942
13.4725 8.85727 -11.4362
13.7515 8.70637 -11.7122
13.6415 8.70177 -11.7642
13.5205 8.66627 -11.7812
13.3715 8.82757 -11.4502
13.9145 8.57617 -11.9402
14.0825 8.42577 -12.1382
13.9395 8.41957 -12.2062
13.7865 8.57057 -12.0012
13.7845 8.37357 -12.2282
13.6465 8.52927 -12.0212
13.6415 8.29797 -12.2062
13.5185 8.46147 -12.0012
13.4095 8.60757 -11.7642
13.2785 8.77797 -11.4362
13.6555 8.64137 -11.0852
13.6835 8.71097 -11.1562
13.8555 8.45227 -11.3322
13.8895 8.53357 -11.4182
13.8805 8.61067 -11.5222
13.6755 8.77727 -11.2402
14.0335 8.28367 -11.4952
14.2145 8.09997 -11.6422
14.2595 8.20437 -11.7552
14.0735 8.37747 -11.5962
14.2485 8.30337 -11.8902
14.0635 8.46627 -11.7172
14.1875 8.38207 -12.0252
14.0085 8.53697 -11.8392
13.8335 8.67217 -11.6262
13.6355 8.83047 -11.3242
13.3915 8.49917 -11.0432
13.5415 8.28417 -11.2802
13.6615 8.31977 -11.2622
13.4925 8.52887 -11.0292
13.8095 7.88337 -11.5752
13.6695 8.08927 -11.4342
13.9655 7.92937 -11.5522
13.8095 8.13057 -11.4142
14.1085 8.00497 -11.5752
13.9375 8.19837 -11.4342
13.7725 8.37837 -11.2802
13.5865 8.57847 -11.0432
13.7045 7.97467 -12.3672
13.6575 7.86387 -12.2482
13.9045 7.73407 -12.5842
13.8595 7.61987 -12.4682
13.8745 7.51157 -12.3292
13.6695 7.75887 -12.1042
14.1055 7.52377 -12.7442
14.0745 7.40807 -12.6492
14.0975 7.29777 -12.5332
14.2335 7.21097 -12.2682
14.1445 7.23757 -12.3902
14.0445 7.38987 -12.0602
13.9365 7.43217 -12.1832
13.8455 7.62897 -11.8412
13.7335 7.67527 -11.9612
14.2855 8.21117 -12.3672
14.1345 8.20457 -12.4392
14.4825 7.96947 -12.5842
14.3355 7.95927 -12.6592
14.1735 7.90697 -12.6862
13.9695 8.15577 -12.4632
14.6315 7.73777 -12.7442
14.5075 7.71707 -12.8232
14.3705 7.65817 -12.8592
14.2205 7.60047 -12.8232
14.0195 7.83087 -12.6592
13.8175 8.07557 -12.4392
14.4265 7.86547 -11.8412
14.4735 7.97627 -11.9612
14.6225 7.62527 -12.0602
14.6725 7.73197 -12.1832
14.6645 7.83277 -12.3292
14.4615 8.08127 -12.1042
14.7595 7.42497 -12.2682
14.8145 7.51047 -12.3902
14.8175 7.59057 -12.5332
14.7455 7.68097 -12.6502
14.5965 7.91967 -12.4682
14.3965 8.16487 -12.2482
13.9965 7.63557 -11.7692
14.1975 7.39257 -11.9922
14.3655 7.43727 -11.9722
14.1615 7.68437 -11.7462
14.3825 7.20147 -12.2162
14.5445 7.23017 -12.2082
14.6695 7.31807 -12.2162
14.5135 7.52097 -11.9922
14.3135 7.76457 -11.7692
11.4005 3.73197 -0.630156
11.4005 3.73197 -1.74116
11.8115 3.89907 -1.59316
11.6245 3.82317 -1.70416
11.3735 4.75547 -0.843156
11.2215 4.69367 -0.742156
11.2105 5.21167 -0.876156
11.0585 5.15107 -0.776156
10.8765 5.07727 -0.742156
11.0395 4.61957 -0.708156
11.0505 5.77797 -0.976156
10.8975 5.72067 -0.877156
10.7145 5.64807 -0.844156
10.3825 5.50617 -0.976156
10.5325 5.57247 -0.877156
10.5435 4.93987 -0.876156
10.6945 5.00277 -0.776156
10.7055 4.48367 -0.843156
10.8575 4.54537 -0.742156
10.6145 4.44657 -1.01216
10.4525 4.90097 -1.04416
10.4235 4.88627 -1.24516
10.5835 4.43427 -1.21416
10.2945 5.46157 -1.14116
10.2685 5.44007 -1.33816
10.3965 5.47287 -1.70016
10.3025 5.44337 -1.53616
10.5465 4.93157 -1.61316
10.4545 4.89637 -1.44616
10.7055 4.48367 -1.58416
10.6145 4.44657 -1.41616
10.8575 4.54537 -1.68616
10.6985 4.99217 -1.71416
10.8815 5.06597 -1.74716
11.0395 4.61957 -1.71916
10.5505 5.53007 -1.79916
10.7325 5.60267 -1.83216
11.0645 5.74467 -1.70016
10.9145 5.67837 -1.79916
11.2145 5.20337 -1.61316
11.0635 5.14047 -1.71416
11.3735 4.75547 -1.58416
11.2215 4.69367 -1.68616
11.4645 4.79247 -1.41616
11.3045 5.24227 -1.44616
11.3345 5.25697 -1.24516
11.4945 4.80487 -1.21416
11.1525 5.78927 -1.53616
11.1795 5.81067 -1.33816
11.1455 5.80747 -1.14116
11.3025 5.24687 -1.04416
11.4645 4.79247 -1.01216
3 0 1 2
3 0 2 3
3 2 4 5
3 2 5 3
3 5 6 7
3 5 7 3
3 7 8 0
3 7 0 3
3 9 10 11
3 9 11 12
3 11 13 14
3 11 14 12
3 14 6 5
3 14 5 12
3 5 4 9
3 5 9 12
3 15 16 17
3 15 17 18
3 17 19 20
3 17 20 18
3 20 6 14
3 20 14 18
3 14 13 15
3 14 15 18
3 21 22 23
3 21 23 24
3 23 8 7
3 23 7 24
3 7 6 20
3 7 20 24
3 20 19 21
3 20 21 24
3 25 26 27
3 25 27 28
3 27 29 30
3 27 30 28
3 31 32 33
3 31 33 34
3 33 35 36
3 33 36 34
3 36 29 27
3 36 27 34
3 27 26 31
3 27 31 34
3 37 38 39
3 37 39 40
3 39 41 42
3 39 42 40
3 42 29 36
3 42 36 40
3 36 35 37
3 36 37 40
3 30 29 42
3 30 42 43
3 42 41 44
3 42 44 43
3 45 46 47
3 45 47 48
3 47 49 50
3 47 50 48
3 50 51 52
3 50 52 48
3 52 53 45
3 52 45 48
3 54 55 56
3 54 56 57
3 56 58 59
3 56 59 57
3 59 51 50
3 59 50 57
3 50 49 54
3 50 54 57
3 60 32 31
3 60 31 61
3 31 26 62
3 31 62 61
3 62 51 59
3 62 59 61
3 59 58 60
3 59 60 61
3 25 63 64
3 63 53 52
3 63 52 64
3 52 51 62
3 52 62 64
3 62 26 25
3 62 25 64
3 65 66 67
3 65 67 68
3 67 69 70
3 67 70 68
3 70 71 72
3 70 72 68
3 72 73 65
3 72 65 68
3 74 75 76
3 74 76 77
3 76 78 79
3 76 79 77
3 79 71 70
3 79 70 77
3 70 69 74
3 70 74 77
3 80 55 54
3 80 54 81
3 54 49 82
3 54 82 81
3 82 71 79
3 82 79 81
3 79 78 80
3 79 80 81
3 47 46 83
3 47 83 84
3 83 73 72
3 83 72 84
3 72 71 82
3 72 82 84
3 82 49 47
3 82 47 84
3 85 44 86
3 44 41 87
3 44 87 86
3 87 88 89
3 87 89 86
3 89 90 85
3 89 85 86
3 39 38 91
3 39 91 92
3 91 93 94
3 91 94 92
3 94 88 87
3 94 87 92
3 87 41 39
3 87 39 92
3 95 75 74
3 95 74 96
3 74 69 97
3 74 97 96
3 97 88 94
3 97 94 96
3 94 93 95
3 94 95 96
3 67 66 98
3 67 98 99
3 98 90 89
3 98 89 99
3 89 88 97
3 89 97 99
3 97 69 67
3 97 67 99
3 100 101 102
3 100 102 103
3 102 104 105
3 102 105 103
3 105 106 107
3 105 107 103
3 107 108 100
3 107 100 103
3 109 110 111
3 109 111 112
3 111 113 114
3 111 114 112
3 114 106 105
3 114 105 112
3 105 104 109
3 105 109 112
3 115 116 117
3 115 117 118
3 117 119 120
3 117 120 118
3 120 106 114
3 120 114 118
3 114 113 115
3 114 115 118
3 121 122 123
3 121 123 124
3 123 108 107
3 123 107 124
3 107 106 120
3 107 120 124
3 120 119 121
3 120 121 124
3 125 126 127
3 125 127 128
3 127 129 130
3 127 130 128
3 130 131 132
3 130 132 128
3 132 133 125
3 132 125 128
3 134 135 136
3 134 136 137
3 136 138 139
3 136 139 137
3 139 131 130
3 139 130 137
3 130 129 134
3 130 134 137
3 140 110 109
3 140 109 141
3 109 104 142
3 109 142 141
3 142 131 139
3 142 139 141
3 139 138 140
3 139 140 141
3 102 101 143
3 102 143 144
3 143 133 132
3 143 132 144
3 132 131 142
3 132 142 144
3 142 104 102
3 142 102 144
3 145 146 147
3 145 147 148
3 147 149 150
3 147 150 148
3 150 151 152
3 150 152 148
3 152 153 145
3 152 145 148
3 154 155 156
3 154 156 157
3 156 158 159
3 156 159 157
3 159 151 150
3 159 150 157
3 150 149 154
3 150 154 157
3 160 135 134
3 160 134 161
3 134 129 162
3 134 162 161
3 162 151 159
3 162 159 161
3 159 158 160
3 159 160 161
3 127 126 163
3 127 163 164
3 163 153 152
3 163 152 164
3 152 151 162
3 152 162 164
3 162 129 127
3 162 127 164
3 165 122 121
3 165 121 166
3 121 119 167
3 121 167 166
3 167 168 169
3 167 169 166
3 169 170 165
3 169 165 166
3 117 116 171
3 117 171 172
3 171 173 174
3 171 174 172
3 174 168 167
3 174 167 172
3 167 119 117
3 167 117 172
3 175 155 154
3 175 154 176
3 154 149 177
3 154 177 176
3 177 168 174
3 177 174 176
3 174 173 175
3 174 175 176
3 147 146 178
3 147 178 179
3 178 170 169
3 178 169 179
3 169 168 177
3 169 177 179
3 177 149 147
3 177 147 179
3 111 110 180
3 111 180 181
3 180 182 183
3 180 183 181
3 183 184 185
3 183 185 181
3 185 113 111
3 185 111 181
3 186 187 188
3 186 188 189
3 188 190 191
3 188 191 189
3 191 184 183
3 191 183 189
3 183 182 186
3 183 186 189
3 192 193 194
3 192 194 195
3 194 196 197
3 194 197 195
3 197 184 191
3 197 191 195
3 191 190 192
3 191 192 195
3 198 116 115
3 198 115 199
3 115 113 185
3 115 185 199
3 185 184 197
3 185 197 199
3 197 196 198
3 197 198 199
3 136 135 200
3 136 200 201
3 200 202 203
3 200 203 201
3 203 204 205
3 203 205 201
3 205 138 136
3 205 136 201
3 206 207 208
3 206 208 209
3 208 210 211
3 208 211 209
3 211 204 203
3 211 203 209
3 203 202 206
3 203 206 209
3 212 187 186
3 212 186 213
3 186 182 214
3 186 214 213
3 214 204 211
3 214 211 213
3 211 210 212
3 211 212 213
3 180 110 140
3 180 140 215
3 140 138 205
3 140 205 215
3 205 204 214
3 205 214 215
3 214 182 180
3 214 180 215
3 156 155 216
3 156 216 217
3 216 218 219
3 216 219 217
3 219 220 221
3 219 221 217
3 221 158 156
3 221 156 217
3 222 223 224
3 222 224 225
3 224 226 227
3 224 227 225
3 227 220 219
3 227 219 225
3 219 218 222
3 219 222 225
3 228 207 206
3 228 206 229
3 206 202 230
3 206 230 229
3 230 220 227
3 230 227 229
3 227 226 228
3 227 228 229
3 200 135 160
3 200 160 231
3 160 158 221
3 160 221 231
3 221 220 230
3 221 230 231
3 230 202 200
3 230 200 231
3 171 116 198
3 171 198 232
3 198 196 233
3 198 233 232
3 233 234 235
3 233 235 232
3 235 173 171
3 235 171 232
3 194 193 236
3 194 236 237
3 236 238 239
3 236 239 237
3 239 234 233
3 239 233 237
3 233 196 194
3 233 194 237
3 240 223 222
3 240 222 241
3 222 218 242
3 222 242 241
3 242 234 239
3 242 239 241
3 239 238 240
3 239 240 241
3 216 155 175
3 216 175 243
3 175 173 235
3 175 235 243
3 235 234 242
3 235 242 243
3 242 218 216
3 242 216 243
3 188 187 244
3 188 244 245
3 244 246 247
3 244 247 245
3 247 248 249
3 247 249 245
3 249 190 188
3 249 188 245
3 250 251 252
3 250 252 253
3 252 254 255
3 252 255 253
3 255 248 247
3 255 247 253
3 247 246 250
3 247 250 253
3 256 257 258
3 256 258 259
3 258 260 261
3 258 261 259
3 261 248 255
3 261 255 259
3 255 254 256
3 255 256 259
3 262 193 192
3 262 192 263
3 192 190 249
3 192 249 263
3 249 248 261
3 249 261 263
3 261 260 262
3 261 262 263
3 208 207 264
3 208 264 265
3 264 266 267
3 264 267 265
3 267 268 269
3 267 269 265
3 269 210 208
3 269 208 265
3 270 271 272
3 270 272 273
3 272 274 275
3 272 275 273
3 275 268 267
3 275 267 273
3 267 266 270
3 267 270 273
3 276 251 250
3 276 250 277
3 250 246 278
3 250 278 277
3 278 268 275
3 278 275 277
3 275 274 276
3 275 276 277
3 244 187 212
3 244 212 279
3 212 210 269
3 212 269 279
3 269 268 278
3 269 278 279
3 278 246 244
3 278 244 279
3 224 223 280
3 224 280 281
3 280 282 283
3 280 283 281
3 283 284 285
3 283 285 281
3 285 226 224
3 285 224 281
3 286 287 288
3 286 288 289
3 288 290 291
3 288 291 289
3 291 284 283
3 291 283 289
3 283 282 286
3 283 286 289
3 292 271 270
3 292 270 293
3 270 266 294
3 270 294 293
3 294 284 291
3 294 291 293
3 291 290 292
3 291 292 293
3 264 207 228
3 264 228 295
3 228 226 285
3 228 285 295
3 285 284 294
3 285 294 295
3 294 266 264
3 294 264 295
3 236 193 262
3 236 262 296
3 262 260 297
3 262 297 296
3 297 298 299
3 297 299 296
3 299 238 236
3 299 236 296
3 258 257 300
3 258 300 301
3 300 302 303
3 300 303 301
3 303 298 297
3 303 297 301
3 297 260 258
3 297 258 301
3 304 287 286
3 304 286 305
3 286 282 306
3 286 306 305
3 306 298 303
3 306 303 305
3 303 302 304
3 303 304 305
3 280 223 240
3 280 240 307
3 240 238 299
3 240 299 307
3 299 298 306
3 299 306 307
3 306 282 280
3 306 280 307
3 252 251 308
3 252 308 309
3 308 310 311
3 308 311 309
3 311 312 313
3 311 313 309
3 313 254 252
3 313 252 309
3 314 315 316
3 314 316 317
3 316 318 319
3 316 319 317
3 319 312 311
3 319 311 317
3 311 310 314
3 311 314 317
3 320 321 322
3 320 322 323
3 322 324 325
3 322 325 323
3 325 312 319
3 325 319 323
3 319 318 320
3 319 320 323
3 326 257 256
3 326 256 327
3 256 254 313
3 256 313 327
3 313 312 325
3 313 325 327
3 325 324 326
3 325 326 327
3 272 271 328
3 272 328 329
3 328 330 331
3 328 331 329
3 331 332 333
3 331 333 329
3 333 274 272
3 333 272 329
3 334 335 336
3 334 336 337
3 336 338 339
3 336 339 337
3 339 332 331
3 339 331 337
3 331 330 334
3 331 334 337
3 340 315 314
3 340 314 341
3 314 310 342
3 314 342 341
3 342 332 339
3 342 339 341
3 339 338 340
3 339 340 341
3 308 251 276
3 308 276 343
3 276 274 333
3 276 333 343
3 333 332 342
3 333 342 343
3 342 310 308
3 342 308 343
3 288 287 344
3 288 344 345
3 344 346 347
3 344 347 345
3 347 348 349
3 347 349 345
3 349 290 288
3 349 288 345
3 350 351 352
3 350 352 353
3 352 354 355
3 352 355 353
3 355 348 347
3 355 347 353
3 347 346 350
3 347 350 353
3 356 335 334
3 356 334 357
3 334 330 358
3 334 358 357
3 358 348 355
3 358 355 357
3 355 354 356
3 355 356 357
3 328 271 292
3 328 292 359
3 292 290 349
3 292 349 359
3 349 348 358
3 349 358 359
3 358 330 328
3 358 328 359
3 300 257 326
3 300 326 360
3 326 324 361
3 326 361 360
3 361 362 363
3 361 363 360
3 363 302 300
3 363 300 360
3 322 321 364
3 322 364 365
3 364 366 367
3 364 367 365
3 367 362 361
3 367 361 365
3 361 324 322
3 361 322 365
3 368 351 350
3 368 350 369
3 350 346 370
3 350 370 369
3 370 362 367
3 370 367 369
3 367 366 368
3 367 368 369
3 344 287 304
3 344 304 371
3 304 302 363
3 304 363 371
3 363 362 370
3 363 370 371
3 370 346 344
3 370 344 371
3 316 315 372
3 316 372 373
3 372 374 375
3 372 375 373
3 375 376 377
3 375 377 373
3 377 318 316
3 377 316 373
3 378 1 0
3 378 0 379
3 0 8 380
3 0 380 379
3 380 376 375
3 380 375 379
3 375 374 378
3 375 378 379
3 23 22 381
3 23 381 382
3 381 383 384
3 381 384 382
3 384 376 380
3 384 380 382
3 380 8 23
3 380 23 382
3 385 321 320
3 385 320 386
3 320 318 377
3 320 377 386
3 377 376 384
3 377 384 386
3 384 383 385
3 384 385 386
3 336 335 387
3 336 387 388
3 387 389 390
3 387 390 388
3 390 391 392
3 390 392 388
3 392 338 336
3 392 336 388
3 393 10 9
3 393 9 394
3 9 4 395
3 9 395 394
3 395 391 390
3 395 390 394
3 390 389 393
3 390 393 394
3 2 1 378
3 2 378 396
3 378 374 397
3 378 397 396
3 397 391 395
3 397 395 396
3 395 4 2
3 395 2 396
3 372 315 340
3 372 340 398
3 340 338 392
3 340 392 398
3 392 391 397
3 392 397 398
3 397 374 372
3 397 372 398
3 352 351 399
3 352 399 400
3 399 401 402
3 399 402 400
3 402 403 404
3 402 404 400
3 404 354 352
3 404 352 400
3 405 16 15
3 405 15 406
3 15 13 407
3 15 407 406
3 407 403 402
3 407 402 406
3 402 401 405
3 402 405 406
3 11 10 393
3 11 393 408
3 393 389 409
3 393 409 408
3 409 403 407
3 409 407 408
3 407 13 11
3 407 11 408
3 387 335 356
3 387 356 410
3 356 354 404
3 356 404 410
3 404 403 409
3 404 409 410
3 409 389 387
3 409 387 410
3 364 321 385
3 364 385 411
3 385 383 412
3 385 412 411
3 412 413 414
3 412 414 411
3 414 366 364
3 414 364 411
3 381 22 21
3 381 21 415
3 21 19 416
3 21 416 415
3 416 413 412
3 416 412 415
3 412 383 381
3 412 381 415
3 17 16 405
3 17 405 417
3 405 401 418
3 405 418 417
3 418 413 416
3 418 416 417
3 416 19 17
3 416 17 417
3 399 351 368
3 399 368 419
3 368 366 414
3 368 414 419
3 414 413 418
3 414 418 419
3 418 401 399
3 418 399 419
3 45 53 420
3 420 53 63
3 85 90 421
3 98 66 422
3 98 422 423
3 421 90 98
3 421 98 423
3 422 66 65
3 56 55 424
3 56 424 425
3 424 426 427
3 424 427 425
3 427 428 429
3 427 429 425
3 429 58 56
3 429 56 425
3 430 126 125
3 430 125 431
3 125 133 432
3 125 432 431
3 432 428 427
3 432 427 431
3 427 426 430
3 427 430 431
3 143 101 433
3 143 433 434
3 433 435 436
3 433 436 434
3 436 428 432
3 436 432 434
3 432 133 143
3 432 143 434
3 437 32 60
3 437 60 438
3 60 58 429
3 60 429 438
3 429 428 436
3 429 436 438
3 436 435 437
3 436 437 438
3 33 32 437
3 33 437 439
3 437 435 440
3 437 440 439
3 440 441 442
3 440 442 439
3 442 35 33
3 442 33 439
3 433 101 100
3 433 100 443
3 100 108 444
3 100 444 443
3 444 441 440
3 444 440 443
3 440 435 433
3 440 433 443
3 123 122 445
3 123 445 446
3 445 447 448
3 445 448 446
3 448 441 444
3 448 444 446
3 444 108 123
3 444 123 446
3 449 38 37
3 449 37 450
3 37 35 442
3 37 442 450
3 442 441 448
3 442 448 450
3 448 447 449
3 448 449 450
3 91 38 449
3 91 449 451
3 449 447 452
3 449 452 451
3 452 453 454
3 452 454 451
3 454 93 91
3 454 91 451
3 445 122 165
3 445 165 455
3 165 170 456
3 165 456 455
3 456 453 452
3 456 452 455
3 452 447 445
3 452 445 455
3 178 146 457
3 178 457 458
3 457 459 460
3 457 460 458
3 460 453 456
3 460 456 458
3 456 170 178
3 456 178 458
3 461 75 95
3 461 95 462
3 95 93 454
3 95 454 462
3 454 453 460
3 454 460 462
3 460 459 461
3 460 461 462
3 76 75 461
3 76 461 463
3 461 459 464
3 461 464 463
3 464 465 466
3 464 466 463
3 466 78 76
3 466 76 463
3 457 146 145
3 457 145 467
3 145 153 468
3 145 468 467
3 468 465 464
3 468 464 467
3 464 459 457
3 464 457 467
3 163 126 430
3 163 430 469
3 430 426 470
3 430 470 469
3 470 465 468
3 470 468 469
3 468 153 163
3 468 163 469
3 424 55 80
3 424 80 471
3 80 78 466
3 80 466 471
3 466 465 470
3 466 470 471
3 470 426 424
3 470 424 471
