0.172439
0.513846
0.513942
0.71732
0.774525
1
0.202289
0.744927
0.708041
0.830832
0.377497
0.6299
0.65881
0.713741
0.573144
0.702056
0.570976
0.813202
0.495044
0.524242
0.659535
0.480945
0.391992
0.606303
0.193506
0.517894
0.171825
0.27213
0.857881
0.4107
0.483643
0.446174
0.430802
0.449648
0.465579
0.222262
0.564772
0.448056
0.460305
0.327381
0.420845
0.654031
0.227591
0.305187
0.611411
0.53557
0.462912
0.560318
0.542902
0.337397
0.434283
0.567367
0.568128
0.355432
0.48468
0.379519
0.415383
0.473199
0.395483
0.693416
0.442996
0.807053
0.533537
0.345875
0.447567
0.511527
0.065062
0.414008
0.549894
0.580872
0.298092
0.78289
0.727276
0.515793
0.673322
0.721897
0.669227
0.290825
0.537501
0.496808
0.360142
0.469487
0.360082
0.397885
0.602628
0.689508
0.869938
0.269313
0.394303
0.287898
0.331261
0.67422
0.833517
0.519189
0.706966
0.313789
0.530079
0.58644
0.614321
0.628963
0.517762
0.486614
0.474819
0.701417
0.171091
0.675599
0.677653
0.610012
0.402083
0.366691
0.384284
0.35816
0.667453
0.373066
0.513022
0.53079
0.448185
0.718972
0.63265
0.716236
0.545084
0.302638
0.61054
0.48607
0.627602
0.165538
0.501502
0.574584
0.593549
0.406065
0.430402
0.403195
0.535986
0.432242
0.47902
0.885438
0.497904
0.602951
0.682836
0.286766
0.619018
0.547251
0.587247
0.506651
0.562618
0.591828
0.566119
0.361659
0.147215
0.535517
0.450891
0.279376
0.386535
0.614724
0.487597
0.375957
0.496917
0.519381
0.694697
0.585569
0.246283
0.711891
0.78609
0.844133
0.680981
0.448707
0.690783
0.41731
0.598417
0.730225
0.574576
0.523712
0.360838
0.730358
0.389372
0.771214
0.174152
0.510426
0.232831
0.385159
0.402453
0.372497
0.543925
0.707674
0.627048
0.742451
0.380809
0.433484
0.826606
0.409322
0.212228
0.336673
0.244892
0.349737
0.254056
0.275343
0.525266
0.758594
0.47056
0.6931
0.203373
0.368291
0.538232
0.474853
0.673467
0.409065
0.880487
0.27483
0.359131
0.431431
0.292312
0.58758
0.763882
0.882471
0.785403
0.784441
0.534567
0.806176
0.473854
0.428659
0.720396
0.424386
0.721974
0.6127
0.571443
0.695306
0.536723
0.658224
0.459051
0.606933
0.613082
0.40176
0.277528
0.403578
0.723168
0.618054
0.100548
0.273837
0.149881
0.381514
0.336143
0.49423
0.605741
0.781009
0.68084
0.438541
0.695739
0.606237
0.658118
0.415075
0.695392
0.726932
0.735839
0.583174
0.593823
0.4154
0.132107
0.0238076
0.0108417
0.00843552
0.336548
0.0289362
0.132494
0.0159982
0.308174
0.269712
0.0911065
0.303628
0.263419
0.820526
0.271396
0.209309
0.398653
0.148274
0.319508
0.298559
0.412752
0.759818
0.37636
0.0549276
0.228155
0.144121
0.160855
0.0591399
0.622367
0.265921
0.459456
0.683979
0.118558
0.093442
0.757498
0.0670161
0.101845
0.110475
0.181076
0.177972
0.337709
0.317341
0.21727
0.131692
0.200925
0.758306
0.391795
0.14599
0.268588
0.289289
0.619209
0.307719
0.721427
0.658621
0.494934
0.236337
0.120733
0.0721253
0.155604
0.096298
0.0275107
0.0404085
0.732161
0.0793425
0.707574
0.238408
0.417655
0.757344
0.749953
0.344237
0.689515
0.211216
0.735392
0.0782268
0.259333
0.311076
0.158593
0.729263
0.369077
0.337328
0.299067
0.253678
0.22387
0.385436
0.719127
0.256653
0.088056
0.363781
0.176176
0.580977
0.178819
0.156888
0.751122
0.0527519
0.0325289
0.377997
0.690189
0.695022
0.688023
0.662211
0.686718
0.740324
0.600848
0.730545
0.661491
0.719988
0.580269
0.758477
0.673017
0.641914
0.620413
0.747813
0.628117
0.666769
0.393709
0.718384
0.833988
0.704129
0.669442
0.302235
0.667211
0.788629
0.452771
0.765726
0.738278
0.723008
0.713967
0.395813
0.268782
0.726492
0.349226
0.526315
0.716473
0.875652
0.658358
0.873861
0.709273
0.449665
0.678351
0.672007
0.664236
0.613108
0.672417
0.681782
0.767602
0.43004
0.672988
0.736853
0.675755
0.675919
0.35537
0.315073
0.793292
0.584581
0.669257
0.750122
0.557667
0.622602
0.369636
0.449909
0.429183
0.705911
0.617623
0.435556
0.704261
0.707658
0.711647
0.379888
0.710904
0.390631
0.288035
0.65962
0.556953
0.147636
0.723683
0.690044
0.654235
0.698571
0.713359
0.713875
0.54898
0.68658
0.701873
0.266262
0.556738
0.67027
0.722349
0.467607
0.283072
0.621077
0.631174
0.184809
0.0792096
0.12361
0.789376
0.753455
0.777236
0.704884
0.507854
0.688332
0.711673
0.169292
0.749237
0.539724
0.550719
0.699901
0.343823
0.706222
0.751756
0.147198
0.640889
0.0863973
0.706186
0.239548
0.794731
0.462599
0.0563349
0.581038
0.108064
0.255115
0.180972
0.170207
0.138312
0.547781
0.708499
0.243189
0.546593
0.282102
0.537779
0.339458
0.487691
0.416592
0.439952
0.720525
0.0789853
0.734916
0.152619
0.791456
0.068014
0.656903
0.179639
0.503232
0.732149
0.254125
0.744999
0.106642
0.723858
0.745443
0.697883
0.543389
0.5407
0.542094
0.521762
0.555863
0.700245
0.557603
0.512254
0.647984
0.176757
0.705889
0.142321
0.132464
0.102031
0.0706601
0.147982
0.611858
0.799922
0.213147
0.0870569
0.329859
0.228788
0.173892
0.293149
0.284922
0.248793
0.228535
0.253936
0.287958
0.109617
0.275087
0.325406
0.158204
0.319872
0.270031
0.273678
0.798532
0.674695
0.70726
0.704841
0.714074
0.70919
0.586228
0.685184
0.286312
0.700977
0.786167
0.716689
0.780303
0.723072
0.735188
0.710444
0.477378
0.83363
0.747046
0.712799
0.694129
0.728203
0.711811
0.724953
0.738207
0.618789
0.721803
0.691588
0.717401
0.333449
0.717803
0.70092
0.70199
0.716903
0.674135
0.67724
0.804055
0.458614
0.646
0.323416
0.172055
0.303132
0.496691
0.310048
0.375259
0.385974
0.167592
0.375615
0.244959
0.363061
0.633538
0.308279
0.361134
0.304148
0.216189
0.350851
0.344269
0.399611
0.234539
0.295639
0.152156
0.34971
0.114371
0.355885
0.296841
0.222054
0.316832
0.298504
0.333137
0.381744
0.38959
0.398846
0.469313
0.714454
0.363787
0.312617
0.273854
0.260244
0.361117
0.132245
0.371657
0.182193
0.30368
0.325154
0.410185
0.439984
0.177985
0.254124
0.311498
0.3514
0.438565
0.355034
0.339016
0.356757
0.272126
0.343139
0.22372
0.413746
0.136672
0.291952
0.182942
0.357703
0.310897
0.401841
0.494884
0.412268
0.170693
0.344342
0.3462
0.247753
0.190921
0.352741
0.250013
0.275098
0.25
0.270639
0.344095
0.273599
0.361439
0
0.223167
0.285287
0.386307
0.279305
0.296878
0.329571
0.372837
0.451695
0.354333
0.365638
0.266037
0.114101
0.355012
0.42438
0.412161
0.286187
0.545325
0.405358
0.36706
0.297545
0.183137
