OFF
393 752 0
15.98 -2.37265 0.984977
15.466 -2.08075 0.354977
16.007 -1.40635 0.340977
16.936 -1.48545 1.30598
16.302 -0.363746 0.486977
17.284 -0.383546 1.58298
17.64 -0.408246 2.78198
17.306 -1.59985 2.38898
16.282 -2.58095 1.96798
16.174 0.797554 0.766977
15.736 1.81475 1.03798
16.58 1.81475 2.08298
17.12 0.797554 1.88298
16.785 1.83805 3.22198
17.411 0.813154 3.09898
16.455 1.90795 4.34798
15.536 2.08065 5.38898
16.767 0.873454 5.23398
17.2 0.859755 4.28598
17.237 -0.393246 4.89698
17.551 -0.403246 3.94998
17.018 -1.60035 4.47698
16.037 -2.58145 4.04398
16.249 -2.62915 3.07198
17.27 -1.62635 3.51998
7.92902 -3.28495 -0.390023
8.00102 -2.67165 -1.28302
9.98202 -2.66525 -1.04802
9.91502 -3.27665 -0.181023
12.23 -2.58995 -0.690023
12.207 -3.18215 0.126977
12.157 -3.46035 1.21498
9.77802 -3.54095 0.954977
7.77002 -3.52355 0.769977
14.215 -2.37265 -0.172023
14.316 -2.90955 0.553977
14.445 -3.17065 1.56498
14.221 -3.17015 3.66498
14.381 -3.23075 2.68398
11.9 -3.40965 3.37098
12.029 -3.50325 2.37398
9.40802 -3.34325 3.19398
6.96502 -2.93425 3.20698
7.48802 -3.42195 2.01498
9.55702 -3.51835 2.16498
7.82102 0.912054 -1.51602
7.55002 2.14275 -0.925023
9.83802 1.92685 -0.839023
9.82902 0.872355 -1.23302
12.09 1.84275 -0.439023
12.194 0.816254 -0.783023
12.279 -0.408646 -1.02502
9.94602 -0.404946 -1.48002
7.96802 -0.395946 -1.78102
14.148 1.81475 0.191977
14.42 0.797554 -0.119023
14.516 -0.383546 -0.376023
14.364 -1.48545 -0.438023
12.272 -1.60475 -1.03402
8.02102 -1.64955 -1.72502
9.99502 -1.64605 -1.45002
8.88802 -1.13495 3.53498
9.35202 -1.62515 3.55598
10.341 -1.82945 3.60298
10.157 -1.18565 3.62198
11.742 -1.92975 3.75198
11.647 -1.23995 3.80398
11.525 -0.423046 3.94398
9.93902 -0.423046 3.72398
8.59002 -0.423046 3.60398
13.105 -1.82945 3.98998
14.018 -1.62515 4.21698
14.34 -1.13495 4.34898
13.112 -1.18565 4.06698
14.42 -0.423046 4.52998
13.101 -0.423046 4.22598
14.105 0.288754 4.69598
13.622 0.778955 4.79598
12.652 0.983354 4.62798
12.869 0.339454 4.40998
11.268 1.08355 4.38198
11.393 0.393854 4.14598
9.90702 0.983354 4.13998
8.98402 0.778955 3.97998
8.67202 0.288754 3.78198
9.92302 0.339554 3.91698
5.93502 -1.72425 3.66898
7.47602 -2.62355 3.72798
6.28702 -1.63805 3.82698
7.80002 -2.43465 3.94898
6.62302 -1.52395 3.95898
6.11802 -0.420346 4.06298
5.79902 -0.412346 3.98598
5.50402 -0.407046 3.89098
8.04002 -2.30155 4.00598
8.22302 -2.20725 3.94498
7.15002 -1.39625 3.92998
6.91002 -1.44775 3.98798
6.68402 -0.423046 4.01598
6.41802 -0.423046 4.07498
6.84502 0.550155 4.20198
7.65502 1.36115 4.48698
7.43802 1.45545 4.56398
6.58702 0.601554 4.26598
7.15202 1.60455 4.52498
6.27302 0.688554 4.24098
6.75802 1.84145 4.32498
6.14302 2.29275 3.75298
5.51702 0.942154 3.93898
5.89302 0.834654 4.10798
15.804 -2.50205 4.62598
14.061 -3.06905 4.26098
15.567 -2.40435 4.90098
13.91 -2.94465 4.55198
11.826 -3.12985 4.26498
11.844 -3.27835 3.97198
15.347 -2.30155 4.94798
15.162 -2.20725 4.84898
13.669 -2.69385 4.53098
13.776 -2.81385 4.61598
11.802 -2.85605 4.26298
11.81 -2.98465 4.33698
9.88002 -2.69385 4.06198
9.78602 -2.81385 4.12798
9.66202 -2.96485 4.05798
9.48902 -3.15005 3.78498
15.155 1.77515 5.84298
16.391 0.790455 5.73498
14.872 1.58795 5.97998
16.071 0.677454 5.90998
16.607 -0.418146 5.65398
16.916 -0.403246 5.43298
14.666 1.45545 5.93698
14.523 1.36115 5.77898
15.607 0.550155 5.72898
15.809 0.601554 5.88298
16.097 -0.423046 5.51398
16.328 -0.423046 5.65298
15.96 -1.39625 5.19798
16.186 -1.44775 5.31798
16.453 -1.50375 5.29298
16.738 -1.55705 5.04098
8.58602 2.56045 4.41398
8.58402 2.34665 4.76898
8.81902 2.12945 4.95198
10.905 2.29135 5.40798
10.892 2.46275 5.26998
10.932 2.62185 4.93598
9.13602 1.84775 4.86898
8.99602 1.96775 4.96898
10.979 2.00995 5.26698
10.936 2.13855 5.39098
12.877 1.84775 5.59798
12.934 1.96775 5.74398
13.036 2.11835 5.78198
13.249 2.49405 5.30598
13.202 2.30245 5.65798
8.37502 -2.13485 3.80898
7.34802 -1.35675 3.79698
8.58302 -2.03225 3.66298
7.62102 -1.30075 3.65098
7.20502 -0.423046 3.73298
6.90202 -0.423046 3.88298
8.93802 -1.84755 3.57098
8.08802 -1.20005 3.55398
7.72302 -0.423046 3.62398
8.50202 1.00135 4.04498
7.85302 0.353954 3.79798
8.08802 1.18605 4.17498
7.35402 0.454654 3.91098
7.83802 1.28865 4.33998
7.05902 0.510654 4.06498
15.031 -2.13485 4.68398
13.597 -2.60165 4.37698
14.839 -2.03225 4.49598
13.491 -2.47105 4.20298
11.807 -2.61725 3.95098
11.806 -2.75725 4.11698
14.472 -1.84755 4.32698
13.279 -2.23575 4.05398
11.79 -2.36515 3.81498
10.257 -2.23575 3.65598
10.075 -2.47105 3.76698
9.96302 -2.60165 3.92198
14.429 1.28865 5.57098
15.467 0.510654 5.52298
14.286 1.18605 5.32098
15.259 0.454654 5.27498
15.695 -0.423046 5.08198
15.934 -0.423046 5.31898
13.993 1.00135 5.03998
14.854 0.353954 4.99198
15.238 -0.423046 4.81698
15.118 -1.20005 4.58898
15.564 -1.30075 4.80498
15.799 -1.35675 5.01798
9.26102 1.75555 4.70598
9.42702 1.62485 4.51398
11.093 1.77115 4.86298
11.03 1.91115 5.08398
9.69202 1.38965 4.33298
11.17 1.51895 4.62498
12.684 1.38965 4.88898
12.805 1.62485 5.15798
12.852 1.75555 5.39798
6.06102 2.64565 2.40698
7.64902 2.68135 3.17498
7.10302 2.73805 2.21698
8.79202 2.79435 2.68998
8.29502 2.80845 1.94598
8.27602 2.81905 1.17098
7.19302 2.78025 1.18498
6.26202 2.73475 1.18498
9.72502 2.83195 2.26598
10.429 2.83195 1.93298
10.191 2.83195 1.54098
9.35202 2.83195 1.71698
10.175 2.83195 1.13198
9.31402 2.83195 1.15098
10.365 2.83195 0.768977
10.749 2.83195 0.516977
10.165 2.83195 0.321977
9.59102 2.83195 0.655977
9.42002 2.77115 0.037977
8.64302 2.80055 0.490977
8.56102 2.58885 -0.349023
6.70302 2.59825 0.054977
7.62402 2.70635 0.258977
14.601 2.56335 4.57898
12.994 2.66755 4.65698
13.839 2.76485 3.78898
12.63 2.79085 3.87998
11.226 2.80845 3.68298
11.059 2.73775 4.36498
13.198 2.83195 3.05098
12.706 2.83195 2.44798
12.145 2.83195 2.52398
12.349 2.83195 3.13798
11.509 2.83195 2.44798
11.382 2.83195 3.01198
10.903 2.83195 2.24398
10.455 2.83195 2.70998
9.85702 2.80195 3.27798
9.12302 2.71175 3.88098
15.097 2.42505 1.15398
15.797 2.42505 2.06098
14.363 2.73025 1.16198
14.898 2.73025 1.89298
14.972 2.73415 2.65198
15.928 2.44065 3.02898
13.638 2.83195 1.10698
13.026 2.83195 1.03198
13.264 2.83195 1.42398
14.011 2.83195 1.65598
13.28 2.83195 1.83398
14.049 2.83195 2.22198
13.089 2.83195 2.19698
13.771 2.83195 2.71598
14.619 2.74575 3.33198
15.554 2.48725 3.95198
10.171 2.49985 -0.428023
10.629 2.74895 -0.053023
12.017 2.73495 0.146977
12.043 2.44375 -0.124023
11.31 2.83195 0.440977
11.014 2.83195 0.234977
11.946 2.83195 0.516977
11.981 2.83195 0.359977
12.552 2.83195 0.721977
12.908 2.83195 0.662977
13.332 2.73025 0.565977
13.765 2.42505 0.413977
11.239 2.87985 1.33098
11.306 2.87985 1.52598
11.33 2.92775 1.52298
11.268 2.92775 1.33498
11.276 3.01975 1.35098
11.289 3.01975 1.14698
11.281 2.92775 1.12798
11.25 2.87985 1.11798
11.497 2.92775 0.791977
11.477 2.87985 0.773977
11.332 2.87985 0.920977
11.359 2.92775 0.935977
11.366 3.01975 0.957977
11.664 2.92775 1.73898
11.664 2.87985 1.75098
11.884 2.87985 1.76498
11.46 2.87985 1.66898
11.473 2.92775 1.66098
12.39 2.83195 2.06098
12.014 2.83195 2.12998
12.208 2.83675 1.83998
11.938 2.83675 1.90498
11.638 2.83675 1.87898
11.591 2.83195 2.08598
12.12 2.85115 1.73598
11.901 2.85115 1.79998
11.659 2.85115 1.78298
11.262 2.85115 1.54198
11.433 2.85115 1.69398
11.14 2.83675 1.59798
11.355 2.83675 1.77298
10.881 2.83195 1.71898
11.191 2.83195 1.94398
10.73 2.83195 1.42798
11.039 2.83675 1.36498
11.045 2.83675 1.11298
10.728 2.83195 1.11898
11.186 2.85115 1.33698
11.195 2.85115 1.11298
11.441 2.85115 0.753977
11.283 2.85115 0.906977
11.339 2.83675 0.716977
11.148 2.83675 0.883977
11.124 2.83195 0.642977
10.863 2.83195 0.840977
11.5 2.83195 0.573977
11.609 2.83675 0.650977
11.909 2.83675 0.676977
11.923 2.83195 0.617977
11.677 2.87985 0.710977
11.66 2.85115 0.690977
11.897 2.87985 0.724977
11.902 2.85115 0.707977
12.101 2.87985 0.807977
12.298 2.85115 0.947977
12.128 2.85115 0.796977
12.407 2.83675 0.957977
12.192 2.83675 0.782977
12.633 2.83195 0.983977
12.323 2.83195 0.759977
12.784 2.83195 1.27598
12.508 2.83675 1.19098
12.502 2.83675 1.44298
12.786 2.83195 1.58498
12.322 2.87985 1.14498
12.375 2.85115 1.15398
12.311 2.87985 1.35898
12.365 2.85115 1.37798
12.229 2.87985 1.55598
12.277 2.85115 1.58398
12.399 2.83675 1.67198
12.651 2.83195 1.86198
4.92502 1.86945 3.21398
5.02502 1.89005 3.24298
5.15602 2.49725 2.30898
5.05402 2.49465 2.28998
5.37902 2.68895 1.13998
5.27602 2.70305 1.13398
5.31202 1.99225 3.36998
5.45202 2.55645 2.39298
5.68302 2.70195 1.16398
6.42402 1.94485 -1.02802
6.05202 2.52485 -0.029023
5.93602 1.87815 -1.07502
5.66502 2.48925 -0.049023
5.53602 2.49465 -0.061023
5.77502 1.86945 -1.10202
6.11602 0.835454 -1.75402
5.93602 0.827354 -1.79602
6.21602 -0.418546 -2.06802
6.02602 -0.423046 -2.11902
6.66402 0.881655 -1.67502
6.79402 -0.404946 -1.96602
6.81302 -2.68235 -1.43102
6.83802 -1.65545 -1.89902
6.22102 -2.69715 -1.51502
6.24802 -1.66345 -1.99802
6.05402 -1.67355 -2.04802
6.02502 -2.71555 -1.55702
6.14402 -3.31735 -0.591023
5.94802 -3.34075 -0.623023
6.01802 -3.52795 0.576977
5.82902 -3.54915 0.551977
6.73902 -3.29855 -0.520023
6.59102 -3.51935 0.646977
6.01402 -2.77435 2.93598
6.34702 -3.35985 1.88198
5.61702 -2.72015 2.83698
5.84002 -3.33265 1.79098
5.67202 -3.34075 1.76598
5.48502 -2.71555 2.81598
5.35502 -1.67875 3.50398
5.27202 -1.67355 3.50098
5.13102 -0.420346 3.79698
5.07902 -0.423046 3.80498
5.60002 -1.71675 3.56098
5.27702 -0.412346 3.82698
5.21702 0.913354 3.80498
5.01902 0.843354 3.72498
4.94202 0.839254 3.74198
4.94802 0.827354 3.71398
3 0 1 2
3 0 2 3
3 2 4 5
3 2 5 3
3 5 6 7
3 5 7 3
3 7 8 0
3 7 0 3
3 9 10 11
3 9 11 12
3 11 13 14
3 11 14 12
3 14 6 5
3 14 5 12
3 5 4 9
3 5 9 12
3 15 16 17
3 15 17 18
3 17 19 20
3 17 20 18
3 20 6 14
3 20 14 18
3 14 13 15
3 14 15 18
3 21 22 23
3 21 23 24
3 23 8 7
3 23 7 24
3 7 6 20
3 7 20 24
3 20 19 21
3 20 21 24
3 25 26 27
3 25 27 28
3 27 29 30
3 27 30 28
3 30 31 32
3 30 32 28
3 32 33 25
3 32 25 28
3 34 1 0
3 34 0 35
3 0 8 36
3 0 36 35
3 36 31 30
3 36 30 35
3 30 29 34
3 30 34 35
3 23 22 37
3 23 37 38
3 37 39 40
3 37 40 38
3 40 31 36
3 40 36 38
3 36 8 23
3 36 23 38
3 41 42 43
3 41 43 44
3 43 33 32
3 43 32 44
3 32 31 40
3 32 40 44
3 40 39 41
3 40 41 44
3 45 46 47
3 45 47 48
3 47 49 50
3 47 50 48
3 50 51 52
3 50 52 48
3 52 53 45
3 52 45 48
3 54 10 9
3 54 9 55
3 9 4 56
3 9 56 55
3 56 51 50
3 56 50 55
3 50 49 54
3 50 54 55
3 2 1 34
3 2 34 57
3 34 29 58
3 34 58 57
3 58 51 56
3 58 56 57
3 56 4 2
3 56 2 57
3 27 26 59
3 27 59 60
3 59 53 52
3 59 52 60
3 52 51 58
3 52 58 60
3 58 29 27
3 58 27 60
3 61 62 63
3 61 63 64
3 63 65 66
3 63 66 64
3 66 67 68
3 66 68 64
3 68 69 61
3 68 61 64
3 70 71 72
3 70 72 73
3 72 74 75
3 72 75 73
3 75 67 66
3 75 66 73
3 66 65 70
3 66 70 73
3 76 77 78
3 76 78 79
3 78 80 81
3 78 81 79
3 81 67 75
3 81 75 79
3 75 74 76
3 75 76 79
3 82 83 84
3 82 84 85
3 84 69 68
3 84 68 85
3 68 67 81
3 68 81 85
3 81 80 82
3 81 82 85
3 86 42 87
3 86 87 88
3 87 89 90
3 87 90 88
3 90 91 92
3 90 92 88
3 92 93 86
3 92 86 88
3 94 95 96
3 94 96 97
3 96 98 99
3 96 99 97
3 99 91 90
3 99 90 97
3 90 89 94
3 90 94 97
3 100 101 102
3 100 102 103
3 102 104 105
3 102 105 103
3 105 91 99
3 105 99 103
3 99 98 100
3 99 100 103
3 106 107 108
3 106 108 109
3 108 93 92
3 108 92 109
3 92 91 105
3 92 105 109
3 105 104 106
3 105 106 109
3 37 22 110
3 37 110 111
3 110 112 113
3 110 113 111
3 113 114 115
3 113 115 111
3 115 39 37
3 115 37 111
3 116 117 118
3 116 118 119
3 118 120 121
3 118 121 119
3 121 114 113
3 121 113 119
3 113 112 116
3 113 116 119
3 122 95 94
3 122 94 123
3 94 89 124
3 94 124 123
3 124 114 121
3 124 121 123
3 121 120 122
3 121 122 123
3 87 42 41
3 87 41 125
3 41 39 115
3 41 115 125
3 115 114 124
3 115 124 125
3 124 89 87
3 124 87 125
3 17 16 126
3 17 126 127
3 126 128 129
3 126 129 127
3 129 130 131
3 129 131 127
3 131 19 17
3 131 17 127
3 132 133 134
3 132 134 135
3 134 136 137
3 134 137 135
3 137 130 129
3 137 129 135
3 129 128 132
3 129 132 135
3 138 117 116
3 138 116 139
3 116 112 140
3 116 140 139
3 140 130 137
3 140 137 139
3 137 136 138
3 137 138 139
3 110 22 21
3 110 21 141
3 21 19 131
3 21 131 141
3 131 130 140
3 131 140 141
3 140 112 110
3 140 110 141
3 142 107 106
3 142 106 143
3 106 104 144
3 106 144 143
3 144 145 146
3 144 146 143
3 146 147 142
3 146 142 143
3 102 101 148
3 102 148 149
3 148 150 151
3 148 151 149
3 151 145 144
3 151 144 149
3 144 104 102
3 144 102 149
3 152 133 132
3 152 132 153
3 132 128 154
3 132 154 153
3 154 145 151
3 154 151 153
3 151 150 152
3 151 152 153
3 126 16 155
3 126 155 156
3 155 147 146
3 155 146 156
3 146 145 154
3 146 154 156
3 154 128 126
3 154 126 156
3 96 95 157
3 96 157 158
3 157 159 160
3 157 160 158
3 160 161 162
3 160 162 158
3 162 98 96
3 162 96 158
3 163 62 61
3 163 61 164
3 61 69 165
3 61 165 164
3 165 161 160
3 165 160 164
3 160 159 163
3 160 163 164
3 84 83 166
3 84 166 167
3 166 168 169
3 166 169 167
3 169 161 165
3 169 165 167
3 165 69 84
3 165 84 167
3 170 101 100
3 170 100 171
3 100 98 162
3 100 162 171
3 162 161 169
3 162 169 171
3 169 168 170
3 169 170 171
3 118 117 172
3 118 172 173
3 172 174 175
3 172 175 173
3 175 176 177
3 175 177 173
3 177 120 118
3 177 118 173
3 178 71 70
3 178 70 179
3 70 65 180
3 70 180 179
3 180 176 175
3 180 175 179
3 175 174 178
3 175 178 179
3 63 62 163
3 63 163 181
3 163 159 182
3 163 182 181
3 182 176 180
3 182 180 181
3 180 65 63
3 180 63 181
3 157 95 122
3 157 122 183
3 122 120 177
3 122 177 183
3 177 176 182
3 177 182 183
3 182 159 157
3 182 157 183
3 134 133 184
3 134 184 185
3 184 186 187
3 184 187 185
3 187 188 189
3 187 189 185
3 189 136 134
3 189 134 185
3 190 77 76
3 190 76 191
3 76 74 192
3 76 192 191
3 192 188 187
3 192 187 191
3 187 186 190
3 187 190 191
3 72 71 178
3 72 178 193
3 178 174 194
3 178 194 193
3 194 188 192
3 194 192 193
3 192 74 72
3 192 72 193
3 172 117 138
3 172 138 195
3 138 136 189
3 138 189 195
3 189 188 194
3 189 194 195
3 194 174 172
3 194 172 195
3 148 101 170
3 148 170 196
3 170 168 197
3 170 197 196
3 197 198 199
3 197 199 196
3 199 150 148
3 199 148 196
3 166 83 82
3 166 82 200
3 82 80 201
3 82 201 200
3 201 198 197
3 201 197 200
3 197 168 166
3 197 166 200
3 78 77 190
3 78 190 202
3 190 186 203
3 190 203 202
3 203 198 201
3 203 201 202
3 201 80 78
3 201 78 202
3 184 133 152
3 184 152 204
3 152 150 199
3 152 199 204
3 199 198 203
3 199 203 204
3 203 186 184
3 203 184 204
3 205 107 206
3 205 206 207
3 206 208 209
3 206 209 207
3 209 210 211
3 209 211 207
3 211 212 205
3 211 205 207
3 213 214 215
3 213 215 216
3 215 217 218
3 215 218 216
3 218 210 209
3 218 209 216
3 209 208 213
3 209 213 216
3 219 220 221
3 219 221 222
3 221 223 224
3 221 224 222
3 224 210 218
3 224 218 222
3 218 217 219
3 218 219 222
3 225 46 226
3 225 226 227
3 226 212 211
3 226 211 227
3 211 210 224
3 211 224 227
3 224 223 225
3 224 225 227
3 155 16 228
3 155 228 229
3 228 230 231
3 228 231 229
3 231 232 233
3 231 233 229
3 233 147 155
3 233 155 229
3 234 235 236
3 234 236 237
3 236 238 239
3 236 239 237
3 239 232 231
3 239 231 237
3 231 230 234
3 231 234 237
3 240 214 213
3 240 213 241
3 213 208 242
3 213 242 241
3 242 232 239
3 242 239 241
3 239 238 240
3 239 240 241
3 206 107 142
3 206 142 243
3 142 147 233
3 142 233 243
3 233 232 242
3 233 242 243
3 242 208 206
3 242 206 243
3 11 10 244
3 11 244 245
3 244 246 247
3 244 247 245
3 247 248 249
3 247 249 245
3 249 13 11
3 249 11 245
3 250 251 252
3 250 252 253
3 252 254 255
3 252 255 253
3 255 248 247
3 255 247 253
3 247 246 250
3 247 250 253
3 256 235 234
3 256 234 257
3 234 230 258
3 234 258 257
3 258 248 255
3 258 255 257
3 255 254 256
3 255 256 257
3 228 16 15
3 228 15 259
3 15 13 249
3 15 249 259
3 249 248 258
3 249 258 259
3 258 230 228
3 258 228 259
3 47 46 225
3 47 225 260
3 225 223 261
3 225 261 260
3 261 262 263
3 261 263 260
3 263 49 47
3 263 47 260
3 221 220 264
3 221 264 265
3 264 266 267
3 264 267 265
3 267 262 261
3 267 261 265
3 261 223 221
3 261 221 265
3 268 251 250
3 268 250 269
3 250 246 270
3 250 270 269
3 270 262 267
3 270 267 269
3 267 266 268
3 267 268 269
3 244 10 54
3 244 54 271
3 54 49 263
3 54 263 271
3 263 262 270
3 263 270 271
3 270 246 244
3 270 244 271
3 272 273 274
3 272 274 275
3 274 276 275
3 276 277 278
3 276 278 275
3 278 279 272
3 278 272 275
3 280 281 282
3 280 282 283
3 282 279 278
3 282 278 283
3 278 277 284
3 278 284 283
3 285 286 287
3 274 273 288
3 274 288 289
3 288 286 285
3 288 285 289
3 236 235 290
3 236 290 291
3 290 292 293
3 290 293 291
3 293 294 295
3 293 295 291
3 295 238 236
3 295 236 291
3 296 287 297
3 287 286 298
3 287 298 297
3 298 294 293
3 298 293 297
3 293 292 296
3 293 296 297
3 288 273 299
3 288 299 300
3 299 301 302
3 299 302 300
3 302 294 298
3 302 298 300
3 298 286 288
3 298 288 300
3 303 214 240
3 303 240 304
3 240 238 295
3 240 295 304
3 295 294 302
3 295 302 304
3 302 301 303
3 302 303 304
3 215 214 303
3 215 303 305
3 303 301 306
3 303 306 305
3 306 307 308
3 306 308 305
3 308 217 215
3 308 215 305
3 299 273 272
3 299 272 309
3 272 279 310
3 272 310 309
3 310 307 306
3 310 306 309
3 306 301 299
3 306 299 309
3 282 281 311
3 282 311 312
3 311 313 314
3 311 314 312
3 314 307 310
3 314 310 312
3 310 279 282
3 310 282 312
3 315 220 219
3 315 219 316
3 219 217 308
3 219 308 316
3 308 307 314
3 308 314 316
3 314 313 315
3 314 315 316
3 264 220 315
3 264 315 317
3 315 313 318
3 315 318 317
3 318 319 320
3 318 320 317
3 320 266 264
3 320 264 317
3 311 281 321
3 311 321 322
3 321 323 324
3 321 324 322
3 324 319 318
3 324 318 322
3 318 313 311
3 318 311 322
3 325 326 327
3 326 328 329
3 326 329 327
3 329 319 324
3 329 324 327
3 324 323 325
3 324 325 327
3 330 251 268
3 330 268 331
3 268 266 320
3 268 320 331
3 320 319 329
3 320 329 331
3 329 328 330
3 329 330 331
3 252 251 330
3 252 330 332
3 330 328 333
3 330 333 332
3 333 334 335
3 333 335 332
3 335 254 252
3 335 252 332
3 326 336 337
3 336 338 339
3 336 339 337
3 339 334 333
3 339 333 337
3 333 328 326
3 333 326 337
3 340 296 341
3 296 292 342
3 296 342 341
3 342 334 339
3 342 339 341
3 339 338 340
3 339 340 341
3 290 235 256
3 290 256 343
3 256 254 335
3 256 335 343
3 335 334 342
3 335 342 343
3 342 292 290
3 342 290 343
3 344 345 346
3 344 346 347
3 346 348 349
3 346 349 347
3 350 107 205
3 350 205 351
3 205 212 352
3 205 352 351
3 352 348 346
3 352 346 351
3 346 345 350
3 346 350 351
3 226 46 353
3 226 353 354
3 353 355 356
3 353 356 354
3 356 348 352
3 356 352 354
3 352 212 226
3 352 226 354
3 349 348 356
3 349 356 357
3 356 355 358
3 356 358 357
3 358 355 359
3 358 359 360
3 359 361 362
3 359 362 360
3 353 46 45
3 353 45 363
3 45 53 364
3 45 364 363
3 364 361 359
3 364 359 363
3 359 355 353
3 359 353 363
3 59 26 365
3 59 365 366
3 365 367 368
3 365 368 366
3 368 361 364
3 368 364 366
3 364 53 59
3 364 59 366
3 362 361 368
3 362 368 369
3 368 367 370
3 368 370 369
3 370 367 371
3 370 371 372
3 371 373 374
3 371 374 372
3 365 26 25
3 365 25 375
3 25 33 376
3 25 376 375
3 376 373 371
3 376 371 375
3 371 367 365
3 371 365 375
3 43 42 377
3 43 377 378
3 377 379 380
3 377 380 378
3 380 373 376
3 380 376 378
3 376 33 43
3 376 43 378
3 374 373 380
3 374 380 381
3 380 379 382
3 380 382 381
3 382 379 383
3 382 383 384
3 383 385 386
3 383 386 384
3 377 42 86
3 377 86 387
3 86 93 388
3 86 388 387
3 388 385 383
3 388 383 387
3 383 379 377
3 383 377 387
3 108 107 350
3 108 350 389
3 350 345 390
3 350 390 389
3 390 385 388
3 390 388 389
3 388 93 108
3 388 108 389
3 344 391 392
3 391 386 392
3 386 385 390
3 386 390 392
3 390 345 344
3 390 344 392
