OFF
197 376 0
11.6726 -5.05369 6.91626
11.6726 -5.05369 5.68626
11.2898 -2.68939 4.79926
11.2898 -2.68939 5.74226
10.0993 -0.611185 3.91326
10.0993 -0.611185 4.56726
10.0686 -0.630485 4.75226
11.2264 -2.65159 5.89826
11.5987 -4.95089 7.04426
5.48424 -6.29899 4.43526
5.88874 -6.19649 4.40126
5.88874 -6.19649 5.13826
5.48424 -6.29899 5.17226
5.87054 -5.76329 4.93126
5.48424 -5.86269 4.96426
5.48424 -3.24489 0.690262
5.76134 -3.16429 0.656262
5.81594 -4.46379 -0.00973824
5.48424 -4.55379 0.0242618
5.87054 -5.76329 -0.639738
5.48424 -5.86269 -0.606738
5.48424 -3.24489 3.65526
5.76134 -3.16429 3.62226
5.74314 -2.73109 3.39926
5.48424 -2.80859 3.43226
5.74314 -2.73109 3.08926
5.48424 -2.80859 3.12226
5.81594 -4.46379 4.27926
5.48424 -4.55379 4.31226
8.30714 -5.74579 5.23826
8.30714 -5.74579 4.42726
8.87464 -6.13699 5.07426
8.87464 -6.13699 6.10526
9.45334 -6.48769 5.75426
9.45334 -6.48769 7.00726
9.16584 -6.06998 6.96926
8.67074 -5.56118 5.81526
8.16514 -5.29029 5.01026
7.73904 -3.92369 -0.424738
7.31304 -2.55699 0.307262
7.44714 -2.10609 -0.169738
8.05894 -3.83359 -1.10174
7.71984 -1.59279 -0.612738
8.46284 -3.69059 -1.74574
9.20574 -5.78838 -2.81774
8.67074 -5.56118 -1.98474
8.16514 -5.29029 -1.11874
7.17104 -2.10149 3.32426
7.31304 -2.55699 3.57026
7.44714 -2.10609 3.98326
7.24324 -1.53029 3.67026
7.48734 -1.33059 4.45326
7.47224 -0.893485 4.04926
7.47224 -0.893485 3.52226
7.24324 -1.53029 3.23626
7.17104 -2.10149 2.98326
7.73904 -3.92369 4.29226
8.05894 -3.83359 4.90326
8.08434 -3.76439 5.68826
10.7232 -6.22319 5.98126
10.7232 -6.22319 7.30726
10.6754 -6.08828 7.42626
8.88774 -1.04029 -0.760738
9.67434 -3.26149 -1.96074
9.98914 -1.29829 -1.04574
10.8859 -2.83249 -1.92774
11.1545 -4.58909 -2.75974
10.461 -5.48279 -3.09474
8.63534 -0.327685 4.36926
8.62554 -0.299885 4.17626
8.62554 -0.299885 3.61826
8.87424 -3.33569 6.09926
9.41504 -4.26939 6.64626
10.0853 -4.42189 6.81426
9.61044 -3.08099 6.08126
10.5102 -3.88149 6.64626
10.3428 -2.81559 6.09926
9.79914 -1.87359 5.57926
9.13174 -1.72939 5.38426
8.70394 -2.26149 5.57926
9.22034 -5.40638 7.37926
8.16064 -3.55659 6.32826
9.20324 -5.02069 7.67726
8.24804 -3.35309 6.73026
7.94084 -1.45599 5.78326
7.81994 -1.45219 5.27826
11.3771 -4.64259 7.37926
10.5321 -5.68349 7.72926
11.1476 -4.33209 7.67726
10.3858 -5.27048 7.99326
9.97674 -0.688385 5.27826
11.0364 -2.53819 6.32826
9.88514 -0.767385 5.78326
10.8404 -2.43499 6.73026
8.66494 -0.411285 4.92826
8.70264 -0.517585 5.46826
9.21034 -4.87438 7.69726
8.30654 -3.29659 6.80126
9.23694 -4.83758 7.53126
8.36764 -3.32009 6.66926
8.08814 -1.59369 5.80726
8.01584 -1.50159 5.90526
11.05 -4.22289 7.69726
10.3292 -5.11079 7.99526
11.0062 -4.21099 7.53126
10.313 -5.06489 7.81826
9.85554 -0.850085 5.90526
10.7594 -2.42789 6.80126
9.85744 -0.967085 5.80726
10.7267 -2.48459 6.66926
8.73664 -0.613685 5.60626
8.78134 -0.739785 5.52026
10.6265 -2.65859 6.26426
9.86314 -1.32609 5.50826
9.86484 -1.42629 5.42426
10.5985 -2.70709 6.15126
10.8344 -4.16429 6.87926
10.8719 -4.17449 7.02126
10.2632 -4.92428 7.27326
10.2493 -4.88498 7.12126
9.34104 -4.69319 6.87926
9.31824 -4.72469 7.02126
8.55494 -3.39219 6.26426
8.60724 -3.41229 6.15126
8.37134 -1.95519 5.42426
8.30954 -1.87629 5.50826
8.91824 -1.12639 5.25526
8.95644 -1.23439 5.18226
9.86034 -1.14939 5.65526
10.6758 -2.57289 6.46326
10.938 -4.19239 7.27226
10.2877 -4.99348 7.54126
9.27824 -4.78019 7.27226
8.46274 -3.35669 6.46326
8.20054 -1.73719 5.65526
8.85084 -0.936085 5.38626
5.88874 -6.19649 -0.782738
5.48424 -6.29899 -0.748738
5.88874 -6.19649 0.0192618
5.48424 -6.29899 0.0522618
8.87464 -6.13699 -1.06174
8.30714 -5.74579 -0.393738
8.30714 -5.74579 -1.27474
8.87464 -6.13699 -2.18374
9.45334 -6.48769 -3.05974
9.45334 -6.48769 -1.69674
10.7232 -6.22319 -1.90874
10.7232 -6.22319 -3.35174
11.6726 -5.05369 -2.97174
11.6726 -5.05369 -1.63274
11.2898 -2.68939 -0.805738
11.2898 -2.68939 -1.83074
10.0993 -0.611185 -0.690738
10.0993 -0.611185 0.0212618
7.47224 -0.893485 -0.186738
7.47224 -0.893485 0.386262
8.62554 -0.299885 0.297262
8.62554 -0.299885 -0.309738
7.17104 -2.10149 0.583262
7.17104 -2.10149 0.954262
7.24324 -1.53029 0.653262
7.24324 -1.53029 0.181262
5.48424 -2.80859 1.27826
5.74314 -2.73109 1.24426
5.74314 -2.73109 0.907262
5.48424 -2.80859 0.940262
5.88874 -6.19649 2.22126
5.48424 -6.29899 2.25426
8.30714 -5.74579 2.02926
8.87464 -6.13699 2.02126
9.45334 -6.48769 2.04726
10.7232 -6.22319 2.05626
11.6726 -5.05369 2.04426
11.2898 -2.68939 2.01126
10.0993 -0.611185 1.97726
7.47224 -0.893485 1.96226
8.62554 -0.299885 1.96526
7.17104 -2.10149 1.97426
7.24324 -1.53029 1.95126
5.74314 -2.73109 2.17126
5.48424 -2.80859 2.20426
6.56104 -2.92239 3.52126
6.48814 -2.49859 3.29826
6.48814 -2.49859 2.98826
6.48814 -2.49859 2.07026
6.48814 -2.49859 1.14426
6.48814 -2.49859 0.806262
6.56104 -2.92239 0.556262
6.77944 -4.19369 -0.109738
6.99794 -5.46509 -0.740738
7.07074 -5.88878 -0.0817382
7.07074 -5.88878 -0.882738
7.07074 -5.88878 4.30126
7.07074 -5.88878 2.12026
7.07074 -5.88878 5.03826
6.99794 -5.46509 4.83026
6.77944 -4.19369 4.17826
3 0 1 2
3 0 2 3
3 2 4 5
3 2 5 3
3 5 6 7
3 5 7 3
3 7 8 0
3 7 0 3
3 9 10 11
3 9 11 12
3 11 13 14
3 11 14 12
3 15 16 17
3 15 17 18
3 17 19 20
3 17 20 18
3 21 22 23
3 21 23 24
3 23 25 26
3 23 26 24
3 14 13 27
3 14 27 28
3 27 22 21
3 27 21 28
3 29 30 31
3 29 31 32
3 31 33 34
3 31 34 32
3 34 35 36
3 34 36 32
3 36 37 29
3 36 29 32
3 38 39 40
3 38 40 41
3 40 42 43
3 40 43 41
3 43 44 45
3 43 45 41
3 45 46 38
3 45 38 41
3 47 48 49
3 47 49 50
3 49 51 52
3 49 52 50
3 52 53 54
3 52 54 50
3 54 55 47
3 54 47 50
3 56 37 36
3 56 36 57
3 36 35 58
3 36 58 57
3 58 51 49
3 58 49 57
3 49 48 56
3 49 56 57
3 34 33 59
3 34 59 60
3 59 1 0
3 59 0 60
3 0 8 61
3 0 61 60
3 61 35 34
3 61 34 60
3 43 42 62
3 43 62 63
3 62 64 65
3 62 65 63
3 65 66 67
3 65 67 63
3 67 44 43
3 67 43 63
3 52 51 68
3 52 68 69
3 68 6 5
3 68 5 69
3 5 4 70
3 5 70 69
3 70 53 52
3 70 52 69
3 71 72 73
3 71 73 74
3 73 75 76
3 73 76 74
3 76 77 78
3 76 78 74
3 78 79 71
3 78 71 74
3 58 35 80
3 58 80 81
3 80 82 83
3 80 83 81
3 83 84 85
3 83 85 81
3 85 51 58
3 85 58 81
3 61 8 86
3 61 86 87
3 86 88 89
3 86 89 87
3 89 82 80
3 89 80 87
3 80 35 61
3 80 61 87
3 7 6 90
3 7 90 91
3 90 92 93
3 90 93 91
3 93 88 86
3 93 86 91
3 86 8 7
3 86 7 91
3 68 51 85
3 68 85 94
3 85 84 95
3 85 95 94
3 95 92 90
3 95 90 94
3 90 6 68
3 90 68 94
3 83 82 96
3 83 96 97
3 96 98 99
3 96 99 97
3 99 100 101
3 99 101 97
3 101 84 83
3 101 83 97
3 89 88 102
3 89 102 103
3 102 104 105
3 102 105 103
3 105 98 96
3 105 96 103
3 96 82 89
3 96 89 103
3 93 92 106
3 93 106 107
3 106 108 109
3 106 109 107
3 109 104 102
3 109 102 107
3 102 88 93
3 102 93 107
3 95 84 101
3 95 101 110
3 101 100 111
3 101 111 110
3 111 108 106
3 111 106 110
3 106 92 95
3 106 95 110
3 112 113 114
3 112 114 115
3 114 77 76
3 114 76 115
3 76 75 116
3 76 116 115
3 116 117 112
3 116 112 115
3 118 117 116
3 118 116 119
3 116 75 73
3 116 73 119
3 73 72 120
3 73 120 119
3 120 121 118
3 120 118 119
3 122 121 120
3 122 120 123
3 120 72 71
3 120 71 123
3 71 79 124
3 71 124 123
3 124 125 122
3 124 122 123
3 126 125 124
3 126 124 127
3 124 79 78
3 124 78 127
3 78 77 114
3 78 114 127
3 114 113 126
3 114 126 127
3 109 108 128
3 109 128 129
3 128 113 112
3 128 112 129
3 112 117 130
3 112 130 129
3 130 104 109
3 130 109 129
3 105 104 130
3 105 130 131
3 130 117 118
3 130 118 131
3 118 121 132
3 118 132 131
3 132 98 105
3 132 105 131
3 99 98 132
3 99 132 133
3 132 121 122
3 132 122 133
3 122 125 134
3 122 134 133
3 134 100 99
3 134 99 133
3 111 100 134
3 111 134 135
3 134 125 126
3 134 126 135
3 126 113 128
3 126 128 135
3 128 108 111
3 128 111 135
3 20 19 136
3 20 136 137
3 136 138 139
3 136 139 137
3 140 141 142
3 140 142 143
3 142 46 45
3 142 45 143
3 45 44 144
3 45 144 143
3 144 145 140
3 144 140 143
3 146 145 144
3 146 144 147
3 144 44 67
3 144 67 147
3 67 66 148
3 67 148 147
3 148 149 146
3 148 146 147
3 150 149 148
3 150 148 151
3 148 66 65
3 148 65 151
3 65 64 152
3 65 152 151
3 152 153 150
3 152 150 151
3 154 155 156
3 154 156 157
3 156 153 152
3 156 152 157
3 152 64 62
3 152 62 157
3 62 42 154
3 62 154 157
3 158 159 160
3 158 160 161
3 160 155 154
3 160 154 161
3 154 42 40
3 154 40 161
3 40 39 158
3 40 158 161
3 162 163 164
3 162 164 165
3 164 16 15
3 164 15 165
3 139 138 166
3 139 166 167
3 166 10 9
3 166 9 167
3 31 30 168
3 31 168 169
3 168 141 140
3 168 140 169
3 140 145 170
3 140 170 169
3 170 33 31
3 170 31 169
3 59 33 170
3 59 170 171
3 170 145 146
3 170 146 171
3 146 149 172
3 146 172 171
3 172 1 59
3 172 59 171
3 2 1 172
3 2 172 173
3 172 149 150
3 172 150 173
3 150 153 174
3 150 174 173
3 174 4 2
3 174 2 173
3 175 53 70
3 175 70 176
3 70 4 174
3 70 174 176
3 174 153 156
3 174 156 176
3 156 155 175
3 156 175 176
3 177 55 54
3 177 54 178
3 54 53 175
3 54 175 178
3 175 155 160
3 175 160 178
3 160 159 177
3 160 177 178
3 26 25 179
3 26 179 180
3 179 163 162
3 179 162 180
3 23 22 181
3 23 181 182
3 181 48 47
3 181 47 182
3 47 55 183
3 47 183 182
3 183 25 23
3 183 23 182
3 179 25 183
3 179 183 184
3 183 55 177
3 183 177 184
3 177 159 185
3 177 185 184
3 185 163 179
3 185 179 184
3 164 163 185
3 164 185 186
3 185 159 158
3 185 158 186
3 158 39 187
3 158 187 186
3 187 16 164
3 187 164 186
3 17 16 187
3 17 187 188
3 187 39 38
3 187 38 188
3 38 46 189
3 38 189 188
3 189 19 17
3 189 17 188
3 190 138 136
3 190 136 191
3 136 19 189
3 136 189 191
3 189 46 142
3 189 142 191
3 142 141 190
3 142 190 191
3 192 10 166
3 192 166 193
3 166 138 190
3 166 190 193
3 190 141 168
3 190 168 193
3 168 30 192
3 168 192 193
3 11 10 192
3 11 192 194
3 192 30 29
3 192 29 194
3 29 37 195
3 29 195 194
3 195 13 11
3 195 11 194
3 27 13 195
3 27 195 196
3 195 37 56
3 195 56 196
3 56 48 181
3 56 181 196
3 181 22 27
3 181 27 196
