0.459464
0.803289
0.458954
0.823896
0.679139
0.571332
0.832671
0.847162
0.794716
0.798919
0.887097
0.80773
0.829297
0.447957
0.556481
0.81921
0.887299
0.512172
0.782824
0.736706
0.839113
0.772639
0.817174
0.92854
0.78676
0.563184
0.572514
0.815326
0.810986
0.787305
0.725784
0.897134
0.98028
0.703587
0.745547
0.825382
0.740282
0.847114
0.711896
0.980502
0.855649
0.627721
0.841677
0.834096
0.790615
0.849805
0.781246
0.841107
0.998499
0.788495
0.827315
0.818308
0.954318
0.81945
0.75203
0.76763
0.528796
0.842919
0.799941
0.780136
0.75094
0.699842
0.836202
0.669081
0.798366
0.751473
0.818704
0.793333
0.796465
0.77064
0.869523
0.823917
0.815837
0.806275
0.805644
0.82088
0.820155
0.813434
0.800419
0.816087
0.782703
0.58035
0.791817
0.807957
0.75686
0.562201
0.617817
0.870164
0.726995
0.711559
0.813782
0.901655
0.789186
0.739318
0.838705
0.880811
0.848078
0.732475
0.832124
0.887102
0.846523
0.87386
0.839707
0.801932
0.824656
0.757873
0.829013
0.7422
0.850565
0.342975
0.881586
0.84918
0.823866
0.911
0.525127
0.85541
0.78849
0.659771
0.755702
0.643231
0.725401
0.905195
0.795367
0.535575
0.824024
0.580159
0.798487
0.918231
0.799413
0.761223
0.851711
0.791448
0.840162
0.780638
0.747364
0.814119
0.871889
0.568185
0.775941
0.75171
0.783629
0.789381
0.81249
0.647839
0.830954
0.822353
0.758391
0.712252
0.701576
0.510814
0.70783
0.670558
1
0.717714
0.662473
0.570413
0.639937
0.59876
0.650468
0.795815
0.701386
0.690005
0.872958
0.860129
0.594314
0.686821
0.623021
0.663002
0.7111
0.694557
0.745837
0.768103
0.750814
0.760213
0.678708
0.61814
0.998399
0.681495
0.692124
0.705563
0.707241
0.814066
0.407569
0.960621
0.932974
0.692352
0.926962
0.764717
0.727675
0.643727
0.52003
0.677031
0.747503
0.77484
0.85142
0.656378
0.851739
0.612332
0.704895
0.675855
0.659383
0.785179
0.616504
0.71825
0.709453
0.639372
0.734777
0.804412
0.641065
0.496373
0.917114
0.694708
0.708224
0.711837
0.820878
0.899479
0.77591
0.676219
0.636065
0.827729
0.858621
0.626738
0.698792
0.662764
0.653171
0.672938
0.643018
0.871113
0.873476
0.61098
0.638539
0.633074
0.752694
0.703558
0.713327
0.813502
0.787862
0.671648
0.93319
0.704255
0.68342
0.713758
0.746089
0.793897
0.731881
0.509496
0.883797
0.64161
0.69312
0.631518
0.92627
0.81145
0.678957
0.67386
0.65769
0.587141
0.865342
0.676498
0.972016
0.660566
0.723433
0.651672
0.333132
0.6532
0.66856
0.972974
0.79968
0.684576
0.595832
0.634581
0.874415
0.618061
0.658047
0.592761
0.619186
0.703947
0.876735
0.87667
0.733796
0.618826
0.672362
0.845908
0.866634
0.870626
0.815655
0.807809
0.80592
0.882385
0.885824
0.880449
0.853351
0.917039
0.73247
0.844992
0.791155
0.861261
0.903769
0.867172
0.870106
0.809015
0.638634
0.809434
0.773983
0.906289
0.795495
0.694701
0.804114
0.683314
0.611457
0.817005
0.654014
0.715304
0.688861
0.809962
0.843924
0.771144
0.789668
0.808737
0.80085
0.795093
0.875188
0.900104
0.842636
0.847104
0.85487
0.835717
0.786824
0.854567
0.842676
0.68022
0.710675
0.652002
0.740861
0.820935
0.756108
0.733467
0.772821
0.801585
0.84605
0.805321
0.849096
0.826119
0.766588
0.887762
0.853089
0.877733
0.806703
0.853283
0.751739
0.840861
0.834654
0.863977
0.889958
0.764257
0.684621
0.812382
0.838233
0.800081
0.820161
0.899979
0.906325
0.767065
0.750529
0.830857
0.876326
0.842818
0.610116
0.79331
0.706718
0.741777
0.625558
0.927043
0.491226
0.752736
0.628295
0.591739
0.717206
0.862691
0.832514
0.767369
0.733748
0.746156
0.840189
0.814457
0.664867
0.703551
0.662295
0.60889
0.821147
0.807007
0.869477
0.871861
0.714077
0.860427
0.806163
0.781878
0.715938
0.769136
0.76747
0.751862
0.844782
0.435953
0.750425
0.687545
0.815916
0.714816
0.640251
0.859186
0.768486
0.722766
0.776938
0.772044
0.83394
0.846984
0.890236
0.700505
0.905656
0.763332
0.864029
0.657891
0.589078
0.623479
0.640608
0.696676
0.655829
0.353486
0.735738
0.8876
0.687322
0.745725
0.593184
0.718228
0.776536
0.578349
0.659913
0.578233
0.674136
0.710366
0.626174
0.460503
0.821915
0.466599
0.469074
0.812453
0.758041
0.753784
0.708058
0.773606
0.813553
0.7923
0.801588
0.841179
0.799213
0.672243
0.737938
0.909196
0.821452
0.679918
0.733753
0.717744
0.712014
0.839094
0.600221
0.801812
0.766049
0.792522
0.678655
0.828624
0.745586
0.735348
0.779956
0.774571
0.757371
0.859139
0.830219
0.830255
0.730474
0.810362
0.708548
0.761281
0.731899
0.675942
0.658727
0.858012
0.683216
0.712267
0.638946
0.692623
0.61386
0.732913
0.825245
0.62966
0.699904
0.923566
0.815888
0.857688
0.786983
0.849325
0.753161
0.715148
0.531648
0.651328
0.809256
0.768935
0.939171
0.56734
0.69772
0.632938
0.664512
0.866663
0.709341
0.763109
0.78996
0.94009
0.815054
0.872886
0.856633
0.793522
0.779874
0.72818
0.788248
0.794454
0.731424
0.769475
0.680337
0.902052
0.667913
0.608628
0.832692
0.651571
0.49829
0.877428
0.776509
0.75485
0.752012
0.784926
0.667393
0.913952
0.743456
0.780499
0.750934
0.832708
0.806557
0.689897
0.733476
0.710234
0.713717
0.721426
0.448037
0.627588
0.649459
0.817158
0.762437
0.597527
0.760613
0.739122
0.624855
0.921802
0.703999
0.583573
0.654882
0.507823
0.799439
0.734027
0.609433
0.849225
0.60074
0.734234
0.552721
0.62814
0.832608
0.893221
0.627218
0.905853
0.717931
0.614487
0.897384
0.840492
0.798803
0.755713
0.745419
0.784572
0.891207
0.914328
0.698472
0.78427
0.750092
0.721854
0.743235
0.833171
0.615259
0.880597
0.921854
0.657537
0.777884
0.801831
0.773801
0.832093
0.850353
0.712538
0.788473
0.723293
0.756267
0.842343
0.651325
0.808223
0.639222
0.808428
0.736186
0.946248
0.502666
0.662836
0.687419
0.78055
0.616927
0.707621
0.779479
0.654688
0.800879
0.820546
0.928326
0.48661
0.76662
0.838152
0.159571
0.0948249
0.445294
0.83542
0.107694
0.620439
0.846829
0.764396
0.911387
0.810747
0.770744
0.818272
0.760175
0.751308
0.682771
0.135712
0.141025
0.135216
0.0518723
0.122396
0.0626967
0.129405
0.0684362
0.114271
0.0516441
0.0741506
0.288644
0.050636
0.0870661
0.0492036
0.0748005
0.0879844
0.851958
0.0424277
0.106821
0.0457221
0.161416
0.0817517
0.0682598
0.0493854
0.0802385
0.58106
0.277972
0.0702681
0.0149413
0.0379281
0.873953
0.0738677
0.192684
0.625978
0.106383
0.702815
0.910491
0.794179
0.906438
0.537139
0.47505
0.382969
0.757335
0.690218
0.913326
0.89488
0.790357
0.465008
0.435601
0.251166
0.809335
0.17403
0.571627
0.719248
0.76597
0.732239
0.663092
0.225785
0.465585
0.512448
0.794435
0.724653
0.101875
0.207879
0.611151
0.493604
0.136521
0.312717
0.175406
0.148445
0.374786
0.377109
0.298247
0.506357
0.139208
0.108027
0.200208
0.0539102
0.10882
0.0432908
0.331741
0.12096
0.189852
0.0597178
0.0773661
0.118653
0.127569
0.127879
0.145553
0.0727143
0.119645
0.129953
0.084567
0.0723135
0.166193
0.135765
0.163427
0.0836741
0.134745
0.0856748
0.206802
0.151381
0.124527
0.122759
0.190873
0.0599709
0.627575
0.804208
0.878936
0.664922
0.621877
0.65044
0.775107
0.669915
0.125498
0.698384
0.223778
0.175617
0.107374
0.288966
0.168029
0.12796
0.678728
0.793168
0.272237
0.963845
0.157354
0.202194
0.527159
0.206079
0.163718
0.719443
0.440109
0.261227
0.635287
0.784507
0.705046
0.946408
0.600411
0.585202
0.870469
0.19519
0.121011
0.167437
0.128067
0.0596413
0.196698
0.172315
0.147171
0.475507
0.168249
0.402706
0.032808
0.0582489
0.0673237
0.122891
0.447522
0.470993
0.0275874
0.145815
0.117511
0.0865775
0.0978595
0.135724
0.110483
0.102583
0.0332271
0.0471877
0.0561589
0.117175
0.0415605
0.0922705
0.0706638
0.115947
0.0741875
0.0953791
0.102244
0.88488
0.495327
0.579453
0.738347
0.785411
0.846979
0.394261
0.495426
0.234456
0.698393
0.139343
0.165023
0.343438
0.144438
0.818638
0.730462
0.257467
0.237014
0.206503
0.803732
0.749656
0.18412
0.605968
0.798666
0.526486
0.158418
0.216516
0.195776
0.122522
0.618161
0.372833
0.844131
0.896049
0.515572
0.862245
0.0628459
0.122715
0.107913
0.0624203
0.11827
0.105885
0.0904566
0.118337
0.0979447
0.0920908
0.130965
0.0772619
0.0681554
0.137873
0.0841448
0.0674647
0.0808475
0.128558
0.107656
0.0960337
0.106539
0.119934
0.0943322
0.0446395
0.166163
0.109376
0.159599
0.0887307
0.12916
0.149051
0.0635731
0.150845
0.752181
0.595432
0.445856
0.68125
0.605925
0.256509
0.551187
0.718404
0.130475
0.129401
0.203654
0.731274
0.123732
0.17481
0.328585
0.12712
0.102939
0.143963
0.156962
0.177141
0.218059
0.229947
0.201292
0.229913
0.270138
0.728365
0.392312
0.286904
0.19207
0.186421
0.16815
0.175643
0.141786
0.141893
0.136582
0.227201
0.206737
0.235535
0.201347
0.199412
0.207163
0.203687
0.208179
0.20191
0.140775
0.184534
0.143767
0.135209
0.170291
0.239083
0.217033
0.156045
0.185618
0.139325
0.15333
0.202711
0.20705
0.163883
0.193835
0.255443
0.134399
0.111518
0.159612
0.178939
0.140234
0.16031
0.162268
0.179019
0.196762
0.19451
0.342515
0.254868
0.296692
0.218996
0.206263
0.225509
0.209641
0.129848
0.147948
0.141978
0.878987
0.59719
0.64245
0.911481
0.640231
0.803032
0.776593
0.741313
0.71718
0.245853
0.754197
0.76153
0.875232
0.661983
0.810846
0.733326
0.752826
0.784539
0.68479
0.62577
0.805738
0.723746
0.690844
0.723996
0.756445
0.568636
0.768914
0.595925
0.763545
0.668592
0.805368
0.738539
0.788463
0.824216
0.801745
0.876923
0.648433
0.479621
0.437535
0.842707
0.774584
0.599804
0.810798
0.801082
0.766654
0.667068
0.529813
0.85486
0.644871
0.787299
0.711417
0.500154
0.798619
0.652014
0.734824
0.72133
0.665141
0.722197
0.641607
0.645671
0.182214
0.626539
0.755831
0.766082
0.182737
0.614506
0.648673
0.203798
0.574561
0.802318
0.793885
0.723804
0.744366
0.831408
0.531487
0.524094
0.830378
0.782867
0.740939
0.74266
0.886157
0.773764
0.833371
0.646036
0.776121
0.836024
0.783417
0.684022
0.670283
0.736127
0.679502
0.834972
0.641968
0.702194
0.279528
0.719031
0.788376
0.7341
0.670194
0.640388
0.693409
0.579354
0.859195
0.657146
0.808553
0.681078
0.66662
0.894735
0.747392
0.729121
0.719511
0.76044
0.683669
0.843656
0.717879
0.732234
0.621117
0.620881
0.630737
0.624442
0.594327
0.789897
0.636734
0.788863
0.765945
0.742531
0.809974
0.841078
0.816244
0.793745
0.783289
0.610607
0.814028
0.752067
0.739071
0.627348
0.695531
0.673201
0.723915
0.679392
0.635474
0.618891
0.656727
0.578624
0.907563
0.68207
0.641448
0.692263
0.601914
0.698355
0.687078
0.749469
0.846856
0.71884
0.707925
0.693268
0.557671
0.912493
0.494426
0.879359
0.727778
0.457545
0.465625
0.802234
0.751787
0.563435
0.478841
0.526348
0.665855
0.491441
0.796189
0.657089
0.825824
0.794338
0.736817
0.619582
0.612473
0.720759
0.616945
0.898612
0.635965
0.547022
0.790166
0.650396
0.772873
0.841324
0.875536
0.850312
0.895243
0.805487
0.904537
0.85943
0.82783
0.84975
0.849547
0.686987
0.872114
0.843484
0.799652
0.848005
0.824608
0.802667
0.715874
0.884521
0.60478
0.864604
0.902484
0.854845
0.778611
0.852739
0.853595
0.853714
0.839356
0.818722
0.852766
0.809791
0.837438
0.820888
0.825372
0.768139
0.763425
0.587173
0.84762
0.695213
0.553044
0.643975
0.641668
0.551915
0.563968
0.738636
0.618219
0.651791
0.805425
0.815754
0.748568
0.83562
0.57877
0.578074
0.699912
0.911915
0.858588
0.867214
0.633099
0.756373
0.796587
0.534688
0.798024
0.758127
0.915988
0.711119
0.773758
0.858822
0.727303
0.860543
0.788331
0.732989
0.757547
0.722968
0.860036
0.753638
0.82984
0.817231
0.807867
0.901689
0.627681
0.695285
0.689624
0.838511
0.705047
0.776375
0.806625
0.802258
0.780816
0.704868
0.60007
0.776931
0.754047
0.830457
0.719422
0.746898
0.931219
0.834534
0.814621
0.474102
0.832866
0.756935
0.739989
0.775696
0.836976
0.801933
0.797498
0.79683
0.892746
0.881259
0.876716
0.861529
0.799459
0.874468
0.79663
0.765214
0.822551
0.849436
0.830855
0.801236
0.809707
0.853894
0.825569
0.887344
0.772498
0.839134
0.872649
0.762914
0.818982
0.861842
0.826935
0.846124
0.748437
0.762836
0.781594
0.807094
0.875084
0.790301
0.784356
0.642703
0.811356
0.885408
0.843744
0.807172
0.805129
0.734787
0.888793
0.874351
0.767468
0.851158
0.764823
0.826307
0.712117
0.876975
0.751147
0.815734
0.560699
0.717766
0.754745
0.852631
0.805239
0.685165
0.832843
0.764315
0.751117
0.728252
0.786016
0.732653
0.575438
0.788597
0.494443
0.705121
0.638895
0.625507
0.697443
0.702551
0.920662
0.252237
0.7883
0.901381
0.582933
0.921645
0.667119
0.659416
0.52178
0.58031
0.87765
0.717755
0.831922
0.534021
0.794714
0.748197
0.685448
0.917313
0.954027
0.699358
0.925148
0.752136
0.673993
0.739505
0.703759
0.916713
0.858207
0.677966
0.799391
0.496685
0.725734
0.710362
0.590205
0.545325
0.71783
0.647493
0.645332
0.779941
0.878733
0.665235
0.948195
0.623982
0.72818
0.916636
0.78275
0.658155
0.660213
0.677085
0.603787
0.669255
0.654965
0.926353
0.936549
0.736313
0.949777
0.773215
0.486359
0.757818
0.822004
0.863117
0.392334
0.639202
0.847888
0.690037
0.652649
0.630479
0.648322
0.679166
0.79037
0.763485
0.673507
0.65167
0.668878
0.867071
0.665432
0.305556
0.987984
0.296315
0.767524
0.672499
0.715956
0.479346
0.709001
0.750647
0.815595
0.759894
0.797483
0.745174
0.710869
0.715201
0.831932
0.763706
0.792915
0.678423
0.679692
0.725685
0.689355
0.947637
0.847304
0.499772
0.635846
0.669806
0.880422
0.62094
0.697974
0.60078
0.880293
0.640123
0.568881
0.66157
0.7013
0.80374
0.681368
0.656297
0.636743
0.657275
0.92969
0.853592
0.789442
0.907592
0.710043
0.892878
0.879761
0.904275
0.735853
0.868408
0.840499
0.754682
0.816465
0.888135
0.817407
0.832441
0.63603
0.890594
0.895097
0.896701
0.832288
0.754627
0.477709
0.719491
0.829307
0.900749
0.857195
0.845158
0.650647
0.606046
0.875973
0.618431
0.706738
0.908434
0.738487
0.639075
0.799504
0.808176
0.772713
0.792736
0.767577
0.566909
0.703748
0.810009
0.822206
0.851986
0.712307
0.82992
0.804999
0.863093
0.845745
0.845182
0.832502
0.536481
0.551638
0.807421
0.728733
0.725577
0.655251
0.836343
0.759422
0.838928
0.79743
0.845762
0.839646
0.803668
0.827077
0.949631
0.678694
0.701973
0.687924
0.918416
0.883098
0.506517
0.829477
0.867429
0.85046
0.892955
0.844178
0.857944
0.874755
0.702165
0.767133
0.754257
0.872892
0.883952
0.690467
0.608907
0.744032
0.852924
0.782615
0.71488
0.609752
0.681118
0.74458
0.639816
0.763648
0.819065
0.835095
0.756971
0.475378
0.854491
0.590424
0.868836
0.885652
0.691969
0.763159
0.622872
0.768036
0.869522
0.880579
0.696122
0.884132
0.630635
0.656442
0.78674
0.752672
0.740166
0.618373
0.909476
0.763271
0.785658
0.793217
0.878312
0.326639
0.897106
0.770036
0.787072
0.647213
0.730746
0.770835
0.75684
0.835933
0.786203
0.766868
0.838455
0.843006
0.891331
0.843468
0.828741
0.826382
0.602075
0.804703
0.856042
0.756216
0.643675
0.701631
0.60727
0.645854
0.77541
0.79109
0.631924
0.912776
0.864209
0.8869
0.679362
0.814728
0.783887
0.738578
0.801766
0.8731
0.754579
0.748721
0.801629
0.651968
0.809461
0.781835
0.633518
0.747252
0.788032
0.861243
0.825991
0.861079
0.818268
0.853045
0.795278
0.842655
0.81116
0.717632
0.832545
0.838252
0.871531
0.835281
0.770385
0.858787
0.701499
0.461986
0.600181
0.792739
0.482387
0.723115
0.672197
0.441612
0.855387
0.789502
0.805307
0.807607
0.657981
0.66833
0.543329
0.728144
0.722971
0.852649
0.683925
0.867405
0.625212
0.690768
0.68685
0.787004
0.579289
0.716241
0.711789
0.628793
0.699922
0.721354
0.596843
0.585629
0.660785
0.779496
0.640405
0.735242
0.722268
0.774094
0.817324
0.570633
0.632344
0.435859
0.727066
0.628494
0.748699
0.717393
0.656863
0.659557
0.780249
0.865523
0.677357
0.719728
0.666199
0.668637
0.62046
0.689396
0.75201
0.843726
0.810746
0.831474
0.761386
0.841587
0.609804
0.780642
0.755622
0.623991
0.498959
0.716425
0.644955
0.602621
0.647635
0.412369
0.771967
0.751669
0.651891
0.604756
0.825694
0.610865
0.813288
0.697779
0.687559
0.694233
0.786473
0.642971
0.583096
0.755935
0.645668
0.764689
0.660262
0.605058
0.69166
0.743199
0.587089
0.4607
0.590612
0.565333
0.748562
0.668452
0.714127
0.758937
0.533795
0.737067
0.714866
0.610123
0.649619
0.639595
0.89932
0.880626
0.570538
0.550977
0.858497
0.817446
0.815758
0.81727
0.768241
0.967498
0.718529
0.82196
0.829111
0.871703
0.815964
0.775025
0.82861
0.773525
0.780922
0.741531
0.766694
0.562862
0.859919
0.673684
0.698111
0.498032
0.936939
0.70304
0.683533
0.865871
0.766259
0.645527
0.784852
0.79762
0.862659
0.791476
0.603729
0.73992
0.846121
0.829444
0.949282
0.725201
0.779094
0.738309
0.649627
0.716332
0.496043
0.659633
0.406652
0.67182
0.591161
0.809763
0.365672
0.790556
0.281044
0.349095
0.136587
0.166254
0.138474
0.294361
0.0704158
0.452196
0.470499
0.436837
0.863513
0.709561
0.866839
0.768068
0.161247
0.142883
0.103085
0.0965526
0.0418245
0.197365
0.089024
0.119523
0.363162
0.170084
0.299474
0.54837
0
0.282675
0.0291392
0.101657
0.126386
0.0332191
0.0970397
0.036389
0.16603
0.0946664
0.0809837
0.0837822
0.136579
0.0916781
0.0407524
0.184086
0.105959
0.105377
0.134642
0.00929866
0.139374
0.0981542
0.0492212
0.123525
0.448039
0.837838
0.321018
0.570069
0.799375
0.385812
0.807447
0.235832
0.452256
0.673071
0.767139
0.223112
0.239084
0.30885
0.294884
0.163547
0.191753
0.341873
0.161232
0.954125
0.774634
0.581101
0.782561
0.80484
0.774938
0.903424
0.756394
0.162863
0.646894
0.147389
0.140805
0.228174
0.624956
0.157079
0.644914
0.652976
0.701924
0.908174
0.86201
0.739425
0.107929
0.10709
0.137934
0.0596887
0.120051
0.0748458
0.179144
0.125789
0.169352
0.1214
0.135617
0.116405
0.0782691
0.0519891
0.0575767
0.109404
0.0943073
0.140953
0.0545355
0.115614
0.0965935
0.079393
0.157521
0.20924
0.111263
0.133371
0.19555
0.0913073
0.120358
0.111308
0.0533315
0.175225
0.492713
0.608703
0.600696
0.703887
0.412186
0.261338
0.222012
0.658356
0.901597
0.363481
0.346335
0.135696
0.120435
0.302592
0.232402
0.134193
0.180908
0.259892
0.152425
0.873702
0.511437
0.881381
0.604451
0.375112
0.133321
0.255879
0.315098
0.0809549
0.84632
0.40732
0.815315
0.856902
0.842608
0.562586
0.498905
0.143671
0.128914
0.107434
0.104815
0.123895
0.166939
0.157857
0.0999183
0.126951
0.0743792
0.338927
0.0251393
0.0183906
0.144666
0.046633
0.694983
0.0890106
0.104516
0.0588975
0.0626233
0.0405399
0.0869522
0.127278
0.0810656
0.0074202
0.0455197
0.0481912
0.848787
0.293893
0.714495
0.14697
0.169847
0.841734
0.0784618
0.939118
0.612579
0.844248
0.896348
0.548691
0.8663
0.707793
0.776188
0.842441
0.89424
0.751917
0.776128
0.868674
0.44763
0.170698
0.821603
0.173354
0.56767
0.188093
0.095127
0.56207
0.300839
0.83881
0.642241
0.124689
0.139306
0.172827
0.369382
0.144685
0.176339
0.241736
0.387576
0.613011
0.343225
0.55819
0.609533
0.0761399
0.096169
0.18868
0.11298
0.121359
0.0979552
0.0642993
0.121201
0.164674
0.197673
0.255425
0.0759185
0.160346
0.11209
0.0892855
0.125977
0.0922828
0.0915331
0.141978
0.138575
0.0900873
0.097073
0.0589168
0.0630845
0.225311
0.187651
0.127296
0.0946207
0.133524
0.136953
0.0607061
0.110632
0.714253
0.645505
0.758462
0.940576
0.312876
0.351755
0.517528
0.878699
0.578845
0.369654
0.59496
0.152326
0.124144
0.206038
0.250838
0.106518
0.161676
0.550819
0.132233
0.127422
0.106862
0.17922
0.106111
0.212581
0.182454
0.202892
0.199211
0.248387
0.148922
0.17555
0.23525
0.118365
0.107213
0.112007
0.155934
0.136357
0.189285
0.151218
0.189073
0.251252
0.225874
0.214453
0.251343
0.214426
0.2035
0.201972
0.244763
0.161864
0.145096
0.174411
0.158334
0.120306
0.201185
0.194526
0.219399
0.143166
0.181145
0.254356
0.188534
0.166143
0.28157
0.640899
0.234444
0.22425
0.21581
0.218145
0.208087
0.107969
0.134561
0.189612
0.13068
0.196294
0.181464
0.194737
0.167086
0.187895
0.201661
0.260644
0.203608
0.177389
0.174378
0.176794
0.146788
0.724839
0.829594
0.816578
0.687581
0.705759
0.70532
0.808547
0.875365
0.880485
0.246103
0.7283
0.788393
0.618914
0.717012
0.767917
0.737756
0.775163
0.738604
0.691431
0.654427
0.776554
0.726154
0.654485
0.653945
0.70148
0.539847
0.472111
0.613889
0.775773
0.718479
0.528163
0.572489
0.478079
0.736276
0.614638
0.769374
0.778558
0.812147
0.841985
0.665486
0.655307
0.688894
0.791089
0.694485
0.68668
0.717683
0.632578
0.538737
0.835787
0.806065
0.814655
0.263068
0.758207
0.647235
0.556198
0.68514
0.821763
0.604409
0.706956
0.216431
0.199115
0.700418
0.639683
0.690832
0.665398
0.65091
0.19614
0.665681
0.512373
0.298082
0.747896
0.800332
0.712629
0.560314
0.684765
0.798693
0.826575
0.534432
0.629064
0.82819
0.817221
0.552466
0.761894
0.719887
0.719704
0.712455
0.607272
0.792558
0.725872
0.62423
0.77325
0.863375
0.384778
0.775988
0.75393
0.842997
0.921223
0.635809
0.885074
0.6828
0.370534
0.849042
0.774447
0.769928
0.792889
0.792382
0.645648
0.76426
0.766207
0.791025
0.770318
0.7146
0.750433
0.793868
0.746938
0.805939
0.665119
0.872735
0.86555
0.800489
0.694881
0.81824
0.695529
0.787945
0.768483
0.60596
0.846626
0.575235
0.707161
0.74554
0.557646
0.326069
0.779433
0.72625
0.677031
0.719009
0.638965
0.707089
0.678018
0.654212
0.866959
0.795845
0.626391
0.737198
0.730937
0.731082
0.76651
0.63749
0.662895
0.667954
0.708721
0.660057
0.772883
0.736043
0.514018
0.609134
0.66335
0.789586
0.791313
0.813096
0.772792
0.613488
0.686754
0.68735
0.685965
0.737333
0.743204
0.688596
0.806103
0.81639
0.682073
0.890264
0.610195
0.830908
0.449955
0.537745
0.648025
0.636308
0.662603
0.86888
0.765034
0.829255
0.840007
0.809972
0.864991
0.884724
0.877805
0.823273
0.750618
0.826286
0.956557
0.810848
0.855741
0.792529
0.797278
0.687465
0.906829
0.69648
0.624709
0.784607
0.524669
0.520194
0.838694
0.570697
0.785257
0.789339
0.694429
0.726688
0.695154
0.775469
0.84144
0.70274
0.806514
0.408367
0.59391
0.710289
0.637144
0.70076
0.77395
0.776851
0.762861
0.808063
0.797058
0.874096
0.852288
0.777346
0.726497
0.792636
0.770366
0.683768
0.722933
0.776258
0.813863
0.720529
0.85743
0.635808
0.747255
0.64311
0.668502
0.784744
0.786926
0.886491
0.836739
0.889306
0.817035
0.884442
0.834531
0.705906
0.704873
0.652262
0.741575
0.676823
0.826694
0.755139
0.85014
0.777418
0.716212
0.809287
0.812089
0.813018
0.729021
0.800866
0.835285
0.746579
0.522304
0.818698
0.534248
0.788829
0.523906
0.581728
0.825207
0.840239
0.690633
0.765604
0.799156
0.864557
0.928448
0.914468
0.778003
0.861295
0.711763
0.687282
0.728629
0.714946
0.583487
0.584876
0.674198
