OFF
186 364 0
-19.1927 2.32459 0.260485
-19.0547 2.34559 0.861785
-19.4227 2.51869 0.776885
-19.5277 2.55049 0.249785
-19.6687 2.85779 0.821585
-19.7997 2.89439 0.505285
-19.7117 2.85039 0.110185
-19.3497 3.25279 0.815885
-19.7397 3.33429 0.260485
-19.7597 3.15039 -0.0295154
-19.4807 3.43119 -0.256015
-19.3027 3.05649 -0.601315
-19.4887 2.80639 -0.285015
-19.0787 2.70489 -0.556615
-18.6667 2.55539 -0.641515
-19.0367 2.42419 -0.226115
-5.96568 3.12959 1.23958
-7.55968 3.19589 0.988585
-5.96268 2.91099 1.02718
-5.95368 3.48419 1.24808
-6.23368 3.32489 1.25528
-5.96368 3.03429 0.173085
-6.23068 3.32399 0.112185
-5.95368 3.48419 0.119885
-7.32668 3.76029 0.317885
-5.96268 3.71589 0.340885
-8.62968 3.40629 0.773785
-8.57968 3.47789 0.996985
-9.54168 3.83159 0.973185
-9.56968 3.76739 0.755785
-11.0917 4.46409 0.871585
-10.6297 4.25279 0.570185
-11.3557 4.51589 0.734585
-11.2637 4.51909 0.389585
-10.5627 4.32249 0.367885
-8.96568 3.54489 0.522585
-8.98068 3.61689 0.386485
-8.87668 3.92029 1.07288
-8.57968 3.96409 0.996585
-9.52768 4.30589 0.937385
-10.7077 4.80929 0.882785
-11.3977 5.09829 0.762485
-11.2997 4.83009 0.991785
-8.83368 3.77749 1.09968
-11.1207 4.59249 0.984885
-9.04268 3.73329 1.06438
-8.87068 4.09619 0.442985
-9.66668 4.31569 0.353085
-9.53968 4.37459 0.609585
-10.3857 4.68709 0.386085
-8.88068 4.13329 0.791585
-11.3647 5.10959 0.331285
-10.7627 4.90439 0.565585
-8.29168 3.50099 0.274585
-9.89568 4.16959 0.298485
-8.62768 3.81149 0.261485
-11.2407 4.74489 0.175485
-10.6367 4.52949 0.251985
-11.0257 4.87159 0.241485
-12.0657 4.75499 0.823685
-11.9537 4.64859 0.464385
-12.7167 4.75179 0.608985
-12.6027 4.74309 0.210985
-13.4877 4.73889 0.578185
-14.1907 4.50119 0.424285
-13.3667 4.67009 0.298385
-14.0507 4.51019 -0.0313154
-14.0337 4.64039 -0.288215
-13.2837 4.77979 -0.122115
-12.5767 4.85189 -0.0129154
-11.8847 4.79759 0.104885
-12.1577 5.18339 0.822685
-12.9227 5.30909 0.676985
-13.2497 5.19949 0.727185
-12.5317 5.03249 0.846785
-13.7067 5.32539 0.533685
-14.5127 5.11169 0.503285
-14.6717 4.91099 0.596785
-14.8197 4.65689 0.624485
-13.5997 4.93119 0.715985
-14.3307 4.65779 0.611185
-12.8227 4.90259 0.771085
-12.0057 5.23219 0.0985846
-12.0807 5.32959 0.466885
-12.7867 5.41049 0.0544846
-12.8927 5.41799 0.453385
-13.5117 5.36459 -0.167015
-14.3547 5.25169 -0.208815
-13.6327 5.43379 0.112785
-14.4947 5.24249 0.246185
-12.8737 4.99789 -0.176415
-12.3147 5.09839 -0.0631154
-14.2937 4.71009 -0.424715
-14.1817 5.04299 -0.426015
-13.3687 5.17789 -0.299115
-12.6757 5.25829 -0.106915
-15.0167 4.17679 0.471785
-14.9277 4.12199 0.285585
-16.0857 3.49839 0.484785
-15.6287 3.65589 0.202485
-14.8287 4.13819 -0.0394154
-17.0157 2.74379 0.575485
-16.7537 2.77579 0.253185
-16.2507 3.18859 0.176985
-16.4827 3.02319 -0.168115
-16.7737 2.87319 -0.388915
-15.9067 3.58789 -0.371015
-15.5477 3.72829 -0.176115
-14.8047 4.28639 -0.347515
-15.4537 4.69849 0.466385
-16.4377 3.91049 0.604785
-16.3757 3.72109 0.645985
-17.2147 3.55479 0.544285
-17.2277 3.33489 0.691285
-17.3677 2.96729 0.778485
-17.1137 2.89979 0.704285
-16.0937 3.68859 0.597285
-15.1147 4.29469 0.583485
-15.1067 4.87119 -0.347515
-15.2437 4.93609 -0.0397154
-15.8627 4.43639 -0.367915
-15.9567 4.49169 -0.176115
-16.0557 4.46829 0.202185
-17.2187 3.69969 0.0840846
-17.1507 3.69459 -0.168915
-17.0377 3.64219 -0.380315
-17.2757 3.62729 0.341885
-15.3117 4.86619 0.285585
-15.9387 3.75439 -0.489715
-16.0747 3.88429 -0.528215
-14.9367 4.68069 -0.496815
-16.8037 3.06629 -0.519615
-17.0277 3.14969 -0.583615
-15.7607 4.31599 -0.483015
-16.9087 3.51629 -0.508615
-17.2877 2.20939 0.281785
-17.5867 2.26579 0.788085
-17.7697 2.13009 0.511385
-17.7057 2.13359 0.110185
-17.5627 2.24209 -0.291115
-17.2427 2.45379 -0.567915
-17.1807 2.31829 -0.225315
-17.7307 3.17059 0.743085
-18.5707 3.27269 0.850885
-18.1057 2.87759 1.05988
-17.8007 2.44579 0.988985
-17.4027 3.34129 -0.539215
-17.6657 3.47199 -0.0586154
-18.1887 3.47949 -0.630615
-18.2827 3.57079 -0.291115
-18.4827 3.56729 0.110185
-18.4887 3.45879 0.511385
-17.7687 3.37259 0.417885
-17.3587 2.68939 -0.769715
-17.5407 2.97899 -0.848115
-17.9387 3.26589 -0.826015
-18.3697 2.21299 0.860685
-18.5947 2.14479 0.499385
-18.5937 2.16879 0.110185
-18.3937 2.25349 -0.279115
-17.9827 2.42259 -0.640415
-18.9377 3.00849 1.06098
-18.7287 2.70749 1.13398
-19.3837 2.82109 1.02238
-18.6227 2.42689 1.06098
-18.9397 3.45529 -0.602115
-18.9107 3.57079 -0.290815
-19.3327 3.53199 0.110185
-19.2997 3.44739 0.499385
-18.1327 2.69239 -0.840715
-18.2017 2.99329 -0.913715
-18.8507 2.97779 -0.802015
-18.7597 3.25479 -0.807615
-5.93368 2.84909 0.545785
-5.95968 3.65119 1.12168
-7.44868 3.82099 0.985185
-7.44968 3.64889 1.14278
-7.81268 3.40739 1.12118
-7.44468 3.11539 0.575585
-8.25768 3.36639 0.397985
-7.36368 3.20059 0.319585
-8.22368 3.93089 0.396885
-7.44768 3.64889 0.225185
-7.44268 3.87479 0.571985
-5.96268 3.77179 0.823985
-8.22468 3.98979 0.765285
3 0 1 2
3 0 2 3
3 2 4 5
3 2 5 3
3 5 6 3
3 4 7 8
3 4 8 5
3 8 9 5
3 9 6 5
3 10 11 9
3 11 12 9
3 12 6 9
3 9 8 10
3 13 14 15
3 13 15 12
3 15 0 3
3 15 3 12
3 3 6 12
3 12 11 13
3 16 17 18
3 19 20 16
3 21 22 23
3 23 24 25
3 26 27 28
3 26 28 29
3 28 30 29
3 30 31 29
3 32 33 31
3 32 31 30
3 33 34 31
3 35 26 29
3 29 31 35
3 31 34 36
3 31 36 35
3 37 38 39
3 39 40 37
3 40 41 42
3 42 43 37
3 37 40 42
3 30 28 44
3 44 43 42
3 28 27 45
3 43 44 45
3 44 28 45
3 46 47 48
3 47 49 48
3 48 50 46
3 49 51 52
3 51 41 52
3 48 49 52
3 40 48 52
3 52 41 40
3 39 38 50
3 50 48 39
3 48 40 39
3 53 36 54
3 36 34 54
3 54 55 53
3 34 33 56
3 34 56 57
3 54 34 57
3 58 51 49
3 49 47 58
3 47 54 57
3 47 57 58
3 57 56 58
3 47 46 55
3 55 54 47
3 32 30 59
3 32 59 60
3 59 61 60
3 61 62 60
3 60 33 32
3 63 64 65
3 64 66 65
3 65 62 61
3 61 63 65
3 66 67 68
3 68 69 62
3 62 65 68
3 65 66 68
3 70 33 60
3 62 69 70
3 62 70 60
3 42 41 71
3 71 72 73
3 73 74 71
3 74 42 71
3 75 76 77
3 75 77 73
3 77 78 79
3 77 79 73
3 79 74 73
3 73 72 75
3 80 64 63
3 80 63 79
3 63 61 81
3 63 81 79
3 81 74 79
3 79 78 80
3 59 30 44
3 44 42 74
3 44 74 59
3 74 81 59
3 81 61 59
3 51 82 83
3 82 84 83
3 84 85 83
3 83 41 51
3 86 87 88
3 87 89 88
3 88 85 84
3 84 86 88
3 89 76 75
3 75 72 85
3 85 88 75
3 88 89 75
3 71 41 83
3 85 72 71
3 85 71 83
3 56 33 70
3 70 69 90
3 90 91 70
3 91 56 70
3 68 67 92
3 68 92 90
3 92 93 94
3 92 94 90
3 94 91 90
3 90 69 68
3 93 87 86
3 93 86 94
3 86 84 95
3 86 95 94
3 95 91 94
3 82 51 58
3 58 56 91
3 58 91 82
3 91 95 82
3 95 84 82
3 64 96 97
3 96 98 99
3 96 99 97
3 99 100 97
3 100 66 64
3 100 64 97
3 98 101 102
3 98 102 103
3 99 98 103
3 104 105 106
3 106 107 104
3 107 99 103
3 107 103 104
3 103 102 104
3 108 67 66
3 108 66 100
3 100 99 107
3 107 106 108
3 107 108 100
3 77 76 109
3 109 110 77
3 110 111 78
3 110 78 77
3 112 113 110
3 113 114 111
3 113 111 110
3 110 109 112
3 115 101 98
3 115 98 116
3 111 114 115
3 111 115 116
3 96 64 80
3 96 80 117
3 80 78 117
3 78 111 116
3 78 116 117
3 116 98 96
3 116 96 117
3 87 118 119
3 118 120 121
3 118 121 119
3 121 122 119
3 119 89 87
3 123 122 121
3 123 121 124
3 121 120 125
3 121 125 124
3 112 109 122
3 112 122 126
3 122 123 126
3 109 76 89
3 109 89 127
3 89 119 127
3 119 122 127
3 122 109 127
3 92 67 108
3 108 106 128
3 108 128 92
3 128 129 130
3 128 130 92
3 130 93 92
3 106 105 131
3 106 131 128
3 131 132 129
3 131 129 128
3 125 120 133
3 125 133 134
3 133 129 134
3 129 132 134
3 118 87 93
3 118 93 130
3 130 129 133
3 133 120 118
3 133 118 130
3 102 101 135
3 101 136 135
3 136 137 135
3 137 138 135
3 139 140 141
3 135 138 139
3 135 139 141
3 105 104 141
3 104 102 135
3 104 135 141
3 141 140 105
3 113 112 142
3 114 113 142
3 142 143 144
3 144 114 142
3 145 114 144
3 114 145 115
3 145 136 101
3 145 101 115
3 124 125 146
3 124 146 147
3 147 123 124
3 146 148 149
3 146 149 147
3 149 150 147
3 151 143 142
3 151 142 152
3 147 150 151
3 147 151 152
3 142 112 126
3 142 126 152
3 126 123 147
3 126 147 152
3 105 140 153
3 105 153 131
3 153 132 131
3 154 132 153
3 155 148 146
3 146 132 154
3 154 155 146
3 146 125 134
3 134 132 146
3 137 136 156
3 156 157 137
3 157 158 138
3 157 138 137
3 1 0 157
3 0 158 157
3 157 156 1
3 15 14 159
3 14 160 159
3 158 0 15
3 158 15 159
3 160 140 139
3 138 158 159
3 138 159 139
3 159 160 139
3 144 143 161
3 143 7 161
3 162 144 161
3 7 4 163
3 163 162 161
3 161 7 163
3 1 156 164
3 164 162 163
3 164 163 1
3 163 4 2
3 163 2 1
3 156 136 145
3 156 145 164
3 145 144 162
3 145 162 164
3 148 165 166
3 148 166 149
3 166 167 150
3 166 150 149
3 10 8 167
3 167 166 10
3 166 165 10
3 8 7 168
3 167 8 168
3 150 167 168
3 150 168 151
3 168 7 143
3 168 143 151
3 153 140 160
3 153 160 169
3 170 154 153
3 170 153 169
3 13 11 171
3 13 171 14
3 171 170 169
3 171 169 14
3 169 160 14
3 11 10 165
3 11 165 172
3 172 170 171
3 171 11 172
3 155 154 170
3 170 172 155
3 172 165 148
3 172 148 155
3 18 173 16
3 173 19 16
3 23 173 21
3 19 174 175
3 19 175 176
3 20 19 176
3 43 20 176
3 43 176 37
3 176 175 38
3 176 38 37
3 45 27 177
3 27 17 177
3 177 20 43
3 43 45 177
3 17 16 177
3 16 20 177
3 178 173 18
3 178 18 17
3 26 178 17
3 17 27 26
3 35 36 179
3 179 180 178
3 178 26 179
3 26 35 179
3 180 21 173
3 180 173 178
3 21 180 53
3 22 21 53
3 179 36 53
3 55 22 53
3 53 180 179
3 55 46 181
3 181 24 182
3 181 182 55
3 182 22 55
3 24 23 182
3 23 22 182
3 25 24 183
3 183 184 25
3 46 50 185
3 46 185 181
3 185 183 181
3 183 24 181
3 50 38 185
3 38 175 185
3 175 183 185
3 175 174 184
3 184 183 175
