0.441015
0.27392
0.458516
0.434554
0.412603
0.438484
0.371528
0.410387
0.51726
0.488514
0.434556
0.322461
0.552405
0.548724
0.472879
0.456589
0.579256
0.742278
0.43229
0.540845
0.537696
0.485287
0.543319
0.577024
0.45991
0.499731
0.491757
0.456597
0.613479
0.522477
0.3505
0.40336
0.427486
0.599805
0.414966
0.478991
0.474924
0.630886
0.373521
0.393133
1
0.528314
0.491638
0.58835
0.640657
0.424653
0.519332
0.47986
0.487224
0.459825
0.60991
0.5134
0.384766
0.588428
0.37244
0.418008
0.540098
0.489285
0.41777
0.557121
0.417595
0.426401
0.520506
0.430754
0.402724
0.609895
0.393825
0.490588
0.504684
0.47616
0.469407
0.440641
0.530481
0.427297
0.541931
0.46714
0.409149
0.596392
0.459394
0.720835
0.565617
0.413077
0.431776
0.456435
0.469797
0.602665
0.383448
0.553358
0.447043
0.533858
0.469129
0.51794
0.569876
0.572895
0.512637
0.479081
0.599142
0.555512
0.625469
0.491591
0.403345
0.557992
0.373829
0.778777
0.467871
0.41624
0.390684
0.420936
0.677173
0.628749
0.357446
0.532548
0.367954
0.435754
0.593275
0.345347
0.454049
0.419214
0.401587
0.660556
0.289017
0.537306
0.267956
0.190229
0.436661
0.251301
0.215089
0.430872
0.182289
0.30681
0.41024
0.255522
0.267348
0.542531
0.383723
0.283615
0.34602
0.435268
0.185898
0.240081
0.259895
0.326208
0.289167
0.249515
0.230147
0.247343
0.0759135
0.385079
0.38015
0.309009
0.242882
0.270775
0.4919
0.265779
0.490876
0.209804
0.169289
0.371988
0.356176
0.197196
0.391687
0.238214
0.562083
0.314143
0.527117
0.365426
0.294114
0.325589
0.413674
0.314933
0.308383
0.212576
0.327105
0.256854
0.217346
0.24134
0.315565
0.200575
0.492909
0.311878
0.286297
0.462228
0.186211
0.0882421
0.156525
0.169387
0.0615394
0.350032
0.485436
0.154194
0.884971
0.104751
0.194656
0.278569
0.0421662
0.172758
0.0136496
0.679327
0.6852
0.186557
0.26391
0.153245
0.096734
0.238942
0
0.275113
0.218592
0.238974
0.550462
0.507502
0.619884
0.492884
0.0171999
0.545168
0.567867
0.499456
0.640797
0.556558
0.425698
0.465391
0.121519
0.546074
0.483844
0.450737
0.366688
0.626969
0.554446
0.595021
0.578419
0.553108
0.648731
0.640862
0.437683
0.641688
0.568114
0.696429
0.642356
0.608243
0.653464
0.643872
0.61636
0.563803
0.573501
0.518302
0.596253
0.493455
0.703818
0.562483
0.639156
0.455905
0.579318
0.637669
0.668914
0.604753
0.653235
0.611662
0.546708
0.47458
0.608092
0.59093
0.610053
0.681936
0.54937
0.530046
0.538027
0.696231
0.628901
0.571228
0.54631
0.656662
0.579919
0.439152
0.655465
0.673514
0.648633
0.621668
0.20976
0.704806
0.572126
0.603231
0.461622
0.593925
0.507334
0.517203
0.488628
0.645507
0.618417
0.64756
0.634734
0.658017
0.535067
0.440067
0.478257
0.423479
0.52202
0.482965
0.4892
0.426878
0.39637
0.511993
0.504451
0.561889
0.364171
0.275684
0.496132
0.483186
0.363366
0.533456
0.602864
0.518009
0.282213
0.47621
0.649844
0.695938
0.60507
0.168536
0.608335
0.361985
0.695915
0.67015
0.378331
0.633955
0.446395
0.510133
0.479701
0.476877
0.463624
0.495502
0.482308
0.490188
0.501969
0.46586
0.526712
