OFF
186 356 0
-3.30068 -11.1549 16.7299
-3.96268 -11.3996 16.433
-4.21468 -11.8383 15.9372
-2.86468 -11.8084 16.0
-3.14668 -12.5687 15.1188
-2.28168 -12.5794 15.1101
-3.92568 -12.801 14.8196
-3.48968 -13.2129 14.3441
-1.84068 -13.4646 14.0538
-1.30068 -13.2106 14.334
-0.916682 -12.7614 14.8694
-1.74968 -12.0742 15.692
-0.791682 -11.8107 15.9662
-1.11768 -11.4058 16.4371
-3.41268 -3.08211 4.09898
-2.59368 -3.34991 4.43538
-2.59868 -3.07621 4.22128
-3.97168 -3.06841 3.80618
-3.83868 -4.94891 5.44808
-2.55868 -4.90391 5.77808
-1.80068 -4.88671 5.67118
-1.16568 -4.94621 5.44538
-1.01868 -3.06211 3.79218
-1.73468 -3.07221 4.10048
-2.89368 -3.05581 1.63348
-2.94768 -3.54791 2.08928
-3.45068 -3.04901 2.13608
-3.87968 -3.52481 3.13248
-3.88568 -3.05641 2.72698
-3.51168 -4.14601 3.12398
-4.05168 -4.08291 4.20898
-4.09868 -3.06251 3.32248
-1.03868 -3.05891 1.62528
-1.24968 -5.18921 3.62768
-1.54368 -4.18801 2.40078
-1.41268 -3.04951 1.33098
-2.13768 -5.23131 3.29508
-1.86268 -3.05101 1.23508
-2.36068 -3.06201 1.34398
-2.64268 -5.22081 3.37828
-0.662682 -3.06981 3.29628
-0.741682 -3.06271 2.10808
-3.17568 -8.24051 9.53138
-3.71468 -8.35391 9.32858
-3.78068 -9.25441 10.9877
-3.21368 -9.10321 11.2044
-3.88768 -9.96281 12.6489
-3.28268 -9.77301 12.8916
-2.52268 -9.70971 12.9725
-2.50868 -9.05281 11.2767
-2.50468 -8.20271 9.59898
-4.00868 -10.4955 14.1558
-4.18068 -11.0956 16.0751
-3.46168 -10.8179 16.3835
-3.36368 -10.27 14.4288
-2.56468 -10.733 16.4949
-2.53968 -10.1948 14.5198
-1.65268 -10.8198 16.3877
-0.902682 -11.0962 16.0771
-1.05368 -10.4955 14.1558
-1.71168 -10.27 14.4288
-1.15868 -9.96281 12.6489
-1.76268 -9.77301 12.8916
-1.24868 -9.25441 10.9877
-1.30068 -8.35391 9.32858
-1.83568 -8.24051 9.53138
-1.80668 -9.10321 11.2044
-3.86168 -8.99671 8.17958
-3.52968 -9.18571 7.84168
-3.59468 -10.3629 9.39818
-3.93968 -10.111 9.75939
-3.62468 -11.3552 10.8695
-4.00368 -11.0388 11.2739
-4.20368 -10.659 11.7592
-4.10868 -9.80871 10.1929
-4.02468 -8.76981 8.58519
-3.63068 -12.1492 12.1538
-3.62268 -13.0898 13.7591
-4.11468 -12.6219 14.2642
-4.05468 -11.7733 12.6088
-4.41868 -12.0925 14.918
-4.29668 -11.3223 13.1548
-4.40468 -11.2919 14.851
-4.30068 -10.8713 13.7008
-4.17968 -10.2793 12.2445
-3.98668 -8.54301 8.99068
-4.06668 -9.50631 10.6264
-1.98668 -9.29921 7.63888
-1.51468 -9.18571 7.84168
-1.49468 -10.3629 9.39818
-1.98868 -10.5141 9.18139
-1.42668 -11.3552 10.8695
-1.94268 -11.5451 10.6268
-2.52668 -11.6084 10.5459
-2.54968 -10.5645 9.10918
-2.52468 -9.33701 7.57128
-1.33868 -12.1492 12.1538
-1.20468 -13.091 13.7612
-1.78468 -13.3468 13.4078
-1.87368 -12.3747 11.8808
-2.38968 -13.4537 13.3394
-2.47668 -12.4499 11.7898
-3.01368 -13.3548 13.4221
-3.08368 -12.3747 11.8808
-3.10968 -11.5451 10.6268
-3.06168 -9.29921 7.63888
-3.10868 -10.5141 9.18139
-1.03568 -8.54301 8.99068
-0.975682 -9.50631 10.6264
-0.867682 -10.2793 12.2445
-0.844682 -10.659 11.7592
-0.950682 -9.80871 10.1929
-1.00568 -8.76981 8.58508
-0.559682 -11.5367 15.544
-0.740682 -10.8713 13.7008
-0.535682 -12.0937 14.9205
-0.719682 -11.3223 13.1548
-0.835682 -12.3081 13.65
-1.04568 -11.0388 11.2739
-1.17668 -8.99671 8.17958
-1.13568 -10.111 9.75939
-0.850682 -5.01051 5.04108
-1.23768 -6.06701 6.52528
-0.944682 -6.15591 6.14848
-0.896682 -6.26241 5.69628
-0.793682 -5.07361 4.54228
-0.590682 -3.06121 2.70928
-1.28968 -7.24531 7.82848
-1.01568 -7.37971 7.48148
-0.977682 -7.54111 7.06508
-1.46168 -7.83701 6.30168
-1.13868 -7.70251 6.64868
-1.36368 -6.45781 4.86728
-1.05068 -6.36901 5.24408
-0.943682 -5.13671 4.04338
-1.66068 -5.22081 3.37828
-1.79268 -6.51111 4.64118
-2.28768 -6.52891 4.56588
-1.91168 -7.91771 6.09348
-2.42668 -7.94461 6.02408
-3.41568 -7.83701 6.30168
-2.94868 -7.91771 6.09348
-3.27768 -6.45781 4.86728
-2.79868 -6.51111 4.64118
-3.13768 -5.18921 3.62768
-3.58368 -5.13671 4.04338
-3.67268 -6.36901 5.24408
-3.92668 -6.26241 5.69628
-3.90268 -5.07361 4.54228
-3.76868 -7.70251 6.64868
-3.96568 -7.54111 7.06508
-3.71868 -7.24531 7.82848
-3.96268 -7.37971 7.48148
-3.76768 -6.06701 6.52528
-3.97768 -6.15591 6.14848
-4.01368 -5.01051 5.04108
-3.29668 -4.92641 5.70628
-3.23568 -6.01381 6.75138
-2.53568 -5.99601 6.82678
-3.18968 -7.16461 8.03668
-2.51568 -7.13771 8.10608
-1.83568 -7.16461 8.03668
-1.81868 -6.01381 6.75138
-0.932682 -11.2521 16.4146
-0.587682 -11.7046 15.8897
-0.561682 -12.2472 15.2601
-0.734682 -12.3065 15.3852
-1.21068 -13.2416 14.1045
-0.790682 -12.7895 14.63
-0.773682 -12.6363 14.2832
-1.75868 -13.5137 13.789
-2.37568 -13.6048 13.6837
-2.61768 -13.5507 13.9435
-3.59068 -13.2416 14.1045
-3.00568 -13.5137 13.789
-4.07468 -12.7895 14.63
-4.37968 -12.2472 15.2601
-4.19968 -12.3065 15.3852
-4.14768 -11.2521 16.4146
-4.42868 -11.7046 15.8897
-4.46768 -11.5504 15.551
-3.46068 -10.9803 16.7307
-2.56568 -10.8896 16.8365
-2.55668 -11.0666 16.8222
-1.65668 -10.9803 16.7307
-1.75068 -11.15 16.7235
3 0 1 2
3 0 2 3
3 2 4 3
3 4 5 3
3 6 7 4
3 7 8 5
3 7 5 4
3 4 2 6
3 8 9 10
3 8 10 5
3 10 11 5
3 12 13 11
3 13 0 3
3 13 3 11
3 3 5 11
3 11 10 12
3 14 15 16
3 17 18 14
3 14 19 15
3 20 21 22
3 20 22 23
3 15 19 20
3 15 20 23
3 16 15 23
3 24 25 26
3 26 27 28
3 27 26 29
3 26 25 29
3 30 18 17
3 17 31 30
3 31 27 30
3 28 27 31
3 32 33 34
3 32 34 35
3 34 36 37
3 34 37 35
3 25 38 39
3 38 37 39
3 37 36 39
3 38 25 24
3 22 21 40
3 41 33 32
3 42 43 44
3 42 44 45
3 44 46 47
3 44 47 45
3 47 48 49
3 47 49 45
3 49 50 42
3 49 42 45
3 51 52 53
3 51 53 54
3 53 55 56
3 53 56 54
3 56 48 47
3 56 47 54
3 47 46 51
3 47 51 54
3 57 58 59
3 57 59 60
3 59 61 62
3 59 62 60
3 62 48 56
3 62 56 60
3 56 55 57
3 56 57 60
3 63 64 65
3 63 65 66
3 65 50 49
3 65 49 66
3 49 48 62
3 49 62 66
3 62 61 63
3 62 63 66
3 67 68 69
3 67 69 70
3 69 71 72
3 69 72 70
3 72 73 74
3 72 74 70
3 74 75 67
3 74 67 70
3 76 77 78
3 76 78 79
3 78 80 81
3 78 81 79
3 81 73 72
3 81 72 79
3 72 71 76
3 72 76 79
3 82 52 51
3 82 51 83
3 51 46 84
3 51 84 83
3 84 73 81
3 84 81 83
3 81 80 82
3 81 82 83
3 44 43 85
3 44 85 86
3 85 75 74
3 85 74 86
3 74 73 84
3 74 84 86
3 84 46 44
3 84 44 86
3 87 88 89
3 87 89 90
3 89 91 92
3 89 92 90
3 92 93 94
3 92 94 90
3 94 95 87
3 94 87 90
3 96 97 98
3 96 98 99
3 98 100 101
3 98 101 99
3 101 93 92
3 101 92 99
3 92 91 96
3 92 96 99
3 102 77 76
3 102 76 103
3 76 71 104
3 76 104 103
3 104 93 101
3 104 101 103
3 101 100 102
3 101 102 103
3 69 68 105
3 69 105 106
3 105 95 94
3 105 94 106
3 94 93 104
3 94 104 106
3 104 71 69
3 104 69 106
3 107 64 63
3 107 63 108
3 63 61 109
3 63 109 108
3 109 110 111
3 109 111 108
3 111 112 107
3 111 107 108
3 59 58 113
3 59 113 114
3 113 115 116
3 113 116 114
3 116 110 109
3 116 109 114
3 109 61 59
3 109 59 114
3 117 97 96
3 96 91 118
3 96 118 117
3 118 110 116
3 118 116 117
3 116 115 117
3 89 88 119
3 89 119 120
3 119 112 111
3 119 111 120
3 111 110 118
3 111 118 120
3 118 91 89
3 118 89 120
3 40 21 121
3 21 122 123
3 21 123 121
3 123 124 125
3 123 125 121
3 125 126 40
3 125 40 121
3 127 64 107
3 127 107 128
3 107 112 129
3 107 129 128
3 129 124 123
3 129 123 128
3 123 122 127
3 123 127 128
3 119 88 130
3 119 130 131
3 130 132 133
3 130 133 131
3 133 124 129
3 133 129 131
3 129 112 119
3 129 119 131
3 33 41 134
3 41 126 125
3 41 125 134
3 125 124 133
3 125 133 134
3 133 132 33
3 133 33 134
3 34 33 135
3 33 132 136
3 33 136 135
3 136 137 36
3 136 36 135
3 36 34 135
3 130 88 87
3 130 87 138
3 87 95 139
3 87 139 138
3 139 137 136
3 139 136 138
3 136 132 130
3 136 130 138
3 105 68 140
3 105 140 141
3 140 142 143
3 140 143 141
3 143 137 139
3 143 139 141
3 139 95 105
3 139 105 141
3 144 25 39
3 36 137 143
3 36 143 39
3 143 142 144
3 143 144 39
3 29 25 144
3 29 144 145
3 144 142 146
3 144 146 145
3 146 147 148
3 146 148 145
3 148 27 29
3 148 29 145
3 140 68 67
3 140 67 149
3 67 75 150
3 67 150 149
3 150 147 146
3 150 146 149
3 146 142 140
3 146 140 149
3 85 43 151
3 85 151 152
3 151 153 154
3 151 154 152
3 154 147 150
3 154 150 152
3 150 75 85
3 150 85 152
3 18 30 155
3 30 27 148
3 30 148 155
3 148 147 154
3 148 154 155
3 154 153 18
3 154 18 155
3 14 18 156
3 18 153 157
3 18 157 156
3 157 158 19
3 157 19 156
3 19 14 156
3 151 43 42
3 151 42 159
3 42 50 160
3 42 160 159
3 160 158 157
3 160 157 159
3 157 153 151
3 157 151 159
3 65 64 127
3 65 127 161
3 127 122 162
3 127 162 161
3 162 158 160
3 162 160 161
3 160 50 65
3 160 65 161
3 19 158 162
3 19 162 20
3 162 122 21
3 162 21 20
3 38 24 37
3 26 37 24
3 58 163 164
3 58 164 113
3 164 165 115
3 164 115 113
3 12 10 166
3 166 165 164
3 166 164 12
3 164 163 13
3 164 13 12
3 9 167 168
3 9 168 10
3 168 165 166
3 168 166 10
3 97 117 169
3 117 115 169
3 115 165 168
3 115 168 169
3 168 167 97
3 168 97 169
3 97 167 170
3 97 170 98
3 170 171 100
3 170 100 98
3 172 171 170
3 172 170 8
3 170 167 9
3 170 9 8
3 7 173 174
3 7 174 172
3 174 171 172
3 172 8 7
3 100 171 174
3 100 174 102
3 174 173 77
3 174 77 102
3 77 173 175
3 77 175 78
3 175 176 80
3 175 80 78
3 6 2 177
3 177 176 175
3 177 175 6
3 175 173 7
3 175 7 6
3 1 178 179
3 1 179 2
3 179 176 177
3 179 177 2
3 52 82 180
3 82 80 180
3 80 176 179
3 80 179 180
3 179 178 52
3 179 52 180
3 52 178 181
3 52 181 53
3 181 182 55
3 181 55 53
3 183 182 181
3 183 181 0
3 181 178 1
3 181 1 0
3 13 163 184
3 13 184 185
3 184 182 183
3 184 183 185
3 183 0 13
3 183 13 185
3 55 182 184
3 55 184 57
3 184 163 58
3 184 58 57
