OFF
405 792 0
-0.396894 20.5315 -2.63382
-0.396894 20.0157 -3.14632
-0.897408 19.9992 -3.14632
-0.897408 20.5138 -2.63382
-1.35028 19.926 -3.11002
-1.35642 20.4216 -2.61382
-1.36187 20.7477 -2.01372
-0.895503 20.8524 -2.01872
-0.396964 20.8708 -2.01872
-1.70474 19.7725 -3.00112
-1.99916 19.8153 -2.55632
-1.7293 20.2153 -2.55402
-2.0652 20.0769 -1.98882
-1.76076 20.5073 -1.99872
-2.06769 20.2378 -1.40362
-2.02795 20.3302 -0.891017
-1.71044 20.8029 -0.773417
-1.7569 20.688 -1.40362
-1.32039 21.0579 -0.717817
-1.35365 20.9412 -1.40362
-0.872342 21.1618 -0.777317
-0.397574 21.1626 -0.891017
-0.397164 21.0693 -1.40362
-0.889787 21.0506 -1.40362
0.100476 19.9992 -3.14632
0.100476 20.5138 -2.63382
0.098446 20.8524 -2.01872
0.557836 20.7477 -2.01372
0.552716 20.4216 -2.61382
0.546726 19.926 -3.11002
0.073966 21.1618 -0.777217
0.092356 21.0506 -1.40362
0.514996 21.0579 -0.717617
0.549246 20.9412 -1.40362
0.897086 20.803 -0.773217
1.20711 20.3302 -0.891017
1.24704 20.2378 -1.40362
0.943986 20.688 -1.40362
1.2452 20.0769 -1.98882
0.948336 20.5073 -1.99872
1.18102 19.8154 -2.55622
0.893906 19.7725 -3.00112
0.917856 20.2153 -2.55402
-1.28013 9.6256 -3.45562
-1.94314 9.6415 -3.04742
-1.56634 9.8435 -3.22672
-0.281204 9.7222 -3.48762
-0.693616 9.9862 -3.39862
-1.87824 11.1261 -0.905017
-1.57994 11.3951 -1.23702
-1.73408 11.0869 -1.62372
-2.09989 10.6554 -1.45652
-2.1715 10.2605 -1.99372
-0.362204 11.7729 -0.477317
-0.191244 11.8936 -0.887417
-0.949128 11.8258 -0.908417
-1.09797 11.6753 -0.551417
-1.38295 11.5921 -1.02562
0.023586 9.9207 -3.41112
0.475296 9.6253 -3.45532
1.12187 9.6414 -3.04752
0.750966 9.8441 -3.22642
1.10346 11.0481 -0.990217
0.757006 11.3951 -1.23702
0.799016 11.3878 -0.709717
0.265446 11.7627 -0.916217
0.214756 11.7115 -0.530317
1.13901 10.1781 -2.51772
1.34847 10.2108 -2.06182
0.908006 11.0859 -1.62512
1.27431 10.6555 -1.45622
-0.961686 12.2924 -2.59472
-1.08841 12.2952 -2.47122
-1.04736 13.2041 -2.44372
-0.928349 13.2055 -2.55962
-1.07943 14.1529 -2.46522
-0.95439 14.154 -2.58702
-0.726229 14.1822 -2.66372
-0.717164 13.2462 -2.63332
-0.714966 12.34 -2.67372
-1.17084 15.0315 -2.52662
-1.30782 15.73 -2.61852
-1.13986 15.7243 -2.78212
-1.02862 15.0297 -2.66512
-0.84004 15.7399 -2.88482
-0.807843 15.0422 -2.74442
-0.031934 15.046 -2.75142
-1.16444 12.5206 -1.77182
-1.08841 12.609 -1.56612
-1.04736 13.4088 -1.59372
-1.11876 13.3511 -1.78692
-1.07943 14.3076 -1.57222
-1.15445 14.2639 -1.77512
-1.17945 14.2173 -2.01872
-1.14256 13.2894 -2.01872
-1.18979 12.427 -2.01872
-1.17084 15.1782 -1.51082
-1.30782 15.894 -1.41882
-1.4086 15.8479 -1.69152
-1.25617 15.1369 -1.74172
-1.4422 15.7998 -2.01872
-1.28461 15.0933 -2.01872
-1.4086 15.7579 -2.34592
-1.25617 15.0554 -2.29572
-1.15445 14.1771 -2.26222
-1.16444 12.346 -2.26552
-1.11876 13.2362 -2.25052
-0.735615 12.7309 -1.36702
-0.097234 12.7365 -1.36392
-0.100074 13.4899 -1.40412
-0.742931 13.4823 -1.41112
-0.7234 14.3661 -1.37352
-0.036434 15.2334 -1.28552
-0.83709 15.9667 -1.15262
-0.806581 15.233 -1.29262
-1.13986 15.93 -1.25532
-1.02862 15.2091 -1.37232
-0.95439 14.3388 -1.45042
-0.961686 12.6745 -1.44272
-0.928349 13.4502 -1.47782
-0.084954 12.3323 -2.67052
-0.076474 13.2313 -2.62642
-0.082394 14.1745 -2.66112
0.036216 15.7347 -2.88102
0.319826 15.7243 -2.78212
0.483606 15.73 -2.61852
0.345986 15.0315 -2.52662
0.207306 15.0297 -2.66512
0.254136 14.1529 -2.46522
0.132216 14.154 -2.58702
0.221916 13.2041 -2.44372
0.263166 12.2952 -2.47122
0.139596 12.2924 -2.59472
0.105876 13.2055 -2.55962
0.139596 12.6745 -1.44272
0.263166 12.609 -1.56612
0.221916 13.4088 -1.59372
0.105876 13.4502 -1.47782
0.254136 14.3076 -1.57222
0.132216 14.3388 -1.45042
-0.084094 14.3606 -1.37622
0.345986 15.1782 -1.51082
0.483606 15.894 -1.41882
0.319826 15.93 -1.25532
0.207306 15.2091 -1.37232
0.034496 15.9606 -1.15662
0.337306 12.346 -2.26552
0.291546 13.2362 -2.25052
0.327296 14.1771 -2.26222
0.351676 14.2173 -2.01872
0.314756 13.2894 -2.01872
0.362016 12.427 -2.01872
0.581876 15.7579 -2.34592
0.429186 15.0554 -2.29572
0.614636 15.7998 -2.01872
0.456926 15.0933 -2.01872
0.581876 15.8479 -1.69152
0.429186 15.1369 -1.74172
0.327296 14.2639 -1.77512
0.337306 12.5206 -1.77182
0.291546 13.3511 -1.78692
-1.4766 16.1383 -2.73182
-1.27691 16.1294 -2.92632
-1.82267 16.6392 -2.96412
-1.55691 16.6241 -3.22192
-1.2143 16.6305 -3.35062
-0.968749 16.1363 -3.03722
-1.9589 17.0159 -3.05552
-1.66856 16.9995 -3.33832
-1.29184 17.0064 -3.47972
-0.858496 17.0221 -3.52682
0.065596 17.0257 -3.52662
0.027096 16.6424 -3.39072
-0.817967 16.6418 -3.39282
0.128716 16.1368 -3.04472
-1.50749 16.3922 -1.28512
-1.59641 16.2746 -1.62972
-1.80171 16.5449 -1.55312
-1.63698 16.2208 -2.01932
-1.85774 16.8043 -1.00662
-2.05537 17.1317 -0.792017
-2.18103 17.1694 -1.38712
-2.00661 16.7866 -1.45862
-2.20316 17.1314 -2.00222
-2.04156 16.7437 -2.00772
-2.13311 17.07 -2.58422
-1.98007 16.6799 -2.52872
-1.59641 16.1712 -2.40772
0.134766 16.4157 -0.990417
-0.968858 16.4073 -0.999717
0.221996 16.6579 -0.815917
-1.03819 16.6537 -0.819717
0.348386 16.7656 -0.651717
-1.12424 16.7643 -0.636617
-1.64823 16.9138 -0.552917
-1.44037 16.6447 -0.932217
-1.25213 16.8528 -0.443417
-1.27691 16.3705 -1.11112
0.406346 16.6305 -3.35062
0.485856 17.0064 -3.47972
0.854626 16.9995 -3.33832
1.13774 17.0159 -3.05552
1.00088 16.6393 -2.96412
0.741706 16.6241 -3.22192
0.653176 16.1383 -2.73182
0.458456 16.1294 -2.92632
0.683926 16.3916 -1.28532
0.458456 16.3705 -1.11112
0.623366 16.6444 -0.932517
1.03505 16.8043 -1.00662
1.23173 17.1317 -0.792017
0.833506 16.9136 -0.552917
0.372146 16.8305 -0.447717
0.769996 16.1712 -2.40772
1.15431 16.6799 -2.52872
0.809546 16.2207 -2.01932
1.3076 17.07 -2.58422
1.3759 17.1314 -2.00222
1.21434 16.7437 -2.00772
1.35429 17.1694 -1.38712
1.18029 16.7866 -1.45862
0.975496 16.5449 -1.55312
0.769996 16.2746 -1.62972
-2.04008 17.6573 -3.11002
-1.73448 17.6382 -3.40772
-2.0583 18.408 -3.10102
-1.75515 18.3996 -3.39682
-1.35795 18.4275 -3.54502
-1.33796 17.6463 -3.55652
-2.00472 19.1097 -3.00112
-1.7293 19.1391 -3.27162
-1.35642 19.2244 -3.40832
0.056306 19.2842 -3.45452
-0.897408 19.2729 -3.45392
0.089366 18.4597 -3.59472
-0.893517 18.4548 -3.59452
0.086506 17.6724 -3.60612
-0.881843 17.6646 -3.60612
-2.23227 17.9288 -0.854717
-2.29489 17.863 -1.37942
-2.27619 18.79 -0.881917
-2.32651 18.7061 -1.39752
-2.32292 18.6031 -2.01092
-2.30242 17.7987 -2.00772
-2.20994 19.6285 -0.891017
-2.25417 19.5374 -1.40362
-2.24821 19.4024 -1.99872
-2.17138 19.2286 -2.55402
-2.24053 18.4898 -2.60892
-2.22343 17.7204 -2.61402
-1.02243 17.5945 -0.871017
0.204616 17.5952 -0.871817
0.349436 18.2233 -0.924517
-1.20363 18.2225 -0.919617
0.141886 18.9653 -0.942217
-0.949357 18.9653 -0.942217
-0.057034 19.7452 -0.928317
0.148236 20.3571 -0.872417
-0.99676 20.3395 -0.871417
-1.05076 19.7072 -0.924017
-1.60335 19.5049 -0.847317
-1.63395 18.6257 -0.859017
-1.4158 18.9225 -0.911917
-1.41019 19.9442 -0.869517
-1.39791 17.7335 -0.845717
0.553816 18.4275 -3.54502
0.533156 17.6463 -3.55652
0.552716 19.2244 -3.40832
1.18642 19.1097 -3.00112
0.917856 19.1391 -3.27162
1.23826 18.408 -3.10102
0.942666 18.3996 -3.39682
1.21929 17.6573 -3.11002
0.921306 17.6382 -3.40772
0.582086 17.7334 -0.845717
0.812326 18.6257 -0.859017
0.599616 18.9225 -0.911917
0.782496 19.5049 -0.847317
0.581246 20.1175 -0.845817
0.443606 19.6462 -0.914117
1.39808 17.7204 -2.61402
1.41595 18.4898 -2.60892
1.49612 18.6031 -2.01092
1.47501 17.7987 -2.00772
1.34893 19.2286 -2.55402
1.42365 19.4024 -1.99872
1.38457 19.6285 -0.891017
1.42887 19.5374 -1.40362
1.44897 18.79 -0.881917
1.49911 18.7061 -1.39752
1.40558 17.9288 -0.854717
1.46741 17.863 -1.37942
0.221676 16.8709 -0.400317
-1.07121 16.9165 -0.406917
-1.76239 17.4794 -0.421717
-1.9596 17.3744 -0.486817
-1.56148 17.1218 -0.386017
-1.06064 17.0097 -0.653017
-1.94078 20.3759 -0.519417
-1.60629 20.7963 -0.438917
-1.2269 21.0283 -0.407517
-1.51576 20.7361 -0.427017
-1.1259 20.8818 -0.638017
-1.76313 20.3232 -0.419517
-0.80374 21.072 -0.428717
-0.099194 20.983 -0.644717
0.045826 21.1324 -0.411617
-0.398414 21.1878 -0.524117
-0.836439 21.1453 -0.438917
-2.14595 18.0114 -0.559217
-2.0502 18.0818 -0.432817
-2.10357 18.8757 -0.437317
-2.19683 18.846 -0.577417
-1.91053 18.1072 -0.429417
-1.92876 18.8725 -0.476317
-2.01152 18.8807 -0.415117
-2.04777 19.677 -0.438917
-1.91122 19.6568 -0.428817
-2.13623 19.6702 -0.583517
1.13746 17.3744 -0.486717
0.746156 17.122 -0.386017
0.314596 17.0237 -0.640817
0.939906 17.4795 -0.421817
-0.038494 16.9865 -0.642117
1.11958 20.3759 -0.519417
1.31073 19.6702 -0.583517
1.22213 19.677 -0.438917
1.27651 18.8757 -0.437317
1.36973 18.846 -0.577417
1.08509 19.657 -0.428917
1.10113 18.8725 -0.476917
1.18442 18.8807 -0.415117
0.940676 20.3233 -0.419517
1.2244 18.0818 -0.432817
1.08436 18.1071 -0.429617
1.31983 18.0114 -0.559217
0.419366 21.0282 -0.407517
0.315836 20.882 -0.637617
0.791636 20.7963 -0.438917
0.699996 20.7362 -0.427017
0.232156 17.2221 -0.781017
-1.06504 17.2289 -0.779917
-1.63144 17.6247 -0.723717
-1.41654 17.2471 -0.710317
-1.41496 20.5923 -0.714017
-1.63095 20.1668 -0.724517
-1.04115 20.6983 -0.780417
-0.109724 20.7592 -0.781717
-0.77687 20.9575 -0.659717
-1.7677 18.1903 -0.727817
-1.79194 18.8763 -0.756317
-1.76733 19.5679 -0.728417
0.600136 17.2473 -0.710617
0.809826 17.6249 -0.723817
0.809346 20.1666 -0.724617
0.942196 19.5677 -0.728717
0.966166 18.8763 -0.756517
0.942566 18.1906 -0.728117
0.308716 20.6595 -0.778017
0.598566 20.592 -0.714317
0.415356 11.7536 -1.15252
0.569536 11.6438 -1.36142
0.042586 11.9638 -1.07082
0.391716 12.0349 -1.48022
0.168186 12.1849 -1.28692
-0.222564 12.2774 -1.23482
-0.628768 12.0063 -1.06172
-1.14299 11.857 -1.14442
-0.821615 12.2389 -1.24842
-1.21636 12.0349 -1.48022
-1.06559 12.1429 -1.33342
-1.39335 11.6438 -1.36142
-1.50378 11.4407 -1.66022
-1.54058 11.2294 -2.01872
-1.75702 10.8497 -2.01872
-1.30683 11.8947 -1.72502
-1.33698 11.7478 -2.01872
-1.21636 11.5364 -2.55712
-1.30683 11.6198 -2.31242
-1.39335 10.9212 -2.67592
-1.54012 10.9549 -2.38602
-1.5815 10.4436 -2.80222
-2.1245 9.9277 -2.52462
-1.23596 10.793 -2.88232
-1.00247 10.7473 -3.00012
-1.06559 11.5232 -2.70402
-0.818626 11.5639 -2.79002
-0.224724 11.6108 -2.80252
-0.173074 10.9903 -2.97622
-0.705002 10.8752 -3.00582
-0.198824 10.5468 -3.15032
0.189146 10.7473 -3.00012
0.053206 11.5511 -2.77742
0.391716 11.5364 -2.55712
0.244696 11.5232 -2.70402
0.569536 10.9212 -2.67592
0.417016 10.7931 -2.88232
0.758566 10.4436 -2.80222
0.713596 10.9549 -2.38592
0.713096 11.2294 -2.01872
0.929716 10.8497 -2.01872
0.479936 11.6198 -2.31242
0.509336 11.7478 -2.01872
0.479936 11.8947 -1.72502
0.677206 11.4407 -1.66022
3 0 1 2
3 0 2 3
3 2 4 5
3 2 5 3
3 5 6 7
3 5 7 3
3 7 8 0
3 7 0 3
3 9 10 11
3 10 12 13
3 10 13 11
3 13 6 5
3 13 5 11
3 5 4 9
3 5 9 11
3 14 15 16
3 14 16 17
3 16 18 19
3 16 19 17
3 19 6 13
3 19 13 17
3 13 12 14
3 13 14 17
3 20 21 22
3 20 22 23
3 22 8 7
3 22 7 23
3 7 6 19
3 7 19 23
3 19 18 20
3 19 20 23
3 24 1 0
3 24 0 25
3 0 8 26
3 0 26 25
3 26 27 28
3 26 28 25
3 28 29 24
3 28 24 25
3 22 21 30
3 22 30 31
3 30 32 33
3 30 33 31
3 33 27 26
3 33 26 31
3 26 8 22
3 26 22 31
3 34 35 36
3 34 36 37
3 36 38 39
3 36 39 37
3 39 27 33
3 39 33 37
3 33 32 34
3 33 34 37
3 40 41 42
3 41 29 28
3 41 28 42
3 28 27 39
3 28 39 42
3 39 38 40
3 39 40 42
3 43 44 45
3 46 43 47
3 48 49 50
3 48 50 51
3 50 52 51
3 53 54 55
3 56 53 55
3 57 49 48
3 48 56 57
3 56 55 57
3 46 47 58
3 59 46 58
3 60 59 61
3 62 63 64
3 64 65 66
3 53 66 54
3 66 65 54
3 60 67 68
3 69 63 62
3 69 62 70
3 68 69 70
3 71 72 73
3 71 73 74
3 73 75 76
3 73 76 74
3 76 77 78
3 76 78 74
3 78 79 71
3 78 71 74
3 80 81 82
3 80 82 83
3 82 84 85
3 82 85 83
3 85 77 76
3 85 76 83
3 76 75 80
3 76 80 83
3 84 86 85
3 86 77 85
3 87 88 89
3 87 89 90
3 89 91 92
3 89 92 90
3 92 93 94
3 92 94 90
3 94 95 87
3 94 87 90
3 96 97 98
3 96 98 99
3 98 100 101
3 98 101 99
3 101 93 92
3 101 92 99
3 92 91 96
3 92 96 99
3 102 81 80
3 102 80 103
3 80 75 104
3 80 104 103
3 104 93 101
3 104 101 103
3 101 100 102
3 101 102 103
3 73 72 105
3 73 105 106
3 105 95 94
3 105 94 106
3 94 93 104
3 94 104 106
3 104 75 73
3 104 73 106
3 107 108 109
3 107 109 110
3 109 111 110
3 112 113 114
3 111 112 114
3 115 97 96
3 115 96 116
3 96 91 117
3 96 117 116
3 117 111 114
3 117 114 116
3 114 113 115
3 114 115 116
3 89 88 118
3 89 118 119
3 118 107 110
3 118 110 119
3 110 111 117
3 110 117 119
3 117 91 89
3 117 89 119
3 120 79 78
3 120 78 121
3 78 77 122
3 78 122 121
3 86 84 123
3 122 77 86
3 124 125 126
3 124 126 127
3 126 128 129
3 126 129 127
3 129 122 86
3 129 86 127
3 86 123 124
3 86 124 127
3 130 131 132
3 130 132 133
3 132 120 121
3 132 121 133
3 121 122 129
3 121 129 133
3 129 128 130
3 129 130 133
3 134 135 136
3 134 136 137
3 136 138 139
3 136 139 137
3 139 140 109
3 139 109 137
3 109 108 134
3 109 134 137
3 141 142 143
3 141 143 144
3 143 145 112
3 143 112 144
3 112 140 139
3 112 139 144
3 139 138 141
3 139 141 144
3 145 113 112
3 112 111 140
3 140 111 109
3 146 131 130
3 146 130 147
3 130 128 148
3 130 148 147
3 148 149 150
3 148 150 147
3 150 151 146
3 150 146 147
3 126 125 152
3 126 152 153
3 152 154 155
3 152 155 153
3 155 149 148
3 155 148 153
3 148 128 126
3 148 126 153
3 156 142 141
3 156 141 157
3 141 138 158
3 141 158 157
3 158 149 155
3 158 155 157
3 155 154 156
3 155 156 157
3 136 135 159
3 136 159 160
3 159 151 150
3 159 150 160
3 150 149 158
3 150 158 160
3 158 138 136
3 158 136 160
3 82 81 161
3 82 161 162
3 161 163 164
3 161 164 162
3 164 165 166
3 164 166 162
3 166 84 82
3 166 82 162
3 163 167 168
3 163 168 164
3 168 169 165
3 168 165 164
3 170 171 172
3 170 172 173
3 172 174 173
3 165 169 170
3 165 170 173
3 174 84 166
3 166 165 173
3 173 174 166
3 98 97 175
3 98 175 176
3 175 177 176
3 177 178 176
3 178 100 98
3 178 98 176
3 179 180 181
3 179 181 182
3 181 183 184
3 181 184 182
3 184 178 177
3 184 177 182
3 177 175 179
3 177 179 182
3 185 167 163
3 185 163 186
3 186 178 184
3 184 183 185
3 184 185 186
3 161 81 102
3 161 102 187
3 102 100 178
3 102 178 187
3 178 186 187
3 186 163 161
3 186 161 187
3 113 188 189
3 188 190 191
3 188 191 189
3 191 190 192
3 191 192 193
3 194 180 179
3 194 179 195
3 179 175 195
3 195 191 193
3 193 196 194
3 193 194 195
3 175 97 115
3 175 115 197
3 115 113 189
3 115 189 197
3 189 191 195
3 189 195 197
3 195 175 197
3 123 84 174
3 172 198 174
3 171 199 198
3 171 198 172
3 200 201 202
3 200 202 203
3 198 199 200
3 198 200 203
3 204 125 124
3 204 124 205
3 124 123 174
3 124 174 205
3 174 198 203
3 174 203 205
3 203 202 204
3 203 204 205
3 143 142 206
3 143 206 207
3 206 208 207
3 208 190 188
3 208 188 207
3 188 145 143
3 188 143 207
3 209 210 211
3 209 211 208
3 211 212 192
3 211 192 208
3 192 190 208
3 208 206 209
3 188 113 145
3 152 125 204
3 152 204 213
3 204 202 214
3 204 214 213
3 214 215 213
3 215 154 152
3 215 152 213
3 202 201 216
3 202 216 214
3 216 217 218
3 216 218 214
3 218 215 214
3 219 210 209
3 219 209 220
3 209 206 221
3 209 221 220
3 221 215 218
3 221 218 220
3 218 217 219
3 218 219 220
3 206 142 156
3 206 156 222
3 156 154 215
3 156 215 222
3 215 221 222
3 221 206 222
3 168 167 223
3 168 223 224
3 223 225 226
3 223 226 224
3 226 227 228
3 226 228 224
3 228 169 168
3 228 168 224
3 229 10 9
3 229 9 230
3 9 4 231
3 9 231 230
3 231 227 226
3 231 226 230
3 226 225 229
3 226 229 230
3 2 1 232
3 2 232 233
3 232 234 235
3 232 235 233
3 235 227 231
3 235 231 233
3 231 4 2
3 231 2 233
3 236 171 170
3 236 170 237
3 170 169 228
3 170 228 237
3 228 227 235
3 228 235 237
3 235 234 236
3 235 236 237
3 181 180 238
3 181 238 239
3 238 240 241
3 238 241 239
3 241 242 243
3 241 243 239
3 243 183 181
3 243 181 239
3 244 15 14
3 244 14 245
3 14 12 246
3 14 246 245
3 246 242 241
3 246 241 245
3 241 240 244
3 241 244 245
3 10 229 247
3 229 225 248
3 229 248 247
3 248 242 246
3 248 246 247
3 246 12 10
3 246 10 247
3 223 167 185
3 223 185 249
3 185 183 243
3 185 243 249
3 243 242 248
3 243 248 249
3 248 225 223
3 248 223 249
3 250 251 252
3 250 252 253
3 252 254 255
3 252 255 253
3 256 257 258
3 256 258 259
3 255 254 256
3 255 256 259
3 260 261 262
3 260 262 263
3 262 255 259
3 262 259 263
3 259 258 263
3 261 264 253
3 264 250 253
3 253 255 262
3 262 261 253
3 234 265 266
3 234 266 236
3 266 199 171
3 266 171 236
3 232 1 24
3 24 29 267
3 24 267 232
3 267 265 234
3 267 234 232
3 41 40 268
3 41 268 269
3 268 270 271
3 268 271 269
3 271 265 267
3 271 267 269
3 267 29 41
3 267 41 269
3 272 201 200
3 272 200 273
3 200 199 266
3 200 266 273
3 266 265 271
3 266 271 273
3 271 270 272
3 271 272 273
3 274 275 252
3 275 276 252
3 276 254 252
3 252 251 274
3 277 278 279
3 278 257 279
3 279 254 276
3 276 275 277
3 276 277 279
3 254 279 256
3 279 257 256
3 216 201 272
3 216 272 280
3 272 270 281
3 272 281 280
3 281 282 283
3 281 283 280
3 283 217 216
3 283 216 280
3 268 40 284
3 40 38 285
3 40 285 284
3 285 282 281
3 285 281 284
3 281 270 268
3 281 268 284
3 36 35 286
3 36 286 287
3 286 288 289
3 286 289 287
3 289 282 285
3 289 285 287
3 285 38 36
3 285 36 287
3 290 210 219
3 290 219 291
3 219 217 283
3 219 283 291
3 283 282 289
3 283 289 291
3 289 288 290
3 289 290 291
3 193 192 292
3 292 293 193
3 293 196 193
3 294 295 296
3 296 196 293
3 293 297 296
3 295 180 194
3 196 296 194
3 296 295 194
3 16 15 298
3 298 299 16
3 299 300 18
3 299 18 16
3 301 302 300
3 300 299 301
3 299 298 303
3 299 303 301
3 304 305 306
3 306 307 308
3 306 308 304
3 308 300 304
3 300 302 304
3 307 21 20
3 18 300 308
3 18 308 20
3 308 307 20
3 238 180 295
3 238 295 309
3 295 310 309
3 310 311 312
3 310 312 309
3 312 240 238
3 312 238 309
3 313 314 315
3 315 311 310
3 315 310 313
3 310 295 294
3 310 294 313
3 303 298 316
3 303 316 317
3 316 311 315
3 316 315 317
3 315 314 317
3 298 15 244
3 298 244 318
3 244 240 312
3 244 312 318
3 312 311 316
3 312 316 318
3 316 298 318
3 211 210 319
3 319 320 211
3 320 212 211
3 320 321 292
3 292 212 320
3 320 319 322
3 293 292 323
3 292 321 323
3 292 192 212
3 286 35 324
3 286 324 325
3 324 326 325
3 326 327 328
3 326 328 325
3 328 288 286
3 328 286 325
3 329 330 331
3 331 327 326
3 331 326 329
3 326 324 332
3 326 332 329
3 322 319 333
3 322 333 334
3 333 327 331
3 333 331 334
3 331 330 334
3 319 210 290
3 319 290 335
3 290 288 328
3 290 328 335
3 328 327 333
3 328 333 335
3 333 319 335
3 30 21 307
3 307 306 30
3 306 336 32
3 306 32 30
3 305 337 336
3 305 336 306
3 332 324 338
3 332 338 339
3 338 336 339
3 336 337 339
3 324 35 34
3 32 336 338
3 32 338 34
3 338 324 34
3 293 323 297
3 340 251 250
3 340 250 341
3 297 323 340
3 297 340 341
3 264 342 343
3 343 297 341
3 341 250 264
3 341 264 343
3 294 296 343
3 296 297 343
3 343 342 294
3 301 303 344
3 303 345 344
3 302 301 344
3 345 263 344
3 263 258 346
3 263 346 344
3 346 302 344
3 258 257 347
3 258 347 346
3 347 305 348
3 347 348 346
3 348 302 346
3 305 304 348
3 304 302 348
3 294 342 349
3 294 349 313
3 349 350 314
3 349 314 313
3 342 264 261
3 342 261 349
3 261 350 349
3 260 263 345
3 260 345 351
3 350 261 260
3 350 260 351
3 314 350 351
3 314 351 317
3 351 345 303
3 351 303 317
3 320 322 352
3 322 353 352
3 321 320 352
3 353 274 352
3 274 251 340
3 274 340 352
3 340 321 352
3 323 321 340
3 332 354 355
3 332 355 329
3 355 356 330
3 355 330 329
3 354 278 277
3 354 277 355
3 277 275 356
3 277 356 355
3 275 274 353
3 275 353 357
3 356 275 357
3 330 356 357
3 330 357 334
3 357 353 322
3 357 322 334
3 257 358 347
3 358 337 305
3 358 305 347
3 278 354 359
3 359 337 358
3 358 257 278
3 358 278 359
3 332 339 359
3 339 337 359
3 359 354 332
3 64 63 360
3 63 361 360
3 360 362 65
3 65 64 360
3 363 135 134
3 363 134 364
3 134 108 364
3 364 362 360
3 360 361 363
3 360 363 364
3 365 366 362
3 362 364 365
3 364 108 365
3 65 362 54
3 362 366 54
3 54 366 55
3 366 367 55
3 365 108 107
3 365 107 368
3 368 367 366
3 366 365 368
3 118 88 369
3 118 369 370
3 369 371 367
3 369 367 370
3 367 368 370
3 368 107 118
3 368 118 370
3 55 367 57
3 367 371 49
3 367 49 57
3 49 371 372
3 49 372 50
3 372 373 374
3 372 374 50
3 374 52 50
3 369 88 87
3 369 87 375
3 87 95 376
3 87 376 375
3 376 373 372
3 376 372 375
3 372 371 369
3 372 369 375
3 105 72 377
3 105 377 378
3 377 379 380
3 377 380 378
3 380 373 376
3 380 376 378
3 376 95 105
3 376 105 378
3 381 44 382
3 381 382 380
3 382 52 374
3 382 374 380
3 374 373 380
3 380 379 381
3 45 44 381
3 45 381 383
3 381 379 383
3 384 43 45
3 384 45 383
3 377 72 71
3 377 71 385
3 71 79 386
3 71 386 385
3 386 384 383
3 386 383 385
3 383 379 377
3 383 377 385
3 79 387 386
3 387 388 389
3 387 389 386
3 389 384 386
3 390 47 389
3 47 43 384
3 47 384 389
3 389 388 390
3 58 47 390
3 388 391 390
3 391 59 58
3 391 58 390
3 387 79 120
3 120 392 387
3 392 391 388
3 392 388 387
3 132 131 393
3 132 393 394
3 393 395 396
3 393 396 394
3 396 391 392
3 396 392 394
3 392 120 132
3 392 132 394
3 397 60 61
3 397 61 396
3 61 59 391
3 61 391 396
3 396 395 397
3 67 60 397
3 67 397 398
3 397 395 398
3 398 399 400
3 400 68 67
3 400 67 398
3 393 131 146
3 393 146 401
3 146 151 402
3 146 402 401
3 402 399 398
3 402 398 401
3 398 395 393
3 398 393 401
3 159 135 363
3 159 363 403
3 363 361 404
3 363 404 403
3 404 399 402
3 404 402 403
3 402 151 159
3 402 159 403
3 69 68 400
3 400 399 404
3 400 404 69
3 404 361 63
3 404 63 69
