0.0139892
0.0774873
0.0960713
0.0596956
0.048393
0.092585
0.116165
0.0532406
0.194939
0.624564
0.233079
0.516837
0.120721
0.683395
0.3033
0.598766
0.198775
0.663675
0.659787
0.548296
0.0938212
0.546401
0.619289
0.529143
0.562803
0.0214889
0.50944
0.502321
0.0272879
0.319954
0.276647
0.663234
0.273346
0.730679
0.0806699
0.269898
0.742905
0.783252
0.0567101
0.5885
0.120391
0.201052
0.400199
0.427085
0.300019
0.551217
0.167082
0.083416
0
0.104419
0.166254
0.0698057
0.0312109
0.0948015
0.122749
0.0235566
0.0801293
0.0339476
0.0277795
0.6483
0.25725
0.177888
0.259579
0.18732
0.217332
0.1215
0.572817
0.44555
0.306602
0.172362
0.0857047
0.211568
0.342735
0.158031
0.0664518
0.101217
0.568458
0.369493
0.179233
0.508799
0.117165
0.11377
0.393493
0.147009
0.0354225
0.408876
0.154346
0.655653
0.107827
0.536525
0.280302
0.567748
0.0264877
0.0188752
0.110916
0.0267336
0.0620024
0.0322128
0.494753
0.450496
0.784416
0.549722
0.447105
0.391908
0.214336
0.090109
0.387324
0.515526
0.0649708
0.541189
0.417135
0.541144
0.534925
0.624107
0.566066
0.543677
0.589815
0.278053
0.391978
0.280257
0.496468
0.459881
0.39733
0.449899
0.423389
0.240344
0.192375
0.444347
0.746868
0.116893
0.204951
0.592531
0.548772
0.557616
0.333122
0.403823
0.446926
0.507492
0.72199
0.452541
0.418633
0.149782
0.10531
0.301869
0.261402
0.0778897
0.558075
0.44552
0.0352832
0.688878
0.753478
0.582721
0.287358
0.403161
0.348234
0.286736
0.417385
0.408161
0.156603
0.257938
0.568253
0.158025
0.537509
0.0861626
0.322807
0.179026
0.162854
0.0503494
0.173027
0.211821
0.245524
0.154316
0.129035
0.0724077
0.0442638
0.0263604
0.116354
0.0795651
0.0818525
0.066381
0.111363
0.600158
0.0529408
0.0207841
0.109944
0.319856
0.276451
0.28775
0.220722
0.201413
0.117135
0.231126
0.435889
0.152806
0.0960713
0.0942796
0.0894118
0.0450012
0.134685
0.505346
0.485169
0.0692155
0.313685
0.0236159
0.581147
0.508571
0.134772
0.530282
0.246194
0.144429
0.130533
0.0616851
0.635764
0.649994
0.0592631
0.800422
0.614263
0.372857
0.470592
0.214135
0.611551
0.455365
0.49116
0.439511
0.548444
0.183344
0.560095
0.690276
0.411898
0.161323
0.527696
0.58866
0.488053
0.610816
0.477933
0.626042
0.0878473
0.602755
0.335396
0.338027
0.623087
0.550318
0.381959
0.374962
0.38015
0.390345
0.424687
0.486775
0.628845
0.196298
0.554992
0.339397
0.620017
0.193605
0.387114
0.389393
0.439999
0.562607
0.144104
0.580999
0.467788
0.507319
0.459205
0.592378
0.261809
0.404494
0.674271
0.833239
0.691556
0.188584
0.633781
0.488311
0.3071
0.445176
0.513932
0.2904
0.584519
0.865567
0.732362
0.75747
0.770702
0.180754
0.540687
0.458162
0.209557
0.663444
0.667185
0.762934
0.284336
0.507317
0.337837
0.436271
0.815307
0.709133
0.203672
0.578224
0.234663
0.479545
0.552345
0.634858
0.8064
0.763721
0.849628
0.62576
0.668066
0.819836
0.774058
0.677979
0.428447
0.596207
0.354337
0.683164
0.541502
0.354529
0.273196
0.433898
0.385224
0.644614
0.59102
0.297838
0.20025
0.675756
0.502146
0.488588
0.697642
0.509295
0.573377
0.731518
0.308713
0.518446
0.513318
0.808983
0.521031
0.463518
0.524358
0.885516
0.269721
0.310693
0.514786
0.361556
0.403295
0.610211
0.921073
1
0.629282
0.469624
0.390886
0.673144
0.621028
0.64931
0.344039
0.654425
0.630423
0.376286
0.341935
0.61218
0.606781
0.387557
0.583187
0.6495
0.519231
0.602342
0.430814
0.59599
0.659753
0.505104
0.480644
0.780196
0.540404
0.543146
0.59136
0.4443
0.293357
0.476105
0.572723
0.684705
0.503605
0.500128
0.538158
0.278195
0.332367
0.415869
0.466023
0.441015
0.102698
0.697867
0.89534
0.433968
0.654504
0.508594
0.255495
0.494846
0.43834
0.504741
0.43495
0.450167
0.459207
0.440758
0.440034
0.6291
0.498345
0.49077
0.403351
0.450382
0.517412
0.631253
0.496773
0.639544
0.675863
0.657482
0.486532
0.738251
0.521592
0.286242
0.495257
0.557364
0.306812
0.634176
0.594331
0.649134
0.65616
0.337468
0.469296
0.143631
0.763273
0.577765
0.715911
0.267937
0.646148
0.607417
0.60912
0.526162
0.605151
0.646378
0.654626
0.628455
0.643893
0.646462
0.610558
0.393063
0.631795
0.657165
0.641242
0.825605
0.682453
0.568989
0.542917
0.304421
0.619923
0.387155
0.561182
0.732118
0.55279
0.363802
0.633353
0.34029
0.65124
0.513671
0.647448
0.564447
0.599424
0.697171
0.718125
0.582721
0.362708
0.569333
0.581764
0.755392
0.264961
0.727964
0.456705
0.343387
0.828209
0.671584
0.759055
0.700944
0.723365
0.634463
0.678789
0.607769
0.399011
0.706159
0.70334
0.647175
0.666946
0.274444
0.516719
0.636273
0.656577
0.539374
0.645826
0.681599
0.717559
0.584667
0.611395
0.67152
0.708378
0.593319
0.623783
0.628092
0.772573
0.69971
0.63287
0.635883
0.0659424
0.373714
0.199904
0.116626
0.0791568
0.327411
0.458499
0.622814
0.244125
0.437103
0.0568005
0.245069
0.49949
0.0995652
0.46419
0.471905
0.0732663
0.216659
0.435814
0.418904
0.139396
0.517442
0.503018
0.382222
0.243125
0.102093
0.545245
0.440508
0.193236
0.087716
0.335466
0.651275
0.528183
0.253944
0.788938
0.420633
0.613448
0.1686
0.0458084
0.575829
0.508393
0.857508
0.533055
0.335859
0.161929
0.594733
0.391968
0.386287
0.0802503
0.196907
0.128704
0.0905306
0.0845381
0.27712
0.184909
0.0612032
0.605242
0.632757
0.19133
0.15534
0.577419
0.172406
0.017731
0.690909
0.221556
0.217863
0.602081
0.164507
0.199644
0.103336
0.180403
0.0552192
0.0726643
0.455004
0.0603832
0.565717
0.179634
0.697285
0.787898
0.627034
0.623843
0.0471051
0.1321
0.0361255
0.0186339
0.645335
0.171172
0.769983
0.393494
0.65413
0.0849923
0.14334
0.0752992
0.358797
0.444841
0.618091
0.417695
0.0659368
0.0174172
0.377521
0.0595883
0.23681
0.143007
0.349919
