0.731793
0.341186
0.288869
0.7892
0.292794
0.725126
0.812955
0.469115
0.238745
0.350012
0.571128
0.514984
0.825005
0.61601
0.289725
0.346137
0.266879
0.512483
0.698037
0.524739
0.778186
0.625036
0.427472
0.182973
0.548672
0.539147
0.435782
0.526846
0.278001
0.812751
0.569866
0.600275
0.429582
0.371305
0.809381
1
0.496475
0.409611
0.250078
0.0768193
0.357892
0.224615
0.140754
0.283163
0.384417
0.47708
0.483683
0.486258
0.357116
0.518869
0.122611
0.257807
0.326135
0.523999
0.163069
0.5938
0.59847
0.498197
0.157718
0.615658
0.273209
0.104861
0.119821
0.485858
0.487137
0.650064
0.588097
0.565472
0.491259
0.362103
0.2413
0.172818
0.337363
0.252191
0.175462
0.489943
0.454423
0.470488
0.4381
0.629006
0.521472
0.487912
0.456979
0.545222
0.593426
0.741023
0.244617
0.599828
0.446175
0.514481
0.339735
0.635922
0.334172
0.423054
0.493573
0.600209
0.478985
0.644642
0.524948
0.39673
0.392153
0.48308
0.52269
0.352979
0.459109
0.342082
0.336235
0.655797
0.143375
0.675189
0.590909
0.496246
0.501138
0.282417
0.402202
0.448871
0.454279
0.500019
0.605185
0.408463
0.428704
0.392198
0.359325
0.427671
0.310247
0.342202
0.47807
0.447751
0.248063
0.645533
0.462086
0.450714
0.765008
0.498389
0.57438
0.554467
0.534485
0.674862
0.318248
0.356816
0.449263
0.569896
0.138656
0.522501
0.653144
0.587582
0.776137
0.598509
0.550788
0.60361
0.487752
0.502649
0.443691
0.588124
0.429656
0.489344
0.545783
0.549489
0.373113
0.507273
0.372015
0.637466
0.45299
0.50247
0.434522
0.259303
0.840677
0.261119
0.493781
0.314983
0.208562
0.380451
0.314439
0.416266
0.452428
0.515121
0.547946
0.50549
0.512483
0.50774
0.495205
0.499036
0.609998
0.639452
0.508553
0.488992
0.785609
0.555002
0.559374
0.750521
0.612884
0.539591
0.630027
0.59075
0.676513
0.53821
0.634548
0.539369
0.595281
0.729607
0.63996
0.612758
0.677309
0.606598
0.594995
0.643616
0.574199
0.600297
0.593427
0.620186
0.553192
0.460827
0.646071
0.744888
0.718091
0.756397
0.511401
0.548783
0.633606
0.250903
0.283269
0.524639
0.762502
0.461592
0.588297
0.394609
0.173673
0.821759
0.256159
0.339392
0.393644
0.428716
0.723328
0.378654
0.42226
0.787981
0.468758
0.187426
0.680098
0.398656
0.297602
0.643235
0.596382
0.392949
0.565242
0.606342
0.702677
0.647581
0.622955
0.350066
0.743419
0.562219
0.354144
0.761649
0.634897
0.453851
0.560901
0.558786
0.572308
0.526458
0.612442
0.413591
0.686215
0.489907
0.626797
0.587015
0.57594
0.620166
0.780629
0.742186
0.712466
0.627626
0.563052
0.808461
0.225967
0.633399
0.179263
0.505768
0.406466
0.653178
0.560743
0.585857
0.549258
0.116791
0.64178
0.197322
0.476809
0.498812
0.635184
0.68728
0.416379
0.530884
0.500678
0.530642
0.366693
0.524064
0.197379
0.216839
0.538591
0.18457
0.600119
0.107258
0.246279
0.862284
0.219603
0.0663304
0.155426
0.5666
0.0907187
0.204513
0
0.172171
0.623818
0.799542
0.280717
0.356315
0.514475
0.127247
0.481465
0.596227
0.203186
0.193643
0.125821
0.201266
0.373499
0.130263
0.961519
0.25514
0.272355
0.0529204
0.296923
0.266934
0.607027
0.268735
0.69622
0.625001
0.495361
0.317031
0.119525
0.180275
0.241395
0.204797
0.19026
0.120969
0.813817
0.231138
0.686826
0.258917
0.320838
0.381521
0.0162756
0.149708
0.705857
0.134027
0.6764
0.336513
0.315596
0.354704
0.150717
0.530237
0.2238
0.0652685
0.808246
0.586994
0.218958
0.137865
0.0918337
0.294936
0.715604
0.147697
0.424109
0.358497
0.579558
0.597453
0.556258
0.585373
0.638454
0.587151
0.623131
0.094328
0.324484
0.550498
0.309884
0.178315
0.38144
0.599279
0.252496
0.542355
0.547466
0.473199
0.657156
0.609247
0.64121
0.43389
0.343824
0.678402
0.44709
0.141184
0.174759
0.367868
0.757981
0.571512
0.321415
0.788734
0.416549
0.707276
0.35359
0.399
0.216569
0.216391
0.484168
0.575016
0.206689
0.348972
0.621107
0.63864
0.70351
0.789789
0.415239
0.524007
0.17579
0.404251
0.470438
0.153512
0.228037
0.338196
0.424082
0.363204
0.508402
0.412261
0.373402
0.354134
0.291849
0.395209
0.349839
0.413658
0.185537
0.420301
0.324503
0.325122
0.426821
0.421218
0.280046
0.40332
0.416606
0.374667
0.166683
0.306226
0.414031
0.258527
0.343249
0.427943
0.274143
0.319212
0.226881
0.297404
0.401231
0.392361
0.183861
0.322154
0.360495
0.358636
0.220217
0.545996
0.37913
0.301782
0.418479
0.799745
0.405009
0.44554
0.296279
0.391921
0.432903
0.415642
0.29318
0.325676
0.388721
0.389061
0.602709
0.460763
0.154183
0.424716
0.398079
0.407761
0.351529
0.411272
0.233067
0.396522
0.206849
0.0735421
0.187307
0.11854
0.340896
0.450109
0.221212
0.289889
0.478992
0.196525
0.429569
0.351395
0.239965
0.491016
0.264957
0.246597
0.428786
0.414068
0.381267
0.561688
0.464894
0.186475
0.158745
0.308494
0.274094
0.391555
