0.569476
0.432001
0.316134
0.573147
0.384554
0.450456
0.421285
0.341077
0.416698
0.393439
0.30454
0.0586223
0.181982
0.435747
0.282517
0.606782
0.409469
0.449764
0.305378
0.13968
0.367405
0.883973
0.824523
0.849346
0.911203
0.763364
0.733891
0.633184
0.517202
0.649604
0.356118
0.448586
0.491735
0.51614
0.449489
0.475616
0.566838
0.49078
0.378178
0.735327
0.711466
0.69195
0.658962
0.580233
0.650537
0.556763
0.56445
0.650052
0.463761
0.405391
0.506097
0.503806
0.56111
0.555943
0.532577
0.340371
0.704388
0.672571
0.652641
0.576185
0.582065
0.671593
0.668369
0.525512
0.618797
0.679329
0.724496
0.449955
0.470001
0.315773
0.489022
0.518677
0.448489
0.386086
0.588704
0.590232
0.535431
0.524633
0.677683
0.721911
0.595862
0.659702
0.535257
0.492134
0.540044
0.557643
0.418299
0.457721
0.429937
0.268449
0.566206
0.704476
0.695255
0.754539
0.665631
0.595725
0.536709
0.389652
0.451303
0.385533
0.377622
0.338416
0.346588
0.285321
0.413579
0.338129
0.390478
0.476847
0.397241
0.402709
0.370213
0.38915
0.344848
0.442058
0.46995
0.332282
0.484974
0.370031
0.399533
0.366831
0.459501
0.372008
0.241679
0.435829
0.357984
0.377991
0.398826
0.348572
0.400275
0.434801
0.497409
0.466656
0.395672
0.355775
0.524793
0.321362
0.414195
0.338641
0.333996
0.392319
0.434024
0.400454
0.371277
0.33727
0.462497
0.44027
0.485949
0.377744
0.367502
0.461994
0.391648
0.328304
0.408229
0.485216
0.202861
0.53263
0.331146
0.307874
0.361668
0.34865
0.316714
0.477363
0.387831
0.483824
0.334827
0.301703
0.270081
0.38104
0.41112
0.227388
0.136343
0.470325
0.41241
0.281074
0.339086
0.369493
0.350935
0.47259
0.318252
0.348461
0.331633
0.285723
0.221211
0.372677
0.245656
0.494546
0.284221
0.370221
0.256347
0.29378
0.199589
0.385874
0.761767
0.204342
0.442465
0.321562
0.426212
0.341892
0.472992
0.230252
0.302198
0.374809
0.33303
0.316417
0.312721
0.436342
0
0.266783
0.543223
0.45197
0.33041
0.301012
0.486022
0.540434
0.670034
0.620633
0.326713
0.388448
0.180912
0.378669
0.572589
0.627952
0.473237
0.380203
0.631007
0.287737
0.221254
0.0836463
0.543852
0.261627
0.657771
0.335405
0.66807
0.471242
0.280698
0.15413
0.488433
0.249705
0.464793
0.625608
0.658242
0.674143
0.543969
0.505751
0.665555
0.674937
0.575828
0.686509
0.716467
0.68706
0.568099
0.720722
0.678463
0.460849
0.532564
0.460872
0.634811
0.30797
0.420392
0.704915
0.671488
0.663404
0.656007
0.610088
0.640094
0.658197
0.635865
0.515007
0.635625
0.588731
0.658885
0.374067
0.685756
0.719733
0.625122
0.229173
0.513398
0.570823
0.658286
0.719986
0.423255
0.647648
0.610028
0.65972
0.491792
0.612204
0.528077
0.544613
0.621323
0.786552
0.78101
0.698677
0.722319
0.801361
0.66468
0.759148
0.72608
0.748498
0.499593
0.699142
0.618486
0.779114
0.823472
0.775918
0.676624
0.808861
0.707977
0.757247
0.737134
0.810904
0.577736
0.736829
0.951787
0.72968
0.78939
0.71907
0.798237
0.483877
0.80187
0.694216
0.817497
0.804847
0.80599
0.971878
0.780871
0.817952
0.763763
0.789854
0.762252
0.777054
0.668261
0.733443
0.725423
0.790266
0.890622
0.764135
0.735881
0.772147
0.673612
0.734932
0.76077
0.810207
0.776399
0.818527
0.631641
0.678288
0.717381
0.813798
0.808452
0.551789
0.597125
0.836305
0.771292
0.833091
0.789229
0.796859
0.90497
0.896376
0.859941
0.832485
0.658417
0.851792
0.888678
0.834926
0.821459
0.854312
0.865382
1
