OFF
915 1796 0
9.11238 -12.6322 9.67723
8.90938 -12.7657 9.50257
8.46298 -13.0853 9.13012
8.52698 -13.0556 9.19024
7.80648 -13.5473 8.57192
7.81548 -13.5571 8.5858
7.81998 -13.562 8.39735
8.61248 -13.0036 9.04954
9.26298 -12.5332 9.57387
7.14538 -14.0044 7.99947
6.68978 -14.314 7.59816
6.49598 -14.4574 7.43408
7.09828 -14.0523 7.96543
6.35218 -14.5638 7.15909
7.02128 -14.1136 7.72951
6.30428 -14.5993 6.66391
6.30428 -14.5993 5.7621
6.99558 -14.1341 6.18465
6.99558 -14.1341 7.19761
7.82158 -13.5636 6.67978
7.82158 -13.5636 7.82299
8.64108 -12.9862 7.16364
9.31318 -12.5002 7.55239
9.31318 -12.5002 8.92516
8.64108 -12.9862 8.43414
4.91508 -7.92365 6.10205
4.86928 -7.9983 6.07401
5.06788 -7.85143 6.23348
5.09868 -7.76225 6.23285
5.16168 -7.77898 6.18163
5.16858 -7.68549 6.14811
4.85698 -8.02777 6.06448
4.86378 -8.0381 6.06407
5.06738 -7.8961 6.23308
5.06058 -7.88576 6.2335
5.16918 -7.8251 6.19219
5.16238 -7.81475 6.19261
5.20308 -7.80143 5.85082
5.20308 -7.80143 5.11836
5.19628 -7.79108 5.11866
5.19628 -7.79108 5.8512
5.19298 -7.75483 5.10805
5.19298 -7.75483 5.8378
5.19188 -7.6599 5.79712
5.19188 -7.6599 5.07584
3.67508 -8.82571 5.07652
3.33828 -9.06242 4.78243
3.35098 -9.06242 4.78243
3.68928 -8.82571 5.07652
3.35848 -9.06412 4.78238
3.69758 -8.82741 5.07647
4.10758 -8.53996 5.42923
4.10758 -8.52804 5.43492
4.09748 -8.52091 5.43875
3.36408 -9.06923 4.78225
3.37108 -9.07944 4.78199
3.71028 -8.84277 5.07602
3.70338 -8.83253 5.07632
4.11748 -8.55877 5.42685
4.11058 -8.5485 5.42718
4.52458 -8.27477 5.77576
4.51778 -8.26447 5.77614
4.52368 -8.2457 5.78383
4.55638 -8.17463 5.82175
4.55048 -8.20313 5.80642
3.00148 -9.29913 4.21944
3.01268 -9.29913 3.82675
3.01268 -9.29913 4.21944
3.01948 -9.30083 3.82672
3.01948 -9.30083 4.2194
3.05338 -9.27716 4.44728
3.04648 -9.27546 4.44732
3.03518 -9.27546 4.44732
3.02478 -9.30592 3.82664
3.03178 -9.31611 3.82648
3.03178 -9.31611 4.2191
3.02478 -9.30592 4.2193
3.06568 -9.29245 4.44694
3.05878 -9.28225 4.44717
3.16748 -9.22144 4.60343
3.16058 -9.21125 4.60368
3.15508 -9.20615 4.6038
3.13618 -9.20445 4.60384
3.14798 -9.20445 4.60384
4.90338 -7.92315 -1.38836
4.86638 -7.99817 -1.36757
4.52168 -8.24561 -1.09978
4.54258 -8.20279 -1.11742
4.10708 -8.53994 -0.755293
4.10558 -8.52795 -0.759743
4.85698 -8.02777 -1.36046
4.86378 -8.0381 -1.36006
4.52458 -8.27477 -1.09336
4.51778 -8.26447 -1.09373
4.11748 -8.55877 -0.753323
4.11058 -8.5485 -0.753663
3.71028 -8.84277 -0.400313
3.37108 -9.07944 -0.0946928
3.36408 -9.06923 -0.0949528
3.70338 -8.83253 -0.400603
3.69758 -8.82741 -0.400753
4.87508 -8.05531 6.0634
5.07868 -7.91334 6.23237
4.88928 -8.07685 6.06255
5.09268 -7.9349 6.23149
5.19448 -7.86393 6.19062
5.18038 -7.84235 6.19149
4.90458 -8.10013 6.06164
4.91928 -8.12261 6.06076
5.12268 -7.98074 6.22962
5.10798 -7.95823 6.23054
5.22438 -7.9098 6.18876
5.20968 -7.88727 6.18968
5.25828 -7.88616 5.84769
5.25828 -7.88616 5.11588
5.24358 -7.86362 5.11654
5.24358 -7.86362 5.84852
5.22838 -7.84027 5.11722
5.22838 -7.84027 5.84938
5.21428 -7.81869 5.11785
5.21428 -7.81869 5.85018
3.38268 -9.09647 4.78154
3.72188 -8.85984 5.07553
3.39708 -9.11777 4.78099
3.73618 -8.88119 5.07491
4.14318 -8.59731 5.42559
4.12888 -8.57589 5.42629
3.41278 -9.1408 4.78039
3.42788 -9.16303 4.77981
3.76688 -8.92657 5.07359
3.75178 -8.90428 5.07424
4.17358 -8.64282 5.4241
4.15868 -8.62047 5.42483
4.58038 -8.35907 5.7727
4.56548 -8.33665 5.77352
4.55008 -8.31342 5.77436
4.53588 -8.29194 5.77514
3.04348 -9.33309 3.82621
3.04348 -9.33309 4.21875
3.05798 -9.35434 3.82587
3.05798 -9.35434 4.21833
3.09188 -9.33068 4.44608
3.07738 -9.30943 4.44656
3.07368 -9.37731 3.82551
3.08888 -9.39949 3.82515
3.08888 -9.39949 4.21742
3.07368 -9.37731 4.21787
3.12278 -9.37585 4.44506
3.10758 -9.35366 4.44556
3.22448 -9.30491 4.60141
3.20938 -9.28271 4.60195
3.19368 -9.25971 4.60251
3.17908 -9.23844 4.60302
4.87508 -8.05531 -1.35939
4.53588 -8.29194 -1.09274
4.88928 -8.07685 -1.35856
4.55008 -8.31342 -1.09197
4.14318 -8.59731 -0.752063
4.12888 -8.57589 -0.752763
4.90458 -8.10013 -1.35765
4.91928 -8.12261 -1.35678
4.58038 -8.35907 -1.09032
4.56548 -8.33665 -1.09113
4.17358 -8.64282 -0.750583
4.15868 -8.62047 -0.751313
3.76688 -8.92657 -0.397883
3.42788 -9.16303 -0.0925328
3.41278 -9.1408 -0.0931028
3.75178 -8.90428 -0.398523
3.39708 -9.11777 -0.0936928
3.73618 -8.88119 -0.399193
3.38268 -9.09647 -0.0942528
3.72188 -8.85984 -0.399813
7.73948 -11.5743 6.68891
7.51208 -11.7329 6.50015
7.83248 -11.882 7.07531
8.09118 -11.7015 7.29014
8.20748 -12.0437 7.77114
8.50418 -11.8367 8.01749
8.65258 -11.7332 7.95789
8.22058 -11.6112 7.23816
7.85308 -11.495 6.64325
8.58198 -12.1987 8.47713
8.90068 -12.328 9.08279
9.26898 -12.0711 9.38857
8.91718 -11.9649 8.75547
9.45318 -11.9426 9.31459
9.08488 -11.8479 8.68813
9.51458 -11.8998 8.69694
9.51458 -11.8998 7.37171
9.14068 -11.809 6.91961
9.14068 -11.809 8.12591
8.70198 -11.6987 6.39261
8.70198 -11.6987 7.46028
8.26368 -11.5812 5.87321
7.89098 -11.4686 5.44387
7.89098 -11.4686 6.26196
8.26368 -11.5812 6.80424
6.22378 -12.6316 5.39659
5.84478 -12.896 5.06817
5.93498 -13.2056 5.44564
6.36628 -12.9048 5.8194
6.03158 -13.5616 5.9023
6.52608 -13.2166 6.33091
7.11958 -12.8026 6.84229
6.88378 -12.5438 6.26533
6.67848 -12.3144 5.78843
6.12358 -13.9137 6.36563
6.19988 -14.2121 6.76312
6.81368 -13.7839 7.29512
6.68228 -13.524 6.84989
7.55028 -13.27 7.92986
7.35278 -13.0562 7.42767
8.28688 -12.7562 8.56115
8.02328 -12.5885 8.0023
7.71298 -12.3887 7.35088
7.13318 -11.9972 6.17813
7.40128 -12.1828 6.70884
5.46588 -13.1603 4.43948
5.46588 -13.1603 4.00096
5.50378 -13.5065 4.2311
5.50378 -13.5065 4.73015
5.53708 -13.9066 4.50951
5.53708 -13.9066 5.08181
5.58648 -13.8721 5.41392
5.54688 -13.4764 5.01977
5.50378 -13.1339 4.69396
5.56478 -14.3035 4.79199
5.58608 -14.6403 5.03433
5.58608 -14.6403 5.74468
5.56478 -14.3035 5.4386
5.64748 -14.5975 6.15692
5.62068 -14.2645 5.81384
5.83158 -14.469 6.44006
5.78828 -14.1476 6.07157
5.73488 -13.7686 5.64203
5.61748 -13.0546 4.86874
5.67628 -13.3861 5.21868
7.13318 -11.9972 -1.49405
7.51208 -11.7329 -1.79193
7.83248 -11.882 -2.36154
7.40128 -12.1828 -2.02253
8.20748 -12.0437 -3.05064
7.71298 -12.3887 -2.66189
7.11958 -12.8026 -2.16623
6.88378 -12.5438 -1.59031
6.67848 -12.3144 -1.11425
8.58198 -12.1987 -3.74982
8.90068 -12.328 -4.34963
8.28688 -12.7562 -3.86709
8.02328 -12.5885 -3.31058
7.55028 -13.27 -3.25186
7.35278 -13.0562 -2.75057
6.81368 -13.7839 -2.61315
6.19988 -14.2121 -2.06019
6.12358 -13.9137 -1.66584
6.68228 -13.524 -2.16918
6.03158 -13.5616 -1.20617
6.52608 -13.2166 -1.65166
5.93498 -13.2056 -0.753113
5.84478 -12.896 -0.378623
6.22378 -12.6316 -0.719973
6.36628 -12.9048 -1.14159
5.63758 -11.7005 4.99291
5.30858 -11.93 4.70779
5.53878 -12.2687 4.69897
5.86648 -12.04 4.98304
5.68158 -12.4965 4.7316
6.01388 -12.2647 5.01958
6.41258 -11.9866 5.36318
6.25978 -11.7657 5.32197
6.03228 -11.4252 5.3331
5.77198 -12.6826 4.84241
6.11958 -12.4401 5.14371
6.53678 -12.1491 5.50319
7.30158 -11.6156 6.15614
6.95398 -11.8581 5.86072
7.14358 -11.4766 5.98729
6.81128 -11.7084 5.70492
6.98088 -11.2626 5.93758
6.75608 -10.9203 5.95101
6.42708 -11.1498 5.67144
6.65308 -11.4913 5.65905
6.95348 -10.7826 6.1149
7.17748 -11.1255 6.10086
7.34298 -11.3375 6.15282
7.44268 -11.268 6.11277
7.27588 -11.0569 6.06136
7.05218 -10.7137 6.07525
7.51018 -11.4701 6.32932
7.61448 -11.3973 6.28743
7.64918 -11.3731 5.18708
7.64918 -11.3731 5.93762
7.47588 -11.2448 5.06104
7.47588 -11.2448 5.77842
7.30858 -11.034 5.02394
7.08508 -10.6908 5.03396
7.08508 -10.6908 5.74422
7.30858 -11.034 5.73156
6.42708 -11.1498 -0.989483
6.75608 -10.9203 -1.24809
6.98088 -11.2626 -1.2348
6.65308 -11.4913 -0.977143
7.14358 -11.4766 -1.28402
6.81128 -11.7084 -1.02281
6.41258 -11.9866 -0.689773
6.25978 -11.7657 -0.648633
6.03228 -11.4252 -0.659753
7.30158 -11.6156 -1.45125
6.95398 -11.8581 -1.17796
6.53678 -12.1491 -0.829533
5.77198 -12.6826 -0.154633
6.11958 -12.4401 -0.467803
5.68158 -12.4965 -0.0446928
6.01388 -12.2647 -0.344023
5.53878 -12.2687 -0.0123328
5.30858 -11.93 -0.0210728
5.63758 -11.7005 -0.317433
5.86648 -12.04 -0.307583
4.97958 -12.1595 4.16196
4.97958 -12.1595 3.78124
5.21098 -12.4973 3.77587
5.21098 -12.4973 4.15517
5.34928 -12.7283 3.79576
5.34928 -12.7283 4.18029
5.38248 -12.7051 4.40345
5.24378 -12.4745 4.37529
5.01248 -12.1366 4.3829
5.42438 -12.9251 3.86332
5.42438 -12.9251 4.26563
5.45908 -12.9009 4.49909
5.56338 -12.8281 4.65945
5.48218 -12.6356 4.55672
5.11118 -12.0677 4.53464
5.34208 -12.4059 4.52647
6.24968 -14.4066 7.02224
6.89938 -13.9533 7.58537
6.32748 -14.4852 7.21397
6.97638 -14.0331 7.77684
7.75438 -13.4909 8.44774
7.67908 -13.4094 8.25724
6.48798 -14.4359 7.40929
7.08158 -14.024 7.92574
7.79148 -13.531 8.53926
9.08998 -12.6208 9.64307
8.49888 -13.0353 9.14305
9.17998 -12.4953 9.66369
8.53178 -12.948 9.11339
9.10848 -12.4123 9.47762
8.45878 -12.8655 8.92547
9.49828 -12.1403 9.80129
9.57058 -12.2234 9.98855
9.76688 -12.0873 9.90645
9.69328 -12.0043 9.72299
9.45108 -12.3711 9.94527
9.63558 -12.2457 9.85813
9.69708 -12.2039 7.76218
9.69708 -12.2039 9.19013
9.83228 -12.0419 7.79839
9.83228 -12.0419 9.23587
9.75818 -11.959 7.66644
9.75818 -11.959 9.0692
9.10848 -12.4123 -4.74065
8.45878 -12.8655 -4.22988
9.17998 -12.4953 -4.92031
8.53178 -12.948 -4.41164
7.75438 -13.4909 -3.7635
7.67908 -13.4094 -3.57866
9.08998 -12.6208 -4.88602
8.90938 -12.7657 -4.72881
8.46298 -13.0853 -4.38004
8.49888 -13.0353 -4.42504
7.80648 -13.5473 -3.8398
7.79148 -13.531 -3.83892
7.14538 -14.0044 -3.26963
6.68978 -14.314 -2.86032
6.48798 -14.4359 -2.68747
7.08158 -14.024 -3.22339
6.32748 -14.4852 -2.50404
6.97638 -14.0331 -3.08886
6.24968 -14.4066 -2.31727
6.89938 -13.9533 -2.90258
5.59998 -14.8598 5.19231
5.59998 -14.8598 5.94423
5.67708 -14.9406 5.32613
5.67708 -14.9406 6.11325
5.74218 -14.8949 6.5672
5.66488 -14.8145 6.38058
5.88828 -14.8609 5.496
5.88828 -14.8609 6.3278
5.94858 -14.8178 6.79918
6.12938 -14.6883 7.09673
5.93758 -14.7578 6.87244
5.85978 -14.6785 6.68028
3.44068 -9.18193 4.77932
3.77958 -8.94552 5.07304
3.48478 -9.24672 4.77763
3.82338 -9.01047 5.07115
4.22978 -8.72697 5.42135
4.18628 -8.66183 5.42348
3.59348 -9.40662 4.77347
3.80018 -9.71086 4.76555
4.13718 -9.47578 5.05761
3.93148 -9.17077 5.06648
4.54158 -9.19369 5.40608
4.33718 -8.88776 5.41609
4.94598 -8.91159 5.75266
5.28298 -8.67651 6.03903
5.08098 -8.3689 6.0511
4.74288 -8.60474 5.76379
4.97488 -8.20722 6.05744
4.63618 -8.44347 5.76964
4.93188 -8.14172 6.06001
4.59298 -8.37813 5.77201
5.13518 -7.99987 6.22883
5.17808 -8.06548 6.22615
5.27968 -7.9946 6.18533
5.23688 -7.92895 6.18799
5.48518 -8.53546 6.2069
5.28388 -8.22739 6.21952
5.58628 -8.46494 6.16629
5.38528 -8.15664 6.17877
5.61998 -8.44143 5.8272
5.61998 -8.44143 5.09966
5.41908 -8.13305 5.10867
5.41908 -8.13305 5.83858
5.31348 -7.97098 5.1134
5.31348 -7.97098 5.84456
5.27078 -7.90531 5.11532
5.27078 -7.90531 5.84698
4.93188 -8.14172 -1.35604
4.59298 -8.37813 -1.08963
4.97488 -8.20722 -1.35349
4.63618 -8.44347 -1.08727
4.22978 -8.72697 -0.747833
4.18628 -8.66183 -0.749963
5.08098 -8.3689 -1.34721
5.28298 -8.67651 -1.33526
4.94598 -8.91159 -1.07035
4.74288 -8.60474 -1.08144
4.54158 -9.19368 -0.732593
4.33718 -8.88776 -0.742583
4.13718 -9.47578 -0.381953
3.80018 -9.71086 -0.0783828
3.59348 -9.40662 -0.0862428
3.93148 -9.17077 -0.390793
3.48478 -9.24672 -0.0903728
3.82338 -9.01047 -0.395443
3.44068 -9.18193 -0.0920428
3.77958 -8.94552 -0.397333
3.10178 -9.41834 3.82485
3.10178 -9.41834 4.21704
3.14608 -9.48297 3.82382
3.14608 -9.48297 4.21574
3.17998 -9.45934 4.44318
3.13568 -9.3947 4.44464
3.25538 -9.64246 3.82129
3.46328 -9.94594 3.81646
3.46328 -9.94594 4.20644
3.25538 -9.64246 4.21254
3.49698 -9.92243 4.43275
3.28918 -9.61888 4.43959
3.59808 -9.85191 4.58819
3.39058 -9.54813 4.59554
3.28158 -9.38846 4.59939
3.23738 -9.32378 4.60096
4.13858 -10.2087 4.75259
4.47378 -9.97484 5.0431
4.54508 -10.8067 4.73703
4.87808 -10.5744 5.02566
5.27768 -10.2956 5.37005
4.87598 -9.69425 5.38971
4.95618 -11.4116 4.72128
5.28708 -11.1808 5.00803
5.68408 -10.9038 5.35015
6.41188 -10.3961 5.97158
6.08108 -10.6269 5.69042
6.01038 -9.78448 5.99557
5.67738 -10.0168 5.71255
5.61338 -9.17983 6.01929
5.27818 -9.41366 5.73444
5.81448 -9.03953 6.18626
6.21018 -9.64509 6.16147
6.31008 -9.57539 6.12133
5.91508 -8.96938 6.14587
6.61048 -10.2576 6.13639
6.70968 -10.1884 6.09652
6.74278 -10.1653 5.04931
6.74278 -10.1653 5.76361
6.34338 -9.55216 5.06722
6.34338 -9.55216 5.78623
5.94858 -8.946 5.08492
5.94858 -8.946 5.80859
5.61338 -9.17983 -1.31571
5.27818 -9.41366 -1.05221
6.01038 -9.78448 -1.29222
5.67738 -10.0168 -1.03042
5.27768 -10.2956 -0.696623
4.87598 -9.69425 -0.716253
6.41188 -10.3961 -1.26846
6.08108 -10.6269 -1.00837
5.68408 -10.9038 -0.676763
4.95618 -11.4116 -0.0344628
5.28708 -11.1808 -0.332503
4.54508 -10.8067 -0.0500828
4.87808 -10.5744 -0.350093
4.13858 -10.2087 -0.0655228
4.47378 -9.97484 -0.367483
3.80338 -10.4425 3.80856
3.80338 -10.4425 4.19646
4.21198 -11.039 3.79907
4.21198 -11.039 4.18447
4.24528 -11.0158 4.40813
3.83688 -10.4191 4.42157
4.62538 -11.6424 3.78947
4.62538 -11.6424 4.17235
4.65848 -11.6193 4.39454
4.75768 -11.5501 4.54715
4.34528 -10.9461 4.56175
3.93748 -10.349 4.57618
3.16748 -9.22144 0.103177
3.04348 -9.33309 0.946013
3.03178 -9.31611 0.945762
3.03178 -9.31611 0.533841
3.04348 -9.33309 0.534167
3.06568 -9.29245 0.282831
3.07738 -9.30943 0.283202
3.09188 -9.33068 0.283666
3.05798 -9.35434 0.534574
3.05798 -9.35434 0.946327
3.17908 -9.23844 0.103577
3.19368 -9.25971 0.104087
3.22448 -9.30491 0.105157
3.20938 -9.28271 0.104627
3.12278 -9.37585 0.284653
3.10758 -9.35366 0.284168
3.08888 -9.39949 0.535441
3.08888 -9.39949 0.946996
3.07368 -9.37731 0.946667
3.07368 -9.37731 0.535015
3.10178 -9.41834 0.947275
3.10178 -9.41834 0.535803
3.13568 -9.3947 0.285066
3.17998 -9.45934 0.286479
3.14608 -9.48296 0.537043
3.14608 -9.48296 0.948231
3.23738 -9.32378 0.105607
3.28158 -9.38846 0.107137
3.59808 -9.85191 0.118147
3.39058 -9.54813 0.110937
3.49698 -9.92243 0.296601
3.28918 -9.61888 0.289966
3.46328 -9.94594 0.545927
3.46328 -9.94594 0.955082
3.25538 -9.64246 0.950591
3.25538 -9.64246 0.540103
3.80338 -10.4425 0.96243
3.80338 -10.4425 0.555455
3.83688 -10.4191 0.307458
4.24528 -11.0158 0.320501
4.21198 -11.039 0.566902
4.21198 -11.039 0.971257
3.93748 -10.349 0.129957
4.34528 -10.9461 0.144147
5.11118 -12.0677 0.170787
4.75768 -11.5501 0.158487
5.01248 -12.1366 0.345001
4.65848 -11.6193 0.333694
4.97958 -12.1595 0.588404
4.97958 -12.1595 0.987839
4.62538 -11.6424 0.980186
4.62538 -11.6424 0.57848
5.21098 -12.4973 0.992838
5.21098 -12.4973 0.594885
5.24378 -12.4745 0.352387
5.38248 -12.7051 0.325052
5.34928 -12.7283 0.570896
5.34928 -12.7283 0.974338
5.34208 -12.4059 0.178817
5.48218 -12.6356 0.149097
5.61748 -13.0546 -0.157633
5.56338 -12.8281 0.0481072
5.50378 -13.1339 0.0430372
5.45908 -12.9009 0.232197
5.46588 -13.1603 0.323388
5.46588 -13.1603 0.783466
5.42438 -12.9251 0.911495
5.42438 -12.9251 0.489407
5.50378 -13.5065 0.569406
5.50378 -13.5065 0.0458172
5.54688 -13.4764 -0.273253
5.58648 -13.8721 -0.655883
5.53708 -13.9066 -0.289993
5.53708 -13.9066 0.310439
5.67628 -13.3861 -0.501613
5.73488 -13.7686 -0.917763
5.83158 -14.469 -1.70221
5.78828 -14.1476 -1.33998
5.64748 -14.5975 -1.37715
5.62068 -14.2645 -1.0441
5.58608 -14.6403 -0.923003
5.58608 -14.6403 -0.177723
5.56478 -14.3035 0.0476872
5.56478 -14.3035 -0.630713
5.59998 -14.8598 -0.324673
5.59998 -14.8598 -1.11355
5.66488 -14.8145 -1.59427
5.74218 -14.8949 -1.77493
5.67708 -14.9406 -1.27496
5.67708 -14.9406 -0.449143
5.85978 -14.6785 -1.93834
5.93758 -14.7578 -2.12535
6.49598 -14.4574 -2.66729
6.12938 -14.6883 -2.34019
6.35218 -14.5638 -2.34668
5.94858 -14.8178 -1.99862
6.30428 -14.5993 -1.80081
6.30428 -14.5993 -0.854663
5.88828 -14.8609 -0.607143
5.88828 -14.8609 -1.47984
9.31318 -12.5002 -3.96016
9.31318 -12.5002 -2.5199
8.64108 -12.9862 -2.1583
8.64108 -12.9862 -3.49127
7.82158 -13.5636 -1.70823
7.82158 -13.5636 -2.90766
7.81998 -13.562 -3.54838
8.61248 -13.0036 -4.17896
9.26298 -12.5332 -4.68587
6.99558 -14.1341 -1.24769
6.99558 -14.1341 -2.31046
7.02128 -14.1136 -2.90044
7.09828 -14.0523 -3.19108
7.81548 -13.5571 -3.80103
9.11238 -12.6322 -4.85821
8.52698 -13.0556 -4.38662
9.51458 -11.8998 -3.74223
9.51458 -11.8998 -2.35183
9.75818 -11.959 -2.62598
9.75818 -11.959 -4.09771
9.83228 -12.0419 -2.74871
9.83228 -12.0419 -4.25687
9.76688 -12.0873 -5.01161
9.69328 -12.0043 -4.83427
9.45318 -11.9426 -4.43807
9.69708 -12.2039 -2.71503
9.69708 -12.2039 -4.21319
9.63558 -12.2457 -4.96278
9.45108 -12.3711 -5.12616
9.57058 -12.2234 -5.17652
9.26898 -12.0711 -4.59025
9.49828 -12.1403 -4.99535
7.89098 -11.4686 -1.41697
7.89098 -11.4686 -0.558653
8.26368 -11.5812 -0.958003
8.26368 -11.5812 -1.93481
8.70198 -11.6987 -1.44113
8.70198 -11.6987 -2.56129
8.65258 -11.7332 -3.1219
8.22058 -11.6112 -2.42367
7.85308 -11.495 -1.84653
9.14068 -11.809 -1.93131
9.14068 -11.809 -3.19693
9.08488 -11.8479 -3.83032
8.91718 -11.9649 -3.96884
8.50418 -11.8367 -3.2445
7.73948 -11.5743 -1.94047
8.09118 -11.7015 -2.53058
7.08508 -10.6908 -0.922563
7.08508 -10.6908 -0.177383
7.30858 -11.034 -0.168053
7.30858 -11.034 -0.910473
7.47588 -11.2448 -0.202563
7.47588 -11.2448 -0.955223
7.44268 -11.268 -1.3319
7.27588 -11.0569 -1.28202
7.05218 -10.7137 -1.2955
7.64918 -11.3731 -0.319803
7.64918 -11.3731 -1.10725
7.61448 -11.3973 -1.50134
7.51018 -11.4701 -1.58752
7.34298 -11.3375 -1.41428
6.95348 -10.7826 -1.37706
7.17748 -11.1255 -1.36328
5.61998 -8.44143 -1.0018
5.61998 -8.44143 -0.238493
5.94858 -8.946 -0.224783
5.94858 -8.946 -0.984033
6.34338 -9.55216 -0.208313
6.34338 -9.55216 -0.962673
6.31008 -9.57539 -1.3402
5.91508 -8.96938 -1.36401
5.58628 -8.46494 -1.38382
6.74278 -10.1653 -0.191653
6.74278 -10.1653 -0.941073
6.70968 -10.1884 -1.31613
6.61048 -10.2576 -1.39815
6.21018 -9.64509 -1.42277
5.48518 -8.53546 -1.46736
5.81448 -9.03953 -1.4471
5.25828 -7.88616 -1.02137
5.25828 -7.88616 -0.253573
5.27078 -7.90531 -0.253053
5.27078 -7.90531 -1.02069
5.31348 -7.97098 -0.251273
5.31348 -7.97098 -1.01838
5.27968 -7.9946 -1.40229
5.23688 -7.92895 -1.40487
5.22438 -7.9098 -1.40562
5.41908 -8.13305 -0.246863
5.41908 -8.13305 -1.01267
5.38528 -8.15664 -1.39593
5.28388 -8.22739 -1.47974
5.17808 -8.06548 -1.48625
5.12268 -7.98074 -1.48965
5.13518 -7.99987 -1.48888
5.20308 -7.80143 -1.02435
5.20308 -7.80143 -0.255873
5.21428 -7.81869 -0.255413
5.21428 -7.81869 -1.02374
5.22838 -7.84027 -0.254823
5.22838 -7.84027 -1.02298
5.19448 -7.86393 -1.40742
5.18038 -7.84235 -1.40827
5.16918 -7.8251 -1.40895
5.24358 -7.86362 -0.254193
5.24358 -7.86362 -1.02216
5.20968 -7.88727 -1.40651
5.10798 -7.95823 -1.49056
5.09268 -7.9349 -1.4915
5.06738 -7.8961 -1.49305
5.07868 -7.91334 -1.49236
5.19188 -7.6599 -0.216333
5.19298 -7.75483 -0.246293
5.19298 -7.75483 -1.01193
5.19188 -7.6599 -0.973073
5.16118 -7.77896 -1.39838
5.16658 -7.68541 -1.36492
5.19628 -7.79108 -0.256163
5.19628 -7.79108 -1.02471
5.16238 -7.81475 -1.40935
5.06058 -7.88576 -1.49347
5.06588 -7.85135 -1.49202
5.09088 -7.76192 -1.48711
3.01948 -9.30083 3.17581
3.03178 -9.31611 1.60815
3.03178 -9.31611 2.39384
3.02478 -9.30592 2.39385
3.03178 -9.31611 3.17567
3.02478 -9.30592 3.17577
3.04348 -9.33309 3.17552
3.04348 -9.33309 2.39383
3.05798 -9.35434 2.39382
3.05798 -9.35434 3.17533
3.04348 -9.33309 1.60828
3.05798 -9.35434 1.60845
3.08888 -9.39949 1.6088
3.07368 -9.37731 1.60862
3.08888 -9.39949 2.39379
3.07368 -9.37731 2.3938
3.08888 -9.39949 3.17493
3.07368 -9.37731 3.17513
3.10178 -9.41834 3.17476
3.10178 -9.41834 2.39378
3.14608 -9.48297 2.39374
3.14608 -9.48296 3.17418
3.10178 -9.41834 1.60894
3.14608 -9.48297 1.60944
3.46328 -9.94594 1.61302
3.25538 -9.64246 1.61068
3.46328 -9.94594 2.39344
3.25538 -9.64246 2.39364
3.46328 -9.94594 3.17002
3.25538 -9.64246 3.17275
3.80338 -10.4425 3.16557
3.80338 -10.4425 2.39312
4.21198 -11.039 2.39274
4.21198 -11.039 3.16022
3.80338 -10.4425 1.61687
4.21198 -11.039 1.62148
4.97958 -12.1595 1.63015
4.62538 -11.6424 1.62615
4.97958 -12.1595 2.39203
4.62538 -11.6424 2.39236
4.97958 -12.1595 3.15016
4.62538 -11.6424 3.1548
5.21098 -12.4973 3.14713
5.21098 -12.4973 2.39181
5.34928 -12.7283 2.39261
5.34928 -12.7283 3.15835
5.21098 -12.4973 1.63276
5.34928 -12.7283 1.62309
5.46588 -13.1603 1.52329
5.42438 -12.9251 1.59023
5.46588 -13.1603 2.40084
5.42438 -12.9251 2.39532
5.46588 -13.1603 3.27407
5.42438 -12.9251 3.19645
5.50378 -13.5065 3.40386
5.50378 -13.5065 2.41007
5.53708 -13.9066 2.42123
5.53708 -13.9066 3.56087
5.50378 -13.5065 1.41137
5.53708 -13.9066 1.27597
5.58608 -14.6403 1.02073
5.56478 -14.3035 1.13859
5.58608 -14.6403 2.44228
5.56478 -14.3035 2.43256
5.58608 -14.6403 3.85683
5.56478 -14.3035 3.72017
5.59998 -14.8598 3.94593
5.59998 -14.8598 2.44861
5.67708 -14.9406 2.45398
5.67708 -14.9406 4.0214
5.59998 -14.8598 0.943899
5.67708 -14.9406 0.878816
6.30428 -14.5993 0.666789
5.88828 -14.8609 0.796205
6.30428 -14.5993 2.47146
5.88828 -14.8609 2.46079
6.30428 -14.5993 4.26726
5.88828 -14.8609 4.11719
9.31318 -12.5002 5.27688
8.64108 -12.9862 5.05765
7.82158 -13.5636 4.78478
7.82158 -13.5636 2.50826
8.64108 -12.9862 2.52766
9.31318 -12.5002 2.54325
6.99558 -14.1341 4.50555
6.99558 -14.1341 2.4884
6.99558 -14.1341 0.461292
7.82158 -13.5636 0.220497
9.31318 -12.5002 -0.203893
8.64108 -12.9862 -0.0148228
9.51458 -11.8998 5.17499
9.75818 -11.959 5.3412
9.83228 -12.0419 5.41561
9.83228 -12.0419 2.55311
9.75818 -11.959 2.54782
9.51458 -11.8998 2.536
9.69708 -12.2039 5.39519
9.69708 -12.2039 2.55166
9.69708 -12.2039 -0.305913
9.83228 -12.0419 -0.323523
9.51458 -11.8998 -0.116013
9.75818 -11.959 -0.259353
7.89098 -11.4686 4.08779
8.26368 -11.5812 4.32992
8.70198 -11.6987 4.62283
8.70198 -11.6987 2.49674
8.26368 -11.5812 2.47592
7.89098 -11.4686 2.4587
9.14068 -11.809 4.92003
9.14068 -11.809 2.51788
9.14068 -11.809 0.103857
8.70198 -11.6987 0.360152
7.89098 -11.4686 0.821558
8.26368 -11.5812 0.612757
7.08508 -10.6908 3.85663
7.30858 -11.034 3.85097
7.47588 -11.2448 3.8719
7.47588 -11.2448 2.44335
7.30858 -11.034 2.44186
7.08508 -10.6908 2.44226
7.64918 -11.3731 3.94298
7.64918 -11.3731 2.4484
7.64918 -11.3731 0.946442
7.47588 -11.2448 1.00774
7.08508 -10.6908 1.02091
7.30858 -11.034 1.02579
5.61998 -8.44143 3.89368
5.94858 -8.946 3.88537
6.34338 -9.55216 3.87538
6.34338 -9.55216 2.4436
5.94858 -8.946 2.44431
5.61998 -8.44143 2.4449
6.74278 -10.1653 3.86528
6.74278 -10.1653 2.44288
6.74278 -10.1653 1.01345
6.34338 -9.55216 1.00474
5.61998 -8.44143 0.988958
5.94858 -8.946 0.996125
5.25828 -7.88616 3.90282
5.27078 -7.90531 3.90251
5.31348 -7.97098 3.90143
5.31348 -7.97098 2.44545
5.27078 -7.90531 2.44552
5.25828 -7.88616 2.44555
5.41908 -8.13305 3.89876
5.41908 -8.13305 2.44526
5.41908 -8.13305 0.984577
5.31348 -7.97098 0.982275
5.25828 -7.88616 0.98107
5.27078 -7.90531 0.981342
5.20308 -7.80143 3.90422
5.21428 -7.81869 3.90394
5.22838 -7.84027 3.90358
5.22838 -7.84027 2.4456
5.21428 -7.81869 2.44563
5.20308 -7.80143 2.44565
5.24358 -7.86362 3.9032
5.24358 -7.86362 2.44557
5.24358 -7.86362 0.98075
5.22838 -7.84027 0.980418
5.20308 -7.80143 0.979866
5.21428 -7.81869 0.980111
5.19298 -7.75483 3.89841
5.19188 -7.6599 3.88025
5.19298 -7.75483 2.44523
5.19188 -7.6599 2.44394
5.19628 -7.79108 3.90439
5.19628 -7.79108 2.44566
5.19628 -7.79108 0.979719
5.19298 -7.75483 0.984876
5.19188 -7.6599 1.00054
3 0 1 2
3 0 2 3
3 2 4 5
3 2 5 3
3 5 6 7
3 5 7 3
3 7 8 0
3 7 0 3
3 9 10 11
3 9 11 12
3 11 13 14
3 11 14 12
3 14 6 5
3 14 5 12
3 5 4 9
3 5 9 12
3 15 16 17
3 15 17 18
3 17 19 20
3 17 20 18
3 20 6 14
3 20 14 18
3 14 13 15
3 14 15 18
3 21 22 23
3 21 23 24
3 23 8 7
3 23 7 24
3 7 6 20
3 7 20 24
3 20 19 21
3 20 21 24
3 25 26 27
3 25 27 28
3 27 29 30
3 27 30 28
3 31 32 33
3 31 33 34
3 33 35 36
3 33 36 34
3 36 29 27
3 36 27 34
3 27 26 31
3 27 31 34
3 37 38 39
3 37 39 40
3 39 41 42
3 39 42 40
3 42 29 36
3 42 36 40
3 36 35 37
3 36 37 40
3 30 29 42
3 30 42 43
3 42 41 44
3 42 44 43
3 45 46 47
3 45 47 48
3 47 49 50
3 47 50 48
3 50 51 52
3 50 52 48
3 52 53 45
3 52 45 48
3 54 55 56
3 54 56 57
3 56 58 59
3 56 59 57
3 59 51 50
3 59 50 57
3 50 49 54
3 50 54 57
3 60 32 31
3 60 31 61
3 31 26 62
3 31 62 61
3 62 51 59
3 62 59 61
3 59 58 60
3 59 60 61
3 25 63 64
3 63 53 52
3 63 52 64
3 52 51 62
3 52 62 64
3 62 26 25
3 62 25 64
3 65 66 67
3 66 68 69
3 66 69 67
3 69 70 71
3 69 71 67
3 71 72 65
3 71 65 67
3 73 74 75
3 73 75 76
3 75 77 78
3 75 78 76
3 78 70 69
3 78 69 76
3 69 68 73
3 69 73 76
3 79 55 54
3 79 54 80
3 54 49 81
3 54 81 80
3 81 70 78
3 81 78 80
3 78 77 79
3 78 79 80
3 47 46 82
3 47 82 83
3 82 72 71
3 82 71 83
3 71 70 81
3 71 81 83
3 81 49 47
3 81 47 83
3 84 85 86
3 84 86 87
3 86 88 89
3 86 89 87
3 90 91 92
3 90 92 93
3 92 94 95
3 92 95 93
3 95 88 86
3 95 86 93
3 86 85 90
3 86 90 93
3 96 97 98
3 96 98 99
3 98 100 99
3 100 88 95
3 100 95 99
3 95 94 96
3 95 96 99
3 89 88 100
3 33 32 101
3 33 101 102
3 101 103 104
3 101 104 102
3 104 105 106
3 104 106 102
3 106 35 33
3 106 33 102
3 107 108 109
3 107 109 110
3 109 111 112
3 109 112 110
3 112 105 104
3 112 104 110
3 104 103 107
3 104 107 110
3 113 114 115
3 113 115 116
3 115 117 118
3 115 118 116
3 118 105 112
3 118 112 116
3 112 111 113
3 112 113 116
3 119 38 37
3 119 37 120
3 37 35 106
3 37 106 120
3 106 105 118
3 106 118 120
3 118 117 119
3 118 119 120
3 56 55 121
3 56 121 122
3 121 123 124
3 121 124 122
3 124 125 126
3 124 126 122
3 126 58 56
3 126 56 122
3 127 128 129
3 127 129 130
3 129 131 132
3 129 132 130
3 132 125 124
3 132 124 130
3 124 123 127
3 124 127 130
3 133 108 107
3 133 107 134
3 107 103 135
3 107 135 134
3 135 125 132
3 135 132 134
3 132 131 133
3 132 133 134
3 101 32 60
3 101 60 136
3 60 58 126
3 60 126 136
3 126 125 135
3 126 135 136
3 135 103 101
3 135 101 136
3 75 74 137
3 75 137 138
3 137 139 140
3 137 140 138
3 140 141 142
3 140 142 138
3 142 77 75
3 142 75 138
3 143 144 145
3 143 145 146
3 145 147 148
3 145 148 146
3 148 141 140
3 148 140 146
3 140 139 143
3 140 143 146
3 149 128 127
3 149 127 150
3 127 123 151
3 127 151 150
3 151 141 148
3 151 148 150
3 148 147 149
3 148 149 150
3 121 55 79
3 121 79 152
3 79 77 142
3 79 142 152
3 142 141 151
3 142 151 152
3 151 123 121
3 151 121 152
3 92 91 153
3 92 153 154
3 153 155 156
3 153 156 154
3 156 157 158
3 156 158 154
3 158 94 92
3 158 92 154
3 159 160 161
3 159 161 162
3 161 163 164
3 161 164 162
3 164 157 156
3 164 156 162
3 156 155 159
3 156 159 162
3 165 166 167
3 165 167 168
3 167 169 170
3 167 170 168
3 170 157 164
3 170 164 168
3 164 163 165
3 164 165 168
3 171 97 96
3 171 96 172
3 96 94 158
3 96 158 172
3 158 157 170
3 158 170 172
3 170 169 171
3 170 171 172
3 173 174 175
3 173 175 176
3 175 177 178
3 175 178 176
3 178 179 180
3 178 180 176
3 180 181 173
3 180 173 176
3 182 183 184
3 182 184 185
3 184 186 187
3 184 187 185
3 187 179 178
3 187 178 185
3 178 177 182
3 178 182 185
3 188 189 190
3 188 190 191
3 190 192 193
3 190 193 191
3 193 179 187
3 193 187 191
3 187 186 188
3 187 188 191
3 194 195 196
3 194 196 197
3 196 181 180
3 196 180 197
3 180 179 193
3 180 193 197
3 193 192 194
3 193 194 197
3 198 199 200
3 198 200 201
3 200 202 203
3 200 203 201
3 203 204 205
3 203 205 201
3 205 206 198
3 205 198 201
3 207 208 209
3 207 209 210
3 209 211 212
3 209 212 210
3 212 204 203
3 212 203 210
3 203 202 207
3 203 207 210
3 213 183 182
3 213 182 214
3 182 177 215
3 182 215 214
3 215 204 212
3 215 212 214
3 212 211 213
3 212 213 214
3 175 174 216
3 175 216 217
3 216 206 205
3 216 205 217
3 205 204 215
3 205 215 217
3 215 177 175
3 215 175 217
3 218 219 220
3 218 220 221
3 220 222 223
3 220 223 221
3 223 224 225
3 223 225 221
3 225 226 218
3 225 218 221
3 227 228 229
3 227 229 230
3 229 231 232
3 229 232 230
3 232 224 223
3 232 223 230
3 223 222 227
3 223 227 230
3 233 208 207
3 233 207 234
3 207 202 235
3 207 235 234
3 235 224 232
3 235 232 234
3 232 231 233
3 232 233 234
3 200 199 236
3 200 236 237
3 236 226 225
3 236 225 237
3 225 224 235
3 225 235 237
3 235 202 200
3 235 200 237
3 238 239 240
3 238 240 241
3 240 242 243
3 240 243 241
3 243 244 245
3 243 245 241
3 245 246 238
3 245 238 241
3 247 248 249
3 247 249 250
3 249 251 252
3 249 252 250
3 252 244 243
3 252 243 250
3 243 242 247
3 243 247 250
3 253 254 255
3 253 255 256
3 255 257 258
3 255 258 256
3 258 244 252
3 258 252 256
3 252 251 253
3 252 253 256
3 259 260 261
3 259 261 262
3 261 246 245
3 261 245 262
3 245 244 258
3 245 258 262
3 258 257 259
3 258 259 262
3 263 264 265
3 263 265 266
3 265 267 268
3 265 268 266
3 268 269 270
3 268 270 266
3 270 271 263
3 270 263 266
3 272 199 198
3 272 198 273
3 198 206 274
3 198 274 273
3 274 269 268
3 274 268 273
3 268 267 272
3 268 272 273
3 216 174 275
3 216 275 276
3 275 277 278
3 275 278 276
3 278 269 274
3 278 274 276
3 274 206 216
3 274 216 276
3 279 280 281
3 279 281 282
3 281 271 270
3 281 270 282
3 270 269 278
3 270 278 282
3 278 277 279
3 278 279 282
3 283 280 279
3 283 279 284
3 279 277 285
3 279 285 284
3 285 286 287
3 285 287 284
3 287 288 283
3 287 283 284
3 275 174 173
3 275 173 289
3 173 181 290
3 173 290 289
3 290 286 285
3 290 285 289
3 285 277 275
3 285 275 289
3 196 195 291
3 196 291 292
3 291 293 294
3 291 294 292
3 294 286 290
3 294 290 292
3 290 181 196
3 290 196 292
3 295 296 297
3 295 297 298
3 297 288 287
3 297 287 298
3 287 286 294
3 287 294 298
3 294 293 295
3 294 295 298
3 299 300 301
3 299 301 302
3 301 303 304
3 301 304 302
3 304 305 306
3 304 306 302
3 306 307 299
3 306 299 302
3 308 239 238
3 308 238 309
3 238 246 310
3 238 310 309
3 310 305 304
3 310 304 309
3 304 303 308
3 304 308 309
3 261 260 311
3 261 311 312
3 311 313 314
3 311 314 312
3 314 305 310
3 314 310 312
3 310 246 261
3 310 261 312
3 315 316 317
3 315 317 318
3 317 307 306
3 317 306 318
3 306 305 314
3 306 314 318
3 314 313 315
3 314 315 318
3 319 320 321
3 319 321 322
3 321 323 324
3 321 324 322
3 324 325 326
3 324 326 322
3 326 327 319
3 326 319 322
3 328 219 218
3 328 218 329
3 218 226 330
3 218 330 329
3 330 325 324
3 330 324 329
3 324 323 328
3 324 328 329
3 236 199 272
3 236 272 331
3 272 267 332
3 272 332 331
3 332 325 330
3 332 330 331
3 330 226 236
3 330 236 331
3 265 264 333
3 265 333 334
3 333 327 326
3 333 326 334
3 326 325 332
3 326 332 334
3 332 267 265
3 332 265 334
3 209 208 335
3 209 335 336
3 335 337 338
3 335 338 336
3 338 339 340
3 338 340 336
3 340 211 209
3 340 209 336
3 341 10 9
3 341 9 342
3 9 4 343
3 9 343 342
3 343 339 338
3 343 338 342
3 338 337 341
3 338 341 342
3 2 1 344
3 2 344 345
3 344 346 347
3 344 347 345
3 347 339 343
3 347 343 345
3 343 4 2
3 343 2 345
3 348 183 213
3 348 213 349
3 213 211 340
3 213 340 349
3 340 339 347
3 340 347 349
3 347 346 348
3 347 348 349
3 184 183 348
3 184 348 350
3 348 346 351
3 348 351 350
3 351 352 353
3 351 353 350
3 353 186 184
3 353 184 350
3 344 1 0
3 344 0 354
3 0 8 355
3 0 355 354
3 355 352 351
3 355 351 354
3 351 346 344
3 351 344 354
3 23 22 356
3 23 356 357
3 356 358 359
3 356 359 357
3 359 352 355
3 359 355 357
3 355 8 23
3 355 23 357
3 360 189 188
3 360 188 361
3 188 186 353
3 188 353 361
3 353 352 359
3 353 359 361
3 359 358 360
3 359 360 361
3 249 248 362
3 249 362 363
3 362 364 365
3 362 365 363
3 365 366 367
3 365 367 363
3 367 251 249
3 367 249 363
3 368 369 370
3 368 370 371
3 370 372 373
3 370 373 371
3 373 366 365
3 373 365 371
3 365 364 368
3 365 368 371
3 374 375 376
3 374 376 377
3 376 378 379
3 376 379 377
3 379 366 373
3 379 373 377
3 373 372 374
3 373 374 377
3 380 254 253
3 380 253 381
3 253 251 367
3 253 367 381
3 367 366 379
3 367 379 381
3 379 378 380
3 379 380 381
3 229 228 382
3 229 382 383
3 382 384 385
3 382 385 383
3 385 386 387
3 385 387 383
3 387 231 229
3 387 229 383
3 388 16 15
3 388 15 389
3 15 13 390
3 15 390 389
3 390 386 385
3 390 385 389
3 385 384 388
3 385 388 389
3 11 10 341
3 11 341 391
3 341 337 392
3 341 392 391
3 392 386 390
3 392 390 391
3 390 13 11
3 390 11 391
3 335 208 233
3 335 233 393
3 233 231 387
3 233 387 393
3 387 386 392
3 387 392 393
3 392 337 335
3 392 335 393
3 129 128 394
3 129 394 395
3 394 396 397
3 394 397 395
3 397 398 399
3 397 399 395
3 399 131 129
3 399 129 395
3 400 401 402
3 400 402 403
3 402 404 405
3 402 405 403
3 405 398 397
3 405 397 403
3 397 396 400
3 397 400 403
3 406 407 408
3 406 408 409
3 408 410 411
3 408 411 409
3 411 398 405
3 411 405 409
3 405 404 406
3 405 406 409
3 412 108 133
3 412 133 413
3 133 131 399
3 133 399 413
3 399 398 411
3 399 411 413
3 411 410 412
3 411 412 413
3 109 108 412
3 109 412 414
3 412 410 415
3 412 415 414
3 415 416 417
3 415 417 414
3 417 111 109
3 417 109 414
3 408 407 418
3 408 418 419
3 418 420 421
3 418 421 419
3 421 416 415
3 421 415 419
3 415 410 408
3 415 408 419
3 422 423 424
3 422 424 425
3 424 426 427
3 424 427 425
3 427 416 421
3 427 421 425
3 421 420 422
3 421 422 425
3 428 114 113
3 428 113 429
3 113 111 417
3 113 417 429
3 417 416 427
3 417 427 429
3 427 426 428
3 427 428 429
3 161 160 430
3 161 430 431
3 430 432 433
3 430 433 431
3 433 434 435
3 433 435 431
3 435 163 161
3 435 161 431
3 436 437 438
3 436 438 439
3 438 440 441
3 438 441 439
3 441 434 433
3 441 433 439
3 433 432 436
3 433 436 439
3 442 443 444
3 442 444 445
3 444 446 447
3 444 447 445
3 447 434 441
3 447 441 445
3 441 440 442
3 441 442 445
3 448 166 165
3 448 165 449
3 165 163 435
3 165 435 449
3 435 434 447
3 435 447 449
3 447 446 448
3 447 448 449
3 145 144 450
3 145 450 451
3 450 452 453
3 450 453 451
3 453 454 455
3 453 455 451
3 455 147 145
3 455 145 451
3 456 457 458
3 456 458 459
3 458 460 461
3 458 461 459
3 461 454 453
3 461 453 459
3 453 452 456
3 453 456 459
3 462 401 400
3 462 400 463
3 400 396 464
3 400 464 463
3 464 454 461
3 464 461 463
3 461 460 462
3 461 462 463
3 394 128 149
3 394 149 465
3 149 147 455
3 149 455 465
3 455 454 464
3 455 464 465
3 464 396 394
3 464 394 465
3 402 401 466
3 402 466 467
3 466 468 469
3 466 469 467
3 469 470 471
3 469 471 467
3 471 404 402
3 471 402 467
3 472 264 263
3 472 263 473
3 263 271 474
3 263 474 473
3 474 470 469
3 474 469 473
3 469 468 472
3 469 472 473
3 281 280 475
3 281 475 476
3 475 477 478
3 475 478 476
3 478 470 474
3 478 474 476
3 474 271 281
3 474 281 476
3 479 407 406
3 479 406 480
3 406 404 471
3 406 471 480
3 471 470 478
3 471 478 480
3 478 477 479
3 478 479 480
3 418 407 479
3 418 479 481
3 479 477 482
3 479 482 481
3 482 483 484
3 482 484 481
3 484 420 418
3 484 418 481
3 475 280 283
3 475 283 485
3 283 288 486
3 283 486 485
3 486 483 482
3 486 482 485
3 482 477 475
3 482 475 485
3 297 296 487
3 297 487 488
3 487 489 490
3 487 490 488
3 490 483 486
3 490 486 488
3 486 288 297
3 486 297 488
3 491 423 422
3 491 422 492
3 422 420 484
3 422 484 492
3 484 483 490
3 484 490 492
3 490 489 491
3 490 491 492
3 438 437 493
3 438 493 494
3 493 495 496
3 493 496 494
3 496 497 498
3 496 498 494
3 498 440 438
3 498 438 494
3 499 300 299
3 499 299 500
3 299 307 501
3 299 501 500
3 501 497 496
3 501 496 500
3 496 495 499
3 496 499 500
3 317 316 502
3 317 502 503
3 502 504 505
3 502 505 503
3 505 497 501
3 505 501 503
3 501 307 317
3 501 317 503
3 506 443 442
3 506 442 507
3 442 440 498
3 442 498 507
3 498 497 505
3 498 505 507
3 505 504 506
3 505 506 507
3 458 457 508
3 458 508 509
3 508 510 511
3 508 511 509
3 511 512 513
3 511 513 509
3 513 460 458
3 513 458 509
3 514 320 319
3 514 319 515
3 319 327 516
3 319 516 515
3 516 512 511
3 516 511 515
3 511 510 514
3 511 514 515
3 333 264 472
3 333 472 517
3 472 468 518
3 472 518 517
3 518 512 516
3 518 516 517
3 516 327 333
3 516 333 517
3 466 401 462
3 466 462 519
3 462 460 513
3 462 513 519
3 513 512 518
3 513 518 519
3 518 468 466
3 518 466 519
3 98 97 520
3 521 522 523
3 521 523 524
3 523 525 526
3 523 526 524
3 526 527 528
3 526 528 524
3 528 529 521
3 528 521 524
3 520 97 171
3 520 171 530
3 171 169 531
3 171 531 530
3 531 527 526
3 531 526 530
3 526 525 520
3 526 520 530
3 167 166 532
3 167 532 533
3 532 534 535
3 532 535 533
3 535 527 531
3 535 531 533
3 531 169 167
3 531 167 533
3 536 537 538
3 536 538 539
3 538 529 528
3 538 528 539
3 528 527 535
3 528 535 539
3 535 534 536
3 535 536 539
3 540 537 536
3 540 536 541
3 536 534 542
3 536 542 541
3 542 543 544
3 542 544 541
3 544 545 540
3 544 540 541
3 532 166 448
3 532 448 546
3 448 446 547
3 448 547 546
3 547 543 542
3 547 542 546
3 542 534 532
3 542 532 546
3 444 443 548
3 444 548 549
3 548 550 551
3 548 551 549
3 551 543 547
3 551 547 549
3 547 446 444
3 547 444 549
3 552 553 554
3 552 554 555
3 554 545 544
3 554 544 555
3 544 543 551
3 544 551 555
3 551 550 552
3 551 552 555
3 556 553 552
3 556 552 557
3 552 550 558
3 552 558 557
3 558 559 560
3 558 560 557
3 560 561 556
3 560 556 557
3 548 443 506
3 548 506 562
3 506 504 563
3 506 563 562
3 563 559 558
3 563 558 562
3 558 550 548
3 558 548 562
3 502 316 564
3 502 564 565
3 564 566 567
3 564 567 565
3 567 559 563
3 567 563 565
3 563 504 502
3 563 502 565
3 568 569 570
3 568 570 571
3 570 561 560
3 570 560 571
3 560 559 567
3 560 567 571
3 567 566 568
3 567 568 571
3 572 569 568
3 572 568 573
3 568 566 574
3 568 574 573
3 574 575 576
3 574 576 573
3 576 577 572
3 576 572 573
3 564 316 315
3 564 315 578
3 315 313 579
3 315 579 578
3 579 575 574
3 579 574 578
3 574 566 564
3 574 564 578
3 311 260 580
3 311 580 581
3 580 582 583
3 580 583 581
3 583 575 579
3 583 579 581
3 579 313 311
3 579 311 581
3 584 585 586
3 584 586 587
3 586 577 576
3 586 576 587
3 576 575 583
3 576 583 587
3 583 582 584
3 583 584 587
3 588 585 584
3 588 584 589
3 584 582 590
3 584 590 589
3 590 591 592
3 590 592 589
3 592 593 588
3 592 588 589
3 580 260 259
3 580 259 594
3 259 257 595
3 259 595 594
3 595 591 590
3 595 590 594
3 590 582 580
3 590 580 594
3 255 254 596
3 255 596 597
3 596 598 599
3 596 599 597
3 599 591 595
3 599 595 597
3 595 257 255
3 595 255 597
3 600 601 602
3 600 602 603
3 602 593 592
3 602 592 603
3 592 591 599
3 592 599 603
3 599 598 600
3 599 600 603
3 604 601 600
3 604 600 605
3 600 598 606
3 600 606 605
3 606 607 608
3 606 608 605
3 608 609 604
3 608 604 605
3 596 254 380
3 596 380 610
3 380 378 611
3 380 611 610
3 611 607 606
3 611 606 610
3 606 598 596
3 606 596 610
3 376 375 612
3 376 612 613
3 612 614 615
3 612 615 613
3 615 607 611
3 615 611 613
3 611 378 376
3 611 376 613
3 616 617 618
3 616 618 619
3 618 609 608
3 618 608 619
3 608 607 615
3 608 615 619
3 615 614 616
3 615 616 619
3 620 621 622
3 620 622 623
3 622 624 625
3 622 625 623
3 625 626 627
3 625 627 623
3 627 628 620
3 627 620 623
3 629 617 616
3 629 616 630
3 616 614 631
3 616 631 630
3 631 626 625
3 631 625 630
3 625 624 629
3 625 629 630
3 612 375 374
3 612 374 632
3 374 372 633
3 374 633 632
3 633 626 631
3 633 631 632
3 631 614 612
3 631 612 632
3 370 369 634
3 370 634 635
3 634 628 627
3 634 627 635
3 627 626 633
3 627 633 635
3 633 372 370
3 633 370 635
3 636 637 638
3 636 638 639
3 638 640 641
3 638 641 639
3 641 642 643
3 641 643 639
3 643 644 636
3 643 636 639
3 645 621 620
3 645 620 646
3 620 628 647
3 620 647 646
3 647 642 641
3 647 641 646
3 641 640 645
3 641 645 646
3 634 369 368
3 634 368 648
3 368 364 649
3 368 649 648
3 649 642 647
3 649 647 648
3 647 628 634
3 647 634 648
3 362 248 650
3 362 650 651
3 650 644 643
3 650 643 651
3 643 642 649
3 643 649 651
3 649 364 362
3 649 362 651
3 652 653 654
3 652 654 655
3 654 656 657
3 654 657 655
3 657 658 659
3 657 659 655
3 659 660 652
3 659 652 655
3 661 637 636
3 661 636 662
3 636 644 663
3 636 663 662
3 663 658 657
3 663 657 662
3 657 656 661
3 657 661 662
3 650 248 247
3 650 247 664
3 247 242 665
3 247 665 664
3 665 658 663
3 665 663 664
3 663 644 650
3 663 650 664
3 240 239 666
3 240 666 667
3 666 660 659
3 666 659 667
3 659 658 665
3 659 665 667
3 665 242 240
3 665 240 667
3 668 669 670
3 668 670 671
3 670 672 673
3 670 673 671
3 673 674 675
3 673 675 671
3 675 676 668
3 675 668 671
3 677 653 652
3 677 652 678
3 652 660 679
3 652 679 678
3 679 674 673
3 679 673 678
3 673 672 677
3 673 677 678
3 666 239 308
3 666 308 680
3 308 303 681
3 308 681 680
3 681 674 679
3 681 679 680
3 679 660 666
3 679 666 680
3 301 300 682
3 301 682 683
3 682 676 675
3 682 675 683
3 675 674 681
3 675 681 683
3 681 303 301
3 681 301 683
3 684 685 686
3 684 686 687
3 686 688 689
3 686 689 687
3 689 690 691
3 689 691 687
3 691 692 684
3 691 684 687
3 693 669 668
3 693 668 694
3 668 676 695
3 668 695 694
3 695 690 689
3 695 689 694
3 689 688 693
3 689 693 694
3 682 300 499
3 682 499 696
3 499 495 697
3 499 697 696
3 697 690 695
3 697 695 696
3 695 676 682
3 695 682 696
3 493 437 698
3 493 698 699
3 698 692 691
3 698 691 699
3 691 690 697
3 691 697 699
3 697 495 493
3 697 493 699
3 700 701 702
3 700 702 703
3 702 704 705
3 702 705 703
3 705 706 707
3 705 707 703
3 707 708 700
3 707 700 703
3 709 685 684
3 709 684 710
3 684 692 711
3 684 711 710
3 711 706 705
3 711 705 710
3 705 704 709
3 705 709 710
3 698 437 436
3 698 436 712
3 436 432 713
3 436 713 712
3 713 706 711
3 713 711 712
3 711 692 698
3 711 698 712
3 430 160 714
3 430 714 715
3 714 708 707
3 714 707 715
3 707 706 713
3 707 713 715
3 713 432 430
3 713 430 715
3 716 717 718
3 716 718 719
3 718 720 721
3 718 721 719
3 721 722 723
3 721 723 719
3 723 724 716
3 723 716 719
3 725 701 700
3 725 700 726
3 700 708 727
3 700 727 726
3 727 722 721
3 727 721 726
3 721 720 725
3 721 725 726
3 714 160 159
3 714 159 728
3 159 155 729
3 159 729 728
3 729 722 727
3 729 727 728
3 727 708 714
3 727 714 728
3 153 91 730
3 153 730 731
3 730 724 723
3 730 723 731
3 723 722 729
3 723 729 731
3 729 155 153
3 729 153 731
3 732 733 734
3 732 734 735
3 734 736 737
3 734 737 735
3 738 717 716
3 738 716 739
3 716 724 740
3 716 740 739
3 740 736 734
3 740 734 739
3 734 733 738
3 734 738 739
3 730 91 90
3 730 90 741
3 90 85 742
3 90 742 741
3 742 736 740
3 742 740 741
3 740 724 730
3 740 730 741
3 737 736 742
3 737 742 743
3 742 85 84
3 742 84 743
3 744 68 66
3 745 746 747
3 748 74 73
3 748 73 749
3 73 68 744
3 73 744 749
3 744 747 749
3 747 746 748
3 747 748 749
3 137 74 748
3 137 748 750
3 748 746 751
3 748 751 750
3 751 752 753
3 751 753 750
3 753 139 137
3 753 137 750
3 745 522 521
3 745 521 754
3 521 529 755
3 521 755 754
3 755 752 751
3 755 751 754
3 751 746 745
3 751 745 754
3 538 537 756
3 538 756 757
3 756 758 759
3 756 759 757
3 759 752 755
3 759 755 757
3 755 529 538
3 755 538 757
3 760 144 143
3 760 143 761
3 143 139 753
3 143 753 761
3 753 752 759
3 753 759 761
3 759 758 760
3 759 760 761
3 450 144 760
3 450 760 762
3 760 758 763
3 760 763 762
3 763 764 765
3 763 765 762
3 765 452 450
3 765 450 762
3 756 537 540
3 756 540 766
3 540 545 767
3 540 767 766
3 767 764 763
3 767 763 766
3 763 758 756
3 763 756 766
3 554 553 768
3 554 768 769
3 768 770 771
3 768 771 769
3 771 764 767
3 771 767 769
3 767 545 554
3 767 554 769
3 772 457 456
3 772 456 773
3 456 452 765
3 456 765 773
3 765 764 771
3 765 771 773
3 771 770 772
3 771 772 773
3 508 457 772
3 508 772 774
3 772 770 775
3 772 775 774
3 775 776 777
3 775 777 774
3 777 510 508
3 777 508 774
3 768 553 556
3 768 556 778
3 556 561 779
3 556 779 778
3 779 776 775
3 779 775 778
3 775 770 768
3 775 768 778
3 570 569 780
3 570 780 781
3 780 782 783
3 780 783 781
3 783 776 779
3 783 779 781
3 779 561 570
3 779 570 781
3 784 320 514
3 784 514 785
3 514 510 777
3 514 777 785
3 777 776 783
3 777 783 785
3 783 782 784
3 783 784 785
3 321 320 784
3 321 784 786
3 784 782 787
3 784 787 786
3 787 788 789
3 787 789 786
3 789 323 321
3 789 321 786
3 780 569 572
3 780 572 790
3 572 577 791
3 572 791 790
3 791 788 787
3 791 787 790
3 787 782 780
3 787 780 790
3 586 585 792
3 586 792 793
3 792 794 795
3 792 795 793
3 795 788 791
3 795 791 793
3 791 577 586
3 791 586 793
3 796 219 328
3 796 328 797
3 328 323 789
3 328 789 797
3 789 788 795
3 789 795 797
3 795 794 796
3 795 796 797
3 220 219 796
3 220 796 798
3 796 794 799
3 796 799 798
3 799 800 801
3 799 801 798
3 801 222 220
3 801 220 798
3 792 585 588
3 792 588 802
3 588 593 803
3 588 803 802
3 803 800 799
3 803 799 802
3 799 794 792
3 799 792 802
3 602 601 804
3 602 804 805
3 804 806 807
3 804 807 805
3 807 800 803
3 807 803 805
3 803 593 602
3 803 602 805
3 808 228 227
3 808 227 809
3 227 222 801
3 227 801 809
3 801 800 807
3 801 807 809
3 807 806 808
3 807 808 809
3 382 228 808
3 382 808 810
3 808 806 811
3 808 811 810
3 811 812 813
3 811 813 810
3 813 384 382
3 813 382 810
3 804 601 604
3 804 604 814
3 604 609 815
3 604 815 814
3 815 812 811
3 815 811 814
3 811 806 804
3 811 804 814
3 618 617 816
3 618 816 817
3 816 818 819
3 816 819 817
3 819 812 815
3 819 815 817
3 815 609 618
3 815 618 817
3 820 16 388
3 820 388 821
3 388 384 813
3 388 813 821
3 813 812 819
3 813 819 821
3 819 818 820
3 819 820 821
3 822 22 21
3 822 21 823
3 21 19 824
3 21 824 823
3 824 825 826
3 824 826 823
3 826 827 822
3 826 822 823
3 17 16 820
3 17 820 828
3 820 818 829
3 820 829 828
3 829 825 824
3 829 824 828
3 824 19 17
3 824 17 828
3 816 617 629
3 816 629 830
3 629 624 831
3 629 831 830
3 831 825 829
3 831 829 830
3 829 818 816
3 829 816 830
3 622 621 832
3 622 832 833
3 832 827 826
3 832 826 833
3 826 825 831
3 826 831 833
3 831 624 622
3 831 622 833
3 834 189 360
3 834 360 835
3 360 358 836
3 360 836 835
3 836 837 838
3 836 838 835
3 838 839 834
3 838 834 835
3 356 22 822
3 356 822 840
3 822 827 841
3 822 841 840
3 841 837 836
3 841 836 840
3 836 358 356
3 836 356 840
3 832 621 645
3 832 645 842
3 645 640 843
3 645 843 842
3 843 837 841
3 843 841 842
3 841 827 832
3 841 832 842
3 638 637 844
3 638 844 845
3 844 839 838
3 844 838 845
3 838 837 843
3 838 843 845
3 843 640 638
3 843 638 845
3 846 195 194
3 846 194 847
3 194 192 848
3 194 848 847
3 848 849 850
3 848 850 847
3 850 851 846
3 850 846 847
3 190 189 834
3 190 834 852
3 834 839 853
3 834 853 852
3 853 849 848
3 853 848 852
3 848 192 190
3 848 190 852
3 844 637 661
3 844 661 854
3 661 656 855
3 661 855 854
3 855 849 853
3 855 853 854
3 853 839 844
3 853 844 854
3 654 653 856
3 654 856 857
3 856 851 850
3 856 850 857
3 850 849 855
3 850 855 857
3 855 656 654
3 855 654 857
3 858 296 295
3 858 295 859
3 295 293 860
3 295 860 859
3 860 861 862
3 860 862 859
3 862 863 858
3 862 858 859
3 291 195 846
3 291 846 864
3 846 851 865
3 846 865 864
3 865 861 860
3 865 860 864
3 860 293 291
3 860 291 864
3 856 653 677
3 856 677 866
3 677 672 867
3 677 867 866
3 867 861 865
3 867 865 866
3 865 851 856
3 865 856 866
3 670 669 868
3 670 868 869
3 868 863 862
3 868 862 869
3 862 861 867
3 862 867 869
3 867 672 670
3 867 670 869
3 870 423 491
3 870 491 871
3 491 489 872
3 491 872 871
3 872 873 874
3 872 874 871
3 874 875 870
3 874 870 871
3 487 296 858
3 487 858 876
3 858 863 877
3 858 877 876
3 877 873 872
3 877 872 876
3 872 489 487
3 872 487 876
3 868 669 693
3 868 693 878
3 693 688 879
3 693 879 878
3 879 873 877
3 879 877 878
3 877 863 868
3 877 868 878
3 686 685 880
3 686 880 881
3 880 875 874
3 880 874 881
3 874 873 879
3 874 879 881
3 879 688 686
3 879 686 881
3 882 114 428
3 882 428 883
3 428 426 884
3 428 884 883
3 884 885 886
3 884 886 883
3 886 887 882
3 886 882 883
3 424 423 870
3 424 870 888
3 870 875 889
3 870 889 888
3 889 885 884
3 889 884 888
3 884 426 424
3 884 424 888
3 880 685 709
3 880 709 890
3 709 704 891
3 709 891 890
3 891 885 889
3 891 889 890
3 889 875 880
3 889 880 890
3 702 701 892
3 702 892 893
3 892 887 886
3 892 886 893
3 886 885 891
3 886 891 893
3 891 704 702
3 891 702 893
3 894 38 119
3 894 119 895
3 119 117 896
3 119 896 895
3 896 897 898
3 896 898 895
3 898 899 894
3 898 894 895
3 115 114 882
3 115 882 900
3 882 887 901
3 882 901 900
3 901 897 896
3 901 896 900
3 896 117 115
3 896 115 900
3 892 701 725
3 892 725 902
3 725 720 903
3 725 903 902
3 903 897 901
3 903 901 902
3 901 887 892
3 901 892 902
3 718 717 904
3 718 904 905
3 904 899 898
3 904 898 905
3 898 897 903
3 898 903 905
3 903 720 718
3 903 718 905
3 44 41 906
3 44 906 907
3 906 908 909
3 906 909 907
3 39 38 894
3 39 894 910
3 894 899 911
3 894 911 910
3 911 908 906
3 911 906 910
3 906 41 39
3 906 39 910
3 904 717 738
3 904 738 912
3 738 733 913
3 738 913 912
3 913 908 911
3 913 911 912
3 911 899 904
3 911 904 912
3 909 908 913
3 909 913 914
3 913 733 732
3 913 732 914
