0.438722
0.374281
0.274256
0.297825
0.263375
0.228753
0.236958
0.23934
0.316544
0.178342
0.290092
0.240248
0.432103
0.326375
0.298735
0.0559962
0.0575928
0.277641
0.294998
0.0364769
0.175136
0.0707068
0.0217789
0.0406815
0.0766318
0.159313
0.343323
0.312924
0.266316
0.20253
0
0.070938
0.204
0.274886
0.42191
0.39908
0.429868
0.368685
1
0.329829
0.358481
0.367828
0.501006
0.397004
0.279647
0.459691
0.413528
0.427487
0.405477
0.273833
0.510346
0.474324
0.470454
0.505776
0.368263
0.425532
0.395062
0.429035
0.354716
0.266006
0.462132
0.380413
0.257044
0.447826
0.393086
0.504615
0.474663
0.436999
0.246119
0.38471
0.311563
0.449718
0.271857
0.32284
0.176865
0.478341
0.432352
0.393388
0.29603
0.447298
0.440476
0.480905
0.464442
0.446994
0.527041
0.385503
0.341794
0.409469
0.495381
0.421415
0.320357
0.627836
0.485444
0.441984
0.576034
0.470914
0.348625
0.347397
0.395342
0.354126
0.387282
0.435348
0.331397
0.248592
0.324193
0.404749
0.38653
0.422677
0.326531
0.184625
0.290926
0.502556
0.367945
0.413322
0.504487
0.453195
0.331675
0.542137
0.429742
0.161094
0.401258
0.418853
0.415303
0.444231
0.361391
0.22366
0.247847
0.197272
0.502577
0.458234
0.394477
0.430558
0.46523
0.368853
0.561635
0.441333
0.310797
0.552873
0.467812
0.341729
0.463608
0.418199
0.337481
0.324779
0.409809
0.539091
0.604109
0.401933
0.266502
0.410555
0.410731
0.542421
0.385817
0.340818
0.33329
0.295542
0.405942
0.308489
0.296719
0.290236
0.38993
0.28642
0.264864
0.34143
0.289088
0.296771
0.286328
0.30906
0.174007
0.401419
0.38097
0.377199
0.425742
0.337546
0.373606
0.669367
0.440428
0.312724
0.308855
0.305191
0.332754
0.355106
0.447726
0.31272
0.155126
0.257574
0.379349
0.236746
0.118958
0.321641
0.426733
0.463964
0.250638
0.253592
0.24206
0.438325
0.288879
0.539778
0.306783
0.339393
0.323005
0.371299
0.426219
0.414912
0.37203
0.321568
0.251701
0.43625
0.257362
0.204315
0.263736
0.114048
0.387525
0.309724
0.293845
0.395763
0.352307
0.324565
0.386237
0.17031
0.281342
0.275968
0.264612
0.279592
0.404426
0.249395
0.585636
0.428381
0.297558
0.309586
0.287073
0.46941
0.345354
0.351744
0.325758
0.307254
0.157382
0.354514
0.295708
0.211782
0.268516
0.377086
0.359343
0.444462
0.335521
0.298012
0.343409
0.220905
0.339911
0.340573
0.307751
0.409951
0.377955
0.305336
0.340249
0.385447
0.369013
0.372552
0.415934
0.389943
0.375022
0.407699
0.404146
0.352842
0.251216
0.247524
0.369467
0.300308
0.314929
0.439352
0.364049
0.370052
0.296503
0.144869
0.0951406
0.138985
0.0805177
0.413531
0.435353
0.113475
0.0718961
0.082378
0.488245
0.0652835
0.529531
0.091184
0.259332
0.125227
0.423479
0.0943112
0.155937
0.0748379
0.335641
0.052317
0.0710311
0.085889
0.12459
0.0673445
0.0793062
0.0797451
0.0707888
0.130107
0.0743204
0.0678202
0.0775035
0.0673912
0.247126
0.120656
0.455691
0.126631
0.262558
0.185011
0.11252
0.462425
0.230425
0.125165
0.162594
0.0806862
0.0936817
0.135252
0.078931
0.222509
0.120576
0.184375
0.35437
0.0978625
0.082629
0.0948865
0.079016
0.0985809
0.0831247
0.0730046
0.0918125
0.112592
0.0949537
0.0584421
0.0650198
0.0830628
0.0441839
0.068647
0.0874367
0.0543293
0.0930828
