0.176685
0.167916
0.132967
0.165195
0.0336981
0.0994143
0.174991
0.156453
0.201367
0.167676
0.122527
0.115943
0.006769
0.075198
0.167887
0.153489
0.20396
0.183807
0.167575
0.0911116
0
0.059192
0.13017
0.111586
0.179887
0.170663
0.171137
0.154412
0.0342289
0.10421
0.131806
0.156808
0.281928
0.352914
0.412034
0.459017
0.388906
0.443946
0.376092
0.413721
0.504238
0.289002
0.33724
0.384104
0.313979
0.540176
0.337216
0.384096
0.504227
0.471403
0.390079
0.458226
0.412036
0.459016
0.281957
0.352926
0.375611
0.420173
0.451603
0.481264
0.365448
0.402445
0.432285
0.424938
0.458049
0.443397
0.299449
0.452249
0.38562
0.475485
0.355647
0.481856
0.432198
0.445466
0.415533
0.436496
0.456728
0.494247
0.303441
0.355784
0.321649
0.487679
0.350122
0.441283
0.381591
0.327642
0.450053
0.387855
0.500451
0.54509
0.340494
0.273625
0.375469
0.338792
0.340494
0.274573
0.500447
0.545062
0.219903
0.328628
0.350125
0.441283
0.321651
0.341662
0.30343
0.355765
0.46181
0.494245
0.386077
0.475485
0.415541
0.454124
0.432195
0.445467
0.371637
0.432327
0.365449
0.402427
0.41753
0.385245
0.442345
0.443874
0.43229
0.425482
0.451607
0.481258
0.375609
0.420176
0.367005
0.421303
0.355577
0.370343
0.524863
0.38551
0.372525
0.395938
0.367685
0.410097
0.34524
0.376504
0.394006
0.375176
0.3554
0.348744
0.407022
0.316779
0.323339
0.410236
0.371434
0.385541
0.383639
0.377949
0.368136
0.443495
0.387596
0.406355
0.410423
0.452329
0.4325
0.399026
0.4064
0.380254
0.241664
0.438321
0.41768
0.414406
0.351999
0.37081
0.403333
0.424689
0.369619
0.400758
0.400689
0.442443
0.407715
0.414702
0.359912
0.417397
0.412994
0.422302
0.397892
0.412058
0.408989
0.413135
0.324085
0.43265
0.356178
0.438403
0.250938
0.374175
0.441727
0.461681
0.479064
0.410573
0.342632
0.379994
0.337326
0.33398
0.406083
0.447716
0.400766
0.380711
0.373049
0.405946
0.390456
0.356869
0.389498
0.389845
0.395265
0.399337
0.414672
0.338538
0.412413
0.389398
0.398792
0.365162
0.400447
0.397359
0.424046
0.466158
0.427565
0.355485
0.437105
0.391661
0.303316
0.444586
0.434934
0.448697
0.510945
0.35136
0.383625
0.42089
0.434017
0.395193
0.402826
0.422704
0.419304
0.430418
0.342778
0.406628
0.376402
0.437823
0.368902
0.409962
0.41836
0.398673
0.385932
0.40899
0.399978
0.400403
0.352818
0.370732
0.430256
0.419834
0.385368
0.398699
0.263958
0.385473
0.335748
0.285606
0.310729
0.310349
0.299883
0.316559
0.334917
0.337678
0.348033
0.347481
0.331981
0.336679
0.32854
0.349809
0.381105
0.330936
0.331707
0.314314
0.317009
0.300042
0.350736
0.326902
0.420262
0.321461
0.259626
0.320815
0.36949
0.370018
0.371637
0.393869
0.333704
0.219474
0.347633
0.364725
0.33149
0.365937
0.333216
0.361555
0.326137
0.329058
0.364018
0.435774
0.37491
0.263819
0.343514
0.295988
0.403417
0.364695
0.375258
0.368708
0.276466
0.342172
0.362562
0.398143
0.329463
0.372705
0.347168
0.310237
0.351048
0.355672
0.368537
0.31996
0.325587
0.358787
0.336874
0.365356
0.312873
0.322435
0.376296
0.278451
0.335297
0.243411
0.329705
0.357667
0.331264
0.254944
0.331029
0.302708
0.278122
0.387785
0.322321
0.301966
0.307223
0.294118
0.296898
0.3874
0.335066
0.353548
0.274605
0.312826
0.313815
0.322918
0.315409
0.331783
0.410769
0.383827
0.375147
0.310925
0.342234
0.372976
0.402305
0.286327
0.326285
0.344725
0.379011
0.367264
0.382405
0.351424
0.339241
0.323113
0.376857
0.357261
0.370702
0.379148
0.366631
0.330154
0.379404
0.356379
0.377422
0.355592
0.323637
0.308415
0.359032
0.388975
0.371913
0.398861
0.338115
0.483415
0.300759
0.280922
0.289749
0.293246
0.32114
0.722036
0.324334
0.211639
0.217644
0.242544
0.288087
0.945295
0.27315
0.247737
0.254945
0.226651
0.25377
0.308762
0.292523
0.71004
0.17405
0.236478
0.358852
1
0.316944
0.394849
0.391736
0.319046
0.345355
0.344146
0.43522
0.359202
0.315649
0.317198
0.309855
0.359686
0.341799
0.540838
0.258442
0.2751
0.243916
0.294045
0.357082
0.377875
0.289613
0.304364
0.282197
0.258203
0.303262
0.36489
0.346502
0.291413
0.193101
0.299527
0.3764
0.489251
0.38615
0.409468
0.292964
0.346244
0.401473
0.361481
0.295795
0.36842
0.308204
0.304363
0.303979
0.240833
0.26895
0.357527
0.249841
0.204853
0.199248
0.202508
0.282822
0.251047
0.271533
0.273407
0.223744
0.257726
0.341057
0.285016
0.271279
0.284755
0.153233
0.209092
0.32937
0.337341
0.404154
0.308448
0.306815
0.32314
0.318024
0.291502
0.328351
0.743622
0.406685
0.360257
0.246521
0.334993
0.371727
0.352891
0.259124
0.219901
0.173879
0.295621
0.318886
0.300314
0.289756
0.368522
0.251371
0.27596
0.421538
0.294159
0.377031
0.316146
0.237181
0.239763
0.369665
0.388666
0.367708
0.414557
0.30547
0.359855
0.333366
0.291627
0.485454
0.363128
0.502688
0.475012
0.490824
0.328063
0.122762
0.364758
0.315633
0.393247
0.434803
0.441947
0.392483
0.300619
0.462706
0.414951
0.336008
0.41013
0.462812
0.353544
0.419736
0.39477
0.416911
0.439548
0.48546
0.360333
0.306491
0.399182
0.487604
0.322967
0.479505
0.475552
0.451778
0.403686
0.459435
0.419417
0.434309
0.439311
0.433659
0.452496
0.402362
0.350042
0.395508
0.424402
0.429238
0.438651
0.439143
0.446353
0.42525
0.417958
0.460186
0.463983
0.441028
0.429354
0.373449
0.44572
0.421147
0.422749
0.428298
0.462528
0.441913
0.445504
0.403445
0.439424
0.411741
0.384379
0.495565
0.433027
0.365785
0.335112
0.341757
0.437815
0.407227
0.428976
0.501529
0.469849
0.454876
0.333502
0.331954
0.378106
0.397492
0.434809
0.349052
0.356577
0.456397
0.333432
0.446331
0.412167
0.413936
0.384336
0.341752
0.453341
0.365991
0.335007
0.493065
0.475389
0.421841
0.436141
0.403706
0.438381
0.437988
0.454737
0.442621
0.465622
0.424803
0.417757
0.418906
0.433633
0.44093
0.429787
0.460712
0.441879
0.38981
0.34807
0.329636
0.452452
0.429745
0.440792
0.430471
0.425307
0.440685
0.37932
0.436606
0.452388
0.434209
0.438308
0.409433
0.419359
