OFF
654 1290 0
6.1906 -13.869 8.23633
5.9976 -13.8028 9.75473
5.4986 -14.3636 9.74303
5.1296 -14.9491 8.36453
4.7886 -14.9599 11.0923
4.7236 -15.5106 6.99093
5.9056 -14.3635 6.83603
4.3876 -15.5439 9.97093
3.8526 -16.0882 10.1985
4.0706 -16.0211 8.59044
4.3526 -15.9684 5.72013
4.9606 -15.4667 4.56513
5.4756 -14.9193 5.55693
6.6046 -13.8687 5.49473
6.2276 -14.3197 4.46703
-1.3024 -2.15875 3.49113
-1.1534 -2.79225 3.50243
-0.965404 -2.05665 3.21053
-0.568404 -2.68555 2.84633
-0.692404 -2.02645 2.83283
-0.784404 -2.83855 3.23623
-0.418404 -2.83055 2.00673
-0.548404 -2.08435 2.38953
-0.384404 -2.86435 2.42033
-0.532404 -2.20665 1.97173
-2.4194 -3.06115 3.00183
-2.0074 -4.53385 3.17123
-1.9284 -4.08905 3.42883
-2.2684 -2.84685 3.30673
-2.0094 -2.61765 3.48893
-1.6644 -2.34235 3.57213
-1.4654 -3.11055 3.61183
-1.7094 -3.13735 1.49703
-1.3414 -4.60485 1.65193
-1.8314 -4.02905 1.85803
-1.8804 -4.72745 2.34413
-2.2664 -3.27225 2.17603
-2.0144 -3.25195 1.78073
-2.1894 -4.04225 2.68853
-2.4074 -3.20435 2.59803
-0.703404 -2.42835 1.65933
-0.440404 -3.60775 1.73703
-0.629404 -4.21005 1.58273
-1.0004 -2.70795 1.45313
-1.0454 -4.17635 1.50663
-1.3414 -2.92935 1.39493
0.608596 -6.40775 3.73453
0.494596 -6.86475 4.11663
1.0666 -7.30095 3.97433
1.2636 -7.22585 3.54443
0.520596 -5.74395 3.20563
1.5546 -8.04855 3.97493
0.938596 -7.85815 4.53953
1.6546 -8.09615 3.53183
1.6196 -8.21455 3.13543
1.3056 -7.35155 2.67543
1.3586 -7.25115 3.09753
0.948596 -6.43935 2.89363
-0.545404 -7.99235 3.91613
-0.307404 -7.89685 4.24603
-0.568404 -7.38005 4.06473
0.0345956 -7.73875 4.42463
-0.227404 -7.22145 4.23893
-0.112404 -8.94735 4.47913
0.401596 -7.56915 4.44723
0.0575956 -6.89285 4.22303
-0.163404 -7.70355 2.24443
-0.132404 -8.53045 2.88363
-0.581404 -7.52845 2.49013
-0.573404 -7.98985 3.02703
-1.1324 -6.78255 2.71653
0.0615956 -9.41465 3.81543
0.145596 -8.39345 2.53553
-0.157404 -9.06605 4.08723
-0.570404 -8.13535 3.56003
-0.942404 -7.37865 3.31473
1.1096 -7.58035 2.42453
0.898596 -7.11455 2.28593
0.808596 -7.83145 2.28923
0.568596 -7.31905 2.11683
0.428596 -8.05015 2.28503
0.137596 -7.38585 2.06543
2.6956 -11.0545 6.18063
2.3566 -11.1411 6.49773
2.6316 -11.2822 6.96903
2.8796 -11.3679 7.41293
3.3236 -11.2172 6.88383
3.3296 -11.1291 5.93463
2.8036 -10.9693 5.60893
3.1826 -11.4432 8.01674
3.6136 -11.5273 8.93763
3.9966 -11.3006 7.63283
4.1466 -11.2809 6.39903
4.6526 -11.4763 5.41993
4.9586 -11.8866 4.47563
4.2766 -11.7132 4.65803
4.2296 -11.4065 5.37673
3.5746 -11.4775 4.73613
3.6386 -11.2684 5.31183
2.8576 -11.1525 4.68513
2.9176 -11.0316 5.11063
1.4816 -11.8073 6.60703
1.3116 -11.9296 6.29943
1.3276 -12.7014 7.22183
1.5656 -12.4525 7.67813
1.9196 -12.0105 7.67443
1.7506 -11.6143 6.79693
1.3076 -13.2991 8.11673
1.2736 -13.9058 9.13404
1.6606 -13.1743 9.33993
1.5966 -12.8495 8.47993
2.1736 -12.5547 9.35133
2.0626 -12.3122 8.53803
2.8046 -12.005 9.24333
2.6276 -11.8185 8.41793
2.3736 -11.658 7.64183
2.0606 -11.3658 6.74723
1.4796 -12.1029 5.00183
1.6956 -11.9106 4.58953
2.0326 -12.9507 4.71673
1.7256 -13.3718 5.36123
1.3326 -12.1573 5.45923
2.2456 -13.5561 4.66833
2.4376 -14.1614 4.51013
1.8416 -14.0749 5.47833
1.4696 -13.8693 6.46993
1.2666 -13.9473 7.75493
1.2866 -13.1039 6.84373
1.2736 -12.2261 6.03073
2.6876 -11.4003 4.41983
3.4016 -11.8767 4.36283
2.8976 -12.1857 4.25843
2.2996 -11.5146 4.32313
4.4586 -12.48 4.11003
3.9586 -12.1697 4.25623
3.8356 -13.0744 4.01123
3.4246 -12.691 4.13513
3.1566 -13.6486 4.12423
2.8236 -13.192 4.25843
2.5206 -12.6834 4.35323
2.0616 -11.9214 4.40003
6.0146 -10.2045 7.95643
5.7576 -10.245 8.94584
6.2706 -10.3848 9.05243
6.5326 -10.3457 8.03673
6.8406 -10.6039 9.16663
7.1066 -10.5668 8.11823
7.4256 -10.5849 6.98023
6.8646 -10.3759 6.96443
6.3636 -10.2458 6.93403
7.3936 -10.8508 9.27234
8.1276 -11.0422 8.24813
7.6636 -10.8162 8.19053
7.9696 -10.8239 7.00093
8.9116 -11.2132 5.84203
8.4356 -11.0337 4.89403
8.2326 -10.8843 5.85403
7.8876 -10.7885 5.01523
7.7146 -10.66 5.90173
7.3866 -10.6019 5.22613
6.8836 -10.5365 5.23743
6.7246 -10.3582 6.04683
7.1856 -10.47 5.99733
2.4766 -13.9483 12.9088
2.4476 -14.5095 13.0954
2.7466 -14.2423 13.3983
2.7406 -14.893 13.4369
3.0486 -14.567 13.7341
3.3976 -14.155 13.7598
3.0566 -13.8564 13.4234
2.7586 -13.5639 12.9145
3.0796 -15.2073 13.6499
3.6766 -15.6747 13.9043
3.9546 -15.3136 14.1825
3.3856 -14.8611 13.9463
4.2896 -14.8728 14.1854
3.7416 -14.4367 13.966
4.5846 -14.3832 13.9314
4.4506 -13.5809 13.2713
4.1096 -13.9911 13.7378
4.0846 -13.3139 13.0947
3.7606 -13.7217 13.5447
3.7086 -13.1029 12.8368
3.4286 -12.7533 12.149
3.1146 -13.215 12.7724
3.4046 -13.4712 13.2382
0.610596 -16.0789 6.27903
0.923596 -16.4544 5.47973
0.736596 -16.4992 6.30583
1.1496 -16.9259 5.31193
0.947596 -16.9779 6.30613
0.788596 -16.9784 7.51493
0.548596 -16.4469 7.36973
0.394596 -15.971 7.23533
1.4016 -17.4308 5.28503
1.4046 -17.8799 6.46003
1.1866 -17.4642 6.37273
1.0596 -17.4989 7.67643
1.2596 -17.9561 9.22693
0.966596 -17.5258 10.2607
0.985596 -17.5092 9.02743
0.646596 -16.991 9.98073
0.682596 -16.9719 8.79353
0.360596 -16.4381 9.70123
0.165596 -15.9402 9.45873
0.231596 -15.9177 8.35573
0.412596 -16.4171 8.55973
5.4506 -12.3739 4.02033
5.3426 -13.279 3.70893
6.1726 -12.5376 3.77443
4.3566 -13.5525 3.81773
5.9716 -13.3112 3.58983
6.5056 -13.8093 3.43373
5.9886 -13.9148 3.48463
5.5236 -14.67 3.44923
5.0456 -14.2118 3.57943
4.9816 -15.1411 3.48773
4.3306 -15.7193 3.55793
3.5896 -15.5356 3.69803
4.3916 -14.788 3.62073
3.9936 -14.4517 3.75193
3.0046 -14.5553 4.07013
1.6056 -14.035 10.4998
1.8116 -13.4058 10.3643
1.8506 -14.1463 11.5294
2.0146 -13.5834 11.3854
2.3926 -13.0508 11.3065
2.2766 -12.8017 10.3171
2.1006 -14.2175 12.3295
2.2336 -13.7465 12.2357
2.5456 -13.3001 12.1906
2.9636 -12.9286 12.1019
3.4586 -12.386 11.2699
2.8996 -12.6185 11.2506
3.5066 -12.023 10.2611
2.8706 -12.2912 10.2427
1.6396 -14.5933 10.0186
1.7866 -14.6211 10.8396
2.0626 -15.1471 10.2023
2.1846 -15.1415 11.2235
2.3196 -15.1365 12.0588
1.9916 -14.6698 11.781
2.5456 -15.5918 10.5805
3.2486 -16.1927 10.8531
3.2796 -16.1129 11.7822
2.6286 -15.574 11.4915
3.3256 -16.0218 12.5525
2.7196 -15.5292 12.2817
3.4206 -15.8667 13.2883
2.8646 -15.4185 13.0481
2.5016 -15.0683 12.8375
2.2186 -14.663 12.564
5.6616 -13.956 11.0001
5.0736 -14.4774 12.0544
4.9826 -14.3892 13.0865
4.1296 -15.3074 13.919
3.8006 -15.7444 13.6022
3.8966 -15.7584 12.7558
4.2346 -15.4371 12.2799
3.8726 -15.937 11.4294
4.2096 -11.9054 9.69493
4.0956 -12.1459 10.4928
3.9966 -12.4531 11.4166
4.4956 -12.7046 11.6113
4.6296 -12.4818 10.7851
4.8166 -12.2579 9.79453
3.8866 -12.7678 12.2138
4.3216 -12.9785 12.4157
5.2486 -13.7161 12.7894
4.7236 -13.2638 12.5767
4.9356 -13.0247 11.7738
5.7176 -13.3917 11.1981
5.2326 -12.6763 10.1478
5.1016 -12.8528 10.9851
-0.833404 -3.83695 3.59713
-0.514404 -3.74125 3.31513
-0.496404 -4.77565 3.71393
-0.182404 -4.68385 3.42493
0.0575956 -4.66375 3.03043
-0.268404 -3.71965 2.92523
-0.0844044 -5.71075 3.87493
0.226596 -5.62235 3.57903
0.559596 -5.76885 2.34333
0.580596 -5.65285 2.74443
0.178596 -4.83135 2.19523
0.188596 -4.71295 2.59723
-0.129404 -3.89075 2.08993
-0.128404 -3.76935 2.49373
0.0435956 -5.15625 1.91273
-0.127404 -5.74365 1.79183
-0.673404 -6.53175 1.97663
-0.309404 -6.36765 1.84583
-1.0184 -5.63075 1.80343
-0.660404 -5.45575 1.67953
-1.6084 -4.83185 1.96163
-1.3234 -5.72405 2.10253
-1.5484 -5.73955 2.50483
-0.977404 -6.61765 2.28153
-1.2784 -6.45335 3.52063
-1.3054 -6.57365 3.12453
-1.6544 -5.55435 3.33453
-1.6684 -5.68115 2.93843
-1.9694 -4.78965 2.79123
-1.4274 -5.51385 3.64713
-1.3774 -4.70555 3.71953
-0.795404 -6.06875 3.97143
-0.442404 -5.87025 3.99983
-0.851404 -4.94155 3.83083
-1.1884 -4.00995 3.70533
0.681596 -10.6014 5.47263
0.541596 -9.75825 5.32473
0.660596 -9.18885 5.24183
1.3236 -11.3716 6.30353
1.6556 -11.3271 6.50753
1.9416 -11.1225 6.46203
2.2266 -10.9195 6.24803
1.6046 -9.47375 5.42613
1.1376 -9.31445 5.41353
1.7266 -9.02605 4.89763
2.0576 -9.32975 4.65013
2.4696 -10.8216 5.89843
2.6376 -10.7727 5.44143
2.7286 -10.8329 4.99413
2.6796 -10.9303 4.59063
1.9786 -9.15605 3.62793
2.0146 -9.03795 4.02183
1.9236 -9.68385 3.54463
1.5696 -9.74705 3.33203
2.5136 -11.1438 4.35143
1.9506 -11.5963 4.29823
1.1466 -10.6776 3.85173
0.679596 -9.64225 3.24633
1.1586 -9.80275 3.26033
0.569596 -10.0902 3.79403
0.561596 -10.4682 4.44643
1.3046 -11.6356 4.72313
1.1806 -11.7482 5.23723
0.314596 -10.0682 4.68223
1.1986 -11.8676 5.79103
4.0926 -11.4546 8.61273
4.3476 -11.4032 8.45043
4.4356 -11.263 7.57013
4.7336 -11.2693 6.56043
4.5296 -11.3073 6.53713
4.6206 -11.1394 8.48213
5.3496 -11.7536 4.64003
4.9206 -11.4713 5.49523
5.1366 -11.4105 5.57283
5.6046 -11.6401 4.73943
5.9506 -13.2604 10.2316
6.0616 -13.1736 9.92063
5.4016 -12.5741 9.69654
4.9426 -12.1295 9.45223
6.3216 -12.9156 9.93053
4.5566 -11.7194 9.05093
4.3656 -11.7911 9.27543
7.3846 -13.2729 4.49043
7.6196 -12.9221 5.55523
6.7106 -13.5893 6.76413
7.2536 -13.0687 6.76903
7.2726 -12.8104 8.09623
6.9946 -12.8304 9.33743
6.3046 -13.555 9.23973
6.0336 -11.9845 4.15143
7.2996 -13.1014 3.46453
6.7216 -12.723 3.61173
2.2546 -14.5558 4.70183
1.8206 -14.3399 5.57543
2.1106 -14.8009 4.82653
1.7356 -14.5493 5.69333
1.4316 -14.4047 6.71433
1.4716 -14.214 6.65493
1.2626 -14.3677 7.76373
1.0196 -14.7595 8.77713
1.2796 -14.4868 8.70613
1.2876 -14.2844 8.84803
3.1236 -15.263 3.87413
2.5496 -15.0955 4.23643
3.4516 -16.6632 8.53133
3.9336 -16.2793 7.12493
3.1866 -16.8412 9.76803
3.3636 -16.8376 7.27483
3.6146 -16.6592 5.89303
3.8096 -16.5094 4.76603
1.5846 -14.6632 9.59643
1.5556 -14.7975 9.38103
1.9866 -15.2096 9.87093
1.7436 -15.4709 9.94813
2.4726 -15.6422 10.1752
2.9546 -16.5225 10.6031
3.1826 -16.2507 10.5007
4.9856 -10.6436 7.80973
4.8076 -10.7876 8.94333
4.9216 -10.5157 8.83173
5.1406 -10.4514 7.83343
5.1046 -10.3344 8.81933
5.3466 -10.287 7.84303
5.7236 -10.3351 6.80113
5.5136 -10.486 6.76083
5.3766 -10.2362 8.86273
5.6286 -10.1947 7.88793
5.9956 -10.2433 6.86973
6.4106 -10.3684 5.95583
6.6856 -10.6659 5.01273
6.1816 -10.4675 5.82343
5.9406 -10.6402 5.75763
6.4646 -10.8482 4.90623
6.0296 -12.0362 11.2104
6.6336 -12.5166 11.3863
6.8656 -12.3676 11.572
6.1476 -11.8805 11.3611
7.1546 -12.1231 11.663
6.3936 -11.7104 11.4594
7.3686 -11.8133 11.6326
7.5816 -11.5852 11.5057
6.7436 -11.2601 11.2985
6.3676 -11.3942 11.3606
6.1826 -11.0527 11.0782
5.6846 -11.1377 10.9997
5.9486 -11.4465 11.2461
5.5606 -11.516 11.0043
8.5746 -12.1808 4.69773
8.5206 -12.0677 5.73143
8.1096 -12.2377 6.90733
9.0536 -11.7264 4.67103
8.9296 -11.601 6.01633
8.5986 -11.5811 7.67353
8.5296 -11.8099 7.00743
7.6926 -11.6658 11.3901
8.1166 -11.8334 8.81293
7.9746 -12.1115 8.20704
7.3676 -12.352 9.94423
7.2006 -10.9117 4.47153
6.9596 -11.1337 4.33473
7.6956 -11.1796 4.13963
7.4406 -11.4336 3.98303
7.3626 -10.7457 4.74123
7.8596 -10.9671 4.45353
8.9416 -11.5388 4.18873
8.3266 -11.2038 4.29633
8.7236 -11.8204 3.81473
8.1406 -11.4443 3.95683
7.8646 -11.7283 3.78813
8.4226 -12.1146 3.64413
1.2436 -15.5991 5.00433
1.0426 -15.8025 5.13143
0.736596 -15.5317 5.96713
0.908596 -15.3287 5.87063
0.467596 -15.3564 7.00223
0.616596 -15.1554 6.96053
0.893596 -16.013 5.37533
0.625596 -15.7681 6.13353
0.379596 -15.6173 7.10623
0.119596 -15.5701 9.28983
0.196596 -15.5467 8.21113
0.192596 -15.3106 9.19983
0.271596 -15.2797 8.12573
0.355596 -15.1446 9.19423
0.611596 -15.0618 9.31333
0.614596 -14.9452 8.06573
0.424596 -15.0922 8.09913
2.2206 -16.6769 3.99433
3.4446 -16.5077 3.70513
2.6026 -17.231 3.93353
1.9206 -16.9915 4.18993
1.6406 -16.5718 4.31753
1.9126 -16.3326 4.14483
1.9526 -17.784 4.58863
1.6226 -17.1996 4.59153
1.3846 -16.7779 4.67693
1.1446 -16.366 4.91403
1.3486 -16.1657 4.60563
1.5956 -15.9388 4.45043
2.9296 -17.1976 8.90323
2.8236 -17.2013 10.773
2.6136 -17.4792 10.3232
2.3696 -17.785 9.11673
2.3116 -17.789 11.3615
2.7026 -17.4885 7.56013
2.0746 -18.0603 10.5383
1.8586 -18.2698 9.35633
2.1176 -18.0472 7.84853
1.9076 -18.222 7.36783
2.1736 -17.9788 5.59503
2.2936 -17.8899 6.46773
2.6016 -17.6049 5.16343
3.0326 -17.2056 6.07663
1.2476 -16.2421 11.8356
0.936596 -16.3295 11.8203
1.2976 -16.612 12.171
1.6536 -17.0393 12.5241
1.7746 -16.78 12.326
1.9096 -16.608 12.0903
1.4536 -16.1639 11.6781
0.944596 -16.8225 12.0623
1.3156 -17.0188 12.4214
1.2656 -17.3876 12.4932
1.7586 -18.1845 12.9987
1.9456 -17.9944 13.049
2.1786 -17.7153 12.9469
2.4116 -17.4425 12.7365
2.5876 -17.2155 12.4443
5.8576 -12.1574 9.93244
6.5026 -12.7071 10.2267
6.0656 -12.2771 10.5655
6.6066 -12.7073 11.0479
5.7826 -11.9759 10.8284
5.4886 -11.7487 9.86623
5.3326 -11.4311 10.6737
5.0986 -11.1705 10.241
5.3136 -11.4981 10.3164
4.9396 -10.9709 9.69953
5.0566 -11.2656 9.48463
7.4926 -12.0089 10.9169
6.8276 -12.5858 11.3716
5.6716 -10.3782 9.73353
6.1636 -10.4987 9.84983
5.7086 -10.57 10.3258
6.1596 -10.6649 10.4429
6.8986 -10.9074 10.6021
6.7086 -10.6945 9.97663
6.7216 -11.0328 11.0156
5.9296 -10.8025 10.7752
7.7926 -11.4658 11.2991
7.8856 -11.3483 10.8923
7.4566 -11.0189 10.1443
4.9156 -10.6829 9.60913
5.0516 -10.9037 10.1988
5.1526 -10.7105 10.2086
5.0546 -10.4886 9.60053
5.2926 -11.0128 10.6519
5.5376 -10.8335 10.683
5.3726 -10.5922 10.2493
5.3046 -10.3809 9.64623
1.0856 -15.3952 9.96173
0.742596 -15.3568 10.1863
1.2296 -15.713 10.7203
0.922596 -15.6211 10.8264
1.8756 -16.3426 11.6043
1.6006 -15.8414 10.4518
1.1076 -15.8789 11.3132
2.7256 -17.0488 12.0034
2.0856 -16.2265 10.6996
2.7476 -16.7837 11.0133
0.235596 -16.06 10.3627
0.192596 -15.7014 10.1835
0.400596 -16.2355 11.0646
0.374596 -15.9061 10.897
0.463596 -15.6887 10.8037
0.271596 -15.4584 10.0865
0.652596 -16.5377 11.6432
0.672596 -16.0263 11.4008
0.877596 -15.864 11.3085
0.645596 -15.5845 10.7721
0.450596 -15.3267 10.0763
1.4626 -18.269 11.6227
1.0026 -17.5793 11.2114
1.4896 -18.2539 12.2959
0.914596 -17.3534 11.7133
0.695596 -17.0682 10.9154
1.6686 -18.3486 12.8253
1.0286 -17.3229 12.1582
0.564596 -16.6758 11.3193
0.421596 -16.5387 10.6196
2.3296 -17.7149 12.7575
2.6846 -17.2622 12.3231
1.8496 -18.2746 11.6258
1.9136 -18.1942 12.9126
7.9546 -11.254 10.2537
8.0866 -11.357 10.2832
7.9316 -11.5005 10.8753
8.3826 -11.4416 9.08123
8.4226 -11.1933 8.28523
8.5646 -11.3082 8.30233
8.8496 -11.3044 7.05123
8.7126 -11.1905 7.03603
8.8496 -11.4212 7.07263
9.1316 -11.5575 5.07153
9.0516 -11.4572 5.96263
9.1676 -11.4581 4.87403
9.0726 -11.3463 5.85883
9.0526 -11.3521 4.81983
8.7546 -12.0178 3.81013
7.4136 -13.2178 3.53813
9.0696 -11.6642 4.24543
8.7466 -12.088 4.07753
6.8376 -13.7993 3.83263
5.8926 -14.5594 3.52713
5.6466 -14.8585 3.85843
4.8646 -15.4653 3.60453
4.4576 -15.9162 3.98463
3.9006 -16.3153 3.73683
2.8896 -17.3137 4.34303
2.7256 -17.3506 4.03743
2.3736 -17.6599 4.26533
2.2786 -17.5304 4.15433
2.2716 -17.8574 4.75303
1.9146 -18.1655 5.67963
1.8166 -18.1463 5.44703
2.0646 -17.9296 4.70043
1.7126 -18.0174 5.35113
1.5546 -18.1471 6.52233
1.6706 -18.279 6.59703
1.5986 -18.3486 7.97873
1.4726 -18.2133 7.92003
1.7836 -18.2889 6.72113
1.7216 -18.3555 8.00653
1.7046 -18.3877 11.2101
1.5776 -18.3759 9.42033
1.4466 -18.2503 10.6521
1.4436 -18.2397 9.35734
1.5916 -18.3933 11.6986
1.6786 -18.4004 12.46
2.8816 -16.923 11.0228
2.9236 -17.0274 10.8443
3.4046 -16.3463 10.4879
3.4926 -16.4205 10.1701
3.5996 -16.2519 10.8594
3.4736 -16.1269 12.388
3.6556 -16.0353 12.513
3.5796 -15.9318 13.3129
4.5296 -14.7853 13.9382
5.1516 -14.1239 13.1973
5.0246 -14.061 13.4847
4.6956 -14.4749 13.9126
5.5136 -13.5188 11.9781
5.6626 -13.6262 11.834
6.0826 -13.4177 10.2428
5.3526 -13.842 12.7933
5.5826 -13.8237 11.9909
6.0466 -13.5951 10.3153
6.2846 -13.3913 9.79003
6.6736 -12.8173 10.2025
6.8106 -12.8846 9.75983
6.7606 -12.7055 11.0044
4.7356 -10.9657 7.62833
5.1826 -10.8249 6.67393
4.7486 -10.9554 8.64373
6.5676 -12.9636 9.91023
6.4356 -12.7865 10.0338
5.6636 -12.2909 9.72063
5.1936 -11.8648 9.47413
5.3406 -11.7569 9.60233
4.9526 -11.3081 9.23864
4.8396 -11.4379 9.10073
1.2846 -15.09 9.49043
0.818596 -14.926 8.97324
1.1436 -15.2373 9.66663
1.6986 -15.7131 10.1922
2.8286 -16.6687 10.7656
2.2166 -15.9278 10.2878
3.0376 -16.7482 10.6386
3.1186 -16.8243 10.375
0.963596 -14.6621 7.84923
3 0 1 2
3 0 2 3
3 2 4 3
3 3 5 6
3 6 0 3
3 7 8 9
3 7 9 3
3 9 5 3
3 3 4 7
3 10 11 12
3 5 10 12
3 6 5 12
3 6 12 13
3 12 11 14
3 12 14 13
3 15 16 17
3 17 18 19
3 18 17 20
3 17 16 20
3 21 22 23
3 22 18 23
3 19 18 22
3 22 21 24
3 25 26 27
3 25 27 28
3 27 29 28
3 16 30 31
3 30 29 31
3 30 16 15
3 32 33 34
3 34 35 36
3 36 37 34
3 37 32 34
3 38 26 25
3 38 25 39
3 36 35 38
3 36 38 39
3 24 21 40
3 41 42 43
3 43 40 41
3 40 21 41
3 44 33 32
3 32 45 44
3 45 43 44
3 43 42 44
3 46 47 48
3 49 50 46
3 49 46 48
3 48 51 49
3 48 47 52
3 53 54 55
3 53 55 56
3 49 51 53
3 49 53 56
3 55 57 56
3 57 50 49
3 57 49 56
3 58 59 60
3 59 61 62
3 59 62 60
3 58 63 59
3 52 47 64
3 62 61 64
3 62 64 65
3 64 47 65
3 66 67 68
3 67 69 68
3 69 70 68
3 67 71 69
3 67 66 72
3 73 63 58
3 73 58 74
3 69 71 73
3 69 73 74
3 75 70 69
3 69 74 75
3 74 58 75
3 55 76 77
3 76 78 79
3 76 79 77
3 55 54 76
3 72 66 80
3 79 78 80
3 79 80 81
3 80 66 81
3 82 83 84
3 84 85 86
3 84 86 82
3 86 87 82
3 87 88 82
3 89 90 91
3 89 91 86
3 91 92 86
3 92 87 86
3 86 85 89
3 93 94 95
3 93 95 96
3 95 97 98
3 95 98 96
3 98 87 92
3 98 92 96
3 92 93 96
3 97 99 100
3 97 100 98
3 100 88 87
3 100 87 98
3 101 102 103
3 101 103 104
3 105 106 101
3 105 101 104
3 107 108 109
3 107 109 110
3 109 111 112
3 109 112 110
3 112 105 104
3 112 104 110
3 104 103 107
3 104 107 110
3 113 90 89
3 113 89 114
3 89 85 115
3 89 115 114
3 115 105 112
3 115 112 114
3 112 111 113
3 112 113 114
3 84 83 116
3 84 116 115
3 116 106 105
3 116 105 115
3 115 85 84
3 117 118 119
3 117 119 120
3 121 117 120
3 122 123 124
3 122 124 120
3 124 125 120
3 125 121 120
3 120 119 122
3 126 108 107
3 107 103 127
3 107 127 126
3 127 121 125
3 127 125 126
3 103 102 128
3 103 128 127
3 128 121 127
3 129 99 97
3 129 97 130
3 131 132 129
3 131 129 130
3 95 94 133
3 95 133 134
3 133 135 136
3 133 136 134
3 136 131 130
3 136 130 134
3 130 97 95
3 130 95 134
3 137 123 122
3 137 122 138
3 122 119 139
3 122 139 138
3 139 131 136
3 139 136 138
3 136 135 137
3 136 137 138
3 119 118 140
3 119 140 139
3 140 132 131
3 140 131 139
3 141 142 143
3 141 143 144
3 143 145 146
3 143 146 144
3 146 147 148
3 146 148 144
3 148 149 141
3 148 141 144
3 150 151 152
3 151 153 152
3 153 147 146
3 153 146 152
3 146 145 150
3 146 150 152
3 154 155 156
3 155 157 158
3 155 158 156
3 158 147 153
3 158 153 156
3 153 154 156
3 159 160 161
3 159 161 162
3 161 149 148
3 161 148 162
3 148 147 158
3 148 158 162
3 158 157 159
3 158 159 162
3 163 164 165
3 164 166 167
3 164 167 165
3 167 168 169
3 167 169 165
3 169 170 163
3 169 163 165
3 171 172 173
3 171 173 174
3 173 175 176
3 173 176 174
3 176 168 167
3 176 167 174
3 167 166 171
3 167 171 174
3 177 178 179
3 178 180 181
3 178 181 179
3 181 168 176
3 181 176 179
3 176 175 177
3 176 177 179
3 182 183 184
3 182 184 185
3 184 170 169
3 184 169 185
3 169 168 181
3 169 181 185
3 181 180 182
3 181 182 185
3 186 187 188
3 187 189 190
3 187 190 188
3 190 191 192
3 190 192 188
3 192 193 186
3 192 186 188
3 194 195 196
3 195 197 196
3 197 191 190
3 197 190 196
3 190 189 194
3 190 194 196
3 198 199 200
3 199 201 202
3 199 202 200
3 202 191 197
3 202 197 200
3 197 198 200
3 203 204 205
3 203 205 206
3 205 193 192
3 205 192 206
3 192 191 202
3 192 202 206
3 202 201 203
3 202 203 206
3 133 94 207
3 133 207 208
3 207 209 208
3 210 135 133
3 210 133 208
3 211 212 213
3 213 214 215
3 213 215 211
3 215 210 208
3 215 208 211
3 208 209 211
3 216 217 218
3 216 218 219
3 218 220 219
3 220 210 215
3 220 215 219
3 215 214 216
3 215 216 219
3 221 123 137
3 221 137 220
3 137 135 210
3 137 210 220
3 109 108 222
3 109 222 223
3 222 224 225
3 222 225 223
3 225 226 227
3 225 227 223
3 227 111 109
3 227 109 223
3 228 164 163
3 228 163 229
3 163 170 230
3 163 230 229
3 230 226 225
3 230 225 229
3 225 224 228
3 225 228 229
3 184 183 231
3 183 232 233
3 183 233 231
3 233 226 230
3 233 230 231
3 230 170 184
3 230 184 231
3 234 90 113
3 234 113 235
3 113 111 227
3 113 227 235
3 227 226 233
3 227 233 235
3 233 232 234
3 233 234 235
3 222 108 236
3 222 236 237
3 236 238 239
3 236 239 237
3 239 240 241
3 239 241 237
3 241 224 222
3 241 222 237
3 242 243 244
3 242 244 245
3 244 246 247
3 244 247 245
3 247 240 239
3 247 239 245
3 239 238 242
3 239 242 245
3 248 172 171
3 248 171 249
3 171 166 250
3 171 250 249
3 250 240 247
3 250 247 249
3 247 246 248
3 247 248 249
3 164 228 251
3 228 224 241
3 228 241 251
3 241 240 250
3 241 250 251
3 250 166 164
3 250 164 251
3 2 1 252
3 2 252 253
3 4 2 253
3 254 255 253
3 253 252 254
3 255 256 257
3 255 257 258
3 253 255 258
3 259 8 7
3 4 253 258
3 4 258 7
3 258 257 259
3 258 259 7
3 260 90 234
3 260 234 261
3 234 232 262
3 234 262 261
3 262 263 264
3 262 264 261
3 264 265 260
3 264 260 261
3 183 182 266
3 182 180 267
3 182 267 266
3 267 263 262
3 267 262 266
3 262 232 183
3 262 183 266
3 178 268 269
3 268 270 269
3 270 263 267
3 270 267 269
3 267 180 178
3 267 178 269
3 271 272 273
3 272 265 264
3 272 264 273
3 264 263 270
3 264 270 273
3 270 271 273
3 20 16 274
3 20 274 275
3 274 276 277
3 274 277 275
3 277 278 279
3 277 279 275
3 279 18 20
3 279 20 275
3 280 47 46
3 280 46 281
3 46 50 281
3 50 278 277
3 50 277 281
3 277 276 280
3 277 280 281
3 57 55 282
3 57 282 283
3 282 284 285
3 282 285 283
3 285 278 50
3 285 50 283
3 50 57 283
3 286 21 23
3 286 23 287
3 23 18 279
3 23 279 287
3 279 278 285
3 279 285 287
3 285 284 286
3 285 286 287
3 41 21 286
3 286 284 288
3 286 288 41
3 288 289 42
3 288 42 41
3 282 55 77
3 282 77 288
3 77 79 289
3 77 289 288
3 288 284 282
3 81 66 290
3 81 290 291
3 290 292 293
3 290 293 291
3 293 289 291
3 289 79 81
3 289 81 291
3 42 289 293
3 42 293 44
3 293 292 33
3 293 33 44
3 34 33 294
3 33 292 295
3 33 295 294
3 295 296 35
3 295 35 294
3 35 34 294
3 290 66 68
3 290 68 297
3 68 70 297
3 70 296 295
3 70 295 297
3 295 292 290
3 295 290 297
3 75 58 298
3 75 298 299
3 298 300 301
3 298 301 299
3 301 296 70
3 301 70 299
3 70 75 299
3 26 38 302
3 38 35 302
3 35 296 301
3 35 301 302
3 301 300 26
3 301 26 302
3 26 300 303
3 26 303 27
3 303 304 27
3 304 29 27
3 298 58 60
3 298 60 303
3 60 62 305
3 60 305 303
3 305 304 303
3 303 300 298
3 65 47 280
3 65 280 306
3 280 276 307
3 280 307 306
3 307 304 305
3 307 305 306
3 305 62 65
3 305 65 306
3 274 16 31
3 274 31 308
3 31 29 304
3 31 304 308
3 304 307 308
3 307 276 274
3 307 274 308
3 63 309 310
3 63 310 59
3 310 311 59
3 311 61 59
3 309 312 310
3 312 313 311
3 312 311 310
3 314 315 316
3 314 316 317
3 311 313 314
3 311 314 317
3 64 61 311
3 311 317 64
3 317 316 52
3 317 52 64
3 48 52 318
3 52 316 318
3 318 319 51
3 51 48 318
3 316 315 320
3 320 321 319
3 319 318 320
3 318 316 320
3 322 323 324
3 324 325 322
3 325 319 322
3 319 321 322
3 51 319 325
3 51 325 53
3 325 324 54
3 325 54 53
3 54 324 326
3 54 326 76
3 326 327 76
3 327 78 76
3 324 323 328
3 324 328 326
3 328 132 327
3 328 327 326
3 329 118 330
3 330 331 332
3 330 332 329
3 332 327 329
3 327 132 329
3 331 72 80
3 331 80 332
3 80 78 327
3 80 327 332
3 67 72 331
3 331 333 67
3 333 334 71
3 333 71 67
3 330 118 335
3 330 335 333
3 335 336 334
3 335 334 333
3 333 331 330
3 309 337 338
3 337 334 338
3 334 336 338
3 71 334 337
3 71 337 73
3 337 309 63
3 337 63 73
3 312 309 102
3 102 101 312
3 101 313 312
3 106 313 101
3 83 315 314
3 83 314 116
3 314 313 106
3 314 106 116
3 88 321 320
3 88 320 82
3 320 315 83
3 320 83 82
3 99 323 322
3 99 322 100
3 322 321 88
3 322 88 100
3 132 328 129
3 328 323 99
3 328 99 129
3 118 329 140
3 329 132 140
3 118 117 335
3 117 121 336
3 117 336 335
3 102 338 128
3 338 121 128
3 102 309 338
3 336 121 338
3 91 90 339
3 339 340 341
3 339 341 91
3 341 342 343
3 341 343 91
3 343 92 91
3 340 344 341
3 345 94 93
3 345 93 346
3 93 92 343
3 93 343 346
3 343 342 347
3 343 347 346
3 347 348 345
3 347 345 346
3 349 350 351
3 349 351 272
3 351 352 265
3 351 265 272
3 350 353 351
3 354 344 340
3 339 90 260
3 339 260 355
3 260 265 355
3 265 352 354
3 265 354 355
3 354 340 339
3 354 339 355
3 13 14 356
3 356 357 13
3 357 358 13
3 358 6 13
3 359 358 357
3 360 361 362
3 362 358 359
3 359 360 362
3 362 1 0
3 0 6 358
3 358 362 0
3 207 94 345
3 345 348 363
3 345 363 207
3 363 209 207
3 364 212 211
3 364 211 365
3 211 209 365
3 124 123 366
3 124 366 367
3 366 368 369
3 366 369 367
3 369 370 371
3 369 371 367
3 371 125 124
3 371 124 367
3 372 373 374
3 375 108 126
3 126 125 371
3 371 370 372
3 371 372 126
3 372 374 375
3 372 375 126
3 376 220 218
3 366 123 221
3 221 220 376
3 376 377 221
3 377 368 366
3 377 366 221
3 8 378 9
3 378 379 9
3 379 5 9
3 8 380 378
3 381 379 378
3 382 379 381
3 383 11 10
3 10 5 379
3 379 382 10
3 382 383 10
3 236 108 375
3 236 375 384
3 375 374 385
3 375 385 384
3 385 386 238
3 385 238 384
3 238 236 384
3 374 373 385
3 385 387 386
3 388 389 390
3 386 387 388
3 238 386 388
3 238 388 242
3 388 390 243
3 388 243 242
3 391 392 393
3 391 393 394
3 393 395 396
3 393 396 394
3 396 397 398
3 396 398 394
3 398 391 394
3 399 142 141
3 399 141 400
3 141 149 401
3 141 401 400
3 401 397 396
3 401 396 400
3 396 395 399
3 396 399 400
3 161 160 402
3 160 403 404
3 160 404 402
3 404 397 401
3 404 401 402
3 401 149 161
3 401 161 402
3 398 397 404
3 398 404 405
3 404 403 406
3 404 406 405
3 407 408 409
3 407 409 410
3 409 411 412
3 409 412 410
3 413 414 415
3 413 415 416
3 412 411 413
3 412 413 416
3 417 418 416
3 418 419 416
3 419 412 416
3 416 415 417
3 420 407 410
3 410 412 419
3 410 419 420
3 419 418 420
3 357 421 422
3 423 357 422
3 424 425 422
3 425 426 427
3 425 427 422
3 427 423 422
3 422 421 424
3 426 428 429
3 430 423 427
3 430 427 429
3 427 426 429
3 431 361 360
3 423 430 360
3 430 431 360
3 406 403 432
3 406 432 433
3 432 434 435
3 432 435 433
3 160 159 436
3 159 157 437
3 159 437 436
3 437 434 432
3 437 432 436
3 432 403 160
3 432 160 436
3 155 438 439
3 438 440 441
3 438 441 439
3 441 434 437
3 441 437 439
3 437 157 155
3 437 155 439
3 435 434 441
3 435 441 442
3 441 440 443
3 441 443 442
3 444 445 446
3 444 446 447
3 446 448 449
3 446 449 447
3 450 187 186
3 450 186 451
3 186 193 452
3 186 452 451
3 452 448 446
3 452 446 451
3 446 445 450
3 446 450 451
3 205 204 453
3 205 453 454
3 453 455 456
3 453 456 454
3 456 448 452
3 456 452 454
3 452 193 205
3 452 205 454
3 457 458 459
3 457 459 460
3 459 449 460
3 449 448 456
3 449 456 460
3 456 455 457
3 456 457 460
3 461 462 463
3 463 464 461
3 464 465 466
3 464 466 461
3 467 194 468
3 194 189 469
3 194 469 468
3 469 465 464
3 469 464 468
3 464 467 468
3 187 450 470
3 450 445 471
3 450 471 470
3 471 465 469
3 471 469 470
3 469 189 187
3 469 187 470
3 466 465 471
3 466 471 472
3 471 445 444
3 471 444 472
3 473 474 475
3 473 475 476
3 475 477 476
3 478 473 476
3 479 480 481
3 480 482 481
3 481 478 476
3 476 477 479
3 476 479 481
3 482 483 484
3 483 485 484
3 484 478 481
3 481 482 484
3 478 484 486
3 484 485 486
3 487 488 489
3 489 490 491
3 489 491 487
3 491 492 493
3 491 493 487
3 488 494 495
3 494 496 495
3 495 490 489
3 489 488 495
3 496 497 498
3 496 498 495
3 498 499 490
3 498 490 495
3 500 501 492
3 500 492 491
3 490 499 500
3 490 500 491
3 502 503 504
3 503 505 504
3 504 506 507
3 507 502 504
3 505 408 407
3 505 407 506
3 504 505 506
3 508 509 510
3 510 506 508
3 506 407 420
3 506 420 508
3 511 392 512
3 511 512 510
3 512 507 510
3 507 506 510
3 510 509 511
3 428 513 429
3 513 431 429
3 431 430 429
3 431 513 514
3 513 428 514
3 514 361 431
3 143 142 515
3 143 515 516
3 515 517 518
3 515 518 516
3 518 519 520
3 518 520 516
3 520 145 143
3 520 143 516
3 417 415 521
3 417 521 522
3 521 519 518
3 521 518 522
3 518 517 522
3 415 414 523
3 415 523 521
3 523 524 519
3 523 519 521
3 150 145 520
3 150 520 525
3 520 519 525
3 519 524 525
3 393 392 511
3 393 511 526
3 511 509 527
3 511 527 526
3 527 528 529
3 527 529 526
3 529 395 393
3 529 393 526
3 508 420 530
3 420 418 530
3 530 528 527
3 527 509 508
3 527 508 530
3 418 417 522
3 418 522 531
3 522 517 532
3 522 532 531
3 532 528 530
3 532 530 531
3 530 418 531
3 515 142 399
3 515 399 533
3 399 395 529
3 399 529 533
3 529 528 532
3 529 532 533
3 532 517 515
3 532 515 533
3 534 458 535
3 534 535 536
3 535 537 536
3 536 538 539
3 539 534 536
3 540 487 493
3 493 492 538
3 538 536 493
3 536 537 540
3 536 540 493
3 492 501 541
3 492 541 538
3 539 538 542
3 538 541 543
3 538 543 542
3 453 204 544
3 453 544 545
3 544 546 547
3 544 547 545
3 547 548 549
3 547 549 545
3 549 455 453
3 549 453 545
3 550 494 488
3 550 488 551
3 551 548 547
3 547 546 550
3 547 550 551
3 487 540 552
3 540 537 553
3 540 553 552
3 553 548 551
3 553 551 552
3 551 488 487
3 551 487 552
3 535 458 457
3 535 457 554
3 457 455 549
3 457 549 554
3 549 548 553
3 549 553 554
3 553 537 535
3 553 535 554
3 199 555 556
3 555 557 558
3 555 558 556
3 558 559 556
3 559 201 199
3 559 199 556
3 560 497 496
3 560 496 561
3 558 557 560
3 558 560 561
3 550 546 562
3 562 558 561
3 562 561 550
3 561 496 494
3 561 494 550
3 544 204 203
3 544 203 563
3 203 201 559
3 203 559 563
3 559 558 562
3 559 562 563
3 562 546 544
3 562 544 563
3 475 474 564
3 474 565 564
3 477 475 564
3 566 480 479
3 477 564 567
3 477 567 479
3 567 566 479
3 568 150 525
3 525 524 568
3 524 569 568
3 428 570 523
3 570 524 523
3 523 414 428
3 569 524 570
3 569 570 571
3 570 428 571
3 151 150 568
3 151 568 572
3 568 569 573
3 568 573 572
3 573 574 575
3 573 575 572
3 575 153 151
3 575 151 572
3 571 428 426
3 426 576 571
3 576 574 573
3 576 573 571
3 573 569 571
3 425 424 577
3 425 577 578
3 577 579 580
3 577 580 578
3 580 574 576
3 580 576 578
3 576 426 425
3 576 425 578
3 581 155 154
3 154 153 575
3 575 574 580
3 575 580 154
3 580 579 581
3 580 581 154
3 440 582 443
3 582 583 443
3 438 155 581
3 581 579 584
3 581 584 438
3 584 582 440
3 584 440 438
3 424 421 585
3 585 582 584
3 585 584 424
3 584 579 577
3 584 577 424
3 585 583 582
3 583 212 364
3 356 14 586
3 212 583 587
3 587 214 212
3 214 213 212
3 586 14 588
3 14 11 588
3 587 583 586
3 587 586 588
3 589 587 588
3 589 588 590
3 588 11 590
3 214 587 589
3 214 589 216
3 589 217 216
3 218 217 462
3 217 589 591
3 217 591 462
3 590 11 383
3 383 592 590
3 592 591 590
3 591 589 590
3 462 593 463
3 593 594 595
3 593 595 463
3 595 464 463
3 485 596 592
3 596 594 593
3 596 593 592
3 483 597 596
3 597 598 599
3 597 599 596
3 599 594 596
3 596 485 483
3 600 194 467
3 467 464 595
3 595 594 599
3 595 599 467
3 599 598 600
3 599 600 467
3 195 194 600
3 195 600 601
3 600 598 602
3 600 602 601
3 602 603 604
3 602 604 601
3 604 197 195
3 604 195 601
3 597 483 482
3 597 482 605
3 482 606 605
3 606 603 602
3 606 602 605
3 602 598 597
3 602 597 605
3 480 607 606
3 607 608 606
3 608 603 606
3 606 482 480
3 609 199 198
3 609 198 610
3 198 197 604
3 198 604 610
3 604 603 608
3 604 608 610
3 608 609 610
3 555 199 609
3 609 608 611
3 609 611 555
3 611 612 557
3 611 557 555
3 607 480 566
3 566 567 612
3 566 612 607
3 612 611 607
3 611 608 607
3 567 497 560
3 612 567 560
3 557 612 560
3 564 499 498
3 564 498 567
3 498 497 567
3 565 501 500
3 500 499 564
3 500 564 565
3 541 613 543
3 541 501 565
3 613 541 565
3 613 565 614
3 565 474 614
3 390 615 243
3 616 380 8
3 8 617 616
3 617 615 616
3 243 615 618
3 243 618 244
3 618 246 244
3 617 8 259
3 617 259 619
3 259 257 619
3 618 615 617
3 618 617 619
3 256 172 620
3 620 618 619
3 620 619 256
3 619 257 256
3 246 618 620
3 246 620 248
3 620 172 248
3 621 175 173
3 621 173 255
3 173 172 256
3 173 256 255
3 254 622 621
3 622 623 624
3 622 624 621
3 624 175 621
3 621 255 254
3 623 178 177
3 175 624 177
3 624 623 177
3 349 272 271
3 271 270 625
3 625 626 271
3 626 627 349
3 626 349 271
3 268 178 623
3 623 628 268
3 628 626 625
3 628 625 268
3 625 270 268
3 254 252 629
3 254 629 622
3 629 626 628
3 629 628 622
3 628 623 622
3 252 1 630
3 252 630 629
3 630 627 626
3 630 626 629
3 627 631 350
3 627 350 349
3 630 1 362
3 630 362 631
3 627 630 631
3 362 361 631
3 632 505 503
3 633 361 514
3 514 634 633
3 634 505 632
3 634 632 633
3 514 505 634
3 505 514 408
3 408 514 409
3 514 428 411
3 409 514 411
3 428 414 413
3 413 411 428
3 341 344 635
3 635 636 342
3 342 341 635
3 637 392 391
3 391 398 636
3 636 635 391
3 635 344 637
3 635 637 391
3 636 398 405
3 348 347 405
3 347 342 405
3 342 636 405
3 405 406 348
3 363 348 433
3 348 406 433
3 435 209 363
3 435 363 433
3 443 364 442
3 364 365 442
3 365 209 435
3 365 435 442
3 583 364 443
3 585 421 356
3 356 586 585
3 586 583 585
3 356 421 357
3 357 423 359
3 359 423 360
3 350 631 638
3 350 638 353
3 631 361 633
3 638 631 633
3 633 632 638
3 353 638 639
3 638 632 503
3 638 503 639
3 351 353 640
3 641 352 351
3 641 351 640
3 639 503 502
3 502 507 642
3 642 641 640
3 642 640 502
3 640 353 639
3 640 639 502
3 512 392 637
3 512 637 643
3 637 344 644
3 637 644 643
3 644 641 642
3 644 642 643
3 642 507 512
3 642 512 643
3 344 354 644
3 354 352 641
3 354 641 644
3 385 373 645
3 387 385 645
3 646 458 534
3 646 534 647
3 534 539 648
3 534 648 647
3 648 387 645
3 648 645 647
3 645 373 646
3 645 646 647
3 542 543 649
3 542 649 648
3 649 389 650
3 649 650 648
3 650 387 648
3 648 539 542
3 389 388 650
3 388 387 650
3 651 615 390
3 651 390 389
3 543 613 651
3 543 651 649
3 651 389 649
3 614 474 380
3 614 380 652
3 651 613 614
3 651 614 652
3 380 616 652
3 616 615 651
3 616 651 652
3 380 474 473
3 473 478 381
3 381 378 473
3 378 380 473
3 486 485 383
3 383 382 486
3 382 381 486
3 381 478 486
3 383 485 592
3 593 591 592
3 462 591 593
3 218 462 461
3 376 218 461
3 466 376 461
3 472 376 466
3 368 377 472
3 377 376 472
3 472 444 368
3 368 444 369
3 444 447 369
3 447 449 369
3 449 370 369
3 459 458 646
3 646 373 653
3 646 653 459
3 653 370 449
3 653 449 459
3 373 372 653
3 372 370 653
