0.171087
0.125197
0.22901
0.145083
0.260288
0.112498
0.0389728
0.0245265
0.428011
0.0819542
0.0209684
0.0209899
0.088318
0.0653278
0.188065
0.157553
0.0477136
0.017775
0.506982
0.0847214
0.167263
0.565266
0.505392
0.975925
0.0192081
0.0097984
0.0107777
0.991411
0.032872
0.250588
0.0710836
0.0944813
0.0579025
0.063056
0.0346578
0.16726
0.104888
0.576284
0.210321
0.813447
0.496417
0.651371
0.81647
0.571274
0.0241915
0.433453
0.770491
0.116897
0.842991
0.122352
0.730345
0.613099
0.0315213
0.0291132
0.758706
0.0886069
0.727817
0.223854
0.155364
0.173782
0.198749
0.813846
0.749043
0.558219
0.727081
0.448792
0.842991
0.384711
0.77049
0.518135
0.426949
0.159634
0.412799
0.359392
0.738132
0.144193
0.257448
0.334925
0.275748
0.512413
0.454446
0.266568
0.258491
0.525757
0.343693
0.931526
0.362588
0.293453
0.849041
0.158459
0.622559
0.35842
0.897644
0.340229
0.275748
0.130908
0.272218
0.373227
0.638946
0.896861
0.454446
0.0297857
0.0825188
0.0278117
0.0301705
0.512413
0.560428
0.216827
0.147822
0.122659
0.0656542
0.0201016
0.0196237
0.194602
0.0836386
0.154154
0.0960759
0.158336
0.124171
0.512413
0.180306
0.02466
0.0217237
0.127091
0.0700774
0.206246
0.0968413
0.178359
0.0835184
0.034075
0.0179112
0.11427
0.070651
0.167588
0.502034
0.580602
0.0497685
0.201084
0.15024
0.683489
0.890579
0.118978
0.525383
0.87165
0.570025
0.06413
0.273674
0.639377
0.499411
0.53048
0.507038
0.224206
0.15029
0.675608
0.784026
0.736664
0.688358
0.0699685
0.552141
0.749782
0.679281
0.614426
0.71656
0.572912
0.993876
0.111419
0.023833
0.170512
0.0747004
0.172931
0.277933
0.570109
0.527456
0.521658
0.397852
0
0.248805
0.437153
0.167639
0.716635
0.567382
0.64374
0.821721
0.813472
0.672236
0.288886
0.426949
0.304392
0.382732
0.364758
0.211549
0.265145
0.412799
0.210714
0.116197
0.0706382
0.103836
0.0348882
0.041475
0.172774
0.10745
0.408413
0.0886934
0.0327415
0.036938
0.21752
0.162129
0.421578
0.155169
0.155135
0.122485
0.233402
0.0933657
0.0324166
0.0384802
0.0903434
0.0988995
0.167986
0.323296
0.223965
0.622559
0.244598
0.507252
0.22634
0.832307
0.202448
0.284087
0.260212
0.172456
0.0682182
0.147173
0.767054
0.643161
0.639377
0.508312
0.586415
0.581275
0.554834
0.641174
0.472633
0.668767
0.124069
0.0575239
0.122361
0.1173
0.133618
0.0523136
0.0182732
0.0229728
0.0840693
0.0764196
0.020564
0.0274847
0.275044
0.154296
0.255602
0.207244
0.372616
0.637616
0.524042
0.663504
0.580196
0.660989
0.655844
0.608311
0.6377
0.299958
0.802994
0.467048
0.414324
0.329078
0.405413
0.346609
0.637787
0.602487
0.626454
0.588951
0.250957
0.412799
0.217078
0.412799
0.512172
0.850249
0.16424
0.726199
0.665468
0.908275
0.36866
0.755483
0.688073
0.4346
0.688072
0.754309
0.323469
0.71025
0.246887
0.72102
0.615172
0.850249
0.467843
0.629898
0.497715
0.629893
0.615172
0.709203
0.259761
0.793275
0.75379
0.613304
0.795461
0.623441
0.794748
0.388996
0.244686
0.515504
0.298491
0.580274
0.321
0.603836
0.578076
0.499761
0.230305
0.489418
0.340929
0.58531
0.57742
0.567611
0.248219
0.583657
0.213095
0.235213
0.663887
0.708336
0.53601
0.69158
0.229927
0.248438
0.255603
0.600172
0.186209
0.668046
0.338546
0.513659
0.734919
0.730669
0.407665
0.684532
0.432494
0.687399
0.76352
0.507037
0.439915
0.671479
0.610259
0.51644
0.412551
0.480608
0.274501
0.412051
0.253843
0.223963
0.321844
0.295579
0.457687
0.316633
0.348087
0.557477
0.689736
0.506982
0.689187
0.484706
0.427969
0.556807
0.223963
0.307597
0.412342
0.406229
0.763984
0.507038
0.412551
0.480605
0.43808
0.516429
0.420035
0.671003
0.24296
0.513659
0.432495
0.53527
0.361891
0.684532
0.734919
0.558558
0.816528
0.452441
0.492994
0.694329
0.336932
0.723411
0.353868
0.53256
0.189548
0.429219
0.25307
0.498766
0.69584
0.715026
0.714174
0.783219
0.178191
0.556496
0.802603
0.493277
0.802603
0.79954
0.712189
0.818593
0.344827
0.61471
0.401422
0.612638
1
0.71025
0.406209
0.71668
0.5363
0.836962
0.504321
0.818593
0.713823
0.779814
0.100856
0.656223
0.208654
0.0785412
0.250878
0.119855
0.52205
0.260888
0.343477
0.238255
0.49531
0.694329
0.816555
0.452438
0.353868
0.532534
0.656353
0.723358
0.482829
0.235694
0.333797
0.195863
0.0727923
0.658198
0.865305
0.124169
0.402587
0.552341
0.908704
0.671479
0.702295
0.637319
0.137559
0.481008
0.335487
0.141763
0.18258
0.15778
0.107534
0.0412878
0.0313605
0.0442435
0.133704
0.33692
0.11392
0.0365916
0.0536689
0.0323036
0.0310312
0.0315294
0.352971
0.104022
0.352608
0.135619
0.0335734
0.0297024
0.0774599
0.037795
0.182581
0.15778
0.402587
0.552341
0.491381
0.67615
0.459312
0.631146
0.908388
0.671004
0.580151
0.235694
0.0170936
0.117944
0.107981
0.481479
0.158417
0.195864
0.350704
0.241983
0.13716
0.564711
0.244371
0.325645
0.538405
0.616581
0.355952
0.178358
0.0818154
0.0727462
0.0376623
0.0271343
0.538405
0.176679
0.433499
0.163435
0.265612
0.162036
0.0345671
0.0456982
0.343901
0.0811437
0.262406
0.72102
0.262406
0.71025
0.555964
0.884043
0.567536
0.739104
0.337073
0.195399
0.171087
0.0918327
0.0297966
0.0337238
0.799193
0.163988
0.150654
0.22901
0.187298
0.174062
0.0312695
0.047672
0.0820709
0.0859616
0.30954
0.36611
0.705379
0.61658
0.321328
0.459835
0.136607
0.398245
