OFF
413 805 0
-19.5984 -5.57907 2.0976
-19.5054 -5.3774 3.9269
-20.3424 -4.39458 3.7089
-20.4614 -4.5632 1.9363
-20.7274 -3.14268 3.4281
-20.8614 -3.26973 1.7231
-20.8374 -3.39849 -0.295401
-20.4394 -4.67172 -0.126901
-19.5884 -5.6723 0.000898951
-20.6354 -1.83505 3.1327
-20.0434 -0.685081 2.8705
-20.1664 -0.731571 1.2882
-20.7714 -1.91906 1.4948
-20.1594 -0.890721 -0.518301
-20.7514 -2.0644 -0.412301
-19.9244 -1.19879 -2.1569
-19.5564 -1.55357 -3.2277
-19.8334 -2.38152 -3.6728
-20.4644 -2.27356 -2.2104
-19.8804 -3.51815 -3.8762
-20.5454 -3.49157 -2.2557
-19.5644 -4.58068 -3.6066
-19.1044 -5.25849 -3.0934
-19.3984 -5.54294 -1.8774
-20.1774 -4.63981 -2.049
-9.80139 -3.5333 1.0541
-9.88839 -3.53622 1.0442
-9.86539 -3.87981 0.427999
-9.77739 -3.87938 0.432999
-9.87339 -3.99162 -0.380201
-9.78639 -3.99223 -0.381601
-10.0724 -3.55529 1.0457
-10.3954 -3.59309 1.0557
-10.3724 -3.93581 0.441099
-10.0494 -3.89804 0.431099
-10.3794 -4.04721 -0.365001
-10.0574 -4.00948 -0.375001
-10.4154 -3.92701 -1.2052
-10.4764 -3.57492 -1.922
-10.1544 -3.53726 -1.9319
-10.0934 -3.88932 -1.2151
-9.97139 -3.51858 -1.9412
-9.90939 -3.87132 -1.2226
-9.88539 -3.51663 -1.9547
-9.85239 -3.52916 -1.9774
-9.78939 -3.88815 -1.2422
-9.82339 -3.87145 -1.2306
-9.99439 -1.54363 1.0185
-10.1074 -0.972841 0.492099
-10.0244 -1.55892 0.993799
-10.1924 -0.992391 0.485699
-10.1104 -1.57478 0.983699
-10.0234 -2.26921 1.2745
-9.93739 -2.25783 1.2867
-9.90539 -2.25153 1.3154
-10.3744 -1.01693 0.488299
-10.6964 -1.0546 0.498199
-10.6154 -1.6358 0.994999
-10.2934 -1.59811 0.984999
-10.5294 -2.3288 1.2851
-10.2074 -2.29107 1.2752
-10.4524 -3.01933 1.3212
-10.1294 -2.98155 1.3112
-9.94539 -2.96119 1.3105
-9.82539 -2.95721 1.3516
-9.85839 -2.95437 1.3227
-10.1964 -0.567971 -1.603
-10.1754 -0.915781 -2.1717
-10.2034 -0.937111 -2.1477
-10.2244 -0.594201 -1.5881
-10.2884 -0.956011 -2.1336
-10.3094 -0.615551 -1.5784
-10.2964 -0.509981 -0.892201
-10.2124 -0.487701 -0.896401
-10.1834 -0.459611 -0.900501
-10.4714 -0.980421 -2.1241
-10.7944 -1.01822 -2.1141
-10.8144 -0.678531 -1.5604
-10.4914 -0.640751 -1.5704
-10.8014 -0.573211 -0.876101
-10.4794 -0.535471 -0.886001
-10.7604 -0.699481 -0.157701
-10.4384 -0.661791 -0.167601
-10.2554 -0.636521 -0.171901
-10.1424 -0.587931 -0.163401
-10.1714 -0.614851 -0.170501
-9.93839 -2.93245 -2.424
-9.96939 -2.92738 -2.3949
-10.0554 -2.93307 -2.3781
-10.1464 -2.23239 -2.5469
-10.0604 -2.22211 -2.5647
-10.0304 -2.218 -2.5961
-10.5604 -2.99069 -2.3578
-10.2384 -2.953 -2.3678
-10.6514 -2.29161 -2.5262
-10.3294 -2.25388 -2.5362
-10.7344 -1.59501 -2.4405
-10.4114 -1.55724 -2.4505
-10.2294 -1.53417 -2.4609
-10.1144 -1.50578 -2.5073
-10.1434 -1.51921 -2.4778
-12.5134 -4.38835 0.733499
-12.5404 -3.9739 1.5213
-12.8054 -4.13477 1.9288
-12.7744 -4.62108 0.967899
-12.9984 -4.33811 2.4847
-12.9874 -4.90517 1.2932
-13.0134 -5.14177 -0.240601
-12.7824 -4.81725 -0.271201
-12.5194 -4.542 -0.289101
-13.2514 -4.59852 3.1839
-13.7894 -4.97048 4.1251
-13.9774 -5.59733 2.0712
-13.3094 -5.23529 1.7161
-14.0904 -5.83857 -0.123401
-13.3854 -5.4911 -0.182001
-14.1874 -5.72895 -2.2148
-14.2954 -5.20799 -3.8941
-13.5634 -4.90267 -3.5297
-13.4644 -5.39237 -2.0286
-13.1584 -4.59165 -3.0777
-13.0694 -5.04386 -1.7905
-12.9054 -4.29837 -2.621
-12.6274 -4.04622 -2.2426
-12.5584 -4.42968 -1.3475
-12.8274 -4.71308 -1.5478
-12.7874 -1.71837 1.5062
-12.8794 -1.06377 0.896499
-13.1884 -0.853801 1.2369
-13.0854 -1.58166 1.9595
-13.4414 -0.553711 1.6849
-13.2914 -1.37719 2.5275
-13.1484 -2.39949 2.9826
-12.9764 -2.46868 2.3592
-12.6914 -2.50852 1.8512
-13.7684 -0.193671 2.2213
-14.3984 0.226649 2.8958
-13.7374 -0.956551 3.7438
-13.5084 -1.12822 3.1534
-13.4454 -2.26314 4.2279
-13.2904 -2.32386 3.6431
-13.4264 -3.61452 4.4169
-13.2254 -3.55433 3.7398
-13.0504 -3.44467 3.0081
-12.6044 -3.30383 1.875
-12.8784 -3.36851 2.3708
-13.0204 -0.695711 -1.694
-12.9974 -1.10498 -2.4046
-13.3204 -0.971791 -2.7532
-13.3454 -0.493081 -1.8856
-13.6274 -0.802631 -3.174
-13.6574 -0.240591 -2.1179
-13.6324 -0.0082007 -0.837401
-13.3274 -0.312111 -0.833001
-13.0034 -0.552431 -0.825601
-14.0864 -0.651211 -3.59
-14.8644 -0.571261 -3.9246
-14.9004 0.143569 -2.5232
-14.1194 -0.0058407 -2.3456
-14.8524 0.501879 -0.805701
-14.0804 0.290399 -0.823001
-14.7064 0.541399 1.0326
-13.9614 0.253489 0.797599
-13.5574 -0.104981 0.496699
-12.9534 -0.675121 0.078599
-13.2724 -0.431481 0.256899
-12.7244 -3.38644 -2.7751
-13.0144 -3.56291 -3.2503
-13.2824 -3.76538 -3.823
-13.4174 -2.74107 -4.0631
-13.1334 -2.66068 -3.4635
-12.8314 -2.58592 -2.9658
-14.4454 -4.21523 -4.8522
-13.7014 -3.98557 -4.391
-14.6094 -2.96717 -5.1416
-13.8514 -2.83921 -4.658
-14.7584 -1.68035 -4.8149
-13.9884 -1.66171 -4.3759
-13.5394 -1.69481 -3.8345
-12.9284 -1.78024 -2.8354
-13.2424 -1.74565 -3.2885
-15.2074 -5.66088 4.0906
-15.2314 -5.97716 2.1931
-16.7404 -5.95312 4.0742
-16.7704 -6.20147 2.19
-16.8194 -6.31759 -0.062001
-15.3244 -6.15753 -0.0925011
-18.2384 -5.87777 4.0341
-18.2974 -6.09697 2.1701
-18.3114 -6.18838 -0.00420105
-18.2484 -5.52623 -3.6393
-18.2424 -6.02565 -2.028
-16.9524 -5.62553 -4.0304
-16.8644 -6.16148 -2.2523
-15.5304 -5.4842 -4.0882
-15.4164 -6.02395 -2.302
-15.4584 -1.9968 3.4688
-15.7814 -1.47314 3.3954
-16.4094 -1.33287 3.2757
-16.2574 -2.06436 3.3431
-17.2994 -1.33123 3.2345
-17.2134 -2.12501 3.3098
-17.1094 -3.04163 3.522
-16.0904 -2.9093 3.5379
-15.2404 -2.76975 3.6528
-18.1634 -1.53725 3.3297
-18.7394 -1.81771 3.4864
-18.9394 -2.40224 3.5759
-18.1544 -2.28531 3.4015
-18.9804 -3.2054 3.7679
-18.1294 -3.14682 3.6006
-18.7634 -3.95822 4.0229
-18.4424 -4.44078 4.24
-17.8134 -4.62215 4.216
-17.9634 -3.96634 3.8844
-16.9204 -4.64391 4.1862
-17.0064 -3.93111 3.8287
-16.0544 -4.41732 4.1619
-15.4784 -4.09552 4.1488
-15.2794 -3.55233 3.9157
-16.0644 -3.74518 3.826
-16.1284 -0.616511 -4.1007
-16.1654 0.140029 -2.6051
-17.5454 -0.806191 -4.0522
-17.6074 -0.0550707 -2.5556
-17.6204 0.362689 -0.765801
-16.1284 0.544429 -0.801601
-18.7844 -1.15952 -3.7132
-18.9164 -0.480321 -2.3391
-19.0404 -0.0986907 -0.653801
-18.9274 0.0938893 2.6897
-19.0224 0.0723593 1.1401
-17.4904 0.512079 2.6131
-17.5634 0.524399 1.0644
-15.9354 0.579729 2.6637
-16.0154 0.656229 1.0751
-15.6874 -4.44607 -5.1043
-17.1334 -4.60217 -5.0461
-17.3274 -3.31008 -5.3525
-15.8594 -3.13707 -5.4072
-18.4874 -4.60758 -4.5762
-18.7384 -3.44738 -4.8753
-18.7814 -2.22328 -4.5731
-17.4594 -1.96797 -5.0028
-16.0164 -1.78472 -5.0537
-14.7414 -0.0181407 3.8079
-13.9814 -0.984021 4.2058
-14.9584 -0.220271 4.1987
-14.2124 -1.10871 4.4854
-13.8734 -2.24669 4.8272
-13.6524 -2.23865 4.6242
-15.1134 -0.400831 4.2891
-15.2164 -0.561461 4.1724
-14.5414 -1.34595 4.3993
-14.4014 -1.22873 4.5286
-14.2304 -2.34549 4.687
-14.0734 -2.28358 4.8322
-14.3034 -3.38983 4.9865
-14.7814 -4.30875 5.249
-14.6544 -4.35548 5.4252
-14.1504 -3.38572 5.1483
-14.4644 -4.473 5.3963
-13.9414 -3.43387 5.1408
-14.1994 -4.66742 5.0469
-13.6834 -3.54225 4.8904
-19.8884 -0.714981 3.8367
-18.8204 0.0269393 3.6425
-19.7224 -0.800341 4.3131
-18.7124 -0.101071 4.1191
-17.4394 0.245279 4.0285
-17.4554 0.407719 3.5585
-19.5654 -0.920191 4.4262
-19.4374 -1.05359 4.3024
-18.5364 -0.430591 4.126
-18.6144 -0.262721 4.2401
-17.4054 -0.126061 4.0416
-17.4214 0.0586693 4.151
-16.2344 -0.162251 4.0551
-16.1874 0.0204693 4.1653
-16.1114 0.218299 4.0508
-15.9974 0.419239 3.6029
-19.3824 -5.18144 5.0032
-20.1814 -4.24624 4.7592
-19.2484 -5.00865 5.493
-20.0024 -4.12766 5.2448
-20.3464 -3.00502 4.9296
-20.5464 -3.05469 4.4481
-19.1204 -4.87649 5.5628
-19.0164 -4.80244 5.3794
-19.6894 -4.01769 5.1524
-19.8294 -4.04832 5.3233
-19.9954 -3.01764 4.8645
-20.1534 -2.99292 5.0195
-19.9184 -1.97277 4.5649
-20.0714 -1.89023 4.7033
-20.2594 -1.83212 4.6012
-20.4564 -1.8099 4.1229
-15.3254 -5.38674 5.1357
-15.4904 -5.16683 5.5641
-16.7824 -5.49986 5.6401
-16.7524 -5.71254 5.1611
-15.6854 -4.93201 5.4254
-15.6074 -5.01323 5.6114
-16.8204 -5.23707 5.51
-16.8054 -5.33517 5.7006
-17.9954 -5.20139 5.4966
-18.0444 -5.29751 5.6865
-18.1054 -5.45659 5.6206
-18.1724 -5.65716 5.127
-15.2774 -0.703801 3.9423
-14.6244 -1.46224 4.1617
-15.3654 -0.885511 3.685
-14.7434 -1.60854 3.8889
-14.4564 -2.529 4.1485
-14.3234 -2.42859 4.4398
-15.5484 -1.16428 3.4869
-14.9874 -1.8158 3.6543
-14.7284 -2.64285 3.8713
-15.1904 -4.24842 4.373
-14.7924 -3.49636 4.1371
-14.9654 -4.33223 4.6752
-14.5244 -3.48808 4.4289
-14.8574 -4.32667 4.9831
-14.3944 -3.43826 4.7294
-19.3614 -1.17959 4.0679
-18.4894 -0.577271 3.8974
-19.2514 -1.33819 3.8045
-18.4214 -0.765521 3.6371
-17.3804 -0.486111 3.5545
-17.3944 -0.282851 3.8158
-19.0264 -1.56941 3.5939
-18.2834 -1.05808 3.4281
-17.3524 -0.810251 3.3384
-16.3884 -0.837371 3.3698
-16.3034 -0.518741 3.572
-16.2624 -0.317841 3.8289
-18.9534 -4.80397 5.1092
-19.6044 -4.04528 4.8897
-18.8634 -4.78629 4.7951
-19.4834 -4.06582 4.5814
-19.7664 -3.14769 4.3119
-19.9004 -3.07842 4.6114
-18.6784 -4.65462 4.4802
-19.2364 -4.01409 4.2739
-19.4934 -3.19785 4.0179
-19.4264 -2.33281 3.7909
-19.6944 -2.18536 4.0412
-19.8254 -2.06825 4.3217
-15.7314 -4.92924 5.1537
-15.7974 -4.90793 4.833
-16.8424 -5.19058 4.906
-16.8294 -5.22416 5.2354
-15.9354 -4.7711 4.4999
-16.8694 -5.03045 4.5508
-17.8364 -4.99251 4.5584
-17.9234 -5.15563 4.8984
-17.9664 -5.18967 5.2225
-10.9004 -3.6522 1.0713
-10.8774 -3.99489 0.456699
-11.4914 -3.73428 1.1295
-11.4674 -4.0841 0.497599
-11.4734 -4.1996 -0.330201
-10.8844 -4.10621 -0.349401
-12.0704 -3.84096 1.2672
-12.0454 -4.21231 0.583299
-12.0514 -4.34049 -0.309501
-12.1504 -3.85863 -2.0251
-12.0874 -4.22333 -1.237
-11.5694 -3.72478 -1.9269
-11.5084 -4.08006 -1.1923
-10.9804 -3.63382 -1.9064
-10.9194 -3.98594 -1.1896
-11.0644 -3.04962 -2.3423
-11.6554 -3.13305 -2.3724
-11.7494 -2.42395 -2.543
-11.1564 -2.35061 -2.5106
-12.2404 -3.24424 -2.4996
-12.3394 -2.5047 -2.6769
-12.4924 -1.14846 -2.2051
-12.4284 -1.76459 -2.5733
-11.8964 -1.12999 -2.1159
-11.8354 -1.71657 -2.4528
-11.2994 -1.07733 -2.0985
-11.2404 -1.65409 -2.4249
-11.3204 -0.737611 -1.5448
-11.9164 -0.783291 -1.5466
-11.9014 -0.674041 -0.843801
-11.3064 -0.632211 -0.860501
-12.5134 -0.780891 -1.5886
-12.4974 -0.660261 -0.830701
-12.3834 -1.15346 0.682699
-12.4524 -0.784981 -0.038001
-11.7934 -1.15824 0.565199
-11.8584 -0.799831 -0.106901
-11.2004 -1.11349 0.513799
-11.2644 -0.758411 -0.142101
-11.1194 -1.69473 1.0106
-11.7114 -1.74684 1.0733
-11.6254 -2.44969 1.3689
-11.0344 -2.38781 1.3007
-12.2984 -1.76408 1.2246
-12.2094 -2.49605 1.5367
-12.1294 -3.22861 1.5679
-11.5484 -3.15082 1.4038
-10.9574 -3.0784 1.3368
-10.0134 -2.21504 -2.6472
-9.91939 -2.94479 -2.4716
-10.1614 -0.884121 -2.2105
-10.1824 -0.528151 -1.6269
-10.1704 -0.416661 -0.906301
-10.1684 -0.351081 -0.914901
-10.1814 -0.467511 -1.6641
-10.1594 -0.836401 -2.2714
3 0 1 2
3 0 2 3
3 2 4 5
3 2 5 3
3 5 6 7
3 5 7 3
3 7 8 0
3 7 0 3
3 9 10 11
3 9 11 12
3 11 13 14
3 11 14 12
3 14 6 5
3 14 5 12
3 5 4 9
3 5 9 12
3 15 16 17
3 15 17 18
3 17 19 20
3 17 20 18
3 20 6 14
3 20 14 18
3 14 13 15
3 14 15 18
3 21 22 23
3 21 23 24
3 23 8 7
3 23 7 24
3 7 6 20
3 7 20 24
3 20 19 21
3 20 21 24
3 25 26 27
3 25 27 28
3 27 29 30
3 27 30 28
3 31 32 33
3 31 33 34
3 33 35 36
3 33 36 34
3 36 29 27
3 36 27 34
3 27 26 31
3 27 31 34
3 37 38 39
3 37 39 40
3 39 41 42
3 39 42 40
3 42 29 36
3 42 36 40
3 36 35 37
3 36 37 40
3 43 44 45
3 43 45 46
3 45 30 46
3 30 29 42
3 30 42 46
3 42 41 43
3 42 43 46
3 47 48 49
3 48 50 51
3 48 51 49
3 51 52 53
3 51 53 49
3 53 54 47
3 53 47 49
3 55 56 57
3 55 57 58
3 57 59 60
3 57 60 58
3 60 52 51
3 60 51 58
3 51 50 55
3 51 55 58
3 61 32 31
3 61 31 62
3 31 26 63
3 31 63 62
3 63 52 60
3 63 60 62
3 60 59 61
3 60 61 62
3 25 64 65
3 64 54 53
3 64 53 65
3 53 52 63
3 53 63 65
3 63 26 25
3 63 25 65
3 66 67 68
3 66 68 69
3 68 70 71
3 68 71 69
3 71 72 73
3 71 73 69
3 73 74 66
3 73 66 69
3 75 76 77
3 75 77 78
3 77 79 80
3 77 80 78
3 80 72 71
3 80 71 78
3 71 70 75
3 71 75 78
3 81 56 55
3 81 55 82
3 55 50 83
3 55 83 82
3 83 72 80
3 83 80 82
3 80 79 81
3 80 81 82
3 48 84 85
3 84 74 73
3 84 73 85
3 73 72 83
3 73 83 85
3 83 50 48
3 83 48 85
3 86 44 43
3 86 43 87
3 43 41 88
3 43 88 87
3 88 89 90
3 88 90 87
3 90 91 86
3 90 86 87
3 39 38 92
3 39 92 93
3 92 94 95
3 92 95 93
3 95 89 88
3 95 88 93
3 88 41 39
3 88 39 93
3 96 76 75
3 96 75 97
3 75 70 98
3 75 98 97
3 98 89 95
3 98 95 97
3 95 94 96
3 95 96 97
3 68 67 99
3 68 99 100
3 99 91 90
3 99 90 100
3 90 89 98
3 90 98 100
3 98 70 68
3 98 68 100
3 101 102 103
3 101 103 104
3 103 105 106
3 103 106 104
3 106 107 108
3 106 108 104
3 108 109 101
3 108 101 104
3 110 111 112
3 110 112 113
3 112 114 115
3 112 115 113
3 115 107 106
3 115 106 113
3 106 105 110
3 106 110 113
3 116 117 118
3 116 118 119
3 118 120 121
3 118 121 119
3 121 107 115
3 121 115 119
3 115 114 116
3 115 116 119
3 122 123 124
3 122 124 125
3 124 109 108
3 124 108 125
3 108 107 121
3 108 121 125
3 121 120 122
3 121 122 125
3 126 127 128
3 126 128 129
3 128 130 131
3 128 131 129
3 131 132 133
3 131 133 129
3 133 134 126
3 133 126 129
3 135 136 137
3 135 137 138
3 137 139 140
3 137 140 138
3 140 132 131
3 140 131 138
3 131 130 135
3 131 135 138
3 141 111 110
3 141 110 142
3 110 105 143
3 110 143 142
3 143 132 140
3 143 140 142
3 140 139 141
3 140 141 142
3 103 102 144
3 103 144 145
3 144 134 133
3 144 133 145
3 133 132 143
3 133 143 145
3 143 105 103
3 143 103 145
3 146 147 148
3 146 148 149
3 148 150 151
3 148 151 149
3 151 152 153
3 151 153 149
3 153 154 146
3 153 146 149
3 155 156 157
3 155 157 158
3 157 159 160
3 157 160 158
3 160 152 151
3 160 151 158
3 151 150 155
3 151 155 158
3 161 136 135
3 161 135 162
3 135 130 163
3 135 163 162
3 163 152 160
3 163 160 162
3 160 159 161
3 160 161 162
3 128 127 164
3 128 164 165
3 164 154 153
3 164 153 165
3 153 152 163
3 153 163 165
3 163 130 128
3 163 128 165
3 166 123 122
3 166 122 167
3 122 120 168
3 122 168 167
3 168 169 170
3 168 170 167
3 170 171 166
3 170 166 167
3 118 117 172
3 118 172 173
3 172 174 175
3 172 175 173
3 175 169 168
3 175 168 173
3 168 120 118
3 168 118 173
3 176 156 155
3 176 155 177
3 155 150 178
3 155 178 177
3 178 169 175
3 178 175 177
3 175 174 176
3 175 176 177
3 148 147 179
3 148 179 180
3 179 171 170
3 179 170 180
3 170 169 178
3 170 178 180
3 178 150 148
3 178 148 180
3 112 111 181
3 112 181 182
3 181 183 184
3 181 184 182
3 184 185 186
3 184 186 182
3 186 114 112
3 186 112 182
3 187 1 0
3 187 0 188
3 0 8 189
3 0 189 188
3 189 185 184
3 189 184 188
3 184 183 187
3 184 187 188
3 23 22 190
3 23 190 191
3 190 192 193
3 190 193 191
3 193 185 189
3 193 189 191
3 189 8 23
3 189 23 191
3 194 117 116
3 194 116 195
3 116 114 186
3 116 186 195
3 186 185 193
3 186 193 195
3 193 192 194
3 193 194 195
3 196 197 198
3 196 198 199
3 198 200 201
3 198 201 199
3 201 202 203
3 201 203 199
3 203 204 196
3 203 196 199
3 205 206 207
3 205 207 208
3 207 209 210
3 207 210 208
3 210 202 201
3 210 201 208
3 201 200 205
3 201 205 208
3 211 212 213
3 211 213 214
3 213 215 216
3 213 216 214
3 216 202 210
3 216 210 214
3 210 209 211
3 210 211 214
3 217 218 219
3 217 219 220
3 219 204 203
3 219 203 220
3 203 202 216
3 203 216 220
3 216 215 217
3 216 217 220
3 157 156 221
3 157 221 222
3 221 223 224
3 221 224 222
3 224 225 226
3 224 226 222
3 226 159 157
3 226 157 222
3 227 16 15
3 227 15 228
3 15 13 229
3 15 229 228
3 229 225 224
3 229 224 228
3 224 223 227
3 224 227 228
3 11 10 230
3 11 230 231
3 230 232 233
3 230 233 231
3 233 225 229
3 233 229 231
3 229 13 11
3 229 11 231
3 234 136 161
3 234 161 235
3 161 159 226
3 161 226 235
3 226 225 233
3 226 233 235
3 233 232 234
3 233 234 235
3 172 117 194
3 172 194 236
3 194 192 237
3 194 237 236
3 237 238 239
3 237 239 236
3 239 174 172
3 239 172 236
3 190 22 21
3 190 21 240
3 21 19 241
3 21 241 240
3 241 238 237
3 241 237 240
3 237 192 190
3 237 190 240
3 17 16 227
3 17 227 242
3 227 223 243
3 227 243 242
3 243 238 241
3 243 241 242
3 241 19 17
3 241 17 242
3 221 156 176
3 221 176 244
3 176 174 239
3 176 239 244
3 239 238 243
3 239 243 244
3 243 223 221
3 243 221 244
3 137 136 245
3 137 245 246
3 245 247 248
3 245 248 246
3 248 249 250
3 248 250 246
3 250 139 137
3 250 137 246
3 251 252 253
3 251 253 254
3 253 255 256
3 253 256 254
3 256 249 248
3 256 248 254
3 248 247 251
3 248 251 254
3 257 258 259
3 257 259 260
3 259 261 262
3 259 262 260
3 262 249 256
3 262 256 260
3 256 255 257
3 256 257 260
3 263 111 141
3 263 141 264
3 141 139 250
3 141 250 264
3 250 249 262
3 250 262 264
3 262 261 263
3 262 263 264
3 230 10 265
3 230 265 266
3 265 267 268
3 265 268 266
3 268 269 270
3 268 270 266
3 270 232 230
3 270 230 266
3 271 272 273
3 271 273 274
3 273 275 276
3 273 276 274
3 276 269 268
3 276 268 274
3 268 267 271
3 268 271 274
3 277 252 251
3 277 251 278
3 251 247 279
3 251 279 278
3 279 269 276
3 279 276 278
3 276 275 277
3 276 277 278
3 245 136 234
3 245 234 280
3 234 232 270
3 234 270 280
3 270 269 279
3 270 279 280
3 279 247 245
3 279 245 280
3 2 1 281
3 2 281 282
3 281 283 284
3 281 284 282
3 284 285 286
3 284 286 282
3 286 4 2
3 286 2 282
3 287 288 289
3 287 289 290
3 289 291 292
3 289 292 290
3 292 285 284
3 292 284 290
3 284 283 287
3 284 287 290
3 293 272 271
3 293 271 294
3 271 267 295
3 271 295 294
3 295 285 292
3 295 292 294
3 292 291 293
3 292 293 294
3 265 10 9
3 265 9 296
3 9 4 286
3 9 286 296
3 286 285 295
3 286 295 296
3 295 267 265
3 295 265 296
3 181 111 263
3 181 263 297
3 263 261 298
3 263 298 297
3 298 299 300
3 298 300 297
3 300 183 181
3 300 181 297
3 259 258 301
3 259 301 302
3 301 303 304
3 301 304 302
3 304 299 298
3 304 298 302
3 298 261 259
3 298 259 302
3 305 288 287
3 305 287 306
3 287 283 307
3 287 307 306
3 307 299 304
3 307 304 306
3 304 303 305
3 304 305 306
3 281 1 187
3 281 187 308
3 187 183 300
3 187 300 308
3 300 299 307
3 300 307 308
3 307 283 281
3 307 281 308
3 253 252 309
3 253 309 310
3 309 311 312
3 309 312 310
3 312 313 314
3 312 314 310
3 314 255 253
3 314 253 310
3 315 197 196
3 315 196 316
3 196 204 317
3 196 317 316
3 317 313 312
3 317 312 316
3 312 311 315
3 312 315 316
3 219 218 318
3 219 318 319
3 318 320 321
3 318 321 319
3 321 313 317
3 321 317 319
3 317 204 219
3 317 219 319
3 322 258 257
3 322 257 323
3 257 255 314
3 257 314 323
3 314 313 321
3 314 321 323
3 321 320 322
3 321 322 323
3 273 272 324
3 273 324 325
3 324 326 327
3 324 327 325
3 327 328 329
3 327 329 325
3 329 275 273
3 329 273 325
3 330 206 205
3 330 205 331
3 205 200 332
3 205 332 331
3 332 328 327
3 332 327 331
3 327 326 330
3 327 330 331
3 198 197 315
3 198 315 333
3 315 311 334
3 315 334 333
3 334 328 332
3 334 332 333
3 332 200 198
3 332 198 333
3 309 252 277
3 309 277 335
3 277 275 329
3 277 329 335
3 329 328 334
3 329 334 335
3 334 311 309
3 334 309 335
3 289 288 336
3 289 336 337
3 336 338 339
3 336 339 337
3 339 340 341
3 339 341 337
3 341 291 289
3 341 289 337
3 342 212 211
3 342 211 343
3 211 209 344
3 211 344 343
3 344 340 339
3 344 339 343
3 339 338 342
3 339 342 343
3 207 206 330
3 207 330 345
3 330 326 346
3 330 346 345
3 346 340 344
3 346 344 345
3 344 209 207
3 344 207 345
3 324 272 293
3 324 293 347
3 293 291 341
3 293 341 347
3 341 340 346
3 341 346 347
3 346 326 324
3 346 324 347
3 301 258 322
3 301 322 348
3 322 320 349
3 322 349 348
3 349 350 351
3 349 351 348
3 351 303 301
3 351 301 348
3 318 218 217
3 318 217 352
3 217 215 353
3 217 353 352
3 353 350 349
3 353 349 352
3 349 320 318
3 349 318 352
3 213 212 342
3 213 342 354
3 342 338 355
3 342 355 354
3 355 350 353
3 355 353 354
3 353 215 213
3 353 213 354
3 336 288 305
3 336 305 356
3 305 303 351
3 305 351 356
3 351 350 355
3 351 355 356
3 355 338 336
3 355 336 356
3 33 32 357
3 33 357 358
3 357 359 360
3 357 360 358
3 360 361 362
3 360 362 358
3 362 35 33
3 362 33 358
3 363 102 101
3 363 101 364
3 101 109 365
3 101 365 364
3 365 361 360
3 365 360 364
3 360 359 363
3 360 363 364
3 124 123 366
3 124 366 367
3 366 368 369
3 366 369 367
3 369 361 365
3 369 365 367
3 365 109 124
3 365 124 367
3 370 38 37
3 370 37 371
3 37 35 362
3 37 362 371
3 362 361 369
3 362 369 371
3 369 368 370
3 369 370 371
3 92 38 370
3 92 370 372
3 370 368 373
3 370 373 372
3 373 374 375
3 373 375 372
3 375 94 92
3 375 92 372
3 366 123 166
3 366 166 376
3 166 171 377
3 166 377 376
3 377 374 373
3 377 373 376
3 373 368 366
3 373 366 376
3 179 147 378
3 179 378 379
3 378 380 381
3 378 381 379
3 381 374 377
3 381 377 379
3 377 171 179
3 377 179 379
3 382 76 96
3 382 96 383
3 96 94 375
3 96 375 383
3 375 374 381
3 375 381 383
3 381 380 382
3 381 382 383
3 77 76 382
3 77 382 384
3 382 380 385
3 382 385 384
3 385 386 387
3 385 387 384
3 387 79 77
3 387 77 384
3 378 147 146
3 378 146 388
3 146 154 389
3 146 389 388
3 389 386 385
3 389 385 388
3 385 380 378
3 385 378 388
3 164 127 390
3 164 390 391
3 390 392 393
3 390 393 391
3 393 386 389
3 393 389 391
3 389 154 164
3 389 164 391
3 394 56 81
3 394 81 395
3 81 79 387
3 81 387 395
3 387 386 393
3 387 393 395
3 393 392 394
3 393 394 395
3 57 56 394
3 57 394 396
3 394 392 397
3 394 397 396
3 397 398 399
3 397 399 396
3 399 59 57
3 399 57 396
3 390 127 126
3 390 126 400
3 126 134 401
3 126 401 400
3 401 398 397
3 401 397 400
3 397 392 390
3 397 390 400
3 144 102 363
3 144 363 402
3 363 359 403
3 363 403 402
3 403 398 401
3 403 401 402
3 401 134 144
3 401 144 402
3 357 32 61
3 357 61 404
3 61 59 399
3 61 399 404
3 399 398 403
3 399 403 404
3 403 359 357
3 403 357 404
3 86 91 405
3 86 405 406
3 99 67 407
3 405 91 99
3 407 67 66
3 407 66 408
3 66 74 409
3 66 409 408
3 409 410 411
3 409 411 408
3 411 412 407
3 411 407 408
3 409 74 84
