0.36617
0.341993
0.390002
0.393384
0.22377
0.253448
0.309401
0.35237
0.350685
0.318179
0.307106
0.289752
0.205628
0.225174
0.349536
0.186113
0.338739
0.319664
0.260653
0.282707
0.178555
0.214926
0.285833
0.26321
0.343713
0.312208
0.238577
0.352751
0.113545
0.178166
0.41111
0.426081
0.574516
0.400826
0.384196
0.524313
0.490508
0.411637
0.643161
0.47641
0.495119
0.557453
0.587092
0.507592
0.395449
0.445174
0.463976
0.489652
0.438883
0.522121
0.441534
0.502635
0.503993
0.478142
0.483412
0.4928
0.63828
0.552491
0.523534
0.507543
0.524435
0.3248
0.563301
0.439918
0.42846
0.666824
0.58147
0.385256
0.58449
0.260513
0.690241
0.311321
0.542876
0.414937
0.306797
0.388903
0.357298
0.313157
0.317147
0.40442
0.551947
0.431492
0.654595
0.610663
0.540549
0.144431
0.538323
0.352629
0.289043
0.611297
0.428494
0.610374
0.587453
0.557499
0.643304
0.407558
0.308023
0.569572
0.527878
0.279258
0.410529
0.306303
0.578062
0.619332
0.331865
0.465989
0.360997
0.456128
0.547991
0.546855
0.306084
0.594022
0.588862
0.487466
0.385907
0.489723
0.540624
0.488763
0.503337
0.414731
0.426991
0.619013
0.481751
0.380604
0.345102
0.48918
0.419315
0.598496
0.498387
0.501094
0.48493
0.339226
0.672829
0.0804335
0.385643
0.496632
0.359204
0.362485
0.478074
0.0557362
0.651232
0.360222
0.432534
0.363141
0.413274
0.342142
0.347857
0.31956
0.413454
0.37603
0.235027
0.251867
0.288698
0.203762
0.28229
0.370747
0.324431
0.414265
0.34027
0.1948
0.274483
0.433192
0.304765
1
0.270179
0.211611
0.431328
0.414751
0.372468
0.394778
0.317091
0.343253
0.365592
0.350824
0.288203
0.362283
0.310215
0.347143
0.318199
0.416233
0.381919
0.448817
0.214887
0.374855
0.297256
0.399371
0.473507
0.376897
0.329209
0.267282
0.388921
0.188966
0.390705
0.418343
0.492098
0.354395
0.294249
0.238504
0.157633
0.362943
0.367307
0.455936
0.422834
0.465462
0.376748
0.34611
0.354973
0.41795
0.208179
0.346644
0.309885
0.357377
0.335438
0.422601
0.166974
0.277194
0.182139
0.256077
0.324942
0.244238
0.344045
0.296203
0.193073
0.28909
0.423529
0.241985
0.535722
0.249821
0.203426
0.322354
0.336449
0.333545
0.418688
0.383098
0.253097
0.337023
0.287437
0.400024
0.464117
0.439461
0.420616
0.4178
0.342197
0.397822
0.440928
0.473377
0.260606
0.230415
0.439122
0.211828
0.331049
0.424003
0.35215
0.430121
0.157813
0.419562
0.465824
0.329937
0.555687
0.57701
0.42426
0.31972
0.468837
0.31671
0.347771
0.461649
0.365676
0.448459
0.315295
0.384031
0.199678
0.41587
0.424554
0.204415
0.226365
0.257073
0.184605
0.164875
0.306026
0.229619
0.206455
0.183738
0.176733
0.171037
0.175907
0.263266
0.279662
0.235047
0.194909
0.234413
0.183519
0.238505
0.208615
0.195898
0.167458
0.330617
0.186946
0.231641
0.228039
0.174161
0.395632
0.190049
0.321789
0.163931
0.1434
0.41447
0
0.41873
0.389762
0.169446
0.230514
0.335732
0.254796
0.369989
0.292312
0.174933
0.331888
0.154564
0.262879
0.193546
0.161143
0.229185
0.104159
0.136661
0.179266
0.279183
0.16995
0.347194
0.287148
0.607247
0.262405
0.122992
0.259321
0.172473
0.440051
0.185879
0.163528
0.40901
0.173136
0.329246
0.355857
0.146371
0.198339
0.342061
0.204855
0.218339
0.697933
0.162679
0.240877
0.174371
0.204202
0.337983
0.312831
0.177296
0.33307
0.170283
0.197313
0.20473
0.389683
0.19189
0.396188
0.16223
0.165636
0.318603
0.18508
0.375908
0.251338
0.213845
0.355027
0.179117
0.238511
0.169011
0.22402
0.298836
0.281624
0.249404
0.288607
0.254752
0.222498
0.30739
0.221633
0.322654
0.23326
0.335838
0.312844
0.15352
0.151997
0.162568
0.25121
0.346348
0.322971
0.221179
0.149897
0.058473
0.561178
0.379552
0.0995322
0.601011
0.279959
0.244425
0.174798
0.255625
0.199051
0.235505
0.202141
0.196356
0.251569
0.227069
0.255333
0.2003
0.252416
0.201713
0.273669
0.225033
0.26948
0.255834
0.23435
0.237626
0.239382
0.200898
0.23349
0.220765
0.247612
0.239119
0.233739
0.210031
0.183626
0.265937
0.227705
0.268007
0.296571
0.190921
0.288842
0.259443
0.269776
0.245545
0.266509
0.201241
0.264946
0.206713
0.282395
0.220452
0.248439
0.288753
0.233181
0.297224
0.300362
0.273189
0.264841
0.112726
0.245719
0.238246
0.23634
0.230495
0.256165
0.265585
0.229766
0.272898
0.258672
0.246975
0.210725
0.279048
0.293335
0.213812
0.2163
0.286702
0.225408
0.231735
0.231797
0.211467
0.272063
0.229272
0.214682
0.16149
0.225791
0.254994
0.285443
0.23383
0.21462
0.207568
0.244348
0.26713
0.257769
0.285742
0.220972
0.229801
0.262035
0.196201
0.271582
0.18799
0.198196
0.250471
0.232131
0.251424
0.269428
0.236853
0.199624
0.272267
0.208147
0.274399
0.305897
0.19913
0.29423
0.25431
0.298702
0.271308
0.276263
0.246108
0.275118
0.204887
0.330173
0.296082
0.215558
0.242429
0.191217
0.274709
0.320629
0.264384
0.214006
0.179185
0.28617
0.264257
0.18226
0.265647
0.239582
0.28203
0.276775
0.318037
0.380089
0.380251
0.38
0.346417
0.29286
0.310078
0.430941
0.450307
0.455308
0.439921
0.384795
0.411569
0.432223
0.427523
0.487404
0.47198
0.422968
0.442598
0.421593
0.450099
0.461983
0.455514
0.294
0.362902
0.289754
0.351193
0.38506
0.403325
0.423881
0.381125
0.294746
0.302202
0.333412
0.312554
0.40055
0.288078
0.314744
0.307038
0.531066
0.426732
0.387488
0.364431
0.421864
0.425096
0.437648
0.438328
0.45974
0.402801
0.429157
0.426385
0.468179
0.502682
0.582584
0.532199
0.282696
0.261002
0.282976
0.343848
0.355027
0.314171
0.407033
0.38332
0.282898
0.315105
0.402891
0.389683
0.34199
0.345081
0.289335
0.312556
0.469621
0.447931
0.472625
0.438363
0.383035
0.422653
0.430078
0.406844
0.470182
0.450047
0.348112
0.408132
0.342519
0.394718
0.470186
0.438454
0.264279
0.262394
0.284489
0.259667
0.337719
0.295223
0.334474
0.305003
0.361381
0.371522
0.473916
0.397262
0.351675
0.429958
0.352919
0.389659
0.477458
0.4148
0.58421
0.54174
0.498494
0.471122
0.469593
0.412264
0.548688
0.487234
0.497298
0.414319
0.41351
0.367736
0.375765
0.36607
0.328915
0.370168
0.375186
0.415496
0.366052
0.45567
0.455343
0.421411
0.52444
0.479745
0.583507
0.48488
0.525802
0.511972
0.508063
0.485966
0.440172
0.440396
0.374759
0.4494
0.519298
0.482266
0.494285
0.542738
0.439056
0.447038
0.538162
0.524006
0.520436
0.472914
0.369076
0.459765
0.522109
0.482453
0.51101
0.478808
0.526932
0.501816
0.589493
0.500929
0.54648
0.450528
0.581747
0.530048
0.548125
0.566476
0.51148
0.61439
0.410599
0.348616
0.310381
0.421952
0.525853
0.442718
0.498875
0.514792
0.432248
0.378686
0.451361
0.489432
0.406085
0.458247
0.413944
0.455941
0.557511
0.548998
0.550886
0.404929
0.525119
0.599805
0.555751
0.528318
0.470526
0.523457
0.41479
0.432207
0.535298
0.477884
0.505233
0.465068
0.485529
0.481727
0.375864
0.448197
0.492876
0.44016
0.489967
0.510124
0.451577
0.465534
0.488634
0.465381
0.491311
0.495621
0.359032
0.431715
0.464657
0.547179
0.497367
0.464782
0.385419
0.59502
0.484989
0.489416
0.562967
0.545237
0.595497
0.523137
0.468935
0.617017
0.520837
0.400628
0.431767
0.413932
0.41393
0.456157
0.405878
0.473754
0.454475
0.56111
0.416543
0.365506
0.55075
0.521645
0.525839
0.47588
0.310365
0.422166
0.540711
0.450493
0.510815
0.599727
0.556628
0.613442
0.584398
0.526586
0.493372
0.502864
0.477657
0.509672
0.49917
0.443067
0.475817
0.47017
0.336221
0.527968
0.445163
0.44604
0.48511
0.512917
0.441545
0.475501
0.407246
0.394393
0.44799
0.532107
0.50649
0.465071
0.385438
0.401723
0.440586
0.486269
0.457602
0.485067
0.390707
0.471588
0.467274
0.538121
0.463545
0.500571
0.570123
0.490377
0.55558
0.428634
0.554218
0.53948
0.482986
0.51715
0.499319
0.42665
0.588485
0.432295
0.567191
0.511328
0.479664
0.475556
0.592375
0.525583
0.513431
0.543697
0.509686
0.314805
0.383075
0.543907
0.551792
0.522683
0.380502
0.566754
0.480179
0.457472
0.31391
0.483514
0.545265
0.491316
0.479329
0.503734
0.446563
0.552299
0.480198
0.477435
0.462576
0.489972
0.474599
0.540866
0.507386
0.48659
0.508152
0.497728
0.524394
0.535664
0.496676
0.481992
0.432265
0.459978
0.473702
0.459502
0.500624
0.489737
0.495743
0.479493
0.483929
0.526382
0.551997
0.462705
0.573398
0.465396
0.429278
0.570106
0.355194
0.354625
0.462995
0.518641
0.497139
0.0999713
0.558886
0.516448
0.538185
0.563834
0.535983
0.504311
0.576515
0.548501
0.589683
0.430823
0.49665
0.528368
0.426439
0.429569
0.399144
0.575967
0.371841
0.532395
0.556301
0.424894
0.634176
0.627442
0.669472
0.690455
