OFF
276 534 0
5.21612 -16.3589 9.47744
4.69812 -16.3495 9.32614
4.49312 -16.3589 8.98784
5.14712 -16.3762 9.03374
4.40612 -16.3635 8.49137
5.06812 -16.382 8.49722
5.86412 -16.3882 8.49918
5.92212 -16.382 9.07584
5.97012 -16.3635 9.55214
4.52012 -16.3589 7.992
4.72312 -16.3495 7.64767
5.14312 -16.3589 7.50238
5.10012 -16.3762 7.95701
5.75612 -16.3635 7.43062
5.80512 -16.382 7.91861
6.38312 -16.3589 7.50238
6.83212 -16.3495 7.64767
7.10512 -16.3589 7.992
6.51812 -16.3762 7.95701
7.32012 -16.3635 8.49137
6.65912 -16.382 8.49722
7.33412 -16.3589 8.98784
7.19812 -16.3495 9.32614
6.71112 -16.3589 9.47744
6.68912 -16.3762 9.03374
4.03012 -3.5328 2.37491
4.02412 -3.5403 2.40477
3.59312 -3.5403 2.30281
5.04512 -3.5403 3.50602
4.84512 -3.5403 3.08897
4.93512 -3.5328 3.10477
4.47312 -3.5403 2.69435
3.22512 -3.5403 4.12192
2.73312 -3.5529 3.9491
3.27212 -3.5529 4.08725
2.81012 -3.6722 3.99466
3.33212 -3.6722 4.13014
3.95412 -3.6722 4.16374
3.91512 -3.5529 4.12172
3.91012 -3.5403 4.15964
2.92712 -3.9999 4.15906
3.13112 -4.6378 4.4896
3.64712 -4.6378 4.63785
3.44312 -3.9999 4.2979
4.26212 -4.6378 4.67735
4.05912 -3.9999 4.33314
4.83512 -4.6378 4.59816
5.22212 -4.6378 4.39037
5.01912 -3.9999 4.04861
4.63112 -3.9999 4.25372
4.92512 -3.6722 3.87908
4.53312 -3.6722 4.08391
4.91812 -3.5529 3.83333
4.97712 -3.5403 3.86291
4.54612 -3.5403 4.07705
4.51312 -3.5529 4.04094
2.64512 -3.5529 2.82021
2.72612 -3.6722 2.88555
2.53312 -3.6722 3.1807
2.44712 -3.5529 3.11993
2.45412 -3.6722 3.48634
2.36512 -3.5529 3.43096
2.84412 -3.9999 3.03046
3.04612 -4.6378 3.3032
2.85712 -4.6378 3.60983
2.65412 -3.9999 3.32813
2.77912 -4.6378 3.9361
2.57612 -3.9999 3.63894
2.85612 -4.6378 4.24252
2.65212 -3.9999 3.92767
2.53212 -3.6722 3.76886
2.44612 -3.5529 3.71884
4.02212 -3.5529 2.42659
3.61812 -3.5529 2.33475
4.05812 -3.6722 2.49259
3.66712 -3.6722 2.40334
3.30512 -3.6722 2.4622
3.24412 -3.5529 2.39289
4.16212 -3.9999 2.65493
4.36512 -4.6378 2.96583
3.97812 -4.6378 2.85727
3.77412 -3.9999 2.56027
3.62012 -4.6378 2.89716
3.41712 -3.9999 2.6134
3.30512 -4.6378 3.05573
3.10312 -3.9999 2.78117
2.98712 -3.6722 2.63449
2.91612 -3.5529 2.56629
4.98212 -3.5529 3.4873
4.98612 -3.6722 3.5377
4.80512 -3.6722 3.1396
4.79412 -3.5529 3.08365
5.28412 -4.6378 4.04406
5.08012 -3.9999 3.70677
5.10412 -4.6378 3.63841
4.90012 -3.9999 3.30759
4.76912 -4.6378 3.2526
4.56512 -3.9999 2.93051
4.46612 -3.6722 2.76462
4.44412 -3.5529 2.70316
5.04912 -10.16 7.43635
4.48812 -10.16 7.20842
4.57812 -11.7093 7.86851
5.18412 -11.7093 8.11749
4.54612 -13.1339 8.43498
5.20512 -13.1339 8.70282
6.00812 -13.1339 8.79191
5.91612 -11.7093 8.19976
5.72312 -10.16 7.51049
4.44712 -14.3566 8.89584
4.33512 -15.3001 9.23904
5.09412 -15.3001 9.53484
5.16012 -14.3566 9.17954
6.02712 -15.3001 9.63344
6.03412 -14.3566 9.27404
6.93512 -15.3001 9.53484
7.62012 -15.3001 9.23904
7.50712 -14.3566 8.89584
6.87912 -14.3566 9.17954
7.34112 -13.1339 8.43315
6.77912 -13.1339 8.70208
7.10912 -11.7093 7.86118
6.80012 -10.16 7.19009
6.35812 -10.16 7.42902
6.61312 -11.7093 8.11456
4.21312 -10.16 5.90951
4.44112 -10.16 5.51863
4.57212 -11.7093 6.0353
4.30612 -11.7093 6.45468
4.59112 -13.1339 6.46903
4.27912 -13.1339 6.91652
4.13312 -13.1339 7.45274
4.18712 -11.7093 6.95484
4.11512 -10.16 6.37086
4.54312 -14.3566 6.81539
4.47512 -15.3001 7.06999
4.07712 -15.3001 7.56295
4.18412 -14.3566 7.28822
3.88312 -15.3001 8.15451
4.01312 -14.3566 7.85561
3.95012 -15.3001 8.74606
4.08212 -14.3566 8.423
4.20512 -13.1339 7.98859
4.19112 -10.16 6.82855
4.26112 -11.7093 7.45354
5.54212 -10.16 5.2357
5.97312 -10.16 5.4563
6.31512 -11.7093 6.01037
5.84012 -11.7093 5.76432
6.58512 -13.1339 6.46279
6.05912 -13.1339 6.19569
5.52412 -13.1339 6.10807
5.37112 -11.7093 5.68793
5.12712 -10.16 5.17623
6.79112 -14.3566 6.81539
6.93612 -15.3001 7.06999
6.31412 -15.3001 6.77421
6.21312 -14.3566 6.5317
5.65612 -15.3001 6.67562
5.61112 -14.3566 6.43713
5.02212 -15.3001 6.77421
5.03712 -14.3566 6.5317
5.02012 -13.1339 6.19936
4.75312 -10.16 5.27237
4.93812 -11.7093 5.77899
6.89812 -10.16 6.79188
7.24412 -11.7093 7.43887
7.52012 -13.1339 7.98492
7.39912 -13.1339 7.44724
7.10112 -11.7093 6.93284
6.73612 -10.16 6.31586
7.88112 -15.3001 8.74606
7.73112 -14.3566 8.423
7.80012 -15.3001 8.15451
7.63212 -14.3566 7.85561
7.45812 -15.3001 7.56295
7.29112 -14.3566 7.28822
7.05912 -13.1339 6.90992
6.40012 -10.16 5.84351
6.76312 -11.7093 6.42827
3.46612 -5.6875 5.03356
3.98212 -5.6875 5.1973
3.85512 -7.0344 5.71719
4.37612 -7.0344 5.90062
4.99712 -7.0344 5.9559
4.59712 -5.6875 5.24381
4.22112 -8.5635 6.46673
4.75612 -8.5635 6.67218
5.39512 -8.5635 6.737
6.40112 -8.5635 6.43006
5.99212 -8.5635 6.65751
5.96912 -7.0344 5.6585
5.57612 -7.0344 5.87715
5.55812 -5.6875 4.9528
5.17012 -5.6875 5.165
5.61912 -5.6875 4.59914
6.03412 -7.0344 5.29409
5.85612 -7.0344 4.86267
5.43912 -5.6875 4.18283
6.47712 -8.5635 6.05098
6.30512 -8.5635 5.59974
5.55612 -8.5635 4.79875
5.96912 -8.5635 5.15584
5.11412 -7.0344 4.11379
5.52012 -7.0344 4.44299
4.70012 -5.6875 3.47747
5.10412 -5.6875 3.78267
4.31212 -5.6875 3.34603
4.72212 -7.0344 3.95384
4.35812 -7.0344 3.94552
3.95412 -5.6875 3.36414
5.15012 -8.5635 4.60797
4.76912 -8.5635 4.57249
4.15012 -8.5635 4.92343
4.43012 -8.5635 4.68131
3.77212 -7.0344 4.31335
4.03612 -7.0344 4.07123
3.38012 -5.6875 3.75205
3.63912 -5.6875 3.50755
3.19012 -5.6875 4.07341
3.57812 -7.0344 4.65428
3.49912 -7.0344 5.03875
3.11312 -5.6875 4.42511
3.94512 -8.5635 5.28785
3.85912 -8.5635 5.70975
3.93712 -8.5635 6.12432
3.57712 -7.0344 5.41148
3.19012 -5.6875 4.76067
4.26612 -15.8872 9.45254
5.05212 -15.8872 9.75584
4.29012 -16.2018 9.53044
5.06312 -16.2024 9.82864
6.01512 -16.2031 9.92844
6.02312 -15.8872 9.85694
4.45812 -16.3278 9.46644
5.15212 -16.3303 9.73914
6.00012 -16.3329 9.83164
7.46712 -16.3278 9.46644
6.82912 -16.3303 9.73914
7.65812 -16.2018 9.53044
6.94712 -16.2024 9.82864
7.68912 -15.8872 9.45254
6.97012 -15.8872 9.75584
7.97412 -15.8872 8.94704
7.94912 -16.2024 9.03484
7.89412 -16.2031 8.44054
7.90512 -15.8872 8.34049
7.74512 -16.3303 9.01834
7.71612 -16.3329 8.48166
6.96512 -16.3278 7.49363
7.43412 -16.3303 7.94338
7.04212 -16.2018 7.34987
7.56612 -16.2024 7.84579
7.02612 -15.8872 7.2284
7.56212 -15.8872 7.7339
6.37812 -15.8872 6.92511
6.39812 -16.2024 7.05202
5.70412 -16.2031 6.95261
5.68412 -15.8872 6.82401
6.37112 -16.3303 7.22258
5.72512 -16.3329 7.13172
4.55912 -16.3278 7.49363
5.09712 -16.3303 7.22258
4.44912 -16.2018 7.34987
5.03112 -16.2024 7.05202
4.43312 -15.8872 7.2284
5.01312 -15.8872 6.92511
4.01012 -15.8872 7.7339
4.02912 -16.2024 7.84579
3.82612 -16.2031 8.44054
3.80212 -15.8872 8.34049
4.18112 -16.3303 7.94338
4.00912 -16.3329 8.48165
4.09012 -16.3303 9.01834
3.89512 -16.2024 9.03484
3.86812 -15.8872 8.94704
3 0 1 2
3 0 2 3
3 2 4 5
3 2 5 3
3 5 6 7
3 5 7 3
3 7 8 0
3 7 0 3
3 9 10 11
3 9 11 12
3 11 13 14
3 11 14 12
3 14 6 5
3 14 5 12
3 5 4 9
3 5 9 12
3 15 16 17
3 15 17 18
3 17 19 20
3 17 20 18
3 20 6 14
3 20 14 18
3 14 13 15
3 14 15 18
3 21 22 23
3 21 23 24
3 23 8 7
3 23 7 24
3 7 6 20
3 7 20 24
3 20 19 21
3 20 21 24
3 25 26 27
3 28 29 30
3 31 26 25
3 30 29 31
3 32 33 34
3 33 35 36
3 33 36 34
3 36 37 38
3 36 38 34
3 38 39 32
3 38 32 34
3 40 41 42
3 40 42 43
3 42 44 45
3 42 45 43
3 45 37 36
3 45 36 43
3 36 35 40
3 36 40 43
3 46 47 48
3 46 48 49
3 48 50 51
3 48 51 49
3 51 37 45
3 51 45 49
3 45 44 46
3 45 46 49
3 52 53 54
3 52 54 55
3 54 39 38
3 54 38 55
3 38 37 51
3 38 51 55
3 51 50 52
3 51 52 55
3 56 57 58
3 56 58 59
3 58 60 61
3 58 61 59
3 62 63 64
3 62 64 65
3 64 66 67
3 64 67 65
3 67 60 58
3 67 58 65
3 58 57 62
3 58 62 65
3 68 41 40
3 68 40 69
3 40 35 70
3 40 70 69
3 70 60 67
3 70 67 69
3 67 66 68
3 67 68 69
3 61 60 70
3 61 70 71
3 70 35 33
3 70 33 71
3 27 26 72
3 27 72 73
3 72 74 75
3 72 75 73
3 75 76 77
3 75 77 73
3 77 27 73
3 78 79 80
3 78 80 81
3 80 82 83
3 80 83 81
3 83 76 75
3 83 75 81
3 75 74 78
3 75 78 81
3 84 63 62
3 84 62 85
3 62 57 86
3 62 86 85
3 86 76 83
3 86 83 85
3 83 82 84
3 83 84 85
3 77 76 86
3 77 86 87
3 86 57 56
3 86 56 87
3 28 53 52
3 28 52 88
3 52 50 89
3 52 89 88
3 89 90 91
3 89 91 88
3 91 29 28
3 91 28 88
3 48 47 92
3 48 92 93
3 92 94 95
3 92 95 93
3 95 90 89
3 95 89 93
3 89 50 48
3 89 48 93
3 96 79 78
3 96 78 97
3 78 74 98
3 78 98 97
3 98 90 95
3 98 95 97
3 95 94 96
3 95 96 97
3 72 26 31
3 72 31 99
3 31 29 91
3 31 91 99
3 91 90 98
3 91 98 99
3 98 74 72
3 98 72 99
3 100 101 102
3 100 102 103
3 102 104 105
3 102 105 103
3 105 106 107
3 105 107 103
3 107 108 100
3 107 100 103
3 109 110 111
3 109 111 112
3 111 113 114
3 111 114 112
3 114 106 105
3 114 105 112
3 105 104 109
3 105 109 112
3 115 116 117
3 115 117 118
3 117 119 120
3 117 120 118
3 120 106 114
3 120 114 118
3 114 113 115
3 114 115 118
3 121 122 123
3 121 123 124
3 123 108 107
3 123 107 124
3 107 106 120
3 107 120 124
3 120 119 121
3 120 121 124
3 125 126 127
3 125 127 128
3 127 129 130
3 127 130 128
3 130 131 132
3 130 132 128
3 132 133 125
3 132 125 128
3 134 135 136
3 134 136 137
3 136 138 139
3 136 139 137
3 139 131 130
3 139 130 137
3 130 129 134
3 130 134 137
3 140 110 109
3 140 109 141
3 109 104 142
3 109 142 141
3 142 131 139
3 142 139 141
3 139 138 140
3 139 140 141
3 102 101 143
3 102 143 144
3 143 133 132
3 143 132 144
3 132 131 142
3 132 142 144
3 142 104 102
3 142 102 144
3 145 146 147
3 145 147 148
3 147 149 150
3 147 150 148
3 150 151 152
3 150 152 148
3 152 153 145
3 152 145 148
3 154 155 156
3 154 156 157
3 156 158 159
3 156 159 157
3 159 151 150
3 159 150 157
3 150 149 154
3 150 154 157
3 160 135 134
3 160 134 161
3 134 129 162
3 134 162 161
3 162 151 159
3 162 159 161
3 159 158 160
3 159 160 161
3 127 126 163
3 127 163 164
3 163 153 152
3 163 152 164
3 152 151 162
3 152 162 164
3 162 129 127
3 162 127 164
3 165 122 121
3 165 121 166
3 121 119 167
3 121 167 166
3 167 168 169
3 167 169 166
3 169 170 165
3 169 165 166
3 117 116 171
3 117 171 172
3 171 173 174
3 171 174 172
3 174 168 167
3 174 167 172
3 167 119 117
3 167 117 172
3 175 155 154
3 175 154 176
3 154 149 177
3 154 177 176
3 177 168 174
3 177 174 176
3 174 173 175
3 174 175 176
3 147 146 178
3 147 178 179
3 178 170 169
3 178 169 179
3 169 168 177
3 169 177 179
3 177 149 147
3 177 147 179
3 42 41 180
3 42 180 181
3 180 182 183
3 180 183 181
3 183 184 185
3 183 185 181
3 185 44 42
3 185 42 181
3 186 101 100
3 186 100 187
3 100 108 188
3 100 188 187
3 188 184 183
3 188 183 187
3 183 182 186
3 183 186 187
3 123 122 189
3 123 189 190
3 189 191 192
3 189 192 190
3 192 184 188
3 192 188 190
3 188 108 123
3 188 123 190
3 193 47 46
3 193 46 194
3 46 44 185
3 46 185 194
3 185 184 192
3 185 192 194
3 192 191 193
3 192 193 194
3 92 47 193
3 92 193 195
3 193 191 196
3 193 196 195
3 196 197 198
3 196 198 195
3 198 94 92
3 198 92 195
3 189 122 165
3 189 165 199
3 165 170 200
3 165 200 199
3 200 197 196
3 200 196 199
3 196 191 189
3 196 189 199
3 178 146 201
3 178 201 202
3 201 203 204
3 201 204 202
3 204 197 200
3 204 200 202
3 200 170 178
3 200 178 202
3 205 79 96
3 205 96 206
3 96 94 198
3 96 198 206
3 198 197 204
3 198 204 206
3 204 203 205
3 204 205 206
3 80 79 205
3 80 205 207
3 205 203 208
3 205 208 207
3 208 209 210
3 208 210 207
3 210 82 80
3 210 80 207
3 201 146 145
3 201 145 211
3 145 153 212
3 145 212 211
3 212 209 208
3 212 208 211
3 208 203 201
3 208 201 211
3 163 126 213
3 163 213 214
3 213 215 216
3 213 216 214
3 216 209 212
3 216 212 214
3 212 153 163
3 212 163 214
3 217 63 84
3 217 84 218
3 84 82 210
3 84 210 218
3 210 209 216
3 210 216 218
3 216 215 217
3 216 217 218
3 64 63 217
3 64 217 219
3 217 215 220
3 217 220 219
3 220 221 222
3 220 222 219
3 222 66 64
3 222 64 219
3 213 126 125
3 213 125 223
3 125 133 224
3 125 224 223
3 224 221 220
3 224 220 223
3 220 215 213
3 220 213 223
3 143 101 186
3 143 186 225
3 186 182 226
3 186 226 225
3 226 221 224
3 226 224 225
3 224 133 143
3 224 143 225
3 180 41 68
3 180 68 227
3 68 66 222
3 68 222 227
3 222 221 226
3 222 226 227
3 226 182 180
3 226 180 227
3 111 110 228
3 111 228 229
3 228 230 231
3 228 231 229
3 231 232 233
3 231 233 229
3 233 113 111
3 233 111 229
3 234 1 0
3 234 0 235
3 0 8 236
3 0 236 235
3 236 232 231
3 236 231 235
3 231 230 234
3 231 234 235
3 23 22 237
3 23 237 238
3 237 239 240
3 237 240 238
3 240 232 236
3 240 236 238
3 236 8 23
3 236 23 238
3 241 116 115
3 241 115 242
3 115 113 233
3 115 233 242
3 233 232 240
3 233 240 242
3 240 239 241
3 240 241 242
3 171 116 241
3 171 241 243
3 241 239 244
3 241 244 243
3 244 245 246
3 244 246 243
3 246 173 171
3 246 171 243
3 237 22 21
3 237 21 247
3 21 19 248
3 21 248 247
3 248 245 244
3 248 244 247
3 244 239 237
3 244 237 247
3 17 16 249
3 17 249 250
3 249 251 252
3 249 252 250
3 252 245 248
3 252 248 250
3 248 19 17
3 248 17 250
3 253 155 175
3 253 175 254
3 175 173 246
3 175 246 254
3 246 245 252
3 246 252 254
3 252 251 253
3 252 253 254
3 156 155 253
3 156 253 255
3 253 251 256
3 253 256 255
3 256 257 258
3 256 258 255
3 258 158 156
3 258 156 255
3 249 16 15
3 249 15 259
3 15 13 260
3 15 260 259
3 260 257 256
3 260 256 259
3 256 251 249
3 256 249 259
3 11 10 261
3 11 261 262
3 261 263 264
3 261 264 262
3 264 257 260
3 264 260 262
3 260 13 11
3 260 11 262
3 265 135 160
3 265 160 266
3 160 158 258
3 160 258 266
3 258 257 264
3 258 264 266
3 264 263 265
3 264 265 266
3 136 135 265
3 136 265 267
3 265 263 268
3 265 268 267
3 268 269 270
3 268 270 267
3 270 138 136
3 270 136 267
3 261 10 9
3 261 9 271
3 9 4 272
3 9 272 271
3 272 269 268
3 272 268 271
3 268 263 261
3 268 261 271
3 2 1 234
3 2 234 273
3 234 230 274
3 234 274 273
3 274 269 272
3 274 272 273
3 272 4 2
3 272 2 273
3 228 110 140
3 228 140 275
3 140 138 270
3 140 270 275
3 270 269 274
3 270 274 275
3 274 230 228
3 274 228 275
