0.578409
0.793041
0.772838
0.641535
0.760911
0.694564
0.704198
0.605057
0.366024
0.318956
0.532633
0.866616
0.742923
0.601992
0.679203
0.805714
0.799405
0.546304
0.408669
0.801696
0.741222
0.653065
0.56805
0.908188
0.681981
0.789759
0.679453
0.630555
0.749797
0.739814
0.771502
0.641362
0.601745
0.611833
0.630409
0.659885
0.803844
0.57153
0.661882
0.555396
0.824643
0.645944
0.729534
0.754958
0.689467
0.608275
0.687172
0.245268
0.707209
0.837371
0.820884
0.730808
0.572246
0.759251
0.655837
0.772627
0.781935
0.695372
0.838263
0.851065
0.561179
0.693853
0.622217
0.533426
0.479839
0.537355
0.456943
0.498771
0.664793
0.389959
0.271714
0.824337
0.531682
0.488552
0.14404
0.74206
0.675237
0.370125
0.450256
0.418886
0.786449
0.644062
0.817173
0.673504
0.863372
0.651618
0.251804
0.613817
0.641767
0.748476
0.438286
0.764381
0.759502
0.851828
0.770096
0.544296
0.809057
0.257419
0.747055
0.550771
0.771109
0.68646
0.657178
0.70566
0.738267
0.688728
0.307184
0.415816
1
0.78615
0.613402
0.875414
0.491878
0.509983
0.810063
0.483275
0.609301
0.659186
0.805749
0.726724
0.615956
0.417702
0.702494
0.418837
0.680018
0.368339
0.896906
0.650805
0.579238
0.675751
0.393258
0.529659
0.371035
0.506451
0.474242
0.492599
0.493835
0.540346
0.559449
0.540988
0.541175
0.561147
0.476919
0.453854
0.539997
0.512986
0.579753
0.546074
0.562096
0.53183
0.531555
0.475149
0.54089
0.49467
0.502962
0.521498
0.486868
0.501713
0.464502
0.521122
0.389116
0.521778
0.503185
0.449778
0.523799
0.47829
0.423919
0.538515
0.428427
0.520437
0.592489
0.456682
0.561617
0.531891
0.507481
0.5091
0.522469
0.463688
0.601123
0.392938
0.485417
0.493196
0.517944
0.44792
0.523497
0.561183
0.4642
0.502125
0.471049
0.522125
0.433388
0.44006
0.496886
0.488881
0.500143
0.4934
0.357576
0.476582
0.465299
0.498314
0.474383
0.489214
0.525965
0.380851
0.530329
0.545681
0.488368
0.619662
0.467989
0.476665
0.559712
0.418908
0.50126
0.517862
0.478762
0.49357
0.529124
0.580045
0.443742
0.518788
0.488544
0.494939
0.440064
0.502304
0.426758
0.485165
0.466743
0.514625
0.415354
0.49235
0.460307
0.44452
0.469651
0.396705
0.587009
0.554905
0.568003
0.52555
0.508104
0.471884
0.543716
0.501115
0.578728
0.505052
0.516544
0.531418
0.424966
0.517983
0.554239
0.473514
0.475411
0.497384
0.446036
0.530271
0.41502
0.538277
0.495564
0.510629
0.8303
0.742935
0.718144
0.787363
0.820109
0.863912
0.561133
0.793513
0.832261
0.806557
0.77451
0.849511
0.765676
0.850379
0.710984
0.800308
0.259616
0.344811
0.535645
0.503449
0.492301
0.481993
0.739602
0.502601
0.416329
0.666952
0.537678
0.744942
0.468893
0.743835
0.432189
0.768333
0.640404
0.739977
0.625102
0.84678
0.554906
0.729072
0.615879
0.468987
0.7676
0.489663
0.659304
0.344435
0.689761
0.408941
0.475358
0.402286
0.384259
0.385268
0.718328
0.529205
0.67585
0.386187
0.651534
0.281672
0.663498
0.542768
0.541078
0.696015
0.598375
0.739657
0.683404
0.566258
0.848806
0.779246
0.404292
0.635562
0.465458
0.725868
0.564159
0.634276
0.440112
0.273221
0.703039
0.626311
0.465194
0.458805
0.461916
0.494727
0.747814
0.818752
0.743741
0.799845
0.78058
0.840156
0.818527
0.609496
0.812757
0.837606
0.739119
0.811744
0.752197
0.850338
0.758914
0.757843
0.373496
0.452054
0.321455
0.519251
0.428037
0.486371
0.462474
0.527828
0.254443
0.256235
0.307014
0.405981
0.385703
0.414094
0.288084
0.527635
0.263527
0.216174
0.378135
0.319108
0.518091
0.323885
0.45516
0.368995
0.350164
0.20612
0.462479
0.525559
0.386465
0.505135
0.30862
0.464455
0.311694
0.560479
0.561403
0.357697
0.634315
0.36976
0.545144
0.608587
0.756867
0.527787
0.676112
0.569978
0.607384
0.623742
0.715982
0.62767
0.701509
0.524378
0.452467
0.682724
0.597065
0.417977
0.64538
0.700944
0.392667
0.504383
0.592387
0.601171
0.626822
0.400066
0.612931
0.452676
0.56554
0.654817
0.506084
0.505619
0.635149
0.597173
0.594513
0.577061
0.708461
0.707283
0.727845
0.568871
0.638553
0.558584
0.353439
0.709836
0.669131
0.698687
0.314448
0.720458
0.696953
0.571465
0.498311
0.575887
0.559816
0.593517
0.527845
0.570378
0.61633
0.663192
0.615081
0.630136
0.54572
0.56562
0.696416
0.531525
0.566959
0.643202
0.602144
0.636652
0.694754
0.598238
0.694419
0.754365
0.634408
0.676244
0.708538
0.627657
0.68488
0.732093
0.70585
0.657618
0.583745
0.71205
0.605153
0.689331
0.368824
0.575769
0.413897
0.508516
0.488719
0.627657
0.418155
0.625242
0.461426
0.639231
0.513197
0.634596
0.619225
0.572765
0.351396
0.596044
0.674718
0.723174
0.73461
0.726471
0.688109
0.552498
0.56738
0.662135
0.658182
0.714489
0.528906
0.724263
0.638229
0.599399
0.66321
0.668291
0.294639
0.628745
0.395785
0.60289
0.634088
0.65116
0.588566
0.630692
0.529785
0.620025
0.51893
0.55286
0.660174
0.595129
0.806752
0.531808
0.462107
0.425573
0.776593
0.512631
0.601117
0.518365
0.414321
0.513684
0.338359
0.232484
0.46786
0.463724
0.564124
0.689252
0.508513
0.482065
0.541829
0.579435
0.76716
0.634436
0.664039
0.582611
0.516199
0.743267
0.66823
0.307817
0.488567
0.595745
0.586135
0.641862
0.779807
0.517439
0.201222
0.193965
0.207766
0.239312
0.382862
0.392779
0.381742
0.618505
0.432503
0.470579
0.456218
0.490434
0.418917
0.366434
0.350626
0.528367
0.704785
0.588021
0.393971
0.465261
0.601114
0.76681
0.425732
0.455875
0.742168
0.497101
0.914853
0.601431
0.633941
0.563587
0.669239
0.627331
0.303097
0.359153
0.480773
0.479601
0.5032
0.467909
0.515163
0.483321
0.377415
0.436164
0.48225
0.47932
0.505535
0.454822
0.486901
0.526142
0.779508
0.574614
0.680802
0.815057
0.770943
0.612153
0.936404
0.601173
0.66735
0.584154
0.566428
0.654872
0.78758
0.458876
0.663288
0.587534
0.39579
0.503911
0.268185
0.513417
0.447544
0.491582
0.588397
0.490478
0.187738
0.398424
0.286149
0.54658
0.465361
0.468809
0.39877
0.211639
0.747229
0.310797
0.780811
0.342835
0.702042
0.668324
0.196443
0.645323
0.775838
0.349086
0.364783
0.778967
0.749759
0.44215
0.555908
0.438714
0.646111
0.581504
0.659553
0.682086
0.442753
0.73354
0.760971
0.405213
0.372965
0.60696
0.731234
0.650108
0.645787
0.703071
0.665221
0.391377
0.737178
0.807535
0.732189
0.46767
0.674261
0.578539
0.469908
0.678825
0.498221
0.777943
0.668383
0.794299
0.664085
0.765787
0.747388
0.820511
0.673884
0.65978
0.566876
0.65443
0.523516
0.673956
0.653341
0.672521
0.561495
0.635576
0.290548
0.512177
0.665776
0.581482
0.52157
0.497677
0.318708
0.666679
0.576756
0.728472
0.746759
0.605963
0.665844
0.71325
0.857496
0.814244
0.817662
0.732177
0.583001
0.438138
0.621561
0.675873
0.61519
0.568547
0.478476
0.528868
0.670652
0.691188
0.780245
0.611899
0.60746
0.576972
0.774288
0.613335
0.530098
0.681148
0.54057
0.569282
0.819977
0.290765
0.624204
0.680193
0.541771
0.694367
0.685333
0.680693
0.510807
0.697496
0.677563
0.568717
0.727042
0.431468
0.301639
0.709875
0.624163
0.628996
0.610271
0.508611
0.691633
0.654155
0.629693
0.514275
0.508581
0.671339
0.675101
0.695144
0.782115
0.749589
0.595034
0.54946
0.512132
0.191984
0.785014
0.537672
0.588722
0.796417
0.432159
0.507351
0.577871
0.551128
0.563161
0.472322
0.523254
0.417854
0.47852
0.611516
0.498399
0.504165
0.416267
0.392761
0.422401
0.428148
0.546839
0.459848
0.527616
0.510279
0.484045
0.4849
0.467551
0.489739
0.420823
0.52988
0.565609
0.520333
0.491126
0.41618
0.488842
0.402792
0.542463
0.538121
0.613515
0.598722
0.502809
0.565099
0.503344
0.525388
0.474776
0.401623
0.499122
0.522166
0.513165
0.486502
0.481135
0.511414
0.470095
0.555933
0.503455
0.516862
0.508331
0.506686
0.442838
0.543249
0.450068
0.449404
0.548135
0.47063
0.52011
0.52477
0.51351
0.532454
0.519534
0.479368
0.577459
0.476924
0.536056
0.44776
0.426863
0.525591
0.520902
0.498751
0.518289
0.468761
0.452236
0.515454
0.435783
0.488376
0.529781
0.470124
0.504121
0.44573
0.498026
0.455909
0.444324
0.445081
0.430098
0.503869
0.587469
0.521925
0.519775
0.490604
0.472489
0.401815
0.509186
0.467435
0.553632
0.57213
0.495168
0.411317
0.52683
0.482261
0.498198
0.543607
0.50424
0.483617
0.450797
0.44942
0.539308
0.545554
0.492688
0.507326
0.499987
0.479437
0.518105
0.460668
0.493604
0.469002
0.464843
0.472424
0.620518
0.572751
0.551181
0.481937
0.490828
0.50922
0.441996
0.564982
0.594579
0.790332
0.732484
0.576801
0.642261
0.720116
0.72428
0.748122
0.691432
0.762119
0.633423
0.644681
0.645679
0.647613
0.626727
0.72022
0.82695
0.556419
0.802215
0.715177
0.659686
0.651809
0.527269
0.639337
0.472213
0.619893
0.548278
0.701625
0.564793
0.729619
0.560017
0.483664
0.607935
0.53235
0.56556
0.610807
0.744275
0.538558
0.742039
0.671119
0.629661
0.527419
0.588737
0.62388
0.735284
0.556967
0.600947
0.774985
0.586703
0.523488
0.477437
0.541073
0.696788
0.523436
0.57383
0.626512
0.65446
0.660146
0.774465
0.624436
0.735286
0.615703
0.659139
0.562943
0.67404
0.61166
0.757319
0.784458
0.694687
0.737883
0.682106
0.70009
0.489237
0.504008
0.568098
0.67932
0.686807
0.746368
0.416286
0.731884
0.637529
0.756165
0.603455
0.713234
0.615945
0.6269
0.608575
0.749016
0.712505
0.778066
0.683499
0.753265
0.702627
0.797717
0.686827
0.776888
0.647158
0.709455
0.590481
0.650873
0.715343
0.734305
0.733216
0.643193
0.733744
0.703869
0.720852
0.657335
0.711861
0.743388
0.719705
0.565722
0.62133
0.707172
0.654879
0.684486
0.717378
0.739692
0.71887
0.524904
0.639766
0.756176
0.660064
0.653587
0.599535
0.685005
0.611932
0.676964
0.34475
0.604768
0.829385
0.561137
0.235905
0.625618
0.32078
0.400436
0.895035
0.584507
0.665213
0.60073
0.288247
0.699945
0.275951
0.569752
0.802594
0.241696
0.286821
0.267024
0.309875
0.457821
0.661296
0.592828
0.238368
0.0761543
0.426233
0.35465
0.207211
0.838159
0.702502
0.0999129
0.0918291
0.306376
0.747885
0.146945
0.662304
0.741759
0.567484
0.538473
0.766439
0.191701
0.754674
0.201018
0.688811
0.598993
0.378526
0.106148
0.699617
0.612472
0.574519
0.580783
0.678768
0.721623
0.236964
0.602452
0.735559
0.574546
0.561559
0.705124
0.87306
0.896992
0.837759
0.870811
0.500847
0.478613
0.839121
0.719052
0.36843
0.69637
0.571793
0.511303
0.24841
0.556262
0.449525
0.43362
0.180825
0.306021
0.457811
0.475631
0.309468
0.276393
0.186777
0.33224
0.173198
0.432331
0.325539
0.312013
0.146978
0.0911105
0.443667
0.339675
0.341649
0.584779
0.0677786
0.0371185
0.145936
0.153213
0.0559179
0.342493
0.515052
0.150893
0.416825
0.253775
0.560989
0.518398
0.353209
0.381179
0.409003
0.516545
0.307911
0.47677
0.432309
0.468808
0.121057
0.454974
0.204899
0.142406
0.367403
0.122977
0.193293
0.158298
0.425705
0.287438
0.514408
0.100391
0
0.435494
0.503205
0.663216
0.510166
0.494349
0.591537
0.717106
0.814735
0.679168
0.203722
0.192058
0.203677
0.124697
0.365983
0.556793
0.478249
0.368201
0.334813
0.226524
0.483701
0.185752
0.176465
0.462942
0.2206
0.275548
0.272481
0.534171
0.722408
0.438734
0.658205
0.31301
0.565396
0.392559
0.857352
0.691959
0.835774
0.904153
0.86267
0.903489
0.628668
0.709757
0.903372
0.578954
0.266284
0.595466
0.53338
0.719536
0.577982
0.737413
0.864141
0.264497
0.276206
0.383656
0.191768
0.789287
0.685626
0.203589
0.276815
0.368077
0.543281
0.552258
0.502018
0.748962
0.664208
0.758543
