1.06872
0.880274
1.10263
0.543899
0.533849
1.35131
1.1246
0.807792
0.765971
0.929779
0.601027
0.966734
1.1703
0.849118
0.79464
0.732846
1.02566
1.19342
1.15271
1.08783
0.681978
1.68447
0.683162
1.05086
0.92306
0.681251
1.20946
0.975216
0.762158
0.998243
0.895977
1.34662
1.12081
0.68746
0.887053
0.953992
0.8472
0.920658
1.00719
0.607662
0.760439
0.885769
0.667539
0.900751
0.769858
0.582337
1.04255
0.703578
0.760439
0.720524
0.784657
0.66693
0.760696
0.667717
0.719015
0.771079
0.868231
0.920659
0.58074
0.904212
0.443978
0.596236
0.972192
0.632535
0.87898
0.61219
0.810128
0.602962
0.437711
0.807413
0.434393
0.630734
0.869297
0.91095
0.559906
0.839709
0.903926
0.789472
0.735497
0.539885
1.07921
0.619908
0.783176
0.782172
0.540028
0.586459
0.86548
0.884188
0.910617
0.678012
0.90044
0.778972
0.719016
0.773732
0.871144
0.908071
0.747881
0.877867
0.734256
0.81748
0.73264
0.72199
0.791893
0.788165
0.743724
0.869051
0.908866
0.893053
0.879478
0.780771
0.893488
0.930505
1.08993
0.586504
0.864165
0.625813
0.60227
0.882042
0.767802
0.594852
0.57569
0.505978
0.580385
1.05577
0.250283
0.625847
0.833749
0.511495
0.886817
0.55302
0.912336
0.651644
0.624081
0.465481
0.612191
0.810156
1.06652
0.867297
0.524379
0.741205
0.549725
0.571595
0.567566
0.492229
0.589706
0.523983
0.778385
0.538977
0.599856
0.596126
0.565619
0.499535
0.451367
0.484564
0.541094
0.573098
0.636249
0.572484
0.564433
0.541639
0.601759
0.56445
0.506402
0.564907
0.598745
0.603098
0.583923
0.531917
0.465761
0.584701
0.638076
0.52004
0.543987
0.652642
0.427777
0.652588
0.621066
0.583354
0.483093
0.606173
0.379887
0.776748
0.667184
0.564141
0.454675
0.391428
0.413662
0.534015
0.510094
0.392605
0.589783
0.570755
0.585257
0.832307
0.704595
0.660734
0.698583
0.711717
0.662783
0.406792
0.658806
0.491765
0.692164
0.489815
0.495894
0.497734
0.519078
0.515955
0.643025
0.528617
0.572318
0.690912
0.534987
0.547397
0.576867
0.547658
0.594146
0.588202
0.51672
0.503389
0.500774
0.498813
0.553592
0.475242
0.517802
0.594011
0.550865
0.47754
0.630749
0.578783
0.48278
0.547589
0.516175
0.473017
0.478728
0.670934
0.511195
0.344489
0.316227
0.503661
0.672721
1.42302
0.738195
0.47973
0.741276
0.626109
0.482699
0.64658
0.554883
0.76066
0.661174
0.610752
0.630657
0.480387
0.639717
0.697372
0.59845
0.808359
0.648937
0.669721
0.629193
0.548346
0.407694
0.596325
0.30828
0.390757
0.652858
0.675876
0.856558
0.62319
0.708709
0.683613
0.591677
0.629644
0.713324
0.723323
0.779216
0.835088
0.739848
0.704453
0.686865
0.91939
0.998069
0.775665
0.687173
0.837731
0.787031
0.785999
0.806517
0.843418
0.581634
0.632133
0.590591
0.637859
0.751851
0.598564
0.68732
0.584954
0.780455
0.416205
0.744261
0.608347
0.900012
0.766852
0.661475
0.814561
0.746379
0.748807
0.86821
0.685664
0.904313
0.890498
0.728362
0.994906
0.870961
0.712818
0.439228
0.733415
0.659528
1.02379
0.940944
0.73381
0.76375
0.543543
0.820278
0.514698
0.887247
0.88823
0.314277
0.822232
0.64315
0.632062
0.764685
0.841203
0.75791
0.712799
0.62197
0.599652
0.926412
0.775477
0.867274
0.905524
0.834024
0.826168
0.728833
0.824807
0.699033
0.838658
0.766258
0.837223
0.73082
0.69708
0.812173
0.730708
0.660257
0.631196
0.646085
0.629811
0.704817
0.874536
0.712924
0.663429
0.570356
0.717085
0.72707
0.69247
0.84544
0.573815
0.429302
0.64426
0.860496
0.821084
1.15169
0.927586
0.434994
0.873093
0.625797
0.949209
0.781509
0.959076
0.842933
0.90746
1.02084
0.73563
0.686643
0.712944
0.79153
0.645059
0.75346
0.740837
0.881067
0.626112
0.847236
0.831635
0.648224
0.750836
0.839845
0.752303
0.597536
0.829013
1.73796
0.838461
0.975373
1.10229
0.894248
0.975805
0.836311
0.995019
0.728793
0.743742
0.777514
1.09216
0.851218
0.605762
0.958577
0.691619
0.966604
0.771746
0.954815
0.423547
0.883301
0.879414
0.994767
0.877769
0.821182
0.693556
0.796611
0.750766
1.09306
0.861013
1.04454
0.938682
0.824337
0.698332
1.2807
1.02013
1.2524
0.9418
0.589101
0.972492
1.04776
0.91359
1.14795
1.27055
1.49676
1.00946
0.72087
1.18132
1.27054
1.23794
0.706333
0.752927
0.611991
1.02099
0.95517
1.03195
1.21651
1.18393
0.875947
0.664038
0.664541
0.741583
0.626761
0.804251
0.813361
0.991029
0.941596
0.962293
0.594685
0.99362
0.988717
0.853688
0.907855
0.992495
0.620271
1.03575
0.831962
1.04813
0.947847
1.01705
1.04997
0.949171
0.822858
0.813421
0.550974
0.87912
0.926612
0.840519
0.986024
2.26186
0.975063
0.805788
0.857075
1.08497
1.22675
1.03098
0.984371
0.796319
1.31468
1.01803
1.2224
0.691879
0.841754
0.539837
0.900497
1.29015
0.980199
1.15383
0.868487
0.958709
0.898148
0.925466
0.493542
0.695005
0.897167
0.952845
0.927131
0.64292
1.1637
0.689365
1.10332
0.843638
1.1686
0.930839
1.02534
1.41667
0.666219
0.843549
1.03414
1.13141
1.12466
1.18306
1.14303
0.537324
0.803736
1.30857
0.559636
1.1114
0.96776
0.745839
0.442596
1.3196
1.32822
0.823528
0.890868
0.938246
1.01734
1.16723
1.11611
0.966313
1.18572
0.68952
1.20999
1.03687
1.38229
0.870074
1.15143
0.999655
1.24279
1.39334
0.997736
1.08939
0.634578
1.22807
1.45192
0.835479
1.0816
1.24706
1.11203
1.29162
1.01973
0.3957
1.3077
1.03558
1.00294
0.861268
0.652351
1.67512
1.23875
1.26499
0.936117
1.10689
1.52215
1.27134
1.46872
1.10055
0.863932
1.12738
1.31174
1.05228
1.12074
1.21798
0.994848
1.20268
1.4524
0.97362
0.817188
1.32999
1.06052
1.36271
0.965816
1.16045
1.48085
0.663754
1.35941
0.905489
1.25482
1.34272
1.07506
1.33292
0.24295
1.07529
1.02204
1.22278
1.29328
1.28251
0.993667
1.32459
1.09977
1.28471
1.33067
0.963651
1.3818
0.780511
1.17072
1.38286
0.546063
0.980399
0.876127
0.502877
1.50595
0.45148
1.49075
0.826279
0.88468
1.23307
0.942585
0.989926
1.33051
1.32042
0.662695
1.47114
0.767009
0.81904
1.0155
0.950395
1.34143
0.8346
1.17956
1.44433
0.870609
1.33577
1.01082
0.462138
0.957806
1.1296
1.24715
0.880358
0.743968
0.920982
1.1716
1.32311
1.15939
1.30838
1.52169
1.52014
0.980965
0.868728
1.12617
0.796647
1.38437
1.139
1.32641
1.41078
1.16582
1.13765
0.904123
1.2587
1.31394
1.19249
1.09752
1.42667
1.18806
0.964509
1.11352
0.673231
1.19473
0.738352
1.0781
0.894908
0.697654
0.885611
0.544464
0.499854
0.683956
0.612209
0.929909
0.705067
1.02648
0.968085
0.857586
1.10093
1.4868
1.06048
0.555442
1.26462
0.641937
0.789682
1.19223
1.03107
0.988003
0.840383
1.57008
0.72253
0.968874
0.561189
1.00756
0.786477
0.792289
1.14977
1.15375
1.3242
1.18446
1.02645
1.02986
0.474074
0.992074
1.06433
0.752174
0.956245
0.429687
0.874562
0.712595
0.977543
0.661165
0.916779
1.00268
0.896367
1.49276
1.25943
1.11394
1.32442
0.986104
1.20751
0.659775
1.19195
1.36167
1.0149
1.4328
0.671283
0.949587
1.13146
0.770027
0.989275
1.54369
1.15487
1.28003
1.46931
0.98414
0.888338
1.09909
1.14899
0.713225
0.746272
0.506219
0.703257
0.399302
0.670633
1.34078
0.580568
0.912449
0.927907
0.418344
1.13424
1.09868
0.761212
1.1763
0.889456
0.938242
0.938235
0.849229
0.611746
0.608992
0.762539
0.753624
1.08412
0.812084
0.767485
0.623736
0.819478
0.724159
0.778426
0.749801
0.801746
0.850988
0.753838
0.673328
0.798931
0.865273
0.700199
0.869198
0.748588
0.587548
0.81199
0.801315
0.661047
0.946888
0.429655
0.418295
1.04114
0.685475
0.707489
0.61891
0.728592
0.697272
0.801561
0.829589
0.726113
0.868041
0.705538
0.605169
0.603299
0.700763
0.571322
0.72756
0.666202
0.822816
0.595846
0.703588
0.489452
0.719984
0.793213
0.724294
0.758187
0.683837
0.648349
0.61242
0.767163
0.646376
0.711218
0.81231
0.745075
0.61984
0.672307
0.577697
0.855396
0.733485
0.788083
0.75422
1.00974
0.946967
0.779823
0.790415
0.764455
0.652478
0.866765
0.87212
0.834382
0.624216
0.657617
0.576466
0.564805
0.753294
0.761724
0.914691
0.951962
0.752189
0.770441
0.843009
0.493839
0.895065
0.618343
0.704694
1.08276
0.702209
0.801894
0.65343
0.761913
0.562535
0.658283
0.715277
0.806314
0.849862
0.809585
0.576647
0.580532
0.636644
0.655591
0.769867
0.692862
0.64958
0.594938
0.532236
0.735415
0.549756
0.665571
0.749578
0.63653
0.636472
0.600561
0.671053
0.761912
0.817417
0.820565
0.737271
0.756866
0.690629
0.699056
