1.61532
7.02247
7.88727
7.22082
3.00603
5.3832
5.12071
10.2867
0
0.662679
0.379348
0.438476
0.552737
0.528471
0.498715
0.644068
0.489558
0.772155
3.33919
2.01758
2.67347
5.87375
2.66364
1.24867
4.67629
1.13429
1.61798
3.8163
1.69385
3.43439
3.60848
2.15119
4.12098
2.67322
1.47182
0.889595
2.65893
5.09664
4.13547
8.04021
5.10557
3.42096
3.31179
0.756304
0.983712
2.83706
3.31958
3.57687
3.39928
6.1716
3.72778
8.19367
3.97198
5.94138
2.24504
5.54231
3.71252
4.50482
0.556495
0.721598
6.79126
3.9299
7.8239
0.891877
1.05003
3.30025
8.38357
1.13297
1.31315
7.07345
4.32951
6.31207
5.00427
1.61358
1.29382
4.96206
1.54513
2.28097
3.1343
2.59668
1.78314
4.54434
3.79036
5.0737
3.67373
5.75846
11.0772
10.0587
4.70383
3.50442
2.9349
4.17093
3.53655
6.21594
5.10184
3.32265
3.59693
5.50542
2.53388
0.553886
1.35903
1.14607
0.801217
1.4677
2.19796
6.20779
1.86521
1.83378
6.29218
4.39437
1.24996
1.85669
1.31565
2.90817
4.98563
1.41328
1.04427
3.01498
1.62206
1.65081
6.28297
1.5234
1.48891
0.614233
1.19789
6.35726
1.5175
2.00289
2.02974
5.23485
0.791954
4.491
4.20024
0.70622
1.67463
0.279258
3.37163
2.4581
3.44429
11.3551
5.1061
3.00118
8.99734
0.372168
3.33583
0.282569
4.65204
0.704861
1.65734
5.70803
1.08862
0.941348
7.2656
0.744027
0.312789
3.6687
1.012
1.53263
1.04801
3.69336
0.619052
6.92313
1.58989
2.00131
5.29473
5.60539
1.34967
5.0291
2.40212
1.47491
9.82492
2.6561
9.35475
1.57446
1.84785
1.53223
5.32984
10.9186
11.1367
6.01929
5.76692
5.67106
7.79158
6.84764
6.93526
7.12932
3.17154
4.90811
7.62552
7.59818
7.33259
6.60066
6.21782
4.39565
4.88321
1.70718
5.37077
3.05415
2.17174
4.69061
8.66391
3.03736
3.61575
2.93815
9.75203
7.96821
7.75374
6.79363
2.40886
6.03171
5.07449
5.705
1.77681
5.04359
2.58104
8.49633
4.0296
9.08192
2.12045
4.97349
3.27367
4.15331
3.96927
1.14204
5.11701
2.89041
3.51851
3.30579
9.82262
3.95857
4.26314
2.21457
4.41821
7.56888
10.5524
6.53734
7.11763
0.351568
0.264201
5.35294
4.47927
7.99633
8.11119
0.566452
0.51027
7.36792
4.21948
4.50378
3.04026
4.5028
4.17401
4.40754
4.88951
0.403812
0.249995
2.71274
2.96341
3.48798
5.94493
1.34186
0.52807
2.44797
3.10496
5.46515
4.96708
5.74213
6.33115
1.51793
2.64216
1.2418
1.76529
2.77717
4.41563
7.17196
9.40468
0.749592
1.82917
2.26121
1.69554
5.03716
2.86582
7.32023
3.25535
1.82486
1.69512
7.57861
2.35855
5.52626
4.71421
4.15127
4.7549
1.75772
5.39923
1.43572
4.80915
3.43967
3.90465
2.84521
2.7334
10.1945
1.45032
1.32569
2.79623
1.65401
0.590209
1.37567
1.33175
1.00233
1.34325
11.2367
5.55716
0.946029
1.64475
3.43416
4.00066
3.29919
1.22928
4.43201
1.34336
7.64859
1.31653
1.70289
1.20887
2.58391
4.09304
2.38168
2.46946
1.38248
1.00884
10.3625
0.951775
2.10301
0.70502
4.96028
0.513791
3.30991
2.46351
2.01975
4.91002
3.55899
2.99427
2.48608
0.232522
3.15771
0.310179
3.02233
3.15042
6.54811
3.24371
3.28815
0.433188
5.59358
1.23905
5.24279
2.41921
1.63751
0.775806
2.70914
3.38503
7.2364
6.38385
7.99517
4.84759
6.7575
1.04682
5.55826
3.63637
6.9206
1.35035
1.58798
3.59247
1.59568
11.0554
1.79591
2.32831
1.66728
2.9136
5.75364
4.15631
1.72118
5.18776
0.600949
0.796334
1.69817
2.02146
1.37604
0.356473
5.49731
2.91252
0.563933
0.301037
3.79979
3.20135
3.04215
2.18564
0.518192
0.313432
0.706251
0.393095
0.652105
0.84242
1.15253
0.556942
0.647246
0.465344
2.83783
2.52769
3.36752
7.50771
3.66833
3.57096
1.54184
3.35983
5.61592
4.8795
2.02232
2.2003
6.15996
4.50762
2.91093
5.41026
1.37741
3.98135
3.29793
6.24239
1.65956
3.41204
3.56938
5.91083
4.07571
3.49576
3.78131
6.35109
7.5869
6.85329
4.35876
5.71033
6.28478
8.85241
4.81717
5.59287
8.50732
6.2035
6.62525
6.86252
7.96498
6.82852
4.88122
7.51496
4.63273
6.38483
2.62911
6.17769
5.86824
7.75529
6.24672
6.95716
6.83496
4.18486
3.46894
1.64498
3.32953
4.07006
6.16732
5.39499
2.42291
2.60597
1.39586
2.69063
3.98225
5.94735
5.0673
3.71903
6.02644
4.16271
3.45186
3.41837
4.98451
0.308981
0.390667
0.276593
0.366995
0.173813
0.500622
0.305652
1.10918
3.23555
0.708227
1.73402
3.48671
4.91846
5.2394
0.701236
0.344756
0.373398
0.38993
2.08195
5.24098
2.09135
2.92903
0.485582
0.362264
0.874577
0.274893
2.53504
1.3136
1.71626
3.53555
0.492834
0.347344
0.197781
1.2827
0.327773
1.51765
0.360513
3.76717
3.37375
3.28101
3.61051
2.81981
3.1513
5.63809
3.02358
0.195333
0.0651111
0.0651111
