6.86233
9.63612
10.1343
8.18788
9.12769
9.74474
8.88956
9.83874
7.95131
10.3992
10.9387
9.78576
9.57751
10.0315
7.34872
8.06684
8.54182
9.16512
5.83185
7.15651
10.571
7.25295
10.3577
8.11036
6.47132
6.03381
5.4099
5.16181
8.16676
2.9306
8.74533
4.80233
7.24429
10.7023
8.3493
10.9673
8.70129
12.2653
10.9767
9.49909
10.3626
9.02262
7.64868
9.1096
9.76786
7.50961
12.5699
8.58831
10.833
10.7064
11.068
8.99812
9.66682
6.68251
3.46833
6.17532
4.4921
6.93069
4.22651
11.7865
10.6787
12.7348
5.72308
6.28897
7.8814
0.956902
0.751958
0.765914
0.843037
1.22541
1.05214
1.31489
3.75832
6.52803
1.44394
1.58477
2.50313
1.04746
0.708472
1.41336
2.86689
2.71145
3.20574
3.73472
1.42255
1.42446
2.27259
2.85994
2.53221
1.81648
1.32675
1.50528
1.42552
1.34911
2.46143
1.79914
10.3046
10.0677
4.85769
2.64573
4.77488
2.61401
15.0905
11.0854
6.15866
4.40289
2.86257
3.90778
3.16068
1.47896
2.03039
1.93826
2.67279
1.04745
5.73768
4.39458
10.2491
3.59067
6.06162
1.22449
2.71924
2.01482
7.79146
7.86578
7.00196
4.81348
1.8946
1.32844
5.35415
1.3094
1.15942
1.63467
9.06609
1.60557
1.35612
1.8178
7.04599
0.938488
2.425
4.0456
0.920727
2.03285
2.41108
1.31046
0.940575
1.14436
1.04982
1.31985
1.80973
1.84365
2.80404
1.75584
3.5377
1.596
6.24396
1.44377
1.2494
2.57312
6.12547
1.3248
3.72723
3.25547
1.87666
5.19037
6.03259
6.0407
1.51459
10.004
1.88674
4.1978
6.59602
2.88786
9.05093
1.75799
1.26301
3.99817
3.88702
5.61282
4.37029
3.14581
3.45264
2.55436
6.40601
2.24509
2.44472
4.38538
3.30126
4.38514
0.9187
2.58648
2.56106
6.21393
2.88634
3.00346
1.24659
1.36381
1.85235
1.34375
1.93994
2.04167
1.03342
2.40416
1.40179
1.41351
2.01688
1.4391
3.32034
4.59933
1.08593
1.06004
4.75862
1.70474
1.3756
3.19212
1.26509
1.28366
2.57924
1.16623
1.56803
2.92742
2.07284
2.02315
3.27503
2.47417
4.10814
1.68574
3.26402
2.33306
3.55359
3.20229
4.40759
1.85997
1.92379
3.04096
1.92332
1.9828
2.19061
2.76225
2.04831
3.31175
1.46571
1.6462
1.99973
2.07017
2.46621
2.63111
1.86742
2.67887
1.34661
4.26172
4.17546
2.59534
2.93814
2.57614
2.4165
2.47724
1.81728
1.86532
0.68847
2.40549
2.16842
1.63304
2.28905
2.88959
1.73252
0.667784
0.779348
1.69126
0.930539
1.94544
5.16046
2.35304
0.792665
0.987809
0.640618
1.22673
1.07921
0.798818
1.12093
0.628663
1.71137
2.20954
1.61415
1.67784
0.867571
0.644127
0.849897
0.728096
5.08281
6.6703
3.65703
4.64545
2.10324
2.84405
3.55697
1.8168
1.13203
1.40538
1.63327
2.43988
2.25219
1.11868
1.29374
2.57875
1.83656
1.32766
2.67915
1.34802
1.3329
2.00071
0.956677
2.17934
2.71199
0.634487
3.74747
4.20657
1.30407
2.46252
3.57587
0.916723
3.19685
3.78034
2.2311
3.66657
10.1339
5.29472
7.98194
3.17922
10.7087
7.16018
7.30091
13.0664
11.029
2.05984
2.60275
11.3647
6.90281
1.87749
7.08648
6.63913
1.84865
2.67711
2.97625
11.586
3.62302
6.65979
6.17892
2.81136
6.64422
6.78528
8.28466
2.5163
7.07764
8.68097
7.12574
3.18513
4.17365
8.86157
8.50929
3.13528
5.5728
5.08498
7.1485
9.51705
10.7361
9.97536
2.00115
1.84796
5.27173
7.69003
4.97807
4.67904
5.76529
11.089
5.89783
5.60245
7.09343
6.9557
4.82128
4.34125
7.62498
7.76836
6.21327
4.82132
4.49995
4.04241
6.89381
4.48576
5.07852
4.08786
6.73044
8.6022
5.09638
6.45926
5.78715
2.04435
4.81627
2.91385
1.8289
6.11226
10.4968
9.09682
8.54373
11.5147
2.24069
9.91014
8.60558
3.91422
9.95363
5.12815
6.60105
6.81359
7.92713
4.30796
4.41443
10.4161
10.1381
8.73633
6.06202
5.95442
7.85609
4.74509
11.1081
7.91769
4.01898
10.9162
6.03989
5.66009
4.41062
9.99418
4.76692
3.04759
4.10253
4.36149
4.67297
4.10943
10.0477
4.45591
9.95285
5.38353
6.72527
7.50506
7.96593
6.80543
5.40734
7.35212
4.86784
4.95177
1.88751
2.74833
6.77613
4.86245
5.09034
3.8366
11.8151
3.90319
10.1842
7.19103
8.01737
11.2598
6.77554
10.071
3.37643
8.19188
6.19304
9.08414
6.44835
9.23293
7.38163
15.7655
8.8497
8.14727
5.12192
4.13186
7.2502
8.93181
12.2612
6.50068
6.16629
6.92576
10.1087
11.0852
1.1151
10.6413
10.1304
12.9653
7.68021
9.84694
11.9596
8.94458
14.8411
7.43061
10.8639
6.29302
14.1793
2.63053
14.0844
5.40858
10.425
10.0257
14.0996
12.0684
7.50346
10.2232
2.24869
10.6522
2.14494
2.26484
15.1233
12.1126
8.57059
13.4516
11.9393
1.66767
11.3895
1.87735
11.5683
6.41067
6.92553
7.63518
8.77437
11.9262
8.76525
8.20375
9.02802
6.11497
8.83376
9.44259
10.4692
9.16836
13.9741
2.69793
10.8848
12.0634
7.58496
1.607
10.5052
6.72969
8.05307
6.56585
2.85547
1.61977
14.3352
13.8241
2.77259
2.71834
3.88273
9.44942
6.63517
3.78197
3.2247
9.5329
5.56987
4.54375
5.91325
7.39672
7.56063
6.06637
4.52539
4.80942
6.30055
6.89368
10.8369
5.88357
13.8645
8.72335
6.54339
12.3644
2.9509
3.05129
3.50381
1.8834
11.8553
6.80927
3.61087
6.64987
2.90908
1.94214
1.75752
2.6693
1.32037
1.54976
1.82629
1.1463
4.07613
3.48168
2.835
1.54155
1.6217
1.69028
3.71139
2.44247
1.79399
1.77209
1.01498
1.44564
1.06981
2.75198
0.695337
1.56423
1.15495
1.89316
6.83887
1.06245
1.21917
1.02959
14.4498
2.64369
3.3393
4.42358
1.49722
1.31352
2.73246
0.810033
3.29869
2.96286
1.44839
2.02764
2.6927
1.13756
1.64489
1.25996
2.15721
2.74329
1.49052
1.10825
1.53873
1.41812
0.721526
1.43049
2.2169
3.06792
1.17479
1.55385
0.870268
1.56902
1.05672
0.577084
1.24874
1.94645
3.87756
3.75358
3.48873
6.96435
3.11579
5.96952
2.90905
5.09295
8.75175
10.7193
7.36189
2.66234
6.49139
4.5355
5.73814
3.14804
6.77409
5.5105
3.19526
3.17535
6.2029
3.6983
1.6424
7.46229
12.7849
2.24405
8.11221
5.78418
9.46803
10.1981
2.39925
4.28249
9.53721
4.50948
8.57179
6.09941
10.3072
8.01037
9.33119
12.0549
7.13144
4.73543
6.97836
3.84139
6.93299
8.37352
7.71872
10.7022
6.83312
7.76361
5.4916
8.69274
8.88851
7.32721
10.0525
7.93633
8.36784
12.7223
11.4521
10.7676
9.50506
7.44283
10.9505
6.51173
11.7545
5.84848
6.12548
8.20884
8.23938
6.04195
7.88736
3.70478
8.33646
4.86912
4.65511
6.22299
12.5162
5.2109
7.90059
8.21483
5.44534
8.41034
11.2998
3.17443
1.7878
4.14239
5.54727
11.6858
12.0833
10.9009
4.4839
3.98758
4.02291
6.05198
2.35609
5.29974
1.10537
1.4661
4.08817
0.765618
0.873937
0.750696
0.688435
1.01954
1.03423
0.747115
1.03524
0.903113
0.817366
0.994923
0.780068
1.05307
1.02821
1.18447
1.26524
1.23756
1.01573
0.938137
0.753494
0.874735
0.852812
1.48254
0.909404
1.08842
0.986199
0.772644
1.55575
1.50683
3.89398
5.3558
0.988555
2.41954
0.985215
1.45066
11.658
5.4195
4.92745
1.14907
1.68489
1.58236
0.864533
0.922939
0.846436
0.801345
1.26912
1.41382
1.1
0.756694
0.922707
1.13537
3.02162
1.11468
6.08956
4.60105
4.61376
9.0632
1.03394
3.3798
1.32675
1.30325
9.28893
11.3956
6.27766
6.57178
5.71725
12.9048
8.50397
7.92611
8.71456
4.34613
11.0155
7.2618
7.44878
8.11617
5.02745
7.25623
11.0938
1.95055
5.7764
9.79315
9.81262
9.37524
9.35337
9.89861
11.5031
12.6922
8.04006
9.29068
10.2077
12.6878
5.73722
9.56795
10.5451
13.2288
9.62774
11.8074
10.7873
11.8145
9.82621
11.156
7.2978
12.5276
8.33182
8.45054
6.06252
9.42306
11.0511
12.3146
11.6456
3.4534
6.32152
7.6475
9.10601
8.3559
5.44665
6.62626
4.84777
11.5858
9.85529
9.38195
7.70899
12.0828
4.86306
6.1327
7.02626
9.67878
11.828
8.35659
5.79378
7.83799
2.59906
1.94503
8.93224
9.56335
6.4276
1.99847
6.69715
1.7021
8.14198
1.94464
9.65655
5.64513
2.22209
4.0616
6.85208
13.7217
9.93024
8.26085
3.61319
5.15021
7.71577
2.01393
8.30191
5.85341
6.18009
11.2422
4.81622
4.80396
12.3708
8.51506
7.52421
8.45555
12.1074
10.8157
10.1359
6.96648
13.1825
9.14161
7.66965
8.78397
9.08134
5.95219
9.77011
9.80233
8.40519
7.97226
13.1477
8.97707
8.73094
8.08492
10.0915
10.1043
11.2682
13.2739
10.8824
9.34615
10.9922
8.37083
2.01657
1.80509
1.57101
1.88272
4.67517
2.19738
1.53274
1.53318
4.6779
4.00154
3.17529
4.92468
8.63037
6.27002
4.97608
3.40965
4.70091
5.43932
3.17607
11.207
2.02284
7.7831
3.00004
7.06356
10.2756
7.52375
2.0437
6.27252
1.90766
8.05367
12.9892
2.1178
2.66263
1.93864
7.87388
13.467
8.49292
1.95672
8.14232
1.99237
4.32051
3.32254
4.8236
4.69503
4.25894
5.16073
5.36204
3.42276
6.9052
6.68673
5.47178
6.77632
7.85984
8.60253
9.92362
5.62713
6.12577
2.92188
14.9889
3.81844
2.47662
3.39961
5.14105
7.10862
5.16218
10.9803
6.70322
11.7834
11.0806
10.3093
7.51685
9.24157
10.7521
13.3101
8.98998
10.0619
9.7761
7.37
11.6312
13.8181
10.0576
9.47295
8.91463
9.60679
8.4265
10.9435
7.86316
10.8709
8.80247
10.9162
13.4522
12.3178
11.0542
6.88379
5.96229
11.4262
3.62595
4.92197
1.59848
1.52033
2.25609
2.45646
4.162
3.07161
1.77754
2.45123
3.8838
4.36536
2.97943
1.20733
2.4443
3.40041
11.968
7.96741
4.48917
3.75293
5.62331
9.74587
10.9293
5.77469
8.52712
2.5094
5.27197
1.54497
14.4172
6.5081
2.06059
7.38893
5.88364
1.98524
5.55592
1.40806
15.6222
8.99306
13.2726
1.62649
3.36803
0.824128
5.22159
5.05048
14.2017
2.29833
1.35494
2.14057
8.33049
0.354965
4.26073
2.44527
9.52713
1.05411
1.91323
11.214
1.78251
2.3301
5.27307
3.41494
14.6779
10.3603
1.69842
10.2027
9.26263
6.98507
3.36121
3.28706
4.49707
4.26705
1.77702
1.47298
8.97999
7.98605
6.8337
7.02375
6.24316
3.78185
4.17269
6.6755
4.94146
4.95791
2.68446
4.18322
6.43029
6.99891
3.58931
3.90735
3.24856
2.00415
2.01835
1.78711
3.64822
2.82687
2.32569
2.46132
12.8447
12.8819
13.0744
13.0593
12.6238
10.0286
9.71612
9.88463
8.96465
10.8893
6.62944
8.98038
9.61529
11.2048
10.3434
10.3842
5.84567
5.78597
7.89455
9.85385
7.52061
4.68134
10.4468
6.94991
10.5652
11.1722
8.83215
11.3533
9.14404
7.35619
10.1458
6.06466
6.01479
10.3315
10.1705
13.9185
5.15363
7.28862
6.71464
8.45393
5.4141
8.90967
3.26009
6.04198
4.67074
4.1043
2.97742
5.55262
2.69136
7.61432
7.22054
11.2809
5.95673
11.6045
9.79274
5.9155
6.49703
7.83322
6.6077
10.0681
7.97777
5.45463
4.49093
6.53333
8.19777
3.18502
5.29081
1.97991
5.07243
5.92918
11.0256
7.56336
5.1278
10.1737
5.69009
10.3141
4.45972
9.19293
8.69462
7.93162
8.03276
7.85881
8.08466
13.6333
12.8714
12.196
9.37849
11.0639
9.14525
13.2034
9.48523
9.39416
9.08499
11.4412
7.72161
12.5284
7.73786
5.61532
10.2195
7.88199
13.5837
13.4463
13.376
12.3045
13.5771
11.4478
1.75741
14.2928
2.89863
12.8007
1.08758
6.97125
1.89986
7.58122
1.47981
9.05528
5.37837
11.0193
9.69225
3.87845
1.60566
7.85669
14.0627
7.11702
9.23127
1.44215
9.54321
2.70334
5.06064
10.9868
7.59429
11.0422
10.9557
2.14551
8.33787
9.96203
11.0269
12.0797
3.15453
4.86248
8.69217
1.17417
3.34198
4.7384
4.89397
6.69424
6.05864
7.15063
6.17135
12.6295
5.26023
6.40007
8.17802
5.70247
4.9195
10.8351
3.50917
13.7725
8.26904
5.32388
7.77347
2.14021
5.63764
2.71576
5.76062
3.33854
6.81459
2.20785
2.0027
12.734
11.0326
10.08
6.98405
7.81983
6.82742
13.7507
11.6692
11.5478
11.3794
8.94804
8.89681
11.5747
14.8559
13.9331
9.39801
11.6678
10.9323
6.48237
5.92184
12.2661
7.31641
12.1451
8.75491
2.91076
2.95766
9.04564
9.70466
7.52765
9.29321
12.1627
6.29801
10.2861
7.3848
9.12368
6.03477
8.23807
6.76912
14.7215
6.55639
8.7737
8.82918
10.5731
9.42441
7.81649
10.5272
9.94438
10.0929
2.8828
11.0645
6.85229
2.95272
10.4608
8.70504
6.42364
8.79707
3.29559
3.98439
12.0405
3.97776
9.94149
5.77206
12.5908
2.7822
8.74219
7.13121
8.9945
6.82577
11.8727
12.9713
6.53118
5.46532
10.8145
11.7848
8.35245
8.03638
7.24607
8.38807
6.84855
8.07429
3.72033
4.99336
7.43938
5.48392
13.6443
10.0307
6.91142
9.27477
13.9711
3.57434
5.87601
2.81661
3.83806
6.68204
3.46379
2.41327
10.9838
8.43963
7.63732
5.0221
11.7087
7.52017
5.66777
4.89891
7.87527
8.60478
6.62075
6.69362
6.28842
6.88098
6.82737
6.05131
3.88869
4.54686
4.894
4.84896
8.61575
5.0379
11.5933
4.78249
11.008
10.4653
5.71279
2.69405
3.33854
6.69497
7.25861
9.48088
7.64226
7.03022
9.41901
11.5483
7.55028
11.9393
10.4557
11.8147
7.23797
7.60617
5.27359
7.46557
10.3356
8.07339
9.09627
11.0874
5.03379
13.0981
5.1904
1.83044
7.34155
7.37271
4.17036
5.77179
11.2235
11.1551
9.83885
9.81312
14.3311
8.13623
8.16292
7.41775
6.8502
8.46805
9.98383
7.68458
12.4578
12.6409
7.43861
7.68274
11.8139
15.1433
0.62891
9.31187
8.31021
14.4823
14.4571
7.23889
7.05509
8.67694
9.84268
11.0652
8.70462
8.13554
7.7144
7.97914
8.64518
8.7688
13.7027
12.7838
10.1609
9.39595
8.50713
9.0707
9.10382
9.13131
8.06849
7.86406
8.63723
8.36913
7.44644
8.10091
7.91876
8.0515
10.1569
8.9651
8.08271
8.30884
4.98229
9.10098
9.40682
5.5336
5.33312
7.99819
7.99259
5.04091
12.5717
6.87327
7.58799
7.35497
7.53078
9.74707
9.64526
7.13295
7.40393
6.5696
8.37991
6.49024
7.59776
7.38204
8.98327
8.43426
7.63443
4.97185
8.63239
13.2502
15.3111
7.03245
5.74954
6.74398
11.2375
8.65545
14.4025
8.25372
7.57198
7.00089
7.59899
13.7842
8.03969
7.7605
6.96183
5.83492
12.405
3.2013
7.32018
7.93209
7.15971
13.1313
7.82813
12.2278
4.41203
13.1784
13.1463
6.64363
8.61633
4.48051
8.80898
10.3151
9.93226
13.6095
9.2882
8.86585
8.26161
12.3072
13.1483
11.6451
2.9908
7.00873
7.11939
8.52162
9.04362
7.57017
13.5547
9.30927
13.8272
13.09
10.1322
8.64934
13.4613
8.47331
8.3102
9.06246
7.72713
10.2968
10.7556
13.2326
13.1054
4.38839
8.83894
8.48817
12.699
7.66599
8.46762
11.5847
7.98133
6.08536
5.70575
5.62623
7.66123
11.6749
8.45832
5.2994
13.2475
13.4513
10.895
7.11097
8.29742
7.06595
6.41733
5.21635
7.83777
9.24469
7.94875
7.9195
7.85187
7.81708
8.18066
8.18806
8.50107
8.47825
6.82512
6.58362
5.67081
8.59129
8.02641
7.69944
9.50013
11.6279
10.8471
10.2622
8.67449
10.3189
6.64598
9.40577
8.94569
9.72373
10.2833
9.15369
7.20141
8.47669
10.8829
8.87679
8.71691
8.49792
10.5866
15.1475
7.92356
7.88011
11.1789
7.90477
11.8416
11.7189
12.4095
12.5824
7.76499
8.1202
9.45298
7.88985
12.2964
12.0599
13.2044
8.81049
12.8867
12.9668
12.1202
12.0649
7.99333
9.03319
8.26095
8.48318
11.691
8.53282
8.61373
8.59832
8.86613
8.87757
7.81925
8.07924
7.99065
13.6821
13.5546
12.0855
10.654
7.30971
10.9798
13.0312
7.23313
7.02505
13.2579
9.93701
11.0416
12.3459
13.1138
5.64591
5.76785
5.84088
9.8751
8.85403
15.0381
11.7256
8.22399
10.094
8.37153
9.33479
11.8944
8.7765
9.68594
14.8725
10.7946
8.43554
9.75696
15.4002
10.7322
6.3726
13.7972
11.8137
8.49356
8.44051
8.13011
7.86743
7.83995
8.14731
10.2158
10.3749
9.0246
12.6289
12.7724
12.6775
8.86419
10.3984
7.54759
6.81869
8.73367
6.84849
12.4581
6.95999
7.37395
7.22442
2.88316
1.40069
1.86393
5.07579
1.89416
1.16381
1.70076
2.53641
4.56421
1.49807
3.59075
1.8062
1.45516
2.01576
3.05113
1.00845
2.92896
4.32095
0.886534
1.32779
1.45941
2.31139
3.13104
1.61664
1.90136
0.814026
1.03878
1.99851
1.25905
1.68141
1.96117
1.06059
1.8184
1.38778
1.21433
1.93556
1.17721
2.00095
0.882717
0.976729
2.6317
4.79405
2.34987
2.03203
1.27981
1.07628
1.52109
1.60792
1.00957
1.79438
0.994387
1.84846
1.13028
1.09001
2.45393
1.26307
0.879651
0.932482
1.21604
0.946585
0.971539
0.931272
1.01222
1.2492
1.00204
1.04575
1.16357
1.08354
1.26363
0.858521
1.03087
1.01668
1.57166
1.63037
1.56118
1.07613
0.979473
1.17669
1.30557
1.35967
2.1547
1.88643
1.1074
1.05951
0.89772
1.3393
1.57676
1.26104
1.03622
1.32777
0.85024
0.831069
1.00716
1.19644
1.02558
0.763324
2.39486
1.85608
2.41805
1.97077
3.86909
2.88792
2.06919
2.99064
3.39741
2.3223
2.30363
1.8131
1.4086
1.6346
1.94404
3.33165
2.25556
2.98343
0.982846
1.86007
1.38404
1.83889
1.6596
1.63638
1.5739
1.82543
2.05394
3.24817
1.25754
3.50221
2.8212
1.02297
0.781911
2.40674
1.07911
0.989277
0.854486
0.826192
0.879213
1.73633
1.33495
0.712992
2.79216
0.833158
0.99593
1.30376
1.45977
1.022
3.61822
4.51052
1.64447
2.09185
1.08534
1.27052
3.79947
1.23766
2.44211
1.27056
1.02483
2.43282
1.01094
0.996924
2.09483
2.87108
1.13019
0.689449
1.8901
2.54681
1.09282
1.3532
1.44461
1.78031
1.6646
1.44984
1.49515
1.66044
1.30209
1.22848
1.11293
1.20286
3.87222
2.43994
1.19852
2.35755
1.40911
2.07069
2.03652
1.59892
1.16178
1.22593
1.45871
1.86813
1.66332
1.34579
2.17303
1.07788
4.3195
2.91025
4.85579
8.86811
8.58632
4.81953
3.70006
6.32319
5.60732
5.50231
7.94529
8.23147
7.16052
4.10377
6.83968
8.70785
5.00529
6.54774
7.61281
4.35601
5.86374
3.99276
6.09731
6.52853
3.90008
3.07613
6.78463
9.38823
5.29173
7.58875
5.90269
5.54152
4.52891
5.12621
6.17982
0.915193
11.6691
4.3901
5.69916
5.92328
6.16914
5.89274
7.96537
7.12921
11.3101
3.88491
4.69855
5.1141
11.2301
5.71292
5.40802
8.75891
4.68179
4.99309
8.3925
12.4138
5.23508
10.0331
4.32675
3.04975
5.30915
10.0292
4.51888
10.1943
8.35477
4.97606
8.49273
6.81358
6.19649
7.65819
6.60584
6.23327
7.58747
8.93933
9.11848
4.28401
4.81446
7.49381
4.6174
4.61952
3.39104
5.26926
5.62805
5.65868
4.04852
4.5098
7.19212
6.67794
5.11268
5.64291
5.23242
11.664
6.85851
2.76242
9.0909
1.16536
5.12081
7.88623
3.56526
3.25742
7.22464
7.63095
6.4978
13.4433
11.1346
5.30717
9.42218
8.8396
6.85441
9.37725
11.0436
12.4145
6.91774
6.96746
5.04846
6.27352
3.27933
10.3589
7.7344
5.92888
5.04238
7.7353
10.5137
6.66086
8.81607
5.97276
7.50679
1.10884
6.92638
11.4733
5.27137
4.58569
4.65142
2.77738
8.01274
10.6134
6.76399
5.0109
5.21123
7.89158
2.41309
0.752117
2.28498
2.10686
3.13475
11.7637
4.14868
6.6601
5.45695
4.67787
3.63217
3.79507
5.04728
4.32835
12.0728
6.42425
4.61606
4.96248
8.76441
5.21008
11.4584
4.12069
10.2705
9.74627
10.4293
10.4123
9.14066
1.01169
14.2874
6.83767
10.5325
3.818
2.59588
6.54877
12.3284
4.31249
8.39405
10.4101
10.797
6.55442
3.40811
4.22903
7.45031
10.4393
11.5949
1.78914
2.55353
11.3949
8.79043
2.96937
12.8424
4.77079
9.4286
8.19405
6.43071
7.80925
10.1021
12.7028
7.28713
13.8851
9.67165
13.13
3.62772
12.8316
7.37181
9.97779
14.9817
14.9853
11.8087
15.381
11.486
11.6168
12.3009
7.92484
8.7456
7.67176
12.5296
6.06334
6.26416
5.04822
7.71697
9.33545
9.2595
12.5134
9.48977
14.7191
6.5875
6.35579
7.96605
14.7036
9.46278
13.5687
6.6783
12.5769
6.65234
14.7999
9.49328
14.5239
4.1138
12.4898
11.3997
10.4423
11.2991
13.4559
7.36283
13.85
10.7308
11.8641
15.2395
10.7572
11.3287
7.34859
10.8244
11.8101
8.91816
9.8819
2.80861
14.7333
14.6767
11.5189
9.73827
9.52178
14.5132
12.3003
9.8623
11.4361
14.7695
7.75327
13.9006
13.1558
4.97953
9.99317
4.34054
10.186
15.1151
14.9956
14.0984
14.8135
12.1398
13.4352
8.19455
7.69582
15.0709
15.5489
3.53487
12.1892
9.79541
15.5223
11.5592
15.4787
6.83563
6.3442
10.1939
6.19654
10.2458
15.39
6.99468
10.9176
6.88842
15.1423
11.3306
15.5984
8.75331
14.8306
15.3796
7.61187
8.44648
7.79324
8.73714
8.49081
11.059
14.7921
8.36833
7.49093
8.41381
8.12684
15.3772
14.7178
10.8801
5.53929
11.3993
13.0014
6.60945
9.87509
6.35324
13.5615
8.58508
12.282
7.60362
7.15458
5.8717
7.13619
8.59137
12.2894
7.72204
11.6705
7.72478
11.6356
9.86622
6.77422
9.33902
6.77681
9.3107
8.83872
10.8471
5.68646
10.0769
11.0458
7.72523
8.79382
11.6292
4.16165
11.6165
7.77025
8.71669
9.845
5.52608
7.08168
9.67348
9.7879
5.54322
12.2264
12.0617
7.59667
4.0373
4.1349
4.31802
4.06249
6.63458
4.29658
4.65884
4.59462
4.32006
3.71391
1.54223
7.52227
1.60869
7.1292
7.66281
5.3919
5.33847
3.90057
7.82962
13.554
13.3106
7.11581
7.48034
2.43316
3.39013
1.53222
8.05961
1.96002
8.5349
9.31605
14.1366
3.5424
0.82873
2.46316
10.2097
1.84213
3.18899
7.27562
6.58608
5.08546
12.6764
5.90693
12.5164
9.2432
7.32532
12.8204
7.81235
4.63197
11.456
5.1786
9.67232
11.6282
11.3071
2.48056
10.093
10.9603
7.6196
10.3153
12.1292
11.7068
8.76597
10.4301
8.24493
1.44584
9.71441
5.00989
11.7482
12.3218
8.59685
7.58879
11.8674
11.493
11.0692
10.5902
10.5078
9.24864
9.02507
10.3618
11.6624
9.95912
9.611
9.81316
11.745
11.34
6.68843
7.55495
8.70028
5.76658
11.3608
12.2623
8.87998
8.70639
8.57998
8.83299
11.9783
8.392
7.5742
6.0873
6.47594
5.82633
12.5171
10.5119
7.49656
6.50165
10.1073
8.86249
7.43589
13.0944
7.04095
8.1882
8.26585
10.7925
12.7352
9.17394
6.78149
11.6131
6.07454
8.18331
9.94188
4.36311
12.0068
13.6666
12.983
13.013
12.1801
9.69886
12.774
13.5209
8.01702
13.157
7.88553
9.7994
8.62144
13.1082
13.3129
13.0155
8.30264
13.1677
9.90169
12.6456
13.5193
8.11863
7.42298
6.42262
9.46733
13.1522
11.9525
8.81837
12.9892
7.08087
12.2935
8.16688
7.60964
13.2963
9.91003
9.27052
9.08817
6.00667
12.9579
9.62366
8.70733
11.1739
13.1531
7.51995
8.16292
3.55416
12.2863
3.76397
11.9472
8.81872
13.9542
8.91716
10.2039
13.0364
8.11765
9.63225
7.0942
9.82373
4.66378
7.65548
7.4882
8.64217
6.19286
10.9825
7.88238
7.91084
7.5199
7.20438
3.78338
5.06972
12.7909
1.6563
6.3256
3.93491
7.0013
3.98886
4.76042
5.40033
3.1558
7.09573
7.72701
6.98745
5.56442
11.293
10.2489
10.1592
4.39999
6.96189
8.50067
5.15652
6.448
11.0807
5.46984
5.73404
4.95921
5.05767
9.20387
10.167
5.32355
12.8145
3.56086
10.4062
4.73221
4.47352
11.2369
12.4438
