2.80065
2.26817
1.55569
1.71228
1.48568
1.27123
1.32038
1.33529
1.84144
0.981902
1.66016
1.3407
2.74301
1.91122
1.71845
0.277297
0.138157
0.346449
0.80748
1.82828
1.77878
0.295701
0.766226
1.36463
0.574892
0.268929
1.12706
0.610945
1.25448
3.39253
0.272534
0.89186
0.759972
0.14508
0.447182
1.28696
1.54252
2.6524
2.46643
2.72365
2.22506
3.73356
1.86404
2.14772
2.21885
3.37405
2.44902
1.59151
2.98752
2.58453
2.70127
2.51713
1.54894
3.46827
3.12215
3.08596
3.42589
2.21497
2.68616
2.43253
2.71777
2.11832
1.50313
3.00494
2.31608
1.44653
2.88359
2.41852
3.41544
3.12486
2.78101
1.37696
2.35039
1.80687
2.89671
1.53993
1.88544
0.974533
3.15855
2.74598
2.41981
1.69828
2.87245
2.81628
3.18343
3.03121
2.87393
3.63685
2.35707
2.02285
2.55162
3.32004
2.6515
1.86872
4.76806
3.06699
2.82923
3.90482
3.0902
2.07351
2.0638
2.43617
2.1218
2.37086
1.5174
1.9455
1.39204
1.89862
2.50954
2.36504
2.68741
1.8964
1.0178
1.66593
3.38998
2.21997
2.56339
3.40921
2.92825
1.94791
3.79332
2.72112
0.884748
2.38954
2.63027
2.59953
2.84874
2.18649
1.24035
1.38824
1.08785
3.39225
2.97351
2.42891
2.72988
3.03773
2.22638
4.00211
2.82308
1.80041
3.90772
3.06147
2.02375
3.02326
2.62427
1.99189
1.89895
2.55433
2.90391
4.4863
2.48824
1.50504
2.56147
2.56206
3.79349
2.35938
2.01658
1.97878
1.69847
2.52492
1.78596
1.70509
1.66103
2.39234
1.63683
1.49514
2.01492
1.65728
1.70442
1.63444
1.79006
0.958329
2.48552
2.32079
2.21351
2.6887
1.98952
2.26451
5.29759
2.81611
1.8149
2.03434
1.77611
1.95724
2.12459
2.88468
1.81423
0.857223
1.44689
2.30807
1.31897
0.666928
1.8764
2.69679
3.02618
1.40443
1.42116
1.351
2.79666
1.65159
3.77001
1.77367
2.00574
1.88728
2.24554
2.45817
2.2538
3.31641
1.94373
1.41197
2.77953
1.44724
1.12762
1.48783
0.647202
2.36794
1.79327
1.68163
1.84042
2.10072
1.89824
2.36204
0.938477
1.60255
1.56836
1.494
1.58999
2.50864
1.39677
4.23959
2.71049
1.70966
1.44637
1.645
3.07651
2.05745
2.06274
1.50694
1.78855
0.868065
2.11829
1.69959
1.17054
2.12454
2.29071
2.15234
2.85042
1.97721
1.71327
2.03379
2.95256
2.00874
2.01249
1.78022
2.5554
2.29789
1.76327
2.00917
2.35627
2.22776
2.25474
2.60602
2.39261
2.27472
2.53794
2.50751
2.10299
2.22782
1.38611
2.35176
1.73027
1.8299
2.80596
2.18981
2.23618
1.70243
0.804639
0.556616
0.733863
0.490232
2.58533
2.76878
0.647316
0.450398
0.667874
3.25321
0.405734
3.69749
0.484855
1.45958
0.493286
2.66927
0.543805
0.885157
0.464157
0.727968
0.363584
0.447031
0.514954
0.701168
0.430308
0.48457
0.486586
0.4458
0.729688
0.461774
0.432846
0.476306
0.430201
1.38359
0.682022
2.9508
0.709482
1.48081
1.0126
0.641367
3.01225
1.28109
0.641456
0.897543
0.490639
0.551242
0.638538
0.483542
1.23201
0.680263
1.01501
2.10876
0.571421
0.499993
0.556882
0.483286
0.574473
0.502262
0.455997
0.543514
0.641851
0.557585
0.390343
0.419901
0.501999
0.328341
0.436069
0.522259
0.372526
0.547027
