OFF
512 989 0
13.5865 -9.131 -2.72402
12.2105 -10.9031 -2.20702
12.1805 -11.0172 -2.82602
13.5685 -9.2038 -3.35802
12.0865 -11.0766 -3.64302
13.4595 -9.246 -4.18102
14.3965 -7.0263 -4.72702
14.5185 -6.9873 -3.89302
14.5175 -6.9462 -3.23702
11.9285 -11.0731 -4.60202
11.7085 -10.9985 -5.64902
12.9795 -9.2142 -6.17202
13.2625 -9.2515 -5.13702
13.7905 -7.0132 -6.69202
14.1495 -7.0239 -5.67702
14.1135 -4.7056 -7.11102
13.8335 -2.5204 -7.28502
14.5905 -2.8386 -6.34502
14.5775 -4.7277 -6.12902
14.9505 -2.9207 -5.48102
14.8895 -4.7756 -5.19102
15.0405 -2.8271 -4.65302
14.7695 -2.4946 -3.83702
14.9585 -4.6579 -3.64702
15.0085 -4.7042 -4.33902
5.82554 -4.566 -0.801016
6.26154 -2.6 -1.33902
6.32454 -2.477 -1.28602
6.39554 -1.4197 -2.10102
7.16954 -8.3659 -1.98102
7.26954 -9.3547 -1.87202
7.94654 -9.7908 -2.02402
8.16954 -8.4888 -2.28302
9.05054 -10.0067 -2.24102
9.39054 -8.608 -2.56102
9.81754 -6.9212 -2.84702
8.47254 -6.9212 -2.51102
7.36854 -6.9212 -2.14902
10.2745 -9.7908 -2.46402
11.1955 -9.3547 -2.62502
11.7895 -8.3659 -2.92402
10.6875 -8.4888 -2.80102
12.3325 -6.9212 -3.23702
11.1795 -6.9212 -3.10502
12.5465 -5.4765 -3.41802
12.4725 -4.4877 -3.44702
11.7705 -4.0516 -3.37602
11.4995 -5.3536 -3.29502
10.6515 -3.8358 -3.14502
10.2615 -5.2344 -3.05502
9.43654 -4.0516 -2.79302
8.53854 -4.4877 -2.47602
7.92154 -5.4765 -2.33302
8.97954 -5.3536 -2.70802
4.75354 -12.4344 -3.35302
4.56354 -11.5793 -4.45602
6.22154 -12.3323 -4.63502
6.29154 -12.6283 -3.56402
8.09954 -12.4718 -4.88802
8.20454 -12.6239 -3.82402
8.31354 -12.6611 -2.85802
6.41354 -12.7455 -2.58902
4.87754 -12.6454 -2.39502
10.0045 -12.0558 -5.22402
10.1625 -12.1514 -4.16802
10.2885 -12.1598 -3.20602
10.4365 -11.9535 -1.78102
10.3795 -12.0907 -2.39202
8.49554 -12.3649 -1.42602
8.40454 -12.5601 -2.03702
6.62254 -12.2202 -1.12202
5.01954 -11.4575 -0.817016
4.96754 -12.3651 -1.54202
6.49754 -12.5609 -1.74302
6.41254 -5.5336 -8.89502
6.94654 -4.5015 -8.89702
7.79154 -4.0982 -9.36502
7.42654 -5.4485 -9.53802
9.00054 -3.9011 -9.80102
8.67354 -5.3443 -9.97402
8.38854 -7.0172 -9.85002
7.07554 -7.018 -9.42602
5.99554 -7.0223 -8.77702
10.2065 -4.094 -9.97902
11.0405 -4.4958 -9.92302
11.1375 -5.5317 -10.01
9.95554 -5.4474 -10.13
11.0215 -7.0275 -9.87002
9.76154 -7.0202 -10.01
10.6465 -8.5264 -9.46502
10.2025 -9.5682 -9.01302
9.26754 -9.9618 -8.99402
9.46554 -8.5969 -9.60602
8.01654 -10.1487 -8.84602
8.16354 -8.694 -9.46202
6.85954 -9.9515 -8.55902
6.11954 -9.5516 -8.26002
5.92954 -8.5138 -8.52702
6.94054 -8.591 -9.10002
5.02454 -9.2801 -0.606016
5.64554 -10.9054 -0.646016
5.34754 -9.1296 -0.595016
6.00754 -10.5832 -0.622016
5.66154 -8.9327 -0.618016
5.95754 -6.9381 -0.740016
5.73054 -6.9319 -0.694016
5.50554 -6.9265 -0.676016
6.23454 -10.3757 -0.696016
6.35854 -10.2572 -0.851016
6.02054 -8.7433 -0.867016
5.88354 -8.8104 -0.709016
6.26854 -6.928 -0.995016
6.14354 -6.9348 -0.837016
7.01854 -5.113 -1.23302
8.19054 -3.6 -1.57902
8.14854 -3.4962 -1.43802
6.92654 -5.0597 -1.08102
8.03654 -3.2818 -1.37402
6.76954 -4.9365 -0.994016
7.83354 -2.9036 -1.38502
7.45554 -2.1443 -1.55602
6.29354 -4.5264 -0.963016
6.55054 -4.7033 -0.967016
12.1745 -10.7426 -1.83902
10.4565 -11.7576 -1.42702
12.0935 -10.5642 -1.68002
10.4475 -11.5388 -1.28402
8.70254 -11.8641 -0.970016
8.60454 -12.1194 -1.09102
11.9895 -10.3963 -1.68602
11.8845 -10.2675 -1.81302
10.3765 -11.1744 -1.44502
10.4185 -11.3325 -1.30602
8.78654 -11.474 -1.15402
8.76254 -11.6394 -1.00602
7.36454 -11.1679 -0.951016
7.28054 -11.3195 -0.799016
7.12154 -11.5529 -0.745016
6.86654 -11.8686 -0.820016
14.4395 -3.0018 -3.30102
14.7665 -4.7811 -3.18902
14.1625 -3.298 -3.04902
14.5125 -4.9544 -2.93902
14.2135 -6.9498 -2.60402
14.3995 -6.9422 -2.81902
13.9275 -3.4883 -2.97502
13.7365 -3.596 -3.04402
14.0705 -5.1123 -2.94502
14.2745 -5.0583 -2.87102
13.8165 -6.9323 -2.64902
14.0075 -6.9434 -2.56002
13.0595 -8.7521 -2.24302
13.2165 -8.828 -2.13502
13.3775 -8.9271 -2.15202
13.5125 -9.0334 -2.33602
9.61454 -1.6626 -2.10902
9.60354 -1.9928 -1.92002
9.69854 -2.3282 -1.87302
11.4665 -2.029 -2.39002
11.5205 -1.7754 -2.48802
11.5445 -1.5426 -2.67802
9.70154 -2.6907 -2.03102
9.72454 -2.5552 -1.91002
11.2985 -2.3863 -2.49002
11.3885 -2.2388 -2.39202
12.7275 -2.6877 -2.86002
12.8775 -2.5492 -2.78102
13.0515 -2.3376 -2.82402
13.2955 -1.761 -3.25602
13.2445 -2.0558 -3.00802
6.40954 -10.2021 -1.07402
6.07754 -8.7118 -1.09102
6.52454 -10.0831 -1.34102
6.20154 -8.6455 -1.36402
6.42254 -6.9219 -1.49702
6.31554 -6.9239 -1.22002
6.83854 -9.7726 -1.62902
6.53954 -8.4742 -1.66802
6.72954 -6.9212 -1.80802
8.33554 -4.0698 -2.29702
7.35554 -5.3682 -2.01102
8.20554 -3.7608 -2.04902
7.11654 -5.1983 -1.72402
8.18354 -3.6462 -1.79702
7.04354 -5.1362 -1.45602
11.7975 -10.2063 -2.01702
10.3295 -11.0999 -1.65702
11.6735 -10.0841 -2.25302
10.2715 -10.949 -1.90902
8.78954 -11.2381 -1.63502
8.77954 -11.3967 -1.37002
11.4545 -9.7726 -2.47502
10.1945 -10.5618 -2.17202
8.86454 -10.8291 -1.92902
7.67954 -10.5618 -1.73202
7.46454 -10.9484 -1.43802
7.39154 -11.0973 -1.17102
13.5895 -3.6446 -3.21902
13.9185 -5.1359 -3.12202
13.3705 -3.7604 -3.39802
13.6885 -5.1982 -3.31002
13.4605 -6.9223 -3.04002
13.6745 -6.9257 -2.83302
12.9635 -4.0698 -3.47902
13.2535 -5.3682 -3.41602
13.0535 -6.9212 -3.19502
12.4305 -8.4742 -2.84802
12.7625 -8.6464 -2.65902
12.9405 -8.7153 -2.43702
9.65454 -2.7516 -2.23702
9.60854 -2.8957 -2.47302
11.0935 -2.6061 -2.90102
11.2105 -2.4529 -2.68302
9.59054 -3.2806 -2.68702
10.9175 -3.0133 -3.07402
12.1135 -3.2806 -3.35102
12.4265 -2.8954 -3.23602
12.6045 -2.7504 -3.04202
7.11454 -1.5346 -2.33702
8.54454 -1.5143 -2.34302
7.82154 -1.4205 -2.69802
9.24354 -1.3703 -2.87302
8.58954 -1.3492 -3.12202
8.28754 -1.3283 -3.58702
7.52354 -1.335 -3.36102
6.85954 -1.3602 -3.16202
9.77254 -1.3542 -3.28102
10.1485 -1.3945 -3.57602
9.76354 -1.3956 -3.72302
9.24954 -1.3565 -3.46502
9.57554 -1.3958 -3.98602
8.99654 -1.3569 -3.80502
9.59654 -1.3951 -4.31402
9.84154 -1.3935 -4.66002
9.37354 -1.3523 -4.69302
9.03154 -1.3555 -4.23502
8.71554 -1.3695 -4.76702
8.30054 -1.3488 -4.16102
7.84154 -1.5192 -4.91202
6.51154 -2.166 -5.18602
6.65654 -1.5409 -4.05602
7.43354 -1.4231 -4.12502
14.1555 -1.6903 -4.10302
13.0405 -1.5105 -3.48902
13.5325 -1.3934 -4.22702
12.6455 -1.3534 -3.69502
11.4985 -1.3305 -3.25502
11.5375 -1.3953 -2.95302
12.9435 -1.3343 -4.28402
12.4585 -1.3845 -4.30302
11.9755 -1.3869 -3.99002
12.2775 -1.3391 -3.86302
11.3595 -1.3897 -3.74202
11.4305 -1.3446 -3.52602
10.7155 -1.3924 -3.59302
10.5475 -1.35 -3.31702
10.2895 -1.3501 -2.95002
9.91154 -1.4513 -2.50002
13.4575 -1.697 -6.61502
14.2345 -1.8323 -6.18302
13.0045 -1.3928 -6.10602
13.6725 -1.4242 -5.83902
13.9885 -1.4379 -5.37002
14.5915 -1.8881 -5.50702
12.5445 -1.3322 -5.69502
12.1515 -1.3835 -5.38802
12.5365 -1.3823 -5.24002
13.0675 -1.3299 -5.51102
12.7245 -1.3822 -4.97802
13.3205 -1.3296 -5.17202
12.7035 -1.3829 -4.64902
13.2855 -1.3311 -4.74102
13.9615 -1.4245 -4.80902
14.6195 -1.8285 -4.79502
8.49854 -1.6876 -6.18602
9.03754 -1.4577 -5.64502
9.62254 -1.349 -5.32802
10.7875 -1.3294 -5.78202
10.6155 -1.4026 -6.23502
10.3735 -1.5691 -6.85602
10.3245 -1.3911 -4.97302
10.0405 -1.3475 -5.11302
10.9405 -1.3883 -5.22102
10.8865 -1.3419 -5.45102
11.5845 -1.3856 -5.37002
11.7695 -1.3365 -5.66002
11.9785 -1.3526 -6.06402
12.1695 -1.7879 -7.27002
12.1705 -1.5181 -6.59502
10.4235 -1.4315 -4.05302
10.6315 -1.4315 -3.95302
10.6515 -1.4246 -3.96902
10.4495 -1.4246 -4.06602
10.4845 -1.3426 -4.08602
10.3825 -1.3426 -4.24402
10.3455 -1.4246 -4.22702
10.3165 -1.4315 -4.21802
10.4655 -1.4246 -4.61802
10.4415 -1.4315 -4.61902
10.3195 -1.4315 -4.41602
10.3475 -1.4246 -4.42102
10.3845 -1.3426 -4.43302
11.5935 -1.4315 -4.15502
11.8425 -1.4315 -4.33202
11.8215 -1.4246 -4.33402
11.5805 -1.4246 -4.16202
11.2705 -1.4246 -4.03302
11.2715 -1.4315 -4.02102
10.9325 -1.4315 -3.94802
11.8615 -1.4315 -4.89802
11.6525 -1.4315 -4.99802
11.6355 -1.4246 -4.98402
11.9645 -1.4315 -4.53402
10.6905 -1.4315 -4.79602
10.7055 -1.4246 -4.79002
11.0165 -1.4246 -4.91902
11.0125 -1.4315 -4.93002
11.3515 -1.4315 -5.00202
11.3445 -1.4246 -4.99002
6.30054 -1.6753 -2.12802
6.17154 -2.8005 -1.40902
6.15954 -2.8416 -1.41402
6.28754 -1.7254 -2.12902
6.25254 -2.8181 -1.42602
6.36854 -1.7359 -2.14202
6.24454 -1.393 -2.94802
6.18454 -1.3557 -2.92402
6.19554 -1.3025 -2.92602
6.55754 -2.6563 -1.45502
6.63654 -1.656 -2.18202
6.45154 -1.387 -3.02502
5.78854 -2.6817 -4.55202
6.19354 -1.6647 -3.88502
5.54954 -2.8456 -4.31102
5.96554 -1.7459 -3.72002
5.47454 -2.87 -4.23602
5.48154 -2.8291 -4.24402
5.90654 -1.6859 -3.67602
5.89654 -1.736 -3.66902
4.96954 -4.7358 -4.50202
4.96554 -4.7613 -4.49302
5.01454 -4.7429 -4.56902
4.46554 -7.0317 -4.53702
4.43854 -7.0281 -4.46702
4.43954 -7.021 -4.47602
5.33154 -4.5883 -5.33202
5.16654 -4.6305 -4.81602
4.65254 -7.0199 -5.23502
4.54654 -7.0254 -4.76302
4.34454 -9.3961 -4.96402
3.94954 -11.2811 -3.94802
4.15054 -9.3805 -4.47802
3.69054 -11.177 -3.74302
4.00954 -9.3059 -4.25602
3.60054 -11.1611 -3.67802
3.59554 -11.1877 -3.68202
3.95854 -9.2999 -4.19402
3.96154 -9.2887 -4.18702
3.41754 -12.2994 -2.96902
3.42354 -12.2638 -2.96702
3.55054 -12.2568 -3.01402
3.57554 -12.5825 -2.20502
3.43154 -12.6064 -2.18102
3.91654 -12.3121 -3.15602
3.99454 -12.5933 -2.27202
4.36654 -11.1671 -0.869016
4.12654 -12.2444 -1.46502
4.09154 -11.0666 -0.883016
3.75154 -12.1914 -1.45202
3.99654 -11.0515 -0.882016
3.99354 -11.0776 -0.874016
3.61654 -12.2344 -1.43902
3.62254 -12.199 -1.44402
4.55354 -9.1845 -0.612016
4.55354 -9.1738 -0.621016
4.60754 -9.1906 -0.625016
5.21154 -6.938 -0.647016
5.17654 -6.934 -0.638016
5.18154 -6.9264 -0.629016
4.77154 -9.2633 -0.618016
5.32654 -6.932 -0.660016
6.02154 -4.5723 -0.943016
5.81354 -4.683 -0.921016
5.75954 -4.6747 -0.902016
5.75054 -4.7005 -0.909016
6.22154 -2.6811 -1.37302
6.35354 -1.5244 -2.11402
6.19654 -2.7331 -1.39302
6.32754 -1.5911 -2.12202
6.21954 -1.2128 -2.93202
6.24254 -1.1414 -2.93902
6.18154 -2.7686 -1.40402
6.31154 -1.6359 -2.12602
6.20554 -1.2607 -2.92902
5.48654 -2.7974 -4.25402
5.91454 -1.6466 -3.68202
5.92454 -1.602 -3.69302
4.43854 -7.0168 -4.48602
3.59054 -11.2109 -3.68802
3.95554 -9.3107 -4.20302
3.58154 -11.2451 -3.69902
3.94954 -9.3293 -4.21802
3.56554 -11.3048 -3.72002
3.40054 -12.3733 -2.97502
3.41054 -12.3299 -2.97102
3.98954 -11.1002 -0.866016
4.55254 -9.2119 -0.584016
5.19054 -6.9203 -0.601016
5.19854 -6.9224 -0.568016
4.55354 -9.1947 -0.602016
5.18454 -6.9218 -0.619016
3.98254 -11.1332 -0.850016
5.76754 -4.6551 -0.894016
5.77754 -4.6351 -0.878016
5.79654 -4.6076 -0.850016
12.1455 -1.4154 -4.31602
11.7805 -1.4164 -4.07202
11.9655 -1.4309 -4.32402
11.6685 -1.4311 -4.12002
11.2875 -1.4314 -3.96402
11.3135 -1.4175 -3.88202
11.8775 -1.4349 -4.32902
11.6145 -1.4349 -4.14402
11.2755 -1.4349 -4.00402
10.6025 -1.4349 -3.93102
10.9195 -1.4349 -3.92702
10.5325 -1.4319 -3.87602
10.8875 -1.4316 -3.87602
10.3915 -1.4194 -3.76602
10.8245 -1.4185 -3.77202
10.0965 -1.4198 -3.88902
10.2885 -1.432 -3.98602
10.1655 -1.432 -4.17002
9.94854 -1.4199 -4.10302
10.3835 -1.4349 -4.03302
10.2725 -1.4349 -4.20402
10.4055 -1.4349 -4.62102
10.2765 -1.4349 -4.41002
10.3195 -1.4318 -4.62702
10.1725 -1.4319 -4.39502
10.1435 -1.419 -4.63902
9.96154 -1.4196 -4.36602
10.5085 -1.418 -4.88302
10.6155 -1.4315 -4.83102
10.9965 -1.4312 -4.98702
10.9755 -1.4169 -5.07302
10.6685 -1.4349 -4.80602
11.0075 -1.4349 -4.94602
11.6805 -1.4349 -5.01902
11.3635 -1.4349 -5.02302
11.7515 -1.4308 -5.07502
11.3965 -1.431 -5.07502
11.8975 -1.415 -5.18902
11.4655 -1.4158 -5.18302
12.1935 -1.4145 -5.06602
11.9955 -1.4306 -4.96502
12.1185 -1.4306 -4.78102
12.3405 -1.4144 -4.85302
11.8995 -1.4349 -4.91702
11.9685 -1.4315 -4.73302
12.0105 -1.4349 -4.74602
12.0065 -1.4349 -4.54002
12.1125 -1.4307 -4.55602
12.3285 -1.4147 -4.58902
6.56554 -2.9667 -6.50202
5.41754 -4.7805 -6.21202
6.60054 -3.4735 -7.54602
5.54454 -5.0834 -7.22102
4.94554 -7.0331 -7.00402
4.75354 -7.0262 -6.04202
6.73254 -3.9978 -8.38302
5.83054 -5.3731 -8.11902
5.32254 -7.0296 -7.94302
5.69854 -10.0665 -7.66302
5.26354 -8.6879 -7.75002
5.31554 -10.5791 -6.76002
4.84054 -8.9748 -6.83002
5.00454 -11.0179 -5.69002
4.55454 -9.2359 -5.82402
13.0825 -3.0655 -8.26402
11.8035 -2.1167 -8.10702
12.3945 -3.4896 -9.08902
11.2465 -2.5607 -8.93102
9.71054 -2.2644 -8.56302
10.0605 -1.8364 -7.69002
11.6765 -3.9886 -9.66702
10.6755 -3.1758 -9.56702
9.35154 -2.9136 -9.29802
7.97154 -3.1828 -8.84002
8.07454 -2.5513 -8.04702
8.21354 -2.0525 -7.07502
11.4265 -10.8446 -6.72902
12.6125 -9.1283 -7.22802
11.0695 -10.5596 -7.72602
12.1315 -8.9682 -8.19702
12.7435 -7.0435 -8.65302
13.3315 -7.0272 -7.71802
10.6265 -10.0916 -8.52602
11.5055 -8.7089 -8.96902
11.9945 -7.0394 -9.39402
12.0835 -5.3712 -9.61802
12.8625 -5.1006 -8.97302
13.5405 -4.8543 -8.09902
6.29054 -11.9806 -5.76902
6.45554 -11.5165 -6.86002
7.97854 -11.8149 -7.07702
8.02354 -12.2279 -5.99902
6.67154 -10.8834 -7.80102
7.96554 -11.1554 -8.03802
9.36554 -10.8993 -8.24802
9.60054 -11.5022 -7.35902
9.81554 -11.8635 -6.31902
3 0 1 2
3 0 2 3
3 2 4 5
3 2 5 3
3 5 6 7
3 5 7 3
3 7 8 0
3 7 0 3
3 9 10 11
3 9 11 12
3 11 13 14
3 11 14 12
3 14 6 5
3 14 5 12
3 5 4 9
3 5 9 12
3 15 16 17
3 15 17 18
3 17 19 20
3 17 20 18
3 20 6 14
3 20 14 18
3 14 13 15
3 14 15 18
3 21 22 23
3 21 23 24
3 23 8 7
3 23 7 24
3 7 6 20
3 7 20 24
3 20 19 21
3 20 21 24
3 25 26 27
3 27 26 28
3 29 30 31
3 29 31 32
3 31 33 34
3 31 34 32
3 34 35 36
3 34 36 32
3 36 37 29
3 36 29 32
3 38 39 40
3 38 40 41
3 40 42 43
3 40 43 41
3 43 35 34
3 43 34 41
3 34 33 38
3 34 38 41
3 44 45 46
3 44 46 47
3 46 48 49
3 46 49 47
3 49 35 43
3 49 43 47
3 43 42 44
3 43 44 47
3 50 51 52
3 50 52 53
3 52 37 36
3 52 36 53
3 36 35 49
3 36 49 53
3 49 48 50
3 49 50 53
3 54 55 56
3 54 56 57
3 56 58 59
3 56 59 57
3 59 60 61
3 59 61 57
3 61 62 54
3 61 54 57
3 63 10 9
3 63 9 64
3 9 4 65
3 9 65 64
3 65 60 59
3 65 59 64
3 59 58 63
3 59 63 64
3 2 1 66
3 2 66 67
3 66 68 69
3 66 69 67
3 69 60 65
3 69 65 67
3 65 4 2
3 65 2 67
3 70 71 72
3 70 72 73
3 72 62 61
3 72 61 73
3 61 60 69
3 61 69 73
3 69 68 70
3 69 70 73
3 74 75 76
3 74 76 77
3 76 78 79
3 76 79 77
3 79 80 81
3 79 81 77
3 81 82 74
3 81 74 77
3 83 84 85
3 83 85 86
3 85 87 88
3 85 88 86
3 88 80 79
3 88 79 86
3 79 78 83
3 79 83 86
3 89 90 91
3 89 91 92
3 91 93 94
3 91 94 92
3 94 80 88
3 94 88 92
3 88 87 89
3 88 89 92
3 95 96 97
3 95 97 98
3 97 82 81
3 97 81 98
3 81 80 94
3 81 94 98
3 94 93 95
3 94 95 98
3 99 71 100
3 99 100 101
3 100 102 103
3 100 103 101
3 103 104 105
3 103 105 101
3 105 106 99
3 105 99 101
3 107 108 109
3 107 109 110
3 109 111 112
3 109 112 110
3 112 104 103
3 112 103 110
3 103 102 107
3 103 107 110
3 113 114 115
3 113 115 116
3 115 117 118
3 115 118 116
3 118 104 112
3 118 112 116
3 112 111 113
3 112 113 116
3 119 120 121
3 119 121 122
3 121 106 105
3 121 105 122
3 105 104 118
3 105 118 122
3 118 117 119
3 118 119 122
3 66 1 123
3 66 123 124
3 123 125 126
3 123 126 124
3 126 127 128
3 126 128 124
3 128 68 66
3 128 66 124
3 129 130 131
3 129 131 132
3 131 133 134
3 131 134 132
3 134 127 126
3 134 126 132
3 126 125 129
3 126 129 132
3 135 108 107
3 135 107 136
3 107 102 137
3 107 137 136
3 137 127 134
3 137 134 136
3 134 133 135
3 134 135 136
3 100 71 70
3 100 70 138
3 70 68 128
3 70 128 138
3 128 127 137
3 128 137 138
3 137 102 100
3 137 100 138
3 23 22 139
3 23 139 140
3 139 141 142
3 139 142 140
3 142 143 144
3 142 144 140
3 144 8 23
3 144 23 140
3 145 146 147
3 145 147 148
3 147 149 150
3 147 150 148
3 150 143 142
3 150 142 148
3 142 141 145
3 142 145 148
3 151 130 129
3 151 129 152
3 129 125 153
3 129 153 152
3 153 143 150
3 153 150 152
3 150 149 151
3 150 151 152
3 123 1 0
3 123 0 154
3 0 8 144
3 0 144 154
3 144 143 153
3 144 153 154
3 153 125 123
3 153 123 154
3 155 120 119
3 155 119 156
3 119 117 157
3 119 157 156
3 157 158 159
3 157 159 156
3 159 160 155
3 159 155 156
3 115 114 161
3 115 161 162
3 161 163 164
3 161 164 162
3 164 158 157
3 164 157 162
3 157 117 115
3 157 115 162
3 165 146 145
3 165 145 166
3 145 141 167
3 145 167 166
3 167 158 164
3 167 164 166
3 164 163 165
3 164 165 166
3 139 22 168
3 139 168 169
3 168 160 159
3 168 159 169
3 159 158 167
3 159 167 169
3 167 141 139
3 167 139 169
3 109 108 170
3 109 170 171
3 170 172 173
3 170 173 171
3 173 174 175
3 173 175 171
3 175 111 109
3 175 109 171
3 176 30 29
3 176 29 177
3 29 37 178
3 29 178 177
3 178 174 173
3 178 173 177
3 173 172 176
3 173 176 177
3 52 51 179
3 52 179 180
3 179 181 182
3 179 182 180
3 182 174 178
3 182 178 180
3 178 37 52
3 178 52 180
3 183 114 113
3 183 113 184
3 113 111 175
3 113 175 184
3 175 174 182
3 175 182 184
3 182 181 183
3 182 183 184
3 131 130 185
3 131 185 186
3 185 187 188
3 185 188 186
3 188 189 190
3 188 190 186
3 190 133 131
3 190 131 186
3 191 39 38
3 191 38 192
3 38 33 193
3 38 193 192
3 193 189 188
3 193 188 192
3 188 187 191
3 188 191 192
3 31 30 176
3 31 176 194
3 176 172 195
3 176 195 194
3 195 189 193
3 195 193 194
3 193 33 31
3 193 31 194
3 170 108 135
3 170 135 196
3 135 133 190
3 135 190 196
3 190 189 195
3 190 195 196
3 195 172 170
3 195 170 196
3 147 146 197
3 147 197 198
3 197 199 200
3 197 200 198
3 200 201 202
3 200 202 198
3 202 149 147
3 202 147 198
3 203 45 44
3 203 44 204
3 44 42 205
3 44 205 204
3 205 201 200
3 205 200 204
3 200 199 203
3 200 203 204
3 40 39 191
3 40 191 206
3 191 187 207
3 191 207 206
3 207 201 205
3 207 205 206
3 205 42 40
3 205 40 206
3 185 130 151
3 185 151 208
3 151 149 202
3 151 202 208
3 202 201 207
3 202 207 208
3 207 187 185
3 207 185 208
3 161 114 183
3 161 183 209
3 183 181 210
3 183 210 209
3 210 211 212
3 210 212 209
3 212 163 161
3 212 161 209
3 179 51 50
3 179 50 213
3 50 48 214
3 50 214 213
3 214 211 210
3 214 210 213
3 210 181 179
3 210 179 213
3 46 45 203
3 46 203 215
3 203 199 216
3 203 216 215
3 216 211 214
3 216 214 215
3 214 48 46
3 214 46 215
3 197 146 165
3 197 165 217
3 165 163 212
3 165 212 217
3 212 211 216
3 212 216 217
3 216 199 197
3 216 197 217
3 218 120 219
3 218 219 220
3 219 221 222
3 219 222 220
3 222 223 224
3 222 224 220
3 224 225 218
3 224 218 220
3 226 227 228
3 226 228 229
3 228 230 231
3 228 231 229
3 231 223 222
3 231 222 229
3 222 221 226
3 222 226 229
3 232 233 234
3 232 234 235
3 234 236 237
3 234 237 235
3 237 223 231
3 237 231 235
3 231 230 232
3 231 232 235
3 238 239 240
3 238 240 241
3 240 225 224
3 240 224 241
3 224 223 237
3 224 237 241
3 237 236 238
3 237 238 241
3 168 22 242
3 168 242 243
3 242 244 245
3 242 245 243
3 245 246 247
3 245 247 243
3 247 160 168
3 247 168 243
3 248 249 250
3 248 250 251
3 250 252 253
3 250 253 251
3 253 246 245
3 253 245 251
3 245 244 248
3 245 248 251
3 254 227 226
3 254 226 255
3 226 221 256
3 226 256 255
3 256 246 253
3 256 253 255
3 253 252 254
3 253 254 255
3 219 120 155
3 219 155 257
3 155 160 247
3 155 247 257
3 247 246 256
3 247 256 257
3 256 221 219
3 256 219 257
3 17 16 258
3 17 258 259
3 258 260 261
3 258 261 259
3 261 262 263
3 261 263 259
3 263 19 17
3 263 17 259
3 264 265 266
3 264 266 267
3 266 268 269
3 266 269 267
3 269 262 261
3 269 261 267
3 261 260 264
3 261 264 267
3 270 249 248
3 270 248 271
3 248 244 272
3 248 272 271
3 272 262 269
3 272 269 271
3 269 268 270
3 269 270 271
3 242 22 21
3 242 21 273
3 21 19 263
3 21 263 273
3 263 262 272
3 263 272 273
3 272 244 242
3 272 242 273
3 274 239 238
3 274 238 275
3 238 236 276
3 238 276 275
3 276 277 278
3 276 278 275
3 278 279 274
3 278 274 275
3 234 233 280
3 234 280 281
3 280 282 283
3 280 283 281
3 283 277 276
3 283 276 281
3 276 236 234
3 276 234 281
3 284 265 264
3 284 264 285
3 264 260 286
3 264 286 285
3 286 277 283
3 286 283 285
3 283 282 284
3 283 284 285
3 258 16 287
3 258 287 288
3 287 279 278
3 287 278 288
3 278 277 286
3 278 286 288
3 286 260 258
3 286 258 288
3 289 290 291
3 289 291 292
3 291 293 292
3 293 294 295
3 293 295 292
3 295 296 289
3 295 289 292
3 297 298 299
3 297 299 300
3 299 296 295
3 299 295 300
3 295 294 301
3 295 301 300
3 301 297 300
3 302 303 304
3 302 304 305
3 306 307 302
3 306 302 305
3 291 290 308
3 308 307 306
3 309 310 311
3 304 303 312
3 313 298 297
3 313 297 314
3 315 316 313
3 315 313 314
3 311 310 317
3 311 317 318
3 317 316 315
3 317 315 318
3 319 320 321
3 319 321 322
3 321 323 324
3 321 324 322
3 324 325 326
3 324 326 322
3 326 327 319
3 326 319 322
3 328 120 218
3 328 218 329
3 218 225 330
3 218 330 329
3 330 325 324
3 330 324 329
3 324 323 328
3 324 328 329
3 240 239 331
3 240 331 332
3 331 333 334
3 331 334 332
3 334 325 330
3 334 330 332
3 330 225 240
3 330 240 332
3 335 336 337
3 335 337 338
3 337 327 326
3 337 326 338
3 326 325 334
3 326 334 338
3 334 333 335
3 334 335 338
3 339 336 335
3 339 335 340
3 335 333 341
3 335 341 340
3 341 342 343
3 341 343 340
3 343 344 339
3 343 339 340
3 331 239 345
3 331 345 346
3 345 347 348
3 345 348 346
3 348 342 341
3 348 341 346
3 341 333 331
3 341 331 346
3 349 55 350
3 349 350 351
3 350 352 353
3 350 353 351
3 353 342 348
3 353 348 351
3 348 347 349
3 348 349 351
3 354 355 356
3 354 356 357
3 356 344 343
3 356 343 357
3 343 342 353
3 343 353 357
3 353 352 354
3 353 354 357
3 358 355 354
3 358 354 359
3 354 352 360
3 354 360 359
3 360 361 362
3 360 362 359
3 362 358 359
3 350 55 54
3 350 54 363
3 54 62 364
3 54 364 363
3 364 361 360
3 364 360 363
3 360 352 350
3 360 350 363
3 72 71 365
3 72 365 366
3 365 367 368
3 365 368 366
3 368 361 364
3 368 364 366
3 364 62 72
3 364 72 366
3 369 370 371
3 369 371 372
3 371 362 372
3 362 361 368
3 362 368 372
3 368 367 369
3 368 369 372
3 373 370 369
3 373 369 374
3 369 367 375
3 369 375 374
3 375 376 377
3 375 377 374
3 377 378 373
3 377 373 374
3 365 71 99
3 365 99 379
3 99 106 380
3 99 380 379
3 380 376 375
3 380 375 379
3 375 367 365
3 375 365 379
3 121 120 328
3 121 328 381
3 328 323 382
3 328 382 381
3 382 376 380
3 382 380 381
3 380 106 121
3 380 121 381
3 321 320 383
3 321 383 384
3 383 378 377
3 383 377 384
3 377 376 382
3 377 382 384
3 382 323 321
3 382 321 384
3 28 26 385
3 28 385 386
3 385 387 388
3 385 388 386
3 388 389 390
3 388 390 386
3 390 28 386
3 391 320 319
3 391 319 392
3 319 327 393
3 319 393 392
3 393 389 388
3 393 388 392
3 388 387 391
3 388 391 392
3 337 336 394
3 337 394 395
3 394 396 395
3 396 389 393
3 396 393 395
3 393 327 337
3 393 337 395
3 390 389 396
3 394 336 339
3 339 344 397
3 356 355 398
3 356 398 399
3 398 400 401
3 398 401 399
3 401 397 399
3 397 344 356
3 397 356 399
3 401 400 402
3 402 400 403
3 398 355 358
3 398 358 404
3 403 400 398
3 403 398 404
3 371 370 405
3 406 407 408
3 405 370 373
3 405 373 409
3 373 378 410
3 373 410 409
3 410 407 406
3 410 406 409
3 406 411 405
3 406 405 409
3 383 320 391
3 383 391 412
3 391 387 413
3 391 413 412
3 413 407 410
3 413 410 412
3 410 378 383
3 410 383 412
3 385 26 25
3 385 25 414
3 25 408 414
3 408 407 413
3 408 413 414
3 413 387 385
3 413 385 414
3 250 249 415
3 250 415 416
3 415 417 418
3 415 418 416
3 418 419 420
3 418 420 416
3 420 252 250
3 420 250 416
3 421 303 302
3 421 302 422
3 302 307 423
3 302 423 422
3 423 419 418
3 423 418 422
3 418 417 421
3 418 421 422
3 308 290 424
3 308 424 425
3 424 426 427
3 424 427 425
3 427 419 423
3 427 423 425
3 423 307 308
3 423 308 425
3 428 227 254
3 428 254 429
3 254 252 420
3 254 420 429
3 420 419 427
3 420 427 429
3 427 426 428
3 427 428 429
3 228 227 428
3 228 428 430
3 428 426 431
3 428 431 430
3 431 432 433
3 431 433 430
3 433 230 228
3 433 228 430
3 424 290 289
3 424 289 434
3 289 296 435
3 289 435 434
3 435 432 431
3 435 431 434
3 431 426 424
3 431 424 434
3 299 298 436
3 299 436 437
3 436 438 439
3 436 439 437
3 439 432 435
3 439 435 437
3 435 296 299
3 435 299 437
3 440 233 232
3 440 232 441
3 232 230 433
3 232 433 441
3 433 432 439
3 433 439 441
3 439 438 440
3 439 440 441
3 280 233 440
3 280 440 442
3 440 438 443
3 440 443 442
3 443 444 445
3 443 445 442
3 445 282 280
3 445 280 442
3 436 298 313
3 436 313 446
3 313 316 447
3 313 447 446
3 447 444 443
3 447 443 446
3 443 438 436
3 443 436 446
3 317 310 448
3 317 448 449
3 448 450 451
3 448 451 449
3 451 444 447
3 451 447 449
3 447 316 317
3 447 317 449
3 452 265 284
3 452 284 453
3 284 282 445
3 284 445 453
3 445 444 451
3 445 451 453
3 451 450 452
3 451 452 453
3 266 265 452
3 266 452 454
3 452 450 455
3 452 455 454
3 455 456 457
3 455 457 454
3 457 268 266
3 457 266 454
3 448 310 309
3 448 309 458
3 309 459 460
3 309 460 458
3 460 456 455
3 460 455 458
3 455 450 448
3 455 448 458
3 312 303 421
3 312 421 461
3 421 417 462
3 421 462 461
3 462 456 460
3 462 460 461
3 460 459 312
3 460 312 461
3 415 249 270
3 415 270 463
3 270 268 457
3 270 457 463
3 457 456 462
3 457 462 463
3 462 417 415
3 462 415 463
3 345 239 464
3 345 464 465
3 464 466 467
3 464 467 465
3 467 468 469
3 467 469 465
3 469 347 345
3 469 345 465
3 470 75 74
3 470 74 471
3 74 82 472
3 74 472 471
3 472 468 467
3 472 467 471
3 467 466 470
3 467 470 471
3 97 96 473
3 97 473 474
3 473 475 476
3 473 476 474
3 476 468 472
3 476 472 474
3 472 82 97
3 472 97 474
3 477 55 349
3 477 349 478
3 349 347 469
3 349 469 478
3 469 468 476
3 469 476 478
3 476 475 477
3 476 477 478
3 287 16 479
3 287 479 480
3 479 481 482
3 479 482 480
3 482 483 484
3 482 484 480
3 484 279 287
3 484 287 480
3 485 84 83
3 485 83 486
3 83 78 487
3 83 487 486
3 487 483 482
3 487 482 486
3 482 481 485
3 482 485 486
3 76 75 470
3 76 470 488
3 470 466 489
3 470 489 488
3 489 483 487
3 489 487 488
3 487 78 76
3 487 76 488
3 464 239 274
3 464 274 490
3 274 279 484
3 274 484 490
3 484 483 489
3 484 489 490
3 489 466 464
3 489 464 490
3 11 10 491
3 11 491 492
3 491 493 494
3 491 494 492
3 494 495 496
3 494 496 492
3 496 13 11
3 496 11 492
3 497 90 89
3 497 89 498
3 89 87 499
3 89 499 498
3 499 495 494
3 499 494 498
3 494 493 497
3 494 497 498
3 85 84 485
3 85 485 500
3 485 481 501
3 485 501 500
3 501 495 499
3 501 499 500
3 499 87 85
3 499 85 500
3 479 16 15
3 479 15 502
3 15 13 496
3 15 496 502
3 496 495 501
3 496 501 502
3 501 481 479
3 501 479 502
3 56 55 477
3 56 477 503
3 477 475 504
3 477 504 503
3 504 505 506
3 504 506 503
3 506 58 56
3 506 56 503
3 473 96 95
3 473 95 507
3 95 93 508
3 95 508 507
3 508 505 504
3 508 504 507
3 504 475 473
3 504 473 507
3 91 90 497
3 91 497 509
3 497 493 510
3 497 510 509
3 510 505 508
3 510 508 509
3 508 93 91
3 508 91 509
3 491 10 63
3 491 63 511
3 63 58 506
3 63 506 511
3 506 505 510
3 506 510 511
3 510 493 491
3 510 491 511
