4.3553
5.13931
7.19468
8.87665
7.50623
8.22521
8.93282
7.44719
6.33573
7.11681
6.04263
6.24399
7.37728
7.08786
8.23568
5.55722
7.30179
4.33014
4.3127
6.87202
6.70133
5.19371
2.33434
7.39095
4.96597
8.43385
6.83697
6.17008
9.08004
9.20966
8.31285
8.69951
3.35849
9.10379
4.413
8.01683
9.18637
8.48968
8.54488
6.82882
8.27778
7.08374
9.15276
8.42451
9.34712
7.99161
6.80675
9.38835
7.36454
5.22111
4.14364
5.97655
7.17215
7.09154
4.06845
4.41455
8.51441
3.82678
2.24079
9.04962
9.72352
5.09148
6.5098
5.40731
5.15365
7.42637
6.99006
5.75096
5.75854
9.58243
1.56594
8.38292
3.04417
4.45981
7.1497
4.35574
7.05805
10.012
8.3144
4.17787
1.15498
8.5641
4.3116
5.17313
8.09452
5.41304
6.26014
6.08454
7.67953
6.08499
4.33452
9.25094
4.92883
3.04913
3.9329
4.75859
6.14538
5.59349
6.44243
5.49595
5.33516
2.62707
3.32051
1.5431
5.21073
4.25439
7.76386
3.06213
4.22495
5.19636
4.97384
1.81906
4.99706
1.93886
2.18053
3.34917
2.80543
1.83813
1.83503
2.2944
3.10901
7.04459
1.79669
5.89026
1.32951
3.70175
8.88741
2.93804
4.00162
7.53569
6.0531
3.77524
4.26801
1.42962
5.83116
1.59217
5.85204
3.89854
7.15819
2.48046
3.39363
7.57489
3.45471
5.59115
5.61458
4.79886
6.86657
6.04835
3.41628
5.30992
4.73916
7.89477
5.77278
4.81277
1.75939
4.92023
3.20261
5.1857
6.1479
4.669
4.6345
1.08774
5.31791
8.38706
6.38176
7.8728
1.7512
5.72193
8.16248
7.64935
6.59496
6.94412
5.22176
6.29861
3.70974
4.34567
1.15692
4.4835
5.37652
0.465606
1.94341
2.49028
1.92985
6.06241
3.04737
0.540059
4.27322
1.09737
4.39104
1.01888
3.28944
0.497515
5.80352
1.46309
5.95866
3.23306
2.65677
2.83901
2.69956
2.99243
2.61104
5.71838
2.50572
6.17358
2.01987
2.62535
4.11451
2.62887
2.92485
4.15195
3.30945
4.98245
1.74702
3.05352
2.35623
5.22329
7.30612
2.0452
2.82657
2.54272
2.30216
2.60621
3.71863
4.28656
2.35446
2.85647
2.48474
2.2728
4.16058
3.98747
3.62726
3.67052
4.56434
5.61009
9.03438
7.48007
4.7416
1.19229
3.78179
1.51628
3.48983
4.67533
4.08139
7.8308
6.88813
8.65574
9.11254
4.02233
1.85786
1.87638
6.88165
1.9843
8.38515
6.21973
5.98441
6.52452
5.35912
4.74298
4.97061
4.53025
6.6252
6.70864
7.59525
4.17495
5.63017
6.80865
10.603
6.41672
7.70256
8.08307
8.03536
6.51785
4.65183
4.13426
8.3852
6.13751
3.48831
3.54255
3.47964
2.85623
5.50491
5.14878
3.05292
1.24817
0.868992
1.51911
5.9942
4.6761
1.20069
6.54428
4.56487
4.4995
4.55316
5.1899
2.86611
3.98135
4.39694
3.91483
7.36618
1.9107
4.52352
3.56652
4.83349
2.81206
3.21376
6.83031
4.20625
7.53158
7.64432
7.40322
3.70138
3.05705
6.42248
3.65405
4.36109
3.36112
4.37057
0.959793
5.44516
5.40913
2.86286
1.1586
4.67197
7.12515
7.94174
8.56668
1.75786
1.58515
2.38287
5.70345
3.80466
6.54565
5.08159
7.00004
4.55009
4.24473
7.87829
4.66116
3.14588
1.46046
1.97068
3.69227
9.64963
3.02055
6.1514
5.08937
4.99963
4.96089
2.86327
3.3193
6.56629
6.34593
10.6434
8.26568
7.53541
5.36286
12.4756
4.50479
8.67732
8.40658
4.52167
3.39211
2.0764
3.27551
6.45668
3.95991
3.58488
3.15755
6.86537
8.88711
2.85399
5.21153
8.81487
5.52054
8.98412
8.26707
7.24412
7.2675
8.16989
11.2794
8.32285
9.3307
10.5773
8.84562
9.61416
5.94197
3.13657
7.85097
6.34575
4.63344
4.00424
9.31735
9.38186
5.00498
3.30078
7.39812
7.02885
1.30934
3.60085
5.06196
5.60931
3.11665
6.10159
2.35111
5.15434
2.91577
7.93898
8.0587
8.74172
9.99441
4.76652
6.16686
4.55656
5.54968
5.91188
6.24255
13.5365
8.4155
3.12269
5.42764
12.1585
9.88358
5.67816
3.99757
2.25162
11.8
8.9478
4.33727
1.94321
4.78627
11.0438
5.34607
5.02819
7.07617
4.1312
5.58105
7.90969
6.58382
1.92118
7.76472
8.93621
6.39481
7.17005
9.92795
6.7654
6.73809
9.7328
5.90246
7.00817
8.7446
6.91045
9.82269
7.96532
5.24118
6.86028
7.3868
5.64144
6.28485
3.7191
7.60395
4.2137
4.93846
3.39635
11.4068
7.77404
8.96937
6.22875
4.73963
2.92783
7.13649
5.53722
2.14877
4.95495
3.70781
9.20112
4.21675
6.59906
7.37244
8.692
5.92924
4.90967
6.39782
7.70734
5.64923
6.02448
6.36138
5.75505
5.76821
4.14212
4.52248
4.36923
6.33392
9.47598
1.92837
2.21157
2.3256
5.02851
3.71487
6.70424
4.53661
2.51303
5.22066
7.12865
4.58969
5.31586
1.90154
3.43205
6.00483
4.25221
4.86004
7.73724
3.72734
7.84897
5.18555
10.2004
5.11766
6.26253
7.49923
6.5266
3.62619
6.37422
10.0968
3.46574
6.41785
5.08608
6.54699
7.0634
2.50054
7.26235
5.21499
4.5947
3.9445
10.0364
6.48577
7.96199
6.58745
4.48711
3.00682
3.94826
9.1873
1.65003
11.6087
6.51585
6.32748
4.41635
6.50674
11.1487
6.08471
7.01945
3.9877
5.56904
10.2235
3.81473
6.2452
5.86375
6.63275
2.78692
5.36828
12.3246
7.05048
11.4709
3.11059
4.42965
4.54799
8.85074
8.80707
10.1812
7.85384
8.60425
5.64084
7.91003
6.24679
5.17669
5.15461
6.50124
6.83501
4.80653
1.70202
8.84418
8.15552
7.15015
7.5934
1.89647
6.3383
5.00507
7.69309
5.37761
8.14483
9.11321
9.89451
7.5574
7.37735
3.23272
8.074
11.0768
7.38654
4.65343
8.63201
3.60818
6.91681
5.20874
6.65541
5.82287
4.44044
13.1988
10.8124
5.86513
7.66615
7.80462
9.88564
6.98291
11.1804
8.57604
8.34033
8.67587
9.53374
6.54442
6.60086
11.3409
7.54455
10.6458
10.5071
10.1441
9.18649
7.86315
7.18676
6.30466
12.8079
7.37156
7.37858
7.61894
7.39819
3.33447
1.49702
1.09273
4.60378
4.75055
7.44713
4.33132
3.3493
6.45447
6.34963
7.54494
7.17421
6.89718
5.15855
6.84846
5.06951
5.6248
5.74246
4.24755
5.96725
5.08727
4.22361
7.02332
6.00203
8.48056
3.34738
1.18898
0.851722
1.35872
2.68714
4.2727
9.24383
1.38284
4.63339
5.01617
2.07927
2.09061
3.48452
1.69904
2.4193
4.93988
7.14632
3.71473
4.80468
4.49405
7.85234
6.19064
2.97446
5.13064
9.47036
5.25748
5.19232
3.01192
4.88803
3.42038
9.34391
2.56807
1.71179
1.38375
2.41644
6.32348
5.53649
2.50815
0.857001
2.06764
9.60173
0.534955
4.30223
5.23942
8.69689
2.63993
2.41953
7.28723
7.83111
6.82955
4.95375
8.68348
2.17693
8.09643
6.04677
5.95925
5.57373
6.06575
5.26244
4.4147
5.87989
4.32847
9.22433
0.770936
6.59373
7.89986
4.22474
6.77277
5.43265
7.47569
8.47046
1.99045
4.20658
5.12924
4.45751
2.79312
2.70684
2.86996
2.38484
3.06891
6.07363
2.61958
2.48629
3.3738
2.63578
3.21068
4.82181
4.67151
2.56648
2.75198
5.96453
4.30464
1.40137
3.1438
2.68336
4.9045
4.35652
4.62754
3.88981
3.78172
4.05475
4.70155
4.46068
3.30042
0.749267
3.44519
0.859389
1.61651
0.880558
4.19798
0.890164
1.63269
3.53235
8.08538
1.86228
1.96834
1.27377
3.5017
3.05176
3.22975
5.82832
3.56747
2.58448
2.30522
2.64294
2.56865
3.23546
5.84034
2.97126
1.66045
1.60055
1.43824
5.66249
6.30629
2.84736
5.48137
4.85293
6.52208
5.03219
3.96626
6.97887
6.80567
6.16628
6.85401
4.41902
6.24441
3.38626
2.87912
5.07032
4.26783
6.20341
7.53147
7.88371
6.29213
5.05276
6.36129
3.61293
5.6664
5.89352
5.26157
4.49318
1.84823
6.58563
6.41831
7.93489
5.8336
4.93219
8.18821
7.15497
5.87757
9.74669
8.18006
6.10946
6.73631
6.66283
4.55169
9.67645
6.00184
7.99411
9.01212
5.80217
8.7324
7.78263
9.24589
5.70451
10.3903
9.14934
4.99911
8.24778
8.77158
8.61798
8.53584
8.44928
8.69331
9.12402
5.74043
8.58105
7.07239
10.8948
11.2768
6.63891
5.17656
9.62199
7.18233
7.71788
11.8549
6.04938
7.40095
7.47497
8.32762
7.50189
7.73558
8.74391
10.0529
9.45739
10.6068
7.47498
7.62136
6.88652
8.28539
6.53282
8.65449
5.90686
9.70018
6.95572
7.37799
6.41609
7.93684
4.72189
8.202
6.48534
7.89438
13.3956
7.52669
7.11804
4.49949
10.8916
5.89242
5.2685
6.75843
6.42503
8.33934
9.95305
7.03967
6.62003
6.16276
6.81379
6.23303
9.84799
7.04579
5.68632
6.29481
6.44788
13.5278
13.6536
6.87923
5.71267
5.69171
6.46504
10.2426
9.34657
9.51484
10.2615
10.2807
4.93263
13.5841
5.52807
9.38669
9.08326
6.53963
10.1389
8.72783
8.08336
7.85939
6.84437
5.02635
5.65432
6.95308
6.70138
6.9019
6.22222
9.2911
3.64812
7.08535
6.45949
7.07257
4.3846
4.72609
4.91097
1.74345
4.21085
1.44642
1.40365
3.07839
0.92735
4.02812
6.13754
5.11671
3.97605
6.76997
6.85278
3.94547
2.30003
1.79427
4.02095
5.94352
1.5312
1.31405
2.49055
5.29195
1.83115
6.06943
8.65897
9.03283
4.29221
9.39184
7.23695
3.9244
7.64506
3.77793
7.02196
6.09036
7.40732
7.96352
4.13856
6.46238
8.40071
8.23104
8.18255
6.68869
6.79884
7.83864
6.95475
9.95566
4.51011
4.61461
9.37773
5.27823
6.65666
4.65055
7.14532
7.14539
7.85689
5.27505
6.6225
3.31053
2.67001
2.6632
3.08854
2.6008
1.14331
2.291
3.55749
5.03935
6.78408
7.00749
2.48146
1.05841
2.21419
8.19055
2.62027
3.9181
3.62685
4.54324
4.48081
11.3511
3.88914
3.55232
3.68642
4.14801
5.63936
5.97013
4.29719
4.76144
2.68569
6.14488
5.36555
7.45098
11.547
7.38586
5.9898
6.70089
8.85756
8.8709
9.54319
8.33048
7.39192
7.24747
9.8702
8.79493
7.21607
9.73367
6.21853
5.84891
6.83822
6.29773
7.55946
8.89147
7.5325
8.44129
8.88484
9.16124
6.21488
9.30159
3.52538
6.9363
8.09324
7.0001
4.21654
7.76305
3.5018
2.7775
4.57966
4.07526
4.63031
4.17154
5.6364
9.38953
7.24334
4.99502
2.68009
4.12586
2.80506
3.32244
2.64183
5.4508
5.68728
6.67113
2.1316
4.74679
7.54276
7.0096
7.33542
3.62723
5.88069
3.24064
1.73469
2.01658
4.4505
7.16871
5.06278
10.0436
3.3671
5.05016
6.46507
5.73436
7.50478
9.05906
6.3495
8.41541
4.54855
7.30544
9.6061
6.4742
9.54076
9.10555
8.87701
2.84479
5.35742
7.88687
11.2465
5.4089
6.30503
8.50733
9.68072
4.21238
9.52122
3.90457
4.24672
7.82658
6.21449
5.03405
8.93546
10.8497
8.17858
5.65866
6.86081
6.87632
3.50073
5.33482
2.50267
5.99147
8.24559
6.69486
8.05313
5.5957
7.44937
7.23682
5.46165
6.7098
8.13625
9.04923
7.50811
6.06781
6.32084
5.90367
6.0364
3.73427
4.44765
1.69396
8.52868
4.47765
3.17167
7.60307
4.34891
11.1908
8.25567
8.75977
6.41767
6.49064
8.01185
7.7714
9.90522
10.8404
5.57052
7.54365
5.67433
9.75263
8.47552
8.88214
8.22988
7.83358
7.58145
3.80478
8.07527
8.28546
10.0439
7.08186
8.12039
3.89493
6.47784
9.91158
7.57887
8.96768
9.78727
7.11145
7.62014
6.12405
3.0189
3.89485
9.89567
5.36428
7.76174
5.97512
5.96286
6.80198
6.95657
7.16584
3.35183
4.56868
8.66995
9.58686
8.11008
10.4692
9.76161
9.60815
6.54189
5.39907
8.05357
6.589
7.88214
3.16815
5.69214
7.24088
4.64592
8.19759
7.14825
3.10811
7.20071
6.97644
9.61582
7.66486
7.8266
7.52642
10.7213
7.67732
7.33504
7.38165
6.78985
9.3835
9.62424
9.61297
9.60281
10.3491
6.93799
9.12722
8.87968
8.63599
8.50308
6.80792
7.01212
7.10247
9.96908
9.77668
9.03111
10.7655
9.36602
8.56041
7.43355
6.28625
7.06917
7.3465
3.77356
6.33762
6.98506
9.19404
7.81508
7.80151
4.05515
5.71905
6.55229
7.35268
6.93957
6.83506
6.64074
9.26609
8.10368
8.91168
5.97088
5.45547
5.06626
6.90105
8.07102
7.04881
5.87076
8.5081
4.96426
8.12942
13.1755
7.68854
7.91412
7.8194
8.16364
7.61242
3.32646
9.74047
6.72674
8.13183
13.641
8.4621
7.00646
10.069
3.83557
3.12288
7.70676
13.8563
7.21102
9.64573
8.62139
9.30631
5.30055
6.94113
6.48451
5.55219
6.34202
6.32307
3.87847
6.00073
10.5862
5.89144
6.53519
13.6478
5.581
6.6361
5.72907
7.43129
12.9197
11.1226
6.7766
10.8869
7.33769
7.27952
5.35098
7.99307
9.8873
6.37609
6.63842
13.419
8.36243
8.78284
9.5322
10.1715
7.92797
7.101
7.93256
13.8471
8.02991
10.0029
4.2845
6.86555
7.06804
10.0588
2.9607
7.68552
2.39683
7.48993
6.74178
10.2252
10.3211
11.4416
7.38689
7.58187
9.45867
10.0934
9.02936
9.09025
7.9274
9.85288
8.03764
7.5672
9.96528
9.50421
11.11
9.56173
9.67624
7.32929
11.0917
8.89265
7.22844
9.85612
7.00477
12.1809
7.95811
6.40211
8.03524
8.32021
9.56932
6.42988
8.55353
9.42243
9.68035
7.15605
7.45873
7.59956
7.79392
6.02247
6.65334
