OFF
313 608 0
0.567964 11.6708 -8.12538
0.633654 11.5722 -7.93338
0.679464 11.5607 -8.13138
0.600454 11.6879 -8.48338
0.699524 11.4823 -8.23338
0.616764 11.6069 -8.60438
0.491824 11.648 -8.72938
0.483624 11.7367 -8.60138
0.458664 11.7211 -8.21838
0.670594 11.341 -8.14938
0.617224 11.2027 -7.96838
0.554084 11.233 -8.15238
0.595694 11.4477 -8.49138
0.446484 11.2493 -8.24138
0.480324 11.4776 -8.60638
0.322404 11.2383 -8.14638
0.226784 11.2127 -7.95738
0.210904 11.3484 -8.14038
0.344954 11.4495 -8.48838
0.205624 11.4881 -8.22638
0.347194 11.6073 -8.60338
0.219784 11.5681 -8.12238
0.243214 11.5823 -7.92238
0.336294 11.6761 -8.11938
0.349714 11.6897 -8.48038
0.450844 7.14136 1.31362
0.450844 7.43056 1.24462
0.294134 7.41896 1.37762
0.294134 7.12356 1.45262
0.106074 7.41506 1.42162
0.106074 7.11766 1.49862
0.106074 6.93696 1.56862
0.302284 6.94426 1.51962
0.465784 6.96606 1.36962
-0.081986 7.41896 1.37762
-0.238696 7.43056 1.24462
-0.238696 7.14136 1.31362
-0.081986 7.12356 1.45262
-0.253646 6.96606 1.36962
-0.090136 6.94426 1.51962
0.450844 7.27136 0.29162
0.450844 7.51616 0.26962
0.544874 7.49666 0.49162
0.544874 7.24176 0.52362
0.576214 7.47336 0.75762
0.576214 7.20636 0.80262
0.596594 7.04616 0.82062
0.563894 7.08986 0.52162
0.465784 7.12626 0.27162
0.544874 7.45006 1.02362
0.544874 7.17086 1.08062
0.563894 7.00246 1.11962
-0.238696 7.27136 0.29162
-0.238696 7.51616 0.26962
-0.081986 7.52786 0.13762
-0.081986 7.28906 0.15162
0.106074 7.53166 0.0926201
0.106074 7.29496 0.10562
0.106074 7.15536 0.0716201
-0.090136 7.14806 0.12162
-0.253646 7.12626 0.27162
0.294134 7.52786 0.13762
0.294134 7.28906 0.15162
0.302284 7.14806 0.12162
-0.332726 7.45006 1.02362
-0.332726 7.17086 1.08062
-0.364066 7.47336 0.75762
-0.364066 7.20636 0.80262
-0.384446 7.04616 0.82062
-0.351746 7.00246 1.11962
-0.332726 7.49676 0.49162
-0.332726 7.24176 0.52362
-0.351746 7.08986 0.52162
0.292014 9.64576 0.28662
0.449154 9.60846 0.20062
0.447474 10.1604 -0.39938
0.289904 10.209 -0.32538
0.446214 10.6297 -1.09838
0.288994 10.6879 -1.03438
0.101344 10.7068 -1.01538
0.101604 10.2248 -0.30238
0.103834 9.65796 0.31362
0.446484 10.9805 -1.83338
0.449384 11.177 -2.53838
0.298964 11.2487 -2.48838
0.291334 11.0464 -1.77738
0.118284 11.2738 -2.47338
0.105954 11.0684 -1.76138
-0.062506 11.2522 -2.49238
-0.213306 11.1836 -2.54638
-0.232116 10.9803 -1.84538
-0.078816 11.0463 -1.78438
-0.240406 10.6269 -1.11038
-0.085526 10.6864 -1.04038
-0.241886 10.1578 -0.40738
-0.240296 9.60726 0.19662
-0.084046 9.64506 0.28362
-0.086106 10.2077 -0.32938
0.545704 9.39566 -0.29038
0.452434 9.33276 -0.43538
0.454014 9.79916 -0.95638
0.546534 9.88156 -0.82838
0.454784 10.1981 -1.58738
0.546464 10.2966 -1.47438
0.575334 10.4144 -1.34038
0.576084 9.98016 -0.67638
0.576144 9.47086 -0.11638
0.453264 10.4968 -2.26338
0.448014 10.6626 -2.91938
0.538694 10.7787 -2.83238
0.544264 10.6068 -2.16438
0.569194 10.9187 -2.72738
0.573254 10.7387 -2.04638
0.539444 11.0592 -2.62438
0.540564 10.8706 -1.92938
0.541794 10.532 -1.20738
0.543914 9.54596 0.0566201
0.542964 10.0786 -0.52438
-0.079876 9.29426 -0.52538
-0.237016 9.33156 -0.43938
-0.235346 9.79656 -0.96438
-0.077776 9.74786 -1.03838
-0.231836 10.1953 -1.59938
-0.074616 10.1371 -1.66338
0.113034 10.1182 -1.68238
0.110524 9.73216 -1.06138
0.108304 9.28206 -0.55238
-0.225336 10.4966 -2.27638
-0.214676 10.6692 -2.92738
-0.064256 10.5975 -2.97738
-0.070186 10.4307 -2.33238
0.116424 10.5724 -2.99238
0.115204 10.4088 -2.34838
0.297214 10.594 -2.97338
0.299964 10.4308 -2.32538
0.299904 10.1386 -1.65638
0.296184 9.29496 -0.52238
0.298234 9.74926 -1.03438
-0.333566 9.54436 0.0516201
-0.334406 10.0754 -0.53538
-0.332086 10.5285 -1.22338
-0.360956 10.4106 -1.35738
-0.363956 9.97666 -0.68738
-0.364006 9.46916 -0.12238
-0.303986 11.0675 -2.63338
-0.323106 10.8703 -1.94538
-0.334486 10.9275 -2.73738
-0.352106 10.7384 -2.06338
-0.304736 10.7869 -2.84138
-0.319416 10.6065 -2.17938
-0.327416 10.2931 -1.48938
-0.331776 9.39396 -0.29538
-0.330836 9.87826 -0.83938
0.456024 11.1833 -3.15038
0.313924 11.2586 -3.10338
0.469064 11.0871 -3.73038
0.336864 11.1644 -3.68438
0.173674 11.1968 -3.66538
0.141234 11.2875 -3.08638
0.491214 10.9765 -4.34038
0.525134 10.9394 -5.04238
0.409214 11.0165 -5.00338
0.368414 11.0543 -4.29738
0.262594 11.0519 -4.98238
0.214494 11.0891 -4.27538
0.110184 11.0434 -4.98038
-0.023076 10.9888 -4.99938
-0.082406 11.0214 -4.30538
0.055534 11.0788 -4.27738
-0.135716 11.1205 -3.70938
0.00698402 11.1826 -3.67338
-0.180256 11.2024 -3.14538
-0.033136 11.2691 -3.10038
0.437574 10.6627 -3.48938
0.528534 10.7784 -3.41338
0.430584 10.5757 -4.03138
0.521794 10.6874 -3.96538
0.559784 10.8253 -3.88438
0.562484 10.9195 -3.32138
0.435684 10.4807 -4.60138
0.461544 10.4563 -5.25738
0.550744 10.5594 -5.21438
0.526524 10.5872 -4.54738
0.593004 10.6889 -5.15838
0.567744 10.7204 -4.47738
0.585434 10.8229 -5.09738
0.556814 10.8577 -4.40438
0.542794 10.9663 -3.80138
0.538594 11.0623 -3.22838
-0.198706 10.6818 -3.48438
-0.056616 10.6065 -3.53138
-0.174196 10.6091 -4.00938
-0.041996 10.5318 -4.05538
0.121194 10.4995 -4.07538
0.116074 10.5776 -3.54838
-0.137926 10.5256 -4.56538
-0.086666 10.5057 -5.21438
0.029254 10.4286 -5.25338
-0.015126 10.4478 -4.60938
0.175874 10.3932 -5.27538
0.138784 10.413 -4.63138
0.328274 10.4017 -5.27738
0.297754 10.4233 -4.62838
0.287884 10.5136 -4.06738
0.290444 10.596 -3.53438
-0.271216 11.0867 -3.22138
-0.226926 11.0088 -3.77438
-0.264916 10.8709 -3.85538
-0.305166 10.9456 -3.31338
-0.112286 10.8857 -5.04238
-0.173246 10.9149 -4.35938
-0.154546 10.7562 -5.09938
-0.214456 10.7817 -4.42938
-0.146966 10.6222 -5.15938
-0.203526 10.6444 -4.50138
-0.247916 10.7299 -3.93838
-0.281276 10.8028 -3.40638
0.573514 11.0637 -5.89838
0.459884 11.1391 -5.86738
0.617564 11.264 -6.76138
0.507844 11.3397 -6.75438
0.371254 11.3739 -6.75538
0.316834 11.1726 -5.85038
0.638514 11.455 -7.48538
0.540484 11.5359 -7.52838
0.419874 11.5784 -7.57438
0.179974 11.4733 -7.46638
0.290674 11.5463 -7.51738
0.106764 11.2942 -6.73238
0.229304 11.3563 -6.73838
0.039534 11.1062 -5.85938
0.168624 11.1623 -5.84638
0.516784 10.5815 -6.05738
0.602494 10.6853 -6.02638
0.575384 10.7923 -6.86438
0.655754 10.9 -6.85838
0.691684 11.0316 -6.84338
0.642234 10.8149 -5.98438
0.611324 11.0249 -7.54538
0.684534 11.1385 -7.58538
0.717644 11.2723 -7.62038
0.699934 11.3725 -7.55138
0.678904 11.1571 -6.80138
0.633434 10.9483 -5.93938
-0.017196 10.6241 -6.01838
0.096424 10.5486 -6.04838
0.064584 10.8226 -6.83538
0.176334 10.7553 -6.86838
0.314954 10.7295 -6.89338
0.239484 10.5151 -6.06638
0.152794 11.0432 -7.52738
0.258934 10.996 -7.58738
0.387664 10.9871 -7.64438
0.508744 10.9856 -7.59738
0.454884 10.7387 -6.88438
0.387684 10.5254 -6.06938
-0.046176 11.0025 -5.89038
0.028424 11.195 -6.76438
-0.00547598 11.0718 -6.80438
-0.085916 10.8729 -5.93138
0.114884 11.3934 -7.52938
0.089884 11.2932 -7.59838
0.099484 11.1594 -7.56438
0.00528402 10.9379 -6.82138
-0.077116 10.7394 -5.97638
0.450844 7.87156 1.12862
0.294134 7.86976 1.25162
0.450674 8.41456 0.93462
0.293914 8.42526 1.04662
0.105854 8.42876 1.08362
0.106074 7.86926 1.29262
0.450164 9.01006 0.63562
0.293284 9.03416 0.73362
0.105184 9.04216 0.76662
-0.239336 9.00956 0.63362
-0.082806 9.03396 0.73262
-0.238856 8.41436 0.93462
-0.082186 8.42516 1.04662
-0.238696 7.87156 1.12862
-0.081986 7.86976 1.25162
-0.332726 7.87436 0.92262
-0.332806 8.39646 0.74862
-0.364066 8.37506 0.52562
-0.364066 7.87786 0.67662
-0.333056 8.96896 0.46862
-0.364046 8.92036 0.27062
-0.238026 8.83136 -0.0913799
-0.332346 8.87186 0.0726201
-0.238526 8.33576 0.11662
-0.332626 8.35356 0.30262
-0.238696 7.88416 0.22462
-0.332726 7.88126 0.43062
-0.081986 7.88586 0.10162
-0.081776 8.32506 0.00562011
0.106294 8.32156 -0.0313799
0.106074 7.88646 0.0606201
-0.081146 8.80726 -0.19038
0.106964 8.79926 -0.22238
0.451474 8.83196 -0.0893799
0.294954 8.80746 -0.18938
0.451004 8.33586 0.11762
0.294334 8.32516 0.00562011
0.450844 7.88416 0.22462
0.294134 7.88586 0.10162
0.544874 7.88126 0.43062
0.544954 8.35376 0.30362
0.576204 8.37526 0.52662
0.576214 7.87786 0.67662
0.545204 8.87246 0.0756201
0.576184 8.92106 0.27262
0.544494 8.96966 0.47062
0.544774 8.39666 0.74962
0.544874 7.87436 0.92262
3 0 1 2
3 0 2 3
3 2 4 5
3 2 5 3
3 5 6 7
3 5 7 3
3 7 8 0
3 7 0 3
3 9 10 11
3 9 11 12
3 11 13 14
3 11 14 12
3 14 6 5
3 14 5 12
3 5 4 9
3 5 9 12
3 15 16 17
3 15 17 18
3 17 19 20
3 17 20 18
3 20 6 14
3 20 14 18
3 14 13 15
3 14 15 18
3 21 22 23
3 21 23 24
3 23 8 7
3 23 7 24
3 7 6 20
3 7 20 24
3 20 19 21
3 20 21 24
3 25 26 27
3 25 27 28
3 27 29 30
3 27 30 28
3 30 31 32
3 30 32 28
3 32 33 25
3 32 25 28
3 34 35 36
3 34 36 37
3 36 38 39
3 36 39 37
3 39 31 30
3 39 30 37
3 30 29 34
3 30 34 37
3 40 41 42
3 40 42 43
3 42 44 45
3 42 45 43
3 45 46 47
3 45 47 43
3 47 48 40
3 47 40 43
3 49 26 25
3 49 25 50
3 25 33 51
3 25 51 50
3 51 46 45
3 51 45 50
3 45 44 49
3 45 49 50
3 52 53 54
3 52 54 55
3 54 56 57
3 54 57 55
3 57 58 59
3 57 59 55
3 59 60 52
3 59 52 55
3 61 41 40
3 61 40 62
3 40 48 63
3 40 63 62
3 63 58 57
3 63 57 62
3 57 56 61
3 57 61 62
3 36 35 64
3 36 64 65
3 64 66 67
3 64 67 65
3 67 68 69
3 67 69 65
3 69 38 36
3 69 36 65
3 70 53 52
3 70 52 71
3 52 60 72
3 52 72 71
3 72 68 67
3 72 67 71
3 67 66 70
3 67 70 71
3 73 74 75
3 73 75 76
3 75 77 78
3 75 78 76
3 78 79 80
3 78 80 76
3 80 81 73
3 80 73 76
3 82 83 84
3 82 84 85
3 84 86 87
3 84 87 85
3 87 79 78
3 87 78 85
3 78 77 82
3 78 82 85
3 88 89 90
3 88 90 91
3 90 92 93
3 90 93 91
3 93 79 87
3 93 87 91
3 87 86 88
3 87 88 91
3 94 95 96
3 94 96 97
3 96 81 80
3 96 80 97
3 80 79 93
3 80 93 97
3 93 92 94
3 93 94 97
3 98 99 100
3 98 100 101
3 100 102 103
3 100 103 101
3 103 104 105
3 103 105 101
3 105 106 98
3 105 98 101
3 107 108 109
3 107 109 110
3 109 111 112
3 109 112 110
3 112 104 103
3 112 103 110
3 103 102 107
3 103 107 110
3 113 83 82
3 113 82 114
3 82 77 115
3 82 115 114
3 115 104 112
3 115 112 114
3 112 111 113
3 112 113 114
3 75 74 116
3 75 116 117
3 116 106 105
3 116 105 117
3 105 104 115
3 105 115 117
3 115 77 75
3 115 75 117
3 118 119 120
3 118 120 121
3 120 122 123
3 120 123 121
3 123 124 125
3 123 125 121
3 125 126 118
3 125 118 121
3 127 128 129
3 127 129 130
3 129 131 132
3 129 132 130
3 132 124 123
3 132 123 130
3 123 122 127
3 123 127 130
3 133 108 107
3 133 107 134
3 107 102 135
3 107 135 134
3 135 124 132
3 135 132 134
3 132 131 133
3 132 133 134
3 100 99 136
3 100 136 137
3 136 126 125
3 136 125 137
3 125 124 135
3 125 135 137
3 135 102 100
3 135 100 137
3 138 95 94
3 138 94 139
3 94 92 140
3 94 140 139
3 140 141 142
3 140 142 139
3 142 143 138
3 142 138 139
3 90 89 144
3 90 144 145
3 144 146 147
3 144 147 145
3 147 141 140
3 147 140 145
3 140 92 90
3 140 90 145
3 148 128 127
3 148 127 149
3 127 122 150
3 127 150 149
3 150 141 147
3 150 147 149
3 147 146 148
3 147 148 149
3 120 119 151
3 120 151 152
3 151 143 142
3 151 142 152
3 142 141 150
3 142 150 152
3 150 122 120
3 150 120 152
3 84 83 153
3 84 153 154
3 153 155 156
3 153 156 154
3 156 157 158
3 156 158 154
3 158 86 84
3 158 84 154
3 159 160 161
3 159 161 162
3 161 163 164
3 161 164 162
3 164 157 156
3 164 156 162
3 156 155 159
3 156 159 162
3 165 166 167
3 165 167 168
3 167 169 170
3 167 170 168
3 170 157 164
3 170 164 168
3 164 163 165
3 164 165 168
3 171 89 88
3 171 88 172
3 88 86 158
3 88 158 172
3 158 157 170
3 158 170 172
3 170 169 171
3 170 171 172
3 109 108 173
3 109 173 174
3 173 175 176
3 173 176 174
3 176 177 178
3 176 178 174
3 178 111 109
3 178 109 174
3 179 180 181
3 179 181 182
3 181 183 184
3 181 184 182
3 184 177 176
3 184 176 182
3 176 175 179
3 176 179 182
3 185 160 159
3 185 159 186
3 159 155 187
3 159 187 186
3 187 177 184
3 187 184 186
3 184 183 185
3 184 185 186
3 153 83 113
3 153 113 188
3 113 111 178
3 113 178 188
3 178 177 187
3 178 187 188
3 187 155 153
3 187 153 188
3 129 128 189
3 129 189 190
3 189 191 192
3 189 192 190
3 192 193 194
3 192 194 190
3 194 131 129
3 194 129 190
3 195 196 197
3 195 197 198
3 197 199 200
3 197 200 198
3 200 193 192
3 200 192 198
3 192 191 195
3 192 195 198
3 201 180 179
3 201 179 202
3 179 175 203
3 179 203 202
3 203 193 200
3 203 200 202
3 200 199 201
3 200 201 202
3 173 108 133
3 173 133 204
3 133 131 194
3 133 194 204
3 194 193 203
3 194 203 204
3 203 175 173
3 203 173 204
3 144 89 171
3 144 171 205
3 171 169 206
3 171 206 205
3 206 207 208
3 206 208 205
3 208 146 144
3 208 144 205
3 167 166 209
3 167 209 210
3 209 211 212
3 209 212 210
3 212 207 206
3 212 206 210
3 206 169 167
3 206 167 210
3 213 196 195
3 213 195 214
3 195 191 215
3 195 215 214
3 215 207 212
3 215 212 214
3 212 211 213
3 212 213 214
3 189 128 148
3 189 148 216
3 148 146 208
3 148 208 216
3 208 207 215
3 208 215 216
3 215 191 189
3 215 189 216
3 161 160 217
3 161 217 218
3 217 219 220
3 217 220 218
3 220 221 222
3 220 222 218
3 222 163 161
3 222 161 218
3 223 1 0
3 223 0 224
3 0 8 225
3 0 225 224
3 225 221 220
3 225 220 224
3 220 219 223
3 220 223 224
3 23 22 226
3 23 226 227
3 226 228 229
3 226 229 227
3 229 221 225
3 229 225 227
3 225 8 23
3 225 23 227
3 230 166 165
3 230 165 231
3 165 163 222
3 165 222 231
3 222 221 229
3 222 229 231
3 229 228 230
3 229 230 231
3 181 180 232
3 181 232 233
3 232 234 235
3 232 235 233
3 235 236 237
3 235 237 233
3 237 183 181
3 237 181 233
3 238 10 9
3 238 9 239
3 9 4 240
3 9 240 239
3 240 236 235
3 240 235 239
3 235 234 238
3 235 238 239
3 2 1 223
3 2 223 241
3 223 219 242
3 223 242 241
3 242 236 240
3 242 240 241
3 240 4 2
3 240 2 241
3 217 160 185
3 217 185 243
3 185 183 237
3 185 237 243
3 237 236 242
3 237 242 243
3 242 219 217
3 242 217 243
3 197 196 244
3 197 244 245
3 244 246 247
3 244 247 245
3 247 248 249
3 247 249 245
3 249 199 197
3 249 197 245
3 250 16 15
3 250 15 251
3 15 13 252
3 15 252 251
3 252 248 247
3 252 247 251
3 247 246 250
3 247 250 251
3 11 10 238
3 11 238 253
3 238 234 254
3 238 254 253
3 254 248 252
3 254 252 253
3 252 13 11
3 252 11 253
3 232 180 201
3 232 201 255
3 201 199 249
3 201 249 255
3 249 248 254
3 249 254 255
3 254 234 232
3 254 232 255
3 209 166 230
3 209 230 256
3 230 228 257
3 230 257 256
3 257 258 259
3 257 259 256
3 259 211 209
3 259 209 256
3 226 22 21
3 226 21 260
3 21 19 261
3 21 261 260
3 261 258 257
3 261 257 260
3 257 228 226
3 257 226 260
3 17 16 250
3 17 250 262
3 250 246 263
3 250 263 262
3 263 258 261
3 263 261 262
3 261 19 17
3 261 17 262
3 244 196 213
3 244 213 264
3 213 211 259
3 213 259 264
3 259 258 263
3 259 263 264
3 263 246 244
3 263 244 264
3 27 26 265
3 27 265 266
3 265 267 268
3 265 268 266
3 268 269 270
3 268 270 266
3 270 29 27
3 270 27 266
3 271 74 73
3 271 73 272
3 73 81 273
3 73 273 272
3 273 269 268
3 273 268 272
3 268 267 271
3 268 271 272
3 96 95 274
3 96 274 275
3 274 276 277
3 274 277 275
3 277 269 273
3 277 273 275
3 273 81 96
3 273 96 275
3 278 35 34
3 278 34 279
3 34 29 270
3 34 270 279
3 270 269 277
3 270 277 279
3 277 276 278
3 277 278 279
3 64 35 278
3 64 278 280
3 278 276 281
3 278 281 280
3 281 282 283
3 281 283 280
3 283 66 64
3 283 64 280
3 274 95 138
3 274 138 284
3 138 143 285
3 138 285 284
3 285 282 281
3 285 281 284
3 281 276 274
3 281 274 284
3 151 119 286
3 151 286 287
3 286 288 289
3 286 289 287
3 289 282 285
3 289 285 287
3 285 143 151
3 285 151 287
3 290 53 70
3 290 70 291
3 70 66 283
3 70 283 291
3 283 282 289
3 283 289 291
3 289 288 290
3 289 290 291
3 54 53 290
3 54 290 292
3 290 288 293
3 290 293 292
3 293 294 295
3 293 295 292
3 295 56 54
3 295 54 292
3 286 119 118
3 286 118 296
3 118 126 297
3 118 297 296
3 297 294 293
3 297 293 296
3 293 288 286
3 293 286 296
3 136 99 298
3 136 298 299
3 298 300 301
3 298 301 299
3 301 294 297
3 301 297 299
3 297 126 136
3 297 136 299
3 302 41 61
3 302 61 303
3 61 56 295
3 61 295 303
3 295 294 301
3 295 301 303
3 301 300 302
3 301 302 303
3 42 41 302
3 42 302 304
3 302 300 305
3 302 305 304
3 305 306 307
3 305 307 304
3 307 44 42
3 307 42 304
3 298 99 98
3 298 98 308
3 98 106 309
3 98 309 308
3 309 306 305
3 309 305 308
3 305 300 298
3 305 298 308
3 116 74 271
3 116 271 310
3 271 267 311
3 271 311 310
3 311 306 309
3 311 309 310
3 309 106 116
3 309 116 310
3 265 26 49
3 265 49 312
3 49 44 307
3 49 307 312
3 307 306 311
3 307 311 312
3 311 267 265
3 311 265 312
