OFF
269 520 0
-5.50326 -9.2733 -13.9092
-5.35026 -8.9986 -13.3192
-5.24226 -8.93629 -13.9082
-5.35526 -9.20599 -14.2682
-4.95726 -8.85639 -14.0042
-5.06826 -9.1452 -14.3882
-5.08226 -9.50669 -14.5182
-5.37726 -9.54319 -14.3902
-5.52426 -9.58659 -14.0072
-4.59526 -8.87829 -13.9082
-4.27626 -9.14159 -13.8972
-4.69026 -9.14649 -14.2682
-4.26926 -9.47419 -14.0072
-4.69326 -9.48199 -14.3902
-4.27826 -9.80159 -13.9122
-4.07926 -10.1385 -13.3182
-4.54026 -10.1386 -13.9132
-4.65726 -9.8329 -14.2702
-4.83626 -10.2043 -14.0092
-5.00226 -9.88009 -14.3912
-5.07126 -10.1862 -13.9132
-5.37826 -9.9206 -13.9062
-5.26526 -9.88739 -14.2702
1.10274 -6.0161 1.88318
1.06274 -3.56769 3.74728
1.19974 -3.7553 3.90468
1.22174 -6.19079 1.99348
1.22074 -4.0013 4.10148
1.23974 -6.41149 2.12578
1.19274 -7.87119 0.877981
1.17574 -7.6632 0.781881
1.06674 -7.4982 0.701881
1.14174 -4.2597 4.29778
0.993735 -4.4693 4.45528
1.04674 -6.8366 2.36828
1.17574 -6.6397 2.25808
1.01874 -8.2711 1.05398
1.13574 -8.08599 0.973981
0.873735 -9.74059 -0.392819
0.546735 -11.0269 -1.83122
0.639735 -10.8635 -1.85522
0.976735 -9.5673 -0.442619
0.684735 -10.6734 -1.88522
1.02774 -9.366 -0.502419
0.668735 -10.4886 -1.91422
0.579735 -10.3415 -1.93922
0.913735 -9.0155 -0.612019
1.01174 -9.1707 -0.562219
0.785735 -4.61169 4.55068
0.871735 -6.96349 2.43448
0.556735 -4.67009 4.58298
0.669735 -7.01859 2.45648
0.677735 -8.44129 1.11808
0.860735 -8.38999 1.10208
0.320735 -4.6537 4.55048
0.0917352 -4.5504 4.45528
0.265735 -6.9065 2.36828
0.460735 -7.0003 2.43448
0.311735 -8.3344 1.05408
0.488735 -8.4233 1.10208
0.240735 -9.79729 -0.392819
-0.0252648 -11.0781 -1.83122
0.118735 -11.1582 -1.81622
0.399735 -9.88149 -0.362919
0.271735 -11.1756 -1.81122
0.568735 -9.89909 -0.353019
0.419735 -11.1313 -1.81622
0.732735 -9.8517 -0.362919
-0.241265 -10.5701 -1.91422
-0.179265 -10.4096 -1.93922
-0.707265 -11.3137 -3.16022
-0.764265 -11.4686 -3.15122
-1.39326 -11.8398 -4.29822
-1.44826 -11.9918 -4.29622
-1.43126 -12.1668 -4.29422
-0.747265 -11.6467 -3.13922
-0.223265 -10.7547 -1.88522
-2.12326 -12.0244 -5.37422
-2.77826 -11.9039 -6.41122
-2.84126 -12.1094 -6.41222
-2.17726 -12.1754 -5.37522
-2.14426 -12.4158 -5.37422
-2.70526 -12.4684 -6.41422
-1.93826 -12.6959 -5.37722
-1.31626 -12.405 -4.28322
-0.560265 -11.9595 -3.11922
-0.145265 -10.9338 -1.85522
-0.673265 -11.8198 -3.12822
0.404735 -10.2642 -1.95422
0.00373525 -11.2501 -3.16022
-0.160265 -11.1749 -3.16622
-0.707265 -11.7784 -4.29822
-0.866265 -11.7044 -4.29922
-1.06126 -11.6924 -4.30022
-0.362265 -11.1631 -3.16822
0.188735 -10.2525 -1.95922
-1.44526 -11.9637 -5.37422
-2.10126 -11.8432 -6.41122
-2.25726 -11.7695 -6.41122
-1.60226 -11.89 -5.37422
-2.45026 -11.7575 -6.41122
-1.79426 -11.878 -5.37422
-2.63726 -11.8035 -6.41122
-1.98226 -11.924 -5.37422
-1.25026 -11.7388 -4.29922
-0.0212648 -10.3023 -1.95422
-0.559265 -11.2106 -3.16622
-0.0252648 -11.9116 -3.11922
0.0607352 -11.7541 -3.12822
-0.735265 -12.428 -4.28922
-0.652265 -12.2735 -4.29122
-0.612265 -12.0934 -4.29422
0.101735 -11.5707 -3.13922
-1.50826 -12.6575 -5.37822
-2.12726 -12.4888 -6.41422
-2.01626 -12.2589 -6.41322
-1.39026 -12.4558 -5.37622
-1.35026 -12.2768 -5.37622
-2.02126 -11.9822 -6.41222
-1.36526 -12.1027 -5.37522
-0.627265 -11.9182 -4.29622
0.0867352 -11.3923 -3.15122
-0.425265 -12.0373 -3.11322
-1.12126 -12.5508 -4.28822
-0.982265 -12.5678 -4.28822
-0.282265 -12.0544 -3.11122
-2.50826 -12.6106 -6.41422
-2.28926 -12.616 -6.41422
-1.71626 -12.7481 -5.37722
-0.849265 -12.5265 -4.28822
-0.144265 -12.0121 -3.11322
-3.24426 -11.5148 -7.43122
-3.29726 -11.6658 -7.43222
-3.69026 -10.6661 -8.82622
-3.62226 -11.184 -8.36622
-3.26526 -11.9066 -7.43222
-4.01626 -9.7078 -9.99522
-3.99226 -10.065 -9.78522
-3.95826 -10.3215 -9.72722
-3.84126 -10.5324 -9.79822
-3.62526 -11.0549 -9.19122
-3.55326 -11.4251 -8.45822
-3.41826 -11.611 -8.37922
-3.10226 -12.1454 -7.43422
-2.56626 -11.4541 -7.43122
-2.72326 -11.3804 -7.43122
-2.87126 -10.9062 -8.37622
-3.03126 -10.8311 -8.37622
-3.35426 -10.8364 -8.37522
-2.91526 -11.3684 -7.43122
-3.04626 -10.3093 -9.18822
-3.19526 -9.73769 -9.78122
-3.32626 -10.2116 -9.18322
-3.68526 -9.7044 -9.79422
-3.62526 -10.2665 -9.18822
-3.10226 -11.4144 -7.43122
-2.62626 -12.1492 -7.43122
-2.47426 -11.8358 -7.43222
-3.03226 -11.2193 -8.90722
-2.78526 -11.3319 -8.37622
-3.08726 -10.465 -9.79822
-2.94626 -10.7282 -9.18022
-3.00926 -9.94399 -9.89422
-2.96026 -10.4592 -9.18922
-2.78926 -11.0479 -8.37722
-2.48626 -11.5931 -7.43222
-2.89526 -12.2453 -7.43422
-3.31226 -11.6413 -8.45922
-3.06026 -11.7 -8.37022
-3.54326 -10.7248 -9.80022
-3.33926 -11.1554 -9.19222
-3.30026 -10.683 -9.79422
-4.62126 -9.72939 -10.9762
-4.13526 -10.0044 -10.2912
-4.35126 -9.1573 -10.6402
-4.60926 -9.0696 -11.1102
-4.67326 -9.38659 -11.0102
-4.54026 -10.0879 -11.1142
-4.48826 -10.3851 -11.5252
-3.90326 -10.3252 -10.3332
-3.12226 -9.16969 -10.4342
-3.38226 -8.953 -10.5492
-3.67426 -9.0385 -10.4282
-3.14326 -8.9833 -10.8492
-3.53526 -8.79259 -11.1092
-3.83026 -8.816 -10.8392
-4.31826 -8.86269 -11.1092
-4.04626 -9.00109 -10.5662
-3.09126 -10.1784 -10.2392
-2.95226 -9.5955 -10.8472
-3.06926 -9.9579 -11.0152
-3.23626 -10.2682 -11.0212
-3.04726 -9.231 -11.1112
-2.97326 -9.2976 -10.5982
-3.65426 -10.4608 -10.4302
-3.38726 -10.4227 -10.3152
-4.16426 -10.5471 -11.4062
-3.91826 -10.5867 -11.5352
-3.59126 -10.4957 -11.4062
-4.89726 -9.00399 -11.7892
-5.01526 -9.33309 -11.7912
-5.16926 -8.97169 -12.5652
-5.29226 -9.2983 -12.5802
-5.26426 -9.67449 -12.5952
-4.97926 -9.7121 -11.7922
-5.46926 -9.29119 -13.3162
-5.46626 -9.63149 -13.3702
-5.08826 -10.2386 -13.2672
-5.31626 -9.967 -13.3192
-4.87126 -10.3378 -12.5712
-5.10826 -10.0414 -12.5832
-4.82526 -10.0806 -11.7942
-3.42126 -8.87169 -11.7892
-3.76226 -8.71119 -11.7892
-3.70926 -8.84079 -12.5652
-4.05226 -8.68019 -12.5782
-4.47126 -8.6531 -12.5912
-4.18226 -8.68499 -11.7882
-4.03326 -8.87879 -13.2622
-4.35626 -8.72939 -13.3142
-4.74426 -8.70129 -13.3672
-5.08326 -8.79459 -13.3142
-4.87026 -8.7534 -12.5782
-4.59026 -8.78529 -11.7892
-3.47826 -10.2786 -11.7952
-3.30026 -9.94399 -11.7942
-3.75926 -10.2382 -12.5712
-3.58726 -9.9051 -12.5832
-3.50926 -9.51729 -12.5952
-3.21426 -9.5541 -11.7922
-3.91826 -9.84169 -13.3192
-3.86826 -9.48829 -13.3702
-3.88826 -9.1496 -13.3162
-3.53926 -9.1412 -12.5802
-3.24626 -9.1747 -11.7912
-4.59526 -10.5024 -12.5852
-4.30226 -10.5387 -12.5982
-4.84926 -10.3871 -13.3212
-4.59026 -10.4185 -13.3742
-4.30326 -10.3383 -13.3212
-4.01026 -10.45 -12.5852
0.780735 -3.4707 3.64988
0.570735 -5.91549 1.79498
0.448735 -3.46149 3.61978
0.122735 -3.5297 3.64988
0.0647352 -6.11039 1.88218
-0.137265 -3.6747 3.74688
-0.239265 -3.8856 3.90598
0.282735 -5.97839 1.81708
0.584735 -7.40169 0.637781
0.324735 -7.45999 0.653881
0.126735 -7.5824 0.701881
0.864735 -5.92629 1.81708
0.850735 -7.4128 0.653881
0.719735 -8.93439 -0.641919
0.481735 -8.92299 -0.651819
0.0717352 -9.09079 -0.612019
0.248735 -8.9767 -0.641919
-0.0902648 -4.3731 4.29848
0.103735 -6.73569 2.25808
-0.215265 -4.1305 4.10168
-0.000264753 -6.52259 2.12578
0.0697352 -7.9718 0.877981
0.164735 -8.1729 0.973981
-0.0212648 -6.3022 1.99348
0.0497352 -7.764 0.781881
0.00373525 -9.26099 -0.562219
0.0217352 -9.45609 -0.502419
0.107735 -9.6452 -0.442619
3 0 1 2
3 0 2 3
3 2 4 5
3 2 5 3
3 5 6 7
3 5 7 3
3 7 8 0
3 7 0 3
3 9 10 11
3 10 12 13
3 10 13 11
3 13 6 5
3 13 5 11
3 5 4 9
3 5 9 11
3 14 15 16
3 14 16 17
3 16 18 19
3 16 19 17
3 19 6 13
3 19 13 17
3 13 12 14
3 13 14 17
3 20 21 22
3 21 8 7
3 21 7 22
3 7 6 19
3 7 19 22
3 19 18 20
3 19 20 22
3 23 24 25
3 23 25 26
3 25 27 28
3 25 28 26
3 28 29 30
3 28 30 26
3 30 31 23
3 30 23 26
3 32 33 34
3 32 34 35
3 34 36 37
3 34 37 35
3 37 29 28
3 37 28 35
3 28 27 32
3 28 32 35
3 38 39 40
3 38 40 41
3 40 42 43
3 40 43 41
3 43 29 37
3 43 37 41
3 37 36 38
3 37 38 41
3 44 45 46
3 44 46 47
3 46 31 30
3 46 30 47
3 30 29 43
3 30 43 47
3 43 42 44
3 43 44 47
3 34 33 48
3 34 48 49
3 48 50 51
3 48 51 49
3 51 52 53
3 51 53 49
3 53 36 34
3 53 34 49
3 54 55 56
3 54 56 57
3 56 58 59
3 56 59 57
3 59 52 51
3 59 51 57
3 51 50 54
3 51 54 57
3 60 61 62
3 60 62 63
3 62 64 65
3 62 65 63
3 65 52 59
3 65 59 63
3 59 58 60
3 59 60 63
3 66 39 38
3 66 38 67
3 38 36 53
3 38 53 67
3 53 52 65
3 53 65 67
3 65 64 66
3 65 66 67
3 68 69 70
3 68 70 71
3 70 72 73
3 70 73 71
3 73 74 75
3 73 75 71
3 75 76 68
3 75 68 71
3 77 78 79
3 77 79 80
3 79 81 80
3 81 74 73
3 81 73 80
3 73 72 77
3 73 77 80
3 82 83 81
3 83 84 81
3 84 74 81
3 81 79 82
3 85 61 86
3 85 86 87
3 86 76 75
3 86 75 87
3 75 74 84
3 75 84 87
3 84 85 87
3 88 45 89
3 88 89 90
3 89 91 92
3 89 92 90
3 92 93 94
3 92 94 90
3 94 95 88
3 94 88 90
3 96 97 98
3 96 98 99
3 98 100 101
3 98 101 99
3 101 93 92
3 101 92 99
3 92 91 96
3 92 96 99
3 102 78 77
3 102 77 103
3 77 72 104
3 77 104 103
3 104 93 101
3 104 101 103
3 101 100 102
3 101 102 103
3 70 69 105
3 70 105 106
3 105 95 94
3 105 94 106
3 94 93 104
3 94 104 106
3 104 72 70
3 104 70 106
3 40 39 107
3 40 107 108
3 107 109 110
3 107 110 108
3 110 111 112
3 110 112 108
3 112 42 40
3 112 40 108
3 113 114 115
3 113 115 116
3 115 117 116
3 117 111 110
3 117 110 116
3 110 109 113
3 110 113 116
3 118 97 96
3 118 96 119
3 96 91 120
3 96 120 119
3 120 111 117
3 120 117 119
3 117 115 118
3 117 118 119
3 89 45 44
3 89 44 121
3 44 42 112
3 44 112 121
3 112 111 120
3 112 120 121
3 120 91 89
3 120 89 121
3 62 61 85
3 62 85 122
3 85 84 123
3 85 123 122
3 123 124 125
3 123 125 122
3 125 64 62
3 125 62 122
3 83 82 126
3 126 127 128
3 126 128 83
3 128 124 123
3 128 123 83
3 123 84 83
3 127 114 113
3 113 109 129
3 129 124 128
3 129 128 113
3 128 127 113
3 107 39 66
3 107 66 130
3 66 64 125
3 66 125 130
3 125 124 129
3 125 129 130
3 129 109 107
3 129 107 130
3 79 78 131
3 79 131 132
3 131 133 134
3 131 134 132
3 134 135 132
3 135 79 132
3 133 136 137
3 138 134 137
3 134 133 137
3 139 140 141
3 140 142 141
3 141 134 138
3 138 139 141
3 143 82 135
3 82 79 135
3 135 134 141
3 141 142 143
3 141 143 135
3 98 97 144
3 98 144 145
3 144 146 147
3 144 147 145
3 147 148 149
3 147 149 145
3 149 100 98
3 149 98 145
3 150 151 152
3 151 153 152
3 152 148 147
3 147 146 150
3 147 150 152
3 153 136 133
3 153 133 154
3 133 148 154
3 148 152 154
3 152 153 154
3 131 78 102
3 131 102 155
3 102 100 149
3 102 149 155
3 149 148 155
3 148 133 131
3 148 131 155
3 115 114 156
3 115 156 157
3 156 158 159
3 156 159 157
3 158 160 161
3 160 162 161
3 159 158 161
3 162 151 150
3 162 150 163
3 150 146 164
3 150 164 163
3 164 159 161
3 164 161 163
3 161 162 163
3 144 97 118
3 144 118 165
3 118 115 157
3 118 157 165
3 157 159 164
3 157 164 165
3 164 146 144
3 164 144 165
3 126 82 143
3 126 143 166
3 143 142 167
3 143 167 166
3 167 168 166
3 166 127 126
3 140 139 169
3 140 169 167
3 169 170 167
3 170 168 167
3 167 142 140
3 171 160 158
3 158 168 171
3 168 170 171
3 170 169 171
3 156 114 127
3 127 166 156
3 166 168 156
3 168 158 156
3 136 172 173
3 173 138 137
3 173 137 136
3 174 175 176
3 172 136 176
3 136 174 176
3 177 178 179
3 177 179 173
3 172 177 173
3 179 139 173
3 139 138 173
3 151 180 181
3 182 153 151
3 182 151 181
3 183 184 181
3 184 185 181
3 185 182 181
3 181 180 183
3 186 175 174
3 186 174 187
3 187 182 185
3 185 186 187
3 136 153 187
3 153 182 187
3 187 174 136
3 188 189 162
3 162 160 188
3 189 188 190
3 188 191 190
3 192 183 193
3 183 180 193
3 189 192 193
3 180 151 162
3 180 162 193
3 162 189 193
3 169 139 179
3 194 195 179
3 195 169 179
3 179 178 196
3 179 196 194
3 196 197 194
3 198 191 195
3 191 188 195
3 194 197 198
3 194 198 195
3 188 160 171
3 188 171 195
3 171 169 195
3 176 175 199
3 176 199 200
3 199 201 202
3 199 202 200
3 202 203 204
3 202 204 200
3 204 172 176
3 204 176 200
3 1 0 205
3 0 8 206
3 0 206 205
3 206 203 202
3 206 202 205
3 202 201 1
3 202 1 205
3 21 207 208
3 207 209 210
3 207 210 208
3 210 203 206
3 210 206 208
3 206 8 21
3 206 21 208
3 178 177 211
3 177 172 204
3 177 204 211
3 204 203 210
3 204 210 211
3 210 209 178
3 210 178 211
3 184 183 212
3 184 212 213
3 212 214 215
3 212 215 213
3 215 216 217
3 215 217 213
3 217 185 184
3 217 184 213
3 218 10 9
3 218 9 219
3 9 4 220
3 9 220 219
3 220 216 215
3 220 215 219
3 215 214 218
3 215 218 219
3 2 1 221
3 1 201 222
3 1 222 221
3 222 216 220
3 222 220 221
3 220 4 2
3 220 2 221
3 199 175 186
3 199 186 223
3 186 185 217
3 186 217 223
3 217 216 222
3 217 222 223
3 222 201 199
3 222 199 223
3 190 191 224
3 190 224 225
3 224 226 227
3 224 227 225
3 227 228 229
3 227 229 225
3 229 189 190
3 229 190 225
3 15 14 230
3 14 12 231
3 14 231 230
3 231 228 227
3 231 227 230
3 227 226 15
3 227 15 230
3 10 218 232
3 218 214 233
3 218 233 232
3 233 228 231
3 233 231 232
3 231 12 10
3 231 10 232
3 212 183 192
3 212 192 234
3 192 189 229
3 192 229 234
3 229 228 233
3 229 233 234
3 233 214 212
3 233 212 234
3 178 209 235
3 178 235 196
3 235 236 197
3 235 197 196
3 207 21 20
3 207 20 237
3 20 18 238
3 20 238 237
3 238 236 235
3 238 235 237
3 235 209 207
3 235 207 237
3 16 15 239
3 15 226 240
3 15 240 239
3 240 236 238
3 240 238 239
3 238 18 16
3 238 16 239
3 224 191 198
3 197 236 240
3 197 240 198
3 240 226 224
3 240 224 198
3 241 242 243
3 244 245 246
3 243 242 244
3 246 245 247
3 245 244 248
3 244 242 248
3 242 249 250
3 242 250 248
3 250 251 245
3 250 245 248
3 241 24 23
3 241 23 252
3 23 31 253
3 23 253 252
3 253 249 242
3 253 242 252
3 242 241 252
3 46 45 88
3 46 88 254
3 88 95 255
3 88 255 254
3 255 249 253
3 255 253 254
3 253 31 46
3 253 46 254
3 105 69 256
3 105 256 257
3 256 251 250
3 256 250 257
3 250 249 255
3 250 255 257
3 255 95 105
3 255 105 257
3 56 55 258
3 56 258 259
3 258 260 261
3 258 261 259
3 261 262 263
3 261 263 259
3 263 58 56
3 263 56 259
3 247 245 264
3 245 251 265
3 245 265 264
3 265 262 261
3 265 261 264
3 261 260 247
3 261 247 264
3 256 69 68
3 256 68 266
3 68 76 267
3 68 267 266
3 267 262 265
3 267 265 266
3 265 251 256
3 265 256 266
3 86 61 60
3 86 60 268
3 60 58 263
3 60 263 268
3 263 262 267
3 263 267 268
3 267 76 86
3 267 86 268
