OFF
240 465 0
-6.4935 15.2185 -2.95381
-6.4435 15.3929 -2.36181
-5.2785 15.8076 -2.48481
-5.2955 15.644 -3.07981
-3.9215 15.9067 -2.47881
-3.8985 15.7455 -3.07381
-3.8835 15.438 -3.73081
-5.2565 15.3424 -3.72581
-6.4345 14.9288 -3.59081
-2.5955 15.6992 -2.35381
-1.5235 15.1943 -2.12181
-1.4315 15.0137 -2.70681
-2.5335 15.5323 -2.94581
-1.4605 14.7272 -3.34781
-2.5435 15.2324 -3.59381
-1.6935 14.346 -3.88281
-2.0415 13.9824 -4.18881
-2.7935 14.18 -4.47981
-2.6755 14.7928 -4.13981
-3.9175 14.3081 -4.65981
-3.8865 14.9676 -4.29981
-5.0695 14.2725 -4.59081
-5.8765 14.1383 -4.37681
-6.1995 14.529 -4.10281
-5.1305 14.8924 -4.25981
-5.1855 7.95149 -1.15381
-4.7995 6.64909 -0.937808
-5.0955 6.87109 -0.438808
-3.2385 6.53179 -0.835808
-3.4605 8.13049 -1.52081
-3.0395 6.63639 -0.524808
-3.2925 8.54699 -0.503808
-3.2885 7.04129 0.477192
-2.9845 6.82629 -0.027808
-4.1105 6.50669 -1.13581
-4.6775 8.18669 -1.79581
-3.5895 6.49369 -1.03881
-5.8005 10.1432 -1.21481
-5.5195 10.2576 -0.855808
-5.8685 10.6935 -0.938808
-6.2705 10.5422 -1.39481
-7.1495 10.9184 -2.06881
-6.2935 10.3486 -1.80081
-5.8885 9.99039 -1.62881
-6.5845 11.2725 -0.879808
-7.0425 11.7876 -0.838808
-7.4545 11.6745 -1.57381
-7.0725 11.1546 -1.43781
-7.5085 11.4619 -2.28581
-7.2395 11.215 -2.93281
-6.6005 10.9829 -3.43081
-6.3735 10.4715 -3.09881
-6.9575 10.7252 -2.66681
-6.5765 10.4189 -2.45281
-5.7895 9.99429 -2.61781
-5.4895 9.67519 -2.35681
-5.7855 9.82559 -2.03281
-6.1635 10.1633 -2.25381
-3.9325 10.1356 -0.538808
-3.4205 10.1269 -0.730808
-3.1065 10.5611 -0.785808
-3.7735 10.6273 -0.584808
-3.5485 10.9044 -0.522808
-4.4805 10.98 -0.480808
-4.5015 10.6967 -0.548808
-4.4615 10.1096 -0.481808
-2.2985 11.0834 -0.662808
-1.7095 11.5666 -0.575808
-3.0615 11.3782 -0.304808
-4.4315 11.3695 -0.282808
-5.7655 11.5713 -0.404808
-5.3055 10.8379 -0.666808
-5.0035 10.2067 -0.604808
-3.0885 9.65729 -1.87181
-3.3645 9.54249 -2.22981
-3.0975 9.84709 -2.46681
-2.7505 9.95899 -2.10481
-2.3635 10.309 -2.90681
-2.6505 10.1387 -1.59681
-3.0085 9.81069 -1.45781
-1.9815 10.7863 -3.20081
-1.3725 10.9658 -2.64081
-1.8105 10.4943 -2.40381
-1.1435 11.1925 -1.96981
-1.6285 10.706 -1.79481
-1.2435 11.4134 -1.26581
-1.7705 10.9191 -1.16881
-2.6925 10.3677 -1.18981
-3.1205 9.97619 -1.05481
-5.0335 9.64319 -2.58381
-5.4845 10.299 -3.31481
-4.3655 10.2408 -3.38781
-4.4345 9.80129 -2.84881
-4.4185 9.50269 -2.56581
-5.5425 10.8149 -3.69581
-4.2785 10.72 -3.73881
-3.0205 10.7075 -3.56981
-3.2645 10.2136 -3.21781
-3.8245 9.58179 -2.52281
-7.5135 12.7365 -1.31181
-7.6775 12.5223 -1.90781
-7.5425 13.7236 -1.73481
-7.6455 13.5126 -2.31881
-7.5845 13.249 -3.00281
-7.6675 12.2848 -2.62281
-7.1915 14.6536 -2.09781
-7.2635 14.4597 -2.68381
-7.1925 14.1807 -3.33781
-6.2655 13.5577 -4.35181
-6.8905 13.8388 -3.90781
-6.5715 12.7012 -4.15681
-7.2575 12.9577 -3.64681
-6.6715 11.7779 -3.81281
-7.3575 12.0211 -3.29081
-3.0575 12.7962 -1.06081
-2.6245 13.8161 -1.45381
-3.3045 13.8011 -1.52381
-3.9185 13.0505 -1.25181
-4.1195 13.9686 -1.63081
-4.5885 12.6278 -1.05581
-2.5165 14.6915 -1.66581
-3.7235 14.6761 -1.82481
-5.2555 14.5149 -1.80281
-5.5165 13.3897 -1.40281
-4.9635 13.868 -1.60481
-5.8045 12.7031 -0.999808
-1.7125 11.5726 -3.56781
-1.0585 11.7608 -2.98081
-1.6105 12.4985 -3.91381
-0.952498 12.7004 -3.33781
-0.659498 12.9671 -2.66381
-0.787498 12.0014 -2.28481
-1.7505 13.3741 -4.13181
-1.1425 13.6053 -3.62681
-0.857498 13.9239 -3.02781
-0.930498 14.4009 -1.79281
-0.820498 14.1991 -2.36981
-0.775498 13.4498 -1.40481
-0.639498 13.2283 -1.97681
-1.0175 12.4719 -0.993808
-0.823498 12.2414 -1.57181
-5.5355 11.6019 -4.08981
-5.4335 12.5424 -4.43781
-4.0755 12.4597 -4.48781
-4.1785 11.5027 -4.13381
-5.2245 13.4609 -4.62781
-3.9845 13.4335 -4.69281
-2.7625 13.3607 -4.50681
-2.7255 12.4316 -4.30481
-2.8285 11.4897 -3.95581
-1.9195 11.9559 -0.402808
-3.1415 11.7314 -0.229808
-2.0985 12.1776 -0.362808
-4.3975 11.6335 -0.226808
-4.3595 11.9429 -0.335808
-3.2555 12.0183 -0.331808
-2.2975 12.3572 -0.422808
-6.3215 12.5193 -0.618808
-6.5565 12.3577 -0.580808
-5.5885 11.9154 -0.361808
-5.4385 12.1061 -0.438808
-6.7725 12.1533 -0.639808
-1.6535 15.2575 -1.75581
-1.0885 14.4994 -1.44181
-1.8055 15.2333 -1.56281
-1.2725 14.519 -1.26681
-1.1535 13.6794 -0.933808
-0.953498 13.5976 -1.07781
-1.4225 13.709 -0.916808
-1.5235 14.4685 -1.22081
-2.0135 15.1218 -1.48581
-1.4305 12.8487 -0.612808
-1.6805 12.9559 -0.637808
-1.2245 12.6839 -0.705808
-6.3475 15.4468 -1.98381
-5.2365 15.8432 -2.10181
-6.2245 15.4113 -1.77781
-5.1785 15.7848 -1.88881
-3.9595 15.8743 -1.88381
-3.9415 15.938 -2.09581
-3.9785 15.7062 -1.77781
-5.0915 15.6254 -1.78881
-6.0455 15.2842 -1.68181
-2.7675 15.6877 -1.77181
-2.8895 15.5366 -1.68181
-2.6765 15.74 -1.97681
-7.3045 12.9302 -1.00181
-7.0805 13.0766 -0.888808
-7.1855 13.9225 -1.22781
-7.3805 13.857 -1.39081
-6.9165 13.9303 -1.18381
-6.8125 13.1626 -0.887808
-6.8975 14.7456 -1.54081
-6.6625 14.6755 -1.47081
-7.0625 14.7403 -1.73281
-3.4375 12.2718 -0.733808
-2.7055 12.5643 -0.829808
-4.3045 12.2639 -0.795808
-5.1675 12.3415 -0.818808
-2.0665 14.217 -1.44681
-2.0825 13.6078 -1.24581
-2.1875 13.0278 -0.987808
-4.8845 15.1369 -1.89781
-5.6155 14.8403 -1.81181
-4.0145 15.1189 -1.89781
-3.1535 15.0671 -1.81381
-6.2555 13.1917 -1.18581
-6.2375 13.7751 -1.44781
-6.1345 14.3809 -1.64481
-3.6445 7.14259 0.631192
-3.5115 8.68289 -0.221808
-3.8835 8.87689 -0.102808
-4.2995 8.83629 -0.032808
-4.0635 7.19229 0.665192
-3.5255 9.55019 -0.551808
-5.2865 9.67239 -0.662808
-5.0735 8.79949 -0.324808
-4.7375 8.94219 -0.158808
-4.8255 7.15809 0.375192
-4.4815 7.20629 0.575192
-5.0305 7.06349 0.061192
-5.2985 8.78719 -0.672808
-5.3445 8.56769 -1.00381
-5.5215 9.56669 -0.992808
-5.5955 9.42539 -1.37681
-5.2585 9.13369 -2.04981
-5.5075 9.27299 -1.74981
-5.0465 8.28819 -1.64281
-5.3135 8.61259 -1.44481
-4.2475 8.13709 -1.83281
-4.8485 9.03199 -2.21381
-4.3585 8.97359 -2.24581
-3.4735 9.00969 -1.93781
-3.8735 8.96429 -2.15181
-3.8275 8.21999 -1.78681
-3.2645 8.35499 -1.26381
-3.2025 8.40679 -0.861808
-3.2425 9.11569 -1.60681
-3.1765 9.25759 -1.22381
-3.2725 9.41059 -0.850808
3 0 1 2
3 0 2 3
3 2 4 5
3 2 5 3
3 5 6 7
3 5 7 3
3 7 8 0
3 7 0 3
3 9 10 11
3 9 11 12
3 11 13 14
3 11 14 12
3 14 6 5
3 14 5 12
3 5 4 9
3 5 9 12
3 15 16 17
3 15 17 18
3 17 19 20
3 17 20 18
3 20 6 14
3 20 14 18
3 14 13 15
3 14 15 18
3 21 22 23
3 21 23 24
3 23 8 7
3 23 7 24
3 7 6 20
3 7 20 24
3 20 19 21
3 20 21 24
3 25 26 27
3 28 29 30
3 31 32 33
3 34 26 35
3 36 29 28
3 37 38 39
3 37 39 40
3 40 41 42
3 42 43 37
3 42 37 40
3 44 45 46
3 44 46 47
3 46 48 41
3 46 41 47
3 41 40 47
3 40 39 44
3 40 44 47
3 49 50 51
3 49 51 52
3 51 53 52
3 53 41 52
3 41 48 49
3 41 49 52
3 54 55 56
3 54 56 57
3 56 43 42
3 56 42 57
3 42 41 53
3 42 53 57
3 53 51 54
3 53 54 57
3 58 59 60
3 58 60 61
3 60 62 61
3 62 63 64
3 62 64 61
3 64 65 58
3 64 58 61
3 66 67 68
3 66 68 62
3 68 69 63
3 68 63 62
3 62 60 66
3 70 45 44
3 70 44 71
3 44 39 71
3 63 69 70
3 63 70 71
3 39 38 72
3 39 72 71
3 72 65 64
3 72 64 71
3 64 63 71
3 73 74 75
3 73 75 76
3 75 77 76
3 78 79 73
3 78 73 76
3 77 80 81
3 77 81 82
3 81 83 84
3 81 84 82
3 84 78 76
3 84 76 82
3 76 77 82
3 85 67 66
3 85 66 86
3 66 60 87
3 66 87 86
3 87 78 84
3 87 84 86
3 84 83 85
3 84 85 86
3 60 59 88
3 60 88 87
3 88 79 78
3 88 78 87
3 89 55 54
3 54 51 90
3 54 90 89
3 90 91 92
3 90 92 89
3 92 93 89
3 51 50 94
3 51 94 90
3 94 95 91
3 94 91 90
3 96 80 77
3 96 77 97
3 91 95 96
3 91 96 97
3 75 74 98
3 98 93 92
3 92 91 97
3 92 97 98
3 97 77 75
3 97 75 98
3 46 45 99
3 46 99 100
3 99 101 102
3 99 102 100
3 102 103 104
3 102 104 100
3 104 48 46
3 104 46 100
3 105 1 0
3 105 0 106
3 0 8 107
3 0 107 106
3 107 103 102
3 107 102 106
3 102 101 105
3 102 105 106
3 23 22 108
3 23 108 109
3 108 110 111
3 108 111 109
3 111 103 107
3 111 107 109
3 107 8 23
3 107 23 109
3 112 50 49
3 112 49 113
3 49 48 104
3 49 104 113
3 104 103 111
3 104 111 113
3 111 110 112
3 111 112 113
3 114 115 116
3 114 116 117
3 116 118 117
3 117 119 114
3 115 120 121
3 115 121 116
3 121 118 116
3 122 123 124
3 118 121 122
3 118 122 124
3 123 125 119
3 119 117 123
3 117 118 124
3 117 124 123
3 81 80 126
3 81 126 127
3 126 128 129
3 126 129 127
3 129 130 131
3 129 131 127
3 131 83 81
3 131 81 127
3 132 16 15
3 132 15 133
3 15 13 134
3 15 134 133
3 134 130 129
3 134 129 133
3 129 128 132
3 129 132 133
3 11 10 135
3 11 135 136
3 135 137 138
3 135 138 136
3 138 130 134
3 138 134 136
3 134 13 11
3 134 11 136
3 139 67 85
3 139 85 140
3 85 83 131
3 85 131 140
3 131 130 138
3 131 138 140
3 138 137 139
3 138 139 140
3 94 50 112
3 94 112 141
3 112 110 142
3 112 142 141
3 142 143 144
3 142 144 141
3 144 95 94
3 144 94 141
3 108 22 21
3 108 21 145
3 21 19 146
3 21 146 145
3 146 143 142
3 146 142 145
3 142 110 108
3 142 108 145
3 17 16 132
3 17 132 147
3 132 128 148
3 132 148 147
3 148 143 146
3 148 146 147
3 146 19 17
3 146 17 147
3 126 80 96
3 126 96 149
3 96 95 144
3 96 144 149
3 144 143 148
3 144 148 149
3 148 128 126
3 148 126 149
3 68 67 150
3 68 150 151
3 150 152 151
3 153 69 68
3 153 68 151
3 154 153 151
3 154 151 155
3 151 152 156
3 151 156 155
3 157 158 159
3 157 159 160
3 159 153 154
3 159 154 160
3 161 45 70
3 70 69 153
3 153 159 70
3 159 158 161
3 159 161 70
3 135 10 162
3 135 162 163
3 162 164 165
3 162 165 163
3 165 166 167
3 165 167 163
3 167 137 135
3 167 135 163
3 168 166 165
3 168 165 169
3 165 164 170
3 165 170 169
3 156 152 171
3 156 171 172
3 171 166 168
3 171 168 172
3 150 67 139
3 150 139 173
3 139 137 167
3 139 167 173
3 167 166 171
3 167 171 173
3 171 152 150
3 171 150 173
3 2 1 174
3 2 174 175
3 174 176 177
3 174 177 175
3 177 178 179
3 177 179 175
3 179 4 2
3 179 2 175
3 180 178 177
3 180 177 181
3 177 176 182
3 177 182 181
3 170 164 183
3 170 183 184
3 183 178 180
3 183 180 184
3 162 10 9
3 162 9 185
3 9 4 179
3 9 179 185
3 179 178 183
3 179 183 185
3 183 164 162
3 183 162 185
3 99 45 161
3 99 161 186
3 161 158 187
3 161 187 186
3 187 188 189
3 187 189 186
3 189 101 99
3 189 99 186
3 190 188 187
3 190 187 191
3 187 158 157
3 187 157 191
3 182 176 192
3 182 192 193
3 192 188 190
3 192 190 193
3 174 1 105
3 174 105 194
3 105 101 189
3 105 189 194
3 189 188 192
3 189 192 194
3 192 176 174
3 192 174 194
3 155 156 195
3 156 196 195
3 195 197 154
3 154 155 195
3 196 114 195
3 114 119 197
3 114 197 195
3 119 125 198
3 197 119 198
3 157 160 198
3 160 154 198
3 154 197 198
3 198 125 157
3 169 170 199
3 170 120 199
3 199 200 168
3 168 169 199
3 120 115 199
3 115 200 199
3 114 196 201
3 200 115 114
3 200 114 201
3 156 172 201
3 172 168 201
3 168 200 201
3 201 196 156
3 181 182 202
3 182 203 202
3 202 204 180
3 180 181 202
3 203 122 202
3 122 121 204
3 122 204 202
3 121 120 205
3 204 121 205
3 170 184 205
3 184 180 205
3 180 204 205
3 205 120 170
3 191 157 206
3 157 125 206
3 206 207 190
3 190 191 206
3 125 123 206
3 123 207 206
3 122 203 208
3 207 123 122
3 207 122 208
3 182 193 208
3 193 190 208
3 190 207 208
3 208 203 182
3 209 32 210
3 209 210 211
3 212 213 209
3 212 209 211
3 214 59 58
3 65 212 211
3 65 211 58
3 211 210 214
3 211 214 58
3 72 38 215
3 215 216 217
3 215 217 72
3 217 212 65
3 217 65 72
3 216 218 219
3 216 219 217
3 219 213 212
3 219 212 217
3 220 218 216
3 220 216 221
3 222 27 220
3 222 220 221
3 215 38 37
3 215 37 223
3 37 43 224
3 37 224 223
3 224 222 221
3 224 221 223
3 221 216 215
3 221 215 223
3 56 55 225
3 56 225 226
3 225 227 228
3 225 228 226
3 228 222 224
3 228 224 226
3 224 43 56
3 224 56 226
3 227 26 25
3 25 27 222
3 222 228 25
3 228 227 25
3 35 26 227
3 229 34 35
3 225 55 89
3 225 89 230
3 89 93 231
3 89 231 230
3 231 229 35
3 231 35 230
3 35 227 225
3 35 225 230
3 98 74 232
3 98 232 233
3 232 29 234
3 232 234 233
3 234 229 231
3 234 231 233
3 231 93 98
3 231 98 233
3 29 36 234
3 36 34 229
3 36 229 234
3 30 29 235
3 236 33 30
3 236 30 235
3 232 74 73
3 232 73 237
3 73 79 238
3 73 238 237
3 238 236 235
3 238 235 237
3 235 29 232
3 235 232 237
3 88 59 214
3 88 214 239
3 214 210 31
3 214 31 239
3 31 236 238
3 31 238 239
3 238 79 88
3 238 88 239
3 210 32 31
3 31 33 236
