0.280175
0.974024
1.16048
0.455893
0.709747
0.788537
0.51922
0.913091
0.308781
1.86302
1.3337
0.35448
0.298044
0.652285
1.00653
1.32805
1.41782
1.41037
1.00252
0.987848
1.12475
1.04246
0.757777
0.85653
1.44123
1.59392
1.29041
0.888785
1.41087
1.31151
1.32258
1.156
0.949101
1.46529
1.47106
1.4998
1.35964
1.37478
1.45864
1.24232
1.46625
1.46183
1.66981
1.41576
0.562269
1.64707
1.50539
1.44647
1.00865
1.66522
1.20832
1.06188
1.54485
1.2329
1.65912
0.94458
1.19141
1.13685
1.50417
2.37052
1.35126
1.30065
1.15311
0.854584
1.35091
1.37431
1.0436
1.2982
1.56936
0.974618
1.71339
1.41868
1.31815
1.61815
1.38106
1.26776
1.28553
1.32771
1.17241
1.31468
1.60724
1.3431
1.77078
0.880275
0.948654
1.36471
1.09017
0.974409
1.36265
1.21812
0.904577
1.15591
0.801932
1.17702
1.12559
1.17377
1.14893
1.05172
1.34128
1.28484
0.898986
1.3958
1.11441
1.01906
1.23206
1.65653
1.1695
1.44952
1.38914
1.41505
1.00032
1.16677
1.14929
1.68649
1.28115
1.12292
1.26964
1.01378
1.21184
1.05379
1.40007
1.11359
1.26735
1.46583
1.29288
1.02387
1.21281
1.19484
1.3852
1.23471
1.17367
1.01522
1.14075
1.18747
1.2935
1.27164
1.03111
1.28912
1.29234
1.24268
1.23382
1.18873
1.02273
1.24174
1.20766
1.10595
1.14508
0.7802
0.888194
0.855922
0.950996
0.911654
0.946573
1.12802
1.19735
1.24004
1.2613
1.1425
1.28813
1.18332
0.996931
0.970456
1.45266
1.07143
1.18852
1.19535
1.00352
1.45429
1.40459
1.55747
1.32801
1.33666
1.45081
1.33708
1.47362
1.30054
0.99165
1.26333
0.850774
0.917897
0.903751
1.16544
1.24353
0.962216
1.25824
1.25256
1.39476
0.971024
1.27903
1.12508
1.48134
1.08219
1.25445
1.02028
1.18703
1.20851
1.2175
1.39019
1.37574
1.08807
1.33496
1.34495
1.22382
1.30466
1.26302
1.51374
1.30854
1.30976
1.08241
1.24863
1.23348
1.27338
1.71438
1.59514
1.5225
1.38375
1.84877
1.79865
1.72608
1.33986
1.33711
1.54601
1.38732
1.8055
1.76155
1.717
1.47262
1.55859
1.28989
0.891342
1.9278
1.68248
1.54036
1.65492
1.68664
1.67448
1.36606
0.070733
1.84942
1.72596
1.68514
1.65263
0.355963
1.48328
1.55261
1.72488
1.75451
2.02033
1.7006
1.89208
1.52218
1.5147
1.73256
1.31584
1.43885
1.63588
1.79602
1.91278
1.88464
1.62239
1.6124
1.73944
1.90369
1.53092
2.04466
1.98585
1.82776
1.97793
0.775891
1.8659
1.90663
1.37913
0.382736
1.94449
1.79784
1.88482
1.87015
1.95609
1.7993
1.86762
1.8595
1.84366
1.57783
1.66059
1.73784
1.8489
1.48226
1.80728
1.43916
1.5454
1.85332
1.46777
1.31495
1.94865
1.69257
1.59233
1.67966
2.23282
1.87935
0.922754
1.99897
0.15608
1.81344
1.35922
1.89634
1.89023
2.17874
1.93166
2.01227
1.05733
1.08333
1.18105
1.1087
1.20253
1.12823
1.01221
1.18509
1.30017
1.20697
1.18683
0.923824
1.10009
1.16403
1.50633
0.883548
1.12625
0.859074
0.979928
1.19766
0.860592
1.31925
0.957482
1.09594
1.01781
0.656071
1.15443
1.19764
0.297771
1.08226
0.108917
1.24397
1.38317
0.868742
1.76995
0.787496
1.13173
1.64278
1.65667
1.66442
1.9777
1.29229
1.38821
0.322108
1.50882
0.848898
0.795954
1.19964
1.80126
1.80897
0.537705
1.61418
0.396473
1.90353
0.903149
1.68931
1.59183
1.64662
1.7087
1.1927
1.1541
1.3268
1.12045
1.11023
1.01142
1.27615
1.16132
0.966945
1.24426
0.961766
1.13386
1.28022
0.966632
1.31255
1.02493
0.950387
0.927987
1.31452
1.08499
1.49905
0.931297
1.14493
1.26205
1.35146
1.40587
0.783779
1.00715
1.10234
1.27425
1.13932
1.41949
1.51121
1.03632
0.922863
1.62477
0.682951
1.054
0.675865
0.964209
0.29721
0.162067
0.174051
0.925652
0.159294
0.168856
1.86424
1.69037
1.21837
0.404181
1.53798
0.676921
0.72947
1.51655
1.9342
1.07013
0.756849
0.899443
1.55116
0.979474
1.22472
1.02391
1.53766
1.66071
1.34846
0.377182
1.30758
1.38749
1.27976
0.007665
1.76037
1.47939
1.06093
0.197638
0.587699
0.21099
0.224878
0.370185
2.02793
1.97412
1.91599
1.33728
1.86728
2.04558
1.19617
1.07541
1.07598
1.30386
1.33701
1.09814
1.22298
1.22352
1.05521
0.914927
1.14193
1.14945
1.10358
0.932524
1.01002
1.17552
0.910573
0.981176
0.945625
1.22043
1.02497
0.971213
1.08907
0.930799
1.15877
0.964704
0.926993
1.17211
1.10994
1.2124
1.0132
1.03294
0.959418
1.1848
1.09569
1.15509
1.06881
1.13721
1.04256
1.47374
1.3303
1.49706
1.79504
1.61655
1.99368
1.87249
1.07192
1.94733
2.03846
1.3859
1.42542
1.81811
1.60783
1.20861
1.71351
1.4114
1.33576
1.03685
0.972336
1.17178
0.663947
1.1847
1.02445
0.999717
1.26659
1.88993
1.94713
1.49295
1.51454
1.62422
1.58457
1.92322
1.87291
2.00446
1.87084
1.11114
1.09143
0.998177
0.989271
1.10942
1.07406
1.03074
1.2337
1.20516
0.961486
0.96005
0.965515
1.16051
0.961535
1.1111
0.868644
0.921562
1.00934
1.23099
0.92735
1.09429
1.16637
0.871421
1.16451
0.907078
1.05562
1.06354
1.15472
1.30677
0.946489
1.31275
1.27459
1.53604
1.12665
1.01917
1.42423
1.17476
1.20799
1.25075
1.07442
1.0687
1.13723
1.51015
1.09075
1.24447
1.2515
1.80624
0.675749
1.8787
1.85672
0.141261
1.98098
0.171569
0.112026
0.12472
1.6391
1.36255
1.63781
1.13593
1.60555
1.52876
0.285184
0.193216
1.41816
0.522651
1.40667
1.32185
1.32461
1.48984
1.23146
1.2805
1.41122
1.5185
1.31779
1.61859
1.57824
1.27788
1.37596
1.17187
1.26672
1.26496
1.15822
2.35605
1.26389
1.25394
1.3034
1.04886
1.20298
1.02686
1.19651
0.984601
1.40128
1.08145
1.33003
1.18104
0.942538
1.45271
1.03127
1.27904
1.39936
1.07608
1.21465
1.17392
0.953285
1.17429
1.33113
1.30686
1.43931
1.36081
1.22746
1.2486
1.19046
1.05689
1.43529
1.46579
1.23064
1.11309
1.53163
1.01266
3.08093
0.9632
0.928722
1.20047
1.13694
1.19635
1.14092
0.983456
1.19354
1.20438
1.23234
1.11063
1.20434
1.04784
1.10574
1.10587
1.19087
1.54284
1.21414
1.42988
1.24607
1.42134
1.48179
0.704503
1.0855
1.40501
0.211154
0.109435
1.39774
1.32577
1.30099
1.12946
0.453554
0.182181
1.24014
0.225229
0.232798
1.04382
0.211199
0.275216
1.5152
1.39585
1.62549
1.56617
0.152938
1.65738
0.684821
1.76045
1.71884
0.798167
0.294927
0.59005
0.289151
1.18396
2.03277
2.01357
0.559256
1.71875
1.72331
2.23677
1.96704
1.90313
1.94403
0.581124
2.01765
1.75325
0.65264
1.8999
1.77101
1.94717
1.72812
1.82644
1.92588
1.19908
1.71005
1.52641
1.81205
1.24806
1.78149
1.68835
0.909718
0.854595
0.821898
0.579892
1.1802
0.696128
0.846873
0.436031
1.18531
0.710112
1.07567
0.788158
0.59364
0.410224
0.723931
1.23085
1.10736
0.452434
1.00347
1.24237
1.08079
1.76498
1.75378
1.99192
1.9251
1.83417
1.87463
1.50943
1.75197
1.72461
0.308807
1.6598
1.55154
1.78918
1.79333
0.273311
0.419731
1.81417
1.68713
2.2354
1.80792
1.72999
1.78756
1.89229
0.323862
2.04685
1.33637
1.41977
0.420308
1.30716
1.31746
0.182643
0.272556
1.46388
0.231807
1.70191
1.53732
0.136081
0.204624
0.259403
1.20862
0.146963
0.39232
1.53021
1.04255
1.11437
1.14243
1.05503
0.984044
1.21473
1.19304
0.195432
1.0662
1.31744
1.01547
1.04611
0.413109
0.993099
1.08575
1.27294
1.36313
0.145797
0.0817046
1.17702
1.24924
1.19778
1.25517
1.19507
1.23646
1.10263
1.05759
1.37459
0.87495
0.942127
1.78578
0.9575
1.30822
1.30012
1.11051
0.937627
1.18684
0.957568
0.918139
1.1684
0.939882
1.0764
1.24778
1.15459
1.13601
1.3501
1.29718
1.22795
1.13573
1.26695
1.21159
1.35686
1.4117
1.41091
1.5487
1.14055
1.22917
1.11716
1.2665
1.20449
1.11155
1.20388
1.39399
1.04716
1.30743
1.29052
1.65063
1.25087
1.23401
0.968998
1.23232
1.20077
1.3498
1.58558
1.17226
1.34756
1.20448
1.24907
2.4592
0.847144
0.538478
1.44183
0.94438
1.28272
1.49377
1.14
1.28068
0.0955629
0.160698
0.257788
0.404562
0.138609
0.210475
0.159209
0.357009
0.191792
0.149568
0.162231
0.179482
0.162973
0.0956858
1.62032
0.804377
