OFF
309 599 0
13.2573 -15.2367 3.44755
12.7483 -15.4549 4.20355
12.8533 -15.4444 3.45755
12.2883 -15.6761 4.26055
12.3593 -15.6839 3.45455
12.4323 -15.6837 2.48755
12.9613 -15.4263 2.56255
13.3933 -15.2033 2.62455
11.8403 -15.8909 4.07455
11.4473 -16.1029 3.19055
11.8663 -15.916 3.31755
11.4383 -16.1358 2.34755
11.8953 -15.934 2.41155
11.5573 -16.0997 1.52255
12.0663 -15.8816 0.767548
11.9903 -15.9105 1.51555
12.5423 -15.663 0.711548
12.4973 -15.6764 1.51955
12.9943 -15.4403 0.899548
13.3863 -15.2282 1.78255
12.9873 -15.4364 1.65655
7.96733 -7.5589 4.37355
7.89833 -7.65971 4.28255
8.67333 -7.32909 3.47755
9.07333 -7.24677 2.41855
9.11733 -7.17464 2.42655
7.88533 -7.79911 4.24555
7.94733 -8.41348 4.21155
8.63333 -7.7244 3.43555
8.64733 -7.47272 3.44955
8.96433 -8.06909 2.38155
9.04533 -7.38815 2.41055
9.01333 -7.79572 1.30055
8.58233 -7.93457 0.310548
9.03633 -7.54287 1.30455
8.61433 -7.79452 0.288548
9.07433 -7.39899 1.29455
9.15533 -7.31181 1.25655
8.72133 -7.69488 0.228548
3.16833 -10.3925 3.59755
3.31933 -10.3653 3.54055
4.27633 -9.72836 4.24155
3.49433 -10.4015 3.53255
4.21433 -10.6632 3.59255
4.62833 -9.9155 4.24555
4.41133 -9.78574 4.23355
5.97233 -9.50815 4.61055
5.57533 -9.0703 4.60655
5.49633 -8.98326 4.61555
6.87933 -8.57232 4.61355
6.79733 -8.36987 4.62155
6.77133 -8.25241 4.64555
2.90633 -10.9692 0.211548
3.74833 -10.6013 -0.576452
3.01633 -10.9081 0.263548
3.88333 -10.564 -0.477452
3.13433 -10.8843 0.332548
2.78533 -10.9455 1.39955
2.68833 -10.9511 1.38655
4.04933 -10.5963 -0.425452
4.74833 -10.8547 -0.316452
3.61233 -10.9926 0.416548
3.31033 -10.9127 0.374548
3.79233 -11.1729 1.52355
2.96033 -10.9774 1.42155
3.32133 -10.8836 2.56655
3.01633 -10.8029 2.53455
2.83433 -10.7718 2.53155
7.63233 -8.44211 -0.415452
7.70533 -8.76382 -0.378452
7.64133 -8.56001 -0.394452
6.42933 -9.29539 -0.774452
5.36533 -10.1447 -0.761452
5.16033 -10.0156 -0.796452
5.03533 -9.96068 -0.836452
8.82133 -10.0324 3.24455
8.41033 -10.1923 3.96655
8.76633 -10.9111 3.78155
9.09833 -10.7829 3.14055
9.22333 -11.6439 3.59155
9.49033 -11.5396 3.04055
9.65033 -11.5236 2.34955
9.29633 -10.7626 2.33555
9.06133 -10.0042 2.33355
9.76533 -12.3587 3.45355
10.3733 -13.0238 3.42255
10.5733 -12.9401 2.97555
9.98533 -12.2696 2.97555
10.6883 -12.9224 2.41855
10.1173 -12.2544 2.37755
10.7053 -12.969 1.84355
10.6123 -13.0784 1.34655
10.0503 -12.4357 1.22555
10.1433 -12.3106 1.76055
9.57633 -11.7432 1.01655
9.68533 -11.5925 1.63655
9.19733 -11.0301 0.775548
8.91733 -10.3259 0.558548
9.10133 -10.1034 1.38655
9.33633 -10.8463 1.50155
6.68733 -11.242 4.13555
6.26033 -11.5783 3.58355
7.06533 -12.0425 3.47155
7.39833 -11.7666 3.95255
7.86833 -12.5688 3.34255
8.13233 -12.343 3.75055
8.48533 -12.0864 3.93555
7.84233 -11.4529 4.17355
7.24933 -10.8582 4.39555
8.63033 -13.1365 3.24755
9.31233 -13.7248 3.23855
9.52333 -13.5566 3.56455
8.85333 -12.9476 3.59855
9.80133 -13.3631 3.70855
9.14933 -12.7321 3.75555
10.1003 -13.1751 3.66355
9.46933 -12.5244 3.71055
8.86933 -11.8398 3.88655
7.85533 -10.4879 4.34455
8.32333 -11.1511 4.12055
6.29833 -11.898 0.887548
6.69733 -11.7434 0.164548
7.44133 -12.1868 0.456548
7.11833 -12.3108 1.09855
8.17933 -12.6883 0.760548
7.91933 -12.7892 1.31255
7.77333 -12.7985 2.00555
6.93933 -12.3227 1.90655
6.08133 -11.9157 1.80255
8.88233 -13.2297 1.01455
9.52133 -13.7934 1.15755
9.32633 -13.8748 1.60455
8.66733 -13.3162 1.49355
9.22133 -13.8878 2.16455
8.54733 -13.326 2.09355
9.21333 -13.8365 2.74055
8.53233 -13.2643 2.71155
7.75233 -12.7228 2.72155
6.06433 -11.806 2.75355
6.91633 -12.2305 2.74355
8.47933 -10.6674 0.00454842
8.85533 -11.3102 0.292548
9.30533 -11.9723 0.606548
8.93833 -12.2356 0.419548
8.39233 -11.6324 0.0685484
7.89333 -11.0618 -0.259452
10.3963 -13.2489 1.02055
9.82233 -12.6273 0.873548
10.1073 -13.4471 0.873548
9.51533 -12.8482 0.714548
9.79833 -13.6397 0.916548
9.18333 -13.0614 0.758548
8.54133 -12.489 0.466548
7.26433 -11.4425 -0.211452
7.89433 -11.9427 0.117548
11.0313 -13.607 3.55455
11.2423 -13.5182 3.07255
11.6833 -14.1024 3.78555
11.9243 -14.0017 3.22755
12.0533 -13.9711 2.53255
11.3583 -13.4949 2.47255
12.2733 -14.5036 4.05155
12.7463 -14.8044 4.28855
13.0623 -14.6762 3.55155
12.5533 -14.3885 3.40055
13.2263 -14.6314 2.63755
12.7003 -14.3502 2.58955
13.2203 -14.6713 1.69755
13.0303 -14.7971 0.887548
12.5343 -14.5072 1.03955
12.6983 -14.3895 1.75755
11.9213 -14.1201 1.20155
12.0563 -14.0105 1.81855
11.2583 -13.6419 1.32055
11.3683 -13.5364 1.85455
9.87333 -14.3131 3.36655
10.1083 -14.1465 3.71455
10.3213 -14.8663 3.57655
10.6023 -14.6889 3.97755
10.9623 -14.4798 4.15155
10.4133 -13.9525 3.86755
10.6673 -15.3495 3.81355
10.9173 -15.7276 4.02255
11.3003 -15.5171 4.54755
11.0013 -15.1552 4.27855
11.7853 -15.2658 4.77455
11.4273 -14.9245 4.48055
12.2943 -15.0146 4.69155
11.8743 -14.6947 4.40855
11.3423 -14.273 4.09055
10.7383 -13.7622 3.81655
10.0673 -14.3612 1.12655
9.86133 -14.4479 1.60955
10.5203 -14.898 0.984548
10.2853 -14.9963 1.54455
10.1693 -15.0223 2.24155
9.75633 -14.4667 2.21155
10.8803 -15.3683 0.793548
11.1463 -15.7368 0.612548
10.8393 -15.8623 1.35055
10.6073 -15.4809 1.44655
10.6943 -15.9016 2.26855
10.4773 -15.5141 2.25855
10.7183 -15.8562 3.21055
10.4943 -15.4697 3.09355
10.1793 -14.9782 2.95855
9.75733 -14.4208 2.83155
11.0173 -13.8106 0.971548
11.6333 -14.2999 0.799548
11.2603 -14.5136 0.622548
10.7013 -14.0091 0.817548
12.6393 -15.0103 0.361548
12.1923 -14.704 0.572548
12.1353 -15.2672 0.131548
11.7503 -14.9398 0.368548
11.6083 -15.5239 0.210548
11.2863 -15.1746 0.437548
10.8673 -14.725 0.681548
10.3653 -14.2038 0.865548
13.0463 -14.9986 4.43055
13.3833 -14.8627 3.64355
13.1833 -15.1249 4.43755
13.5213 -14.99 3.65055
13.6943 -14.941 2.67555
13.5573 -14.8139 2.66655
13.1693 -15.2218 4.26455
13.4793 -15.1 3.54955
13.6383 -15.0562 2.66155
13.4293 -15.2046 0.963548
13.6243 -15.0899 1.75055
13.4753 -15.1067 0.808548
13.6833 -14.9791 1.67355
13.3433 -14.9839 0.797548
13.5493 -14.8537 1.66255
12.9213 -15.2063 0.235548
13.0533 -15.326 0.246548
12.5113 -15.5913 0.00154842
12.3803 -15.475 -0.0104516
13.0463 -15.4037 0.448548
12.5563 -15.6443 0.223548
11.5883 -16.0826 0.700548
12.0403 -15.8831 0.305548
11.4503 -16.0782 0.518548
11.9453 -15.8568 0.0885484
11.3203 -15.9682 0.505548
11.8143 -15.7442 0.0755484
10.9923 -16.1012 1.29455
11.1233 -16.2111 1.30655
10.9703 -16.2554 2.28555
10.8393 -16.1444 2.27455
11.2893 -16.2053 1.41755
11.1503 -16.2478 2.30755
11.3733 -16.0872 4.00955
11.1753 -16.2069 3.22155
11.2163 -16.0802 4.15655
10.9993 -16.2112 3.29155
11.0823 -15.9657 4.14855
10.8663 -16.0988 3.28255
11.4943 -15.7462 4.70955
11.6293 -15.8643 4.71755
12.1523 -15.6051 4.95955
12.0153 -15.4833 4.95155
11.7533 -15.8931 4.52355
12.2313 -15.6596 4.74555
12.7283 -15.4221 4.66155
12.6993 -15.3443 4.86955
12.5613 -15.2198 4.86255
8.60933 -8.13659 3.41255
8.02633 -8.9178 4.16855
8.61033 -8.6789 3.37555
8.93133 -8.62539 2.36055
8.17233 -9.51929 4.09055
8.66933 -9.32098 3.32155
8.95133 -9.28099 2.34355
8.74033 -9.65975 0.424548
8.98533 -9.39528 1.32255
8.64433 -9.05966 0.352548
8.95333 -8.75354 1.29555
8.60233 -8.55347 0.322548
8.97433 -8.20982 1.29255
7.81133 -9.09752 -0.353452
7.96733 -9.54004 -0.296452
7.08233 -10.1001 -0.624452
6.78333 -9.73421 -0.705452
8.18633 -10.0704 -0.184452
7.45433 -10.5468 -0.482452
5.97633 -11.3758 -0.0534516
6.67333 -11.0087 -0.446452
5.31433 -11.0807 -0.210452
6.14533 -10.6452 -0.604452
5.70133 -10.3558 -0.703452
4.10533 -11.123 0.485548
4.74733 -11.3121 0.585548
4.46133 -11.3505 1.60555
5.49333 -11.5677 0.717548
5.24033 -11.595 1.70055
5.49433 -11.197 3.62655
5.23533 -11.4679 2.72655
4.80133 -10.8937 3.62255
4.47433 -11.2073 2.67655
3.82133 -11.0155 2.61855
4.98533 -10.1278 4.26555
5.46033 -10.4208 4.26855
6.31133 -9.87583 4.59055
6.03433 -10.7928 4.23355
6.73833 -10.3291 4.52655
7.48933 -9.87998 4.48555
7.21333 -9.34581 4.56555
7.01433 -8.90378 4.60155
3 0 1 2
3 1 3 4
3 1 4 2
3 4 5 6
3 4 6 2
3 6 7 0
3 6 0 2
3 8 9 10
3 9 11 12
3 9 12 10
3 12 5 4
3 12 4 10
3 4 3 8
3 4 8 10
3 13 14 15
3 14 16 17
3 14 17 15
3 17 5 12
3 17 12 15
3 12 11 13
3 12 13 15
3 18 19 20
3 19 7 6
3 19 6 20
3 6 5 17
3 6 17 20
3 17 16 18
3 17 18 20
3 21 22 23
3 23 24 25
3 26 27 28
3 26 28 29
3 28 30 31
3 28 31 29
3 31 24 23
3 31 23 29
3 23 22 26
3 23 26 29
3 32 33 34
3 33 35 36
3 33 36 34
3 36 24 31
3 36 31 34
3 31 30 32
3 31 32 34
3 25 24 36
3 25 36 37
3 36 35 38
3 36 38 37
3 39 40 41
3 42 43 44
3 42 44 45
3 44 46 47
3 44 47 45
3 47 48 41
3 47 41 45
3 41 40 42
3 41 42 45
3 49 27 26
3 49 26 50
3 26 22 51
3 26 51 50
3 51 48 47
3 51 47 50
3 47 46 49
3 47 49 50
3 51 22 21
3 52 53 54
3 53 55 56
3 53 56 54
3 56 57 58
3 56 58 54
3 58 52 54
3 59 60 61
3 59 61 62
3 61 63 64
3 61 64 62
3 64 57 56
3 64 56 62
3 56 55 59
3 56 59 62
3 65 43 42
3 65 42 66
3 42 40 67
3 42 67 66
3 67 57 64
3 67 64 66
3 64 63 65
3 64 65 66
3 58 57 67
3 67 40 39
3 38 35 68
3 33 69 70
3 69 71 70
3 68 35 33
3 68 33 70
3 72 60 59
3 72 59 73
3 59 55 74
3 59 74 73
3 74 71 73
3 71 72 73
3 74 55 53
3 75 76 77
3 75 77 78
3 77 79 80
3 77 80 78
3 80 81 82
3 80 82 78
3 82 83 75
3 82 75 78
3 84 85 86
3 84 86 87
3 86 88 89
3 86 89 87
3 89 81 80
3 89 80 87
3 80 79 84
3 80 84 87
3 90 91 92
3 90 92 93
3 92 94 95
3 92 95 93
3 95 81 89
3 95 89 93
3 89 88 90
3 89 90 93
3 96 97 98
3 96 98 99
3 98 83 82
3 98 82 99
3 82 81 95
3 82 95 99
3 95 94 96
3 95 96 99
3 100 101 102
3 100 102 103
3 102 104 105
3 102 105 103
3 105 106 107
3 105 107 103
3 107 108 100
3 107 100 103
3 109 110 111
3 109 111 112
3 111 113 114
3 111 114 112
3 114 106 105
3 114 105 112
3 105 104 109
3 105 109 112
3 115 85 84
3 115 84 116
3 84 79 117
3 84 117 116
3 117 106 114
3 117 114 116
3 114 113 115
3 114 115 116
3 77 76 118
3 77 118 119
3 118 108 107
3 118 107 119
3 107 106 117
3 107 117 119
3 117 79 77
3 117 77 119
3 120 121 122
3 120 122 123
3 122 124 125
3 122 125 123
3 125 126 127
3 125 127 123
3 127 128 120
3 127 120 123
3 129 130 131
3 129 131 132
3 131 133 134
3 131 134 132
3 134 126 125
3 134 125 132
3 125 124 129
3 125 129 132
3 135 110 109
3 135 109 136
3 109 104 137
3 109 137 136
3 137 126 134
3 137 134 136
3 134 133 135
3 134 135 136
3 102 101 138
3 102 138 139
3 138 128 127
3 138 127 139
3 127 126 137
3 127 137 139
3 137 104 102
3 137 102 139
3 140 97 96
3 140 96 141
3 96 94 142
3 96 142 141
3 142 143 144
3 142 144 141
3 144 145 140
3 144 140 141
3 92 91 146
3 92 146 147
3 146 148 149
3 146 149 147
3 149 143 142
3 149 142 147
3 142 94 92
3 142 92 147
3 150 130 129
3 150 129 151
3 129 124 152
3 129 152 151
3 152 143 149
3 152 149 151
3 149 148 150
3 149 150 151
3 122 121 153
3 122 153 154
3 153 145 144
3 153 144 154
3 144 143 152
3 144 152 154
3 152 124 122
3 152 122 154
3 86 85 155
3 86 155 156
3 155 157 158
3 155 158 156
3 158 159 160
3 158 160 156
3 160 88 86
3 160 86 156
3 161 162 163
3 161 163 164
3 163 165 166
3 163 166 164
3 166 159 158
3 166 158 164
3 158 157 161
3 158 161 164
3 167 168 169
3 167 169 170
3 169 171 172
3 169 172 170
3 172 159 166
3 172 166 170
3 166 165 167
3 166 167 170
3 173 91 90
3 173 90 174
3 90 88 160
3 90 160 174
3 160 159 172
3 160 172 174
3 172 171 173
3 172 173 174
3 111 110 175
3 111 175 176
3 175 177 178
3 175 178 176
3 178 179 180
3 178 180 176
3 180 113 111
3 180 111 176
3 181 182 183
3 181 183 184
3 183 185 186
3 183 186 184
3 186 179 178
3 186 178 184
3 178 177 181
3 178 181 184
3 187 162 161
3 187 161 188
3 161 157 189
3 161 189 188
3 189 179 186
3 189 186 188
3 186 185 187
3 186 187 188
3 155 85 115
3 155 115 190
3 115 113 180
3 115 180 190
3 180 179 189
3 180 189 190
3 189 157 155
3 189 155 190
3 131 130 191
3 131 191 192
3 191 193 194
3 191 194 192
3 194 195 196
3 194 196 192
3 196 133 131
3 196 131 192
3 197 198 199
3 197 199 200
3 199 201 202
3 199 202 200
3 202 195 194
3 202 194 200
3 194 193 197
3 194 197 200
3 203 182 181
3 203 181 204
3 181 177 205
3 181 205 204
3 205 195 202
3 205 202 204
3 202 201 203
3 202 203 204
3 175 110 135
3 175 135 206
3 135 133 196
3 135 196 206
3 196 195 205
3 196 205 206
3 205 177 175
3 205 175 206
3 146 91 173
3 146 173 207
3 173 171 208
3 173 208 207
3 208 209 210
3 208 210 207
3 210 148 146
3 210 146 207
3 169 168 211
3 169 211 212
3 211 213 214
3 211 214 212
3 214 209 208
3 214 208 212
3 208 171 169
3 208 169 212
3 215 198 197
3 215 197 216
3 197 193 217
3 197 217 216
3 217 209 214
3 217 214 216
3 214 213 215
3 214 215 216
3 191 130 150
3 191 150 218
3 150 148 210
3 150 210 218
3 210 209 217
3 210 217 218
3 217 193 191
3 217 191 218
3 163 162 219
3 163 219 220
3 219 221 222
3 219 222 220
3 222 223 224
3 222 224 220
3 224 165 163
3 224 163 220
3 225 1 0
3 225 0 226
3 0 7 227
3 0 227 226
3 227 223 222
3 227 222 226
3 222 221 225
3 222 225 226
3 19 18 228
3 19 228 229
3 228 230 231
3 228 231 229
3 231 223 227
3 231 227 229
3 227 7 19
3 227 19 229
3 232 168 167
3 232 167 233
3 167 165 224
3 167 224 233
3 224 223 231
3 224 231 233
3 231 230 232
3 231 232 233
3 211 168 232
3 211 232 234
3 232 230 235
3 232 235 234
3 235 236 237
3 235 237 234
3 237 213 211
3 237 211 234
3 228 18 238
3 18 16 239
3 18 239 238
3 239 236 235
3 239 235 238
3 235 230 228
3 235 228 238
3 14 13 240
3 14 240 241
3 240 242 243
3 240 243 241
3 243 236 239
3 243 239 241
3 239 16 14
3 239 14 241
3 244 198 215
3 244 215 245
3 215 213 237
3 215 237 245
3 237 236 243
3 237 243 245
3 243 242 244
3 243 244 245
3 199 198 244
3 199 244 246
3 244 242 247
3 244 247 246
3 247 248 249
3 247 249 246
3 249 201 199
3 249 199 246
3 240 13 250
3 13 11 251
3 13 251 250
3 251 248 247
3 251 247 250
3 247 242 240
3 247 240 250
3 9 8 252
3 9 252 253
3 252 254 255
3 252 255 253
3 255 248 251
3 255 251 253
3 251 11 9
3 251 9 253
3 256 182 203
3 256 203 257
3 203 201 249
3 203 249 257
3 249 248 255
3 249 255 257
3 255 254 256
3 255 256 257
3 183 182 256
3 183 256 258
3 256 254 259
3 256 259 258
3 259 260 261
3 259 261 258
3 261 185 183
3 261 183 258
3 252 8 262
3 8 3 263
3 8 263 262
3 263 260 259
3 263 259 262
3 259 254 252
3 259 252 262
3 1 225 264
3 225 221 265
3 225 265 264
3 265 260 263
3 265 263 264
3 263 3 1
3 263 1 264
3 219 162 187
3 219 187 266
3 187 185 261
3 187 261 266
3 261 260 265
3 261 265 266
3 265 221 219
3 265 219 266
3 28 27 267
3 27 268 269
3 27 269 267
3 269 270 30
3 269 30 267
3 30 28 267
3 271 76 75
3 271 75 272
3 75 83 273
3 75 273 272
3 273 270 269
3 273 269 272
3 269 268 271
3 269 271 272
3 98 97 274
3 98 274 275
3 274 276 277
3 274 277 275
3 277 270 273
3 277 273 275
3 273 83 98
3 273 98 275
3 278 33 32
3 278 32 279
3 32 30 279
3 30 270 277
3 30 277 279
3 277 276 278
3 277 278 279
3 69 33 278
3 69 278 280
3 278 276 281
3 278 281 280
3 281 282 283
3 281 283 280
3 283 71 69
3 283 69 280
3 274 97 140
3 274 140 284
3 140 145 285
3 140 285 284
3 285 282 281
3 285 281 284
3 281 276 274
3 281 274 284
3 153 121 286
3 153 286 287
3 286 288 289
3 286 289 287
3 289 282 285
3 289 285 287
3 285 145 153
3 285 153 287
3 60 72 290
3 72 71 283
3 72 283 290
3 283 282 289
3 283 289 290
3 289 288 60
3 289 60 290
3 61 60 291
3 60 288 292
3 60 292 291
3 292 293 63
3 292 63 291
3 63 61 291
3 286 121 120
3 286 120 294
3 120 128 295
3 120 295 294
3 295 293 292
3 295 292 294
3 292 288 286
3 292 286 294
3 138 101 296
3 138 296 297
3 296 298 299
3 296 299 297
3 299 293 295
3 299 295 297
3 295 128 138
3 295 138 297
3 43 65 300
3 65 63 300
3 63 293 299
3 63 299 300
3 299 298 43
3 299 43 300
3 44 43 301
3 43 298 302
3 43 302 301
3 302 303 46
3 302 46 301
3 46 44 301
3 296 101 100
3 296 100 304
3 100 108 305
3 100 305 304
3 305 303 302
3 305 302 304
3 302 298 296
3 302 296 304
3 118 76 271
3 118 271 306
3 271 268 307
3 271 307 306
3 307 303 305
3 307 305 306
3 305 108 118
3 305 118 306
3 27 49 308
3 49 46 308
3 46 303 307
3 46 307 308
3 307 268 27
3 307 27 308
