OFF
1794 3470 0
-3.89195 -18.4622 9.7888
-4.20995 -18.4652 9.79003
-4.21795 -18.4643 9.11388
-3.89795 -18.4622 9.11265
-4.20295 -18.4593 8.56549
-3.89295 -18.4576 8.55791
-3.52295 -18.4337 8.5501
-3.51695 -18.4374 9.11117
-3.51295 -18.4373 9.78733
-4.14295 -18.4444 8.17131
-4.05595 -18.4242 7.95373
-3.84395 -18.4183 7.85886
-3.86195 -18.4432 8.14474
-3.53495 -18.3974 7.81124
-3.52795 -18.4217 8.11795
-3.22495 -18.364 7.85645
-3.01295 -18.3327 7.94967
-2.91795 -18.337 8.16653
-3.19495 -18.3846 8.14214
-2.84695 -18.3404 8.5602
-3.15295 -18.3928 8.55503
-2.82295 -18.342 9.10845
-2.82195 -18.3434 9.78462
-3.13495 -18.3958 9.78585
-3.13795 -18.3955 9.10968
-11.826 -19.1089 2.4159
-11.834 -19.1042 3.18525
-12.146 -19.1699 3.18402
-12.139 -19.1764 2.41466
-12.523 -19.2168 3.18255
-12.518 -19.224 2.41318
-12.513 -19.2212 1.80551
-12.145 -19.1747 1.81332
-11.84 -19.1083 1.8209
-12.902 -19.2391 3.18107
-13.22 -19.2309 3.17984
-13.219 -19.2363 2.41046
-12.899 -19.2459 2.41169
-13.196 -19.2322 1.81561
-12.884 -19.2423 1.81044
-13.127 -19.2128 1.40641
-13.035 -19.1853 1.18955
-12.82 -19.1848 1.09633
-12.845 -19.2222 1.38202
-12.509 -19.1659 1.05112
-12.51 -19.2034 1.35783
-12.201 -19.1282 1.09874
-11.992 -19.09 1.19361
-11.903 -19.1008 1.41119
-12.178 -19.1612 1.38462
-4.66795 2.3607 5.55215
-5.18795 2.4061 5.17997
-4.65595 2.3265 5.49606
-5.18695 2.2862 5.1623
-4.66795 2.2084 5.47214
-4.04995 2.105 5.57376
-4.02195 2.2207 5.59985
-5.22795 2.0076 5.16617
-5.31695 1.4936 5.18719
-4.80295 1.4165 5.49494
-4.71295 1.9305 5.47392
-4.19095 1.3139 5.59585
-4.10095 1.8279 5.57483
-3.57995 1.2031 5.49029
-3.07195 1.1017 5.17864
-2.98195 1.6157 5.15762
-3.49095 1.7171 5.46927
-2.92195 1.8915 5.15389
-3.43395 1.9935 5.46755
-3.39095 2.1069 5.49169
-2.86395 2.003 5.17196
-5.59595 2.436 3.35332
-5.22795 2.3201 2.84869
-5.53895 2.3952 3.37963
-5.22495 2.2 2.87618
-5.52895 2.274 3.39691
-5.62095 2.3153 4.02078
-5.63395 2.4369 4.0158
-5.26595 1.9213 2.8951
-5.35495 1.4073 2.91612
-5.65595 1.4809 3.43345
-5.56695 1.9949 3.41243
-5.74795 1.5222 4.05323
-5.65795 2.0362 4.0322
-5.63295 1.5276 4.67221
-5.54395 2.0416 4.65119
-5.50595 2.3206 4.64388
-5.51595 2.4418 4.65123
-3.35695 2.017 2.46608
-2.79195 1.9325 2.79464
-2.86995 1.9111 2.84056
-3.40795 1.9918 2.52449
-2.92695 1.7995 2.86764
-3.45095 1.8782 2.55783
-4.07995 1.9836 2.45624
-4.05295 2.0994 2.42074
-2.98795 1.5238 2.88643
-3.07695 1.0098 2.90745
-3.59695 1.0878 2.59972
-3.50695 1.6018 2.5787
-4.21995 1.1924 2.49885
-4.13095 1.7064 2.47783
-4.84195 1.305 2.60446
-4.75195 1.819 2.58344
-4.70695 2.097 2.56249
-4.71095 2.2499 2.47007
-4.69595 2.2152 2.52893
-2.61295 1.8166 4.63314
-2.54795 1.9269 4.641
-2.50895 1.7732 4.00923
-2.44195 1.8832 4.00479
-2.76595 1.0272 4.66129
-2.67595 1.5412 4.64027
-2.66295 0.983998 4.04148
-2.57395 1.498 4.02046
-2.76695 0.976698 3.42245
-2.67695 1.4907 3.40143
-2.61395 1.7661 3.38608
-2.45395 1.8954 3.34403
-2.54895 1.8764 3.36932
-13.452 1.6615 5.18015
-13.432 1.5408 5.16259
-13.124 1.6314 4.64417
-13.341 1.272 5.16654
-13.161 0.781298 5.18759
-12.856 0.870998 4.67261
-13.036 1.3617 4.65156
-12.743 0.885998 4.05363
-12.923 1.3767 4.03257
-13.01 1.6467 4.02107
-12.825 0.829098 3.43386
-13.108 0.703198 2.91653
-13.288 1.194 2.89547
-13.005 1.3198 3.4128
-13.378 1.4629 2.87647
-13.093 1.5896 3.3972
-13.398 1.584 2.84887
-15.667 0.851898 5.17214
-15.59 0.749898 5.15417
-15.104 0.941398 5.46784
-15.168 1.0476 5.49188
-14.518 1.1606 5.57405
-14.567 1.2719 5.60003
-15.481 0.487398 5.15799
-15.301 -0.00330159 5.17905
-14.819 0.186798 5.49069
-14.999 0.677498 5.46963
-14.238 0.404198 5.59625
-14.418 0.894998 5.57519
-13.654 0.614098 5.49535
-13.833 1.1048 5.47429
-13.928 1.3721 5.47242
-13.957 1.5265 5.55224
-13.962 1.4886 5.49624
-16.053 0.675198 3.34413
-15.645 0.762398 2.84074
-15.956 0.671198 3.3695
-15.569 0.660398 2.86793
-15.871 0.571698 3.38637
-15.975 0.560298 4.00951
-16.062 0.658798 4.00498
-16.165 0.661098 4.00427
-15.459 0.397798 2.8868
-15.28 -0.0929016 2.90785
-15.579 -0.180702 3.42286
-15.759 0.310098 3.4018
-15.682 -0.191802 4.04189
-15.862 0.298898 4.02083
-15.589 -0.131102 4.6617
-15.769 0.359598 4.64064
-15.881 0.621298 4.63342
-16.064 0.724598 4.66507
-15.966 0.720698 4.64118
-13.895 1.425 2.47016
-13.902 1.3862 2.52912
-13.87 1.2694 2.56278
-14.467 1.0464 2.45653
-14.515 1.158 2.42093
-14.539 1.1864 2.35809
-13.596 0.511198 2.60486
-13.776 1.0019 2.5838
-14.187 0.289898 2.49926
-14.367 0.780698 2.4782
-14.782 0.0762984 2.60012
-14.962 0.566998 2.57907
-15.067 0.830998 2.55811
-15.186 0.955298 2.46617
-15.13 0.937398 2.52468
-5.73695 -2.7731 5.74679
-6.66195 -2.7665 5.52284
-6.81695 -3.8639 5.79237
-5.93395 -3.8328 5.84717
-6.90795 -4.8399 5.91306
-6.05895 -4.8305 5.94729
-5.28195 -4.8434 5.95828
-5.13995 -3.877 5.87253
-4.95195 -2.845 5.80302
-6.95095 -5.7985 5.95178
-6.92495 -6.8304 5.92896
-6.08195 -6.8066 6.21519
-6.12695 -5.8086 6.03775
-5.35695 -6.7701 6.28558
-5.36095 -5.7927 6.07419
-4.71695 -6.7169 6.19713
-4.18095 -6.6232 5.88695
-4.20095 -5.7106 5.88969
-4.69995 -5.7698 6.01308
-4.11195 -4.8935 5.84514
-4.61495 -4.8679 5.91954
-3.93895 -4.0708 5.73184
-3.65595 -3.1388 5.48316
-4.25395 -2.961 5.72932
-4.44995 -3.9543 5.82297
-13.415 -3.7948 5.71332
-13.962 -4.1002 5.44441
-13.523 -4.9527 5.66496
-13.047 -4.7325 5.79801
-13.223 -5.7189 5.71568
-12.734 -5.6079 5.81847
-12.083 -5.4667 5.87179
-12.384 -4.5286 5.86631
-12.751 -3.5484 5.79909
-13.017 -6.514 5.60996
-12.929 -7.4742 5.24759
-12.393 -7.5298 5.40441
-12.518 -6.5127 5.70225
-11.753 -7.4852 5.45944
-11.864 -6.429 5.75157
-11.023 -7.3858 5.43964
-10.167 -7.2257 5.33193
-10.283 -6.134 5.74112
-11.102 -6.3044 5.75262
-10.479 -5.1691 5.8604
-11.319 -5.3144 5.87601
-10.736 -4.2154 5.7924
-11.084 -3.164 5.52291
-11.992 -3.3353 5.74687
-11.611 -4.342 5.8472
-10.836 -2.6804 4.88404
-9.89596 -3.4878 5.43602
-9.89095 -3.0826 4.88619
-8.82395 -3.5088 5.41356
-8.85795 -3.1352 4.87393
-8.86996 -2.9982 4.22556
-9.85195 -2.9483 4.21578
-10.756 -2.5673 4.19252
-7.77295 -3.2971 5.43599
-6.99095 -2.334 4.88395
-7.84995 -2.8991 4.88616
-7.08995 -2.237 4.19244
-7.91295 -2.7739 4.21576
-7.01395 -2.3914 3.48504
-6.70895 -2.9698 2.77024
-7.85695 -3.121 2.98917
-7.86895 -2.8768 3.5364
-8.85195 -3.2334 3.04191
-8.86595 -3.0553 3.57459
-9.85096 -3.2993 2.98916
-11.003 -3.3532 2.77019
-10.805 -2.7321 3.4851
-9.87795 -3.057 3.53641
-9.76995 -7.6053 3.3365
-10.02 -7.0404 2.76964
-9.19995 -6.8531 3.06508
-9.17795 -7.0841 3.57516
-8.54095 -6.7497 3.1775
-8.52796 -6.9091 3.72096
-8.52595 -6.9436 4.37171
-9.15395 -7.1702 4.21875
-9.72395 -7.7415 3.97747
-7.88295 -6.7119 3.19618
-7.06495 -6.7159 3.10323
-7.25895 -7.2574 4.04153
-7.87295 -6.9261 3.80925
-7.29395 -7.3822 4.78921
-7.88995 -7.0036 4.52519
-7.20595 -7.2661 5.43131
-7.79295 -6.4504 5.64471
-7.84495 -6.8578 5.16767
-8.57095 -6.4047 5.51382
-8.53895 -6.7896 5.00481
-9.33795 -6.6259 5.43345
-9.82895 -7.6378 4.64973
-9.22195 -7.0313 4.88013
-9.77096 -4.1919 5.75366
-9.59795 -5.0488 5.85422
-8.69595 -4.9532 5.86045
-8.76595 -4.161 5.7383
-9.45895 -5.9126 5.75281
-8.62696 -5.7468 5.79233
-7.78795 -5.7434 5.86431
-7.79295 -4.8822 5.88209
-7.77095 -4.0125 5.75365
-6.39295 -7.9275 6.31248
-5.86695 -7.8638 6.57624
-5.99995 -9.0013 6.80152
-5.57395 -8.9595 7.04773
-5.06795 -8.918 7.12721
-5.24695 -7.821 6.65775
-5.66395 -10.1049 7.33081
-5.37395 -11.2138 7.8368
-5.03395 -11.184 8.04443
-5.29495 -10.0725 7.55648
-4.62995 -11.1485 8.11251
-4.85595 -10.034 7.63048
-4.22795 -11.1133 8.04129
-3.89395 -11.0841 7.83104
-4.05595 -9.9639 7.32455
-4.41895 -9.9957 7.55307
-4.17495 -8.843 6.792
-4.57595 -8.8737 7.04225
-4.23195 -7.745 6.29444
-4.67595 -7.7661 6.56522
-6.46995 -7.9181 4.09229
-6.72995 -8.0249 4.61931
-6.04595 -9.0017 4.91617
-6.28195 -9.0433 5.35095
-6.34595 -9.0693 5.87761
-6.78195 -8.1117 5.2738
-5.69695 -10.1083 5.66549
-5.40395 -11.217 6.30463
-5.60095 -11.2341 6.65365
-5.91095 -10.127 6.04484
-5.65995 -11.2392 7.07177
-5.97495 -10.1325 6.4993
-5.58295 -11.2323 7.48937
-5.89195 -10.125 6.95319
-6.25495 -9.0466 6.3863
-6.68395 -8.0447 5.85826
-4.79795 -6.947 3.27212
-4.16495 -6.5481 3.24368
-4.23695 -7.7426 4.12797
-4.70695 -7.832 3.91504
-4.18395 -8.8434 4.92
-4.59995 -8.892 4.68652
-5.10695 -8.9487 4.61784
-5.30695 -7.9337 3.87667
-5.45095 -7.085 3.26592
-4.06595 -9.9652 5.65913
-3.90295 -11.0853 6.29878
-4.24595 -11.1155 6.09117
-4.43895 -9.998 5.43348
-4.65695 -11.1515 6.02312
-4.88495 -10.0372 5.35952
-5.06695 -11.1874 6.09436
-5.32995 -10.0762 5.43695
-5.62095 -8.9777 4.68309
-6.15795 -7.0379 3.23298
-5.94495 -7.9251 3.89025
-4.00095 -6.9615 5.39872
-3.99595 -7.8033 5.84118
-3.94195 -8.8424 6.37564
-3.86795 -8.8488 5.86932
-3.92895 -7.8485 5.26815
-3.95195 -7.0444 4.78393
-3.69395 -11.0666 7.48201
-3.83795 -9.9449 6.94518
-3.62795 -11.0609 7.06385
-3.76595 -9.9387 6.49069
-3.69695 -11.0671 6.64622
-3.84195 -9.9455 6.03677
-3.94495 -8.8391 5.34919
-3.99495 -6.9394 4.08217
-3.99395 -7.7882 4.63804
-10.605 -8.5947 4.66279
-10.297 -8.6637 4.16968
-10.927 -9.9134 4.01657
-10.662 -9.9136 3.58184
-10.566 -9.9203 3.05483
-10.189 -8.7155 3.55907
-11.199 -11.2132 3.42077
-11.43 -12.4291 2.94424
-11.21 -12.4091 2.58023
-10.963 -11.1916 3.02807
-11.13 -12.4019 2.14271
-10.876 -11.1838 2.55607
-11.191 -12.4076 1.70462
-11.398 -12.4266 1.33896
-11.165 -11.2105 1.68897
-10.942 -11.19 2.08346
-10.879 -9.902 2.10111
-10.634 -9.903 2.53265
-10.522 -8.5577 2.49499
-10.25 -8.6265 2.96967
-12.801 -8.7871 4.6316
-12.354 -8.7418 4.88005
-12.802 -10.0827 4.0036
-12.391 -10.0439 4.25419
-11.886 -10.0017 4.33532
-11.775 -8.7048 4.94918
-12.871 -11.366 3.41425
-12.98 -12.5708 2.9382
-12.629 -12.5387 3.15849
-12.494 -11.3314 3.6519
-12.208 -12.5002 3.2331
-12.039 -11.2899 3.73239
-11.786 -12.4615 3.16178
-11.583 -11.2482 3.65545
-11.366 -9.9505 4.26192
-11.145 -8.6321 4.89969
-13.082 -7.8223 3.36427
-12.935 -7.3851 2.83097
-12.788 -8.7789 2.50711
-13.034 -8.8668 2.97201
-12.791 -10.0803 2.09889
-13.036 -10.1191 2.52658
-13.115 -10.1436 3.04449
-13.097 -8.9424 3.54613
-13.121 -7.9385 3.96005
-12.861 -11.3656 1.68236
-12.97 -12.5703 1.33283
-13.186 -12.59 1.69685
-13.094 -11.3867 2.07507
-13.259 -12.5965 2.13441
-13.172 -11.3938 2.54711
-13.19 -12.5901 2.57252
-13.098 -11.3868 3.01975
-13.04 -10.1237 3.5686
-13.08 -7.8486 4.58899
-13.034 -8.8849 4.14314
-10.895 -7.5908 2.5221
-11.05 -8.6704 2.22854
-11.313 -9.9579 1.846
-11.841 -10.0249 1.76242
-11.692 -8.8043 2.14967
-11.597 -7.7802 2.45867
-11.751 -12.459 1.11866
-11.546 -11.2454 1.45132
-12.18 -12.4982 1.04401
-12.009 -11.2877 1.37079
-12.611 -12.5375 1.11531
-12.473 -11.3302 1.44771
-12.362 -10.0573 1.84545
-12.264 -7.7421 2.53795
-12.306 -8.7992 2.23777
-5.11895 -12.3034 8.25592
-4.79595 -12.275 8.45349
-4.90295 -13.3662 8.64072
-4.58595 -13.3244 8.842
-4.20695 -13.2802 8.90604
-4.41095 -12.2413 8.51826
-4.72895 -14.3951 9.04378
-4.60095 -15.4541 9.58689
-4.26595 -15.1422 9.81234
-4.41195 -14.311 9.26834
-3.88095 -15.034 9.87164
-4.02595 -14.2333 9.33414
-3.47695 -15.0729 9.80926
-3.06595 -15.3195 9.58091
-3.30095 -14.2698 9.03821
-3.62795 -14.2423 9.26528
-3.51095 -13.2442 8.6353
-3.82695 -13.2578 8.83905
-3.71095 -12.1799 8.25043
-4.02895 -12.2077 8.4505
-5.14795 -12.3064 6.79796
-5.33495 -12.3227 7.13007
-4.92795 -13.3576 7.16476
-5.11095 -13.3736 7.48983
-5.16595 -13.3807 7.88621
-5.39095 -12.3275 7.52794
-4.74295 -14.3517 7.42432
-4.59395 -15.2697 7.59595
-4.77795 -15.2857 7.92231
-4.92595 -14.3676 7.74867
-4.83995 -15.3066 8.36222
-4.98295 -14.3821 8.16499
-4.78795 -15.3487 8.89945
-4.91795 -14.405 8.63635
-5.09595 -13.3816 8.29598
-5.31795 -12.321 7.92531
-3.71895 -12.1811 6.79239
-4.04595 -12.2098 6.59483
-3.52895 -13.2349 7.15931
-3.84895 -13.263 6.96594
-4.23195 -13.2966 6.90256
-4.43695 -12.2441 6.53008
-3.34795 -14.2293 7.41888
-3.18995 -15.1466 7.59048
-3.51095 -15.1748 7.39634
-3.66695 -14.2573 7.22595
-3.89595 -15.2085 7.33271
-4.04895 -14.2909 7.16271
-4.27795 -15.242 7.39933
-4.42895 -14.3242 7.22892
-4.61295 -13.33 6.96891
-4.82695 -12.2782 6.59787
-3.51995 -12.1633 7.91831
-3.32795 -13.2265 8.28909
-3.27095 -13.2145 7.87882
-3.45695 -12.1579 7.5204
-2.93995 -15.1867 8.89225
-3.12695 -14.2479 8.62937
-2.91895 -15.1382 8.35473
-3.08495 -14.2156 8.1576
-2.99795 -15.1296 7.91537
-3.15695 -14.2124 7.74177
-3.33795 -13.218 7.48292
-3.52395 -12.1638 7.123
-11.626 -13.4962 2.65584
-11.417 -13.4772 2.31016
-11.78 -14.4476 2.56221
-11.579 -14.4282 2.20303
-11.507 -14.4161 1.778
-11.341 -13.4704 1.89468
-11.885 -15.3163 2.67002
-11.925 -16.1979 3.05945
-11.74 -16.082 2.33754
-11.69 -15.2941 2.24401
-11.689 -16.0397 1.78258
-11.624 -15.2657 1.75868
-11.752 -16.0329 1.33375
-11.938 -16.0501 1.0036
-11.869 -15.2808 0.999735
-11.682 -15.2636 1.33165
-11.754 -14.437 1.03034
-11.564 -14.4195 1.36715
-11.595 -13.4938 1.13142
-11.4 -13.4758 1.47866
-13.098 -13.6307 2.6501
-12.765 -13.6003 2.85929
-13.22 -14.5792 2.5566
-12.895 -14.5378 2.77242
-12.503 -14.4928 2.84488
-12.365 -13.5637 2.93015
-13.342 -15.4495 2.66434
-13.469 -16.339 3.05343
-13.09 -16.0671 3.35432
-13.015 -15.3727 2.91599
-12.691 -15.9683 3.43585
-12.615 -15.2997 2.99865
-12.294 -15.9944 3.35742
-12.216 -15.2996 2.91911
-12.11 -14.4659 2.77549
-11.964 -13.527 2.86242
-13.088 -13.6303 1.12559
-13.293 -13.649 1.47128
-13.202 -14.5694 1.0247
-13.401 -14.5875 1.35999
-13.469 -14.5955 1.77034
-13.363 -13.6552 1.8868
-13.297 -15.4113 0.994165
-13.358 -16.1798 0.998056
-13.553 -16.1975 1.32673
-13.492 -15.4291 1.3246
-13.631 -16.2172 1.77501
-13.565 -15.4431 1.75112
-13.606 -16.2525 2.33026
-13.52 -15.4614 2.23688
-13.41 -14.5956 2.19589
-13.297 -13.6491 2.30284
-11.931 -13.5246 0.922206
-12.08 -14.4668 0.827425
-12.475 -14.5029 0.758676
-12.338 -13.5618 0.851326
-12.258 -16.0793 0.804695
-12.191 -15.3102 0.799775
-12.645 -16.1147 0.737296
-12.58 -15.3458 0.732015
-13.033 -16.1502 0.801665
-12.97 -15.3815 0.796735
-12.871 -14.5392 0.824345
-12.747 -13.5992 0.919025
-3.91095 -16.7413 12.5071
-4.07995 -16.8021 12.3411
-4.13395 -17.0488 12.5081
-3.90095 -17.0711 12.8138
-4.17195 -17.3916 12.6318
-3.90695 -17.4188 12.9688
-3.60095 -17.4053 13.0806
-3.63295 -17.0474 12.916
-3.66395 -16.6984 12.5884
-4.18895 -17.746 12.6731
-4.19295 -18.0541 12.6732
-3.89595 -18.052 13.0206
-3.90295 -17.7613 13.0205
-3.54495 -18.0292 13.1354
-3.57095 -17.7456 13.1354
-3.19595 -17.9906 13.0179
-2.90295 -17.9409 12.6682
-2.96195 -17.6384 12.6683
-3.24095 -17.7032 13.018
-3.04095 -17.2924 12.6274
-3.29795 -17.3654 12.9664
-3.13895 -16.9615 12.5042
-3.23695 -16.7281 12.3378
-3.41395 -16.6977 12.5052
-3.36495 -17.0241 12.8117
-4.47995 -16.0927 7.69892
-4.66495 -16.1088 8.0265
-4.39595 -16.8062 7.75041
-4.58095 -16.8224 8.07859
-4.66095 -16.8395 8.52963
-4.73595 -16.1294 8.4758
-4.33695 -17.396 7.76757
-4.29595 -17.8475 7.76757
-4.48195 -17.8637 8.09596
-4.52195 -17.4121 8.09596
-4.56695 -17.875 8.54757
-4.60595 -17.4261 8.54757
-4.58395 -17.8884 9.1151
-4.56495 -17.9107 9.79121
-4.59295 -17.4854 9.79118
-4.61895 -17.4474 9.11508
-4.61895 -16.935 9.77335
-4.66295 -16.8704 9.09588
-4.62995 -16.2783 9.71996
-4.71095 -16.1707 9.03831
-3.07095 -15.9691 7.69343
-3.39295 -15.9974 7.49857
-2.98495 -16.6824 7.74491
-3.30695 -16.7108 7.54969
-3.69395 -16.7447 7.4857
-3.77895 -16.0312 7.4347
-2.92395 -17.2721 7.76207
-2.88395 -17.7236 7.76207
-3.20695 -17.752 7.56673
-3.24695 -17.3005 7.56673
-3.59295 -17.786 7.5027
-3.63395 -17.3344 7.5027
-3.97795 -17.8197 7.56974
-4.01895 -17.3681 7.56974
-4.07895 -16.7784 7.5527
-4.16295 -16.0649 7.50157
-2.82995 -16.1204 9.71294
-2.78995 -16.0022 9.03083
-2.69895 -16.7666 9.76587
-2.67895 -16.6964 9.08815
-2.69795 -16.6674 8.52198
-2.79195 -15.9589 8.46822
-2.61895 -17.3121 9.78348
-2.57095 -17.7358 9.78344
-2.56495 -17.7114 9.10723
-2.60795 -17.271 9.10725
-2.59395 -17.702 8.53989
-2.63495 -17.2533 8.53989
-2.68995 -17.7065 8.08898
-2.73095 -17.255 8.08898
-2.79095 -16.6653 8.07162
-2.87795 -15.952 8.01954
-11.789 -16.9116 3.14275
-11.721 -16.7987 2.38806
-11.702 -17.505 3.17545
-11.667 -17.4334 2.40983
-11.673 -17.4035 1.80111
-11.699 -16.7585 1.79552
-11.637 -18.0188 3.18638
-11.591 -18.4303 3.18642
-11.575 -18.4056 2.41711
-11.617 -17.9754 2.41709
-11.593 -18.3957 1.80298
-11.634 -17.9561 1.80298
-11.679 -18.3997 1.33584
-11.864 -18.4167 1.00746
-11.904 -17.9741 1.00746
-11.718 -17.9571 1.33584
-11.94 -17.4179 1.00707
-11.754 -17.4009 1.33563
-11.956 -16.7695 1.00591
-11.771 -16.7524 1.335
-12.924 -17.5577 6.53993
-13.093 -17.6071 6.32794
-13.147 -17.8349 6.53897
-12.916 -17.8632 6.9284
-13.186 -18.1472 6.69515
-12.923 -18.1774 7.12459
-12.621 -18.1647 7.26891
-12.65 -17.8428 7.06032
-12.679 -17.5201 6.64518
-13.205 -18.4678 6.74712
-13.211 -18.7495 6.74699
-12.917 -18.746 7.18985
-12.922 -18.4836 7.18992
-12.571 -18.7221 7.33844
-12.594 -18.4675 7.33844
-12.227 -18.6829 7.19254
-11.937 -18.633 6.75196
-11.994 -18.3571 6.75184
-12.269 -18.4239 7.19247
-12.069 -18.0451 6.69951
-12.322 -18.1224 7.12693
-12.163 -17.745 6.54281
-12.257 -17.5307 6.3312
-12.432 -17.5128 6.54185
-12.386 -17.8147 6.93047
-13.371 -16.8989 1.00039
-13.566 -16.9165 1.328
-13.352 -17.5471 1.00156
-13.546 -17.5647 1.32864
-13.637 -17.5831 1.79345
-13.651 -16.9369 1.78791
-13.316 -18.1032 1.00195
-13.276 -18.5458 1.00195
-13.47 -18.5634 1.32886
-13.509 -18.1208 1.32886
-13.565 -18.5759 1.7953
-13.603 -18.1362 1.7953
-13.591 -18.5899 2.40925
-13.579 -18.6121 3.17867
-13.607 -18.1989 3.17871
-13.626 -18.159 2.40926
-13.619 -17.6802 3.16798
-13.651 -17.6147 2.40209
-13.591 -17.0763 3.13572
-13.647 -16.9747 2.38055
-12.275 -16.7987 0.807645
-12.258 -17.4471 0.809125
-12.643 -17.4823 0.742045
-12.661 -16.834 0.740465
-12.182 -18.4458 0.809615
-12.221 -18.0032 0.809615
-12.567 -18.481 0.742575
-12.606 -18.0384 0.742575
-12.953 -18.5164 0.806606
-12.993 -18.0737 0.806606
-13.029 -17.5176 0.806105
-13.048 -16.8693 0.804626
-4.41095 -16.0119 10.5125
-4.14095 -15.7252 10.5538
-4.28495 -16.3671 11.3148
-4.03795 -16.1364 11.3356
-3.72995 -16.0439 11.3545
-3.78795 -15.6156 10.5876
-4.17495 -16.629 11.9563
-3.95895 -16.4524 12.0006
-3.69195 -16.3843 12.0447
-3.17395 -16.5413 11.9524
-3.41795 -16.405 11.9985
-3.12095 -16.265 11.3102
-3.40795 -16.0811 11.3332
-3.08695 -15.8958 10.5074
-3.41495 -15.6615 10.551
-4.54195 -17.9487 10.5686
-4.55895 -17.5496 10.5685
-4.48995 -17.9921 11.3637
-4.49495 -17.6247 11.3636
-4.47895 -17.19 11.3552
-4.56195 -17.0534 10.558
-4.38295 -18.0307 12.0931
-4.37895 -17.6953 12.093
-4.35595 -17.309 12.0702
-4.29795 -16.9341 12.0021
-4.42095 -16.7446 11.3301
-4.53195 -16.4978 10.5266
-2.82195 -18.346 10.5621
-3.13395 -18.3967 10.5633
-2.84495 -18.3491 11.3236
-3.14595 -18.3965 11.3361
-3.50895 -18.4354 11.3488
-3.50995 -18.4375 10.5648
-2.91295 -18.3521 11.952
-3.00395 -18.3539 12.3375
-3.20995 -18.382 12.505
-3.18295 -18.3936 11.9983
-3.51095 -18.4132 12.5884
-3.50895 -18.4282 12.0447
-3.81195 -18.4348 12.5073
-4.01995 -18.4429 12.3414
-4.10995 -18.4571 11.9567
-3.83695 -18.4508 12.0008
-4.17895 -18.4661 11.3288
-3.87395 -18.4604 11.3389
-4.20395 -18.4673 10.5675
-3.88795 -18.4629 10.5662
-2.86595 -16.3516 10.5201
-2.91695 -16.6127 11.3242
-2.77695 -17.0407 11.3485
-2.72495 -16.8923 10.5508
-2.99895 -16.8202 11.997
-2.87495 -17.1791 12.0644
-2.72095 -17.8849 12.0866
-2.78395 -17.5555 12.0868
-2.62195 -17.8282 11.3565
-2.68295 -17.4658 11.3566
-2.58095 -17.7767 10.5609
-2.63595 -17.3809 10.561
-13.373 -16.8439 4.08611
-13.085 -16.5833 4.1517
-13.285 -17.1821 5.04521
-13.034 -16.9703 5.07666
-12.724 -16.8837 5.10414
-12.723 -16.4822 4.20089
-13.187 -17.4378 5.83956
-12.972 -17.2776 5.89771
-12.706 -17.215 5.95602
-12.194 -17.347 5.84343
-12.435 -17.2285 5.8998
-12.126 -17.0762 5.04972
-12.406 -16.9129 5.07911
-12.05 -16.7229 4.09127
-12.358 -16.5168 4.15454
-13.56 -18.6491 4.11153
-13.575 -18.2654 4.11161
-13.508 -18.6911 5.09346
-13.511 -18.3429 5.09357
-13.492 -17.9387 5.08482
-13.57 -17.8 4.10455
-13.4 -18.7279 6.01007
-13.394 -18.4156 6.0102
-13.37 -18.0611 5.98179
-13.31 -17.717 5.89625
-13.427 -17.5284 5.05831
-13.519 -17.2878 4.08322
-11.841 -19.0957 4.11803
-12.151 -19.1585 4.11681
-11.868 -19.0852 5.05672
-12.167 -19.1429 5.06986
-12.529 -19.1861 5.08276
-12.527 -19.2044 4.11534
-11.939 -19.0746 5.84382
-12.032 -19.066 6.33154
-12.236 -19.0955 6.54206
-12.207 -19.1237 5.90003
-12.535 -19.1279 6.64518
-12.532 -19.1611 5.95602
-12.835 -19.1502 6.53972
-13.042 -19.1583 6.3276
-13.131 -19.1837 5.83917
-12.858 -19.1832 5.89749
-13.198 -19.2068 5.05154
-12.894 -19.2094 5.06703
-13.221 -19.2218 4.11265
-12.904 -19.2274 4.11387
-11.857 -17.1358 4.0897
-11.933 -17.3917 5.06414
-11.802 -17.7842 5.09141
-11.741 -17.6327 4.11169
-12.023 -17.5993 5.90127
-11.903 -17.927 5.98751
-11.755 -18.5775 6.01649
-11.816 -18.2713 6.01635
-11.655 -18.5216 5.10069
-11.713 -18.1786 5.10058
-11.609 -18.4707 4.11914
-11.662 -18.0905 4.11907
-10.682 -4.3506 2.66345
-10.231 -3.849 2.66338
-10.336 -4.4179 2.64123
-9.86195 -4.098 2.60481
-10.002 -4.5591 2.61081
-9.92595 -5.1043 2.62562
-10.171 -5.1303 2.64512
-10.435 -5.1582 2.65972
-9.63896 -4.2607 2.58109
-9.51396 -4.3612 2.57579
-9.63195 -4.6912 2.58773
-9.77595 -4.6437 2.59495
-9.59595 -5.0712 2.60205
-9.73395 -5.0848 2.61158
-9.44195 -5.4407 2.61638
-9.20595 -5.7389 2.62832
-9.28195 -5.86 2.64207
-9.55495 -5.5137 2.62821
-9.40795 -6.0616 2.6706
-9.71995 -5.6396 2.64606
-9.60695 -6.3789 2.72353
-10.21 -5.9805 2.68968
-9.94296 -5.8436 2.67152
-7.39095 -3.595 2.6634
-8.01095 -3.4191 2.71514
-7.72095 -3.9063 2.60482
-8.20695 -3.7068 2.61083
-8.81895 -3.6916 2.61684
-8.83595 -3.4592 2.7484
-7.91995 -4.1066 2.58109
-8.03195 -4.2285 2.57579
-8.37495 -4.0676 2.56862
-8.31695 -3.9198 2.57277
-8.79595 -4.0414 2.56624
-8.80595 -3.8894 2.57
-9.20496 -4.1419 2.56862
-9.28095 -4.0061 2.57277
-9.41895 -3.8154 2.61083
-9.65395 -3.566 2.71513
-7.03295 -5.679 2.77669
-7.56695 -6.1806 2.81062
-7.32795 -5.599 2.72957
-7.82095 -5.9155 2.69238
-7.58795 -5.4461 2.66058
-7.47895 -4.8845 2.62925
-7.22395 -4.8638 2.65963
-6.94895 -4.8422 2.68148
-7.98795 -5.7441 2.64208
-8.09095 -5.6391 2.62832
-7.91195 -5.3037 2.61638
-7.77995 -5.3547 2.62821
-7.82595 -4.9127 2.60205
-7.67995 -4.9008 2.61158
-7.85795 -4.5323 2.58773
-7.71695 -4.4592 2.59495
-7.50095 -4.3351 2.61081
-6.84695 -4.0087 2.6635
-7.18695 -4.1362 2.64123
-9.11996 -6.5571 2.80427
-9.01396 -6.2669 2.69771
-8.58595 -6.2959 2.71554
-8.56195 -6.5295 2.86634
-8.92395 -5.9054 2.63549
-8.95496 -6.0532 2.65039
-8.62595 -5.9425 2.63787
-8.60795 -6.0963 2.65316
-8.33795 -5.8529 2.63549
-8.27495 -5.9923 2.65039
-8.17095 -6.1888 2.71223
-8.01195 -6.4474 2.86233
-12.069 -3.2005 2.63496
-11.357 -3.975 2.64876
-11.966 -3.805 2.61737
-11.511 -4.3045 2.62296
-11.995 -4.1739 2.60686
-12.503 -4.2471 2.5988
-12.622 -3.9036 2.59988
-12.828 -3.3339 2.59873
-11.607 -4.4913 2.61713
-11.662 -4.5882 2.62062
-12.017 -4.4938 2.61177
-12.01 -4.384 2.60708
-12.386 -4.5459 2.60783
-12.429 -4.4432 2.6026
-12.711 -4.7156 2.60901
-12.935 -4.974 2.61557
-13.053 -4.9294 2.61139
-12.798 -4.6359 2.60395
-13.238 -4.8307 2.62677
-12.943 -4.4788 2.60885
-13.512 -4.6409 2.68289
-13.969 -4.2782 2.87745
-13.463 -3.6632 2.66402
-13.172 -4.1972 2.63564
-10.947 -4.4874 2.65473
-10.682 -5.1835 2.65908
-10.897 -5.2045 2.65274
-11.142 -4.6844 2.63707
-10.565 -6.5276 2.69553
-10.509 -5.905 2.68564
-10.857 -6.2373 2.68734
-10.783 -5.7557 2.67354
-11.051 -6.0678 2.68129
-11.173 -5.9763 2.67711
-11.109 -5.6268 2.66496
-10.978 -5.6709 2.66749
-11.184 -5.2293 2.64979
-11.064 -5.2194 2.65026
-11.377 -4.8583 2.63415
-11.282 -4.798 2.6325
-12.726 -6.823 2.71634
-12.196 -7.0723 2.65928
-12.601 -6.495 2.68782
-12.134 -6.6748 2.68181
-11.634 -6.6936 2.67456
-11.592 -7.1073 2.61552
-12.517 -6.2918 2.67554
-12.463 -6.1735 2.67205
-12.105 -6.2994 2.68091
-12.11 -6.4347 2.6856
-11.731 -6.3102 2.68485
-11.685 -6.447 2.69008
-11.4 -6.2033 2.68367
-11.309 -6.3256 2.68873
-11.175 -6.5488 2.68204
-10.987 -6.9271 2.64988
-13.738 -5.1653 2.81744
-13.54 -5.1901 2.69984
-13.307 -5.2647 2.64234
-13.199 -5.7252 2.6581
-13.368 -5.7837 2.70625
-13.516 -5.8315 2.80798
-13.002 -5.292 2.62772
-13.129 -5.2906 2.62519
-12.932 -5.6267 2.64289
-13.049 -5.6708 2.64242
-12.746 -5.9349 2.65853
-12.838 -6.0208 2.66018
-12.96 -6.1569 2.67659
-13.256 -6.4939 2.8302
-13.107 -6.3608 2.72187
-12.028 -4.6161 2.61544
-11.725 -4.6964 2.62296
-11.729 -4.6995 2.62151
-12.03 -4.6194 2.61401
-11.763 -4.7198 2.60258
-12.061 -4.6404 2.59514
-12.371 -4.6842 2.59182
-12.343 -4.6636 2.61067
-12.341 -4.6604 2.61208
-12.452 -4.7401 2.53876
-12.149 -4.6973 2.542
-11.857 -4.775 2.54929
-12.644 -4.8268 2.59282
-12.808 -5.0264 2.61723
-12.808 -5.0243 2.61866
-12.617 -4.8047 2.61309
-12.618 -4.8074 2.61167
-11.523 -4.9467 2.61394
-11.483 -4.926 2.63446
-11.487 -4.9283 2.63298
-12.865 -5.2948 2.62899
-12.865 -5.296 2.62752
-12.889 -5.3112 2.60853
-12.83 -5.5924 2.62128
-12.806 -5.5797 2.64039
-12.806 -5.5793 2.64189
-12.408 -6.0431 2.6651
-12.407 -6.0442 2.66669
-12.647 -5.8413 2.65518
-12.648 -5.8409 2.65364
-12.674 -5.8513 2.63442
-4.23295 -2.832 2.65526
-3.62195 -3.3271 2.84677
-4.01995 -3.7891 2.67011
-4.42995 -3.4186 2.63023
-4.26595 -4.0353 2.62423
-4.61095 -3.7473 2.60829
-5.07795 -3.6013 2.59939
-5.01895 -3.2329 2.59896
-4.91595 -2.6272 2.59669
-4.43795 -4.1716 2.61244
-4.55095 -4.2394 2.61681
-4.80695 -4.0337 2.61053
-4.73195 -3.9354 2.60522
-5.14195 -3.9288 2.60939
-5.11695 -3.815 2.60391
-5.49895 -3.9425 2.61317
-5.81895 -4.0923 2.62167
-5.89395 -4.0027 2.61801
-5.52695 -3.8306 2.60826
-6.02595 -3.8299 2.62359
-5.58095 -3.6193 2.60771
-6.24295 -3.5262 2.64912
-5.68595 -2.6322 2.63512
-5.67795 -3.2531 2.61786
-4.43295 -4.5283 2.62847
-4.30295 -4.5033 2.62582
-4.12295 -4.4433 2.63704
-4.14895 -4.9079 2.65599
-4.31295 -4.8799 2.64254
-4.44195 -4.8563 2.64303
-3.69595 -4.2496 2.75241
-3.89695 -4.3232 2.67702
-3.80495 -4.9579 2.76274
-3.96595 -4.9355 2.69753
-3.95995 -5.6593 2.88543
-4.42995 -6.048 2.86669
-4.12795 -5.5408 2.77817
-4.59695 -5.7525 2.72487
-4.30695 -5.3659 2.69041
-4.71495 -5.5645 2.67467
-4.79195 -5.4525 2.67102
-4.56595 -5.1791 2.65804
-4.45495 -5.2505 2.65977
-6.58395 -6.1377 2.82682
-6.11595 -6.4358 2.88586
-6.32495 -5.807 2.71951
-5.96695 -6.0483 2.74024
-5.49995 -6.1055 2.74875
-5.50295 -6.4953 2.91554
-6.15195 -5.6034 2.68025
-6.04395 -5.4864 2.67587
-5.79095 -5.6619 2.68216
-5.86095 -5.805 2.68747
-5.45995 -5.7065 2.6833
-5.48195 -5.8561 2.68878
-5.10895 -5.6325 2.67951
-5.07795 -5.7712 2.68443
-5.01895 -6.0029 2.74397
-4.91395 -6.3661 2.91081
-6.55195 -4.0989 2.65489
-6.31595 -4.2615 2.63737
-6.46195 -4.8065 2.65629
-6.68895 -4.8233 2.67355
-6.04195 -4.3959 2.63465
-6.15095 -4.3513 2.63291
-6.15995 -4.779 2.64965
-6.28595 -4.7912 2.65014
-6.16395 -5.1673 2.66421
-6.28995 -5.237 2.66686
-6.47795 -5.3574 2.68759
-6.73695 -5.5516 2.74345
-3.36095 -2.8291 4.85526
-3.52495 -3.684 5.34273
-3.40295 -3.3915 4.83303
-3.47895 -3.9417 5.24777
-3.40895 -3.6962 4.78264
-3.38095 -3.6327 4.22962
-3.34695 -3.3254 4.21254
-3.27695 -2.7756 4.18706
-3.47295 -4.0729 5.16909
-3.48795 -4.1415 5.09805
-3.44195 -3.941 4.70529
-3.42395 -3.8548 4.74173
-3.42595 -3.8864 4.24253
-3.40595 -3.7954 4.23819
-3.43895 -3.9729 3.78634
-3.48295 -4.1957 3.41329
-3.46795 -4.1319 3.33588
-3.42095 -3.8895 3.74179
-3.46595 -4.0145 3.23815
-3.40395 -3.7397 3.68182
-3.48995 -3.789 3.0987
-3.34695 -2.9091 3.5116
-3.39195 -3.4562 3.59035
-3.96795 -6.1398 5.54426
-3.92295 -5.5856 5.73929
-3.86995 -5.9064 5.3603
-3.79495 -5.4577 5.59248
-3.69495 -4.9179 5.64382
-3.82695 -4.9095 5.74909
-3.82795 -5.7823 5.24774
-3.81395 -5.7124 5.17032
-3.73995 -5.3517 5.38363
-3.74795 -5.3899 5.47985
-3.65095 -4.9206 5.4405
-3.65095 -4.9207 5.54173
-3.56195 -4.4926 5.34421
-3.55395 -4.455 5.43695
-3.58195 -4.3808 5.53188
-3.67995 -4.2329 5.63249
-3.94195 -6.1303 3.29712
-3.95495 -6.4395 3.86041
-3.86195 -5.918 3.3499
-3.90395 -6.1731 3.82843
-3.91395 -6.2568 4.38959
-3.93995 -6.5431 4.51341
-3.82595 -5.8 3.41452
-3.81195 -5.7287 3.48557
-3.85695 -5.9355 3.87833
-3.87495 -6.0251 3.84189
-3.87195 -6.0028 4.34109
-3.89195 -6.0982 4.34543
-3.85795 -5.9289 4.79728
-3.87595 -6.0179 4.84183
-3.90595 -6.1704 4.92977
-3.95895 -6.4511 5.10516
-3.59395 -4.3291 2.86981
-3.55595 -4.4542 2.99751
-3.66195 -4.9744 2.94297
-3.70895 -4.9701 2.84724
-3.55695 -4.55 3.19998
-3.54895 -4.5175 3.10377
-3.64695 -4.9686 3.14311
-3.64695 -4.9729 3.04189
-3.73695 -5.384 3.23941
-3.74395 -5.4249 3.14666
-3.77295 -5.4904 3.05759
-3.84295 -5.6055 2.97454
-14.299 -3.9471 3.5358
-13.988 -4.8192 3.21029
-14.13 -4.5418 3.65355
-13.944 -5.107 3.42917
-14.035 -4.8951 3.79148
-14.07 -4.813 4.24031
-14.191 -4.4364 4.21869
-14.387 -3.8396 4.18945
-13.898 -5.2755 3.59553
-13.856 -5.3711 3.71866
-13.91 -5.2331 3.96203
-13.963 -5.1078 3.89119
-13.929 -5.1791 4.25966
-13.986 -5.0423 4.25275
-13.912 -5.2123 4.56157
-13.86 -5.3357 4.8178
-13.902 -5.2325 4.93081
-13.965 -5.0826 4.61952
-13.942 -5.0458 5.07156
-14.037 -4.8589 4.69253
-13.969 -4.7203 5.23671
-14.297 -3.8714 4.83309
-14.129 -4.4828 4.7797
-13.222 -6.8896 3.23699
-13.386 -6.4177 3.03574
-13.35 -6.6022 3.48458
-13.482 -6.2646 3.26831
-13.646 -5.8588 3.19056
-13.604 -5.8537 2.98443
-13.425 -6.4248 3.65281
-13.467 -6.3172 3.76582
-13.556 -6.1045 3.60522
-13.532 -6.1665 3.45771
-13.662 -5.8483 3.54239
-13.661 -5.8552 3.38139
-13.768 -5.59 3.57949
-13.79 -5.5414 3.42646
-13.807 -5.4506 3.23653
-13.808 -5.2887 3.01493
-13.202 -6.9016 5.21743
-13.177 -7.1928 4.75178
-13.346 -6.5943 5.11547
-13.285 -6.8054 4.74757
-13.269 -6.8744 4.30066
-13.187 -7.2798 4.1943
-13.426 -6.4119 4.98809
-13.468 -6.3066 4.86496
-13.415 -6.4404 4.62158
-13.361 -6.5745 4.69243
-13.397 -6.4861 4.32396
-13.34 -6.6301 4.33087
-13.415 -6.4447 4.02205
-13.361 -6.5798 3.9641
-13.285 -6.8061 3.85418
-13.179 -7.1779 3.65628
-13.737 -5.1882 5.48986
-13.793 -5.3867 5.3008
-13.623 -5.8081 5.384
-13.497 -5.7805 5.563
-13.771 -5.5525 4.9784
-13.794 -5.4959 5.12591
-13.664 -5.817 5.04122
-13.664 -5.8171 5.20223
-13.558 -6.0835 5.00412
-13.535 -6.141 5.15716
-13.466 -6.2362 5.32492
-13.314 -6.3912 5.48002
-13.802 -5.5039 4.1149
-13.773 -5.5779 3.98434
-13.778 -5.5808 3.98739
-13.807 -5.5076 4.11666
-13.788 -5.5829 3.98891
-13.816 -5.51 4.11753
-13.826 -5.4815 4.27482
-13.817 -5.4789 4.27473
-13.812 -5.475 4.27456
-13.803 -5.5847 3.98942
-13.853 -5.5139 4.11782
-13.831 -5.5119 4.11783
-13.863 -5.4854 4.27485
-13.841 -5.4834 4.27485
-13.854 -5.5029 4.43413
-13.805 -5.566 4.56932
-13.832 -5.5009 4.43413
-13.789 -5.5642 4.56978
-13.817 -5.499 4.43437
-13.78 -5.5621 4.57118
-13.775 -5.559 4.57398
-13.803 -5.4928 4.43652
-13.808 -5.4965 4.43509
-13.728 -5.6753 4.66013
-13.733 -5.6772 4.65648
-13.743 -5.6788 4.65466
-13.676 -5.8177 4.68985
-13.67 -5.8171 4.69383
-13.613 -5.9601 4.67393
-2.53995 -18.0163 9.78342
-2.54495 -18.0387 10.5609
-2.58195 -18.0682 11.3564
-2.58795 -18.2152 11.3508
-2.55495 -18.1994 10.561
-2.55195 -18.1881 9.78353
-2.86395 -18.1412 12.6681
-2.67795 -18.103 12.0866
-2.86295 -18.2622 12.627
-2.68095 -18.2358 12.064
-2.91795 -18.3267 12.5038
-2.75295 -18.3092 11.9966
-2.66695 -18.2988 11.3342
-2.63695 -18.2857 9.78389
-2.63795 -18.291 10.5613
-2.53595 -18.003 9.10722
-2.55095 -18.1815 9.10734
-2.58195 -18.1805 8.54319
-2.56695 -17.9992 8.53989
-2.63695 -18.2826 9.10771
-2.66595 -18.2819 8.55311
-2.92395 -18.2956 7.85526
-2.75295 -18.284 8.14039
-2.86395 -18.2022 7.78537
-2.67595 -18.1865 8.10183
-2.85695 -18.0226 7.76207
-2.66295 -18.0055 8.08898
-3.17995 -18.051 7.56673
-3.17595 -18.2306 7.5959
-3.54995 -18.2642 7.53365
-3.56695 -18.085 7.5027
-3.20495 -18.3238 7.68342
-3.54095 -18.3567 7.62648
-4.15295 -18.4034 7.86005
-3.87595 -18.3826 7.68604
-4.22995 -18.3221 7.79069
-3.92295 -18.296 7.59881
-4.26995 -18.1465 7.76757
-3.95195 -18.1187 7.56974
-4.45495 -18.1627 8.09596
-4.40995 -18.3386 8.10859
-4.49395 -18.3483 8.55064
-4.54095 -18.1723 8.54758
-4.31595 -18.4211 8.14648
-4.39295 -18.4334 8.55984
-4.40195 -18.4405 9.79077
-4.41095 -18.4382 9.11462
-4.50295 -18.3592 9.79113
-4.51395 -18.3537 9.11499
-4.54595 -18.1923 9.79124
-4.55995 -18.1804 9.11511
-4.53095 -18.2129 10.5686
-4.49295 -18.3693 10.5685
-4.45495 -18.3789 11.3581
-4.48695 -18.2353 11.3638
-4.39495 -18.4451 10.5682
-4.36195 -18.4474 11.3408
-4.10995 -18.4312 12.5085
-4.27595 -18.4428 12.0025
-4.17595 -18.3773 12.6321
-4.35895 -18.3829 12.0706
-4.19595 -18.2581 12.6733
-4.38495 -18.2527 12.0932
-3.89095 -18.2445 13.0207
-3.87595 -18.3582 12.969
-3.51795 -18.3297 13.0806
-3.52795 -18.217 13.1354
-3.83795 -18.4128 12.814
-3.51295 -18.3877 12.916
-3.18895 -18.356 12.8115
-3.16095 -18.2955 12.9662
-3.16595 -18.1809 13.0178
-11.559 -18.7165 3.18645
-11.572 -18.7353 4.11919
-11.614 -18.7602 5.10076
-11.618 -18.9179 5.09354
-11.579 -18.9102 4.1191
-11.569 -18.9055 3.18634
-11.898 -18.825 6.75205
-11.713 -18.7904 6.01658
-11.895 -18.9504 6.69987
-11.713 -18.9304 5.98789
-11.948 -19.027 6.54319
-11.781 -19.0177 5.90171
-11.694 -19.0182 5.07174
-11.652 -19.0254 3.18598
-11.66 -19.0216 4.11875
-11.546 -18.7048 2.41712
-11.558 -18.9023 2.417
-11.578 -18.9024 1.80605
-11.565 -18.7014 1.80299
-11.642 -19.0272 2.41663
-11.661 -19.0278 1.81525
-11.902 -19.0376 1.09993
-11.738 -19.0277 1.38636
-11.842 -18.9231 1.03057
-11.662 -18.9079 1.34847
-11.836 -18.7246 1.00746
-11.651 -18.7076 1.33584
-12.154 -18.7537 0.809615
-12.149 -18.9526 0.838686
-12.522 -18.9879 0.773525
-12.539 -18.7889 0.742575
-12.178 -19.0681 0.925915
-12.512 -19.1038 0.866355
-13.131 -19.1499 1.09514
-12.849 -19.1293 0.923295
-13.208 -19.048 1.02524
-12.896 -19.0208 0.835775
-13.248 -18.8537 1.00195
-12.926 -18.8243 0.806606
-13.442 -18.8713 1.32886
-13.396 -19.0664 1.34171
-13.49 -19.0772 1.7986
-13.538 -18.8817 1.7953
-13.301 -19.1705 1.38027
-13.386 -19.1856 1.80852
-13.414 -19.1865 3.17911
-13.415 -19.1893 2.40972
-13.516 -19.0835 3.17875
-13.519 -19.0816 2.40935
-13.56 -18.8995 3.17864
-13.567 -18.8896 2.40924
-13.549 -18.916 4.11149
-13.511 -19.0867 4.11157
-13.474 -19.0877 5.0863
-13.506 -18.9332 5.09338
-13.412 -19.1818 4.11192
-13.382 -19.1726 5.06515
-13.131 -19.1352 6.53858
-13.296 -19.1562 5.8958
-13.197 -19.0695 6.69479
-13.379 -19.0827 5.9814
-13.216 -18.9455 6.74691
-13.404 -18.9451 6.00998
-12.914 -18.9285 7.1898
-12.9 -19.0456 7.12438
-12.545 -19.0149 7.26891
-12.556 -18.8992 7.33844
-12.861 -19.112 6.92818
-12.539 -19.0851 7.06032
-12.217 -19.0531 6.93069
-12.191 -18.9809 7.12714
-12.198 -18.863 7.19259
-3.50195 -4.211 5.02599
-3.46095 -4.0284 4.66834
-3.51595 -4.2771 4.95751
-3.47895 -4.1115 4.63322
-3.46495 -4.0664 4.25112
-3.44595 -3.9787 4.24693
-3.52895 -4.3352 4.89722
-3.53795 -4.3811 4.84968
-3.50695 -4.2424 4.57792
-3.49395 -4.1847 4.6023
-3.49495 -4.2046 4.25771
-3.48195 -4.1437 4.2548
-3.50495 -4.2644 3.94205
-3.53495 -4.4186 3.68393
-3.52495 -4.3759 3.63213
-3.49195 -4.2086 3.91225
-3.51195 -4.3218 3.56643
-3.47595 -4.1378 3.87444
-3.49795 -4.2603 3.49181
-3.45795 -4.0575 3.83151
-3.56595 -4.5831 3.29756
-3.57395 -4.6144 3.39029
-3.64795 -4.96 3.34334
-3.64695 -4.9642 3.24578
-3.58595 -4.6638 3.53633
-3.58095 -4.642 3.47196
-3.64795 -4.9534 3.49698
-3.64795 -4.9563 3.42925
-3.71095 -5.2408 3.56361
-3.76295 -5.4794 3.73394
-3.77195 -5.5271 3.68641
-3.71595 -5.2682 3.50156
-3.78395 -5.5876 3.62611
-3.72195 -5.303 3.42284
-3.79795 -5.6564 3.55763
-3.72895 -5.3424 3.33346
-3.83895 -5.8447 3.91528
-3.82095 -5.7584 3.9504
-3.83395 -5.8139 4.3325
-3.85295 -5.9059 4.33669
-3.79395 -5.6225 4.0057
-3.80595 -5.6824 3.98133
-3.80395 -5.669 4.32591
-3.81695 -5.7329 4.32881
-3.79395 -5.6179 4.64157
-3.76395 -5.4681 4.89969
-3.77295 -5.5149 4.95149
-3.80595 -5.6774 4.67137
-3.78495 -5.5742 5.01719
-3.82195 -5.7529 4.70918
-3.79895 -5.6416 5.09181
-3.83895 -5.8387 4.75211
-3.73195 -5.3131 5.28605
-3.72395 -5.2764 5.19332
-3.65095 -4.9203 5.24028
-3.65095 -4.9204 5.33784
-3.71295 -5.2185 5.04729
-3.71795 -5.244 5.11166
-3.65095 -4.9202 5.08664
-3.65095 -4.9202 5.15437
-3.58995 -4.624 5.02001
-3.58395 -4.5989 5.08206
-3.57795 -4.5669 5.16077
-3.56995 -4.5307 5.25015
-13.829 -5.4105 4.73591
-13.754 -5.5935 4.87151
-13.808 -5.4624 4.67909
-13.743 -5.622 4.79734
-13.664 -5.8168 4.84359
-13.664 -5.8168 4.92455
-13.794 -5.4969 4.6413
-13.785 -5.5196 4.61649
-13.73 -5.6534 4.71562
-13.735 -5.641 4.74801
-13.664 -5.8167 4.7544
-13.664 -5.8167 4.78975
-13.598 -5.9812 4.7315
-13.543 -6.1189 4.6456
-13.534 -6.142 4.67263
-13.593 -5.9938 4.7651
-13.52 -6.1772 4.71381
-13.586 -6.013 4.81628
-13.499 -6.2302 4.77573
-13.574 -6.0419 4.89323
-13.454 -6.3432 4.57024
-13.481 -6.2758 4.53462
-13.468 -6.3095 4.31548
-13.439 -6.3818 4.31896
-13.51 -6.2015 4.49537
-13.499 -6.2309 4.51092
-13.499 -6.2297 4.31166
-13.487 -6.2613 4.31317
-13.51 -6.2041 4.1253
-13.543 -6.1254 3.96713
-13.534 -6.1491 3.94232
-13.498 -6.2338 4.11257
-13.519 -6.1851 3.90453
-13.48 -6.279 4.09319
-13.498 -6.2392 3.84771
-13.453 -6.3469 4.06405
-13.573 -6.0596 3.71211
-13.584 -6.0285 3.78628
-13.662 -5.8398 3.74003
-13.662 -5.8433 3.65907
-13.597 -5.9942 3.868
-13.592 -6.0078 3.83561
-13.663 -5.836 3.82922
-13.663 -5.8375 3.79387
-13.728 -5.6766 3.85212
-13.783 -5.5414 3.93802
-13.792 -5.5204 3.91099
-13.733 -5.6659 3.81852
-13.806 -5.4885 3.86981
-13.74 -5.6496 3.76734
-13.827 -5.4404 3.80789
-13.752 -5.6252 3.69039
-13.872 -5.3239 4.01338
-13.845 -5.3869 4.049
-13.859 -5.3471 4.26814
-13.888 -5.2783 4.26466
-13.816 -5.4563 4.08825
-13.828 -5.4288 4.0727
-13.828 -5.4229 4.27196
-13.84 -5.3929 4.27045
-13.817 -5.4434 4.45832
-13.829 -5.4149 4.47105
-13.847 -5.3716 4.49043
-13.874 -5.3063 4.51957
-12.873 -0.00530159 5.22135
-12.568 0.0843984 4.70637
-12.458 -0.983002 5.27754
-12.15 -0.871002 4.75697
-12.039 -0.842302 4.12605
-12.454 0.0992984 4.08738
-11.899 -2.047 5.36592
-11.581 -1.8679 4.82858
-11.479 -1.7982 4.16185
-11.847 -2.1363 2.9351
-11.546 -1.9311 3.48388
-12.406 -1.0639 2.96654
-12.118 -0.918202 3.49173
-12.82 -0.0834016 2.95028
-12.537 0.0424984 3.46761
-13.307 -0.275402 2.63861
-12.921 -1.2447 2.66301
-13.543 -1.4545 2.56687
-13.899 -0.496702 2.53301
-12.448 -2.2834 2.65598
-13.16 -2.4589 2.58825
-14.295 -2.9882 2.96041
-13.797 -2.7491 2.67368
-14.646 -1.874 2.96636
-14.148 -1.6873 2.66388
-14.991 -0.879502 2.94161
-14.494 -0.710402 2.63388
-15.291 -0.967302 3.45661
-14.945 -1.9453 3.48667
-15.047 -1.9385 4.11531
-15.394 -0.978502 4.07564
-14.592 -3.0101 3.49662
-14.692 -2.9496 4.15412
-14.299 -2.8909 5.33638
-14.595 -2.9415 4.80475
-14.663 -1.7825 5.26375
-14.953 -1.891 4.74283
-15.013 -0.790002 5.2128
-15.301 -0.917802 4.69545
-14.531 -0.599902 5.52444
-14.176 -1.5929 5.5726
-13.583 -1.369 5.67607
-13.95 -0.382402 5.63001
-13.798 -2.7031 5.63688
-13.167 -2.4598 5.73405
-12.481 -2.2427 5.65574
-12.973 -1.1574 5.58081
-13.365 -0.172602 5.5291
-5.46095 0.667298 5.22098
-4.94695 0.590298 5.52873
-5.69595 -0.370602 5.27726
-5.15895 -0.450702 5.58053
-4.52095 -0.550102 5.67627
-4.33495 0.487598 5.62964
-6.05795 -1.5196 5.36575
-5.44995 -1.6087 5.65556
-4.73595 -1.6985 5.73584
-3.54295 -1.9083 5.34783
-4.07095 -1.8202 5.64457
-3.38295 -0.761602 5.26637
-3.89695 -0.663602 5.57429
-3.21595 0.275498 5.21243
-3.72395 0.376898 5.52408
-2.90995 0.200998 4.69508
-3.07795 -0.814902 4.74433
-2.97695 -0.844202 4.11487
-2.80695 0.157798 4.07527
-3.23995 -1.8976 4.81171
-3.14295 -1.8852 4.15332
-3.53095 -2.0099 2.95118
-3.23195 -1.9688 3.48978
-3.38395 -0.856002 2.96381
-3.07695 -0.870502 3.48472
-3.22095 0.183498 2.94124
-2.91095 0.150398 3.45624
-3.74095 0.261598 2.63351
-3.90795 -0.762502 2.66213
-4.54495 -0.642002 2.56624
-4.36395 0.366098 2.53264
-4.06495 -1.8702 2.66764
-4.74395 -1.7017 2.58669
-6.09295 -1.6179 2.93498
-5.47595 -1.6566 2.65589
-5.73395 -0.459802 2.96627
-5.19395 -0.546202 2.66274
-5.49995 0.581098 2.94991
-4.98595 0.478798 2.63825
-5.79995 0.654698 3.46725
-6.04195 -0.367302 3.49145
-6.13295 -0.306502 4.12577
-5.89195 0.695998 4.08701
-6.42595 -1.4688 3.48372
-6.51495 -1.3494 4.16167
-6.40195 -1.3998 4.8284
-6.01895 -0.315102 4.75669
-5.77695 0.701398 4.706
-9.36795 -4.4782 2.56615
-9.37095 -4.4761 2.56799
-9.11895 -4.2971 2.56215
-9.46695 -4.7454 2.57774
-9.46395 -4.7464 2.57585
-9.43395 -5.0553 2.5875
-9.43695 -5.0556 2.58943
-9.31096 -5.3572 2.60113
-8.10295 -4.3046 2.57248
-8.41095 -4.1598 2.56603
-8.43095 -4.2098 2.56445
-8.78595 -4.1877 2.56244
-8.78996 -4.1363 2.56388
-8.78496 -4.2094 2.56138
-9.37495 -4.4724 2.56923
-9.12095 -4.2921 2.56334
-9.39295 -4.458 2.57051
-9.13195 -4.2727 2.56445
-9.43596 -4.424 2.57248
-9.15795 -4.2267 2.56603
-9.54195 -4.7208 2.58322
-9.49295 -4.7369 2.5806
-9.46196 -5.0581 2.59271
-9.50896 -5.0627 2.59611
-9.47195 -4.7437 2.57905
-9.44195 -5.0561 2.59083
-9.12195 -5.6051 2.61242
-9.31595 -5.3599 2.60261
-9.13295 -5.6224 2.61491
-9.33195 -5.3703 2.60482
-9.15795 -5.6634 2.61974
-9.37095 -5.3951 2.609
-8.90495 -5.8131 2.62618
-8.89495 -5.7631 2.62096
-8.64195 -5.7944 2.62298
-8.63595 -5.8465 2.62833
-8.64495 -5.7725 2.62028
-8.41095 -5.6937 2.61672
-8.20496 -5.523 2.61242
-8.40895 -5.6988 2.61832
-8.19095 -5.538 2.61491
-8.39995 -5.7187 2.62096
-8.15595 -5.5736 2.61974
-8.37795 -5.7659 2.62618
-7.99395 -5.2718 2.609
-8.03895 -5.2545 2.60482
-7.91695 -4.9201 2.59611
-7.94595 -4.5778 2.58322
-7.99295 -4.6026 2.5806
-4.61895 -4.2805 2.61946
-4.85195 -4.0932 2.61374
-4.65395 -4.3015 2.62069
-4.87495 -4.1237 2.61526
-5.16495 -4.033 2.61427
-5.15795 -3.9978 2.6127
-5.16795 -4.0459 2.61451
-5.47395 -4.0448 2.61754
-5.77295 -4.1466 2.62388
-5.48295 -4.0102 2.61615
-5.97695 -4.423 2.6357
-5.94295 -4.4369 2.63611
-6.04595 -4.7681 2.64908
-6.08395 -4.7717 2.64935
-5.97795 -5.4156 2.67322
-6.08795 -5.1251 2.66261
-6.04895 -5.1037 2.66167
-5.74795 -5.5754 2.67894
-5.72595 -5.5314 2.67719
-5.44695 -5.6159 2.67998
-4.83795 -5.3848 2.6688
-4.51195 -4.5435 2.63007
-4.51995 -4.842 2.64333
-4.55995 -4.8348 2.64336
-4.55195 -4.5513 2.63077
-4.63295 -5.1358 2.65699
-4.66695 -5.1139 2.65633
-4.57395 -4.8327 2.64305
-12.863 -5.0015 2.61814
-12.924 -5.2929 2.62927
-12.825 -5.0162 2.61936
-12.883 -5.2935 2.62995
-12.822 -5.5853 2.64318
-12.86 -5.5996 2.64318
-12.81 -5.0224 2.61945
-12.867 -5.294 2.62983
-12.807 -5.5799 2.64279
-12.407 -6.0468 2.66769
-12.648 -5.8431 2.65614
-12.413 -6.062 2.66861
-12.659 -5.854 2.65681
-12.43 -6.1005 2.6699
-12.689 -5.8819 2.65751
-12.102 -6.2159 2.67801
-12.101 -6.1717 2.67632
-11.774 -6.1811 2.67977
-11.759 -6.2258 2.68163
-11.781 -6.1635 2.67863
-11.305 -5.8784 2.67201
-11.288 -5.8901 2.67302
-11.486 -6.0879 2.67873
-11.499 -6.0723 2.67761
-11.248 -5.9199 2.67454
-11.456 -6.1278 2.68054
-11.696 -4.648 2.62278
-11.435 -4.8954 2.63517
-11.259 -5.2354 2.6495
-11.466 -4.9153 2.63556
-11.714 -4.6799 2.62377
-11.189 -5.5996 2.6634
-11.232 -5.5854 2.66243
-11.722 -4.6929 2.62377
-11.479 -4.9235 2.63533
-12.022 -4.5615 2.61467
-12.024 -4.5975 2.61605
-12.346 -4.6429 2.61261
-12.359 -4.6092 2.61105
-12.026 -4.6122 2.61621
-12.341 -4.6567 2.61284
-12.618 -4.8017 2.61385
-12.629 -4.7909 2.61364
-12.657 -4.7647 2.61214
-13.894 -5.4881 4.27485
-13.776 -5.5565 3.95749
-13.808 -5.4761 4.09945
-13.773 -5.5669 3.97078
-13.803 -5.4896 4.1071
-13.813 -5.4594 4.2738
-13.819 -5.4446 4.27305
-13.772 -5.5737 3.97927
-13.801 -5.4984 4.11198
-13.811 -5.469 4.27428
-13.773 -5.5544 4.57864
-13.802 -5.4871 4.43891
-13.774 -5.5471 4.58643
-13.804 -5.478 4.4429
-13.778 -5.5359 4.59862
-13.809 -5.4639 4.44916
-13.727 -5.6624 4.6923
-13.725 -5.6685 4.67638
-13.665 -5.8167 4.71157
-13.664 -5.8166 4.72894
-13.725 -5.6726 4.66621
-13.667 -5.8168 4.70047
-13.605 -5.966 4.69079
-13.609 -5.9622 4.68024
-13.55 -6.1022 4.62613
-13.602 -5.9721 4.7073
-13.519 -6.1803 4.48417
-13.525 -6.1659 4.47652
-13.515 -6.1915 4.30982
-13.508 -6.207 4.31056
-13.521 -6.1817 4.30934
-13.536 -6.1539 4.1471
-13.559 -6.0896 4.00498
-13.531 -6.1591 4.14471
-13.555 -6.0968 3.99719
-13.525 -6.1683 4.14071
-13.55 -6.1084 3.985
-13.519 -6.1828 4.13446
-13.601 -5.9844 3.89132
-13.604 -5.9777 3.90724
-13.663 -5.8349 3.85467
-13.725 -5.6842 3.87632
-13.723 -5.6895 3.89283
-3.54095 -4.4457 3.71681
-3.64795 -4.9516 3.53997
-3.75695 -5.4491 3.76412
-3.70695 -5.2234 3.603
-3.70495 -5.2138 3.62506
-3.75295 -5.4322 3.78102
-3.78595 -5.5844 4.02118
-3.78095 -5.5632 4.02985
-3.79595 -5.6284 4.32406
-3.75695 -5.4384 4.86681
-3.78595 -5.5801 4.62265
-3.78195 -5.5591 4.61206
-3.70895 -5.2023 5.00643
-3.70695 -5.1934 4.98354
-3.65095 -4.9201 5.04365
-3.54395 -4.4102 4.8195
-3.59295 -4.64 4.98062
-3.59395 -4.6491 4.95856
-3.51395 -4.279 4.56244
-3.51795 -4.2996 4.55377
-3.50395 -4.2433 4.25956
3 0 1 2
3 0 2 3
3 2 4 5
3 2 5 3
3 5 6 7
3 5 7 3
3 7 8 0
3 7 0 3
3 9 10 11
3 9 11 12
3 11 13 14
3 11 14 12
3 14 6 5
3 14 5 12
3 5 4 9
3 5 9 12
3 15 16 17
3 15 17 18
3 17 19 20
3 17 20 18
3 20 6 14
3 20 14 18
3 14 13 15
3 14 15 18
3 21 22 23
3 21 23 24
3 23 8 7
3 23 7 24
3 7 6 20
3 7 20 24
3 20 19 21
3 20 21 24
3 25 26 27
3 25 27 28
3 27 29 30
3 27 30 28
3 30 31 32
3 30 32 28
3 32 33 25
3 32 25 28
3 34 35 36
3 34 36 37
3 36 38 39
3 36 39 37
3 39 31 30
3 39 30 37
3 30 29 34
3 30 34 37
3 40 41 42
3 40 42 43
3 42 44 45
3 42 45 43
3 45 31 39
3 45 39 43
3 39 38 40
3 39 40 43
3 46 47 48
3 46 48 49
3 48 33 32
3 48 32 49
3 32 31 45
3 32 45 49
3 45 44 46
3 45 46 49
3 50 51 52
3 51 53 54
3 51 54 52
3 54 55 56
3 54 56 52
3 56 50 52
3 57 58 59
3 57 59 60
3 59 61 62
3 59 62 60
3 62 55 54
3 62 54 60
3 54 53 57
3 54 57 60
3 63 64 65
3 63 65 66
3 65 67 68
3 65 68 66
3 68 55 62
3 68 62 66
3 62 61 63
3 62 63 66
3 56 55 68
3 56 68 69
3 68 67 70
3 68 70 69
3 71 72 73
3 72 74 75
3 72 75 73
3 75 76 77
3 75 77 73
3 77 71 73
3 78 79 80
3 78 80 81
3 80 82 83
3 80 83 81
3 83 76 75
3 83 75 81
3 75 74 78
3 75 78 81
3 84 58 57
3 84 57 85
3 57 53 86
3 57 86 85
3 86 76 83
3 86 83 85
3 83 82 84
3 83 84 85
3 77 76 86
3 77 86 87
3 86 53 51
3 86 51 87
3 88 89 90
3 88 90 91
3 90 92 93
3 90 93 91
3 93 94 95
3 93 95 91
3 95 88 91
3 96 97 98
3 96 98 99
3 98 100 101
3 98 101 99
3 101 94 93
3 101 93 99
3 93 92 96
3 93 96 99
3 102 79 78
3 102 78 103
3 78 74 104
3 78 104 103
3 104 94 101
3 104 101 103
3 101 100 102
3 101 102 103
3 72 105 106
3 105 95 106
3 95 94 104
3 95 104 106
3 104 74 72
3 104 72 106
3 70 67 107
3 70 107 108
3 107 109 110
3 107 110 108
3 65 64 111
3 65 111 112
3 111 113 114
3 111 114 112
3 114 109 107
3 114 107 112
3 107 67 65
3 107 65 112
3 115 97 96
3 115 96 116
3 96 92 117
3 96 117 116
3 117 109 114
3 117 114 116
3 114 113 115
3 114 115 116
3 90 89 118
3 90 118 119
3 118 110 119
3 110 109 117
3 110 117 119
3 117 92 90
3 117 90 119
3 120 121 122
3 123 124 125
3 123 125 126
3 125 127 128
3 125 128 126
3 128 129 122
3 128 122 126
3 122 121 123
3 122 123 126
3 130 131 132
3 130 132 133
3 132 134 135
3 132 135 133
3 135 129 128
3 135 128 133
3 128 127 130
3 128 130 133
3 135 134 136
3 137 138 139
3 137 139 140
3 139 141 142
3 139 142 140
3 143 144 145
3 143 145 146
3 145 147 148
3 145 148 146
3 148 141 139
3 148 139 146
3 139 138 143
3 139 143 146
3 149 124 123
3 149 123 150
3 123 121 151
3 123 151 150
3 151 141 148
3 151 148 150
3 148 147 149
3 148 149 150
3 120 152 153
3 152 142 153
3 142 141 151
3 142 151 153
3 151 121 120
3 151 120 153
3 154 155 156
3 155 157 158
3 155 158 156
3 158 159 160
3 158 160 156
3 160 161 154
3 160 154 156
3 162 163 164
3 162 164 165
3 164 166 167
3 164 167 165
3 167 159 158
3 167 158 165
3 158 157 162
3 158 162 165
3 168 144 143
3 168 143 169
3 143 138 170
3 143 170 169
3 170 159 167
3 170 167 169
3 167 166 168
3 167 168 169
3 137 171 172
3 171 161 160
3 171 160 172
3 160 159 170
3 160 170 172
3 170 138 137
3 170 137 172
3 173 136 174
3 136 134 175
3 136 175 174
3 175 176 177
3 175 177 174
3 177 178 173
3 177 173 174
3 132 131 179
3 132 179 180
3 179 181 182
3 179 182 180
3 182 176 175
3 182 175 180
3 175 134 132
3 175 132 180
3 183 163 162
3 183 162 184
3 162 157 185
3 162 185 184
3 185 176 182
3 185 182 184
3 182 181 183
3 182 183 184
3 155 186 187
3 186 178 177
3 186 177 187
3 177 176 185
3 177 185 187
3 185 157 155
3 185 155 187
3 188 189 190
3 188 190 191
3 190 192 193
3 190 193 191
3 193 194 195
3 193 195 191
3 195 196 188
3 195 188 191
3 197 198 199
3 197 199 200
3 199 201 202
3 199 202 200
3 202 194 193
3 202 193 200
3 193 192 197
3 193 197 200
3 203 204 205
3 203 205 206
3 205 207 208
3 205 208 206
3 208 194 202
3 208 202 206
3 202 201 203
3 202 203 206
3 209 210 211
3 209 211 212
3 211 196 195
3 211 195 212
3 195 194 208
3 195 208 212
3 208 207 209
3 208 209 212
3 213 214 215
3 213 215 216
3 215 217 218
3 215 218 216
3 218 219 220
3 218 220 216
3 220 221 213
3 220 213 216
3 222 223 224
3 222 224 225
3 224 226 227
3 224 227 225
3 227 219 218
3 227 218 225
3 218 217 222
3 218 222 225
3 228 229 230
3 228 230 231
3 230 232 233
3 230 233 231
3 233 219 227
3 233 227 231
3 227 226 228
3 227 228 231
3 234 235 236
3 234 236 237
3 236 221 220
3 236 220 237
3 220 219 233
3 220 233 237
3 233 232 234
3 233 234 237
3 238 235 239
3 238 239 240
3 239 241 242
3 239 242 240
3 242 243 244
3 242 244 240
3 244 245 238
3 244 238 240
3 246 189 247
3 246 247 248
3 247 249 250
3 247 250 248
3 250 243 242
3 250 242 248
3 242 241 246
3 242 246 248
3 251 252 253
3 251 253 254
3 253 255 256
3 253 256 254
3 256 243 250
3 256 250 254
3 250 249 251
3 250 251 254
3 257 258 259
3 257 259 260
3 259 245 244
3 259 244 260
3 244 243 256
3 244 256 260
3 256 255 257
3 256 257 260
3 261 262 263
3 261 263 264
3 263 265 266
3 263 266 264
3 266 267 268
3 266 268 264
3 268 269 261
3 268 261 264
3 270 271 272
3 270 272 273
3 272 274 275
3 272 275 273
3 275 267 266
3 275 266 273
3 266 265 270
3 266 270 273
3 276 198 277
3 276 277 278
3 277 279 280
3 277 280 278
3 280 267 275
3 280 275 278
3 275 274 276
3 275 276 278
3 281 229 282
3 281 282 283
3 282 269 268
3 282 268 283
3 268 267 280
3 268 280 283
3 280 279 281
3 280 281 283
3 239 235 234
3 239 234 284
3 234 232 285
3 234 285 284
3 285 286 287
3 285 287 284
3 287 241 239
3 287 239 284
3 230 229 281
3 230 281 288
3 281 279 289
3 281 289 288
3 289 286 285
3 289 285 288
3 285 232 230
3 285 230 288
3 277 198 197
3 277 197 290
3 197 192 291
3 197 291 290
3 291 286 289
3 291 289 290
3 289 279 277
3 289 277 290
3 190 189 246
3 190 246 292
3 246 241 287
3 246 287 292
3 287 286 291
3 287 291 292
3 291 192 190
3 291 190 292
3 199 198 293
3 199 293 294
3 293 295 296
3 293 296 294
3 296 297 298
3 296 298 294
3 298 201 199
3 298 199 294
3 299 300 301
3 299 301 302
3 301 303 304
3 301 304 302
3 304 297 296
3 304 296 302
3 296 295 299
3 296 299 302
3 305 306 307
3 305 307 308
3 307 309 310
3 307 310 308
3 310 297 304
3 310 304 308
3 304 303 305
3 304 305 308
3 311 204 203
3 311 203 312
3 203 201 298
3 203 298 312
3 298 297 310
3 298 310 312
3 310 309 311
3 310 311 312
3 272 271 313
3 272 313 314
3 313 315 316
3 313 316 314
3 316 317 318
3 316 318 314
3 318 274 272
3 318 272 314
3 319 320 321
3 319 321 322
3 321 323 324
3 321 324 322
3 324 317 316
3 324 316 322
3 316 315 319
3 316 319 322
3 325 300 299
3 325 299 326
3 299 295 327
3 299 327 326
3 327 317 324
3 327 324 326
3 324 323 325
3 324 325 326
3 293 198 276
3 293 276 328
3 276 274 318
3 276 318 328
3 318 317 327
3 318 327 328
3 327 295 293
3 327 293 328
3 329 330 331
3 329 331 332
3 331 333 334
3 331 334 332
3 334 335 336
3 334 336 332
3 336 337 329
3 336 329 332
3 338 339 340
3 338 340 341
3 340 342 343
3 340 343 341
3 343 335 334
3 343 334 341
3 334 333 338
3 334 338 341
3 344 320 319
3 344 319 345
3 319 315 346
3 319 346 345
3 346 335 343
3 346 343 345
3 343 342 344
3 343 344 345
3 313 271 347
3 313 347 348
3 347 337 336
3 347 336 348
3 336 335 346
3 336 346 348
3 346 315 313
3 346 313 348
3 349 204 311
3 349 311 350
3 311 309 351
3 311 351 350
3 351 352 353
3 351 353 350
3 353 354 349
3 353 349 350
3 307 306 355
3 307 355 356
3 355 357 358
3 355 358 356
3 358 352 351
3 358 351 356
3 351 309 307
3 351 307 356
3 359 339 338
3 359 338 360
3 338 333 361
3 338 361 360
3 361 352 358
3 361 358 360
3 358 357 359
3 358 359 360
3 331 330 362
3 331 362 363
3 362 354 353
3 362 353 363
3 353 352 361
3 353 361 363
3 361 333 331
3 361 331 363
3 282 229 364
3 282 364 365
3 364 366 367
3 364 367 365
3 367 368 369
3 367 369 365
3 369 269 282
3 369 282 365
3 370 371 372
3 370 372 373
3 372 374 375
3 372 375 373
3 375 368 367
3 375 367 373
3 367 366 370
3 367 370 373
3 376 377 378
3 376 378 379
3 378 380 381
3 378 381 379
3 381 368 375
3 381 375 379
3 375 374 376
3 375 376 379
3 382 262 261
3 382 261 383
3 261 269 369
3 261 369 383
3 369 368 381
3 369 381 383
3 381 380 382
3 381 382 383
3 224 223 384
3 224 384 385
3 384 386 387
3 384 387 385
3 387 388 389
3 387 389 385
3 389 226 224
3 389 224 385
3 390 391 392
3 390 392 393
3 392 394 395
3 392 395 393
3 395 388 387
3 395 387 393
3 387 386 390
3 387 390 393
3 396 371 370
3 396 370 397
3 370 366 398
3 370 398 397
3 398 388 395
3 398 395 397
3 395 394 396
3 395 396 397
3 364 229 228
3 364 228 399
3 228 226 389
3 228 389 399
3 389 388 398
3 389 398 399
3 398 366 364
3 398 364 399
3 400 401 402
3 400 402 403
3 402 404 405
3 402 405 403
3 405 406 407
3 405 407 403
3 407 408 400
3 407 400 403
3 409 410 411
3 409 411 412
3 411 413 414
3 411 414 412
3 414 406 405
3 414 405 412
3 405 404 409
3 405 409 412
3 415 391 390
3 415 390 416
3 390 386 417
3 390 417 416
3 417 406 414
3 417 414 416
3 414 413 415
3 414 415 416
3 384 223 418
3 384 418 419
3 418 408 407
3 418 407 419
3 407 406 417
3 407 417 419
3 417 386 384
3 417 384 419
3 420 262 382
3 420 382 421
3 382 380 422
3 382 422 421
3 422 423 424
3 422 424 421
3 424 425 420
3 424 420 421
3 378 377 426
3 378 426 427
3 426 428 429
3 426 429 427
3 429 423 422
3 429 422 427
3 422 380 378
3 422 378 427
3 430 410 409
3 430 409 431
3 409 404 432
3 409 432 431
3 432 423 429
3 432 429 431
3 429 428 430
3 429 430 431
3 402 401 433
3 402 433 434
3 433 425 424
3 433 424 434
3 424 423 432
3 424 432 434
3 432 404 402
3 432 402 434
3 301 300 435
3 301 435 436
3 435 437 438
3 435 438 436
3 438 439 440
3 438 440 436
3 440 303 301
3 440 301 436
3 441 442 443
3 441 443 444
3 443 445 446
3 443 446 444
3 446 439 438
3 446 438 444
3 438 437 441
3 438 441 444
3 447 448 449
3 447 449 450
3 449 451 452
3 449 452 450
3 452 439 446
3 452 446 450
3 446 445 447
3 446 447 450
3 453 306 305
3 453 305 454
3 305 303 440
3 305 440 454
3 440 439 452
3 440 452 454
3 452 451 453
3 452 453 454
3 321 320 455
3 321 455 456
3 455 457 458
3 455 458 456
3 458 459 460
3 458 460 456
3 460 323 321
3 460 321 456
3 461 462 463
3 461 463 464
3 463 465 466
3 463 466 464
3 466 459 458
3 466 458 464
3 458 457 461
3 458 461 464
3 467 442 441
3 467 441 468
3 441 437 469
3 441 469 468
3 469 459 466
3 469 466 468
3 466 465 467
3 466 467 468
3 435 300 325
3 435 325 470
3 325 323 460
3 325 460 470
3 460 459 469
3 460 469 470
3 469 437 435
3 469 435 470
3 340 339 471
3 340 471 472
3 471 473 474
3 471 474 472
3 474 475 476
3 474 476 472
3 476 342 340
3 476 340 472
3 477 478 479
3 477 479 480
3 479 481 482
3 479 482 480
3 482 475 474
3 482 474 480
3 474 473 477
3 474 477 480
3 483 462 461
3 483 461 484
3 461 457 485
3 461 485 484
3 485 475 482
3 485 482 484
3 482 481 483
3 482 483 484
3 455 320 344
3 455 344 486
3 344 342 476
3 344 476 486
3 476 475 485
3 476 485 486
3 485 457 455
3 485 455 486
3 355 306 453
3 355 453 487
3 453 451 488
3 453 488 487
3 488 489 490
3 488 490 487
3 490 357 355
3 490 355 487
3 449 448 491
3 449 491 492
3 491 493 494
3 491 494 492
3 494 489 488
3 494 488 492
3 488 451 449
3 488 449 492
3 495 478 477
3 495 477 496
3 477 473 497
3 477 497 496
3 497 489 494
3 497 494 496
3 494 493 495
3 494 495 496
3 471 339 359
3 471 359 498
3 359 357 490
3 359 490 498
3 490 489 497
3 490 497 498
3 497 473 471
3 497 471 498
3 372 371 499
3 372 499 500
3 499 501 502
3 499 502 500
3 502 503 504
3 502 504 500
3 504 374 372
3 504 372 500
3 505 506 507
3 505 507 508
3 507 509 510
3 507 510 508
3 510 503 502
3 510 502 508
3 502 501 505
3 502 505 508
3 511 512 513
3 511 513 514
3 513 515 516
3 513 516 514
3 516 503 510
3 516 510 514
3 510 509 511
3 510 511 514
3 517 377 376
3 517 376 518
3 376 374 504
3 376 504 518
3 504 503 516
3 504 516 518
3 516 515 517
3 516 517 518
3 392 391 519
3 392 519 520
3 519 521 522
3 519 522 520
3 522 523 524
3 522 524 520
3 524 394 392
3 524 392 520
3 525 526 527
3 525 527 528
3 527 529 530
3 527 530 528
3 530 523 522
3 530 522 528
3 522 521 525
3 522 525 528
3 531 506 505
3 531 505 532
3 505 501 533
3 505 533 532
3 533 523 530
3 533 530 532
3 530 529 531
3 530 531 532
3 499 371 396
3 499 396 534
3 396 394 524
3 396 524 534
3 524 523 533
3 524 533 534
3 533 501 499
3 533 499 534
3 411 410 535
3 411 535 536
3 535 537 538
3 535 538 536
3 538 539 540
3 538 540 536
3 540 413 411
3 540 411 536
3 541 542 543
3 541 543 544
3 543 545 546
3 543 546 544
3 546 539 538
3 546 538 544
3 538 537 541
3 538 541 544
3 547 526 525
3 547 525 548
3 525 521 549
3 525 549 548
3 549 539 546
3 549 546 548
3 546 545 547
3 546 547 548
3 519 391 415
3 519 415 550
3 415 413 540
3 415 540 550
3 540 539 549
3 540 549 550
3 549 521 519
3 549 519 550
3 426 377 517
3 426 517 551
3 517 515 552
3 517 552 551
3 552 553 554
3 552 554 551
3 554 428 426
3 554 426 551
3 513 512 555
3 513 555 556
3 555 557 558
3 555 558 556
3 558 553 552
3 558 552 556
3 552 515 513
3 552 513 556
3 559 542 541
3 559 541 560
3 541 537 561
3 541 561 560
3 561 553 558
3 561 558 560
3 558 557 559
3 558 559 560
3 535 410 430
3 535 430 562
3 430 428 554
3 430 554 562
3 554 553 561
3 554 561 562
3 561 537 535
3 561 535 562
3 563 564 565
3 563 565 566
3 565 567 568
3 565 568 566
3 568 569 570
3 568 570 566
3 570 571 563
3 570 563 566
3 572 573 574
3 572 574 575
3 574 576 577
3 574 577 575
3 577 569 568
3 577 568 575
3 568 567 572
3 568 572 575
3 578 579 580
3 578 580 581
3 580 582 583
3 580 583 581
3 583 569 577
3 583 577 581
3 577 576 578
3 577 578 581
3 584 585 586
3 584 586 587
3 586 571 570
3 586 570 587
3 570 569 583
3 570 583 587
3 583 582 584
3 583 584 587
3 463 462 588
3 463 588 589
3 588 590 591
3 588 591 589
3 591 592 593
3 591 593 589
3 593 465 463
3 593 463 589
3 594 595 596
3 594 596 597
3 596 598 599
3 596 599 597
3 599 592 591
3 599 591 597
3 591 590 594
3 591 594 597
3 600 601 602
3 600 602 603
3 602 604 605
3 602 605 603
3 605 592 599
3 605 599 603
3 599 598 600
3 599 600 603
3 606 442 467
3 606 467 607
3 467 465 593
3 467 593 607
3 593 592 605
3 593 605 607
3 605 604 606
3 605 606 607
3 479 478 608
3 479 608 609
3 608 610 611
3 608 611 609
3 611 612 613
3 611 613 609
3 613 481 479
3 613 479 609
3 614 615 616
3 614 616 617
3 616 618 619
3 616 619 617
3 619 612 611
3 619 611 617
3 611 610 614
3 611 614 617
3 620 595 594
3 620 594 621
3 594 590 622
3 594 622 621
3 622 612 619
3 622 619 621
3 619 618 620
3 619 620 621
3 588 462 483
3 588 483 623
3 483 481 613
3 483 613 623
3 613 612 622
3 613 622 623
3 622 590 588
3 622 588 623
3 491 448 624
3 491 624 625
3 624 626 627
3 624 627 625
3 627 628 629
3 627 629 625
3 629 493 491
3 629 491 625
3 630 631 632
3 630 632 633
3 632 634 635
3 632 635 633
3 635 628 627
3 635 627 633
3 627 626 630
3 627 630 633
3 636 615 614
3 636 614 637
3 614 610 638
3 614 638 637
3 638 628 635
3 638 635 637
3 635 634 636
3 635 636 637
3 608 478 495
3 608 495 639
3 495 493 629
3 495 629 639
3 629 628 638
3 629 638 639
3 638 610 608
3 638 608 639
3 507 506 640
3 507 640 641
3 640 642 643
3 640 643 641
3 643 644 645
3 643 645 641
3 645 509 507
3 645 507 641
3 646 647 648
3 646 648 649
3 648 650 651
3 648 651 649
3 651 644 643
3 651 643 649
3 643 642 646
3 643 646 649
3 652 653 654
3 652 654 655
3 654 656 657
3 654 657 655
3 657 644 651
3 657 651 655
3 651 650 652
3 651 652 655
3 658 512 511
3 658 511 659
3 511 509 645
3 511 645 659
3 645 644 657
3 645 657 659
3 657 656 658
3 657 658 659
3 660 661 662
3 660 662 663
3 662 664 665
3 662 665 663
3 665 666 667
3 665 667 663
3 667 668 660
3 667 660 663
3 669 670 671
3 669 671 672
3 671 673 674
3 671 674 672
3 674 666 665
3 674 665 672
3 665 664 669
3 665 669 672
3 675 676 677
3 675 677 678
3 677 679 680
3 677 680 678
3 680 666 674
3 680 674 678
3 674 673 675
3 674 675 678
3 681 682 683
3 681 683 684
3 683 668 667
3 683 667 684
3 667 666 680
3 667 680 684
3 680 679 681
3 680 681 684
3 543 542 685
3 543 685 686
3 685 687 688
3 685 688 686
3 688 689 690
3 688 690 686
3 690 545 543
3 690 543 686
3 691 692 693
3 691 693 694
3 693 695 696
3 693 696 694
3 696 689 688
3 696 688 694
3 688 687 691
3 688 691 694
3 697 698 699
3 697 699 700
3 699 701 702
3 699 702 700
3 702 689 696
3 702 696 700
3 696 695 697
3 696 697 700
3 703 526 547
3 703 547 704
3 547 545 690
3 547 690 704
3 690 689 702
3 690 702 704
3 702 701 703
3 702 703 704
3 555 512 658
3 555 658 705
3 658 656 706
3 658 706 705
3 706 707 708
3 706 708 705
3 708 557 555
3 708 555 705
3 654 653 709
3 654 709 710
3 709 711 712
3 709 712 710
3 712 707 706
3 712 706 710
3 706 656 654
3 706 654 710
3 713 692 691
3 713 691 714
3 691 687 715
3 691 715 714
3 715 707 712
3 715 712 714
3 712 711 713
3 712 713 714
3 685 542 559
3 685 559 716
3 559 557 708
3 559 708 716
3 708 707 715
3 708 715 716
3 715 687 685
3 715 685 716
3 443 442 717
3 443 717 718
3 717 719 720
3 717 720 718
3 720 721 722
3 720 722 718
3 722 445 443
3 722 443 718
3 723 564 563
3 723 563 724
3 563 571 725
3 563 725 724
3 725 721 720
3 725 720 724
3 720 719 723
3 720 723 724
3 586 585 726
3 586 726 727
3 726 728 729
3 726 729 727
3 729 721 725
3 729 725 727
3 725 571 586
3 725 586 727
3 730 448 447
3 730 447 731
3 447 445 722
3 447 722 731
3 722 721 729
3 722 729 731
3 729 728 730
3 729 730 731
3 602 601 732
3 602 732 733
3 732 734 735
3 732 735 733
3 735 736 737
3 735 737 733
3 737 604 602
3 737 602 733
3 738 573 572
3 738 572 739
3 572 567 740
3 572 740 739
3 740 736 735
3 740 735 739
3 735 734 738
3 735 738 739
3 565 564 723
3 565 723 741
3 723 719 742
3 723 742 741
3 742 736 740
3 742 740 741
3 740 567 565
3 740 565 741
3 717 442 606
3 717 606 743
3 606 604 737
3 606 737 743
3 737 736 742
3 737 742 743
3 742 719 717
3 742 717 743
3 23 22 744
3 23 744 745
3 744 746 747
3 744 747 745
3 747 748 749
3 747 749 745
3 749 8 23
3 749 23 745
3 750 751 752
3 750 752 753
3 752 754 755
3 752 755 753
3 755 748 747
3 755 747 753
3 747 746 750
3 747 750 753
3 756 757 758
3 756 758 759
3 758 760 761
3 758 761 759
3 761 748 755
3 761 755 759
3 755 754 756
3 755 756 759
3 762 1 0
3 762 0 763
3 0 8 749
3 0 749 763
3 749 748 761
3 749 761 763
3 761 760 762
3 761 762 763
3 624 448 730
3 624 730 764
3 730 728 765
3 730 765 764
3 765 766 767
3 765 767 764
3 767 626 624
3 767 624 764
3 726 585 584
3 726 584 768
3 584 582 769
3 584 769 768
3 769 766 765
3 769 765 768
3 765 728 726
3 765 726 768
3 580 579 770
3 580 770 771
3 770 772 773
3 770 773 771
3 773 766 769
3 773 769 771
3 769 582 580
3 769 580 771
3 774 631 630
3 774 630 775
3 630 626 767
3 630 767 775
3 767 766 773
3 767 773 775
3 773 772 774
3 773 774 775
3 527 526 776
3 527 776 777
3 776 778 779
3 776 779 777
3 779 780 781
3 779 781 777
3 781 529 527
3 781 527 777
3 782 661 660
3 782 660 783
3 660 668 784
3 660 784 783
3 784 780 779
3 784 779 783
3 779 778 782
3 779 782 783
3 683 682 785
3 683 785 786
3 785 787 788
3 785 788 786
3 788 780 784
3 788 784 786
3 784 668 683
3 784 683 786
3 789 506 531
3 789 531 790
3 531 529 781
3 531 781 790
3 781 780 788
3 781 788 790
3 788 787 789
3 788 789 790
3 699 698 791
3 699 791 792
3 791 793 794
3 791 794 792
3 794 795 796
3 794 796 792
3 796 701 699
3 796 699 792
3 797 670 669
3 797 669 798
3 669 664 799
3 669 799 798
3 799 795 794
3 799 794 798
3 794 793 797
3 794 797 798
3 662 661 782
3 662 782 800
3 782 778 801
3 782 801 800
3 801 795 799
3 801 799 800
3 799 664 662
3 799 662 800
3 776 526 703
3 776 703 802
3 703 701 796
3 703 796 802
3 796 795 801
3 796 801 802
3 801 778 776
3 801 776 802
3 27 26 803
3 27 803 804
3 803 805 806
3 803 806 804
3 806 807 808
3 806 808 804
3 808 29 27
3 808 27 804
3 809 810 811
3 809 811 812
3 811 813 814
3 811 814 812
3 814 807 806
3 814 806 812
3 806 805 809
3 806 809 812
3 815 816 817
3 815 817 818
3 817 819 820
3 817 820 818
3 820 807 814
3 820 814 818
3 814 813 815
3 814 815 818
3 821 35 34
3 821 34 822
3 34 29 808
3 34 808 822
3 808 807 820
3 808 820 822
3 820 819 821
3 820 821 822
3 640 506 789
3 640 789 823
3 789 787 824
3 789 824 823
3 824 825 826
3 824 826 823
3 826 642 640
3 826 640 823
3 785 682 681
3 785 681 827
3 681 679 828
3 681 828 827
3 828 825 824
3 828 824 827
3 824 787 785
3 824 785 827
3 677 676 829
3 677 829 830
3 829 831 832
3 829 832 830
3 832 825 828
3 832 828 830
3 828 679 677
3 828 677 830
3 833 647 646
3 833 646 834
3 646 642 826
3 646 826 834
3 826 825 832
3 826 832 834
3 832 831 833
3 832 833 834
3 835 258 836
3 835 836 837
3 836 838 839
3 836 839 837
3 839 840 841
3 839 841 837
3 841 842 835
3 841 835 837
3 843 844 845
3 843 845 846
3 845 847 848
3 845 848 846
3 848 840 839
3 848 839 846
3 839 838 843
3 839 843 846
3 849 850 851
3 849 851 852
3 851 853 854
3 851 854 852
3 854 840 848
3 854 848 852
3 848 847 849
3 848 849 852
3 855 262 856
3 855 856 857
3 856 842 841
3 856 841 857
3 841 840 854
3 841 854 857
3 854 853 855
3 854 855 857
3 253 252 858
3 253 858 859
3 858 860 861
3 858 861 859
3 861 862 863
3 861 863 859
3 863 255 253
3 863 253 859
3 864 865 866
3 864 866 867
3 866 868 869
3 866 869 867
3 869 862 861
3 869 861 867
3 861 860 864
3 861 864 867
3 870 844 843
3 870 843 871
3 843 838 872
3 843 872 871
3 872 862 869
3 872 869 871
3 869 868 870
3 869 870 871
3 836 258 257
3 836 257 873
3 257 255 863
3 257 863 873
3 863 862 872
3 863 872 873
3 872 838 836
3 872 836 873
3 874 271 875
3 874 875 876
3 875 877 878
3 875 878 876
3 878 879 880
3 878 880 876
3 880 881 874
3 880 874 876
3 882 883 884
3 882 884 885
3 884 886 887
3 884 887 885
3 887 879 878
3 887 878 885
3 878 877 882
3 878 882 885
3 888 865 864
3 888 864 889
3 864 860 890
3 864 890 889
3 890 879 887
3 890 887 889
3 887 886 888
3 887 888 889
3 858 252 891
3 858 891 892
3 891 881 880
3 891 880 892
3 880 879 890
3 880 890 892
3 890 860 858
3 890 858 892
3 263 262 855
3 263 855 893
3 855 853 894
3 855 894 893
3 894 895 896
3 894 896 893
3 896 265 263
3 896 263 893
3 851 850 897
3 851 897 898
3 897 899 900
3 897 900 898
3 900 895 894
3 900 894 898
3 894 853 851
3 894 851 898
3 901 883 882
3 901 882 902
3 882 877 903
3 882 903 902
3 903 895 900
3 903 900 902
3 900 899 901
3 900 901 902
3 875 271 270
3 875 270 904
3 270 265 896
3 270 896 904
3 896 895 903
3 896 903 904
3 903 877 875
3 903 875 904
3 905 258 906
3 905 906 907
3 906 908 909
3 906 909 907
3 909 910 911
3 909 911 907
3 911 912 905
3 911 905 907
3 913 914 915
3 913 915 916
3 915 917 918
3 915 918 916
3 918 910 909
3 918 909 916
3 909 908 913
3 909 913 916
3 919 920 921
3 919 921 922
3 921 923 924
3 921 924 922
3 924 910 918
3 924 918 922
3 918 917 919
3 918 919 922
3 925 926 927
3 925 927 928
3 927 912 911
3 927 911 928
3 911 910 924
3 911 924 928
3 924 923 925
3 924 925 928
3 906 258 835
3 906 835 929
3 835 842 930
3 835 930 929
3 930 931 932
3 930 932 929
3 932 908 906
3 932 906 929
3 856 262 933
3 856 933 934
3 933 935 936
3 933 936 934
3 936 931 930
3 936 930 934
3 930 842 856
3 930 856 934
3 937 938 939
3 937 939 940
3 939 941 942
3 939 942 940
3 942 931 936
3 942 936 940
3 936 935 937
3 936 937 940
3 943 914 913
3 943 913 944
3 913 908 932
3 913 932 944
3 932 931 942
3 932 942 944
3 942 941 943
3 942 943 944
3 433 401 945
3 433 945 946
3 945 947 948
3 945 948 946
3 948 949 950
3 948 950 946
3 950 425 433
3 950 433 946
3 951 952 953
3 951 953 954
3 953 955 956
3 953 956 954
3 956 949 948
3 956 948 954
3 948 947 951
3 948 951 954
3 957 938 937
3 957 937 958
3 937 935 959
3 937 959 958
3 959 949 956
3 959 956 958
3 956 955 957
3 956 957 958
3 933 262 420
3 933 420 960
3 420 425 950
3 420 950 960
3 950 949 959
3 950 959 960
3 959 935 933
3 959 933 960
3 961 926 925
3 961 925 962
3 925 923 963
3 925 963 962
3 963 964 965
3 963 965 962
3 965 966 961
3 965 961 962
3 921 920 967
3 921 967 968
3 967 969 970
3 967 970 968
3 970 964 963
3 970 963 968
3 963 923 921
3 963 921 968
3 971 952 951
3 971 951 972
3 951 947 973
3 951 973 972
3 973 964 970
3 973 970 972
3 970 969 971
3 970 971 972
3 945 401 974
3 945 974 975
3 974 966 965
3 974 965 975
3 965 964 973
3 965 973 975
3 973 947 945
3 973 945 975
3 976 977 978
3 976 978 979
3 978 980 981
3 978 981 979
3 981 982 983
3 981 983 979
3 983 984 976
3 983 976 979
3 985 982 981
3 985 981 986
3 981 980 987
3 981 987 986
3 988 982 985
3 989 990 991
3 989 991 992
3 991 984 983
3 991 983 992
3 983 982 988
3 983 988 992
3 988 989 992
3 987 980 993
3 978 977 994
3 978 994 995
3 993 980 978
3 993 978 995
3 996 990 989
3 996 989 997
3 989 998 997
3 998 999 1000
3 998 1000 997
3 1000 1001 996
3 1000 996 997
3 1002 1003 1004
3 1002 1004 1005
3 1004 1001 1000
3 1004 1000 1005
3 1000 999 1006
3 1000 1006 1005
3 1006 1002 1005
3 1007 1008 1009
3 1007 1009 1010
3 1009 1011 1012
3 1009 1012 1010
3 1012 1013 1014
3 1012 1014 1010
3 1014 1015 1007
3 1014 1007 1010
3 1016 1017 1018
3 1016 1018 1019
3 1018 1020 1021
3 1018 1021 1019
3 1021 1013 1012
3 1021 1012 1019
3 1012 1011 1016
3 1012 1016 1019
3 1022 1023 1024
3 1022 1024 1025
3 1024 1026 1027
3 1024 1027 1025
3 1027 1013 1021
3 1027 1021 1025
3 1021 1020 1022
3 1021 1022 1025
3 1028 252 1029
3 1028 1029 1030
3 1029 1015 1014
3 1029 1014 1030
3 1014 1013 1027
3 1014 1027 1030
3 1027 1026 1028
3 1027 1028 1030
3 1031 1017 1016
3 1031 1016 1032
3 1016 1011 1033
3 1016 1033 1032
3 1033 1034 1035
3 1033 1035 1032
3 1035 1036 1031
3 1035 1031 1032
3 1009 1008 1037
3 1009 1037 1038
3 1037 1039 1040
3 1037 1040 1038
3 1040 1034 1033
3 1040 1033 1038
3 1033 1011 1009
3 1033 1009 1038
3 1041 330 1042
3 1041 1042 1043
3 1042 1044 1045
3 1042 1045 1043
3 1045 1034 1040
3 1045 1040 1043
3 1040 1039 1041
3 1040 1041 1043
3 1046 1047 1048
3 1046 1048 1049
3 1048 1036 1035
3 1048 1035 1049
3 1035 1034 1045
3 1035 1045 1049
3 1045 1044 1046
3 1045 1046 1049
3 347 271 1050
3 347 1050 1051
3 1050 1052 1053
3 1050 1053 1051
3 1053 1054 1055
3 1053 1055 1051
3 1055 337 347
3 1055 347 1051
3 1056 1057 1058
3 1056 1058 1059
3 1058 1060 1061
3 1058 1061 1059
3 1061 1054 1053
3 1061 1053 1059
3 1053 1052 1056
3 1053 1056 1059
3 1062 1047 1046
3 1062 1046 1063
3 1046 1044 1064
3 1046 1064 1063
3 1064 1054 1061
3 1064 1061 1063
3 1061 1060 1062
3 1061 1062 1063
3 1042 330 329
3 1042 329 1065
3 329 337 1055
3 329 1055 1065
3 1055 1054 1064
3 1055 1064 1065
3 1064 1044 1042
3 1064 1042 1065
3 891 252 1028
3 891 1028 1066
3 1028 1026 1067
3 1028 1067 1066
3 1067 1068 1069
3 1067 1069 1066
3 1069 881 891
3 1069 891 1066
3 1024 1023 1070
3 1024 1070 1071
3 1070 1072 1073
3 1070 1073 1071
3 1073 1068 1067
3 1073 1067 1071
3 1067 1026 1024
3 1067 1024 1071
3 1074 1057 1056
3 1074 1056 1075
3 1056 1052 1076
3 1056 1076 1075
3 1076 1068 1073
3 1076 1073 1075
3 1073 1072 1074
3 1073 1074 1075
3 1050 271 874
3 1050 874 1077
3 874 881 1069
3 874 1069 1077
3 1069 1068 1076
3 1069 1076 1077
3 1076 1052 1050
3 1076 1050 1077
3 1078 210 1079
3 1078 1079 1080
3 1079 1081 1082
3 1079 1082 1080
3 1082 1083 1084
3 1082 1084 1080
3 1084 1085 1078
3 1084 1078 1080
3 1086 1087 1088
3 1086 1088 1089
3 1088 1090 1091
3 1088 1091 1089
3 1091 1083 1082
3 1091 1082 1089
3 1082 1081 1086
3 1082 1086 1089
3 1092 1093 1094
3 1092 1094 1095
3 1094 1096 1097
3 1094 1097 1095
3 1097 1083 1091
3 1097 1091 1095
3 1091 1090 1092
3 1091 1092 1095
3 1098 1008 1099
3 1098 1099 1100
3 1099 1085 1084
3 1099 1084 1100
3 1084 1083 1097
3 1084 1097 1100
3 1097 1096 1098
3 1097 1098 1100
3 205 204 1101
3 205 1101 1102
3 1101 1103 1104
3 1101 1104 1102
3 1104 1105 1106
3 1104 1106 1102
3 1106 207 205
3 1106 205 1102
3 1107 1108 1109
3 1107 1109 1110
3 1109 1111 1112
3 1109 1112 1110
3 1112 1105 1104
3 1112 1104 1110
3 1104 1103 1107
3 1104 1107 1110
3 1113 1087 1086
3 1113 1086 1114
3 1086 1081 1115
3 1086 1115 1114
3 1115 1105 1112
3 1115 1112 1114
3 1112 1111 1113
3 1112 1113 1114
3 1079 210 209
3 1079 209 1116
3 209 207 1106
3 209 1106 1116
3 1106 1105 1115
3 1106 1115 1116
3 1115 1081 1079
3 1115 1079 1116
3 362 330 1117
3 362 1117 1118
3 1117 1119 1120
3 1117 1120 1118
3 1120 1121 1122
3 1120 1122 1118
3 1122 354 362
3 1122 362 1118
3 1123 1124 1125
3 1123 1125 1126
3 1125 1127 1128
3 1125 1128 1126
3 1128 1121 1120
3 1128 1120 1126
3 1120 1119 1123
3 1120 1123 1126
3 1129 1108 1107
3 1129 1107 1130
3 1107 1103 1131
3 1107 1131 1130
3 1131 1121 1128
3 1131 1128 1130
3 1128 1127 1129
3 1128 1129 1130
3 1101 204 349
3 1101 349 1132
3 349 354 1122
3 349 1122 1132
3 1122 1121 1131
3 1122 1131 1132
3 1131 1103 1101
3 1131 1101 1132
3 1037 1008 1098
3 1037 1098 1133
3 1098 1096 1134
3 1098 1134 1133
3 1134 1135 1136
3 1134 1136 1133
3 1136 1039 1037
3 1136 1037 1133
3 1094 1093 1137
3 1094 1137 1138
3 1137 1139 1140
3 1137 1140 1138
3 1140 1135 1134
3 1140 1134 1138
3 1134 1096 1094
3 1134 1094 1138
3 1141 1124 1123
3 1141 1123 1142
3 1123 1119 1143
3 1123 1143 1142
3 1143 1135 1140
3 1143 1140 1142
3 1140 1139 1141
3 1140 1141 1142
3 1117 330 1041
3 1117 1041 1144
3 1041 1039 1136
3 1041 1136 1144
3 1136 1135 1143
3 1136 1143 1144
3 1143 1119 1117
3 1143 1117 1144
3 1145 926 1146
3 1145 1146 1147
3 1146 1148 1149
3 1146 1149 1147
3 1149 1150 1151
3 1149 1151 1147
3 1151 1152 1145
3 1151 1145 1147
3 1153 1154 1155
3 1153 1155 1156
3 1155 1157 1158
3 1155 1158 1156
3 1158 1150 1149
3 1158 1149 1156
3 1149 1148 1153
3 1149 1153 1156
3 1159 1160 1161
3 1159 1161 1162
3 1161 1163 1164
3 1161 1164 1162
3 1164 1150 1158
3 1164 1158 1162
3 1158 1157 1159
3 1158 1159 1162
3 1165 214 1166
3 1165 1166 1167
3 1166 1152 1151
3 1166 1151 1167
3 1151 1150 1164
3 1151 1164 1167
3 1164 1163 1165
3 1164 1165 1167
3 974 401 1168
3 974 1168 1169
3 1168 1170 1171
3 1168 1171 1169
3 1171 1172 1173
3 1171 1173 1169
3 1173 966 974
3 1173 974 1169
3 1174 1175 1176
3 1174 1176 1177
3 1176 1178 1179
3 1176 1179 1177
3 1179 1172 1171
3 1179 1171 1177
3 1171 1170 1174
3 1171 1174 1177
3 1180 1154 1153
3 1180 1153 1181
3 1153 1148 1182
3 1153 1182 1181
3 1182 1172 1179
3 1182 1179 1181
3 1179 1178 1180
3 1179 1180 1181
3 1146 926 961
3 1146 961 1183
3 961 966 1173
3 961 1173 1183
3 1173 1172 1182
3 1173 1182 1183
3 1182 1148 1146
3 1182 1146 1183
3 418 223 1184
3 418 1184 1185
3 1184 1186 1187
3 1184 1187 1185
3 1187 1188 1189
3 1187 1189 1185
3 1189 408 418
3 1189 418 1185
3 1190 1191 1192
3 1190 1192 1193
3 1192 1194 1195
3 1192 1195 1193
3 1195 1188 1187
3 1195 1187 1193
3 1187 1186 1190
3 1187 1190 1193
3 1196 1175 1174
3 1196 1174 1197
3 1174 1170 1198
3 1174 1198 1197
3 1198 1188 1195
3 1198 1195 1197
3 1195 1194 1196
3 1195 1196 1197
3 1168 401 400
3 1168 400 1199
3 400 408 1189
3 400 1189 1199
3 1189 1188 1198
3 1189 1198 1199
3 1198 1170 1168
3 1198 1168 1199
3 215 214 1165
3 215 1165 1200
3 1165 1163 1201
3 1165 1201 1200
3 1201 1202 1203
3 1201 1203 1200
3 1203 217 215
3 1203 215 1200
3 1161 1160 1204
3 1161 1204 1205
3 1204 1206 1207
3 1204 1207 1205
3 1207 1202 1201
3 1207 1201 1205
3 1201 1163 1161
3 1201 1161 1205
3 1208 1191 1190
3 1208 1190 1209
3 1190 1186 1210
3 1190 1210 1209
3 1210 1202 1207
3 1210 1207 1209
3 1207 1206 1208
3 1207 1208 1209
3 1184 223 222
3 1184 222 1211
3 222 217 1203
3 222 1203 1211
3 1203 1202 1210
3 1203 1210 1211
3 1210 1186 1184
3 1210 1184 1211
3 1212 1213 1214
3 1212 1214 1215
3 1214 1216 1217
3 1214 1217 1215
3 1217 1218 1219
3 1217 1219 1215
3 1219 1220 1212
3 1219 1212 1215
3 1221 1222 1223
3 1222 1224 1225
3 1222 1225 1223
3 1225 1218 1217
3 1225 1217 1223
3 1217 1216 1221
3 1217 1221 1223
3 1226 1227 1228
3 1227 1229 1230
3 1227 1230 1228
3 1230 1218 1225
3 1230 1225 1228
3 1225 1224 1226
3 1225 1226 1228
3 1231 1232 1233
3 1231 1233 1234
3 1233 1220 1219
3 1233 1219 1234
3 1219 1218 1230
3 1219 1230 1234
3 1230 1229 1231
3 1230 1231 1234
3 1235 1232 1231
3 1235 1231 1236
3 1231 1229 1237
3 1231 1237 1236
3 1237 1238 1236
3 1238 1239 1235
3 1238 1235 1236
3 1237 1229 1227
3 1240 1239 1238
3 1241 631 774
3 1241 774 1242
3 774 772 1243
3 774 1243 1242
3 1243 1244 1245
3 1243 1245 1242
3 1245 1246 1241
3 1245 1241 1242
3 770 579 1247
3 770 1247 1248
3 1247 1249 1250
3 1247 1250 1248
3 1250 1244 1243
3 1250 1243 1248
3 1243 772 770
3 1243 770 1248
3 1251 751 750
3 1251 750 1252
3 750 746 1253
3 750 1253 1252
3 1253 1244 1250
3 1253 1250 1252
3 1250 1249 1251
3 1250 1251 1252
3 744 22 1254
3 744 1254 1255
3 1254 1246 1245
3 1254 1245 1255
3 1245 1244 1253
3 1245 1253 1255
3 1253 746 744
3 1253 744 1255
3 632 631 1241
3 632 1241 1256
3 1241 1246 1257
3 1241 1257 1256
3 1257 1258 1259
3 1257 1259 1256
3 1259 634 632
3 1259 632 1256
3 1254 22 21
3 1254 21 1260
3 21 19 1261
3 21 1261 1260
3 1261 1258 1257
3 1261 1257 1260
3 1257 1246 1254
3 1257 1254 1260
3 17 16 1262
3 17 1262 1263
3 1262 1264 1265
3 1262 1265 1263
3 1265 1258 1261
3 1265 1261 1263
3 1261 19 17
3 1261 17 1263
3 1266 615 636
3 1266 636 1267
3 636 634 1259
3 636 1259 1267
3 1259 1258 1265
3 1259 1265 1267
3 1265 1264 1266
3 1265 1266 1267
3 616 615 1266
3 616 1266 1268
3 1266 1264 1269
3 1266 1269 1268
3 1269 1270 1271
3 1269 1271 1268
3 1271 618 616
3 1271 616 1268
3 1262 16 15
3 1262 15 1272
3 15 13 1273
3 15 1273 1272
3 1273 1270 1269
3 1273 1269 1272
3 1269 1264 1262
3 1269 1262 1272
3 11 10 1274
3 11 1274 1275
3 1274 1276 1277
3 1274 1277 1275
3 1277 1270 1273
3 1277 1273 1275
3 1273 13 11
3 1273 11 1275
3 1278 595 620
3 1278 620 1279
3 620 618 1271
3 620 1271 1279
3 1271 1270 1277
3 1271 1277 1279
3 1277 1276 1278
3 1277 1278 1279
3 596 595 1278
3 596 1278 1280
3 1278 1276 1281
3 1278 1281 1280
3 1281 1282 1283
3 1281 1283 1280
3 1283 598 596
3 1283 596 1280
3 1274 10 9
3 1274 9 1284
3 9 4 1285
3 9 1285 1284
3 1285 1282 1281
3 1285 1281 1284
3 1281 1276 1274
3 1281 1274 1284
3 2 1 1286
3 2 1286 1287
3 1286 1288 1289
3 1286 1289 1287
3 1289 1282 1285
3 1289 1285 1287
3 1285 4 2
3 1285 2 1287
3 1290 601 600
3 1290 600 1291
3 600 598 1283
3 600 1283 1291
3 1283 1282 1289
3 1283 1289 1291
3 1289 1288 1290
3 1289 1290 1291
3 732 601 1290
3 732 1290 1292
3 1290 1288 1293
3 1290 1293 1292
3 1293 1294 1295
3 1293 1295 1292
3 1295 734 732
3 1295 732 1292
3 1286 1 762
3 1286 762 1296
3 762 760 1297
3 762 1297 1296
3 1297 1294 1293
3 1297 1293 1296
3 1293 1288 1286
3 1293 1286 1296
3 758 757 1298
3 758 1298 1299
3 1298 1300 1301
3 1298 1301 1299
3 1301 1294 1297
3 1301 1297 1299
3 1297 760 758
3 1297 758 1299
3 1302 573 738
3 1302 738 1303
3 738 734 1295
3 738 1295 1303
3 1295 1294 1301
3 1295 1301 1303
3 1301 1300 1302
3 1301 1302 1303
3 574 573 1302
3 574 1302 1304
3 1302 1300 1305
3 1302 1305 1304
3 1305 1306 1307
3 1305 1307 1304
3 1307 576 574
3 1307 574 1304
3 1298 757 756
3 1298 756 1308
3 756 754 1309
3 756 1309 1308
3 1309 1306 1305
3 1309 1305 1308
3 1305 1300 1298
3 1305 1298 1308
3 752 751 1251
3 752 1251 1310
3 1251 1249 1311
3 1251 1311 1310
3 1311 1306 1309
3 1311 1309 1310
3 1309 754 752
3 1309 752 1310
3 1247 579 578
3 1247 578 1312
3 578 576 1307
3 578 1307 1312
3 1307 1306 1311
3 1307 1311 1312
3 1311 1249 1247
3 1311 1247 1312
3 1313 647 833
3 1313 833 1314
3 833 831 1315
3 833 1315 1314
3 1315 1316 1317
3 1315 1317 1314
3 1317 1318 1313
3 1317 1313 1314
3 829 676 1319
3 829 1319 1320
3 1319 1321 1322
3 1319 1322 1320
3 1322 1316 1315
3 1322 1315 1320
3 1315 831 829
3 1315 829 1320
3 1323 810 809
3 1323 809 1324
3 809 805 1325
3 809 1325 1324
3 1325 1316 1322
3 1325 1322 1324
3 1322 1321 1323
3 1322 1323 1324
3 803 26 1326
3 803 1326 1327
3 1326 1318 1317
3 1326 1317 1327
3 1317 1316 1325
3 1317 1325 1327
3 1325 805 803
3 1325 803 1327
3 648 647 1313
3 648 1313 1328
3 1313 1318 1329
3 1313 1329 1328
3 1329 1330 1331
3 1329 1331 1328
3 1331 650 648
3 1331 648 1328
3 1326 26 25
3 1326 25 1332
3 25 33 1333
3 25 1333 1332
3 1333 1330 1329
3 1333 1329 1332
3 1329 1318 1326
3 1329 1326 1332
3 48 47 1334
3 48 1334 1335
3 1334 1336 1337
3 1334 1337 1335
3 1337 1330 1333
3 1337 1333 1335
3 1333 33 48
3 1333 48 1335
3 1338 653 652
3 1338 652 1339
3 652 650 1331
3 652 1331 1339
3 1331 1330 1337
3 1331 1337 1339
3 1337 1336 1338
3 1337 1338 1339
3 709 653 1338
3 709 1338 1340
3 1338 1336 1341
3 1338 1341 1340
3 1341 1342 1343
3 1341 1343 1340
3 1343 711 709
3 1343 709 1340
3 1334 47 46
3 1334 46 1344
3 46 44 1345
3 46 1345 1344
3 1345 1342 1341
3 1345 1341 1344
3 1341 1336 1334
3 1341 1334 1344
3 42 41 1346
3 42 1346 1347
3 1346 1348 1349
3 1346 1349 1347
3 1349 1342 1345
3 1349 1345 1347
3 1345 44 42
3 1345 42 1347
3 1350 692 713
3 1350 713 1351
3 713 711 1343
3 713 1343 1351
3 1343 1342 1349
3 1343 1349 1351
3 1349 1348 1350
3 1349 1350 1351
3 693 692 1350
3 693 1350 1352
3 1350 1348 1353
3 1350 1353 1352
3 1353 1354 1355
3 1353 1355 1352
3 1355 695 693
3 1355 693 1352
3 1346 41 40
3 1346 40 1356
3 40 38 1357
3 40 1357 1356
3 1357 1354 1353
3 1357 1353 1356
3 1353 1348 1346
3 1353 1346 1356
3 36 35 1358
3 36 1358 1359
3 1358 1360 1361
3 1358 1361 1359
3 1361 1354 1357
3 1361 1357 1359
3 1357 38 36
3 1357 36 1359
3 1362 698 697
3 1362 697 1363
3 697 695 1355
3 697 1355 1363
3 1355 1354 1361
3 1355 1361 1363
3 1361 1360 1362
3 1361 1362 1363
3 791 698 1362
3 791 1362 1364
3 1362 1360 1365
3 1362 1365 1364
3 1365 1366 1367
3 1365 1367 1364
3 1367 793 791
3 1367 791 1364
3 1358 35 821
3 1358 821 1368
3 821 819 1369
3 821 1369 1368
3 1369 1366 1365
3 1369 1365 1368
3 1365 1360 1358
3 1365 1358 1368
3 817 816 1370
3 817 1370 1371
3 1370 1372 1373
3 1370 1373 1371
3 1373 1366 1369
3 1373 1369 1371
3 1369 819 817
3 1369 817 1371
3 1374 670 797
3 1374 797 1375
3 797 793 1367
3 797 1367 1375
3 1367 1366 1373
3 1367 1373 1375
3 1373 1372 1374
3 1373 1374 1375
3 671 670 1374
3 671 1374 1376
3 1374 1372 1377
3 1374 1377 1376
3 1377 1378 1379
3 1377 1379 1376
3 1379 673 671
3 1379 671 1376
3 1370 816 815
3 1370 815 1380
3 815 813 1381
3 815 1381 1380
3 1381 1378 1377
3 1381 1377 1380
3 1377 1372 1370
3 1377 1370 1380
3 811 810 1323
3 811 1323 1382
3 1323 1321 1383
3 1323 1383 1382
3 1383 1378 1381
3 1383 1381 1382
3 1381 813 811
3 1381 811 1382
3 1319 676 675
3 1319 675 1384
3 675 673 1379
3 675 1379 1384
3 1379 1378 1383
3 1379 1383 1384
3 1383 1321 1319
3 1383 1319 1384
3 1088 1087 1385
3 1088 1385 1386
3 1385 1387 1388
3 1385 1388 1386
3 1388 1389 1390
3 1388 1390 1386
3 1390 1090 1088
3 1390 1088 1386
3 1391 1392 1393
3 1391 1393 1394
3 1393 1395 1396
3 1393 1396 1394
3 1396 1389 1388
3 1396 1388 1394
3 1388 1387 1391
3 1388 1391 1394
3 1397 1398 1399
3 1397 1399 1400
3 1399 1401 1402
3 1399 1402 1400
3 1402 1389 1396
3 1402 1396 1400
3 1396 1395 1397
3 1396 1397 1400
3 1403 1093 1092
3 1403 1092 1404
3 1092 1090 1390
3 1092 1390 1404
3 1390 1389 1402
3 1390 1402 1404
3 1402 1401 1403
3 1402 1403 1404
3 1137 1093 1403
3 1137 1403 1405
3 1403 1401 1406
3 1403 1406 1405
3 1406 1407 1408
3 1406 1408 1405
3 1408 1139 1137
3 1408 1137 1405
3 1399 1398 1409
3 1399 1409 1410
3 1409 1411 1412
3 1409 1412 1410
3 1412 1407 1406
3 1412 1406 1410
3 1406 1401 1399
3 1406 1399 1410
3 1413 1414 1415
3 1413 1415 1416
3 1415 1417 1418
3 1415 1418 1416
3 1418 1407 1412
3 1418 1412 1416
3 1412 1411 1413
3 1412 1413 1416
3 1419 1124 1141
3 1419 1141 1420
3 1141 1139 1408
3 1141 1408 1420
3 1408 1407 1418
3 1408 1418 1420
3 1418 1417 1419
3 1418 1419 1420
3 1125 1124 1419
3 1125 1419 1421
3 1419 1417 1422
3 1419 1422 1421
3 1422 1423 1424
3 1422 1424 1421
3 1424 1127 1125
3 1424 1125 1421
3 1415 1414 1425
3 1415 1425 1426
3 1425 1427 1428
3 1425 1428 1426
3 1428 1423 1422
3 1428 1422 1426
3 1422 1417 1415
3 1422 1415 1426
3 1429 1430 1431
3 1429 1431 1432
3 1431 1433 1434
3 1431 1434 1432
3 1434 1423 1428
3 1434 1428 1432
3 1428 1427 1429
3 1428 1429 1432
3 1435 1108 1129
3 1435 1129 1436
3 1129 1127 1424
3 1129 1424 1436
3 1424 1423 1434
3 1424 1434 1436
3 1434 1433 1435
3 1434 1435 1436
3 1109 1108 1435
3 1109 1435 1437
3 1435 1433 1438
3 1435 1438 1437
3 1438 1439 1440
3 1438 1440 1437
3 1440 1111 1109
3 1440 1109 1437
3 1431 1430 1441
3 1431 1441 1442
3 1441 1443 1444
3 1441 1444 1442
3 1444 1439 1438
3 1444 1438 1442
3 1438 1433 1431
3 1438 1431 1442
3 1445 1392 1391
3 1445 1391 1446
3 1391 1387 1447
3 1391 1447 1446
3 1447 1439 1444
3 1447 1444 1446
3 1444 1443 1445
3 1444 1445 1446
3 1385 1087 1113
3 1385 1113 1448
3 1113 1111 1440
3 1113 1440 1448
3 1440 1439 1447
3 1440 1447 1448
3 1447 1387 1385
3 1447 1385 1448
3 1204 1160 1449
3 1204 1449 1450
3 1449 1451 1452
3 1449 1452 1450
3 1452 1453 1454
3 1452 1454 1450
3 1454 1206 1204
3 1454 1204 1450
3 1455 1456 1457
3 1455 1457 1458
3 1457 1459 1460
3 1457 1460 1458
3 1460 1453 1452
3 1460 1452 1458
3 1452 1451 1455
3 1452 1455 1458
3 1461 1462 1463
3 1461 1463 1464
3 1463 1465 1466
3 1463 1466 1464
3 1466 1453 1460
3 1466 1460 1464
3 1460 1459 1461
3 1460 1461 1464
3 1467 1191 1208
3 1467 1208 1468
3 1208 1206 1454
3 1208 1454 1468
3 1454 1453 1466
3 1454 1466 1468
3 1466 1465 1467
3 1466 1467 1468
3 1192 1191 1467
3 1192 1467 1469
3 1467 1465 1470
3 1467 1470 1469
3 1470 1471 1472
3 1470 1472 1469
3 1472 1194 1192
3 1472 1192 1469
3 1463 1462 1473
3 1463 1473 1474
3 1473 1475 1476
3 1473 1476 1474
3 1476 1471 1470
3 1476 1470 1474
3 1470 1465 1463
3 1470 1463 1474
3 1477 1478 1479
3 1477 1479 1480
3 1479 1481 1482
3 1479 1482 1480
3 1482 1471 1476
3 1482 1476 1480
3 1476 1475 1477
3 1476 1477 1480
3 1483 1175 1196
3 1483 1196 1484
3 1196 1194 1472
3 1196 1472 1484
3 1472 1471 1482
3 1472 1482 1484
3 1482 1481 1483
3 1482 1483 1484
3 1176 1175 1483
3 1176 1483 1485
3 1483 1481 1486
3 1483 1486 1485
3 1486 1487 1488
3 1486 1488 1485
3 1488 1178 1176
3 1488 1176 1485
3 1479 1478 1489
3 1479 1489 1490
3 1489 1491 1492
3 1489 1492 1490
3 1492 1487 1486
3 1492 1486 1490
3 1486 1481 1479
3 1486 1479 1490
3 1493 1494 1495
3 1493 1495 1496
3 1495 1497 1498
3 1495 1498 1496
3 1498 1487 1492
3 1498 1492 1496
3 1492 1491 1493
3 1492 1493 1496
3 1499 1154 1180
3 1499 1180 1500
3 1180 1178 1488
3 1180 1488 1500
3 1488 1487 1498
3 1488 1498 1500
3 1498 1497 1499
3 1498 1499 1500
3 1155 1154 1499
3 1155 1499 1501
3 1499 1497 1502
3 1499 1502 1501
3 1502 1503 1504
3 1502 1504 1501
3 1504 1157 1155
3 1504 1155 1501
3 1495 1494 1505
3 1495 1505 1506
3 1505 1507 1508
3 1505 1508 1506
3 1508 1503 1502
3 1508 1502 1506
3 1502 1497 1495
3 1502 1495 1506
3 1509 1456 1455
3 1509 1455 1510
3 1455 1451 1511
3 1455 1511 1510
3 1511 1503 1508
3 1511 1508 1510
3 1508 1507 1509
3 1508 1509 1510
3 1449 1160 1159
3 1449 1159 1512
3 1159 1157 1504
3 1159 1504 1512
3 1504 1503 1511
3 1504 1511 1512
3 1511 1451 1449
3 1511 1449 1512
3 125 124 1513
3 125 1513 1514
3 1513 1515 1516
3 1513 1516 1514
3 1516 1517 1518
3 1516 1518 1514
3 1518 127 125
3 1518 125 1514
3 1519 235 238
3 1519 238 1520
3 238 245 1521
3 238 1521 1520
3 1521 1517 1516
3 1521 1516 1520
3 1516 1515 1519
3 1516 1519 1520
3 259 258 1522
3 259 1522 1523
3 1522 1524 1525
3 1522 1525 1523
3 1525 1517 1521
3 1525 1521 1523
3 1521 245 259
3 1521 259 1523
3 1526 131 130
3 1526 130 1527
3 130 127 1518
3 130 1518 1527
3 1518 1517 1525
3 1518 1525 1527
3 1525 1524 1526
3 1525 1526 1527
3 179 131 1526
3 179 1526 1528
3 1526 1524 1529
3 1526 1529 1528
3 1529 1530 1531
3 1529 1531 1528
3 1531 181 179
3 1531 179 1528
3 1522 258 905
3 1522 905 1532
3 905 912 1533
3 905 1533 1532
3 1533 1530 1529
3 1533 1529 1532
3 1529 1524 1522
3 1529 1522 1532
3 927 926 1534
3 927 1534 1535
3 1534 1536 1537
3 1534 1537 1535
3 1537 1530 1533
3 1537 1533 1535
3 1533 912 927
3 1533 927 1535
3 1538 163 183
3 1538 183 1539
3 183 181 1531
3 183 1531 1539
3 1531 1530 1537
3 1531 1537 1539
3 1537 1536 1538
3 1537 1538 1539
3 164 163 1538
3 164 1538 1540
3 1538 1536 1541
3 1538 1541 1540
3 1541 1542 1543
3 1541 1543 1540
3 1543 166 164
3 1543 164 1540
3 1534 926 1145
3 1534 1145 1544
3 1145 1152 1545
3 1145 1545 1544
3 1545 1542 1541
3 1545 1541 1544
3 1541 1536 1534
3 1541 1534 1544
3 1166 214 1546
3 1166 1546 1547
3 1546 1548 1549
3 1546 1549 1547
3 1549 1542 1545
3 1549 1545 1547
3 1545 1152 1166
3 1545 1166 1547
3 1550 144 168
3 1550 168 1551
3 168 166 1543
3 168 1543 1551
3 1543 1542 1549
3 1543 1549 1551
3 1549 1548 1550
3 1549 1550 1551
3 145 144 1550
3 145 1550 1552
3 1550 1548 1553
3 1550 1553 1552
3 1553 1554 1555
3 1553 1555 1552
3 1555 147 145
3 1555 145 1552
3 1546 214 213
3 1546 213 1556
3 213 221 1557
3 213 1557 1556
3 1557 1554 1553
3 1557 1553 1556
3 1553 1548 1546
3 1553 1546 1556
3 236 235 1519
3 236 1519 1558
3 1519 1515 1559
3 1519 1559 1558
3 1559 1554 1557
3 1559 1557 1558
3 1557 221 236
3 1557 236 1558
3 1513 124 149
3 1513 149 1560
3 149 147 1555
3 149 1555 1560
3 1555 1554 1559
3 1555 1559 1560
3 1559 1515 1513
3 1559 1513 1560
3 59 58 1561
3 59 1561 1562
3 1561 1563 1564
3 1561 1564 1562
3 1564 1565 1566
3 1564 1566 1562
3 1566 61 59
3 1566 59 1562
3 1567 189 188
3 1567 188 1568
3 188 196 1569
3 188 1569 1568
3 1569 1565 1564
3 1569 1564 1568
3 1564 1563 1567
3 1564 1567 1568
3 211 210 1570
3 211 1570 1571
3 1570 1572 1573
3 1570 1573 1571
3 1573 1565 1569
3 1573 1569 1571
3 1569 196 211
3 1569 211 1571
3 1574 64 63
3 1574 63 1575
3 63 61 1566
3 63 1566 1575
3 1566 1565 1573
3 1566 1573 1575
3 1573 1572 1574
3 1573 1574 1575
3 111 64 1574
3 111 1574 1576
3 1574 1572 1577
3 1574 1577 1576
3 1577 1578 1579
3 1577 1579 1576
3 1579 113 111
3 1579 111 1576
3 1570 210 1078
3 1570 1078 1580
3 1078 1085 1581
3 1078 1581 1580
3 1581 1578 1577
3 1581 1577 1580
3 1577 1572 1570
3 1577 1570 1580
3 1099 1008 1582
3 1099 1582 1583
3 1582 1584 1585
3 1582 1585 1583
3 1585 1578 1581
3 1585 1581 1583
3 1581 1085 1099
3 1581 1099 1583
3 1586 97 115
3 1586 115 1587
3 115 113 1579
3 115 1579 1587
3 1579 1578 1585
3 1579 1585 1587
3 1585 1584 1586
3 1585 1586 1587
3 98 97 1586
3 98 1586 1588
3 1586 1584 1589
3 1586 1589 1588
3 1589 1590 1591
3 1589 1591 1588
3 1591 100 98
3 1591 98 1588
3 1582 1008 1007
3 1582 1007 1592
3 1007 1015 1593
3 1007 1593 1592
3 1593 1590 1589
3 1593 1589 1592
3 1589 1584 1582
3 1589 1582 1592
3 1029 252 1594
3 1029 1594 1595
3 1594 1596 1597
3 1594 1597 1595
3 1597 1590 1593
3 1597 1593 1595
3 1593 1015 1029
3 1593 1029 1595
3 1598 79 102
3 1598 102 1599
3 102 100 1591
3 102 1591 1599
3 1591 1590 1597
3 1591 1597 1599
3 1597 1596 1598
3 1597 1598 1599
3 80 79 1598
3 80 1598 1600
3 1598 1596 1601
3 1598 1601 1600
3 1601 1602 1603
3 1601 1603 1600
3 1603 82 80
3 1603 80 1600
3 1594 252 251
3 1594 251 1604
3 251 249 1605
3 251 1605 1604
3 1605 1602 1601
3 1605 1601 1604
3 1601 1596 1594
3 1601 1594 1604
3 247 189 1567
3 247 1567 1606
3 1567 1563 1607
3 1567 1607 1606
3 1607 1602 1605
3 1607 1605 1606
3 1605 249 247
3 1605 247 1606
3 1561 58 84
3 1561 84 1608
3 84 82 1603
3 84 1603 1608
3 1603 1602 1607
3 1603 1607 1608
3 1607 1563 1561
3 1607 1561 1608
3 1609 1610 1611
3 1612 1610 1609
3 1612 1609 1613
3 1614 1615 1612
3 1614 1612 1613
3 1616 1615 1614
3 866 865 1617
3 866 1617 1618
3 1617 1619 1618
3 1619 1620 1621
3 1619 1621 1618
3 1621 868 866
3 1621 866 1618
3 1622 1620 1619
3 1611 1610 1623
3 1611 1623 1624
3 1623 1625 1626
3 1623 1626 1624
3 1626 1620 1622
3 1626 1622 1624
3 1622 1611 1624
3 1627 844 870
3 1627 870 1628
3 870 868 1621
3 870 1621 1628
3 1621 1620 1626
3 1621 1626 1628
3 1626 1625 1627
3 1626 1627 1628
3 845 844 1627
3 845 1627 1629
3 1627 1625 1630
3 1627 1630 1629
3 1630 1631 1632
3 1630 1632 1629
3 1632 847 845
3 1632 845 1629
3 1623 1610 1612
3 1623 1612 1633
3 1612 1615 1634
3 1612 1634 1633
3 1634 1631 1630
3 1634 1630 1633
3 1630 1625 1623
3 1630 1623 1633
3 1616 1635 1636
3 1635 1637 1638
3 1635 1638 1636
3 1638 1631 1634
3 1638 1634 1636
3 1634 1615 1616
3 1634 1616 1636
3 1639 850 849
3 1639 849 1640
3 849 847 1632
3 849 1632 1640
3 1632 1631 1638
3 1632 1638 1640
3 1638 1637 1639
3 1638 1639 1640
3 897 850 1639
3 897 1639 1641
3 1639 1637 1642
3 1639 1642 1641
3 1642 1643 1644
3 1642 1644 1641
3 1644 899 897
3 1644 897 1641
3 1645 1643 1642
3 1642 1637 1635
3 1646 1647 1648
3 1647 1649 1650
3 1647 1650 1648
3 1650 1643 1645
3 1650 1645 1648
3 1645 1646 1648
3 1651 883 901
3 1651 901 1652
3 901 899 1644
3 901 1644 1652
3 1644 1643 1650
3 1644 1650 1652
3 1650 1649 1651
3 1650 1651 1652
3 884 883 1651
3 884 1651 1653
3 1651 1649 1654
3 1651 1654 1653
3 1654 1655 1653
3 1655 886 884
3 1655 884 1653
3 1654 1649 1647
3 1617 865 888
3 1617 888 1656
3 888 886 1655
3 888 1655 1656
3 1655 1657 1656
3 1657 1617 1656
3 1018 1017 1658
3 1018 1658 1659
3 1658 1660 1661
3 1658 1661 1659
3 1661 1662 1663
3 1661 1663 1659
3 1663 1020 1018
3 1663 1018 1659
3 1664 1662 1661
3 1665 1662 1664
3 1666 1023 1022
3 1666 1022 1667
3 1022 1020 1663
3 1022 1663 1667
3 1663 1662 1665
3 1663 1665 1667
3 1665 1666 1667
3 1070 1023 1666
3 1070 1666 1668
3 1666 1669 1668
3 1669 1670 1671
3 1669 1671 1668
3 1671 1072 1070
3 1671 1070 1668
3 1672 1057 1074
3 1672 1074 1673
3 1074 1072 1671
3 1074 1671 1673
3 1671 1670 1674
3 1671 1674 1673
3 1674 1672 1673
3 1058 1057 1672
3 1058 1672 1675
3 1672 1676 1675
3 1676 1677 1675
3 1677 1060 1058
3 1677 1058 1675
3 1678 1047 1062
3 1062 1060 1677
3 1658 1017 1031
3 1658 1031 1679
3 1031 1036 1680
3 1031 1680 1679
3 1680 1681 1682
3 1680 1682 1679
3 1682 1660 1658
3 1682 1658 1679
3 1048 1047 1678
3 1048 1678 1683
3 1678 1684 1683
3 1684 1681 1680
3 1684 1680 1683
3 1680 1036 1048
3 1680 1048 1683
3 1685 1681 1684
3 1682 1681 1685
3 967 920 1686
3 967 1686 1687
3 1686 1688 1689
3 1686 1689 1687
3 1689 1690 1691
3 1689 1691 1687
3 1691 969 967
3 1691 967 1687
3 1692 990 996
3 1692 996 1693
3 996 1001 1694
3 996 1694 1693
3 1694 1690 1689
3 1694 1689 1693
3 1689 1688 1692
3 1689 1692 1693
3 1004 1003 1695
3 1004 1695 1696
3 1695 1697 1698
3 1695 1698 1696
3 1698 1690 1694
3 1698 1694 1696
3 1694 1001 1004
3 1694 1004 1696
3 1699 952 971
3 1699 971 1700
3 971 969 1691
3 971 1691 1700
3 1691 1690 1698
3 1691 1698 1700
3 1698 1697 1699
3 1698 1699 1700
3 953 952 1699
3 953 1699 1701
3 1699 1697 1702
3 1699 1702 1701
3 1702 1703 1704
3 1702 1704 1701
3 1704 955 953
3 1704 953 1701
3 1705 1703 1702
3 1702 1697 1695
3 1706 1707 1708
3 1706 1708 1709
3 1708 1703 1705
3 1708 1705 1709
3 1710 938 957
3 1710 957 1711
3 957 955 1704
3 957 1704 1711
3 1704 1703 1708
3 1704 1708 1711
3 1708 1707 1710
3 1708 1710 1711
3 1712 914 943
3 1712 943 1713
3 943 941 1714
3 943 1714 1713
3 1714 1715 1713
3 1715 1716 1712
3 1715 1712 1713
3 939 938 1710
3 939 1710 1717
3 1710 1707 1718
3 1710 1718 1717
3 1714 941 939
3 1714 939 1717
3 1718 1707 1706
3 994 977 1719
3 994 1719 1720
3 1719 1716 1715
3 1719 1715 1720
3 915 914 1712
3 915 1712 1721
3 1712 1716 1722
3 1712 1722 1721
3 1722 1723 1724
3 1722 1724 1721
3 1724 917 915
3 1724 915 1721
3 1719 977 976
3 1719 976 1725
3 976 984 1726
3 976 1726 1725
3 1726 1723 1722
3 1726 1722 1725
3 1722 1716 1719
3 1722 1719 1725
3 991 990 1692
3 991 1692 1727
3 1692 1688 1728
3 1692 1728 1727
3 1728 1723 1726
3 1728 1726 1727
3 1726 984 991
3 1726 991 1727
3 1686 920 919
3 1686 919 1729
3 919 917 1724
3 919 1724 1729
3 1724 1723 1728
3 1724 1728 1729
3 1728 1688 1686
3 1728 1686 1729
3 1730 1224 1222
3 1226 1224 1730
3 1505 1494 1731
3 1505 1731 1732
3 1731 1733 1734
3 1731 1734 1732
3 1734 1735 1736
3 1734 1736 1732
3 1736 1507 1505
3 1736 1505 1732
3 1737 1213 1212
3 1737 1212 1738
3 1212 1220 1739
3 1212 1739 1738
3 1739 1735 1734
3 1739 1734 1738
3 1734 1733 1737
3 1734 1737 1738
3 1233 1232 1740
3 1233 1740 1741
3 1740 1742 1743
3 1740 1743 1741
3 1743 1735 1739
3 1743 1739 1741
3 1739 1220 1233
3 1739 1233 1741
3 1744 1456 1509
3 1744 1509 1745
3 1509 1507 1736
3 1509 1736 1745
3 1736 1735 1743
3 1736 1743 1745
3 1743 1742 1744
3 1743 1744 1745
3 1457 1456 1744
3 1457 1744 1746
3 1744 1742 1747
3 1744 1747 1746
3 1747 1748 1749
3 1747 1749 1746
3 1749 1459 1457
3 1749 1457 1746
3 1740 1232 1235
3 1740 1235 1750
3 1235 1239 1751
3 1235 1751 1750
3 1751 1748 1747
3 1751 1747 1750
3 1747 1742 1740
3 1747 1740 1750
3 1752 1748 1751
3 1752 1751 1753
3 1751 1239 1240
3 1751 1240 1753
3 1754 1462 1461
3 1754 1461 1755
3 1461 1459 1749
3 1461 1749 1755
3 1749 1748 1752
3 1749 1752 1755
3 1752 1754 1755
3 1473 1462 1754
3 1473 1754 1756
3 1754 1757 1756
3 1757 1758 1759
3 1757 1759 1756
3 1759 1475 1473
3 1759 1473 1756
3 1760 1758 1757
3 1761 1762 1763
3 1762 1764 1765
3 1762 1765 1763
3 1765 1758 1760
3 1765 1760 1763
3 1760 1761 1763
3 1766 1478 1477
3 1766 1477 1767
3 1477 1475 1759
3 1477 1759 1767
3 1759 1758 1765
3 1759 1765 1767
3 1765 1764 1766
3 1765 1766 1767
3 1489 1478 1766
3 1489 1766 1768
3 1766 1764 1769
3 1766 1769 1768
3 1770 1491 1489
3 1770 1489 1768
3 1769 1764 1762
3 1731 1494 1493
3 1731 1493 1771
3 1493 1491 1770
3 1493 1770 1771
3 1770 1772 1771
3 1772 1731 1771
3 1409 1398 1773
3 1774 1411 1409
3 1775 1414 1413
3 1775 1413 1776
3 1413 1411 1774
3 1413 1774 1776
3 1774 1777 1776
3 1777 1778 1775
3 1777 1775 1776
3 1425 1414 1775
3 1425 1775 1779
3 1775 1778 1780
3 1775 1780 1779
3 1780 1781 1779
3 1781 1427 1425
3 1781 1425 1779
3 1782 1430 1429
3 1782 1429 1783
3 1429 1427 1781
3 1429 1781 1783
3 1781 1784 1783
3 1784 1782 1783
3 1441 1430 1782
3 1441 1782 1785
3 1782 1786 1785
3 1786 1787 1785
3 1787 1443 1441
3 1787 1441 1785
3 1788 1392 1445
3 1788 1445 1789
3 1445 1443 1787
3 1445 1787 1789
3 1787 1790 1789
3 1790 1788 1789
3 1393 1392 1788
3 1393 1788 1791
3 1788 1792 1791
3 1792 1793 1791
3 1793 1395 1393
3 1793 1393 1791
3 1773 1398 1397
3 1397 1395 1793
