0.572145
0.595881
0.416699
0.202974
0.352022
0.410658
0.381408
0.564568
0.457233
0.481351
0.438519
0.441307
0.322274
0.390341
0.430722
0.403311
0.593258
0.48254
0.264818
0.473048
0.316936
0.405231
0.499118
0.396628
0.372894
0.337523
0.38242
0.377744
0.337654
0.237144
0.337277
0.393865
0.175964
1.43871
0.451221
0.47348
0.418767
0.649629
0.656241
0.438648
0.967683
0.551962
0.719233
0.639219
0.979349
1.05694
1.11717
0.932343
0.81796
0.723429
1.08077
0.776838
1.20164
1.041
0.998085
1.05579
0.929662
0.950842
0.927307
0.975897
1.03386
0.82983
0.668476
0.714033
0.279111
0.478124
0.55619
0.293358
0.76779
0.865421
0.211718
0.177045
0.480443
0.729432
0.463071
0.342138
0.558101
0.770007
0.957528
0.891504
0.645669
0.564096
0.608611
1.03498
1.10536
0.987319
1.0131
0.857458
0.95494
1.07183
0.955779
0.552651
0.864589
0.793929
1.07944
1.02432
1.01772
0.889267
1.02086
0.924249
0.961831
1.08386
1.08276
0.795167
1.18506
0.740431
0.585681
0.957712
0.954949
0.800044
1.08638
0.458562
0.862469
0.876883
0.806812
0.664049
0.742637
0.608283
0.742699
0.729874
0.813101
0.792751
0.631997
0.75275
0.66146
0.805679
0.756862
0.864312
0.585296
0.565513
0.604775
0.61115
0.643743
0.712316
0.779761
0.618352
0.554406
0.580503
0.625363
0.772013
0.800894
0.570867
0.55743
0.541282
0.629443
0.587899
0.597473
0.657734
0.710543
0.613857
0.612883
0.632019
0.57447
1.40813
0.505453
0.740315
0.723561
0.532808
0.647819
0.545143
0.639885
0.83209
0.7489
0.851464
0.688365
0.598412
0.789518
0.674397
0.67675
0.762953
0.603847
0.7253
0.744359
0.702179
0.850472
0.566523
0.882515
0.646608
0.685228
0.359968
0.782068
0.677226
0.497649
0.600049
0.771864
0.827722
0.610841
0.813044
0.315275
0.736401
0.888971
0.720046
0.614738
0.674512
0.605379
0.575928
0.5756
0.83011
0.587063
0.755325
0.571986
0.534872
0.54657
0.577355
0.516537
0.500759
0.574109
0.577941
1.07928
0.66349
0.632483
0.571092
0.637719
0.515383
0.699063
0.657246
0.646027
0.606328
0.602219
0.532653
0.442061
0.839668
0.630603
0.541862
0.830089
0.634279
0.277667
0.829851
0.71742
1.2449
0.695981
0.668729
0.829392
0.579911
0.817781
0.683397
0.699763
0.67587
0.689742
0.913364
0.577103
0.526645
0.473024
0.54722
0.457417
0.552351
0.681854
0.584668
0.289244
0.299799
0.424835
0.346428
0.528908
0.424568
0.621072
0.277852
0.382843
0.400493
0.478861
0.404042
0.433326
0.46189
0.37744
0.374658
0.67088
0.539084
0.722686
0.502875
0.459454
0.575612
0.469257
0.565586
0.688325
0.573516
0.571963
0.40412
0.55508
0.510953
0.629884
0.653314
0.353456
0.347571
0.380518
0.306271
0.254741
0.63174
0.511562
0.434561
0.529941
0.436221
0.687708
0.489661
0.366776
0.709134
0.520737
0.693109
0.789362
0.45693
0.641765
0.616485
0.477322
0.702439
0.525809
0.766181
0.605947
0.577237
0.570361
0.654753
0.545146
0.535301
0.622874
0.491719
0.397977
0.356926
0.343191
0.319889
0.554358
0.492854
0.30155
0.440399
0.347516
0.420253
0.44656
0.399284
0.445948
0.415652
0.37532
0.510091
0.572664
0.642578
0.573349
0.616267
0.516061
0.521254
0.482804
0.467371
0.621013
0.524231
0.533644
0.609388
0.691808
0.629257
0.590971
0.680407
0.378415
0.37482
0.301979
0.473093
0.522953
0.365343
0.522616
0.366901
0.52095
0.554566
0.621036
0.707784
0.418321
0.557795
0.43984
0.446267
0.688468
0.828481
0.621276
0.61547
0.634098
0.671721
0.625748
0.574127
0.361803
0.3641
0.451122
0.446528
0.570919
0.455893
0.458184
0.467112
0.275336
0.60155
0.491332
0.494932
0.640149
0.509078
0.444512
0.65711
0.666131
0.665094
0.602644
0.664463
0.529486
0.662297
0.648087
0.677702
0.416437
0.559742
0.44551
0.483819
0.538615
0.533903
0.578396
0.538628
0.523828
0.446049
0.461601
0.37908
0.341916
0.669481
0.266754
0.472778
0.664621
0.449892
0.40565
0.651263
0.462472
0.64483
0.573243
0.421822
0.479049
0.446307
0.522596
0.631154
0.515646
0.58201
0.497364
0.459186
0.386024
0.528623
0.330744
0.320764
0.600408
0.591737
0.591837
0.594939
0.327612
0.297631
0.299926
0.291043
0.34231
0.324391
0.436085
0.323289
0.430851
0.440139
0.499406
0.513693
0.401803
0.367154
0.381499
0.332144
0.592021
0.584682
0.401442
0.52465
0.416163
0.440219
0.52322
0.548553
0.40517
0.421109
0.484675
0.398759
0.390333
0.409136
0.391211
0.457649
0.405219
0.458521
0.536348
0.489485
0.434968
0.561614
0.321367
0.494847
0.625948
0.622494
0.494814
0.531257
0.490395
0.533078
0.586661
0.577051
0.601254
0.551685
0.346843
0.537046
0.532279
0.394768
0.50557
0.477167
0.406983
0.246402
0.190238
0.226296
0.462585
0.377175
0.505118
0.577308
0.334173
0.668747
0.403023
0.576018
0.591506
0.62151
0.493841
0.561083
0.267568
0.39108
0.401869
0.396053
0.525563
0.491047
0.430532
0.614239
0.413424
0.442493
0.565426
0.539952
0.536209
0.51583
0.42953
0.451922
0.663097
0.662149
0.647206
0.718432
0.606962
0.629772
0.637025
0.678655
0.711884
0.581681
0.601881
0.640062
0.573225
0.601736
0.682451
0.62901
0.557286
0.533691
0.440525
0.500592
0.600188
0.571074
0.667188
0.646027
0.484503
0.629822
0.4732
0.640949
0.53949
0.452788
0.52142
0.410579
0.452669
0.610739
0.709798
0.476533
0.626263
0.431732
0.590704
0.699249
0.580024
0.66469
0.414067
0.679653
0.504131
0.631098
0.571331
0.555396
0.477286
0.467623
0.584552
0.459462
0.565609
0.479082
0.616442
0.50082
0.587597
0.643615
0.657512
0.679114
0.604648
0.761214
0.48368
0.593532
0.583241
0.611191
0.625822
0.649027
0.628859
0.720235
0.685421
0.684488
0.648529
0.614375
0.612864
0.663459
0.5471
0.665497
0.506492
0.611955
0.494773
0.436653
0.354428
0.470668
0.588388
0.623569
0.572405
0.522761
0.449693
0.360545
0.463624
0.40992
0.571235
0.354684
0.400469
0.516472
0.580087
0.529425
0.550089
0.478922
0.531735
0.62756
0.539379
0.587941
1.09945
0.971289
1.10892
0.978297
1.02097
1.07815
1.1577
0.881448
0.701351
0.637792
0.775816
0.632338
0.741382
0.818153
0.879842
0.7727
0.943151
0.698782
0.872079
1.00163
0.577239
0.995947
0.830384
0.776083
0.788775
1.07344
0.725437
0.626166
1.26588
1.02634
0.515573
0.871888
0.924457
0.994637
0.939932
0.886374
0.783395
0.908556
0.884578
0.880504
0.995206
0.64497
0.867267
0.595424
0.939265
0.686057
1.05497
0.977259
0.68996
0.734843
0.924644
0.918657
0.912335
0.907958
0.810002
0.72993
1.05132
0.924582
0.811372
0.940359
0.839725
0.99454
0.959845
0.955104
1.0024
0.993797
0.883874
0.962069
0.911399
0.867978
0.745129
0.88955
0.687154
0.72417
0.685457
0.850135
0.902056
1.10455
1.06114
0.769543
0.575986
0.907434
1.54796
0.734436
0.902639
0.863959
0.538776
0.857152
1.09414
0.369699
1.25046
1.06279
0.808985
0.796846
0.553904
0.975806
0.935517
0.750756
1.01283
1.25635
0.26606
0.511759
0.753144
0.737786
0.753514
0.785858
0.63159
0.897365
0.861918
0.583789
1.08
1.1274
0.715751
0.715017
0.872911
0.75017
0.937926
0.805356
0.668569
0.742812
0.982209
0.991636
0.809568
1.06754
0.690685
0.953874
0.878995
0.910946
