2.50458
1.43019
1.83784
1.62891
5.93368
1.57791
0.99803
5.20062
2.57987
4.76142
3.70057
2.77428
2.12436
3.25576
2.02474
1.70175
4.87835
2.11
2.95483
6.56456
2.14423
6.68838
4.44316
2.4567
1.16458
1.15483
5.06187
1.18613
6.24126
1.47576
7.42256
1.38066
3.28574
3.06309
2.81214
3.07743
5.04563
5.39191
4.66189
5.37515
3.96064
4.51443
5.36683
5.41289
5.11342
4.56926
5.52084
3.18147
3.33798
2.82762
5.02465
5.53613
5.51846
4.72114
3.79096
5.52253
3.7065
3.25223
5.21421
5.55663
5.01617
4.68308
4.84227
4.25919
3.98174
1.41092
4.00992
1.51101
4.16261
6.05643
3.9003
1.41565
6.55801
1.33091
1.55345
1.59395
7.43207
6.19107
1.64087
3.57705
6.57195
1.40372
7.00787
3.96217
4.09579
6.22477
7.51879
1.56576
5.97129
1.39585
2.06499
4.41621
4.11859
6.07457
1.62688
1.42239
1.57856
3.91867
1.17941
1.88304
2.46508
1.58828
7.67383
3.01122
1.23826
1.19785
1.79333
1.41323
2.04903
1.95243
1.38208
1.13728
5.67548
7.38865
4.3466
2.64043
2.7369
8.18391
8.02497
2.18784
3.84686
3.08866
7.15688
3.3379
2.11277
3.42472
3.3643
3.86239
1.54575
3.25235
3.51426
4.05111
0.625647
7.86386
3.81636
1.1172
1.0785
4.34553
0.837537
0.842176
3.88918
0.412068
0.911294
4.65024
1.98994
3.1771
1.48909
2.38601
3.54523
8.87527
3.91229
0.803598
1.1275
2.79191
1.6769
0.979913
0.753535
3.2338
3.24058
1.10714
1.73466
1.68354
1.81396
2.09293
1.46238
1.74867
0.8085
5.1856
2.15968
2.04308
1.62019
1.61491
1.46606
2.03432
0.357903
1.236
2.93388
1.78506
2.25843
2.43277
1.51396
2.10659
1.56908
1.79544
2.13079
1.1547
0.981562
1.34781
1.25475
0.830612
2.36134
2.04862
0.742646
0.837762
1.50174
0.669082
1.93921
0.73835
1.03966
2.62772
1.25487
1.38893
1.17582
2.49976
1.76501
2.79309
1.7313
0.719112
0.782662
4.22772
0.892822
1.44041
2.55087
2.72418
1.7324
2.42767
1.04024
0.732783
1.0798
1.55281
0.632377
0.617351
1.99924
0.858521
1.35549
0.665161
2.25164
8.0715
1.75129
4.42979
0.816825
0.827048
2.25623
0.354653
1.60119
3.9989
8.1075
1.39008
0.318903
0.866042
0.594938
2.2366
0.463961
0.579921
6.15341
1.46166
2.33489
4.48255
0.752484
0.929112
0.788174
0.965792
0.500778
0.995632
0.378484
0.488951
1.07347
0.718451
2.01372
1.66868
3.95951
1.28563
0.676123
1.12309
3.43029
3.40275
5.80567
4.76305
4.65213
3.12349
2.83312
2.62834
5.38056
2.62208
2.41944
2.66379
4.676
3.07446
5.6216
4.946
2.0606
0.723802
0.676194
1.10795
1.70784
1.61492
2.42321
1.22249
2.02711
1.7373
2.29675
1.9123
1.72662
1.70371
1.59805
1.51701
5.50898
2.2807
2.26658
2.39571
1.89765
2.13315
3.32095
2.3507
4.09549
3.6952
2.7439
3.06748
2.23687
1.89564
2.4661
3.63621
2.04453
1.86516
1.51085
1.51203
1.59087
1.72971
2.92573
2.06593
0.559705
0.865294
1.92353
1.21045
1.87256
1.44375
0.561611
0.868342
5.28415
1.96936
5.67002
4.10846
1.68109
1.73348
1.59842
1.77683
3.40073
3.71902
2.59235
3.16307
3.69695
3.46564
2.51758
5.21198
2.0178
0.8058
1.91966
0.924824
3.47035
2.50048
2.32098
2.91921
0.819806
0.814562
2.57302
1.21799
2.25991
1.20501
1.43466
1.10176
5.79622
3.67961
3.34501
2.71997
3.87273
1.64096
7.2902
2.52265
3.9305
1.97563
1.64952
1.6671
5.82312
1.65917
5.76662
3.7822
0.705881
3.72431
1.49004
0.849096
2.58794
1.2264
1.91374
1.20776
2.73364
5.55829
3.3457
2.68277
3.09726
2.73546
4.23796
1.18653
7.98669
2.22107
1.86946
2.01593
3.63458
3.2576
4.11195
2.09489
1.68774
1.63118
1.66417
1.55676
3.63191
2.15733
1.87262
1.74873
2.31974
1.31244
2.36812
1.14963
2.67586
2.18765
1.05984
1.82299
1.43278
2.14908
2.93479
3.64249
2.34149
3.69617
2.82236
2.45837
1.82551
2.04257
7.90229
2.46818
2.78206
2.07936
1.33103
3.08864
2.55239
1.64662
4.11891
2.57467
8.54611
3.0639
2.4277
2.73322
2.74779
2.90359
3.23873
2.79712
3.32011
1.48369
2.23342
3.84462
1.5712
1.53543
1.20822
0.816223
1.48346
1.95225
2.22826
2.0917
1.75393
1.74316
2.03997
2.16452
1.68493
1.74113
1.64316
0.942739
1.90169
2.08096
1.16942
2.16347
2.40111
1.02393
2.11356
2.95213
2.70426
2.25624
2.25123
2.44327
1.54504
1.30595
1.6641
0.821048
2.06975
1.66297
1.58769
1.29581
0.671931
1.3499
1.16543
0.811287
1.45134
1.59308
2.26389
2.34624
1.26357
1.52841
1.79374
2.51406
1.75556
1.75013
5.40039
1.73014
1.35906
1.7115
2.6835
1.53785
1.01892
0.966493
0.90641
1.44532
1.30119
0.857576
1.98576
0.882266
0.245297
1.8372
2.67311
1.78017
0.108617
1.34908
0.161832
2.42074
2.3295
0.292317
1.90138
1.2878
0.183473
0.1245
2.28846
2.07285
2.09173
1.81885
1.98859
1.81555
1.73262
2.19152
2.1212
1.8048
1.93573
1.95928
5.38196
8.58275
1.31366
1.29664
1.93425
1.91405
2.10499
2.22381
2.8714
1.14686
5.61931
4.2399
2.57648
1.45777
7.97623
9.53598
4.84995
5.46538
2.79156
1.71248
5.37438
8.03418
2.12988
3.93962
4.84458
6.12525
1.03548
3.47864
3.43456
3.50921
7.67609
3.58386
2.15277
6.86912
1.5173
1.23969
2.98483
1.53171
7.28779
5.35783
6.06147
3.09899
3.74836
1.16135
2.09396
1.21797
4.47769
2.78179
2.1137
3.03415
3.63993
3.31203
3.22538
3.95507
1.84705
0.997964
3.44368
1.85726
2.94117
3.02633
3.5879
4.66695
2.77096
4.26528
8.33435
8.82168
6.93032
3.41993
3.04808
8.78311
2.29797
3.83813
4.03323
2.71415
3.98879
3.31495
6.44107
3.4961
0
1.08712
2.11949
3.57281
3.15186
3.12466
3.26136
0
0.787287
2.17815
2.36186
0.468416
3.80478
2.29603
2.81093
3.01668
0.6202
2.21926
0.884245
0.927568
3.81001
2.62533
1.64639
5.81678
3.01559
2.65824
1.02057
2.18184
2.99724
2.78102
0
0.460686
0.668909
0.285542
0.877132
3.21518
1.38206
0
0
0
1.83673
1.76472
1.62075
1.73031
3.36601
1.83626
1.89697
1.91007
5.29453
5.50024
2.40583
2.59384
8.1942
8.1042
7.96588
8.50129
2.1186
2.04218
5.65118
4.95216
5.846
5.83586
2.14149
2.23825
3.07927
2.97338
2.21737
2.54756
3.49228
2.28746
2.54983
2.50017
2.58318
1.92623
3.40912
1.90886
1.92186
2.42469
7.94513
2.17764
3.11059
1.51024
1.94807
2.19523
2.26688
2.19885
2.29767
7.25257
1.87624
1.93939
2.31662
2.52912
2.03537
2.2836
2.03677
2.00726
3.26128
2.38551
2.05645
1.96232
1.90322
2.17626
2.53934
2.41225
2.19859
2.35052
8.2926
1.98163
2.31389
2.47629
7.57832
2.68174
1.85062
1.7632
2.20762
1.82981
7.81334
7.76252
2.11116
7.68712
1.68266
1.82549
1.96415
1.96354
6.11857
6.08063
1.38036
1.57988
1.42153
1.63875
7.0001
7.02056
5.60372
1.63919
1.72256
2.32519
1.81639
1.35157
5.16284
5.19898
1.77563
1.67901
3.25993
1.78842
1.20649
1.53816
1.70332
1.73009
2.08121
2.10337
2.41666
3.21527
1.64329
1.70912
1.42316
4.37375
2.70182
1.80839
1.44515
5.29596
7.49154
1.85926
1.99787
1.92497
2.20594
4.00763
5.12542
6.71759
4.59428
5.0476
7.57818
3.96453
7.6663
1.25755
1.29039
7.78255
4.0486
6.02503
5.6413
6.82797
6.2112
1.30334
1.42302
4.5596
4.94083
4.81888
5.85468
7.63623
5.97237
4.71189
4.68037
6.30869
5.75961
5.81566
8.39092
4.15067
4.59681
4.63572
6.64644
4.99585
6.79005
7.10441
8.90971
5.13187
5.21188
1.30601
6.68399
6.94024
3.89743
5.9443
5.28444
4.80523
9.11219
1.21423
1.43639
4.84535
5.4541
5.30288
5.95161
0.78821
1.99312
2.70423
7.72699
5.20182
5.37663
6.45921
5.32686
8.32606
4.73383
3.48835
4.27998
4.67672
4.99794
5.36027
3.63917
4.99031
3.2411
1.3091
4.01069
3.70592
5.03617
6.37458
5.99868
4.69056
3.66042
1.23976
5.46117
5.73697
5.93651
6.03464
5.8165
3.76587
1.89512
3.97521
3.47709
5.57599
4.04326
5.49074
5.07731
5.13581
5.78823
6.60198
7.88961
7.33196
2.83215
7.26079
6.84727
4.56576
4.48131
1.27654
1.43214
7.57685
2.00156
5.57461
5.60439
6.68013
4.84896
3.5792
1.53821
4.39351
4.60481
5.66177
6.3962
6.90469
6.38196
2.48906
5.52165
5.26668
5.56042
7.233
3.73157
3.39314
4.32125
