2.18085
2.14477
1.34768
1.41918
1.63992
2.00675
2.88266
2.94715
1.45684
1.8347
1.9213
1.75658
1.7978
1.14974
1.67577
1.89525
1.27032
1.84307
2.53264
2.75218
3.64611
2.49345
1.31512
2.42032
2.24947
2.15176
1.74801
2.50287
2.71009
2.09539
2.58991
2.36291
1.7016
2.24481
2.48938
1.92391
2.42809
2.11856
2.32098
2.23769
1.76395
2.1924
1.89814
2.1247
2.24245
2.16564
3.79914
1.4257
1.90966
1.70678
2.00021
2.85406
1.90242
2.83128
2.84016
1.29109
3.14717
2.52424
2.70368
3.36978
1.88603
2.98187
2.04008
2.2916
2.24765
2.34425
1.80592
1.99561
2.76181
2.75369
2.57304
3.29187
4.37973
3.24353
1.67615
3.04646
1.70437
2.21421
1.98171
2.25763
2.78521
2.36608
1.54295
2.23621
2.65276
1.64528
4.87859
1.98695
2.22696
2.40711
2.65756
1.98485
2.26727
1.75512
2.59451
2.25183
2.22159
2.12818
1.77529
3.27611
3.67708
3.50738
3.28886
3.43599
3.45882
3.26427
3.42053
2.41393
2.7279
1.64229
2.60252
3.51787
3.26571
3.2804
3.68589
2.59255
2.27287
3.06163
2.98075
3.50739
3.48258
2.04736
2.08956
3.8122
3.25194
3.65846
3.37808
3.23442
3.72469
3.84059
3.37805
3.51933
3.45158
3.60085
3.38138
3.51765
3.44328
3.53429
3.60245
2.87436
3.12427
3.29945
3.11899
3.4912
3.46722
3.24238
3.4639
3.27572
3.98655
3.5556
3.6736
3.24993
3.50315
3.51843
4.19267
3.07951
3.60013
3.59921
3.4715
3.60268
4.40189
3.7616
4.08232
4.11885
3.54289
4.01069
3.37291
4.49431
4.29313
3.9782
3.07196
3.52847
3.86892
4.08548
3.69534
4.01851
4.14385
4.12771
3.63992
3.60462
3.68339
4.13239
4.39239
4.2396
4.55127
5.3167
3.89972
4.5298
3.6051
3.15825
3.50946
2.47288
3.66347
3.65644
3.93803
4.41856
4.26339
4.14523
4.17687
3.85854
3.5331
3.00921
3.18979
3.70468
3.77209
3.96625
3.07288
3.47272
3.22596
3.22574
3.44025
2.66308
4.21298
3.27775
3.33243
3.86926
3.67231
4.71705
4.18801
4.2776
3.98944
4.05131
2.57465
3.95037
3.59077
3.83878
3.96381
5.3306
3.6359
3.43286
3.73442
3.93446
3.3955
3.63444
3.79439
3.35473
3.4789
3.38136
3.25912
2.08348
2.96833
3.19726
3.42003
3.36443
3.04972
3.50254
3.07465
3.64727
3.861
3.60055
3.53974
3.5035
3.58779
1.31209
1.47672
1.14693
1.64362
1.42261
1.51321
1.89321
1.46086
1.5302
1.745
1.59988
1.32128
1.34689
1.52199
1.39836
1.76077
1.58987
1.61153
1.67717
1.57607
1.50634
1.52017
1.57863
1.18945
1.69188
1.26645
1.43219
1.39092
1.62086
1.67926
3.04863
2.65269
1.64199
1.97354
1.31294
1.8895
2.94429
2.79124
1.80756
1.59533
1.53063
1.88764
1.96417
1.3039
1.20537
1.44547
1.873
1.82649
1.46511
1.13573
2.0209
1.86253
2.02615
1.4477
1.81913
1.21305
1.79313
2.06051
1.89435
2.1601
1.20687
2.11228
2.8143
2.59054
1.35378
2.25894
2.17695
2.96425
2.95133
1.94778
1.40881
1.66978
1.33431
1.88435
1.65306
1.45875
1.30244
1.63613
1.41807
1.23687
1.46169
1.72429
1.74062
1.66453
1.51399
3.14355
2.61313
3.12258
2.43931
2.18143
1.70874
2.48019
2.121
0.880042
1.02413
2.18097
1.39336
1.89926
2.06598
1.99195
1.87012
1.71561
1.86136
1.64337
1.45804
1.78042
1.5172
1.33178
1.98616
1.5827
1.72456
1.73642
1.66654
1.45663
1.75322
1.93432
3.04512
2.25244
2.80109
2.65728
1.31864
1.78832
3.66505
3.43002
2.85494
2.82016
2.95282
2.52696
3.26216
2.88102
2.13665
2.22649
2.12345
2.4953
2.43749
2.13626
2.43614
2.30404
2.08524
2.39898
2.59213
2.13763
2.61706
2.34971
2.1666
2.29231
3.5738
2.96834
3.21667
3.12811
2.79009
3.31159
2.7714
2.64762
2.80222
2.19895
2.22573
2.27637
2.10445
2.39299
2.93455
2.55844
2.03469
2.17189
2.08346
2.14052
1.89599
1.86236
2.36634
1.87819
2.3426
1.89774
2.15666
1.94919
2.29361
2.13729
1.82903
1.91354
2.7227
2.57064
2.73161
2.52923
1.82524
2.31678
2.60359
2.65267
3.65948
2.84348
2.49962
2.86873
2.47114
2.76371
2.93941
2.84752
1.9114
2.17722
2.1364
1.78915
2.38268
2.16329
2.60651
1.98527
2.14704
2.28479
2.12507
2.0823
2.30024
2.19814
1.97853
1.59753
2.49326
2.66082
2.98601
2.65971
2.45931
2.50853
2.47437
2.40599
3.01287
2.57502
2.71747
2.7426
2.48191
2.5253
2.44116
3.40741
2.15574
1.98936
2.1643
2.26003
2.24351
2.28985
1.99237
1.96057
2.13005
2.19969
2.1823
2.51019
2.06962
2.00418
1.56376
1.74911
3.01773
2.68719
3.02316
3.19995
2.35202
2.88199
2.51016
2.20257
1.31619
1.78298
1.67948
1.75162
1.89227
1.90443
1.59194
1.59237
1.78821
2.21304
1.95374
2.24499
1.95435
2.18991
1.82004
2.19411
2.27365
2.04313
2.06595
1.93299
2.22852
2.1743
2.44512
2.2686
1.66635
1.51881
1.702
1.6599
1.77068
1.76113
1.84918
1.81113
1.79095
1.80873
1.96958
1.78744
1.89833
1.91371
1.70764
1.75231
2.04766
1.88021
1.7723
1.78077
2.02786
1.89039
1.8614
1.80049
1.93583
1.99345
1.92579
1.92319
2.02511
1.83781
2.23838
1.92666
1.41538
1.48931
1.68188
1.69997
1.767
1.88019
1.6626
1.84542
2.04391
2.12517
2.14522
1.9519
2.07161
1.92285
1.84982
1.94217
2.18978
2.15012
1.74683
1.98615
1.6445
1.65172
1.85161
1.9849
1.44638
1.50234
1.71453
1.52759
1.64772
1.82744
1.66059
1.73421
1.6348
1.73344
1.67516
1.92586
1.8602
1.91046
1.9474
1.83889
1.9277
1.86859
1.77557
2.00218
1.97627
2.21524
1.8399
1.85241
1.97232
1.71857
1.71524
1.84989
1.86576
1.77913
2.05058
1.97125
1.91384
1.83078
1.97162
1.85192
1.76923
1.92847
1.88687
1.82647
1.8595
1.9384
1.85211
1.81722
1.76916
1.85838
1.75788
1.9049
1.98467
1.99511
1.7756
1.67539
1.8215
1.65823
1.80454
2.17115
1.9704
1.95336
2.12975
1.78961
1.52999
1.85085
1.87909
1.99308
2.05169
2.08389
1.86876
2.2448
1.89025
2.48251
2.11698
1.77135
1.71466
2.07086
2.19228
2.2142
1.87107
2.19365
2.22254
1.89605
2.18466
2.24614
2.40091
2.03269
2.10199
1.84888
1.77476
1.97785
2.08632
1.96428
1.94036
1.901
1.68431
1.97016
1.8055
1.7393
1.88359
1.28161
2.04296
1.93909
1.90999
1.99395
1.98782
2.14162
1.81563
2.045
1.90229
1.95178
1.87371
2.11896
2.00967
1.79878
1.87418
1.72457
1.81766
1.92257
2.0165
1.97885
2.04852
1.95366
1.98658
1.96625
2.0214
1.88267
1.96579
2.01644
2.09386
2.07524
2.03746
1.74934
1.9248
1.97499
2.05969
2.12736
2.13275
2.17856
2.00276
1.87083
1.87799
1.69312
2.0773
2.11899
2.02256
1.83254
1.33533
0.923481
0.685971
0.847214
0.759561
0.859398
0.642966
1.14753
0.645256
1.00482
0.982601
1.2309
0.778558
1.1971
1.08095
0.967879
1.1939
1.50567
2.10937
1.89716
1.90107
1.3984
1.89869
1.81304
1.93506
2.11644
2.1608
2.21795
1.27653
1.94518
2.10493
2.08981
2.58393
2.08447
2.19688
2.00711
1.9842
2.0569
2.36205
1.48739
2.07181
1.40928
1.69255
1.3101
1.71209
1.93544
1.36903
2.12321
2.11886
2.38203
1.99367
2.0609
1.96264
2.04084
2.3865
2.06382
2.00615
2.4315
2.26905
2.01434
2.16404
1.39159
2.32026
1.39167
1.75792
1.91455
1.70863
2.11554
2.12877
2.18688
2.12716
1.97345
2.12664
2.33302
2.01645
2.25184
2.0869
1.73348
1.7296
1.90264
2.14979
1.93763
2.13624
1.84724
2.2237
1.86445
1.16515
0.929608
0.957864
0.943789
0.85557
1.03198
1.01129
0.823837
0.767954
0.764162
0.971205
0.837909
1.43732
1.30907
0.931931
0.767388
0.857071
1.01297
0.97956
2.54128
2.08113
2.08968
1.73896
1.92967
2.33969
1.77327
2.41959
2.07312
1.91665
2.23638
2.02693
2.38452
2.23594
2.19865
2.14739
2.37902
2.2127
2.33209
2.3996
1.56874
1.69805
1.49942
2.26301
1.81392
2.51364
1.9061
2.23006
2.03413
2.19993
2.10093
1.71281
2.12766
1.96169
2.02434
2.51717
2.01507
1.80662
1.79201
1.50273
1.62202
1.89994
1.18524
1.61284
1.56183
1.26289
1.19709
2.01599
2.02678
2.39536
2.96939
2.16355
2.17442
2.00674
1.92912
2.37842
2.11619
2.01906
1.31094
1.47331
2.21247
1.57756
1.56127
1.48484
1.24663
1.56524
1.94759
2.39583
2.30584
2.81348
1.48339
1.29229
1.04967
1.56704
1.53352
2.21103
2.04677
1.90384
1.85917
1.79203
2.04645
1.92232
2.32679
1.31213
1.77959
1.50122
1.50741
1.2821
1.54982
1.6208
1.45149
2.29711
1.98326
1.70661
1.96297
2.11967
2.08717
2.16439
2.08954
1.38586
2.40251
2.12611
1.53002
0.87476
1.44936
2.37819
1.58623
2.38474
1.65785
1.32392
1.64527
1.08138
2.2797
2.33743
1.94768
1.91239
2.59346
1.36937
1.87173
1.89833
2.00782
2.04778
1.15417
1.23717
1.74854
1.58929
1.42952
1.6302
1.88749
1.87569
1.65844
1.59169
1.26445
1.36376
2.26421
2.03276
2.41194
2.09569
1.7295
2.42775
2.27266
2.61058
1.4286
1.43778
1.65953
1.11246
1.70982
1.73468
1.37219
1.46479
2.54714
2.30576
1.98785
1.92291
2.20368
2.29957
2.23443
2.57927
1.59899
1.4718
1.31787
1.36209
1.62501
1.53604
2.02459
1.57962
1.36765
1.29274
1.77766
2.20935
1.8647
1.95941
3.64532
3.64985
3.8336
3.51291
3.33164
3.37393
3.36443
4.23509
3.69568
3.16495
3.57701
4.01595
3.54754
3.62687
3.39354
3.53457
4.02481
3.78293
3.41958
3.94662
3.79882
3.50916
3.61656
3.46817
3.2527
3.41896
3.36059
3.61265
3.98176
3.19598
3.95746
3.7061
4.35529
2.49512
2.29664
3.84878
3.32674
3.61385
3.36429
3.2995
3.7389
3.8845
1.23265
3.59038
2.95511
3.15053
3.45104
3.49117
3.29825
3.48632
3.43345
3.38082
2.89872
3.86266
2.16011
3.99416
3.63435
3.76384
3.31376
3.13866
4.05526
3.76444
3.47866
2.1811
3.24248
2.45307
3.06493
2.89758
3.32657
3.58823
2.34361
3.5484
3.0926
3.25865
3.46861
3.42824
3.31656
3.48821
3.54374
1.80352
2.97612
2.04922
3.52219
2.36141
2.7333
3.38185
2.40778
0.98244
2.04926
3.3429
2.82902
3.68084
3.20567
2.43781
3.38018
3.48045
4.05256
3.65263
3.5286
4.5042
1.8782
1.11563
1.30161
2.98062
2.27242
2.90068
2.5095
3.63546
2.82091
3.59397
3.57346
3.95069
3.25294
3.27577
3.73744
3.84747
3.2687
2.25989
3.50549
3.40407
3.41563
3.60202
3.62399
3.4378
3.33343
3.21556
3.37222
3.19545
3.61399
3.49884
3.75532
3.79937
3.69529
2.05616
3.94983
3.08017
3.98271
3.19142
3.01864
3.21046
3.32882
3.4469
3.79613
3.26154
2.80663
2.70123
2.96713
3.23669
2.66869
3.09542
2.65722
3.56731
3.49332
3.46946
3.68186
3.43904
1.54407
2.37363
2.20039
2.02107
2.79759
3.00164
2.13861
2.29336
1.92137
3.09855
1.91775
2.46793
1.95949
3.35572
2.6062
3.39337
2.78315
2.84103
2.33715
3.72725
2.9341
2.02189
3.78656
3.45959
3.64278
3.32156
2.69249
2.30348
3.44842
2.99141
2.9986
2.65976
4.10831
2.12319
2.52655
0.771905
3.11082
2.51281
3.82499
3.42553
2.74635
3.35671
2.98994
2.26102
2.93392
3.19879
2.93822
4.32541
2.20309
3.64021
3.39498
3.22003
4.04214
4.31455
4.68545
3.52629
2.82159
2.98661
3.44854
3.3896
3.60956
3.54032
2.16031
2.14026
2.2856
1.32005
1.80169
1.91631
1.12171
2.3693
2.38829
2.582
2.17504
1.89198
0.974918
0.966101
0.508861
0.437869
0.579517
0.393406
0.687585
1.04952
0.693334
0.368185
1.12109
2.46379
2.66772
1.77133
1.72074
2.02765
2.66951
1.4008
1.92567
2.3978
2.12872
2.34882
1.27663
1.95794
1.96776
1.80637
0.941892
1.81707
0.856205
1.00611
1.18104
1.30714
0.796483
0.795397
0.558494
2.69712
2.06027
2.4965
2.00809
2.39589
0.979871
1.91266
1.07387
1.58659
1.62969
1.57807
1.5877
2.48519
2.20074
2.0609
2.58057
2.16366
1.79406
1.42251
1.95177
0.677607
1.81341
1.95316
1.07871
0.506041
0.596972
0.381806
0.44531
0.891743
1.6819
1.3218
2.50081
1.23018
0.429226
2.98936
0.52659
2.89364
3.00839
2.01743
2.49254
2.21789
2.46906
2.31688
1.90195
2.48393
2.21318
2.32305
2.73639
0.952891
1.97645
1.27854
1.7882
1.88679
0.636138
0.483371
0.728068
1.16372
1.02036
1.17285
0.974609
0.477869
0.799689
0.699584
2.60446
2.7086
1.80213
2.28942
1.98464
1.9392
2.72629
3.1663
2.47071
3.1226
3.84572
4.8661
2.9815
2.86923
5.44153
3.42671
4.34788
2.81203
3.01905
3.25552
3.13805
2.87861
2.50005
2.15648
2.94289
1.79708
2.14387
3.94491
3.89842
2.98784
3.31064
3.09634
3.00823
3.07141
4.19055
2.79892
3.96024
4.13849
2.11328
1.46408
2.34747
3.21464
3.11182
1.58382
2.52862
1.48648
1.58841
1.86444
2.50319
2.24439
2.66322
2.61934
2.60934
2.60934
2.24629
3.26631
3.3087
3.07171
3.56892
3.15962
2.60842
2.22391
1.94588
2.54894
3.02404
1.67104
2.40543
2.91419
2.58457
2.44928
2.71125
2.89683
2.92029
2.76048
1.49383
3.57442
3.48049
2.39327
3.18147
3.21451
3.13868
4.20291
3.0424
2.79849
2.9049
3.35437
2.72362
1.85749
1.44179
1.43736
2.71237
1.98722
2.35463
2.84276
2.23111
2.18133
3.28116
3.73691
3.32468
4.1385
2.83051
2.14786
2.87194
2.73653
3.09915
3.67556
2.58821
2.31497
2.28276
2.81013
3.12993
2.92641
1.82849
1.93042
2.21849
2.58289
2.01682
1.92644
2.32458
2.20646
2.42713
2.15396
2.38827
2.17735
1.81548
2.01818
3.36409
3.03749
3.02073
2.60091
2.5791
2.80401
2.40924
2.71689
2.57496
3.20983
2.45749
2.91065
2.58571
2.26191
3.02411
2.81609
2.88953
2.01185
2.09291
2.37787
2.22902
2.11903
2.64017
2.9644
2.71235
3.99634
3.10249
3.19413
3.1588
3.25778
3.64962
3.15121
3.02697
3.26765
3.28192
2.59359
2.78052
3.18753
1.61091
2.97416
2.78037
2.53249
2.52669
2.39914
2.29211
2.99104
2.8102
2.93377
2.79367
3.09343
3.13843
3.23334
2.98519
2.82821
3.2476
2.35621
2.20559
2.58033
2.50885
3.03023
3.01366
1.68279
2.41605
2.70942
2.55376
1.96493
1.97679
3.41872
3.89289
2.88948
2.96611
2.17262
2.81726
3.17096
2.40263
3.97214
3.83082
2.60352
3.11462
1.81314
2.13839
3.54964
3.92734
2.03826
2.645
1.57326
2.86741
2.43363
2.09142
3.60026
3.56511
3.67366
3.90117
3.30524
3.45466
3.20709
4.06232
3.88681
4.52185
2.65416
3.79506
3.43564
4.23601
2.98792
3.55632
3.82704
3.82854
3.22092
3.42161
4.86451
3.66176
3.88103
3.51616
3.33294
2.9244
3.25066
3.34051
3.50777
3.40849
3.56248
3.26235
3.48625
3.82546
3.12575
3.45711
2.2153
1.70016
2.79725
2.9254
3.12911
3.2281
3.26508
2.69186
3.49326
3.71115
3.72137
3.44012
4.09201
3.30136
3.63086
3.51315
3.44411
4.0524
3.14101
2.94789
4.08912
2.96579
3.31761
2.17662
2.09551
2.37731
3.17598
2.61398
2.75715
