0.82777
2.27438
1.23414
1.23717
2.25945
2.10436
2.15158
1.98076
1.04654
1.98967
3.81584
3.45007
2.00712
2.86371
1.21239
1.191
3.38994
4.0552
3.85918
4.29598
5.95224
4.20505
2.85257
3.55178
3.7638
3.80893
2.72581
2.47663
3.01768
4.0768
3.37609
4.51379
2.99758
2.41242
0.549137
1.10965
2.00921
2.16599
2.34443
2.49681
3.32754
1.63438
2.26388
1.91234
2.33437
2.05761
2.37841
3.0721
3.00192
2.62251
3.12011
4.80358
3.58743
3.91692
2.18534
3.26595
3.17695
1.31435
3.91037
2.19274
2.77052
2.6436
2.73956
2.51782
2.32982
2.41392
2.26415
1.18457
3.00636
3.13531
1.78822
2.68322
1.67666
2.36004
3.96206
1.33468
1.31809
1.37844
1.82189
3.49057
4.25902
1.2505
3.21538
1.41629
1.09232
3.6023
2.23203
1.78945
2.17087
2.28602
1.71082
2.3679
1.94699
2.49502
2.35036
1.63384
4.04862
2.63825
3.21517
3.39463
2.6307
1.4987
1.18277
3.60236
2.83697
3.74328
3.64873
3.43057
1.55877
2.97393
1.91904
1.32008
2.88996
2.31906
2.89089
2.68045
2.28959
2.06065
1.84483
1.7574
2.00572
2.86479
3.15822
2.94565
2.80689
3.36622
2.82565
2.39423
3.68338
3.01945
2.76224
2.31249
1.99538
2.27567
2.25995
3.35977
4.09501
2.22007
3.07073
4.03958
2.45262
3.31635
1.82787
3.00776
2.90021
5.36077
2.73544
3.84975
1.0054
3.8977
1.44385
2.27146
2.2143
3.22703
2.97543
2.33465
2.04227
3.31713
1.26473
2.16942
1.67547
1.99061
3.00867
2.12857
3.607
1.88064
1.06273
1.12764
1.98484
3.71049
3.07736
2.72911
1.00765
1.27254
3.4838
3.64602
2.26933
3.9157
3.77466
1.70538
2.45823
4.06784
3.34292
3.31094
3.18293
3.38485
3.82009
4.63467
5.87218
3.92286
3.43715
3.10513
4.51908
4.07063
3.30177
3.77746
3.42954
2.82106
4.41478
3.81699
4.04697
4.31071
3.04323
4.89653
4.51895
3.98491
3.07201
4.88673
4.46706
3.9179
4.40463
5.44187
3.55483
4.38387
3.41942
3.19115
3.74707
3.09271
4.31519
4.29409
3.29197
2.29688
4.15915
3.72438
4.65417
4.40044
3.64046
3.24436
5.1441
2.48124
4.09657
2.67143
4.78803
2.30574
3.72467
0.897695
2.35628
1.20407
1.35996
3.03515
5.23324
2.27406
3.44712
1.45119
2.02077
4.59858
1.8324
3.44362
3.06704
1.28284
2.15279
4.92606
5.14953
5.17729
5.36323
4.46008
4.50163
0.91915
4.42014
0.836506
0.839467
3.87516
2.91438
2.39376
4.52748
4.0825
3.03425
2.39263
4.11915
3.31871
5.66455
4.56867
4.26208
3.81477
2.79382
1.64009
4.91402
3.96926
4.534
2.70112
4.18481
5.09567
4.78182
1.09265
0.907505
0.610278
0.664864
0.884457
0.646652
1.00507
0.752116
0.398363
0.706764
4.5344
1.57113
1.25574
1.08283
0.609868
0.575948
0.618743
0.864652
0.388106
0.269491
0.805482
1.93731
1.32822
0.918937
1.04065
0.817775
0.904418
1.97676
0.596284
0.675409
0.443782
0.670498
0.749016
0.784524
0.50358
0.60659
0.878569
0.554449
0.867658
0.806483
0.417604
0.544005
1.18284
0.969743
0.782088
0.486008
0.353724
0.468331
0.923574
0.897056
0.81799
0.346065
0.318007
0.874583
0.222513
1.52055
1.5848
0.737033
0.859511
0.691015
1.28507
0.587546
0.443097
0.643015
0.873994
0.705158
0.814104
0.627097
0.558451
0.696851
0.969034
0.714908
0.726437
0.666028
0.456324
0.614045
0.770408
0.665253
0.453468
0.477365
0.803399
0.80389
0.470599
0.177941
0.586656
0.433496
0.641052
0.494724
0.860567
0.754739
0.956108
0.764414
0.622456
0.677967
0.544848
0.592678
1.57922
0.800486
0.353417
0.611673
0.461027
0.518367
0.881282
0.699163
0.186213
0.420647
0.782549
0.258126
0.527189
0.603813
0.418543
0.407297
0.318777
0.804874
0.558339
0.409107
0.472514
0.429366
0.752051
0.652466
0.814617
0.850657
0.755203
0.691962
0.598325
0.530856
0.600576
0.603101
0.86746
0.694606
1.26958
1.15073
1.26831
0.990501
0.908866
1.4917
0.678103
0.477817
0.764267
0.796996
0.587662
0.548965
0.545912
0.806669
0.296514
0.389266
0.367184
1.00825
0.657828
0.620469
0.606099
0.559934
0.645917
0.562834
0.197153
0.605202
0.593684
0.813173
0.387268
0.55078
0.622926
0.312005
2.25506
1.01285
1.11993
2.43822
0.916751
2.90915
3.55224
1.19019
1.35317
1.08376
1.52802
0.547607
0.695736
1.16445
0.612451
2.85781
3.0881
3.5405
3.45482
2.87254
1.15186
0.457996
1.7402
3.85972
0.671966
1.53086
1.27695
3.66181
0.695818
1.23367
1.98471
3.84053
1.36403
1.20927
2.58045
2.56819
2.50525
2.32562
1.84945
1.1915
1.97075
2.78878
2.70996
1.18297
2.70229
3.56693
2.44638
2.08021
2.02487
0.814355
1.65116
1.68205
1.0423
1.12483
1.74671
1.40718
1.94292
0.836345
1.27589
1.40654
1.95434
0.679327
1.8012
1.57463
1.62162
2.45534
2.43113
1.23033
1.71962
2.07655
1.36537
1.19825
2.44064
2.29043
1.78226
1.1515
1.32039
2.38618
2.31986
2.96561
1.57283
1.8483
1.34492
1.80738
2.12487
1.80207
2.30448
1.63717
1.74639
1.95511
2.21037
1.62848
1.85992
2.0067
1.50677
1.68656
2.27805
2.26562
1.51923
2.37864
1.11421
2.96639
2.10787
1.67749
2.09335
1.06699
1.82851
1.69872
1.01538
1.95727
2.75802
1.41114
1.57231
2.48118
1.20414
1.23237
1.90634
1.24693
1.29393
1.84049
1.73645
0.599452
1.85218
0.997978
1.6801
0.885013
1.88679
2.44167
2.05772
2.07688
2.0658
1.76055
1.64486
1.54624
1.28498
1.47027
1.27635
1.86037
1.70634
1.50829
1.53913
1.40809
1.74739
1.54949
1.50653
1.62103
1.29454
1.46283
1.80437
2.02244
1.90024
0.657952
2.94182
1.52526
1.107
0.901898
0.737333
4.32383
6.02718
5.19334
1.75481
3.54649
0.986311
3.67665
4.72001
3.11309
1.06604
1.68604
1.3748
1.4299
6.12136
5.19078
0.772254
1.10862
2.68534
2.96052
1.10208
2.72144
0.812845
4.61436
4.95626
2.20591
4.47306
6.22375
1.94982
2.09679
1.29314
1.24152
4.89941
3.2675
1.98203
2.19197
2.16199
4.21084
4.37673
3.80445
0.994948
1.39471
2.68268
2.77618
2.75414
3.63263
2.57271
2.14727
3.08953
3.19562
3.08117
2.7111
3.18215
3.70001
2.44065
3.4101
3.697
3.34646
3.11269
4.03099
3.01192
2.73561
1.85579
2.71163
0.893215
3.70866
3.78803
1.85377
3.97049
4.28034
4.36369
3.80393
2.72255
0.751959
4.66765
4.44395
4.37951
2.37864
4.28232
3.41887
2.18102
2.21431
1.51945
2.09642
1.93973
2.08461
3.36622
4.38635
0.974127
0.988836
3.02379
4.41445
2.55055
0.64917
0.665861
0.657203
0.724787
0.653696
0.590661
0.72708
0.747007
0.625242
0.79666
0.592874
0.780589
0.611321
0.768242
0.961785
0.874292
1.50723
1.50068
0.715771
0.600545
0.66455
0.735941
0.5676
0.610478
1.38517
0.824849
1.38279
1.26977
1.24262
1.6112
1.36934
1.13711
2.42726
1.44747
2.41382
1.38218
1.4979
1.19721
1.30657
1.57158
2.07761
1.64861
1.7002
1.16412
1.52274
1.40294
2.08887
1.41791
1.647
1.12775
0.834298
1.33186
1.63633
1.55402
1.39895
1.16502
1.37773
1.55295
1.11415
0.992635
1.38239
1.15312
1.35179
1.36581
2.05132
1.75883
1.55522
1.61732
1.45513
1.60154
1.32711
1.50234
1.68195
2.42431
1.22673
1.28108
1.38794
1.44643
1.58118
1.64114
1.29892
1.41892
1.39769
1.5226
0.888117
1.2075
0.959885
1.02869
1.47063
1.16024
1.44456
1.20833
1.12114
0.978378
1.22166
1.30699
1.50222
1.28378
1.5755
1.91903
1.5223
1.32557
1.50194
1.50143
1.95152
1.421
1.05452
1.79983
1.1715
1.54697
1.17971
1.98348
0.900616
0.883628
1.11624
1.35161
1.40478
1.309
1.40436
1.36879
1.0427
1.08325
1.42658
1.54766
1.09197
1.38035
1.22869
1.20378
1.88321
1.88205
1.44341
2.53571
1.40502
1.49665
0.869045
1.55884
1.9333
1.96542
1.48571
1.75653
1.48817
1.38488
1.91469
1.74236
0.928723
0.712269
1.43582
1.27879
1.24849
1.3166
1.44913
1.53126
