OFF
329 640 0
-2.62118 9.68946 -6.91438
-2.55097 9.72306 -6.67138
-2.51884 9.60376 -6.94138
-2.61024 9.50186 -7.40638
-2.50093 9.48566 -7.09238
-2.59876 9.36986 -7.59938
-2.71604 9.32976 -7.77238
-2.71964 9.47086 -7.56338
-2.72265 9.67146 -7.03638
-2.51262 9.42436 -6.99038
-2.54049 9.42016 -6.74938
-2.60885 9.33486 -7.02438
-2.60353 9.30956 -7.47538
-2.70942 9.29156 -7.16238
-2.71243 9.26476 -7.64338
-2.8109 9.33066 -7.03038
-2.8811 9.41286 -6.76038
-2.91323 9.41636 -7.00338
-2.82183 9.30546 -7.48238
-2.93114 9.47736 -7.10638
-2.83331 9.36566 -7.60738
-2.91945 9.59576 -6.95438
-2.89158 9.71576 -6.68238
-2.82322 9.68526 -6.92138
-2.82855 9.49776 -7.41338
-3.29604 6.88146 1.38762
-3.34229 6.97306 1.31862
-3.48515 6.95556 1.45062
-3.45993 6.85936 1.54162
-3.65659 6.94976 1.49562
-3.65659 6.85196 1.59362
-3.35771 7.11986 1.30262
-3.35771 7.34866 1.31562
-3.49356 7.33936 1.43262
-3.49356 7.10616 1.42462
-3.65659 7.33626 1.47162
-3.65659 7.10166 1.46562
-3.81961 7.33936 1.43262
-3.95547 7.34866 1.31562
-3.95547 7.11986 1.30262
-3.81961 7.10616 1.42462
-3.97088 6.97306 1.31862
-3.82802 6.95556 1.45062
-3.85325 6.85936 1.54162
-4.01713 6.88146 1.38762
-3.29604 7.04326 0.25662
-3.34229 7.10116 0.34862
-3.25658 7.07206 0.56862
-3.19771 7.00646 0.51362
-3.228 7.03706 0.83362
-3.16494 6.96236 0.82162
-3.35771 7.22016 0.40462
-3.35771 7.41636 0.45562
-3.2762 7.40096 0.65162
-3.2762 7.19736 0.60862
-3.24902 7.38246 0.88562
-3.24903 7.17006 0.85362
-3.2762 7.36406 1.11962
-3.2762 7.14266 1.09862
-3.25658 7.00216 1.09762
-3.19771 6.91816 1.13062
-4.01713 7.04326 0.25662
-3.97088 7.10116 0.34862
-3.82802 7.11866 0.21562
-3.85325 7.06526 0.10262
-3.65659 7.12446 0.17162
-3.65659 7.07266 0.0506201
-3.95547 7.22016 0.40462
-3.95547 7.41636 0.45562
-3.81961 7.42556 0.33862
-3.81961 7.23386 0.28262
-3.65659 7.42866 0.29962
-3.65659 7.23836 0.24162
-3.49356 7.42556 0.33862
-3.49356 7.23386 0.28262
-3.48515 7.11866 0.21562
-3.45993 7.06526 0.10262
-4.0566 7.00216 1.09762
-4.11546 6.91816 1.13062
-4.08517 7.03706 0.83362
-4.14824 6.96236 0.82162
-4.03698 7.36406 1.11962
-4.03698 7.14266 1.09862
-4.06415 7.38246 0.88562
-4.06415 7.17006 0.85362
-4.03698 7.40096 0.65162
-4.03698 7.19736 0.60862
-4.0566 7.07206 0.56862
-4.11546 7.00646 0.51362
-3.49493 9.16986 1.23662
-3.3587 9.14486 1.15862
-3.35969 9.71106 0.93162
-3.49629 9.74646 0.99962
-3.34727 10.2477 0.61462
-3.48382 10.2928 0.67162
-3.64661 10.3071 0.68862
-3.65953 9.75776 1.02062
-3.65806 9.17796 1.26262
-3.30764 10.6988 0.21962
-3.22698 11.0084 -0.23938
-3.35989 11.0672 -0.20538
-3.44315 10.752 0.26662
-3.51761 11.0853 -0.19638
-3.6043 10.7686 0.27862
-3.674 11.063 -0.21438
-3.80285 11.0007 -0.25638
-3.89646 10.6932 0.20462
-3.76433 10.7489 0.25762
-3.94263 10.2439 0.60262
-3.80857 10.2907 0.66562
-3.95729 9.70876 0.92362
-3.95638 9.14366 1.15462
-3.82093 9.16916 1.23462
-3.82226 9.74526 0.99562
-3.27498 9.00176 0.70862
-3.35583 8.95956 0.57662
-3.35394 9.44786 0.42062
-3.27376 9.50796 0.53762
-3.33815 9.91066 0.17462
-3.25903 9.98776 0.27562
-3.23446 10.0799 0.39662
-3.24816 9.57986 0.67662
-3.24859 9.05236 0.86762
-3.29527 10.2993 -0.14538
-3.21214 10.5645 -0.52138
-3.13699 10.6665 -0.45438
-3.21778 10.3908 -0.0603799
-3.11486 10.7879 -0.37738
-3.19439 10.5 0.0396201
-3.14508 10.9086 -0.30138
-3.22453 10.6087 0.13862
-3.26401 10.1716 0.51562
-3.27654 9.10286 1.02662
-3.27689 9.65156 0.81562
-3.81728 8.93346 0.49462
-3.95351 8.95846 0.57262
-3.95155 9.44556 0.41362
-3.81495 9.41016 0.34562
-3.93351 9.90696 0.16262
-3.79696 9.86186 0.10562
-3.63417 9.84756 0.0886201
-3.6517 9.39886 0.32362
-3.65414 8.92526 0.46862
-3.88409 10.2937 -0.16038
-3.788 10.5569 -0.53838
-3.6551 10.4981 -0.57238
-3.74858 10.2405 -0.20638
-3.49737 10.48 -0.58038
-3.58743 10.2239 -0.21938
-3.34099 10.5023 -0.56338
-3.4274 10.2435 -0.19838
-3.47221 9.86386 0.11162
-3.49127 8.93406 0.49662
-3.48898 9.41146 0.34862
-4.03723 9.10146 1.02162
-4.03748 9.64866 0.80662
-4.02174 10.1668 0.50162
-4.04632 10.0748 0.38062
-4.06308 9.57676 0.66762
-4.06361 9.05086 0.86262
-3.878 10.8988 -0.32238
-3.97395 10.6016 0.11962
-3.90013 10.7774 -0.40038
-3.99734 10.4924 0.0196201
-3.8699 10.6567 -0.47638
-3.9672 10.3837 -0.0793799
-4.01677 9.98306 0.26162
-4.03566 9.00036 0.70462
-4.03435 9.50506 0.52862
-3.09151 11.1208 -0.75138
-3.21966 11.1816 -0.72938
-2.92852 11.076 -1.35138
-3.05083 11.1366 -1.34238
-3.1957 11.1544 -1.34238
-3.37157 11.2 -0.72538
-2.76534 10.9146 -2.07738
-2.62927 10.6766 -2.96438
-2.74067 10.7333 -2.96938
-2.88171 10.9734 -2.07738
-2.87261 10.7494 -2.97338
-3.01954 10.9903 -2.08038
-3.0032 10.7256 -2.97538
-3.11057 10.6625 -2.97538
-3.26811 10.901 -2.08938
-3.15595 10.966 -2.08438
-3.45707 11.064 -1.36638
-3.33913 11.1301 -1.35038
-3.64585 11.1108 -0.76738
-3.52203 11.1762 -0.73838
-3.0756 10.6576 -0.93538
-3.00362 10.7642 -0.89138
-2.91255 10.6118 -1.44238
-2.8441 10.719 -1.42038
-2.82443 10.8461 -1.39438
-2.98276 10.891 -0.84038
-2.74987 10.4606 -2.09438
-2.61446 10.2375 -2.94438
-2.55219 10.3392 -2.94738
-2.68482 10.5656 -2.08938
-2.53435 10.4596 -2.95238
-2.66619 10.6901 -2.08338
-2.56027 10.5787 -2.95838
-2.69326 10.8132 -2.07938
-2.85282 10.9722 -1.37038
-3.0123 11.0168 -0.79038
-3.62994 10.6476 -0.95238
-3.50179 10.5867 -0.97438
-3.4411 10.5998 -1.45738
-3.31879 10.5392 -1.46638
-3.17392 10.5214 -1.46738
-3.34988 10.5684 -0.97738
-3.25264 10.4471 -2.10738
-3.09576 10.2234 -2.95638
-2.98435 10.1667 -2.95038
-3.13626 10.3883 -2.10738
-2.85242 10.1506 -2.94738
-2.99844 10.3713 -2.10438
-2.72183 10.1744 -2.94438
-2.86202 10.3957 -2.10038
-3.03049 10.5458 -1.45838
-3.19942 10.5922 -0.96438
-3.71783 11.0042 -0.81238
-3.52552 10.9569 -1.38938
-3.54519 10.8297 -1.41438
-3.73869 10.8774 -0.86338
-3.17283 10.5608 -2.97238
-3.33316 10.796 -2.09538
-3.19067 10.4404 -2.96738
-3.35179 10.6716 -2.10138
-3.16475 10.3213 -2.96138
-3.32472 10.5484 -2.10538
-3.5168 10.7036 -1.43938
-3.70915 10.7515 -0.91238
-2.54763 10.4024 -4.04838
-2.65605 10.4575 -4.05138
-2.51398 10.127 -5.14938
-2.61751 10.1756 -5.16338
-2.74007 10.1869 -5.18138
-2.78445 10.4733 -4.05538
-2.5219 9.88556 -6.08438
-2.61475 9.91676 -6.14238
-2.72447 9.91486 -6.20838
-2.9225 9.87636 -6.09538
-2.83305 9.91166 -6.14838
-2.96115 10.1155 -5.16138
-2.86137 10.1693 -5.17038
-3.01604 10.3891 -4.06038
-2.91155 10.4503 -4.05838
-2.53321 9.97576 -4.04538
-2.47261 10.0746 -4.04438
-2.50022 9.72306 -5.18538
-2.44224 9.81246 -5.19238
-2.42557 9.91926 -5.19938
-2.45525 10.1915 -4.04538
-2.50957 9.52696 -6.15038
-2.45722 9.59386 -6.20238
-2.442 9.67636 -6.25438
-2.46393 9.78956 -6.16838
-2.44974 10.0328 -5.17338
-2.48048 10.3072 -4.04638
-3.00163 9.96256 -4.05738
-2.8932 9.90736 -4.05438
-2.94739 9.71156 -5.19738
-2.84385 9.65516 -5.21738
-2.7213 9.63606 -5.23438
-2.7648 9.89156 -4.05038
-2.91018 9.51766 -6.16238
-2.81733 9.45506 -6.24238
-2.7076 9.42566 -6.31538
-2.59902 9.46026 -6.23638
-2.6 9.66146 -5.21138
-2.6377 9.91456 -4.04738
-3.07664 10.2904 -4.06138
-3.01913 10.0182 -5.18838
-3.03579 9.90366 -5.21638
-3.094 10.1734 -4.06038
-2.97485 9.77796 -6.18338
-2.99007 9.66416 -6.27038
-2.96814 9.58236 -6.21738
-3.01163 9.79786 -5.20738
-3.06878 10.0577 -4.05938
-3.35771 7.68606 1.33462
-3.49356 7.68346 1.44362
-3.35781 8.11176 1.33262
-3.4937 8.11726 1.43262
-3.65674 8.11906 1.46662
-3.65659 7.68256 1.48062
-3.3581 8.60486 1.28362
-3.49411 8.61976 1.37262
-3.65718 8.62456 1.40262
-3.95583 8.60436 1.28162
-3.82014 8.61946 1.37162
-3.95556 8.11156 1.33262
-3.81975 8.11716 1.43262
-3.95547 7.68606 1.33462
-3.81961 7.68346 1.44362
-4.03698 7.69056 1.15262
-4.03701 8.10236 1.16562
-4.0641 8.09126 0.96562
-4.06415 7.69596 0.93362
-4.03708 8.57936 1.13162
-4.06394 8.54926 0.95262
-3.95468 8.49436 0.62362
-4.03645 8.51936 0.77262
-3.95527 8.07106 0.59862
-4.03685 8.08026 0.76562
-3.95547 7.70586 0.53162
-4.03698 7.70136 0.71462
-3.81961 7.70856 0.42262
-3.81938 8.06546 0.49862
-3.65634 8.06366 0.46562
-3.65659 7.70936 0.38562
-3.81868 8.47946 0.53362
-3.65561 8.47466 0.50462
-3.35696 8.49486 0.62462
-3.49265 8.47976 0.53462
-3.35752 8.07116 0.59962
-3.49333 8.06556 0.49862
-3.35771 7.70586 0.53162
-3.49356 7.70856 0.42262
-3.2762 7.70136 0.71462
-3.27607 8.08036 0.76562
-3.24898 8.09146 0.96562
-3.24903 7.69596 0.93362
-3.27571 8.51986 0.77462
-3.24885 8.54996 0.95462
-3.27633 8.57986 1.13362
-3.27623 8.10246 1.16662
-3.2762 7.69056 1.15262
3 0 1 2
3 0 2 3
3 2 4 5
3 2 5 3
3 5 6 7
3 5 7 3
3 7 8 0
3 7 0 3
3 9 10 11
3 9 11 12
3 11 13 14
3 11 14 12
3 14 6 5
3 14 5 12
3 5 4 9
3 5 9 12
3 15 16 17
3 15 17 18
3 17 19 20
3 17 20 18
3 20 6 14
3 20 14 18
3 14 13 15
3 14 15 18
3 21 22 23
3 21 23 24
3 23 8 7
3 23 7 24
3 7 6 20
3 7 20 24
3 20 19 21
3 20 21 24
3 25 26 27
3 25 27 28
3 27 29 30
3 27 30 28
3 31 32 33
3 31 33 34
3 33 35 36
3 33 36 34
3 36 29 27
3 36 27 34
3 27 26 31
3 27 31 34
3 37 38 39
3 37 39 40
3 39 41 42
3 39 42 40
3 42 29 36
3 42 36 40
3 36 35 37
3 36 37 40
3 30 29 42
3 30 42 43
3 42 41 44
3 42 44 43
3 45 46 47
3 45 47 48
3 47 49 50
3 47 50 48
3 51 52 53
3 51 53 54
3 53 55 56
3 53 56 54
3 56 49 47
3 56 47 54
3 47 46 51
3 47 51 54
3 57 32 31
3 57 31 58
3 31 26 59
3 31 59 58
3 59 49 56
3 59 56 58
3 56 55 57
3 56 57 58
3 50 49 59
3 50 59 60
3 59 26 25
3 59 25 60
3 61 62 63
3 61 63 64
3 63 65 66
3 63 66 64
3 67 68 69
3 67 69 70
3 69 71 72
3 69 72 70
3 72 65 63
3 72 63 70
3 63 62 67
3 63 67 70
3 73 52 51
3 73 51 74
3 51 46 75
3 51 75 74
3 75 65 72
3 75 72 74
3 72 71 73
3 72 73 74
3 66 65 75
3 66 75 76
3 75 46 45
3 75 45 76
3 44 41 77
3 44 77 78
3 77 79 80
3 77 80 78
3 39 38 81
3 39 81 82
3 81 83 84
3 81 84 82
3 84 79 77
3 84 77 82
3 77 41 39
3 77 39 82
3 85 68 67
3 85 67 86
3 67 62 87
3 67 87 86
3 87 79 84
3 87 84 86
3 84 83 85
3 84 85 86
3 80 79 87
3 80 87 88
3 87 62 61
3 87 61 88
3 89 90 91
3 89 91 92
3 91 93 94
3 91 94 92
3 94 95 96
3 94 96 92
3 96 97 89
3 96 89 92
3 98 99 100
3 98 100 101
3 100 102 103
3 100 103 101
3 103 95 94
3 103 94 101
3 94 93 98
3 94 98 101
3 104 105 106
3 104 106 107
3 106 108 109
3 106 109 107
3 109 95 103
3 109 103 107
3 103 102 104
3 103 104 107
3 110 111 112
3 110 112 113
3 112 97 96
3 112 96 113
3 96 95 109
3 96 109 113
3 109 108 110
3 109 110 113
3 114 115 116
3 114 116 117
3 116 118 119
3 116 119 117
3 119 120 121
3 119 121 117
3 121 122 114
3 121 114 117
3 123 124 125
3 123 125 126
3 125 127 128
3 125 128 126
3 128 120 119
3 128 119 126
3 119 118 123
3 119 123 126
3 129 99 98
3 129 98 130
3 98 93 131
3 98 131 130
3 131 120 128
3 131 128 130
3 128 127 129
3 128 129 130
3 91 90 132
3 91 132 133
3 132 122 121
3 132 121 133
3 121 120 131
3 121 131 133
3 131 93 91
3 131 91 133
3 134 135 136
3 134 136 137
3 136 138 139
3 136 139 137
3 139 140 141
3 139 141 137
3 141 142 134
3 141 134 137
3 143 144 145
3 143 145 146
3 145 147 148
3 145 148 146
3 148 140 139
3 148 139 146
3 139 138 143
3 139 143 146
3 149 124 123
3 149 123 150
3 123 118 151
3 123 151 150
3 151 140 148
3 151 148 150
3 148 147 149
3 148 149 150
3 116 115 152
3 116 152 153
3 152 142 141
3 152 141 153
3 141 140 151
3 141 151 153
3 151 118 116
3 151 116 153
3 154 111 110
3 154 110 155
3 110 108 156
3 110 156 155
3 156 157 158
3 156 158 155
3 158 159 154
3 158 154 155
3 106 105 160
3 106 160 161
3 160 162 163
3 160 163 161
3 163 157 156
3 163 156 161
3 156 108 106
3 156 106 161
3 164 144 143
3 164 143 165
3 143 138 166
3 143 166 165
3 166 157 163
3 166 163 165
3 163 162 164
3 163 164 165
3 136 135 167
3 136 167 168
3 167 159 158
3 167 158 168
3 158 157 166
3 158 166 168
3 166 138 136
3 166 136 168
3 100 99 169
3 100 169 170
3 169 171 172
3 169 172 170
3 172 173 174
3 172 174 170
3 174 102 100
3 174 100 170
3 175 176 177
3 175 177 178
3 177 179 180
3 177 180 178
3 180 173 172
3 180 172 178
3 172 171 175
3 172 175 178
3 181 182 183
3 181 183 184
3 183 185 186
3 183 186 184
3 186 173 180
3 186 180 184
3 180 179 181
3 180 181 184
3 187 105 104
3 187 104 188
3 104 102 174
3 104 174 188
3 174 173 186
3 174 186 188
3 186 185 187
3 186 187 188
3 125 124 189
3 125 189 190
3 189 191 192
3 189 192 190
3 192 193 194
3 192 194 190
3 194 127 125
3 194 125 190
3 195 196 197
3 195 197 198
3 197 199 200
3 197 200 198
3 200 193 192
3 200 192 198
3 192 191 195
3 192 195 198
3 201 176 175
3 201 175 202
3 175 171 203
3 175 203 202
3 203 193 200
3 203 200 202
3 200 199 201
3 200 201 202
3 169 99 129
3 169 129 204
3 129 127 194
3 129 194 204
3 194 193 203
3 194 203 204
3 203 171 169
3 203 169 204
3 145 144 205
3 145 205 206
3 205 207 208
3 205 208 206
3 208 209 210
3 208 210 206
3 210 147 145
3 210 145 206
3 211 212 213
3 211 213 214
3 213 215 216
3 213 216 214
3 216 209 208
3 216 208 214
3 208 207 211
3 208 211 214
3 217 196 195
3 217 195 218
3 195 191 219
3 195 219 218
3 219 209 216
3 219 216 218
3 216 215 217
3 216 217 218
3 189 124 149
3 189 149 220
3 149 147 210
3 149 210 220
3 210 209 219
3 210 219 220
3 219 191 189
3 219 189 220
3 160 105 187
3 160 187 221
3 187 185 222
3 187 222 221
3 222 223 224
3 222 224 221
3 224 162 160
3 224 160 221
3 183 182 225
3 183 225 226
3 225 227 228
3 225 228 226
3 228 223 222
3 228 222 226
3 222 185 183
3 222 183 226
3 229 212 211
3 229 211 230
3 211 207 231
3 211 231 230
3 231 223 228
3 231 228 230
3 228 227 229
3 228 229 230
3 205 144 164
3 205 164 232
3 164 162 224
3 164 224 232
3 224 223 231
3 224 231 232
3 231 207 205
3 231 205 232
3 177 176 233
3 177 233 234
3 233 235 236
3 233 236 234
3 236 237 238
3 236 238 234
3 238 179 177
3 238 177 234
3 239 1 0
3 239 0 240
3 0 8 241
3 0 241 240
3 241 237 236
3 241 236 240
3 236 235 239
3 236 239 240
3 23 22 242
3 23 242 243
3 242 244 245
3 242 245 243
3 245 237 241
3 245 241 243
3 241 8 23
3 241 23 243
3 246 182 181
3 246 181 247
3 181 179 238
3 181 238 247
3 238 237 245
3 238 245 247
3 245 244 246
3 245 246 247
3 197 196 248
3 197 248 249
3 248 250 251
3 248 251 249
3 251 252 253
3 251 253 249
3 253 199 197
3 253 197 249
3 254 10 9
3 254 9 255
3 9 4 256
3 9 256 255
3 256 252 251
3 256 251 255
3 251 250 254
3 251 254 255
3 2 1 239
3 2 239 257
3 239 235 258
3 239 258 257
3 258 252 256
3 258 256 257
3 256 4 2
3 256 2 257
3 233 176 201
3 233 201 259
3 201 199 253
3 201 253 259
3 253 252 258
3 253 258 259
3 258 235 233
3 258 233 259
3 213 212 260
3 213 260 261
3 260 262 263
3 260 263 261
3 263 264 265
3 263 265 261
3 265 215 213
3 265 213 261
3 266 16 15
3 266 15 267
3 15 13 268
3 15 268 267
3 268 264 263
3 268 263 267
3 263 262 266
3 263 266 267
3 11 10 254
3 11 254 269
3 254 250 270
3 254 270 269
3 270 264 268
3 270 268 269
3 268 13 11
3 268 11 269
3 248 196 217
3 248 217 271
3 217 215 265
3 217 265 271
3 265 264 270
3 265 270 271
3 270 250 248
3 270 248 271
3 225 182 246
3 225 246 272
3 246 244 273
3 246 273 272
3 273 274 275
3 273 275 272
3 275 227 225
3 275 225 272
3 242 22 21
3 242 21 276
3 21 19 277
3 21 277 276
3 277 274 273
3 277 273 276
3 273 244 242
3 273 242 276
3 17 16 266
3 17 266 278
3 266 262 279
3 266 279 278
3 279 274 277
3 279 277 278
3 277 19 17
3 277 17 278
3 260 212 229
3 260 229 280
3 229 227 275
3 229 275 280
3 275 274 279
3 275 279 280
3 279 262 260
3 279 260 280
3 33 32 281
3 33 281 282
3 281 283 284
3 281 284 282
3 284 285 286
3 284 286 282
3 286 35 33
3 286 33 282
3 287 90 89
3 287 89 288
3 89 97 289
3 89 289 288
3 289 285 284
3 289 284 288
3 284 283 287
3 284 287 288
3 112 111 290
3 112 290 291
3 290 292 293
3 290 293 291
3 293 285 289
3 293 289 291
3 289 97 112
3 289 112 291
3 294 38 37
3 294 37 295
3 37 35 286
3 37 286 295
3 286 285 293
3 286 293 295
3 293 292 294
3 293 294 295
3 81 38 294
3 81 294 296
3 294 292 297
3 294 297 296
3 297 298 299
3 297 299 296
3 299 83 81
3 299 81 296
3 290 111 154
3 290 154 300
3 154 159 301
3 154 301 300
3 301 298 297
3 301 297 300
3 297 292 290
3 297 290 300
3 167 135 302
3 167 302 303
3 302 304 305
3 302 305 303
3 305 298 301
3 305 301 303
3 301 159 167
3 301 167 303
3 306 68 85
3 306 85 307
3 85 83 299
3 85 299 307
3 299 298 305
3 299 305 307
3 305 304 306
3 305 306 307
3 69 68 306
3 69 306 308
3 306 304 309
3 306 309 308
3 309 310 311
3 309 311 308
3 311 71 69
3 311 69 308
3 302 135 134
3 302 134 312
3 134 142 313
3 134 313 312
3 313 310 309
3 313 309 312
3 309 304 302
3 309 302 312
3 152 115 314
3 152 314 315
3 314 316 317
3 314 317 315
3 317 310 313
3 317 313 315
3 313 142 152
3 313 152 315
3 318 52 73
3 318 73 319
3 73 71 311
3 73 311 319
3 311 310 317
3 311 317 319
3 317 316 318
3 317 318 319
3 53 52 318
3 53 318 320
3 318 316 321
3 318 321 320
3 321 322 323
3 321 323 320
3 323 55 53
3 323 53 320
3 314 115 114
3 314 114 324
3 114 122 325
3 114 325 324
3 325 322 321
3 325 321 324
3 321 316 314
3 321 314 324
3 132 90 287
3 132 287 326
3 287 283 327
3 287 327 326
3 327 322 325
3 327 325 326
3 325 122 132
3 325 132 326
3 281 32 57
3 281 57 328
3 57 55 323
3 57 323 328
3 323 322 327
3 323 327 328
3 327 283 281
3 327 281 328
