1.27101
1.24894
0.564335
0.935922
0.785399
0.779545
0.545538
0.595795
0.952529
1.04596
1.47916
0.902768
0.659648
0.770668
0.940272
0.882384
0.840012
1.02326
0.579015
0.644823
0.677857
0.687652
1.27711
1.07826
0.665736
0.728669
1.2097
0.404719
0.646178
0.601386
0.606008
0.611371
0.238128
2.60777
1.21038
2.11115
6.81923
0.946513
0.266104
0.383074
0.959238
0.706533
0.251146
0.311225
0.314884
0.285502
2.1537
2.56213
1.62499
1.51915
1.7452
2.12374
0.387262
0.482797
0.329035
0.528951
4.46854
1.88686
5.68034
4.88489
4.98411
1.23754
2.24995
4.19526
3.35577
6.89022
6.60163
6.86422
3.99711
3.36431
2.0031
1.5869
2.44438
0.926009
3.59762
3.84942
3.5625
6.82333
6.21812
3.35845
1.66922
2.05599
5.23428
4.11197
1.51637
4.71605
0
2.25734
0.995818
3.23752
1.00622
0.471132
0.634389
0.838801
0.994316
3.86166
0.758676
4.57878
0.659884
2.14509
3.69481
0.316315
1.75254
0.340837
0
0.150719
0
0.179524
1.9709
0.387851
2.81046
0.452158
2.69839
6.17863
5.66358
5.20858
2.38643
6.4826
5.03074
5.99772
4.76213
5.58254
1.38815
5.31215
4.73894
4.35082
1.69256
3.08422
5.37486
3.20928
2.98598
4.06121
7.02004
6.41692
4.08336
4.03494
0.34096
1.02497
0.600587
0.522338
0.569995
0.590825
0.560854
0.597281
0.721322
1.01248
0.827109
0.766976
0.581202
0.64657
0.512007
0.696021
1.42903
1.35306
1.16354
0.492127
0.831555
0.668604
1.18274
1.08826
0.612387
1.0822
0.880609
0.76994
1.23738
1.08431
0.663259
0.369427
3.18736
3.53679
3.41208
3.54566
4.57986
4.29552
4.5002
4.40053
2.9402
3.2634
4.3396
4.13195
4.74052
3.60464
2.94628
4.14514
2.14861
1.57567
5.42276
5.0608
4.34855
4.96537
2.36668
5.39762
1.51879
3.04009
5.74821
4.06634
4.94954
3.18532
5.1315
1.51719
0.930378
0.697651
0.512226
2.642
0.620598
0.66496
0.469398
0.653118
2.21613
1.03008
0.367713
0.453615
0.615975
0.506919
0.707609
0.871107
1.24283
0.569855
1.76753
1.29568
1.18473
1.26381
0.692298
0.920204
1.03438
0.811689
0.852813
0.634862
0.569202
0.599504
1.07628
0.856933
6.78777
4.79139
3.6588
5.31568
4.47135
4.55187
2.74705
5.0921
5.59032
5.36077
4.79473
4.87074
5.86508
4.40818
4.83906
4.86934
6.25823
4.50136
4.39548
1.25573
4.68794
4.47026
4.47762
2.65778
4.53653
2.44814
6.52267
3.45137
4.12894
3.94996
1.42605
2.42579
1.98136
0.698572
1.5849
0.814647
2.13216
3.67657
1.45151
3.43583
3.26393
4.32049
1.32776
0.585116
2.0938
0.735654
0.723769
6.11866
0.536
0.592592
4.63612
0.898554
3.4136
2.6418
3.92134
0.343222
6.13558
0.85492
1.90843
0.600314
2.7199
2.28776
4.26379
2.92258
0.566902
1.01431
1.18913
0.795129
0.739851
1.08236
3.79049
0.542765
0.963477
0.98886
1.38742
0.68008
0.42064
3.86195
0.587691
1.26776
0.959077
1.49609
1.2086
2.01709
0.791299
0.496545
0.911487
1.31876
1.09197
1.28145
0.627708
0.734337
0.458122
0.670815
1.17398
2.45869
0.547135
0.690695
0.560998
0.630646
0.540847
2.21308
1.23621
1.09882
0.718544
0.752519
0.562161
1.24161
1.10096
0.944129
0.404913
0.188008
2.24102
0.722978
5.9209
0.621092
0.941728
0.574576
0.804313
0.505068
0.726476
2.99561
0.572999
0.646446
0.754555
1.84252
0.872881
1.35384
0.948867
0.588123
1.36051
0.820917
0.545958
0.581736
0.933064
0.617928
0.81359
0.790897
0.636607
1.04915
0.523714
0.813042
1.95067
0.394809
0.709752
0.579985
0.738233
0.593422
0.408773
0.582983
1.02661
1.15784
0.753622
0.583519
0.344591
0.507411
0.409508
2.54163
0.471045
0.534849
2.63987
2.19883
1.73885
1.51284
1.69384
1.71772
0.863532
1.59336
2.36552
4.15639
3.0346
3.54907
3.01171
3.45622
6.17512
2.69235
1.82325
2.4347
1.22247
2.24
4.85444
3.06284
4.6036
5.05822
1.94235
1.56585
1.05741
5.51311
0.768901
1.83734
1.00826
1.77367
1.47038
0.855044
0.879976
1.00558
1.01918
1.63488
0.745586
2.16084
3.51717
4.94588
2.33735
2.20858
1.09759
2.39436
3.71179
1.22451
3.65977
3.03357
2.05115
3.40707
3.65777
1.87841
1.85718
2.92676
1.88556
1.09176
0.91842
0.673878
1.97002
1.23824
1.98497
1.47693
0.89517
0.720746
0.883974
1.27429
1.77387
1.16807
0.597678
0.82663
5.31019
1.32061
1.45243
4.44464
1.36452
1.37317
0.970184
0.978063
3.68595
4.06165
4.26447
1.29521
1.53678
3.66045
2.44665
1.54792
0.776775
1.3279
0.934016
0.880502
1.54201
0.789793
1.29897
1.57225
1.1118
1.26835
1.92374
1.90374
0.850774
0.820743
0.648436
0.789497
1.51627
5.94838
1.55974
1.96865
1.06933
1.68097
5.55079
2.00494
4.91617
4.21392
5.1189
0.964628
2.33843
2.5517
2.90116
1.23174
0.769005
0.740565
0.67995
0.687169
0.775228
0.870925
0.90773
0.774572
1.83054
1.65163
1.12877
5.1624
2.09314
2.47543
1.9939
2.58655
3.78845
3.56494
3.03462
1.8851
2.16891
2.05127
1.16285
1.6011
3.82766
2.45311
1.63657
2.46004
2.3886
2.37094
2.91359
3.47792
1.69455
2.82513
2.20475
2.75371
3.00174
2.37186
5.37932
1.7611
2.00255
1.42781
3.64575
1.80127
2.26478
1.83939
1.39924
1.94235
1.81423
1.87547
3.44285
2.12207
2.97374
2.27482
2.39622
2.91828
1.86164
3.64053
1.5575
1.80817
2.34893
3.39582
1.51257
2.21169
1.11635
1.41863
1.63452
1.55782
1.86062
2.15067
1.5575
2.09878
1.07778
1.64695
3.69014
2.61979
3.00282
2.59339
1.0826
1.68169
2.58386
2.88319
4.49612
3.53728
5.94028
3.23254
3.67476
4.28716
5.79148
4.31322
5.61626
5.40161
4.87728
6.27534
2.71096
5.61127
5.89281
4.49559
2.01664
2.46357
4.86547
3.4461
5.31104
4.08495
5.16796
4.03891
4.92878
6.72466
2.15338
6.69844
5.57763
3.41531
5.62837
1.94116
5.48343
3.51612
3.34563
6.25662
1.90149
2.04536
4.60494
2.05691
2.40974
5.44198
6.30278
4.91411
3.8503
4.93176
2.03621
1.48627
3.06073
1.032
3.3615
2.4184
3.81846
0.532679
3.03554
0.500238
2.72562
2.61062
0.958455
1.78041
1.86211
2.75369
3.88669
0.915983
5.04693
0.737347
4.40978
3.57178
0.516264
1.19853
1.07073
7.58887
0.337434
3.13495
3.22359
0.812951
3.79084
3.52873
2.30153
1.08859
0.906318
0.653602
0.782488
0.740526
3.24771
1.94718
4.26417
4.11764
2.38372
5.1999
0.613413
4.80073
0.391871
0.732023
0.72382
2.55358
0.694823
1.37876
0.656294
1.24601
3.94537
1.6686
1.7969
0.910753
2.12836
0.798451
0.648223
0.755571
1.15439
0.3983
0.949998
1.56746
0.484302
0.942988
0.939771
0.728279
2.48945
1.89829
3.41618
0.506714
2.13444
0.742592
1.76897
6.9646
2.6568
0.459031
6.9332
6.01348
2.89195
5.05019
3.39492
0.792261
0.821671
2.19376
5.94219
3.87427
5.15672
2.91367
1.74026
2.26131
6.62518
3.94775
0.660164
3.03592
1.30237
0.792629
1.38756
4.86444
0.304095
0.544733
3.32364
0.752186
0.328294
3.98021
0.311282
0.413147
1.39194
0.781199
0.896538
0.970406
0.888979
1.91253
0.395893
0.328238
0.373218
0.400659
2.87827
0
2.12004
2.6502
3.48186
4.15122
5.75654
0
1.1627
4.73754
3.48811
2.90988
3.24049
0
1.46773
5.60169
1.13045
1.97883
2.70618
2.83896
2.08749
3.76921
3.71211
1.45623
2.58892
4.30301
1.14629
2.00334
2.26463
2.32676
2.21499
1.19699
0.48465
4.33194
1.73266
0.788324
0.574832
0.164391
0.283033
1.13213
1.59498
0.328006
0.256007
0.237319
0.265506
2.34335
5.44253
1.15173
6.11955
1.88011
1.35412
0.395508
1.54688
2.40805
0.456932
0
0
