2.21765
1.93304
2.33304
2.8611
5.23455
10.0977
3.29206
8.16972
2.34002
7.91553
6.34938
3.26079
4.76011
4.48322
5.79724
2.78842
6.97494
7.49886
2.23507
7.38365
7.2856
6.8847
6.36511
5.94479
2.43475
7.8191
6.1909
5.5182
9.48571
5.99813
2.72226
6.65909
1.71074
1.70201
0.87681
3.66755
3.29286
2.48475
2.28719
1.92344
0.544652
2.39452
3.42132
2.6643
3.0613
3.59373
1.02955
1.56581
3.08033
2.86765
2.96258
2.06367
2.36584
2.46679
3.37863
3.54638
3.05936
3.47635
3.30022
3.3941
1.56712
3.49712
3.33079
3.50552
3.2917
3.58519
2.83062
2.65967
2.26464
2.47395
1.2118
2.66326
2.91459
2.53166
3.32015
1.03635
3.4336
0.693436
0.914963
3.28823
2.35008
2.28481
2.28078
2.09785
2.73474
2.11126
3.15983
2.24111
2.9625
0.504218
1.75381
2.13034
3.57566
3.20499
1.84012
3.47446
3.62754
2.53078
2.25961
3.64689
1.75663
2.89223
3.15994
3.43808
3.42199
1.47641
2.97708
3.01751
3.33775
2.05838
2.62373
3.45249
2.49038
3.31235
2.28517
2.94918
3.44758
3.21956
2.11715
1.85988
1.93048
0.815012
2.64649
1.5783
2.39086
1.52015
0.589076
2.63624
1.35612
0.945647
0.529376
2.91346
2.84193
2.45661
1.82539
1.52417
2.4598
1.71643
1.8329
1.76827
1.68294
1.36341
3.24321
2.35975
2.38588
3.99925
4.5962
4.34869
3.13778
4.81407
2.04594
3.73393
5.53923
3.56898
6.46728
4.88773
3.25765
3.75174
6.37968
3.46146
1.4287
7.64455
3.42595
6.51491
4.64509
4.38909
2.56527
5.99095
4.117
4.23798
4.22774
4.34456
8.65559
1.26498
3.32656
5.97953
4.44491
3.87491
4.61253
3.88615
2.95039
8.06088
1.58281
7.34248
1.24511
2.09078
2.72514
2.17559
7.61826
2.47835
1.77944
4.29734
2.77563
2.19199
2.01969
3.58684
1.44616
1.30706
1.08468
4.26239
4.45256
2.77923
2.6332
2.30386
6.47705
2.8828
4.27968
3.26471
2.5552
3.68205
2.56311
2.59735
4.59807
5.68194
2.76426
1.50973
5.73955
5.81322
1.45661
5.18602
4.87055
7.82644
2.7267
3.71179
3.704
4.2178
1.81112
3.22207
5.58319
5.2348
4.92636
2.94907
3.90757
4.24422
2.07962
1.67555
2.22962
3.56338
3.82049
2.80846
4.03361
2.81785
5.39743
2.31091
4.45763
3.37712
1.02892
1.88109
2.80747
3.04218
5.06529
6.51747
8.31413
6.32183
1.35266
1.53244
1.46044
1.28728
3.23077
1.59318
2.15894
1.18966
4.96001
3.30293
2.87476
0.97824
3.40104
3.08509
7.03576
4.31677
2.35706
6.31095
2.24192
3.61753
4.88688
5.58265
6.27334
4.04059
3.15303
2.96541
5.91694
7.05848
4.08062
7.28445
2.06614
5.13475
6.01475
5.78635
4.04392
6.6233
7.4712
5.2391
4.81014
6.73947
6.37198
7.27116
6.16797
2.42869
5.58274
5.80493
5.48546
4.33882
4.84646
4.45384
6.82321
3.47993
7.61666
3.69954
6.99623
5.04361
11.623
3.03832
6.36167
9.77251
8.23474
3.86893
7.88845
5.01418
9.79682
3.74676
5.4066
7.86658
5.20529
3.76722
9.69659
4.63645
7.81296
8.94438
3.58576
7.14273
5.9234
2.72848
4.89083
7.56272
2.80307
6.57618
5.1675
7.67314
6.4965
5.61557
6.17451
5.86772
7.06635
5.36429
3.31997
7.72129
6.53663
2.61697
3.29031
6.10879
2.79318
2.74526
1.99719
3.12345
5.56039
7.59664
4.38801
4.51252
2.54741
3.15548
7.27398
6.08106
5.34945
6.71127
6.84445
2.41239
4.52379
2.56012
8.07365
2.60388
6.007
3.79278
3.40015
1.73621
6.4253
5.70971
4.2465
2.77573
5.62755
8.33513
9.12914
5.00438
4.9253
1.31747
4.68654
4.30875
1.59418
5.08792
8.95041
1.95056
8.95029
5.64073
4.30063
7.32558
6.22556
2.92328
1.08848
8.03137
1.28858
1.02852
1.02799
0.968692
0.520602
0.98733
1.06254
1.3032
0.810879
1.51807
1.40941
1.49868
0.857344
1.44664
6.84793
3.80787
1.08757
1.27492
1.43801
1.79123
2.75216
0.785252
1.42819
1.18432
1.13927
0.937502
1.10906
1.66028
0.996073
0.853065
0.719555
1.13816
1.93298
1.04592
0.660758
0.811235
1.25743
0.836072
1.64745
1.21726
1.66278
0.783856
1.39583
0.879556
0.931038
0.502229
0.697318
0.439799
0.338382
0.889324
0.860387
1.45987
0.553435
3.43581
0.499156
0.973208
6.14561
1.17385
4.25145
1.39171
0.841172
0.978366
0.8136
0.941456
1.81686
1.08006
0.573859
0.759742
0.703074
0.819662
1.60906
1.3101
0.614677
0.632621
0.974805
0.637353
0.796886
0.391836
0.584721
0.73948
0.57855
0.903888
2.9235
0.669265
0.909077
0.651355
0.659084
0.459972
3.37747
1.17305
1.65507
1.2119
0.87686
0.897073
0.737084
0.853239
1.56641
1.04252
0.54361
0.798695
0.911809
0.689924
1.05557
0.978941
0.89711
0.911954
1.08999
0.429199
0.67628
0.435684
0.831312
1.55325
0.354854
1.38751
0.476089
0.327306
0.476816
0.187652
0.432688
0.442539
1.19701
0.988656
1.45557
0.851581
0.450361
0.884022
0.48751
0.735372
1.21847
1.3852
2.09839
1.30066
1.53433
1.50264
1.53102
1.28913
4.236
3.56274
6.37802
5.90438
1.54814
2.1879
1.95864
1.88347
6.40676
5.33423
1.47993
3.74101
1.74412
2.79752
6.31395
3.08756
0.435091
0.718267
0.916092
1.14759
1.44775
1.46514
1.20598
1.14789
1.85216
0.654924
1.39419
0.880416
0.934065
0.857446
0.931882
0.781184
6.24837
2.78143
8.47355
2.01376
2.4712
1.41937
1.53062
1.41746
6.67501
5.63554
1.71507
2.88177
8.16813
2.93613
5.96332
2.5932
0.698724
0.658064
0.756998
1.07351
1.52884
0.852897
1.9354
0.937082
0.742384
0.670532
1.06398
0.78053
1.25742
0.784773
0.750091
0.68225
1.83303
2.23661
4.62535
2.39681
1.37607
1.37182
0.991722
1.25474
10.3578
7.28744
2.61016
1.45884
1.99553
1.32676
1.78647
10.0457
0.848934
0.781844
0.790687
0.759166
1.2401
1.04782
0.761408
0.979573
0.591989
0.704822
2.08357
0.742778
0.830269
0.951666
0.636342
0.804306
4.49967
6.79351
1.36391
7.51885
1.11892
3.3196
2.12526
1.32105
1.40624
3.15284
1.63364
1.67442
1.49468
1.09533
4.87927
2.76802
0.972588
0.735122
0.543812
0.527043
0.965793
0.931496
0.873659
7.55049
1.95818
2.11968
0.975545
1.45423
2.29787
3.69474
1.82623
3.03137
4.21646
4.15465
3.80542
3.05363
2.4837
3.24025
1.06876
2.68907
3.92611
2.69695
3.59126
3.51015
2.78805
3.45229
4.15299
3.76101
2.91038
2.5235
1.36491
2.39984
2.56909
2.64475
2.90679
2.93332
3.17503
2.21714
3.29698
2.14818
2.62044
2.99974
3.34987
3.74269
3.94783
2.54649
3.47728
5.80085
3.13237
4.01111
3.69563
3.00033
4.88186
4.45968
2.65061
4.18237
2.97906
4.11739
4.61538
3.4183
2.88494
2.67502
2.19146
1.52584
3.21228
1.79479
3.4448
2.49164
1.65913
3.83142
3.76567
2.78874
3.95637
3.10457
2.07785
3.49958
3.85737
3.34784
4.58745
3.58533
3.9784
3.92599
4.24745
4.26063
4.49711
3.83401
2.86718
3.54581
2.69694
4.79221
4.31902
7.50381
3.03166
3.80641
3.53767
3.31896
4.12345
3.0216
3.07128
3.12661
3.13084
1.2371
3.69433
3.28892
3.28938
2.8676
2.00155
2.7346
3.66847
3.21927
5.66996
2.33125
1.45836
3.18844
4.70289
2.75233
1.23803
3.13598
0.994108
3.21975
3.43471
2.52211
2.52242
4.05092
1.64414
2.3789
2.15769
2.34909
2.14851
2.72182
3.16277
1.98679
2.17346
2.58192
3.25383
3.27064
2.81194
