4.75129
5.10533
6.48649
6.67372
3.48045
5.6165
2.66176
2.70512
2.03392
7.07517
2.77652
8.50622
3.40708
6.47499
7.27635
5.53982
1.26644
2.30308
3.44815
2.3117
2.21747
3.89602
3.29896
1.97575
2.89012
3.00098
2.85235
2.21212
2.89202
5.79755
3.44815
3.17215
4.47215
2.2872
4.14227
5.98207
4.24412
3.87495
2.51946
2.15187
1.85726
2.1876
1.649
2.15395
7.63912
3.5977
4.06074
4.31772
1.00214
0.83324
0.94459
1.01644
6.91075
4.50977
1.1806
1.71338
1.09275
1.01294
4.14477
1.46088
3.88584
2.26105
1.07354
1.32152
1.29661
1.0796
1.0623
1.49176
2.66811
2.57312
9.07066
1.45854
1.09791
1.29561
1.19492
4.40094
7.58317
5.12735
0.939147
1.15858
1.61275
3.16313
6.94767
4.76385
3.90018
3.44405
1.46672
1.7364
3.96722
1.8695
3.28
1.48532
4.00768
3.88725
3.98604
5.61666
0.470752
1.47539
0.836483
1.92622
1.53344
2.19037
1.63356
1.56443
0.368562
0.374532
0.486337
0.507459
0.781782
0.702535
0.464756
0.691892
2.73461
1.66431
2.26157
2.22508
1.69498
1.60388
0.639571
1.04706
2.30769
2.0922
1.91546
1.9254
1.16292
2.21773
1.85792
1.99062
1.3383
1.93927
2.31336
1.42677
1.64654
1.84469
1.73427
8.66962
2.5446
2.1084
3.15578
1.54738
1.12237
2.54138
1.9266
2.5948
1.8028
2.09934
1.68632
1.80686
1.65249
1.68108
2.51034
1.79488
1.292
1.36143
1.35451
1.38063
1.5378
1.85595
1.28538
1.6642
2.23413
1.51101
0.902022
1.51526
1.89805
2.19003
1.46658
2.47997
0.415036
0.523347
1.93895
2.49476
1.91031
1.19888
0.617742
0.953738
2.04214
1.60036
2.18505
1.96152
1.85922
1.58345
1.99463
1.86074
1.29331
2.49328
2.35144
1.91709
2.54744
2.11369
2.02473
2.42896
1.65578
1.8505
1.34217
1.55105
1.58256
1.34697
1.85824
1.65155
3.14981
1.77956
1.85267
2.51714
1.27127
2.4569
1.40079
1.58804
3.4299
1.51169
1.49949
1.63166
1.4907
1.42446
2.00448
1.28288
1.41482
1.31252
1.32112
1.13225
1.57425
1.57023
1.3917
1.43682
2.32297
2.2453
1.85842
2.00116
2.24752
2.15199
1.94609
1.86653
2.83005
1.78352
0.631306
1.75277
0.998238
1.76249
2.40676
1.87695
0.324708
0.337202
0.447065
0.748977
0.828986
0.741432
0.450779
0.571956
0.556372
1.33005
1.76986
1.31706
2.19907
2.12291
0.824915
0.75173
4.75066
5.10554
3.47188
2.92935
5.41765
5.80136
2.44446
6.17525
3.61011
3.05231
4.03162
4.74269
1.57184
6.79489
6.05931
2.54275
1.27678
1.9161
1.73018
2.62797
1.82484
4.82679
3.68721
3.68456
2.48539
6.9434
6.62733
5.53982
3.57697
6.87391
2.85568
2.82056
2.71299
0.566819
0.62627
0.983864
1.95268
1.21064
1.67409
2.68509
0.857344
2.55441
1.87945
1.21844
1.99604
2.13129
0.997103
1.68825
1.29458
2.47558
1.54765
2.45299
2.52873
1.98976
2.34889
1.92285
1.35713
1.6112
2.22459
1.58731
1.7359
2.40214
1.11783
1.90203
0.465628
0.227375
0.0467854
0.427849
0.221543
2.00925
0.347133
2.13094
0.484093
2.00862
0.853205
0.271232
2.35535
0.17148
0.0577282
1.21938
0.484488
0.422722
0.31172
0.460082
0.36687
1.13731
1.27266
0.528354
0.224179
2.45002
0.703429
2.38544
0.791817
2.12509
0.332689
0.140534
2.40767
2.08334
5.0632
2.18674
4.82593
2.26753
2.71594
2.25215
1.20564
0.746344
3.66138
1.319
2.81805
1.98585
1.39169
1.49601
1.20225
3.32232
1.35637
1.52037
1.85777
2.13741
1.43381
1.95407
1.97495
2.19256
3.88055
4.3819
1.70582
1.28889
1.57022
2.11687
2.06285
2.06138
2.76094
2.04696
1.7942
1.98206
2.14705
1.92822
2.83829
2.01988
2.06586
2.69275
1.92749
3.4004
3.12455
5.11014
1.01777
3.94674
4.16865
1.87785
2.70281
1.68057
1.02988
1.31221
0.268662
1.23435
1.43325
2.03771
2.2877
2.79033
8.82328
1.67202
0.263841
0.439928
0.281285
0.362805
2.4826
2.65399
0.610192
0.215295
0.489077
0.452622
0.845579
1.11533
1.02793
1.06627
0.271546
0.353063
0.695337
1.89244
0.0654278
1.8304
1.39553
1.67826
0.350201
2.13992
0.262723
1.17421
0.325366
2.53864
1.95564
1.97038
0.0807864
1.68847
1.8304
1.27643
0.243755
0.219429
0.229634
0.189435
1.69287
1.26146
0.112212
0.134597
0.298921
0.173742
0.34417
0.2889
0.228386
0.254192
0.279958
0.760942
0.332844
0.270503
0.294564
0.235709
0.276922
0.208564
1.86831
1.57306
1.70452
0.263361
0.444755
0.663402
0.335399
0.500444
1.54975
2.22626
1.78028
2.02469
1.85005
2.13233
2.67846
2.47235
2.10685
1.96195
2.37547
2.43876
2.12578
2.09858
2.49558
2.50357
2.59908
1.13148
1.8928
1.10228
1.19804
1.96484
1.81629
1.92346
0.157381
0.175124
0.152816
0.209708
0.33165
0.229443
0.348378
0.214304
0.775444
0.395291
0.222259
0.330251
0.391821
0.362607
0.174971
0.331171
0.700161
0.780435
0.710993
0.688918
0.686015
0.849963
1.54044
1.30834
0.743079
0.480721
0.395779
0.584165
0.392587
0.587795
0.694759
2.59916
0.854002
2.74692
1.66436
1.59341
0.788331
0.822408
4.0533
3.54723
2.02758
2.09141
0.171982
0.230796
2.4311
3.18437
2.74171
0.0606659
0.087847
0.05909
0.0085523
0.203282
0.0260218
0.122252
0.0860295
0.539959
0.439203
0.990949
0.552836
0.678296
0.439154
0.510535
0.787319
1.3266
0.471505
0.301676
0.569088
0.589044
0.807985
0.589717
0.330955
0.526304
0.403332
0.380015
0.654639
0.708542
0.706294
0.53393
0.704478
2.68369
0.679722
0.17946
0.265258
0.313659
0.267529
0.144988
0.173359
0.31697
0.217984
0.323236
0.238134
0.160739
0.202367
1.68482
1.51071
1.63639
2.01169
2.01589
1.99296
1.58034
1.73113
2.89731
2.94955
2.02188
2.00821
2.05109
1.94531
1.82536
2.23905
2.18277
2.18613
2.58847
2.64434
2.19318
1.94019
0.770512
1.83465
1.48414
1.96586
1.81966
1.57125
1.97771
2.12565
2.24204
1.95931
0.158078
0.148408
0.154758
0.178039
0.425111
0.280652
0.376013
0.299426
0.152214
0.173208
0.370953
0.314378
0.324952
0.253013
0.207235
1.37578
1.48494
0.535606
0.854713
0.645854
0.37134
0.701386
0.783302
0.778951
0.722194
0.654383
0.441361
0.517413
0.339548
0.529621
2.53102
2.0907
0.0596375
0.0695166
0.100378
0.0838795
0.0740784
0.0638586
0.0525744
0.0550006
0.241597
0.128608
0.136968
0.0897777
0.143693
0.15132
0.138358
0.227276
0.161986
0.144173
0.120345
0.0797311
0.0482372
0.103864
0.0833563
0.0856787
0.0264938
0.053909
0.0165092
0.0222781
0.0231257
0.0894468
0.0323797
2.17312
2.08637
2.31921
2.1306
1.73163
1.99796
1.84645
1.82188
2.25792
2.29346
1.54331
2.28752
1.63994
2.73214
2.3193
2.61413
1.18814
2.16195
1.21823
1.284
1.38965
1.37009
1.48292
1.34495
1.25918
0.734778
1.80437
1.21256
1.44645
1.60409
1.15564
0.865509
1.34457
1.26639
1.23377
1.25274
1.11708
1.33748
1.13108
1.20226
1.40245
1.40613
0.736749
0.873723
1.00044
1.20388
1.40299
1.31437
1.24278
0.440005
1.22677
0.184284
1.22217
0.652422
0.863805
1.15841
0.99585
0.695322
0.461023
0.769619
0.83614
0.495824
1.11691
0.952516
0.367507
0.62325
1.30755
1.32898
2.93636
1.271
4.04696
1.01391
1.23157
6.19234
4.79284
5.4136
2.5476
2.70999
1.94635
1.30401
1.6469
1.95832
1.18795
1.30348
0.943044
2.32073
0.948419
1.95897
1.11821
2.36654
1.32791
1.70538
4.17796
2.35141
1.0396
1.18521
1.45972
0.691493
1.49796
1.01916
1.45781
1.65345
1.70153
1.53267
1.20184
1.4589
1.4845
1.22307
1.32302
1.5212
1.47919
1.45655
2.39453
2.53725
1.50936
2.61312
1.64132
1.91829
1.65229
2.88852
2.23811
2.09315
1.96662
2.10818
2.09943
2.15064
2.31869
2.14686
1.0238
2.09507
1.15047
2.30481
6.85532
1.35406
4.16439
1.48893
1.50613
2.51987
0.977024
1.14397
1.38007
1.3182
1.2322
1.38914
1.30438
1.21627
1.41122
1.19016
1.52283
2.61952
0.900135
5.6791
0.502445
1.54022
1.55387
1.23952
2.24358
1.35609
1.29276
1.34176
1.39431
0.934
0.921754
0.690991
0.944863
0.200853
0.916846
0.633661
0.840693
0.737498
0.682393
0.865938
1.00709
0.617924
0.983958
0.661248
1.60538
1.3118
1.72093
1.41197
1.1174
1.19489
0.732813
0.890875
1.22352
1.32072
1.07841
1.45136
1.23382
1.29583
1.70048
1.2843
2.86223
2.17515
2.72439
2.76762
2.15557
2.37364
1.46981
2.25081
2.68508
2.65198
2.60184
2.53034
2.46635
2.44097
2.72461
2.63628
1.9248
0.441692
2.06336
0.322541
2.09755
1.48539
0.57862
2.55443
1.74364
1.8376
1.98467
2.0067
2.36159
3.34431
2.41192
1.0467
1.41527
0.220954
2.21726
1.57618
1.17202
1.17448
1.24267
1.37837
2.3051
1.55875
0.943307
1.18179
1.12698
1.13666
1.82438
1.55002
1.06322
0.914192
1.00927
1.2418
0.810395
1.063
1.23743
0.782019
0.971947
0.864148
0.830304
0.997446
1.02864
1.09631
1.04807
0.930316
4.95784
4.00826
1.97036
2.23508
1.61951
1.91438
1.84688
1.88314
1.89461
2.11605
2.88604
2.06268
2.03573
2.25627
1.73802
1.79517
2.29569
2.78901
2.43463
1.41688
2.66067
2.06637
4.19621
2.00044
2.32466
2.70066
1.38309
2.19569
2.09415
1.97817
2.19316
2.23126
1.77515
2.03907
1.71589
1.86251
2.14987
2.13237
2.20733
1.78083
1.93834
0.484961
0.532026
2.04776
2.23833
2.01834
1.97434
1.78333
2.69213
2.68013
2.81492
2.61646
2.41305
2.55374
2.57037
1.7789
2.96219
2.53694
2.23402
2.32144
2.55366
2.31351
2.72994
3.79962
2.36766
3.9502
2.3685
2.15096
2.09364
1.70123
1.38049
2.26363
2.40001
2.53528
3.82873
2.03082
1.91107
1.96827
2.47434
1.22905
1.91202
2.1317
1.82637
1.8365
2.04968
2.26921
1.93273
1.99189
1.47786
4.21414
1.85271
1.8189
4.28347
1.73516
1.87572
4.11073
0.837578
0.99995
0.767044
1.09001
0.908688
0.935492
0.983367
0.954736
0.878735
1.13663
1.1938
0.744761
0.963261
0.92034
0.867322
1.23046
2.17857
1.57181
1.79648
1.55989
1.07114
1.1855
1.08387
1.27399
1.72662
1.3475
1.16792
1.18615
1.07831
1.1066
1.63664
1.57558
3.62657
4.05656
0.938943
1.09171
12.206
0.933172
1.54124
2.25807
5.19339
1.47652
1.23906
1.32238
1.08433
1.20887
1.18439
1.57157
4.17146
2.96496
3.60083
1.96653
1.13754
4.40483
1.27903
1.44696
1.88587
1.88752
2.30709
2.09223
1.02979
6.87736
4.04538
4.31605
1.86351
1.52911
5.74026
1.18751
0.866629
4.11059
1.03255
1.12436
4.15693
2.42338
4.33027
1.50623
0.86053
1.36803
2.19818
2.14096
5.09854
4.74932
1.27554
1.54328
1.00785
0.844256
1.08832
2.2273
0.863378
0.772278
0.913756
0.824488
0.78392
0.902556
0.881584
1.06743
1.55246
1.14727
0.649003
0.800528
0.817968
8.36302
1.76154
1.74912
1.09137
4.96366
5.13967
4.42544
4.17839
4.23319
1.7172
2.04334
1.36882
4.63816
2.04107
2.5438
1.56268
1.58864
5.53446
3.8529
2.30599
1.51494
2.12599
2.12291
1.0072
4.81699
2.56138
5.86635
1.49553
1.11336
8.62984
1.01074
8.13614
3.96225
1.33147
2.04877
1.15791
1.78086
5.45242
1.58615
1.51642
4.23265
1.9335
1.12255
2.63801
1.47011
0.973892
1.68686
1.32803
1.43279
1.24782
1.87103
3.00641
4.03385
2.15444
2.40806
3.30558
1.09664
7.51103
1.09171
2.41198
1.57381
1.26201
0.552619
2.81903
6.09602
3.70446
2.01326
2.80583
1.18963
1.62431
3.99569
3.44109
1.76414
1.71721
0.579722
1.56345
1.47002
1.36276
3.7589
3.06319
2.90904
1.67044
4.70431
1.94411
1.85759
1.89048
1.92817
0.83334
1.62215
2.9747
7.16969
0.841414
0.942401
1.06185
0.762551
0.772916
1.07097
0.868665
0.845025
5.04704
1.37841
1.36303
10.5731
1.28804
1.04822
0.637234
1.53718
3.22462
1.89366
1.94731
0.968757
2.15944
1.32459
4.67869
1.55171
1.27562
1.3938
1.00729
1.1547
1.09681
2.46565
1.868
1.21721
1.40007
3.56231
1.3066
1.99434
2.18571
2.33752
4.21703
2.15509
1.56608
1.54822
2.35856
2.14488
2.21254
1.38557
1.16426
1.44749
1.58548
1.75671
1.48495
1.16376
1.88318
2.38623
3.91312
1.86514
1.69562
2.08971
4.33192
1.93251
4.1886
3.51867
1.28616
1.38581
1.51696
1.9584
1.38893
1.31424
2.06743
1.32069
2.15538
1.43822
1.40036
3.71951
5.04535
2.4108
2.07163
2.39029
1.26154
1.90141
1.56566
1.45951
1.3434
1.43752
4.55669
4.51105
4.13321
2.35603
1.60422
1.938
1.88267
1.16755
2.32623
2.26232
1.83526
1.57342
0.98103
8.62482
0.569987
0.687542
0.674955
0.578456
0.526137
0.853136
3.1398
0.764969
3.61846
0.680582
0.911029
0.642419
0.78217
0.596723
0.936315
0.866266
0.944993
0.746102
0.794332
0.706908
0.878718
0.756632
1.17614
0.899766
3.37219
8.59615
0.653433
0.649999
0.676656
0.671515
1.4097
1.4981
1.06983
1.44251
0.929887
1.31065
1.35863
1.45388
0.456773
0.237988
3.12936
2.03105
0.385412
1.34691
1.12219
1.28788
0.265186
0.304346
0.424699
0.418176
1.2055
0.349694
0.572889
1.2313
1.08837
1.08448
1.26475
1.02156
0.98679
1.01217
0.675842
0.873595
1.03116
0.805017
0.648474
0.67941
0.647954
0.595689
1.21002
1.28291
0.636508
0.540195
0.556192
0.509586
0.782025
0.814294
0.594598
0.742787
0.37189
0.477305
0.567362
0.44534
0.452539
0.404247
0.648869
0.643227
1.50333
1.07642
1.28684
0.875293
0.662229
0.788338
0.602393
0.531866
0.965048
0.678261
0.958778
0.718582
0.23739
0.130005
0.313231
0.749712
1.40457
1.42428
0.987445
0.812652
1.26861
0.108857
1.17067
0.319865
1.16904
0.963951
1.00441
1.20806
1.05297
1.26505
2.35247
1.55111
1.08966
1.14071
1.14359
1.09282
0.0616121
0.934549
0.938897
1.18606
0.717975
1.08227
0.717839
0.744297
0.452556
0.755201
0.975578
1.06113
0.847136
0.771607
0.756247
0.789678
1.1084
0.962259
0.765549
0.944923
0.345229
0.650432
0.873231
1.03424
1.09962
0.873434
0.881296
1.15232
6.19182
1.14388
0.982821
1.04676
0.47245
0.776162
0.665967
0.641723
0.961624
0.784124
1.01948
0.725471
0.649006
0.627149
1.36379
0.974458
0.152135
0.229776
0.491363
0.216293
0.312541
0.185495
0.337078
0.495605
0.776495
0.726607
0.364364
0.368576
0.122381
0.389229
0.535404
0.486063
1.02722
1.26201
1.20214
1.2538
1.03699
0.900899
0.759845
0.911907
0.959197
0.510078
1.1333
1.47082
1.3581
1.48199
1.17759
2.4262
0.583727
1.05586
0.692412
0.793891
1.25214
0.830144
1.18379
1.30881
1.13561
1.27869
1.21826
1.53744
1.36109
1.35589
1.29179
1.50344
1.54127
2.19488
1.81401
2.13897
1.47031
2.00352
1.97581
1.3415
0.512874
0.489409
0.519823
0.679318
0.525927
0.48463
0.329609
0.310073
0.719291
0.715583
0.68162
1.03577
0.764445
0.564475
0.585968
0.894327
0.87281
1.20953
0.890216
0.663876
0.647548
0.657432
0.81602
0.612888
0.889067
0.820571
0.771509
0.763904
0.742537
0.757244
0.884707
0.823416
1.00079
0.626891
0.747635
0.90906
0.725184
0.958086
0.858847
0.754977
0.76424
0.711879
0.844025
0.526628
1.09336
0.618406
1.53394
0.785574
0.393185
1.14439
1.29527
1.02057
0.748232
0.607159
0.804117
0.7826
0.92674
0.454088
0.327275
0.496064
0.379694
0.523403
0.435781
0.317384
0.430727
0.53436
0.449211
0.600981
0.567756
0.432091
0.536316
0.562485
0.513862
0.718632
0.916361
0.745465
0.866968
0.577626
0.814364
0.593134
0.577174
1.21705
1.06889
0.375287
0.914183
1.07132
0.892832
1.29506
1.12547
1.12823
1.32452
0.298763
0.185532
1.17507
1.05419
0.714987
0.517665
1.37923
1.14799
1.30314
1.2976
1.45045
1.15921
2.97787
0.649331
1.54695
1.55917
1.35147
1.57341
0.973293
1.20261
0.985896
1.2905
0.967252
1.11014
0.891903
0.652563
0.662812
0.806277
0.690965
1.06424
0.631002
0.877771
0.83157
0.796302
0.761315
1.45546
1.09152
1.08721
1.015
0.928857
0.873008
0.854441
0.785851
1.12285
0.933353
1.02447
0.678982
1.04791
0.704457
1.04929
0.697549
0.813373
0.724461
0.773868
1.04984
1.63151
1.34312
1.20649
0.586344
1.87503
1.46735
1.18248
1.72406
2.08108
1.36625
0.998892
1.23996
1.58399
1.04998
1.18603
1.24151
0.282969
0.865538
0.570269
1.24846
0.710895
0.846463
0.895118
0.999063
0.611953
0.372043
0.820296
0.664315
0.850325
1.23279
1.1644
1.19557
1.10769
0.86279
0.725498
0.385653
0.847504
1.16237
1.25462
0.352189
0.288626
0.326911
0.294793
0.355262
0.148173
0.328223
0.331435
1.07447
0.434789
0.439996
0.405305
0.259653
0.404022
0.286937
0.327246
1.00065
1.00386
1.15651
0.980904
0.544533
0.557775
0.997518
0.863699
1.01773
1.02286
0.99827
0.87125
1.18976
1.15036
1.07738
1.29569
1.34073
1.30049
1.42781
1.4731
1.13356
1.23814
1.29868
1.40249
0.87622
0.860713
1.16874
1.18938
1.08939
0.0477897
0.468894
0.413935
1.29844
0.862194
1.69591
1.04435
0.918784
0.850107
1.0231
1.02424
1.23821
1.13338
0.856549
0.939774
0.989274
1.53808
1.52533
1.22347
0.800818
1.47286
1.36108
1.2903
1.66213
0.928012
1.59672
2.21018
1.95391
0.858164
0.932222
0.391467
0.299587
0.830824
0.785668
1.00527
0.961278
0.800163
0.945436
0.626215
0.717398
0.740638
0.866942
0.875975
0.615858
0.549299
0.897512
0.914978
1.03486
1.08263
0.703847
1.06393
0.793598
0.895303
0.748101
0.688898
0.694483
0.98145
0.745414
0.937487
0.860831
0.881941
0.813041
0.655641
0.930713
5.86039
0.8257
0.863171
0.86963
0.891222
0.819041
0.868916
0.884386
0.90035
0.920222
0.787789
0.69602
0.816843
0.694702
0.775316
0.763906
0.793794
1.07834
1.05226
0.712695
0.847336
0.688881
0.771251
0.906189
0.937467
0.638032
1.07686
0.70659
7.90673
0.844994
0.784195
0.68581
0.728009
1.13054
1.02359
0.83359
0.81888
0.683183
0.680243
0.805742
0.846212
0.861156
0.938313
1.12056
1.00232
0.771344
0.801145
0.912969
0.80267
1.20423
1.05119
1.50762
1.52711
1.30344
1.85817
1.85167
1.04872
0.75436
1.16307
1.15906
0.639852
1.03262
0.803258
0.843769
1.0832
1.11208
1.06568
0.966118
0.826294
0.504412
0.431948
0.55953
0.387534
0.376517
0.899324
0.732189
0.735866
0.701092
0.666366
0.621587
0.666385
0.686608
1.10209
1.06949
1.04532
0.961715
0.698387
0.773342
0.796089
0.77872
1.18138
1.67351
1.0395
1.67118
1.71195
1.41998
1.404
1.41572
2.78199
2.30307
4.28814
3.8779
5.365
2.70372
4.45262
2.00189
3.60974
2.23779
1.03173
2.24648
6.3548
4.15978
1.82905
5.71774
1.52923
0.953493
1.3669
1.12178
1.3587
1.38507
1.63044
2.24661
1.23386
1.62227
1.7205
1.49042
1.9942
1.10938
0.870674
1.30382
1.51527
1.58902
1.42335
2.0037
1.52804
1.88827
1.88561
2.46135
0.6705
0.945992
0.530897
0.726088
1.27289
1.5872
1.58285
2.24851
1.38225
1.6927
0.918095
1.4506
1.79365
1.76879
0.671863
0.659822
1.31147
4.15236
1.78231
1.85227
1.67027
1.47466
0.955109
2.17989
1.49303
1.87879
2.33662
1.60689
1.46664
1.2737
1.67326
1.67833
1.46872
1.5141
1.84245
1.98935
1.23583
1.90891
1.4127
1.50297
1.69891
1.58037
1.83561
2.26767
1.82931
1.47103
1.89043
1.62902
1.76323
1.83977
1.72056
1.52918
1.74801
1.42975
1.59355
1.77669
1.79451
0.876522
0.916576
1.70024
1.7488
1.68145
1.64372
1.25521
1.6011
1.87886
1.69847
3.42004
1.80677
1.68417
1.88306
2.02127
1.72702
1.95672
1.78783
1.83693
1.66245
1.53579
1.52576
1.83388
4.29376
1.41159
1.55932
2.08462
1.54233
1.28191
1.91224
1.75058
1.97865
0.850719
0.983844
0.896612
2.4453
1.30494
1.75089
1.71374
1.77442
1.23717
1.09899
2.69365
1.89667
1.70171
1.5782
1.26039
0.99078
3.50829
1.63594
2.34244
2.86788
1.3334
2.15935
1.33819
1.3323
2.07161
2.15986
1.69308
1.86029
1.5035
1.85398
1.73431
1.52708
0.684635
0.829992
1.57321
2.28676
2.09636
1.1646
0.653326
1.59901
1.56731
1.79915
1.77487
2.3751
1.49742
1.61143
1.9407
2.04705
1.73354
1.69866
1.16627
1.30158
1.45266
1.019
1.72589
1.3901
1.40072
1.78058
0.533422
1.18748
2.25569
1.53269
0.821176
1.4946
2.03898
2.21346
1.23165
2.71818
6.40189
2.43298
2.59808
3.86629
1.32761
1.73186
1.559
1.25738
1.72516
1.37397
1.03342
1.6843
1.21725
1.4251
1.39026
0.844185
1.46242
1.2074
1.51926
1.53509
2.44301
1.88683
3.94844
4.44545
6.23124
4.53139
1.69164
1.2264
0.303809
0.443134
0.497614
0.48456
0.312777
0.552295
0.508722
0.510027
1.87317
0.833905
0.994896
0.95617
0.628658
0.691397
0.656386
0.70187
0.851749
1.19369
0.719882
0.884298
0.54848
0.83386
0.924223
1.12338
0.540243
0.548653
0.539565
0.475173
0.396148
0.464421
0.538399
0.481029
0.737534
0.630479
0.646217
0.608545
0.650557
1.11056
1.27889
0.867747
0.851769
1.04446
1.0063
1.63677
0.788015
0.55241
0.537306
0.603503
0.297094
0.802563
0.844033
0.712563
0.578907
1.02026
0.748339
0.788595
0.723828
0.5742
0.345619
0.439841
0.38958
0.321845
0.278277
0.540235
1.20298
0.609146
0.435664
0.580718
1.26232
0.995031
0.354179
1.06821
0.269921
0.928698
0.978739
2.00881
0.896078
1.10862
8.62482
1.32686
1.13392
2.22726
0.760596
0.532238
0.596049
0.897484
0.699262
1.08074
0.736377
0.638281
0.671416
1.5301
1.65751
0.249542
0.3712
0.28639
0.397107
0.476498
0.254342
0.629545
1.84201
1.15196
3.56717
0.725878
0.524378
0.663118
0.499213
0.444438
3.6235
1.18974
1.10055
1.61416
1.4236
1.06015
1.64793
1.04725
1.21948
0.548365
0.478554
0.506347
0.521872
0.0483171
0.109322
0.485595
0.274549
0.979373
1.02567
1.00299
1.08328
1.14459
1.02308
1.34158
1.26609
0.544872
0.472246
0.149919
0.125694
0.649389
0.60565
0.915275
0.750949
1.603
1.577
0.891327
0.547592
0.74485
0.618365
1.2739
1.02438
0.340618
0.543212
0.497695
0.403374
0.198442
0.178146
0.300687
0.199042
0.119091
0.306428
0.863296
0.422734
0.230096
0.330742
0.479384
0.42769
1.20828
1.16805
1.10791
1.02254
0.608764
0.943539
0.987756
0.993768
3.48129
2.14855
3.86913
5.80031
1.71093
2.19002
1.14103
1.58213
2.01975
2.77864
1.71971
1.18907
1.2219
2.29892
3.27557
4.06303
1.26836
1.23669
1.36024
3.66653
4.16634
2.94996
1.13379
2.44335
1.26016
1.42053
1.33257
1.27833
4.40018
2.35787
1.5815
1.47623
1.23511
1.46095
1.10293
1.36006
0.66949
1.76592
1.24311
1.08264
0.25077
2.07187
2.1056
2.09514
2.1082
1.68774
1.68315
2.24313
2.532
0.163432
2.00332
2.5888
2.03751
2.83644
0.141084
0.137456
1.90585
6.62785
1.39322
1.92121
1.95725
1.54423
2.3724
2.23307
2.8369
2.12669
0.149659
2.48184
2.49748
2.64373
1.38419
2.40456
0.202601
2.05829
1.37412
0.275773
2.10491
2.01325
2.25768
2.16609
1.5127
1.0271
1.43329
1.44691
1.92527
1.84808
0.535959
1.63298
4.57427
6.56927
2.15479
2.11909
1.92313
1.55388
1.57768
1.66737
2.51751
2.03
1.04794
1.30329
1.49893
4.39433
4.09995
2.01888
1.37218
1.42593
1.67968
1.40503
4.82101
2.32339
1.32411
1.39488
1.38253
1.32107
1.19393
2.55885
4.3728
1.91077
1.60038
1.68012
2.22064
4.0017
3.95593
4.20174
0.899332
2.42825
1.85215
1.04316
1.40441
1.41307
1.32182
0.882757
0.678542
0.77966
1.03965
0.693071
1.12714
0.972663
0.942042
0.857433
0.753937
0.733363
0.931112
1.06652
0.484965
0.496561
0.410525
0.31593
0.243565
0.334161
0.82662
0.710095
0.320003
0.232788
0.312463
0.205055
0.115914
0.110531
0.22396
0.229697
1.12176
1.2778
1.48872
1.67115
1.59016
0.823315
1.05627
0.879922
1.08548
1.35704
1.8638
1.12644
1.13128
0.926495
1.04192
1.96098
1.67125
0.801851
0.666088
0.594418
0.556432
0.738311
0.913966
0.883395
0.876986
1.30941
0.478989
0.505932
0.891608
0.558965
0.664189
1.53711
0.623794
0.946883
0.597431
0.671152
0.499588
0.735863
0.664508
0.701381
0.850728
0.801851
0.679103
0.965279
0.865009
0.720413
1.02678
0.653664
0.581977
1.51524
1.35879
1.79044
1.33136
1.00306
1.0424
1.14936
1.03812
1.53328
1.30339
0.756087
0.998719
0.868485
1.11073
1.79063
1.09284
1.43261
1.31683
1.57166
1.48669
1.42604
1.62081
1.11665
1.30465
2.17707
1.39675
1.03963
1.74077
1.40176
1.50566
1.45683
1.42937
3.53643
0.766899
1.50556
1.13715
1.18015
1.32032
1.55669
1.74257
1.53619
1.37623
1.1002
1.62181
1.32097
1.22539
1.32069
1.20989
1.27514
1.57477
1.32232
1.21223
1.1607
1.64121
1.43852
1.65324
1.8863
1.70052
2.59585
1.78107
1.93718
1.76524
1.5513
1.46244
3.18523
1.65062
2.80989
1.55685
1.63546
2.06831
1.37857
2.39428
2.40381
2.2373
2.42935
2.31771
1.74183
1.84549
2.67965
2.26449
2.31546
2.34648
2.67983
2.25817
1.9263
1.75178
1.70434
2.07167
3.1759
2.70709
0.253562
2.3873
0.411141
2.03431
2.7687
1.55685
0.328043
1.67679
1.41233
1.68997
1.51712
1.72888
2.58066
1.85657
1.26003
1.40994
1.47746
1.63168
1.50732
1.49275
1.31484
1.12408
1.34809
1.38324
1.29227
3.43042
1.25021
1.12277
1.06771
1.43358
5.3322
0.770506
1.55443
1.72676
1.17249
1.4272
1.41462
1.57025
2.12085
1.48952
1.5171
2.47585
1.37769
1.48792
1.33591
1.61073
1.698
1.58898
1.09159
1.22443
1.34111
2.22063
1.82469
1.4364
0.879769
2.10398
0.810954
1.79787
1.09979
1.76835
2.7474
2.35651
8.29328
1.91426
1.6431
2.36285
2.79372
1.62483
3.40373
0.855252
2.36691
2.75532
1.51041
2.7514
2.43378
0.908418
1.30378
3.65072
0.763991
6.13311
2.74744
3.40391
1.09871
1.94466
1.47578
2.09615
1.54241
1.46423
2.73806
1.39814
2.23979
2.35259
2.12361
1.75004
1.52061
2.77013
4.2911
1.56912
2.23867
2.33365
1.93718
1.12152
4.18706
1.49584
3.56195
3.67501
1.08095
2.73635
5.24486
2.49309
0.962585
5.81595
2.04288
5.50126
2.21476
3.41106
3.75964
1.88063
0.962585
1.09363
3.53576
1.88063
2.06334
3.67721
1.58173
0.829847
4.18839
1.49584
7.13282
5.21416
3.27427
1.27545
3.5625
3.67489
2.22812
2.65522
1.8846
1.19184
2.8398
2.32775
1.88874
1.67682
1.4485
1.43827
1.74231
1.06623
2.25676
2.41231
1.60273
1.49774
1.89539
2.32906
1.37427
1.88705
1.37057
1.88881
2.47876
1.78263
2.46625
2.50401
2.49265
3.5498
2.6486
3.34126
1.90832
0.95997
3.24681
1.77088
2.77645
3.6015
2.64637
3.30207
2.45504
2.26298
3.05654
2.32625
2.30411
1.7206
1.37208
1.77589
0.792185
1.31396
0.844724
1.17282
1.5169
1.46607
2.05807
2.16481
1.79099
0.87098
2.40239
2.14182
4.49782
4.18844
1.48717
1.40183
2.11406
1.63074
2.34603
1.82204
6.39845
9.75572
1.2684
1.42374
1.41627
1.94303
0.962602
3.08214
1.39786
0.829884
2.06369
2.39957
6.57023
6.31667
0.962602
3.3212
6.47065
3.61397
2.07703
2.42646
1.51798
9.22028
2.34891
1.863
6.13579
1.95099
1.45826
1.54273
6.44138
9.50032
2.0741
2.19615
1.90232
1.14001
2.9846
1.2862
5.46352
1.36094
0.831753
1.20236
2.04523
1.53618
2.40442
1.62908
1.79596
1.98133
2.27371
2.51995
1.12462
2.66603
3.83735
3.89936
5.1455
1.91203
0.733257
1.53759
2.77942
1.29347
3.34314
6.24606
2.78684
1.16785
0.588335
2.41221
1.00681
2.56766
3.34453
6.84642
2.77945
5.62822
1.20224
1.10072
5.21718
1.86156
3.55598
1.48844
1.49971
4.00104
3.9452
3.24113
1.6637
1.3883
2.23579
1.27562
5.13801
1.33033
1.31359
1.24367
1.93954
1.40798
2.1239
0.981789
0.772622
1.18138
1.47919
1.06507
1.10737
1.96025
3.15117
2.68684
1.85177
1.177
1.25053
1.08858
1.45376
4.76926
3.91083
0.991412
0.920951
0.978866
1.25095
1.02795
0.923918
0.980574
3.87903
0.993818
1.61285
4.76278
1.47922
1.77549
1.66856
1.05584
2.95556
2.60328
1.10737
2.39476
1.56942
1.30593
1.12398
1.02629
1.85431
1.29376
1.90783
1.61111
4.3196
1.03069
0.765871
1.89957
2.12421
1.46345
1.12864
1.04041
1.38362
5.1954
1.18275
2.03324
5.516
3.19118
5.73977
5.10934
1.80585
1.97571
2.55177
1.92738
1.35014
4.91098
6.40551
2.2482
1.01895
1.78617
5.01064
1.25213
2.17685
1.40951
2.26435
1.84399
2.67043
3.3104
5.74346
5.48471
4.43072
1.14913
1.00689
1.83536
3.19702
0.869898
1.36602
0.917322
5.2913
3.45483
4.8162
1.57012
0.986449
0.961208
2.06133
2.10095
1.36373
2.98392
1.19214
0.951219
1.06857
1.06511
1.04682
1.41826
2.98346
1.14842
1.30161
2.1886
5.20379
4.43271
1.04758
4.76283
1.96859
0.958207
1.65896
1.06628
5.20965
1.13314
1.75734
1.06577
1.16845
0.957627
1.09078
4.76929
1.47919
1.06512
0.990035
7.91884
0.779294
1.39409
1.04686
1.41936
1.29817
1.1789
1.50535
1.13828
4.16417
2.49837
2.20644
3.10771
3.455
1.45369
4.92234
0.922975
2.15859
1.01495
1.9639
1.18791
1.93713
0.76316
1.90111
0.64748
2.07489
1.99866
0.46033
2.09461
0.939222
1.95525
2.28351
2.21391
2.12257
1.99429
1.95254
1.87956
1.90537
2.70135
2.83728
2.74206
2.31352
2.67725
2.0878
2.5666
2.70475
2.53956
2.37501
2.41587
1.39348
2.25775
2.74015
2.77826
2.73149
2.57385
2.73209
2.72331
1.39428
2.17643
2.35673
2.37613
2.76834
2.71136
1.57269
2.51568
2.30459
2.34734
2.65886
2.73326
0.873572
1.19793
1.27384
1.70543
2.07146
1.16145
2.15794
2.26668
1.94794
0.495931
2.16809
2.27613
2.01903
1.35159
1.8206
0.742459
1.84978
1.91262
1.74574
1.6919
1.38194
1.67769
2.88604
1.98043
1.83548
1.11205
1.93312
2.08573
1.19839
1.70963
1.271
1.24551
2.17106
1.88392
1.04387
1.23834
0.97106
1.97093
1.87456
1.98282
2.35569
2.33866
4.19628
2.00044
1.04937
1.90445
1.80522
1.62517
2.2943
1.45658
1.37522
1.40377
1.05345
1.07595
0.978498
1.1027
1.85228
1.49409
0.979266
1.09668
1.01232
1.07042
1.99254
1.6284
0.84825
0.742681
0.90542
0.712502
0.83253
0.773117
0.888819
0.76808
0.865708
0.726579
0.910633
0.75146
0.790364
0.685316
0.811177
0.663942
0.869233
0.808257
0.771269
0.747955
0.765612
0.72754
0.824922
0.762109
0.795656
0.767556
0.842857
0.773548
0.794007
0.79682
0.794569
0.758559
2.11849
1.47744
1.82414
1.64871
0.92509
1.09455
0.978837
1.07646
2.16074
1.35705
1.06417
1.11587
0.923005
1.05661
1.52301
1.3709
2.46708
1.81888
1.79418
1.59072
1.1973
2.06476
3.85768
2.05646
2.29708
2.19801
1.965
2.07326
1.00672
1.96688
1.05717
1.24321
2.49494
1.8938
1.81777
1.14532
1.11572
2.34843
1.89333
1.72956
1.61325
1.91651
2.94175
1.97783
1.36661
1.67587
1.65984
1.70053
0.401623
0.423472
0.407619
0.483944
0.52307
0.483747
0.383597
0.401925
0.873886
0.847553
0.863368
1.00083
0.446045
0.420586
0.508881
0.59254
1.00723
0.759476
0.602058
0.469185
0.603266
0.581706
1.02747
1.11113
0.899888
0.770416
0.357934
0.494951
0.735245
0.843029
1.055
1.01243
1.71244
1.5782
2.00869
1.99626
1.00949
0.35068
1.22044
0.23083
1.10253
1.60312
1.71423
1.48292
0.887963
0.685851
1.1958
1.78238
0.937747
0.756187
1.15291
1.2045
1.64524
0.905293
1.93178
2.12901
1.02512
1.3209
1.14754
1.05272
0.972214
1.10588
0.961467
1.34478
1.21399
1.21254
0.62493
1.21199
1.09713
1.09081
0.830187
0.735875
1.56156
1.0782
0.912976
0.897649
0.832515
1.09056
0.76515
0.792819
0.63293
0.626316
0.555518
0.537235
1.20825
0.911218
1.08885
1.01383
0.798399
0.812704
0.956239
0.791945
1.07341
0.839592
0.549512
0.636091
0.80415
0.753703
0.610675
0.705593
1.05955
0.828856
0.786168
0.802164
3.05877
0.677522
1.11455
1.04708
1.04739
1.12683
0.933788
0.907618
0.891284
0.90032
1.10132
1.16468
0.948657
0.989105
0.991474
0.988938
0.987848
0.826432
0.783714
0.738691
0.89673
0.77137
1.12065
1.04531
0.767489
0.980515
1.05656
0.992689
0.828013
1.00385
1.05218
0.882972
1.0058
0.660959
0.926495
0.907539
0.833418
0.842926
0.983778
0.915161
1.18954
1.21593
0.761977
0.826765
0.781858
0.886916
1.13332
1.31109
0.776025
0.911465
0.96243
0.926481
0.770963
0.689961
0.749692
0.761655
0.527345
0.632817
0.722552
0.750765
0.768806
0.74739
0.433333
0.556012
1.14794
1.13631
1.25874
1.25182
0.986226
0.992428
1.15031
1.1533
0.885222
1.08074
1.0393
0.743253
1.129
0.837406
1.29907
1.04215
1.13265
1.13448
0.457914
0.651963
0.977467
0.970944
0.660302
0.752546
0.760897
0.871243
0.795772
0.673198
1.45875
0.96309
0.818968
0.701606
1.94361
2.3557
1.85757
1.38733
1.93508
0.889325
0.650035
0.665363
1.1997
1.15201
1.24734
1.61384
0.991316
0.58809
1.07961
1.20137
1.1163
1.40208
0.647835
0.344932
0.740196
0.367943
0.972278
1.23384
0.469625
0.505811
0.438716
0.472162
0.59925
0.627153
0.661692
0.639019
0.439224
0.644069
0.740549
0.705775
0.520133
0.786781
0.637163
0.689199
1.12544
0.878978
0.923721
0.630058
0.533098
0.735559
0.644328
0.763338
0.498225
0.576676
0.685584
0.68779
0.649567
0.61639
0.583432
0.588338
0.653788
0.565402
0.523711
0.684228
0.544502
0.587377
0.533085
0.62463
0.549733
0.416511
0.432218
0.534457
0.542557
0.612725
0.579266
0.486342
0.490283
0.578679
0.60833
0.637975
0.636443
0.564954
0.565249
0.494335
0.529737
1.06343
1.04081
1.05245
0.532135
0.545259
0.632794
0.63634
0.926681
0.933591
0.465664
0.487487
0.565768
0.573687
0.799426
0.975618
1.01177
0.38748
0.510483
1.10803
1.54932
1.48424
0.852876
1.29074
0.939525
0.864104
0.339388
1.10665
1.10235
1.11927
1.11939
1.23423
1.06813
0.788201
0.879716
1.1257
0.726177
1.08957
1.42121
1.38788
1.31228
1.3662
0.256775
0.239791
1.17076
1.14113
1.1854
0.838462
0.894834
1.08355
1.96172
1.0774
2.21343
1.1606
1.47743
1.0734
1.30969
1.59599
2.2927
1.12883
0.939493
1.20966
0.964696
0.360591
1.43862
1.4626
1.45205
1.44337
0.542126
1.24563
1.13568
0.621813
0.76978
0.794071
0.73036
0.676194
0.68351
0.848312
0.927737
0.913216
0.888235
0.823754
0.939746
0.858587
0.853296
0.843942
0.787869
0.874073
0.847761
1.33703
0.833802
1.00332
0.806523
0.814531
0.656811
0.913787
0.957471
0.90385
0.900862
0.927134
0.816413
0.920961
0.982609
1.0132
0.767915
0.642759
0.882566
0.912301
1.03738
1.07677
0.682121
0.717003
1.05521
0.854141
1.06332
1.68895
1.0378
1.12993
0.897868
0.871482
0.477101
0.800105
0.615489
0.604766
0.909754
0.862247
1.4534
1.2185
0.780797
0.701582
0.752357
0.743519
0.92499
0.763781
0.597041
0.704689
0.38225
0.448405
0.551303
0.52408
0.39411
0.498775
0.556989
0.608973
0.721859
0.680549
1.62276
1.54049
0.518579
0.531159
0.567105
0.553752
1.17528
1.02847
0.558208
1.12843
0.195523
0.362928
1.10004
1.03606
0.414294
0.411304
0.553575
0.509941
0.380303
0.291363
0.13407
0.43767
0.293778
0.11371
0.211421
0.203625
1.48614
0.804906
2.00438
0.890245
1.07591
1.25202
1.19085
1.46693
1.43404
0.649186
0.560915
0.350552
2.71079
1.94392
0.864615
0.700914
2.13276
0.662416
1.36568
1.52646
0.585578
0.875715
0.555487
0.436987
2.43068
0.82821
0.725335
0.665304
0.38234
0.440239
0.175739
0.169997
0.802523
0.657615
0.762243
0.680105
0.109107
0.225958
0.683585
0.599966
0.719535
0.583616
0.166732
0.0940671
1.22246
1.34447
0.923732
1.04972
0.599011
0.593857
0.695532
0.728317
0.663741
0.621178
0.693201
0.722948
0.755704
0.769967
0.635321
0.949007
0.510752
0.536385
0.734899
0.409959
0.734878
0.504031
0.740787
0.587809
0.911127
0.888785
0.957833
0.961514
1.31409
1.20762
0.79847
0.515293
0.738112
0.658161
0.923359
0.780334
0.94704
0.915244
0.94215
0.947427
0.850724
0.945855
1.06774
0.754391
0.721991
0.726289
1.11283
1.12973
0.974397
0.404417
0.913347
0.678251
0.874296
0.467106
0.431603
0.402863
0.896903
1.33677
1.34466
1.07752
0.99921
1.36485
0.895955
1.11547
1.03914
1.19323
0.987274
1.17105
0.984291
1.08048
1.08331
1.13139
0.932895
0.7994
1.1011
0.617197
1.1954
0.657022
1.06319
0.909475
0.422855
0.328371
0.506649
0.414404
0.264072
0.311399
0.318091
0.604508
0.377136
0.358434
0.233475
0.254296
0.200903
0.238948
0.482574
0.375286
0.10419
0.0838822
0.112773
0.0860467
0.131542
0.0936114
0.11738
0.0912999
0.0550156
0.0433728
1.39206
0.0367153
0.117417
0.0893977
0.0557907
0.0453609
1.69035
0.322955
0.318049
0.175549
0.263354
0.310434
0.506067
0.451578
0.0549068
0.0442396
0.0549722
0.0449225
0.119803
0.0944463
1.3835
1.29263
0.103547
0.080718
0.115833
0.0901464
0.128951
0.0940115
0.10308
0.0825998
0.287644
0.320915
0.478739
0.372675
0.204228
0.237397
0.269881
0.226012
2.22507
1.66797
0.138111
0.270986
0.307887
0.275649
0.295251
0.419724
0.296584
0.174422
0.154494
0.161773
0.136493
0.244799
0.309866
0.20806
0.0932283
0.0886969
0.339097
0.195356
0.143559
0.111414
0.140568
0.0914523
1.80812
0.248992
1.87714
0.260051
0.283332
0.390323
0.16128
0.180208
2.46118
2.34269
0.355176
0.424119
0.951357
1.47225
1.64087
1.02638
0.354224
0.387118
0.54711
0.455433
1.53592
1.8393
2.86794
2.98423
1.6981
1.57829
1.53836
1.49208
1.48024
1.43822
1.12788
1.20471
1.69866
1.91389
1.76179
1.63079
1.4387
1.54988
1.64721
1.87018
0.855283
1.11682
1.8438
1.35047
1.61478
1.65304
1.78585
1.28705
1.59608
1.74466
1.63878
1.61602
1.59661
1.79537
2.74857
2.13476
1.77686
2.05723
1.72179
1.94873
1.51617
1.62165
1.90447
1.80387
0.827661
0.782068
0.75251
0.927492
2.02856
1.4927
1.65993
1.62704
0.598493
0.491223
0.579888
0.488574
0.323133
0.392848
0.326216
0.397858
0.678215
0.522429
0.333553
0.471388
0.308744
0.41131
0.534577
1.14368
1.34541
3.11963
0.215947
0.190635
0.430825
0.199371
0.354669
0.346633
0.151211
0.269178
0.236573
0.238266
0.312669
0.267579
0.195975
0.131633
0.259025
0.234945
0.118117
0.222762
2.40078
2.64946
0.50328
0.268991
2.89629
2.74655
4.0384
0.86515
1.97251
2.10319
0.133525
2.51714
0.0460419
0.0112696
0.0647021
0.0620562
2.1731
0.282992
0.0617317
0.131769
1.45149
3.15794
1.35577
1.86294
0.873176
1.65004
0.128426
0.326236
1.45286
1.30449
0.106614
0.292508
0.218126
0.43143
1.38305
1.37061
0.0487415
0.0175001
0.0395054
0.0112343
0.0613882
0.0567154
0.0528782
0.0375646
0.185472
0.0295188
0.130722
0.156607
0.0990042
0.0708781
0.0666401
0.0302403
0.293543
0.312682
0.36562
0.316057
2.73697
2.62777
0.153716
0.18704
0.629718
0.490266
0.334335
0.391169
0.325768
0.415181
0.63111
0.501724
2.57862
0.438738
0.200127
0.132714
0.385594
0.253597
0.247489
0.244044
0.203506
0.193701
0.323097
0.265775
0.288996
0.229022
0.218003
0.239804
0.621377
0.619953
0.561281
0.577004
0.30807
0.396459
0.342083
0.462453
2.54981
1.6437
2.43076
2.43818
1.65345
1.66852
1.52697
1.60103
0.746361
1.45611
0.98385
1.01365
1.74514
1.72657
1.7419
1.13923
0.781525
2.05621
1.63936
1.46726
1.63753
1.58011
2.16053
2.17785
1.9314
2.1007
2.00186
1.78904
1.55515
1.56497
1.77499
1.9116
1.62729
1.58078
1.68291
1.72757
1.4354
1.47475
1.6825
1.75462
1.67378
1.6305
1.4062
1.32118
1.54798
1.40068
1.76164
1.94989
0.363024
0.400066
0.35598
2.80163
1.52538
1.6397
0.962689
0.467636
2.4764
2.23269
2.48941
0.90237
1.29782
0.543116
0.367604
0.434779
2.32477
1.74776
0.299397
0.277254
0.431588
0.296783
0.0968108
2.55235
0.28933
0.251071
0.202913
0.182141
1.0612
1.05118
1.87638
0.268736
0.0955021
0.0903891
0.140602
0.0919285
0.144671
0.11177
0.163916
0.29369
2.7154
0.267105
0.1862
2.62376
0.137731
0.250532
0.15562
0.162147
0.161023
0.25159
0.393725
0.512806
1.81908
0.630495
0.729983
4.72607
2.78544
2.23964
2.08186
2.044
2.01356
2.24532
2.03676
2.03046
2.19131
1.86826
1.66331
1.95493
1.92885
1.76947
1.65563
0.165744
0.205896
0.212993
0.156656
0.184278
0.814279
1.324
0.27529
1.01482
1.05506
0.22545
0.331274
0.695656
0.779627
1.23847
1.26566
0.370988
0.676726
2.70078
0.698441
1.50667
1.69425
1.19495
2.20648
1.2089
1.19859
1.98918
1.30585
1.71826
1.83217
1.62963
1.74707
1.54832
1.62211
1.80262
1.75798
2.08877
1.96487
1.90294
1.9547
2.49942
2.37357
2.34697
1.88402
1.63147
1.40398
1.26188
1.39173
2.4285
1.37951
2.10996
1.42643
0.390886
0.460121
0.448483
0.504715
0.588005
0.547863
1.55144
0.513889
0.383343
2.53093
2.01614
1.28255
0.719525
0.608489
0.376982
0.551681
1.06546
1.97667
1.6768
1.52734
0.914548
1.11671
1.57835
1.32579
2.12142
1.45939
0.269213
0.407482
0.444749
0.510985
1.73216
0.224445
0.373331
0.349667
0.0478715
0.223118
0.357728
0.298235
0.319804
0.248225
0.112703
0.139252
0.376449
0.350821
0.327551
0.296922
0.430143
0.179846
0.319588
0.457232
1.51506
1.33831
0.229484
0.189213
0.217679
0.265709
2.56505
2.82862
0.368322
1.95373
2.24518
0.625028
2.55884
0.668941
0.38134
0.4565
0.691762
0.525331
2.53175
0.889107
0.462866
0.500323
1.65023
1.50735
1.62001
1.58294
1.55909
1.57312
1.29755
1.39779
0.965659
1.37974
1.41868
1.0011
1.44186
1.46568
1.5503
1.43027
