OFF
180 352 0
-14.5678 -9.19715 -1.65978
-14.4278 -9.52955 -1.98278
-15.0768 -9.54675 -1.96278
-14.8318 -9.82285 -2.03178
-15.2868 -9.57205 -1.69578
-15.0528 -9.31125 -1.55378
-14.2808 -10.2994 -1.59278
-15.1358 -10.1178 -1.55978
-15.1808 -9.88455 -1.85878
-15.3658 -9.82785 -1.51278
-15.0258 -10.1116 -1.05078
-15.0538 -9.66735 -0.910776
-15.2438 -9.53795 -1.33478
-14.7728 -9.34005 -0.935776
-14.2568 -9.24585 -0.650776
-14.4298 -9.12955 -1.12878
0.516175 -7.72655 1.55122
-0.966825 -8.03795 1.46122
0.141175 -7.43875 1.53722
0.480175 -7.69335 2.23522
-0.508825 -8.20935 1.97122
0.610175 -7.79695 1.77122
0.129175 -7.42315 2.19022
-1.01782 -7.99065 2.24622
-3.03482 -8.32345 1.11022
-3.64482 -8.30935 0.582224
-3.63782 -8.19105 0.788224
-4.30082 -8.24165 -0.0217757
-4.25782 -8.10385 0.157224
-4.28882 -8.04395 0.411224
-3.06782 -8.23885 1.43622
-5.01982 -8.13435 -0.510776
-5.94782 -8.13485 -0.835776
-5.93082 -8.02265 -0.658776
-4.99582 -7.97865 -0.270776
-5.06682 -7.98085 0.0592243
-6.01082 -8.00595 -0.331776
-3.28182 -8.26765 1.48222
-3.42582 -8.82185 0.973224
-5.17482 -8.56325 -0.387776
-4.43882 -8.51375 -0.0427756
-3.20982 -8.73295 0.986224
-3.70882 -8.49825 0.498224
-3.08482 -8.52995 0.967224
-6.18682 -8.55825 -0.853776
-5.16182 -8.40485 -0.555776
-6.01982 -8.30095 -0.921776
-4.00582 -8.71475 1.14022
-4.62382 -8.50935 0.686224
-4.65682 -8.67195 0.460224
-3.96482 -8.81555 0.835224
-3.26182 -8.86715 1.28622
-3.29882 -8.78895 1.60822
-5.39682 -8.47565 0.124224
-6.34982 -8.56215 -0.287776
-5.40782 -8.59375 -0.0797757
-6.30982 -8.64985 -0.607776
-5.35082 -8.60575 -0.305776
-4.59982 -8.69195 0.204224
-4.47382 -8.23135 0.711224
-3.22382 -8.38875 1.69022
-3.94682 -8.48815 1.24322
-3.24682 -8.58215 1.75222
-6.12682 -8.13385 -0.186776
-5.18882 -8.09905 0.172224
-6.25982 -8.34205 -0.148776
-5.30782 -8.28245 0.214224
-7.18582 -8.41685 -0.966776
-7.16082 -8.29785 -0.808776
-8.51582 -8.75205 -0.854776
-8.49582 -8.63725 -0.675776
-7.18682 -8.23745 -0.586776
-9.71882 -9.09515 -0.668776
-10.8058 -9.48625 -0.540776
-10.7588 -9.34565 -0.336776
-9.78382 -9.00865 -0.400776
-10.5208 -9.24595 0.0212243
-8.57082 -8.61825 -0.343776
-10.8288 -9.31575 -0.0527757
-7.27582 -8.28745 -0.367776
-7.47882 -8.86995 -0.857776
-7.32982 -8.68735 -1.01178
-9.47482 -9.43265 -0.744776
-8.71882 -9.12785 -0.903776
-8.58582 -8.91985 -0.942776
-11.3328 -10.1292 -0.410776
-10.9928 -9.89435 -0.609776
-10.8638 -9.67305 -0.645776
-9.77182 -9.32035 -0.804776
-7.56282 -8.75835 -0.331776
-7.57382 -8.87655 -0.535776
-8.90882 -9.13435 -0.243776
-8.92282 -9.24525 -0.422776
-10.3968 -9.61875 -0.0187757
-11.2508 -10.0474 -0.0467757
-10.2148 -9.64235 -0.183776
-10.1708 -9.69805 -0.421776
-8.86182 -9.26675 -0.681776
-7.35482 -8.38185 -0.282776
-8.69782 -8.75105 -0.194776
-8.83182 -8.96275 -0.156776
-7.47482 -8.56465 -0.241776
-11.0168 -9.48505 0.223224
-10.0138 -9.21535 0.0312243
-11.1448 -9.72015 0.261224
-10.1458 -9.42525 0.0212243
-11.4058 -9.71275 -0.530776
-11.3728 -9.50185 -0.206776
-11.7998 -9.80635 -0.599776
-11.7458 -9.59515 -0.330776
-11.7848 -9.49925 0.0592243
-12.5528 -9.55005 -1.07778
-12.4258 -9.39515 -0.769776
-12.5508 -9.27745 -0.512776
-12.5368 -9.28775 -0.143776
-12.7588 -9.35375 0.0802244
-12.0278 -9.56175 0.384224
-11.4838 -9.50055 0.227224
-11.8698 -10.2528 -0.543776
-12.3898 -10.5229 -0.542776
-11.8478 -10.1269 -0.596776
-13.1208 -10.5 -0.998776
-12.5958 -10.3492 -0.943776
-12.7978 -10.059 -1.24878
-12.5568 -9.80825 -1.15878
-12.2648 -10.2426 0.480224
-12.3198 -10.4383 0.233224
-12.2508 -10.5174 -0.122776
-12.7338 -10.615 -0.107776
-12.7968 -10.5339 0.165224
-12.7278 -10.376 0.409224
-12.7228 -10.6209 -0.437776
-11.9868 -9.80905 0.524224
-12.4478 -9.64725 0.461224
-12.5228 -9.90205 0.557224
-12.6838 -10.1487 0.524224
-13.3628 -9.42645 -1.50378
-13.3408 -9.25005 -1.25678
-13.8268 -9.11145 -1.17478
-13.9458 -9.37695 -1.73578
-13.9578 -9.21115 -1.52778
-13.5678 -9.23095 -0.346776
-13.4518 -9.14245 -0.625776
-13.6038 -10.2183 -1.52278
-14.0658 -9.86045 -1.88178
-14.3608 -10.0598 -1.84778
-13.4738 -9.66665 -1.64978
-13.8908 -10.2474 -0.113776
-14.0208 -10.404 -0.424776
-14.5848 -10.3652 -1.07378
-13.5428 -10.5587 -0.512776
-14.6668 -10.0769 -0.616776
-14.6238 -10.3154 -1.43878
-13.8948 -10.5021 -1.06878
-13.5588 -9.44295 -0.0707757
-13.6308 -9.71955 0.0612243
-14.5188 -9.59475 -0.501776
-14.6138 -9.84825 -0.509776
-13.8878 -9.98315 -0.0277757
-1.48482 -7.97105 2.08322
-1.75082 -8.18765 2.17622
-2.43082 -8.21035 1.92922
-2.50282 -8.47815 2.03722
-2.50282 -8.68055 1.91622
-1.68882 -8.42035 2.14822
-0.837825 -8.19005 2.19922
-1.64482 -8.54875 1.92022
-2.47282 -8.76575 1.59922
-2.41982 -8.68965 1.34122
-1.38182 -8.43995 1.55422
-1.34282 -8.47935 1.69322
-1.48082 -8.38675 1.46522
-1.64982 -8.25185 1.40922
-2.36082 -8.46045 1.25822
-2.36182 -8.28865 1.34822
-1.69682 -8.07085 1.55322
-0.972825 -7.78305 1.66622
-1.73382 -8.00525 1.88222
-2.38282 -8.18475 1.55722
0.0161754 -7.34025 1.87822
3 0 1 2
3 1 3 2
3 2 4 5
3 5 0 2
3 3 6 7
3 3 7 8
3 7 9 8
3 9 4 2
3 9 2 8
3 2 3 8
3 10 11 9
3 11 12 9
3 12 4 9
3 9 7 10
3 13 14 15
3 13 15 5
3 15 0 5
3 5 4 12
3 12 11 13
3 12 13 5
3 16 17 18
3 19 20 21
3 22 23 19
3 24 25 26
3 25 27 28
3 25 28 26
3 28 29 26
3 26 30 24
3 31 32 33
3 31 33 34
3 34 29 28
3 28 27 31
3 28 31 34
3 29 34 35
3 34 33 36
3 34 36 35
3 30 26 37
3 26 29 37
3 29 35 37
3 38 39 40
3 38 40 41
3 40 42 41
3 42 43 41
3 39 44 45
3 44 46 45
3 40 39 45
3 46 32 31
3 27 40 45
3 27 45 31
3 45 46 31
3 25 24 43
3 25 43 42
3 42 40 27
3 27 25 42
3 47 48 49
3 49 50 47
3 50 51 52
3 50 52 47
3 53 54 55
3 54 56 55
3 49 48 53
3 49 53 55
3 56 44 39
3 56 39 57
3 39 58 57
3 58 49 55
3 58 55 57
3 55 56 57
3 38 51 50
3 50 49 58
3 58 39 38
3 58 38 50
3 37 35 59
3 37 59 60
3 59 61 60
3 61 62 60
3 35 36 63
3 35 63 64
3 63 65 66
3 63 66 64
3 66 59 64
3 59 35 64
3 65 54 53
3 65 53 66
3 53 48 66
3 48 59 66
3 47 52 62
3 47 62 61
3 61 59 48
3 48 47 61
3 33 32 67
3 33 67 68
3 67 69 70
3 67 70 68
3 70 71 68
3 71 33 68
3 72 73 74
3 74 75 72
3 75 70 72
3 70 69 72
3 76 77 78
3 77 70 75
3 77 75 78
3 75 74 78
3 79 36 71
3 36 33 71
3 71 70 77
3 77 79 71
3 44 80 81
3 80 82 83
3 80 83 81
3 83 84 81
3 81 46 44
3 82 85 86
3 86 87 88
3 88 84 83
3 88 83 86
3 83 82 86
3 87 73 72
3 87 72 88
3 72 69 84
3 72 84 88
3 67 32 46
3 46 81 67
3 81 84 67
3 84 69 67
3 54 89 90
3 89 91 92
3 89 92 90
3 90 56 54
3 93 94 95
3 94 96 95
3 96 92 95
3 92 91 93
3 92 93 95
3 85 82 96
3 82 97 96
3 97 92 96
3 96 94 85
3 80 44 56
3 56 90 80
3 90 92 97
3 90 97 80
3 97 82 80
3 63 36 79
3 63 79 98
3 79 77 99
3 79 99 98
3 99 100 101
3 99 101 98
3 101 65 63
3 101 63 98
3 76 102 103
3 102 104 103
3 103 100 99
3 99 77 76
3 99 76 103
3 104 93 105
3 93 91 100
3 93 100 105
3 100 103 105
3 103 104 105
3 89 54 65
3 89 65 101
3 100 91 89
3 100 89 101
3 74 73 106
3 74 106 107
3 106 108 109
3 106 109 107
3 109 110 107
3 108 111 112
3 108 112 109
3 112 113 110
3 112 110 109
3 114 115 116
3 114 116 110
3 110 113 114
3 117 76 78
3 78 74 107
3 78 107 117
3 107 110 117
3 110 116 117
3 86 85 118
3 85 119 118
3 120 87 86
3 120 86 118
3 119 121 122
3 122 123 120
3 120 118 122
3 118 119 122
3 124 111 108
3 120 123 124
3 120 124 108
3 106 73 87
3 87 120 106
3 120 108 106
3 94 93 125
3 94 125 126
3 127 94 126
3 128 127 126
3 128 126 129
3 126 125 130
3 126 130 129
3 131 121 119
3 119 127 131
3 127 128 131
3 85 94 127
3 127 119 85
3 102 76 117
3 102 117 132
3 117 116 132
3 132 104 102
3 116 115 133
3 134 132 133
3 132 116 133
3 130 125 135
3 125 132 134
3 125 134 135
3 125 93 104
3 104 132 125
3 111 136 137
3 111 137 112
3 137 138 113
3 137 113 112
3 139 0 140
3 0 138 140
3 138 137 140
3 137 136 139
3 137 139 140
3 14 141 142
3 14 142 15
3 142 138 15
3 138 0 15
3 113 138 142
3 113 142 114
3 142 141 115
3 142 115 114
3 122 121 143
3 121 6 143
3 143 144 123
3 123 122 143
3 6 3 145
3 3 144 145
3 144 143 145
3 143 6 145
3 1 0 139
3 139 136 146
3 139 146 1
3 146 144 1
3 144 3 1
3 123 144 146
3 123 146 124
3 146 136 111
3 146 111 124
3 129 130 147
3 129 147 148
3 148 149 150
3 150 128 129
3 150 129 148
3 151 11 10
3 10 7 149
3 149 148 10
3 148 147 151
3 148 151 10
3 7 6 152
3 6 153 152
3 153 149 152
3 149 7 152
3 121 131 153
3 131 128 150
3 131 150 153
3 150 149 153
3 153 6 121
3 133 115 154
3 115 141 154
3 155 134 133
3 155 133 154
3 13 11 156
3 13 156 14
3 156 155 154
3 156 154 14
3 154 141 14
3 11 151 157
3 151 147 158
3 151 158 157
3 158 155 156
3 158 156 157
3 156 11 157
3 147 130 135
3 147 135 158
3 135 134 155
3 135 155 158
3 23 22 159
3 159 160 23
3 161 37 60
3 60 62 162
3 60 162 161
3 162 160 161
3 160 159 161
3 62 52 163
3 62 163 162
3 163 164 162
3 164 160 162
3 23 160 164
3 23 164 165
3 165 164 166
3 165 166 20
3 52 51 167
3 52 167 163
3 167 166 163
3 166 164 163
3 51 38 168
3 51 168 167
3 168 169 170
3 168 170 167
3 170 166 167
3 169 16 170
3 20 166 170
3 16 169 171
3 171 172 17
3 17 16 171
3 168 38 41
3 41 43 173
3 41 173 168
3 173 172 171
3 173 171 168
3 171 169 168
3 43 24 174
3 43 174 173
3 174 175 172
3 174 172 173
3 176 18 17
3 172 175 176
3 172 176 17
3 175 177 176
3 174 24 178
3 24 30 178
3 178 177 175
3 175 174 178
3 30 37 161
3 161 159 177
3 177 178 161
3 178 30 161
3 176 177 159
3 179 18 176
3 159 22 179
3 179 176 159
3 23 165 19
3 20 19 165
3 170 16 21
3 20 170 21
