1.75421
2.47489
3.83169
3.11244
6.12603
6.18535
1.57673
2.59158
4.88243
1.39699
5.62007
4.15833
6.52215
7.04997
5.83506
5.50241
6.05992
4.74605
4.65545
2.47562
5.76691
6.67125
1.97788
5.481
1.6232
5.70686
1.6456
2.74608
3.91473
3.64931
5.00238
3.62434
3.46218
1.99499
1.19938
1.47766
1.10802
1.00344
2.05395
1.6703
0.834423
0.722388
1.0816
1.22134
1.32316
2.10113
1.67721
1.80692
0.756012
1.56711
1.00774
1.77638
1.61547
1.99484
1.63669
1.2017
1.82539
2.68332
2.92405
2.54398
2.40583
1.46775
1.91875
1.83223
2.21032
2.07743
2.23313
2.43528
2.51825
2.77887
2.57566
1.92138
2.38402
1.51792
2.31387
1.29775
2.00208
2.65861
0.807819
1.63856
2.50262
2.21527
2.13161
1.9385
2.27223
2.23595
2.2447
2.68001
2.52014
2.64224
1.29932
3.32503
2.52933
1.984
1.17203
1.79264
2.62583
1.99899
2.35923
0.748371
2.11827
4.07274
1.4597
0.813407
0.803802
1.12897
1.72063
1.54666
1.79233
2.83002
1.1905
1.10223
1.29109
1.46361
1.48039
0.867163
1.03902
2.64602
2.13147
1.57046
1.96208
2.33368
2.25781
2.15606
1.58012
1.35099
1.7894
1.92973
2.24364
1.06703
1.90833
2.53149
2.60145
2.24296
2.24805
1.02587
2.08274
2.552
2.52476
1.85877
1.67151
2.42804
1.88105
2.37038
1.25869
5.5658
1.11313
1.93282
1.73319
1.76411
1.81149
3.11867
1.25941
5.28595
2.06201
1.17791
2.36802
1.35152
1.07754
1.81966
1.18636
2.92491
2.18866
2.55115
1.83813
2.56827
2.25801
2.44421
3.26642
2.91521
3.01776
1.881
4.71809
1.46745
3.45143
4.71251
1.24197
1.99379
3.96296
3.87296
1.52799
4.59507
6.31858
4.22835
2.24975
2.48482
3.49828
1.88841
3.18041
3.71635
3.73335
3.46022
1.888
3.4438
2.87676
3.46341
2.48393
3.19599
3.47521
1.8637
2.47312
4.39746
1.55354
1.68826
2.33809
1.60497
2.17917
4.27438
2.64814
3.07209
0.84795
2.92606
1.84914
1.68456
2.9532
0.79724
0.899997
3.72182
1.36529
2.09776
1.86395
1.02457
1.82486
0.861098
2.51645
1.43353
1.54576
1.69207
1.55036
1.09901
2.14268
2.44123
2.78302
3.43133
2.6294
4.67029
3.43136
5.03731
3.02113
3.51362
1.92771
2.54353
1.49926
2.68638
4.02378
3.52407
3.84085
4.19731
6.80566
6.87712
0.767337
1.34086
1.94729
4.56063
1.9725
3.99688
2.9612
4.12548
5.30978
3.04735
5.0871
2.74249
1.13707
6.36789
3.80994
3.77403
3.25586
6.63905
6.41965
5.53047
3.25463
4.76699
2.63312
2.71771
1.62404
5.50081
4.69935
3.53207
1.4667
2.57216
7.75213
6.93275
6.17585
6.65727
4.14633
4.02279
7.90684
4.71532
5.14662
7.63508
3.70918
3.11124
5.8838
6.40885
3.87282
4.44947
1.43418
5.26168
4.25712
4.74993
4.35052
4.731
3.60337
4.59099
6.20489
6.09961
5.35952
5.45647
4.2247
5.54285
3.00673
3.70232
3.94348
2.39335
3.2963
2.23844
4.84068
4.20844
5.30364
3.33156
1.84498
2.00199
3.62513
4.92331
5.27453
4.30928
1.78972
4.48519
5.6673
1.52695
1.92834
1.41233
6.85551
3.91586
2.66761
2.3458
3.33837
2.61477
7.62206
2.39321
3.63179
3.51342
1.15221
1.31352
4.86037
5.93874
4.45025
4.83461
2.79149
2.07505
7.68248
3.4386
2.71389
5.69589
3.92141
2.73253
5.15506
4.8704
1.04516
3.82984
1.84327
5.19229
2.71257
2.88083
4.19205
4.84686
4.28589
3.09358
5.96059
2.78695
2.76869
4.80989
4.61236
3.99288
2.49196
3.52129
1.02448
3.17034
4.11903
6.28072
5.922
4.47795
4.42925
4.75589
3.08526
3.19749
4.61195
3.99752
3.07734
5.35043
1.9884
5.77825
1.03429
0.745265
0.729351
0.89513
0.612247
0.574423
0.889096
0.638258
3.23893
0.499226
0.62304
0.555578
0.415089
0.608669
0.78024
0.398153
0.737745
1.59193
0.864486
0.569375
0.786791
0.380104
1.3661
0.677687
0.981692
0.690777
0.836239
0.869917
0.383775
0.828849
0.619566
0.614859
1.63228
0.849001
0.623706
0.796827
0.519416
0.608796
1.22473
1.03229
0.567594
0.873547
0.267331
0.76707
0.307479
0.380016
0.480378
0.292798
1.17773
0.473701
1.52704
0.493811
0.719202
1.9745
0.779003
0.695767
1.58037
0.910575
1.28869
1.00421
0.735689
0.587361
0.5108
0.567848
5.22114
1.27846
0.688901
0.592906
0.711784
0.593014
1.00365
1.05539
0.603761
0.445858
0.539914
0.434891
3.74513
0.378575
0.720776
0.416001
0.397576
0.613952
0.738769
2.49472
0.633359
4.07057
0.300442
0.401773
4.93841
0.840083
1.10397
1.00008
0.508187
0.862296
0.615283
0.708892
5.61862
0.888529
0.593991
0.785045
0.65189
0.640471
1.24908
0.929399
1.91032
0.351912
2.84716
2.28447
0.574113
0.313178
2.64604
0.406183
0.550168
0.501936
0.486892
0.158113
0.491359
3.40303
0.344561
0.53597
1.22272
0.929363
1.50668
0.799061
0.615726
0.617067
0.517012
0.677532
0.576795
0.6084
1.77489
0.741739
1.04111
1.33482
0.651364
1.14991
3.68381
2.37399
1.59019
6.45594
2.63666
1.52182
1.1484
3.03998
1.62214
2.45977
1.66743
1.57425
2.39871
2.03225
2.56745
2.69524
0.494561
0.68178
0.867657
0.990138
0.831819
1.14394
1.19575
1.75271
0.424567
0.649199
0.667289
0.848961
0.773284
0.650002
0.568941
0.72677
1.11503
6.2038
1.14423
7.18232
1.24906
0.97284
0.805732
3.89428
4.23926
2.40886
2.80056
0.981946
1.08327
2.13932
2.89647
6.43868
1.05154
0.545434
0.939486
1.09038
0.583026
1.5337
0.719669
0.631732
0.471233
0.516362
0.675023
0.493498
0.547814
1.55204
0.456762
0.669363
4.00324
1.26628
1.52902
2.96544
0.976054
1.47939
1.26016
1.2525
3.8321
1.27715
2.15701
1.65187
1.65393
1.13614
5.29766
7.44279
0.466051
0.551689
0.545064
0.586391
0.486556
3.93757
0.62993
1.46032
0.522143
0.661431
0.749249
0.778105
0.708752
0.7856
0.600669
0.797429
2.60849
5.9658
6.50597
4.79222
2.45014
1.89552
1.64005
1.31547
6.53532
1.03114
1.69917
0.894664
1.11492
6.71022
6.59332
1.02653
0.609704
0.385559
0.419649
0.513363
0.762181
0.772348
0.650353
0.641127
2.90775
1.02698
1.85515
2.35331
1.72047
0.787274
1.45953
1.378
1.46631
1.7119
1.13753
1.01559
1.85299
1.14626
3.45002
3.04852
1.4525
2.44564
3.19148
2.58305
3.05107
3.09757
1.33649
3.64524
1.15406
1.64552
1.9644
0.379723
0.947739
0.855762
1.5959
1.30438
1.11355
1.66893
1.31993
1.13515
1.06001
2.23702
1.74103
2.57507
2.22477
2.54325
2.37729
2.33027
3.86939
2.46379
2.80412
2.52031
2.50753
2.50233
4.1026
2.21185
2.60687
3.01001
2.50712
2.37437
2.31063
1.96066
2.66035
3.73948
2.01171
2.19954
2.61355
2.25806
2.18475
5.6941
1.22925
2.47802
1.7913
1.91273
1.74535
2.33977
0.817704
0.872752
1.31531
1.43848
3.37903
3.20101
1.59765
3.82269
1.44417
2.32174
2.06011
2.86698
3.94483
2.85312
5.60231
2.36877
1.7255
2.77504
5.37323
1.80855
2.12898
1.96852
0.968967
1.70174
1.13993
1.28097
1.06874
1.557
1.88354
7.01252
2.89038
2.02059
2.41193
2.53056
2.30854
4.8931
2.83464
1.50832
2.88609
2.25815
2.59354
2.38775
1.16275
2.55079
3.33147
1.43269
3.43813
2.27715
2.58203
2.90542
3.65158
2.37516
1.24108
2.05232
2.27909
2.12187
2.578
2.42743
1.98595
2.20255
