0.273577
0.224059
0.243371
0.281155
0.185354
0.198279
0.332454
0.257605
0.45829
0.395775
0.394256
0.348942
0.175139
0.203783
0.238828
0.262652
0.265597
0.211467
0.273294
0.280825
0.166622
0.194155
0.331693
0.270321
0.437615
0.386252
0.358888
0.297394
0.155904
0.218877
0.214614
0.262167
1.49504
1.56491
1.34826
1.39998
1.42576
1.50019
1.61587
1.26182
1.26572
1.33026
1.38751
1.39919
1.39358
1.37137
1.23779
1.07567
1.35474
1.33526
1.36534
1.3466
1.22422
1.15079
1.28641
1.0807
1.24039
1.45423
1.39756
1.43002
1.43778
1.11652
1.12049
1.31607
1.25816
1.52682
1.17799
1.21683
1.28296
1.2379
1.34522
1.29956
1.2269
1.13793
1.33857
1.32719
1.33497
1.27065
1.34378
1.26568
1.2757
1.33726
1.40862
1.36058
1.23333
1.29883
1.30801
1.33801
1.39235
1.6868
1.36554
1.12637
1.48371
1.60798
1.61033
1.09044
1.08508
1.32221
1.1973
1.26806
1.189
1.37773
1.28398
1.28192
1.19176
0.973319
1.3429
0.930348
0.667077
1.02088
0.847711
1.63613
1.45731
1.50312
0.989462
1.05687
1.69281
1.71842
1.39211
1.43104
1.25859
1.41963
1.25447
1.23832
1.10769
1.12621
1.14589
1.12771
1.2979
1.40019
1.18492
1.1689
1.2174
1.23068
1.12966
1.04865
1.15183
1.06164
1.20989
1.26844
1.04869
1.16598
1.34781
0.911958
0.770294
1.13849
0.761007
3.25788
1.83384
0.838563
0.733153
0.815555
0.667915
1.32258
1.39094
0.892515
1.25933
0.764043
0.650463
1.47936
1.02212
0.809919
1.47395
0.643698
0.529218
3.2909
1.29755
0.887293
1.74577
0.812973
0.79636
1.36003
0.76112
1.46206
1.24645
1.06219
2.0287
0.945294
1.46831
1.22425
1.08155
0.87935
0.698632
0.796142
0.714378
0.92286
1.24691
1.54449
0.901409
1.2807
0.605816
1.13737
1.41928
0.925157
1.2293
0.952755
0.95199
0.667518
1.64065
0.814357
0.95154
0.758922
0.764009
1.76223
0.765229
1.62591
0.952719
1.15221
1.3031
0.913282
1.5833
0.878343
0.913085
3.33993
1.09058
0.668063
1.03256
0.728367
0.758547
3.80611
0.831595
1.10548
0.978013
0.770476
0.907382
0.860938
0.768757
1.24802
0.946571
0.635944
1.01122
1.41325
0.956465
1.24652
1.41694
1.04641
1.09354
1.26781
1.17386
1.79034
1.01046
1.18989
1.71015
0.774611
0.814746
1.01164
0.657625
0.829026
1.1024
1.04309
2.45191
0.921832
1.70781
1.2287
0.961085
0.947524
0.802266
1.10016
0.908352
1.44531
1.17834
0.797221
0.942007
1.20935
0.919789
1.00823
1.50083
0.816609
1.92663
0.862861
0.55144
0.666156
1.04594
0.50772
0.897502
0.73414
1.04554
0.580306
0.309191
0.815219
0.559012
0.645825
0.538351
0.680063
0.751659
0.857374
0.512637
0.853019
0.565297
0.347961
0.649613
0.986686
0.443757
0.832591
0.768512
0.564355
0.785201
0.587754
0.649793
0.601501
0.42427
0.476511
2.29399
1.92556
0.542342
0.66525
0.553809
0.634894
0.708597
2.2173
0.673197
0.658984
0.606878
0.61375
1.14579
0.615141
0.433307
0.645302
0.386911
0.560582
0.460714
0.48916
0.777116
0.812722
1.46858
0.606727
0.940091
0.472797
0.558274
0.625527
0.985796
0.695047
0.141325
0.658678
1.08595
0.903323
0.843524
0.861766
0.728371
0.872976
0.668017
0.860647
0.433591
0.848985
0.661698
1.51252
0.748802
0.453558
1.27356
0.559033
0.546565
0.834731
0.558634
0.534552
0.64748
0.603538
0.721423
0.910324
1.91594
1.52431
1.79307
0.478579
0.662963
0.70539
0.590768
0.705988
1.02365
0.818121
0.419545
1.99901
0.589692
1.45209
0.663086
0.690336
0.446014
0.782502
0.387427
0.766878
2.33691
0.415682
1.33071
0.42387
0.528729
1.10243
0.278459
0.547572
1.17475
0.59399
0.462416
2.23099
0.807118
0.525096
0.569091
0.662253
0.593354
1.05343
0.584346
0.602024
0.356026
0.359879
0.339875
0.352818
0.442962
0.387561
0.425513
0.307446
0.48227
0.513564
0.578755
0.552459
0.529382
0.517304
0.395731
0.454591
0.642295
0.636168
0.515364
0.615899
0.573372
0.59893
0.652925
0.657715
0.413047
0.411362
0.439627
0.365114
0.459428
0.456047
0.529699
0.514478
0.370894
0.459803
0.446217
0.396858
0.367862
0.376933
0.349598
0.451062
0.551294
0.569971
0.525962
0.513483
0.506027
0.472824
0.49086
0.50464
0.572657
0.490131
0.45259
0.466854
0.557737
0.66203
0.551197
0.702906
0.480494
0.578053
0.42212
0.538586
0.520261
0.4024
0.488077
0.409292
0.390985
0.522566
0.387221
0.501341
0.45642
0.404967
0.332759
0.533305
0.494557
0.517881
0.57976
0.538324
0.481651
0.482069
0.361643
0.461351
0.605548
0.642965
0.530055
0.573826
0.546335
0.571157
0.606833
0.640775
0.358166
0.426329
0.336688
0.46858
0.44312
0.41859
0.452731
0.439915
0.450136
0.406082
0.505993
0.451527
0.427775
0.470443
0.515101
0.401085
0.618228
0.501154
0.503387
0.523471
0.425175
0.494666
0.56071
0.53279
0.537563
0.47168
0.61137
0.519787
0.449605
0.528911
0.566193
0.44917
0.565427
0.540602
0.523951
0.55071
0.471239
0.524467
0.378225
0.550536
0.521544
0.532397
0.597983
0.661455
0.574717
0.572977
0.654349
0.554621
0.334284
0.358413
0.448395
0.445308
0.541568
0.537906
0.45873
0.40003
0.493578
0.515664
0.719521
0.676321
0.732566
0.692029
0.484899
0.541709
0.661011
0.691182
0.671845
0.70815
0.68811
0.70177
0.643985
0.693184
0.568664
0.571897
0.617191
0.622614
0.877117
0.699815
0.561958
0.576307
0.488561
0.474992
0.300879
0.406861
0.454607
0.470514
0.568792
0.516451
0.46814
0.34126
0.409296
0.773452
0.547436
0.618629
0.402982
0.454961
0.522282
0.532458
0.5677
0.497459
0.760666
0.882128
0.543885
0.955588
0.568062
0.517909
0.806839
0.739687
0.793881
0.632006
0.598179
0.607575
0.369622
0.415506
0.456996
0.464354
0.573972
0.508081
0.483184
0.461426
0.503374
0.523084
0.563503
0.636143
0.65447
0.624239
0.494001
0.550686
0.656801
0.692301
0.670144
0.703172
0.737229
0.779703
0.704597
0.744579
0.582786
0.617057
0.645149
0.608596
0.553439
0.637091
0.522023
0.580887
0.449369
0.47772
0.323455
0.367228
0.62506
0.51543
0.536918
0.552769
0.439484
0.44063
0.598269
0.625536
0.990992
0.776995
0.474851
0.387202
0.515915
0.577738
0.570885
0.671878
0.685722
0.834657
0.585566
0.698674
1.33261
1.31078
1.27851
1.29593
1.36928
1.37515
1.35849
1.41947
1.0919
1.06924
1.09872
1.05425
1.2799
1.22159
1.23604
1.23769
1.17916
1.20533
1.29771
1.34618
1.13264
1.09607
1.00496
1.01166
1.39014
1.28549
1.10161
1.23578
1.21381
1.28995
1.35981
1.36966
1.23551
1.35001
1.16974
1.19715
1.23146
1.2144
1.2873
1.30818
1.25235
0.980832
1.10468
0.975937
1.11701
1.02256
1.30889
1.21989
0.926528
1.3334
1.17742
1.11323
1.10305
1.10293
0.962302
1.18289
1.29334
1.27376
1.2878
1.26394
1.24889
1.26666
1.09305
1.20779
1.20941
1.28577
1.20605
1.20843
1.28573
1.22065
1.29601
1.30966
1.03016
1.34349
1.0122
1.11483
1.19538
1.1096
1.26237
1.12014
1.05128
1.36946
1.36682
1.15843
1.09223
1.16702
0.932425
1.09542
1.34667
1.20003
1.16782
1.09659
1.03303
1.1845
1.28308
1.14478
1.26654
1.16333
1.1052
0.888709
0.925494
1.06325
1.03389
1.09204
1.01877
0.96653
0.960614
0.91322
1.13177
1.09966
1.06443
1.03211
1.16862
1.03513
1.16907
1.29736
1.19225
1.05965
0.94424
0.962206
1.21445
1.27838
1.08928
1.19209
0.987982
1.1002
1.17931
1.28114
0.704309
1.09968
