0.39075
0.240747
0.234001
0.247762
0.108116
0.139569
0.274102
0.22579
0.365608
0.196199
0.256192
0.180763
0.0806944
0.177488
0.393181
0.205699
0.339641
0.29082
0.29565
0.166578
0.0625201
0.120814
0.2225
0.175632
0.363044
0.26015
0.269324
0.244379
0.123214
0.127786
0.232842
0.270096
0.955504
0.603747
0.537586
0.665707
0.555301
1.11573
0.92582
0.846021
0.838053
0.585132
0.927212
0.839676
0.553957
0.376325
0.619938
0.849362
0.762944
0.841138
0.793846
0.762792
0.833638
0.820821
0.575678
0.919449
0.726044
1.54746
0.788084
0.739756
0.860489
0.679193
0.832275
0.773364
0.523273
0.702032
0.473202
0.469166
0.445623
0.708156
0.951979
0.786661
0.492969
0.697347
0.951885
0.78664
0.502639
0.263406
0.375884
0.994896
0.865601
0.655758
0.832446
0.775049
0.850549
0.76716
0.45379
0.622029
0.764371
0.931628
0.57566
0.782599
0.833634
0.820819
0.793469
0.76195
0.856298
0.782497
0.738805
0.786826
0.713224
0.629647
0.914371
0.768009
0.731905
0.806891
0.572925
0.736407
0.737535
0.616661
0.753489
0.659865
0.717817
0.653305
0.627572
0.604461
0.710443
0.731001
0.746074
0.803119
0.876414
0.745924
0.848587
0.588274
0.684553
0.997608
0.593207
0.766823
0.822191
0.738262
0.77543
0.736216
0.825977
0.850096
0.758718
0.800181
0.59733
0.728715
0.621496
0.708545
0.833024
0.754946
0.616966
0.81591
0.739821
0.789719
0.797825
0.695107
0.781695
0.740949
0.63741
0.72142
0.644306
0.75439
0.827222
0.868762
0.759659
0.835256
0.733091
0.834819
0.606733
0.657633
0.635323
0.778627
0.637918
0.835069
0.777656
0.729136
0.773853
0.692707
0.721482
0.731827
0.730376
0.703821
0.814336
0.599359
0.782865
0.617743
0.733822
0.706518
0.672552
0.725895
0.618197
0.596433
0.692346
0.744376
0.745049
0.785235
0.727974
0.848117
0.626501
0.71005
0.735894
0.760507
0.769002
0.819051
0.675618
0.671116
0.862858
0.855897
0.604824
0.758317
0.74791
0.774268
0.64517
0.813906
0.657357
0.581821
0.697364
0.539109
0.747526
0.828932
0.562039
0.789547
0.748852
0.77189
0.68429
0.780685
0.599268
0.793125
0.718424
0.8252
0.765266
0.767317
0.565723
0.659848
0.66855
0.658062
0.639734
0.643759
0.609859
0.698323
0.777048
0.641313
0.739594
0.50731
0.623116
0.651923
0.607717
0.685355
0.746054
0.546138
0.494082
0.613497
0.588158
0.706119
0.636055
0.537817
0.868315
0.672884
0.763214
0.507964
0.643696
0.803982
0.692451
0.588905
0.717432
0.698122
0.568502
0.626441
1.01586
0.617391
0.590083
0.722826
0.530809
0.627084
0.66534
0.691384
0.624929
0.509764
0.533239
0.503188
0.558504
0.597575
0.750182
0.556265
0.638108
0.663185
0.730834
0.691654
0.743962
0.680053
0.688007
0.72661
0.671505
0.489517
0.711297
0.717445
0.784082
0.691331
0.64124
0.671615
0.621096
0.671376
0.701001
0.39957
0.653946
0.572034
0.565548
0.587568
0.713159
0.389677
0.65332
0.712248
0.482013
0.625467
0.642947
0.615575
0.735551
0.536792
0.579992
0.665439
0.661331
0.672171
0.72229
0.648839
0.611308
0.677992
0.607762
0.635737
0.740306
0.654072
0.64701
0.690288
0.636208
0.61533
0.553824
0.621874
0.766925
0.621123
0.77877
0.689756
0.494641
0.582644
0.630608
0.715735
0.826818
0.669675
0.671693
0.813405
0.517305
0.797401
0.689698
0.58332
0.739376
0.554655
0.685495
0.695005
0.658807
0.736306
0.752936
0.690399
0.601769
0.733965
0.524053
0.532631
0.444522
0.48113
0.565686
1.39813
0.405269
0.370464
0.338481
0.336859
0.409207
0.606292
0.449575
0.62309
0.437766
0.301247
0.451383
0.988681
0.441508
0.674431
0.35643
0.370316
0.620915
0.737472
0.506639
2.9929
0.490172
0.506462
0.841736
0.500159
0.729276
0.579264
0.576529
0.75892
0.576352
1.00884
0.729143
0.6524
0.454972
0.518238
0.28039
0.442989
1.15991
0.519105
0.737158
0.475105
0.457719
0.295356
0.575401
0.516037
0.578176
0.626385
0.299244
0.352842
0.911531
0.727605
0.675378
1.06852
1.2625
0.644469
0.898083
0.756154
0.900146
0.559447
0.551172
0.655207
0.42779
0.637141
0.667997
0.486668
0.346514
0.404945
0.271799
0.461709
0.512681
0.414945
0.569865
0.415471
0.308666
0.452069
0.618337
0.460647
2.75903
0.367129
0.270886
0.372949
0.654573
0.580905
0.531936
0.521216
0.415339
1.04625
0.484101
0.755112
0.733433
0.724229
0.622663
0.658956
0.670148
0.786929
0.912881
0.807177
0.401936
0.335256
0.424872
0.493594
0.878715
0.641573
0.564943
0.464892
0.462546
0.47475
0.669289
0.448114
0.684409
0.490169
0.355734
0.551976
0.707613
0.618617
1.07488
0.771439
0.602837
0.787842
0.569973
0.775871
0.719277
0.763598
0.547476
0.848698
0.749406
0.791739
0.84713
0.606141
0.799049
0.751881
0.818573
0.912213
0.659763
0.478532
0.514121
0.747002
0.823944
0.657196
0.530434
0.883097
0.348864
0.677486
0.810129
0.790376
0.654517
0.876001
0.847634
0.574718
0.751173
0.797598
0.910439
1.02787
0.712492
0.817462
0.884595
1.03596
0.81685
0.865139
0.869668
0.845248
0.746395
0.887093
0.741939
0.84001
0.836818
0.824133
0.839424
0.853205
0.752872
0.823566
0.88118
0.847141
0.815301
0.800005
0.826513
0.794483
0.924743
0.780077
0.857035
0.739886
0.729214
0.873041
0.715853
0.857691
0.7219
0.829116
0.951743
0.725622
0.531459
0.511846
0.5405
0.597313
0.745858
0.888056
0.955478
1.00288
0.712386
0.990338
0.863708
0.895232
0.468496
0.878708
0.756032
0.840762
0.711299
1.04603
0.468361
0.961745
0.721882
0.937731
0.594268
0.524956
0.523916
0.51097
0.951603
0.725316
0.891223
0.780068
1.10616
0.857674
0.800703
0.942763
0.848594
0.72074
0.778179
0.824377
0.849254
0.825411
0.844783
0.823354
0.840831
0.857455
0.735358
0.849191
0.903317
0.897819
0.819046
0.824338
0.719573
0.856225
0.739647
0.833839
0.868329
0.851503
0.821945
0.854862
0.886472
0.991565
