OFF
323 640 0
12.3022 19.9875 -12.1882
12.2262 19.9575 -12.0782
12.3442 20.479 -12.5342
12.0812 20.1601 -11.9682
12.1952 20.5274 -12.3402
11.9502 20.5307 -11.9472
12.2712 20.8486 -12.6092
11.8132 20.9071 -11.8932
12.0982 21.0454 -12.4272
11.8532 21.0243 -11.9922
5.11017 5.57387 0.0677893
4.58017 5.77737 0.292789
5.18217 5.54347 0.0757893
3.56617 5.55137 1.23279
3.68117 5.78317 0.947789
2.44917 5.56687 -0.319211
3.15517 5.77947 -0.706211
2.34817 5.54037 -0.302211
3.92017 5.78147 -1.25821
3.99417 5.57287 -1.45221
4.35617 7.17367 0.207789
4.42517 8.30327 0.105789
4.22117 8.36427 0.282789
4.41517 9.71437 0.116789
4.76617 11.0693 -0.155211
5.30817 12.3 -0.540211
5.18117 12.4714 -0.401211
4.60017 11.2152 0.0117893
5.03817 12.6534 -0.259211
4.44417 11.3533 0.156789
4.22317 9.82197 0.289789
4.01117 8.42537 0.452789
4.08517 7.20697 0.420789
3.77917 7.18417 -0.959211
3.54617 7.17367 -0.795211
3.62217 8.30327 -0.818211
3.58217 9.71437 -0.758211
3.71817 9.64257 -0.869211
3.75717 9.62597 -0.892211
3.72617 8.29147 -0.886211
3.88417 11.0771 -0.974211
4.33817 12.3843 -1.28321
4.42217 12.2847 -1.35521
3.96617 11.0166 -1.03321
4.44917 12.2662 -1.36521
3.21817 7.21387 -0.535211
3.20417 8.42537 -0.469211
3.41017 8.36427 -0.647211
3.38717 9.82197 -0.583211
3.57017 11.3533 -0.673211
4.05617 12.7386 -0.995211
4.19017 12.5663 -1.13821
3.72417 11.2152 -0.826211
3.23917 9.91627 -0.422211
3.25017 9.88097 -0.449211
3.12017 8.48897 -0.380211
4.04117 12.7729 -0.958211
3.51117 11.4225 -0.597211
3.09817 7.22917 -0.432211
3.05817 7.22907 -0.389211
6.15417 13.2907 -1.11421
6.03617 13.4924 -0.990211
7.19217 14.1136 -1.86321
8.41017 14.5892 -2.85321
9.43617 15.2738 -3.79721
8.29417 14.8451 -2.74721
9.30117 15.5916 -3.69821
8.16917 15.0995 -2.65021
7.07217 14.3557 -1.75121
5.91217 13.6942 -0.872211
5.21817 13.2907 -1.90721
6.22617 14.1136 -2.64421
6.33217 13.9428 -2.72821
5.28817 13.1996 -1.95521
7.43417 14.5891 -3.61821
8.44817 15.2503 -4.56721
8.51917 15.0938 -4.60721
7.47017 14.5114 -3.63421
6.35417 13.9143 -2.73121
7.48117 14.5007 -3.63421
8.53917 15.0622 -4.60621
4.96417 13.6942 -1.65721
5.08817 13.4924 -1.78521
6.09917 14.3557 -2.52721
7.17917 15.0994 -3.40721
8.30617 15.5638 -4.46421
7.30317 14.844 -3.51721
4.91917 13.7873 -1.59321
8.22917 15.7731 -4.38021
8.23517 15.7456 -4.40021
7.15817 15.1873 -3.37321
6.00417 14.5587 -2.42321
10.3462 15.7821 -4.83321
10.2622 16.0175 -4.77321
10.9842 16.5025 -5.74121
10.8862 16.772 -5.68121
11.5132 17.0132 -6.56121
11.8952 17.4007 -7.17821
11.4422 17.2102 -6.51921
11.7452 17.8252 -7.09821
11.6062 18.1775 -7.03921
11.3102 17.555 -6.45021
10.7852 17.0245 -5.62921
10.1282 16.3359 -4.68821
9.33417 15.782 -5.57621
9.93717 16.5025 -6.47921
10.0032 16.3588 -6.51021
9.36417 15.6831 -5.57021
10.7432 17.4288 -7.95121
10.4942 16.89 -7.32021
10.4302 17.0058 -7.30721
10.0262 16.3268 -6.50921
10.8082 17.3169 -7.96321
9.09917 16.3373 -5.42121
9.21317 16.0571 -5.50321
9.79817 16.8422 -6.39921
10.1932 17.5858 -7.17021
10.5172 17.9729 -7.82721
10.2842 17.358 -7.22821
9.71617 17.0692 -6.32021
9.72317 17.0444 -6.34321
9.06617 16.4138 -5.37821
10.1672 17.6751 -7.14121
10.4422 18.1688 -7.76921
12.1212 17.7364 -7.51321
12.5282 17.9294 -7.99321
12.8172 17.9413 -8.41121
12.6182 18.5018 -8.29621
12.3202 18.4941 -7.88521
12.3982 17.6391 -7.78621
12.4272 18.9989 -8.20621
12.1422 18.8125 -7.75921
11.8272 18.5075 -7.37021
10.9952 17.8214 -8.63521
10.9812 17.5325 -8.37321
10.8592 17.7863 -8.32621
11.0732 17.941 -8.93421
11.1042 18.3721 -9.30921
11.2742 17.9961 -9.38121
11.1722 17.7427 -8.96421
11.0892 17.6409 -8.66321
11.3132 17.9375 -9.38021
10.6482 18.6361 -8.44921
10.5642 18.5066 -8.16321
10.8412 18.9989 -9.17421
10.9362 18.2571 -8.86821
10.7082 18.8102 -8.74621
10.6432 19.0103 -8.69521
10.7332 19.3284 -9.09621
10.7392 19.2672 -9.11321
13.0482 18.5579 -9.00421
13.3292 19.1659 -9.72621
13.1392 19.6924 -9.64621
12.8122 19.1943 -8.88621
13.6602 19.4866 -10.4382
13.7992 20.1601 -10.9842
13.5392 19.909 -10.4182
13.6872 20.5306 -10.9732
13.2822 20.4318 -10.2462
12.9882 20.0405 -9.56721
12.6682 19.558 -8.82321
11.4352 18.5579 -10.0152
11.6592 19.1659 -10.7372
11.7772 18.9219 -10.7892
11.8332 18.8384 -10.8112
11.5502 18.329 -10.0482
11.9802 19.4866 -11.4382
12.1052 19.4207 -11.5782
11.3792 19.8234 -10.6112
11.2762 18.9215 -9.94121
11.0092 19.558 -9.80621
11.5382 20.5103 -11.2342
11.8242 19.909 -11.4152
10.9332 19.7889 -9.75321
11.5382 20.7389 -11.3232
11.2342 20.1842 -10.5322
11.2222 20.2974 -10.5412
3.12817 7.23477 -0.303211
3.30717 9.91167 -0.350211
3.31617 7.23477 -0.0722107
3.25917 8.45317 -0.218211
3.50117 9.91167 -0.148211
4.11617 12.7721 -0.892211
3.66217 11.4161 -0.450211
5.08417 13.7858 -1.45421
7.48917 15.1875 -3.12221
8.72617 15.7763 -4.02421
10.2382 17.0765 -5.97821
10.6242 17.6782 -6.84621
11.0242 18.1743 -7.40621
11.2962 18.5101 -7.70521
11.5062 19.3231 -8.62521
11.6172 19.7852 -9.34621
12.0592 20.2914 -10.0532
12.1192 20.7386 -11.0002
12.7082 21.0242 -11.5252
13.1342 19.9914 -11.7112
12.4022 19.4241 -11.4062
12.3642 18.8479 -10.5002
12.2092 18.3306 -9.63321
12.0592 17.9398 -8.90121
11.1672 17.3148 -7.71821
8.85217 15.0626 -4.36821
10.3532 16.3268 -6.27621
4.52317 12.2655 -1.29821
7.87717 14.5007 -3.32121
6.81317 13.9118 -2.34921
5.45017 13.199 -1.81521
4.73317 12.2655 -1.10921
4.11717 11.0144 -0.886211
3.82817 9.62467 -0.817211
3.86717 8.27547 -0.725211
4.04117 7.14587 -0.641211
3.85217 7.26487 0.584789
4.08917 9.89367 0.399789
4.04917 9.90577 0.421789
3.90417 8.41607 0.521789
4.95617 12.7507 -0.188211
4.36217 11.4093 0.214789
4.93017 12.7714 -0.180211
5.84317 13.7842 -0.826211
6.97117 14.5262 -1.67121
6.94917 14.5548 -1.66821
9.23617 15.7448 -3.66321
8.12517 15.185 -2.63221
9.22117 15.7796 -3.67021
10.0892 16.4259 -4.68221
10.7582 17.0841 -5.63921
11.2532 17.6818 -6.43921
12.0942 18.9897 -7.78421
12.3152 19.2648 -8.16221
12.2742 19.3178 -8.15621
12.5592 19.7808 -8.78821
12.9342 20.1842 -9.56021
12.8932 20.2886 -9.57421
13.5442 20.9071 -10.9432
13.2412 20.7352 -10.3692
13.5592 21.0242 -11.0602
13.9132 19.9575 -11.1012
13.9182 20.5274 -11.3742
14.0382 20.4828 -11.5822
13.9812 20.8496 -11.6672
13.9622 19.9932 -11.2342
13.8222 21.0453 -11.4862
13.7552 19.4277 -10.6032
13.4582 18.8526 -9.83321
13.1172 18.3339 -9.06221
12.1822 17.5298 -7.56721
11.9202 17.3099 -7.20021
12.5842 17.7463 -8.04821
11.0332 16.3278 -5.79421
11.0332 16.3597 -5.78021
10.3662 15.6965 -4.86221
9.50017 15.0938 -3.85721
9.50217 15.064 -3.87421
7.27017 13.9093 -1.96921
7.26617 13.9522 -1.94421
6.19517 13.1978 -1.17721
5.32217 12.2649 -0.577211
8.42517 14.5114 -2.88021
8.42417 14.5007 -2.88921
4.55917 9.62137 -0.0432107
4.54717 9.64667 -0.0152107
4.51017 8.26997 0.0157893
4.54317 7.15927 0.0457893
4.56717 7.14117 0.0107893
4.80817 11.0123 -0.215211
4.56617 6.42567 0.112789
4.23717 6.43277 0.370789
4.78117 5.99527 0.0437893
3.89917 6.44187 0.620789
3.73417 5.99697 0.824789
3.78517 6.45557 0.685789
2.71217 5.77797 -0.351211
3.24017 6.45057 -0.0202107
2.95817 6.44637 -0.384211
2.83017 6.00197 -0.381211
3.13117 6.45997 -0.537211
3.87417 5.99197 -1.16521
3.70017 6.41867 -0.968211
3.83717 6.42167 -1.05121
3.98617 6.41497 -0.859211
4.33017 5.99017 -0.560211
4.66317 6.41277 0.0197893
4.88817 5.77387 0.0387893
3.59117 7.23477 0.267789
3.63817 6.45057 0.496789
3.76617 8.45317 0.359789
3.98017 9.91167 0.347789
3.78617 9.91167 0.146789
4.85617 12.7722 -0.245211
4.21217 11.416 0.0707893
5.68117 13.7858 -0.963211
6.64917 14.5575 -1.91221
7.95717 15.1875 -2.76621
9.74617 16.4243 -4.92121
13.4652 20.482 -11.9042
13.1282 20.849 -12.1372
13.1972 19.4241 -10.9322
10.0302 15.6945 -5.10521
10.7072 16.3268 -6.02421
5.25017 12.2655 -0.643211
5.04117 12.2655 -0.832211
6.03517 13.199 -1.31621
4.31517 7.14587 -0.301211
4.37117 8.27547 -0.144211
4.49317 9.62467 -0.114211
4.65917 11.0144 -0.361211
4.38417 6.41497 -0.342211
3.28217 5.99907 0.221789
3.51317 8.45317 0.0707893
4.64317 12.7722 -0.431211
3.93817 11.416 -0.190211
4.33017 12.7722 -0.705211
5.38217 13.7858 -1.20821
6.31617 14.5575 -2.17421
12.9272 18.8479 -10.1532
9.19017 15.0626 -4.10921
5.74317 13.199 -1.56621
4.02017 9.62467 -0.614211
4.11917 8.27547 -0.434211
4.38817 11.0144 -0.623211
4.30117 9.62467 -0.316211
3 0 1 2
3 1 3 4
3 3 5 4
3 4 6 2
3 2 1 4
3 7 8 5
3 8 6 4
3 8 4 5
3 8 7 9
3 10 11 12
3 13 11 14
3 12 11 13
3 15 16 17
3 16 18 19
3 17 16 19
3 20 21 22
3 21 23 22
3 24 25 26
3 24 26 27
3 23 24 27
3 28 29 27
3 29 30 27
3 30 23 27
3 27 26 28
3 31 32 22
3 32 20 22
3 22 23 30
3 30 31 22
3 33 34 35
3 35 36 37
3 37 38 39
3 37 39 35
3 39 33 35
3 40 41 42
3 42 43 40
3 43 38 37
3 43 37 40
3 37 36 40
3 43 42 44
3 45 46 47
3 46 48 47
3 48 36 47
3 47 34 45
3 49 50 51
3 49 51 52
3 52 36 48
3 48 49 52
3 41 40 52
3 40 36 52
3 52 51 41
3 35 34 47
3 36 35 47
3 53 54 55
3 56 50 57
3 57 54 53
3 49 48 54
3 54 57 49
3 57 50 49
3 46 45 58
3 58 59 55
3 58 55 46
3 55 54 46
3 54 48 46
3 26 25 60
3 26 60 61
3 60 62 61
3 63 64 65
3 62 63 65
3 66 67 65
3 67 68 65
3 68 62 65
3 65 64 66
3 69 28 61
3 28 26 61
3 61 62 68
3 68 69 61
3 42 41 70
3 70 71 72
3 72 73 70
3 73 42 70
3 74 75 76
3 76 77 74
3 77 72 74
3 72 71 74
3 78 72 77
3 78 77 79
3 77 76 80
3 77 80 79
3 44 42 73
3 73 72 78
3 51 50 81
3 51 81 82
3 81 83 82
3 84 85 86
3 83 84 86
3 75 74 86
3 74 71 86
3 71 83 86
3 86 85 75
3 70 41 82
3 41 51 82
3 82 83 71
3 71 70 82
3 87 50 56
3 88 89 90
3 89 85 84
3 84 83 91
3 91 90 84
3 90 89 84
3 50 87 81
3 87 91 81
3 91 83 81
3 64 92 93
3 92 94 93
3 94 95 93
3 96 97 98
3 97 99 98
3 98 95 94
3 94 96 98
3 99 100 101
3 101 102 95
3 95 98 101
3 98 99 101
3 103 66 93
3 66 64 93
3 95 102 103
3 95 103 93
3 76 75 104
3 104 105 106
3 106 107 104
3 107 76 104
3 108 109 110
3 109 106 110
3 106 105 110
3 111 106 109
3 109 108 112
3 80 76 107
3 107 106 111
3 85 113 114
3 113 115 114
3 116 117 118
3 117 108 118
3 115 116 118
3 105 115 118
3 105 118 110
3 118 108 110
3 104 75 114
3 75 85 114
3 114 115 105
3 105 104 114
3 119 120 121
3 121 89 88
3 122 120 119
3 123 117 116
3 116 115 120
3 120 122 116
3 122 123 116
3 113 85 89
3 89 121 113
3 121 120 113
3 120 115 113
3 124 99 97
3 125 126 127
3 127 128 125
3 128 129 125
3 130 131 128
3 131 129 128
3 128 127 130
3 132 100 99
3 99 124 132
3 124 129 131
3 124 131 132
3 133 134 135
3 134 108 135
3 136 137 138
3 138 139 136
3 139 133 136
3 140 133 139
3 139 138 141
3 112 108 134
3 134 133 140
3 142 133 135
3 142 135 143
3 135 108 117
3 135 117 143
3 144 137 145
3 144 145 146
3 145 133 142
3 145 142 146
3 137 136 145
3 136 133 145
3 147 142 143
3 148 149 147
3 149 144 146
3 142 147 146
3 147 149 146
3 143 117 123
3 127 126 150
3 151 152 153
3 151 153 150
3 153 127 150
3 154 155 156
3 155 157 156
3 156 152 151
3 151 154 156
3 158 159 152
3 152 156 158
3 156 157 158
3 160 130 153
3 130 127 153
3 152 159 160
3 152 160 153
3 138 137 161
3 161 162 163
3 163 164 165
3 163 165 161
3 165 138 161
3 166 3 1
3 1 167 166
3 167 164 163
3 167 163 166
3 163 162 166
3 167 1 0
3 141 138 165
3 168 169 170
3 169 137 144
3 169 144 170
3 171 5 172
3 168 171 172
3 3 166 172
3 166 162 172
3 162 168 172
3 172 5 3
3 161 137 169
3 169 168 162
3 162 161 169
3 173 149 148
3 9 7 174
3 7 5 171
3 171 168 175
3 175 176 174
3 175 174 171
3 174 7 171
3 170 144 149
3 149 173 170
3 173 176 175
3 173 175 170
3 175 168 170
3 59 177 55
3 55 178 53
3 177 179 180
3 180 181 178
3 178 55 180
3 55 177 180
3 182 57 183
3 57 178 183
3 178 181 183
3 53 178 57
3 57 182 56
3 56 182 87
3 91 87 184
3 87 182 184
3 185 186 88
3 88 90 185
3 90 91 185
3 88 186 121
3 121 187 119
3 188 189 123
3 123 122 188
3 122 119 188
3 119 187 188
3 123 189 190
3 147 143 190
3 143 123 190
3 147 191 148
3 148 191 192
3 192 193 176
3 176 173 192
3 173 148 192
3 194 195 9
3 194 9 174
3 176 193 194
3 176 194 174
3 2 196 0
3 9 195 8
3 0 196 197
3 197 198 164
3 164 167 197
3 167 0 197
3 199 200 141
3 199 141 165
3 164 198 199
3 164 199 165
3 141 200 139
3 134 201 112
3 107 202 80
3 112 201 203
3 111 109 203
3 109 112 203
3 73 204 44
3 80 202 79
3 202 205 79
3 205 206 78
3 205 78 79
3 207 208 204
3 207 204 73
3 78 206 207
3 78 207 73
3 44 204 43
3 204 208 209
3 204 209 43
3 209 210 43
3 210 38 43
3 211 212 33
3 33 39 211
3 39 38 210
3 39 210 211
3 213 32 31
3 31 30 214
3 214 215 216
3 214 216 31
3 216 213 31
3 29 28 217
3 217 218 29
3 218 215 214
3 218 214 29
3 214 30 29
3 218 217 219
3 219 217 220
3 220 221 222
3 217 28 69
3 69 68 221
3 221 220 69
3 220 217 69
3 67 66 223
3 223 224 67
3 224 221 67
3 221 68 67
3 222 221 224
3 224 223 225
3 225 223 226
3 226 102 227
3 223 66 103
3 102 226 103
3 226 223 103
3 100 228 101
3 228 102 101
3 227 102 228
3 132 131 229
3 131 130 230
3 230 229 131
3 229 230 231
3 231 230 232
3 230 130 160
3 160 159 233
3 233 234 232
3 233 232 160
3 232 230 160
3 158 157 235
3 235 236 158
3 236 234 233
3 236 233 158
3 233 159 158
3 236 235 237
3 155 238 239
3 238 240 239
3 240 241 239
3 239 157 155
3 240 238 242
3 237 235 243
3 235 157 243
3 157 239 243
3 239 241 243
3 242 238 244
3 238 155 154
3 154 151 245
3 245 244 154
3 244 238 154
3 126 246 150
3 246 245 150
3 245 151 150
3 247 97 248
3 129 249 125
3 249 126 125
3 97 247 124
3 247 129 124
3 250 251 252
3 252 253 254
3 248 251 250
3 96 94 251
3 251 248 96
3 248 97 96
3 92 64 253
3 253 252 92
3 252 251 92
3 251 94 92
3 255 256 257
3 257 25 258
3 254 253 259
3 254 259 260
3 259 256 255
3 259 255 260
3 253 64 63
3 63 62 256
3 256 259 63
3 259 253 63
3 25 257 60
3 257 256 60
3 256 62 60
3 261 262 263
3 263 264 265
3 258 25 266
3 266 262 261
3 24 23 262
3 262 266 24
3 266 25 24
3 21 20 264
3 264 263 21
3 263 262 21
3 262 23 21
3 267 20 268
3 269 267 268
3 32 270 268
3 270 271 268
3 271 269 268
3 268 20 32
3 11 269 271
3 11 271 14
3 270 32 213
3 213 272 270
3 272 271 270
3 15 14 273
3 274 179 177
3 177 275 274
3 275 276 274
3 275 177 59
3 58 45 277
3 276 275 277
3 275 59 58
3 275 58 277
3 15 273 16
3 273 276 16
3 276 278 16
3 45 34 277
3 277 278 276
3 278 277 279
3 277 34 279
3 278 18 16
3 279 34 33
3 33 280 279
3 280 278 279
3 33 212 281
3 281 282 278
3 278 280 281
3 280 33 281
3 278 282 18
3 265 264 283
3 264 20 267
3 269 283 267
3 283 264 267
3 10 284 11
3 284 269 11
3 213 285 286
3 271 272 286
3 272 213 286
3 287 285 213
3 213 216 287
3 216 288 287
3 288 289 287
3 215 288 216
3 219 290 218
3 218 288 215
3 291 289 288
3 288 218 291
3 218 290 291
3 290 220 292
3 220 222 292
3 222 293 292
3 220 290 219
3 225 186 294
3 294 293 222
3 222 224 294
3 224 225 294
3 295 186 225
3 225 226 295
3 226 227 295
3 227 187 295
3 100 189 188
3 188 187 227
3 227 228 188
3 228 100 188
3 190 189 100
3 190 100 132
3 229 190 132
3 231 191 229
3 192 191 231
3 231 232 192
3 232 234 192
3 237 195 236
3 296 297 241
3 241 240 296
3 240 242 296
3 243 195 237
3 241 297 243
3 126 200 199
3 245 246 199
3 246 126 199
3 242 244 298
3 244 245 298
3 248 201 247
3 247 140 129
3 249 200 126
3 129 140 249
3 299 300 250
3 250 252 299
3 252 254 299
3 300 201 248
3 248 250 300
3 301 302 303
3 303 206 255
3 255 257 303
3 257 301 303
3 205 254 260
3 255 206 205
3 255 205 260
3 258 301 257
3 304 305 263
3 305 306 263
3 307 302 301
3 307 301 266
3 306 307 266
3 261 306 266
3 266 301 258
3 265 304 263
3 263 306 261
3 284 282 269
3 304 283 308
3 283 269 308
3 269 282 308
3 283 304 265
3 13 15 17
3 13 14 15
3 14 309 273
3 309 276 273
3 14 271 309
3 286 285 274
3 285 179 274
3 309 271 286
3 309 286 274
3 274 276 309
3 180 179 310
3 181 180 310
3 289 181 310
3 289 310 287
3 310 179 285
3 310 285 287
3 291 290 311
3 291 311 312
3 311 313 312
3 312 181 289
3 289 291 312
3 313 182 183
3 313 183 312
3 183 181 312
3 184 182 313
3 313 314 184
3 314 293 315
3 314 315 184
3 315 91 184
3 311 290 292
3 311 292 314
3 292 293 314
3 314 313 311
3 294 186 185
3 293 294 185
3 185 91 315
3 315 293 185
3 121 186 295
3 187 121 295
3 190 229 147
3 229 191 147
3 192 234 193
3 236 195 194
3 193 234 236
3 193 236 194
3 296 242 196
3 2 6 297
3 297 296 2
3 296 196 2
3 195 243 8
3 243 297 8
3 297 6 8
3 198 316 199
3 197 196 298
3 298 316 198
3 198 197 298
3 196 242 298
3 298 245 316
3 316 245 199
3 201 134 247
3 134 140 247
3 200 249 139
3 249 140 139
3 202 107 299
3 107 111 203
3 107 203 299
3 300 203 201
3 299 254 317
3 317 202 299
3 299 203 300
3 208 207 318
3 207 206 318
3 317 254 205
3 205 202 317
3 302 208 318
3 302 318 303
3 318 206 303
3 211 210 319
3 319 320 211
3 320 304 212
3 320 212 211
3 208 321 209
3 321 319 209
3 319 210 209
3 302 307 321
3 307 306 322
3 307 322 321
3 322 319 321
3 321 208 302
3 304 320 305
3 320 319 322
3 320 322 305
3 322 306 305
3 282 284 18
3 281 212 308
3 212 304 308
3 282 281 308
3 12 19 10
3 18 284 19
3 284 10 19
