3.84042
1.23381
1.83705
3.49422
2.61209
2.05144
0.946513
0.96289
3.02747
2.09686
1.99661
2.46034
1.08878
2.34204
3.21274
2.1429
1.56679
2.88186
2.88053
2.0291
1.48623
2.25305
2.42562
1.84033
0.96883
1.22641
1.39427
0.87524
1.20928
1.0294
1.38219
1.91858
1.26543
1.07437
1.54247
1.48611
1.85952
1.69182
0.611197
1.86552
1.36075
1.45051
1.77175
1.85779
0.645718
1.48028
1.62184
1.33234
0.897445
1.04162
1.28925
1.19272
0.593735
1.27435
1.53591
1.14359
0.523473
1.46929
1.11049
1.57837
1.58252
1.40975
1.3508
1.72038
1.24122
0.870911
0.756913
1.32174
1.58385
1.20368
1.62897
1.23283
2.27958
1.51298
2.31436
1.24935
0.990604
1.50784
1.41832
1.38193
1.78842
1.25337
1.23865
2.12432
0.600882
1.3743
1.62369
0.872416
0.903739
0.473807
1.23436
1.54493
1.9847
1.22717
1.46601
2.2933
0.875777
4.48167
1.27017
2.98816
1.48166
1.91327
3.29506
2.87395
2.56465
0.71257
2.84817
1.62917
2.26049
2.12392
1.77667
1.96945
0.544746
1.6999
1.87942
1.63277
2.03833
0.888565
2.3417
2.35107
2.1085
2.42044
1.85874
1.31391
0.590015
1.78285
1.76921
1.57948
3.18461
2.80437
2.20389
2.14761
1.79413
3.79027
2.84857
2.60799
1.8417
2.49091
3.14217
1.62536
1.26658
1.98665
2.18234
2.88612
2.8513
0.82738
0.847782
3.2371
0.527309
3.16329
1.7919
1.91237
0.84375
0.669317
1.45568
1.8769
1.69397
2.80735
2.4694
1.30874
1.9912
2.43291
2.04396
3.24753
2.08995
2.95351
1.99015
2.637
2.83105
1.7327
2.85108
2.18423
2.59665
3.04675
3.46867
1.98032
2.54526
1.47406
2.25733
1.15395
2.23194
3.31245
3.43476
5.07377
2.21657
3.09628
2.86023
2.81316
2.28929
3.65002
2.57093
2.13816
3.1859
3.4618
3.59844
2.38314
1.85489
2.19666
4.16362
2.35194
3.27468
2.45371
2.6206
4.2132
2.89872
3.25291
2.81958
2.24128
2.73481
3.29087
2.27637
1.87747
2.61974
3.91369
3.4291
1.8201
0.404428
1.89221
1.60478
1.40237
2.79126
2.9485
1.37574
2.98869
1.11173
1.96469
3.17659
5.06276
3.51775
1.15631
1.71141
1.34732
1.27147
2.80461
2.68109
2.96814
2.09213
2.09484
6.95552
1.4074
2.46492
2.5486
3.27447
3.30658
3.70875
4.2477
2.96962
2.99249
0.934479
1.53835
0.565975
1.62095
2.8212
2.0213
0.843616
1.05874
2.96744
3.36829
3.05215
3.02542
3.58889
1.72744
1.75604
2.73869
3.22682
2.3047
3.26929
2.44011
0.692611
2.53632
3.30595
2.96905
3.89819
0.443163
3.79379
1.94469
2.24725
4.78254
1.97353
0.472507
3.401
3.27533
3.00615
1.19736
5.3584
3.25021
4.29974
1.71956
0.747089
0.281721
3.33355
2.14047
1.60081
3.50297
5.00528
1.10797
0.379118
0.262065
2.82414
0.346318
0.474317
1.41839
1.72591
1.25461
1.87102
0.515077
1.80456
0.506567
1.19367
0.733932
1.02585
2.09944
0.587032
0.89355
0.801464
0.546458
0.463265
0.703651
0.466449
0.525766
0.455695
0.722332
0.787951
3.42605
0.390258
0.679515
0.822344
3.54108
3.422
3.70625
4.03641
3.23952
0.691812
3.21362
3.99075
3.85519
0.923867
1.80249
1.26971
1.84487
0.730138
0.707645
0.638215
1.95901
0.682867
1.02996
0.905028
3.37547
2.99235
1.54624
4.10041
2.08155
3.16519
2.6554
3.21322
3.16976
3.11114
3.02101
3.1715
5.60202
1.75672
3.86231
1.24597
3.62589
4.19301
1.83757
4.7834
2.83784
1.631
1.40856
2.53638
3.30473
3.96995
2.89585
2.5951
0.721858
2.47636
2.79829
2.03299
3.0857
2.38162
1.87043
2.55294
3.35149
3.04433
3.18337
4.47955
2.52505
3.29625
2.69704
3.72249
1.69218
2.53989
3.37876
1.14191
1.42883
3.53492
3.46191
3.63688
3.5508
3.47823
3.39472
1.78446
3.10989
1.44605
2.3821
1.2848
4.89171
1.83636
1.95794
1.107
0.688412
2.01658
4.32731
0.720974
1.99876
1.20809
1.7202
3.64196
3.50862
2.1302
0.585814
3.47103
3.00167
3.78408
0.631733
2.65096
2.41148
3.33148
2.66061
4.56347
2.82575
1.18826
2.70346
1.95333
2.48073
2.36034
0.763571
3.99741
2.93961
3.57372
3.78777
1.89057
3.42312
1.317
0.804041
3.48315
2.78686
2.95402
5.08543
0.866649
1.34113
0.803848
0.470413
1.32901
1.82525
1.06163
3.16254
2.89395
3.55213
3.59991
1.39579
1.4515
2.79881
3.3805
3.45152
1.55227
3.42786
2.60028
0.901256
1.88786
4.61488
3.43646
3.27707
2.91251
3.46437
2.49332
0.814928
1.59978
0.528276
0.652706
1.38219
0.959653
1.44316
0.618543
0.636151
1.35835
1.30769
1.18546
0.983826
1.62993
1.38714
1.80341
1.22513
1.77439
1.25316
1.14272
1.43549
1.39804
1.17897
0.804088
1.37978
0.841673
1.34622
1.15952
0.747598
1.11666
3.70066
3.43144
3.44115
3.11178
4.38295
3.42316
3.41778
1.80523
3.55275
4.51908
3.39042
2.54429
1.55609
5.67831
2.97017
3.13688
3.36706
3.33539
3.21549
3.1372
