0.824187
1.7857
0.836372
1.41939
1.31578
1.13084
1.49471
0.923208
0.717291
1.96717
0.484186
1.38921
1.24042
1.23711
1.39691
1.77171
1.16592
0.762783
0.638091
1.80315
1.01711
1.17795
0.851742
0.873016
0.741666
1.84898
0.685999
0.881645
1.27161
0.932097
2.46518
1.0431
0.790368
1.47668
0.681789
3.39266
2.38353
1.9254
1.85739
1.75316
0.372868
3.60782
0
1.67615
1.90208
1.42064
0.642291
1.1139
0.485355
1.38308
2.59555
1.32621
3.64507
3.1099
2.17921
4.35842
0.745055
2.9027
3.71479
3.07487
1.82253
2.77865
3.34593
3.43854
2.86502
4.10073
2.72725
2.92168
2.07607
1.66592
4.16358
3.31008
2.10307
4.37085
1.08961
2.41127
4.15214
1.77336
2.0164
2.7202
1.36194
1.96854
3.09178
1.74361
1.05255
1.56877
0.955069
1.91014
3.40002
3.26727
1.65055
3.85582
2.1051
2.53136
2.62602
1.63317
3.13051
4.93608
1.85303
1.81889
4.53715
3.88695
1.75215
2.96643
3.52875
2.05153
2.15209
1.24785
1.74243
2.75611
3.71862
2.79171
1.72053
3.59458
3.5444
2.81519
2.81375
1.20258
1.42798
3.19231
0.936342
1.3872
5.1809
3.92047
0.684866
3.35517
3.65093
3.77552
1.2618
2.02525
2.37155
4.06554
3.74961
1.82621
3.42377
5.303
1.01849
2.84903
2.5449
2.97554
4.05906
2.97625
3.37137
1.26333
1.07105
2.40642
2.39316
1.98203
1.02101
2.34364
2.73833
2.79242
3.21375
2.22649
4.0037
2.37607
3.96213
5.03312
1.50667
2.08141
3.1808
0.662219
3.29908
2.58999
3.45933
1.44523
2.48952
2.93479
1.76408
2.52516
2.75739
2.56709
3.04287
2.34953
2.00111
2.88928
2.67343
1.30722
2.32929
3.47383
3.35207
2.93449
1.99391
2.70921
3.12878
0.658925
3.32194
3.32134
3.16696
3.64972
0.502668
4.96251
3.20731
2.69532
3.46498
0.578618
3.256
2.99777
3.45068
1.71655
2.77132
3.29156
1.51219
2.15046
2.87097
1.56496
0.915343
1.63363
2.43248
2.06599
2.75905
2.43101
1.90975
0.651143
2.79401
1.8239
1.06858
1.97127
4.61822
2.87784
2.63021
2.71924
2.8438
2.63683
2.36682
2.88339
1.61161
2.17968
2.7403
0.820216
2.05555
2.46601
1.47133
1.24166
1.25761
1.11912
2.1483
2.2969
2.1517
1.96659
0.930608
1.27357
1.28861
2.00157
1.6602
2.28063
1.74845
1.27077
1.59241
2.49749
1.47802
2.58194
1.91575
2.1413
1.16656
2.29093
2.19035
1.71886
1.10123
1.73948
1.5468
2.96654
2.71394
1.00186
0.651149
0.617125
1.06682
1.10414
1.48791
1.51748
0.899356
1.30147
1.75203
1.72913
1.73062
1.63317
1.84952
0.932908
1.09414
1.61051
2.87244
1.92892
2.53772
2.63861
1.01416
1.57037
1.86079
1.14348
2.01309
2.20917
1.61205
1.76581
1.61811
1.7569
2.83498
1.92765
0.83392
0.858528
0.880035
0.880148
0.925519
1.96516
1.41966
1.64563
0.531509
0.608175
0.556592
0.774739
1.08668
0.725849
1.70598
0.862495
1.90275
1.60207
1.95954
2.70016
1.24009
1.63774
1.75917
1.34834
2.58391
1.74528
2.28258
2.35821
0.763867
0.908813
2.91136
1.62131
2.12154
0.785132
0.916062
0.961042
1.67216
1.11653
1.38987
1.63101
0.736687
1.00377
0.634048
1.05046
1.0128
0.77972
0.857058
0.778161
2.4447
1.89752
1.98184
1.65803
1.8737
1.98512
1.74159
1.63149
1.47289
1.74507
0.779803
0.906355
0.619198
1.96446
0.977834
1.79192
1.58021
4.0114
0.906366
1.74566
0.646303
0.611223
1.64489
0.996755
0.636165
0.261749
0.316241
0.872264
0.376747
1.28378
0.700272
0.730804
0.424183
0.836982
0.681112
0.974391
0.675568
0.833764
0.440574
0.369355
0.648935
0.654133
0.335145
0.319488
0.921345
0.305453
0.553448
0.635651
0.808176
0.925905
0.718498
0.410241
0.530159
0.323991
0.365336
0.388405
0.440054
0.464221
2.21993
0.212891
0.722423
1.10637
1.17387
0.774029
0.528061
0.576182
0.412804
0.580179
0.322741
0.602147
1.69537
0.303267
0.317383
0.518932
0.166607
0.719388
0.767863
1.77601
0.906095
1.31562
1.59095
0.4865
0.897217
0.950119
0.80412
0.916536
0.317173
0.36809
0.424024
0.457866
0.333961
0.221928
0.426556
0.614121
0.900034
1.29548
0.292506
0.462447
0.66862
1.01223
1.08452
1.07361
0.240439
0.42785
0.353942
0.476971
0.528421
0.390366
0.290513
0.371185
0.670336
0.706851
0.434897
1.20374
0.835149
0.553584
0.560861
0.390048
0.410482
0.435469
0.730447
1.09193
1.04286
0.269197
0.573491
0.852684
0.95649
0.92253
2.04689
1.72607
1.21982
0.53209
0.343884
0.406517
0.653691
1.64679
