3.32842
3.37498
3.51056
3.56102
3.26681
3.34438
3.10819
3.14674
3.30333
3.22917
3.15468
3.20073
3.1109
3.27407
3.7917
3.55242
3.05342
3.03431
3.77059
3.55492
3.32621
3.35216
3.24747
3.04338
3.30165
3.46628
3.1361
3.19537
3.04847
3.28553
3.64778
3.55053
1.79384
2.18378
2.1413
2.20174
1.96683
2.39244
2.17321
2.27743
2.13538
2.17764
1.79118
2.25285
2.64883
2.02055
2.25734
1.46858
2.31259
2.00722
2.30604
2.21733
2.38355
2.44235
2.11689
2.15884
2.19555
2.2443
1.88273
1.7902
2.53668
2.0936
2.15253
2.37534
1.9907
1.89509
2.49141
1.97113
1.41363
1.9698
2.25765
1.77749
1.99476
1.89508
2.25766
1.77177
1.41364
1.96801
1.42539
1.9264
2.24431
2.15253
2.37534
2.4772
2.21305
2.15738
1.79551
2.1169
2.16256
2.38863
2.34362
2.64985
1.88366
2.31655
2.20788
2.38415
2.00726
2.25737
1.50551
1.96685
2.39241
1.79114
2.2528
2.29611
2.37491
2.32667
2.42428
2.14129
2.38981
1.82623
2.18311
2.71664
2.01151
2.60983
2.16553
1.54425
1.60459
1.91677
1.8747
2.03286
2.301
1.54033
1.73069
1.38456
1.26957
1.75203
1.51109
2.03328
2.30619
2.26488
1.88072
2.49839
2.62372
2.66581
1.77196
3.10494
2.91659
3.19184
3.22175
3.18131
2.95004
3.32165
3.11833
1.7643
2.11222
2.80274
2.88064
2.92434
3.05933
3.06324
2.78952
2.28422
2.6147
3.21584
2.6093
2.67265
2.93936
2.34605
2.50523
2.46052
3.16255
3.15458
3.03264
2.88065
2.855
3.10667
3.25323
3.7593
3.54754
3.80391
3.54958
3.84738
3.89975
3.98557
4.20364
3.90204
3.23242
3.76193
3.85718
3.89108
3.37698
3.72825
3.58601
3.61035
3.63761
4.00252
3.56816
3.79904
3.71161
3.62909
3.74899
3.77409
3.45186
3.8499
4.1488
3.74193
3.88961
3.5959
3.66282
2.74387
2.91585
3.02102
2.94832
2.28419
2.8346
3.08629
2.89642
2.32483
2.31844
2.32345
2.94353
3.27286
2.3625
2.90461
2.88445
3.15188
3.19297
2.6331
2.35349
2.8161
3.0285
2.8285
2.88275
3.26635
2.42641
2.76385
2.61132
3.06654
2.554
1.43929
2.87783
3.77159
3.92591
3.94933
3.80798
3.63518
3.80215
3.19796
3.67585
3.57248
3.58401
3.72756
3.88081
3.7922
3.86507
3.40519
3.73004
3.30723
2.81017
3.59895
3.68925
3.85969
3.95924
3.27317
3.49946
3.8203
3.80094
2.4862
3.77935
3.57536
2.93748
3.60494
4.23512
3.88308
3.69209
3.61376
3.69428
3.44955
3.18653
3.25174
3.2831
3.36219
3.28215
3.25691
3.07066
3.07252
2.88117
3.24615
2.63166
3.24053
3.27942
3.41287
3.09786
2.93344
3.03326
3.19035
3.13017
3.90078
3.79877
2.33607
4.50175
3.43189
3.03821
3.08242
3.72115
3.42613
3.37802
2.35331
2.83538
3.35036
3.36812
3.20831
3.25938
2.96015
1.90487
2.31038
1.21369
2.45928
2.66317
2.68287
2.19157
3.03464
3.05796
3.16864
2.88373
2.89225
3.49046
2.85722
2.92922
3.80077
3.80838
3.71451
3.7198
2.94258
2.80596
3.04129
3.43289
1.89829
2.82852
2.90141
2.9993
2.55146
2.69522
2.5287
2.48624
2.17409
2.49761
3.00406
2.81754
2.45124
2.45094
2.04307
3.45698
1.16718
1.61873
1.73989
1.99565
2.28366
2.03666
2.1433
2.30968
1.26925
1.54282
2.72222
2.45226
2.23898
2.06806
1.86079
2.08553
4.25859
3.90991
3.78842
3.75525
2.85788
2.81956
3.83033
3.45732
3.28127
3.29923
3.09709
3.04766
3.46743
3.36041
3.01214
2.76647
2.24055
2.9639
2.99737
2.89509
2.89733
3.03679
2.02103
3.22778
3.32035
2.65874
3.24276
3.42073
3.54576
3.31583
3.2022
2.94411
4.10697
3.7541
2.86358
3.63459
3.90262
3.25084
3.43958
4.48346
2.95341
3.10478
3.09499
2.561
3.0491
2.72215
2.95145
2.93462
1.65401
2.62358
2.89817
3.06473
3.16143
2.72248
3.1397
3.14768
4.04439
4.0284
3.72995
4.5106
3.29933
3.35873
3.096
3.98935
3.06481
3.26695
2.61987
3.08528
2.83319
3.05214
3.69432
3.38648
2.56644
2.53077
3.07681
2.79275
2.9343
2.65726
2.81783
2.96572
3.12281
3.26652
3.4308
3.0125
3.20515
2.8752
2.8922
3.59614
3.83454
3.31102
3.4259
3.73093
2.89535
3.63633
3.47629
4.09599
1.66203
2.98451
3.73174
3.389
3.04305
2.61711
2.98771
4.54794
1.96728
2.54102
2.87793
2.70712
3.09404
2.839
2.37158
2.87831
2.17868
2.1602
2.42005
1.9369
3.7394
3.20507
3.09866
2.7442
2.27723
1.92083
2.98002
2.87139
2.70974
2.93517
3.19316
3.14121
3.77582
4.08571
3.66108
4.16108
4.06883
3.82221
3.66121
3.31384
1.722
3.06689
1.38639
2.71181
2.52672
1.7231
3.63733
2.58033
2.66714
3.21273
2.06546
2.1587
1.3633
1.42602
1.41642
2.66842
2.74374
2.56873
2.69576
2.88799
1.81118
3.25612
2.55794
3.14311
3.10719
3.0976
2.22174
3.11019
2.62094
2.61138
3.11133
3.05868
1.87446
2.11684
2.16476
2.0985
2.35169
2.20914
2.38949
2.27488
2.07158
2.07016
2.5381
2.28272
2.10945
2.10915
2.04113
2.06574
3.18533
3.0991
3.0743
3.06211
2.58375
2.83073
2.7269
3.00968
2.89296
2.88745
2.40643
2.58441
2.24015
2.34621
2.45133
2.30043
1.95314
1.91176
1.93036
1.75488
2.32017
2.07975
2.26406
2.21423
1.92967
1.75257
2.36672
2.06675
2.16787
1.94553
1.86833
1.90753
3.07009
2.98422
2.95202
2.62966
2.03636
2.61901
2.53081
2.78248
2.81396
3.01369
2.57258
2.92541
2.42185
2.62102
2.81224
2.67127
2.05
1.89488
2.08324
2.07891
2.18986
2.42823
2.31639
2.08274
1.89098
2.14309
2.40291
2.20438
2.29848
2.07957
2.00518
2.02627
2.75375
3.07489
2.73097
2.61855
2.30927
2.44624
2.41913
2.51948
3.20708
3.08306
2.89372
2.90083
2.51425
2.79018
2.80581
2.91559
2.10328
2.20661
1.90162
1.88956
2.42345
2.23666
2.44754
2.59366
1.95768
2.10142
2.45657
2.27651
2.31255
2.16884
2.05809
2.00119
3.08382
3.26843
2.68665
2.13269
2.69248
2.75297
2.54571
2.5893
2.9808
3.04501
2.63274
2.6617
3.1003
2.78958
3.15077
3.04129
1.71807
1.89076
1.90215
1.87386
2.23436
2.15603
2.40021
2.32046
1.70045
1.98375
2.02123
2.0119
2.13525
2.13258
1.84904
1.86127
3.02445
2.83153
3.09837
3.00278
2.45081
2.66011
2.47884
2.71774
3.03152
3.04906
3.23193
2.90115
2.47868
2.71987
2.14953
2.54837
1.75886
2.57598
2.0145
2.23345
2.43164
2.35075
2.41958
2.34824
1.92488
2.55868
2.37064
2.54614
2.3649
2.26454
1.94638
2.24919
2.93229
2.91279
2.93266
2.99446
2.6319
2.86614
2.69497
2.76315
2.68815
1.79941
2.2354
2.53055
2.46586
2.27035
2.51195
1.55921
1.72947
2.03388
1.73336
1.86464
2.14659
1.99815
2.01768
2.01548
1.68685
1.82907
2.3097
2.28883
2.30396
2.06656
1.99079
1.84499
3.21451
2.68869
2.35498
2.42823
2.36096
2.46566
2.04646
2.60934
2.43675
2.32156
2.41229
2.51454
2.24031
2.03275
2.541
2.27615
1.87692
1.97146
1.98547
1.79129
1.90867
1.64529
2.04554
1.94359
1.9838
1.82728
2.07407
1.91307
1.87471
1.894
2.03727
1.71793
2.65774
2.65729
2.61404
2.07509
2.1675
2.34972
2.41728
2.37026
1.88679
1.79262
1.7537
1.73769
1.79608
1.81719
2.01983
1.87186
1.90593
1.95492
1.89107
1.81642
1.85298
1.86573
1.78494
1.67115
2.08654
1.94934
1.8603
1.90237
1.89996
1.86775
2.1142
2.12475
2.01295
1.93152
1.96743
1.97634
1.76293
1.81072
1.85131
1.79338
1.88003
1.76334
1.86335
1.76979
1.72603
1.64535
1.8689
1.87045
1.87589
1.7633
1.74694
1.54352
1.54893
1.4367
1.83981
1.70684
1.91394
1.75192
1.76768
1.7375
1.60594
1.44276
1.80378
1.87691
1.75747
1.71727
1.75543
1.85694
1.84305
1.60176
1.89442
1.77158
1.83923
1.90335
1.85223
1.74506
1.73486
1.78108
1.94304
1.89187
2.12669
1.84629
2.06903
2.08327
1.86111
1.62043
1.82548
1.91606
1.77792
2.00407
1.84404
1.63572
1.82869
1.81206
1.69406
1.7084
1.8569
1.76022
1.83258
1.7009
1.79845
1.67239
1.82941
1.83975
1.81005
1.84963
1.86458
1.89247
1.8722
1.83837
1.65581
1.68623
1.95672
2.06546
2.00948
2.22345
1.8899
2.09163
1.72158
1.95797
1.95551
1.93996
1.74106
1.94509
1.81417
1.9722
2.15792
2.16245
1.85692
1.84094
1.70948
1.71124
1.79852
1.85082
1.84483
1.83382
1.59715
1.85638
1.82154
1.81835
1.7709
1.80678
1.80686
1.86505
2.09519
2.14701
2.11062
2.07312
1.90069
1.9939
1.9438
1.95241
1.95914
1.97965
1.62863
2.03062
1.86325
1.79235
2.14488
1.98748
1.74189
1.80863
1.77491
1.72077
1.88606
1.74418
1.51293
1.8404
1.65867
2.13355
1.74572
1.73686
1.97844
1.99011
1.65156
1.6501
2.50785
2.17637
2.15671
2.3037
1.96974
2.07045
1.82884
1.599
2.52243
2.39705
1.93583
1.56238
2.00558
2.06768
2.22987
2.14843
1.67478
2.09215
1.64629
1.91087
2.00399
1.76096
1.85075
1.80989
1.75965
1.79068
1.5098
1.82416
1.85227
1.70677
1.81648
1.54603
1.67627
1.73342
2.34048
1.98947
1.8538
1.79123
1.66427
1.75519
1.99549
2.05112
1.82479
1.98591
1.86912
1.92276
2.11113
2.171
1.56791
1.64904
1.65892
1.51189
1.80348
1.77614
1.83439
1.88226
1.65196
1.66368
1.49724
1.27749
1.77544
2.16696
1.75263
1.84004
2.03436
1.90051
1.89132
1.54682
1.6021
1.4095
1.68687
1.87415
2.34307
1.89815
1.43789
1.80025
1.56389
1.21379
1.97624
1.68478
1.71735
1.61306
1.59275
1.78723
1.79649
2.3313
1.22332
1.12964
1.89009
1.75478
1.09858
1.10624
0.958709
1.17323
1.58555
1.26189
2.08581
1.75243
1.49816
1.01671
0.734609
1.44539
2.36082
0.924029
0.664954
2.08046
0.557572
0.844916
3.84882
1.97967
1.6474
1.02945
1.35338
3.00486
2.12143
1.92513
1.24541
1.08907
0.929277
2.13844
2.56247
1.69186
0.806781
0.737834
3.15249
1.10256
1.45101
1.87838
2.58298
3.07296
1.46421
2.58067
3.91853
1.73477
1.44675
1.8236
1.42349
2.40653
1.67448
2.25098
4.1325
0.54419
1.49947
1.82565
1.34788
1.40033
1.49687
1.47326
2.98872
1.36627
0.738792
1.00742
2.16499
3.02027
1.14281
0.84057
0.937887
0.804545
2.12701
2.09401
1.4421
1.46682
1.43774
0.897331
4.51506
1.97255
3.93759
1.34539
2.01086
1.88755
2.37734
1.02759
1.18535
2.59725
1.23259
0.960645
1.93074
2.64621
1.97734
1.36805
0.828425
0.827462
0.974405
0.918034
2.44982
1.64276
0.844119
1.7089
1.00804
1.49345
1.55322
1.73082
1.06531
2.31082
1.69882
1.38948
3.95175
0.334668
3.42404
1.29264
1.14786
2.83107
1.90892
2.01631
4.08772
0.489889
3.27552
2.11894
2.41452
3.42364
1.56082
1.92615
1.02254
1.58276
1.52101
0.797006
2.50873
2.69013
2.99607
3.12922
2.93433
1.91993
2.28401
3.30256
2.43417
2.18383
2.175
3.03596
3.69758
2.78045
3.58561
3.79464
2.3067
3.26654
3.75943
2.97657
3.44279
2.82472
1.54341
3.91142
2.53046
2.64958
2.16913
2.88425
2.69032
2.39989
3.10691
2.90713
2.24999
2.35412
3.1126
2.83877
2.88046
2.99847
2.19744
2.66096
2.4876
3.0972
2.26844
3.57865
3.1146
2.60344
3.15016
2.6906
2.51092
3.70041
3.2585
2.57989
3.38857
3.62778
2.05329
3.58527
2.23433
2.4207
2.20031
2.62037
2.88856
2.67964
2.80693
2.65705
2.7408
2.88562
3.32371
2.36814
1.84602
2.22058
2.30172
3.31323
2.13811
3.91086
2.08196
2.85822
3.06863
2.99764
3.70883
3.68379
2.2509
2.6123
3.63411
3.18638
3.54572
3.81268
2.06088
2.75044
2.69325
2.83121
2.80727
3.40162
2.90279
1.25627
3.38201
3.06107
2.07681
2.36445
3.01372
2.878
2.89213
2.66897
2.15394
2.66477
2.53973
3.80341
2.30438
3.52101
3.12618
2.8869
3.31808
2.50205
2.94278
3.25564
3.05114
2.66109
3.1163
2.69698
2.4624
3.59707
2.16621
2.7265
2.16218
2.75766
2.85703
2.92845
3.06974
2.91101
2.35192
2.30808
2.71512
2.40135
2.88418
2.44254
2.19715
2.35175
2.49914
2.92688
3.82107
2.91894
3.26733
3.29596
3.11407
2.85338
2.88081
3.35079
3.8209
3.36892
2.75573
3.41598
3.74356
2.95508
2.28862
2.75666
2.17876
2.24125
2.7505
2.61032
3.29646
2.62489
2.37213
2.58297
2.96845
2.71819
2.82056
2.93807
2.65093
2.41647
2.70522
2.80064
2.57651
3.24381
3.65414
3.39611
3.67805
3.64267
2.34655
3.00014
3.3663
3.0511
3.6705
3.31053
1.9768
3.03615
2.5639
2.61032
2.47245
2.91374
2.79189
3.40082
3.02858
2.80564
2.2981
2.27867
3.28993
2.97784
3.0042
2.67504
2.01805
2.17256
2.55306
3.54453
3.47167
3.53299
2.9131
3.27225
3.55994
3.35386
2.58536
2.73285
3.246
3.15797
3.36664
3.23725
3.75578
2.39056
2.2149
2.23603
2.19862
2.2517
2.75592
2.525
2.69616
2.32037
1.91765
2.11182
3.23066
2.15428
2.53528
2.10144
1.90165
2.08224
3.45968
2.74177
2.11478
3.0535
3.11364
3.07928
3.02775
2.83208
3.4592
3.16691
1.10479
3.59981
3.11053
3.05682
1.96386
3.21116
2.1105
2.32704
2.20344
1.98176
2.59502
2.24993
3.33836
2.17795
1.61326
1.26322
0.923776
3.25953
1.4363
1.16956
1.45207
1.95262
1.81552
1.50015
2.64515
2.74574
0.977597
0.503866
2.96129
1.39567
1.01897
1.17173
0.510967
1.6609
0.954708
1.88171
1.08296
2.15062
1.90395
1.7403
2.5243
1.75521
0.839782
1.48494
0.63772
0.83656
2.30684
1.16511
0.869631
0.759684
0.658169
0.888318
2.00434
1.87812
0.993606
0.83344
1.41645
0.745823
1.92446
0.433308
0.641362
0.468848
0.854957
0.595616
0.963164
0.468091
0.562231
1.48434
1.21036
0.864159
1.67625
1.81182
1.97422
1.68457
0.671694
0.849262
0.998132
0.710959
2.03402
1.46426
0.736184
0.88118
0.826219
1.34845
2.23447
1.7416
0.989779
1.37312
1.00743
1.1216
0.962275
1.24832
1.2404
0.771293
2.30016
2.77866
2.1002
2.20063
1.46247
0.574719
2.19867
2.25083
1.51946
2.4831
1.54261
2.11792
1.5346
1.80582
2.68613
3.28129
2.149
2.48323
1.60563
2.23393
1.78416
1.76868
2.15256
2.20178
1.48708
2.81665
1.8872
1.81254
3.42943
1.30611
1.17303
2.39369
1.86039
3.32656
1.00107
1.71248
1.48966
2.59715
2.95204
1.89893
2.15171
2.61476
2.91881
1.59382
1.80474
2.43632
1.5517
2.36734
2.74471
2.5101
3.59619
3.46291
1.73145
2.12078
3.59619
2.21805
2.21504
2.20225
2.33946
2.37839
2.51891
2.35858
2.49775
3.53131
2.8566
3.12836
3.11391
2.47424
3.72444
2.36584
3.16965
3.87751
2.76844
2.345
2.16241
2.41164
2.50829
2.97081
2.93084
1.88459
2.11173
2.45634
2.32086
2.3435
2.53162
3.09725
2.39962
2.26185
1.57323
1.76752
1.37282
2.3408
2.22332
2.5447
2.13523
3.81074
3.64295
3.86876
3.47567
2.6279
3.56641
2.81626
2.67763
3.7433
3.56051
2.81831
2.67345
2.62493
3.64575
3.9693
3.47133
2.2939
1.57338
2.54961
2.13155
2.34776
2.22041
1.67518
1.84967
2.03476
2.14365
3.29656
2.52081
2.34199
2.74172
2.45637
2.32098
3.95133
2.81029
2.84964
3.47487
2.50182
2.52906
2.52534
1.80581
3.28762
3.20446
2.20776
3.37869
2.61548
3.76463
3.05436
3.00679
2.35613
2.11846
2.62935
2.49778
2.30525
2.28363
1.94221
2.32238
2.86329
2.08594
2.07313
3.17149
2.62503
2.59702
2.36882
1.94417
3.16412
3.5976
3.70106
3.30553
2.93755
2.11078
2.67415
2.35911
3.43781
3.34022
2.40659
2.2477
3.3328
3.06569
3.44219
3.70392
2.33738
2.14628
2.37031
1.94854
2.56984
3.02718
2.03059
3.14407
