OFF
540 1048 0
11.9496 -1.97974 5.20276
11.2806 -3.13204 5.23876
11.3456 -3.19824 4.61376
12.0386 -2.02504 4.57576
11.3876 -3.17924 3.82276
12.0856 -2.01594 3.78476
12.5196 -0.493442 3.72876
12.4686 -0.489342 4.52076
12.3656 -0.471042 5.14776
11.3966 -3.07024 3.01476
11.3646 -2.86644 2.33776
12.0156 -1.81704 2.30276
12.0816 -1.94804 2.97776
12.4206 -0.443942 2.24976
12.5076 -0.479542 2.92176
12.5346 1.01566 2.18376
12.3156 2.32466 2.10976
12.3976 2.48206 2.77576
12.6276 1.08166 2.85376
12.4096 2.57786 3.57976
12.6436 1.12546 3.65876
12.3616 2.60936 4.37276
12.2626 2.57406 5.00476
12.4856 1.13376 5.08076
12.5926 1.14386 4.45076
5.98564 0.531758 5.06076
5.90264 -0.0749423 4.88876
6.27464 -0.411442 4.98376
6.39064 0.342358 5.18676
6.62164 -0.876142 5.08376
6.75164 0.0652577 5.30976
6.92964 1.19926 5.32876
6.53764 1.24156 5.21476
6.09164 1.25246 5.08876
7.00264 -1.45804 5.20176
7.53764 -2.21304 5.38176
7.44664 -0.575342 5.52176
7.10564 -0.294142 5.43176
7.62664 1.05026 5.48276
7.29564 1.13056 5.42476
7.99464 2.61306 5.32276
8.61364 4.01796 5.00076
7.88164 3.60376 4.88376
7.59164 2.51696 5.25576
7.32964 3.21816 4.82576
7.13964 2.31686 5.16776
6.82064 2.85866 4.78376
6.29864 2.54576 4.73676
6.20164 1.96456 4.97876
6.68864 2.13186 5.07676
5.88364 -0.477642 3.73376
5.94864 -0.140642 3.36776
6.33264 -0.462442 3.16576
6.24464 -0.887342 3.60576
6.69864 -0.895942 2.89076
6.59964 -1.41624 3.42176
6.55164 -1.58494 4.03476
6.20464 -1.02274 4.11076
5.85364 -0.579242 4.15576
7.10864 -1.42484 2.56976
7.69064 -2.07434 2.19576
7.61864 -2.65694 3.03376
7.02364 -2.02654 3.20276
7.57564 -2.84634 3.87876
6.97664 -2.21464 3.94876
7.54664 -2.73474 4.68576
6.96464 -2.06174 4.66176
6.55764 -1.41554 4.62376
5.85864 -0.445142 4.56376
6.21364 -0.865342 4.59776
6.26164 1.82686 3.04576
6.34464 2.42426 3.21876
6.87864 2.71156 2.96876
6.76264 1.97376 2.76576
7.40364 3.03186 2.63676
7.23364 2.13016 2.40876
7.03264 1.05876 2.38876
6.61564 1.10656 2.73676
6.15564 1.12476 3.01776
7.97864 3.35536 2.25776
8.74164 3.65296 1.82976
8.16264 2.31986 1.69276
7.71764 2.28616 2.02276
7.81164 0.893758 1.72876
7.43264 0.983958 2.02876
7.62864 -0.575042 1.88276
7.23764 -0.337242 2.19476
6.84864 -0.0104423 2.54776
6.04464 0.431158 3.12676
6.46464 0.248358 2.87276
8.80364 4.43446 4.24876
8.05164 4.12996 4.27076
8.87864 4.47586 3.42876
8.12064 4.21486 3.53976
7.50264 3.81446 3.69176
7.44964 3.70366 4.29976
8.86464 4.24426 2.60276
8.10464 3.97746 2.81676
7.48964 3.59196 3.10076
6.38864 2.80376 3.54376
6.93964 3.18146 3.35376
6.39364 2.95646 3.95076
6.94864 3.37096 3.83976
6.36264 2.87336 4.37176
6.90864 3.26756 4.34376
9.30864 -0.209342 5.30576
9.32264 -0.723642 5.33176
9.55064 -0.986442 5.35376
9.63764 -0.352942 5.32676
9.90264 -1.19924 5.37276
10.0086 -0.529942 5.34676
10.1286 0.224858 5.31176
9.72964 0.367958 5.29076
9.37564 0.494558 5.26776
10.2796 -1.24904 5.38076
10.5626 -1.16974 5.37976
10.7296 -0.720042 5.36476
10.3926 -0.624342 5.35776
10.8826 -0.0461423 5.33776
10.5276 0.0813577 5.32776
10.9486 0.658658 5.30276
10.9356 1.17306 5.27376
10.7076 1.43566 5.25476
10.6196 0.802458 5.29076
10.3556 1.64766 5.23276
10.2486 0.979258 5.27176
9.97764 1.69616 5.21576
9.69464 1.61596 5.20776
9.52764 1.16716 5.23176
9.86464 1.07286 5.25376
8.59164 -2.94064 2.28976
8.48664 -3.24624 2.99876
9.55164 -3.35574 2.33676
9.49164 -3.61714 3.02276
9.45164 -3.75884 3.84176
8.44364 -3.41424 3.84876
10.5096 -3.35524 2.35076
10.4976 -3.59254 3.02876
10.4716 -3.72034 3.83776
10.4046 -3.66734 5.25276
10.4386 -3.74364 4.62876
9.42464 -3.66144 5.26576
9.42464 -3.76484 4.63976
8.44664 -3.19034 5.29676
8.41364 -3.36544 4.66876
9.74764 4.35176 4.87876
9.79164 4.50466 4.22676
10.7756 4.18136 4.87276
10.8296 4.26556 4.23276
10.8726 4.22986 3.43076
9.85164 4.50126 3.39976
11.6536 3.58936 4.92476
11.7296 3.64186 4.29076
11.7726 3.60066 3.49776
11.7196 3.24616 2.03376
11.7716 3.46806 2.69476
10.8616 3.78486 1.95876
10.8796 4.06506 2.62076
9.85464 3.94566 1.88876
9.84964 4.29866 2.56376
7.95964 -2.02284 5.56976
7.76764 -0.617642 5.54476
8.24064 -1.83724 5.57776
8.05364 -0.544242 5.51176
8.16564 0.900358 5.43176
7.91564 0.972958 5.47976
8.46064 -1.65844 5.50476
8.63864 -1.48674 5.41176
8.48364 -0.416242 5.34576
8.28664 -0.478042 5.43076
8.56664 0.773158 5.27476
8.37964 0.833858 5.35076
8.85764 1.88996 5.21276
9.32564 2.74256 5.17476
9.22864 3.00716 5.23976
8.70564 2.06606 5.28176
9.09964 3.29786 5.28176
8.52264 2.26216 5.34476
8.91864 3.62346 5.23676
8.29564 2.48636 5.35576
11.2006 -2.98554 5.54976
10.3756 -3.49644 5.56276
11.1096 -2.78134 5.63576
10.3516 -3.25804 5.64776
9.53564 -3.23004 5.64176
9.46964 -3.47524 5.56676
11.0166 -2.54224 5.58476
10.9246 -2.29084 5.48676
10.3116 -2.68584 5.49676
10.3306 -2.97884 5.59576
9.65664 -2.65864 5.48776
9.59864 -2.94984 5.58676
9.06464 -2.24654 5.45976
8.93664 -2.49604 5.55576
8.78364 -2.74444 5.61876
8.59564 -2.97964 5.57276
12.1246 2.46956 5.32676
12.3336 1.09206 5.39876
11.9606 2.31656 5.42576
12.1526 1.02866 5.49276
12.0496 -0.405342 5.55376
12.2206 -0.442242 5.46276
11.7856 2.13606 5.39076
11.6126 1.94886 5.30876
11.7686 0.876658 5.36476
11.9596 0.953558 5.45276
11.6846 -0.316242 5.41676
11.8656 -0.362642 5.50876
11.3926 -1.43654 5.45876
11.5396 -1.59904 5.55476
11.6886 -1.75294 5.60276
11.8296 -1.88444 5.51476
9.79464 4.08546 5.18776
9.87164 3.76406 5.26976
10.6966 3.72016 5.29876
10.7356 3.98656 5.19676
9.93964 3.13936 5.17576
9.91464 3.44596 5.24076
10.5946 3.11566 5.20376
10.6466 3.42106 5.27376
11.1866 2.70706 5.25176
11.3096 2.97156 5.32676
11.4336 3.22576 5.35576
11.5516 3.44116 5.25076
8.79864 -1.32224 5.36176
8.65964 -0.355842 5.30176
8.96064 -1.14424 5.33976
8.84064 -0.290842 5.28776
8.90764 0.659158 5.23276
8.73464 0.717858 5.23876
9.14464 -0.931842 5.33276
9.04964 -0.215342 5.29076
9.11164 0.588158 5.24576
9.59964 1.92046 5.17876
9.29864 1.34616 5.20476
9.50064 2.23176 5.15476
9.13464 1.55176 5.18376
9.41264 2.49496 5.14976
8.99464 1.72576 5.18376
10.8416 -2.04984 5.43076
10.2936 -2.40584 5.43876
10.7566 -1.78854 5.40276
10.2756 -2.09944 5.40976
9.76164 -2.07434 5.40076
9.70864 -2.38084 5.42976
10.6576 -1.47614 5.38876
10.2556 -1.72734 5.39376
9.82264 -1.69724 5.38676
9.42764 -1.42894 5.36576
9.29564 -1.74734 5.37776
9.17964 -2.00844 5.40476
11.4566 1.77586 5.26776
11.5956 0.808058 5.31876
11.2966 1.59416 5.25576
11.4166 0.739658 5.30176
11.3496 -0.212442 5.34476
11.5206 -0.268442 5.36576
11.1126 1.38096 5.26176
11.2076 0.663758 5.30176
11.1466 -0.141142 5.33876
10.9586 -0.900942 5.36876
11.1216 -1.10734 5.37976
11.2606 -1.27924 5.40476
9.96064 2.85236 5.14976
9.98064 2.54386 5.15376
10.4956 2.52106 5.17576
10.5466 2.83026 5.17476
10.0016 2.17256 5.17976
10.4346 2.14426 5.19776
10.8296 1.87736 5.22676
10.9616 2.19626 5.21176
11.0756 2.46066 5.21676
9.10364 3.09546 1.50576
8.51964 2.10966 1.50776
9.32864 2.62956 1.40976
8.80664 1.79906 1.43776
8.48464 0.709058 1.49676
8.16564 0.800158 1.56076
9.49064 2.22486 1.42276
9.60964 1.88536 1.48276
9.22664 1.30876 1.50876
9.03964 1.53176 1.45576
8.98864 0.556158 1.55176
8.75964 0.626858 1.50876
8.92264 -0.243542 1.60176
9.05164 -0.961342 1.64976
8.83364 -1.19844 1.62776
8.68064 -0.334942 1.56976
8.55364 -1.47144 1.66076
8.38264 -0.443342 1.57876
8.19864 -1.76724 1.80976
8.02164 -0.566842 1.68076
12.1516 2.10816 1.73176
11.6066 2.93696 1.66276
11.9386 1.85916 1.56676
11.4566 2.57976 1.50676
10.7836 2.96996 1.45476
10.8306 3.40276 1.59776
11.7066 1.60466 1.54076
11.4886 1.37116 1.57776
11.1376 1.87686 1.53676
11.2926 2.21336 1.48976
10.6506 2.14646 1.50276
10.7186 2.53796 1.44876
10.1126 2.15696 1.48276
10.0846 2.55106 1.42376
10.0316 3.00326 1.41976
9.93464 3.49096 1.54076
11.2836 -2.56294 1.94176
11.8786 -1.61844 1.90876
11.1726 -2.20264 1.75276
11.6976 -1.38094 1.72376
12.0236 -0.306542 1.67976
12.2476 -0.382842 1.85976
11.0486 -1.82804 1.70076
10.9306 -1.48214 1.71476
11.3136 -0.904442 1.69376
11.4996 -1.13344 1.67576
11.5506 -0.149542 1.66076
11.7806 -0.225342 1.63776
11.6176 0.652358 1.62076
11.8596 0.739558 1.59076
12.1156 0.835358 1.62576
12.3526 0.930458 1.79876
8.80564 -2.57704 1.89276
9.05064 -2.18864 1.71676
9.73864 -2.56884 1.75076
9.64164 -2.99074 1.93776
9.40264 -1.46814 1.68576
9.24664 -1.80864 1.67076
9.88964 -1.73994 1.70976
9.82164 -2.13654 1.69776
10.4276 -1.75264 1.71976
10.4556 -2.15274 1.70776
10.4826 -2.58604 1.76176
10.5026 -3.00324 1.95276
9.62264 0.827058 1.58676
9.85764 1.15226 1.57276
9.87264 1.09016 1.56176
9.51264 0.390858 1.59476
9.47664 0.403058 1.60876
9.54864 -0.405042 1.64476
9.51564 -0.449842 1.66176
9.43564 -0.0467423 1.63576
9.47364 -0.0289423 1.61976
10.7956 1.15106 1.60176
11.0116 0.867758 1.62476
10.9646 0.825458 1.60976
10.7606 1.08966 1.58876
10.4776 1.22986 1.57176
10.4966 1.30146 1.58376
10.1666 1.30616 1.57276
10.1646 1.23396 1.56176
10.9046 -0.410742 1.69276
10.6696 -0.736342 1.70476
10.6416 -0.671542 1.68576
10.8636 -0.367542 1.67476
11.0016 0.0286577 1.65576
11.0506 0.0137577 1.67376
11.0916 0.464258 1.64976
11.0406 0.449058 1.63376
9.73164 -0.733542 1.68376
9.75364 -0.669642 1.66476
10.0366 -0.810342 1.67976
10.0306 -0.884642 1.69876
10.3606 -0.889942 1.70676
10.3486 -0.815042 1.68676
4.09464 1.51726 4.57076
4.08864 1.88406 4.41476
3.80764 1.82606 4.36876
3.82464 1.47066 4.51976
3.65464 1.79556 4.34476
3.67764 1.44586 4.49276
3.70964 1.02046 4.55476
3.84864 1.03806 4.58376
4.10564 1.07016 4.63776
3.58764 1.78526 4.33576
3.56664 1.78776 4.33676
3.59364 1.43646 4.48576
3.61364 1.43656 4.48376
3.64864 1.01246 4.54576
3.72164 0.223258 4.40076
3.77564 0.228458 4.40976
3.74364 0.590858 4.52876
3.68664 0.584358 4.51876
3.90264 0.232058 4.43676
4.13464 0.236258 4.48776
4.11964 0.618058 4.61076
3.87664 0.600958 4.55676
3.55364 1.99166 4.10376
3.57564 1.98756 4.10476
3.64464 1.99826 4.11276
3.64664 2.05616 3.84276
3.57764 2.04566 3.83576
3.55564 2.05026 3.83276
4.08864 2.09546 4.17076
3.80164 2.03156 4.13276
4.09564 2.15426 3.88776
3.80464 2.08976 3.85876
4.10564 2.06356 3.61076
4.11964 1.82636 3.38776
3.83764 1.77456 3.37376
3.81764 2.00326 3.59076
3.68464 1.74756 3.36576
3.66064 1.97176 3.57876
3.61764 1.73856 3.35976
3.59664 1.74126 3.35376
3.56964 1.96606 3.56776
3.59164 1.96186 3.57276
3.63364 1.37836 3.23376
3.65364 1.37806 3.24176
3.71764 1.38576 3.24676
3.75364 0.957258 3.22076
3.69264 0.951058 3.21476
3.67464 0.948358 3.20676
4.13564 1.44546 3.26376
3.86464 1.40646 3.25376
4.15064 0.995358 3.23776
3.89364 0.970758 3.22676
4.16264 0.550258 3.30376
4.16964 0.184358 3.46076
3.93664 0.184858 3.44176
3.91864 0.539558 3.29076
3.81064 0.183858 3.43176
3.78664 0.533058 3.28276
3.75664 0.179858 3.42476
3.71264 0.522458 3.26976
3.72964 0.528058 3.27676
3.81964 -0.0193423 3.66276
4.16764 -0.0279423 3.70376
3.94264 -0.0213423 3.67776
4.16064 -0.0887423 3.98776
3.93764 -0.0809423 3.95176
3.81564 -0.0784423 3.93276
4.14864 5.77419e-05 4.26376
3.92364 0.00415774 4.21976
3.80064 0.00475774 4.19676
11.3156 1.18556 1.60576
11.0146 1.60946 1.57076
11.1816 1.04306 1.62176
10.9186 1.40396 1.59276
10.5536 1.59606 1.56976
10.5966 1.83516 1.54276
11.0826 0.938658 1.62876
10.8476 1.25356 1.60276
10.5216 1.42086 1.58276
9.82564 1.25586 1.57176
10.1616 1.42636 1.57176
9.77464 1.40786 1.55676
10.1516 1.60276 1.55576
9.70364 1.61546 1.52676
10.1346 1.84366 1.52676
9.37464 1.13136 1.54876
9.48864 0.994958 1.57376
9.31064 0.456258 1.60276
9.17164 0.499658 1.58376
9.56964 0.894958 1.58676
9.41064 0.424458 1.61176
9.45264 -0.522642 1.67076
9.36664 -0.0749423 1.64176
9.35764 -0.628742 1.67176
9.26064 -0.115742 1.63776
9.22564 -0.773142 1.66476
9.11364 -0.171242 1.62476
9.52664 -1.19784 1.69576
9.62064 -0.990242 1.69876
9.98464 -1.18334 1.71676
9.94364 -1.42514 1.71576
9.68764 -0.837942 1.69476
10.0136 -1.00604 1.71176
10.7096 -0.842242 1.71776
10.3726 -1.01244 1.71976
10.7646 -0.996842 1.72276
10.3876 -1.19124 1.72576
10.8366 -1.20764 1.72176
10.4056 -1.43504 1.72576
11.1656 -0.722742 1.70376
11.0506 -0.583342 1.70776
11.2286 -0.0435423 1.68376
11.3686 -0.0895423 1.67576
10.9656 -0.481042 1.70376
11.1246 -0.00974226 1.68276
11.1686 0.490558 1.65676
11.2786 0.529558 1.65376
11.4266 0.582858 1.64176
4.53864 1.97706 4.48776
4.54964 2.19776 4.23176
5.09664 2.11296 4.57476
5.12264 2.35226 4.29676
5.13864 2.41536 3.97476
4.55964 2.25756 3.93376
5.70364 2.29986 4.66276
5.74764 2.57286 4.34976
5.76964 2.64306 3.98776
5.74264 2.20016 3.35576
5.76864 2.51676 3.63676
5.13164 2.03106 3.40876
5.14164 2.30676 3.66076
4.57064 1.90916 3.40976
4.56764 2.16016 3.64376
4.56864 1.50796 3.28076
5.10564 1.59306 3.27176
5.07164 1.07716 3.24376
4.56164 1.03476 3.25376
5.68964 1.69966 3.20376
5.62164 1.11106 3.17576
5.48564 0.0529577 3.47176
5.54964 0.530258 3.26676
4.99864 0.150358 3.50276
5.03364 0.568058 3.32176
4.54164 0.183458 3.48976
4.55264 0.567258 3.32476
4.52964 -0.0386423 3.74576
4.97164 -0.0915423 3.78076
4.95664 -0.159642 4.10376
4.51864 -0.101242 4.04376
5.44164 -0.225142 3.78476
5.41964 -0.305242 4.14676
5.44664 0.122758 4.77976
5.42064 -0.188842 4.49876
4.96264 0.216958 4.66976
4.95264 -0.0561423 4.41776
4.50664 0.243058 4.56876
4.51064 -0.00664226 4.33476
4.52664 1.59186 4.65376
4.51664 1.12166 4.72476
5.02364 1.17846 4.83476
5.06164 1.69266 4.75576
4.50964 0.645558 4.69776
4.98864 0.657558 4.80776
5.49964 0.628258 4.93176
5.56764 1.22676 4.95876
5.63964 1.81756 4.86776
3.54964 1.79576 4.34076
3.53664 2.00256 4.10576
3.53764 2.06216 3.83076
3.57964 1.74926 3.34376
3.61864 1.38146 3.22276
3.66164 0.945658 3.19576
3.59664 1.39546 3.18476
3 0 1 2
3 0 2 3
3 2 4 5
3 2 5 3
3 5 6 7
3 5 7 3
3 7 8 0
3 7 0 3
3 9 10 11
3 9 11 12
3 11 13 14
3 11 14 12
3 14 6 5
3 14 5 12
3 5 4 9
3 5 9 12
3 15 16 17
3 15 17 18
3 17 19 20
3 17 20 18
3 20 6 14
3 20 14 18
3 14 13 15
3 14 15 18
3 21 22 23
3 21 23 24
3 23 8 7
3 23 7 24
3 7 6 20
3 7 20 24
3 20 19 21
3 20 21 24
3 25 26 27
3 25 27 28
3 27 29 30
3 27 30 28
3 30 31 32
3 30 32 28
3 32 33 25
3 32 25 28
3 34 35 36
3 34 36 37
3 36 38 39
3 36 39 37
3 39 31 30
3 39 30 37
3 30 29 34
3 30 34 37
3 40 41 42
3 40 42 43
3 42 44 45
3 42 45 43
3 45 31 39
3 45 39 43
3 39 38 40
3 39 40 43
3 46 47 48
3 46 48 49
3 48 33 32
3 48 32 49
3 32 31 45
3 32 45 49
3 45 44 46
3 45 46 49
3 50 51 52
3 50 52 53
3 52 54 55
3 52 55 53
3 55 56 57
3 55 57 53
3 57 58 50
3 57 50 53
3 59 60 61
3 59 61 62
3 61 63 64
3 61 64 62
3 64 56 55
3 64 55 62
3 55 54 59
3 55 59 62
3 65 35 34
3 65 34 66
3 34 29 67
3 34 67 66
3 67 56 64
3 67 64 66
3 64 63 65
3 64 65 66
3 27 26 68
3 27 68 69
3 68 58 57
3 68 57 69
3 57 56 67
3 57 67 69
3 67 29 27
3 67 27 69
3 70 71 72
3 70 72 73
3 72 74 75
3 72 75 73
3 75 76 77
3 75 77 73
3 77 78 70
3 77 70 73
3 79 80 81
3 79 81 82
3 81 83 84
3 81 84 82
3 84 76 75
3 84 75 82
3 75 74 79
3 75 79 82
3 85 60 59
3 85 59 86
3 59 54 87
3 59 87 86
3 87 76 84
3 87 84 86
3 84 83 85
3 84 85 86
3 52 51 88
3 52 88 89
3 88 78 77
3 88 77 89
3 77 76 87
3 77 87 89
3 87 54 52
3 87 52 89
3 42 41 90
3 42 90 91
3 90 92 93
3 90 93 91
3 93 94 95
3 93 95 91
3 95 44 42
3 95 42 91
3 96 80 79
3 96 79 97
3 79 74 98
3 79 98 97
3 98 94 93
3 98 93 97
3 93 92 96
3 93 96 97
3 72 71 99
3 72 99 100
3 99 101 102
3 99 102 100
3 102 94 98
3 102 98 100
3 98 74 72
3 98 72 100
3 103 47 46
3 103 46 104
3 46 44 95
3 46 95 104
3 95 94 102
3 95 102 104
3 102 101 103
3 102 103 104
3 105 106 107
3 105 107 108
3 107 109 110
3 107 110 108
3 110 111 112
3 110 112 108
3 112 113 105
3 112 105 108
3 114 115 116
3 114 116 117
3 116 118 119
3 116 119 117
3 119 111 110
3 119 110 117
3 110 109 114
3 110 114 117
3 120 121 122
3 120 122 123
3 122 124 125
3 122 125 123
3 125 111 119
3 125 119 123
3 119 118 120
3 119 120 123
3 126 127 128
3 126 128 129
3 128 113 112
3 128 112 129
3 112 111 125
3 112 125 129
3 125 124 126
3 125 126 129
3 61 60 130
3 61 130 131
3 130 132 133
3 130 133 131
3 133 134 135
3 133 135 131
3 135 63 61
3 135 61 131
3 136 10 9
3 136 9 137
3 9 4 138
3 9 138 137
3 138 134 133
3 138 133 137
3 133 132 136
3 133 136 137
3 2 1 139
3 2 139 140
3 139 141 142
3 139 142 140
3 142 134 138
3 142 138 140
3 138 4 2
3 138 2 140
3 143 35 65
3 143 65 144
3 65 63 135
3 65 135 144
3 135 134 142
3 135 142 144
3 142 141 143
3 142 143 144
3 90 41 145
3 90 145 146
3 145 147 148
3 145 148 146
3 148 149 150
3 148 150 146
3 150 92 90
3 150 90 146
3 151 22 21
3 151 21 152
3 21 19 153
3 21 153 152
3 153 149 148
3 153 148 152
3 148 147 151
3 148 151 152
3 17 16 154
3 17 154 155
3 154 156 157
3 154 157 155
3 157 149 153
3 157 153 155
3 153 19 17
3 153 17 155
3 158 80 96
3 158 96 159
3 96 92 150
3 96 150 159
3 150 149 157
3 150 157 159
3 157 156 158
3 157 158 159
3 36 35 160
3 36 160 161
3 160 162 163
3 160 163 161
3 163 164 165
3 163 165 161
3 165 38 36
3 165 36 161
3 166 167 168
3 166 168 169
3 168 170 171
3 168 171 169
3 171 164 163
3 171 163 169
3 163 162 166
3 163 166 169
3 172 173 174
3 172 174 175
3 174 176 177
3 174 177 175
3 177 164 171
3 177 171 175
3 171 170 172
3 171 172 175
3 178 41 40
3 178 40 179
3 40 38 165
3 40 165 179
3 165 164 177
3 165 177 179
3 177 176 178
3 177 178 179
3 139 1 180
3 139 180 181
3 180 182 183
3 180 183 181
3 183 184 185
3 183 185 181
3 185 141 139
3 185 139 181
3 186 187 188
3 186 188 189
3 188 190 191
3 188 191 189
3 191 184 183
3 191 183 189
3 183 182 186
3 183 186 189
3 192 167 166
3 192 166 193
3 166 162 194
3 166 194 193
3 194 184 191
3 194 191 193
3 191 190 192
3 191 192 193
3 160 35 143
3 160 143 195
3 143 141 185
3 143 185 195
3 185 184 194
3 185 194 195
3 194 162 160
3 194 160 195
3 23 22 196
3 23 196 197
3 196 198 199
3 196 199 197
3 199 200 201
3 199 201 197
3 201 8 23
3 201 23 197
3 202 203 204
3 202 204 205
3 204 206 207
3 204 207 205
3 207 200 199
3 207 199 205
3 199 198 202
3 199 202 205
3 208 187 186
3 208 186 209
3 186 182 210
3 186 210 209
3 210 200 207
3 210 207 209
3 207 206 208
3 207 208 209
3 180 1 0
3 180 0 211
3 0 8 201
3 0 201 211
3 201 200 210
3 201 210 211
3 210 182 180
3 210 180 211
3 145 41 178
3 145 178 212
3 178 176 213
3 178 213 212
3 213 214 215
3 213 215 212
3 215 147 145
3 215 145 212
3 174 173 216
3 174 216 217
3 216 218 219
3 216 219 217
3 219 214 213
3 219 213 217
3 213 176 174
3 213 174 217
3 220 203 202
3 220 202 221
3 202 198 222
3 202 222 221
3 222 214 219
3 222 219 221
3 219 218 220
3 219 220 221
3 196 22 151
3 196 151 223
3 151 147 215
3 151 215 223
3 215 214 222
3 215 222 223
3 222 198 196
3 222 196 223
3 168 167 224
3 168 224 225
3 224 226 227
3 224 227 225
3 227 228 229
3 227 229 225
3 229 170 168
3 229 168 225
3 230 106 105
3 230 105 231
3 105 113 232
3 105 232 231
3 232 228 227
3 232 227 231
3 227 226 230
3 227 230 231
3 128 127 233
3 128 233 234
3 233 235 236
3 233 236 234
3 236 228 232
3 236 232 234
3 232 113 128
3 232 128 234
3 237 173 172
3 237 172 238
3 172 170 229
3 172 229 238
3 229 228 236
3 229 236 238
3 236 235 237
3 236 237 238
3 188 187 239
3 188 239 240
3 239 241 242
3 239 242 240
3 242 243 244
3 242 244 240
3 244 190 188
3 244 188 240
3 245 115 114
3 245 114 246
3 114 109 247
3 114 247 246
3 247 243 242
3 247 242 246
3 242 241 245
3 242 245 246
3 107 106 230
3 107 230 248
3 230 226 249
3 230 249 248
3 249 243 247
3 249 247 248
3 247 109 107
3 247 107 248
3 224 167 192
3 224 192 250
3 192 190 244
3 192 244 250
3 244 243 249
3 244 249 250
3 249 226 224
3 249 224 250
3 204 203 251
3 204 251 252
3 251 253 254
3 251 254 252
3 254 255 256
3 254 256 252
3 256 206 204
3 256 204 252
3 257 121 120
3 257 120 258
3 120 118 259
3 120 259 258
3 259 255 254
3 259 254 258
3 254 253 257
3 254 257 258
3 116 115 245
3 116 245 260
3 245 241 261
3 245 261 260
3 261 255 259
3 261 259 260
3 259 118 116
3 259 116 260
3 239 187 208
3 239 208 262
3 208 206 256
3 208 256 262
3 256 255 261
3 256 261 262
3 261 241 239
3 261 239 262
3 216 173 237
3 216 237 263
3 237 235 264
3 237 264 263
3 264 265 266
3 264 266 263
3 266 218 216
3 266 216 263
3 233 127 126
3 233 126 267
3 126 124 268
3 126 268 267
3 268 265 264
3 268 264 267
3 264 235 233
3 264 233 267
3 122 121 257
3 122 257 269
3 257 253 270
3 257 270 269
3 270 265 268
3 270 268 269
3 268 124 122
3 268 122 269
3 251 203 220
3 251 220 271
3 220 218 266
3 220 266 271
3 266 265 270
3 266 270 271
3 270 253 251
3 270 251 271
3 81 80 272
3 81 272 273
3 272 274 275
3 272 275 273
3 275 276 277
3 275 277 273
3 277 83 81
3 277 81 273
3 278 279 280
3 278 280 281
3 280 282 283
3 280 283 281
3 283 276 275
3 283 275 281
3 275 274 278
3 275 278 281
3 284 285 286
3 284 286 287
3 286 288 289
3 286 289 287
3 289 276 283
3 289 283 287
3 283 282 284
3 283 284 287
3 290 60 85
3 290 85 291
3 85 83 277
3 85 277 291
3 277 276 289
3 277 289 291
3 289 288 290
3 289 290 291
3 154 16 292
3 154 292 293
3 292 294 295
3 292 295 293
3 295 296 297
3 295 297 293
3 297 156 154
3 297 154 293
3 298 299 300
3 298 300 301
3 300 302 303
3 300 303 301
3 303 296 295
3 303 295 301
3 295 294 298
3 295 298 301
3 304 279 278
3 304 278 305
3 278 274 306
3 278 306 305
3 306 296 303
3 306 303 305
3 303 302 304
3 303 304 305
3 272 80 158
3 272 158 307
3 158 156 297
3 158 297 307
3 297 296 306
3 297 306 307
3 306 274 272
3 306 272 307
3 11 10 308
3 11 308 309
3 308 310 311
3 308 311 309
3 311 312 313
3 311 313 309
3 313 13 11
3 313 11 309
3 314 315 316
3 314 316 317
3 316 318 319
3 316 319 317
3 319 312 311
3 319 311 317
3 311 310 314
3 311 314 317
3 320 299 298
3 320 298 321
3 298 294 322
3 298 322 321
3 322 312 319
3 322 319 321
3 319 318 320
3 319 320 321
3 292 16 15
3 292 15 323
3 15 13 313
3 15 313 323
3 313 312 322
3 313 322 323
3 322 294 292
3 322 292 323
3 130 60 290
3 130 290 324
3 290 288 325
3 290 325 324
3 325 326 327
3 325 327 324
3 327 132 130
3 327 130 324
3 286 285 328
3 286 328 329
3 328 330 331
3 328 331 329
3 331 326 325
3 331 325 329
3 325 288 286
3 325 286 329
3 332 315 314
3 332 314 333
3 314 310 334
3 314 334 333
3 334 326 331
3 334 331 333
3 331 330 332
3 331 332 333
3 308 10 136
3 308 136 335
3 136 132 327
3 136 327 335
3 327 326 334
3 327 334 335
3 334 310 308
3 334 308 335
3 336 337 338
3 339 340 336
3 341 342 343
3 341 343 344
3 343 340 339
3 343 339 344
3 345 346 347
3 345 347 348
3 349 350 345
3 349 345 348
3 338 337 351
3 338 351 352
3 351 350 349
3 351 349 352
3 353 354 355
3 353 355 356
3 357 358 353
3 357 353 356
3 347 346 359
3 347 359 360
3 359 358 357
3 359 357 360
3 361 342 341
3 361 341 362
3 363 364 361
3 363 361 362
3 355 354 365
3 355 365 366
3 365 364 363
3 365 363 366
3 367 368 369
3 367 369 370
3 369 371 372
3 369 372 370
3 372 373 374
3 372 374 370
3 374 375 367
3 374 367 370
3 376 377 378
3 376 378 379
3 378 380 379
3 380 373 372
3 380 372 379
3 372 371 376
3 372 376 379
3 381 382 383
3 381 383 384
3 383 373 380
3 383 380 384
3 385 386 387
3 385 387 388
3 387 375 374
3 387 374 388
3 374 373 383
3 374 383 388
3 383 382 385
3 383 385 388
3 389 377 376
3 389 376 390
3 376 371 391
3 376 391 390
3 391 392 393
3 391 393 390
3 393 394 389
3 393 389 390
3 369 368 395
3 369 395 396
3 395 397 398
3 395 398 396
3 398 392 391
3 398 391 396
3 391 371 369
3 391 369 396
3 399 400 401
3 399 401 402
3 401 403 404
3 401 404 402
3 404 392 398
3 404 398 402
3 398 397 399
3 398 399 402
3 405 406 407
3 405 407 408
3 407 394 393
3 407 393 408
3 393 392 404
3 393 404 408
3 404 403 405
3 404 405 408
3 409 406 405
3 409 405 410
3 405 403 411
3 405 411 410
3 411 412 413
3 411 413 410
3 413 414 409
3 413 409 410
3 401 400 415
3 401 415 416
3 415 417 418
3 415 418 416
3 418 412 411
3 418 411 416
3 411 403 401
3 411 401 416
3 419 420 421
3 419 421 422
3 421 423 424
3 421 424 422
3 424 412 418
3 424 418 422
3 418 417 419
3 418 419 422
3 425 426 427
3 426 414 413
3 426 413 427
3 413 412 424
3 413 424 427
3 424 423 425
3 424 425 427
3 425 423 428
3 421 420 429
3 421 429 430
3 429 431 432
3 429 432 430
3 432 433 428
3 432 428 430
3 428 423 421
3 428 421 430
3 434 386 385
3 434 385 435
3 385 382 436
3 385 436 435
3 436 433 432
3 436 432 435
3 432 431 434
3 432 434 435
3 436 382 381
3 300 299 437
3 300 437 438
3 437 439 440
3 437 440 438
3 440 441 442
3 440 442 438
3 442 302 300
3 442 300 438
3 443 346 345
3 443 345 444
3 345 350 445
3 345 445 444
3 445 441 440
3 445 440 444
3 440 439 443
3 440 443 444
3 351 337 446
3 351 446 447
3 446 448 449
3 446 449 447
3 449 441 445
3 449 445 447
3 445 350 351
3 445 351 447
3 450 279 304
3 450 304 451
3 304 302 442
3 304 442 451
3 442 441 449
3 442 449 451
3 449 448 450
3 449 450 451
3 280 279 450
3 280 450 452
3 450 448 453
3 450 453 452
3 453 454 455
3 453 455 452
3 455 282 280
3 455 280 452
3 446 337 336
3 446 336 456
3 336 340 457
3 336 457 456
3 457 454 453
3 457 453 456
3 453 448 446
3 453 446 456
3 343 342 458
3 343 458 459
3 458 460 461
3 458 461 459
3 461 454 457
3 461 457 459
3 457 340 343
3 457 343 459
3 462 285 284
3 462 284 463
3 284 282 455
3 284 455 463
3 455 454 461
3 455 461 463
3 461 460 462
3 461 462 463
3 328 285 462
3 328 462 464
3 462 460 465
3 462 465 464
3 465 466 467
3 465 467 464
3 467 330 328
3 467 328 464
3 458 342 361
3 458 361 468
3 361 364 469
3 361 469 468
3 469 466 465
3 469 465 468
3 465 460 458
3 465 458 468
3 365 354 470
3 365 470 471
3 470 472 473
3 470 473 471
3 473 466 469
3 473 469 471
3 469 364 365
3 469 365 471
3 474 315 332
3 474 332 475
3 332 330 467
3 332 467 475
3 467 466 473
3 467 473 475
3 473 472 474
3 473 474 475
3 316 315 474
3 316 474 476
3 474 472 477
3 474 477 476
3 477 478 479
3 477 479 476
3 479 318 316
3 479 316 476
3 470 354 353
3 470 353 480
3 353 358 481
3 353 481 480
3 481 478 477
3 481 477 480
3 477 472 470
3 477 470 480
3 359 346 443
3 359 443 482
3 443 439 483
3 443 483 482
3 483 478 481
3 483 481 482
3 481 358 359
3 481 359 482
3 437 299 320
3 437 320 484
3 320 318 479
3 320 479 484
3 479 478 483
3 479 483 484
3 483 439 437
3 483 437 484
3 395 368 485
3 395 485 486
3 485 487 488
3 485 488 486
3 488 489 490
3 488 490 486
3 490 397 395
3 490 395 486
3 491 47 103
3 491 103 492
3 103 101 493
3 103 493 492
3 493 489 488
3 493 488 492
3 488 487 491
3 488 491 492
3 99 71 494
3 99 494 495
3 494 496 497
3 494 497 495
3 497 489 493
3 497 493 495
3 493 101 99
3 493 99 495
3 498 400 399
3 498 399 499
3 399 397 490
3 399 490 499
3 490 489 497
3 490 497 499
3 497 496 498
3 497 498 499
3 415 400 498
3 415 498 500
3 498 496 501
3 498 501 500
3 501 502 503
3 501 503 500
3 503 417 415
3 503 415 500
3 494 71 70
3 494 70 504
3 70 78 505
3 70 505 504
3 505 502 501
3 505 501 504
3 501 496 494
3 501 494 504
3 88 51 506
3 88 506 507
3 506 508 509
3 506 509 507
3 509 502 505
3 509 505 507
3 505 78 88
3 505 88 507
3 510 420 419
3 510 419 511
3 419 417 503
3 419 503 511
3 503 502 509
3 503 509 511
3 509 508 510
3 509 510 511
3 429 420 510
3 429 510 512
3 510 508 513
3 510 513 512
3 513 514 515
3 513 515 512
3 515 431 429
3 515 429 512
3 506 51 50
3 506 50 516
3 50 58 517
3 50 517 516
3 517 514 513
3 517 513 516
3 513 508 506
3 513 506 516
3 68 26 518
3 68 518 519
3 518 520 521
3 518 521 519
3 521 514 517
3 521 517 519
3 517 58 68
3 517 68 519
3 522 386 434
3 522 434 523
3 434 431 515
3 434 515 523
3 515 514 521
3 515 521 523
3 521 520 522
3 521 522 523
3 485 368 367
3 485 367 524
3 367 375 525
3 367 525 524
3 525 526 527
3 525 527 524
3 527 487 485
3 527 485 524
3 387 386 522
3 387 522 528
3 522 520 529
3 522 529 528
3 529 526 525
3 529 525 528
3 525 375 387
3 525 387 528
3 518 26 25
3 518 25 530
3 25 33 531
3 25 531 530
3 531 526 529
3 531 529 530
3 529 520 518
3 529 518 530
3 48 47 491
3 48 491 532
3 491 487 527
3 491 527 532
3 527 526 531
3 527 531 532
3 531 33 48
3 531 48 532
3 533 377 389
3 533 389 534
3 389 394 535
3 389 535 534
3 407 406 536
3 535 394 407
3 536 406 409
3 536 409 537
3 409 414 538
3 409 538 537
3 538 539 537
3 539 536 537
3 538 414 426
3 378 377 533
