0.955346
0.874987
0.682668
0.736008
0.536395
0.659725
0.76406
0.790724
1.13271
0.903932
0.605078
0.872269
0.536364
0.537416
0.896513
0.642014
0.425895
0.418849
0.299809
0.355085
0.439399
0.332704
0.583941
0.398351
0.544601
0.516537
0.682138
0.564496
0.424341
0.43512
0.331877
0.417826
1.81696
1.7845
1.69747
1.23363
1.21462
1.40825
1.69857
1.61181
1.15557
1.54862
1.43083
1.62009
1.51938
1.48931
1.64339
1.4855
1.21626
1.51377
1.6467
1.48712
1.48488
1.50896
1.47733
1.55406
1.19387
1.47216
1.76525
1.62582
1.48396
1.14781
1.51806
1.50038
1.34309
1.39567
1.24421
1.51412
1.37731
1.10671
1.59365
1.65152
0.887013
1.12841
1.70987
1.62339
1.52974
1.6445
1.70537
1.52691
1.4222
0.849915
1.68942
1.7074
1.60008
1.43197
1.12134
1.11461
1.08828
1.05187
1.59317
1.70589
1.47336
1.58613
1.52592
1.54644
1.53233
1.62639
1.26338
1.47383
1.37239
1.5449
1.52831
1.43171
1.71601
1.51125
1.49826
1.55525
1.57292
1.61018
1.51557
1.39115
1.44737
1.54929
1.02199
1.4054
1.73054
1.32569
1.6321
1.45249
0.941307
1.08631
0.936655
1.19266
1.23068
1.38386
1.52313
1.70943
1.38406
1.31197
1.81406
1.57137
1.00016
1.29422
1.16701
1.6259
1.59363
1.80325
1.80995
1.14169
1.20458
1.65375
2.17023
1.23584
0.936138
1.19915
1.11103
1.10992
0.699769
1.81348
4.75962
0.961633
3.04657
0.771303
0.951947
0.953331
2.72035
2.12823
3.34524
2.62725
2.99305
3.81319
1.94397
4.67316
3.69496
3.71827
2.16242
4.47276
3.29146
6.10548
3.59349
8.07273
0.809407
1.69993
0.901641
3.35395
5.37537
0.833067
1.59115
1.20432
0.698915
0.941314
1.22777
1.03527
0.869457
0.882752
1.20708
0.761337
0.854219
1.97736
2.55597
1.26308
1.14326
1.24342
0.983651
1.63548
4.83192
1.81595
1.33569
0.836149
1.43324
1.67996
4.11242
5.30102
0.883668
0.718847
0.808272
0.742093
0.755396
0.725334
1.80559
0.863572
1.17443
0.667001
1.05303
0.961893
2.06381
2.50568
2.40314
0.878596
2.00549
2.26159
2.31023
2.15331
2.40625
2.49068
2.55604
2.24408
1.5136
2.07452
2.46939
2.40237
2.39739
2.56291
0.714248
2.04337
1.17438
0.650121
1.16425
0.886463
0.834003
2.47202
1.05815
2.65716
0.77937
0.737081
1.40671
1.54426
0.749169
0.645667
0.797357
1.06705
3.24039
3.90597
0.982264
1.32963
1.38694
1.08868
1.33127
2.14685
2.07575
1.59416
0.937513
1.18632
1.18097
1.43513
1.21534
1.22163
0.738806
0.566582
1.20753
0.853047
1.21303
0.681631
1.2821
1.04653
2.15359
0.571764
0.613178
0.549918
0.703282
0.425534
2.3781
1.31986
0.445488
0.463128
0.507856
0.451367
0.415681
0.894568
0.413919
0.543638
0.537285
0.466538
0.338156
0.51606
0.399499
0.597054
0.519763
0.473621
0.769368
0.883064
2.23311
2.12602
0.640998
0.595416
0.559613
0.544691
1.29655
0.706624
0.5343
0.697831
0.630216
0.511171
1.3924
0.947642
0.524681
0.442513
0.540428
0.557994
0.594142
0.627425
0.523861
0.425646
0.53993
0.394736
0.455164
0.597598
0.50579
0.50985
0.518594
0.52349
4.21618
0.717951
1.23485
1.25978
0.779484
0.58387
1.08708
0.640074
1.44371
0.640186
0.566317
0.766115
0.468212
0.710404
1.77535
0.507269
0.49488
0.508275
0.506502
0.481879
0.543307
0.451997
0.630238
0.449078
0.470174
0.420198
0.508628
0.461462
0.520599
0.423837
0.518566
0.495325
1.22693
0.716205
1.62166
0.583156
0.53388
0.766989
0.680105
0.532633
1.31448
1.13344
0.555105
0.711867
0.571775
0.670154
1.1809
0.953221
0.672609
0.342683
0.650006
0.6057
0.549394
0.678206
0.449858
0.582842
0.474185
0.497464
0.612205
0.545112
0.358442
0.580201
0.577032
0.578695
1.70299
0.662747
1.70122
0.980804
0.624061
0.765119
0.594073
0.79957
0.537637
0.583467
0.713025
0.717747
0.729592
0.685339
0.548333
0.582044
0.814907
0.81519
0.82375
0.832213
0.778028
0.787987
0.6934
0.79329
0.814124
0.995367
0.843291
0.918719
0.830674
0.867379
0.87444
0.770707
0.523748
0.651811
0.531529
0.606977
0.78529
0.720259
0.79312
0.723568
0.664883
0.611745
0.866492
0.699881
0.71317
0.788899
0.637577
0.720159
1.00013
1.05158
0.773486
0.81134
0.879362
0.717102
0.852216
0.772824
0.887944
0.799857
0.780786
0.713714
0.91706
0.795547
0.692095
0.700962
0.582334
0.609317
0.582027
0.554079
0.791835
0.718756
0.70933
0.666647
0.65637
0.695832
0.925461
0.853406
0.810123
0.784551
0.627885
0.688329
0.990923
0.936145
1.01258
0.928092
0.902494
0.954147
0.912063
0.999675
0.973529
1.05079
0.696046
0.866369
0.861746
0.913319
0.935665
0.974177
0.626276
0.662839
0.618791
0.631347
0.787118
0.741398
0.657145
0.736016
0.690574
0.770542
0.930308
0.807987
0.900159
1.00658
0.772655
0.84827
1.03234
1.06629
0.898565
0.961907
0.858781
0.754968
0.862251
0.835166
1.00204
0.916742
0.980291
1.06125
0.934784
1.14097
0.972801
0.914928
0.644346
0.694689
0.757402
0.830127
0.849854
0.966599
0.810699
0.850665
0.859616
0.891846
1.00412
0.952769
0.945009
1.00522
0.86588
0.919047
0.965296
0.991724
0.875729
0.927664
1.05946
0.990859
1.03954
0.998649
0.734209
0.873222
0.938531
0.823312
0.987504
0.971262
0.843017
0.883561
0.871189
0.880873
0.887672
1.02732
0.996563
0.929868
0.979356
1.03846
0.955129
0.862433
0.863221
0.90003
1.0367
1.2917
0.880614
0.959861
0.758628
0.753005
0.791519
0.775747
1.20059
0.827786
1.26643
1.02535
0.951749
1.09325
1.02884
1.04211
1.00195
1.08925
0.880588
1.00591
0.907514
0.881308
0.77712
0.713602
1.11281
0.989497
1.05651
1.00665
1.05132
0.986079
0.939338
0.965933
0.910838
0.989341
1.04042
1.04018
0.638909
0.649189
0.626529
0.786364
0.922011
0.843096
0.84941
0.818844
0.797995
0.868971
1.00757
0.862682
0.917719
0.727575
0.900322
0.873503
0.927424
1.20758
0.98473
1.08094
1.03302
1.06956
0.806995
1.06716
0.832778
1.22163
0.85852
0.928035
0.927493
0.985805
1.08368
0.833427
0.592669
0.747119
0.52791
0.504252
0.837169
0.768355
0.918278
0.87705
0.525162
0.573386
0.829087
0.726817
0.721937
0.718952
0.441874
0.564475
1.07961
1.01164
1.08301
1.1374
0.847248
1.19367
0.932396
0.932675
1.40509
1.2913
1.03764
1.31867
1.43989
1.68065
1.3984
1.11202
0.90246
1.21485
1.60339
0.931356
1.03719
1.03273
0.863923
0.99907
1.05548
1.03414
1.53787
1.1529
1.52142
0.98104
1.60771
0.945008
1.46897
1.33132
1.42023
1.37073
1.32123
1.40824
1.09024
1.47545
1.1508
1.20283
1.32648
1.5316
1.27505
1.05645
1.1929
1.50486
1.10678
1.32494
1.1997
1.83114
1.34571
1.26082
1.21811
1.51784
1.03593
1.08404
2.82386
0.914433
1.05548
1.12677
1.95055
1.4245
1.28893
0.863065
1.18603
1.12493
1.21799
1.40273
1.37941
1.50665
1.53724
1.31276
1.15631
1.39201
1.11327
1.20448
1.43303
1.50796
0.674624
1.04558
0.796117
1.19034
1.19323
0.907803
1.33489
0.812633
0.833543
1.06779
1.28369
1.05822
1.28604
0.912287
0.817619
1.28903
1.60916
1.51684
1.35294
1.45783
1.18134
1.89605
1.26696
1.35143
1.62092
0.919165
1.2614
1.54701
1.22196
1.72641
1.1818
1.71339
1.03838
1.16864
1.11872
1.81646
0.928909
1.00637
1.12625
1.11004
1.08216
1.48377
1.24384
1.46754
0.748049
1.20996
1.19221
1.93635
1.67981
1.46599
1.18905
1.51003
1.32574
1.60127
1.24615
1.61988
1.76582
1.42715
1.75883
1.78698
