OFF
340 662 0
18.7536 21.7091 -20.5756
18.7316 21.4208 -20.4566
18.9946 21.616 -20.4106
19.1516 22.0985 -20.5766
19.2726 21.6512 -20.3796
19.4686 22.1533 -20.5636
19.5196 22.3196 -20.7696
19.1786 22.2653 -20.7626
18.7536 21.8518 -20.7356
19.4386 21.4323 -20.3896
19.4746 21.1129 -20.4246
19.6466 21.335 -20.5526
19.6486 21.8898 -20.5646
19.7216 21.4414 -20.7296
19.7196 22.0361 -20.7586
19.6126 21.3269 -20.8936
19.4186 21.0999 -20.9936
19.3716 21.42 -21.0586
19.6116 21.8832 -20.9356
19.2016 21.642 -21.0856
19.4296 22.1482 -20.9576
18.9316 21.6114 -21.0436
18.6806 21.4196 -20.9706
18.7226 21.7087 -20.8816
19.1166 22.0956 -20.9306
7.91563 3.6391 -3.00263
7.98863 3.5842 -2.77163
8.03063 3.5942 -2.78063
7.96063 3.6473 -3.00663
8.13963 3.6598 -2.79763
8.07063 3.7119 -3.02163
8.05263 3.6946 -3.24063
7.94263 3.6298 -3.22763
8.37063 3.8179 -2.83363
8.78263 4.1057 -2.89763
8.71463 4.1576 -3.11963
8.30163 3.8698 -3.05663
8.69663 4.1404 -3.33763
8.28463 3.8526 -3.27463
8.72863 4.0592 -3.52463
8.80763 3.9193 -3.65563
8.39563 3.6314 -3.59163
8.31563 3.7713 -3.46163
8.16363 3.4724 -3.55863
8.08363 3.613 -3.42763
7.97463 3.5472 -3.41763
8.05563 3.4046 -3.54963
8.42763 3.0671 -2.32163
8.56063 2.8737 -2.34663
8.58763 2.904 -2.36563
8.45763 3.0921 -2.34163
8.68763 2.9798 -2.38863
8.56063 3.1652 -2.36463
8.40963 3.3588 -2.44263
8.30463 3.2885 -2.42063
8.26963 3.2693 -2.40263
8.91663 3.1414 -2.42663
9.32863 3.4293 -2.48963
9.20163 3.6138 -2.46563
8.78963 3.3259 -2.40163
9.05163 3.8063 -2.54363
8.63963 3.5185 -2.47963
8.90363 3.9795 -2.69663
8.49163 3.6917 -2.63263
8.26063 3.5328 -2.59563
8.11463 3.4513 -2.56263
8.15463 3.4653 -2.57563
8.65363 2.5784 -3.02063
8.58063 2.624 -3.27563
8.60663 2.6599 -3.27463
8.67763 2.6159 -3.02563
8.70663 2.7384 -3.28763
8.77663 2.6952 -3.04163
8.79663 2.7305 -2.77663
8.69763 2.6515 -2.75763
8.67363 2.6146 -2.74663
8.93563 2.9009 -3.32163
9.34763 3.1886 -3.38563
9.41763 3.1458 -3.13963
9.00563 2.858 -3.07663
9.43763 3.1811 -2.87563
9.02463 2.8932 -2.81263
9.40763 3.2803 -2.64263
8.99463 2.9924 -2.57963
8.76663 2.8302 -2.54263
8.64263 2.718 -2.50563
8.66763 2.7524 -2.52163
8.29063 3.278 -3.60663
8.18463 3.2074 -3.59763
8.43963 3.0664 -3.57463
8.33563 2.9928 -3.56463
8.93363 3.7257 -3.70263
8.52163 3.4379 -3.63963
9.08163 3.5151 -3.67063
8.66963 3.2273 -3.60763
9.22763 3.3239 -3.56363
8.81563 3.0361 -3.50063
8.58663 2.8743 -3.46663
8.45463 2.7662 -3.46063
8.48463 2.7979 -3.45563
11.7896 7.2189 -4.76063
11.8566 7.1737 -4.55163
12.4996 8.5452 -5.83163
12.4336 8.5834 -6.02763
13.0536 10.0608 -7.46763
12.9876 10.0912 -7.64763
12.9756 10.0771 -7.82263
12.4196 8.568 -6.21963
11.7736 7.2026 -4.96563
13.5756 11.5976 -9.36463
14.1236 13.0328 -11.4296
14.0546 13.0525 -11.5766
13.5096 11.6212 -9.52763
14.0406 13.044 -11.7226
13.4976 11.6093 -9.68763
14.0826 13.0085 -11.8496
14.1756 12.9476 -11.9406
13.6316 11.4882 -9.92064
13.5396 11.5642 -9.82463
13.1046 9.928 -8.07763
13.0156 10.0217 -7.97363
12.5426 8.3918 -6.49763
11.8906 7.0041 -5.26363
11.8086 7.1295 -5.14163
12.4566 8.5028 -6.38363
12.2796 6.7394 -4.14363
12.4096 6.575 -4.16663
13.0586 8.0235 -5.46963
12.9256 8.168 -5.44863
13.6206 9.6298 -7.13563
13.4846 9.7505 -7.11663
13.3276 9.8737 -7.18063
12.7716 8.3169 -5.51863
12.1276 6.91 -4.21763
14.1556 11.2542 -9.07063
14.7196 12.7569 -11.1786
14.5766 12.8351 -11.1566
14.0156 11.3514 -9.05163
14.4116 12.9139 -11.2026
13.8556 11.4497 -9.10763
14.2516 12.9832 -11.2996
13.6996 11.5361 -9.21863
13.1756 9.9827 -7.30463
11.9776 7.0628 -4.36163
12.6206 8.4495 -5.65363
12.5076 6.316 -4.77663
12.4386 6.3522 -5.00763
13.0996 7.8193 -6.25563
13.1656 7.7895 -6.03963
13.6736 9.4495 -7.85663
13.7396 9.4271 -7.65863
13.7506 9.457 -7.44563
13.1806 7.8219 -5.80763
12.5246 6.3499 -4.52863
14.2156 11.1011 -9.72663
14.7776 12.6321 -11.7806
14.8466 12.619 -11.6186
14.2806 11.0848 -9.54663
14.8576 12.6408 -11.4426
14.2906 11.1112 -9.35363
14.8146 12.6894 -11.2846
14.2476 11.1709 -9.18363
13.7106 9.5282 -7.25863
12.4916 6.4407 -4.30963
13.1436 7.904 -5.60263
12.0196 6.8308 -5.30663
12.6746 8.2388 -6.53763
13.2416 9.7994 -8.11463
13.3986 9.6603 -8.08863
12.8286 8.073 -6.50863
12.1706 6.6425 -5.27663
14.3196 12.8628 -11.9776
13.7716 11.3837 -9.95564
14.4866 12.7708 -11.9616
13.9336 11.2708 -9.93363
14.6486 12.6883 -11.8956
14.0906 11.1699 -9.85664
13.5516 9.5355 -8.00064
12.3186 6.472 -5.17563
12.9786 7.9235 -6.41263
14.7546 14.2436 -13.5676
14.6786 14.2643 -13.7026
15.4346 15.3224 -15.6226
15.3496 15.3476 -15.7496
15.3246 15.3493 -15.8826
14.6606 14.2605 -13.8396
16.1306 16.3615 -17.4386
16.8086 17.4534 -18.8596
16.6986 17.4928 -18.9856
16.0346 16.3934 -17.5626
16.6566 17.5052 -19.1256
16.0006 16.4007 -17.6966
16.6826 17.4893 -19.2616
16.7776 17.444 -19.3776
16.1226 16.3387 -17.9276
16.0306 16.3827 -17.8236
15.4506 15.2817 -16.1006
15.3586 15.3273 -16.0046
14.7926 14.1817 -14.0526
14.6986 14.2327 -13.9616
15.3726 13.9982 -13.3636
15.2266 14.0659 -13.3346
16.0836 15.0784 -15.4646
15.9336 15.1426 -15.4266
15.7566 15.2107 -15.4486
15.0566 14.1354 -13.3696
16.8226 16.0976 -17.3216
17.5616 17.1561 -18.7736
17.3956 17.2276 -18.7126
16.6666 16.1636 -17.2726
17.1906 17.3089 -18.7136
16.4786 16.2364 -17.2826
16.9836 17.3881 -18.7656
16.2886 16.3058 -17.3416
15.5796 15.2737 -15.5186
14.8896 14.1976 -13.4516
15.4146 13.9007 -13.9356
15.4896 13.8859 -13.7866
16.1006 15.0057 -16.0296
16.1856 14.9858 -15.8886
16.2096 14.9948 -15.7266
15.5056 13.9016 -13.6206
16.8116 16.0458 -17.9006
17.5236 17.12 -19.3876
17.6346 17.085 -19.2456
16.9086 16.0188 -17.7626
17.6796 17.0815 -19.0736
16.9436 16.0211 -17.5986
17.6556 17.1063 -18.9046
16.9146 16.0488 -17.4406
16.1756 15.0274 -15.5746
15.4666 13.9413 -13.4686
14.9386 14.1081 -14.0956
15.6006 15.2122 -16.1526
15.7786 15.1334 -16.1596
15.1106 14.0267 -14.0906
16.9426 17.368 -19.4536
16.2776 16.2679 -17.9916
17.1446 17.2778 -19.4856
16.4656 16.1855 -18.0116
17.3496 17.1897 -19.4656
16.6536 16.1064 -17.9826
15.9546 15.0597 -16.1196
15.2786 13.9526 -14.0376
17.4336 18.6904 -19.7296
17.3096 18.7369 -19.8636
17.9846 19.8846 -20.1936
17.8576 19.953 -20.3336
17.8086 19.989 -20.4936
17.2596 18.7531 -20.0156
18.4356 20.8482 -20.3946
18.3306 20.9689 -20.5336
18.3016 21.0574 -20.6906
18.3786 20.8492 -20.9686
18.2996 20.9705 -20.8386
17.9276 19.8862 -20.7866
17.8266 19.9553 -20.6506
17.3866 18.6888 -20.2936
17.2846 18.7375 -20.1646
18.2696 18.3541 -19.6586
18.0866 18.4332 -19.5876
18.8676 19.5246 -20.1326
18.6826 19.6261 -20.0546
18.4526 19.7413 -20.0456
17.8616 18.5248 -19.5826
19.2796 20.501 -20.3476
19.1246 20.6517 -20.2706
18.9286 20.8153 -20.2586
18.6666 20.8389 -20.3016
18.2016 19.8207 -20.0946
17.6306 18.6151 -19.6326
18.2126 18.3269 -20.3276
18.3386 18.2847 -20.1766
18.8016 19.5028 -20.8306
18.9446 19.473 -20.6746
19.0116 19.4797 -20.4816
18.3916 18.277 -19.9896
19.2146 20.4838 -21.0046
19.3806 20.5053 -20.8596
19.4706 20.5619 -20.6826
19.4156 20.5157 -20.4986
18.9816 19.4864 -20.2876
18.3696 18.301 -19.8056
17.5676 18.6054 -20.3826
18.1256 19.8156 -20.8836
18.3676 19.7274 -20.9306
17.7896 18.5052 -20.4226
18.5906 20.8345 -21.0666
18.8436 20.804 -21.1146
19.0436 20.6353 -21.0916
18.6006 19.6053 -20.9146
18.0176 18.4064 -20.4076
9.43363 4.5601 -2.99763
9.36563 4.6121 -3.21963
10.2276 5.2062 -3.23763
10.1596 5.2575 -3.45863
10.1416 5.2405 -3.67563
9.34763 4.5949 -3.43763
11.0676 6.0691 -3.72063
10.9996 6.1183 -3.93863
10.9826 6.1016 -4.15163
11.0966 5.8896 -4.46063
11.0156 6.0237 -4.33363
10.2536 5.0218 -3.99063
10.1736 5.1602 -3.86163
9.45863 4.3739 -3.75563
9.37963 4.5138 -3.62563
9.58463 4.1803 -3.80263
10.3796 4.8302 -4.03763
10.5286 4.6217 -4.00663
9.73263 3.9696 -3.77063
11.2236 5.7042 -4.50663
11.3726 5.5024 -4.47563
11.6396 5.1902 -4.19663
11.5186 5.3194 -4.37063
10.7946 4.2987 -3.72263
10.6746 4.4325 -3.89963
9.99863 3.6431 -3.48563
9.87963 3.7784 -3.66363
10.0686 3.6002 -3.23963
10.8636 4.2566 -3.47863
10.8836 4.2918 -3.21563
10.0886 3.6356 -2.97563
11.7086 5.1501 -3.95663
11.7266 5.1849 -3.69963
11.6166 5.424 -3.32263
11.6956 5.2809 -3.47163
10.7746 4.5379 -2.83263
10.8536 4.3903 -2.98463
9.98063 3.8839 -2.58963
10.0586 3.7349 -2.74263
9.85363 4.0684 -2.56563
10.6476 4.7203 -2.80863
10.4966 4.9106 -2.88563
9.70363 4.2608 -2.64363
11.4886 5.6004 -3.29963
11.3366 5.7841 -3.37563
11.1886 5.949 -3.52463
10.3486 5.0816 -3.03763
9.55463 4.4339 -2.79663
3 0 1 2
3 0 2 3
3 2 4 5
3 2 5 3
3 5 6 7
3 5 7 3
3 7 8 0
3 7 0 3
3 9 10 11
3 9 11 12
3 11 13 14
3 11 14 12
3 14 6 5
3 14 5 12
3 5 4 9
3 5 9 12
3 15 16 17
3 15 17 18
3 17 19 20
3 17 20 18
3 20 6 14
3 20 14 18
3 14 13 15
3 14 15 18
3 21 22 23
3 21 23 24
3 23 8 7
3 23 7 24
3 7 6 20
3 7 20 24
3 20 19 21
3 20 21 24
3 25 26 27
3 25 27 28
3 27 29 30
3 27 30 28
3 30 31 32
3 30 32 28
3 32 25 28
3 33 34 35
3 33 35 36
3 35 37 38
3 35 38 36
3 38 31 30
3 38 30 36
3 30 29 33
3 30 33 36
3 39 40 41
3 39 41 42
3 41 43 44
3 41 44 42
3 44 31 38
3 44 38 42
3 38 37 39
3 38 39 42
3 32 31 44
3 32 44 45
3 44 43 46
3 44 46 45
3 47 48 49
3 47 49 50
3 49 51 52
3 49 52 50
3 52 53 54
3 52 54 50
3 54 55 47
3 54 47 50
3 56 57 58
3 56 58 59
3 58 60 61
3 58 61 59
3 61 53 52
3 61 52 59
3 52 51 56
3 52 56 59
3 62 34 33
3 62 33 63
3 33 29 64
3 33 64 63
3 64 53 61
3 64 61 63
3 61 60 62
3 61 62 63
3 27 26 65
3 27 65 66
3 65 55 54
3 65 54 66
3 54 53 64
3 54 64 66
3 64 29 27
3 64 27 66
3 67 68 69
3 67 69 70
3 69 71 72
3 69 72 70
3 72 73 74
3 72 74 70
3 74 75 67
3 74 67 70
3 76 77 78
3 76 78 79
3 78 80 81
3 78 81 79
3 81 73 72
3 81 72 79
3 72 71 76
3 72 76 79
3 82 57 56
3 82 56 83
3 56 51 84
3 56 84 83
3 84 73 81
3 84 81 83
3 81 80 82
3 81 82 83
3 49 48 85
3 49 85 86
3 85 75 74
3 85 74 86
3 74 73 84
3 74 84 86
3 84 51 49
3 84 49 86
3 46 43 87
3 46 87 88
3 87 89 90
3 87 90 88
3 41 40 91
3 41 91 92
3 91 93 94
3 91 94 92
3 94 89 87
3 94 87 92
3 87 43 41
3 87 41 92
3 95 77 76
3 95 76 96
3 76 71 97
3 76 97 96
3 97 89 94
3 97 94 96
3 94 93 95
3 94 95 96
3 69 68 98
3 69 98 99
3 98 90 99
3 90 89 97
3 90 97 99
3 97 71 69
3 97 69 99
3 100 101 102
3 100 102 103
3 102 104 105
3 102 105 103
3 105 106 107
3 105 107 103
3 107 108 100
3 107 100 103
3 109 110 111
3 109 111 112
3 111 113 114
3 111 114 112
3 114 106 105
3 114 105 112
3 105 104 109
3 105 109 112
3 115 116 117
3 115 117 118
3 117 119 120
3 117 120 118
3 120 106 114
3 120 114 118
3 114 113 115
3 114 115 118
3 121 122 123
3 121 123 124
3 123 108 107
3 123 107 124
3 107 106 120
3 107 120 124
3 120 119 121
3 120 121 124
3 125 126 127
3 125 127 128
3 127 129 130
3 127 130 128
3 130 131 132
3 130 132 128
3 132 133 125
3 132 125 128
3 134 135 136
3 134 136 137
3 136 138 139
3 136 139 137
3 139 131 130
3 139 130 137
3 130 129 134
3 130 134 137
3 140 110 109
3 140 109 141
3 109 104 142
3 109 142 141
3 142 131 139
3 142 139 141
3 139 138 140
3 139 140 141
3 102 101 143
3 102 143 144
3 143 133 132
3 143 132 144
3 132 131 142
3 132 142 144
3 142 104 102
3 142 102 144
3 145 146 147
3 145 147 148
3 147 149 150
3 147 150 148
3 150 151 152
3 150 152 148
3 152 153 145
3 152 145 148
3 154 155 156
3 154 156 157
3 156 158 159
3 156 159 157
3 159 151 150
3 159 150 157
3 150 149 154
3 150 154 157
3 160 135 134
3 160 134 161
3 134 129 162
3 134 162 161
3 162 151 159
3 162 159 161
3 159 158 160
3 159 160 161
3 127 126 163
3 127 163 164
3 163 153 152
3 163 152 164
3 152 151 162
3 152 162 164
3 162 129 127
3 162 127 164
3 165 122 121
3 165 121 166
3 121 119 167
3 121 167 166
3 167 168 169
3 167 169 166
3 169 170 165
3 169 165 166
3 117 116 171
3 117 171 172
3 171 173 174
3 171 174 172
3 174 168 167
3 174 167 172
3 167 119 117
3 167 117 172
3 175 155 154
3 175 154 176
3 154 149 177
3 154 177 176
3 177 168 174
3 177 174 176
3 174 173 175
3 174 175 176
3 147 146 178
3 147 178 179
3 178 170 169
3 178 169 179
3 169 168 177
3 169 177 179
3 177 149 147
3 177 147 179
3 111 110 180
3 111 180 181
3 180 182 183
3 180 183 181
3 183 184 185
3 183 185 181
3 185 113 111
3 185 111 181
3 186 187 188
3 186 188 189
3 188 190 191
3 188 191 189
3 191 184 183
3 191 183 189
3 183 182 186
3 183 186 189
3 192 193 194
3 192 194 195
3 194 196 197
3 194 197 195
3 197 184 191
3 197 191 195
3 191 190 192
3 191 192 195
3 198 116 115
3 198 115 199
3 115 113 185
3 115 185 199
3 185 184 197
3 185 197 199
3 197 196 198
3 197 198 199
3 136 135 200
3 136 200 201
3 200 202 203
3 200 203 201
3 203 204 205
3 203 205 201
3 205 138 136
3 205 136 201
3 206 207 208
3 206 208 209
3 208 210 211
3 208 211 209
3 211 204 203
3 211 203 209
3 203 202 206
3 203 206 209
3 212 187 186
3 212 186 213
3 186 182 214
3 186 214 213
3 214 204 211
3 214 211 213
3 211 210 212
3 211 212 213
3 180 110 140
3 180 140 215
3 140 138 205
3 140 205 215
3 205 204 214
3 205 214 215
3 214 182 180
3 214 180 215
3 156 155 216
3 156 216 217
3 216 218 219
3 216 219 217
3 219 220 221
3 219 221 217
3 221 158 156
3 221 156 217
3 222 223 224
3 222 224 225
3 224 226 227
3 224 227 225
3 227 220 219
3 227 219 225
3 219 218 222
3 219 222 225
3 228 207 206
3 228 206 229
3 206 202 230
3 206 230 229
3 230 220 227
3 230 227 229
3 227 226 228
3 227 228 229
3 200 135 160
3 200 160 231
3 160 158 221
3 160 221 231
3 221 220 230
3 221 230 231
3 230 202 200
3 230 200 231
3 171 116 198
3 171 198 232
3 198 196 233
3 198 233 232
3 233 234 235
3 233 235 232
3 235 173 171
3 235 171 232
3 194 193 236
3 194 236 237
3 236 238 239
3 236 239 237
3 239 234 233
3 239 233 237
3 233 196 194
3 233 194 237
3 240 223 222
3 240 222 241
3 222 218 242
3 222 242 241
3 242 234 239
3 242 239 241
3 239 238 240
3 239 240 241
3 216 155 175
3 216 175 243
3 175 173 235
3 175 235 243
3 235 234 242
3 235 242 243
3 242 218 216
3 242 216 243
3 188 187 244
3 188 244 245
3 244 246 247
3 244 247 245
3 247 248 249
3 247 249 245
3 249 190 188
3 249 188 245
3 250 1 0
3 250 0 251
3 0 8 252
3 0 252 251
3 252 248 247
3 252 247 251
3 247 246 250
3 247 250 251
3 23 22 253
3 23 253 254
3 253 255 256
3 253 256 254
3 256 248 252
3 256 252 254
3 252 8 23
3 252 23 254
3 257 193 192
3 257 192 258
3 192 190 249
3 192 249 258
3 249 248 256
3 249 256 258
3 256 255 257
3 256 257 258
3 208 207 259
3 208 259 260
3 259 261 262
3 259 262 260
3 262 263 264
3 262 264 260
3 264 210 208
3 264 208 260
3 265 10 9
3 265 9 266
3 9 4 267
3 9 267 266
3 267 263 262
3 267 262 266
3 262 261 265
3 262 265 266
3 2 1 250
3 2 250 268
3 250 246 269
3 250 269 268
3 269 263 267
3 269 267 268
3 267 4 2
3 267 2 268
3 244 187 212
3 244 212 270
3 212 210 264
3 212 264 270
3 264 263 269
3 264 269 270
3 269 246 244
3 269 244 270
3 224 223 271
3 224 271 272
3 271 273 274
3 271 274 272
3 274 275 276
3 274 276 272
3 276 226 224
3 276 224 272
3 277 16 15
3 277 15 278
3 15 13 279
3 15 279 278
3 279 275 274
3 279 274 278
3 274 273 277
3 274 277 278
3 11 10 265
3 11 265 280
3 265 261 281
3 265 281 280
3 281 275 279
3 281 279 280
3 279 13 11
3 279 11 280
3 259 207 228
3 259 228 282
3 228 226 276
3 228 276 282
3 276 275 281
3 276 281 282
3 281 261 259
3 281 259 282
3 236 193 257
3 236 257 283
3 257 255 284
3 257 284 283
3 284 285 286
3 284 286 283
3 286 238 236
3 286 236 283
3 253 22 21
3 253 21 287
3 21 19 288
3 21 288 287
3 288 285 284
3 288 284 287
3 284 255 253
3 284 253 287
3 17 16 277
3 17 277 289
3 277 273 290
3 277 290 289
3 290 285 288
3 290 288 289
3 288 19 17
3 288 17 289
3 271 223 240
3 271 240 291
3 240 238 286
3 240 286 291
3 286 285 290
3 286 290 291
3 290 273 271
3 290 271 291
3 35 34 292
3 35 292 293
3 292 294 295
3 292 295 293
3 295 296 297
3 295 297 293
3 297 37 35
3 297 35 293
3 298 101 100
3 298 100 299
3 100 108 300
3 100 300 299
3 300 296 295
3 300 295 299
3 295 294 298
3 295 298 299
3 123 122 301
3 123 301 302
3 301 303 304
3 301 304 302
3 304 296 300
3 304 300 302
3 300 108 123
3 300 123 302
3 305 40 39
3 305 39 306
3 39 37 297
3 39 297 306
3 297 296 304
3 297 304 306
3 304 303 305
3 304 305 306
3 91 40 305
3 91 305 307
3 305 303 308
3 305 308 307
3 308 309 310
3 308 310 307
3 310 93 91
3 310 91 307
3 301 122 165
3 301 165 311
3 165 170 312
3 165 312 311
3 312 309 308
3 312 308 311
3 308 303 301
3 308 301 311
3 178 146 313
3 178 313 314
3 313 315 316
3 313 316 314
3 316 309 312
3 316 312 314
3 312 170 178
3 312 178 314
3 317 77 95
3 317 95 318
3 95 93 310
3 95 310 318
3 310 309 316
3 310 316 318
3 316 315 317
3 316 317 318
3 78 77 317
3 78 317 319
3 317 315 320
3 317 320 319
3 320 321 322
3 320 322 319
3 322 80 78
3 322 78 319
3 313 146 145
3 313 145 323
3 145 153 324
3 145 324 323
3 324 321 320
3 324 320 323
3 320 315 313
3 320 313 323
3 163 126 325
3 163 325 326
3 325 327 328
3 325 328 326
3 328 321 324
3 328 324 326
3 324 153 163
3 324 163 326
3 329 57 82
3 329 82 330
3 82 80 322
3 82 322 330
3 322 321 328
3 322 328 330
3 328 327 329
3 328 329 330
3 58 57 329
3 58 329 331
3 329 327 332
3 329 332 331
3 332 333 334
3 332 334 331
3 334 60 58
3 334 58 331
3 325 126 125
3 325 125 335
3 125 133 336
3 125 336 335
3 336 333 332
3 336 332 335
3 332 327 325
3 332 325 335
3 143 101 298
3 143 298 337
3 298 294 338
3 298 338 337
3 338 333 336
3 338 336 337
3 336 133 143
3 336 143 337
3 292 34 62
3 292 62 339
3 62 60 334
3 62 334 339
3 334 333 338
3 334 338 339
3 338 294 292
3 338 292 339
