4.70327
7.20999
8.26121
10.1444
7.21095
6.14683
3.89949
6.51225
5.46541
6.325
6.06664
6.00861
6.12175
7.05823
6.16197
5.21749
7.74333
5.0453
5.77548
8.355
6.73916
3.47027
8.85315
8.05123
9.75365
4.35287
5.26737
10.1692
7.71689
4.47679
5.68856
7.07147
3.6271
7.04708
8.97571
3.91007
4.64485
8.0027
4.92379
7.25556
3.98883
2.42805
4.8897
9.69363
2.87816
5.99057
4.58219
7.44566
8.71755
7.47702
6.4295
9.66102
7.65637
7.75793
9.77894
4.10511
6.28969
5.20392
8.33207
5.82092
5.05891
3.28758
2.82121
2.95825
3.58781
2.64368
3.85341
4.8243
6.19112
5.06353
6.41451
3.97393
6.09895
9.42963
8.73359
9.09301
5.74083
3.47731
8.54726
6.23914
6.36907
4.96447
8.04115
3.83956
9.69039
6.54198
9.37791
8.46748
7.77478
8.80446
9.80024
9.74028
7.7443
9.93116
6.56563
6.67431
9.71351
6.4189
8.60112
6.63773
7.86754
4.89447
5.56244
5.40506
5.14632
5.00619
2.25948
2.67644
2.68599
4.97182
6.16764
5.12487
5.19208
4.94368
5.81592
4.77621
8.02919
5.64204
7.76944
6.84738
2.0041
7.62316
6.22683
4.97814
2.34532
11.8961
3.47352
6.40251
2.15679
3.68095
5.93419
4.23029
2.21907
3.09726
7.90894
4.57689
5.78828
1.63462
5.40592
5.90566
4.20718
5.92854
5.266
7.19959
8.26015
5.58475
1.67845
5.76842
9.54348
6.1179
6.17136
4.75322
5.62616
3.99827
2.18905
5.13669
5.36689
7.18112
6.43496
6.02889
1.72363
5.44448
7.04318
5.93785
6.32566
2.02449
4.71159
4.53742
6.8478
4.94987
4.68379
6.55815
5.64768
4.52992
2.25031
1.98839
2.07667
2.02412
6.99156
5.34523
3.41843
6.05775
2.33338
4.87239
4.54787
8.21566
5.8661
6.12018
6.44668
4.10357
5.85791
7.84749
8.76925
10.8645
6.47879
5.23149
4.99471
5.64745
6.54052
7.48523
2.59809
7.43549
7.7457
7.15478
7.06932
6.98753
8.15033
6.96468
9.62897
6.31926
8.0876
8.46717
7.09544
6.9765
3.68686
8.51833
8.18955
8.01723
4.46716
8.069
7.90717
9.10339
5.27084
4.83671
5.46181
5.99437
7.056
5.17713
6.01266
7.98513
6.50331
6.55405
4.89546
6.701
5.97966
4.36081
5.97282
7.35114
6.31016
6.98904
6.1777
8.05619
9.61405
8.25363
6.96693
5.24865
6.58943
6.96613
7.47482
9.36044
7.69141
7.3419
2.7913
6.17016
7.95305
7.35886
7.1747
7.12884
6.09724
9.87645
6.43153
6.25205
6.1206
6.27206
4.01242
1.98774
1.93256
4.60866
3.4625
2.10014
1.51489
6.51194
2.99838
4.4994
4.59989
10.1342
5.64444
9.68609
5.68624
5.48123
6.16962
8.73852
5.64654
5.5576
4.98223
6.10416
9.24345
6.99697
3.40672
3.07105
4.18395
2.35536
5.1398
6.28763
5.06426
4.70902
3.33445
3.87525
4.89313
3.96712
5.26409
4.54343
5.84136
9.04148
4.19353
4.84846
5.59961
3.88339
8.32488
2.34825
3.30484
6.70447
4.35822
5.0391
4.63225
2.38825
5.75698
4.90502
1.89702
6.30938
5.07824
2.4313
2.10151
6.72291
2.01913
3.57318
5.64297
4.11271
9.79957
6.48186
5.27455
11.3201
8.28567
3.48501
7.63693
4.98401
4.3833
5.42293
8.18513
3.81957
6.31381
4.53395
5.46671
4.81085
5.11561
5.01813
9.73619
3.72492
7.45881
8.05399
5.64517
9.7666
6.64522
8.5357
6.20845
6.39961
3.15392
6.0515
6.16264
6.06268
7.5445
3.66973
8.92577
5.3592
6.40803
3.26474
7.3168
8.44295
8.11368
7.93593
9.28048
10.3492
6.64665
6.01485
7.60781
8.01447
5.17597
7.3256
5.03907
7.01779
5.54367
4.97687
6.46934
2.30215
4.96088
5.40803
4.39962
10.734
4.24713
9.22406
8.20765
4.83853
3.82044
10.9776
2.74335
9.10807
3.92918
6.91687
6.47425
7.40261
2.68525
8.85682
3.9726
4.24556
7.30872
10.6738
7.02116
7.03241
2.3315
8.26017
4.99251
6.01622
5.25484
4.4868
6.89821
6.25295
8.72508
8.33909
7.10381
7.45246
5.52985
5.87156
6.86376
5.20851
5.23446
5.14161
10.2507
2.07617
1.9325
9.82216
4.68297
4.78546
5.94026
3.83806
5.75496
7.22899
5.39744
6.10128
6.02926
9.89625
5.60549
3.28503
3.99626
4.63262
6.45999
7.02631
5.15238
4.30295
4.68966
4.31509
6.88802
6.3808
7.68262
5.70541
3.14461
9.98026
2.54033
2.91008
2.43391
1.10707
1.81792
6.81904
5.1171
2.87833
3.05154
1.84878
3.94089
2.39794
3.38848
2.86154
7.32622
2.92815
4.10433
5.09779
3.7644
0.936675
2.70671
5.68025
0.851559
2.48373
3.75611
2.314
1.13649
9.566
2.26025
2.56876
1.60553
2.2641
2.69985
3.2687
1.07011
0.597488
0.9356
0.924673
3.23565
0.936533
1.06484
0.622893
1.13168
7.58609
8.00154
0.770251
1.0293
1.66272
7.13915
3.35345
0.810159
0.779338
1.14357
1.20149
2.83938
2.51739
8.11472
1.08323
0.768611
1.09241
1.25643
0.795523
2.48628
2.93309
6.74115
6.34908
7.23642
1.79795
2.23376
6.38598
6.35008
4.02194
7.71785
4.65552
5.27602
6.67932
2.80422
3.79843
3.5246
1.36465
8.46262
3.69114
3.07724
1.25366
1.36913
2.59201
3.97718
2.36304
4.61591
3.72388
1.96403
3.27331
4.21654
9.25396
8.49586
0.838722
0.99902
4.98926
1.08261
2.83659
2.39474
3.70777
1.39824
1.01983
1.05733
3.54204
1.96198
3.83258
2.38234
0.605262
1.11205
3.48853
1.89331
2.62926
2.29575
3.14738
4.10243
7.04599
7.71743
1.10854
1.14219
0.607115
2.66157
0.846113
0.805947
1.33351
0.712249
4.74246
0.902132
0.67401
0.944535
0.74431
6.86025
0.919424
0.828231
3.32133
2.10295
0.760778
0.906686
1.33107
0.742614
0.812888
1.49088
5.36759
0.753644
0.838731
0.795962
0.790651
6.4443
0.877591
4.94561
0.600937
1.1607
3.8929
1.70337
6.70895
2.57052
1.67521
1.65804
6.02203
2.17436
5.66652
1.91909
2.70578
4.39688
2.34219
1.16462
1.36043
1.53933
1.22317
3.69368
5.50572
10.3828
1.0802
1.31517
5.87642
2.42182
7.52161
7.50212
2.29275
3.77639
10.2709
2.01272
0.968301
1.06437
1.22808
1.24393
7.71148
1.51503
2.44892
1.70435
7.34942
2.56629
6.42291
3.02628
3.73058
2.05835
2.21229
1.24524
6.85393
2.16658
5.1438
2.35893
5.0992
5.71801
6.74421
8.81787
1.22297
0.979499
0.948254
1.50903
2.4195
1.2825
2.89536
7.25827
0.729462
1.88824
1.14898
1.26778
7.50043
1.90404
0.81617
0.699315
0.419559
0.592086
1.64199
3.51405
1.02695
1.02079
1.21562
0.879313
1.32695
3.1764
1.11502
0.848883
1.87289
0.476669
2.02111
0.670565
1.28517
2.72104
0.857253
1.19322
2.78821
4.87878
8.55365
4.56343
2.19667
0.992955
2.4591
2.32647
4.80906
3.93947
5.28102
2.15676
9.45894
3.33391
1.65221
2.02721
6.51575
8.58879
6.4252
8.22596
2.94366
1.71613
8.14792
2.63885
2.4248
8.79905
2.371
1.5293
2.56389
2.80218
6.41708
6.0409
4.21592
0.923777
1.61882
1.64904
2.46492
1.2796
0.928975
2.06752
3.25267
1.61293
6.28362
2.28839
4.09288
4.65158
2.39668
4.76477
1.37786
3.81903
0.905729
5.16462
1.72751
5.46919
1.02063
1.15893
3.23859
1.94548
2.43967
1.96246
4.21264
5.00065
2.29824
1.00652
1.09667
1.24023
0.839171
1.16063
0.681546
0.865469
3.33772
0.756714
0.853619
0.737079
0.929328
1.08647
0.993898
0.73476
0.756553
2.31327
1.03224
0.780325
0.739844
0.725427
0.987776
0.762804
0.900155
0.774325
0.895705
1.39128
2.41493
1.03507
0.886933
0.715199
1.08531
0.958082
2.25793
4.47901
6.2402
5.09639
3.91135
1.88991
4.66511
8.42039
9.84287
1.90475
6.76179
1.74411
7.54164
1.83672
2.32838
2.29468
0.976462
1.17932
0.744293
1.10302
4.75671
2.87092
4.95629
0.8914
0.91858
4.62928
1.25463
1.65249
1.5369
0.928571
1.12396
0.71258
0.761165
0.844393
2.57627
1.82302
0.585571
0.956647
1.21666
1.28515
0.684325
1.54707
1.01918
0.986097
0.968382
1.83219
2.03599
1.17839
0.673463
1.36851
1.3854
1.08482
1.10476
1.72275
2.23975
1.77606
0.739709
0.88377
0.937843
1.26863
2.91358
4.02163
1.58784
1.17495
1.12744
2.15852
1.23011
2.59788
1.13217
1.74892
0.988461
1.38998
0.667798
0.902566
0.86833
0.943158
0.83614
0.97306
0.738277
0.822657
1.03176
1.32461
1.21241
1.38452
1.34516
1.1084
1.05609
2.85502
2.38627
2.96204
1.34083
2.03082
0.872997
1.13092
0.975563
0.91317
0.932325
0.862777
1.74677
1.41698
1.71975
1.72717
1.36842
1.15572
1.64986
7.11178
3.82502
6.99519
4.02466
7.19673
7.48842
7.19353
7.21854
3.57844
2.72543
4.4229
8.76936
8.05172
9.12701
4.46287
6.74278
7.28328
7.35584
7.67153
3.19839
3.49092
5.80654
8.89419
4.77013
4.53646
4.22536
4.06894
8.45994
4.9888
7.1477
3.8981
4.72622
8.85729
3.97998
6.86105
5.16272
4.64806
4.67335
10.062
4.48057
9.2088
7.72651
7.44986
7.32005
4.88744
7.6655
5.19462
7.54516
6.53348
3.98083
1.81839
7.06968
7.51199
4.03567
9.06631
10.9213
8.23717
7.34539
7.66266
7.32404
6.78786
6.40374
6.87676
5.87939
3.67506
6.21739
4.83902
7.80128
3.85002
5.65743
7.61213
7.52043
7.81122
3.80809
1.22997
7.96454
4.59679
5.74484
8.2243
8.19056
8.27781
7.27572
2.95735
7.34237
5.63298
2.4685
5.52853
4.35251
2.32396
10.462
4.72062
5.15435
5.80432
4.4451
7.63779
2.29086
11.7688
2.42382
2.65629
4.67593
9.89068
4.96151
3.67007
8.15484
3.58827
3.07549
7.56935
4.73864
3.33994
8.50101
0.614007
10.5586
5.3278
6.49556
7.07054
3.49251
0.787143
1.14985
0.932674
1.04792
1.19951
0.827837
0.694013
0.904817
1.09275
0.904892
0.875722
1.08864
1.06594
0.927743
1.01636
0.938479
1.12934
0.816358
0.733015
0.742596
0.929027
0.983301
1.27209
1.49856
0.773119
1.00846
0.836859
0.993422
1.22047
1.15636
1.0318
0.975581
0.898418
1.33649
1.43546
0.819835
1.20297
0.712938
5.06252
3.04664
3.94497
3.07054
3.75458
6.75429
5.81405
3.13018
11.575
10.1083
3.68829
4.67048
5.97714
4.88961
6.87148
6.2473
2.73778
2.22445
1.31212
5.83813
5.76583
7.34342
4.18597
10.0255
1.40902
0.942487
5.66377
4.31878
5.69236
8.61088
5.8009
4.08873
9.53568
5.53572
6.29093
5.06186
4.95299
5.0961
3.52658
5.47109
5.57927
5.72333
7.16271
1.87108
3.22827
6.22165
2.11732
5.94342
5.44363
4.99363
5.27159
4.68213
4.46061
6.1502
6.19436
7.25043
2.73326
6.86796
5.94571
3.44615
4.17516
1.77458
3.41857
4.68236
3.81302
7.89123
4.34187
8.12878
1.92044
6.41091
4.83642
4.42124
6.08548
6.2656
6.05055
7.29119
4.90795
4.44898
5.37834
7.61287
5.80821
6.16576
5.69272
5.51825
2.88048
5.8527
9.07349
8.2313
4.45797
7.75184
4.60465
6.64336
9.94598
7.66003
9.10646
3.75835
6.72561
4.53503
3.98782
4.17489
10.3185
4.21425
2.83544
4.9223
7.70107
5.34251
6.33523
8.04734
7.1728
9.24
4.43628
6.61415
10.8521
3.53727
11.3978
3.89744
10.5981
8.39087
7.79381
6.28318
7.14765
3.61188
4.33462
8.41091
6.41428
5.00808
4.21701
7.68102
4.34739
5.76918
5.73541
2.87296
6.23275
6.38731
8.60405
4.90924
3.17518
5.50604
4.88528
6.35816
5.1179
3.14279
3.05832
3.74192
7.34816
8.25368
1.04526
4.97604
3.48524
1.18367
1.16577
1.01904
6.5567
4.83411
3.99286
1.32375
5.57782
4.4792
1.66792
2.17487
2.43567
1.97365
4.18392
6.7601
5.2723
3.95057
8.99841
5.85084
5.81185
6.3932
6.97507
2.30229
6.69029
1.8493
6.52305
4.95917
6.85797
2.28699
5.75985
7.75038
6.02686
4.67121
4.61362
9.35785
6.23112
4.06309
5.08745
9.39081
8.74557
6.10354
4.18697
3.95705
4.02098
6.51004
7.10966
7.55153
6.93721
4.52224
6.32713
7.06004
6.96561
9.54363
8.2877
7.03369
8.09842
4.81666
7.01859
4.94704
7.08289
9.29644
3.2852
3.2725
3.33574
2.94518
6.05882
3.65285
6.9951
3.30518
1.48195
5.72541
1.35642
1.53185
2.75171
2.68693
1.0983
1.61941
2.13514
1.13284
6.2473
1.35033
0.687402
0.905971
2.57704
2.11678
3.45981
2.32244
2.26103
3.00908
3.54691
2.63212
3.98012
1.43142
5.31206
5.10082
1.55383
4.95963
4.06859
3.46026
6.25983
3.62609
4.51947
4.43637
7.47105
4.2238
4.39096
5.57792
6.44667
5.04002
1.87546
3.63882
4.40642
4.06993
4.8069
5.23872
1.57162
1.61269
3.88737
1.38976
1.7332
1.70289
4.36115
5.23556
1.24116
5.28857
3.46521
2.42463
6.794
6.00767
1.43756
4.86929
5.09792
4.15069
1.08349
2.44037
4.35048
3.57764
1.33433
3.85604
3.09465
1.63274
3.24356
4.00852
4.33145
4.2239
4.38241
4.28449
4.17069
6.66798
4.08543
1.5064
7.12692
4.63096
6.12647
4.59278
3.35318
4.54757
4.33516
2.75507
4.15445
7.98018
7.76002
4.20906
4.59929
5.0432
4.24193
8.16303
1.71481
3.31902
4.7687
5.36535
3.99991
7.03899
3.93783
3.55739
4.64884
7.71251
4.38421
3.76132
4.19364
6.85794
5.35971
3.78433
3.07596
3.7351
2.84665
7.22844
3.54373
4.21091
3.43606
7.45747
6.94578
7.84329
8.03134
7.06849
8.27643
4.03771
4.65981
3.63615
4.10367
4.75197
5.11173
4.17166
6.9021
4.60006
5.73485
8.94948
5.58946
5.54904
3.72064
7.42447
7.68456
7.45483
6.72057
6.75235
7.87539
6.00529
7.80017
5.67584
4.16665
6.20587
6.48903
6.8714
9.65937
4.41737
4.20696
3.74471
7.45036
3.19878
7.65168
3.86723
3.45147
6.75942
8.32006
3.61618
8.35882
4.16787
8.58365
9.43938
4.0862
4.11382
4.125
6.8174
4.16584
8.38712
4.09298
3.66608
2.25707
9.05629
7.51537
7.26412
7.8147
9.49919
7.40179
7.68932
8.01923
3.43453
7.55571
5.63631
6.58445
7.78271
8.05463
8.33976
8.36554
8.47047
8.00854
7.66652
3.73851
8.46762
3.39136
9.88891
10.7029
8.17178
7.62951
8.02394
7.32579
7.55356
8.48446
5.29457
8.37767
7.49725
3.13553
6.83873
5.62906
10.0135
9.41362
8.1947
8.77394
7.45366
6.35296
6.3116
6.24841
7.07173
10.9608
9.65806
11.2408
5.22592
6.31492
7.32206
4.37247
6.02951
4.87076
9.13135
7.25022
7.58715
9.77867
10.364
10.1086
2.4221
6.9384
9.16011
5.33473
2.18726
3.19512
8.67286
5.53129
3.39539
6.93028
6.91604
7.73974
6.31745
7.10636
7.2471
2.43665
4.72227
8.58727
6.7619
3.3373
4.9117
1.46933
