1.85389
1.47659
1.95384
6.00829
2.17919
2.51933
2.01516
1.57132
4.43029
3.76641
4.92905
0.966488
1.29554
1.82957
3.51356
4.48436
0.933039
0.971641
3.55845
2.24985
1.07146
4.70987
1.5409
4.14795
1.22363
3.01302
1.67554
1.47729
6.35238
2.80493
2.56297
3.3941
2.18792
1.72269
1.54575
1.15117
1.7202
1.74446
2.22569
2.19572
1.75666
1.48669
1.21672
2.28194
1.88656
0.977327
1.7907
2.3426
2.05987
1.2941
2.18263
3.21881
2.3303
2.56333
3.40288
2.8999
2.82186
2.04122
0.942419
3.79116
1.96433
4.49393
2.08638
2.84232
3.76671
2.80245
2.70284
2.30899
0.975986
1.06033
2.20964
1.82197
2.91663
3.35872
1.36847
1.83069
3.41867
2.31569
2.02601
3.56036
4.47891
6.03231
4.25265
2.33686
1.0275
1.353
2.75417
0.979394
4.06828
1.79511
1.4205
1.94884
3.27266
2.78356
3.4016
5.8586
1.81478
1.74454
3.16898
3.77555
2.7684
1.49039
0.928075
2.41464
2.54356
4.95803
4.34369
2.78458
2.3801
2.01746
1.81153
1.75179
2.81218
0.949591
2.28864
1.57973
2.74065
4.352
3.28
3.92777
4.21515
1.11776
0.894162
2.94354
2.31868
2.70378
4.69062
1.79413
2.85954
2.02647
2.31193
2.87576
1.50749
1.6457
2.97107
1.71993
2.46918
2.37794
4.01809
2.76125
1.88174
2.40464
1.56141
2.77961
1.0536
1.59234
2.49976
2.21415
2.33752
2.30735
4.11315
4.09142
2.32476
0.833661
0.993397
1.21287
4.49839
3.85225
3.36975
4.28457
2.41773
3.44749
4.62117
3.19212
3.71204
2.96285
4.29218
2.40407
3.47237
4.20523
3.36056
3.01349
2.12225
4.11493
3.78602
4.25481
2.80841
4.72324
5.13303
3.24966
3.64931
5.72006
3.9715
3.77761
3.51998
2.18418
3.51815
3.87817
1.14778
3.2718
3.67761
2.85623
2.01475
2.57924
2.67849
6.05278
3.87254
5.44726
0.964148
3.69126
3.76115
5.18858
4.6442
1.2793
4.98242
2.07111
4.98133
5.25012
4.58062
2.71375
4.57447
3.69683
1.70797
3.99008
5.2334
2.3035
3.60099
1.59973
2.52316
3.66379
3.09954
1.73402
4.24483
1.55889
4.80908
5.06641
3.65515
5.41003
4.0863
4.95405
4.97875
5.38663
4.24405
4.6361
4.80147
4.77407
2.86166
3.74549
4.75195
4.29632
0.732522
1.87187
4.67343
4.44491
2.89524
4.12578
4.17289
4.68991
3.62091
4.52156
3.63957
1.7688
4.52636
1.74527
2.36499
2.28795
3.08514
3.31599
3.29422
1.24259
1.30742
5.20973
2.34179
1.81123
2.05374
1.96419
2.47731
4.02144
3.771
5.38133
3.71297
3.91695
2.47299
3.75039
4.3852
2.3298
0.864811
4.06753
2.30912
3.91525
2.28503
5.3665
4.78718
1.13791
0.662465
3.92015
0.879453
0.67333
1.00588
0.799082
4.11643
0.75079
2.7985
3.61595
0.336516
0.571313
0.721757
4.24922
3.73657
2.64486
0.658658
1.96539
3.60914
1.8848
0.960349
4.34784
0.60161
1.68764
1.02687
0.942963
0.450906
1.31153
0.963887
0.512669
0.756789
0.671947
0.533729
1.86596
3.67194
0.726593
1.46215
0.473319
0.206057
0.609425
0.527338
2.57605
1.19597
1.59032
1.7178
2.74734
1.35098
0.734087
2.45021
4.80287
0.736453
1.11301
0.457988
0.75873
1.59008
1.10813
1.30408
0.905576
0.583802
0.706038
0.527636
0.976607
3.0877
0.283149
1.91508
0.512623
3.36046
2.09733
4.20081
0.928538
0.636604
5.02825
2.50076
1.02406
0.662152
1.09243
1.25474
1.43167
1.10689
0.570683
0.564472
0.523125
3.02606
1.85174
0.771137
0.38111
0.672635
1.00464
0.706892
1.30463
0.917431
1.09192
2.75788
5.50715
5.50355
1.94355
0.3085
0.824141
1.59083
1.06002
1.18668
4.79567
0.50065
1.00207
1.33462
1.14684
0.849555
0.733447
1.40875
0.478698
0.612332
3.81092
5.36388
1.90378
2.57473
4.07084
3.92356
3.9869
3.12792
4.14292
3.68849
1.93846
3.56104
1.91531
1.02324
2.67829
1.26909
0.987685
4.09463
2.78732
2.53162
3.35313
3.23904
3.39784
1.18729
2.63134
1.44185
1.72148
0.900301
1.16697
1.60232
2.55747
4.68784
2.38531
4.4625
3.59775
1.35956
1.59504
1.48484
0.897693
1.4074
3.61484
1.31037
5.12827
5.00897
2.66684
1.39479
6.47922
2.43176
1.46169
1.12925
0.72302
0.853065
1.36084
2.38865
1.60535
0.770173
2.28421
0.859594
4.63486
1.05274
2.0934
0.874093
2.26356
3.22048
4.00684
2.28352
1.72496
2.04165
2.10541
2.36491
1.93594
2.32641
2.53615
2.05736
1.99593
2.83536
2.27068
2.32239
2.36818
1.88203
2.19368
2.20805
2.22302
1.35639
1.9825
2.09406
2.25144
2.03294
2.52725
5.54919
1.54351
0.65964
2.53496
3.75117
1.88618
1.6826
1.51153
2.88153
1.09192
2.46507
1.12453
2.38917
1.66241
2.49196
1.84505
2.17105
3.00597
1.99534
2.13886
1.59544
1.56792
1.87403
2.19665
1.70035
2.37452
0.58889
2.22001
1.59229
2.30163
2.46041
2.40817
2.30655
2.33492
1.92799
1.98465
1.88503
2.42831
1.94033
2.97334
0.125467
