0.188446
0.104745
0.322789
0.332326
0.354402
0.39475
0.421865
0.462638
0
0.570763
1.7478
1.71229
0.416358
1.33976
1.76596
1.2255
0
0.0105956
1.8422
0.0317869
0.281055
0.176116
0
0.0622374
0
0.469451
1.27465
1.40835
1.7478
1.71954
0
0.729663
0.0376545
0.19954
0.157305
0.301581
0.20014
0
0.0792648
1.20009
0.943996
0.977185
1.14651
0.741733
1.78465
1.3588
1.03245
2.96537
1.76944
1.12788
0.948359
3.95984
0.885818
1.23201
1.39458
2.06002
2.56738
1.99998
0.903052
1.4323
0.913516
1.8638
1.78156
1.35898
1.29944
0.758674
1.79607
2.04431
6.35147
0.258317
5.47285
0.871184
0.873714
1.25359
0.815471
0.849229
0.838588
0.903336
0.857553
0.806872
1.36838
1.09231
1.29802
1.01944
0.821007
0.676604
0.966836
0.542068
1.15704
0.783295
3.68403
1.02835
0.69649
0.542508
1.15457
3.18202
0.923339
0.867714
1.05526
0.686688
0.806355
1.34331
2.24098
0.703439
0.801277
0.955299
0.705609
0.743028
0.703256
0.78413
0.839806
0.915619
0.836732
0.865877
1.01872
0.854075
0.864205
0.857445
0.855951
0.7565
0.749775
0.783564
0.617211
0.903086
0.806864
0.742618
0.481173
1.71493
0.760739
0.745406
0.805801
0.805872
0.798849
0.668386
0.838246
1.17118
0.818177
0.554833
0.858221
0.687682
0.897182
0.664676
1.39246
1.20087
0.926502
0.838933
0.779165
0.743765
0.895845
0.817801
0.858915
0.688727
0.777796
0.526526
0.680771
0.578937
0.680184
0.761146
0.514749
0.817511
0.783212
0.617492
0.883195
0.724973
0.768794
0.795164
0.700556
0.863641
1.65135
1.82741
0.946484
1.39216
1.07388
1.32451
0.919114
0.668661
1.42737
1.13379
3.98582
2.02059
0.748282
1.11072
0.859759
0.833532
1.07429
0.768443
0.863673
0.60927
0.62657
0.649161
0.568622
0.622597
0.612671
0.599419
0.562181
0.770497
0.62657
0.92551
0.873503
0.790013
0.837236
0.23799
0.622111
0.48561
0.401561
0.286214
0.359723
0.524629
0.395332
0.47277
0.475737
0.723227
0.62657
0.638681
0.651904
0.746454
0.650818
1.94238
0.612367
0.69111
0.61037
0.700255
0.57853
0.770856
0.567114
0.768411
0.643923
0.670526
0.813744
0.77904
0.626569
0.740342
0.605988
0.675686
1.14414
1.19684
1.27371
1.82089
0.832293
1.65827
2.57057
1.06416
2.94591
0
0.324514
0.716961
0.973541
0.714222
0.822618
0
0.382377
1.7478
1.7478
1.61425
1.69783
2.4648
1.70572
1.83842
1.40053
1.87464
1.40456
1.84863
1.88643
1.75406
1.02987
1.74363
1.01375
0.658719
1.27049
1.62586
1.83037
1.89312
1.97471
1.71165
1.3224
1.74784
1.66877
1.46332
1.40137
1.59919
1.74985
1.7478
2.59162
2.00106
1.80987
7.08681
3.7427
1.87278
3.07708
2.15826
2.3484
1.82265
1.6418
1.745
1.82708
2.10307
1.52839
1.77802
1.59285
0.972081
1.94416
0
0.700501
0.375017
0.157341
0.594409
0.163414
2.13064
2.14399
2.07404
1.84967
1.36575
1.97223
1.2989
1.80504
2.21533
1.42126
1.22789
1.83574
1.72854
0.898654
0.958545
0.995929
0.90252
1.49674
0.314216
1.31228
0.846628
0.604171
1.04718
0.817889
0.736332
0.844868
0.81803
0.876739
0.792243
0.835971
0.591844
0.773292
1.21221
0.844787
0.774589
0.516936
0.745807
0.834578
0.496653
0.776126
0.324362
0.163742
0.541411
0.426986
0.287241
0.278987
0.228256
0.189686
0.139456
0.0614414
0.192681
0.119344
0.620185
0.151186
0.279687
0.136219
1.23745
0.806763
0.683595
0.668948
0.83699
0.919853
0.850978
1.2606
0.734752
0.794435
0.574779
0.818219
0.841844
0.843569
0.877364
0.851091
0.702409
1.35095
0.891742
0.805565
1.27935
0.853917
0.893592
1.09442
1.38967
3.63202
2.06065
1.07222
1.6284
0.909441
1.41998
1.80841
2.15282
1.7478
0.676233
1.407
1.52645
1.79699
2.35113
3.05579
0.97208
1.94416
0.720541
0.189003
1.69087
0.0337343
0
0.659298
