0.756068
0.54601
0.493233
0.467954
0.395106
0.410758
0.671893
0.563264
0.733269
0.56426
0.679147
0.581315
0.448396
0.497298
0.487671
0.565679
0.878022
0.709545
0.676334
0.654598
0.4897
0.49496
0.737671
0.562738
0.807215
0.755442
0.774906
0.600045
0.647524
0.669177
0.643196
0.678642
0.668396
0.851108
0.645398
0.719867
0.60599
0.871379
0.670337
0.786966
0.786806
0.765061
0.716807
0.751661
0.775362
0.863947
0.79083
0.861074
0.778841
0.853717
0.787023
0.806074
0.779717
0.803496
0.742763
0.775999
0.842276
0.809923
0.723037
0.747808
0.804066
0.677379
0.743857
0.755705
0.813915
0.756116
0.790846
0.805608
0.890098
0.781465
0.55582
0.650411
0.821936
0.748627
0.764443
0.688317
0.817971
0.38026
0.816583
0.798493
0.715695
0.643869
0.506936
0.5914
0.695173
0.541223
0.567959
0.665237
0.70778
0.690938
0.808756
0.740514
0.799359
0.782534
0.784302
0.737528
0.848498
0.750413
0.772571
0.741569
0.79605
0.808019
0.761868
0.801886
0.759726
0.779647
0.738849
0.770464
0.712966
0.742794
0.832306
0.76204
0.665647
0.734529
0.669575
0.674111
0.658274
0.708176
0.597521
0.690433
0.674967
0.542208
0.755027
0.865082
0.656776
0.841302
0.840255
0.571075
0.684336
0.733298
0.610225
1.02381
0.686235
0.631988
0.685938
0.631814
0.721808
0.898183
0.636308
0.625649
0.721252
0.681421
0.637725
0.639785
0.564009
0.586149
0.700543
0.68066
0.614371
0.571093
0.67262
0.49458
0.706735
0.512094
0.674846
0.679205
0.605315
0.546131
0.677253
0.56145
0.643814
0.625249
0.703493
0.546359
0.712372
0.548687
0.544119
0.695507
0.543526
0.6758
0.827133
0.679352
0.553073
0.606208
0.563575
0.608612
0.743793
0.58677
0.782729
0.6566
0.715302
0.670277
0.790272
0.712893
0.841675
0.812648
0.678324
0.835124
0.760688
0.82918
0.819265
0.593683
0.668542
0.781055
0.821935
0.88686
0.467599
0.682185
0.525924
0.736693
0.700391
1.00302
0.74374
0.67689
0.782602
0.818966
0.695407
0.717584
0.66347
0.575033
0.570592
0.845583
0.614346
0.810395
0.746714
0.579007
0.784572
0.576601
0.599765
0.806202
0.74113
0.567567
0.678773
0.598111
0.620625
0.792817
0.678815
0.597861
0.652661
0.568605
0.582384
0.670892
0.666855
0.623114
0.618818
0.589658
0.568014
0.566639
0.540453
0.584517
0.694714
0.605727
1.05252
0.992218
0.913393
0.723091
1.10119
0.855087
1.415
0.796536
0.935557
0.759195
0.947855
0.728338
0.807769
0.865802
0.698008
0.922082
0.591292
0.843297
0.795741
0.715605
0.918015
0.804434
1.01404
0.65433
1.0065
0.817195
0.963535
0.671642
1.29077
0.8706
0.73491
1.05706
0.658484
0.587789
0.582678
0.965439
3.49745
0.613556
3.25223
0.617032
0.839595
0.759458
0.814277
0.67387
3.155
0.651178
0.57466
0.800974
0.872124
0.587695
0.748051
0.587569
0.602651
0.869063
2.9499
1.02925
0.800985
0.637589
0.640069
0.97632
0.631482
1.24257
0.697375
0.610207
0.887123
0.629852
0.664308
0.867896
0.808169
3.56799
1.25489
0.730668
0.67815
0.882032
0.702116
1.15098
1.56514
0.673963
1.13031
0.676071
0.741229
0.957021
0.98723
0.748582
0.928702
0.721424
0.711857
0.869895
0.855941
0.762731
0.993015
0.753217
0.760902
0.926666
0.774935
0.806414
0.759313
0.752498
0.627258
1.06778
0.6569
0.620446
0.828386
0.885727
0.639557
0.815387
0.987726
0.639696
0.943705
0.621678
0.622388
0.627847
0.825691
0.631699
1.0859
0.582134
0.618817
1.17445
0.696797
1.20206
1.11022
0.677369
0.751618
0.747341
0.592753
2.65407
1.10317
0.639999
0.764732
0.81479
0.734445
0.878507
0.873567
0.878513
0.741543
0.785308
0.979214
0.968614
1.03751
1.0213
0.861506
0.853099
0.927957
0.903935
1.04718
1.01017
0.944805
0.970552
0.961151
0.905218
0.910126
1.01632
0.857791
0.762424
0.80693
0.73689
0.762504
0.737303
0.931932
0.839322
0.665069
0.695165
0.678802
0.653291
0.726247
0.738916
0.775372
0.759856
0.669262
0.858609
0.843592
0.79428
0.756889
0.793673
0.667443
0.668295
0.977391
0.929268
0.932127
0.885272
0.897301
0.89222
0.901135
0.842535
0.927185
0.933608
0.846941
0.867633
0.865381
0.860236
0.950344
0.972918
0.764399
0.795273
0.871568
0.931225
0.933926
0.889963
0.831954
0.801135
1.03894
0.787323
0.997597
0.986269
0.989215
0.922817
0.966332
0.905653
1.12222
1.16015
1.02658
1.09641
0.892082
1.08491
1.01663
1.00953
0.814812
0.809264
0.755136
0.778058
0.916612
0.892779
0.934765
0.904865
1.03921
1.0899
1.08978
1.07545
0.952918
0.998623
0.935609
0.960527
1.04803
1.04611
0.948049
1.02131
0.953964
0.986548
1.06456
1.05422
0.725354
0.754372
0.755155
0.720427
0.875242
0.853982
0.900945
0.877543
0.774199
0.696863
0.883476
0.876782
0.893649
0.811672
0.713898
0.640416
1.13989
1.18555
1.27067
1.20138
1.20377
1.22946
1.01229
1.12722
0.853804
0.918922
0.810544
0.972365
1.11818
1.15076
1.18906
1.06327
0.885891
0.939754
1.07824
0.93776
1.11286
1.18529
0.884311
0.955705
1.15377
1.19771
1.10466
1.27404
1.28397
1.04476
1.18302
1.23366
1.05365
0.973171
1.06388
1.0829
1.17725
1.11707
1.06157
1.10946
1.04243
1.07928
1.15396
1.11523
1.182
1.15856
1.01379
1.12758
1.02986
0.999576
1.02978
1.12117
1.13268
1.10365
1.11189
1.03198
1.01721
1.11244
1.16267
1.06948
1.15875
1.16438
0.967376
1.07275
1.03251
1.1228
1.09301
1.21326
1.17597
1.29816
1.22762
1.12015
0.882063
1.00056
0.76487
0.948071
1.23252
0.910413
1.13708
1.12211
0.828019
0.825368
1.18602
1.14948
1.07617
1.12487
0.841616
0.902971
1.23566
1.23395
1.1467
1.21913
1.26874
1.27898
1.25299
1.27844
0.913804
0.96963
0.871734
0.88204
1.06802
1.00158
1.11591
0.990124
0.966665
0.98533
1.02002
1.10021
1.09934
1.09311
0.861126
0.954797
1.00897
1.13134
1.10169
1.14818
1.09236
1.14313
1.12623
1.14285
1.10683
1.10387
1.09362
1.15408
1.17086
1.13862
1.11233
1.15723
0.861306
0.835586
0.780899
0.860617
0.814687
0.814575
0.755893
0.601187
0.813983
0.733995
0.680881
0.770705
0.795146
0.877112
0.745587
0.665375
0.714535
0.496372
0.583164
0.526733
0.747234
0.657108
0.454798
0.42127
0.551271
0.565838
0.501542
0.424727
0.697284
0.70494
0.867372
0.784208
0.839744
0.715153
0.854508
0.764662
0.664434
0.673036
0.538297
0.700703
0.79117
0.709632
0.701752
0.626694
0.931879
0.723478
0.930026
0.762823
0.911774
0.961815
0.683133
0.93634
0.963913
0.774027
0.904485
0.845343
0.696771
2.04786
1.08621
0.548842
3.34353
0.669137
0.713313
0.965358
0.804882
0.652819
0.752888
0.653118
0.66574
3.4716
0.653391
0.901051
0.923035
0.728618
0.73529
0.821649
0.753793
0.92362
0.91392
0.700105
0.727593
0.796464
0.645524
0.694118
0.841814
0.775179
0.786313
0.789705
0.592942
0.709593
0.773772
0.791515
0.783183
0.798443
0.661077
0.703794
1.01466
0.922501
1.02776
1.00249
0.78054
0.822437
0.810542
0.818877
1.0427
1.00617
0.878185
0.887517
0.858997
0.906158
0.977797
0.909969
1.17282
1.17887
1.16163
1.12214
1.18426
1.20764
1.21147
1.29313
1.06196
1.15311
1.14049
1.19292
0.994676
1.21729
1.11819
1.23927
1.02662
0.763518
0.958402
1.07577
1.20302
1.23154
1.08858
1.11532
0.796038
1.04807
1.19817
1.12522
1.18541
1.11564
0.830407
1.01484
0.970686
0.768249
0.663137
0.876988
0.66245
0.738042
0.733646
0.681986
0.882115
0.822833
0.853968
0.710448
0.739287
0.762102
0.848546
0.82517
0.765044
0.610082
0.441501
0.59731
0.625361
0.650557
0.786397
0.719508
0.838441
0.576041
0.786135
0.704728
0.682542
0.600881
0.448676
0.484638
1.21332
1.15497
1.23412
1.30624
1.21692
1.23247
1.1645
1.17483
0.843392
0.95308
0.91985
0.974341
1.13587
1.08487
1.22421
1.17163
0.950555
0.995138
1.16801
1.18645
1.24286
0.958217
0.860296
1.04295
1.0809
0.912241
1.19368
1.16173
1.01458
1.30908
1.18703
1.17989
0.75641
0.766316
0.901702
0.83474
0.865486
0.816458
0.727277
0.77989
1.09157
1.07966
1.06528
1.11917
0.913491
0.948934
0.960722
0.936002
1.03441
1.03024
0.936241
0.960108
0.982902
1.02262
1.15037
1.06223
0.732015
0.831733
0.776078
0.817915
0.937569
0.989991
0.920474
0.839264
0.814296
0.679854
0.713766
0.930896
0.762552
0.900747
0.860726
0.774876
0.746727
0.746561
0.735679
0.895638
0.857799
0.682331
0.916178
0.637098
0.859217
0.740028
3.16378
0.934844
5.49369
0.89285
0.604455
0.845492
1.15001
1.01489
1.12225
0.701127
1.04645
0.749467
0.901307
0.857148
0.719436
0.765679
0.695714
0.708454
0.716038
0.605345
0.800721
0.73254
0.757344
0.738416
0.569877
0.571116
0.671413
0.49373
0.590266
0.679697
0.9531
0.585194
0.562375
0.675714
0.577988
0.753459
1.89916
0.646022
0.645357
0.717351
0.634379
0.668023
0.696426
0.607894
0.605451
0.552357
0.650577
0.598381
0.903443
0.828461
0.806088
0.789073
0.817118
0.766407
0.649284
0.609337
0.781509
0.645984
0.814933
0.767374
0.811927
0.817437
0.737235
0.457419
0.870936
0.816903
0.653208
0.713384
0.818254
0.80145
0.68726
0.617272
0.665262
0.653635
0.687214
0.689238
0.800481
0.718603
0.714754
0.694467
0.762184
0.734818
0.696333
0.758588
0.715926
0.700514
0.803662
0.754793
0.74025
0.766157
0.717164
0.752697
0.726639
0.660794
0.849054
0.7139
0.812296
0.79008
0.689182
0.769145
0.764399
0.707047
0.80976
0.801292
0.755802
0.909538
0.872629
0.781479
0.859941
0.8299
0.684509
0.694009
0.789068
0.608077
0.820203
0.84162
0.741207
0.727152
0.689805
0.633218
0.588722
0.746777
0.930965
0.685116
0.661874
0.410746
0.72417
0.73498
0.523764
0.818485
0.918063
0.871315
0.58796
0.822129
0.724215
0.541202
0.597584
0.942536
0.726564
0.781563
0.592894
0.850863
0.80275
0.760251
0.804787
0.879521
0.744942
0.793583
0.913342
0.800414
0.706429
0.648145
0.676406
0.567356
0.823608
0.613488
0.830081
0.590423
0.818999
0.87912
0.785775
0.921108
0.840841
0.774278
0.655656
0.744746
0.713404
0.656987
0.758716
0.736474
0.702974
0.722605
0.824616
0.699069
0.769198
0.753157
0.726113
0.761712
0.692082
0.692061
0.780361
0.657519
0.661815
0.708695
0.727131
0.695588
0.718772
0.665513
0.817419
0.617474
0.705467
0.67385
0.622975
0.707686
0.704268
0.697123
0.707837
0.691801
0.808065
0.675376
0.760845
0.905562
1.00006
0.860371
0.772056
0.720325
0.787414
0.98196
0.838713
0.715011
0.801529
0.856059
0.793075
0.723717
0.696057
0.76377
0.667193
0.802498
0.808934
0.606774
0.754273
0.632461
0.74024
0.731582
0.617469
0.877523
0.758586
0.654986
0.606321
0.579952
0.844575
0.859444
0.968113
0.797595
0.861482
1.01856
0.88214
0.760345
0.752256
0.812428
0.811792
0.849285
0.786663
0.938807
0.55067
0.661853
0.674073
0.728598
1.14493
0.810322
0.827394
0.928485
0.662586
0.761084
0.863037
0.864133
0.884819
0.795919
0.960063
0.753749
0.898768
0.822446
