3.00976
4.11976
2.418
2.94724
2.58492
2.69286
3.25556
3.14279
1.11546
2.74609
1.84452
1.90607
3.06974
2.48625
2.64853
3.10295
3.10404
3.82667
3.03824
3.45828
6.44732
3.46584
2.40093
2.81068
1.20849
4.46919
3.46319
3.00045
6.3567
3.99312
3.49592
2.40906
0.969499
2.12329
3.86703
2.61222
3.60937
2.46649
2.44703
1.94755
4.39935
2.98241
2.64901
3.02492
2.97878
2.62789
2.60178
4.37772
4.06577
2.05038
1.13482
1.91233
4.51842
4.09896
4.04019
2.96029
1.73571
3.66911
2.15296
2.35364
3.69867
2.19295
3.8812
2.9788
2.40907
3.60644
3.06594
3.66958
2.29648
2.21704
2.69309
1.47102
3.92625
2.3974
2.31902
3.1832
2.3072
3.53432
3.35254
4.90827
4.19437
1.13416
4.41092
2.05409
3.03008
2.63688
2.3524
3.89058
1.59035
1.95254
3.09909
3.08987
5.55873
3.26043
4.28533
3.65766
2.35195
2.71088
1.54985
3.45267
3.85353
3.30751
3.55978
3.13439
3.75979
4.65366
4.08578
3.51404
3.39734
3.45064
3.59002
2.47914
4.46434
3.1168
5.83027
3.27723
5.51035
4.16364
2.54267
3.27437
4.9478
2.62903
2.32105
2.60817
2.91926
4.25263
2.90875
2.75199
2.72271
1.22373
2.17058
3.67359
6.32729
4.07804
4.50144
4.40345
3.42606
2.78096
4.97096
2.99803
1.45017
4.72023
3.11302
4.05067
3.95601
3.13504
1.29317
2.60358
2.89696
2.34331
3.06032
3.77023
2.67579
3.24976
4.41428
2.27393
5.25216
2.65256
3.03386
0.863606
3.9459
3.98366
4.86538
4.03311
4.02903
3.91893
3.94098
3.91563
3.85752
3.91866
4.37076
3.92103
4.83002
3.93462
4.08643
3.93517
3.9189
3.92042
4.87639
3.97275
3.91344
3.92046
3.90213
3.91525
4.49238
4.36457
3.88587
3.92054
3.99205
3.90412
3.9632
3.94374
3.56767
3.2313
4.17816
7.28787
4.052
3.61754
2.38976
3.65023
2.01883
2.61215
3.17904
2.96767
2.84678
3.06662
3.34902
2.84631
2.58047
2.00381
1.19784
3.62977
3.46106
1.84136
2.8212
4.45842
5.3921
4.15413
4.61881
4.49224
2.89406
3.59947
1.20645
4.90066
4.53682
3.75077
1.36048
3.79625
3.45869
6.24819
4.70164
3.74593
2.4252
1.64127
2.93829
2.87233
3.46777
3.37366
2.97603
3.75817
3.17327
1.60319
1.3545
4.00409
3.08541
3.66842
1.39003
2.72281
2.66292
4.27442
3.71019
3.04155
3.15509
3.9312
3.97222
2.9558
3.84134
4.23874
4.25291
3.01848
3.17797
2.70243
3.80424
5.98239
3.85595
3.79086
3.62875
3.39242
3.79119
3.84777
4.3037
2.7901
3.90819
2.13987
5.62529
1.88208
4.0435
3.87692
3.4406
3.94943
2.50462
4.2034
4.15565
4.24595
4.39817
4.02086
2.23509
2.93588
0.761406
3.33473
2.01225
4.23847
0.424114
0.711523
0.603301
1.23563
2.28161
0.874029
1.52107
0.894134
1.17737
0.800906
1.37555
0.507154
1.43996
3.64979
2.17262
4.12234
0.982043
1.89318
2.15163
1.28216
0.915631
5.2035
2.60512
0.737501
4.0429
1.46841
4.1883
3.53344
0.96282
0.753433
4.14909
5.15459
4.72973
3.40878
0.77328
3.71052
4.1529
0.830707
4.60947
3.38378
1.17253
2.17785
0.696282
4.32348
1.959
0.699697
1.77837
1.10602
4.86339
4.34953
0.640618
4.12312
1.35757
0.850883
0.847785
3.89349
2.98193
3.93592
4.09655
4.42122
0.973822
0.793331
3.7277
4.08248
0.604577
3.36146
4.41109
3.97393
4.03762
1.77597
1.25066
2.06637
4.49982
4.33456
4.59594
1.07106
2.49641
4.02649
0.673841
2.19841
2.12431
3.8351
4.17198
5.57912
2.86049
0.700181
0.790971
0.711222
1.88808
0.563429
1.66913
1.49805
3.85183
4.57621
3.77749
4.67999
3.82686
4.57315
3.74595
2.23527
3.9437
4.57228
4.07288
3.91471
3.81523
3.89528
3.91926
3.9076
3.94555
4.08678
3.89027
3.91803
3.84418
4.80154
3.93007
3.92798
4.05392
3.73672
4.22355
4.10733
4.45927
4.17111
4.4904
3.77015
3.78219
4.32405
4.65487
6.14028
6.65939
3.828
5.95348
2.75098
3.92013
4.83086
3.94139
3.94447
3.83639
4.44873
3.85672
3.90455
4.15941
3.82068
3.86698
3.9166
3.84263
3.89457
3.84743
5.04317
4.17734
4.606
2.59605
3.70846
2.32573
3.92333
3.80485
3.64959
4.08609
3.52079
4.57499
3.95661
4.55275
4.52446
3.89659
3.7108
3.9077
4.46327
3.92054
3.92603
1.77649
4.60788
4.82592
4.82248
4.96673
5.02633
4.64689
3.91294
4.46087
4.63584
3.9218
3.89255
1.5684
2.8055
5.86754
3.16679
3.85358
4.5319
4.65104
3.84072
3.76594
4.34913
3.80006
3.81043
3.32131
3.77973
4.40212
4.03789
3.91763
3.97406
4.90213
3.91286
3.88205
3.94695
3.79914
3.68026
4.21008
3.92749
4.27797
3.67294
3.75625
3.90398
3.94746
3.95015
4.00871
2.21888
3.96944
4.25139
3.84512
4.64313
3.74466
3.63492
2.68417
4.49512
1.44847
4.11046
3.94621
2.42817
3.6607
3.4808
3.81981
3.98252
4.45288
4.34208
2.85636
4.00331
4.86263
4.23376
4.21949
3.37388
2.46174
4.0657
4.20764
3.95644
4.01724
4.08916
3.89478
1.04236
1.92873
3.59887
4.13433
4.25724
4.73906
4.06007
2.29354
2.34133
1.59126
3.94486
1.08398
1.23369
3.40021
3.96497
4.18249
3.97392
3.1292
3.72712
3.91842
3.92747
4.37949
3.8887
3.99567
3.84832
4.20403
4.05821
5.04674
2.52341
3.81126
3.96277
4.59231
4.59771
3.48508
3.84137
0.937735
1.0577
3.19299
4.72938
3.64829
1.28691
3.82439
4.07771
4.31639
2.40944
4.21648
3.17345
3.98996
3.82358
3.9261
4.41201
3.85954
2.50342
4.38794
1.27412
3.84423
3.82781
3.88211
0.671369
3.85807
3.63586
3.68355
3.80167
3.09909
0.907923
4.33296
1.51827
4.67929
4.21167
4.64903
3.94815
4.59382
4.19451
4.32239
6.50284
4.37447
0.841336
3.48498
4.44599
4.50071
3.95201
3.84125
3.88561
2.63079
3.99763
3.86244
1.84035
1.40203
3.84556
3.90399
4.00858
4.00966
3.95415
4.01933
4.08604
4.53177
4.46494
4.00924
3.70316
3.79069
3.63155
0.76516
0.68226
3.85546
4.90869
4.24682
4.07224
4.25093
4.21709
4.89284
4.34264
3.94959
4.06927
1.3019
3.45055
3.99622
4.40716
4.52777
4.31675
4.14035
4.6155
4.69233
4.90202
4.33074
4.34539
4.92141
4.29515
3.94262
3.75535
4.03533
4.16523
4.05382
4.20763
0.839051
1.16341
0.913958
1.21097
1.41828
1.31639
1.39635
1.29903
1.12492
1.41805
1.29436
1.4261
1.20502
0.777726
1.08395
0.995526
1.34254
1.32701
1.19806
1.14116
1.61726
1.4016
1.28568
1.40084
1.55118
0.986735
1.55242
1.31512
1.09812
0.854711
1.21687
1.01532
0.491335
0.795952
1.00012
1.84138
1.01402
0.617256
0.386452
0.952143
0.503531
0.873414
0.901432
0.848057
0.715159
1.47205
1.15043
0.671341
1.04836
0.637231
0.92513
1.41575
0.825543
1.13984
1.44829
0.896757
1.08379
0.905716
0.915979
0.954628
1.66399
1.11162
1.61182
1.56517
1.35655
1.38067
1.79812
1.15074
1.37647
1.42196
1.38498
1.41365
1.27475
1.27318
1.19747
1.43253
1.12103
1.13398
1.39798
1.23797
1.34042
1.42813
1.07919
1.25302
1.22152
1.22643
1.4195
1.57796
1.13621
1.34367
1.1074
0.973712
1.04407
1.29715
1.07603
0.912277
0.986685
0.880061
1.02994
1.00845
1.03234
1.4212
1.40488
0.683175
0.708836
0.664459
0.887949
1.00668
3.83059
4.1299
3.87573
4.36805
3.97789
4.14553
4.02366
3.86986
3.88593
3.85127
3.91945
3.96156
4.10068
4.04675
4.42553
4.86298
3.9045
4.64018
3.8658
4.10616
4.69034
3.65997
3.93657
4.47812
4.54891
4.56923
4.20227
4.0455
3.90421
3.83325
4.18412
4.41997
3.90337
4.25609
4.08134
4.53899
4.7431
4.33101
4.72157
4.42516
4.37628
3.98645
3.90887
3.92651
4.6285
4.69629
4.71141
4.59603
3.87707
3.91088
4.1314
4.1775
4.78271
4.15102
3.90403
5.11661
4.41379
4.96396
4.68119
4.48797
4.65946
4.4374
4.11809
4.58984
3.97007
4.35821
4.59541
3.89503
4.01737
3.93227
4.28148
3.85029
4.80762
4.70715
3.77196
3.84558
3.87652
4.54489
4.0185
4.0221
3.85823
3.97467
4.00357
3.93586
3.88498
3.89073
3.82295
3.79917
4.54836
4.63459
4.65153
2.82081
4.20802
3.97505
4.93054
3.80963
3.93116
3.83802
3.78925
2.52857
4.55899
4.97325
3.99776
3.93326
3.90928
3.90892
3.87988
3.83574
3.75295
3.75207
3.91515
5.2363
3.8361
3.67129
3.96059
4.77763
4.77152
4.31196
3.90977
3.90687
4.9165
4.06809
4.28511
3.75944
3.45159
3.60411
3.8659
4.18003
0.990937
1.03384
1.2344
1.22957
0.821641
1.11016
1.5118
1.02122
1.5363
2.39638
1.12138
2.07551
1.53918
0.673301
0.773959
1.93915
3.13446
1.0175
3.63228
2.22883
0.62599
0.946202
3.41404
3.04449
1.3361
1.17621
1.38875
0.789275
0.674589
2.07698
1.48562
1.20112
1.48826
1.67957
1.33481
1.67347
1.74343
1.48086
1.44005
1.43114
1.823
2.47284
2.3288
2.06596
1.83907
1.86707
1.42104
1.65635
3.21751
1.75853
1.31483
1.69515
1.75349
1.99404
2.59402
2.02073
1.31962
1.54052
1.41494
1.39486
1.60675
2.14597
1.57342
1.32115
1.37139
0.73967
1.86058
0.955178
1.53016
1.16153
1.13382
1.03241
1.55058
0.705909
0.910486
2.53358
1.63822
1.12701
1.13084
1.56851
2.47674
1.58102
1.51624
1.26001
1.26083
2.77665
1.9349
1.39533
1.6521
1.11536
2.52504
1.47603
1.0423
1.01204
1.22767
1.31893
0.95588
1.42509
1.49082
1.43009
1.82927
1.44127
1.21521
1.62327
1.06853
1.45371
1.31819
1.31023
1.84803
1.58864
1.4214
1.2226
4.34501
1.4391
1.97523
1.83392
1.64612
1.86043
1.77974
1.8121
1.644
2.16223
1.20642
1.42607
1.80506
3.92846
2.71942
1.79269
1.33853
1.17323
0.908097
1.24479
1.55842
1.12561
1.10258
1.46001
1.33371
1.1886
1.23775
1.2869
1.48939
1.0881
