OFF
274 529 0
7.84361 -13.2554 1.4665
7.58661 -13.2419 2.2669
7.03161 -13.254 2.6484
7.11861 -13.2773 1.6013
6.22461 -13.2581 2.8677
6.24361 -13.2819 1.7372
6.26261 -13.2882 0.373399
7.20361 -13.284 0.338599
7.98261 -13.2611 0.308399
5.41861 -13.2488 2.7375
4.86661 -13.2337 2.4125
4.63561 -13.2438 1.6135
5.36861 -13.2701 1.6797
4.52861 -13.2477 0.433699
5.31861 -13.2755 0.406999
4.65761 -13.2405 -0.755801
4.90561 -13.2281 -1.5742
5.46961 -13.2419 -1.9376
5.39661 -13.2661 -0.871601
6.28661 -13.2506 -2.1256
6.27761 -13.2775 -0.991601
7.09561 -13.2472 -1.9659
7.64561 -13.2365 -1.6264
7.87861 -13.2522 -0.841901
7.15361 -13.2734 -0.920401
6.39161 -5.92841 0.410699
6.01961 -5.977 0.888099
6.00761 -5.99587 0.879299
6.37461 -5.94792 0.406599
6.01261 -6.05762 0.878299
6.37761 -6.00999 0.407999
6.51261 -6.01827 -0.143201
6.51061 -5.95621 -0.147401
6.04161 -6.20188 0.886199
6.09961 -6.46826 0.903899
6.46361 -6.42074 0.434299
6.40561 -6.15435 0.416699
6.59861 -6.42902 -0.115901
6.54061 -6.16264 -0.133601
6.49861 -6.48782 -0.660001
6.16061 -6.59186 -1.111
6.10261 -6.32547 -1.1287
6.44161 -6.22144 -0.677701
6.07461 -6.18141 -1.14
6.41361 -6.07718 -0.688201
3.99661 -6.39517 1.2593
3.40861 -6.54105 0.996899
3.42661 -6.55329 0.986899
4.00761 -6.4091 1.2468
3.44761 -6.61173 0.985399
4.02561 -6.46838 1.244
4.72161 -6.31167 1.3059
4.70861 -6.25146 1.309
3.48161 -6.75489 0.993099
3.53961 -7.02127 1.0108
4.11561 -6.8782 1.2689
4.05761 -6.61181 1.2512
4.81061 -6.7218 1.3308
4.75261 -6.45542 1.3131
5.51061 -6.57689 1.2059
5.45261 -6.3105 1.1882
5.42261 -6.16647 1.1808
5.41861 -6.08786 1.1952
5.41361 -6.10539 1.1833
3.07361 -6.71994 -0.640001
3.45761 -6.68322 -1.1195
3.09561 -6.73025 -0.633801
3.47861 -6.741 -1.1105
3.11861 -6.78772 -0.627201
2.99361 -6.77761 -0.050201
2.97061 -6.72011 -0.053801
2.94661 -6.70974 -0.054201
3.51261 -6.88394 -1.0993
3.56961 -7.15032 -1.0817
3.21061 -7.19694 -0.599201
3.15261 -6.93056 -0.616801
3.08661 -7.18684 -0.023001
3.02861 -6.92046 -0.0407011
3.19661 -7.12622 0.546899
3.13861 -6.85984 0.529199
3.10361 -6.71688 0.520699
3.05861 -6.64801 0.525299
3.08061 -6.65904 0.519899
5.57961 -6.73584 -1.3821
5.52161 -6.46946 -1.3997
4.87361 -6.89406 -1.4697
4.81561 -6.62767 -1.4874
4.78461 -6.48422 -1.4993
5.49161 -6.32568 -1.4115
4.16461 -7.04079 -1.3707
4.10661 -6.77441 -1.3884
4.07361 -6.63125 -1.4001
7.10761 -8.95337 0.723799
6.71961 -8.99383 1.3037
6.99061 -9.91155 1.5967
7.40161 -9.87814 0.906499
7.27861 -10.8416 1.9386
7.71761 -10.8168 1.1152
7.87961 -10.8204 0.147999
7.55361 -9.88353 0.096199
7.25061 -8.9602 0.043499
7.55161 -11.6976 2.279
7.77661 -12.3931 2.5675
8.26861 -12.3842 1.4941
8.01861 -11.6814 1.3208
8.45061 -12.3846 0.232299
8.19161 -11.6833 0.194699
8.31661 -12.3935 -1.0185
7.85961 -12.4101 -2.0587
7.62961 -11.735 -1.8491
8.06461 -11.7017 -0.921201
7.35261 -10.9028 -1.6065
7.76061 -10.8499 -0.810201
7.05961 -9.9962 -1.3724
6.78561 -9.09795 -1.1884
7.14461 -9.00988 -0.629701
7.44161 -9.92409 -0.706101
4.60861 -9.3416 1.7501
3.99561 -9.46285 1.4295
4.10161 -10.2966 1.7414
4.75261 -10.1972 2.1246
4.19161 -11.1252 2.1061
4.88661 -11.0522 2.5649
5.72461 -10.9721 2.6793
5.53661 -10.0883 2.2192
5.34861 -9.20899 1.8284
4.26361 -11.8786 2.4696
4.31761 -12.4864 2.7778
5.09661 -12.4628 3.3784
5.00361 -11.8322 3.0049
6.03561 -12.4366 3.5299
5.89661 -11.7812 3.1393
6.98061 -12.412 3.2528
6.79461 -11.7336 2.8913
6.56761 -10.8977 2.4653
6.09261 -9.08605 1.6757
6.32561 -9.98737 2.0388
3.64561 -9.61126 -0.562501
4.02761 -9.57156 -1.1584
4.13661 -10.3849 -1.3419
3.73161 -10.4177 -0.632701
4.22861 -11.1891 -1.5753
3.79561 -11.2135 -0.729201
3.64561 -11.209 0.283499
3.59061 -10.4111 0.215599
3.51361 -9.60289 0.149699
4.30261 -11.9176 -1.8172
4.35861 -12.5041 -2.0262
3.87361 -12.5129 -0.923201
3.84161 -11.9335 -0.832501
3.70561 -12.5123 0.397899
3.68161 -11.9311 0.346499
3.85361 -12.5032 1.708
3.82261 -11.9122 1.5154
3.77761 -11.1785 1.2871
3.63061 -9.55168 0.854799
3.71461 -10.3693 1.056
6.16661 -9.21996 -1.525
6.40361 -10.0962 -1.7747
6.65061 -10.9763 -2.088
5.80061 -11.0573 -2.2479
5.60761 -10.2063 -1.9074
5.41561 -9.3541 -1.6352
7.07361 -12.4338 -2.6889
6.88361 -11.7816 -2.4108
6.12061 -12.4603 -2.8997
5.97761 -11.8332 -2.5981
5.16161 -12.4852 -2.6819
5.06561 -11.8813 -2.403
4.94461 -11.1326 -2.0792
4.66061 -9.47857 -1.5145
4.80661 -10.3085 -1.765
6.19261 -6.89639 0.932299
6.55661 -6.84886 0.462799
6.32461 -7.47051 0.993699
6.69061 -7.42369 0.513099
6.82661 -7.43183 -0.050201
6.69161 -6.85714 -0.087501
6.49861 -8.17491 1.1101
6.87261 -8.1302 0.596399
7.01061 -8.13791 -0.00590105
6.56261 -8.29071 -1.0957
6.90861 -8.19306 -0.601701
6.38661 -7.59216 -1.069
6.72661 -7.48972 -0.607201
6.25361 -7.01998 -1.0826
6.59261 -6.91594 -0.631601
5.67261 -7.16396 -1.3536
5.80161 -7.73394 -1.3466
5.09161 -7.88975 -1.4365
4.96661 -7.32218 -1.4413
5.96561 -8.4259 -1.393
5.24161 -8.57449 -1.4897
3.90461 -8.81523 -1.0661
4.51461 -8.71232 -1.382
3.77861 -8.14214 -1.0396
4.37661 -8.03426 -1.3353
3.66361 -7.57844 -1.0532
4.25761 -7.46891 -1.3423
3.30461 -7.62506 -0.570701
3.41761 -8.18806 -0.545701
3.29261 -8.17814 0.043999
3.17961 -7.61496 0.00539895
3.53661 -8.85908 -0.538301
3.40861 -8.84968 0.092299
3.87361 -8.69432 1.2245
3.52161 -8.79282 0.716299
3.74861 -8.01512 1.1024
3.40261 -8.11845 0.627499
3.63261 -7.44939 1.0392
3.28961 -7.55434 0.575299
4.20861 -7.30632 1.2973
4.32861 -7.87423 1.3668
5.02761 -7.72021 1.4303
4.90461 -7.14992 1.3592
4.46461 -8.55997 1.5076
5.17761 -8.41309 1.576
5.89461 -8.27697 1.4401
5.73161 -7.5775 1.3027
5.60361 -7.00501 1.2343
6.04361 -5.9614 0.903899
2.90961 -6.7083 -0.053801
3.38061 -6.53649 1.0146
3.02361 -6.64546 0.535199
3.34061 -6.53871 1.0424
2.97261 -6.65077 0.551099
7.92161 -12.8417 2.7535
8.42961 -12.8375 1.6059
7.94661 -13.0967 2.7783
8.44761 -13.0962 1.6268
8.63361 -13.0961 0.273299
8.61761 -12.8369 0.256499
7.81061 -13.2116 2.583
8.26961 -13.2153 1.5277
8.44061 -13.2179 0.288599
7.88361 -13.206 -1.9638
8.31161 -13.2123 -0.940101
8.03061 -13.0934 -2.1853
8.49561 -13.0945 -1.0686
8.00761 -12.8456 -2.1939
8.47861 -12.8396 -1.0812
7.19661 -12.8545 -2.8682
7.23161 -13.095 -2.8631
6.26461 -13.0971 -3.0902
6.21261 -12.8647 -3.0942
7.16061 -13.2068 -2.5879
6.28561 -13.2081 -2.7962
4.66261 -13.1987 -1.9197
5.40361 -13.203 -2.5726
4.47461 -13.0986 -2.1495
5.29061 -13.0978 -2.8547
4.39461 -12.8824 -2.161
5.22361 -12.8746 -2.8618
3.89361 -12.8865 -0.981701
3.98061 -13.1008 -0.967401
3.80861 -13.1028 0.447199
3.72061 -12.8871 0.431099
4.21061 -13.2021 -0.839901
4.05161 -13.2065 0.447599
4.62061 -13.2046 2.771
4.18961 -13.2053 1.7238
4.43161 -13.102 2.9972
3.95961 -13.1027 1.8501
4.35161 -12.8784 2.9766
3.87361 -12.8843 1.8322
5.15561 -12.8695 3.6192
5.22361 -13.1022 3.6446
6.17761 -13.1017 3.8108
6.12561 -12.8593 3.7818
5.34061 -13.2107 3.3716
6.20661 -13.2164 3.5325
7.07661 -13.2143 3.2604
7.13761 -13.0992 3.5141
7.10061 -12.8495 3.486
3 0 1 2
3 0 2 3
3 2 4 5
3 2 5 3
3 5 6 7
3 5 7 3
3 7 8 0
3 7 0 3
3 9 10 11
3 9 11 12
3 11 13 14
3 11 14 12
3 14 6 5
3 14 5 12
3 5 4 9
3 5 9 12
3 15 16 17
3 15 17 18
3 17 19 20
3 17 20 18
3 20 6 14
3 20 14 18
3 14 13 15
3 14 15 18
3 21 22 23
3 21 23 24
3 23 8 7
3 23 7 24
3 7 6 20
3 7 20 24
3 20 19 21
3 20 21 24
3 25 26 27
3 25 27 28
3 27 29 30
3 27 30 28
3 30 31 32
3 30 32 28
3 32 25 28
3 33 34 35
3 33 35 36
3 35 37 38
3 35 38 36
3 38 31 30
3 38 30 36
3 30 29 33
3 30 33 36
3 39 40 41
3 39 41 42
3 41 43 44
3 41 44 42
3 44 31 38
3 44 38 42
3 38 37 39
3 38 39 42
3 32 31 44
3 45 46 47
3 45 47 48
3 47 49 50
3 47 50 48
3 50 51 52
3 50 52 48
3 52 45 48
3 53 54 55
3 53 55 56
3 55 57 58
3 55 58 56
3 58 51 50
3 58 50 56
3 50 49 53
3 50 53 56
3 59 34 33
3 59 33 60
3 33 29 61
3 33 61 60
3 61 51 58
3 61 58 60
3 58 57 59
3 58 59 60
3 27 26 62
3 27 62 63
3 62 52 63
3 52 51 61
3 52 61 63
3 61 29 27
3 61 27 63
3 64 65 66
3 65 67 68
3 65 68 66
3 68 69 70
3 68 70 66
3 70 71 64
3 70 64 66
3 72 73 74
3 72 74 75
3 74 76 77
3 74 77 75
3 77 69 68
3 77 68 75
3 68 67 72
3 68 72 75
3 78 54 53
3 78 53 79
3 53 49 80
3 53 80 79
3 80 69 77
3 80 77 79
3 77 76 78
3 77 78 79
3 47 46 81
3 47 81 82
3 81 71 70
3 81 70 82
3 70 69 80
3 70 80 82
3 80 49 47
3 80 47 82
3 41 40 83
3 41 83 84
3 83 85 86
3 83 86 84
3 86 87 88
3 86 88 84
3 88 43 41
3 88 41 84
3 89 73 72
3 89 72 90
3 72 67 91
3 72 91 90
3 91 87 86
3 91 86 90
3 86 85 89
3 86 89 90
3 91 67 65
3 92 93 94
3 92 94 95
3 94 96 97
3 94 97 95
3 97 98 99
3 97 99 95
3 99 100 92
3 99 92 95
3 101 102 103
3 101 103 104
3 103 105 106
3 103 106 104
3 106 98 97
3 106 97 104
3 97 96 101
3 97 101 104
3 107 108 109
3 107 109 110
3 109 111 112
3 109 112 110
3 112 98 106
3 112 106 110
3 106 105 107
3 106 107 110
3 113 114 115
3 113 115 116
3 115 100 99
3 115 99 116
3 99 98 112
3 99 112 116
3 112 111 113
3 112 113 116
3 117 118 119
3 117 119 120
3 119 121 122
3 119 122 120
3 122 123 124
3 122 124 120
3 124 125 117
3 124 117 120
3 126 127 128
3 126 128 129
3 128 130 131
3 128 131 129
3 131 123 122
3 131 122 129
3 122 121 126
3 122 126 129
3 132 102 101
3 132 101 133
3 101 96 134
3 101 134 133
3 134 123 131
3 134 131 133
3 131 130 132
3 131 132 133
3 94 93 135
3 94 135 136
3 135 125 124
3 135 124 136
3 124 123 134
3 124 134 136
3 134 96 94
3 134 94 136
3 137 138 139
3 137 139 140
3 139 141 142
3 139 142 140
3 142 143 144
3 142 144 140
3 144 145 137
3 144 137 140
3 146 147 148
3 146 148 149
3 148 150 151
3 148 151 149
3 151 143 142
3 151 142 149
3 142 141 146
3 142 146 149
3 152 127 126
3 152 126 153
3 126 121 154
3 126 154 153
3 154 143 151
3 154 151 153
3 151 150 152
3 151 152 153
3 119 118 155
3 119 155 156
3 155 145 144
3 155 144 156
3 144 143 154
3 144 154 156
3 154 121 119
3 154 119 156
3 157 114 113
3 157 113 158
3 113 111 159
3 113 159 158
3 159 160 161
3 159 161 158
3 161 162 157
3 161 157 158
3 109 108 163
3 109 163 164
3 163 165 166
3 163 166 164
3 166 160 159
3 166 159 164
3 159 111 109
3 159 109 164
3 167 147 146
3 167 146 168
3 146 141 169
3 146 169 168
3 169 160 166
3 169 166 168
3 166 165 167
3 166 167 168
3 139 138 170
3 139 170 171
3 170 162 161
3 170 161 171
3 161 160 169
3 161 169 171
3 169 141 139
3 169 139 171
3 35 34 172
3 35 172 173
3 172 174 175
3 172 175 173
3 175 176 177
3 175 177 173
3 177 37 35
3 177 35 173
3 178 93 92
3 178 92 179
3 92 100 180
3 92 180 179
3 180 176 175
3 180 175 179
3 175 174 178
3 175 178 179
3 115 114 181
3 115 181 182
3 181 183 184
3 181 184 182
3 184 176 180
3 184 180 182
3 180 100 115
3 180 115 182
3 185 40 39
3 185 39 186
3 39 37 177
3 39 177 186
3 177 176 184
3 177 184 186
3 184 183 185
3 184 185 186
3 83 40 185
3 83 185 187
3 185 183 188
3 185 188 187
3 188 189 190
3 188 190 187
3 190 85 83
3 190 83 187
3 181 114 157
3 181 157 191
3 157 162 192
3 157 192 191
3 192 189 188
3 192 188 191
3 188 183 181
3 188 181 191
3 170 138 193
3 170 193 194
3 193 195 196
3 193 196 194
3 196 189 192
3 196 192 194
3 192 162 170
3 192 170 194
3 197 73 89
3 197 89 198
3 89 85 190
3 89 190 198
3 190 189 196
3 190 196 198
3 196 195 197
3 196 197 198
3 74 73 197
3 74 197 199
3 197 195 200
3 197 200 199
3 200 201 202
3 200 202 199
3 202 76 74
3 202 74 199
3 193 138 137
3 193 137 203
3 137 145 204
3 137 204 203
3 204 201 200
3 204 200 203
3 200 195 193
3 200 193 203
3 155 118 205
3 155 205 206
3 205 207 208
3 205 208 206
3 208 201 204
3 208 204 206
3 204 145 155
3 204 155 206
3 209 54 78
3 209 78 210
3 78 76 202
3 78 202 210
3 202 201 208
3 202 208 210
3 208 207 209
3 208 209 210
3 55 54 209
3 55 209 211
3 209 207 212
3 209 212 211
3 212 213 214
3 212 214 211
3 214 57 55
3 214 55 211
3 205 118 117
3 205 117 215
3 117 125 216
3 117 216 215
3 216 213 212
3 216 212 215
3 212 207 205
3 212 205 215
3 135 93 178
3 135 178 217
3 178 174 218
3 178 218 217
3 218 213 216
3 218 216 217
3 216 125 135
3 216 135 217
3 172 34 59
3 172 59 219
3 59 57 214
3 59 214 219
3 214 213 218
3 214 218 219
3 218 174 172
3 218 172 219
3 220 26 25
3 64 71 221
3 81 46 222
3 81 222 223
3 222 224 225
3 222 225 223
3 225 221 223
3 221 71 81
3 221 81 223
3 222 46 45
3 62 26 220
3 103 102 226
3 103 226 227
3 226 228 229
3 226 229 227
3 229 230 231
3 229 231 227
3 231 105 103
3 231 103 227
3 232 1 0
3 232 0 233
3 0 8 234
3 0 234 233
3 234 230 229
3 234 229 233
3 229 228 232
3 229 232 233
3 23 22 235
3 23 235 236
3 235 237 238
3 235 238 236
3 238 230 234
3 238 234 236
3 234 8 23
3 234 23 236
3 239 108 107
3 239 107 240
3 107 105 231
3 107 231 240
3 231 230 238
3 231 238 240
3 238 237 239
3 238 239 240
3 163 108 239
3 163 239 241
3 239 237 242
3 239 242 241
3 242 243 244
3 242 244 241
3 244 165 163
3 244 163 241
3 235 22 21
3 235 21 245
3 21 19 246
3 21 246 245
3 246 243 242
3 246 242 245
3 242 237 235
3 242 235 245
3 17 16 247
3 17 247 248
3 247 249 250
3 247 250 248
3 250 243 246
3 250 246 248
3 246 19 17
3 246 17 248
3 251 147 167
3 251 167 252
3 167 165 244
3 167 244 252
3 244 243 250
3 244 250 252
3 250 249 251
3 250 251 252
3 148 147 251
3 148 251 253
3 251 249 254
3 251 254 253
3 254 255 256
3 254 256 253
3 256 150 148
3 256 148 253
3 247 16 15
3 247 15 257
3 15 13 258
3 15 258 257
3 258 255 254
3 258 254 257
3 254 249 247
3 254 247 257
3 11 10 259
3 11 259 260
3 259 261 262
3 259 262 260
3 262 255 258
3 262 258 260
3 258 13 11
3 258 11 260
3 263 127 152
3 263 152 264
3 152 150 256
3 152 256 264
3 256 255 262
3 256 262 264
3 262 261 263
3 262 263 264
3 128 127 263
3 128 263 265
3 263 261 266
3 263 266 265
3 266 267 268
3 266 268 265
3 268 130 128
3 268 128 265
3 259 10 9
3 259 9 269
3 9 4 270
3 9 270 269
3 270 267 266
3 270 266 269
3 266 261 259
3 266 259 269
3 2 1 232
3 2 232 271
3 232 228 272
3 232 272 271
3 272 267 270
3 272 270 271
3 270 4 2
3 270 2 271
3 226 102 132
3 226 132 273
3 132 130 268
3 132 268 273
3 268 267 272
3 268 272 273
3 272 228 226
3 272 226 273
