0.760042
0.549206
0.580091
0.528696
0.266093
0.400354
0.609276
0.501087
0.759146
0.600515
0.631393
0.486757
0.318091
0.400678
0.567179
0.610706
0.839996
0.614676
0.650702
0.60813
0.280851
0.395355
0.607804
0.553457
0.652197
0.700953
0.604936
0.544382
0.287853
0.355456
0.684961
0.59697
1.07141
1.13213
1.15918
1.13491
1.08469
1.10069
1.11617
1.05495
1.1233
1.07583
1.07487
1.06129
0.992821
1.16051
1.09517
1.11161
1.14212
1.1438
1.16765
1.15655
1.25625
1.11246
0.96108
0.914995
1.16401
1.22388
1.08287
1.24243
1.00953
0.998433
0.946015
1.12881
1.31239
1.16737
1.29079
1.07734
0.894346
1.00027
1.091
1.00246
1.22505
1.11204
1.04805
1.1382
1.06556
1.00626
1.03018
1.04976
1.006
1.01238
1.09383
1.10164
1.1135
1.25975
1.18385
1.07047
1.15737
1.09647
1.10973
1.04815
1.16608
1.12218
1.09702
1.09615
1.12284
1.13188
1.06383
1.13017
0.976852
1.07286
1.01468
0.987379
1.00697
1.02612
1.1292
0.928287
1.03357
1.21017
0.98988
1.06601
0.99824
1.00301
0.95357
0.932507
1.29111
1.31571
1.17265
1.18585
1.22469
1.03964
1.16683
1.24
1.1957
1.1016
1.13239
1.1145
1.08915
1.21211
1.16289
1.1151
1.11601
1.07002
1.01677
1.12277
1.06183
1.15434
1.07205
0.950394
1.21481
0.991458
1.10756
1.14246
1.14574
1.14226
0.768642
0.986097
0.964029
0.758018
1.02697
0.801917
0.858504
1.02749
1.12913
0.681068
1.08885
0.66172
0.778598
1.16335
0.730992
1.32057
1.20176
0.633768
0.780275
1.20336
0.75169
1.33397
1.18813
0.691738
1.00252
1.03321
0.975243
1.05461
1.1351
0.853066
1.27586
0.805713
1.31887
1.01303
1.11569
0.77197
0.969687
1.50463
1.1679
1.13411
0.793491
1.19577
1.06885
1.82184
1.64698
0.910061
0.912636
0.905113
1.20672
0.729131
0.67719
1.04174
0.858676
1.30903
1.09537
0.709388
0.975999
1.26573
1.03964
1.32714
1.21576
0.917522
1.23132
0.771638
1.06809
0.92138
0.758475
1.15082
0.768129
1.25804
1.12023
0.837044
0.686622
1.28526
0.684961
1.13468
1.31725
0.692839
1.45785
0.695054
0.452923
1.12849
1.22806
0.660425
1.13951
0.677327
0.619582
0.83753
1.27366
0.84812
1.16302
0.891581
0.744242
0.867699
0.633029
1.17008
1.01139
1.30928
1.30635
1.03956
0.787842
0.762279
0.942538
1.05319
1.37935
0.882951
0.951203
0.821523
1.22329
1.68874
0.944937
1.3127
0.802876
1.24031
1.22434
0.686363
1.31716
0.64796
0.795102
1.42874
1.27375
0.968231
1.20076
1.05224
0.884758
1.09295
0.795249
1.3312
0.601591
1.01138
1.16883
0.617108
0.962055
0.628799
0.651479
1.02279
1.04143
0.714602
1.17251
0.702125
0.669523
1.12664
0.707906
0.848869
1.05581
0.643946
0.664521
1.05573
0.641818
0.982614
1.15018
0.72419
0.733576
1.04843
0.671312
1.02693
0.903087
0.640643
0.840063
0.646325
0.878121
0.798604
0.558461
0.817169
0.814265
1.03632
1.22642
1.06143
0.873302
0.932327
1.19088
0.979477
0.987011
1.0393
1.10275
0.550371
0.744324
0.747117
0.728671
0.934918
0.716837
0.880157
1.08479
0.904938
0.654206
1.08342
0.758842
1.00683
0.970424
0.593477
1.00146
0.566409
1.19392
0.648757
0.66088
0.799592
0.638166
0.876555
0.848528
0.653167
0.719892
0.825443
0.731252
0.751741
1.02325
0.684801
1.22933
0.699038
0.833533
0.79506
0.84629
0.622585
0.984054
0.766528
0.748458
0.806234
0.986012
0.640867
3.76945
0.639546
0.631291
0.838966
0.569525
0.880186
0.714007
0.995702
1.05813
0.761729
0.770035
0.880592
1.03197
0.967786
0.954903
0.788061
0.83534
0.953481
0.976858
0.955613
0.804987
0.871994
0.923487
0.939343
0.948482
0.737167
0.944679
0.918777
1.05429
0.925252
1.28067
0.768988
1.08927
0.721742
0.585576
1.19546
0.701795
1.01487
0.824031
1.01281
1.07014
0.906694
0.978909
0.854955
0.812983
0.961573
0.840339
0.864034
0.756263
0.912903
0.977005
0.923748
0.902991
0.89534
0.827804
0.871332
0.919985
0.940594
0.994417
0.962195
0.771243
0.851834
0.830723
1.01933
0.767516
1.01252
1.02591
0.901475
1.20502
0.977928
1.13517
1.17754
1.06691
1.19924
1.05926
0.908096
1.11627
1.13298
1.00348
0.992636
0.844564
1.05969
1.00847
1.12282
1.08147
1.2028
0.998507
0.953534
1.17932
1.10131
1.16908
1.13753
0.843349
0.983264
0.755812
1.15939
0.97857
1.10982
1.32837
1.15773
1.19983
1.11745
0.931396
0.902233
0.879921
1.0779
1.30933
1.01318
0.926716
0.875975
0.85963
0.988526
0.8095
0.838472
0.962915
0.891534
0.964828
0.981797
0.916564
0.866978
1.04147
1.00728
0.947526
0.979126
0.783322
0.924149
1.08375
0.793404
0.982311
0.874683
0.911676
0.995435
0.848064
1.03791
0.951941
1.01546
1.1994
1.02322
0.892131
0.881067
0.861872
1.04803
0.943347
0.934655
0.692438
0.939154
0.953631
0.959634
0.834667
1.21168
0.888684
0.750602
0.934736
1.14414
1.08992
0.982533
0.955753
0.908132
0.989205
0.85323
0.983116
0.961999
0.88664
0.901124
0.971707
1.16722
1.11777
1.07923
1.19782
1.16701
1.21786
1.19646
1.12221
1.09071
1.24919
1.035
1.06102
0.941124
1.03499
1.24938
1.05799
1.25443
1.36061
1.13576
1.11793
1.2171
1.00034
1.30148
1.18558
1.11509
1.15708
1.14243
1.19443
1.11161
1.24748
1.17264
1.1645
1.24275
1.26508
1.11583
1.11228
1.25981
1.16268
1.15977
1.12221
1.08811
1.46533
1.09474
1.21033
1.18951
1.20481
1.18603
1.19516
1.32468
1.0564
1.26249
1.24266
1.21021
1.21657
1.10839
1.35574
1.17642
1.1717
1.11043
1.0588
1.15496
1.09984
1.2311
1.12265
1.22312
1.12482
1.14437
1.11168
1.19569
1.13513
1.19318
1.1155
1.12122
1.02932
1.21399
0.963137
1.12333
1.19815
1.05484
1.18151
1.07808
0.986589
1.14227
1.20558
1.01082
1.2646
1.02972
0.952287
1.14268
1.05057
1.17103
1.0507
0.914065
1.17614
1.19113
1.24808
1.25543
1.17875
1.21721
1.35813
1.31791
1.29079
1.233
1.14148
1.21375
1.02118
1.39552
1.22546
1.33984
1.37563
1.15498
1.28637
1.38553
1.23618
1.05704
1.17712
1.1735
1.13373
1.22604
1.14023
1.26415
1.13508
1.16156
1.20144
1.21658
1.15361
1.23775
1.2316
1.03123
1.28523
1.18454
