2.54437
1.73341
3.83771
3.45463
3.27886
3.62721
2.94537
2.78516
3.82304
2.94402
2.75984
4.16064
3.07301
4.36322
1.39718
4.90368
5.61944
2.94376
1.3943
4.90364
3.07311
4.36316
2.7598
4.02047
2.54437
1.73332
2.94536
2.78523
3.27882
3.62706
1.24076
3.45467
3.74654
3.30396
7.19228
6.77284
3.58427
6.11634
2.54185
5.39658
2.84517
6.14131
4.81063
3.33318
3.58417
6.11635
4.81116
3.33309
4.24252
6.14206
2.54186
5.39658
7.19228
6.77311
3.74694
3.30386
0.275719
2.32878
0.386622
0.310455
0.459075
0.179848
0.281768
4.84382
0.377698
5.72976
1.7433
3.07387
1.11668
0.389588
0.520672
2.50902
0.5841
0.398861
4.1185
1.26951
2.63435
1.28988
1.04628
2.4753
2.50259
2.34564
5.46059
2.34617
9.28288
2.47531
1.04626
2.47508
9.28288
2.4751
5.46066
2.34608
2.50261
2.34555
2.32876
0.386591
4.84383
0.376555
0.179913
0.281472
0.312083
0.458916
0.542766
4.24406
6.41447
0.271324
0.473489
0.868113
0.563013
5.12271
4.47802
1.26864
2.62433
0.326708
3.20186
4.53827
4.72928
4.20122
4.65956
2.01809
0.58337
0.409413
3.36395
3.07388
1.11668
6.23903
4.60318
1.25014
1.79546
1.80051
2.97125
2.58815
2.88248
0.827304
0.764748
0.501538
1.65509
0.921474
0.896356
1.23649
0.792252
0.827331
0.764748
1.75636
0.792252
1.21954
0.896356
1.24755
1.65513
3.37641
4.60316
2.58814
2.88247
1.84079
2.91586
1.44241
1.79554
3.57789
4.53278
3.34239
0.383407
2.53843
4.45225
0.670139
2.46309
1.42191
1.28024
1.02316
1.76814
3.01766
1.37264
6.16181
1.80599
1.0422
1.01542
4.01794
2.57275
2.18927
3.08382
1.26335
1.24803
4.31623
4.148
2.71662
4.48719
4.42406
2.32987
3.71727
2.7647
1.26983
1.5275
1.0641
1.52467
1.28658
1.94417
1.33783
1.73104
0.789895
1.12542
1.45074
1.13452
1.80462
1.25519
1.54804
1.06216
0.762154
1.07586
1.20493
1.05346
1.266
1.43849
1.99233
0.964527
1.27143
1.63332
1.56553
1.94879
1.38775
3.40008
1.04414
1.58714
1.42183
1.31539
1.43123
2.11109
3.01514
1.37338
1.02316
1.76809
3.57789
0.46372
0.555611
1.92359
2.53844
4.45218
3.34243
0.388314
4.31628
4.02168
3.27068
3.08785
4.42486
4.58102
2.69031
4.49776
0.993695
1.01541
1.09701
1.24803
2.18929
3.88049
4.01797
2.80844
2.14861
1.66779
1.82665
1.76049
1.71148
1.9808
2.58699
1.83628
1.4544
1.22821
2.16925
1.81674
1.78973
1.79373
1.7834
1.61417
1.43619
0.706912
1.85933
1.41097
1.80926
1.79373
2.20213
1.8804
2.34857
1.66765
2.64467
1.83611
1.71314
1.78458
1.91035
1.65726
1.05677
0.867277
0.78409
0.60786
1.95438
1.31169
2.75941
1.21084
1.11731
1.41431
1.05067
0.922746
0.628638
0.744536
0.59807
0.767536
1.13564
2.72979
0.84712
1.19049
0.879836
1.28201
1.75001
0.721516
1.57867
0.718239
1.70651
3.20657
0.976599
1.11061
2.24168
1.33697
2.32365
2.65898
1.54105
2.21486
2.76941
2.0006
2.63644
2.58918
1.29037
1.23581
1.96587
1.6854
1.84358
1.67821
1.59833
1.67623
1.23488
1.35926
1.59039
1.67627
2.51312
1.67273
1.72296
1.64199
2.32365
2.659
2.63643
2.70119
2.76946
2.00058
1.54115
2.21487
1.57841
0.718193
2.63466
1.34391
0.979851
1.1105
1.56985
3.2512
1.87235
2.17129
1.56589
0.650681
0.801097
1.28547
0.838878
1.38795
1.60413
1.41473
0.672621
0.836575
0.646973
0.744673
1.15519
0.922731
0.981313
0.793879
2.75618
1.2067
1.15979
1.31284
0.788593
0.57559
1.11073
1.1262
0.275694
2.05026
5.00476
1.75492
1.01143
0.777643
1.79808
1.10121
1.50026
1.68808
2.93092
1.7555
0.592331
0.791576
1.06808
1.1012
0.706624
0.864033
1.36144
1.75507
1.47676
1.44881
1.11833
0.806835
0.862328
0.907927
0.389067
1.73484
0.275685
1.88344
0.471325
0.328602
0.491839
0.587581
0.444162
0.246186
0.304538
0.193945
0.973473
0.637054
0.482624
0.632972
0.340907
0.408753
0.679165
0.563127
0.867318
0.936858
0.908533
0.756313
0.471445
0.485262
0.815859
0.967152
0.887583
1.02109
0.884708
0.449372
0.750495
0.580457
2.4546
1.14272
1.2136
0.545721
1.23056
0.676408
0.20854
0.349307
0.288385
0.348347
3.46859
0.696285
1.34128
4.17791
0.221209
0.299875
0.714238
0.524124
0.735575
0.444956
0.584599
0.4139
0.200197
0.195253
0.314007
0.285688
0.431217
0.361473
0.202692
0.211163
0.174629
0.180994
0.412833
0.370982
0.843256
0.750706
0.120692
0.836536
0.282937
0.468285
3.34865
2.34107
1.735
0.0437854
4.11623
2.96142
0.284308
0.135073
0.0369774
0.170397
1.73509
0.0292214
0.0379446
0.170396
0.284316
0.0343984
3.93408
2.96186
0.843255
0.750706
3.34865
2.34116
0.329801
0.39994
0.123809
0.403836
1.04909
0.564884
0.288559
0.348423
0.208637
0.349392
0.854949
0.643129
0.396499
0.361441
0.444374
0.370945
0.175718
0.18013
0.197682
0.208331
0.735564
0.445225
0.313672
0.286044
0.200156
0.195337
0.561362
0.413855
3.46858
0.696337
0.71432
0.524149
2.74872
0.299937
0.713042
4.17726
0.471271
0.328573
0.304276
0.195874
0.44434
0.344889
0.491943
0.740801
0.887622
0.97321
2.46234
0.741774
1.23762
0.655559
0.399148
0.449462
0.871389
1.1577
0.81595
0.967161
0.468659
0.361521
0.969637
0.70795
0.988941
0.55266
0.678991
0.680094
0.382563
0.408805
0.60808
0.557973
0.656294
1.1088
0.334674
0.239109
0.508974
3.82415
2.55125
0.574307
2.76773
3.05248
2.98607
3.5069
0.805695
3.31168
0.387381
3.03161
5.72942
1.18579
2.28997
0.521838
0.386649
0.504061
4.01972
0.900091
3.87806
4.03504
0.693416
0.59354
0.374718
0.246807
0.279724
0.336531
1.11395
7.05989
4.47315
3.70198
3.99484
5.26971
3.0187
7.26583
3.55292
1.14991
2.89161
3.82772
3.8437
5.23182
1.20481
7.94967
3.55304
1.14993
1.20491
7.64944
3.84372
5.23184
2.89166
4.07108
1.11401
7.26964
3.01876
4.90132
3.99488
5.2698
4.48744
3.70229
0.656414
1.10907
2.55147
0.574392
0.509285
0.238354
0.334963
0.243268
3.87804
4.03501
0.279695
0.280628
0.375005
0.207159
0.693488
0.59468
5.72942
1.18579
4.01972
4.36686
0.386102
0.549915
1.94396
0.521532
2.7677
3.37399
0.387062
3.03221
0.805442
3.0434
2.98612
3.50695
4.48439
4.78392
3.64063
3.29692
3.61191
1.75955
2.73924
2.78442
1.82183
2.23708
2.97048
3.32287
3.89551
6.36749
3.52418
6.54754
1.2103
2.99498
3.52424
6.54761
3.8955
6.3676
3.07729
3.15838
4.48441
4.78386
2.7392
2.78448
3.61195
1.7595
3.56719
3.29702
3.56055
4.98125
4.96287
3.62128
4.70215
4.67277
4.64223
4.47866
5.57331
2.67372
5.57353
2.74908
5.39313
4.10778
4.76948
4.18113
2.3473
3.92374
2.29874
3.85679
5.42735
5.19301
6.48485
5.56713
5.90982
5.79246
4.67668
4.33093
4.58585
4.67372
4.51709
4.67183
2.92736
4.60298
8.15556
7.97041
4.44267
4.60133
4.47464
4.73556
4.30458
4.69482
4.50052
3.83272
4.79042
3.88576
4.13655
5.9096
4.3944
4.67067
5.72942
4.47815
5.00548
5.55535
4.54496
4.20009
2.59361
4.67067
4.66442
4.74961
4.67067
4.24029
5.51977
4.59955
1.29883
2.77458
4.59684
2.53959
5.75261
4.15236
5.83996
1.34089
4.64786
4.45632
4.92393
4.46017
4.05733
2.79468
2.70621
2.73647
3.70967
4.42994
3.63946
4.64397
3.6247
5.22115
5.39488
4.2035
1.40209
1.9362
1.64946
1.59891
4.45998
1.21107
2.71934
2.17871
3.89381
0.705459
4.59228
0.958933
2.8088
4.46458
3.70717
4.53094
4.45715
0.79078
0.846492
0.544545
0.319
5.89317
4.78557
4.5141
1.11167
0.527569
1.96049
2.01929
3.93883
5.00991
0.618195
0.915467
1.10836
0.773228
3.14656
0.923171
1.57495
2.78214
0.652147
1.94904
2.69784
2.5243
5.38449
4.62683
3.61793
4.0559
3.54015
2.68813
1.29292
2.63018
2.78537
3.63008
2.73673
3.93576
3.83656
1.72765
1.29286
2.63007
3.83615
1.72751
2.73222
3.89905
2.78425
2.73667
2.69756
2.52408
3.54018
2.68803
4.47735
4.05594
5.63246
4.6837
3.89387
0.705408
3.70717
4.53094
2.80876
4.46456
4.67325
0.958436
1.1592
0.977326
0.65193
1.95285
2.29156
2.11891
3.52646
0.923104
1.04516
0.527636
0.543657
1.28846
3.93507
5.0094
1.72643
2.02006
0.40988
0.791725
4.4902
4.51383
0.319515
5.89078
1.67411
0.544545
4.67067
2.94779
4.36916
2.56641
3.99618
2.79468
4.92393
5.70297
1.15575
1.3608
5.83996
2.7756
5.75255
4.16251
2.61038
2.53959
1.4021
2.54806
2.71935
2.17871
4.45998
0.955375
1.64947
1.71763
3.95524
4.42993
5.39488
4.21801
3.44132
5.22115
3.63946
1.53709
4.67002
4.60294
4.47464
4.67067
4.4564
4.67067
8.15554
7.52626
2.59361
4.67067
5.51977
4.59954
4.67067
4.24029
4.66442
4.74961
4.39439
4.67067
4.46259
4.20097
5.00546
5.55534
5.72942
4.47811
4.35446
4.69479
3.81414
5.9096
4.79036
3.88576
4.50052
4.8156
4.76039
4.56303
5.38633
4.97468
4.39522
5.31808
4.50984
4.47866
4.70212
4.67277
4.94937
4.11797
5.90982
5.79246
4.50877
4.67183
4.77531
4.67372
4.29589
4.33093
5.42251
5.31593
2.29914
3.85768
2.33192
1.16596
1.93025
4.67067
2.91292
5.16183
0.337565
0.766999
3.02129
4.33166
1.5969
0.992685
4.66384
0.542435
0.388041
1.19157
1.2462
0.838721
0.817702
0.620223
1.6354
0.316148
0.487051
1.94326
1.08267
0.65515
0.664682
0.905452
0.93728
0.203212
0.282173
4.94608
0.758195
2.63487
2.95156
4.30851
5.72942
3.71681
0.71828
4.63243
3.63288
2.87001
3.5389
4.94705
1.44465
4.59026
1.72031
4.34961
1.61036
2.37623
1.56771
4.16481
0.549694
1.92836
1.04867
0.371713
0.65909
1.09686
1.98391
0.44193
5.18741
0.596881
3.27485
0.773328
1.82687
0.608599
0.991258
4.38448
1.3143
0.703555
0.660412
0.584267
0.644752
2.19264
4.67067
1.90393
1.14325
0.663029
0.52888
1.35688
1.42524
2.13799
1.31675
1.01688
0.929884
0.621508
0.674217
2.58494
4.68123
0.586319
0.526455
0.371446
0.326209
0.589931
0.619959
0.811173
0.60748
0.915819
0.664019
0.734665
0.478643
0.261789
0.29192
0.346824
0.4451
0.538645
0.510808
0.295296
0.238334
0.314012
0.165717
0.246519
0.408296
0.447877
0.287767
0.230368
0.183607
0.0997377
0.114599
0.270607
0.251683
0.0261711
0.0442666
0.118046
0.290684
0.100842
0.0961034
0.138539
0.0881789
1.12312
0.831693
0.635343
0.841787
0.601396
1.49994
1.30932
1.26949
0.166995
0.0717922
0.185797
2.83808
2.77202
2.56578
0.457704
0.144997
0.166999
0.0826329
0.457698
0.237867
0.485155
2.56573
2.83668
0.221755
1.00295
1.06508
1.30932
0.899981
0.398846
0.85608
0.537861
0.917406
0.991215
0.650609
0.31357
0.436254
0.254879
0.288696
0.565781
0.483026
0.026171
0.0379678
0.153887
0.0788943
0.101987
0.0960989
0.15222
0.290659
0.447879
0.287784
0.265024
0.261463
0.0997271
0.129483
0.215592
0.166718
0.60353
0.510865
0.235296
0.481852
0.313973
0.165657
0.295247
0.24228
3.7476
4.67067
1.5635
1.42524
0.663283
0.439227
1.90425
1.142
0.687097
0.983192
0.553641
0.619284
0.73796
0.449804
1.65532
1.70752
0.586322
0.52651
0.793385
0.609107
0.403968
0.600164
0.369234
0.4052
2.14586
1.10407
2.5849
5.00675
0.500383
0.673743
1.01691
1.10429
2.63487
2.95156
4.6395
5.14338
3.7169
0.717652
4.30851
5.72942
1.15117
2.25964
0.773236
1.82671
0.664105
1.73088
0.595791
5.18724
2.37631
1.56733
0.364695
0.660353
6.97036
1.04861
4.18751
0.549685
3.13923
3.53889
4.34961
1.61037
4.59002
1.71857
4.94709
4.4525
1.2468
0.723483
0.387862
1.19207
1.48442
4.67067
2.6048
4.33083
0.338422
0.660479
2.91292
2.83601
0.655128
0.664782
4.92856
1.03622
0.210708
0.282178
0.905822
0.937954
2.30471
0.486856
6.97053
1.63502
