5.23528
7.74914
10.631
7.53771
8.89347
8.79108
4.9089
9.01842
8.32465
12.0298
10.0265
5.35733
11.6056
9.16309
8.6533
7.69911
6.06442
7.26563
7.86758
6.548
7.44366
9.12573
8.022
6.95327
10.0249
9.62862
8.07706
8.42675
9.82067
10.3357
7.23989
9.9413
4.38511
10.9242
12.8824
8.06085
8.04501
8.24572
7.99756
7.5788
9.47179
8.25019
4.48658
9.49332
7.65044
12.153
9.26049
12.2826
14.0707
7.981
11.9586
3.03798
7.65759
6.87204
3.15847
9.66955
4.32128
4.63591
5.85264
7.6429
7.58831
8.91398
6.73745
6.73954
1.77022
8.22497
0.620455
4.5873
2.33779
1.14704
1.29279
1.15978
1.09116
1.30622
1.75852
1.07853
1.00495
1.23502
1.34232
1.07167
3.37729
2.88198
4.01784
2.02363
1.20887
1.15999
1.30229
1.57212
1.64256
7.20042
1.08299
1.28359
1.77175
1.5607
2.18991
2.14409
2.52202
10.0235
5.40103
4.1989
3.0281
2.27474
13.0464
9.85308
3.33419
0.946512
2.62657
2.92396
5.91256
5.97629
5.26589
4.78557
7.97132
5.22572
1.24597
3.25376
1.59576
1.29025
2.58273
2.58572
4.96225
5.77045
9.97904
1.32712
1.94836
6.44392
1.72268
1.81105
1.49745
2.01766
1.56408
1.76952
1.48082
1.5219
6.7933
4.43051
3.89453
3.82155
1.99638
0.789309
0.858463
1.81772
2.55522
1.85871
6.97218
0.776498
0.927529
0.828534
0.951562
0.876536
1.68182
2.62293
6.56899
3.47284
1.78723
1.7325
1.93538
4.61608
1.07435
1.19276
2.63442
2.03178
7.23723
5.14478
3.02634
1.44907
2.09622
2.92842
3.9739
3.86073
5.22875
5.48178
0.981501
9.27386
7.05842
8.22714
2.13712
3.15737
2.97227
4.22927
1.60186
2.36789
3.75852
6.75062
4.39628
1.77767
2.57236
1.49833
1.48026
1.60667
1.27205
1.76273
1.34853
1.83719
2.97545
2.69068
0.872932
1.63372
1.27329
1.74128
1.22354
0.978602
1.26516
1.32785
1.42452
1.5849
1.44754
1.23286
2.16971
1.69788
2.21641
1.90484
1.80049
1.78547
2.15835
1.38608
1.81168
2.664
1.41872
1.5534
1.76345
2.03789
2.07968
1.98216
1.09414
2.78113
0.813799
0.931943
2.02997
1.77163
1.38692
3.49985
0.772913
2.30797
1.97899
0.763761
6.48976
1.37632
5.70655
1.70625
1.57468
1.09648
1.96801
1.04424
0.821832
4.58092
0.777003
1.6575
6.11362
5.91899
2.16928
5.78874
0.882794
2.34264
2.46327
1.20568
4.73076
2.76097
4.29849
1.72863
2.6681
0.679493
2.82696
2.84412
1.19909
0.714343
0.805347
0.829019
0.70679
1.08619
1.69055
1.44034
0.728943
0.638854
0.546275
0.657421
0.855073
0.62131
0.907779
0.830562
1.57125
0.370648
0.927262
1.76914
0.863834
0.503801
0.712859
0.602043
8.79956
4.65577
2.77468
1.15177
5.55016
3.99829
1.88276
3.45261
1.67926
1.41852
3.18635
1.63482
1.77754
1.35189
1.67381
6.75719
0.982614
0.922062
2.47801
2.69972
1.45017
2.12475
1.74322
1.74242
1.97026
2.46802
3.94983
3.6651
2.4804
4.14519
2.64714
0.930446
11.2102
9.32315
7.75525
12.0917
2.28594
1.77752
8.49006
10.1538
2.46252
2.10094
5.90007
5.33828
6.33042
5.6196
9.20829
8.57678
3.42819
0.999677
2.59032
11.9525
1.36497
9.28013
3.17585
1.96823
9.78844
2.09721
8.50689
1.94696
4.9778
4.16958
7.84065
11.8397
9.11885
8.6182
3.18805
4.79689
5.09675
8.53512
8.54034
7.56313
4.75626
9.37227
8.435
10.047
13.3022
12.0276
4.72029
6.12958
6.7979
9.29131
4.7191
11.7903
5.0421
6.13722
7.68749
5.64041
9.89285
8.72416
8.91349
9.94177
9.88798
8.51644
3.5906
1.95923
2.97
5.20626
7.61539
4.16561
9.09559
6.1481
6.87701
10.2383
4.15794
4.58945
7.19914
3.46632
6.10343
4.16051
4.83931
3.12666
4.10376
5.1194
6.50066
11.7699
8.07638
8.75219
3.32782
3.12609
10.3954
8.31678
6.92948
5.79271
7.79656
5.2936
9.7128
3.09952
8.96599
10.4653
6.35659
4.15189
4.22798
6.53201
9.02909
7.15637
6.05758
2.49447
7.44293
3.2022
5.4004
4.04642
7.71834
4.97963
4.47854
4.55192
4.27358
7.02751
8.26648
6.37701
8.2908
5.67333
6.86756
6.53141
6.12462
3.42715
8.91359
6.2333
6.05059
5.33969
14.0335
5.38405
15.4539
3.31613
14.3477
6.7331
11.0989
7.55299
4.67578
11.8511
6.50802
4.95143
6.73848
12.2098
3.95822
5.99805
5.71936
6.97753
4.98101
5.52393
8.21803
8.35782
8.6955
8.41198
2.06678
2.45747
6.4435
7.91321
9.31304
1.84895
9.69913
6.35647
9.99014
6.54531
6.86915
10.8427
9.90202
11.0188
6.3659
7.9843
9.46037
13.2359
6.41243
13.4066
3.10119
12.4292
5.5452
5.10216
5.27337
7.07476
12.4891
5.38265
14.4138
14.6355
11.6736
9.88048
10.4751
12.2438
3.75437
10.1355
11.6059
3.65395
14.5769
2.92429
6.9048
5.19425
5.63255
8.49817
7.57454
6.22541
12.2298
7.3522
11.493
6.28423
8.99627
6.13339
9.1611
7.39135
10.4448
9.83642
11.6076
6.514
9.40423
11.3823
10.1357
8.11395
10.0079
4.01739
6.52584
6.02816
9.55101
9.53869
12.0118
8.2047
1.82356
1.903
3.2794
3.50257
7.88182
4.20128
6.24082
6.68996
9.69895
5.86215
10.3014
4.67506
10.5292
9.85376
5.78748
5.03629
8.68399
4.23017
9.72768
9.7005
12.3969
5.70388
4.67556
7.66448
11.2337
7.67228
2.29234
10.4151
3.06424
9.23123
4.42438
5.80256
10.6297
9.70491
2.13507
1.72475
1.96492
3.35819
2.39124
1.38797
1.6103
1.71328
3.57786
2.71861
3.83052
0.957754
1.27697
1.14444
1.68842
2.4964
1.50164
0.650417
1.07474
0.636821
1.0809
1.36282
0.623757
1.33095
1.51992
0.849231
1.34451
1.0714
0.865285
1.0799
0.95424
0.719278
2.39177
1.25414
1.16783
1.26055
1.44136
1.28368
0.861086
1.37952
2.43642
2.94747
0.849714
2.84397
2.3087
1.32126
1.59903
1.02469
0.716886
0.676877
1.11766
0.791323
0.990562
1.26825
0.648804
1.00862
0.8096
1.12272
0.71416
1.22017
1.0489
0.925128
1.08096
0.772993
3.91555
6.8645
6.49611
10.718
4.18693
4.3692
2.26843
2.63055
10.625
8.90061
3.3694
5.05335
6.79836
5.23606
7.31023
6.21632
1.34868
7.52287
3.30272
0.966269
4.74179
7.59886
3.53981
4.96735
6.31424
11.4191
2.27596
8.64175
1.68178
2.66044
5.74683
2.55096
5.0573
8.04315
6.58751
12.2077
7.27248
10.5502
9.17064
9.07669
5.7208
8.67469
6.74818
10.9372
6.43254
5.97827
10.2672
8.86968
8.18704
9.34183
6.91879
9.30144
9.11098
7.63438
7.42523
11.5331
8.19143
8.34639
9.49296
8.68954
9.93651
11.0231
10.2054
9.0568
6.2275
6.69186
8.01462
9.62317
5.88401
4.31905
6.62329
5.02463
9.94712
14.1318
4.03906
7.60305
3.53518
5.71636
5.17247
8.33617
5.24548
5.8098
6.11335
10.3119
1.50683
11.8833
0.957435
4.82243
3.2164
14.8013
1.88809
4.66101
2.93851
4.98562
7.58459
6.1057
1.47412
0.960263
0.682635
0.77952
0.965663
0.905184
0.819655
0.810401
0.908368
0.604663
0.847918
1.054
0.837166
0.96685
0.835116
0.655838
0.886904
1.07436
1.26294
1.23889
1.33867
1.33883
1.22509
0.942322
2.96109
1.0454
1.34204
1.41415
1.5331
1.22982
1.78727
2.37676
8.69578
9.50428
0.944338
1.48125
1.31469
1.77103
5.07785
4.5868
7.00258
0.890602
8.66735
0.949692
1.19053
0.750869
0.908573
0.937298
2.33566
1.31222
2.91233
0.858289
0.978258
1.23204
1.32642
0.843284
4.95629
1.52914
2.33274
2.03416
1.0017
1.00541
0.957711
1.56903
6.67062
11.8042
11.0539
12.0138
10.7431
9.22459
8.57231
9.23512
9.69133
3.78083
8.50713
4.10482
12.3628
8.90226
5.41022
7.85218
9.48491
14.1771
9.87849
12.4343
11.4659
8.0535
13.4714
7.29854
11.3246
8.66789
9.02446
9.43306
10.4861
12.0697
12.1975
10.7874
10.166
7.02472
5.99117
7.1648
11.7309
8.51056
8.31618
8.47696
12.4069
10.3157
11.5316
5.3696
13.1838
10.0117
10.6604
10.3641
2.47626
11.8386
5.74343
7.87552
11.1167
10.9142
12.0823
12.5087
10.49
11.4147
9.22066
10.2939
9.23886
11.9521
9.65741
12.2737
10.3383
3.53495
9.18624
11.408
6.73808
5.46017
2.08615
2.71237
10.9166
5.51846
7.13703
8.7087
8.35756
5.67315
9.3466
2.15487
3.87878
2.90006
3.83152
8.20542
3.80867
9.79305
4.68827
3.9194
3.08652
10.9152
6.5014
6.42307
1.31689
2.32672
10.6541
4.72426
8.33062
9.2353
3.95644
5.56507
9.04419
9.22742
11.0739
11.4822
9.75922
7.12493
7.93685
9.63808
8.20322
9.67088
4.54692
9.08384
9.90018
9.28251
10.5537
9.64363
11.8651
11.4453
8.79691
9.72561
8.12978
5.27583
9.37182
7.86516
11.3369
8.02669
8.97028
6.28297
5.13269
4.24492
4.36434
12.4075
6.80533
1.70843
1.36219
1.48577
4.38397
3.77033
9.52415
3.11072
8.7947
3.25644
10.9621
6.63446
8.782
5.28062
5.43802
6.34879
2.72869
5.35076
5.49825
5.63905
5.52735
8.77806
1.17043
4.06324
3.86725
9.28646
5.16339
2.49164
7.74731
8.2726
2.55141
8.49204
1.53425
1.37022
5.47423
3.47306
10.7469
2.5141
6.93873
11.2734
4.40614
3.60002
1.32035
1.10292
7.89756
3.24689
2.64903
5.01964
8.35478
5.52119
6.03494
5.06811
3.40744
4.5774
14.5633
7.40425
1.21707
4.4014
6.63006
7.68811
5.49818
12.1515
11.7203
12.5112
9.25626
7.74711
11.5438
10.072
12.2794
9.31548
9.55599
11.7424
8.47602
10.5936
6.84251
12.198
5.95896
9.0506
10.0398
9.02049
8.98964
8.34646
8.98023
8.37065
4.41733
11.9513
8.40603
8.0949
6.54701
8.43997
5.83234
7.76166
5.34618
1.80145
9.02103
10.5646
2.02677
6.56052
1.82752
5.60175
3.27391
4.24089
4.81289
3.72602
1.26903
6.74724
1.60071
1.36163
7.85325
7.02611
4.86519
8.17477
2.16977
2.39645
1.58535
1.73022
11.0626
2.92746
9.56001
8.38203
0.934985
1.41633
4.71426
3.09789
4.24314
0.986469
1.52669
1.69298
15.0524
2.12731
10.2639
9.00669
3.67133
1.49663
1.07631
1.59313
10.6779
5.16836
5.38826
0.474898
2.75421
1.11108
3.38722
2.06586
7.66294
16.4824
1.34877
1.33195
1.96886
2.2299
12.852
1.07527
10.316
1.1442
6.57473
1.32098
7.31121
2.32873
3.64809
7.63603
4.55217
2.09386
1.5937
6.49135
6.16797
4.88237
4.55701
3.75352
3.39934
3.47643
4.63702
4.14343
2.38476
1.78057
1.70251
2.00806
3.17679
4.60125
3.49574
3.35685
7.73245
1.7255
1.25906
1.73384
12.577
2.46189
2.32575
5.14269
6.93608
10.8698
11.5437
9.89394
9.72687
9.80601
11.9315
11.1934
13.1728
7.28682
13.8226
9.73046
11.3895
11.0183
8.48293
4.60378
8.68048
11.6099
10.5086
8.05913
8.97706
9.44357
3.95758
3.97938
8.72137
6.01618
8.0226
6.08573
8.58926
4.48761
3.05904
12.2428
9.86773
6.86393
5.55141
5.88438
6.04397
6.5433
6.72027
6.9549
7.18963
7.53132
7.07605
5.99107
6.32269
7.47659
6.82297
2.14069
4.12595
2.55056
2.58389
5.61128
3.51095
3.82671
5.16879
10.4299
12.6285
10.2988
12.0597
7.55585
9.20542
12.2861
7.66527
13.297
8.42896
7.77489
8.54142
11.4039
8.85475
8.66132
10.6874
11.9333
9.10788
7.17651
11.9508
8.31094
9.90947
11.1513
10.3248
12.4335
12.8818
12.0057
9.29548
8.35794
7.71972
6.82536
7.86258
1.89666
4.54918
5.71062
1.41839
1.83049
11.216
4.97195
2.00348
6.6441
1.44001
8.27186
7.63071
6.87175
2.31592
1.85975
9.91348
13.7491
9.69479
10.8972
5.22918
6.87288
6.75763
6.72213
1.52663
9.78947
7.62047
10.2517
7.17771
4.8012
9.35925
9.30058
8.48119
3.7309
3.3645
2.98707
2.20901
3.49281
5.61724
5.38223
4.64449
6.22321
5.7925
6.46532
4.34455
6.0514
10.1248
7.86768
6.02299
5.77842
4.06727
3.67391
2.73095
7.63305
3.36544
7.59238
10.2938
2.23256
7.69494
3.69018
0.997912
5.56784
5.0914
2.03993
2.99515
12.2994
8.61627
11.788
9.09438
8.04712
5.61627
10.5771
12.1612
11.0751
11.5214
9.41035
9.67352
5.91985
7.21269
5.41247
5.96717
11.7569
8.53244
8.60717
7.67729
11.0032
5.92465
12.0939
9.77031
7.61948
6.1988
7.98019
10.953
7.03404
7.69489
7.34115
7.44186
6.69318
8.75215
10.8681
7.00621
10.4015
7.68725
8.88595
5.9042
5.85131
5.93252
7.93708
7.96092
9.01182
8.67871
4.3026
5.62841
4.36872
5.10653
6.3984
6.89611
4.87738
6.05435
5.78222
6.48237
11.8283
6.27064
6.84219
5.87473
4.08537
5.94638
9.11359
10.6479
5.72276
7.53836
9.29115
10.4197
6.61395
8.409
6.40042
6.24412
8.82633
2.67861
7.32167
7.76336
7.06716
8.28442
2.41652
3.20437
3.31453
4.65756
5.93531
7.00463
2.44477
2.35678
11.6329
7.4568
8.12664
7.53542
8.8038
9.06557
13.7088
6.41008
11.5112
7.78952
8.19007
7.60433
5.67052
6.88812
6.06385
7.54601
3.33212
9.66816
6.99438
2.43676
4.59081
6.13788
10.1104
5.36937
8.36792
3.62454
8.51656
9.07622
8.11843
6.65579
3.80747
6.29011
7.20382
5.71932
6.22296
9.99738
6.63286
15.2282
7.50875
8.77213
10.1703
7.03051
8.63227
8.41512
7.97935
8.13037
6.71851
6.91038
5.52268
3.3531
12.7239
4.67501
6.13455
4.94446
4.89523
4.91174
6.89528
7.28359
6.2689
6.53625
8.06283
9.06695
7.52857
7.24234
7.0005
6.98796
7.12104
8.61362
8.8584
5.05147
1.18001
11.8018
5.6082
11.11
7.16306
7.1492
7.59116
9.38428
5.67404
5.93574
8.20246
11.146
11.728
5.9709
9.61741
6.92196
5.37986
6.28409
6.78977
6.19417
12.8743
6.71226
6.90747
7.18815
9.94033
13.4957
12.1091
8.63601
8.20519
8.41065
6.8284
9.50976
6.92772
4.82211
8.24471
9.54672
8.9263
8.75083
6.24919
11.543
7.80353
8.28959
5.42366
7.01795
5.56859
6.56086
8.88089
7.04363
5.82011
6.52532
11.8665
6.42559
5.60819
5.1589
8.06501
7.47765
6.18411
6.68065
7.5494
8.52446
7.99846
7.96297
8.46443
7.30497
5.45199
4.27746
6.55041
8.71032
4.6906
7.57428
6.52245
6.92439
5.2036
6.71568
10.9917
7.678
6.23593
6.79185
5.94788
6.55967
5.84677
5.46712
7.9026
8.30255
7.93932
7.88148
4.54871
4.52879
7.89846
8.34612
13.9534
7.51731
7.59253
5.86858
6.91853
7.19499
4.35596
7.80347
2.80855
2.31696
8.81994
8.43221
7.4847
4.96042
8.44657
6.30789
8.56303
8.98575
8.5322
7.53815
8.92725
15.2346
4.39773
10.9178
8.34577
8.83852
6.21419
7.77479
7.94261
8.11904
7.8204
12.397
13.719
8.14924
6.09499
8.18047
7.78904
8.37142
4.62846
4.67052
10.6995
13.3813
7.76395
10.5979
9.82251
10.0199
9.8454
12.1998
8.34999
9.04734
8.82359
9.79341
7.38865
7.89234
7.25613
8.25049
8.2745
6.47881
8.3204
9.46666
10.1619
6.93737
6.83453
11.2381
11.0849
12.8865
11.2547
6.15341
6.66668
5.9618
9.71176
9.97007
8.70242
9.82054
7.57079
6.53224
10.1221
6.96558
6.98667
6.33322
6.68942
9.33366
9.18238
6.56792
5.28258
8.07211
8.71696
15.0879
12.6398
9.87635
8.99007
6.90958
11.311
7.0072
8.22653
7.1589
7.26053
12.9371
9.33069
9.24632
8.64155
9.02693
6.9552
9.28973
8.82086
9.14513
8.0669
7.99091
9.9392
9.45931
8.50339
7.13991
8.99848
7.99427
8.06579
9.22713
8.48596
10.9454
7.4684
10.3377
6.7953
6.20089
6.66816
7.88759
6.71139
8.38123
8.34146
7.72194
6.91312
7.13603
10.5327
8.43243
8.59296
12.7361
13.9175
13.7899
8.27826
7.64114
5.17565
5.52562
9.61809
7.02086
6.5734
7.98734
8.00196
10.0287
15.4373
13.8401
15.3916
12.8107
7.61532
10.328
10.0357
7.5542
9.38406
6.34945
7.87295
14.6892
7.64114
5.04113
8.09907
7.91084
8.71951
8.24372
7.97206
8.32911
8.70965
7.24688
7.23008
7.01674
7.30223
8.94498
7.68948
12.877
13.975
12.9594
12.2564
11.026
10.918
6.03209
10.6559
7.03527
6.3375
7.90327
10.6079
10.7037
10.5989
12.4887
15.6708
5.80988
4.59699
7.65939
8.60509
9.46885
6.46284
6.66378
6.13919
1.7753
1.57593
2.72797
3.36971
4.04964
1.22237
1.74843
2.01875
2.32767
2.05726
1.73809
1.91208
1.60933
1.54936
2.68275
1.47613
3.00013
2.10084
1.28494
1.35122
3.18201
1.69397
3.0301
2.46084
0.985754
1.08061
1.84772
1.81831
2.46076
1.9003
1.25127
1.19128
1.18631
0.820284
1.3763
1.04851
0.960857
0.980188
0.834948
0.910809
2.89767
3.14057
1.89964
1.72653
1.0385
1.19187
1.56035
1.53367
1.10146
2.03004
0.865874
1.40714
1.31454
1.01519
1.5736
1.28968
0.797428
1.29259
0.792967
0.866376
1.1447
0.920274
0.817189
1.35477
0.848381
0.821481
1.26483
0.828651
0.948059
1.0301
0.896517
1.06711
1.77484
2.34671
1.43782
1.50692
1.228
1.22128
1.30015
1.17208
2.18957
1.18563
1.21403
1.83894
1.31672
1.33432
1.22787
1.94437
1.33765
1.28633
1.21398
1.00511
1.34494
0.977079
1.21257
1.47477
0.95806
2.40189
1.29063
2.88463
1.66827
3.15694
1.70868
1.11776
3.82784
2.2103
1.76259
3.15792
1.65154
2.44021
1.42837
2.85215
1.4103
1.89033
2.4382
1.33992
1.10424
2.66298
1.3032
1.73483
1.69136
0.899993
0.802894
1.64893
1.61408
1.79198
1.31546
0.997859
0.830141
1.09786
1.16836
0.907526
1.56359
1.71252
1.29433
1.24143
0.923386
1.09178
1.32412
1.28939
1.55882
1.09777
1.15628
1.22299
2.60183
1.6648
1.79195
2.0217
1.95545
1.52505
1.42901
2.34345
1.37112
3.15184
1.0649
1.49025
1.26224
1.3502
1.6145
2.46578
1.11754
1.25797
1.46086
1.3664
1.20403
1.77492
0.954062
1.35291
1.29709
2.3746
2.1435
1.29904
1.28759
1.53667
1.51241
1.00944
2.46356
1.94047
2.82304
2.13862
1.44647
1.43202
1.31767
1.69845
2.05766
1.71367
1.84784
1.68597
1.81759
2.30081
1.79253
1.90395
5.17703
7.00543
1.40022
4.85658
9.21
2.68496
7.76259
5.63615
5.24943
3.98708
10.3899
5.85843
7.64454
7.64658
6.80795
1.97404
7.23926
6.59865
4.9541
4.92451
6.83034
4.00555
5.90476
6.44254
4.8383
3.99967
8.26209
5.48253
12.7532
6.75052
4.3514
4.1348
4.96758
5.18865
4.28386
5.01922
5.40598
6.86507
6.17257
4.25185
5.78582
5.76809
7.31718
7.29153
6.75647
3.98326
4.99356
7.36603
8.29546
4.65121
6.7041
5.78695
5.14913
3.26162
8.26578
6.46001
3.72798
3.46661
4.35595
10.4903
4.86193
3.14913
9.32961
5.44205
9.37236
8.69786
10.8671
10.0581
7.44057
7.39035
6.95615
3.90069
9.52327
9.59404
6.44124
6.59277
5.06884
1.91387
3.80208
3.98515
11.4854
6.23178
3.07078
5.53841
10.8837
5.48889
11.2099
7.6065
9.91507
4.48013
4.77795
11.6406
7.9812
1.05819
10.9924
7.22275
4.57658
8.89959
6.18436
3.71675
7.43294
7.81297
7.86361
9.59158
8.92325
6.06746
12.087
5.07687
9.60349
9.07187
7.54092
12.8108
8.10166
8.4071
2.03596
3.28234
4.215
9.5319
10.2042
5.84719
11.7436
7.37215
8.00348
4.73419
9.28804
5.12292
4.25972
4.63444
7.09891
11.818
5.84173
7.53822
5.30427
7.03195
6.36822
7.80422
10.1232
4.04141
0.832857
1.65086
2.2024
3.00238
11.3646
5.27039
7.42792
2.63169
6.27971
3.70052
3.47202
7.05613
2.89689
3.93994
5.0391
7.28028
7.32327
5.27016
4.6219
5.35639
6.12279
5.04193
1.71418
7.15445
7.43024
12.2131
9.52203
11.6596
5.56533
4.89261
7.40178
9.26874
3.72699
11.0986
10.9977
3.89036
6.90605
8.63212
9.98197
6.11536
6.79574
10.554
3.40299
8.88832
5.18992
3.95014
4.45372
4.61627
6.54559
1.49701
4.4537
8.04474
10.239
9.93308
11.7102
3.61724
10.703
10.3502
14.3959
5.04667
3.9263
8.03635
6.26676
9.71061
12.2347
10.4788
8.8424
6.97129
10.3324
14.972
11.3272
14.9302
10.7183
7.51358
11.8551
11.5968
9.24974
8.6318
8.11113
5.5873
6.29384
8.50519
11.8203
11.5781
10.8393
14.8329
13.2234
12.161
5.58091
14.202
10.3793
13.8497
10.5256
10.6929
5.74822
13.7211
9.99694
10.9563
10.4146
10.7921
11.5034
14.1746
10.3116
4.72852
7.82956
8.648
10.5335
6.77179
6.81524
6.24033
3.98893
8.90994
7.97734
7.62436
10.5921
10.5654
7.86604
8.89534
5.46072
10.584
8.24539
11.7044
11.9424
7.96629
11.4289
7.94682
7.87498
5.72592
12.3536
9.64023
12.3181
9.63177
8.22891
6.45166
7.3102
8.22105
10.0154
10.0872
5.78354
8.87639
7.94661
8.71632
6.79082
5.63574
11.507
5.80586
10.421
6.99134
12.1874
7.86456
8.29232
6.01958
16.1974
7.5161
5.7631
7.89719
5.90722
13.2846
13.1425
9.26597
8.82232
8.24855
8.69269
5.30183
9.75035
10.2354
9.77505
8.64629
5.20732
8.27657
10.2454
9.73164
6.72577
8.64302
15.1812
10.0463
8.00081
6.44771
14.8195
7.68955
14.3653
6.45776
14.3451
10.1968
11.0535
6.91972
10.844
7.91956
7.18893
6.41702
4.61755
5.32368
5.89689
5.13856
3.12707
9.71574
11.2958
8.87656
7.26941
7.53334
6.01062
4.61049
6.22675
4.52655
9.95866
4.99497
5.01456
5.27668
5.40709
5.38621
10.0746
7.56729
4.08859
5.85436
4.65913
5.44894
4.94094
6.23463
4.59725
5.98992
3.96111
1.33443
5.01127
1.80658
5.19904
2.52474
1.62414
1.42605
6.86254
5.39318
2.02438
4.62034
3.55264
2.74718
9.48552
2.6215
2.76035
2.74906
5.77557
2.15197
4.24957
1.53584
1.82916
1.8037
3.43838
5.04977
2.01733
1.49073
3.60775
9.10845
3.68621
3.59792
14.1849
4.73993
9.31832
3.24852
3.68526
2.53889
3.34197
6.86037
3.65667
10.1292
3.87683
4.41946
8.27632
3.42875
8.8637
9.42816
6.36953
5.07824
6.68551
3.11371
11.9426
6.69362
10.253
2.37376
6.66549
7.61464
13.5007
7.52072
7.13281
11.5787
12.3051
11.5115
9.24474
8.30114
9.19435
12.3422
11.883
11.3948
11.2458
8.53449
8.04229
4.50251
8.82568
7.27785
9.31549
12.6027
9.9603
8.877
11.3407
12.726
7.95508
12.2282
14.03
9.00715
6.24051
6.75911
8.23805
8.45163
9.12722
8.14798
9.528
12.4925
10.9374
11.6795
11.2414
7.96058
6.84113
10.9101
12.3502
9.64409
9.55534
7.64869
7.18932
10.8769
12.0317
8.78509
12.7576
10.4703
11.3816
8.77118
9.21082
11.9442
8.95017
7.85779
6.60547
8.23841
12.691
12.187
12.626
11.4967
11.7109
7.25499
8.57623
10.8089
10.0654
11.8428
9.22803
12.0399
12.2176
9.60923
7.30951
9.46286
6.18537
7.87774
11.4017
5.07863
11.7118
8.30064
11.7189
5.344
7.04782
7.74908
10.1839
8.64531
8.31455
9.42092
3.40179
3.54833
2.59491
11.1813
6.45137
6.14915
5.47697
4.40257
8.5615
6.33435
9.27203
7.47248
3.61779
6.33449
5.778
6.07178
6.47085
5.721
4.211
7.43994
4.85297
5.7274
4.52079
6.75428
9.18593
7.14491
9.53701
3.8289
7.5808
8.23721
8.25652
7.30501
6.57708
6.57355
9.46911
10.9414
7.25904
9.20542
9.20446
6.83472
7.7925
6.23556
3.88977
8.77571
6.40136
2.86789
11.2478
3.86707
4.29757
8.57199
9.32226
