0.881019
0.796572
0.806883
0.643482
0.827685
0.774113
0.607387
1.02542
0.980745
0.731998
0.92607
0.869071
1.33733
0.968301
0.848539
0.681869
0.860208
0.871649
0.757752
0.675601
0.951152
0.915895
0.758811
0.747931
0.729687
0.735883
0.952295
0.742751
0.639581
0.743374
0.745342
0.64668
0.722867
0.696877
0.834365
0.653105
0.709907
0.638695
1.00739
0.697852
0.665591
0.769482
0.744568
0.785272
0.836241
0.648832
0.821136
0.749144
0.901846
0.838223
0.74766
0.702668
0.754933
0.782877
0.744548
0.80409
0.869022
0.708248
0.737489
0.814649
0.770993
0.781775
0.668332
0.745515
0.633105
0.703072
0.818264
0.669021
0.746731
0.820338
0.625617
0.644178
0.705601
0.625502
0.79419
0.784028
0.65992
0.709818
0.875492
0.72231
0.985194
0.880124
0.685122
0.708436
0.745413
0.681825
1.58916
0.675739
0.727346
0.908179
1.19995
0.662111
0.786084
0.911511
0.752046
0.827944
0.877806
0.736269
1.00074
0.749425
0.710183
0.756711
0.719208
0.899818
0.648854
0.903486
0.807943
0.863385
0.822208
0.8661
0.825891
0.801496
0.708489
0.871127
0.931272
0.812638
0.83596
0.848158
0.712578
0.684541
0.770326
0.786592
0.740445
0.591051
0.707545
0.776196
0.713247
0.772932
0.813061
0.677141
0.647578
0.736939
0.609483
0.873886
0.682282
0.722796
0.877804
0.656456
0.834419
0.754209
0.698989
0.922186
0.680385
0.798089
0.594308
0.825852
0.693627
0.849827
0.799152
0.74156
0.900556
0.811975
0.798062
0.646249
0.826344
0.788441
0.753519
0.667249
0.703919
0.676168
0.756296
0.671512
0.773672
0.656919
0.869916
1.26286
0.935874
0.950354
1.32307
1.31193
1.60948
1.44251
1.53755
0.910999
0.9009
0.879788
0.923737
1.19878
1.48564
0.750248
1.54372
1.19526
1.70156
1.18115
1.16244
1.45768
0.976097
1.06864
1.01306
1.29545
1.02489
1.21629
0.817046
1.34134
0.800052
1.58346
1.19446
1.72894
1.19517
1.16378
1.55578
1.32177
0.770342
0.819343
1.6504
1.7341
1.53295
1.62878
1.69643
1.15337
0.936715
1.08471
1.29414
1.11377
1.57569
1.4788
1.28507
1.50149
1.28702
1.03451
1.62788
1.52331
1.71755
1.66156
1.44164
1.73938
1.47551
0.868036
1.20134
1.69923
1.15747
1.49555
1.01459
1.29491
1.64072
1.61676
1.73667
1.42871
1.03138
1.62297
1.44782
1.28238
1.41829
1.1465
1.47583
1.44637
1.57226
1.52816
1.65462
1.53196
1.14328
1.46208
1.57208
1.36612
1.64163
1.28432
1.4581
1.50712
1.60752
1.58824
1.63063
1.48163
1.31553
1.36772
1.6671
1.37203
1.6784
1.62438
1.62455
1.81245
1.62794
1.88471
1.78154
1.27945
1.21158
1.4363
1.52304
1.50732
1.68089
0.988589
0.939763
1.54198
1.69769
1.8329
1.63528
1.77642
0.730373
0.871636
0.882279
0.680611
0.742064
0.669195
0.866808
0.70285
1.20287
0.763256
1.36173
0.896423
0.674735
0.833159
2.39331
0.635518
1.28024
0.921642
0.648515
0.830011
0.63718
0.739844
0.707943
1.15868
0.634789
1.00333
1.31152
0.814075
0.818249
1.16432
1.15429
0.808185
3.07657
1.16172
0.82296
0.782946
0.724881
0.816912
1.08395
0.782088
0.826714
0.653487
0.844542
1.19739
0.836251
1.21281
1.14843
1.16456
0.534946
0.845674
0.689872
0.596141
1.07116
0.676531
0.69967
0.664727
0.825513
0.684447
0.868097
1.38478
0.830254
0.766401
1.42189
0.762301
0.735752
1.15575
0.755594
0.800271
0.57872
0.545168
0.625787
0.67419
0.620337
0.784763
0.496493
0.807168
0.725265
1.28157
1.15983
0.938267
0.707089
0.748964
1.40037
0.760474
1.07229
0.842031
0.720158
0.75314
1.36345
0.516094
0.794659
0.748318
0.922495
0.719695
1.07848
1.27235
1.65385
1.85911
1.12406
0.880171
1.19472
1.35578
1.33676
0.999605
1.03496
1.0202
1.11395
0.79908
0.678133
0.705396
0.632374
0.885275
0.97985
0.887721
0.92912
0.96573
0.951125
0.783314
1.02254
0.942641
1.0308
0.817279
1.41308
1.17897
1.17438
0.934448
1.0348
0.950545
1.0287
1.56213
1.59923
0.907952
1.19342
0.959404
1.08639
1.03989
0.860305
0.729209
1.34241
0.964651
0.895069
0.791485
0.888115
1.09131
0.957978
1.19374
0.781143
0.548394
1.11509
2.32146
1.29717
1.65509
0.774491
0.981938
0.811873
1.29955
1.63076
1.06821
0.929715
1.50841
1.13366
0.698056
1.12163
0.856138
0.926087
1.34071
0.854861
1.11501
0.859967
0.841698
0.934635
1.13904
1.01267
1.1673
0.725838
1.20811
0.988083
1.22607
1.41291
0.937649
1.35967
1.18665
1.0914
0.987392
0.965694
1.79718
1.03151
1.00629
1.23161
1.12725
1.61381
0.869699
0.824777
1.24831
0.722035
0.88474
1.24981
1.0262
1.29125
0.963467
0.715502
0.833626
1.10991
0.862769
0.999096
0.801282
0.319291
0.886927
0.437853
0.804233
0.568344
1.49768
1.7537
0.791316
0.739276
1.08231
1.4366
1.40225
1.25477
0.430357
0.549774
0.926746
1.24936
1.59603
1.66971
