OFF
381 744 0
-0.73554 9.25169 -19.7072
-0.84354 9.07579 -19.5186
-1.02354 9.04219 -19.706
-0.95554 9.29569 -20.0515
-1.26354 9.06569 -19.7931
-1.20954 9.34289 -20.1614
-1.13654 9.66469 -20.2789
-0.86954 9.59029 -20.1628
-0.63854 9.51959 -19.7956
-1.47854 9.16329 -19.6895
-1.60954 9.27979 -19.4908
-1.63654 9.49169 -19.6745
-1.44654 9.42649 -20.0336
-1.60654 9.77729 -19.7604
-1.39754 9.73079 -20.1436
-1.50454 10.039 -19.6603
-1.38654 10.2025 -19.467
-1.21654 10.2484 -19.6615
-1.30454 10.0178 -20.0184
-0.98254 10.2311 -19.763
-1.05654 9.97829 -20.145
-0.76154 10.1274 -19.678
-0.62054 9.99849 -19.4948
-0.60354 9.79899 -19.6931
-0.81254 9.88699 -20.0362
-10.8635 6.09979 -0.0841549
-10.7105 6.07309 -0.535955
-10.5035 6.26729 -0.535455
-10.6535 6.29699 -0.0835549
-10.3755 6.52599 -0.530555
-10.5235 6.55969 -0.0786549
-10.5965 6.57639 0.154945
-10.7285 6.31029 0.149945
-10.9415 6.11059 0.149345
-10.3415 6.80439 -0.522455
-10.4135 7.05789 -0.512255
-10.5615 7.09989 -0.0600549
-10.4885 6.84249 -0.0704549
-10.6355 7.12359 0.173745
-10.5615 6.86279 0.163245
-11.9035 6.32079 -0.0482549
-11.7345 6.29069 -0.500555
-11.5425 6.10689 -0.511855
-11.7085 6.13419 -0.0596549
-11.2765 6.00279 -0.522655
-11.4385 6.02839 -0.0705549
-11.5225 6.03829 0.163045
-11.7955 6.14539 0.174145
-11.9935 6.33439 0.185745
-10.9845 5.98829 -0.531155
-11.1415 6.01359 -0.0792549
-11.2215 6.02329 0.154245
-11.9565 7.17539 0.308645
-11.7235 7.36519 0.297445
-11.9395 7.16199 0.296845
-11.6875 7.34739 0.210145
-11.9005 7.14769 0.209545
-12.0315 6.88159 0.204545
-12.0725 6.89119 0.291745
-11.6015 7.32089 -0.0240549
-11.4375 7.27549 -0.476855
-11.6445 7.08129 -0.477455
-11.8115 7.12369 -0.0246549
-11.7725 6.82259 -0.482255
-11.9415 6.86099 -0.0296549
-11.8065 6.54419 -0.490355
-11.9765 6.57819 -0.0378549
-12.0675 6.59509 0.196245
-10.6055 7.24169 -0.500955
-10.7565 7.28649 -0.0485549
-10.8715 7.34579 -0.490255
-11.0265 7.39219 -0.0376549
-11.1055 7.41969 0.196445
-10.8325 7.31259 0.185345
-11.1635 7.36029 -0.481655
-11.3235 7.40699 -0.0289549
-11.4065 7.43469 0.205245
-8.71754 5.87549 -4.03065
-8.88754 5.71669 -4.03115
-8.01154 5.52569 -4.72365
-7.85954 5.66799 -4.72316
-7.00454 5.38519 -5.40485
-6.87154 5.50959 -5.40455
-6.78954 5.67539 -5.40145
-7.76554 5.85759 -4.71966
-8.61354 6.08719 -4.02665
-5.92654 5.39399 -6.25695
-4.83954 5.65129 -7.46175
-4.73954 5.74519 -7.46145
-5.81254 5.50159 -6.25665
-4.67754 5.87039 -7.45916
-5.74154 5.64499 -6.25395
-4.66154 6.00519 -7.45526
-4.69654 6.12789 -7.45025
-5.76254 5.93969 -6.24375
-5.72254 5.79929 -6.24945
-6.81354 6.01639 -5.38965
-6.76754 5.85389 -5.39626
-7.79354 6.24729 -4.70625
-8.64454 6.52239 -4.01165
-8.58554 6.31499 -4.02005
-7.74054 6.06159 -4.71365
-9.56754 5.74439 -4.01135
-9.72454 5.89469 -4.00215
-8.76154 5.68519 -4.69765
-8.62054 5.55049 -4.70596
-7.66054 5.52459 -5.38215
-7.53754 5.40689 -5.38945
-7.36654 5.34009 -5.39635
-8.42554 5.47419 -4.71375
-9.35054 5.65919 -4.02015
-6.49454 5.51459 -6.23735
-5.33554 5.75659 -7.44465
-5.24254 5.66769 -7.45005
-6.38754 5.41279 -6.24356
-5.11354 5.61729 -7.45526
-6.24054 5.35509 -6.24955
-4.97254 5.61019 -7.45946
-6.07854 5.34699 -6.25425
-7.17954 5.33079 -5.40185
-9.11054 5.64729 -4.02715
-8.21154 5.46359 -4.72006
-9.65154 6.54149 -3.98315
-9.48154 6.70039 -3.98275
-8.54354 6.40679 -4.68025
-8.69554 6.26449 -4.68066
-7.46954 6.15579 -5.36695
-7.60254 6.03139 -5.36735
-7.68454 5.86559 -5.37045
-8.78854 6.07489 -4.68425
-9.75554 6.32989 -3.98715
-6.32954 6.06029 -6.22415
-5.19154 6.23319 -7.43316
-5.29154 6.13919 -7.43345
-6.44454 5.95269 -6.22445
-5.35354 6.01399 -7.43575
-6.51454 5.80939 -6.22715
-5.37054 5.87919 -7.43965
-6.53454 5.65509 -6.23165
-7.70654 5.68709 -5.37565
-9.78354 6.10209 -3.99375
-8.81454 5.87089 -4.69016
-8.80154 6.67269 -4.00245
-7.93454 6.38199 -4.69795
-6.93654 6.13409 -5.38245
-7.10654 6.20079 -5.37556
-8.12854 6.45829 -4.69005
-9.01854 6.75789 -3.99365
-4.78954 6.21679 -7.44476
-5.86854 6.04159 -6.23756
-4.91754 6.26719 -7.43965
-6.01554 6.09929 -6.23155
-5.05954 6.27419 -7.43545
-6.17754 6.10729 -6.22685
-7.29454 6.21019 -5.37005
-9.25854 6.76979 -3.98665
-8.34354 6.46889 -4.68375
-3.80454 6.25599 -9.20125
-3.71254 6.34179 -9.20105
-2.86354 7.04289 -11.1834
-2.77454 7.12719 -11.1831
-2.71954 7.23939 -11.181
-3.65654 6.45609 -9.19885
-2.06154 7.84679 -13.1159
-1.44154 8.50239 -14.7065
-1.33654 8.60859 -14.706
-1.96754 7.93739 -13.1155
-1.27154 8.74999 -14.7031
-1.91054 8.05819 -13.1132
-1.25454 8.90229 -14.6987
-1.29054 9.04089 -14.6932
-1.92654 8.30659 -13.1046
-1.89454 8.18829 -13.1094
-2.73554 7.47029 -11.1731
-2.70454 7.36029 -11.1775
-3.67254 6.69109 -9.19075
-3.64054 6.57909 -9.19535
-4.25654 6.35209 -9.18565
-4.17154 6.27089 -9.19065
-3.30354 7.13729 -11.1682
-3.22154 7.05759 -11.173
-3.10654 7.01239 -11.1777
-4.05454 6.22489 -9.19535
-2.52254 7.94839 -13.0998
-1.96054 8.62139 -14.6883
-1.86254 8.52099 -14.6942
-2.43654 7.86259 -13.105
-1.72854 8.46399 -14.6998
-2.31654 7.81399 -13.1099
-1.57954 8.45609 -14.7042
-2.18454 7.80719 -13.1137
-2.98054 7.00609 -11.1814
-3.92454 6.21849 -9.19915
-4.12554 6.78719 -9.17515
-4.21654 6.70139 -9.17546
-3.17554 7.56479 -11.1578
-3.26454 7.48049 -11.1581
-3.31954 7.36819 -11.1602
-4.27354 6.58709 -9.17756
-2.38854 8.40819 -13.0886
-1.80954 9.15979 -14.675
-1.91454 9.05369 -14.6755
-2.48254 8.31759 -13.0889
-1.97954 8.91229 -14.6783
-2.53954 8.19679 -13.0912
-1.99654 8.75999 -14.6828
-2.55554 8.06669 -13.095
-3.33454 7.24729 -11.1637
-4.28854 6.46409 -9.18116
-3.75754 6.77229 -9.18585
-2.81854 7.55009 -11.1682
-2.93254 7.59529 -11.1636
-3.87554 6.81829 -9.18106
-1.38754 9.14129 -14.6872
-2.01354 8.39239 -13.0995
-1.52254 9.19819 -14.6816
-2.13354 8.44099 -13.0946
-1.67154 9.20619 -14.6773
-2.26554 8.44779 -13.0907
-3.05854 7.60159 -11.1599
-4.00454 6.82469 -9.17725
-1.04754 8.84469 -15.6631
-0.92354 8.97659 -15.6623
-0.82954 8.96199 -16.2105
-0.68154 9.12489 -16.2093
-0.59054 9.34199 -16.2047
-0.84654 9.15249 -15.6587
-0.73454 8.94289 -16.5732
-0.71154 8.87579 -16.9759
-0.52154 9.09559 -16.9741
-0.56354 9.13679 -16.5716
-0.40454 9.38839 -16.9678
-0.45854 9.39519 -16.5661
-0.37254 9.70359 -16.9584
-0.43854 9.99049 -16.9473
-0.48854 9.92649 -16.548
-0.42954 9.67329 -16.5579
-0.61754 9.78849 -16.1895
-0.56654 9.57569 -16.1978
-0.86954 9.51399 -15.6463
-0.82654 9.34169 -15.6531
-1.66254 8.99259 -15.6413
-1.54654 8.86769 -15.6486
-1.55854 9.14469 -16.1844
-1.42154 8.99039 -16.1931
-1.23254 8.90299 -16.2012
-1.38754 8.79689 -15.6553
-1.57754 9.16029 -16.5428
-1.65054 9.12229 -16.9419
-1.47454 8.91429 -16.9536
-1.41954 8.97679 -16.5531
-1.23054 8.79639 -16.9641
-1.20054 8.87269 -16.5625
-0.96154 8.77989 -16.9721
-0.95954 8.85809 -16.5697
-1.02354 8.89079 -16.2074
-1.21154 8.78699 -15.6605
-1.48354 9.66199 -15.6245
-1.60854 9.52999 -15.6254
-1.34654 9.97119 -16.1634
-1.49354 9.80829 -16.1646
-1.58454 9.59119 -16.1691
-1.68454 9.35419 -15.629
-1.33254 10.144 -16.5176
-1.37754 10.2369 -16.9133
-1.56754 10.0172 -16.9152
-1.50354 9.95009 -16.5192
-1.68454 9.72439 -16.9214
-1.60854 9.69169 -16.5247
-1.71654 9.40919 -16.9308
-1.63754 9.41359 -16.5329
-1.60954 9.35739 -16.176
-1.70554 9.16489 -15.6345
-0.98454 9.63889 -15.6391
-0.75454 9.94269 -16.1807
-0.94354 10.0301 -16.1726
-1.14454 9.70969 -15.6324
-0.61454 10.1985 -16.9357
-0.64754 10.1101 -16.5377
-0.85854 10.3164 -16.9251
-0.86654 10.2141 -16.5282
-1.12654 10.3329 -16.9171
-1.10754 10.2287 -16.5211
-1.15154 10.0424 -16.1664
-1.31954 9.71959 -15.6272
-0.70954 8.84949 -17.6434
-0.50754 9.08469 -17.6414
-0.73254 8.87459 -18.403
-0.53154 9.11009 -18.4139
-0.40754 9.42359 -18.4201
-0.38354 9.39809 -17.6346
-0.78254 8.96219 -19.082
-0.60054 9.17779 -19.1319
-0.48954 9.46399 -19.1775
-0.52154 10.0474 -19.054
-0.45854 9.76919 -19.1167
-0.44354 10.067 -18.3723
-0.37454 9.76039 -18.3971
-0.41954 10.0427 -17.6127
-0.34954 9.73549 -17.6246
-1.70554 9.11329 -17.6073
-1.51854 8.89059 -17.6197
-1.72354 9.13829 -18.367
-1.53854 8.91579 -18.3923
-1.28154 8.78989 -18.4165
-1.26054 8.76439 -17.6309
-1.68454 9.20219 -19.0493
-1.51654 8.99989 -19.1123
-1.28454 8.88579 -19.1743
-1.02554 8.86909 -19.1302
-0.99754 8.77199 -18.412
-0.97554 8.74669 -17.6394
-1.41654 10.3065 -17.5766
-1.61754 10.0713 -17.5786
-1.43554 10.3307 -18.3363
-1.63754 10.0961 -18.3513
-1.76154 9.78339 -18.3709
-1.74254 9.75789 -17.5854
-1.42254 10.2874 -19.0213
-1.60754 10.0752 -19.0749
-1.72254 9.79229 -19.1328
-1.75054 9.48379 -19.0902
-1.79454 9.44579 -18.368
-1.77554 9.42049 -17.5954
-0.60654 10.2654 -17.6003
-0.63054 10.2904 -18.3728
-0.88754 10.4171 -18.3745
-0.86554 10.3916 -17.589
-0.69154 10.2531 -19.0945
-0.92654 10.3705 -19.136
-1.18254 10.3839 -19.0766
-1.17154 10.4341 -18.3532
-1.15054 10.4093 -17.5806
-11.1685 7.20099 -1.21965
-11.3705 7.01179 -1.22015
-10.7695 7.08719 -2.13185
-10.9635 6.90529 -2.13245
-11.0825 6.66289 -2.13695
-11.4945 6.75969 -1.22495
-10.2155 6.92379 -3.09305
-10.3985 6.75179 -3.09355
-10.5115 6.52279 -3.09795
-10.4785 6.05169 -3.11415
-10.5425 6.27619 -3.10505
-11.0475 6.16449 -2.15415
-11.1155 6.40199 -2.14455
-11.4575 6.24139 -1.24275
-11.5285 6.48839 -1.23275
-11.2705 6.06229 -1.25375
-10.8675 5.99229 -2.16465
-10.6185 5.89479 -2.17475
-11.0115 5.96089 -1.26425
-10.3085 5.88899 -3.12415
-10.0735 5.79679 -3.13365
-9.57154 5.85899 -3.14545
-9.81354 5.78389 -3.14125
-10.0885 5.96059 -2.18725
-10.3445 5.88109 -2.18275
-10.4605 6.02929 -1.27725
-10.7265 5.94669 -1.27255
-10.2585 6.21849 -1.27665
-9.89454 6.14249 -2.18675
-9.77454 6.38489 -2.18215
-10.1335 6.47059 -1.27195
-9.38854 6.03089 -3.14495
-9.27554 6.25999 -3.14065
-9.30854 6.73109 -3.12445
-9.24454 6.50659 -3.13345
-9.80954 6.88339 -2.16505
-9.74254 6.64589 -2.17465
-10.1705 6.98899 -1.25415
-10.1005 6.74199 -1.26405
-10.3575 7.16809 -1.24315
-9.98954 7.05549 -2.15445
-10.2385 7.15309 -2.14445
-10.6165 7.26949 -1.23265
-9.47854 6.89379 -3.11445
-9.71454 6.98599 -3.10495
-9.97354 6.99889 -3.09735
-10.5135 7.16669 -2.13635
-10.9015 7.28369 -1.22425
3 0 1 2
3 0 2 3
3 2 4 5
3 2 5 3
3 5 6 7
3 5 7 3
3 7 8 0
3 7 0 3
3 9 10 11
3 9 11 12
3 11 13 14
3 11 14 12
3 14 6 5
3 14 5 12
3 5 4 9
3 5 9 12
3 15 16 17
3 15 17 18
3 17 19 20
3 17 20 18
3 20 6 14
3 20 14 18
3 14 13 15
3 14 15 18
3 21 22 23
3 21 23 24
3 23 8 7
3 23 7 24
3 7 6 20
3 7 20 24
3 20 19 21
3 20 21 24
3 25 26 27
3 25 27 28
3 27 29 30
3 27 30 28
3 30 31 32
3 30 32 28
3 32 33 25
3 32 25 28
3 34 35 36
3 34 36 37
3 36 38 39
3 36 39 37
3 39 31 30
3 39 30 37
3 30 29 34
3 30 34 37
3 40 41 42
3 40 42 43
3 42 44 45
3 42 45 43
3 45 46 47
3 45 47 43
3 47 48 40
3 47 40 43
3 49 26 25
3 49 25 50
3 25 33 51
3 25 51 50
3 51 46 45
3 51 45 50
3 45 44 49
3 45 49 50
3 52 53 54
3 53 55 56
3 53 56 54
3 56 57 58
3 56 58 54
3 58 52 54
3 59 60 61
3 59 61 62
3 61 63 64
3 61 64 62
3 64 57 56
3 64 56 62
3 56 55 59
3 56 59 62
3 65 41 40
3 65 40 66
3 40 48 67
3 40 67 66
3 67 57 64
3 67 64 66
3 64 63 65
3 64 65 66
3 58 57 67
3 36 35 68
3 36 68 69
3 68 70 71
3 68 71 69
3 71 72 73
3 71 73 69
3 73 38 36
3 73 36 69
3 74 60 59
3 74 59 75
3 59 55 76
3 59 76 75
3 76 72 71
3 76 71 75
3 71 70 74
3 71 74 75
3 76 55 53
3 77 78 79
3 77 79 80
3 79 81 82
3 79 82 80
3 82 83 84
3 82 84 80
3 84 85 77
3 84 77 80
3 86 87 88
3 86 88 89
3 88 90 91
3 88 91 89
3 91 83 82
3 91 82 89
3 82 81 86
3 82 86 89
3 92 93 94
3 92 94 95
3 94 96 97
3 94 97 95
3 97 83 91
3 97 91 95
3 91 90 92
3 91 92 95
3 98 99 100
3 98 100 101
3 100 85 84
3 100 84 101
3 84 83 97
3 84 97 101
3 97 96 98
3 97 98 101
3 102 103 104
3 102 104 105
3 104 106 107
3 104 107 105
3 107 108 109
3 107 109 105
3 109 110 102
3 109 102 105
3 111 112 113
3 111 113 114
3 113 115 116
3 113 116 114
3 116 108 107
3 116 107 114
3 107 106 111
3 107 111 114
3 117 87 86
3 117 86 118
3 86 81 119
3 86 119 118
3 119 108 116
3 119 116 118
3 116 115 117
3 116 117 118
3 79 78 120
3 79 120 121
3 120 110 109
3 120 109 121
3 109 108 119
3 109 119 121
3 119 81 79
3 119 79 121
3 122 123 124
3 122 124 125
3 124 126 127
3 124 127 125
3 127 128 129
3 127 129 125
3 129 130 122
3 129 122 125
3 131 132 133
3 131 133 134
3 133 135 136
3 133 136 134
3 136 128 127
3 136 127 134
3 127 126 131
3 127 131 134
3 137 112 111
3 137 111 138
3 111 106 139
3 111 139 138
3 139 128 136
3 139 136 138
3 136 135 137
3 136 137 138
3 104 103 140
3 104 140 141
3 140 130 129
3 140 129 141
3 129 128 139
3 129 139 141
3 139 106 104
3 139 104 141
3 142 99 98
3 142 98 143
3 98 96 144
3 98 144 143
3 144 145 146
3 144 146 143
3 146 147 142
3 146 142 143
3 94 93 148
3 94 148 149
3 148 150 151
3 148 151 149
3 151 145 144
3 151 144 149
3 144 96 94
3 144 94 149
3 152 132 131
3 152 131 153
3 131 126 154
3 131 154 153
3 154 145 151
3 154 151 153
3 151 150 152
3 151 152 153
3 124 123 155
3 124 155 156
3 155 147 146
3 155 146 156
3 146 145 154
3 146 154 156
3 154 126 124
3 154 124 156
3 88 87 157
3 88 157 158
3 157 159 160
3 157 160 158
3 160 161 162
3 160 162 158
3 162 90 88
3 162 88 158
3 163 164 165
3 163 165 166
3 165 167 168
3 165 168 166
3 168 161 160
3 168 160 166
3 160 159 163
3 160 163 166
3 169 170 171
3 169 171 172
3 171 173 174
3 171 174 172
3 174 161 168
3 174 168 172
3 168 167 169
3 168 169 172
3 175 93 92
3 175 92 176
3 92 90 162
3 92 162 176
3 162 161 174
3 162 174 176
3 174 173 175
3 174 175 176
3 113 112 177
3 113 177 178
3 177 179 180
3 177 180 178
3 180 181 182
3 180 182 178
3 182 115 113
3 182 113 178
3 183 184 185
3 183 185 186
3 185 187 188
3 185 188 186
3 188 181 180
3 188 180 186
3 180 179 183
3 180 183 186
3 189 164 163
3 189 163 190
3 163 159 191
3 163 191 190
3 191 181 188
3 191 188 190
3 188 187 189
3 188 189 190
3 157 87 117
3 157 117 192
3 117 115 182
3 117 182 192
3 182 181 191
3 182 191 192
3 191 159 157
3 191 157 192
3 133 132 193
3 133 193 194
3 193 195 196
3 193 196 194
3 196 197 198
3 196 198 194
3 198 135 133
3 198 133 194
3 199 200 201
3 199 201 202
3 201 203 204
3 201 204 202
3 204 197 196
3 204 196 202
3 196 195 199
3 196 199 202
3 205 184 183
3 205 183 206
3 183 179 207
3 183 207 206
3 207 197 204
3 207 204 206
3 204 203 205
3 204 205 206
3 177 112 137
3 177 137 208
3 137 135 198
3 137 198 208
3 198 197 207
3 198 207 208
3 207 179 177
3 207 177 208
3 148 93 175
3 148 175 209
3 175 173 210
3 175 210 209
3 210 211 212
3 210 212 209
3 212 150 148
3 212 148 209
3 171 170 213
3 171 213 214
3 213 215 216
3 213 216 214
3 216 211 210
3 216 210 214
3 210 173 171
3 210 171 214
3 217 200 199
3 217 199 218
3 199 195 219
3 199 219 218
3 219 211 216
3 219 216 218
3 216 215 217
3 216 217 218
3 193 132 152
3 193 152 220
3 152 150 212
3 152 212 220
3 212 211 219
3 212 219 220
3 219 195 193
3 219 193 220
3 165 164 221
3 165 221 222
3 221 223 224
3 221 224 222
3 224 225 226
3 224 226 222
3 226 167 165
3 226 165 222
3 227 228 229
3 227 229 230
3 229 231 232
3 229 232 230
3 232 225 224
3 232 224 230
3 224 223 227
3 224 227 230
3 233 234 235
3 233 235 236
3 235 237 238
3 235 238 236
3 238 225 232
3 238 232 236
3 232 231 233
3 232 233 236
3 239 170 169
3 239 169 240
3 169 167 226
3 169 226 240
3 226 225 238
3 226 238 240
3 238 237 239
3 238 239 240
3 185 184 241
3 185 241 242
3 241 243 244
3 241 244 242
3 244 245 246
3 244 246 242
3 246 187 185
3 246 185 242
3 247 248 249
3 247 249 250
3 249 251 252
3 249 252 250
3 252 245 244
3 252 244 250
3 244 243 247
3 244 247 250
3 253 228 227
3 253 227 254
3 227 223 255
3 227 255 254
3 255 245 252
3 255 252 254
3 252 251 253
3 252 253 254
3 221 164 189
3 221 189 256
3 189 187 246
3 189 246 256
3 246 245 255
3 246 255 256
3 255 223 221
3 255 221 256
3 201 200 257
3 201 257 258
3 257 259 260
3 257 260 258
3 260 261 262
3 260 262 258
3 262 203 201
3 262 201 258
3 263 264 265
3 263 265 266
3 265 267 268
3 265 268 266
3 268 261 260
3 268 260 266
3 260 259 263
3 260 263 266
3 269 248 247
3 269 247 270
3 247 243 271
3 247 271 270
3 271 261 268
3 271 268 270
3 268 267 269
3 268 269 270
3 241 184 205
3 241 205 272
3 205 203 262
3 205 262 272
3 262 261 271
3 262 271 272
3 271 243 241
3 271 241 272
3 213 170 239
3 213 239 273
3 239 237 274
3 239 274 273
3 274 275 276
3 274 276 273
3 276 215 213
3 276 213 273
3 235 234 277
3 235 277 278
3 277 279 280
3 277 280 278
3 280 275 274
3 280 274 278
3 274 237 235
3 274 235 278
3 281 264 263
3 281 263 282
3 263 259 283
3 263 283 282
3 283 275 280
3 283 280 282
3 280 279 281
3 280 281 282
3 257 200 217
3 257 217 284
3 217 215 276
3 217 276 284
3 276 275 283
3 276 283 284
3 283 259 257
3 283 257 284
3 229 228 285
3 229 285 286
3 285 287 288
3 285 288 286
3 288 289 290
3 288 290 286
3 290 231 229
3 290 229 286
3 291 1 0
3 291 0 292
3 0 8 293
3 0 293 292
3 293 289 288
3 293 288 292
3 288 287 291
3 288 291 292
3 23 22 294
3 23 294 295
3 294 296 297
3 294 297 295
3 297 289 293
3 297 293 295
3 293 8 23
3 293 23 295
3 298 234 233
3 298 233 299
3 233 231 290
3 233 290 299
3 290 289 297
3 290 297 299
3 297 296 298
3 297 298 299
3 249 248 300
3 249 300 301
3 300 302 303
3 300 303 301
3 303 304 305
3 303 305 301
3 305 251 249
3 305 249 301
3 306 10 9
3 306 9 307
3 9 4 308
3 9 308 307
3 308 304 303
3 308 303 307
3 303 302 306
3 303 306 307
3 2 1 291
3 2 291 309
3 291 287 310
3 291 310 309
3 310 304 308
3 310 308 309
3 308 4 2
3 308 2 309
3 285 228 253
3 285 253 311
3 253 251 305
3 253 305 311
3 305 304 310
3 305 310 311
3 310 287 285
3 310 285 311
3 265 264 312
3 265 312 313
3 312 314 315
3 312 315 313
3 315 316 317
3 315 317 313
3 317 267 265
3 317 265 313
3 318 16 15
3 318 15 319
3 15 13 320
3 15 320 319
3 320 316 315
3 320 315 319
3 315 314 318
3 315 318 319
3 11 10 306
3 11 306 321
3 306 302 322
3 306 322 321
3 322 316 320
3 322 320 321
3 320 13 11
3 320 11 321
3 300 248 269
3 300 269 323
3 269 267 317
3 269 317 323
3 317 316 322
3 317 322 323
3 322 302 300
3 322 300 323
3 277 234 298
3 277 298 324
3 298 296 325
3 298 325 324
3 325 326 327
3 325 327 324
3 327 279 277
3 327 277 324
3 294 22 21
3 294 21 328
3 21 19 329
3 21 329 328
3 329 326 325
3 329 325 328
3 325 296 294
3 325 294 328
3 17 16 318
3 17 318 330
3 318 314 331
3 318 331 330
3 331 326 329
3 331 329 330
3 329 19 17
3 329 17 330
3 312 264 281
3 312 281 332
3 281 279 327
3 281 327 332
3 327 326 331
3 327 331 332
3 331 314 312
3 331 312 332
3 61 60 333
3 61 333 334
3 333 335 336
3 333 336 334
3 336 337 338
3 336 338 334
3 338 63 61
3 338 61 334
3 339 123 122
3 339 122 340
3 122 130 341
3 122 341 340
3 341 337 336
3 341 336 340
3 336 335 339
3 336 339 340
3 140 103 342
3 140 342 343
3 342 344 345
3 342 345 343
3 345 337 341
3 345 341 343
3 341 130 140
3 341 140 343
3 346 41 65
3 346 65 347
3 65 63 338
3 65 338 347
3 338 337 345
3 338 345 347
3 345 344 346
3 345 346 347
3 42 41 346
3 42 346 348
3 346 344 349
3 346 349 348
3 349 350 351
3 349 351 348
3 351 44 42
3 351 42 348
3 342 103 102
3 342 102 352
3 102 110 353
3 102 353 352
3 353 350 349
3 353 349 352
3 349 344 342
3 349 342 352
3 120 78 354
3 120 354 355
3 354 356 357
3 354 357 355
3 357 350 353
3 357 353 355
3 353 110 120
3 353 120 355
3 358 26 49
3 358 49 359
3 49 44 351
3 49 351 359
3 351 350 357
3 351 357 359
3 357 356 358
3 357 358 359
3 27 26 358
3 27 358 360
3 358 356 361
3 358 361 360
3 361 362 363
3 361 363 360
3 363 29 27
3 363 27 360
3 354 78 77
3 354 77 364
3 77 85 365
3 77 365 364
3 365 362 361
3 365 361 364
3 361 356 354
3 361 354 364
3 100 99 366
3 100 366 367
3 366 368 369
3 366 369 367
3 369 362 365
3 369 365 367
3 365 85 100
3 365 100 367
3 370 35 34
3 370 34 371
3 34 29 363
3 34 363 371
3 363 362 369
3 363 369 371
3 369 368 370
3 369 370 371
3 68 35 370
3 68 370 372
3 370 368 373
3 370 373 372
3 373 374 375
3 373 375 372
3 375 70 68
3 375 68 372
3 366 99 142
3 366 142 376
3 142 147 377
3 142 377 376
3 377 374 373
3 377 373 376
3 373 368 366
3 373 366 376
3 155 123 339
3 155 339 378
3 339 335 379
3 339 379 378
3 379 374 377
3 379 377 378
3 377 147 155
3 377 155 378
3 333 60 74
3 333 74 380
3 74 70 375
3 74 375 380
3 375 374 379
3 375 379 380
3 379 335 333
3 379 333 380
