1.71151
3.61743
1.82779
3.40168
1.01773
1.96804
1.74783
1.48471
0.565852
0.514336
6.2621
0.448315
0.468151
0.40893
0.508906
1.56748
4.04883
2.98437
6.05762
2.68637
0.972303
0.386489
2.72378
3.21822
1.26162
3.20566
4.42473
0.192993
2.49979
1.39324
1.44632
2.71305
4.03765
3.54081
7.91425
4.28276
5.42688
3.7067
0.563308
2.85574
1.48575
5.68545
5.07947
1.83078
3.13188
3.65535
3.57261
2.88165
9.48248
1.41699
2.28505
4.44265
2.31598
2.28454
0.550639
1.86108
0.525942
0.56495
2.74182
2.53179
3.89936
3.20683
2.60596
2.80696
3.68355
1.65191
4.28773
2.76072
3.31238
3.75375
1.76787
1.59876
1.18817
1.37905
1.74263
1.38806
2.2664
4.70211
5.66164
5.81397
2.59019
7.07817
6.68907
10.3354
1.03231
0.713597
2.24218
1.04911
7.06947
1.22923
0.829823
1.71415
3.67018
2.54515
4.85505
4.24365
4.10714
4.83098
5.0798
6.14216
1.44248
2.99913
0.787639
2.89622
3.29152
2.1875
1.54179
0.894888
0.88625
1.55915
0.637162
0.821134
0.610431
0.862643
4.31716
8.83195
2.26116
3.34201
0.456509
1.34903
0.787605
2.89402
0.731234
3.07168
2.1014
0.802131
2.21029
0.972839
0.572789
0.864616
1.31027
1.18246
2.91353
1.26858
0.972892
0.345534
5.87256
0.518374
3.04732
0.546679
2.92877
0.88883
0.406427
1.34281
0.692378
0.812382
3.66585
0.888781
3.0236
0.534233
0.256545
0.516747
2.05809
0.344962
0.972597
1.82142
1.9188
0.479105
1.4241
0.563846
0.252887
0.134206
1.94435
5.53949
1.59456
1.40718
5.06851
1.66738
8.35644
2.95763
1.60676
0.959596
1.16944
1.97584
1.96504
2.26763
8.28013
2.17033
1.25799
0.930979
5.66008
0.857368
4.88333
4.50552
8.26328
7.77586
3.14324
0.879494
7.00824
2.24612
5.85449
4.22038
2.38351
2.14493
0.942215
4.16309
0.528381
0.717291
1.41719
1.30936
1.55457
0.741965
2.19659
0.558099
0.531208
0.76206
0.676971
0.896189
0.676887
0.875127
0.779146
0.76203
1.88076
0.558339
1.12141
0.741948
1.54198
0.57486
5.89175
0.71736
2.47809
1.02755
5.80145
1.61178
7.81174
1.95855
0.611308
1.17205
0.833262
0.416631
2.63808
1.52736
0.601502
0.29291
1.39426
0.572396
2.2354
0.248582
5.94501
0.335233
4.18322
2.70303
2.4174
2.18864
4.54438
2.9952
1.93673
0.797692
5.66118
1.92004
1.15546
1.75309
0.579123
2.01612
2.56962
1.2901
2.97452
0.959876
5.58839
3.93722
7.50408
3.03467
1.59677
1.86377
0.902497
0.97756
5.46739
0.824642
8.02748
0.950302
6.15251
7.02899
0.38139
2.95325
0.595148
0.700585
0.594111
0.636232
3.12869
0.603065
0.318142
0.262562
1.6747
0.412688
3.07511
5.04384
5.74338
3.51705
6.44291
4.67712
3.45995
4.90713
4.37448
5.57485
4.98389
3.21673
5.00233
3.74316
5.05452
5.82517
3.96377
8.00881
5.2768
6.6913
3.85781
6.45764
4.72542
3.56038
3.9527
2.43834
5.01194
5.19697
6.21054
1.90099
4.02141
5.45168
2.43106
7.06947
2.86057
6.45764
3.96841
5.49716
2.50648
5.24866
3.48904
1.93673
2.84612
2.59904
1.7048
5.17875
3.48904
5.19347
4.12726
1.93933
4.55638
1.36118
3.7654
3.94633
1.78659
0.254453
0.362572
0.362572
0.915475
0.457732
5.27579
0.489392
4.56851
3.68062
0.57919
7.10629
0.839508
1.2501
6.12907
2.9108
6.12907
5.35889
0.684349
2.43111
0.691865
3.7144
5.67629
4.00552
5.65113
0.478024
0.562583
0.439939
3.05274
4.5468
5.74028
5.31447
3.19259
6.49757
1.17635
4.07357
1.20848
5.35234
0.39999
0.496909
0.795137
0.570826
3.07123
1.54263
7.22222
3.7144
2.67771
3.30758
3.48783
3.23521
4.59201
3.68062
7.89743
1.02784
6.12908
3.15356
4.70115
0.444506
0.885799
0.36105
1.15776
1.23354
3.71445
2.54285
4.78254
2.4418
1.65104
1.77546
