0.846079
0.769311
0.591954
0.677871
0.648251
0.600281
0.932743
0.704721
0.833427
0.822524
0.938397
0.838782
0.803485
0.665448
0.560178
0.667584
0.93645
0.975737
0.632044
0.819565
0.572374
0.602499
1.01456
0.717559
0.874063
1.05444
0.742747
0.814126
0.633023
0.592715
0.907908
1.46506
0.562495
0.603739
0.729582
0.708273
0.626642
0.644565
0.771738
0.679844
0.751602
0.737184
0.499342
0.532538
0.802288
0.763012
0.881061
0.959969
0.796393
0.849982
0.794749
0.866905
0.769857
0.872041
0.865507
0.928901
0.912782
0.710328
0.639937
0.519164
0.488142
0.251686
0.430463
0.670341
0.60096
0.552234
0.318862
0.194509
0.232233
0.216462
0.266704
0.388982
0.26784
0.907672
0.579793
0.223104
0.218006
0.523525
0.397109
0.712558
0.775214
0.829753
0.799559
0.833022
0.797908
0.815014
0.880991
0.666705
0.740789
0.643391
0.612579
0.804129
0.781681
0.83867
0.803371
0.765235
0.595126
0.656349
0.467462
0.458677
0.599586
0.843355
0.663626
0.671158
0.613182
0.737538
0.681895
0.784183
0.627644
0.684992
1.04078
0.678169
0.598853
0.955002
0.720567
0.893254
0.888039
0.701891
0.543269
0.874675
0.67505
0.898012
0.860354
0.716146
0.812316
0.663205
0.670503
0.85661
0.797027
0.657894
0.868131
0.681424
0.697826
0.734771
0.816315
0.611591
0.870852
0.666866
0.70117
0.8671
0.602336
0.993665
0.763715
1.06153
1.12302
0.552482
0.855375
0.791737
1.1802
1.31005
0.683427
0.739159
1.0962
0.647654
1.15228
1.1425
0.759207
1.19921
0.6637
1.10645
1.09135
0.888432
0.912372
0.904247
0.879689
0.617366
0.719988
1.07798
0.482937
1.14833
0.673648
0.985746
0.762293
1.37582
0.691258
0.760944
0.739034
0.758673
0.808948
0.730126
0.714562
0.821406
0.895514
0.774123
0.865969
0.727282
0.718615
0.876299
0.731838
0.871881
0.825052
0.862548
0.707997
0.813332
0.746436
0.967499
0.884661
0.717047
0.735496
0.724036
0.775422
0.853576
0.843087
0.6972
0.826453
0.643074
1.18173
0.781253
1.12833
1.18824
0.945642
0.206099
0.695385
0.801883
0.689642
0.863214
0.982681
0.729053
1.29344
0.785804
1.16208
1.00565
0.754198
0.92991
0.564727
0.942677
1.11614
1.71312
0.977624
0.949648
0.587093
0.703859
0.553413
0.772009
1.3862
0.713542
0.901304
0.526169
0.807771
0.701969
0.602475
0.560829
0.671919
0.744262
0.954888
0.666342
0.514829
0.595972
0.598357
0.619974
0.607009
0.725899
0.664198
0.353702
0.669652
0.692143
0.464721
0.558264
0.609859
0.600731
0.63409
0.593242
0.715129
0.746139
1.03906
0.678274
0.638927
0.783692
0.623649
0.823883
0.789019
0.766839
0.62868
0.841357
0.601672
0.542647
0.814874
0.744617
0.581217
0.55528
0.46914
0.531881
0.757545
0.652893
0.653683
0.813083
0.423589
0.747542
0.604244
0.886331
0.752955
0.811462
0.490368
0.611879
1.11224
0.929318
0.664934
0.760698
0.902464
0.804588
0.782857
0.6855
0.879953
0.580521
0.660853
0.686102
0.767424
0.689376
0.719529
0.899905
0.696314
0.684483
0.709071
0.667569
0.636571
0.604795
0.548345
0.658022
0.591989
0.633118
0.596193
0.622655
0.585327
0.628409
0.661581
0.646003
0.75989
0.967468
0.71464
0.827692
0.774887
0.658002
0.665195
0.653376
0.785024
0.711286
0.771231
0.99939
0.735094
0.696038
0.830674
0.858141
0.65355
0.74031
0.710604
0.694997
0.809359
0.618926
0.825747
0.727241
0.670582
0.670345
0.571558
0.630102
0.651398
0.629602
0.708922
0.588513
0.740906
0.852692
0.945796
0.949321
0.714183
0.879102
0.745635
0.776529
0.628814
0.732107
0.794204
0.821364
0.814129
0.811424
0.660039
0.737445
0.928901
0.950337
1.18906
1.1035
0.882604
0.989996
0.734364
0.916853
0.979051
1.06329
0.884985
0.925092
0.968328
1.00351
1.14552
1.08386
0.694145
0.752583
0.662813
0.711717
0.871473
0.804289
0.817871
0.752995
0.661286
0.636187
0.757009
0.768347
0.793655
0.835314
0.473336
0.583063
1.01361
1.07343
1.00686
1.23734
0.794301
0.907308
0.830163
0.986701
1.31507
1.04053
0.841121
0.774337
0.966576
0.876148
1.13589
0.60004
0.552269
0.70799
0.63005
0.501496
0.745518
0.707369
0.909622
0.922696
0.712699
0.771101
0.915648
0.712956
0.916578
0.844039
0.723977
0.751615
1.0697
1.17568
1.12758
1.10181
1.034
1.01968
0.916804
0.969645
1.16135
1.13189
0.961364
0.992558
0.946795
0.96173
1.20699
1.14644
0.699968
0.700528
0.68857
0.690421
0.857752
0.770631
0.80163
0.790262
0.810803
0.846764
0.892473
0.858133
0.797134
0.700024
0.546293
0.807381
1.00029
0.804131
1.06399
1.01811
0.697527
0.739997
1.02791
0.908243
0.89764
0.991945
0.99262
0.91719
0.913566
0.721255
0.900855
1.35979
0.627025
0.70809
0.670035
0.674667
0.903892
0.927645
0.851066
0.827402
1.43946
1.57149
1.21641
1.65701
1.45497
1.52261
1.32187
1.5318
0.840986
1.03458
1.20561
1.16841
1.44691
1.55463
1.19133
1.68269
1.06793
1.13474
0.78908
1.43497
1.49956
1.47565
1.2407
1.23999
1.62212
1.32639
1.3258
1.46174
1.97925
1.61207
1.64135
1.61415
1.36944
1.37218
1.32672
1.47599
1.62995
1.46136
0.98368
1.48833
1.27449
1.0601
0.797071
1.11734
1.06165
1.01883
1.40128
1.51694
0.96928
1.02162
1.0518
1.18663
1.86044
1.06153
1.23957
1.34197
1.48902
1.35782
1.50116
2.11928
1.85017
0.534401
1.46447
1.63562
1.38198
1.27366
1.24902
1.66525
1.55922
1.66216
1.41138
1.4038
1.0202
1.21157
1.16727
1.22207
1.41617
1.4233
1.61199
1.2021
1.01007
1.25786
1.13245
1.46707
1.52348
1.38891
1.21386
1.35291
1.23268
1.52413
1.29309
1.44858
1.63405
1.49102
1.78879
1.60854
1.18084
1.38751
1.81245
1.82806
1.7524
1.09675
1.1249
1.30306
1.10632
1.33187
0.956959
1.46265
0.624013
1.50504
1.51408
1.50861
1.33623
1.18132
1.20665
1.3356
0.965184
1.03781
0.853422
1.52792
1.25208
1.36733
0.901141
1.32609
1.22067
1.15169
1.4469
1.46984
0.637776
0.711686
0.687598
0.58152
1.1055
0.958923
0.658689
0.655811
0.921434
0.808493
1.11155
0.821301
0.496727
1.00964
0.824972
1.03708
0.756575
0.913061
0.829652
1.00726
0.777493
1.19621
1.12463
1.13305
0.710326
0.609102
0.624586
0.634182
0.995385
0.82336
0.624216
0.924854
0.655781
0.786834
0.724265
0.881549
0.832057
0.736262
0.772922
0.799146
0.7289
1.02493
0.745007
0.787193
0.849601
0.816193
1.10484
0.708525
0.652866
0.87263
0.80515
0.696671
0.826243
0.769237
0.789692
0.761835
0.761209
0.579279
0.815049
0.726768
0.798107
0.744484
0.563605
0.850599
0.670261
0.611286
1.15122
0.781283
0.634097
0.529016
0.652037
1.03284
1.15799
1.09833
0.919443
1.11559
0.757288
0.777717
0.728289
0.635266
1.39749
0.621005
0.589124
0.709691
0.745697
0.758562
0.647665
0.701431
0.699352
0.548257
0.823609
0.894655
0.842229
0.828245
0.858952
0.543403
0.742363
0.7713
0.834352
0.837747
0.811475
0.849232
0.818068
0.803718
0.696768
0.643008
0.815311
0.805881
0.76715
0.866179
0.728404
0.822815
0.897623
0.851615
0.710896
0.723442
0.913148
0.850028
0.893286
0.781393
0.748531
0.766455
0.818746
0.8655
0.835856
0.865266
0.830637
0.882417
