OFF
279 544 0
-11.26 2.7488 -7.51402
-10.9246 3.1198 -7.31782
-10.9581 2.9049 -7.70282
-11.2258 2.5975 -7.76802
-10.8239 2.8056 -7.81382
-11.0994 2.4643 -7.88492
-11.3352 2.1117 -7.77212
-11.456 2.2799 -7.66182
-11.4779 2.4674 -7.40462
-10.6849 2.6557 -7.76172
-10.3874 2.6316 -7.43372
-10.72 2.252 -7.62962
-10.9316 2.3266 -7.83092
-10.8999 1.9309 -7.52762
-11.1409 1.9874 -7.72892
-11.0646 1.6796 -7.30202
-11.0648 1.5067 -6.79022
-11.3665 1.5235 -7.11312
-11.303 1.7098 -7.47762
-11.554 1.5927 -7.11852
-11.4975 1.803 -7.50582
-11.6362 1.7782 -7.05652
-11.5936 2.0078 -6.67902
-11.6011 2.1819 -7.18852
-11.5954 1.9833 -7.41572
-6.26875 5.3053 1.99898
-6.40028 4.8255 1.87438
-6.36691 4.5309 1.92908
-6.43478 4.4759 1.75278
-6.21397 6.1016 1.03068
-6.22356 6.3191 1.21778
-6.13774 6.4235 1.47108
-6.44571 4.2791 1.01318
-6.83614 4.4384 0.611583
-6.36804 5.0215 0.813183
-6.82571 5.1678 0.536883
-6.27497 5.7523 0.898983
-6.42715 4.2302 1.56848
-7.97569 4.992 0.758383
-8.03854 5.2707 0.686983
-8.33903 4.7899 0.352483
-8.26972 4.531 0.415783
-8.55918 4.2488 -0.020917
-8.49234 4.0073 0.033183
-8.35538 3.726 0.044083
-8.13974 4.2275 0.431283
-7.64305 4.9093 1.00728
-8.7022 3.7304 -0.450617
-8.77133 3.318 -0.953917
-8.72976 3.0999 -0.921017
-8.64515 3.5028 -0.406717
-8.6107 2.8468 -0.923217
-8.51206 3.2389 -0.401817
-8.43812 2.5997 -0.957817
-8.23602 2.3996 -1.02172
-8.12175 2.7729 -0.500817
-8.32893 2.9814 -0.433917
-7.96678 3.3301 0.026983
-8.17443 3.4507 0.013283
-7.48239 4.2089 0.802983
-7.81964 4.2246 0.637383
-7.91627 5.4187 0.216083
-7.61336 5.4822 0.228683
-8.08095 4.4196 -0.418517
-8.26796 4.4449 -0.369017
-8.27657 4.961 0.077683
-7.97005 5.5131 0.406583
-8.15487 3.807 -0.855117
-8.18553 3.3903 -1.30702
-8.39222 3.5003 -1.21712
-8.35904 3.9214 -0.756017
-8.57627 3.5223 -1.11782
-8.53465 3.9439 -0.643517
-8.7114 3.4601 -1.02472
-8.58436 4.2394 -0.213317
-8.03213 5.4454 0.561083
-8.32332 4.955 0.239983
-7.38829 4.2458 -0.074117
-7.19059 4.2342 0.220183
-7.42761 3.6009 -0.277017
-7.55639 3.5283 -0.571117
-7.6955 3.8142 -0.581217
-7.59494 4.2994 -0.268817
-7.29881 4.8983 0.163683
-7.5681 2.8365 -0.908517
-7.64456 2.4595 -1.37882
-7.68707 2.6797 -1.41102
-7.6262 3.0662 -0.951917
-7.80803 2.9369 -1.40752
-7.7614 3.3345 -0.955717
-7.98249 3.1882 -1.37162
-7.94664 3.5964 -0.922617
-7.87861 4.0942 -0.549617
-7.69609 4.7873 -0.124817
-7.47217 3.8819 0.492683
-7.78508 3.1 -0.167317
-7.73262 2.6677 -0.663117
-7.49444 3.5045 0.060783
-7.33845 3.8629 0.366583
-8.02839 2.2875 -1.11232
-7.91653 2.6563 -0.600417
-7.84245 2.2614 -1.21302
-7.70543 2.3194 -1.30732
-7.61416 2.6902 -0.823017
-7.461 3.3913 -0.182217
-7.23291 4.0075 0.287983
-8.76979 3.0949 -1.54812
-8.74777 2.8806 -1.52682
-8.74692 3.0133 -2.19372
-8.74715 2.8005 -2.18202
-8.64713 2.6075 -1.56922
-8.75207 3.0257 -2.85122
-8.83457 3.0843 -3.48112
-8.88197 2.8806 -3.47132
-8.77589 2.8153 -2.84422
-8.87248 2.438 -3.51692
-8.74393 2.562 -2.86022
-8.76606 2.1542 -3.53872
-8.54921 2.0934 -2.94532
-8.66532 2.3075 -2.89522
-8.41305 2.0924 -2.29442
-8.56523 2.2989 -2.23662
-8.32089 2.1836 -1.63642
-8.50319 2.3842 -1.57472
-8.18437 3.151 -1.85002
-8.37908 3.2637 -1.76892
-8.2024 2.9902 -2.93962
-8.36214 3.1627 -2.37472
-8.52928 3.1965 -2.30132
-8.55911 3.2897 -1.68262
-8.37276 3.0316 -3.64782
-8.45699 3.1609 -3.54692
-8.68837 3.2411 -3.85022
-8.5329 3.1926 -2.93722
-8.73895 3.1996 -3.51102
-8.66334 3.1516 -2.88532
-8.66592 3.146 -2.23722
-8.69812 3.2324 -1.60452
-7.73093 2.2275 -1.94282
-7.83008 2.3072 -2.47102
-7.85272 2.1094 -2.55182
-8.02094 2.5319 -3.08492
-7.8508 2.6984 -1.95172
-8.03542 2.0737 -3.15692
-8.30454 2.0893 -3.70942
-8.26026 2.3733 -3.74412
-8.01183 2.2862 -3.16312
-8.29429 2.8098 -3.68472
-8.12335 2.8021 -3.10902
-8.03698 2.834 -2.50492
-8.00131 2.9483 -1.91252
-8.12543 2.0688 -1.71832
-8.24067 1.9553 -2.45322
-8.0719 1.9323 -2.44182
-7.94388 2.0388 -1.80612
-8.65183 2.0122 -3.58552
-8.30489 1.9147 -3.25242
-8.40012 1.976 -3.67882
-8.12438 1.9499 -3.12212
-7.93423 1.9787 -2.50752
-7.80336 2.0921 -1.88572
-9.06285 3.0993 -4.01732
-9.32264 3.2009 -4.52942
-9.41237 2.9831 -4.45002
-9.13711 2.6459 -3.98012
-9.8376 2.8381 -4.77102
-9.89552 3.1743 -5.05862
-9.6776 3.2752 -4.99942
-10.2179 2.642 -4.89952
-9.88248 2.376 -4.66902
-9.48788 2.4881 -4.38732
-9.07135 2.1869 -4.01422
-8.69825 3.1073 -4.25262
-9.09453 3.0218 -4.84232
-9.00277 3.1928 -4.62992
-9.29501 3.2936 -4.91142
-9.59373 3.0624 -5.47142
-9.51403 3.2261 -5.33842
-9.63004 3.3381 -5.46562
-9.06473 3.2621 -4.34962
-9.67179 3.3697 -5.23612
-8.66946 2.0671 -4.10442
-8.5581 2.4835 -4.16262
-8.98593 2.2501 -4.48392
-8.91969 2.7681 -4.61472
-9.53628 2.1926 -4.77662
-10.045 2.2102 -5.10052
-9.72777 2.3615 -5.05282
-9.80985 2.527 -5.29692
-9.32573 2.5737 -4.91482
-9.66314 2.8184 -5.39502
-8.58368 2.8142 -4.19182
-9.43372 2.1824 -4.41312
-9.01582 2.0386 -4.21142
-10.2041 2.2098 -4.84652
-9.91828 2.1472 -4.80902
-9.227 2.086 -4.47302
-10.1526 3.5449 -5.65792
-10.3547 3.3561 -5.49392
-10.4719 3.0403 -5.23992
-10.4104 3.5183 -6.29262
-10.6235 3.3259 -6.03152
-10.6588 3.0853 -5.49432
-11.0246 2.6539 -5.64242
-11.155 2.2736 -5.57112
-10.7656 2.4791 -5.04722
-10.6796 2.7805 -5.16012
-9.81891 3.5352 -6.05042
-9.72555 3.3299 -6.14822
-9.69375 3.0502 -6.07902
-10.1393 3.5793 -6.34262
-9.95901 3.5948 -5.80102
-10.3953 1.8694 -5.34712
-10.2796 1.9496 -5.80502
-10.0799 2.2419 -6.07802
-9.86762 2.6352 -6.19152
-10.7408 2.2382 -4.99702
-10.7536 1.9535 -5.10582
-11.0847 2.001 -5.43362
-10.6385 1.8037 -5.27392
-10.7022 3.3388 -6.89792
-10.9565 3.13 -6.72682
-11.1899 2.816 -6.53542
-10.9635 2.9563 -6.05512
-11.1514 2.941 -7.15652
-11.3753 2.6495 -7.00722
-11.519 2.3298 -6.80542
-11.4462 2.1015 -6.18742
-11.3615 2.4562 -6.33982
-9.87587 2.9336 -6.56742
-9.90947 3.2303 -6.63642
-10.104 2.7965 -7.02722
-10.141 3.0882 -7.10352
-10.274 3.2902 -7.10852
-10.04 3.4363 -6.63342
-10.4104 2.9032 -7.49892
-10.542 3.0805 -7.52852
-10.7065 3.171 -7.43482
-10.4679 3.383 -7.03252
-10.6383 1.665 -5.84252
-10.8587 1.5427 -6.31012
-10.6102 1.7497 -6.49812
-10.3808 2.0647 -6.70752
-10.8354 1.6884 -6.94972
-10.6389 1.9661 -7.16392
-10.4622 2.3082 -7.30422
-10.198 2.4345 -6.88952
-11.4185 1.8025 -6.12582
-11.2966 1.5905 -6.13442
-11.0719 1.7183 -5.64972
-11.5708 1.7349 -6.61072
-11.4722 1.5352 -6.64272
-11.2803 1.4583 -6.67142
-11.0987 1.4967 -6.19242
-10.8764 1.621 -5.71592
-6.95395 5.9005 0.660783
-7.09467 6.0641 0.783183
-7.08219 6.15 1.01068
-7.53169 5.8093 0.514283
-7.60629 5.8607 0.689183
-7.65447 5.6077 0.999783
-7.65044 5.7927 0.860583
-7.10601 5.8957 1.35798
-7.16057 6.0597 1.17178
-6.23987 6.1089 1.84788
-6.2054 6.3304 1.67828
-6.21077 5.7143 1.99348
-7.15208 5.5257 1.40898
-6.94908 5.2161 1.54608
-7.60864 5.3079 1.07808
-7.16938 4.7489 1.29948
-6.8828 4.4796 1.39398
-7.10539 4.2089 0.959483
-6.89747 4.179 0.931983
-6.45544 4.1518 1.34318
-7.14976 4.0695 0.637883
-6.8898 4.2371 0.715883
-7.00373 4.7189 0.397783
-7.0796 5.5108 0.453983
3 0 1 2
3 0 2 3
3 2 4 5
3 2 5 3
3 5 6 7
3 5 7 3
3 7 8 0
3 7 0 3
3 9 10 11
3 9 11 12
3 11 13 14
3 11 14 12
3 14 6 5
3 14 5 12
3 5 4 9
3 5 9 12
3 15 16 17
3 15 17 18
3 17 19 20
3 17 20 18
3 20 6 14
3 20 14 18
3 14 13 15
3 14 15 18
3 21 22 23
3 21 23 24
3 23 8 7
3 23 7 24
3 7 6 20
3 7 20 24
3 20 19 21
3 20 21 24
3 25 26 27
3 26 28 27
3 29 30 31
3 32 33 34
3 34 35 36
3 27 28 37
3 38 39 40
3 38 40 41
3 40 42 43
3 40 43 41
3 43 44 45
3 43 45 41
3 45 46 38
3 45 38 41
3 47 48 49
3 47 49 50
3 49 51 52
3 49 52 50
3 52 44 43
3 52 43 50
3 43 42 47
3 43 47 50
3 53 54 55
3 53 55 56
3 55 57 58
3 55 58 56
3 58 44 52
3 58 52 56
3 52 51 53
3 52 53 56
3 57 59 60
3 60 46 45
3 45 44 58
3 45 58 60
3 58 57 60
3 61 62 63
3 63 64 61
3 64 65 61
3 65 66 61
3 67 68 69
3 67 69 70
3 69 71 72
3 69 72 70
3 72 65 64
3 72 64 70
3 64 63 67
3 64 67 70
3 73 48 47
3 73 47 74
3 47 42 74
3 74 65 72
3 72 71 73
3 72 73 74
3 40 39 75
3 40 75 76
3 75 66 65
3 75 65 76
3 65 74 76
3 74 42 40
3 74 40 76
3 77 78 79
3 79 80 77
3 80 81 82
3 80 82 77
3 82 83 77
3 84 85 86
3 84 86 87
3 86 88 89
3 86 89 87
3 89 81 80
3 89 80 87
3 80 79 84
3 80 84 87
3 90 68 67
3 90 67 91
3 67 63 92
3 67 92 91
3 92 81 89
3 92 89 91
3 89 88 90
3 89 90 91
3 63 62 93
3 93 83 82
3 82 81 92
3 82 92 93
3 92 63 93
3 94 59 57
3 57 95 94
3 95 96 97
3 95 97 94
3 97 98 94
3 55 54 99
3 55 99 100
3 99 101 96
3 99 96 100
3 96 95 100
3 95 57 55
3 95 55 100
3 102 85 84
3 102 84 103
3 84 79 104
3 84 104 103
3 104 96 103
3 96 101 102
3 96 102 103
3 79 78 105
3 79 105 104
3 105 98 97
3 105 97 104
3 97 96 104
3 49 48 106
3 49 106 107
3 106 108 109
3 106 109 107
3 109 110 107
3 110 51 49
3 110 49 107
3 111 112 113
3 111 113 114
3 113 115 116
3 113 116 114
3 116 110 109
3 116 109 114
3 109 108 111
3 109 111 114
3 115 117 118
3 115 118 119
3 118 120 121
3 118 121 119
3 121 110 116
3 121 116 119
3 116 115 119
3 122 54 53
3 122 53 123
3 53 51 110
3 53 110 123
3 110 121 123
3 121 120 122
3 121 122 123
3 69 68 124
3 69 124 125
3 124 126 127
3 124 127 125
3 127 128 129
3 127 129 125
3 129 71 69
3 129 69 125
3 126 130 131
3 131 132 133
3 133 128 127
3 133 127 131
3 127 126 131
3 134 112 111
3 134 111 135
3 111 108 136
3 111 136 135
3 136 128 133
3 136 133 135
3 133 132 134
3 133 134 135
3 106 48 73
3 106 73 137
3 73 71 129
3 73 129 137
3 129 128 136
3 129 136 137
3 136 108 106
3 136 106 137
3 86 85 138
3 86 138 139
3 138 140 139
3 139 141 142
3 142 88 86
3 142 86 139
3 143 144 145
3 143 145 146
3 145 141 146
3 141 139 146
3 139 140 143
3 139 143 146
3 147 130 126
3 147 126 148
3 126 149 148
3 149 141 148
3 141 145 147
3 141 147 148
3 124 68 90
3 124 90 150
3 90 88 142
3 90 142 150
3 142 141 149
3 142 149 150
3 149 126 124
3 149 124 150
3 99 54 122
3 99 122 151
3 122 120 152
3 122 152 151
3 152 153 154
3 152 154 151
3 154 101 99
3 154 99 151
3 118 117 155
3 118 155 152
3 155 156 152
3 156 153 152
3 152 120 118
3 157 144 143
3 157 143 158
3 143 140 159
3 143 159 158
3 159 153 156
3 159 156 158
3 156 157 158
3 138 85 102
3 138 102 160
3 102 101 154
3 102 154 160
3 154 153 159
3 154 159 160
3 159 140 138
3 159 138 160
3 113 112 161
3 161 162 163
3 163 164 161
3 164 115 113
3 164 113 161
3 165 163 166
3 163 162 167
3 163 167 166
3 168 169 165
3 169 170 165
3 170 163 165
3 171 117 115
3 171 115 164
3 164 163 170
3 170 171 164
3 131 130 172
3 172 173 174
3 174 175 132
3 174 132 172
3 132 131 172
3 173 176 177
3 177 178 175
3 175 174 177
3 174 173 177
3 167 162 179
3 167 179 180
3 179 175 180
3 175 178 180
3 161 112 134
3 161 134 179
3 134 132 179
3 132 175 179
3 179 162 161
3 145 144 181
3 145 181 182
3 181 183 182
3 183 184 182
3 185 186 187
3 187 188 189
3 189 184 183
3 189 183 187
3 183 185 187
3 190 176 173
3 173 184 190
3 184 189 190
3 189 188 190
3 172 130 147
3 172 147 191
3 147 145 182
3 147 182 191
3 182 184 191
3 184 173 172
3 184 172 191
3 155 117 171
3 171 170 192
3 192 193 171
3 193 156 155
3 193 155 171
3 169 168 194
3 194 195 169
3 195 193 192
3 195 192 169
3 192 170 169
3 195 186 185
3 185 183 196
3 185 196 195
3 196 193 195
3 181 144 157
3 157 156 193
3 157 193 181
3 193 196 181
3 196 183 181
3 166 167 197
3 166 197 198
3 199 165 166
3 199 166 198
3 197 200 201
3 197 201 198
3 201 202 198
3 202 199 198
3 203 204 205
3 203 205 206
3 206 199 202
3 202 203 206
3 205 168 206
3 168 165 199
3 168 199 206
3 177 176 178
3 207 178 208
3 178 176 209
3 178 209 208
3 210 200 197
3 210 197 211
3 207 210 211
3 197 167 180
3 197 180 211
3 180 178 211
3 178 207 211
3 188 187 186
3 212 213 186
3 213 214 188
3 213 188 186
3 215 209 190
3 209 176 190
3 188 214 215
3 188 215 190
3 194 168 205
3 194 205 216
3 216 217 194
3 205 204 218
3 205 218 216
3 218 217 216
3 212 194 219
3 194 217 219
3 186 195 194
3 194 212 186
3 200 220 221
3 200 221 201
3 221 222 223
3 221 223 201
3 223 202 201
3 1 0 224
3 0 8 225
3 0 225 224
3 225 222 221
3 225 221 224
3 221 220 1
3 221 1 224
3 23 22 226
3 22 227 228
3 22 228 226
3 228 222 225
3 228 225 226
3 225 8 23
3 225 23 226
3 203 202 223
3 223 222 228
3 223 228 203
3 228 227 204
3 228 204 203
3 208 209 229
3 208 229 230
3 229 231 232
3 229 232 230
3 232 233 234
3 232 234 230
3 234 207 208
3 234 208 230
3 10 9 235
3 9 4 236
3 9 236 235
3 236 233 232
3 236 232 235
3 232 231 10
3 232 10 235
3 2 1 237
3 1 220 238
3 1 238 237
3 238 233 236
3 238 236 237
3 236 4 2
3 236 2 237
3 210 207 234
3 234 233 238
3 234 238 210
3 238 220 200
3 238 200 210
3 213 212 239
3 239 240 241
3 239 241 213
3 241 242 214
3 241 214 213
3 16 15 243
3 15 13 244
3 15 244 243
3 244 242 241
3 244 241 243
3 241 240 16
3 241 16 243
3 11 10 245
3 10 231 246
3 10 246 245
3 246 242 244
3 246 244 245
3 244 13 11
3 244 11 245
3 229 209 215
3 214 242 246
3 214 246 215
3 246 231 229
3 246 229 215
3 204 227 247
3 204 247 218
3 247 248 249
3 247 249 218
3 249 217 218
3 22 21 250
3 21 19 251
3 21 251 250
3 251 248 247
3 251 247 250
3 247 227 22
3 247 22 250
3 17 16 252
3 16 240 253
3 16 253 252
3 253 248 251
3 253 251 252
3 251 19 17
3 251 17 252
3 239 212 219
3 239 219 254
3 219 217 249
3 219 249 254
3 249 248 253
3 249 253 254
3 253 240 239
3 253 239 254
3 30 29 255
3 30 255 256
3 257 31 30
3 257 30 256
3 62 61 258
3 61 66 259
3 61 259 258
3 259 257 256
3 259 256 258
3 256 255 62
3 256 62 258
3 75 39 260
3 75 260 261
3 260 262 263
3 260 263 261
3 263 257 259
3 263 259 261
3 259 66 75
3 259 75 261
3 262 264 265
3 262 265 263
3 265 31 257
3 265 257 263
3 266 264 262
3 266 262 267
3 268 25 266
3 268 266 267
3 260 39 38
3 260 38 269
3 38 46 269
3 46 268 267
3 46 267 269
3 267 262 260
3 267 260 269
3 60 59 270
3 59 271 270
3 270 268 46
3 46 60 270
3 271 28 26
3 26 25 268
3 268 270 26
3 270 271 26
3 37 28 271
3 37 271 272
3 273 274 37
3 273 37 272
3 59 94 272
3 94 98 275
3 94 275 272
3 275 273 272
3 272 271 59
3 78 33 276
3 78 276 105
3 276 273 275
3 276 275 105
3 275 98 105
3 33 32 276
3 32 274 273
3 32 273 276
3 34 33 277
3 35 34 277
3 78 77 277
3 77 83 277
3 83 35 277
3 277 33 78
3 93 62 278
3 62 255 278
3 278 35 83
3 83 93 278
3 255 29 36
3 255 36 278
3 36 35 278
