OFF
187 356 0
9.67667 -16.8978 -5.84789
9.61867 -16.022 -6.69879
10.7947 -15.8815 -6.81319
10.7397 -16.8195 -5.90359
8.74567 -16.026 -6.66209
10.1847 -15.1204 -7.54269
9.30067 -14.8129 -7.79849
6.34267 -3.01821 1.30101
6.41467 -3.28101 1.12731
6.61067 -3.09731 0.442713
6.55667 -2.89351 0.578613
6.72767 -3.08621 -0.419087
6.62967 -2.74851 -0.295187
7.17967 -5.57761 0.357713
6.97467 -4.18761 0.121413
6.61167 -2.81541 -1.17129
7.17567 -4.91801 -2.16349
6.33667 -2.53331 -1.69589
6.55767 -2.60571 -1.12059
4.77467 -3.01431 1.34661
5.78067 -4.99561 0.866413
5.13067 -3.07501 1.63411
5.73767 -3.64341 1.51651
5.55067 -3.09321 1.76471
6.41367 -4.39251 1.12631
5.98167 -3.08971 1.61121
4.57267 -2.78491 -0.206587
4.61467 -3.20251 0.260113
4.46967 -2.84351 0.363713
4.80567 -2.70241 -0.810087
5.63867 -5.08901 -1.43719
5.01067 -4.01841 -0.585287
4.56567 -2.94751 0.915013
6.41367 -3.71531 -2.08439
5.98367 -2.49011 -1.85459
6.40767 -4.90321 -2.19179
5.57167 -2.51501 -1.69899
5.57167 -3.81351 -1.59019
5.13867 -2.59881 -1.30899
9.13467 -10.4975 -2.11099
8.90767 -10.7474 -1.66079
9.47967 -12.4317 -2.52049
9.72567 -12.1213 -2.96399
9.99467 -13.9345 -3.38119
10.2627 -13.5571 -3.83819
10.3517 -13.0842 -4.41509
9.80767 -11.7286 -3.52719
9.21067 -10.1788 -2.68139
10.4297 -15.1951 -4.16469
10.9667 -16.7425 -5.18189
11.2877 -16.199 -5.70169
10.7197 -14.753 -4.64539
11.3967 -15.5672 -6.34679
10.8167 -14.2036 -5.24669
11.2817 -14.8983 -6.99039
10.9697 -14.3995 -7.50169
10.4297 -13.2191 -6.32189
10.7197 -13.6559 -5.84629
9.99467 -12.2395 -5.44099
10.2627 -12.6127 -4.98999
9.47967 -11.0308 -4.51899
8.90767 -9.61701 -3.67089
9.13467 -9.86181 -3.24409
9.72567 -11.3373 -4.08669
7.62067 -10.7628 -1.61449
7.24167 -10.6081 -1.87839
7.67867 -12.2825 -2.74859
8.08867 -12.4752 -2.47729
8.16467 -14.4209 -3.96899
8.47667 -14.0192 -3.30969
9.01267 -14.1391 -3.15479
8.57967 -12.5821 -2.32019
8.07467 -10.8545 -1.45919
8.60967 -16.6177 -5.31109
9.13967 -16.9306 -4.99819
9.78767 -17.0764 -4.85199
9.36467 -15.4554 -3.89909
10.4097 -17.0016 -4.88679
9.94567 -15.4207 -3.92669
9.54867 -14.1197 -3.16609
8.52967 -10.8579 -1.45909
9.07067 -12.5764 -2.32019
7.01467 -9.99061 -2.93309
7.24167 -9.79341 -3.28219
7.67867 -11.2091 -4.20859
7.43367 -11.4649 -3.85489
8.02967 -12.4186 -5.18579
7.76167 -12.7416 -4.80659
7.67267 -13.1055 -4.38529
7.35167 -11.7484 -3.47119
6.93867 -10.2041 -2.56469
8.29867 -13.3983 -6.10339
8.61167 -14.5785 -7.32109
8.28967 -15.0431 -6.84989
8.00867 -13.7872 -5.68909
8.18267 -15.6042 -6.31149
7.91167 -14.2303 -5.22089
8.28967 -16.1455 -5.75339
7.76167 -13.468 -3.96589
7.01467 -10.4159 -2.20409
7.43367 -12.0306 -3.09119
8.52967 -9.51491 -3.83369
9.07067 -10.8927 -4.70059
9.54867 -12.0615 -5.64619
9.01267 -12.0506 -5.64549
8.57967 -10.895 -4.67819
8.07467 -9.52841 -3.78689
10.4147 -14.1154 -7.75399
9.94567 -13.0025 -6.55129
9.79167 -14.0903 -7.80539
9.36467 -12.9785 -6.56859
9.14567 -14.2526 -7.64789
8.78367 -13.1196 -6.40789
8.47667 -12.179 -5.47869
7.62067 -9.63021 -3.58499
8.08867 -11.0098 -4.49869
7.91967 -6.99601 -0.741487
7.70867 -7.16801 -0.200487
7.99067 -6.77861 -1.40679
7.45967 -5.24181 -0.969287
8.30067 -8.94201 -0.880387
8.51767 -8.73751 -1.36719
8.58967 -8.47651 -1.97609
8.30067 -8.02201 -3.01199
8.51767 -8.21831 -2.56999
7.70867 -6.40581 -2.51829
7.91967 -6.56531 -2.04849
7.38967 -5.06141 -1.66369
6.82967 -4.88531 -2.31679
7.35667 -6.34971 -2.66819
6.93367 -6.37421 -2.56879
7.94067 -7.94671 -3.16509
7.50767 -7.96731 -3.09179
6.71367 -8.19511 -2.51679
7.07467 -8.05851 -2.85489
6.15867 -6.57491 -1.90479
6.51067 -6.45681 -2.29079
5.98967 -4.98771 -1.87509
5.42967 -5.20891 -0.961487
5.94767 -6.70571 -1.48149
5.87667 -6.84071 -1.05139
5.35967 -5.32631 -0.480887
6.49767 -8.35191 -2.14029
6.42567 -8.51741 -1.75209
6.71367 -8.82891 -1.04699
6.49767 -8.68031 -1.37869
5.89967 -6.31331 0.0268131
5.94767 -6.97171 -0.644987
6.51067 -7.18741 -0.0251869
6.93367 -7.24511 0.110613
6.40967 -5.65641 0.743713
7.07467 -8.95191 -0.783687
7.50767 -9.02671 -0.636287
7.94067 -9.03091 -0.652687
7.35667 -7.24491 0.0678131
6.82967 -5.64901 0.671213
11.0397 -17.0217 -5.44159
11.3587 -16.4938 -5.95169
11.4647 -15.8452 -6.57839
10.9667 -17.0202 -5.65099
11.2587 -16.5426 -6.11199
11.3577 -15.9593 -6.67449
10.9667 -14.8997 -7.68039
11.2587 -15.3743 -7.23039
11.0397 -14.6769 -7.70339
11.3587 -15.1982 -7.20159
10.5117 -14.4053 -7.96569
9.87767 -14.359 -8.01069
10.4877 -14.6476 -7.92519
9.91367 -14.5987 -7.97569
8.85767 -15.033 -7.55269
8.71467 -14.844 -7.54059
9.24267 -14.5134 -7.86039
8.39667 -15.3264 -7.07709
8.29067 -15.8829 -6.54229
8.56767 -15.4786 -7.13049
8.46967 -15.9941 -6.64129
8.85767 -16.9377 -5.73009
8.56767 -16.5031 -6.14999
8.71467 -16.9097 -5.55129
8.39667 -16.4359 -6.00879
9.24267 -17.2288 -5.24469
9.87767 -17.3691 -5.10989
9.33867 -17.2298 -5.45519
9.91367 -17.3548 -5.34009
10.4877 -17.2879 -5.39949
10.5117 -17.3068 -5.16829
3 0 1 2
3 0 2 3
3 4 1 0
3 5 1 6
3 1 4 6
3 2 1 5
3 7 8 9
3 7 9 10
3 9 11 12
3 9 12 10
3 8 13 14
3 8 14 9
3 14 11 9
3 15 16 17
3 12 11 15
3 12 15 18
3 15 17 18
3 19 20 21
3 20 22 21
3 22 23 21
3 24 13 8
3 24 8 25
3 25 23 22
3 22 24 25
3 25 8 7
3 26 27 28
3 29 30 31
3 29 31 26
3 31 27 26
3 28 27 32
3 17 16 33
3 17 33 34
3 33 35 36
3 33 36 34
3 37 30 29
3 37 29 38
3 36 35 37
3 36 37 38
3 39 40 41
3 39 41 42
3 41 43 44
3 41 44 42
3 44 45 46
3 44 46 42
3 46 47 39
3 46 39 42
3 48 49 50
3 48 50 51
3 50 52 53
3 50 53 51
3 53 45 44
3 53 44 51
3 44 43 48
3 44 48 51
3 54 55 56
3 54 56 57
3 56 58 59
3 56 59 57
3 59 45 53
3 59 53 57
3 53 52 54
3 53 54 57
3 60 61 62
3 60 62 63
3 62 47 46
3 62 46 63
3 46 45 59
3 46 59 63
3 59 58 60
3 59 60 63
3 64 65 66
3 64 66 67
3 66 68 69
3 66 69 67
3 69 70 71
3 69 71 67
3 71 72 64
3 71 64 67
3 68 73 74
3 68 74 69
3 74 75 76
3 74 76 69
3 76 70 69
3 77 49 48
3 77 48 78
3 48 43 79
3 48 79 78
3 79 70 76
3 79 76 78
3 76 75 77
3 76 77 78
3 41 40 80
3 41 80 81
3 80 72 71
3 80 71 81
3 71 70 79
3 71 79 81
3 79 43 41
3 79 41 81
3 82 83 84
3 82 84 85
3 84 86 87
3 84 87 85
3 87 88 89
3 87 89 85
3 89 90 82
3 89 82 85
3 91 92 93
3 91 93 94
3 93 95 96
3 93 96 94
3 96 88 87
3 96 87 94
3 87 86 91
3 87 91 94
3 97 73 68
3 97 68 98
3 98 88 96
3 96 95 97
3 96 97 98
3 66 65 99
3 66 99 100
3 99 90 89
3 99 89 100
3 89 88 98
3 89 98 100
3 98 68 66
3 98 66 100
3 101 61 60
3 101 60 102
3 60 58 103
3 60 103 102
3 103 104 105
3 103 105 102
3 105 106 101
3 105 101 102
3 56 55 107
3 56 107 108
3 107 109 110
3 107 110 108
3 110 104 103
3 110 103 108
3 103 58 56
3 103 56 108
3 111 92 91
3 111 91 112
3 91 86 113
3 91 113 112
3 113 104 110
3 113 110 112
3 110 109 111
3 110 111 112
3 84 83 114
3 84 114 115
3 114 106 105
3 114 105 115
3 105 104 113
3 105 113 115
3 113 86 84
3 113 84 115
3 14 13 116
3 13 117 116
3 116 118 119
3 119 11 14
3 119 14 116
3 120 40 39
3 120 39 121
3 39 47 122
3 39 122 121
3 122 118 116
3 122 116 121
3 116 117 120
3 116 120 121
3 62 61 123
3 62 123 124
3 123 125 126
3 123 126 124
3 126 118 122
3 126 122 124
3 122 47 62
3 122 62 124
3 16 15 127
3 15 11 119
3 15 119 127
3 119 118 126
3 119 126 127
3 126 125 16
3 126 16 127
3 33 16 128
3 16 125 129
3 16 129 128
3 129 130 35
3 129 35 128
3 35 33 128
3 123 61 101
3 123 101 131
3 101 106 132
3 101 132 131
3 132 130 129
3 132 129 131
3 129 125 123
3 129 123 131
3 114 83 133
3 114 133 134
3 133 135 136
3 133 136 134
3 136 130 132
3 136 132 134
3 132 106 114
3 132 114 134
3 30 37 137
3 37 35 137
3 35 130 136
3 35 136 137
3 136 135 30
3 136 30 137
3 31 30 138
3 30 135 139
3 30 139 138
3 139 140 141
3 139 141 138
3 141 27 31
3 141 31 138
3 133 83 82
3 133 82 142
3 82 90 143
3 82 143 142
3 143 140 139
3 143 139 142
3 139 135 133
3 139 133 142
3 99 65 144
3 99 144 145
3 144 146 147
3 144 147 145
3 147 140 143
3 147 143 145
3 143 90 99
3 143 99 145
3 146 19 32
3 146 32 147
3 32 27 141
3 32 141 147
3 141 140 147
3 20 19 146
3 146 148 20
3 148 149 150
3 148 150 20
3 150 22 20
3 144 65 64
3 144 64 151
3 64 72 152
3 64 152 151
3 152 149 148
3 152 148 151
3 148 146 144
3 148 144 151
3 80 40 120
3 80 120 153
3 120 117 154
3 120 154 153
3 154 149 152
3 154 152 153
3 152 72 80
3 152 80 153
3 13 24 155
3 24 22 150
3 24 150 155
3 150 149 154
3 150 154 155
3 154 117 13
3 154 13 155
3 49 156 157
3 49 157 50
3 157 158 52
3 157 52 50
3 159 3 160
3 3 2 161
3 3 161 160
3 161 158 157
3 161 157 160
3 157 156 159
3 157 159 160
3 2 5 162
3 2 162 163
3 162 164 165
3 162 165 163
3 165 158 161
3 165 161 163
3 161 2 163
3 52 158 165
3 52 165 54
3 165 164 55
3 165 55 54
3 55 164 166
3 55 166 107
3 166 167 109
3 166 109 107
3 162 5 168
3 5 169 168
3 169 167 166
3 169 166 168
3 166 164 162
3 166 162 168
3 170 171 172
3 170 172 6
3 172 167 169
3 172 169 6
3 169 5 6
3 109 167 172
3 109 172 111
3 172 171 92
3 172 92 111
3 92 171 173
3 92 173 93
3 173 174 95
3 173 95 93
3 170 6 4
3 170 4 175
3 4 176 175
3 176 174 173
3 176 173 175
3 173 171 170
3 173 170 175
3 4 0 177
3 4 177 178
3 177 179 180
3 177 180 178
3 180 174 176
3 180 176 178
3 176 4 178
3 95 174 180
3 95 180 97
3 180 179 73
3 180 73 97
3 73 179 181
3 73 181 74
3 181 182 75
3 181 75 74
3 177 0 183
3 0 184 183
3 184 182 181
3 184 181 183
3 181 179 177
3 181 177 183
3 3 159 185
3 159 156 186
3 159 186 185
3 186 182 184
3 186 184 185
3 184 0 3
3 184 3 185
3 75 182 186
3 75 186 77
3 186 156 49
3 186 49 77
