1.75414
3.66053
3.42479
3.24364
1.70516
3.1753
1.7584
2.1191
1.93481
0.605107
3.2066
2.3919
1.71542
4.3104
0.803646
3.90436
1.93484
0.605115
0.899738
3.90436
1.69215
4.71207
3.20237
1.71819
1.67735
3.44178
1.75842
1.91955
3.39563
3.31219
3.42479
2.29111
2.37216
2.36243
0.268339
2.09534
3.06128
1.46749
2.27624
3.01823
2.29881
4.02867
3.13349
2.91935
3.07163
0.545945
0.365517
0.477102
2.04549
2.34083
2.85896
0.477091
3.28832
0.403136
3.27231
2.91936
2.37232
2.36255
2.21665
2.37079
2.15737
1.14783
0.265379
0.474045
1.76829
0.67411
0.870474
0.832082
0.696918
0.59103
0.620614
0.593171
1.06597
1.03797
0.465195
0.335438
0.545595
0.485116
0.942645
0.976511
0.440913
0.34689
0.738573
0.592128
0.545516
0.439238
0.328134
0.344354
0.573928
0.764652
0.653365
0.748235
0.595386
0.601302
0.694871
0.577851
0.843144
0.820812
0.962932
1.03347
0.781229
0.827326
1.0599
0.941897
1.04833
0.911416
0.778821
0.813586
0.781371
0.811738
0.778844
0.854393
0.89396
0.960595
1.02623
0.900751
1.02219
0.883773
0.845795
0.833517
1.32533
1.11004
1.34056
1.36752
0.540943
0.382039
0.350983
0.309125
0.808038
0.873563
0.683486
0.678077
0.695705
0.732825
1.08983
1.03745
0.573867
0.76465
0.692497
0.577797
0.595371
0.601255
0.683345
0.748212
0.440899
0.583093
0.328007
0.283591
0.540912
0.380686
0.813693
0.592445
0.946242
0.907907
0.84896
0.836144
0.857165
0.92929
1.1142
1.03208
0.854951
0.813123
1.05425
0.943305
0.896632
0.962614
0.842275
0.82171
0.855437
0.828895
0.842233
0.801443
1.04938
0.962696
0.988542
1.02384
0.620718
0.76613
1.10408
0.869234
0.901232
1.01399
0.846271
0.82403
0.873368
0.638137
0.84322
0.794902
0.120466
0.168182
0.135544
0.250693
0.79445
0.452539
0.168163
1.162
0.842973
0.402717
0.843472
0.7279
1.77364
1.77302
0.212744
0.142306
0.0801071
0.0928908
1.00193
0.986656
0.195416
0.152488
0.0909305
0.103334
0.0773466
0.0801016
0.133834
0.152026
1.56158
1.71035
0.314663
0.954155
0.0797937
0.89593
0.212471
0.230604
0.961277
0.888021
0.843544
0.795209
0.842753
0.23447
0.838753
0.864431
0.87337
0.638227
0.135775
0.767496
0.120475
0.168179
0.843219
0.794947
0.195355
0.151776
0.133749
0.152641
0.0774212
0.0804553
0.0913384
0.102494
2.4288
1.57177
1.22654
1.55216
1.22886
2.43268
2.64258
0.912887
0.987261
1.16736
0.512314
1.76263
1.91129
1.65686
0.667401
2.22635
1.24306
3.54695
1.1724
1.54567
0.8945
3.12045
1.0657
2.82179
2.31779
1.95166
2.20167
1.03223
1.34352
2.10757
1.97499
2.20264
1.85718
1.39962
1.73887
2.17501
1.69038
1.51335
1.78108
1.43813
1.6992
2.31021
2.53469
2.03714
1.78572
1.90457
1.63281
2.74861
1.6992
2.42606
2.78647
2.46329
1.78574
1.96962
2.5347
2.04618
1.86298
1.39965
1.35283
1.425
1.6904
1.51334
1.73887
2.17501
2.31779
1.95154
1.83345
2.20265
2.58109
2.33935
2.13957
1.03221
1.24295
3.74518
1.21763
2.82177
1.78411
3.12045
0.895823
1.54567
0.986649
1.16733
0.45101
2.22635
1.91128
1.63238
2.56884
1.76266
2.42876
1.57176
2.31779
1.0195
1.22887
2.43267
1.051
1.55217
1.78775
1.23623
2.49533
2.2759
1.74062
1.79327
1.40758
1.40814
1.67369
1.31526
2.08918
1.70874
1.97417
1.90475
2.09524
2.44872
1.80118
1.31526
1.86243
2.44872
1.9746
1.90474
1.99418
1.70873
1.73775
1.23897
1.45992
1.42861
1.73991
1.79322
1.43319
2.27592
2.26144
1.8932
1.09376
1.41621
0.227961
1.74972
3.44959
2.66716
0.423608
0.557993
0.457823
2.27934
1.11779
1.54429
0.853958
1.40467
0.629855
1.71281
1.81755
1.52267
1.74734
0.998901
2.20914
0.373942
1.08141
1.13533
1.22948
1.37377
1.85377
2.03363
2.44906
2.64888
1.26416
1.00913
1.12014
2.75178
1.85382
2.03364
1.23021
1.37321
0.632812
1.71283
2.20987
0.366861
1.56902
0.998969
1.81755
1.52278
0.55607
0.557994
0.573155
0.820586
1.11776
1.54445
0.457934
2.29519
2.26145
1.71086
1.93014
2.22784
0.228786
1.48727
1.09376
1.12312
1.02435
3.70657
2.73962
3.40153
3.52034
1.96893
1.8659
0.782607
2.11868
1.51313
3.15344
0.83977
2.69897
2.98639
0.896142
1.62917
1.7716
2.11048
2.7151
3.16908
2.79454
2.17499
3.25927
2.84789
3.42477
3.64787
3.8568
3.49403
3.53104
3.93354
2.79335
2.78489
2.16918
1.98122
3.26117
3.35569
2.45131
2.95077
2.77471
2.40654
2.00416
3.06969
3.82835
2.29998
2.85392
2.44574
2.9023
2.35473
1.99867
3.07604
2.9023
2.35298
2.84497
2.44572
3.82835
1.96203
2.16849
1.98128
2.8838
2.383
2.89391
2.65068
3.21312
3.35568
3.42475
3.64788
2.79335
2.75652
3.53103
3.93343
3.56924
3.49401
1.83278
2.11048
3.25926
2.29017
2.60691
2.39362
2.71515
3.16906
3.45448
1.51305
0.896139
1.6359
2.699
1.35732
3.15344
0.839733
1.02431
3.70655
1.86591
0.782613
3.52034
2.02629
2.73962
3.40153
1.59363
1.44612
0.652654
0.566096
1.45676
3.61448
1.13461
0.714782
1.57753
1.43665
0.612277
0.899508
1.44325
3.23513
0.652606
1.22611
2.31219
1.43844
0.650462
1.46587
1.42835
1.73443
0.564183
0.974116
1.59361
1.44633
0.656786
0.699295
1.44244
3.21777
0.650511
0.554752
0.988654
1.11973
2.59746
1.84469
2.38479
2.73296
1.31578
1.76813
2.14324
0.578644
2.9514
0.467315
1.117
2.11371
1.14213
1.52156
3.6715
2.34865
3.01564
0.425228
3.24602
1.67212
3.25451
0.44057
0.547253
0.398939
0.485983
0.52901
2.63689
3.37092
3.29399
1.25646
0.544609
0.398992
3.29348
1.25645
2.63491
4.04262
0.484811
0.529018
3.66959
2.34887
3.03801
2.44485
3.24596
1.70917
3.01374
1.82107
2.14322
0.473873
1.14213
1.52157
1.11775
1.85888
3.50053
0.467315
0.911519
1.11973
1.31631
1.37184
2.38452
2.73295
2.56178
1.8447
2.18386
2.76075
1.26588
2.56958
2.02334
2.43977
1.93071
2.16962
1.45654
1.59914
0.520412
2.03545
2.03052
1.90336
1.9039
2.2137
1.45649
1.5991
2.09848
2.218
2.03203
1.98495
1.62013
2.03721
2.18388
2.67851
1.94556
2.1676
2.02331
2.35672
1.35107
2.61587
0.4344
1.11777
1.55213
1.58251
1.3086
2.38644
1.16496
1.45784
3.63641
2.81177
2.88868
0.88918
1.73621
1.21911
1.38365
1.21999
2.99697
2.10632
1.21435
1.59298
1.19435
3.02914
3.47599
0.935427
1.46863
3.29935
1.8156
2.34444
1.19368
2.41032
1.36862
1.84977
1.56516
1.15271
1.74849
1.33504
2.04095
1.1395
1.47917
0.410209
3.87198
2.3577
0.467405
0.763696
1.15663
1.27082
1.2723
1.29643
3.872
2.1764
1.28649
1.29643
1.3951
1.27082
0.63852
0.968888
2.45312
2.43762
2.40783
0.99154
2.21503
1.33542
1.74853
1.43118
1.46889
2.30801
1.36834
1.84975
1.19335
2.41047
1.81541
2.34445
2.99697
2.10631
3.47599
0.935429
1.19431
2.97378
1.21437
2.10364
3.63641
2.81177
1.38369
1.22003
1.73711
1.21913
2.88869
1.04673
0.43442
1.35681
1.16465
1.16061
1.30851
2.23897
1.55212
1.58246
0.871813
2.22768
0.911686
3.26257
3.38699
2.53289
1.60354
2.73427
0.450121
0.498158
1.25237
0.483544
0.963508
1.21354
2.16858
1.07517
0.450125
0.498193
2.16857
1.08547
0.565844
1.47647
2.40267
0.486427
2.70615
1.48727
1.60358
2.37344
3.19714
2.8077
1.40345
2.15822
2.54196
1.45904
2.55418
2.16804
0.744892
1.40261
0.610389
2.43028
1.76723
0.483117
1.28663
0.530826
0.861585
1.52806
0.975189
1.27522
0.459345
0.449496
1.0667
1.27488
0.85693
3.68181
2.85224
0.532379
2.45999
1.45903
0.610687
2.43026
3.39214
1.39545
2.75793
3.24764
2.70616
3.6212
1.41428
1.43284
3.57016
2.53466
3.29784
3.68901
0.449552
0.501306
3.9779
3.93275
0.887052
1.4781
1.64542
1.08398
0.44955
0.50129
1.67735
1.08768
0.966861
1.48215
3.77364
3.94519
3.09393
3.62121
1.85774
3.68247
3.78166
2.53327
1.41416
2.15875
2.90525
1.45942
2.55573
3.29157
3.39204
1.39542
0.610703
2.69885
0.460025
0.44948
1.40954
0.432884
0.948699
3.66272
0.633153
1.22167
1.39781
0.483094
0.556036
1.22202
0.953832
1.52813
1.40952
0.632594
2.60654
1.45942
0.610404
2.43036
0.744953
1.40258
2.55552
2.16809
1.76829
1.76768
0.576876
0.54657
0.638778
0.591089
0.612336
0.761807
0.489985
0.59427
0.697454
0.515138
0.591526
0.63246
0.576199
0.716771
0.600731
0.560631
0.519896
0.293317
0.751672
0.47779
0.712707
0.606791
0.964147
0.995334
0.885115
0.923795
0.751727
0.477952
0.520055
0.307772
2.28361
2.13541
1.95037
1.85685
1.58631
1.07484
0.815691
1.54501
1.03235
1.36581
1.78789
1.18911
1.04873
2.4547
1.9298
1.80119
1.08228
1.03216
0.977762
1.32137
1.98153
1.25914
1.01002
0.899089
0.994865
1.02069
1.2037
2.35507
0.779561
2.85916
1.15987
3.0028
0.810188
3.45593
3.21253
2.46906
3.35993
1.39592
2.44883
1.84469
2.01819
1.32662
1.88964
3.91056
3.4642
2.89135
3.40263
3.68661
1.74901
2.04931
2.33609
3.69784
2.47721
2.16217
3.78513
1.56331
3.68641
2.78173
0.595347
2.7641
3.03254
3.24062
3.13309
2.53448
1.9658
2.71544
2.18583
3.57207
3.18228
4.38901
2.93941
4.46417
1.76403
3.92011
2.9906
1.82524
3.16695
2.19054
1.79285
2.94326
2.60999
3.92011
1.3815
3.68494
2.96064
3.6037
2.89492
1.82525
0.596008
2.66331
4.54615
3.36079
3.26307
4.56293
2.47508
3.57206
0.810166
3.45591
2.44884
1.8447
3.35993
1.39592
3.17103
2.46901
3.68641
2.69771
3.13605
1.43885
3.03255
3.11509
0.598513
0.864183
1.74901
2.04932
3.78514
1.56333
2.47723
2.96157
2.33608
3.69784
2.01817
1.33014
3.4026
3.68658
3.29156
2.89135
2.04744
3.91111
2.28877
1.21278
0.812536
1.91972
1.58631
1.18352
1.9503
2.10446
0.994752
1.02068
1.15979
3.19652
1.77107
2.85916
1.20949
2.10067
1.08208
1.03215
1.01003
0.899147
1.98153
1.25914
0.977678
1.32137
1.55863
1.36578
1.92981
1.6589
1.16346
2.45469
1.78789
1.18911
0.62675
0.791356
1.0034
0.875007
0.591604
0.616882
0.781058
0.744353
1.41019
1.38347
0.519923
0.567948
0.447766
0.440617
0.920846
1.32577
0.600723
0.560621
0.825998
0.607494
0.447624
0.37665
0.519877
0.457423
0.489969
0.594263
0.780989
0.716752
0.591499
0.632429
0.636149
0.515119
0.296843
0.827452
0.684511
0.822294
0.828119
0.97985
0.247852
0.867677
0.817202
0.855758
0.855951
0.825147
0.856509
0.776569
0.783511
0.215487
0.124106
0.139432
0.123126
0.883681
0.400799
0.258104
0.272601
1.77364
1.77302
0.999743
0.986965
0.886164
0.867253
0.212283
0.115027
2.26937
1.36883
2.22218
2.31105
0.350645
1.50063
1.03965
0.457493
1.26503
1.13577
2.56646
1.25268
1.4716
1.3773
2.11828
2.16301
3.12077
2.05289
0.548096
0.527
0.584368
1.77293
1.18137
1.75973
0.994238
0.707483
0.424841
1.28068
0.644558
0.453154
1.71357
2.00181
0.844591
0.599034
0.397954
0.439621
3.93244
2.26229
2.12745
3.58474
2.40808
2.01506
2.02495
3.18315
3.71931
2.13829
2.02441
0.554194
2.24546
0.948733
2.45939
2.47668
2.213
2.08279
2.43529
2.37909
2.11868
1.43899
1.09143
1.61815
0.86261
1.06411
2.7035
2.27366
3.62085
3.61214
2.81524
0.705285
0.619411
0.801664
3.22085
3.33102
3.57102
2.17863
2.54856
2.32124
2.30455
2.47896
2.24491
0.712425
3.63842
2.17869
2.24185
0.806855
2.30487
2.96569
2.62544
2.20865
3.62084
3.53216
3.21613
3.17085
0.456798
2.61238
0.651376
0.724652
0.844585
0.599046
2.12745
3.58473
3.39032
2.26894
0.39794
0.505552
2.11864
1.73348
2.70169
2.27354
2.33511
1.06413
3.1703
2.75037
1.5921
3.28101
2.43794
0.829429
2.21522
1.72434
2.45941
2.47666
2.43825
2.01484
2.02698
0.554308
3.47498
2.13801
2.15823
3.18311
2.26936
1.35544
0.978808
0.457516
0.350164
1.50066
2.22214
2.06755
0.988313
0.785698
1.71333
1.9999
0.756534
0.454834
0.423647
1.28073
3.42595
2.0528
1.18137
1.75965
1.18776
1.93902
0.548103
0.526864
1.82996
1.13573
2.11894
2.16293
1.47994
1.99408
2.55993
1.26724
0.857781
0.80071
0.786724
0.822005
0.854329
0.828321
0.784186
1.57805
1.48835
0.212133
0.116252
0.881361
0.832284
0.109882
0.110151
0.215448
0.124032
0.0985715
0.308257
0.076681
0.745575
0.139387
0.123071
0.866459
0.623954
0.776581
0.783553
0.82517
0.856518
0.85599
0.855971
3.61851
1.30881
2.60611
3.74068
2.00206
2.22942
2.57015
1.14394
2.98255
2.14499
2.30433
1.00236
2.70557
2.95124
3.75451
2.06362
3.32793
1.04979
2.27206
2.27694
2.7074
2.25267
2.37184
2.54971
3.16645
1.4623
2.50235
2.08705
2.91049
2.69533
2.00924
3.52457
1.58946
1.9841
2.32923
1.98
3.03372
2.08874
2.12715
2.02082
2.83012
2.39502
2.45278
1.63188
2.04281
2.64826
3.03665
2.85343
3.09585
2.39503
3.03648
2.04515
2.1015
2.5279
2.53067
1.63186
1.5866
2.04157
2.30276
1.62658
3.03374
2.08127
2.32775
2.08111
3.16645
1.46232
2.00936
3.52449
3.60059
2.69557
2.50237
2.08706
3.32797
2.45151
2.53183
1.62378
2.84569
2.15325
2.7415
2.27713
3.40523
2.41108
3.75465
1.67183
2.93488
2.95166
2.41666
1.15025
3.61851
1.30887
1.78564
1.47861
2.00055
2.23161
2.6058
2.12353
3.95947
1.90313
2.1826
2.0813
2.31593
2.26938
0.685443
0.881178
2.12541
2.48988
2.26056
1.83352
1.67769
3.43651
2.45225
2.01056
3.157
1.45853
2.45227
2.86454
1.70959
3.205
2.17396
1.83353
3.95964
1.68603
0.707745
0.952835
2.3159
2.2693
2.18268
2.09231
0.834467
0.943843
1.27714
1.10153
0.975496
1.04295
1.21055
1.03579
1.4065
1.25573
1.30755
1.49078
1.48831
1.0356
0.960625
1.26701
1.40645
1.2418
1.37904
1.16413
1.06684
1.01838
1.3962
1.19219
0.834358
0.943856
1.16766
1.03581
1.00672
1.03265
1.27713
1.09623
1.74665
1.69886
1.39299
0.909411
1.85097
0.932914
1.76542
1.2587
0.858048
0.955057
0.837585
0.786192
0.891383
0.884887
0.868498
0.897946
1.28584
0.91754
0.173895
1.13111
1.16221
0.643438
0.95351
1.12439
0.986711
1.15127
1.25793
1.88755
1.03567
1.46411
1.8183
1.55879
0.830278
0.91345
1.21352
0.636508
0.599142
0.685383
0.781178
0.949041
1.74665
0.984034
1.18153
0.82564
0.385319
0.929778
1.03489
0.920596
2.18559
0.950761
1.26845
0.781841
1.03434
1.20251
1.0477
1.80561
0.788932
1.83877
1.78729
1.25456
0.93842
1.72911
1.34755
2.19263
1.74665
1.61758
1.74657
0.908032
0.884695
0.693729
1.75912
0.663062
0.916482
1.22225
1.43547
1.01224
0.463047
0.395743
1.04693
0.576574
1.87749
2.29482
1.06482
1.77787
1.06461
1.70024
1.62635
1.73228
2.18302
1.01504
1.07935
1.84776
1.00504
1.83642
0.91209
0.909473
0.844463
0.95146
0.857028
0.90422
1.0739
0.883116
0.728176
0.384685
1.74669
1.70228
1.78237
0.138484
1.90148
0.92516
0.917271
0.940505
1.01071
1.43609
1.89495
1.87955
1.00804
1.60513
1.13007
1.82835
1.37907
0.727408
1.06219
0.805052
1.04259
0.656801
1.0476
0.413924
0.829615
0.969394
0.865012
1.64327
1.03047
1.00582
1.15616
1.03355
1.26954
1.52435
1.31255
1.34723
1.33662
1.75193
1.03899
1.02475
1.26952
1.52425
0.905319
1.09828
1.22058
1.20017
1.3123
1.34999
0.828787
1.00065
1.06192
1.03354
1.01245
1.01281
0.864928
1.64339
0.913456
0.917443
0.811539
0.384444
1.07369
0.883137
0.857017
0.904153
1.36424
0.727381
0.173574
0.525963
1.04267
0.656819
0.981979
0.891457
0.642921
1.42731
1.13006
1.82828
0.78896
1.55002
0.061091
1.88465
1.7464
1.70224
1.26882
0.879156
1.48887
0.925885
1.78253
0.138517
0.720322
1.22224
0.978254
0.576588
0.464521
0.395765
1.58586
0.61382
1.74635
1.61757
1.75928
1.02422
1.00569
0.887668
1.74627
0.880168
2.18288
0.830612
0.912233
0.909565
1.005
1.92641
1.07934
1.95164
1.87779
2.18205
1.22205
1.73216
1.06456
1.70011
1.06493
1.77625
0.785206
0.913452
0.781183
0.594077
0.48048
0.54627
0.598438
0.636514
2.0051
1.83911
1.3478
2.19298
1.28314
1.72973
1.08471
1.32627
1.94711
0.950855
1.04766
1.84252
1.0343
1.20235
1.2686
0.695333
1.74635
0.984045
0.918148
0.925236
0.385336
0.929789
1.18156
0.825662
0.85805
0.919967
0.920306
0.898446
0.964322
0.884874
0.837488
0.786088
1.74635
1.69884
1.76558
1.25871
1.85098
0.933595
1.53483
1.36278
0.986718
1.18145
1.02594
1.66751
1.02256
1.46125
1.25792
1.84848
1.28588
0.917525
1.06404
1.24435
1.16642
0.643325
1.95869
0.996462
1.63655
0.930448
0.880203
0
0.293401
0.480006
0.743773
0.666611
0
0
0.812427
1.19726
0.974344
0.970586
0.485293
0
0.56085
0.987805
1.03977
0
0.346589
0.667336
1.00897
0.988082
0
0
0
0
0
0.677946
0.815867
0.877506
0.741187
0
0.247062
0
0.35431
1.01921
1.04286
0
0.347619
0
0.468301
1.07435
1.05728
0
1.64407
0.933515
0.829863
0.866161
0
0.28872
0
0.407412
1.64407
1.64448
0
0.54816
0
0.420739
0.754217
0.714058
1.64407
1.64448
0.815934
0.780117
0
0.260039
0
0.634839
1.00042
0.973862
0
0.324621
0
0.413353
0.883585
0.915438
1.04708
1.0672
1.05746
1.04174
0.520869
0
0.529357
0.135583
0.733049
1.63689
