0.926282
0.77927
1.44324
1.42059
1.14302
1.24089
0.627542
0.751616
0.823066
0.708577
0.430925
0.588733
0.879606
0.805176
1.365
1.17739
0.347948
0.325351
0.515601
0.551783
0.799593
0.717598
0.394578
0.388594
0.309801
0.305393
0.468017
0.339987
0.830948
0.563678
0.34607
0.50289
0.65321
1.062
0.240472
1.4564
1.62364
1.25694
0.35054
0.195053
1.7405
1.13805
1.24842
1.14132
1.20321
1.0921
1.31479
1.14631
1.59026
1.04205
2.02461
1.92293
1.74506
0.993361
0.978455
1.1991
1.95503
1.57707
0.800884
1.7417
1.3189
0.562945
0.435821
0.321719
0.341088
0.541249
0.501514
0.637017
0.550214
0.398657
0.444974
0.302842
0.338136
0.674708
0.681009
0.260581
0.131237
0.186083
0.158438
0.245684
0.145509
0.284338
0.197788
0.567626
0.41793
0.640083
0.385819
0.224893
0.243944
0.245272
0.260305
1.19328
0.777489
0.677373
1.4616
1.04628
1.06688
1.5909
1.43806
0.6884
0.797043
0.912537
1.40157
1.45081
1.07536
0.741241
0.892098
1.6579
2.04424
0.995627
1.8932
1.52324
1.87426
1.82473
1.82236
0.789274
1.00554
1.51737
1.27469
1.32341
1.10868
0.807416
1.14982
0.596059
0.425907
0.256439
0.298759
0.221344
0.29748
0.516386
0.410048
0.133647
0.177108
0.250195
0.197034
0.166856
0.163046
0.142987
0.172392
0.450493
0.376999
0.265722
0.291556
0.209951
0.237612
0.322585
0.351425
0.539042
0.397717
0.536819
0.43917
0.233577
0.328602
0.308724
0.32418
0.714311
0.568034
0.222755
0.36106
1.40048
0.451865
1.10144
0.7184
0.245345
0.113578
0.443496
0.615233
1.24886
0.214904
0.144044
0.528635
0.166539
0.15649
0.209099
0.935654
0.205413
1.20897
0.62887
0.2347
0.714002
0.543655
1.20225
0.83817
0.318397
0.378585
0.208244
0.418985
1.54742
1.60719
1.73386
1.61847
1.68597
0.726579
1.618
1.56562
2.24545
2.47225
2.03533
2.67697
0.840659
1.95226
1.7764
1.87242
1.65543
2.18149
1.74127
1.23762
1.68889
1.54409
1.88437
1.92746
1.48119
1.39677
1.84055
1.10684
0.431932
1.23531
1.18916
1.44781
1.53687
1.2771
1.19662
1.37219
1.15283
1.23343
1.5699
1.6823
1.9891
1.69249
2.03418
2.20231
1.95385
1.73755
3.44486
2.00345
1.95249
1.87704
1.59826
1.90287
2.02716
3.0997
1.0352
2.77441
1.40159
2.15179
1.63949
1.72113
1.6272
1.72625
1.57094
1.38235
1.41978
1.45492
1.34935
1.48539
1.6285
1.46705
1.71962
1.46879
1.94312
1.75244
1.8001
1.74149
2.30163
1.77533
1.39082
1.7507
2.0757
2.74325
1.78721
1.99285
1.76108
0.690795
1.89
1.89394
1.59684
1.56666
1.3867
1.62523
2.19577
1.47418
1.45299
1.70503
1.42556
2.0423
1.65727
1.43432
1.15136
1.48173
1.02766
1.28789
1.86619
1.21064
1.54837
2.01908
1.75408
1.53354
1.08924
2.24935
2.00972
0.948482
1.35475
2.63264
1.46044
1.68408
1.43084
5.29178
1.21911
1.77413
1.56553
1.33931
1.18988
1.28912
1.74948
1.42498
1.15643
1.30834
1.64577
1.31047
1.55828
2.15458
1.79424
1.66595
2.06756
1.61289
1.68289
1.57369
2.39884
1.73527
1.5156
1.22292
1.53621
2.33913
2.11457
2.28525
1.91641
3.22948
1.8581
2.0878
1.85646
1.92613
1.79893
2.088
1.80867
1.60606
1.90052
1.82488
1.66198
0.815732
0.760038
1.71095
1.36306
1.34953
0.895462
0.96018
0.660843
1.70305
0.935927
1.62856
1.38749
1.03425
0.335917
1.29413
1.62296
1.17138
1.69117
0.790512
0.8401
0.740765
1.56546
0.740653
0.600375
1.01561
1.04516
0.867293
0.748302
1.18543
0.976686
1.79976
0.698859
1.36718
1.11978
1.73796
1.48263
1.34555
1.40654
1.32247
1.45729
1.65978
1.65475
1.77353
1.54846
1.43421
1.49116
1.64252
1.71723
0.824879
0.880014
0.829604
1.5021
1.45046
1.12923
1.31071
1.31819
0.950117
0.889162
1.15083
1.10327
1.4647
1.10972
1.20893
0.922931
0.663325
0.758689
0.827451
0.790922
0.977668
1.27641
0.581514
0.988656
0.407399
0.593854
0.574654
0.523299
0.237106
0.767734
0.309172
0.627416
0.554913
0.508735
0.42525
0.304247
0.178919
0.66225
0.829445
0.405258
0.833575
0.341769
0.754028
0.512595
0.273943
0.369418
0.239805
0.291262
2.00376
1.53646
1.52239
2.05644
2.62875
1.75331
1.51245
1.78692
1.88559
1.36396
1.83779
1.80948
1.72477
1.81657
1.77319
1.77036
1.98497
3.07807
1.84674
1.68119
1.79182
1.66671
2.04973
1.83017
1.56677
1.14692
1.59468
1.8055
2.41334
1.59784
1.73898
2.2601
1.18513
1.26454
1.2271
1.2727
1.23851
1.27352
1.19549
1.14827
0.491372
0.663528
0.761691
1.31745
1.49302
1.27389
1.13307
0.251064
1.5643
1.54116
1.46081
1.28659
1.32947
1.31175
1.41795
1.46384
1.16068
1.20802
1.19482
0.477998
1.19839
1.04139
1.28121
1.25102
1.11802
1.13427
1.24373
1.25485
1.43108
1.23878
1.2398
1.3573
1.44527
1.19943
1.3126
1.22175
1.17576
1.52158
1.2111
1.1328
1.33943
1.26175
1.35788
1.19272
1.22024
1.233
1.15265
1.32655
1.1841
1.93423
1.13118
1.39406
1.12347
1.21004
1.23336
1.44404
1.1082
1.06813
1.15364
1.19961
1.25307
1.2549
1.21335
1.28669
0.879244
0.955492
0.991792
0.929358
1.25321
1.26093
0.675052
1.31438
1.34672
1.3634
1.59807
1.71927
1.6701
1.68244
1.01751
0.955682
1.14896
1.27148
1.1186
1.03153
1.23492
1.76735
1.7369
1.75121
1.04418
1.11539
0.798591
0.784903
1.20291
1.44983
0.975695
0.809794
1.19627
1.19382
1.15845
1.14668
1.196
1.16248
1.19145
1.21436
1.18208
1.07876
1.01252
1.0572
1.15097
1.01595
1.10925
1.22254
1.06325
1.35034
1.38787
1.21393
1.22271
1.13146
0.933582
1.49927
1.3458
1.33156
1.18784
1.6349
1.31159
1.20558
1.4215
1.21216
1.13951
1.12306
1.19718
1.23552
1.22953
1.152
1.18638
1.19022
1.33093
1.31598
1.00844
1.26052
1.38538
1.18885
1.28451
1.24237
1.49669
1.41392
1.31008
1.34616
1.30012
1.17476
1.38669
1.35219
0.972335
1.07907
1.19767
0.337137
1.38956
1.29037
1.30016
1.25406
0.696185
0.942433
1.54226
0.959182
0.886443
1.08509
0.873026
0.790726
1.6528
1.65524
1.48395
1.22717
1.11971
1.54398
1.23261
1.71041
1.40734
1.52467
0.9946
1.63232
1.03637
1.15015
1.24612
1.19994
1.10135
0.876617
0.810955
0.880861
1.01164
0.975734
1.59547
1.26389
1.77249
2.60154
2.15956
2.35107
2.19564
2.18452
2.32491
2.06767
0.80253
0.860629
0.953185
0.94097
1.97746
1.16958
1.91232
1.47038
1.26668
1.06161
1.84745
1.45404
1.36504
1.66597
0.739763
1.06391
2.02138
2.05046
2.02009
2.04723
2.02501
2.14164
2.1153
1.66631
3.24976
2.3425
1.76321
1.93481
1.31446
1.79503
1.47828
1.68206
0.966232
1.15634
1.44567
1.26391
1.88244
1.62536
1.27746
1.76242
1.16306
1.43638
1.59334
1.89308
1.6607
1.84529
1.45192
1.14988
2.2986
2.02317
1.25609
1.9472
1.96318
1.96886
1.90988
1.74746
2.02173
1.93407
1.31901
1.64247
1.25955
2.25463
2.99011
1.74071
2.16594
1.14745
1.428
1.39408
1.92425
2.08558
1.60477
1.3407
0.811703
1.32231
0.896825
1.7435
0.438616
1.98446
0.907242
2.05504
2.19929
1.93235
2.16612
2.36408
2.18796
1.98392
2.23598
2.15182
2.23773
1.68748
2.1509
2.12348
2.04296
2.12615
1.37072
1.35078
1.90072
2.11391
2.1098
2.08712
2.36079
1.9787
1.56465
2.02721
1.54277
1.92543
2.34686
1.86607
2.3636
1.95359
2.04376
2.09361
1.94039
1.27986
1.38121
1.83399
2.06122
1.78209
2.22311
1.56888
2.3977
2.04031
2.19721
2.01907
1.77124
2.3921
2.07372
1.53972
1.29955
1.65061
1.19916
1.03172
1.81275
1.45669
2.32603
1.64893
1.93754
0.899487
1.3068
1.07905
1.53684
2.19727
1.37425
0.960928
2.08983
2.22189
2.22495
1.84092
1.61273
1.67419
1.47808
1.98373
1.9082
2.03779
2.18176
2.11982
2.04312
2.09075
2.04239
1.85586
0.899017
1.88354
1.45868
1.11031
2.00842
1.79741
1.86295
1.45424
1.80469
1.44575
2.09069
1.50353
1.39417
1.07207
1.10534
1.66976
1.62912
2.25791
1.98128
2.18627
1.80502
2.22826
1.96071
1.85543
0.754554
0.437436
0.516089
0.4193
0.583143
0.389879
1.08159
1.05195
0.515932
0.190958
0.327233
0.381655
1.19261
1.15303
1.02164
1.12829
0.389708
0.877307
1.08466
1.19321
1.04758
1.0108
0.849022
1.09079
0.908673
0.988041
1.07002
1.17954
1.24209
1.1884
1.19168
1.22873
1.22623
1.19757
1.2099
1.16085
1.1859
1.18433
1.19133
1.23451
1.21221
1.20575
1.19162
0.821426
1.08339
1.08741
0.992761
1.27515
1.19728
1.21575
1.0496
1.24234
1.26253
1.19551
1.22518
1.2635
1.30804
1.18507
1.28126
1.0417
1.25085
0.783797
1.19284
0.742894
1.33028
1.1831
0.847422
1.01205
0.961179
0.621914
0.806599
0.747413
1.11069
0.782352
0.884143
0.963728
0.905536
1.05669
1.00802
1.05775
0.878329
0.790367
0.807367
1.05607
0.709562
1.14613
0.88393
1.09446
0.884459
0.934843
0.969513
1.15062
1.2613
1.19647
1.31985
1.20309
1.26408
1.20912
1.33324
1.15516
1.36686
1.12988
1.28548
1.29419
1.19245
1.30734
1.5006
1.1688
1.27839
1.23383
1.29309
1.28407
1.21517
1.20753
1.20075
1.17772
1.1711
1.1879
1.17485
1.16048
1.21163
1.15858
1.17898
0.871187
1.07307
0.806309
1.12074
0.62416
0.811763
0.657301
0.783596
1.18953
1.18628
1.2493
1.18271
0.538096
1.14153
1.24334
1.19069
0.363164
0.573101
1.07303
0.227361
0.186099
0.251275
1.05027
0.970977
1.06976
0.744666
0.352074
0.174031
0.190034
0.568396
1.07958
0.69173
1.91477
0.97268
1.41542
1.76971
1.07688
1.03962
0.992625
0.978322
0.679378
0.907351
0.850944
0.869991
0.72863
0.914109
0.789414
0.923117
0.451459
0.594004
1.45706
0.811767
0.791281
0.920171
0.834222
0.838965
1.42138
0.798613
0.914371
0.74379
1.15126
1.46288
0.919084
