1.07823
1.0443
1.91405
2.56011
1.39621
2.30008
0.948633
1.04903
3.39623
1.97796
3.12734
2.29311
1.32457
2.05812
2.78854
2.15884
1.90805
2.20493
1.79766
2.43916
2.15007
2.50197
1.18934
2.94955
0.974791
0.856699
1.19887
1.48075
5.27326
2.09783
2.42387
1.72579
0.92576
1.26958
0.827072
0.662824
1.02161
0.739403
0.821581
1.23342
1.46615
1.0906
1.04564
1.47942
0.995077
0.808568
1.15422
0.94147
1.08631
1.07038
1.67419
1.43964
0.971611
1.31522
1.01939
1.1171
0.630807
1.04601
0.872523
1.10638
0.971182
0.503653
0.842027
1.1625
1.42606
0.497674
1.37106
1.12249
1.06547
1.28811
1.29524
0.891935
0.412209
1.43097
1.06921
0.858929
1.60942
1.55899
0.871757
1.14704
1.013
1.30135
0.601596
0.364183
0.784576
0.640902
0.721179
1.37441
1.20559
0.979935
1.21833
0.544587
0.710651
0.753655
0.876612
0.542222
1.78565
1.68533
0.426798
1.07908
1.10356
0.404848
4.05415
1.28511
1.13172
1.1979
1.32222
0.991529
1.281
1.32655
0.597556
0.90578
0.899741
0.863155
1.09789
0.876012
1.19149
0.876258
1.21405
1.09392
1.12688
0.986268
1.15371
0.812946
1.62021
4.00054
1.62855
3.14551
2.01972
2.38465
1.24017
3.53267
4.27726
2.05822
1.26671
2.68583
2.07034
3.48809
3.76868
3.40651
4.04046
3.35939
1.78051
2.62586
3.32791
1.98991
0.921558
2.98159
2.32234
2.93536
2.48614
3.58949
3.57471
2.45325
2.51898
1.74391
0.618336
1.01062
0.843945
0.966499
1.38653
1.15084
2.04798
2.2926
0.841938
1.81068
2.30751
2.20596
1.73901
0.753997
1.15321
1.08174
1.46595
2.12607
1.0648
1.59268
2.94555
1.7386
2.04319
2.37557
1.4108
1.70152
1.19244
1.54112
1.82959
2.58453
1.4933
1.37385
3.23522
2.07223
2.4913
2.82209
1.94172
2.68226
2.82664
2.04928
2.46174
2.68793
1.58566
2.83672
2.99078
2.53773
1.88209
2.20382
1.54287
1.06971
1.78431
1.53963
2.30855
2.04453
2.19739
2.26797
1.97137
0.62764
2.39917
2.50259
2.03734
2.19803
1.8683
1.18352
1.01485
2.70856
3.22079
2.02629
3.56043
1.68547
1.19228
2.46198
2.09466
3.21878
1.8306
3.11226
2.42311
2.10159
2.67412
2.36418
1.53586
2.86212
1.67627
1.38124
2.13778
2.20089
4.4938
0.719952
1.99359
2.04376
2.37417
1.3558
2.4162
2.32654
3.71355
1.61296
3.67852
4.17831
3.67755
3.86244
4.02421
3.92942
3.87947
3.91696
3.89702
3.90721
3.84113
3.89921
4.42822
3.67908
3.91008
3.77507
3.59395
3.9189
3.82403
3.91497
3.84554
3.85034
3.68481
3.91804
3.91736
2.95872
3.87991
3.84165
3.90565
3.91196
3.86293
3.85199
3.65642
3.51502
1.92626
3.46654
3.32174
1.56005
3.18272
2.92631
2.4544
2.2349
2.4875
2.22872
2.44496
3.3345
2.73852
2.7962
0.884873
1.05844
0.851543
1.0079
3.17164
1.61638
2.06523
1.68388
1.10098
0.955588
2.89554
1.70741
2.59577
1.56067
0.936119
2.66119
1.94355
2.50136
0.791497
1.29364
3.12492
2.11221
2.64506
1.7286
1.65382
1.28089
1.74533
3.00904
2.92799
2.22365
0.853448
1.52381
3.05916
2.08868
1.8248
2.0386
2.86661
2.31795
2.17816
2.44713
2.09435
3.0217
2.93867
2.70556
3.41062
2.60266
2.89496
2.75881
1.83274
2.45836
4.29703
2.09845
3.86086
1.9738
1.52225
2.11956
0.808471
3.0122
3.33618
3.10068
0.523464
4.38651
0.480983
0.601158
4.07768
0.996238
2.64677
2.36696
3.03559
3.66779
4.24737
2.20835
0.637121
2.70142
1.21994
2.05058
1.76156
3.74317
2.80785
1.11004
0.443659
0.54051
0.1441
0.290768
4.1417
4.4839
0.887505
0.364696
1.13182
0.43201
1.33836
0.671782
4.0003
4.66967
0.613156
0.406757
0.525868
2.76957
0.31999
1.03805
0.45731
4.47389
0.393759
1.24392
3.74614
0.43807
0.411533
0.292393
0.518722
1.40717
4.17083
0.17099
0.497685
1.78954
3.33566
0.449546
0.816456
0.59115
1.03322
1.27273
2.95023
0.513263
1.45339
0.643894
1.36556
0.629812
0.329771
0.996043
0.486802
1.60795
0.390099
0.251262
1.11941
0.475654
2.12327
0.607611
0.572525
0.4212
0.897372
0.373653
2.03421
0.766858
0.237799
0.36011
4.65479
3.78871
4.46243
4.34424
3.04951
1.73464
2.1146
0.459182
1.13525
0.734081
1.29906
1.4053
4.09865
3.64309
1.85007
2.19985
0.480999
1.74843
2.62315
0.698382
4.4379
1.59298
1.24122
1.21505
0.441716
0.407699
0.470766
0.309094
3.08848
0.320529
0.314983
0.491361
1.41787
3.3302
3.74115
3.19039
4.25469
3.71692
2.4971
2.36923
3.67856
3.89451
3.58909
3.91974
3.8556
3.09555
3.16075
3.45909
3.82311
3.67895
3.45689
3.7902
3.84256
3.54131
3.91863
3.67186
1.38506
4.1067
2.79555
3.32523
2.11224
3.06341
4.08509
3.94486
2.99782
3.52822
4.12609
3.88567
4.3518
3.61755
0.710036
0.527652
3.86051
3.77334
3.91727
3.9173
1.70304
3.79809
2.6664
1.33704
3.75174
3.71702
2.53653
2.39475
1.62608
3.93759
3.79868
3.96982
3.93892
3.94432
3.65282
3.66267
2.87685
3.89377
3.71466
4.26133
2.72732
4.68163
2.75392
5.25541
4.28084
3.75431
1.84234
3.21465
3.91479
2.14451
3.32493
1.71312
3.76376
1.83471
0.954014
2.10068
3.90181
3.75661
3.28852
3.12731
3.85696
3.58858
3.8275
3.06562
1.02122
0.740602
0.868
2.03017
1.63113
1.3157
4.07186
2.28008
1.05506
3.66724
3.7166
3.94101
3.64966
3.94523
0.824966
0.639128
3.87351
3.74526
3.65725
3.91748
3.80183
3.83465
3.87219
3.86529
3.6639
3.69822
3.83321
3.85149
3.86562
3.84319
3.07437
3.8872
1.22425
3.31031
3.98834
1.41647
2.05082
2.05368
6.05249
3.44829
3.88787
4.23539
4.39512
0.9356
3.73562
3.95597
3.77511
1.02183
1.88215
1.81624
2.7844
3.92389
3.10552
4.08145
4.10229
3.87157
4.18781
2.13147
1.58089
1.59192
2.01831
3.21865
1.5359
3.3493
2.78361
2.95841
0.867314
1.18637
4.34917
0.998837
1.00155
1.28238
1.14615
2.35437
0.718324
0.511681
1.22837
2.20014
2.81516
1.72993
1.83333
3.9874
2.63768
2.10912
2.32752
0.396185
0.611325
1.05484
2.44655
2.37031
1.70957
4.38566
1.44724
1.72275
3.86874
0.517721
2.57707
0.904946
2.75641
1.02313
1.40689
2.47473
3.92678
4.23714
1.25788
0.972156
1.54305
1.06324
0.444338
0.55732
1.15936
1.81762
3.98501
1.6345
4.22943
1.71167
1.44265
0.544559
3.96788
2.25144
2.04971
3.90589
3.59164
0.709191
1.48738
1.17357
0.768458
2.69163
1.87196
2.08489
2.97644
1.11855
0.421278
0.471395
3.50791
0.419215
2.71103
0.715763
1.98635
1.49135
4.19054
2.58397
0.822769
2.03718
2.47503
3.6786
3.84268
2.38516
0.686991
1.31042
4.16134
2.00994
3.55329
3.9673
0.497835
2.73263
1.08136
0.388369
3.92332
2.70351
0.668955
3.28636
1.31447
1.93714
1.72757
2.16182
2.17429
1.51847
4.02068
2.44068
3.67807
1.89741
3.72099
3.84435
3.94373
3.40356
4.31736
3.95754
4.00913
1.75145
0.938135
1.3899
0.676998
0.85663
1.08572
0.973345
0.982657
1.33931
0.953139
0.96657
1.85813
1.31565
1.60981
1.47546
1.4171
1.31958
0.877288
1.08798
1.91172
0.994997
1.86648
1.58685
1.42218
1.4193
1.68064
1.37516
1.2107
1.01143
1.40351
0.61991
0.938341
1.37522
1.12969
1.40489
0.92899
1.24626
0.851253
1.23967
1.56079
1.02159
0.636676
0.989195
1.90923
1.62937
1.68732
0.603074
1.2292
1.16336
1.70268
1.19086
1.81224
1.71596
0.519602
1.34615
1.24534
1.41448
1.05559
1.57351
0.792978
0.7471
1.6161
1.0377
1.35328
1.17224
0.643957
1.16988
1.22106
1.26819
1.33089
1.06533
1.35225
0.765024
1.19519
1.07046
1.77383
1.2853
1.13267
1.58752
1.18062
1.38495
1.18243
1.26514
2.01955
1.70676
0.865526
1.40849
1.34516
1.47438
1.33246
1.68216
1.3417
1.43079
1.29301
1.2378
1.29376
1.11495
1.18035
1.13954
1.37248
1.22537
1.59165
1.14407
1.67743
1.24008
0.634621
0.895666
1.36863
1.59606
1.26704
1.07634
1.87611
0.863745
1.55396
1.52957
1.82564
1.70992
1.00136
1.59335
1.67708
1.52185
1.32038
0.619026
0.778946
1.1473
0.719438
1.13423
1.16406
0.657122
0.963361
1.26203
2.77911
3.93817
2.66714
3.7152
3.95483
4.14486
4.02548
1.58023
3.79867
3.97742
3.87758
1.27071
4.14489
4.23935
3.02158
3.87767
4.11358
4.01999
4.06266
2.35212
2.84891
1.36205
3.95361
1.35277
1.71377
1.22228
1.31159
3.92329
1.22258
1.67437
3.97143
3.67808
2.88317
3.96045
2.98639
3.96603
3.93153
1.47987
2.95413
3.16765
4.76359
2.30925
2.97902
4.00787
1.35291
1.51304
2.66371
3.69526
4.05088
3.93397
3.99865
3.90464
3.91854
2.60226
3.86231
3.93373
3.67902
2.88623
3.48485
1.61743
3.1385
3.86397
3.89695
3.79551
4.06046
3.66593
3.90512
3.93835
4.04058
4.13896
4.129
4.07496
1.79726
4.46036
2.36871
3.08279
3.36021
2.05555
3.82251
3.04551
4.01073
1.16518
4.27799
2.6508
4.19351
4.06931
4.06285
2.02279
4.00362
2.64879
3.83566
2.30732
3.81009
3.98988
3.92103
4.08827
4.12563
4.06502
3.33974
4.11147
4.08691
3.93791
2.74369
3.77545
3.60868
4.0566
3.70079
4.08318
3.86915
3.85939
3.93731
4.10906
