OFF
487 955 0
-2.21348 -24.8623 -18.2619
-1.95948 -24.7083 -18.3989
-1.92848 -25.0306 -18.5059
-2.26848 -25.3981 -18.3419
-1.74548 -25.3292 -18.5589
-2.09148 -25.743 -18.3819
-2.23948 -25.915 -18.1159
-2.42648 -25.5415 -18.0939
-2.36348 -24.9649 -18.0299
-1.41448 -25.4536 -18.5059
-1.09148 -25.418 -18.3989
-1.19948 -25.7052 -18.2619
-1.71948 -25.862 -18.3419
-1.27748 -25.8739 -18.0299
-1.83848 -26.0422 -18.0939
-1.27048 -25.7914 -17.7649
-1.21048 -25.5636 -17.5619
-1.55548 -25.623 -17.5209
-1.79748 -25.9536 -17.8049
-1.89648 -25.5094 -17.5009
-2.17448 -25.8406 -17.8059
-2.06748 -25.1977 -17.5209
-2.07648 -24.8505 -17.5619
-2.28348 -24.9462 -17.7649
-2.34548 -25.4886 -17.8049
8.00352 -5.12048 0.775119
8.27952 -4.75428 0.736118
7.98452 -5.15028 0.736118
8.21752 -4.77558 0.643119
7.92753 -5.16238 0.643119
7.76952 -5.65458 0.643119
7.82352 -5.65398 0.736118
7.83952 -5.63698 0.775119
8.09352 -4.78518 0.459119
7.88052 -4.78968 0.145119
7.60852 -5.14818 0.145119
7.81052 -5.16048 0.459119
7.46152 -5.60508 0.145119
7.65652 -5.63848 0.459119
7.44852 -6.08488 0.145119
7.58553 -6.51328 0.145119
7.78452 -6.58838 0.459119
7.64252 -6.14038 0.459119
7.90052 -6.63248 0.643119
7.75552 -6.17128 0.643119
7.95552 -6.65398 0.736118
7.97152 -6.66168 0.775119
7.82253 -6.17868 0.775119
7.80752 -6.18238 0.736118
9.95152 -5.00508 0.736118
9.86252 -5.02338 0.643119
9.52852 -4.70658 0.643119
9.61152 -4.68148 0.736118
9.09153 -4.55478 0.643119
9.16752 -4.52678 0.736118
9.69753 -5.02788 0.459119
9.42052 -5.02388 0.145119
9.10752 -4.72928 0.145119
9.37152 -4.71988 0.459119
8.69852 -4.58718 0.145119
8.94553 -4.57188 0.459119
8.26653 -4.60498 0.145119
8.49552 -4.59128 0.459119
8.63052 -4.57538 0.643119
8.72853 -4.50208 0.775119
8.69852 -4.54878 0.736118
9.97252 -6.56868 0.775119
9.65753 -6.98478 0.775119
9.61553 -6.97228 0.736118
9.92552 -6.56718 0.736118
9.53452 -6.94538 0.643119
9.83852 -6.54978 0.643119
10.0055 -6.03688 0.643119
10.0965 -6.04208 0.736118
10.1465 -6.02988 0.775119
9.37852 -6.89298 0.459119
9.11652 -6.80458 0.145119
9.39952 -6.43838 0.145119
9.67453 -6.50918 0.459119
9.55552 -5.96338 0.145119
9.83752 -6.01168 0.459119
9.56652 -5.46358 0.145119
9.84952 -5.48818 0.459119
10.0185 -5.49748 0.643119
10.1605 -5.46358 0.775119
10.1095 -5.48998 0.736118
8.30352 -7.00238 0.775119
8.28253 -6.98698 0.736118
8.22252 -6.95838 0.643119
8.65152 -7.13108 0.643119
8.71752 -7.16328 0.736118
8.74452 -7.18228 0.775119
7.88853 -6.81588 0.145119
8.09952 -6.90498 0.459119
8.28953 -6.97628 0.145119
8.51752 -7.07288 0.459119
8.72252 -6.97828 0.145119
8.96852 -7.07488 0.459119
9.11352 -7.13298 0.643119
9.22153 -7.18288 0.775119
9.18752 -7.16468 0.736118
5.65052 -5.64998 -2.77188
5.83852 -5.42068 -2.77188
4.99652 -6.00748 -3.90788
4.82952 -6.20178 -3.90788
4.09352 -6.81028 -5.11688
3.94452 -6.97288 -5.11588
3.85852 -7.18798 -5.11588
4.73652 -6.45528 -3.90788
5.54752 -5.94608 -2.77188
3.20652 -7.82278 -6.30988
2.40352 -9.06248 -7.39988
2.27952 -9.17698 -7.39488
3.07152 -7.95848 -6.30788
2.20252 -9.33508 -7.38788
2.99152 -8.14138 -6.30588
2.18052 -9.50948 -7.38088
2.22252 -9.67308 -7.37588
3.02652 -8.52408 -6.30088
2.97352 -8.34028 -6.30288
3.90752 -7.63008 -5.11488
3.84352 -7.41908 -5.11488
4.80253 -6.96928 -3.90788
5.62952 -6.54108 -2.77188
5.53752 -6.25948 -2.77188
4.72353 -6.72518 -3.90788
6.67452 -5.40528 -2.77188
6.88552 -5.60228 -2.77188
5.91252 -6.18238 -3.90788
5.72952 -6.00918 -3.90788
4.88853 -6.98218 -5.11688
4.73252 -6.82958 -5.11688
4.52352 -6.74538 -5.11688
5.48852 -5.91778 -3.90788
6.39752 -5.30488 -2.77188
3.89952 -7.99478 -6.30988
3.01752 -9.23968 -7.39988
2.90252 -9.11498 -7.40388
3.76552 -7.85858 -6.31188
2.74252 -9.03888 -7.40488
3.58452 -7.77988 -6.31188
2.56752 -9.01898 -7.40388
3.38752 -7.76558 -6.31188
4.29852 -6.73668 -5.11688
6.10352 -5.30778 -2.77188
5.23053 -5.91498 -3.90788
6.86552 -6.51658 -2.77188
6.67252 -6.74948 -2.77188
5.71352 -7.16488 -3.90788
5.88452 -6.96788 -3.90788
4.69952 -7.81768 -5.11488
4.85152 -7.65308 -5.11488
4.94052 -7.43308 -5.11588
5.98152 -6.70788 -3.90788
6.97252 -6.21198 -2.77188
3.71652 -8.70798 -6.30088
2.83452 -9.85968 -7.37588
2.95952 -9.74408 -7.38088
3.85352 -8.57078 -6.30288
3.03852 -9.58308 -7.38788
3.93552 -8.38408 -6.30588
3.06052 -9.40528 -7.39488
3.95352 -8.18098 -6.30788
4.95552 -7.19648 -5.11588
6.98252 -5.88918 -2.77188
5.99353 -6.43068 -3.90788
5.83553 -6.74178 -2.77188
4.98053 -7.14538 -3.90788
4.06152 -7.78488 -5.11388
4.26852 -7.87398 -5.11388
5.21952 -7.24338 -3.90788
6.10952 -6.85088 -2.77188
2.33652 -9.79888 -7.37188
3.15752 -8.66178 -6.29888
2.49452 -9.87798 -7.37088
3.33752 -8.74428 -6.29888
2.66952 -9.90118 -7.37188
3.53352 -8.76278 -6.29888
4.49252 -7.88818 -5.11388
6.40452 -6.85718 -2.77188
5.47752 -7.25338 -3.90788
1.75252 -10.5471 -8.29788
1.63252 -10.6466 -8.28688
1.23752 -12.1883 -9.12788
1.11952 -12.2761 -9.10988
1.04052 -12.4058 -9.08688
1.55652 -10.7882 -8.27388
0.842525 -13.8976 -10.0159
0.588525 -15.5862 -11.0859
0.471525 -15.6494 -11.0449
0.724525 -13.9741 -9.98688
0.390525 -15.7547 -10.9949
0.643525 -14.0928 -9.95288
0.354525 -15.8829 -10.9459
0.374525 -16.015 -10.9039
0.629525 -14.3718 -9.88888
0.608525 -14.2324 -9.91788
1.03452 -12.6994 -9.04488
1.00952 -12.5544 -9.06388
1.56252 -11.099 -8.24888
1.52952 -10.9472 -8.25988
2.31552 -10.7367 -8.29788
2.21252 -10.6174 -8.30488
1.76952 -12.3958 -9.12788
1.67652 -12.2781 -9.13988
1.53952 -12.1982 -9.14388
2.06752 -10.5406 -8.30688
1.35852 -14.1269 -10.0159
1.09352 -15.8375 -11.0859
1.00752 -15.7212 -11.1109
1.26952 -14.0094 -10.0339
0.879525 -15.6331 -11.1189
1.13852 -13.9252 -10.0399
0.732525 -15.5845 -11.1109
0.988525 -13.8847 -10.0339
1.38552 -12.1653 -9.13988
1.90552 -10.5145 -8.30488
2.12252 -11.2965 -8.24888
2.24352 -11.1961 -8.25988
1.56452 -12.914 -9.04488
1.68452 -12.8254 -9.06388
1.76452 -12.6936 -9.08688
2.32252 -11.0521 -8.27388
1.14252 -14.6075 -9.88888
0.876525 -16.272 -10.9039
0.995525 -16.2082 -10.9459
1.26152 -14.5304 -9.91788
1.07752 -16.1012 -10.9949
1.34452 -14.4098 -9.95288
1.11352 -15.9709 -11.0449
1.37952 -14.2679 -9.98688
1.79652 -12.5424 -9.10988
2.34852 -10.8903 -8.28688
1.66352 -11.2193 -8.24188
1.12752 -12.818 -9.03388
1.26252 -12.9 -9.02988
1.80752 -11.2985 -8.23988
0.458525 -16.1319 -10.8789
0.716525 -14.4901 -9.87088
0.585525 -16.2217 -10.8709
0.846525 -14.5762 -9.86588
0.732525 -16.2724 -10.8789
0.995525 -14.619 -9.87088
1.41652 -12.9354 -9.03388
1.96852 -11.3275 -8.24188
0.494525 -17.165 -12.4629
0.382525 -17.2106 -12.4069
0.502525 -18.5752 -13.9599
0.396525 -18.6007 -13.8859
0.328525 -18.6659 -13.7979
0.306525 -17.297 -12.3399
0.554525 -19.7582 -15.3909
0.597525 -20.6372 -16.5699
0.491525 -20.6225 -16.4499
0.451525 -19.763 -15.2959
0.434525 -20.6507 -16.3049
0.390525 -19.8077 -15.1819
0.432525 -20.7142 -16.1609
0.489525 -20.8055 -16.0409
0.419525 -19.9774 -14.9729
0.377525 -19.8824 -15.0679
0.334525 -18.8638 -13.6359
0.304525 -18.7579 -13.7089
0.297525 -17.5276 -12.2159
0.275525 -17.4081 -12.2719
0.990525 -17.435 -12.4629
0.904525 -17.3236 -12.4969
1.00252 -18.8687 -13.9599
0.911525 -18.7622 -14.0039
0.782525 -18.669 -14.0189
0.777525 -17.2334 -12.5079
1.08352 -20.0879 -15.3909
1.19552 -21.0247 -16.5699
1.07452 -20.9134 -16.6419
0.982525 -19.9827 -15.4479
0.916525 -20.8 -16.6659
0.843525 -19.8828 -15.4669
0.748525 -20.7022 -16.6419
0.692525 -19.803 -15.4479
0.638525 -18.6023 -14.0039
0.633525 -17.1766 -12.4969
0.790525 -17.8024 -12.2159
0.903525 -17.7563 -12.2719
0.831525 -19.161 -13.6359
0.938525 -19.1351 -13.7089
1.00752 -19.0687 -13.7979
0.980525 -17.6684 -12.3399
0.947525 -20.3101 -14.9729
1.08652 -21.1956 -16.0409
1.19252 -21.2099 -16.1609
1.05052 -20.305 -15.0679
1.24952 -21.1809 -16.3049
1.11152 -20.2594 -15.1819
1.25252 -21.1165 -16.4499
1.12552 -20.1836 -15.2959
1.03152 -18.9754 -13.8859
1.01252 -17.5556 -12.4069
0.382525 -17.6396 -12.1829
0.424525 -18.9707 -13.5909
0.552525 -19.0651 -13.5769
0.507525 -17.7312 -12.1709
0.609525 -20.9172 -15.9679
0.520525 -20.083 -14.9159
0.767525 -21.0314 -15.9439
0.658525 -20.1838 -14.8969
0.935525 -21.1301 -15.9679
0.808525 -20.2646 -14.9159
0.695525 -19.1331 -13.5909
0.651525 -17.7897 -12.1829
0.579525 -21.1356 -17.3099
0.459525 -21.1046 -17.1589
0.479525 -21.4215 -17.7269
0.338525 -21.377 -17.5449
0.271525 -21.3921 -17.3269
0.399525 -21.1237 -16.9789
0.274525 -21.6633 -17.9369
-0.0734752 -22.0279 -18.0569
-0.255475 -21.9627 -17.8229
0.111525 -21.6076 -17.7269
-0.341475 -21.977 -17.5429
0.0345248 -21.6218 -17.4739
-0.326475 -22.0628 -17.2619
-0.203475 -22.212 -17.0279
0.159525 -21.8308 -17.0109
0.0485248 -21.6987 -17.2209
0.376525 -21.5741 -16.9279
0.282525 -21.46 -17.1089
0.480525 -21.285 -16.6479
0.405525 -21.186 -16.7989
1.29752 -21.611 -17.3099
1.14852 -21.4823 -17.3999
1.34152 -22.0012 -17.7269
1.16052 -21.8483 -17.8359
0.929525 -21.6833 -17.8719
0.956525 -21.3458 -17.4299
1.27952 -22.3499 -17.9369
1.04452 -22.8118 -18.0569
0.808525 -22.608 -18.1969
1.06652 -22.1705 -18.0639
0.509525 -22.3858 -18.2439
0.797525 -21.9757 -18.1059
0.198525 -22.1807 -18.1969
0.518525 -21.7963 -18.0639
0.689525 -21.5323 -17.8359
0.756525 -21.2231 -17.3999
1.19752 -21.7633 -16.6479
1.31752 -21.7938 -16.7989
1.23652 -22.1573 -16.9279
1.37852 -22.2013 -17.1089
1.44652 -22.185 -17.3269
1.37852 -21.7738 -16.9789
1.16152 -22.522 -17.0109
0.910525 -23.0014 -17.0279
1.09352 -23.0658 -17.2619
1.32552 -22.577 -17.2209
1.18052 -23.0497 -17.5429
1.40352 -22.5613 -17.4739
1.16652 -22.9621 -17.8229
1.38952 -22.4829 -17.7269
1.43552 -22.1159 -17.5449
1.37352 -21.7106 -17.1589
0.629525 -21.4142 -16.5579
0.557525 -21.7275 -16.8189
0.787525 -21.8937 -16.7829
0.820525 -21.5515 -16.5279
0.0315248 -22.4167 -16.8879
0.371525 -22.0108 -16.8839
0.329525 -22.6406 -16.8409
0.639525 -22.2072 -16.8419
0.639525 -22.8476 -16.8879
0.917525 -22.3881 -16.8839
1.02652 -22.0458 -16.8189
1.02052 -21.6752 -16.5579
-0.603475 -22.6827 -18.2019
-0.795475 -22.609 -17.9539
-1.18048 -23.4608 -18.3299
-1.38148 -23.3953 -18.0849
-1.48348 -23.4185 -17.7919
-0.887475 -22.622 -17.6569
-1.67148 -24.1957 -18.3969
-1.88548 -24.1706 -18.1819
-2.01248 -24.2284 -17.9229
-1.80548 -24.3641 -17.4119
-1.95848 -24.2621 -17.6449
-1.32548 -23.6487 -17.2449
-1.45948 -23.4974 -17.4939
-0.744475 -22.8746 -17.1119
-0.872475 -22.7133 -17.3599
0.570525 -23.5417 -18.2019
0.323525 -23.3196 -18.3509
-0.0294752 -24.3425 -18.3299
-0.281475 -24.1286 -18.4799
-0.599475 -23.8925 -18.5319
0.00952481 -23.0766 -18.3999
-0.639475 -25.0174 -18.3969
-0.898475 -24.8579 -18.5419
-1.21648 -24.6778 -18.5959
-1.46148 -24.411 -18.5419
-0.909475 -23.6482 -18.4799
-0.317475 -22.8514 -18.3509
0.424525 -23.7397 -17.1119
0.617525 -23.8125 -17.3599
-0.178475 -24.5364 -17.2449
0.00152481 -24.6266 -17.4939
0.0835248 -24.6271 -17.7919
0.710525 -23.7975 -17.6569
-0.778475 -25.1908 -17.4119
-0.649475 -25.3177 -17.6449
-0.607475 -25.3607 -17.9229
-0.573475 -25.2228 -18.1819
0.0835248 -24.5205 -18.0849
0.697525 -23.7041 -17.9539
-0.498475 -23.0976 -16.9629
-1.09548 -23.8892 -17.0999
-0.800475 -24.1528 -17.0519
-0.186475 -23.3426 -16.9139
-1.63448 -24.6269 -17.2849
-1.40448 -24.9109 -17.2489
-1.07448 -25.077 -17.2849
-0.470475 -24.3735 -17.0999
0.138525 -23.5698 -16.9629
7.83952 -5.60438 0.799119
7.97252 -6.66428 0.799119
7.82152 -6.16498 0.799119
7.92652 -6.65598 0.811119
7.77052 -6.10008 0.811119
7.80152 -6.63068 0.814119
8.28152 -7.04538 0.811119
8.20053 -7.10808 0.814119
8.30952 -7.01598 0.799119
8.75952 -7.20088 0.799119
9.69053 -6.99378 0.799119
9.24652 -7.20018 0.799119
9.75352 -7.00548 0.811119
9.27752 -7.24158 0.811119
9.88153 -7.02658 0.814119
10.1005 -6.51748 0.811119
10.0135 -6.56178 0.799119
10.1925 -6.00308 0.799119
8.99652 -5.01708 -0.336881
8.70253 -4.74268 -0.336881
8.42952 -5.07088 -0.984881
8.16052 -4.82118 -0.984881
7.80953 -4.69898 -0.984881
8.31952 -4.60968 -0.336881
7.72552 -5.24888 -1.79688
7.48452 -5.02558 -1.79688
7.17052 -4.91468 -1.79688
6.53953 -5.05638 -1.79688
6.83752 -4.92278 -1.79688
7.10752 -4.86478 -0.984881
7.43952 -4.71138 -0.984881
7.55352 -4.79608 -0.336881
7.91453 -4.62518 -0.336881
7.29852 -5.12898 -0.336881
6.87452 -5.16598 -0.984881
6.74852 -5.55098 -0.984881
7.16152 -5.55368 -0.336881
6.32852 -5.32218 -1.79688
6.21452 -5.66318 -1.79688
6.31152 -6.34468 -1.79688
6.20452 -6.02278 -1.79688
6.85752 -6.31788 -0.984881
6.73852 -5.95598 -0.984881
7.27852 -6.39858 -0.336881
7.14952 -6.00008 -0.336881
7.56352 -6.67998 -0.336881
7.11853 -6.57348 -0.984881
7.46352 -6.70928 -0.984881
7.93952 -6.82918 -0.336881
6.54552 -6.57268 -1.79688
6.85553 -6.69468 -1.79688
7.49152 -6.57138 -1.79688
7.18852 -6.69838 -1.79688
8.17153 -6.56628 -0.984881
7.83452 -6.71158 -0.984881
8.71352 -6.66988 -0.336881
8.34552 -6.83098 -0.336881
8.97853 -6.33018 -0.336881
8.41352 -6.25938 -0.984881
8.54552 -5.86088 -0.984881
9.12352 -5.88948 -0.336881
7.70852 -6.30098 -1.79688
7.82852 -5.94908 -1.79688
7.83652 -5.57748 -1.79688
8.55452 -5.44108 -0.984881
9.13352 -5.42558 -0.336881
3 0 1 2
3 0 2 3
3 2 4 5
3 2 5 3
3 5 6 7
3 5 7 3
3 7 8 0
3 7 0 3
3 9 10 11
3 9 11 12
3 11 13 14
3 11 14 12
3 14 6 5
3 14 5 12
3 5 4 9
3 5 9 12
3 15 16 17
3 15 17 18
3 17 19 20
3 17 20 18
3 20 6 14
3 20 14 18
3 14 13 15
3 14 15 18
3 21 22 23
3 21 23 24
3 23 8 7
3 23 7 24
3 7 6 20
3 7 20 24
3 20 19 21
3 20 21 24
3 25 26 27
3 26 28 29
3 26 29 27
3 29 30 31
3 29 31 27
3 31 32 25
3 31 25 27
3 33 34 35
3 33 35 36
3 35 37 38
3 35 38 36
3 38 30 29
3 38 29 36
3 29 28 33
3 29 33 36
3 39 40 41
3 39 41 42
3 41 43 44
3 41 44 42
3 44 30 38
3 44 38 42
3 38 37 39
3 38 39 42
3 45 46 47
3 45 47 48
3 47 32 31
3 47 31 48
3 31 30 44
3 31 44 48
3 44 43 45
3 44 45 48
3 49 50 51
3 49 51 52
3 51 53 54
3 51 54 52
3 55 56 57
3 55 57 58
3 57 59 60
3 57 60 58
3 60 53 51
3 60 51 58
3 51 50 55
3 51 55 58
3 61 34 33
3 61 33 62
3 33 28 63
3 33 63 62
3 63 53 60
3 63 60 62
3 60 59 61
3 60 61 62
3 26 64 65
3 64 54 65
3 54 53 63
3 54 63 65
3 63 28 26
3 63 26 65
3 66 67 68
3 66 68 69
3 68 70 71
3 68 71 69
3 71 72 73
3 71 73 69
3 73 74 66
3 73 66 69
3 75 76 77
3 75 77 78
3 77 79 80
3 77 80 78
3 80 72 71
3 80 71 78
3 71 70 75
3 71 75 78
3 81 56 55
3 81 55 82
3 55 50 83
3 55 83 82
3 83 72 80
3 83 80 82
3 80 79 81
3 80 81 82
3 49 84 85
3 84 74 73
3 84 73 85
3 73 72 83
3 73 83 85
3 83 50 49
3 83 49 85
3 86 46 45
3 86 45 87
3 45 43 88
3 45 88 87
3 88 89 90
3 88 90 87
3 90 91 86
3 90 86 87
3 41 40 92
3 41 92 93
3 92 94 95
3 92 95 93
3 95 89 88
3 95 88 93
3 88 43 41
3 88 41 93
3 96 76 75
3 96 75 97
3 75 70 98
3 75 98 97
3 98 89 95
3 98 95 97
3 95 94 96
3 95 96 97
3 68 67 99
3 68 99 100
3 99 91 90
3 99 90 100
3 90 89 98
3 90 98 100
3 98 70 68
3 98 68 100
3 101 102 103
3 101 103 104
3 103 105 106
3 103 106 104
3 106 107 108
3 106 108 104
3 108 109 101
3 108 101 104
3 110 111 112
3 110 112 113
3 112 114 115
3 112 115 113
3 115 107 106
3 115 106 113
3 106 105 110
3 106 110 113
3 116 117 118
3 116 118 119
3 118 120 121
3 118 121 119
3 121 107 115
3 121 115 119
3 115 114 116
3 115 116 119
3 122 123 124
3 122 124 125
3 124 109 108
3 124 108 125
3 108 107 121
3 108 121 125
3 121 120 122
3 121 122 125
3 126 127 128
3 126 128 129
3 128 130 131
3 128 131 129
3 131 132 133
3 131 133 129
3 133 134 126
3 133 126 129
3 135 136 137
3 135 137 138
3 137 139 140
3 137 140 138
3 140 132 131
3 140 131 138
3 131 130 135
3 131 135 138
3 141 111 110
3 141 110 142
3 110 105 143
3 110 143 142
3 143 132 140
3 143 140 142
3 140 139 141
3 140 141 142
3 103 102 144
3 103 144 145
3 144 134 133
3 144 133 145
3 133 132 143
3 133 143 145
3 143 105 103
3 143 103 145
3 146 147 148
3 146 148 149
3 148 150 151
3 148 151 149
3 151 152 153
3 151 153 149
3 153 154 146
3 153 146 149
3 155 156 157
3 155 157 158
3 157 159 160
3 157 160 158
3 160 152 151
3 160 151 158
3 151 150 155
3 151 155 158
3 161 136 135
3 161 135 162
3 135 130 163
3 135 163 162
3 163 152 160
3 163 160 162
3 160 159 161
3 160 161 162
3 128 127 164
3 128 164 165
3 164 154 153
3 164 153 165
3 153 152 163
3 153 163 165
3 163 130 128
3 163 128 165
3 166 123 122
3 166 122 167
3 122 120 168
3 122 168 167
3 168 169 170
3 168 170 167
3 170 171 166
3 170 166 167
3 118 117 172
3 118 172 173
3 172 174 175
3 172 175 173
3 175 169 168
3 175 168 173
3 168 120 118
3 168 118 173
3 176 156 155
3 176 155 177
3 155 150 178
3 155 178 177
3 178 169 175
3 178 175 177
3 175 174 176
3 175 176 177
3 148 147 179
3 148 179 180
3 179 171 170
3 179 170 180
3 170 169 178
3 170 178 180
3 178 150 148
3 178 148 180
3 112 111 181
3 112 181 182
3 181 183 184
3 181 184 182
3 184 185 186
3 184 186 182
3 186 114 112
3 186 112 182
3 187 188 189
3 187 189 190
3 189 191 192
3 189 192 190
3 192 185 184
3 192 184 190
3 184 183 187
3 184 187 190
3 193 194 195
3 193 195 196
3 195 197 198
3 195 198 196
3 198 185 192
3 198 192 196
3 192 191 193
3 192 193 196
3 199 117 116
3 199 116 200
3 116 114 186
3 116 186 200
3 186 185 198
3 186 198 200
3 198 197 199
3 198 199 200
3 137 136 201
3 137 201 202
3 201 203 204
3 201 204 202
3 204 205 206
3 204 206 202
3 206 139 137
3 206 137 202
3 207 208 209
3 207 209 210
3 209 211 212
3 209 212 210
3 212 205 204
3 212 204 210
3 204 203 207
3 204 207 210
3 213 188 187
3 213 187 214
3 187 183 215
3 187 215 214
3 215 205 212
3 215 212 214
3 212 211 213
3 212 213 214
3 181 111 141
3 181 141 216
3 141 139 206
3 141 206 216
3 206 205 215
3 206 215 216
3 215 183 181
3 215 181 216
3 157 156 217
3 157 217 218
3 217 219 220
3 217 220 218
3 220 221 222
3 220 222 218
3 222 159 157
3 222 157 218
3 223 224 225
3 223 225 226
3 225 227 228
3 225 228 226
3 228 221 220
3 228 220 226
3 220 219 223
3 220 223 226
3 229 208 207
3 229 207 230
3 207 203 231
3 207 231 230
3 231 221 228
3 231 228 230
3 228 227 229
3 228 229 230
3 201 136 161
3 201 161 232
3 161 159 222
3 161 222 232
3 222 221 231
3 222 231 232
3 231 203 201
3 231 201 232
3 172 117 199
3 172 199 233
3 199 197 234
3 199 234 233
3 234 235 236
3 234 236 233
3 236 174 172
3 236 172 233
3 195 194 237
3 195 237 238
3 237 239 240
3 237 240 238
3 240 235 234
3 240 234 238
3 234 197 195
3 234 195 238
3 241 224 223
3 241 223 242
3 223 219 243
3 223 243 242
3 243 235 240
3 243 240 242
3 240 239 241
3 240 241 242
3 217 156 176
3 217 176 244
3 176 174 236
3 176 236 244
3 236 235 243
3 236 243 244
3 243 219 217
3 243 217 244
3 189 188 245
3 189 245 246
3 245 247 248
3 245 248 246
3 248 249 250
3 248 250 246
3 250 191 189
3 250 189 246
3 251 252 253
3 251 253 254
3 253 255 256
3 253 256 254
3 256 249 248
3 256 248 254
3 248 247 251
3 248 251 254
3 257 258 259
3 257 259 260
3 259 261 262
3 259 262 260
3 262 249 256
3 262 256 260
3 256 255 257
3 256 257 260
3 263 194 193
3 263 193 264
3 193 191 250
3 193 250 264
3 250 249 262
3 250 262 264
3 262 261 263
3 262 263 264
3 209 208 265
3 209 265 266
3 265 267 268
3 265 268 266
3 268 269 270
3 268 270 266
3 270 211 209
3 270 209 266
3 271 272 273
3 271 273 274
3 273 275 276
3 273 276 274
3 276 269 268
3 276 268 274
3 268 267 271
3 268 271 274
3 277 252 251
3 277 251 278
3 251 247 279
3 251 279 278
3 279 269 276
3 279 276 278
3 276 275 277
3 276 277 278
3 245 188 213
3 245 213 280
3 213 211 270
3 213 270 280
3 270 269 279
3 270 279 280
3 279 247 245
3 279 245 280
3 225 224 281
3 225 281 282
3 281 283 284
3 281 284 282
3 284 285 286
3 284 286 282
3 286 227 225
3 286 225 282
3 287 288 289
3 287 289 290
3 289 291 292
3 289 292 290
3 292 285 284
3 292 284 290
3 284 283 287
3 284 287 290
3 293 272 271
3 293 271 294
3 271 267 295
3 271 295 294
3 295 285 292
3 295 292 294
3 292 291 293
3 292 293 294
3 265 208 229
3 265 229 296
3 229 227 286
3 229 286 296
3 286 285 295
3 286 295 296
3 295 267 265
3 295 265 296
3 237 194 263
3 237 263 297
3 263 261 298
3 263 298 297
3 298 299 300
3 298 300 297
3 300 239 237
3 300 237 297
3 259 258 301
3 259 301 302
3 301 303 304
3 301 304 302
3 304 299 298
3 304 298 302
3 298 261 259
3 298 259 302
3 305 288 287
3 305 287 306
3 287 283 307
3 287 307 306
3 307 299 304
3 307 304 306
3 304 303 305
3 304 305 306
3 281 224 241
3 281 241 308
3 241 239 300
3 241 300 308
3 300 299 307
3 300 307 308
3 307 283 281
3 307 281 308
3 253 252 309
3 253 309 310
3 309 311 312
3 309 312 310
3 312 313 314
3 312 314 310
3 314 255 253
3 314 253 310
3 315 316 317
3 315 317 318
3 317 319 320
3 317 320 318
3 320 313 312
3 320 312 318
3 312 311 315
3 312 315 318
3 321 322 323
3 321 323 324
3 323 325 326
3 323 326 324
3 326 313 320
3 326 320 324
3 320 319 321
3 320 321 324
3 327 258 257
3 327 257 328
3 257 255 314
3 257 314 328
3 314 313 326
3 314 326 328
3 326 325 327
3 326 327 328
3 273 272 329
3 273 329 330
3 329 331 332
3 329 332 330
3 332 333 334
3 332 334 330
3 334 275 273
3 334 273 330
3 335 336 337
3 335 337 338
3 337 339 340
3 337 340 338
3 340 333 332
3 340 332 338
3 332 331 335
3 332 335 338
3 341 316 315
3 341 315 342
3 315 311 343
3 315 343 342
3 343 333 340
3 343 340 342
3 340 339 341
3 340 341 342
3 309 252 277
3 309 277 344
3 277 275 334
3 277 334 344
3 334 333 343
3 334 343 344
3 343 311 309
3 343 309 344
3 289 288 345
3 289 345 346
3 345 347 348
3 345 348 346
3 348 349 350
3 348 350 346
3 350 291 289
3 350 289 346
3 351 352 353
3 351 353 354
3 353 355 356
3 353 356 354
3 356 349 348
3 356 348 354
3 348 347 351
3 348 351 354
3 357 336 335
3 357 335 358
3 335 331 359
3 335 359 358
3 359 349 356
3 359 356 358
3 356 355 357
3 356 357 358
3 329 272 293
3 329 293 360
3 293 291 350
3 293 350 360
3 350 349 359
3 350 359 360
3 359 331 329
3 359 329 360
3 301 258 327
3 301 327 361
3 327 325 362
3 327 362 361
3 362 363 364
3 362 364 361
3 364 303 301
3 364 301 361
3 323 322 365
3 323 365 366
3 365 367 368
3 365 368 366
3 368 363 362
3 368 362 366
3 362 325 323
3 362 323 366
3 369 352 351
3 369 351 370
3 351 347 371
3 351 371 370
3 371 363 368
3 371 368 370
3 368 367 369
3 368 369 370
3 345 288 305
3 345 305 372
3 305 303 364
3 305 364 372
3 364 363 371
3 364 371 372
3 371 347 345
3 371 345 372
3 317 316 373
3 317 373 374
3 373 375 376
3 373 376 374
3 376 377 378
3 376 378 374
3 378 319 317
3 378 317 374
3 379 1 0
3 379 0 380
3 0 8 381
3 0 381 380
3 381 377 376
3 381 376 380
3 376 375 379
3 376 379 380
3 23 22 382
3 23 382 383
3 382 384 385
3 382 385 383
3 385 377 381
3 385 381 383
3 381 8 23
3 381 23 383
3 386 322 321
3 386 321 387
3 321 319 378
3 321 378 387
3 378 377 385
3 378 385 387
3 385 384 386
3 385 386 387
3 337 336 388
3 337 388 389
3 388 390 391
3 388 391 389
3 391 392 393
3 391 393 389
3 393 339 337
3 393 337 389
3 394 10 9
3 394 9 395
3 9 4 396
3 9 396 395
3 396 392 391
3 396 391 395
3 391 390 394
3 391 394 395
3 2 1 379
3 2 379 397
3 379 375 398
3 379 398 397
3 398 392 396
3 398 396 397
3 396 4 2
3 396 2 397
3 373 316 341
3 373 341 399
3 341 339 393
3 341 393 399
3 393 392 398
3 393 398 399
3 398 375 373
3 398 373 399
3 353 352 400
3 353 400 401
3 400 402 403
3 400 403 401
3 403 404 405
3 403 405 401
3 405 355 353
3 405 353 401
3 406 16 15
3 406 15 407
3 15 13 408
3 15 408 407
3 408 404 403
3 408 403 407
3 403 402 406
3 403 406 407
3 11 10 394
3 11 394 409
3 394 390 410
3 394 410 409
3 410 404 408
3 410 408 409
3 408 13 11
3 408 11 409
3 388 336 357
3 388 357 411
3 357 355 405
3 357 405 411
3 405 404 410
3 405 410 411
3 410 390 388
3 410 388 411
3 365 322 386
3 365 386 412
3 386 384 413
3 386 413 412
3 413 414 415
3 413 415 412
3 415 367 365
3 415 365 412
3 382 22 21
3 382 21 416
3 21 19 417
3 21 417 416
3 417 414 413
3 417 413 416
3 413 384 382
3 413 382 416
3 17 16 406
3 17 406 418
3 406 402 419
3 406 419 418
3 419 414 417
3 419 417 418
3 417 19 17
3 417 17 418
3 400 352 369
3 400 369 420
3 369 367 415
3 369 415 420
3 415 414 419
3 415 419 420
3 419 402 400
3 419 400 420
3 25 32 421
3 47 46 422
3 47 422 423
3 422 424 425
3 422 425 423
3 425 421 423
3 421 32 47
3 421 47 423
3 425 424 426
3 426 424 427
3 426 427 428
3 422 46 86
3 422 86 429
3 86 91 430
3 86 430 429
3 430 427 429
3 427 424 422
3 427 422 429
3 99 67 431
3 99 431 432
3 431 433 434
3 431 434 432
3 434 430 432
3 430 91 99
3 430 99 432
3 434 433 435
3 435 433 436
3 431 67 66
3 431 66 437
3 66 74 438
3 66 438 437
3 438 436 437
3 436 433 431
3 436 431 437
3 438 74 84
3 57 56 439
3 57 439 440
3 439 441 442
3 439 442 440
3 442 443 444
3 442 444 440
3 444 59 57
3 444 57 440
3 445 127 126
3 445 126 446
3 126 134 447
3 126 447 446
3 447 443 442
3 447 442 446
3 442 441 445
3 442 445 446
3 144 102 448
3 144 448 449
3 448 450 451
3 448 451 449
3 451 443 447
3 451 447 449
3 447 134 144
3 447 144 449
3 452 34 61
3 452 61 453
3 61 59 444
3 61 444 453
3 444 443 451
3 444 451 453
3 451 450 452
3 451 452 453
3 35 34 452
3 35 452 454
3 452 450 455
3 452 455 454
3 455 456 457
3 455 457 454
3 457 37 35
3 457 35 454
3 448 102 101
3 448 101 458
3 101 109 459
3 101 459 458
3 459 456 455
3 459 455 458
3 455 450 448
3 455 448 458
3 124 123 460
3 124 460 461
3 460 462 463
3 460 463 461
3 463 456 459
3 463 459 461
3 459 109 124
3 459 124 461
3 464 40 39
3 464 39 465
3 39 37 457
3 39 457 465
3 457 456 463
3 457 463 465
3 463 462 464
3 463 464 465
3 92 40 464
3 92 464 466
3 464 462 467
3 464 467 466
3 467 468 469
3 467 469 466
3 469 94 92
3 469 92 466
3 460 123 166
3 460 166 470
3 166 171 471
3 166 471 470
3 471 468 467
3 471 467 470
3 467 462 460
3 467 460 470
3 179 147 472
3 179 472 473
3 472 474 475
3 472 475 473
3 475 468 471
3 475 471 473
3 471 171 179
3 471 179 473
3 476 76 96
3 476 96 477
3 96 94 469
3 96 469 477
3 469 468 475
3 469 475 477
3 475 474 476
3 475 476 477
3 77 76 476
3 77 476 478
3 476 474 479
3 476 479 478
3 479 480 481
3 479 481 478
3 481 79 77
3 481 77 478
3 472 147 146
3 472 146 482
3 146 154 483
3 146 483 482
3 483 480 479
3 483 479 482
3 479 474 472
3 479 472 482
3 164 127 445
3 164 445 484
3 445 441 485
3 445 485 484
3 485 480 483
3 485 483 484
3 483 154 164
3 483 164 484
3 439 56 81
3 439 81 486
3 81 79 481
3 81 481 486
3 481 480 485
3 481 485 486
3 485 441 439
3 485 439 486
