OFF
417 816 0
-0.620973 -16.1231 -7.94767
1.01503 -15.9957 -7.61667
1.70203 -15.9193 -6.85367
-0.478973 -16.0496 -6.94367
2.01203 -15.842 -5.74067
-0.350973 -15.9511 -5.74067
-3.18397 -16.0743 -5.74067
-3.09497 -16.1917 -7.03267
-3.02097 -16.2834 -8.11067
1.60703 -15.7907 -4.62867
0.846027 -15.767 -3.86567
-0.865973 -15.7907 -3.53467
-0.615973 -15.8637 -4.53867
-3.34697 -15.842 -3.37167
-3.27297 -15.9511 -4.44967
-5.80497 -15.9193 -3.53467
-7.47097 -15.9957 -3.86467
-8.12797 -16.1231 -4.62867
-5.91697 -16.0496 -4.53867
-8.37997 -16.2834 -5.74067
-6.01697 -16.1917 -5.74067
-7.91697 -16.409 -6.85367
-7.12397 -16.4659 -7.61667
-5.44297 -16.409 -7.94767
-5.72397 -16.3117 -6.94367
-2.21797 -4.67027 -5.29667
-1.20297 -4.82467 -5.07567
-1.21697 -4.86877 -5.09867
-2.22597 -4.71547 -5.31767
-1.26397 -4.96277 -5.14967
-2.25897 -4.81137 -5.36567
-3.45297 -4.76087 -5.43767
-3.43697 -4.66427 -5.39067
-1.39297 -5.14787 -5.23967
-1.65297 -5.46517 -5.38267
-2.53797 -5.32888 -5.57867
-2.35197 -5.00137 -5.44967
-3.60097 -5.28337 -5.64367
-3.50297 -4.95257 -5.51967
-4.66497 -5.32888 -5.57867
-5.54997 -5.46517 -5.38267
-5.61297 -5.14787 -5.23967
-4.65397 -5.00137 -5.44967
-5.64297 -4.96277 -5.14967
-4.64697 -4.81137 -5.36567
-4.64797 -4.71547 -5.31767
-5.65697 -4.86877 -5.09867
-0.592973 -5.69937 -3.82467
-1.20297 -5.95668 -3.45667
-1.21697 -5.99347 -3.48967
-0.611973 -5.73787 -3.85567
-1.26397 -6.07327 -3.56067
-0.666973 -5.82087 -3.92167
-0.467973 -5.51807 -4.35467
-0.409973 -5.43107 -4.29467
-0.389973 -5.39068 -4.26567
-1.39297 -6.22197 -3.70367
-1.65297 -6.46547 -3.95267
-1.12097 -6.23807 -4.27767
-0.816973 -5.97787 -4.05267
-0.943973 -5.96537 -4.66767
-0.624973 -5.68497 -4.47167
-1.12097 -5.69257 -5.05767
-0.816973 -5.39197 -4.89067
-0.666973 -5.21517 -4.78867
-0.592973 -5.08187 -4.70767
-0.611973 -5.12437 -4.73267
-4.65597 -6.11107 -3.23567
-5.67097 -5.95668 -3.45667
-5.65697 -5.99347 -3.48967
-4.64797 -6.14677 -3.27067
-5.64297 -6.07327 -3.56067
-4.64697 -6.22467 -3.34367
-3.45297 -6.27517 -3.27167
-3.43697 -6.19788 -3.19767
-3.43697 -6.16247 -3.16167
-5.61297 -6.22197 -3.70367
-5.54997 -6.46547 -3.95267
-4.66497 -6.60187 -3.75767
-4.65397 -6.36847 -3.49367
-3.60097 -6.64727 -3.69267
-3.50297 -6.41727 -3.42367
-2.53797 -6.60187 -3.75767
-2.35197 -6.36847 -3.49367
-2.25897 -6.22467 -3.34367
-2.21797 -6.11107 -3.23567
-2.22597 -6.14677 -3.27067
-6.28097 -5.08187 -4.70767
-6.26197 -5.12437 -4.73267
-6.23997 -5.21517 -4.78867
-6.43897 -5.51807 -4.35467
-6.46397 -5.43107 -4.29467
-6.48397 -5.39068 -4.26567
-6.08197 -5.69257 -5.05767
-6.18797 -5.39197 -4.89067
-6.25897 -5.96537 -4.66767
-6.37997 -5.68497 -4.47167
-6.08197 -6.23807 -4.27767
-6.18797 -5.97787 -4.05267
-6.23997 -5.82087 -3.92167
-6.28097 -5.69937 -3.82467
-6.26197 -5.73787 -3.85567
-4.69397 -12.0373 -7.67667
-3.88897 -12.0541 -7.27767
-3.52497 -12.7404 -7.51367
-4.52297 -12.7173 -7.98967
-3.00397 -13.2983 -7.74467
-4.20897 -13.2691 -8.28967
-5.65597 -13.2344 -8.47067
-5.72097 -12.6918 -8.14767
-5.66097 -12.0228 -7.80967
-2.33997 -13.7688 -7.95067
-1.54997 -14.1931 -8.11267
-3.18597 -14.1814 -8.75867
-3.76097 -13.7411 -8.55367
-5.15097 -14.1641 -8.97467
-5.46597 -13.7066 -8.75467
-7.12097 -14.14 -8.75867
-8.77197 -14.1082 -8.11267
-8.59997 -13.6336 -7.95067
-7.17397 -13.6693 -8.55367
-8.31097 -13.1696 -7.74467
-7.10397 -13.1995 -8.28967
-7.91697 -12.6501 -7.51367
-7.43397 -12.0089 -7.27767
-6.62797 -12.0127 -7.67667
-6.91897 -12.668 -7.98967
-3.40497 -12.0973 -5.01967
-3.88897 -12.102 -4.35467
-3.52497 -12.7596 -4.02867
-2.92597 -12.7676 -4.82067
-3.00597 -13.2997 -3.75267
-2.28097 -13.3177 -4.65967
-2.03997 -13.3231 -5.74867
-2.72697 -12.7664 -5.77167
-3.24397 -12.0863 -5.81667
-2.34997 -13.7553 -3.53067
-1.57397 -14.1596 -3.36967
-0.577973 -14.1867 -4.44767
-1.49197 -13.78 -4.53567
-0.242973 -14.1991 -5.74067
-1.20497 -13.7895 -5.74067
-0.567973 -14.2001 -7.03467
-1.48797 -13.7853 -6.94667
-2.27997 -13.3164 -6.83767
-3.40497 -12.0711 -6.61367
-2.92597 -12.7571 -6.72167
-6.62797 -12.0736 -3.95667
-7.43397 -12.0568 -4.35467
-7.91697 -12.6692 -4.02867
-6.91897 -12.6924 -3.55267
-8.31897 -13.163 -3.75267
-7.11197 -13.1935 -3.20767
-5.66397 -13.2309 -3.02667
-5.72097 -12.7179 -3.39467
-5.66097 -12.0881 -3.82367
-8.63397 -13.5881 -3.53067
-8.85597 -13.9943 -3.36967
-7.20997 -14.0194 -2.72267
-7.20897 -13.6211 -2.92867
-5.22497 -14.0635 -2.50767
-5.49597 -13.6663 -2.72767
-3.23497 -14.1144 -2.72267
-3.77997 -13.7143 -2.92867
-4.21397 -13.2685 -3.20767
-4.69397 -12.0983 -3.95667
-4.52297 -12.7417 -3.55267
-7.91697 -12.0137 -6.61367
-8.51597 -12.6421 -6.72167
-9.03597 -13.1503 -6.83767
-9.27997 -13.1422 -5.74867
-8.71497 -12.6432 -5.77167
-8.07797 -12.0247 -5.81667
-9.77797 -14.0677 -7.03467
-9.46297 -13.6036 -6.94667
-10.133 -14.0285 -5.74067
-9.75797 -13.5834 -5.74067
-9.82797 -14.0007 -4.44767
-9.48197 -13.5768 -4.53567
-9.04097 -13.1462 -4.65967
-7.91697 -12.0398 -5.01967
-8.51597 -12.6526 -4.82067
-0.647973 -14.6124 -8.20867
-2.49197 -14.6383 -8.88267
0.271027 -15.0037 -8.25767
-1.76397 -15.0791 -8.94367
-4.21397 -15.1589 -9.17267
-4.70997 -14.6628 -9.10667
1.11203 -15.3442 -8.27367
1.78103 -15.6109 -8.27367
-0.540973 -15.7815 -8.96467
-1.08497 -15.4711 -8.96467
-3.33997 -15.9683 -9.19467
-3.73397 -15.6087 -9.19467
-6.16597 -16.1188 -8.96467
-8.56797 -16.1809 -8.27367
-8.66697 -15.7552 -8.27367
-6.40397 -15.7167 -8.96467
-8.76197 -15.2283 -8.25767
-6.67997 -15.2172 -8.94367
-8.81197 -14.6595 -8.20867
-6.93797 -14.6738 -8.88267
-0.696973 -14.5454 -3.27267
0.439027 -14.57 -4.39467
0.192027 -14.8965 -3.22467
1.46103 -14.9156 -4.36867
1.89203 -14.9327 -5.74067
0.823027 -14.5849 -5.74067
1.00403 -15.1968 -3.20867
1.64703 -15.4299 -3.20867
3.12003 -15.4361 -4.35967
2.38703 -15.2091 -4.35967
3.62503 -15.4562 -5.74067
2.86003 -15.2279 -5.74067
3.17403 -15.5084 -7.12267
2.43103 -15.2681 -7.12267
1.49203 -14.9585 -7.11367
0.459027 -14.5968 -7.08767
-8.97997 -14.4317 -3.27267
-7.11597 -14.4325 -2.59967
-9.03097 -14.8637 -3.22467
-6.96497 -14.8312 -2.53867
-4.45097 -14.8372 -2.30967
-4.85797 -14.4617 -2.37567
-9.03597 -15.2539 -3.20867
-9.02097 -15.5657 -3.20867
-6.64697 -15.4674 -2.51767
-6.79497 -15.1859 -2.51767
-3.74097 -15.4254 -2.28767
-4.05997 -15.1663 -2.28767
-0.807973 -15.4196 -2.51767
-1.30297 -15.1762 -2.51767
-1.92197 -14.8647 -2.53867
-2.59097 -14.5043 -2.59967
-9.96797 -14.6081 -7.08767
-10.063 -15.1663 -7.11367
-10.557 -15.0634 -5.74067
-10.391 -14.5396 -5.74067
-10.094 -16.1024 -7.12267
-10.094 -15.6839 -7.12267
-10.705 -15.9375 -5.74067
-10.653 -15.5471 -5.74067
-10.361 -15.7405 -4.35967
-10.312 -15.389 -4.35967
-10.221 -14.9518 -4.36867
-10.067 -14.4741 -4.39467
-5.70297 -5.93717 -3.42567
-4.67297 -6.09377 -3.20167
-3.43697 -6.14597 -3.12667
-4.73497 -6.10287 -3.12967
-1.17097 -5.93717 -3.42567
-0.552973 -5.67627 -3.79867
-0.346973 -5.36317 -4.24667
-1.17097 -4.78907 -5.06767
-6.52697 -5.36317 -4.24667
-6.32097 -5.67627 -3.79867
-6.46497 -5.66447 -3.75767
-5.43897 -6.82937 -4.34167
-4.67897 -6.94847 -4.17167
-5.34497 -7.31417 -4.77167
-4.72797 -7.41167 -4.62667
-3.98697 -7.44417 -4.57767
-3.76597 -6.98817 -4.11467
-5.33297 -7.92048 -5.14267
-5.46997 -8.64857 -5.35267
-5.05497 -8.70146 -5.21267
-4.84197 -7.99487 -5.01067
-4.55697 -8.71908 -5.16667
-4.25397 -8.01968 -4.96667
-4.05997 -8.70146 -5.21267
-3.64497 -8.64857 -5.35267
-3.17497 -7.92048 -5.14267
-3.66497 -7.99487 -5.01067
-2.62897 -7.31417 -4.77167
-3.24597 -7.41167 -4.62667
-2.09297 -6.82937 -4.34167
-2.85397 -6.94847 -4.17167
-1.63697 -6.63087 -4.62567
-2.25797 -7.15177 -5.01467
-2.13497 -6.95697 -5.30667
-1.48497 -6.39278 -4.96667
-3.39597 -8.56045 -5.58467
-2.87997 -7.79647 -5.36267
-3.31297 -8.45471 -5.86467
-2.78197 -7.64768 -5.62667
-3.39597 -8.34898 -6.14367
-3.64497 -8.26087 -6.37567
-3.17497 -7.37488 -6.11067
-2.87997 -7.49887 -5.89067
-2.62897 -6.59967 -5.84067
-2.25797 -6.76207 -5.59767
-2.09297 -5.95617 -5.59067
-1.63697 -6.15457 -5.30667
-2.85397 -5.83707 -5.76167
-3.24597 -6.50227 -5.98667
-3.98697 -6.46977 -6.03567
-3.76597 -5.79737 -5.81767
-4.05997 -8.20797 -6.51567
-3.66497 -7.30047 -6.24267
-4.55697 -8.19037 -6.56167
-4.25397 -7.27567 -6.28667
-5.05497 -8.20797 -6.51567
-5.46997 -8.26087 -6.37567
-5.33297 -7.37488 -6.11067
-4.84197 -7.30047 -6.24267
-5.34497 -6.59967 -5.84067
-4.72797 -6.50227 -5.98667
-5.43897 -5.95617 -5.59067
-4.67897 -5.83707 -5.76167
-5.89497 -6.15457 -5.30667
-5.71497 -6.76207 -5.59767
-5.83897 -6.95697 -5.30667
-6.04797 -6.39278 -4.96667
-5.71797 -8.34898 -6.14367
-5.62697 -7.49887 -5.89067
-5.80097 -8.45471 -5.86467
-5.72497 -7.64768 -5.62667
-5.71797 -8.56045 -5.58467
-5.62697 -7.79647 -5.36267
-5.71497 -7.15177 -5.01467
-5.89497 -6.63087 -4.62567
-9.01197 -15.7627 -3.20867
-6.55697 -15.6461 -2.51767
-8.81697 -15.88 -3.28967
-6.40297 -15.7571 -2.62067
-3.44597 -15.6941 -2.39667
-3.54897 -15.5908 -2.28767
-8.24197 -15.9529 -3.53467
-6.05897 -15.835 -2.92767
-3.39097 -15.7671 -2.72267
1.57203 -15.7277 -3.53467
-0.694973 -15.7349 -2.92767
2.04703 -15.6707 -3.28967
-0.457973 -15.6715 -2.62067
2.03303 -15.5797 -3.20867
-0.510973 -15.5756 -2.51767
3.56003 -15.5821 -4.35967
3.55403 -15.6731 -4.40467
4.07503 -15.6971 -5.74067
4.08403 -15.6031 -5.74067
2.95003 -15.7349 -4.53867
3.43603 -15.7671 -5.74067
1.73803 -15.9529 -7.94767
3.02403 -15.835 -6.94367
2.20403 -15.8845 -8.19167
3.61903 -15.7612 -7.07767
2.18203 -15.7807 -8.27367
3.61903 -15.6626 -7.12267
-0.213973 -15.9777 -8.96467
-0.150973 -16.0866 -8.86167
-2.99297 -16.3071 -9.08567
-3.10397 -16.1939 -9.19467
-0.398973 -16.1352 -8.55467
-2.97597 -16.3294 -8.75967
-7.80197 -16.5498 -7.94767
-5.58097 -16.4831 -8.55467
-8.31197 -16.5647 -8.19167
-5.86497 -16.486 -8.86167
-8.50797 -16.4462 -8.27367
-6.02297 -16.3699 -8.96467
-10.094 -16.3634 -7.12267
-9.87697 -16.4844 -7.07767
-10.513 -16.304 -5.74067
-10.736 -16.1816 -5.74067
-9.22597 -16.4831 -6.94367
-9.80297 -16.3294 -5.74067
-9.48297 -16.1352 -4.53867
-10.174 -16.0825 -4.40467
-10.391 -15.9613 -4.35967
-3.95497 -9.49899 -5.30267
-3.69997 -9.43935 -5.60067
-4.10097 -10.4035 -5.06867
-3.79897 -10.3663 -5.47067
-3.69797 -10.3212 -5.95367
-3.61497 -9.36779 -5.95867
-4.07997 -11.2939 -4.72667
-3.69797 -11.2746 -5.25667
-3.57097 -11.2493 -5.89167
-4.07997 -11.1981 -7.05567
-3.69797 -11.2223 -6.52667
-4.10097 -10.2373 -6.83867
-3.79897 -10.2757 -6.43667
-3.95497 -9.2366 -6.61567
-3.69997 -9.29624 -6.31667
-4.37897 -9.20082 -6.79467
-4.60297 -10.2136 -7.07967
-5.20697 -10.2048 -7.16067
-4.88797 -9.1889 -6.85367
-4.71497 -11.1809 -7.37367
-5.47697 -11.1717 -7.47967
-6.87497 -11.18 -7.05567
-6.23997 -11.1711 -7.37367
-6.31297 -10.2328 -6.83867
-5.80997 -10.2112 -7.07967
-5.81997 -9.2366 -6.61567
-5.39597 -9.20082 -6.79467
-6.07497 -9.29624 -6.31667
-6.61497 -10.27 -6.43667
-6.71497 -10.3151 -5.95367
-6.15997 -9.36779 -5.95867
-7.25597 -11.1993 -6.52667
-7.38297 -11.2247 -5.89167
-6.87497 -11.2758 -4.72667
-7.25597 -11.2516 -5.25667
-6.31297 -10.399 -5.06867
-6.61497 -10.3606 -5.47067
-5.81997 -9.49899 -5.30267
-6.07497 -9.43935 -5.60067
-5.39597 -9.53477 -5.12367
-5.80997 -10.4227 -4.82667
-5.20697 -10.4314 -4.74667
-4.88797 -9.54669 -5.06367
-6.23997 -11.293 -4.40967
-5.47697 -11.3023 -4.30367
-4.71497 -11.3029 -4.40967
-4.60297 -10.4251 -4.82667
-4.37897 -9.53477 -5.12367
3 0 1 2
3 0 2 3
3 2 4 5
3 2 5 3
3 5 6 7
3 5 7 3
3 7 8 0
3 7 0 3
3 9 10 11
3 9 11 12
3 11 13 14
3 11 14 12
3 14 6 5
3 14 5 12
3 5 4 9
3 5 9 12
3 15 16 17
3 15 17 18
3 17 19 20
3 17 20 18
3 20 6 14
3 20 14 18
3 14 13 15
3 14 15 18
3 21 22 23
3 21 23 24
3 23 8 7
3 23 7 24
3 7 6 20
3 7 20 24
3 20 19 21
3 20 21 24
3 25 26 27
3 25 27 28
3 27 29 30
3 27 30 28
3 30 31 32
3 30 32 28
3 32 25 28
3 33 34 35
3 33 35 36
3 35 37 38
3 35 38 36
3 38 31 30
3 38 30 36
3 30 29 33
3 30 33 36
3 39 40 41
3 39 41 42
3 41 43 44
3 41 44 42
3 44 31 38
3 44 38 42
3 38 37 39
3 38 39 42
3 32 31 44
3 32 44 45
3 44 43 46
3 44 46 45
3 47 48 49
3 47 49 50
3 49 51 52
3 49 52 50
3 52 53 54
3 52 54 50
3 54 55 47
3 54 47 50
3 56 57 58
3 56 58 59
3 58 60 61
3 58 61 59
3 61 53 52
3 61 52 59
3 52 51 56
3 52 56 59
3 62 34 33
3 62 33 63
3 33 29 64
3 33 64 63
3 64 53 61
3 64 61 63
3 61 60 62
3 61 62 63
3 27 26 65
3 27 65 66
3 65 55 54
3 65 54 66
3 54 53 64
3 54 64 66
3 64 29 27
3 64 27 66
3 67 68 69
3 67 69 70
3 69 71 72
3 69 72 70
3 72 73 74
3 72 74 70
3 74 75 67
3 74 67 70
3 76 77 78
3 76 78 79
3 78 80 81
3 78 81 79
3 81 73 72
3 81 72 79
3 72 71 76
3 72 76 79
3 82 57 56
3 82 56 83
3 56 51 84
3 56 84 83
3 84 73 81
3 84 81 83
3 81 80 82
3 81 82 83
3 49 48 85
3 49 85 86
3 85 75 74
3 85 74 86
3 74 73 84
3 74 84 86
3 84 51 49
3 84 49 86
3 87 46 88
3 46 43 89
3 46 89 88
3 89 90 91
3 89 91 88
3 91 92 87
3 91 87 88
3 41 40 93
3 41 93 94
3 93 95 96
3 93 96 94
3 96 90 89
3 96 89 94
3 89 43 41
3 89 41 94
3 97 77 76
3 97 76 98
3 76 71 99
3 76 99 98
3 99 90 96
3 99 96 98
3 96 95 97
3 96 97 98
3 69 68 100
3 69 100 101
3 100 92 91
3 100 91 101
3 91 90 99
3 91 99 101
3 99 71 69
3 99 69 101
3 102 103 104
3 102 104 105
3 104 106 107
3 104 107 105
3 107 108 109
3 107 109 105
3 109 110 102
3 109 102 105
3 111 112 113
3 111 113 114
3 113 115 116
3 113 116 114
3 116 108 107
3 116 107 114
3 107 106 111
3 107 111 114
3 117 118 119
3 117 119 120
3 119 121 122
3 119 122 120
3 122 108 116
3 122 116 120
3 116 115 117
3 116 117 120
3 123 124 125
3 123 125 126
3 125 110 109
3 125 109 126
3 109 108 122
3 109 122 126
3 122 121 123
3 122 123 126
3 127 128 129
3 127 129 130
3 129 131 132
3 129 132 130
3 132 133 134
3 132 134 130
3 134 135 127
3 134 127 130
3 136 137 138
3 136 138 139
3 138 140 141
3 138 141 139
3 141 133 132
3 141 132 139
3 132 131 136
3 132 136 139
3 142 112 111
3 142 111 143
3 111 106 144
3 111 144 143
3 144 133 141
3 144 141 143
3 141 140 142
3 141 142 143
3 104 103 145
3 104 145 146
3 145 135 134
3 145 134 146
3 134 133 144
3 134 144 146
3 144 106 104
3 144 104 146
3 147 148 149
3 147 149 150
3 149 151 152
3 149 152 150
3 152 153 154
3 152 154 150
3 154 155 147
3 154 147 150
3 156 157 158
3 156 158 159
3 158 160 161
3 158 161 159
3 161 153 152
3 161 152 159
3 152 151 156
3 152 156 159
3 162 137 136
3 162 136 163
3 136 131 164
3 136 164 163
3 164 153 161
3 164 161 163
3 161 160 162
3 161 162 163
3 129 128 165
3 129 165 166
3 165 155 154
3 165 154 166
3 154 153 164
3 154 164 166
3 164 131 129
3 164 129 166
3 167 124 123
3 167 123 168
3 123 121 169
3 123 169 168
3 169 170 171
3 169 171 168
3 171 172 167
3 171 167 168
3 119 118 173
3 119 173 174
3 173 175 176
3 173 176 174
3 176 170 169
3 176 169 174
3 169 121 119
3 169 119 174
3 177 157 156
3 177 156 178
3 156 151 179
3 156 179 178
3 179 170 176
3 179 176 178
3 176 175 177
3 176 177 178
3 149 148 180
3 149 180 181
3 180 172 171
3 180 171 181
3 171 170 179
3 171 179 181
3 179 151 149
3 179 149 181
3 113 112 182
3 113 182 183
3 182 184 185
3 182 185 183
3 185 186 187
3 185 187 183
3 187 115 113
3 187 113 183
3 188 189 190
3 188 190 191
3 190 192 193
3 190 193 191
3 193 186 185
3 193 185 191
3 185 184 188
3 185 188 191
3 194 195 196
3 194 196 197
3 196 198 199
3 196 199 197
3 199 186 193
3 199 193 197
3 193 192 194
3 193 194 197
3 200 118 117
3 200 117 201
3 117 115 187
3 117 187 201
3 187 186 199
3 187 199 201
3 199 198 200
3 199 200 201
3 138 137 202
3 138 202 203
3 202 204 205
3 202 205 203
3 205 206 207
3 205 207 203
3 207 140 138
3 207 138 203
3 208 209 210
3 208 210 211
3 210 212 213
3 210 213 211
3 213 206 205
3 213 205 211
3 205 204 208
3 205 208 211
3 214 189 188
3 214 188 215
3 188 184 216
3 188 216 215
3 216 206 213
3 216 213 215
3 213 212 214
3 213 214 215
3 182 112 142
3 182 142 217
3 142 140 207
3 142 207 217
3 207 206 216
3 207 216 217
3 216 184 182
3 216 182 217
3 158 157 218
3 158 218 219
3 218 220 221
3 218 221 219
3 221 222 223
3 221 223 219
3 223 160 158
3 223 158 219
3 224 225 226
3 224 226 227
3 226 228 229
3 226 229 227
3 229 222 221
3 229 221 227
3 221 220 224
3 221 224 227
3 230 209 208
3 230 208 231
3 208 204 232
3 208 232 231
3 232 222 229
3 232 229 231
3 229 228 230
3 229 230 231
3 202 137 162
3 202 162 233
3 162 160 223
3 162 223 233
3 223 222 232
3 223 232 233
3 232 204 202
3 232 202 233
3 173 118 200
3 173 200 234
3 200 198 235
3 200 235 234
3 235 236 237
3 235 237 234
3 237 175 173
3 237 173 234
3 196 195 238
3 196 238 239
3 238 240 241
3 238 241 239
3 241 236 235
3 241 235 239
3 235 198 196
3 235 196 239
3 242 225 224
3 242 224 243
3 224 220 244
3 224 244 243
3 244 236 241
3 244 241 243
3 241 240 242
3 241 242 243
3 218 157 177
3 218 177 245
3 177 175 237
3 177 237 245
3 237 236 244
3 237 244 245
3 244 220 218
3 244 218 245
3 246 68 67
3 246 67 247
3 67 75 248
3 67 248 247
3 248 249 247
3 249 246 247
3 85 48 250
3 248 75 85
3 250 48 47
3 250 47 251
3 47 55 252
3 47 252 251
3 65 26 253
3 252 55 65
3 253 26 25
3 87 92 254
3 100 68 246
3 100 246 255
3 246 256 255
3 256 254 255
3 254 92 100
3 254 100 255
3 78 77 257
3 78 257 258
3 257 259 260
3 257 260 258
3 260 261 262
3 260 262 258
3 262 80 78
3 262 78 258
3 263 264 265
3 263 265 266
3 265 267 268
3 265 268 266
3 268 261 260
3 268 260 266
3 260 259 263
3 260 263 266
3 269 270 271
3 269 271 272
3 271 273 274
3 271 274 272
3 274 261 268
3 274 268 272
3 268 267 269
3 268 269 272
3 275 57 82
3 275 82 276
3 82 80 262
3 82 262 276
3 262 261 274
3 262 274 276
3 274 273 275
3 274 275 276
3 58 57 275
3 58 275 277
3 275 273 278
3 275 278 277
3 278 279 280
3 278 280 277
3 280 60 58
3 280 58 277
3 271 270 281
3 271 281 282
3 281 283 284
3 281 284 282
3 284 279 278
3 284 278 282
3 278 273 271
3 278 271 282
3 285 286 287
3 285 287 288
3 287 289 290
3 287 290 288
3 290 279 284
3 290 284 288
3 284 283 285
3 284 285 288
3 291 34 62
3 291 62 292
3 62 60 280
3 62 280 292
3 280 279 290
3 280 290 292
3 290 289 291
3 290 291 292
3 35 34 291
3 35 291 293
3 291 289 294
3 291 294 293
3 294 295 296
3 294 296 293
3 296 37 35
3 296 35 293
3 287 286 297
3 287 297 298
3 297 299 300
3 297 300 298
3 300 295 294
3 300 294 298
3 294 289 287
3 294 287 298
3 301 302 303
3 301 303 304
3 303 305 306
3 303 306 304
3 306 295 300
3 306 300 304
3 300 299 301
3 300 301 304
3 307 40 39
3 307 39 308
3 39 37 296
3 39 296 308
3 296 295 306
3 296 306 308
3 306 305 307
3 306 307 308
3 93 40 307
3 93 307 309
3 307 305 310
3 307 310 309
3 310 311 312
3 310 312 309
3 312 95 93
3 312 93 309
3 303 302 313
3 303 313 314
3 313 315 316
3 313 316 314
3 316 311 310
3 316 310 314
3 310 305 303
3 310 303 314
3 317 264 263
3 317 263 318
3 263 259 319
3 263 319 318
3 319 311 316
3 319 316 318
3 316 315 317
3 316 317 318
3 257 77 97
3 257 97 320
3 97 95 312
3 97 312 320
3 312 311 319
3 312 319 320
3 319 259 257
3 319 257 320
3 226 225 321
3 226 321 322
3 321 323 324
3 321 324 322
3 324 325 326
3 324 326 322
3 326 228 226
3 326 226 322
3 327 16 15
3 327 15 328
3 15 13 329
3 15 329 328
3 329 325 324
3 329 324 328
3 324 323 327
3 324 327 328
3 11 10 330
3 11 330 331
3 330 332 333
3 330 333 331
3 333 325 329
3 333 329 331
3 329 13 11
3 329 11 331
3 334 209 230
3 334 230 335
3 230 228 326
3 230 326 335
3 326 325 333
3 326 333 335
3 333 332 334
3 333 334 335
3 210 209 334
3 210 334 336
3 334 332 337
3 334 337 336
3 337 338 339
3 337 339 336
3 339 212 210
3 339 210 336
3 330 10 9
3 330 9 340
3 9 4 341
3 9 341 340
3 341 338 337
3 341 337 340
3 337 332 330
3 337 330 340
3 2 1 342
3 2 342 343
3 342 344 345
3 342 345 343
3 345 338 341
3 345 341 343
3 341 4 2
3 341 2 343
3 346 189 214
3 346 214 347
3 214 212 339
3 214 339 347
3 339 338 345
3 339 345 347
3 345 344 346
3 345 346 347
3 190 189 346
3 190 346 348
3 346 344 349
3 346 349 348
3 349 350 351
3 349 351 348
3 351 192 190
3 351 190 348
3 342 1 0
3 342 0 352
3 0 8 353
3 0 353 352
3 353 350 349
3 353 349 352
3 349 344 342
3 349 342 352
3 23 22 354
3 23 354 355
3 354 356 357
3 354 357 355
3 357 350 353
3 357 353 355
3 353 8 23
3 353 23 355
3 358 195 194
3 358 194 359
3 194 192 351
3 194 351 359
3 351 350 357
3 351 357 359
3 357 356 358
3 357 358 359
3 238 195 358
3 238 358 360
3 358 356 361
3 358 361 360
3 361 362 363
3 361 363 360
3 363 240 238
3 363 238 360
3 354 22 21
3 354 21 364
3 21 19 365
3 21 365 364
3 365 362 361
3 365 361 364
3 361 356 354
3 361 354 364
3 17 16 327
3 17 327 366
3 327 323 367
3 327 367 366
3 367 362 365
3 367 365 366
3 365 19 17
3 365 17 366
3 321 225 242
3 321 242 368
3 242 240 363
3 242 363 368
3 363 362 367
3 363 367 368
3 367 323 321
3 367 321 368
3 281 270 369
3 281 369 370
3 369 371 372
3 369 372 370
3 372 373 374
3 372 374 370
3 374 283 281
3 374 281 370
3 375 128 127
3 375 127 376
3 127 135 377
3 127 377 376
3 377 373 372
3 377 372 376
3 372 371 375
3 372 375 376
3 145 103 378
3 145 378 379
3 378 380 381
3 378 381 379
3 381 373 377
3 381 377 379
3 377 135 145
3 377 145 379
3 382 286 285
3 382 285 383
3 285 283 374
3 285 374 383
3 374 373 381
3 374 381 383
3 381 380 382
3 381 382 383
3 297 286 382
3 297 382 384
3 382 380 385
3 382 385 384
3 385 386 387
3 385 387 384
3 387 299 297
3 387 297 384
3 378 103 102
3 378 102 388
3 102 110 389
3 102 389 388
3 389 386 385
3 389 385 388
3 385 380 378
3 385 378 388
3 125 124 390
3 125 390 391
3 390 392 393
3 390 393 391
3 393 386 389
3 393 389 391
3 389 110 125
3 389 125 391
3 394 302 301
3 394 301 395
3 301 299 387
3 301 387 395
3 387 386 393
3 387 393 395
3 393 392 394
3 393 394 395
3 313 302 394
3 313 394 396
3 394 392 397
3 394 397 396
3 397 398 399
3 397 399 396
3 399 315 313
3 399 313 396
3 390 124 167
3 390 167 400
3 167 172 401
3 167 401 400
3 401 398 397
3 401 397 400
3 397 392 390
3 397 390 400
3 180 148 402
3 180 402 403
3 402 404 405
3 402 405 403
3 405 398 401
3 405 401 403
3 401 172 180
3 401 180 403
3 406 264 317
3 406 317 407
3 317 315 399
3 317 399 407
3 399 398 405
3 399 405 407
3 405 404 406
3 405 406 407
3 265 264 406
3 265 406 408
3 406 404 409
3 406 409 408
3 409 410 411
3 409 411 408
3 411 267 265
3 411 265 408
3 402 148 147
3 402 147 412
3 147 155 413
3 147 413 412
3 413 410 409
3 413 409 412
3 409 404 402
3 409 402 412
3 165 128 375
3 165 375 414
3 375 371 415
3 375 415 414
3 415 410 413
3 415 413 414
3 413 155 165
3 413 165 414
3 369 270 269
3 369 269 416
3 269 267 411
3 269 411 416
3 411 410 415
3 411 415 416
3 415 371 369
3 415 369 416
