5.68659
3.33482
1.57443
1.38401
2.68813
7.41885
8.16717
3.17482
5.41406
7.93485
7.83045
5.42081
4.78794
4.40161
2.24145
3.36387
1.60391
1.41438
9.34931
7.46967
8.21547
7.40656
4.83536
7.2132
3.50629
6.66107
4.39051
8.10139
1.46736
1.3885
8.87508
7.58178
2.88395
1.99748
2.55345
2.78823
1.77661
2.38936
1.75273
3.1291
1.80578
2.72663
1.66691
2.16213
3.18745
2.62943
2.46213
2.53712
3.36587
3.21598
2.42095
2.92929
1.98096
1.8969
3.07618
3.13188
2.45199
3.11823
3.18818
2.72823
3.11526
7.12414
2.80721
2.45055
1.67072
3.60409
2.77207
3.30116
2.84151
2.36656
2.32829
2.94696
2.44656
1.28244
1.89564
3.72121
3.17443
2.72047
1.83406
1.73609
1.49033
1.74032
3.14498
2.34194
3.01315
3.67231
1.91797
4.40055
2.84727
1.57776
1.18847
3.42231
1.87991
2.10645
2.77137
3.62834
2.08364
1.71111
1.66735
1.58163
2.20623
1.84839
2.28754
1.16186
1.34267
1.93206
2.46355
2.34795
2.71119
2.53834
2.98198
3.36329
1.64917
3.35729
3.41584
2.56742
3.58316
3.42104
2.68574
2.19564
9.42058
3.67958
1.64154
3.14577
3.46724
1.26803
1.37644
1.51078
3.29106
2.01382
2.4683
3.13329
3.44311
3.58946
1.03966
2.18958
3.26841
1.5033
3.49955
1.62853
1.11538
3.48654
0.910486
3.87907
2.51171
0.86992
2.37413
1.80043
2.84272
2.57754
3.43119
1.80644
2.42627
3.27009
4.03513
3.58514
8.05514
4.12694
3.73639
4.19487
2.84653
2.84018
4.6327
4.10666
3.58765
4.29047
4.27798
0.922997
4.49583
1.51052
3.24852
5.18364
5.43931
3.91005
5.47146
5.66122
1.72722
3.7354
3.19513
4.25439
4.87906
4.43476
3.63231
4.24414
2.96674
3.31296
4.5592
4.47273
2.57511
3.99045
3.28132
3.52846
2.35806
1.66545
1.71004
1.8505
2.01118
2.4872
2.73226
1.72265
3.5505
2.83034
5.02602
5.03608
2.71192
3.8982
1.24259
1.28868
3.89507
4.76357
3.32883
3.23956
2.8716
3.2356
3.25932
3.64272
2.59276
3.27414
2.76109
5.07901
4.82424
3.71944
7.29378
3.90138
3.13238
2.47883
3.3941
4.59916
1.4148
3.87715
7.20161
6.30766
3.68944
3.46357
3.72539
1.02508
2.75279
0.893939
6.26407
5.84809
4.31532
4.81663
8.05169
4.40145
2.99689
2.03074
6.4726
4.13087
4.37863
3.89154
1.70606
1.43368
2.43293
5.617
1.89597
4.1219
1.20109
5.80663
3.51559
5.39229
1.1623
3.93425
5.89608
5.25591
8.52413
2.15041
1.84854
3.6699
5.21284
5.09939
6.44246
0.76489
3.60926
4.74742
7.60416
2.84395
2.73691
1.79417
1.46571
2.5631
6.2215
3.00407
5.70262
2.84233
4.12864
7.00628
4.72061
5.96813
2.13779
3.33008
7.49169
8.09357
6.98106
6.47882
4.37509
4.20681
4.28829
4.63835
7.78879
7.08873
7.25902
7.92313
6.21434
7.05601
4.91025
5.71006
6.02189
7.08618
6.12044
7.28015
7.04155
7.48732
2.70665
6.62181
7.86361
7.28824
7.8338
6.57314
7.51665
6.70368
3.31143
6.07833
9.22142
3.37071
6.52762
6.56126
7.45376
6.0011
8.60366
3.53427
2.93001
9.07263
8.96872
6.51151
3.17878
8.23118
3.13254
5.23573
4.7454
4.49359
6.82201
5.61107
7.94323
5.51763
5.36345
3.67513
6.69191
7.85312
6.08881
7.37868
6.69438
6.21809
1.89488
1.40564
5.82792
4.92761
6.40003
4.3305
7.57756
5.44253
4.0323
8.42047
2.99753
6.64058
3.45127
6.14253
3.87446
5.54008
2.40838
5.61279
6.40441
4.63812
7.06203
6.71603
2.96494
3.14416
3.41014
4.27907
7.98375
5.26408
4.97455
1.72583
9.93397
3.73307
6.4577
6.34607
6.26253
8.0961
6.94321
3.23122
4.03485
6.13302
5.13831
4.96796
4.08161
2.84069
4.21857
10.476
8.88239
6.34638
3.88064
2.31536
4.04381
6.78613
8.36027
5.71854
4.64503
9.76372
5.91049
1.32601
0.696492
1.85614
0.800909
0.854767
1.14606
1.24069
0.878983
0.88996
2.8391
1.38043
0.313646
0.586347
1.98415
0.650471
0.775935
2.0135
0.745513
0.667071
0.534974
0.669507
2.87252
1.09415
1.34379
0.954738
1.16429
1.20673
0.670118
1.02936
1.00579
0.73091
1.71504
1.43646
0.555457
0.89413
1.00878
0.956217
1.89851
1.30454
0.653746
0.57426
0.919128
0.96615
6.62826
0.52767
0.457961
0.502837
0.869872
0.819586
8.58915
5.75666
0.689165
0.494235
7.14063
1.51175
1.4594
3.96508
2.29772
3.37073
0.524092
3.03536
1.17846
0.99256
1.46485
3.19198
0.78407
0.746009
0.579145
0.894531
1.38933
1.20905
0.675276
0.784511
2.29668
0.747095
0.62551
6.71558
1.17821
0.47113
0.533023
1.28324
1.1853
6.60986
1.26644
0.640659
1.02356
1.40711
1.50101
1.56891
1.37762
1.19334
0.935333
0.825687
0.800603
0.860082
1.34155
1.19403
0.651055
0.771178
0.880589
0.768506
1.41079
1.19386
1.00689
0.542429
0.63844
1.24287
0.767368
0.433114
1.22289
1.64873
0.450733
0.475395
1.04816
0.259811
0.344762
0.514631
0.495149
0.529197
1.33731
1.0061
1.46329
1.6912
0.727296
0.837359
0.489846
0.722512
1.49617
2.69827
0.952074
1.26587
1.54133
1.41171
0.878676
0.94991
7.06991
4.86762
2.9684
5.5449
2.40529
5.14036
3.95067
3.4719
6.49209
5.98125
1.21217
1.86231
2.59251
1.58508
5.1292
3.10723
0.846155
0.785724
1.7602
0.879297
1.22969
1.73282
0.819656
1.06172
0.804143
3.66533
0.856703
1.06737
1.08677
1.28659
0.965583
1.34324
7.1067
8.92887
8.49656
2.31294
7.50584
1.39996
2.54851
1.20013
6.52587
4.15935
7.43582
3.84039
7.26573
7.06454
7.15817
6.75967
0.669483
0.648564
3.21208
1.02339
0.957664
2.25328
1.95134
0.933852
0.563316
0.800575
1.15911
0.742717
0.862156
0.672632
0.60651
0.705821
3.75561
1.25719
7.69544
5.98028
2.06581
3.8613
3.65505
1.78145
9.07979
6.67434
1.78119
1.84907
1.47398
10.008
8.67034
9.09415
0.686714
1.35746
0.803484
0.75083
0.787927
0.794241
0.945999
1.27259
0.849652
0.663933
1.41862
1.37851
0.982077
0.76942
0.595894
0.902721
2.98128
1.23966
7.31645
7.14819
3.0619
1.22387
7.08809
8.23825
1.40599
4.7949
0.92025
1.09077
7.3147
1.08754
1.43512
2.76617
0.234183
0.562062
0.486212
0.840957
0.973093
0.746722
1.04848
1.0343
1.80714
1.40187
3.54151
2.10023
2.88498
3.03814
3.77445
3.0368
0.989322
4.06509
3.70712
3.86681
2.9683
2.84166
3.1413
2.18727
3.65706
3.66571
3.58432
2.90331
3.34767
2.94496
2.95928
4.6823
1.12288
3.55545
3.32265
6.60689
3.05241
6.59355
3.58762
3.42542
1.85652
3.12159
3.10396
3.3861
1.60736
2.38381
3.05454
1.38604
6.7317
3.92801
3.80802
4.33906
3.03408
3.22343
2.19617
4.9942
3.38511
2.37747
1.97066
3.66917
0.736283
4.53461
3.62885
3.19166
3.10443
1.19698
1.46326
2.61503
2.53964
3.41358
3.42879
2.82075
3.13566
1.49054
4.86256
2.95852
2.57247
1.23763
3.68375
2.28084
3.89767
2.23864
3.73739
1.91409
3.40605
2.32791
2.7857
1.74733
5.15663
3.73394
3.19211
3.5614
3.64318
2.65102
1.7383
2.86547
2.75334
3.07696
3.32935
3.56461
3.56418
1.37409
3.3148
1.41961
2.94423
3.51204
2.42934
2.09397
3.02334
2.93368
2.85408
1.53204
3.01249
4.79203
5.81811
3.36107
4.46728
3.52282
2.93065
2.6987
3.32511
2.46668
4.75003
3.79224
2.02908
2.78829
2.11234
6.34798
0.993352
1.10835
2.25358
3.75856
2.42256
1.97677
3.21453
1.83896
2.07931
3.06176
4.00709
2.09351
4.15859
1.71605
3.50115
3.75535
0
1.25178
0
0.989277
2.89111
