0.6662
0.699789
0.375297
1.42125
0.648305
0.547158
0.643288
1.23059
0.924734
0.49687
0.370273
0.776279
0.715839
0.571492
0.678595
1.06328
0.536044
0.960081
1.2303
0.870112
0.949898
0.482867
1.03098
0.292964
0.589509
0.5559
0.33353
0.526898
0.419973
0.519192
0.357901
0.609789
0.714518
0.37512
0.352576
0.580549
0.603365
0.55444
0.712583
0.45218
0.580379
0.557545
0.50724
0.462316
0.13862
0.760717
1.45918
0.578799
0.38418
0.38669
0.708597
0.60444
0.551498
0.534961
0.572267
0.56824
0.643893
0.693809
0.569499
0.702535
0.54254
0.629578
0.716543
0.486744
0.28628
0.683514
0.368268
0.821492
0.178561
0.601979
0.441281
0.489838
0.606483
1.06179
0.606754
0.651346
0.777315
0.606159
0.661051
0.975185
0.683146
0.687746
0.788503
0.286078
0.803837
0.658289
0.381834
0.650917
0.610367
0.840119
1.09317
0.805661
0.603906
0.614849
0.724083
0.68859
1.07481
0.353255
0.731897
0.846193
1.04118
0.647312
0.888961
0.958104
0.591048
0.740413
0.931599
0.254128
0.866582
0.540997
0.429211
0.691297
0.640437
0.534721
0.848342
0.802285
0.868519
0.714644
0.468687
0.642723
0.721011
0.856055
0.705694
0.652903
0.508068
0.433514
0.346428
0.695091
0.517886
0.949923
0.822686
1.05256
0.608445
0.816804
0.397421
1.00564
0.950586
0.460866
0.526301
0.186703
0.634522
0.231854
0.587467
0.406904
0.529412
0.833996
1.02705
0.347621
0.794149
0.97742
0.857188
0.919849
1.14994
1.07037
0.850157
0.86482
0.866375
0.806426
0.976927
1.01625
0.532231
0.876316
0.607811
1.01297
0.311738
0.865653
1.11784
0.954633
0.605366
0.968994
1.33672
0.452241
1.41111
1.2635
1.1086
1.01219
0.865523
0.969961
1.03366
0.99039
1.07216
1.06067
0.891477
0.540829
0.513935
0.74296
1.51731
0.841924
3.03646
0.904599
0.390553
0.838853
1.0337
0.725949
1.0983
0.74183
0.805742
0.774867
0.7725
2.39772
0.908743
0.807434
1.6989
0.628261
1.01011
0.465793
1.18224
1.15766
1.14527
1.14638
1.15743
1.04306
0.900581
0.593514
1.06204
0.925082
1.18215
0.853097
0.91598
1.51351
1.44006
1.53871
1.04629
1.21874
0.57952
1.33889
0.787704
0.754889
1.15196
2.14149
1.30442
1.46801
1.42531
1.36962
1.27232
1.23021
1.29684
1.59907
1.14523
0.702311
1.14234
0.79452
1.20299
1.62324
1.44153
0.599789
1.4706
1.33531
0.625018
1.28142
1.44264
0.911245
1.15806
0.925383
1.39334
1.31684
0.238555
1.1675
0.450328
1.47618
0.853977
1.18548
0.80076
0.718295
0.743333
0.53669
0.706086
0.486688
1.13242
0.460326
1.26745
0.638839
0.54255
0.786109
0.95389
1.39633
1.37467
1.11849
1.21441
0.977421
1.75349
0.696823
0.922242
1.38219
0.605618
0.864792
0.387173
0.914982
0.497299
1.3503
1.88232
0.46217
0.769882
0.787108
0.663406
0.74247
1.83968
0.711938
0.714446
0.467233
1.00273
1.25807
0.949561
1.13158
1.49873
1.33266
0.825549
0.778523
1.43598
1.0999
1.77955
0.715417
1.81156
1.14558
0.379046
0.820404
0.56008
0.464356
0.62508
0.604261
0.290959
0.179323
0.70476
1.11163
1.00904
0.539657
0.808961
0.8156
0.583042
0.62869
0.179768
0.515849
1.0512
1.17356
0.539441
1.09374
2.72552
0.560896
0.477861
0.69767
0.599872
0.929187
0.696337
0.712803
0.616506
0.498608
1.15587
6.37807
0.67272
0.980431
0.950865
0.680019
0.880421
0.776169
0.683157
0.675317
0.505795
1.08535
0.930848
0.998037
0.884608
0.591575
0.62224
0.752371
0.556941
0.497834
0.592392
0.485737
0.649069
1.14995
