1.26124
1.20871
1.10085
1.56042
1.01035
1.33599
1.41954
1.06709
1.31822
1.00182
0.930339
0.975611
0.669231
0.874528
0.838325
0.973154
0.693557
1.60973
1.31349
1.12892
1.33077
0.929672
1.13605
0.987518
1.84151
1.04435
1.71614
1.10153
0.769994
1.43346
1.09854
0.857954
0.211846
1.5155
1.43712
1.40322
2.06716
1.09493
0.765767
1.03158
0.380068
0.912696
1.8463
1.55263
0.976468
1.09188
1.34035
1.32609
1.71369
1.55637
1.60054
1.87864
1.63262
1.6552
1.57288
0.937757
1.19464
1.53483
1.55035
1.47199
0.535043
0.468541
0.529834
0.598386
0.565727
0.928843
0.52827
0.531598
0.653939
0.992783
0.825872
0.717963
1.08717
0.600924
1.05988
0.661892
0.829228
0.569406
0.573165
0.734605
0.686706
0.824464
0.941831
0.747207
0.866151
0.773147
0.872616
0.460785
0.998354
0.662178
0.528184
0.489333
0.470041
0.479079
0.522925
0.618395
0.654416
0.649029
0.576828
0.609438
0.760335
0.887725
0.736658
0.812716
0.867995
0.650465
0.714273
0.720075
0.781448
0.681166
0.941767
0.663575
0.835054
0.646176
0.713443
0.839223
0.5271
0.597477
0.602245
0.687249
0.663521
0.938694
0.591982
0.828653
0.609799
0.79319
0.739434
0.519305
1.06644
0.421351
0.381221
0.846431
0.870859
0.642042
0.903989
0.953564
0.541923
0.902594
0.552853
0.782467
0.786944
1.13807
0.804662
0.715476
0.942906
0.611875
0.869165
1.00832
0.534667
0.49677
0.680774
0.948186
0.93679
0.503985
0.749805
0.516131
0.481277
0.800605
0.506653
0.505176
0.779523
0.49349
0.678092
0.587784
0.66218
0.673162
0.834919
0.661902
0.762274
0.723916
0.570549
0.664424
0.876749
0.667
0.583266
0.728686
0.647122
0.983639
0.763741
0.6657
0.663569
0.568534
0.686932
0.721525
0.612906
0.628824
0.718435
0.649485
0.844036
0.734214
0.51589
0.946819
0.694427
0.647391
0.825749
0.721938
0.465447
0.504931
0.45174
0.599967
0.802996
0.471878
0.703441
0.433587
0.587416
0.496436
0.633246
0.755024
0.744712
0.72226
0.521042
0.56189
0.799017
0.953293
0.614614
1.04048
0.679776
0.845983
0.561443
0.777052
0.763587
0.715091
0.728683
0.751518
0.594302
0.70941
0.805286
0.713548
0.473509
0.517788
0.491298
0.526618
0.53136
0.665735
0.539538
0.540871
0.703304
0.602036
0.675848
0.566129
0.458124
0.455679
0.848542
0.688306
0.747983
0.684479
0.651682
0.664258
0.670045
0.813662
0.797969
0.876548
0.736064
0.746823
0.729057
0.808067
0.742843
0.828027
0.491723
0.414147
0.58177
0.532633
0.573456
0.644202
0.728866
0.671366
0.534947
0.529085
0.652494
0.551748
0.757409
0.633441
0.55116
0.445681
0.823188
0.677362
1.1539
0.82111
0.722221
0.681848
0.604272
0.752751
0.645978
0.853619
0.681948
0.734911
0.715978
0.677388
0.664574
0.793281
0.536651
0.494528
0.490001
0.521372
0.593277
0.690196
0.601652
0.668173
0.558643
0.524449
0.670947
0.788858
0.577238
0.622538
0.483332
0.482175
0.693577
0.82894
0.681551
0.744578
0.699542
0.625881
0.79919
0.646182
0.633885
0.304172
0.54942
0.530536
0.434859
0.634922
0.546232
0.346262
0.3753
0.663869
0.68409
0.313829
0.347764
0.474806
0.384399
0.576691
0.57234
0.449854
0.569827
0.421791
0.490639
0.57547
0.397619
0.710784
0.643459
0.488688
0.426515
0.571445
0.512401
0.465856
0.629834
0.417852
0.437299
0.377588
0.495201
0.478172
0.515391
0.467898
0.518811
0.586168
0.503776
0.658658
0.414679
0.571928
0.563906
0.782145
0.677607
0.474242
0.719053
0.600298
0.450498
0.375355
0.435202
0.337421
0.466017
0.419473
0.469421
0.522196
0.451159
0.428698
0.465634
0.494536
0.368953
0.538731
0.419076
0.426068
0.575276
0.505909
0.456913
0.501038
0.408483
0.315502
0.409483
0.487131
0.672846
0.527988
0.410479
0.419762
0.480227
0.402915
0.442878
0.386972
0.387889
0.78025
0.884958
0.953164
1.46945
1.40364
1.34668
1.09381
1.0897
1.20781
1.25455
1.24232
1.6218
1.16276
1.219
1.19133
1.50002
0.787757
0.918888
0.851505
1.3481
0.981253
1.21733
1.24921
1.10442
1.98368
1.13861
1.93779
1.7362
1.51212
1.34269
1.22088
1.36
1.49055
1.1946
1.23738
1.09416
0.931596
1.43302
1.02442
0.764029
0.779769
0.90327
1.01485
1.55626
1.25153
1.22901
0.915562
1.62391
1.66117
1.74915
1.47228
2.0884
1.84731
1.82255
1.64775
1.84103
0.980826
1.3409
1.35913
1.23774
0.604995
0.740903
1.3149
1.00771
1.14449
1.55559
1.15713
1.29839
0.990829
1.63577
1.52465
1.60944
1.38232
1.39065
1.6206
0.676474
0.828132
0.648646
0.851581
1.06987
0.949377
1.48824
1.27112
1.74397
1.86813
1.90671
2.0028
1.93599
2.01873
1.51677
1.89501
1.56261
1.82706
1.60815
1.59655
1.82445
1.41013
1.9786
2.05027
1.26529
1.26881
1.74629
1.83062
2.26196
1.82349
1.67815
1.99479
1.80656
1.50786
1.26509
1.57256
1.99893
2.0382
2.2677
1.84194
1.57492
1.5936
1.17843
1.91358
1.38002
1.3447
0.959223
2.16319
1.01919
1.21129
1.59868
1.1767
1.04309
0.650182
1.11872
1.15044
1.35458
1.36762
1.50021
1.99216
1.53533
1.48672
1.23305
1.15131
1.16631
1.69689
2.08381
1.21859
1.80643
1.3168
1.85762
1.75708
2.00629
2.05231
2.19594
1.72664
1.47789
1.85977
2.07849
1.71002
1.16796
1.3097
1.21798
1.50325
1.73179
1.99789
2.00539
1.2417
1.30426
1.18209
1.59201
1.55339
1.79197
1.69726
1.07097
1.47188
2.27348
1.24342
2.0395
1.95482
1.85876
1.65753
1.93369
2.12317
1.4147
1.46391
1.89792
1.95591
1.62276
1.9604
1.76864
1.38346
1.28538
2.14495
1.22141
1.63763
1.55395
1.84353
1.19132
1.79542
1.30593
1.13612
0.967601
1.88987
1.76759
1.92359
1.73362
1.50027
1.75467
2.01901
1.75962
1.46956
2.10836
1.75339
1.6675
2.05273
1.35296
1.33888
1.24661
1.17513
1.23835
1.66383
0.980167
0.859794
0.886676
0.880659
0.8822
1.08861
1.10808
0.988252
0.432113
1.15175
1.11019
0.901583
1.0591
0.974027
0.800785
0.879163
1.03473
1.45645
1.17163
0.84308
1.67379
0.957641
0.946156
0.994999
1.1048
1.2002
0.468966
0.561827
0.925015
0.766164
1.01884
0.786545
0.905551
0.772202
0.782573
0.817219
0.977184
0.913737
0.933713
0.812611
0.808608
0.783478
1.12864
1.26606
1.06125
1.08732
1.1312
1.21494
1.01674
1.17617
1.19275
1.05018
1.17843
1.26991
0.796488
0.702875
0.675951
0.616457
0.956171
1.02574
0.92541
0.849296
0.772151
0.744786
1.28757
1.13239
0.855573
0.800207
0.357429
1.03309
0.818935
1.26222
0.503034
0.884632
1.12734
1.38612
0.925714
0.799077
1.20426
0.669905
0.824995
0.872347
0.824866
1.14624
0.973936
0.81164
1.03824
0.801779
0.936193
1.22487
1.05854
1.11482
1.09676
0.885871
0.905652
1.15987
1.08122
1.36336
1.17179
1.42155
