1.06734
3.44616
3.69169
1.40137
2.9191
2.22541
0.306027
1.093
1.70228
1.74941
2.32686
1.21179
0.211444
1.93051
1.97937
1.88298
1.62063
2.19765
1.85655
2.16627
1.77502
1.63674
1.9354
0.696328
1.11844
2.02123
1.53093
1.7086
1.43979
2.4572
1.14099
2.58204
0.470249
0.195252
2.77935
2.60096
3.14911
2.63332
2.66908
2.93617
2.91297
2.15362
2.13289
3.34908
2.0916
3.14856
1.09597
2.79545
2.86027
3.43479
3.18097
2.51967
1.54345
2.75386
1.92882
2.96351
2.45841
2.84939
2.325
1.24763
1.97702
2.80748
2.83423
2.74386
2.63231
2.37063
3.38027
2.18393
2.67057
2.85594
3.48296
2.80952
2.12258
3.04921
2.70021
1.74051
2.99014
3.11453
2.95249
2.51689
3.0025
2.64132
1.62805
2.91153
0.860427
0.741982
1.70973
3.05645
2.41073
2.72159
3.5374
3.90083
2.9457
2.39651
3.26973
1.69655
2.62807
1.54348
2.07021
0.566397
2.96002
2.79958
1.43823
2.44242
3.23743
3.08378
1.93895
2.8831
2.08068
3.19856
2.76491
2.9783
3.05002
2.8895
1.62277
2.29743
2.67026
1.68955
2.16043
2.40677
0.981715
6.02324
1.94803
2.172
2.38651
2.66385
2.34564
4.60745
3.27357
3.43709
2.86904
2.11824
2.34423
2.19972
2.95006
2.17204
3.47594
2.64721
3.73423
2.4181
2.68184
3.15601
3.30798
2.6725
2.48926
3.67304
1.83972
3.07443
2.43554
2.7407
2.92575
2.03558
2.58833
2.79296
1.87445
2.91973
2.53638
2.88497
0.838606
1.87173
2.44221
0.548224
2.04857
2.07265
1.88632
1.56914
3.10924
2.47741
2.53087
2.95735
3.29687
5.16365
2.55966
9.23671
2.2483
2.04789
1.4394
5.55086
1.66073
2.73353
4.28014
2.19783
0.965637
1.75566
1.61911
0.601007
1.88525
1.83917
1.24904
1.7858
1.89099
1.5079
2.08701
3.72307
2.80865
2.34099
0.334121
2.40208
2.42055
2.08124
2.4824
3.47467
2.08624
2.15436
3.70694
1.97923
2.21832
2.22493
1.74858
2.23135
3.23245
2.7976
1.81529
2.90683
2.63159
1.733
1.1259
2.0463
2.3239
2.18521
1.66643
2.435
1.0374
1.47755
1.81523
1.71409
2.99279
2.91614
0.580105
1.57268
1.44153
2.62332
2.07948
0.96461
0.999403
1.76679
2.06519
2.18867
2.08635
1.4298
1.78833
1.95514
1.72609
2.12102
1.99901
2.32474
1.33431
2.10241
1.92602
1.72292
2.62413
1.80897
1.9728
1.52834
1.9339
1.54455
1.95049
1.64527
2.04822
2.89693
1.97304
2.60764
1.84226
2.40105
2.41961
2.11008
2.37106
1.93456
3.58868
2.73211
2.16222
2.53456
2.30854
3.4937
1.81356
3.99234
1.11694
1.26617
4.17752
1.52767
2.10968
2.33117
0.532503
2.09711
1.6532
1.03342
1.37478
2.63623
0.731066
2.39405
0.612785
0.489129
2.29107
0.597602
1.15272
2.1742
1.13098
1.14244
0.459165
0.948583
1.51488
0.598158
0.65322
0.341161
0.977583
0.485123
0.458142
0.906401
0.68174
0.479164
0.800283
0.589327
0.783949
0.490909
0.3509
1.9414
0.369501
0.572913
1.4115
0.683961
1.03365
0.518011
2.91499
1.92686
1.52692
1.53777
0.54286
1.2441
0.449627
0.523663
1.13349
0.474863
1.42483
1.95371
2.44647
0.413237
0.731047
0.834281
1.15365
0.576132
0.827042
1.01822
0.670002
0.48612
0.423427
0.526248
3.11379
1.25374
0.868235
0.376306
0.344199
0.260121
0.564339
0.723137
0.575569
0.751952
0.375216
0.461989
0.47206
0.455556
