0
4.40564
3.08608
4.54719
4.8526
4.17177
3.41829
4.39567
3.63335
4.37501
1.6927
2.06492
3.02367
5.4257
3.45005
2.45402
0.376235
2.59201
1.3618
2.69645
0.452523
0.638373
3.84996
2.72705
0.276526
0.806657
1.05106
0.977183
0.390748
0.646202
2.45319
3.38291
2.08419
2.49546
3.69932
0.956994
1.97304
0.844282
2.23655
2.60487
1.90253
4.74803
4.4423
1.9794
2.45319
1.3044
0.685399
0.652724
1.2111
0.421324
0.190691
1.83712
3.4199
4.1312
4.39863
4.76923
1.86599
1.26651
1.2152
3.80624
5.86432
2.26825
2.66273
1.17395
4.02111
0.5859
0.516443
0.709868
0.375315
0.323392
0.351714
0.628916
0.480671
1.2666
1.20789
4.47479
5.44328
4.70334
5.83566
1.33916
1.15983
0.269945
0.216662
0.168426
0.16071
0.688768
0.368986
0.59373
0.367154
4.69294
3.3187
4.16382
4.31029
3.95247
1.68966
4.74092
3.42797
0.31617
0.169135
0.478825
0.388173
0.603508
0.344182
0.172941
0.152567
0
0
0.241939
0.129827
0.274392
0.436165
0.458619
0.429383
0.480756
0.380104
1.18658
4.28736
5.7066
4.65037
5.73364
4.66395
4.54742
4.12283
0.755364
3.33997
5.59068
5.45618
2.20964
3.1853
0.930351
3.80836
0.356192
0.372261
0.72523
0.179543
0.0660639
0.143104
0.541637
0.384978
0.69053
1.67491
4.08398
3.80151
2.42482
5.64565
4.16134
4.3342
0.480757
0.330075
0.560691
0.341927
0.200441
0.535165
0.534488
0.39032
5.87339
5.39037
0.612596
0.248209
0.80031
4.8553
4.07255
5.27742
5.17494
2.397
1.95937
4.52332
1.92215
4.76057
1.25422
2.83161
0.661461
0.230085
0.484493
0.547511
0.35097
0.27173
0.656018
0.686693
1.31703
1.89655
2.28891
4.82031
1.97316
4.79076
1.49282
1.39606
0.651257
0.434123
0.502477
0.279097
0.109062
0.0963103
0.16233
0.142598
0.915578
2.81705
1.14975
0.842874
1.02554
4.43806
0.93035
2.39714
5.03252
4.01982
2.74192
4.01982
3.33446
3.7968
3.68034
4.03612
3.47151
3.44121
2.07895
2.54621
4.30186
3.92645
4.30186
4.30592
4.06436
3.34121
4.06436
2.10574
3.96476
1.99496
3.96476
3.85352
3.49904
4.15455
3.91949
5.57028
4.40228
4.62701
2.11926
2.5465
2.26603
4.01545
3.33053
3.88163
4.24425
4.29892
2.71701
4.01981
2.90426
4.01638
4.44857
3.92652
3.21397
4.06648
1.34115
2.55551
3.43491
4.49404
1.27878
2.53992
4.44745
4.45069
1.94829
4.37308
5.39756
4.05721
5.39756
4.58668
4.16079
2.89491
2.57491
4.06747
2.99813
2.55475
1.44138
4.35922
3.14313
4.40237
2.04205
2.54711
3.28849
2.55401
3.19617
2.49302
3.01822
3.83069
2.67034
3.61598
0.228569
0.347781
0.360725
0.292334
0.557137
0.457513
0.471539
0.453602
4.52456
4.22237
1.19558
1.89248
1.38766
2.70022
4.52456
3.76608
0.439359
0.465548
0.885221
0.511864
0.208534
0.244735
0.238355
0.364179
4.79252
2.4627
5.10493
2.32896
1.01143
2.313
4.42767
1.02234
0.663491
0.689618
0.310102
0.424515
4.47754
0.631853
3.5336
0.604655
3.11357
2.61065
4.52456
3.94031
2.59575
1.77586
2.59575
1.8516
0.426951
0.406076
1.14029
0.642474
0.580671
0.635294
0.292911
0.426913
4.4597
0.94328
0.928814
2.40078
2.01355
2.36
0.722666
0.701406
0.40634
0.591361
0.244894
0.124013
0.894137
0.36494
0.533858
0.351386
5.56189
1.84421
1.4508
2.00204
1.53653
2.67002
5.02907
4.27385
0.661988
0.466819
0.69053
0.265165
0.0686261
0.0838143
0.622623
0.368904
0.474735
0.214208
0.0798346
0.0942248
0.375976
0.0926755
0.370847
0.388355
0.672933
0.478357
0.715134
5.62452
5.09271
5.17705
4.09604
4.65639
0.664083
4.44293
5.03875
5.62616
2.79505
4.91791
0.656212
4.4346
0.636688
0.484314
0.140625
0.127633
0.272513
0.144961
0.513036
0.355713
0.479818
0.491227
0.259423
0.580819
0.322219
0.32029
0.855052
0.541619
0.481823
0.325008
0.51
0.411379
0.0914656
0.0650575
0.162152
0.671791
1.24764
2.98529
1.274
3.71099
2.18997
5.02011
2.22343
3.99725
0.341779
0.415863
0.89931
0.480139
1.47746
0.962723
0.100603
0.112381
0.564254
0.55068
0.562496
0.534927
0.0689701
0.240425
0.243877
0.45645
0.525701
0.259789
0.464775
0.266932
0.133207
0.0912772
0.242734
0.159046
0.424159
0.898014
1.8088
1.22021
0
0.406736
0.504379
0.603043
0
0.695184
1.84085
2.08555
0.295172
0.369488
0.61279
0.559154
1.83837
1.79101
0.227909
0.146654
0.0778461
0.0890843
1.70368
1.78437
0
0.0440382
0.567894
0.209605
1.87899
0.0168829
0.367165
0.132115
0
2.58549
0.978348
7.75646
0.587493
0.774976
0
1.12015
1.89451
1.89338
0
0.67715
0.346708
0.13807
0.242239
0.11928
0.566943
0.631502
0.869599
0.323757
1.41035
2.15333
1.13389
2.14158
1.29943
1.83598
1.10552
0.684318
0.238697
1.36864
1.88272
1.3085
0
0.664272
0
0.490709
0.44344
0.21612
0.924932
0.0753377
1.51314
1.25601
4.99288
2.04954
0.625769
2.17553
4.94706
2.64677
1.90611
3.66375
2.05942
1.51916
0.751839
2.00148
0.511378
4.37514
3.7921
1.59789
2.69297
1.25496
0.461893
2.28854
0.517234
2.10315
2.0237
1.25127
1.21003
3.41208
4.24154
2.66453
0.420836
0.832064
0.580775
0.776107
3.82195
0.85955
1.26968
0.709743
1.18977
0.936125
0.664128
0.908866
3.66386
0.11871
1.69798
3.90977
0.544089
0.661022
0.519374
0.68698
1.23249
2.12864
0.329497
3.3584
3.41407
4.67342
2.57564
1.79502
2.70797
4.18287
3.68704
1.98489
0.735438
0.62311
0.732331
0.902187
5.19258
2.92447
0.747782
0.896002
1.13066
1.44598
2.73958
2.0989
2.09804
3.83528
1.7874
2.36286
0.598557
2.39103
1.33786
4.00892
0.168126
0.0840631
0
0.0420315
0
0
0
0.204263
0.0680878
0
0.0226959
0
0
0.680878
0.226959
0.567894
0.264951
0.132476
0.567894
0
0
0
0
0
0.631502
0.210501
0.631502
0
0
0
0
0.560421
0.186807
0.0934034
1.71269
5.58869
1.75344
1.54643
1.45482
1.69677
1.70133
1.83746
1.79923
1.87665
1.75344
3.03153
5.39535
1.86476
6.11773
0.783291
1.96954
2.0814
0.325792
2.41715
4.07394
5.12813
2.45556
1.86064
0.5116
4.94414
2.38433
2.54361
4.87437
2.00739
0.413108
2.45488
1.61746
1.83225
2.13158
1.95593
1.49476
2.14304
1.67365
1.46149
1.93627
1.72515
1.79626
1.69666
1.67713
1.94549
2.26182
0.142307
1.78562
1.69679
1.73458
1.76934
1.507
1.92968
0.93112
2.11439
1.77893
1.64798
1.7477
1.75521
2.08846
1.26219
1.9922
1.506
1.29594
1.85221
3.05342
6.33615
1.79763
2.20833
0.521039
2.49359
0.804451
6.49166
1.7057
2.62965
1.79063
4.38833
1.43899
2.13022
