OFF
269 520 0
12.9521 16.2304 9.7108
13.7321 15.5617 9.543
13.8011 15.8003 8.7296
12.9931 16.4889 8.9025
13.7591 15.987 7.7824
12.9631 16.6683 7.9365
11.9301 17.0199 8.0165
11.9441 16.8419 8.9998
11.9361 16.5727 9.8053
13.5411 16.0251 6.9041
13.2311 15.9279 6.3097
12.6611 16.3464 6.1665
12.8181 16.657 6.9949
11.7881 16.6467 6.1261
11.8811 16.9895 7.0184
10.8711 16.6297 6.2578
10.2141 16.4054 6.4634
10.0001 16.5855 7.0845
10.8891 16.9624 7.0932
9.85709 16.6046 7.9812
10.8351 17.005 8.0449
9.84009 16.4271 8.9314
9.89909 16.1683 9.7383
10.8611 16.5612 9.8174
10.8331 16.8308 9.0125
10.0141 8.11516 7.0912
10.4641 8.06226 7.0046
10.9321 9.50266 7.2943
10.8341 8.04796 6.7803
9.19108 8.30986 6.8644
9.56709 8.20956 7.0512
10.0321 9.64506 7.3402
11.1411 8.18466 6.0275
11.0691 8.28576 5.6254
11.5371 9.72156 5.911
10.8371 8.39176 5.3003
11.0641 8.09046 6.4333
11.5341 9.53326 6.7227
10.0121 10.0887 5.4476
10.4631 10.01 5.3515
10.0021 8.58836 5.0735
9.54608 8.64696 5.162
9.17008 8.65736 5.3856
10.9311 9.95186 5.4018
10.4591 8.50226 5.1173
9.42309 9.86716 6.8302
9.33309 9.95216 6.4241
8.87908 8.53136 6.1404
8.95809 8.42596 6.5415
8.94508 8.61646 5.7324
9.41008 10.058 6.0193
11.4001 10.5814 7.725
11.8571 10.5665 7.4544
12.1311 10.7639 7.6641
11.5851 10.7801 7.9859
11.8161 10.8764 8.3597
10.9471 10.8858 8.1623
10.8511 10.6489 7.8354
12.7671 10.9818 8.2414
13.2061 11.2851 8.6975
12.1161 11.0145 8.9511
11.0261 11.0646 9.0354
9.96908 11.3543 9.0605
8.99908 11.9509 8.9118
9.28808 11.5325 8.4186
10.1711 11.1293 8.4181
9.73508 11.1506 7.7978
9.84208 10.8854 7.557
10.3021 10.755 7.781
10.2851 10.9858 8.0522
12.1721 10.8924 6.0388
11.8601 10.9879 5.6401
12.1311 11.2618 5.5159
12.4111 11.4971 5.3512
12.8001 11.3006 5.9112
12.9311 11.1135 6.6041
12.5661 10.943 6.5683
12.2281 10.7188 6.5285
12.6941 11.8292 5.212
12.9731 12.3937 5.1641
13.4751 12.1404 5.886
13.1451 11.6018 5.8603
13.6701 11.8739 6.7952
13.3061 11.3708 6.6724
13.5931 11.5963 7.7629
13.1961 11.1468 7.5281
12.8091 10.9574 7.3172
12.1331 10.6186 7.028
12.4551 10.8243 7.1601
10.2781 11.2959 5.4734
9.81608 11.3115 5.7443
9.70908 11.6451 5.6393
10.2561 11.6266 5.3183
9.53609 11.9521 5.4977
10.1861 11.9302 5.1167
10.9701 11.8329 4.9608
10.9171 11.5447 5.187
10.8361 11.2268 5.3625
9.36508 12.356 5.3816
9.26709 12.9802 5.353
10.1041 12.9519 4.8619
10.1181 12.3306 4.9405
11.1161 12.8266 4.6608
11.0261 12.218 4.76
12.1291 12.6315 4.7587
11.9361 12.0428 4.8479
11.7561 11.6816 5.0367
11.4221 11.1721 5.406
9.56008 11.0259 7.1591
9.40609 11.3068 7.3155
9.15708 11.5354 7.5033
9.03008 11.7309 6.8029
9.28708 11.4619 6.7354
9.46008 11.1569 6.6695
8.65108 12.3784 8.0147
8.87408 11.8309 7.7483
8.58309 12.6789 7.0544
8.76709 12.0892 6.9037
8.77409 12.8843 6.1255
8.92309 12.2699 6.0754
9.15308 11.8777 6.0971
9.54408 11.2586 6.1704
9.38708 11.5824 6.1442
11.5251 12.7816 9.0067
12.3771 12.5615 9.1405
12.4771 13.4806 9.1578
11.5781 13.2854 9.0391
12.0771 14.0122 9.203
11.4741 13.9016 9.1584
12.5531 14.2341 9.3547
12.7541 14.7767 9.6558
12.1531 14.8047 9.4943
11.4271 14.9777 9.524
11.3721 14.5073 9.3291
10.5821 15.1204 9.7664
10.5751 14.5472 9.4555
10.3951 13.8101 9.2639
10.8721 13.7805 9.1652
10.2051 12.9052 9.2512
10.8001 12.9464 9.0763
13.2411 13.3259 5.2735
13.7741 13.0571 6.0394
13.4111 14.3839 5.5282
13.9451 14.1342 6.295
14.1931 13.8947 7.2474
14.0011 12.7818 6.9944
13.3931 15.3259 5.9167
13.8921 15.1538 6.627
14.1411 15.0128 7.5314
14.1051 14.5942 9.3106
14.1861 14.8045 8.4903
14.1191 13.4701 9.0604
14.2211 13.6562 8.2295
13.8281 12.3313 8.8395
13.9791 12.5098 7.9918
9.30808 13.9483 5.4739
10.1971 13.9183 4.9527
9.49708 15.0033 5.7276
10.3851 14.9916 5.2121
11.4561 14.8776 5.0032
11.2711 13.7853 4.7394
9.83908 15.8882 6.0978
10.6561 15.9341 5.6389
11.6371 15.887 5.4599
12.5951 15.6273 5.5401
12.5231 14.6534 5.1031
12.3461 13.5782 4.8432
8.74508 13.1357 9.0985
8.58608 13.3633 8.2666
8.84108 14.3054 9.3294
8.73209 14.5248 8.5091
8.75008 14.7561 7.5247
8.56608 13.6419 7.2713
9.22608 15.3663 9.5591
9.14508 15.6022 8.7471
9.17108 15.7993 7.7846
9.37309 15.869 6.8572
8.97808 14.9202 6.548
8.78609 13.8465 6.2936
13.0441 11.5215 9.2117
12.1151 11.1719 9.2152
12.9081 11.7103 9.4381
12.0501 11.3659 9.3872
11.0861 11.3639 9.4106
11.0541 11.1957 9.2776
12.7881 11.8863 9.5015
12.6781 12.0581 9.4519
11.9811 11.6426 9.4361
11.1461 11.753 9.4006
11.1171 11.5522 9.446
10.3271 11.9045 9.5203
9.79608 12.5141 9.5988
9.64508 12.3837 9.6617
9.47208 12.254 9.6132
10.1721 11.6632 9.4829
9.26608 12.1195 9.4043
10.0371 11.5008 9.3211
13.6221 15.3677 10.0201
13.9751 14.4472 9.7989
13.4851 15.213 10.2313
13.8141 14.3516 10.0244
13.8101 13.3758 9.7976
13.9781 13.3881 9.5595
13.3331 15.0922 10.2472
13.1781 14.9976 10.1357
13.5801 14.2825 10.0457
13.4511 13.4453 9.7665
13.6321 13.3988 9.8453
13.2891 12.5818 9.6488
13.5011 12.4378 9.5885
13.6661 12.3366 9.3452
9.98308 15.9436 10.2055
10.8961 16.3179 10.2809
10.0831 15.7513 10.4046
10.9371 16.1018 10.4752
11.8911 16.1126 10.4646
11.9181 16.3293 10.2695
10.1901 15.5896 10.4074
10.2961 15.4537 10.2826
10.9921 15.8575 10.4513
11.8281 15.759 10.3324
11.8611 15.9237 10.4629
12.6611 15.5934 10.3663
12.7921 15.8082 10.3807
12.8811 16.0038 10.1797
8.94209 13.0843 9.5859
9.14909 13.1265 9.8103
9.16609 14.1107 10.0342
8.99208 14.1771 9.8136
9.40008 13.1974 9.8469
9.52409 14.0668 9.9666
9.34608 14.0771 10.0636
9.68709 14.8987 10.244
9.48608 15.0366 10.2449
9.34408 15.1801 10.0349
11.8421 12.2756 9.1075
11.2251 12.3546 9.0825
10.6201 12.4691 9.1698
13.0211 14.2323 9.5509
12.9411 13.6146 9.3549
12.8091 12.9851 9.2608
11.1181 15.3958 9.8505
11.7331 15.3372 9.7763
12.3401 15.2023 9.7882
9.93909 13.4391 9.4071
10.0171 14.0773 9.5039
10.1511 14.6863 9.6971
9.65508 9.76226 7.1613
9.81108 10.449 7.3625
9.56108 10.5739 7.0087
9.47208 10.6903 6.5733
9.78808 10.8278 5.7507
9.54708 10.7808 6.1296
9.63309 10.1129 5.6695
10.1991 10.8139 5.5098
10.6951 10.7525 5.4112
11.6061 10.5401 5.6581
11.1921 10.6568 5.4592
11.3161 9.84696 5.5838
11.6181 9.62496 6.3148
11.8521 10.4159 6.0121
11.9331 10.3008 6.4479
11.6031 10.1654 7.2712
11.8491 10.2118 6.8921
11.3131 9.49996 7.0769
10.4861 9.56766 7.3905
11.1961 10.1786 7.5119
10.7091 10.2387 7.6101
10.2211 10.333 7.5616
3 0 1 2
3 0 2 3
3 2 4 5
3 2 5 3
3 5 6 7
3 5 7 3
3 7 8 0
3 7 0 3
3 9 10 11
3 9 11 12
3 11 13 14
3 11 14 12
3 14 6 5
3 14 5 12
3 5 4 9
3 5 9 12
3 15 16 17
3 15 17 18
3 17 19 20
3 17 20 18
3 20 6 14
3 20 14 18
3 14 13 15
3 14 15 18
3 21 22 23
3 21 23 24
3 23 8 7
3 23 7 24
3 7 6 20
3 7 20 24
3 20 19 21
3 20 21 24
3 25 26 27
3 26 28 27
3 29 30 31
3 30 25 31
3 32 33 34
3 33 35 34
3 28 36 37
3 36 32 37
3 38 39 40
3 40 41 38
3 41 42 38
3 43 35 44
3 40 39 43
3 40 43 44
3 45 46 47
3 47 48 45
3 48 29 45
3 42 49 50
3 49 47 50
3 47 46 50
3 51 52 53
3 51 53 54
3 53 55 54
3 55 56 54
3 56 57 51
3 56 51 54
3 58 59 60
3 58 60 55
3 60 61 55
3 61 56 55
3 55 53 58
3 62 63 64
3 62 64 65
3 64 66 65
3 65 56 61
3 61 62 65
3 66 67 68
3 66 68 69
3 68 57 56
3 68 56 69
3 56 65 69
3 65 66 69
3 70 71 72
3 72 73 74
3 72 74 70
3 74 75 76
3 74 76 70
3 76 77 70
3 78 79 80
3 78 80 81
3 80 82 83
3 80 83 81
3 83 75 74
3 83 74 81
3 74 73 78
3 74 78 81
3 84 59 58
3 84 58 85
3 58 53 86
3 58 86 85
3 86 75 83
3 86 83 85
3 83 82 84
3 83 84 85
3 53 52 87
3 53 87 88
3 87 77 76
3 87 76 88
3 76 75 86
3 76 86 88
3 86 53 88
3 89 90 91
3 89 91 92
3 91 93 94
3 91 94 92
3 94 95 96
3 94 96 92
3 96 97 89
3 96 89 92
3 98 99 100
3 98 100 101
3 100 102 103
3 100 103 101
3 103 95 94
3 103 94 101
3 94 93 98
3 94 98 101
3 104 79 78
3 104 78 105
3 78 73 106
3 78 106 105
3 106 95 103
3 106 103 105
3 103 102 104
3 103 104 105
3 72 71 107
3 107 97 96
3 96 95 106
3 96 106 107
3 106 73 72
3 106 72 107
3 108 67 66
3 108 66 109
3 66 110 109
3 110 111 112
3 110 112 109
3 112 113 108
3 112 108 109
3 64 63 114
3 64 114 115
3 114 116 117
3 114 117 115
3 117 111 110
3 117 110 115
3 110 66 64
3 110 64 115
3 118 99 98
3 118 98 119
3 98 93 120
3 98 120 119
3 120 111 117
3 120 117 119
3 117 116 118
3 117 118 119
3 91 90 121
3 91 121 122
3 121 113 112
3 121 112 122
3 112 111 120
3 112 120 122
3 120 93 91
3 120 91 122
3 123 124 125
3 123 125 126
3 125 127 126
3 127 128 126
3 129 130 131
3 129 131 127
3 131 132 133
3 131 133 127
3 133 128 127
3 127 125 129
3 132 134 135
3 132 135 133
3 135 136 137
3 135 137 133
3 137 128 133
3 136 138 139
3 136 139 137
3 139 123 126
3 139 126 137
3 126 128 137
3 80 79 140
3 80 140 141
3 140 142 143
3 140 143 141
3 143 144 145
3 143 145 141
3 145 82 80
3 145 80 141
3 146 10 9
3 146 9 147
3 9 4 148
3 9 148 147
3 148 144 143
3 148 143 147
3 143 142 146
3 143 146 147
3 2 1 149
3 2 149 150
3 149 151 152
3 149 152 150
3 152 144 148
3 152 148 150
3 148 4 2
3 148 2 150
3 153 59 84
3 153 84 154
3 84 82 145
3 84 145 154
3 145 144 152
3 145 152 154
3 152 151 153
3 152 153 154
3 100 99 155
3 100 155 156
3 155 157 158
3 155 158 156
3 158 159 160
3 158 160 156
3 160 102 100
3 160 100 156
3 161 16 15
3 161 15 162
3 15 13 163
3 15 163 162
3 163 159 158
3 163 158 162
3 158 157 161
3 158 161 162
3 11 10 146
3 11 146 164
3 146 142 165
3 146 165 164
3 165 159 163
3 165 163 164
3 163 13 11
3 163 11 164
3 140 79 104
3 140 104 166
3 104 102 160
3 104 160 166
3 160 159 165
3 160 165 166
3 165 142 140
3 165 140 166
3 114 63 167
3 114 167 168
3 167 169 170
3 167 170 168
3 170 171 172
3 170 172 168
3 172 116 114
3 172 114 168
3 173 22 21
3 173 21 174
3 21 19 175
3 21 175 174
3 175 171 170
3 175 170 174
3 170 169 173
3 170 173 174
3 17 16 161
3 17 161 176
3 161 157 177
3 161 177 176
3 177 171 175
3 177 175 176
3 175 19 17
3 175 17 176
3 155 99 118
3 155 118 178
3 118 116 172
3 118 172 178
3 172 171 177
3 172 177 178
3 177 157 155
3 177 155 178
3 60 59 179
3 60 179 180
3 179 181 182
3 179 182 180
3 182 183 184
3 182 184 180
3 184 61 60
3 184 60 180
3 185 186 187
3 187 188 189
3 189 183 182
3 189 182 187
3 182 181 185
3 182 185 187
3 190 191 192
3 192 193 194
3 192 194 190
3 194 183 189
3 194 189 190
3 189 188 190
3 195 63 62
3 195 62 196
3 62 61 184
3 62 184 196
3 184 183 194
3 184 194 196
3 194 193 195
3 194 195 196
3 149 1 197
3 149 197 198
3 197 199 200
3 197 200 198
3 200 201 202
3 200 202 198
3 202 151 149
3 202 149 198
3 203 204 205
3 205 206 207
3 207 201 200
3 207 200 205
3 200 199 203
3 200 203 205
3 208 186 185
3 185 181 209
3 185 209 208
3 209 201 207
3 209 207 208
3 207 206 208
3 179 59 153
3 179 153 210
3 153 151 202
3 153 202 210
3 202 201 209
3 202 209 210
3 209 181 179
3 209 179 210
3 23 22 211
3 23 211 212
3 211 213 214
3 211 214 212
3 214 215 216
3 214 216 212
3 216 8 23
3 216 23 212
3 217 218 219
3 219 220 221
3 221 215 214
3 221 214 219
3 214 213 217
3 214 217 219
3 222 204 203
3 203 199 223
3 203 223 222
3 223 215 221
3 223 221 222
3 221 220 222
3 197 1 0
3 197 0 224
3 0 8 216
3 0 216 224
3 216 215 223
3 216 223 224
3 223 199 197
3 223 197 224
3 167 63 195
3 167 195 225
3 195 193 226
3 195 226 225
3 226 227 228
3 226 228 225
3 228 169 167
3 228 167 225
3 192 191 229
3 229 230 231
3 231 227 226
3 231 226 229
3 226 193 192
3 226 192 229
3 232 218 217
3 217 213 233
3 217 233 232
3 233 227 231
3 233 231 232
3 231 230 232
3 211 22 173
3 211 173 234
3 173 169 228
3 173 228 234
3 228 227 233
3 228 233 234
3 233 213 211
3 233 211 234
3 187 186 235
3 186 124 235
3 235 236 188
3 188 187 235
3 124 123 235
3 123 236 235
3 139 138 237
3 236 123 139
3 236 139 237
3 191 190 237
3 190 188 237
3 188 236 237
3 237 138 191
3 205 204 238
3 204 130 238
3 238 239 206
3 206 205 238
3 130 129 238
3 129 125 239
3 129 239 238
3 125 124 240
3 239 125 240
3 186 208 240
3 208 206 240
3 206 239 240
3 240 124 186
3 219 218 241
3 218 134 241
3 241 242 220
3 220 219 241
3 134 132 241
3 132 242 241
3 131 130 243
3 242 132 131
3 242 131 243
3 204 222 243
3 222 220 243
3 220 242 243
3 243 130 204
3 229 191 244
3 191 138 244
3 244 245 230
3 230 229 244
3 138 136 244
3 136 245 244
3 135 134 246
3 245 136 135
3 245 135 246
3 218 232 246
3 232 230 246
3 230 245 246
3 246 134 218
3 45 29 247
3 248 67 108
3 248 108 249
3 108 113 250
3 108 250 249
3 250 46 45
3 250 45 249
3 45 247 248
3 45 248 249
3 121 90 251
3 121 251 252
3 251 253 50
3 251 50 252
3 50 46 250
3 50 250 252
3 250 113 121
3 250 121 252
3 253 42 50
3 38 42 253
3 251 90 89
3 251 89 254
3 89 97 255
3 89 255 254
3 255 39 38
3 255 38 254
3 38 253 251
3 38 251 254
3 107 71 256
3 107 256 257
3 256 258 43
3 256 43 257
3 43 39 255
3 43 255 257
3 255 97 107
3 255 107 257
3 258 35 43
3 34 35 258
3 259 32 34
3 256 71 70
3 256 70 260
3 70 77 261
3 70 261 260
3 261 259 34
3 261 34 260
3 34 258 256
3 34 256 260
3 87 52 262
3 87 262 263
3 262 264 37
3 262 37 263
3 37 259 261
3 37 261 263
3 261 77 87
3 261 87 263
3 264 28 37
3 37 32 259
3 27 28 264
3 265 25 27
3 262 52 51
3 262 51 266
3 51 57 267
3 51 267 266
3 267 265 27
3 267 27 266
3 27 264 262
3 27 262 266
3 68 67 248
3 68 248 268
3 248 247 31
3 248 31 268
3 31 265 267
3 31 267 268
3 267 57 68
3 267 68 268
3 247 29 31
3 31 25 265
