1.03463
0.968531
1.10265
1.11254
0.683523
0.749497
0.88384
0.996551
0.991963
0.906165
0.878061
0.835121
0.644887
0.686566
0.988847
0.604704
0.959851
0.909976
0.766051
0.818067
0.589517
0.66453
0.825607
0.771976
0.97314
0.890942
0.716
0.997589
0.467029
0.58874
1.16536
1.21131
1.74017
1.13451
1.08581
1.54535
1.4237
1.16696
2.03656
1.37511
1.43986
1.67198
1.79178
1.48426
1.1186
1.27171
1.33325
1.42072
1.25158
1.53724
1.26004
1.4665
1.47135
1.38101
1.39909
1.43172
2.01426
1.65254
1.54246
1.48408
1.5458
0.923239
1.69512
1.25488
1.21872
2.14748
1.76856
1.08887
1.781
0.765726
2.26197
0.888694
1.61535
1.17699
0.877285
1.09944
1.01004
0.893351
0.903523
1.14523
1.65042
1.22821
2.08957
1.89169
1.60645
0.523446
1.59797
0.997256
0.833394
1.89444
1.21883
1.89044
1.79328
1.67216
2.03722
1.15464
0.880366
1.72019
1.55862
0.809796
1.1636
0.876044
1.7546
1.92952
0.941681
1.33997
1.02024
1.30731
1.63506
1.63066
0.875495
1.82071
1.79913
1.41311
1.09075
1.42096
1.60674
1.41762
1.469
1.17636
1.21414
1.92811
1.39337
1.07548
0.97687
1.41907
1.19039
1.83959
1.4514
1.46101
1.40433
0.961146
2.17638
0.409916
1.08999
1.4452
1.01529
1.02437
1.38078
0.369469
2.07386
1.0181
1.23149
1.02619
1.17193
0.968928
0.9843
0.909709
1.17247
1.06242
0.708135
0.745894
0.832556
0.640983
0.817065
1.04747
0.922281
1.17494
0.96393
0.622417
0.79843
1.23356
0.872192
4.32942
0.788266
0.657489
1.2277
1.17642
1.05232
1.11663
0.90338
0.971904
1.03301
0.992341
0.831353
1.02381
0.885896
0.98237
0.906218
1.18095
1.07925
1.28348
0.664448
1.05908
0.853524
1.13019
1.36525
1.06488
0.93472
0.781471
1.0995
0.610493
1.10469
1.1874
1.42926
1.00208
0.84612
0.715839
0.54853
1.02564
1.03781
1.30668
1.20123
1.33821
1.06446
0.979584
1.00366
1.1862
0.650243
0.981025
0.885063
1.01026
0.951098
1.20052
0.56664
0.80487
0.596693
0.755512
0.923608
0.728647
0.974029
0.850928
0.618875
0.833511
1.20339
0.723599
1.5881
0.741245
0.640281
0.916907
0.953773
0.9461
1.18846
1.08264
0.748695
0.955296
0.829494
1.13213
1.33373
1.25342
1.19439
1.18574
0.969075
1.1256
1.2581
1.36481
0.765941
0.697991
1.25234
0.65795
0.939538
1.20485
0.99595
1.22392
0.548876
1.19115
1.33942
0.936624
1.66504
1.75031
1.20565
0.910122
1.3495
0.902405
0.984067
1.32553
1.03325
1.28232
0.898791
1.08533
0.632486
1.17984
1.20656
0.642349
0.689152
0.757798
0.601658
0.562543
0.875351
0.69625
0.64662
0.599909
0.585885
0.574612
0.584244
0.772108
0.810763
0.70818
0.622642
0.706781
0.59947
0.71584
0.651162
0.624676
0.567585
0.938407
0.606391
0.70068
0.692798
0.580781
1.11914
0.612698
0.915449
0.560706
0.521511
1.17557
0.284508
1.18859
1.10195
0.571482
0.698209
0.951875
0.752579
1.04533
0.841371
0.58231
0.941741
0.542646
0.771209
0.619845
0.555299
0.6953
0.450493
0.508957
0.590937
0.809616
0.572473
0.982507
0.828793
1.87695
0.770108
0.483954
0.762973
0.577443
1.2553
0.604231
0.559924
1.15902
0.578753
0.934817
1.00608
0.527094
0.629714
0.968714
0.643268
0.671824
2.30064
0.558274
0.721124
0.581197
0.641904
0.957842
0.892523
0.587006
0.944849
0.573127
0.627595
0.643006
1.10171
0.616453
1.12078
0.557404
0.564026
0.907253
0.602616
1.06207
0.74469
0.662231
1.00381
0.59064
0.715853
0.570628
0.684063
0.857432
0.815465
0.7403
0.832335
0.752479
0.680773
0.878775
0.678906
0.917683
0.704239
0.952156
0.892555
0.54065
0.537749
0.558059
0.744399
0.980225
0.918503
0.677926
0.533759
0.373863
1.68669
1.07246
0.442444
1.85027
0.811472
0.729067
0.582044
0.754476
0.631187
0.709192
0.637604
0.62562
0.745216
0.690684
0.753807
0.633777
0.747143
0.636713
0.796502
0.686259
0.786623
0.754955
0.706641
0.713888
0.717792
0.635019
0.704745
0.677036
0.736245
0.717205
0.705293
0.654148
0.599685
0.778327
0.69207
0.783168
0.851834
0.614476
0.832906
0.763255
0.787318
0.731585
0.779662
0.635732
0.776015
0.647162
0.817317
0.676363
0.738114
0.832691
0.704064
0.853445
0.861216
0.795365
0.775771
0.465574
0.731976
0.715264
0.711039
0.698167
0.755715
0.777506
0.69657
0.794677
0.761477
0.734807
0.655614
0.809293
0.843879
0.66216
0.667463
0.827712
0.687073
0.700886
0.701022
0.657185
0.792706
0.69549
0.66401
0.55597
0.687904
0.753032
0.824664
0.705494
0.66388
0.648957
0.728895
0.781116
0.759399
0.825387
0.677481
0.696648
0.76925
0.625302
0.791571
0.608509
0.629418
0.74272
0.701755
0.744885
0.786502
0.712175
0.632374
0.793187
0.650177
0.798231
0.875026
0.631351
0.846074
0.751467
0.8571
0.790924
0.802656
0.732851
0.799936
0.643336
0.937244
0.85063
0.665877
0.724591
0.615079
0.798965
0.91246
0.774706
0.662573
0.590775
0.826423
0.774412
0.596936
0.77765
0.718237
0.81644
0.803874
0.905802
1.074
1.07446
1.07375
0.980413
0.842713
0.88555
1.22649
1.28831
1.30463
1.25489
1.08753
1.16675
1.23051
1.21579
1.4129
1.36009
1.20165
1.26344
1.1974
1.28763
1.32663
1.3053
0.845509
1.02553
0.835125
0.993345
1.0883
1.14195
1.20448
1.07697
0.847342
0.865792
0.945751
0.891819
1.13369
0.831049
0.897388
0.87789
1.57055
1.21333
1.09533
1.02978
1.19824
1.20824
1.24765
1.24981
1.31921
1.14039
1.2209
1.21225
1.3473
1.46667
1.77314
1.57481
0.81804
0.766859
0.818715
0.973501
1.00381
0.895928
1.15306
1.08328
0.818527
0.898307
1.14066
1.10172
0.968524
0.976814
0.834106
0.891823
1.35214
1.28061
1.36227
1.24993
1.08246
1.20068
1.22378
1.15249
1.35403
1.28746
0.98499
1.15637
0.969937
1.11645
1.35404
1.25021
0.774462
0.770083
0.822361
0.763772
0.957141
0.848514
0.948552
0.872785
1.02131
1.04965
1.36664
1.12395
0.994656
1.22341
0.998047
1.10165
1.37868
1.17657
1.77985
1.611
1.45178
1.3572
1.35205
1.16886
1.63775
1.41231
1.44755
1.17511
1.17264
1.03901
1.06166
1.03435
0.933951
1.04584
1.06002
1.17869
1.0343
1.30581
1.30474
1.19684
1.54582
1.38649
1.77695
1.40416
1.55088
1.50009
1.48595
1.40791
1.25569
1.2564
1.05881
1.28537
1.52684
1.39514
1.43693
1.61482
1.25213
1.27772
1.59735
1.54421
1.53102
1.36324
1.04277
1.31929
1.53719
1.39579
1.4966
1.38329
1.55509
1.46358
1.80176
1.46042
1.62922
1.28903
1.7697
1.56673
1.63557
1.70778
1.4983
1.90788
1.16382
0.986354
0.886316
1.19851
1.55107
1.26382
1.45313
1.51034
1.23059
1.06999
1.29174
1.41995
1.15022
1.31428
1.17396
1.3067
1.67221
1.63895
1.64628
1.14675
1.54834
1.84514
1.66529
1.56026
1.35519
1.54218
1.17654
1.23046
1.58649
1.38013
1.47579
1.33689
1.4064
1.39329
1.06194
1.28147
1.43199
1.25565
1.42181
1.49339
1.29244
1.33845
1.41717
1.33794
1.42651
1.44163
1.01481
1.22892
1.33553
1.63191
1.44779
1.33594
1.08934
1.82491
1.40453
1.41989
1.69379
1.62443
1.82692
1.541
1.34984
1.91936
1.5325
1.13392
1.22908
1.17393
1.17392
1.30741
1.14959
1.36609
1.3019
1.68642
1.18189
1.03277
1.64576
1.53548
1.55102
1.37331
0.886276
1.19917
1.60707
1.28891
1.49589
1.84481
1.66873
1.90375
1.78062
1.5538
1.43373
1.46731
1.37936
1.49176
1.45418
1.26494
1.37309
1.35399
0.95317
1.55895
1.27168
1.2745
1.40495
1.50352
1.26007
1.37202
1.1537
1.1155
1.2808
1.57446
1.4803
1.3369
1.08939
1.13718
1.25701
1.40896
1.31216
1.4048
1.1047
1.35877
1.34427
1.5972
1.33182
1.45915
1.72241
1.42325
1.66462
1.21926
1.65928
1.60237
1.39762
1.51896
1.4547
1.21307
1.79756
1.23074
1.71064
1.49775
1.38622
1.3722
1.81381
1.55007
1.50539
1.6185
1.49181
0.897543
1.08257
1.61931
1.64981
1.53932
1.07518
1.70889
1.38798
1.31173
0.895264
1.39944
1.62453
1.42652
1.38507
1.47042
1.27619
1.65179
1.38804
1.3786
1.3286
1.42183
1.36895
1.60766
1.48352
1.41007
1.48627
1.44907
1.54565
1.58788
1.44535
1.3942
1.23065
1.32
1.36591
1.31842
1.45934
1.42101
1.44206
1.38563
1.40087
1.55304
1.65061
1.32903
1.73563
1.33799
1.22128
1.72234
1.00426
1.00271
1.32999
1.52442
1.44699
0.443205
1.67762
1.51639
1.59744
1.69724
1.58909
1.47248
1.74829
1.63703
1.80256
1.22612
1.44526
1.56045
1.21242
1.22219
1.12952
1.74606
1.05055
1.57554
1.66745
1.20762
1.99566
1.96544
2.16019
2.26304
