1.76464
1.78146
2.97366
2.99226
2.91781
3.26349
5.11449
4.41721
2.18436
2.15251
2.34455
6.47807
4.33458
2.87732
4.20901
10.9396
4.67197
4.91153
4.94889
3.74433
4.11686
5.63166
6.86972
5.64739
5.11459
3.29352
5.48586
4.83182
6.89232
5.28951
4.5728
5.24911
2.68908
2.13031
2.93608
2.02836
2.73352
2.57568
2.67904
1.88991
2.52318
2.31969
2.71589
2.86332
2.78438
1.4815
2.18402
2.29639
2.11198
2.12305
2.07204
2.915
2.65077
2.45735
2.55601
2.67498
2.67055
2.14164
2.61697
0.928597
0.986431
1.06952
0.887823
0.519887
0.579629
0.676723
1.10041
1.80513
1.62021
0.730035
0.763118
0.695439
1.16649
1.14776
0.809889
1.26968
1.12874
3.39558
0.771087
2.19118
0.77641
0.646703
0.793518
1.11738
1.10964
0.773495
1.10246
0.690398
0.691141
0.856743
1.13466
2.57924
1.96915
2.15559
2.04333
2.14696
2.86787
2.92135
2.67778
2.4167
2.11445
2.00852
2.47205
2.18914
2.55322
2.25718
2.1828
1.8758
2.28982
1.59937
2.18835
2.821
2.73048
2.35237
2.21576
2.29596
2.11157
2.79767
2.73675
2.71857
2.71177
2.81327
2.02311
1.92179
2.93101
1.32319
1.0925
1.23629
0.607426
2.7541
1.4471
2.28136
1.12766
0.856558
0.647099
1.48674
3.73679
1.36432
1.46548
1.13755
0.761973
2.64395
0.581942
0.934149
0.926378
0.428562
0.942411
1.51535
0.934893
0.928763
1.19462
0.669403
0.841862
1.36618
5.13782
4.30972
5.36249
3.88336
4.79945
5.01158
3.66753
2.81871
2.079
3.75055
4.22173
3.84451
4.60001
5.18593
5.58727
5.94044
5.11685
2.67161
5.2053
3.58775
4.07756
4.62537
2.46301
4.48916
4.12046
4.04789
4.34579
4.52608
4.155
4.61179
5.7292
3.07926
2.70331
5.48019
4.07062
1.22569
2.17432
3.92143
4.16811
2.73052
3.15414
2.73954
3.95172
4.74263
2.90466
2.72245
4.94358
2.47764
5.11464
3.22061
2.40435
2.56107
5.88567
3.73052
3.92515
4.49052
4.08146
4.50989
4.25402
1.69485
4.31196
3.59611
4.11685
4.01909
4.45774
5.09787
4.51012
5.05329
6.53805
4.55185
4.52707
3.72479
5.57317
2.12538
4.04994
3.81971
6.23745
2.51251
3.51818
2.0413
4.15414
3.22522
1.78341
5.90197
4.85383
5.14634
4.21764
4.61109
4.32682
3.5364
4.4418
4.22605
3.75122
4.63157
4.90818
2.05197
4.41004
2.99966
2.90924
4.30609
5.02176
5.31456
2.51312
4.52737
3.83052
3.81572
2.69929
4.47442
2.00098
1.55018
3.24962
1.04185
3.79253
1.02282
3.83783
1.13561
3.30835
3.07588
1.45558
3.30019
4.13476
4.26712
3.94076
3.86562
1.79586
3.17314
3.42017
3.33869
3.61796
2.03523
1.30893
2.05295
3.01981
6.42508
3.9978
2.42707
1.09656
1.12439
4.19823
5.02671
3.29759
3.06683
1.0773
1.48661
4.08028
1.92178
3.99746
3.83297
4.24092
5.99955
6.83146
2.19258
2.63895
4.44747
2.6917
4.05997
3.8399
6.08697
4.15612
6.49207
3.26882
4.34145
4.90515
5.33652
2.94887
2.41341
3.88086
1.75175
0.950297
1.02369
2.02231
0.525473
2.22743
1.29751
1.37385
11.2235
0.711656
1.31043
1.45426
1.03107
2.18484
1.07694
1.82936
0.994903
3.40707
10.7073
3.04462
2.4979
2.4468
2.55518
1.56117
1.67842
3.74151
1.79239
3.0702
2.81957
3.01483
5.32608
5.63403
2.03485
3.77534
5.73262
3.55758
2.69343
3.37516
5.07617
2.54433
2.74384
0.936491
0.728958
1.01239
1.39367
3.41627
1.84611
3.21856
3.20271
3.04557
6.6439
3.11602
3.2065
1.11674
0.979506
1.20375
2.41367
3.33372
2.93554
4.53016
3.47211
1.66442
3.06071
1.95626
3.79671
3.41852
5.28067
0.94286
1.20725
1.18955
1.4066
3.21393
5.92516
3.66942
1.53586
1.4399
1.73979
4.28344
3.86854
1.71013
1.0917
3.43902
3.01296
2.53793
1.8243
2.17583
5.72268
3.04836
1.90974
2.38426
3.00836
2.93628
2.61716
2.66816
3.5288
1.70269
2.95634
3.32695
3.12027
2.39176
4.30529
4.69686
5.15192
4.26214
2.84776
1.86357
1.47078
1.42204
5.14834
0.758035
0.711408
2.13546
2.11558
1.6134
1.72743
2.14504
2.26434
2.3765
2.22047
1.61271
1.48078
1.68837
1.56476
1.7388
1.85069
1.41029
1.40963
1.45228
2.01047
1.49132
1.55751
1.63618
1.52269
1.46009
1.6504
1.15024
1.56358
2.58692
2.55828
2.17056
2.09684
2.04328
1.81849
1.42519
1.37044
2.25782
1.85062
1.37211
1.91944
1.45719
1.16468
2.28931
1.41061
1.75437
1.42966
1.12641
1.79792
2.03482
1.56108
1.44375
1.47642
1.043
1.4435
1.85985
1.34608
1.05747
0.95205
1.56772
1.65173
0.93825
1.33569
1.9478
1.3962
1.66321
1.40028
1.67348
2.27984
1.61376
1.92985
2.08568
2.12598
2.58503
2.29775
1.40497
1.9406
1.68165
1.6842
1.75007
1.52104
1.50385
2.09795
1.27406
1.35202
2.0542
1.59197
1.80237
1.72008
1.53615
1.48513
1.52229
2.05851
2.46263
2.301
2.09638
2.34518
1.54027
1.88911
1.50295
1.65592
1.31647
1.23968
1.71629
1.73949
0.550207
0.916107
1.36661
1.98502
1.97819
1.38957
1.2535
1.79078
1.31287
1.3455
1.37697
1.17893
1.37091
0.845576
1.42532
1.08921
1.4378
1.17174
1.48638
1.60929
0.848274
0.752851
1.92078
2.2681
1.76377
1.33072
4.18945
4.30369
4.76772
3.77228
2.89745
3.16602
4.96186
3.69919
5.29619
4.39787
4.67031
3.9448
2.44921
6.04511
3.62644
0.846693
1.09151
1.21918
0.678599
0.824513
3.22759
0.839039
3.56233
1.13403
0.819607
2.00066
3.84543
5.39672
7.24521
1.38129
0.867593
1.00666
1.4154
0.436698
2.58026
0.333575
0.435622
1.21183
0.687731
0.341262
0.991667
1.15241
1.21427
1.15457
0.5521
0.79229
0.837019
0.844692
4.76636
1.0249
0.802598
1.44939
0.742969
1.75498
1.32411
1.22207
1.36943
1.11855
0.697121
0.438349
1.78033
1.06645
1.2314
0.343266
0.964592
1.01393
0.644405
3.31939
5.14371
4.21124
4.24206
2.30281
1.18846
1.31067
1.40361
3.40386
2.2431
1.01521
0.875582
2.08422
5.53105
2.38405
1.39305
1.37199
2.80503
3.13584
4.07226
4.92721
1.99469
0.98788
6.9229
4.14755
5.05225
6.48045
7.57702
4.25513
1.53144
2.11093
2.69197
3.84189
0.620601
1.03585
0.831453
1.45611
3.0093
2.79373
3.4853
3.57387
1.74363
1.66423
3.2205
2.63185
1.99544
4.17634
0.758353
1.93858
1.7327
2.35268
2.82783
4.0653
1.61437
0.863367
1.04724
0.989859
0.850819
3.50134
1.57724
2.25998
2.0934
1.87691
2.32762
1.73112
3.32959
1.55646
2.30736
2.00549
1.13393
3.00819
4.86984
4.49772
3.46951
3.04525
3.07017
3.13647
3.16468
2.70915
2.88011
2.50016
5.18884
3.1268
1.64388
3.9086
1.82955
1.76862
1.30108
1.84771
2.88052
2.46807
1.84291
2.4261
1.2759
1.54462
1.97392
2.04963
1.92984
1.91302
1.88918
1.6998
2.05659
2.95385
3.50885
2.51876
2.34378
4.291
1.79216
2.64048
3.64071
3.17294
1.94335
2.51587
2.02854
4.79801
5.69654
3.41251
1.56449
1.48095
1.76144
1.92968
1.70449
2.02353
2.30102
2.1182
1.78016
1.42759
2.55568
1.58881
2.15982
2.39062
2.10515
2.05855
4.12636
3.57356
2.73929
5.82958
1.78181
3.73225
3.50771
2.65824
5.94695
4.88012
5.62356
3.32455
1.9958
2.78548
4.43111
4.023
1.36276
1.56912
1.51371
2.10099
3.59613
2.60136
3.59119
2.41723
1.4996
2.12045
3.81398
2.31654
2.19189
2.05455
1.63894
1.7574
1.85149
4.34211
4.18734
3.20516
2.97581
3.63532
2.56224
3.11199
6.08132
6.08116
2.63919
3.18082
1.79654
3.78761
7.16998
3.12329
1.933
1.68687
1.82316
1.98066
2.2841
1.95145
2.0827
2.47811
