6.91758
6.80399
9.51528
9.96172
7.18926
9.73818
3.89979
6.51215
5.46344
6.32498
6.06679
4.4494
6.09958
3.29918
6.17472
8.58909
7.74314
5.04488
5.19031
8.37964
6.71266
3.82547
8.8527
8.05129
9.75372
4.85733
5.26914
10.1691
7.71467
4.48074
5.71032
7.08683
7.51467
7.0371
8.97545
6.2389
4.64454
10.0656
4.88915
7.2566
3.98846
2.43078
4.88893
9.69365
2.89239
5.99196
4.58978
7.4434
8.69147
7.43263
6.87991
9.66072
7.65625
3.69303
9.77887
4.1048
6.28949
3.77251
8.332
8.66778
5.06039
3.3335
4.06887
2.96567
3.57735
2.64438
3.82894
4.85291
6.32534
5.06509
6.41425
3.97877
6.09518
5.0918
8.7326
9.09408
5.743
3.44691
9.30819
6.21864
6.36907
4.96925
5.8375
5.31469
9.84188
6.39375
9.40643
8.46751
7.77407
8.80443
9.24715
9.73991
7.7446
9.93098
6.09356
2.77407
9.74684
6.66912
8.77911
6.22823
7.86745
10.0078
4.53317
5.38569
5.14729
5.71324
2.2576
3.91837
5.54183
4.67532
6.17189
5.12666
5.19467
4.94439
5.81718
4.77585
1.84867
5.64297
7.77148
6.58601
3.53809
7.59719
6.24266
5.00985
8.67868
11.9056
3.04354
6.39093
2.65376
5.10976
5.31488
4.22088
2.22013
3.09748
7.89017
7.36984
5.78054
1.64533
5.42697
5.85961
6.63266
5.92483
5.43922
7.19873
2.01519
5.72544
1.66948
5.758
9.55011
6.1171
5.64092
8.30161
4.04025
3.98866
2.19034
5.13429
5.32175
9.03257
1.25106
6.0287
1.72226
6.21347
7.37651
5.93765
6.27699
2.03736
4.72269
4.53719
6.84777
4.95238
4.77692
6.58738
5.65894
4.53105
2.24439
2.85666
2.39846
1.96443
4.45327
5.34395
4.68318
9.38923
2.34334
4.87761
4.54532
5.58995
5.855
5.53624
6.44376
4.10811
5.85675
7.85019
8.05933
6.73289
6.48045
5.23335
6.71343
5.64764
6.53979
7.178
2.34115
7.43645
7.90159
7.15804
7.06562
6.96961
8.15014
6.94642
9.62867
9.72523
8.09096
7.67482
7.10528
6.99687
3.68589
8.51825
8.0783
6.9324
4.44435
8.06914
7.91127
9.74424
5.55768
4.83817
5.46317
5.9944
7.05512
8.20392
6.01249
7.98527
5.24705
6.56597
6.66018
6.70163
5.9786
4.36744
5.97234
7.35128
6.31286
6.99
6.17679
7.56314
9.15791
8.30486
6.3137
5.25022
7.32645
6.4585
7.696
7.88098
6.96266
7.34113
3.99873
6.16501
7.95854
7.35716
7.17527
7.13112
6.09982
9.93819
9.86581
6.25018
6.11748
6.27069
4.01129
1.98825
1.93334
4.86618
3.4167
2.10256
1.51549
6.51104
2.99684
4.50191
4.60254
10.1337
5.24693
6.16404
5.68664
5.48205
6.18357
9.43748
5.64637
5.55797
4.9825
6.11362
9.24172
6.99688
3.12775
2.86702
4.18548
2.35591
5.14097
6.29132
5.04638
5.74933
3.33406
4.55723
5.02946
5.10391
5.27057
4.54527
8.50128
9.04228
3.84961
4.84893
5.61871
3.88398
4.94796
2.35173
3.30498
6.70375
4.35705
6.1407
4.63286
2.38803
5.31374
4.90425
1.89823
6.30692
5.07864
2.43063
5.33329
6.74205
2.01655
3.57168
9.65183
4.40635
10.0087
6.25511
5.7141
4.50002
8.28775
6.31783
7.62816
4.98395
4.56845
5.43053
5.46487
3.64417
6.2595
4.57876
6.07315
4.81111
5.13264
5.82678
9.73623
4.1337
7.4613
3.90269
5.76992
9.76665
6.64355
8.53522
6.2052
6.39218
3.15424
6.05155
6.16348
6.0585
5.71583
2.79261
8.9665
5.66835
6.40827
3.55708
7.11071
8.70223
8.1135
7.86462
9.69644
7.35202
6.64709
6.3277
7.60773
6.00201
7.68191
7.3249
3.54365
7.00643
5.54381
3.60731
5.0402
2.30209
4.94668
5.40829
8.62117
10.7339
4.27661
9.46235
9.94135
4.66475
8.54464
10.9782
2.75547
6.66972
4.25631
6.25075
6.47543
4.59391
2.68515
8.85568
3.9712
4.24721
6.47085
10.6738
7.51979
7.62732
2.33211
5.19051
5.00633
6.01672
5.26897
4.488
6.89804
6.23778
8.72525
9.87463
7.10315
7.45175
5.52916
5.47803
6.87485
5.21065
10.1143
5.14516
10.2478
2.07603
2.39475
9.84878
4.68266
11.1618
2.97339
3.83711
5.75774
7.23456
5.40419
6.11783
6.03726
9.8966
5.90072
3.28394
3.99417
6.70071
4.18339
7.01592
5.55053
11.2478
5.28868
4.43949
5.39418
4.46573
7.68577
6.49506
2.07457
9.98
2.59019
2.73005
2.43308
1.10588
1.81783
6.81888
1.23145
2.87848
1.4326
3.4469
3.14448
3.25627
3.99613
2.85607
7.32525
2.84286
3.62663
5.09794
2.7577
0.902752
1.50345
2.40972
3.1436
2.87656
1.12503
9.5714
1.88561
3.17877
2.81013
3.11273
1.94563
3.26778
0.843337
0.605745
0.727333
1.29261
3.58682
0.933632
1.0581
0.806928
7.71941
0.769325
1.02368
1.66071
8.17081
3.51874
0.707717
0.595426
7.01111
6.06835
2.85686
2.74734
8.13918
0.720883
0.751776
1.09088
3.07446
0.792497
2.44636
2.71768
6.74236
5.91063
8.50696
1.775
2.22506
5.67551
7.31528
4.02239
6.97951
4.60534
7.53795
6.68185
2.80928
3.80032
3.09906
9.66259
8.46441
2.49602
5.92059
1.18063
1.36808
2.59418
3.97612
2.48393
4.61214
3.72062
6.9922
3.49354
2.13543
8.84851
8.49594
0.875139
0.964674
1.00235
1.14613
3.06637
2.87009
3.70742
1.38701
1.23835
1.2076
1.40995
6.95041
3.05679
0.60418
1.11276
3.4864
1.89555
2.62733
2.29172
4.03409
4.35728
4.6028
3.99721
0.985568
1.16584
0.607667
1.85088
0.863657
0.798406
1.05968
0.712323
4.79352
0.906737
0.674258
0.850322
0.737375
6.91124
0.92295
0.70387
1.48569
1.23167
0.7594
0.907424
0.857948
0.737688
0.808902
1.50858
5.37163
0.75631
0.841804
0.793099
0.796642
6.44895
0.875341
4.88398
0.599101
1.16142
3.89212
1.94058
5.83901
2.82526
1.67881
1.64862
6.93921
6.55493
2.42295
2.80284
2.43121
1.26981
1.46631
1.53738
1.22263
5.52698
6.94097
1.08011
1.47598
6.01254
2.67239
2.69401
3.68958
3.3912
3.45166
7.97045
1.9998
0.802952
1.02517
1.52179
2.18877
7.67881
1.51485
1.50313
2.45531
7.03918
2.57017
6.42292
2.97942
3.11675
1.93857
1.42851
1.39293
6.85429
5.26821
5.14423
2.69056
4.85731
5.71807
6.74336
8.8189
1.21557
1.9614
1.27982
2.66949
2.19329
7.18048
1.03961
2.20023
3.37124
1.32688
2.56923
1.90346
0.743178
0.709192
0.664022
0.642592
1.31282
3.48959
5.78392
0.917881
1.20786
3.16436
0.883746
0.845493
1.57932
0.83846
7.50924
0.542653
0.368547
2.88464
7.61973
2.55145
2.7955
3.9121
8.49474
4.55349
2.19132
0.952424
2.44133
2.34063
7.06309
8.34161
5.28972
2.56995
9.65322
3.36023
3.04451
1.93118
3.5328
8.58917
6.42331
8.22501
1.90566
1.72694
4.95367
2.41495
2.42716
8.91779
2.2211
1.3372
2.5525
2.80168
2.86546
6.04651
4.26108
0.995342
1.86746
1.56113
1.70502
1.39785
1.0079
2.06999
3.32453
1.83527
7.3346
4.29737
4.61258
2.14327
4.04712
6.05839
6.17667
0.894185
1.68087
1.01898
5.06061
3.3988
1.90713
2.22218
1.99482
4.93047
1.96685
0.627938
1.07042
0.732934
1.1538
0.861882
4.69198
0.839346
1.34259
0.746927
0.852564
0.744995
0.931291
1.2203
0.935009
0.719563
0.788356
1.42762
1.11986
0.76397
0.739857
0.724722
0.985296
0.774182
1.17658
0.850366
0.891655
1.38952
2.42005
1.03671
1.28767
0.714698
1.17796
0.966548
2.25861
4.47792
6.24094
5.10211
1.6865
4.38972
3.33923
3.38651
9.84218
1.92017
5.25161
5.19531
11.2672
1.68071
2.33934
2.14671
0.971692
1.06061
0.747186
1.09294
4.75922
1.47195
5.50848
0.868772
0.957943
8.55864
1.43152
1.64768
1.47479
0.926154
1.04043
1.20936
1.16871
1.0793
2.56441
1.82165
0.825045
1.28477
0.649828
0.984359
1.53852
1.01863
0.711684
0.981832
1.94265
2.85312
1.11174
1.18026
0.927547
1.18011
1.39003
1.08296
1.09708
1.68574
2.34672
1.76681
0.909313
0.878377
0.873726
1.01834
2.15674
4.00462
1.88488
1.17815
1.22378
2.17057
1.30271
1.31779
2.03667
1.41211
1.18037
0.994064
0.841725
0.71298
0.914462
1.01956
0.78128
0.818488
0.963821
0.883791
0.895199
0.831087
0.816889
0.881112
0.81987
1.27273
1.07504
1.30968
0.930543
1.34981
0.942064
1.73862
2.8554
2.62666
0.670333
1.86468
1.70209
0.78104
0.987959
0.861784
1.75327
1.41334
1.85866
1.77208
1.36238
1.1247
1.51413
7.59461
3.9889
9.40933
6.93793
4.39866
7.44042
3.62396
2.24427
8.03857
8.12092
8.86936
5.75477
7.09605
4.0291
7.46865
7.00274
7.16483
8.39655
4.97126
3.80016
6.9868
7.7422
7.64908
4.41506
4.48079
4.33657
4.32805
6.89524
3.96137
7.81917
7.38139
4.45119
4.3064
3.11826
7.66154
10.5683
5.17669
4.68372
10.0644
4.72965
4.15099
3.67451
3.69735
2.46146
8.78569
4.46196
7.70105
7.80593
5.79024
7.26028
7.41686
9.05614
8.21432
5.09636
7.98184
2.5281
2.60395
6.9052
7.14156
7.31901
7.65232
7.04141
6.74305
6.42012
8.50708
5.06378
6.49078
7.6808
8.60586
3.76051
3.97318
8.17751
2.97491
8.82873
8.26505
4.98425
9.32544
6.53162
3.66191
7.34678
11.7327
11.3092
4.25191
4.19288
5.38179
7.23037
4.73251
6.00146
3.70453
8.294
4.65311
7.96741
5.84435
6.67473
4.42763
5.74481
7.28649
5.65621
8.03752
7.37557
2.88756
7.11999
5.31102
4.52877
5.61423
7.85925
2.86344
6.72007
7.23484
7.7102
7.15987
4.50006
6.69041
4.38458
11.089
7.9393
9.84175
4.67622
0.788035
1.17541
0.809521
0.923689
1.29035
0.851654
1.13095
0.635164
1.18773
1.1939
0.866558
1.03206
1.09574
0.950931
1.08988
1.15277
0.742342
1.08049
0.983454
1.09681
1.49293
0.945333
0.77449
1.00092
0.836176
0.99254
1.58069
1.09017
0.589927
1.06602
0.969976
0.971343
0.80502
1.16067
1.19671
0.71091
1.87648
2.90251
4.29144
3.11469
6.2403
6.09048
3.36541
3.30509
5.17696
3.25737
8.4127
2.35445
4.70351
6.69589
2.79538
5.55992
5.8195
5.69858
7.34255
4.18847
10.8637
1.41189
5.99871
8.30658
3.96253
4.21795
6.04445
4.67572
9.53786
5.50544
6.29141
5.06609
4.958
5.11201
3.53541
5.47582
5.56082
5.69164
7.17558
8.98954
11.7036
6.2208
4.70312
5.78325
4.97521
4.19359
10.3993
4.81184
5.51197
4.46363
6.13839
6.19547
6.7194
4.67819
10.7693
5.66724
3.73065
6.92695
1.77338
2.51218
5.11527
4.38387
7.31271
5.83655
7.86007
1.92058
6.3937
3.52118
4.16405
7.7365
5.92419
7.43358
6.42335
3.76932
4.44784
6.28466
6.86457
4.89528
1.20713
5.6294
8.82395
2.88019
9.42529
9.07166
4.99308
5.09372
4.52036
6.64333
9.95515
6.00273
4.08968
5.05447
3.34338
4.90246
6.98667
3.96184
10.3214
2.37447
2.39271
5.48027
7.70385
6.20406
7.18453
9.2306
6.42904
5.75505
7.10944
10.2657
4.43751
8.1635
3.55373
3.90354
10.5469
8.3639
8.19039
6.28349
7.06968
8.17935
4.33212
8.68571
6.60854
5.00823
2.02611
7.13531
5.76221
5.74805
3.12481
6.24282
6.39045
5.81558
4.88364
2.92866
5.18794
1.27635
4.53845
7.38085
3.05972
3.73596
7.34855
8.25366
1.04536
4.48457
3.48295
1.18543
5.83747
7.25653
6.55767
4.8374
3.82541
5.36329
5.57383
4.79078
2.10249
2.39672
2.43227
4.22156
8.58937
6.85246
2.99127
5.85869
5.81962
6.39434
7.96549
2.29539
6.67851
7.01684
6.52296
4.9596
6.85928
2.28127
5.73057
7.75021
7.12743
4.27424
9.4696
8.70344
4.01197
6.61299
4.05992
3.4073
9.3799
2.8906
6.13596
2.90534
3.95709
4.02961
6.51983
7.03271
7.5537
6.99935
3.70017
6.57277
2.55696
1.83165
7.77757
7.83006
8.61102
8.21031
7.03352
8.09711
4.81657
7.01617
7.26501
7.08304
9.29662
3.58641
3.26341
3.33601
2.94534
6.06599
3.6555
7.02663
3.57038
1.43892
1.91067
6.78476
4.80955
4.72777
1.0977
2.33026
2.00653
1.5392
4.2363
1.09828
0.700744
4.37323
2.7062
1.92137
1.51268
2.34894
1.67562
1.822
3.15329
2.85879
6.48779
1.77671
4.09428
1.94121
5.43352
1.3873
4.06741
7.06049
3.19201
3.26696
2.92112
4.43044
7.4634
4.21575
6.07796
5.58014
6.44401
5.05992
1.97267
3.29675
4.75918
4.76822
4.8293
5.23061
4.52202
1.6233
3.38748
2.12955
4.31255
5.23244
1.23445
4.86573
2.05757
1.89955
2.62194
4.86607
4.58457
2.79634
2.71641
1.4211
1.33739
1.94191
7.25539
2.7522
6.42102
3.53499
6.28438
5.73533
3.16284
4.33694
4.21387
1.63179
8.05902
6.78833
2.13072
4.08854
1.5164
2.08269
4.61451
6.6909
5.8843
3.35841
4.54984
3.5978
2.75554
4.12454
7.97994
7.75962
4.25617
5.11714
8.03086
4.24306
7.96222
1.71066
3.32431
4.76233
8.10511
3.33735
3.16739
3.76146
3.37422
6.72239
4.0919
7.40012
3.7514
3.99156
9.26602
5.13795
4.28471
3.1732
3.07192
2.84357
3.8664
3.54341
4.21135
3.43592
7.45769
5.50793
8.44296
7.49944
4.23619
8.51372
3.82928
3.84119
3.72718
4.08817
4.75558
5.76302
8.56645
6.9018
8.22397
8.88062
8.94888
4.04178
5.55386
3.71987
7.42439
6.4253
7.45388
6.9161
6.75207
8.1912
10.4408
7.94615
6.20525
6.48832
6.87014
9.46348
4.08854
4.17703
3.47644
3.78676
3.304
3.81164
3.96615
3.4505
3.85612
8.57519
3.61612
9.26783
6.83522
7.55609
9.4373
4.09064
4.11277
4.13487
6.71598
7.20854
8.38566
3.83587
8.06523
2.25608
9.05689
7.52155
7.12633
7.84995
8.42116
9.71121
7.65512
8.42888
3.26663
8.7462
6.58269
8.66325
7.78938
5.24581
8.34026
8.34679
8.47025
8.00871
8.17867
7.32418
8.8804
3.39106
9.8884
10.6764
10.593
7.63559
8.02584
7.34053
7.55276
8.48656
7.0266
9.40572
7.49767
3.13665
6.95129
3.83681
8.32504
4.34741
4.95093
3.96834
7.5502
7.07996
3.78425
4.36846
3.8303
7.8421
3.86101
5.33494
5.86166
3.2209
7.19173
4.95391
5.77254
2.45879
6.89172
2.74858
6.61507
3.56288
4.23387
6.50238
5.31001
1.7987
5.20761
4.7173
10.1677
2.58346
3.50979
2.92637
5.07063
1.95989
4.83476
1.337
3.54318
1.54412
