6.83146
2.21228
2.35661
2.99185
4.0441
3.46783
3.02451
3.0683
5.83927
1.81053
2.34431
6.54251
4.24622
3.02617
3.0437
2.70625
4.64433
5.00257
4.6579
4.1889
4.1623
5.67017
2.5683
5.18315
5.12825
3.61285
5.50887
4.83688
5.38584
4.94329
5.83065
4.36043
1.63605
2.09176
1.64065
1.77423
2.66808
2.30097
3.3626
2.34485
1.36152
2.33109
2.61468
2.44801
2.053
2.73551
1.30877
2.07153
1.76129
2.02038
1.62308
1.55649
2.4995
2.05949
2.18104
2.13485
2.28924
2.22846
2.45805
2.62124
2.30325
1.67299
2.0235
2.08058
1.03997
1.87937
1.32511
1.6462
1.6595
1.32233
0.697574
1.3151
1.34243
1.44667
0.612744
1.22271
0.780672
1.11187
1.18174
0.8435
1.4817
0.952758
1.56009
0.594758
0.647628
0.714763
0.888591
1.57127
1.47178
1.51073
0.660347
0.751636
0.970671
1.39163
0.872564
2.34853
2.40563
1.61915
2.90796
2.54216
3.06971
2.22068
3.3806
2.38534
2.28405
2.27445
3.39908
4.76824
1.92708
10.2364
1.93357
2.4833
3.69081
2.53935
2.99584
1.93177
2.68063
4.11139
1.33885
1.21036
2.9941
1.74764
2.78025
4.13786
2.49975
2.18375
1.40352
0.984017
0.725297
1.17
1.51108
1.49753
1.21425
1.01868
1.0173
2.0793
1.00975
1.20684
1.04543
1.1437
0.719355
2.27249
0.433483
1.35169
1.09908
1.51927
1.14982
0.67672
1.30151
0.702351
1.67818
1.17134
2.63147
4.36491
5.06296
4.74468
3.47957
4.59203
4.14296
3.67469
1.34531
3.75755
5.85168
6.40158
4.60664
4.6712
4.16548
4.14462
3.50678
3.05436
3.15142
3.61392
4.72929
3.68066
3.33672
4.80462
4.23758
4.22792
4.17952
4.71547
4.79597
4.51713
5.03466
5.31241
3.7225
5.35795
4.31629
4.96852
5.79942
5.1214
5.61389
4.88433
2.15344
2.74006
3.99029
4.71938
3.4765
3.40857
5.1876
4.44818
3.34978
2.91574
3.36179
3.17925
6.38992
4.50618
3.94508
4.62903
3.54272
3.96642
5.25462
2.76185
5.36973
5.15556
4.46097
3.84702
4.3762
4.91047
2.94293
3.37756
3.8029
3.08514
2.61528
6.07588
3.41845
2.94116
2.55429
2.93184
4.75717
2.97948
5.05089
2.83243
4.42714
3.23442
6.72929
3.90058
3.97563
4.97328
4.37113
6.24921
3.90305
5.27423
4.33789
4.95245
5.69277
3.28624
3.81054
4.14632
3.58646
4.87423
5.06862
4.42755
4.04261
4.4833
5.38835
7.20051
4.12197
1.47738
2.51287
4.53745
3.94195
4.18453
3.00376
3.18303
4.01791
3.10482
2.56535
1.49488
3.01166
3.90572
2.79314
3.30029
3.47747
5.07785
5.81247
6.69312
3.80668
3.33624
3.8758
4.06968
3.70514
4.24291
1.24246
2.2064
3.51141
4.42022
3.16219
3.47441
1.09311
0.856411
4.28911
5.02602
1.57481
1.89349
1.0341
1.31482
2.50045
5.72084
4.2821
3.19702
5.77688
3.08938
6.79305
4.01674
2.43892
3.8314
2.71214
4.26016
3.94519
2.98051
2.82642
3.05679
3.27101
3.14112
1.47265
3.85349
2.94838
2.40637
4.28527
1.75299
0.84129
1.26212
2.02169
0.510349
2.22893
1.29708
1.27836
0.904871
0.801562
1.12192
2.63261
1.06136
3.08545
2.61422
1.82963
0.851043
3.4053
3.27434
3.06141
2.03157
2.19188
2.84955
1.46389
1.60467
2.3833
3.16635
4.45749
3.50255
3.44845
4.28566
4.43052
3.1901
3.64181
2.90772
6.58758
1.53816
3.03006
3.3329
2.39751
3.0454
0.933744
0.75972
1.16221
0.962336
3.20502
1.69326
3.67281
3.20032
3.23413
7.23804
1.23705
4.96925
3.12188
0.99435
1.19499
2.07301
3.33439
1.54696
2.49489
2.08696
2.05321
2.95033
2.63911
0.933284
2.44027
4.63149
0.985491
1.17098
1.51798
2.79095
2.07623
5.93055
3.02013
1.41048
1.37988
1.93029
1.82116
1.65013
1.32589
1.16634
3.51548
2.89474
3.2617
2.82538
1.88233
4.14339
2.18785
1.7631
2.33043
2.44358
2.98423
1.13192
1.09572
1.58688
2.53658
2.08426
1.26817
1.1896
1.31827
1.87904
3.05176
2.40047
1.60279
1.70026
2.67323
1.65751
2.25512
2.08476
2.28753
1.81642
1.51162
1.20706
1.56338
1.47271
2.4407
1.4454
1.30202
1.35516
1.68696
1.15934
1.12722
1.34249
1.82071
1.39511
1.50095
1.38959
1.61618
2.11484
2.1242
1.91571
1.91791
2.09153
1.49141
1.89837
1.58977
1.63905
1.09748
1.53015
2.20283
1.24674
0.838872
1.46873
1.87023
1.75353
1.29857
1.51013
1.28782
1.43438
2.11022
1.77257
1.83917
1.40037
1.74386
0.704257
1.52824
1.81237
1.84283
2.12615
2.06742
1.00531
1.17136
0.756352
2.86462
0.917544
1.40325
1.20328
1.35338
1.72473
1.31022
1.19952
1.54895
1.75035
2.39357
1.73926
1.41885
1.2213
1.48096
1.42948
1.47593
1.41486
1.31302
1.28523
1.45143
1.66878
1.82222
1.57667
1.5673
1.37454
1.38418
1.5154
1.19563
1.90554
2.53028
2.48371
1.73352
2.42611
1.27755
1.63171
1.03414
0.924916
1.06973
2.30634
1.15153
2.45743
1.78572
1.48696
1.42412
1.55436
1.64878
2.15546
2.21968
1.40982
1.6066
1.35919
1.46946
2.05901
1.15263
1.44978
1.44119
1.57491
1.83742
1.38612
1.45498
1.57845
1.16493
1.25449
1.23531
1.18569
2.12459
1.26788
6.74627
2.85776
2.76621
3.20724
3.73436
5.18377
6.72474
4.18092
4.6524
4.80238
4.83858
5.20537
2.82355
6.2254
3.91767
5.20109
1.5819
1.21774
0.758162
1.066
5.38325
0.665698
3.13845
1.76876
0.717677
2.04615
3.45211
3.77399
2.54144
4.36369
0.714257
1.2938
0.552363
0.436675
3.42845
0.337044
0.510669
1.24386
0.546404
2.43311
1.09023
1.57767
1.39925
0.886396
0.827166
0.966337
0.800725
1.50756
1.00613
1.21797
0.874145
0.868389
0.42585
2.1394
1.19973
1.4449
0.874112
0.737209
0.470662
0.438103
0.34261
0.944031
1.00723
0.342405
1.07084
0.907439
0.445986
2.00265
8.16214
2.46089
2.90055
2.84233
1.40003
8.40497
3.49828
3.45619
2.39086
3.00741
0.726309
0.782986
4.9248
2.86464
1.53706
5.83742
2.88006
3.05631
4.15541
4.96637
1.40319
2.96068
6.8292
6.55506
7.32205
5.73533
5.33216
5.15454
6.38607
1.70117
1.81692
3.8768
1.71486
2.89711
0.892014
2.362
3.00635
6.44989
3.73234
3.54911
1.16822
1.64841
2.4878
4.24249
2.71625
3.78911
0.763011
2.06527
1.63778
2.08716
2.90893
3.4259
2.06661
1.71408
1.59589
0.997646
1.23947
2.53542
3.10838
2.48156
1.86118
1.85024
1.64509
1.9785
1.43263
1.81091
1.58898
1.51442
3.52565
3.61851
2.75276
1.9392
4.91861
1.85231
1.2741
3.78517
5.37515
4.17376
3.07013
3.00067
2.97277
2.71999
3.62528
6.42124
1.69799
1.73868
1.9994
1.56246
1.40425
2.22933
3.06348
1.72044
1.83864
1.82975
2.2986
2.0451
2.29017
2.0866
1.83104
1.77415
3.96747
3.3015
5.07039
3.71479
3.36506
3.61181
2.87442
2.61316
4.17276
3.21059
3.49347
3.09305
1.96733
3.18593
3.58239
3.64398
1.80727
1.7129
1.8318
1.65385
1.97091
2.65089
2.25478
2.50903
2.09881
2.01746
2.30213
1.65695
2.09845
2.08987
1.89342
1.3588
4.42703
3.18516
2.42464
3.22635
2.53301
2.22171
2.58301
3.00669
4.58733
2.54439
2.97684
2.89796
1.99561
2.60302
4.29516
2.79192
1.79177
1.85345
2.14715
1.28943
2.48213
2.05915
2.77794
1.80616
2.0937
1.83932
2.22995
2.29114
2.25341
2.41541
1.59078
1.94431
3.60895
3.52012
4.14938
2.10694
2.98282
2.83302
4.10722
4.019
3.668
2.51405
2.47396
3.63975
2.98923
2.97438
2.40547
2.2157
1.34084
1.95351
1.51438
1.80518
2.05094
2.14035
1.98656
2.05189
