OFF
340 661 0
-20.8765 13.2124 -14.62
-20.7855 13.313 -14.435
-21.0125 13.2023 -14.517
-21.2455 13.0182 -14.811
-21.2195 13.1769 -14.493
-21.4815 12.9843 -14.799
-21.5735 12.9654 -14.908
-21.3205 12.9963 -14.921
-20.9245 13.1988 -14.717
-21.2985 13.2908 -14.321
-21.2665 13.4623 -14.104
-21.4435 13.3879 -14.233
-21.5555 13.1139 -14.601
-21.5335 13.3873 -14.302
-21.6535 13.099 -14.696
-21.4515 13.4971 -14.249
-21.2805 13.6463 -14.131
-21.3155 13.5072 -14.353
-21.5655 13.2318 -14.618
-21.2385 13.4092 -14.527
-21.4925 13.111 -14.817
-21.0295 13.4186 -14.549
-20.7985 13.497 -14.463
-20.8845 13.3215 -14.637
-21.2555 13.1361 -14.828
-8.73946 12.2422 6.70998
-8.93446 12.2707 6.69698
-8.94346 12.2692 6.70798
-8.75246 12.241 6.72098
-8.94046 12.3216 6.73698
-8.75046 12.2948 6.75098
-8.63546 12.283 6.84098
-8.63646 12.2277 6.81198
-8.91746 12.4829 6.81198
-8.87046 12.808 6.95898
-8.67946 12.7913 6.97498
-8.72846 12.4595 6.82698
-8.56346 12.7912 7.06698
-8.61346 12.4517 6.91698
-8.53546 12.8063 7.21398
-8.60546 12.8355 7.39598
-8.65346 12.4825 7.24698
-8.58446 12.4593 7.06398
-8.67546 12.3069 7.17298
-8.60646 12.2868 6.98798
-9.72846 12.4086 7.13798
-9.91446 12.4456 7.34598
-9.90046 12.4426 7.34198
-9.71946 12.4059 7.13798
-9.88846 12.4939 7.36298
-9.70846 12.4568 7.16098
-9.46246 12.4104 6.97098
-9.47046 12.3595 6.94498
-9.47446 12.3618 6.93998
-9.86846 12.6538 7.43098
-9.83246 12.9764 7.57098
-9.65046 12.9344 7.37198
-9.68846 12.615 7.23098
-9.40046 12.8872 7.18498
-9.44146 12.5684 7.04298
-9.12546 12.8425 7.03898
-9.16946 12.5218 6.89398
-9.19146 12.3628 6.81998
-9.19446 12.3132 6.78398
-9.19746 12.3113 6.79198
-9.83546 12.4537 7.78098
-9.63146 12.4228 7.78198
-9.82346 12.4509 7.76798
-9.62146 12.4792 7.79798
-9.81146 12.5061 7.78498
-9.92746 12.5179 7.69398
-9.94046 12.4642 7.67698
-9.60246 12.6533 7.86698
-9.56646 13.0039 8.00898
-9.75746 13.0206 7.99298
-9.79246 12.6767 7.85198
-9.87446 13.0207 7.90098
-9.90746 12.6846 7.76198
-9.90346 13.0056 7.75398
-9.93746 12.677 7.61498
-9.95646 12.5141 7.54698
-9.98546 12.4648 7.53698
-9.96946 12.4618 7.52898
-8.85446 12.3441 7.37398
-9.10046 12.3904 7.56498
-9.10546 12.3325 7.54398
-8.78746 12.8775 7.59498
-8.83346 12.5213 7.44698
-9.03746 12.9247 7.78198
-9.07946 12.5678 7.63598
-9.31146 12.9693 7.92898
-9.35046 12.6144 7.78498
-9.37046 12.4381 7.71598
-9.37746 12.3807 7.69698
-8.71346 15.5233 6.70298
-8.91746 15.4915 6.67798
-9.26246 16.1061 5.46598
-9.05646 16.1445 5.49098
-9.82646 16.5799 3.72898
-9.62146 16.6214 3.75098
-9.50246 16.6886 3.84498
-8.93546 16.2081 5.58798
-8.59246 15.5792 6.79998
-10.6415 16.8749 1.58198
-11.7405 16.9532 -0.858016
-11.5525 16.9939 -0.852016
-10.4425 16.9169 1.59898
-11.4485 17.061 -0.778016
-10.3295 16.9849 1.68498
-11.4375 17.142 -0.654016
-11.5295 17.2248 -0.495016
-10.4025 17.149 1.99398
-10.3125 17.0664 1.82298
-9.57046 16.8507 4.16698
-9.48146 16.7691 3.98998
-8.99746 16.3635 5.91598
-8.64946 15.7213 7.12898
-8.56746 15.6487 6.94898
-8.91146 16.285 5.73598
-9.76546 15.5758 7.05398
-9.96846 15.6411 7.24498
-10.3305 16.2532 6.03098
-10.1235 16.1847 5.84098
-10.9005 16.7266 4.29498
-10.6915 16.6563 4.10598
-10.4095 16.604 3.93098
-9.84446 16.1328 5.66598
-9.49146 15.5245 6.87898
-11.7045 17.0238 2.14698
-12.7665 17.1074 -0.298016
-12.5615 17.0354 -0.475016
-11.4955 16.9526 1.96198
-12.2915 16.981 -0.644016
-11.2165 16.8995 1.78998
-12.0025 16.9513 -0.780016
-10.9155 16.8714 1.65398
-10.1055 16.5763 3.79698
-9.19346 15.4941 6.74498
-9.54146 16.1044 5.53298
-9.90446 15.8392 7.67498
-9.70046 15.871 7.70098
-10.0655 16.5106 6.48598
-10.2715 16.4722 6.45998
-10.6455 16.9974 4.73898
-10.8495 16.9559 4.71498
-10.9685 16.8887 4.61998
-10.3925 16.4087 6.36198
-10.0255 15.7833 7.57598
-11.4665 17.2979 2.56498
-12.5555 17.3789 0.0709839
-12.7435 17.3383 0.0639839
-11.6655 17.2559 2.54698
-12.8475 17.2712 -0.0110161
-11.7785 17.188 2.45898
-12.8585 17.1902 -0.137016
-11.7945 17.1064 2.31998
-10.9885 16.8082 4.47298
-10.0505 15.7138 7.42598
-10.4155 16.3318 6.21198
-8.85146 15.7867 7.32098
-9.20446 16.4321 6.10698
-9.77946 16.9209 4.35698
-10.0615 16.9733 4.53298
-9.48346 16.4839 6.28298
-9.12646 15.838 7.49798
-11.7345 17.2968 -0.316016
-10.6115 17.2202 2.17998
-12.0045 17.3512 -0.146016
-10.8915 17.2733 2.35498
-12.2935 17.3809 -0.00801612
-11.1915 17.3015 2.49198
-10.3665 17.001 4.66898
-9.42446 15.8683 7.63298
-9.78746 16.5123 6.41798
-13.1545 16.7769 -3.47402
-12.9855 16.8154 -3.48402
-14.7325 16.401 -6.09702
-14.5865 16.4369 -6.12402
-14.5135 16.5005 -6.09502
-12.8955 16.8809 -3.43102
-16.3235 15.8805 -8.55202
-17.7755 15.2704 -10.67
-17.6705 15.3015 -10.728
-16.1995 15.9138 -8.59702
-17.6295 15.3617 -10.742
-16.1435 15.9755 -8.59102
-17.6525 15.4393 -10.711
-17.7425 15.523 -10.637
-16.2495 16.1374 -8.44602
-16.1595 16.0539 -8.53902
-14.6115 16.6631 -5.90102
-14.5195 16.5798 -6.01802
-12.9855 17.0442 -3.18802
-12.8935 16.9612 -3.32802
-14.1115 16.9399 -2.92802
-13.9175 16.8664 -3.09202
-15.6055 16.5744 -5.57002
-15.4235 16.4993 -5.71702
-15.1915 16.4401 -5.86902
-13.6645 16.8098 -3.25402
-17.1105 16.0644 -8.04702
-18.4915 15.4631 -10.185
-18.3335 15.3849 -10.3
-16.9415 15.9876 -8.17702
-18.1395 15.3208 -10.434
-16.7305 15.9257 -8.31902
-17.9435 15.2797 -10.564
-16.5125 15.8872 -8.45202
-14.9475 16.4047 -6.00402
-13.3955 16.7775 -3.38902
-13.9435 17.2071 -2.63802
-14.1125 17.1686 -2.62902
-15.4845 16.8365 -5.37002
-15.6315 16.8006 -5.34302
-15.7035 16.737 -5.37402
-14.2015 17.1031 -2.68302
-17.0375 16.3214 -7.93702
-18.4595 15.7158 -10.149
-18.5645 15.6846 -10.091
-17.1615 16.2881 -7.89302
-18.6055 15.6245 -10.079
-17.2175 16.2263 -7.90002
-18.5825 15.5468 -10.111
-17.2015 16.1479 -7.95302
-15.6975 16.6576 -5.45202
-14.2045 17.0228 -2.78802
-13.1795 17.1176 -3.02402
-14.7935 16.7382 -5.75302
-15.0255 16.7974 -5.60002
-13.4335 17.1742 -2.86102
-17.9015 15.6013 -10.522
-16.4185 16.2142 -8.31602
-18.0955 15.6653 -10.387
-16.6305 16.2761 -8.17202
-18.2925 15.7064 -10.255
-16.8485 16.3146 -8.03802
-15.2695 16.8328 -5.46402
-13.7025 17.2065 -2.72302
-18.9385 14.6258 -12.277
-18.8445 14.6556 -12.343
-19.8225 14.0315 -13.412
-19.7465 14.0512 -13.489
-19.7285 14.0996 -13.528
-18.8125 14.7149 -12.367
-20.4395 13.5722 -14.112
-20.4005 13.5634 -14.214
-20.4135 13.5804 -14.282
-20.4535 13.7886 -14.145
-20.4075 13.6813 -14.232
-19.8315 14.2723 -13.442
-19.7515 14.1826 -13.506
-18.9325 14.8759 -12.288
-18.8415 14.7921 -12.349
-19.6125 14.8238 -11.809
-19.4605 14.7447 -11.914
-20.4565 14.2256 -12.97
-20.3195 14.1401 -13.077
-20.1555 14.0677 -13.206
-19.2765 14.6793 -12.041
-21.0045 13.7478 -13.721
-20.9095 13.6442 -13.846
-20.7895 13.5525 -13.993
-20.6015 13.5485 -14.06
-19.9735 14.0343 -13.317
-19.0925 14.6367 -12.169
-19.6075 15.0739 -11.817
-19.7005 15.044 -11.751
-20.4655 14.4664 -12.998
-20.5595 14.4297 -12.942
-20.5945 14.3645 -12.924
-19.7325 14.9848 -11.728
-21.0195 13.9641 -13.752
-21.1295 13.9052 -13.733
-21.1875 13.8206 -13.747
-21.1215 13.7873 -13.716
-20.5535 14.2984 -12.927
-19.7035 14.9076 -11.747
-19.0845 14.955 -12.182
-19.9855 14.3409 -13.356
-20.1685 14.3963 -13.246
-19.2685 15.0203 -12.054
-20.6205 13.8245 -14.102
-20.8105 13.8485 -14.037
-20.9285 13.9201 -13.887
-20.3315 14.4467 -13.113
-19.4535 15.063 -11.925
-9.93746 12.4487 7.35298
-9.47946 12.3638 6.93198
-8.91946 12.2712 6.67898
-9.18946 12.3144 6.76898
-8.86946 12.2695 6.62098
-9.17146 12.3163 6.72398
-9.50546 13.5896 8.24698
-9.69946 13.5952 8.22798
-9.47246 14.3218 8.39798
-9.67046 14.3142 8.37598
-9.78946 14.2863 8.27998
-9.81746 13.5826 8.13498
-9.51946 15.1118 8.27698
-9.72146 15.091 8.25298
-9.84146 15.0478 8.15498
-9.78946 14.9279 7.82298
-9.86746 14.9907 8.00498
-9.74146 14.193 7.94898
-9.81646 14.2439 8.13098
-9.77246 13.516 7.80398
-9.84546 13.5551 7.98698
-9.58646 13.4686 7.60698
-9.54946 14.1392 7.75498
-9.28846 14.09 7.57398
-9.33146 13.4205 7.42398
-9.59246 14.8678 7.63098
-9.32446 14.8174 7.45398
-8.76146 14.7739 7.24798
-9.03146 14.7838 7.31698
-8.73746 14.0339 7.36198
-9.00246 14.0525 7.43498
-8.79246 13.3518 7.20398
-9.05146 13.3791 7.27998
-8.59846 13.3462 7.22198
-8.54046 14.0415 7.38298
-8.42146 14.0694 7.47798
-8.48046 13.3588 7.31498
-8.56046 14.7948 7.27198
-8.43946 14.8379 7.36798
-8.49146 14.9579 7.69798
-8.41346 14.8951 7.51698
-8.46946 14.1628 7.80798
-8.39346 14.1118 7.62598
-8.52546 13.4255 7.64498
-8.45246 13.3863 7.46298
-8.71246 13.4728 7.84198
-8.66046 14.2165 8.00298
-8.92146 14.2657 8.18398
-8.96646 13.5209 8.02698
-8.68846 15.018 7.89098
-8.95646 15.0683 8.06898
-9.24946 15.1019 8.20698
-9.20746 14.3032 8.32498
-9.24646 13.5623 8.17098
3 0 1 2
3 0 2 3
3 2 4 5
3 2 5 3
3 5 6 7
3 5 7 3
3 7 8 0
3 7 0 3
3 9 10 11
3 9 11 12
3 11 13 14
3 11 14 12
3 14 6 5
3 14 5 12
3 5 4 9
3 5 9 12
3 15 16 17
3 15 17 18
3 17 19 20
3 17 20 18
3 20 6 14
3 20 14 18
3 14 13 15
3 14 15 18
3 21 22 23
3 21 23 24
3 23 8 7
3 23 7 24
3 7 6 20
3 7 20 24
3 20 19 21
3 20 21 24
3 25 26 27
3 25 27 28
3 27 29 30
3 27 30 28
3 30 31 32
3 30 32 28
3 32 25 28
3 33 34 35
3 33 35 36
3 35 37 38
3 35 38 36
3 38 31 30
3 38 30 36
3 30 29 33
3 30 33 36
3 39 40 41
3 39 41 42
3 41 43 44
3 41 44 42
3 44 31 38
3 44 38 42
3 38 37 39
3 38 39 42
3 32 31 44
3 45 46 47
3 45 47 48
3 47 49 50
3 47 50 48
3 50 51 52
3 50 52 48
3 52 53 45
3 52 45 48
3 54 55 56
3 54 56 57
3 56 58 59
3 56 59 57
3 59 51 50
3 59 50 57
3 50 49 54
3 50 54 57
3 60 34 33
3 60 33 61
3 33 29 62
3 33 62 61
3 62 51 59
3 62 59 61
3 59 58 60
3 59 60 61
3 27 26 63
3 27 63 64
3 63 53 52
3 63 52 64
3 52 51 62
3 52 62 64
3 62 29 27
3 62 27 64
3 65 66 67
3 66 68 69
3 66 69 67
3 69 70 71
3 69 71 67
3 71 65 67
3 72 73 74
3 72 74 75
3 74 76 77
3 74 77 75
3 77 70 69
3 77 69 75
3 69 68 72
3 69 72 75
3 78 55 54
3 78 54 79
3 54 49 80
3 54 80 79
3 80 70 77
3 80 77 79
3 77 76 78
3 77 78 79
3 47 46 81
3 47 81 82
3 81 71 82
3 71 70 80
3 71 80 82
3 80 49 47
3 80 47 82
3 83 84 85
3 41 40 86
3 41 86 87
3 86 88 89
3 86 89 87
3 89 84 83
3 89 83 87
3 83 43 41
3 83 41 87
3 90 73 72
3 90 72 91
3 72 68 92
3 72 92 91
3 92 84 89
3 92 89 91
3 89 88 90
3 89 90 91
3 85 84 92
3 85 92 93
3 92 68 66
3 92 66 93
3 94 95 96
3 94 96 97
3 96 98 99
3 96 99 97
3 99 100 101
3 99 101 97
3 101 102 94
3 101 94 97
3 103 104 105
3 103 105 106
3 105 107 108
3 105 108 106
3 108 100 99
3 108 99 106
3 99 98 103
3 99 103 106
3 109 110 111
3 109 111 112
3 111 113 114
3 111 114 112
3 114 100 108
3 114 108 112
3 108 107 109
3 108 109 112
3 115 116 117
3 115 117 118
3 117 102 101
3 117 101 118
3 101 100 114
3 101 114 118
3 114 113 115
3 114 115 118
3 119 120 121
3 119 121 122
3 121 123 124
3 121 124 122
3 124 125 126
3 124 126 122
3 126 127 119
3 126 119 122
3 128 129 130
3 128 130 131
3 130 132 133
3 130 133 131
3 133 125 124
3 133 124 131
3 124 123 128
3 124 128 131
3 134 104 103
3 134 103 135
3 103 98 136
3 103 136 135
3 136 125 133
3 136 133 135
3 133 132 134
3 133 134 135
3 96 95 137
3 96 137 138
3 137 127 126
3 137 126 138
3 126 125 136
3 126 136 138
3 136 98 96
3 136 96 138
3 139 140 141
3 139 141 142
3 141 143 144
3 141 144 142
3 144 145 146
3 144 146 142
3 146 147 139
3 146 139 142
3 148 149 150
3 148 150 151
3 150 152 153
3 150 153 151
3 153 145 144
3 153 144 151
3 144 143 148
3 144 148 151
3 154 129 128
3 154 128 155
3 128 123 156
3 128 156 155
3 156 145 153
3 156 153 155
3 153 152 154
3 153 154 155
3 121 120 157
3 121 157 158
3 157 147 146
3 157 146 158
3 146 145 156
3 146 156 158
3 156 123 121
3 156 121 158
3 159 116 115
3 159 115 160
3 115 113 161
3 115 161 160
3 161 162 163
3 161 163 160
3 163 164 159
3 163 159 160
3 111 110 165
3 111 165 166
3 165 167 168
3 165 168 166
3 168 162 161
3 168 161 166
3 161 113 111
3 161 111 166
3 169 149 148
3 169 148 170
3 148 143 171
3 148 171 170
3 171 162 168
3 171 168 170
3 168 167 169
3 168 169 170
3 141 140 172
3 141 172 173
3 172 164 163
3 172 163 173
3 163 162 171
3 163 171 173
3 171 143 141
3 171 141 173
3 105 104 174
3 105 174 175
3 174 176 177
3 174 177 175
3 177 178 179
3 177 179 175
3 179 107 105
3 179 105 175
3 180 181 182
3 180 182 183
3 182 184 185
3 182 185 183
3 185 178 177
3 185 177 183
3 177 176 180
3 177 180 183
3 186 187 188
3 186 188 189
3 188 190 191
3 188 191 189
3 191 178 185
3 191 185 189
3 185 184 186
3 185 186 189
3 192 110 109
3 192 109 193
3 109 107 179
3 109 179 193
3 179 178 191
3 179 191 193
3 191 190 192
3 191 192 193
3 130 129 194
3 130 194 195
3 194 196 197
3 194 197 195
3 197 198 199
3 197 199 195
3 199 132 130
3 199 130 195
3 200 201 202
3 200 202 203
3 202 204 205
3 202 205 203
3 205 198 197
3 205 197 203
3 197 196 200
3 197 200 203
3 206 181 180
3 206 180 207
3 180 176 208
3 180 208 207
3 208 198 205
3 208 205 207
3 205 204 206
3 205 206 207
3 174 104 134
3 174 134 209
3 134 132 199
3 134 199 209
3 199 198 208
3 199 208 209
3 208 176 174
3 208 174 209
3 150 149 210
3 150 210 211
3 210 212 213
3 210 213 211
3 213 214 215
3 213 215 211
3 215 152 150
3 215 150 211
3 216 217 218
3 216 218 219
3 218 220 221
3 218 221 219
3 221 214 213
3 221 213 219
3 213 212 216
3 213 216 219
3 222 201 200
3 222 200 223
3 200 196 224
3 200 224 223
3 224 214 221
3 224 221 223
3 221 220 222
3 221 222 223
3 194 129 154
3 194 154 225
3 154 152 215
3 154 215 225
3 215 214 224
3 215 224 225
3 224 196 194
3 224 194 225
3 165 110 192
3 165 192 226
3 192 190 227
3 192 227 226
3 227 228 229
3 227 229 226
3 229 167 165
3 229 165 226
3 188 187 230
3 188 230 231
3 230 232 233
3 230 233 231
3 233 228 227
3 233 227 231
3 227 190 188
3 227 188 231
3 234 217 216
3 234 216 235
3 216 212 236
3 216 236 235
3 236 228 233
3 236 233 235
3 233 232 234
3 233 234 235
3 210 149 169
3 210 169 237
3 169 167 229
3 169 229 237
3 229 228 236
3 229 236 237
3 236 212 210
3 236 210 237
3 182 181 238
3 182 238 239
3 238 240 241
3 238 241 239
3 241 242 243
3 241 243 239
3 243 184 182
3 243 182 239
3 244 1 0
3 244 0 245
3 0 8 246
3 0 246 245
3 246 242 241
3 246 241 245
3 241 240 244
3 241 244 245
3 23 22 247
3 23 247 248
3 247 249 250
3 247 250 248
3 250 242 246
3 250 246 248
3 246 8 23
3 246 23 248
3 251 187 186
3 251 186 252
3 186 184 243
3 186 243 252
3 243 242 250
3 243 250 252
3 250 249 251
3 250 251 252
3 202 201 253
3 202 253 254
3 253 255 256
3 253 256 254
3 256 257 258
3 256 258 254
3 258 204 202
3 258 202 254
3 259 10 9
3 259 9 260
3 9 4 261
3 9 261 260
3 261 257 256
3 261 256 260
3 256 255 259
3 256 259 260
3 2 1 244
3 2 244 262
3 244 240 263
3 244 263 262
3 263 257 261
3 263 261 262
3 261 4 2
3 261 2 262
3 238 181 206
3 238 206 264
3 206 204 258
3 206 258 264
3 258 257 263
3 258 263 264
3 263 240 238
3 263 238 264
3 218 217 265
3 218 265 266
3 265 267 268
3 265 268 266
3 268 269 270
3 268 270 266
3 270 220 218
3 270 218 266
3 271 16 15
3 271 15 272
3 15 13 273
3 15 273 272
3 273 269 268
3 273 268 272
3 268 267 271
3 268 271 272
3 11 10 259
3 11 259 274
3 259 255 275
3 259 275 274
3 275 269 273
3 275 273 274
3 273 13 11
3 273 11 274
3 253 201 222
3 253 222 276
3 222 220 270
3 222 270 276
3 270 269 275
3 270 275 276
3 275 255 253
3 275 253 276
3 230 187 251
3 230 251 277
3 251 249 278
3 251 278 277
3 278 279 280
3 278 280 277
3 280 232 230
3 280 230 277
3 247 22 21
3 247 21 281
3 21 19 282
3 21 282 281
3 282 279 278
3 282 278 281
3 278 249 247
3 278 247 281
3 17 16 271
3 17 271 283
3 271 267 284
3 271 284 283
3 284 279 282
3 284 282 283
3 282 19 17
3 282 17 283
3 265 217 234
3 265 234 285
3 234 232 280
3 234 280 285
3 280 279 284
3 280 284 285
3 284 267 265
3 284 265 285
3 81 46 286
3 286 46 45
3 45 53 287
3 63 26 288
3 63 288 289
3 288 290 291
3 288 291 289
3 291 287 289
3 287 53 63
3 287 63 289
3 288 26 25
3 74 73 292
3 74 292 293
3 292 294 295
3 292 295 293
3 295 296 297
3 295 297 293
3 297 76 74
3 297 74 293
3 298 140 139
3 298 139 299
3 139 147 300
3 139 300 299
3 300 296 295
3 300 295 299
3 295 294 298
3 295 298 299
3 157 120 301
3 157 301 302
3 301 303 304
3 301 304 302
3 304 296 300
3 304 300 302
3 300 147 157
3 300 157 302
3 305 55 78
3 305 78 306
3 78 76 297
3 78 297 306
3 297 296 304
3 297 304 306
3 304 303 305
3 304 305 306
3 56 55 305
3 56 305 307
3 305 303 308
3 305 308 307
3 308 309 310
3 308 310 307
3 310 58 56
3 310 56 307
3 301 120 119
3 301 119 311
3 119 127 312
3 119 312 311
3 312 309 308
3 312 308 311
3 308 303 301
3 308 301 311
3 137 95 313
3 137 313 314
3 313 315 316
3 313 316 314
3 316 309 312
3 316 312 314
3 312 127 137
3 312 137 314
3 317 34 60
3 317 60 318
3 60 58 310
3 60 310 318
3 310 309 316
3 310 316 318
3 316 315 317
3 316 317 318
3 35 34 317
3 35 317 319
3 317 315 320
3 317 320 319
3 320 321 322
3 320 322 319
3 322 37 35
3 322 35 319
3 313 95 94
3 313 94 323
3 94 102 324
3 94 324 323
3 324 321 320
3 324 320 323
3 320 315 313
3 320 313 323
3 117 116 325
3 117 325 326
3 325 327 328
3 325 328 326
3 328 321 324
3 328 324 326
3 324 102 117
3 324 117 326
3 329 40 39
3 329 39 330
3 39 37 322
3 39 322 330
3 322 321 328
3 322 328 330
3 328 327 329
3 328 329 330
3 86 40 329
3 86 329 331
3 329 327 332
3 329 332 331
3 332 333 334
3 332 334 331
3 334 88 86
3 334 86 331
3 325 116 159
3 325 159 335
3 159 164 336
3 159 336 335
3 336 333 332
3 336 332 335
3 332 327 325
3 332 325 335
3 172 140 298
3 172 298 337
3 298 294 338
3 298 338 337
3 338 333 336
3 338 336 337
3 336 164 172
3 336 172 337
3 292 73 90
3 292 90 339
3 90 88 334
3 90 334 339
3 334 333 338
3 334 338 339
3 338 294 292
3 338 292 339
