1.37486
1.16769
0.907618
1.18676
0.576189
0.861696
0.87402
1.04215
1.07886
0.63968
0.73022
0.544419
0.662311
1.04313
0.867247
0.875197
0.763575
0.533559
0.593511
0.628317
0.633529
0.569502
0.606706
0.846445
1.27159
0.746729
0.620371
0.559222
0.505752
1.0142
0.433174
0.869202
0.356289
0.794996
0.889217
0.46075
0.70073
0.923935
0.842564
0.791486
0.944646
0.815328
0.994891
0.958796
0.656641
0.623004
0.636543
0.739496
0.770813
0.758034
0.759913
0.811062
0.752605
0.723074
0.594622
0.891137
0.753383
0.911756
0.769242
0.520307
0.927519
0.991369
0.946777
0.904507
0.858038
0.865489
0.954515
0.752417
0.880767
0.88423
0.742849
0.928623
0.841945
0.817484
0.815814
0.809214
0.74996
0.84813
0.75764
0.737587
0.807032
0.789867
0.855969
0.754313
0.686788
0.675298
0.742381
0.792019
0.728757
0.764808
0.819374
0.68119
0.805964
0.834152
0.855515
0.774027
0.747421
0.771303
0.819227
0.764046
0.835858
0.660625
0.812983
0.839911
0.769285
0.798718
0.783496
0.7899
0.709606
0.754239
0.681501
0.756978
0.759914
0.701288
0.838615
0.765948
0.594319
0.724741
0.845131
0.679724
0.712217
0.683564
0.616198
0.720883
0.903411
0.827191
0.889683
0.926876
0.756785
0.824222
0.904307
0.872486
0.740453
0.881088
0.933718
0.796584
0.855532
0.865341
0.81652
0.795663
0.833347
0.815582
0.724207
0.839409
0.824639
0.884219
0.63786
0.932206
0.699506
0.771096
0.828154
0.75114
0.811986
0.743557
0.63311
0.791968
0.880407
0.789877
0.806864
0.753756
0.789538
0.803743
0.761679
0.824771
0.634447
0.59836
0.53699
0.554303
0.527229
0.583896
0.578667
0.515256
0.486289
0.525783
0.529971
0.516365
0.535645
0.499644
0.661209
0.730378
0.546785
0.672774
0.488568
0.518353
0.493908
0.418309
0.540533
0.722558
0.565395
0.674718
0.568182
0.739749
0.565953
0.617975
0.527892
0.77337
0.666301
0.675139
0.844609
0.355875
0.569205
0.518611
0.860042
0.694253
0.579339
0.403372
0.41652
0.786662
0.631559
0.741201
0.522434
0.45616
0.421966
0.496258
0.614777
0.470841
0.646036
0.55885
0.518154
0.643438
0.642941
0.446004
0.508301
0.517654
0.580946
0.61129
0.494281
0.546044
0.534182
0.54245
0.570253
0.594884
0.529968
0.541907
0.511755
0.631753
0.494956
0.598271
0.518828
0.514494
0.633234
0.773687
0.595892
0.479957
0.463175
0.467279
0.557704
0.571096
0.516697
0.662046
0.604235
0.525198
0.619964
0.485988
0.396256
0.502613
0.793712
0.750114
0.891503
0.753061
0.622748
0.746212
0.783565
0.645281
0.15948
0.701472
0.523049
0.590987
0.721489
0.405127
0.744619
0.463463
0.530765
0.507067
0.551376
0.500237
0.513866
0.541716
0.529707
0.475426
0.655269
0.594435
0.711821
0.735394
0.501459
0.542236
0.565562
0.494479
0.552713
0.608224
0.732559
0.55002
0.707824
0.66924
0.556494
0.662454
1.00961
0.979057
1.11134
0.979185
0.632241
0.839986
0.780124
0.75098
1.25978
1.16645
0.683453
0.420888
0.941741
0.806556
1.17967
0.975528
0.726804
0.867215
0.614825
0.676353
0.862755
0.484515
0.887217
0.654683
0.686411
0.615007
0.695609
0.633229
0.735673
0.638421
0.579726
0.645902
1.35898
0.886198
0.951278
0.842135
0.734245
0.939526
0.838821
0.992612
0.967492
0.871939
0.77542
0.735663
0.648721
0.840259
0.804908
0.904633
0.515719
0.726922
0.495454
0.662329
0.846271
0.639655
0.826392
0.621295
0.65184
0.578435
0.758989
0.801108
0.826029
0.762076
0.704753
0.721045
1.2517
0.978907
1.16512
1.21968
0.979586
0.930391
0.872079
0.889052
1.08605
1.21766
0.790735
0.754613
1.01045
1.00884
1.18811
0.971436
0.646053
0.536729
0.685123
0.62224
0.619266
0.679144
0.659732
0.834174
0.801656
0.643298
0.71954
0.767936
0.626961
0.77587
0.817341
0.538642
1.2993
1.00958
1.19188
1.12449
0.713044
0.644562
0.466676
0.916436
1.15967
1.09564
0.900171
0.852061
0.778128
0.883051
1.23641
1.08715
0.635029
0.626367
0.768213
0.556596
0.620043
0.755757
0.744591
0.761909
1.21741
0.974106
1.31199
1.08321
0.768397
1.29542
1.33355
1.46417
0.91839
0.832329
1.32037
1.26032
0.511358
1.42155
1.35485
0.892212
0.812937
0.893085
1.02584
1.00681
1.04883
1.23146
1.40161
1.09853
1.1015
1.10736
1.20513
1.12788
0.961264
1.14702
0.693956
1.41688
1.10137
1.36961
1.41296
1.6209
1.05031
1.08187
1.21288
1.23563
1.22198
1.10905
1.3805
1.68854
1.90605
1.59781
1.65437
1.3339
1.1429
1.41156
1.37678
1.66449
1.8049
1.10097
0.735914
0.788255
0.907078
1.30289
1.31935
1.52265
1.37575
1.22734
1.49
1.1209
0.64715
1.08546
1.04619
1.4764
0.727455
1.81643
1.11399
1.17759
1.0839
1.28757
0.903493
0.444983
1.72896
1.21801
0.920291
1.3855
1.7001
1.62577
1.4219
1.49037
1.22003
1.49127
1.62134
1.666
1.80591
1.61723
1.44716
1.42811
1.7809
1.73756
1.77515
2.00167
0.969528
1.36088
1.38927
1.48584
1.6673
0.925583
1.48223
1.96601
1.69179
1.18515
1.1639
1.40893
1.46106
1.75564
1.17497
1.49461
0.75186
0.922956
1.25678
1.89385
1.59956
1.43039
1.46382
2.33696
0.871518
1.39998
1.42717
1.35739
0.889081
1.35175
1.29238
1.15905
1.28765
1.31532
1.42006
1.71596
1.64927
1.82286
1.22178
1.50251
1.62032
1.75173
1.47367
1.70429
1.16463
1.49877
1.47751
1.49519
1.56727
1.48725
1.80693
1.55872
1.72917
1.79217
1.13014
1.54136
1.72578
1.49665
1.3738
1.43413
1.46297
1.48779
1.14531
0.96304
1.03795
1.40517
1.58523
0.989216
1.25193
1.34177
1.20825
1.26301
1.34786
0.899525
1.04824
1.4328
1.31811
0.47768
2.15424
1.80015
1.56131
1.70695
1.76137
2.11341
1.89976
1.6985
1.23411
1.57114
1.54213
1.62536
1.56112
1.60296
1.79234
0.776552
1.19322
1.33207
1.05809
1.89078
1.24494
1.20356
1.00238
0.958767
1.24189
1.41428
1.38545
1.23469
0.923328
0.870801
2.00119
1.82525
1.75357
1.798
1.65834
1.25643
1.68836
1.67005
0.935279
0.810836
1.05923
0.798014
0.730598
0.86236
0.890567
0.911055
0.954919
0.757651
0.880849
0.934633
0.800746
0.949835
0.906901
0.940952
0.819996
0.837633
0.96966
0.748161
0.893645
0.834142
0.766053
0.737983
0.68612
0.783348
0.678856
0.756836
0.58749
0.813957
0.83242
0.793833
0.764675
0.805029
0.808816
0.756119
0.780609
0.779293
0.800963
0.885326
0.757013
0.815585
0.96353
0.708555
0.830588
0.840122
0.706339
0.766306
0.639074
0.536736
0.760623
0.67802
0.759237
0.950298
0.969356
1.00781
0.578447
0.987163
0.867267
0.784934
0.87092
0.824832
0.911385
0.755848
0.801602
0.79486
0.717844
0.757907
0.669577
0.902933
0.838446
0.785453
0.831935
0.785633
0.840381
0.801273
0.823331
1.03905
0.916792
