1.0111
0.785774
0.738908
1.65142
1.9704
6.79748
1.31183
2.87525
1.14242
1.15875
0.167616
1.52332
2.00524
1.76739
0.526707
2.25571
2.03661
0.248688
0.611459
1.73065
0.608195
1.00663
0.556826
1.33962
0.425291
0.471554
1.74784
0.577546
1.08319
1.49912
1.78046
1.77795
1.92621
2.27061
0.359548
1.44378
0.243647
0.719155
0.621897
1.45985
2.88779
0.766937
1.92528
2.16564
1.69637
1.53867
3.97482
2.46085
2.404
2.27568
5.59643
3.2019
3.08609
2.22776
2.0927
2.25515
2.7229
2.61387
3.83601
4.00819
2.39078
1.93206
2.0372
1.49023
3.16961
1.52519
2.44496
3.82047
2.4936
2.61244
2.64418
3.07987
5.47997
1.46367
2.21764
3.79279
2.9226
1.79031
1.74097
2.91644
3.26477
3.01542
1.55172
1.34789
1.5025
3.21188
3.44912
3.26825
3.40149
2.42362
1.90155
3.18425
4.76067
0.818313
1.97893
3.667
2.57069
2.97663
3.6947
3.8879
1.29114
3.40171
3.75115
3.01452
3.70217
2.36522
1.96248
3.85456
2.42611
2.63919
2.43829
2.55196
1.55666
2.46359
3.1245
0.827508
2.23357
3.54966
1.23245
3.0918
2.6208
2.48002
2.7355
3.60343
2.52738
2.92452
2.26236
3.14404
2.33693
2.86293
2.4605
3.10783
4.91145
2.34481
2.97106
2.59165
2.26957
2.46025
3.95548
1.50131
2.01821
2.09368
3.823
1.73786
3.56154
0.961743
3.27798
2.72217
2.06632
3.28035
2.22093
2.98485
3.41267
2.34063
3.75975
2.44045
1.61933
3.08432
1.88654
3.92538
2.33332
3.12641
1.83207
2.85743
2.42431
2.3657
3.19185
4.65278
4.1967
2.16388
3.09126
2.39888
2.72642
3.61983
1.47341
1.83923
1.2116
1.57337
2.24301
1.77357
2.01968
2.19228
3.37495
1.42047
1.89468
3.01498
2.62274
2.13144
1.84757
1.04162
2.28113
2.14446
2.03276
1.83626
1.42848
1.80474
2.20739
2.04802
1.16965
1.9319
1.18822
1.3221
1.09646
2.05021
5.27823
2.28944
1.2684
2.3378
1.9476
2.13645
2.16967
3.07685
2.47815
2.35833
2.37332
2.63403
1.56587
2.07821
1.55965
2.02322
1.03677
1.95093
1.45602
2.37217
2.12155
0.964782
1.86212
2.05316
2.30425
1.05761
1.15429
2.00069
2.09519
2.08051
2.064
1.80501
1.89575
1.90005
1.55285
3.92193
2.94754
2.10445
1.54992
3.48251
1.84322
1.42399
2.12616
2.6041
2.3288
1.04685
2.03762
1.8311
2.23219
1.43839
2.34671
1.67602
0.79332
1.77393
1.71585
0.966694
1.20114
1.64393
2.19904
2.2384
1.71562
0.652301
1.38503
1.40456
2.37165
1.37094
2.31683
2.24198
1.82387
2.48706
2.66418
1.42797
2.17634
2.25953
1.78974
2.09449
1.0328
2.45689
1.01967
1.33161
1.93177
0.869312
1.92975
2.32701
0.666856
2.79469
0.454447
1.06702
0.531839
2.02045
1.46188
1.2082
1.15936
1.41845
0.764335
2.46501
0.829283
0.442042
0.29433
0.549656
0.620592
1.66401
1.40632
1.48619
0.973459
0.611874
0.927481
0.863912
0.725324
0.527757
0.547502
0.554698
1.19349
0.918543
0.714607
0.614671
0.635468
0.50423
0.569968
0.564823
1.24995
0.627909
0.532143
1.15031
0.72681
1.16756
1.22716
0.521092
1.64859
0.428155
2.17626
1.0462
2.2471
1.14316
2.53379
1.44725
1.65177
0.905652
0.523326
1.19816
1.16464
0.983686
0.905693
0.910286
0.771518
1.40379
0.686826
1.81036
1.21404
3.25395
0.883352
0.627687
1.49527
0.502594
0.709165
3.02025
1.09286
0.454448
0.656566
0.889275
0.631321
0.452831
0.390834
0.515008
0.424427
0.401851
0.448004
1.22158
1.4821
0.652341
