6.08906
2.91794
3.15676
4.36438
3.73505
6.21658
3.84579
2.21812
3.53896
6.21849
3.52383
3.8008
5.77085
2.64544
3.65778
4.41535
2.96933
2.75433
3.88879
3.03018
3.07951
5.52887
4.19176
3.88791
1.07821
1.14823
2.94063
3.56046
2.7729
3.79991
4.17907
4.28367
3.89403
5.65466
6.76348
5.78922
5.88552
4.67424
3.61988
6.38252
6.13773
5.99323
6.15803
5.47605
5.90635
5.19501
6.39785
5.54653
4.55892
5.02789
5.50094
6.34696
5.82192
3.55116
4.8692
2.55523
5.45513
5.92018
4.29394
4.80494
6.38986
6.19355
5.8949
4.81994
3.71706
1.90739
5.57545
4.13681
4.0712
4.3656
4.8117
4.63531
4.90804
4.21286
8.42199
3.836
5.75057
4.67258
4.43788
4.8918
2.50702
5.36312
4.58591
4.73653
5.32149
5.80635
3.44758
3.65541
1.95899
5.31814
2.44843
6.00181
4.97981
4.46359
4.09431
3.21581
1.96208
2.14784
4.36696
3.90734
5.19212
5.71371
2.4227
3.34097
3.04643
4.88994
3.55407
4.27677
5.31567
6.78195
4.67275
4.45609
4.29109
4.95973
4.17456
5.00666
6.19655
4.81366
3.03042
4.44703
3.57276
4.16732
5.0077
3.52795
5.64429
4.33821
5.79717
3.70856
6.15038
6.13404
6.23795
5.6384
6.23894
7.18431
7.35211
5.8762
4.89092
5.52609
6.27486
5.92546
6.29197
5.9513
6.4135
5.7822
6.42646
5.58567
6.70192
5.71127
6.33277
7.03683
6.162
3.68902
6.04753
5.57839
6.6182
4.9519
6.29329
5.80118
6.36374
5.59568
6.33828
3.72269
5.7612
4.21977
3.79659
4.57509
2.96508
3.65929
5.35462
3.18287
3.194
2.79656
3.51986
4.58014
5.75752
5.05624
4.52349
4.50695
4.55634
3.23849
5.07647
4.36959
5.4319
4.15456
4.6233
4.95838
6.06253
4.22629
5.04266
4.41513
6.79382
3.47884
4.7717
5.76356
5.44513
4.93657
5.48301
5.49395
6.25036
5.99228
5.73786
6.41228
4.96487
4.69128
5.94173
6.1008
5.22668
4.45702
1.59818
5.19169
5.37452
5.47015
6.67736
6.34766
5.09348
4.70689
6.07457
4.06701
6.27993
5.59253
5.90902
6.68989
6.15696
6.77856
6.46998
2.8236
5.00526
1.91272
3.81009
4.14357
3.84941
4.46051
5.33727
1.11669
3.98465
2.10973
4.28633
6.53702
3.67786
2.73395
3.23355
3.90799
3.11698
3.5768
3.00972
3.07802
4.08877
3.06278
4.90626
6.02069
3.59156
4.39237
4.58916
3.89392
3.49933
3.17346
1.02648
1.15581
3.95558
3.51919
1.17408
6.99778
1.02186
1.05218
2.40785
5.30149
5.39202
2.92163
1.73755
2.05993
6.11902
2.25344
6.11479
5.36829
1.89617
2.34699
4.24405
5.14668
5.43971
7.09684
1.59584
1.30441
0.943034
1.15423
4.36104
1.44874
2.16598
1.46052
7.03482
5.61373
4.35965
4.23631
5.61463
3.90976
6.9009
5.459
3.56273
5.54433
3.27496
5.1376
7.01235
5.35402
4.72878
4.01654
6.14388
4.68054
6.07262
7.00444
6.17388
5.92018
2.88483
4.72617
1.68901
1.97666
4.23371
4.52905
6.24484
5.60202
5.69605
4.62265
5.64226
5.53979
6.18878
6.31191
3.39584
2.55188
5.87747
4.58193
0.891467
5.86874
3.7336
4.93699
0.918659
2.95389
3.8688
0.896786
4.61176
6.73996
5.2038
3.28132
5.07297
2.27276
5.70739
6.06533
6.67052
1.30645
5.4079
0.853774
2.40116
5.27774
1.77576
4.79285
5.05647
2.01496
2.28109
3.71994
2.36574
7.1377
5.26346
2.39702
4.09007
6.22077
4.46853
3.331
2.45993
2.52088
1.85162
4.41886
4.59712
4.27696
5.39701
0.764754
3.42222
2.63771
4.29638
2.39471
1.05894
1.22781
8.61821
1.83081
6.1225
6.57988
0.797787
4.18575
1.15141
1.05032
3.46203
1.22858
3.61239
5.63381
0.969271
4.44904
5.5138
4.58348
5.0136
5.6654
3.54874
6.40782
5.79289
6.56483
5.34107
5.34374
6.05936
6.37219
1.98446
6.51864
5.05135
7.18321
1.03607
1.00576
0.772799
0.932297
2.95654
5.63558
1.34194
1.24884
6.48815
7.10644
4.45085
6.03254
7.10987
5.86065
4.74657
5.47875
6.08509
6.38136
4.87749
5.09809
4.4297
5.38843
6.35019
6.02905
5.80397
3.69876
5.95817
5.474
5.99701
3.71704
6.68724
4.40475
4.39396
1.96345
4.12588
3.22881
4.10259
6.80827
7.06637
6.22381
4.81729
6.11062
5.45095
5.34362
6.66798
6.57212
2.14716
2.81755
5.60284
7.08649
6.07385
6.98339
7.0277
6.06987
5.49959
5.24696
6.25836
7.25576
5.47038
5.12846
7.31536
5.33255
6.1522
6.83935
5.44153
5.95267
2.67242
1.54469
1.13004
2.18835
5.24885
4.15573
3.14427
1.96757
6.33567
4.355
5.98644
5.32803
7.13336
2.50992
4.32897
4.22579
6.9401
4.42069
6.18969
5.93549
4.51834
3.61606
5.51784
5.55971
4.5767
5.75296
7.24213
5.20061
4.90521
4.38968
5.44433
6.12727
4.95926
5.42578
6.87132
6.13159
4.8835
6.83829
1.71022
1.49195
1.71924
1.26877
5.47605
2.12709
0.928459
0.953693
3.37404
4.25403
5.10323
4.18187
1.38419
4.15
1.81134
2.39648
5.51742
5.1767
5.84788
5.5892
1.54134
2.66946
3.05635
3.51294
1.01503
1.21856
1.13105
1.10221
4.2738
1.34151
2.30662
1.57938
1.19958
1.61434
1.94805
4.96711
1.16176
3.29495
4.05298
2.34401
4.03944
1.5411
2.18446
2.31198
3.38057
2.63649
2.5314
1.79941
6.03751
4.13068
1.05914
4.12792
2.69257
2.80898
2.62026
3.32524
2.68783
6.03716
2.35961
1.86396
4.05478
2.72414
2.32109
1.59117
6.70678
3.77757
2.08118
5.01786
1.48573
4.90032
1.45158
0.821465
4.74879
6.58985
5.05107
3.92268
1.0832
5.67953
1.04103
2.85084
4.65461
4.89951
1.03258
1.08674
1.74643
2.38766
5.02476
4.78804
4.43058
1.7315
4.42352
2.19748
2.58832
4.48345
6.22784
6.39354
3.36277
5.631
3.00925
4.69326
4.61695
5.95949
4.04933
4.381
2.86578
6.41369
3.69123
4.32575
4.36538
6.0307
5.79575
4.28061
4.41258
5.60078
5.6766
5.77119
6.80574
5.71646
7.29579
3.22932
6.51959
5.43258
6.91038
4.34862
4.06494
3.48862
3.38811
3.03665
4.86471
3.00945
3.49624
2.28415
1.97611
4.05545
2.1767
2.03518
6.93153
3.52325
4.66883
6.91448
3.74983
3.63813
6.52256
7.00764
4.78386
5.7423
1.52874
1.31933
5.54878
5.61915
1.49012
1.6896
4.47802
2.56972
4.95973
6.99655
6.75409
6.71205
7.36142
7.13561
4.55893
2.4829
7.27145
7.43416
6.74164
5.49342
4.48416
4.45424
4.24821
4.24386
2.3816
4.43782
4.98073
5.68399
4.79728
5.21627
4.52024
4.70508
4.39667
4.65255
5.05127
4.70208
4.71732
4.3023
4.45276
7.21472
4.25167
3.02045
4.78729
4.41552
6.03073
6.15744
5.7719
4.92952
5.34217
5.17011
4.5837
4.59746
4.92683
5.17027
4.95006
4.9547
4.31067
4.12835
6.68295
6.67853
6.65599
6.89312
4.38416
6.50555
5.45506
5.51095
4.58677
6.34871
4.06646
3.96466
4.62219
4.33139
4.66626
4.35308
3.96031
4.27968
4.84916
4.74687
2.772
3.12152
3.79651
7.5206
7.27473
6.93314
2.82262
3.47285
3.1157
2.68988
4.25462
4.08007
6.99122
3.94364
2.12832
2.66136
4.03428
7.33116
7.22309
6.08203
6.44947
4.7528
5.10791
5.74075
3.88283
4.69806
4.93777
4.78577
3.73179
6.82081
2.65327
2.72771
3.18828
2.56107
1.48347
1.94508
4.84123
4.64184
5.90455
3.06517
4.13498
4.42344
1.51023
3.86654
5.35818
4.80598
5.94925
6.15395
6.72369
6.7871
2.14603
2.22441
1.96644
1.4582
4.06352
4.40317
4.94744
7.09893
4.64325
4.47509
1.99195
2.62054
4.52767
3.12128
0.676804
0.629205
0.713452
0.401764
0.524978
0.416314
0.72942
0.686586
0.393458
0.444774
0.484194
0.445957
0.572928
0.447394
0.378863
0.563651
0.370271
0.372827
0.475739
0.349151
0.333404
0.356381
0.527255
0.716967
0.867476
0.743675
0.515474
0.6945
0.538884
0.505356
0.508507
0.49691
1.40317
1.20348
0.791111
0.905783
0.741469
0.842889
0.955014
1.05185
0.509111
0.474317
0.705381
1.40036
0.532923
0.431268
1.00691
0.679634
2.69984
2.5734
0.507394
0.439988
0.562625
0.475017
0.557744
0.394018
0.954403
0.671358
0.753296
0.834612
0.653264
0.623336
0.631298
0.753039
1.52917
1.15077
1.02302
1.06201
1.52934
2.7471
3.24583
2.68784
2.3805
1.58227
1.23075
2.40813
3.53059
2.53196
2.01396
0.616256
0.659427
2.98516
1.16189
0.6544
0.93851
1.17099
2.59952
1.00085
5.9468
1.26733
1.96572
3.52147
1.60898
3.51264
3.23773
3.55265
1.06385
0.811651
0.814925
0.539218
0.614285
0.575743
0.626696
0.768885
0.464904
0.469952
0.616005
3.58915
0.608238
0.648019
0.328
0.531848
0.847593
0.578049
0.558323
0.562281
0.593659
0.58078
0.674074
3.58886
1.07621
0.746586
0.603787
0.809469
0.595915
0.743067
0.523747
0.64524
0.876988
0.677932
0.411214
0.561354
0.562944
0.692432
0.752073
0.68675
3.18156
3.5391
0.589069
3.32186
0.406042
0.748832
0.510623
0.480161
0.400581
3.19691
0.430529
0.319542
0.551508
0.531656
0.717776
3.32587
1.00529
0.712801
0.846828
0.705888
0.504155
0.470179
0.533881
0.593719
0.936452
0.71062
0.481547
0.444168
0.486805
0.46055
0.578119
0.621189
0.422027
0.324951
0.322071
0.40082
0.474953
0.385338
0.504016
0.35035
0.663501
0.426847
0.546595
0.195384
0.514426
0.467031
0.605378
0.436938
0.76716
0.543489
0.74107
0.681547
0.351867
0.411348
0.752031
0.463123
3.41732
1.39597
3.24496
2.28206
1.55479
3.83964
1.97194
3.86189
0.666714
2.98315
2.59897
0.834904
2.10615
1.96638
1.68401
1.00266
2.38308
2.0027
1.80014
0.611459
0.912302
2.53894
1.04875
2.41169
1.53584
1.59105
3.26595
0.979997
2.46912
2.75257
1.03198
0.974882
0.74434
0.722424
0.751616
0.529692
0.620313
0.617392
0.84125
0.731303
2.66313
2.68616
1.16513
0.71588
0.542515
0.482704
0.391712
0.27214
0.601727
0.672524
1.28808
0.636211
0.965252
0.518815
0.913486
1.58365
1.25682
1.24411
0.878214
0.878154
0.705876
0.822939
0.632857
0.725096
0.484242
0.637735
0.479642
0.94658
0.921582
0.773187
0.357615
0.392013
0.888493
1.08787
0.706817
0.569869
0.544527
0.633516
0.835022
0.713332
0.671328
0.616572
0.862661
0.652593
0.813479
0.869382
0.836095
0.694574
0.353425
0.449074
0.697039
0.501822
0.835826
0.628437
0.39601
0.567153
2.50943
1.35354
1.4463
1.52979
1.06182
1.71977
1.83697
2.23792
1.63378
1.06319
0.741086
0.861411
1.39501
1.42678
1.51208
1.20379
0.744325
0.768439
0.653394
0.890155
0.901848
0.708457
0.750104
0.536546
2.0218
1.99019
0.334817
0.358883
0.860254
0.458968
1.57048
1.38266
0.919207
0.739787
2.14485
0.99861
4.15045
2.84243
2.881
2.33421
1.49764
1.68668
1.73413
3.86982
1.26826
3.64131
1.32875
1.64125
1.75238
1.84807
2.61854
2.04338
1.14915
2.48862
0.801241
2.44597
2.35398
3.62507
4.97549
1.17007
1.09774
3.25833
2.42011
3.13692
0.47756
0.506068
1.11437
0.809797
0.634178
0.954313
1.02412
0.661246
0.479067
0.588401
0.869064
1.08556
0.911924
0.953142
0.738258
0.539794
0.592295
0.73473
0.757076
0.753176
0.842077
0.727053
0.779171
0.783758
0.419996
0.694309
0.774108
0.95902
0.851789
0.728646
1.10631
1.23957
1.73118
1.1407
1.34261
0.77618
1.32481
0.651567
1.48732
1.54161
1.18148
1.00887
0.658865
0.579481
0.923833
0.733103
0.885863
0.77642
1.17365
0.463566
0.917157
0.514478
0.910226
1.02738
0.654811
0.75148
1.95338
1.61496
0.706724
1.53838
0.843856
0.9965
1.34531
0.705558
0.25282
0.463631
0.409191
0.355065
0.946995
0.550861
0.862881
0.70449
0.678352
0.622707
0.836352
0.556301
0.673744
0.613635
0.690829
0.545925
0.688724
0.971761
0.776231
1.38005
0.582779
0.563004
0.835023
0.549715
0.433205
0.625141
0.550149
0.44859
0.856717
0.515472
0.43889
0.993673
2.35703
3.84263
5.97776
1.4702
1.10182
2.61272
6.26927
0.985562
1.77387
1.36107
0.793652
2.52179
0.904691
2.50426
1.58721
1.98416
1.49903
1.68908
1.32971
1.64239
1.28854
3.66804
1.09938
1.73333
0.828387
2.94309
2.89403
2.7545
1.07102
2.8468
2.14598
0.97079
0.41853
1.75376
0.357051
0.539169
1.12801
1.02585
0.681393
0.267502
0.463919
0.630812
0.630541
0.585044
0.573957
0.691698
0.434371
0.729556
1.10179
1.24905
1.66264
1.40164
0.880935
1.25431
0.685276
0.824499
2.4902
1.17284
1.90676
1.40772
1.40161
1.80926
1.78746
1.62099
1.40691
1.48286
4.79092
4.88199
4.60579
4.46155
1.20523
1.30565
5.85795
2.17297
4.73287
4.83283
2.07481
6.87695
6.12249
4.37741
1.19837
1.80623
3.43745
1.14918
6.57822
6.43845
1.75106
6.46336
1.23828
1.25369
1.39506
1.17268
2.82297
4.52722
4.56568
4.5235
1.95073
1.93478
3.19181
2.73788
3.38494
3.17381
2.14691
1.62124
4.8725
4.2719
4.29099
4.20191
5.72567
4.78225
3.65364
2.66551
4.77997
4.11428
6.39754
3.09731
3.66859
2.6984
1.09676
3.81318
1.28172
1.0386
1.91335
2.78625
2.95994
5.80126
7.46193
6.41179
3.02689
4.38669
5.26919
4.6358
4.33735
4.66042
1.97265
2.53469
4.40434
3.61413
3.90842
3.97285
3.7429
3.35776
3.19788
2.77663
4.63537
5.2999
3.6004
4.5442
2.52079
4.21842
3.74225
2.94131
2.492
2.32355
3.67736
3.23935
4.73605
5.67772
7.09517
3.53859
2.45178
0.997119
3.04239
5.50959
4.50084
4.45094
1.14766
1.06842
4.60688
4.71603
1.4631
6.91724
6.72483
6.98425
3.10438
6.5095
4.64299
4.5107
6.79557
6.5377
6.7025
3.10962
4.92608
4.7277
1.4058
1.14064
1.06124
1.08013
4.50614
1.3399
5.1337
5.11186
2.21655
1.38058
6.39244
5.89375
2.32402
3.48677
1.1112
1.30758
5.32181
5.57889
5.20446
5.10751
3.58461
3.2827
2.50534
3.11093
2.45744
5.16737
2.11105
2.57996
6.44321
4.36128
5.00556
5.41782
1.3097
1.1108
1.10382
1.60604
2.32914
1.88409
4.42534
5.7765
1.23893
1.23619
1.6192
1.59798
2.86877
1.22432
1.14491
2.31642
1.16491
1.79105
1.51285
5.85483
6.64362
6.59229
3.5992
3.56538
6.07891
1.71291
6.0753
4.77483
1.68288
4.50689
5.45067
4.74499
1.24892
1.32058
1.23124
1.46215
1.27003
1.83634
4.51253
3.00305
3.22092
2.84836
4.98127
3.55379
4.52442
4.35294
5.74131
5.62072
4.03258
4.82918
5.51293
2.69323
2.67331
4.4524
3.6244
4.5683
2.4347
2.46344
3.51013
2.55569
3.81946
3.36414
3.86326
3.9218
2.14274
4.38474
1.98352
2.97271
4.35729
4.64534
8.89989
4.75281
1.3532
1.09556
3.23441
1.98223
4.54265
1.87311
1.83641
1.8199
4.0419
4.23184
1.05342
3.5267
3.31456
2.90937
4.22199
5.51007
4.68864
4.43899
5.91659
2.06941
2.81446
4.08282
4.12404
3.95541
2.99734
1.75437
2.11455
2.42861
3.80347
3.41127
3.22023
2.54369
7.07341
6.98771
4.00866
6.90781
4.98737
1.22216
0.869799
1.65964
5.32081
6.54045
4.37121
6.81123
2.86255
4.65393
6.50175
2.05412
4.52367
5.08056
4.64009
4.769
1.88803
4.80939
4.79938
7.09546
0.645949
1.2661
0.722256
0.642192
0.855323
5.11396
1.52245
0.891046
1.33405
6.40484
4.548
2.53321
3.70255
4.22754
3.80664
6.87658
5.93107
4.61902
3.44742
3.84539
3.6925
3.99523
5.15653
4.13743
4.4843
6.99249
7.02126
4.72555
4.18578
4.44769
4.10994
4.21771
6.70683
5.37694
7.05121
7.20153
4.82406
6.94765
4.18521
5.15033
0.950497
1.03873
1.4182
1.22659
0.918021
1.17861
0.790293
0.918029
3.38797
3.11124
1.4663
1.32248
1.23544
1.06886
1.43786
1.36289
1.88479
3.63458
3.55934
3.89525
1.07911
1.08775
1.34796
1.21312
0.848017
2.56463
0.779499
0.771734
0.893653
0.86024
1.3348
1.0063
5.75789
6.3368
5.0464
7.20212
3.2656
3.51997
2.08109
5.40307
4.38039
4.4814
3.96206
2.85752
4.71015
3.05801
6.4738
4.58467
1.70523
2.81403
1.7284
2.92031
3.39642
2.925
3.18782
3.23179
1.3262
4.022
1.83126
2.58565
4.35435
2.50607
1.40272
4.12429
1.82248
5.32421
5.53887
7.07028
4.08717
7.10348
7.14742
7.20172
7.02345
6.97056
4.37451
4.08634
4.17969
4.32077
6.95354
6.96178
5.99611
6.62921
4.11767
3.83999
3.89127
3.69204
3.49363
3.81878
1.29927
2.83326
6.02397
4.2414
3.51814
3.24616
2.28521
4.70195
0.710219
1.06087
1.67861
5.51657
7.23668
5.12524
0.605587
7.44491
4.72844
6.72939
4.84033
4.53833
1.90531
3.10043
5.17089
5.43859
4.12792
6.81087
6.85034
7.5023
7.8658
6.98746
6.84267
6.91528
4.95925
1.13673
1.04735
6.93717
5.00844
1.61164
6.85877
1.32299
1.36105
1.82635
1.41207
4.9135
3.78248
2.63385
1.87356
2.47875
3.88177
3.37637
3.03314
3.01419
3.38953
2.98951
3.61993
3.116
4.43163
4.26024
4.64245
4.3506
3.8699
2.40434
3.60834
3.87907
5.19868
6.38106
2.12112
3.56271
3.86124
1.56963
5.04308
7.10427
0.807024
0.822204
1.24835
0.984618
0.885695
3.02416
0.761532
0.786062
1.72433
3.43038
1.51842
1.33258
1.14251
1.08339
3.51792
3.87778
1.81545
3.06015
1.55713
1.34309
1.21048
1.17262
1.46177
1.2941
0.945018
0.951612
0.720727
1.07888
0.924581
1.16784
1.32551
1.24844
6.09338
4.00643
6.25547
6.13755
5.91665
4.87439
6.02588
2.27661
3.95804
4.68742
7.07151
6.28299
7.05922
3.99151
3.95036
4.34185
5.90992
6.24996
5.85346
4.86198
6.17914
4.91195
8.24342
6.05591
6.99078
7.81489
4.97168
5.76126
5.01631
7.23489
5.14475
2.37568
4.94747
3.44122
2.88397
2.65088
3.36477
6.4017
3.68356
5.55029
6.1127
3.28702
3.37448
7.03462
5.79255
5.63728
7.27821
8.02068
6.51829
6.06948
4.51019
6.46614
5.11227
4.35393
5.21898
3.42588
4.84995
2.88395
6.05111
6.57734
6.52016
2.28603
3.41304
3.48005
3.47714
2.90754
3.05505
4.93843
2.41183
3.03365
3.11031
2.62409
3.11412
3.12961
2.681
3.33077
3.0702
2.92055
4.00457
3.35178
5.5757
6.97858
2.47502
4.06197
4.93807
4.02731
4.91095
7.065
6.14697
2.1866
6.36554
6.66765
6.26295
4.22918
5.36017
6.84309
4.94997
6.68662
4.73793
4.64756
4.63646
2.44934
4.32343
3.91842
4.14939
5.53206
6.63036
5.16891
4.2531
4.83449
4.6101
6.57065
3.78315
4.47615
6.22628
3.63062
2.82606
5.58091
6.19186
6.89023
3.48794
3.47493
2.08942
6.77629
4.95302
4.55688
6.54647
3.61079
6.06139
6.90008
5.10989
7.89212
6.17869
6.60597
4.99038
5.18207
3.0222
3.23907
5.43021
6.65182
3.28827
2.65691
3.15435
6.10216
4.49633
5.77785
2.85393
3.57708
3.41996
4.93241
2.36193
3.8992
5.61521
3.85815
3.52188
4.50898
5.34643
5.46016
7.03709
7.11623
7.11124
5.4482
7.01971
7.00942
5.05219
4.12167
5.35736
7.13356
5.02863
7.03808
6.87208
6.59996
6.26909
6.60989
4.35285
4.10674
3.62623
3.96445
5.78866
1.26629
5.98037
4.4193
7.09635
3.68885
3.31312
3.49095
5.59718
1.10813
7.07238
6.71724
1.85259
6.91301
7.15779
1.08259
1.27729
6.36284
6.89975
1.27095
6.20988
8.12631
6.81962
6.87204
6.29546
7.09132
6.94978
6.94359
7.05814
7.81393
1.34701
3.87859
6.96327
7.24715
6.96396
0.576283
1.6571
8.77009
1.05078
6.51216
6.44495
2.84393
5.47006
1.72183
3.94929
6.09397
2.9125
3.95245
7.12887
5.56156
5.99461
3.79932
5.78866
6.0939
5.72809
5.36468
5.95041
6.94518
7.21868
7.07982
6.62822
4.2634
4.51734
4.21603
5.36981
6.65111
5.32017
7.17265
7.15927
4.29806
7.09613
7.12817
7.2918
0.988773
5.14361
1.76456
1.15566
0.879736
0.887696
0.872842
0.853707
6.70003
1.21731
1.24663
4.56665
0.978589
4.61112
1.26156
1.19502
6.52465
1.31062
5.8801
1.24885
0.978253
1.00765
1.12738
4.56666
1.00049
0.796379
0.860827
0.868099
3.04367
0.965031
5.1621
0.926711
6.8022
6.76579
5.08168
6.47078
6.03534
7.01409
5.96138
5.20243
6.45328
7.16837
7.02426
5.9557
4.64781
6.65492
6.8616
4.90159
5.79618
6.05338
5.956
5.9284
5.81088
2.88651
5.63195
5.82776
5.6773
5.73668
2.26164
5.86699
6.58441
0.867456
1.35127
5.6423
4.84419
1.38107
1.61803
0.640905
7.91382
0.759644
1.2949
7.3898
5.66862
7.5625
1.25477
6.05134
0.48939
1.39916
5.91402
0.55534
0.79309
0.96732
1.15422
1.5991
2.59785
0.800774
0.848961
1.06305
1.08058
1.6898
4.46765
2.02453
1.40088
3.92176
4.28532
8.23443
5.85676
1.98946
2.55239
4.44935
5.52089
3.14703
2.6425
1.62572
2.35067
4.52781
5.51557
0.771411
4.75795
3.18089
3.61499
5.17349
4.99881
4.53187
0.499872
3.30119
1.05324
4.04801
3.15215
0.587466
4.92675
1.24578
1.0734
0.958575
0.920243
0.487619
0.66504
0.760125
0.936081
0.958226
0.804464
0.476879
0.530686
0.631799
0.448505
0.939965
1.0105
0.585994
0.989016
0.658038
0.646834
0.519416
0.525972
0.423278
0.412939
0.548061
1.0227
0.857769
0.684179
0.511625
0.617076
0.494318
0.599946
0.569416
2.11742
0.764538
0.590859
0.895577
0.997185
1.08918
0.823966
0.460189
0.456772
0.377677
0.558351
0.636438
0.590178
0.681808
0.681695
0.652336
0.515185
0.712535
1.18171
0.605263
0.685353
0.519362
0.557923
1.27732
0.804631
1.74503
1.11356
1.00967
0.792862
0.960209
0.762543
3.75994
2.33272
3.02894
1.93747
4.00106
4.85559
5.66735
4.25683
1.14182
1.23266
4.64229
1.69794
4.56559
4.5056
2.12335
2.32005
0.93334
0.470237
2.58335
3.05093
1.64278
1.67333
3.52428
3.2369
1.59077
1.29934
2.73473
5.56
4.56176
3.89095
1.97331
1.13433
0.101502
4.1574
2.42924
2.6306
0.531825
0.120284
1.5585
0.167074
3.37368
2.7069
1.52789
0.804918
1.98261
2.5702
2.85676
4.56969
0.862613
0.875471
0.547314
0.690208
0.455917
0.664242
1.41341
0.936638
0.113857
0.273597
0.218585
0.163062
0.449094
0.255634
0.515801
0.303444
5.9457
3.63494
2.88544
4.22242
0.367863
0.445952
6.99679
3.87717
2.58809
6.19813
0.510443
0.165022
3.66389
0.206756
3.12312
4.68358
2.45039
0.16905
2.84076
3.49287
0.175407
3.38265
0.0991007
0.327832
2.24216
3.20846
4.25476
3.68974
0.368411
0.511084
0.368191
0.475911
3.07327
2.77774
2.33152
6.84206
4.34945
0.553312
1.69913
2.59679
2.30661
2.2257
0.60239
2.31949
0.816826
4.26925
5.43625
2.44752
0.105686
0.246195
0.487908
0.277033
0.499766
0.362592
0.0431979
0.15843
1.35873
0.851578
3.35865
0.938402
0.430275
0.649875
0.51961
0.663746
3.78258
2.33366
5.66892
4.27694
4.0082
4.23234
3.04373
4.18148
2.22969
1.31756
0.847072
1.91835
3.95426
3.49834
2.6975
3.27918
0.761183
0.775268
3.51564
3.4039
1.84861
1.9845
2.56559
5.84946
1.15576
1.2178
1.25327
2.1932
4.56411
4.79317
4.62626
4.75058
0.412823
2.12384
1.09022
0.825692
0.896655
1.13624
0.961775
0.62608
1.27152
0.978421
0.961524
0.759266
0.858433
0.678811
1.74567
1.11433
0.665997
0.522974
0.506222
0.500902
0.685783
0.648073
0.66734
0.531596
0.789955
0.682266
0.644279
0.698886
0.706231
0.852482
0.69789
0.710755
1.24605
1.07486
0.944757
0.845194
0.484408
0.753098
1.06055
0.969359
0.546416
1.02512
0.495279
0.591576
0.506638
0.603439
0.836227
0.685424
0.586349
0.765299
0.483259
0.435712
0.390668
0.403033
1.48845
0.604181
0.726113
0.735507
1.06656
0.928765
0.611055
0.529778
0.481958
0.595876
6.2536
6.28417
6.26282
6.14972
7.37267
4.5589
3.8152
2.93093
2.93336
4.85105
5.08316
3.96191
3.20285
3.62491
0.816495
2.55645
2.13656
2.29549
1.59109
2.35222
2.67532
2.65136
2.55678
5.78982
1.37679
5.16935
4.55089
2.26588
3.93963
3.72713
2.01707
1.12209
6.4743
7.01388
3.22071
5.40496
3.59328
1.14661
7.15904
5.33972
1.28169
2.95653
0.872756
0.930627
0.782933
0.861353
1.29825
1.59456
0.971532
0.746846
4.21947
0.695447
2.03029
2.12818
0.750383
4.32302
6.30695
7.10093
1.50415
4.8129
0.726964
5.78944
6.66701
7.71249
6.55316
1.3576
6.28241
7.1953
6.98743
6.22632
6.80141
5.3306
6.38237
2.57648
6.14791
6.63994
6.76677
5.82543
7.1151
6.2319
5.92883
7.4069
0.435373
7.50718
5.69214
6.60106
2.02546
6.57352
6.00218
7.2955
6.49351
6.83488
5.27414
7.09878
7.95525
7.65422
4.02841
5.06891
1.2395
4.96405
3.78653
3.14228
3.15603
2.6713
2.69142
1.14778
5.29527
2.34952
4.79565
2.5361
5.3002
5.03254
3.15163
3.41629
1.19042
3.47739
4.91836
4.37592
2.50593
4.66457
2.10453
3.77049
3.81845
3.59329
3.30133
3.77244
1.16104
1.46064
2.61093
1.00303
2.8094
0.885525
0.484627
0.76103
0.582297
1.00749
5.66951
0.934579
0.401748
0.535461
0.49435
0.609974
2.05949
0.706949
0.439894
0.394663
0.608621
0.443524
0.493704
0.469638
0.361516
0.410638
0.707982
0.537784
0.739979
0.701858
0.508785
0.598109
0.699867
0.591675
1.02709
5.00015
0.817752
0.980373
1.2886
1.11528
6.02269
4.6893
0.691918
0.708379
0.86283
0.748213
1.02467
0.884268
0.675954
0.72745
2.25128
2.28753
5.22032
0.901246
1.08597
4.50019
0.743364
1.4892
5.0456
1.53
2.18164
5.34464
1.242
4.64965
4.23646
2.8027
2.01056
4.91371
1.00021
4.219
1.12557
1.2642
1.34809
4.74566
5.91794
5.89386
1.93568
2.25487
3.59065
3.38135
3.27231
5.94866
0.96088
2.2533
5.77605
4.50905
3.90633
0.738654
1.93568
2.25487
4.69876
5.19243
1.56182
4.69002
4.04334
1.08089
3.90767
4.22985
5.75495
4.8458
6.34358
4.76149
4.6577
4.69289
2.10908
4.75177
1.53103
2.20629
0.891587
7.13758
1.844
2.22245
2.96706
5.92069
0.70481
0.830494
0.695524
0.740641
1.02683
0.899838
1.00042
0.769509
1.04859
4.41022
1.50595
1.30852
1.08946
1.24509
0.830303
1.01454
2.05653
1.35877
0.588545
1.99216
0.579339
2.96462
2.7913
0.98596
0.876756
0.676056
0.712939
0.607056
0.375055
0.420263
1.1807
0.436478
0.452857
0.371693
0.393306
0.43897
0.442274
0.492534
0.603444
0.453087
1.07095
0.757471
1.69104
0.704434
0.498271
0.605069
0.406374
0.542611
4.75696
2.09262
2.79758
1.36272
3.21655
4.01924
3.80723
6.2403
1.07617
1.88493
2.22217
1.96967
2.10403
4.52287
3.07814
1.05708
5.6187
1.11699
5.03845
5.27551
3.71648
2.54084
1.93882
2.34621
4.65668
5.7601
2.70335
3.06736
2.72728
3.07601
1.32585
5.16754
4.9844
3.97722
2.73838
3.33568
5.21824
0.803644
3.98518
4.33067
0.474764
1.05751
0.469977
4.37482
4.56364
4.38602
2.48504
2.19311
1.19324
2.0525
5.10144
0.798733
3.80684
1.05351
0.668725
0.588411
4.75482
4.36063
4.29039
3.99557
3.842
1.32951
4.96863
3.89648
5.52245
6.68004
4.11225
4.84754
3.79685
4.32715
6.79565
5.62636
1.97957
2.31569
1.93074
0.46825
3.39564
2.97815
3.34029
2.97172
5.64303
4.92179
5.8746
5.8769
3.38654
0.701698
2.63227
2.27293
5.24033
6.71653
5.68472
5.58069
4.01092
4.45474
5.23469
6.11255
4.06655
4.4522
4.5591
1.14348
0.859488
4.20223
0.990494
4.16013
1.99372
0.574305
1.3583
2.68376
0.660726
3.69012
3.30265
2.91652
3.43937
2.68949
2.98038
0.629477
2.53115
1.36015
3.53296
0.728136
4.62566
3.50287
4.04458
5.01522
2.01417
0.826708
4.59495
2.37422
0.59738
1.2418
1.53445
0.689689
1.04726
1.06909
0.65531
0.618478
1.12859
1.07725
1.1601
1.1636
1.47032
2.29044
1.66761
1.33089
2.04631
1.45331
1.40978
1.42109
1.56177
1.66372
1.29876
1.18863
0.921448
1.16556
1.25515
1.3128
0.854636
1.54032
2.38103
1.25925
1.76234
2.12625
3.92773
1.89505
2.48548
5.17853
0.749151
2.32965
1.83635
2.96375
5.70237
3.03185
2.02718
2.65416
2.24013
2.48085
1.2694
1.77052
2.33958
1.3906
3.86979
2.34343
1.41332
2.63328
1.53448
1.34255
1.3404
0.794778
2.90283
0.958428
1.87077
1.56593
1.67718
1.54811
1.33108
1.18916
1.34787
1.19112
0.927143
1.10145
2.54456
4.56119
1.65793
1.36963
1.23839
2.02991
1.36096
1.44808
1.18177
1.12213
0.997187
0.993013
1.01984
1.02617
1.17095
1.23697
0.657169
0.66911
1.03706
1.11411
1.11928
1.33355
0.861004
0.887501
0.732275
0.834526
0.939836
0.951695
0.824119
0.811215
0.633518
0.860143
1.1701
1.01031
1.34108
1.22832
0.888768
0.921914
1.09368
0.99934
1.44823
2.03767
1.61849
0.904855
1.05179
0.93805
1.03187
1.13934
0.465114
0.992423
0.638631
0.840477
0.737695
0.997016
0.675559
1.02544
0.642088
0.79349
0.820824
0.783563
0.909065
0.838638
1.06514
0.829372
1.57206
1.17916
1.30378
1.26516
0.968593
1.10309
1.03335
0.992387
2.04829
1.3815
1.09217
1.0964
0.954002
0.998956
1.12412
1.36284
0.797555
0.926142
0.868158
0.906029
0.90881
0.863416
0.832339
0.878226
0.849241
0.897043
0.97392
0.961883
0.811015
1.01425
0.771725
0.795502
1.42277
1.63379
1.09803
1.59644
1.10818
0.922386
1.80578
1.79772
1.26726
0.997564
1.07541
0.959077
0.861374
0.922129
1.25143
1.03745
0.768633
0.835236
0.886843
0.814637
0.825815
0.878616
0.973521
0.82575
1.67615
1.66504
0.926508
1.17449
1.10212
1.19039
1.46541
1.18868
0.742053
0.667571
0.905967
0.991452
0.978695
1.17239
1.02836
1.0983
1.13844
1.11313
1.42358
1.06112
1.02783
1.06519
1.01319
0.994753
2.54321
4.51149
1.36095
1.44776
1.239
1.68803
1.47919
1.47716
1.53247
1.34249
1.89598
1.56593
2.89486
0.957673
1.3393
0.794081
1.2694
1.76756
1.41029
2.62717
3.38626
2.33502
2.33705
1.38936
1.93803
3.18584
2.17717
2.48138
2.01985
2.79712
1.72238
3.0239
1.86067
1.8951
0.748156
2.30524
2.65166
5.23909
1.97138
1.87197
1.25461
0.771433
1.55335
1.34611
1.28583
1.23864
0.759681
0.976916
2.11887
1.43791
1.32662
1.15846
1.77751
1.77521
2.39847
1.52395
1.13002
0.794885
1.40546
0.819317
2.04022
2.07827
1.1031
1.05827
1.10687
0.798279
0.819095
0.568547
0.83169
0.91733
1.32706
1.18225
0.982705
0.827391
0.920522
0.766437
0.8215
0.725923
0.804594
0.813059
1.95592
1.31697
1.31957
2.30306
0.860407
1.08197
0.916333
1.62082
2.1102
1.00821
1.45542
1.01979
1.00468
1.08415
1.34796
1.26916
0.795696
0.560457
0.826204
0.743237
0.89813
1.41008
0.908717
0.583052
1.74187
1.17573
3.17946
2.18636
3.05038
1.8879
6.10405
4.63796
3.56907
0.734954
4.60849
5.20388
1.13344
3.30018
2.0612
3.58354
1.59814
5.71346
1.66827
1.76417
2.07487
2.31569
4.20892
4.6769
1.00363
2.96691
1.81489
4.57616
3.8379
2.21199
4.80995
1.2704
0.959555
0.533731
0.636748
0.448225
0.342537
0.412283
0.436016
0.579773
3.645
0.684073
0.56754
0.592278
0.297879
0.411187
0.877818
0.55489
0.204204
0.215968
0.422518
0.277429
0.255556
0.23121
0.317218
0.250724
0.363355
0.331649
0.306643
0.272985
0.373827
0.276093
0.376276
0.251939
0.555752
0.612632
0.403843
0.500245
0.377654
0.461356
0.66647
0.580936
0.244143
0.199697
0.317862
0.303714
1.46386
0.433645
0.324114
0.374282
0.175022
0.917097
4.88146
2.3477
4.95636
6.21876
0.341448
4.32115
0.7045
2.5766
1.13515
0.732413
0.66944
0.616956
5.63327
1.62898
5.38641
0.579845
5.26311
4.98731
0.344384
0.462512
0.568424
0.591652
5.06973
4.94951
0.10551
5.00197
3.31691
4.18268
6.04961
6.75799
4.80501
4.56059
6.39742
6.36332
3.27663
2.52347
3.79763
0.119675
0.792115
5.71162
0.68721
0.425539
0.373527
0.322919
5.35135
4.40981
0.475553
0.578766
0.318956
0.679663
0.69043
0.538489
0.800979
0.636373
0.102883
0.157175
0.34696
0.264265
2.41558
2.18434
2.87275
2.52619
0.240481
0.290357
0.227445
0.156086
0.861008
0.453737
0.195684
0.315186
0.510783
0.603622
0.686829
0.565128
0.436794
0.470672
0.41391
0.517836
0.960332
0.533021
0.471098
0.587808
0.338549
0.422126
0.650077
0.464916
0.475686
0.339585
0.375558
0.195201
0.378249
0.376586
0.33422
0.291009
0.213235
0.223693
0.319028
0.253354
0.207151
0.246474
0.305582
0.279596
0.845893
0.681112
0.734081
0.622439
0.312878
0.494793
0.575891
0.479037
1.00143
2.96726
4.28879
1.61783
4.17788
2.71927
1.91649
4.53207
3.027
3.33473
4.5499
3.98947
2.35403
2.29405
4.1101
1.03374
0.851291
3.57987
0.908127
3.21947
1.16388
3.56831
4.88876
3.58299
1.75076
1.2112
5.31026
4.79901
2.94899
3.01124
2.64549
2.27987
0.368465
0.616418
4.01954
0.46912
0.259111
3.5046
0.522101
0.425321
2.63332
0.855864
1.39559
0.725409
3.15538
3.77668
3.36542
2.51267
3.92842
0.738506
4.25192
2.78502
3.01913
4.29032
2.11763
0.702381
0.712653
0.877527
1.46648
0.955277
3.19862
3.74551
3.79939
3.40279
4.13544
4.26602
4.97077
4.79784
5.28262
3.30029
3.28754
0.267056
4.2406
4.04924
5.61771
3.59921
0.332957
3.93194
4.08695
4.55455
4.46491
5.02839
2.77391
4.33185
4.24212
4.21548
4.1076
3.44419
4.03393
4.39805
3.61905
3.71563
3.62332
3.74532
5.0885
4.99314
0.925998
0.843201
6.73686
4.6166
6.997
3.67173
0.947105
1.24083
1.90142
2.70821
1.99185
0.910632
2.50494
4.2642
4.70927
5.3381
2.96765
1.93984
3.44488
2.46158
2.83725
3.81322
0.953964
0.71078
3.85127
0.887681
0.52383
0.427371
0.301907
4.35835
4.42519
3.69466
5.9271
5.84478
5.80051
5.56056
6.69316
7.06996
3.39182
3.57167
5.71325
6.08809
4.44677
3.29423
4.14344
4.17318
4.83972
5.4032
6.86357
6.71647
8.29382
6.61396
5.02977
5.60626
4.45701
6.47916
4.19361
6.21784
4.40213
5.54116
5.14583
5.79011
6.56192
6.16169
5.15208
5.32198
5.08775
5.2933
4.79503
5.45959
6.62768
6.4071
4.54051
6.88765
5.59222
6.65265
5.8754
7.81968
4.72815
5.20333
7.20151
6.93163
3.8345
6.62204
5.98533
7.2786
7.15204
6.70047
4.22617
4.26331
2.24684
4.5366
3.22301
5.19946
4.05397
7.17622
2.66677
7.00017
6.75762
4.67404
4.25473
3.91159
3.95593
3.9889
7.1636
5.15555
4.64243
7.1873
4.63409
3.47507
3.97352
5.11224
4.23832
2.42329
3.29784
4.67318
3.20018
3.24847
3.55074
3.03753
2.66095
3.28352
2.41188
2.90341
4.34569
3.46221
3.62919
2.72344
1.59126
3.95178
1.51166
2.59648
2.27124
1.9386
2.24677
3.5008
3.38401
2.02014
2.72156
4.59712
3.64572
1.76507
2.13696
1.85556
2.53313
2.51041
6.94061
3.49904
2.89015
4.69249
1.78084
3.31042
2.57992
2.20539
3.35861
3.72377
2.2942
2.2046
3.13976
4.47418
4.42032
4.9575
3.30474
3.75018
2.72095
4.32671
2.48255
2.81127
2.66724
1.7756
1.95716
2.46275
2.95599
2.78395
2.74001
2.11819
3.07891
3.92138
2.99385
7.07374
3.37858
6.17931
2.88047
4.50745
5.96608
3.64302
3.08769
5.87575
3.78531
6.25114
5.36354
4.61549
5.30053
6.45415
6.82547
4.8029
4.46646
4.62456
7.2731
4.79121
3.47366
6.55249
3.25584
3.55523
3.75895
3.55096
3.85272
6.59471
6.98997
5.35073
6.70313
5.37976
3.60156
3.07263
4.75791
4.8297
6.4835
4.53961
6.76468
4.76774
3.10182
6.23446
5.61379
5.59712
4.8634
4.66095
2.5612
5.07173
5.08078
4.97194
6.01575
6.12409
5.36262
7.09933
6.80382
6.72393
6.1496
6.05839
5.15738
5.31255
3.87023
6.10431
4.99451
6.26781
4.82918
6.04979
3.86781
7.00638
6.49339
6.33792
4.8802
6.70359
5.45334
5.4553
6.57176
6.60815
5.12253
2.44074
4.67068
4.27304
4.74758
5.91696
4.70651
7.01933
4.34329
4.33361
3.43472
5.82649
3.38064
4.35257
5.05544
4.31907
3.76968
4.22713
4.42072
4.52918
4.20904
4.86013
4.55543
6.84481
4.81641
3.06155
4.07415
5.16629
4.98444
4.96814
5.3028
3.9534
3.77773
2.27249
3.85148
3.73834
4.59579
6.78359
3.48307
3.34195
2.9238
2.74245
4.88342
3.0748
7.01604
7.05491
6.38832
6.74
4.60691
6.92041
4.6784
3.96769
5.86379
3.77871
5.83262
1.9215
3.77001
6.78166
6.42411
5.16014
5.26916
4.43907
4.21462
7.00119
6.79281
6.49915
7.1821
5.58928
6.12267
6.65904
6.85966
6.93159
6.3318
4.15902
5.32549
4.19984
5.29101
5.04734
6.68558
5.31274
6.8372
7.0502
7.02636
6.83387
6.80408
6.84014
6.8026
4.0496
6.92647
7.14677
7.13974
6.99025
5.48763
7.09167
5.90161
6.22786
7.06558
6.45515
7.18858
6.82269
7.22819
7.06082
5.32953
5.44967
6.86241
6.98344
5.0481
7.04343
4.24801
4.52684
4.12672
7.02423
7.09367
6.06893
6.71889
6.89015
4.36374
6.11958
7.13808
7.3589
6.05772
4.17244
6.57325
5.98817
4.7466
5.72554
6.51893
6.40191
6.02481
6.04568
4.26218
7.08071
3.86193
3.68073
6.43424
4.28274
6.59008
7.51302
3.59766
6.75364
5.67132
1.41994
4.90356
1.37581
5.74362
5.99431
5.71943
5.8059
6.38503
6.32399
2.4532
3.48458
6.07491
5.45511
2.40061
4.07474
6.11186
6.78258
5.55918
5.68059
5.99149
6.89949
1.20544
5.20725
6.14685
5.94548
5.26606
6.9461
