OFF
300 574 0
-9.27164 -15.4648 -7.17354
-8.78464 -15.4648 -7.17354
-8.78464 -15.4648 -6.42254
-9.27164 -15.4648 -6.42254
-8.78464 -15.4425 -6.35454
-9.27164 -15.4425 -6.35454
-9.31964 -15.4251 -6.36254
-9.33664 -15.4425 -6.41354
-9.33664 -15.4425 -7.16454
-6.44764 -7.7974 -1.65054
-6.44764 -7.8057 -1.65554
-6.43964 -7.8057 -1.70054
-6.43964 -7.7974 -1.69554
-6.43964 -7.8057 -2.27754
-6.43964 -7.7974 -2.27254
-8.56664 -7.8057 -1.63954
-8.27664 -7.8057 -1.63954
-8.27664 -7.7974 -1.63554
-8.27664 -7.83061 -6.19754
-8.27664 -8.41576 -6.71954
-8.56664 -8.41576 -6.71954
-8.56664 -7.83061 -6.19754
-8.60564 -8.41576 -6.69854
-8.60564 -7.83061 -6.17654
-6.44764 -7.83061 -1.66954
-6.43964 -7.83061 -1.71454
-6.44764 -8.41576 -2.19054
-6.43964 -8.41576 -2.23554
-6.43964 -8.41576 -2.81254
-6.43964 -7.83061 -2.29154
-8.60564 -7.8057 -1.65554
-8.60564 -7.83061 -1.66954
-8.56664 -7.83061 -1.65454
-8.60564 -8.41576 -2.19054
-8.56664 -8.41576 -2.17554
-8.27664 -8.41576 -2.17554
-8.27664 -7.83061 -1.65454
-8.61864 -7.8057 -1.70054
-8.61864 -7.8057 -2.27754
-8.61864 -7.83061 -2.29154
-8.61864 -7.83061 -1.71454
-8.61864 -8.41576 -2.81254
-8.61864 -8.41576 -2.23554
-8.65464 -11.7856 -9.85354
-8.34064 -11.7856 -9.85354
-8.53064 -12.3458 -10.6185
-8.91864 -12.3458 -10.6185
-8.72164 -12.7134 -11.0285
-9.18364 -12.7134 -11.0285
-9.24564 -12.7134 -11.0015
-8.97064 -12.3458 -10.5945
-8.69664 -11.7856 -9.83254
-6.34664 -11.7856 -5.20154
-6.35664 -11.7856 -5.15454
-6.08064 -12.3458 -5.40654
-6.06964 -12.3458 -5.45854
-5.80564 -12.7134 -5.30354
-5.79164 -12.7134 -5.36054
-5.79164 -12.7134 -6.09054
-6.06964 -12.3458 -6.12254
-6.34664 -11.7856 -5.79954
-8.65464 -11.7856 -5.13854
-8.69664 -11.7856 -5.15454
-8.97064 -12.3458 -5.40654
-8.91864 -12.3458 -5.38854
-9.24564 -12.7134 -5.30354
-9.18364 -12.7134 -5.28454
-8.72164 -12.7134 -5.28454
-8.53064 -12.3458 -5.38854
-8.34064 -11.7856 -5.13854
-8.71064 -11.7856 -5.20154
-8.71064 -11.7856 -5.79954
-8.98864 -12.3458 -6.12254
-8.98864 -12.3458 -5.45854
-9.26564 -12.7134 -6.09054
-9.26564 -12.7134 -5.36054
-8.78464 -13.8159 -11.5735
-9.27164 -13.8159 -11.5735
-8.78464 -14.9409 -12.0415
-9.27164 -14.9409 -12.0415
-9.33664 -14.9409 -12.0135
-9.33664 -13.8159 -11.5455
-5.71364 -13.8159 -5.67754
-5.69964 -13.8159 -5.73654
-5.71364 -14.9409 -6.14554
-5.69964 -14.9409 -6.20454
-5.69964 -14.9409 -6.95554
-5.69964 -13.8159 -6.48754
-9.33664 -13.8159 -5.67754
-9.27164 -13.8159 -5.65754
-9.33664 -14.9409 -6.14554
-9.27164 -14.9409 -6.12654
-8.78464 -14.9409 -6.12654
-8.78464 -13.8159 -5.65754
-9.35864 -13.8159 -6.48754
-9.35864 -13.8159 -5.73654
-9.35864 -14.9409 -6.95554
-9.35864 -14.9409 -6.20454
-5.71364 -15.3754 -6.32654
-5.69964 -15.3754 -6.38554
-5.72464 -15.4251 -6.36254
-5.71364 -15.4425 -6.41354
-5.71364 -15.4425 -7.16454
-5.69964 -15.3754 -7.13654
-8.78464 -15.3754 -12.2225
-9.27164 -15.3754 -12.2225
-8.78464 -15.4425 -12.2225
-9.27164 -15.4425 -12.2225
-9.31964 -15.4251 -12.1945
-9.33664 -15.3754 -12.1945
-9.35864 -15.3754 -7.13654
-9.35864 -15.3754 -6.38554
-9.33664 -15.3754 -6.32654
-9.27164 -15.3754 -6.30654
-8.78464 -15.3754 -6.30654
-8.60564 -10.1048 -3.71754
-8.56664 -10.1048 -3.70254
-8.27664 -10.1048 -3.70254
-6.44764 -10.1048 -3.71754
-6.43964 -10.1048 -3.76254
-6.43964 -10.1048 -4.33954
-8.27664 -10.1048 -8.24654
-8.56664 -10.1048 -8.24654
-8.60564 -10.1048 -8.22554
-8.61864 -10.1048 -4.33954
-8.61864 -10.1048 -3.76254
-8.61864 -7.8057 -3.88854
-8.61864 -7.83061 -3.90254
-8.61864 -7.83061 -5.51854
-8.61864 -8.41576 -6.04054
-8.61864 -8.41576 -4.42354
-8.61864 -10.1048 -5.95054
-8.61864 -10.1048 -7.56754
-8.71064 -11.7856 -9.14954
-8.71064 -11.7856 -7.47154
-8.98864 -12.3458 -7.97654
-8.98864 -12.3458 -9.83654
-9.26564 -12.7134 -10.1705
-9.26564 -12.7134 -8.12654
-9.35864 -13.8159 -8.58454
-9.35864 -13.8159 -10.6895
-9.35864 -14.9409 -11.1575
-9.35864 -14.9409 -9.05254
-9.35864 -15.3754 -9.23354
-9.35864 -15.3754 -11.3385
-9.33664 -15.4425 -11.3665
-9.33664 -15.4425 -9.26154
-9.27164 -15.4648 -11.3755
-8.78464 -15.4648 -11.3755
-8.78464 -15.4648 -9.27054
-9.27164 -15.4648 -9.27054
-5.69964 -14.9409 -9.05254
-5.69964 -15.3754 -9.23354
-5.71364 -15.4425 -9.26154
-5.71364 -15.4425 -11.3665
-5.69964 -15.3754 -11.3385
-5.69964 -14.9409 -11.1575
-5.79164 -12.7134 -8.12654
-5.69964 -13.8159 -8.58454
-5.69964 -13.8159 -10.6895
-5.79164 -12.7134 -10.1705
-6.34664 -11.7856 -7.47154
-6.06964 -12.3458 -7.97654
-6.06964 -12.3458 -9.83654
-6.34664 -11.7856 -9.14954
-6.43964 -8.41576 -4.42354
-6.43964 -10.1048 -5.95054
-6.43964 -10.1048 -7.56754
-6.43964 -8.41576 -6.04054
-6.43964 -7.8057 -3.88854
-6.43964 -7.83061 -3.90254
-6.43964 -7.83061 -5.51854
-6.43964 -7.8057 -5.50454
-6.43964 -7.7974 -3.88354
-6.43964 -7.7974 -5.50054
-8.61864 -8.41576 -6.63554
-8.61864 -7.83061 -6.11354
-8.61864 -10.1048 -8.16154
-8.71064 -11.7856 -9.76654
-8.98864 -12.3458 -10.5215
-9.26564 -12.7134 -10.9225
-9.35864 -13.8159 -11.4635
-9.35864 -14.9409 -11.9315
-9.35864 -15.3754 -12.1125
-9.33664 -15.4425 -12.1405
-8.78464 -15.4648 -12.1495
-9.27164 -15.4648 -12.1495
-5.69964 -14.9409 -11.9315
-5.69964 -15.3754 -12.1125
-5.71364 -15.4425 -12.1405
-5.72464 -15.4251 -12.1945
-5.71364 -15.3754 -12.1945
-5.71364 -14.9409 -12.0135
-5.79164 -12.7134 -10.9225
-5.69964 -13.8159 -11.4635
-5.71364 -13.8159 -11.5455
-5.80564 -12.7134 -11.0015
-6.34664 -11.7856 -9.76654
-6.06964 -12.3458 -10.5215
-6.08064 -12.3458 -10.5945
-6.35664 -11.7856 -9.83254
-6.43964 -8.41576 -6.63554
-6.43964 -10.1048 -8.16154
-6.44764 -10.1048 -8.22554
-6.44764 -8.41576 -6.69854
-6.43964 -7.8057 -6.09954
-6.43964 -7.83061 -6.11354
-6.44764 -7.83061 -6.17654
-6.44764 -7.8057 -6.16254
-6.43964 -7.7974 -6.09454
-6.44764 -7.7974 -6.15854
-5.84664 -12.7134 -11.0285
-5.75664 -13.8159 -11.5735
-5.75664 -14.9409 -12.0415
-6.22164 -14.9409 -12.0415
-6.22164 -13.8159 -11.5735
-6.28764 -12.7134 -11.0285
-6.22164 -15.3754 -12.2225
-5.75664 -15.3754 -12.2225
-5.75664 -15.4425 -12.2225
-6.22164 -15.4425 -12.2225
-6.22164 -15.4648 -12.1495
-5.75664 -15.4648 -12.1495
-5.75664 -15.4648 -11.3755
-6.22164 -15.4648 -11.3755
-6.22164 -15.4648 -9.27054
-5.75664 -15.4648 -9.27054
-5.75664 -15.4648 -7.17354
-6.22164 -15.4648 -7.17354
-6.22164 -15.4648 -6.42254
-5.75664 -15.4648 -6.42254
-5.75664 -15.4425 -6.35454
-6.22164 -15.4425 -6.35454
-5.75664 -14.9409 -6.12654
-6.22164 -14.9409 -6.12654
-6.22164 -15.3754 -6.30654
-5.75664 -15.3754 -6.30654
-5.84664 -12.7134 -5.28454
-6.28764 -12.7134 -5.28454
-6.22164 -13.8159 -5.65754
-5.75664 -13.8159 -5.65754
-6.38464 -11.7856 -5.13854
-6.68464 -11.7856 -5.13854
-6.48564 -12.3458 -5.38854
-6.11564 -12.3458 -5.38854
-6.47364 -8.41576 -2.17554
-6.75064 -8.41576 -2.17554
-6.75064 -10.1048 -3.70254
-6.47364 -10.1048 -3.70254
-6.47364 -7.8057 -1.63954
-6.75064 -7.8057 -1.63954
-6.75064 -7.83061 -1.65454
-6.47364 -7.83061 -1.65454
-6.47364 -7.7974 -1.61854
-6.75064 -7.7974 -1.61854
-6.75064 -7.7974 -1.63554
-6.47364 -7.7974 -1.63554
-6.47364 -7.8057 -6.18354
-6.47364 -7.7974 -6.17954
-6.75064 -7.8057 -6.18354
-6.75064 -7.7974 -6.17954
-6.75064 -7.83061 -6.19754
-6.47364 -7.83061 -6.19754
-6.47364 -8.41576 -6.71954
-6.75064 -8.41576 -6.71954
-6.75064 -10.1048 -8.24654
-6.47364 -10.1048 -8.24654
-6.38464 -11.7856 -9.85354
-6.68464 -11.7856 -9.85354
-6.48564 -12.3458 -10.6185
-6.11564 -12.3458 -10.6185
-7.50064 -12.7134 -11.0285
-7.49964 -13.8159 -11.5735
-7.49964 -14.9409 -12.0415
-7.49964 -15.3754 -12.2225
-7.49964 -15.4425 -12.2225
-7.49964 -15.4648 -12.1495
-7.49964 -15.4648 -11.3755
-7.49964 -15.4648 -9.27054
-7.49964 -15.4648 -7.17354
-7.49964 -15.4648 -6.42254
-7.49964 -15.4425 -6.35454
-7.49964 -14.9409 -6.12654
-7.49964 -15.3754 -6.30654
-7.50064 -12.7134 -5.28454
-7.49964 -13.8159 -5.65754
-7.50964 -11.7856 -5.13854
-7.50564 -12.3458 -5.38854
-7.51164 -8.41576 -2.17554
-7.51164 -10.1048 -3.70254
-7.51164 -7.8057 -1.63954
-7.51164 -7.83061 -1.65454
-7.51164 -7.7974 -1.61854
-7.51164 -7.7974 -1.63554
-7.51164 -7.8057 -6.18354
-7.51164 -7.83061 -6.19754
-7.51164 -8.41576 -6.71954
-7.51164 -10.1048 -8.24654
-7.50964 -11.7856 -9.85354
-7.50564 -12.3458 -10.6185
3 0 1 2
3 0 2 3
3 2 4 5
3 2 5 3
3 5 6 7
3 5 7 3
3 7 8 0
3 7 0 3
3 9 10 11
3 9 11 12
3 11 13 14
3 11 14 12
3 15 16 17
3 18 19 20
3 18 20 21
3 20 22 23
3 20 23 21
3 11 10 24
3 11 24 25
3 24 26 27
3 24 27 25
3 27 28 29
3 27 29 25
3 29 13 11
3 29 11 25
3 15 30 31
3 15 31 32
3 31 33 34
3 31 34 32
3 34 35 36
3 34 36 32
3 36 16 15
3 36 15 32
3 37 38 39
3 37 39 40
3 39 41 42
3 39 42 40
3 42 33 31
3 42 31 40
3 31 30 37
3 31 37 40
3 43 44 45
3 43 45 46
3 45 47 48
3 45 48 46
3 48 49 50
3 48 50 46
3 50 51 43
3 50 43 46
3 52 53 54
3 52 54 55
3 54 56 57
3 54 57 55
3 57 58 59
3 57 59 55
3 59 60 52
3 59 52 55
3 61 62 63
3 61 63 64
3 63 65 66
3 63 66 64
3 66 67 68
3 66 68 64
3 68 69 61
3 68 61 64
3 70 71 72
3 70 72 73
3 72 74 75
3 72 75 73
3 75 65 63
3 75 63 73
3 63 62 70
3 63 70 73
3 48 47 76
3 48 76 77
3 76 78 79
3 76 79 77
3 79 80 81
3 79 81 77
3 81 49 48
3 81 48 77
3 57 56 82
3 57 82 83
3 82 84 85
3 82 85 83
3 85 86 87
3 85 87 83
3 87 58 57
3 87 57 83
3 66 65 88
3 66 88 89
3 88 90 91
3 88 91 89
3 91 92 93
3 91 93 89
3 93 67 66
3 93 66 89
3 75 74 94
3 75 94 95
3 94 96 97
3 94 97 95
3 97 90 88
3 97 88 95
3 88 65 75
3 88 75 95
3 85 84 98
3 85 98 99
3 98 100 101
3 98 101 99
3 101 102 103
3 101 103 99
3 103 86 85
3 103 85 99
3 79 78 104
3 79 104 105
3 104 106 107
3 104 107 105
3 107 108 109
3 107 109 105
3 109 80 79
3 109 79 105
3 97 96 110
3 97 110 111
3 110 8 7
3 110 7 111
3 7 6 112
3 7 112 111
3 112 90 97
3 112 97 111
3 91 90 112
3 91 112 113
3 112 6 5
3 112 5 113
3 5 4 114
3 5 114 113
3 114 92 91
3 114 91 113
3 34 33 115
3 34 115 116
3 115 62 61
3 115 61 116
3 61 69 117
3 61 117 116
3 117 35 34
3 117 34 116
3 27 26 118
3 27 118 119
3 118 53 52
3 118 52 119
3 52 60 120
3 52 120 119
3 120 28 27
3 120 27 119
3 20 19 121
3 20 121 122
3 121 44 43
3 121 43 122
3 43 51 123
3 43 123 122
3 123 22 20
3 123 20 122
3 42 41 124
3 42 124 125
3 124 71 70
3 124 70 125
3 70 62 115
3 70 115 125
3 115 33 42
3 115 42 125
3 39 38 126
3 39 126 127
3 126 128 127
3 128 129 130
3 128 130 127
3 130 41 39
3 130 39 127
3 124 41 130
3 124 130 131
3 130 129 132
3 130 132 131
3 132 133 134
3 132 134 131
3 134 71 124
3 134 124 131
3 72 71 134
3 72 134 135
3 134 133 136
3 134 136 135
3 136 137 138
3 136 138 135
3 138 74 72
3 138 72 135
3 94 74 138
3 94 138 139
3 138 137 140
3 138 140 139
3 140 141 142
3 140 142 139
3 142 96 94
3 142 94 139
3 110 96 142
3 110 142 143
3 142 141 144
3 142 144 143
3 144 145 146
3 144 146 143
3 146 8 110
3 146 110 143
3 147 148 149
3 147 149 150
3 149 1 0
3 149 0 150
3 0 8 146
3 0 146 150
3 146 145 147
3 146 147 150
3 151 86 103
3 151 103 152
3 103 102 153
3 103 153 152
3 153 154 155
3 153 155 152
3 155 156 151
3 155 151 152
3 157 58 87
3 157 87 158
3 87 86 151
3 87 151 158
3 151 156 159
3 151 159 158
3 159 160 157
3 159 157 158
3 161 60 59
3 161 59 162
3 59 58 157
3 59 157 162
3 157 160 163
3 157 163 162
3 163 164 161
3 163 161 162
3 165 28 120
3 165 120 166
3 120 60 161
3 120 161 166
3 161 164 167
3 161 167 166
3 167 168 165
3 167 165 166
3 169 13 29
3 169 29 170
3 29 28 165
3 29 165 170
3 165 168 171
3 165 171 170
3 171 172 169
3 171 169 170
3 14 13 169
3 14 169 173
3 169 172 174
3 169 174 173
3 23 22 175
3 23 175 176
3 175 129 128
3 175 128 176
3 132 129 175
3 132 175 177
3 175 22 123
3 175 123 177
3 123 51 178
3 123 178 177
3 178 133 132
3 178 132 177
3 136 133 178
3 136 178 179
3 178 51 50
3 178 50 179
3 50 49 180
3 50 180 179
3 180 137 136
3 180 136 179
3 140 137 180
3 140 180 181
3 180 49 81
3 180 81 181
3 81 80 182
3 81 182 181
3 182 141 140
3 182 140 181
3 144 141 182
3 144 182 183
3 182 80 109
3 182 109 183
3 109 108 184
3 109 184 183
3 184 145 144
3 184 144 183
3 107 106 185
3 107 185 186
3 185 148 147
3 185 147 186
3 147 145 184
3 147 184 186
3 184 108 107
3 184 107 186
3 187 156 155
3 187 155 188
3 155 154 189
3 155 189 188
3 189 190 191
3 189 191 188
3 191 192 187
3 191 187 188
3 193 160 159
3 193 159 194
3 159 156 187
3 159 187 194
3 187 192 195
3 187 195 194
3 195 196 193
3 195 193 194
3 197 164 163
3 197 163 198
3 163 160 193
3 163 193 198
3 193 196 199
3 193 199 198
3 199 200 197
3 199 197 198
3 201 168 167
3 201 167 202
3 167 164 197
3 167 197 202
3 197 200 203
3 197 203 202
3 203 204 201
3 203 201 202
3 205 172 171
3 205 171 206
3 171 168 201
3 171 201 206
3 201 204 207
3 201 207 206
3 207 208 205
3 207 205 206
3 174 172 205
3 174 205 209
3 205 208 210
3 205 210 209
3 211 196 195
3 211 195 212
3 195 192 213
3 195 213 212
3 213 214 215
3 213 215 212
3 215 216 211
3 215 211 212
3 217 214 213
3 217 213 218
3 213 192 191
3 213 191 218
3 191 190 219
3 191 219 218
3 219 220 217
3 219 217 218
3 221 220 219
3 221 219 222
3 219 190 189
3 219 189 222
3 189 154 223
3 189 223 222
3 223 224 221
3 223 221 222
3 225 224 223
3 225 223 226
3 223 154 153
3 223 153 226
3 153 102 227
3 153 227 226
3 227 228 225
3 227 225 226
3 229 228 227
3 229 227 230
3 227 102 101
3 227 101 230
3 101 100 231
3 101 231 230
3 231 232 229
3 231 229 230
3 233 234 235
3 233 235 236
3 235 232 231
3 235 231 236
3 231 100 98
3 231 98 236
3 98 84 233
3 98 233 236
3 237 238 239
3 237 239 240
3 239 234 233
3 239 233 240
3 233 84 82
3 233 82 240
3 82 56 237
3 82 237 240
3 241 242 243
3 241 243 244
3 243 238 237
3 243 237 244
3 237 56 54
3 237 54 244
3 54 53 241
3 54 241 244
3 245 246 247
3 245 247 248
3 247 242 241
3 247 241 248
3 241 53 118
3 241 118 248
3 118 26 245
3 118 245 248
3 249 250 251
3 249 251 252
3 251 246 245
3 251 245 252
3 245 26 24
3 245 24 252
3 24 10 249
3 24 249 252
3 253 254 255
3 253 255 256
3 255 250 249
3 255 249 256
3 249 10 9
3 249 9 256
3 9 253 256
3 210 208 257
3 210 257 258
3 257 259 260
3 257 260 258
3 261 259 257
3 261 257 262
3 257 208 207
3 257 207 262
3 207 204 263
3 207 263 262
3 263 264 261
3 263 261 262
3 265 264 263
3 265 263 266
3 263 204 203
3 263 203 266
3 203 200 267
3 203 267 266
3 267 268 265
3 267 265 266
3 269 268 267
3 269 267 270
3 267 200 199
3 267 199 270
3 199 196 211
3 199 211 270
3 211 216 269
3 211 269 270
3 271 216 215
3 271 215 272
3 215 214 273
3 215 273 272
3 273 78 76
3 273 76 272
3 76 47 271
3 76 271 272
3 104 78 273
3 104 273 274
3 273 214 217
3 273 217 274
3 217 220 275
3 217 275 274
3 275 106 104
3 275 104 274
3 185 106 275
3 185 275 276
3 275 220 221
3 275 221 276
3 221 224 277
3 221 277 276
3 277 148 185
3 277 185 276
3 149 148 277
3 149 277 278
3 277 224 225
3 277 225 278
3 225 228 279
3 225 279 278
3 279 1 149
3 279 149 278
3 2 1 279
3 2 279 280
3 279 228 229
3 279 229 280
3 229 232 281
3 229 281 280
3 281 4 2
3 281 2 280
3 282 92 114
3 282 114 283
3 114 4 281
3 114 281 283
3 281 232 235
3 281 235 283
3 235 234 282
3 235 282 283
3 284 67 93
3 284 93 285
3 93 92 282
3 93 282 285
3 282 234 239
3 282 239 285
3 239 238 284
3 239 284 285
3 286 69 68
3 286 68 287
3 68 67 284
3 68 284 287
3 284 238 243
3 284 243 287
3 243 242 286
3 243 286 287
3 288 35 117
3 288 117 289
3 117 69 286
3 117 286 289
3 286 242 247
3 286 247 289
3 247 246 288
3 247 288 289
3 290 16 36
3 290 36 291
3 36 35 288
3 36 288 291
3 288 246 251
3 288 251 291
3 251 250 290
3 251 290 291
3 292 17 293
3 17 16 290
3 17 290 293
3 290 250 255
3 290 255 293
3 255 254 292
3 255 292 293
3 260 259 294
3 18 294 295
3 294 259 261
3 294 261 295
3 261 264 296
3 261 296 295
3 296 19 18
3 296 18 295
3 121 19 296
3 121 296 297
3 296 264 265
3 296 265 297
3 265 268 298
3 265 298 297
3 298 44 121
3 298 121 297
3 45 44 298
3 45 298 299
3 298 268 269
3 298 269 299
3 269 216 271
3 269 271 299
3 271 47 45
3 271 45 299
