OFF
273 527 0
1.15049 -11.9851 -0.623156
1.38849 -11.9179 -1.17516
1.84249 -11.9851 -1.46416
1.75249 -12.1087 -0.732156
2.51849 -12.0183 -1.61116
2.51849 -12.1503 -0.817156
2.51849 -12.2166 0.268844
1.64749 -12.1711 0.285844
0.969485 -12.0348 0.299844
3.19449 -11.9851 -1.46416
3.64849 -11.9179 -1.17516
3.88649 -11.9851 -0.623156
3.28449 -12.1087 -0.732156
4.06749 -12.0348 0.299844
3.38949 -12.1711 0.285844
4.12749 -12.0514 1.42484
4.12749 -12.0514 2.52584
3.42449 -12.1919 2.62184
3.42449 -12.1919 1.47684
2.51849 -12.2387 2.65384
2.51849 -12.2387 1.49484
1.61249 -12.1919 2.62184
0.909485 -12.0514 2.52584
0.909485 -12.0514 1.42484
1.61249 -12.1919 1.47684
0.218485 -8.33352 -1.00816
0.710485 -8.33352 -2.01416
0.721485 -8.34529 -1.99216
0.231485 -8.34529 -0.996156
0.742485 -8.39676 -1.96216
0.257485 -8.39676 -0.980156
0.0964853 -8.39676 0.198844
0.0684853 -8.34529 0.198844
0.0544853 -8.33352 0.198844
0.786485 -8.52292 -1.90716
0.867485 -8.75876 -1.80916
0.416485 -8.75876 -0.896156
0.314485 -8.52292 -0.950156
0.266485 -8.75876 0.198844
0.156485 -8.52292 0.198844
0.416485 -8.75876 1.29384
0.867485 -8.75876 2.20584
0.786485 -8.52292 2.30384
0.314485 -8.52292 1.34684
0.742485 -8.39676 2.35884
0.257485 -8.39676 1.37684
0.721485 -8.34529 2.38884
0.218485 -8.33352 1.40584
0.231485 -8.34529 1.39384
3.50049 -8.33352 -2.61816
4.32149 -8.33352 -2.01416
4.31349 -8.34529 -1.99216
3.49749 -8.34529 -2.59016
4.29449 -8.39676 -1.96216
3.48749 -8.39676 -2.55116
2.51849 -8.39676 -2.74816
2.51749 -8.34529 -2.78916
2.51649 -8.33352 -2.81916
4.25049 -8.52292 -1.90716
4.16949 -8.75876 -1.80916
3.41949 -8.75876 -2.35616
3.46349 -8.52292 -2.48116
2.51849 -8.75876 -2.53916
2.51849 -8.52292 -2.67216
1.61749 -8.75876 -2.35616
1.57349 -8.52292 -2.48116
1.54949 -8.39676 -2.55116
1.53149 -8.33352 -2.61816
1.53749 -8.34529 -2.59016
4.31349 -8.34529 2.38884
4.29449 -8.39676 2.35884
4.77849 -8.39676 1.37684
4.80349 -8.34529 1.39384
4.94049 -8.39676 0.198844
4.96649 -8.34529 0.198844
4.25049 -8.52292 2.30384
4.16949 -8.75876 2.20584
4.62049 -8.75876 1.29384
4.72249 -8.52292 1.34684
4.77049 -8.75876 0.198844
4.88049 -8.52292 0.198844
4.62049 -8.75876 -0.896156
4.72249 -8.52292 -0.950156
4.77849 -8.39676 -0.980156
1.53149 -8.33352 3.01484
1.53749 -8.34529 2.98684
1.54949 -8.39676 2.94884
2.51849 -8.39676 3.14484
2.51749 -8.34529 3.18584
1.61749 -8.75876 2.75384
1.57349 -8.52292 2.87784
2.51849 -8.75876 2.93584
2.51849 -8.52292 3.06984
3.41949 -8.75876 2.75384
3.46349 -8.52292 2.87784
3.48749 -8.39676 2.94884
0.968485 -10.6478 -0.609156
1.30049 -10.6478 -1.28116
1.24549 -11.106 -1.34816
0.898485 -11.106 -0.645156
1.19249 -11.4853 -1.41316
0.824485 -11.4899 -0.679156
0.643485 -11.4974 0.238844
0.747485 -11.1085 0.226844
0.843485 -10.6516 0.221844
1.24649 -11.7627 -1.34816
0.875485 -11.7809 -0.639156
0.675485 -11.8082 0.273844
0.609485 -11.8173 2.36584
0.609485 -11.8173 1.33784
0.616485 -11.5074 2.18384
0.597485 -11.5015 1.23884
0.831485 -11.1397 2.02084
1.20349 -10.6917 1.95184
0.911485 -10.6629 1.09784
0.756485 -11.116 1.15384
3.18249 -10.6478 -1.68516
3.73649 -10.6478 -1.28116
3.79149 -11.106 -1.34816
3.21249 -11.106 -1.77016
3.84449 -11.4853 -1.41316
3.24049 -11.4899 -1.86016
2.51849 -11.4944 -2.01216
2.51849 -11.106 -1.91116
2.51849 -10.6478 -1.81916
3.79049 -11.7627 -1.34816
3.20749 -11.7809 -1.79916
2.51849 -11.7991 -1.96016
1.82949 -11.7809 -1.79916
1.79649 -11.4899 -1.86016
1.85449 -10.6478 -1.68516
1.82449 -11.106 -1.77016
4.12549 -10.6629 1.09784
3.83349 -10.6917 1.95184
4.20549 -11.1397 2.02084
4.28049 -11.116 1.15384
4.42049 -11.5074 2.18384
4.43949 -11.5015 1.23884
4.39349 -11.4974 0.238844
4.28949 -11.1085 0.226844
4.19349 -10.6516 0.221844
4.42749 -11.8173 2.36584
4.42749 -11.8173 1.33784
4.36149 -11.8082 0.273844
4.16149 -11.7809 -0.639156
4.21249 -11.4899 -0.679156
4.06849 -10.6478 -0.609156
4.13849 -11.106 -0.645156
1.98249 -11.0876 3.71984
1.60449 -11.1548 3.70084
1.38649 -11.31 3.94084
1.89749 -11.2918 4.08084
1.22749 -11.5363 4.20784
1.81449 -11.5363 4.37684
2.51849 -11.5363 4.43284
2.51849 -11.2736 4.11584
2.51849 -11.0544 3.72884
1.24649 -11.7627 4.39084
1.38849 -11.9179 4.45984
1.84249 -11.9851 4.61184
1.82949 -11.7809 4.56684
2.51849 -12.0183 4.68784
2.51849 -11.7991 4.63784
3.19449 -11.9851 4.61184
3.64849 -11.9179 4.45984
3.79049 -11.7627 4.39084
3.20749 -11.7809 4.56684
3.80949 -11.5363 4.20784
3.22249 -11.5363 4.37684
3.65049 -11.31 3.94084
3.43249 -11.1548 3.70084
3.05449 -11.0876 3.71984
3.13949 -11.2918 4.08084
1.84749 -10.5107 2.25584
1.31549 -10.9056 2.55884
1.88349 -10.7414 2.53684
1.38349 -11.0089 3.03884
1.92449 -10.8668 2.93884
2.51849 -10.82 2.91684
2.51849 -10.6896 2.55884
2.51849 -10.4622 2.33684
1.48249 -11.0876 3.43584
1.97449 -10.964 3.33684
2.51849 -10.9224 3.31784
3.55449 -11.0876 3.43584
3.06249 -10.964 3.33684
3.65349 -11.0089 3.03884
3.11249 -10.8668 2.93884
3.72149 -10.9056 2.55884
3.18949 -10.5107 2.25584
3.15349 -10.7414 2.53684
0.909485 -12.0514 3.37784
0.609485 -11.8173 3.17484
0.969485 -12.0348 3.97984
0.675485 -11.8082 3.76684
0.694485 -11.5323 3.51284
0.628485 -11.5202 2.93684
1.15049 -11.9851 4.32884
0.875485 -11.7809 4.14884
0.874485 -11.5363 3.92884
1.09649 -11.2918 3.66184
0.952485 -11.2483 3.25084
0.880485 -11.1907 2.71184
4.12749 -12.0514 3.37784
3.42449 -12.1919 3.50084
4.06749 -12.0348 3.97984
3.38949 -12.1711 4.11684
2.51849 -12.2166 4.16584
2.51849 -12.2387 3.54084
3.88649 -11.9851 4.32884
3.28449 -12.1087 4.47484
2.51849 -12.1503 4.53884
1.75249 -12.1087 4.47484
1.64749 -12.1711 4.11684
1.61249 -12.1919 3.50084
4.15649 -11.1907 2.71184
4.08449 -11.2483 3.25084
4.34249 -11.5323 3.51284
4.40849 -11.5202 2.93684
3.94049 -11.2918 3.66184
4.16249 -11.5363 3.92884
4.16149 -11.7809 4.14884
4.36149 -11.8082 3.76684
4.42749 -11.8173 3.17484
0.997485 -9.13926 2.04784
1.68849 -9.13926 2.55284
1.13149 -9.61517 1.89684
1.76149 -9.60514 2.34984
2.51849 -9.59803 2.49784
2.51849 -9.13926 2.72084
1.22649 -10.1372 1.81884
1.81049 -10.0971 2.22184
2.51849 -10.0687 2.34284
3.81049 -10.1372 1.81884
3.22649 -10.0971 2.22184
3.90549 -9.61517 1.89684
3.27549 -9.60514 2.34984
4.03949 -9.13926 2.04784
3.34849 -9.13926 2.55284
4.45449 -9.13926 1.20784
4.27949 -9.61685 1.12684
4.40149 -9.61497 0.201844
4.59349 -9.13926 0.198844
4.14749 -10.1439 1.08984
4.24949 -10.1364 0.211844
3.78449 -10.1339 -1.34016
4.12949 -10.1339 -0.641156
3.89849 -9.61434 -1.47916
4.27549 -9.61434 -0.716156
4.03949 -9.13926 -1.65116
4.45449 -9.13926 -0.810156
3.34849 -9.13926 -2.15516
3.27149 -9.61434 -1.93716
2.51849 -9.61434 -2.08916
2.51849 -9.13926 -2.32316
3.20949 -10.1339 -1.76016
2.51849 -10.1339 -1.90016
1.25249 -10.1339 -1.34016
1.82749 -10.1339 -1.76016
1.13849 -9.61434 -1.47916
1.76549 -9.61434 -1.93716
0.997485 -9.13926 -1.65116
1.68849 -9.13926 -2.15516
0.582485 -9.13926 -0.810156
0.761485 -9.61434 -0.716156
0.635485 -9.61497 0.201844
0.443485 -9.13926 0.198844
0.906485 -10.1339 -0.641156
0.787485 -10.1364 0.211844
0.889485 -10.1439 1.08984
0.757485 -9.61685 1.12684
0.582485 -9.13926 1.20784
0.0364853 -8.32646 0.198844
3 0 1 2
3 0 2 3
3 2 4 5
3 2 5 3
3 5 6 7
3 5 7 3
3 7 8 0
3 7 0 3
3 9 10 11
3 9 11 12
3 11 13 14
3 11 14 12
3 14 6 5
3 14 5 12
3 5 4 9
3 5 9 12
3 15 16 17
3 15 17 18
3 17 19 20
3 17 20 18
3 20 6 14
3 20 14 18
3 14 13 15
3 14 15 18
3 21 22 23
3 21 23 24
3 23 8 7
3 23 7 24
3 7 6 20
3 7 20 24
3 20 19 21
3 20 21 24
3 25 26 27
3 25 27 28
3 27 29 30
3 27 30 28
3 30 31 32
3 30 32 28
3 32 33 25
3 32 25 28
3 34 35 36
3 34 36 37
3 36 38 39
3 36 39 37
3 39 31 30
3 39 30 37
3 30 29 34
3 30 34 37
3 40 41 42
3 40 42 43
3 42 44 45
3 42 45 43
3 45 31 39
3 45 39 43
3 39 38 40
3 39 40 43
3 46 47 48
3 47 33 32
3 47 32 48
3 32 31 45
3 32 45 48
3 45 44 46
3 45 46 48
3 49 50 51
3 49 51 52
3 51 53 54
3 51 54 52
3 54 55 56
3 54 56 52
3 56 57 49
3 56 49 52
3 58 59 60
3 58 60 61
3 60 62 63
3 60 63 61
3 63 55 54
3 63 54 61
3 54 53 58
3 54 58 61
3 64 35 34
3 64 34 65
3 34 29 66
3 34 66 65
3 66 55 63
3 66 63 65
3 63 62 64
3 63 64 65
3 27 26 67
3 27 67 68
3 67 57 56
3 67 56 68
3 56 55 66
3 56 66 68
3 66 29 27
3 66 27 68
3 69 70 71
3 69 71 72
3 71 73 74
3 71 74 72
3 75 76 77
3 75 77 78
3 77 79 80
3 77 80 78
3 80 73 71
3 80 71 78
3 71 70 75
3 71 75 78
3 81 59 58
3 81 58 82
3 58 53 83
3 58 83 82
3 83 73 80
3 83 80 82
3 80 79 81
3 80 81 82
3 74 73 83
3 83 53 51
3 84 46 85
3 46 44 86
3 46 86 85
3 86 87 88
3 86 88 85
3 88 84 85
3 42 41 89
3 42 89 90
3 89 91 92
3 89 92 90
3 92 87 86
3 92 86 90
3 86 44 42
3 86 42 90
3 93 76 75
3 93 75 94
3 75 70 95
3 75 95 94
3 95 87 92
3 95 92 94
3 92 91 93
3 92 93 94
3 88 87 95
3 95 70 69
3 96 97 98
3 96 98 99
3 98 100 101
3 98 101 99
3 101 102 103
3 101 103 99
3 103 104 96
3 103 96 99
3 105 1 0
3 105 0 106
3 0 8 107
3 0 107 106
3 107 102 101
3 107 101 106
3 101 100 105
3 101 105 106
3 23 22 108
3 23 108 109
3 108 110 111
3 108 111 109
3 111 102 107
3 111 107 109
3 107 8 23
3 107 23 109
3 112 113 114
3 112 114 115
3 114 104 103
3 114 103 115
3 103 102 111
3 103 111 115
3 111 110 112
3 111 112 115
3 116 117 118
3 116 118 119
3 118 120 121
3 118 121 119
3 121 122 123
3 121 123 119
3 123 124 116
3 123 116 119
3 125 10 9
3 125 9 126
3 9 4 127
3 9 127 126
3 127 122 121
3 127 121 126
3 121 120 125
3 121 125 126
3 2 1 105
3 2 105 128
3 105 100 129
3 105 129 128
3 129 122 127
3 129 127 128
3 127 4 2
3 127 2 128
3 98 97 130
3 98 130 131
3 130 124 123
3 130 123 131
3 123 122 129
3 123 129 131
3 129 100 98
3 129 98 131
3 132 133 134
3 132 134 135
3 134 136 137
3 134 137 135
3 137 138 139
3 137 139 135
3 139 140 132
3 139 132 135
3 141 16 15
3 141 15 142
3 15 13 143
3 15 143 142
3 143 138 137
3 143 137 142
3 137 136 141
3 137 141 142
3 11 10 125
3 11 125 144
3 125 120 145
3 125 145 144
3 145 138 143
3 145 143 144
3 143 13 11
3 143 11 144
3 118 117 146
3 118 146 147
3 146 140 139
3 146 139 147
3 139 138 145
3 139 145 147
3 145 120 118
3 145 118 147
3 148 149 150
3 148 150 151
3 150 152 153
3 150 153 151
3 153 154 155
3 153 155 151
3 155 156 148
3 155 148 151
3 157 158 159
3 157 159 160
3 159 161 162
3 159 162 160
3 162 154 153
3 162 153 160
3 153 152 157
3 153 157 160
3 163 164 165
3 163 165 166
3 165 167 168
3 165 168 166
3 168 154 162
3 168 162 166
3 162 161 163
3 162 163 166
3 169 170 171
3 169 171 172
3 171 156 155
3 171 155 172
3 155 154 168
3 155 168 172
3 168 167 169
3 168 169 172
3 173 113 174
3 173 174 175
3 174 176 177
3 174 177 175
3 177 178 179
3 177 179 175
3 179 180 173
3 179 173 175
3 181 149 148
3 181 148 182
3 148 156 183
3 148 183 182
3 183 178 177
3 183 177 182
3 177 176 181
3 177 181 182
3 171 170 184
3 171 184 185
3 184 186 187
3 184 187 185
3 187 178 183
3 187 183 185
3 183 156 171
3 183 171 185
3 188 133 189
3 188 189 190
3 189 180 179
3 189 179 190
3 179 178 187
3 179 187 190
3 187 186 188
3 187 188 190
3 108 22 191
3 108 191 192
3 191 193 194
3 191 194 192
3 194 195 196
3 194 196 192
3 196 110 108
3 196 108 192
3 197 158 157
3 197 157 198
3 157 152 199
3 157 199 198
3 199 195 194
3 199 194 198
3 194 193 197
3 194 197 198
3 150 149 181
3 150 181 200
3 181 176 201
3 181 201 200
3 201 195 199
3 201 199 200
3 199 152 150
3 199 150 200
3 174 113 112
3 174 112 202
3 112 110 196
3 112 196 202
3 196 195 201
3 196 201 202
3 201 176 174
3 201 174 202
3 17 16 203
3 17 203 204
3 203 205 206
3 203 206 204
3 206 207 208
3 206 208 204
3 208 19 17
3 208 17 204
3 209 164 163
3 209 163 210
3 163 161 211
3 163 211 210
3 211 207 206
3 211 206 210
3 206 205 209
3 206 209 210
3 159 158 197
3 159 197 212
3 197 193 213
3 197 213 212
3 213 207 211
3 213 211 212
3 211 161 159
3 211 159 212
3 191 22 21
3 191 21 214
3 21 19 208
3 21 208 214
3 208 207 213
3 208 213 214
3 213 193 191
3 213 191 214
3 134 133 188
3 134 188 215
3 188 186 216
3 188 216 215
3 216 217 218
3 216 218 215
3 218 136 134
3 218 134 215
3 184 170 169
3 184 169 219
3 169 167 220
3 169 220 219
3 220 217 216
3 220 216 219
3 216 186 184
3 216 184 219
3 165 164 209
3 165 209 221
3 209 205 222
3 209 222 221
3 222 217 220
3 222 220 221
3 220 167 165
3 220 165 221
3 203 16 141
3 203 141 223
3 141 136 218
3 141 218 223
3 218 217 222
3 218 222 223
3 222 205 203
3 222 203 223
3 89 41 224
3 89 224 225
3 224 226 227
3 224 227 225
3 227 228 229
3 227 229 225
3 229 91 89
3 229 89 225
3 230 113 173
3 230 173 231
3 173 180 232
3 173 232 231
3 232 228 227
3 232 227 231
3 227 226 230
3 227 230 231
3 189 133 233
3 189 233 234
3 233 235 236
3 233 236 234
3 236 228 232
3 236 232 234
3 232 180 189
3 232 189 234
3 237 76 93
3 237 93 238
3 93 91 229
3 93 229 238
3 229 228 236
3 229 236 238
3 236 235 237
3 236 237 238
3 77 76 237
3 77 237 239
3 237 235 240
3 237 240 239
3 240 241 242
3 240 242 239
3 242 79 77
3 242 77 239
3 233 133 132
3 233 132 243
3 132 140 244
3 132 244 243
3 244 241 240
3 244 240 243
3 240 235 233
3 240 233 243
3 146 117 245
3 146 245 246
3 245 247 248
3 245 248 246
3 248 241 244
3 248 244 246
3 244 140 146
3 244 146 246
3 249 59 81
3 249 81 250
3 81 79 242
3 81 242 250
3 242 241 248
3 242 248 250
3 248 247 249
3 248 249 250
3 60 59 249
3 60 249 251
3 249 247 252
3 249 252 251
3 252 253 254
3 252 254 251
3 254 62 60
3 254 60 251
3 245 117 116
3 245 116 255
3 116 124 256
3 116 256 255
3 256 253 252
3 256 252 255
3 252 247 245
3 252 245 255
3 130 97 257
3 130 257 258
3 257 259 260
3 257 260 258
3 260 253 256
3 260 256 258
3 256 124 130
3 256 130 258
3 261 35 64
3 261 64 262
3 64 62 254
3 64 254 262
3 254 253 260
3 254 260 262
3 260 259 261
3 260 261 262
3 36 35 261
3 36 261 263
3 261 259 264
3 261 264 263
3 264 265 266
3 264 266 263
3 266 38 36
3 266 36 263
3 257 97 96
3 257 96 267
3 96 104 268
3 96 268 267
3 268 265 264
3 268 264 267
3 264 259 257
3 264 257 267
3 114 113 230
3 114 230 269
3 230 226 270
3 230 270 269
3 270 265 268
3 270 268 269
3 268 104 114
3 268 114 269
3 224 41 40
3 224 40 271
3 40 38 266
3 40 266 271
3 266 265 270
3 266 270 271
3 270 226 224
3 270 224 271
3 25 33 272
3 272 33 47
