OFF
397 776 0
11.259 -2.70918 -23.0869
11.138 -2.58898 -22.9179
11.29 -2.40878 -23.0349
11.544 -2.49648 -23.3139
11.484 -2.17318 -23.0249
11.774 -2.24838 -23.3119
11.996 -2.34388 -23.3659
11.736 -2.60308 -23.3749
11.418 -2.82418 -23.1379
11.65 -1.96538 -22.8309
11.743 -1.84138 -22.5749
11.975 -1.83028 -22.6789
11.937 -2.01768 -23.0899
12.19 -1.88038 -22.6959
12.16 -2.08878 -23.1319
12.276 -1.99848 -22.5739
12.25 -2.12508 -22.3989
12.245 -2.29898 -22.6269
12.261 -2.19948 -22.9789
12.123 -2.53138 -22.8089
12.121 -2.44358 -23.1949
11.886 -2.74238 -22.8359
11.647 -2.87278 -22.7509
11.561 -2.87748 -22.9879
11.868 -2.67818 -23.2059
-0.470004 8.63582 1.13007
-0.414004 8.61052 1.06107
-0.267004 8.42222 1.15407
-0.318004 8.44172 1.22607
-0.0620041 8.29792 1.29207
-0.108004 8.31352 1.36707
-0.292004 8.52592 0.859073
-0.0650041 8.35832 0.465073
0.0779959 8.17612 0.554073
-0.147004 8.34082 0.950073
0.276996 8.05582 0.687073
0.0549959 8.21872 1.08607
0.495996 8.01132 0.840073
0.699996 8.05632 0.989073
0.483996 8.21912 1.39407
0.276996 8.17352 1.24207
0.373996 8.29832 1.60607
0.163996 8.25192 1.45107
-0.421004 9.39402 1.22907
-0.232004 9.52262 1.36007
-0.396004 9.36492 1.23107
-0.182004 9.47102 1.28607
-0.342004 9.31792 1.16007
-0.441004 9.09742 1.07407
-0.497004 9.13772 1.14307
-0.0630041 9.37172 1.08107
0.162996 9.19112 0.684073
0.00799588 9.04292 0.562073
-0.220004 9.22132 0.957073
-0.0890041 8.82962 0.478073
-0.318004 9.00452 0.872073
-0.117004 8.58882 0.443073
-0.346004 8.75992 0.836073
-0.469004 8.84862 1.03807
-0.526004 8.88122 1.10607
0.425996 9.42582 1.85107
0.582996 9.22122 1.95107
0.565996 9.20142 1.92307
0.415996 9.39542 1.82707
0.596996 9.15952 1.83507
0.450996 9.34772 1.74107
0.248996 9.47182 1.60107
0.208996 9.52332 1.68307
0.209996 9.56072 1.70107
0.704996 9.06552 1.62107
0.919996 8.88952 1.21407
0.777996 9.07172 1.12307
0.560996 9.25052 1.52907
0.581996 9.19182 0.989073
0.361996 9.37252 1.39107
0.365996 9.23612 0.834073
0.142996 9.41752 1.23407
0.0259959 9.51762 1.44107
-0.0280041 9.61072 1.53007
-0.0190041 9.57062 1.51907
0.531996 8.45152 1.73207
0.627996 8.67222 1.82007
0.598996 8.69922 1.90807
0.853996 8.20452 1.11207
0.639996 8.36972 1.51907
0.947996 8.41802 1.19707
0.734996 8.58662 1.60507
0.972996 8.65902 1.23507
0.759996 8.83142 1.64307
0.652996 8.92132 1.85707
0.642996 8.96242 1.97607
0.623996 8.95582 1.94607
1.763 6.21752 -3.83193
1.649 6.36642 -3.90093
1.955 5.41052 -5.82593
2.055 5.27732 -5.76693
2.287 4.30992 -7.97793
2.372 4.19362 -7.92793
2.497 4.11672 -7.85193
2.199 5.18932 -5.67593
1.924 6.11912 -3.72893
2.787 3.12832 -10.2219
3.594 1.92952 -12.4239
3.651 1.84222 -12.3939
2.857 3.02802 -10.1819
3.742 1.78432 -12.3429
2.963 2.96162 -10.1199
3.851 1.76262 -12.2829
3.961 1.78362 -12.2219
3.209 2.96102 -9.97293
3.087 2.93672 -10.0459
2.777 4.11632 -7.67393
2.639 4.08802 -7.76293
2.516 5.18912 -5.46693
2.275 6.11912 -3.48993
2.105 6.08262 -3.60893
2.361 5.15652 -5.57093
1.725 6.92542 -3.81593
1.858 7.04632 -3.71793
2.157 6.01852 -5.66393
2.035 5.91052 -5.74993
2.484 4.84042 -7.83793
2.373 4.74622 -7.91193
2.297 4.61032 -7.96393
1.954 5.75482 -5.81093
1.64 6.75122 -3.88393
2.982 3.58532 -10.1019
3.793 2.32682 -12.3149
3.698 2.25642 -12.3679
2.88 3.50432 -10.1629
3.627 2.15472 -12.4069
2.808 3.38722 -10.2079
3.589 2.03972 -12.4269
2.774 3.25502 -10.2289
2.265 4.45692 -7.98793
1.611 6.55462 -3.91493
1.924 5.57892 -5.83793
2.366 6.94822 -3.37093
2.48 6.79932 -3.30193
2.714 5.79742 -5.29993
2.615 5.93052 -5.35993
2.971 4.64702 -7.52993
2.887 4.76332 -7.58093
2.763 4.84022 -7.65793
2.472 6.01852 -5.45193
2.206 7.04652 -3.47593
3.402 3.41822 -9.84893
4.158 2.18092 -12.1099
4.102 2.26822 -12.1409
3.333 3.51852 -9.88893
4.012 2.32612 -12.1919
3.227 3.58492 -9.95293
3.903 2.34782 -12.2529
3.104 3.60972 -10.0269
2.622 4.86882 -7.74893
2.027 7.08292 -3.59793
2.311 6.05122 -5.55893
2.407 6.24002 -3.39093
2.637 5.29722 -5.37993
2.888 4.21052 -7.59993
2.963 4.34652 -7.54693
2.716 5.45302 -5.31793
2.491 6.41432 -3.32093
4.056 1.85402 -12.1689
3.311 3.04212 -9.90993
4.126 1.95572 -12.1289
3.382 3.15922 -9.86493
4.163 2.07072 -12.1079
3.416 3.29152 -9.84193
2.994 4.50002 -7.52093
2.518 6.61112 -3.28793
2.745 5.62902 -5.28793
4.849 0.777416 -14.4499
4.896 0.698016 -14.4269
6.312 -0.275384 -16.2349
6.353 -0.353184 -16.2189
6.43 -0.404784 -16.1859
4.977 0.645216 -14.3859
7.745 -1.17618 -17.7189
8.907 -1.87228 -18.8379
8.946 -1.96978 -18.8329
7.783 -1.25958 -17.7089
9.032 -2.03478 -18.8049
7.862 -1.31508 -17.6789
9.148 -2.05978 -18.7589
9.277 -2.03728 -18.7029
8.077 -1.31688 -17.5849
7.965 -1.33638 -17.6359
6.633 -0.406084 -16.0909
6.528 -0.424484 -16.1409
5.181 0.644316 -14.2819
5.077 0.625316 -14.3359
5.059 1.13812 -14.3389
4.966 1.07432 -14.3879
6.546 0.0771159 -16.1119
6.449 0.0148159 -16.1599
6.371 -0.0753841 -16.1999
4.894 0.982016 -14.4249
8.017 -0.798784 -17.5709
9.237 -1.43188 -18.6529
9.112 -1.50948 -18.7139
7.91 -0.865384 -17.6229
9.005 -1.62208 -18.7709
7.82 -0.961884 -17.6699
8.932 -1.74968 -18.8149
7.761 -1.07118 -17.7039
6.322 -0.177484 -16.2269
4.851 0.877516 -14.4469
5.391 1.00512 -14.1699
5.344 1.08452 -14.1929
6.866 -0.0535841 -15.9649
6.825 0.0242159 -15.9819
6.748 0.0758159 -16.0159
5.263 1.13722 -14.2339
8.349 -0.939384 -17.4339
9.606 -1.59688 -18.5129
9.567 -1.49928 -18.5189
8.31 -0.855984 -17.4439
9.481 -1.43428 -18.5489
8.232 -0.800484 -17.4749
9.366 -1.40938 -18.5959
8.129 -0.779284 -17.5199
6.65 0.0955159 -16.0619
5.163 1.15712 -14.2859
5.274 0.708116 -14.2339
6.729 -0.343784 -16.0429
6.807 -0.253584 -16.0019
5.346 0.800516 -14.1949
9.402 -1.95968 -18.6409
8.184 -1.25028 -17.5329
9.509 -1.84708 -18.5829
8.273 -1.15368 -17.4849
9.581 -1.71948 -18.5369
8.332 -1.04438 -17.4499
6.856 -0.151484 -15.9739
5.388 0.904916 -14.1719
9.561 -2.31088 -19.5289
9.603 -2.43218 -19.5279
9.864 -2.55208 -19.9569
9.912 -2.70188 -19.9589
10.028 -2.80188 -19.9269
9.703 -2.51308 -19.4989
9.977 -2.65568 -20.2849
10.057 -2.68158 -20.6769
10.111 -2.88338 -20.6829
10.028 -2.83388 -20.2889
10.256 -3.01838 -20.6449
10.161 -2.95308 -20.2539
10.463 -3.07098 -20.5709
10.702 -3.02538 -20.4689
10.561 -2.95908 -20.0959
10.347 -2.99938 -20.1869
10.374 -2.80668 -19.7889
10.19 -2.84068 -19.8679
9.994 -2.51668 -19.3809
9.84 -2.54438 -19.4479
9.971 -1.76458 -19.2949
9.819 -1.86068 -19.3689
10.367 -1.87828 -19.6679
10.183 -1.99668 -19.7579
10.023 -2.16888 -19.8439
9.687 -2.00038 -19.4399
10.573 -1.85448 -19.9419
10.737 -1.77458 -20.2859
10.494 -1.93378 -20.4049
10.358 -1.99518 -20.0469
10.28 -2.16558 -20.5209
10.169 -2.19988 -20.1489
10.124 -2.42858 -20.6169
10.033 -2.43218 -20.2329
9.909 -2.36428 -19.9149
9.595 -2.15868 -19.4969
10.403 -1.97018 -19.1389
10.36 -1.84898 -19.1419
10.875 -2.13278 -19.4879
10.828 -1.98298 -19.4889
10.712 -1.88298 -19.5249
10.261 -1.76808 -19.1739
11.155 -2.15768 -19.7369
11.379 -2.11828 -20.0609
11.326 -1.91648 -20.0569
11.104 -1.97948 -19.7349
11.181 -1.78148 -20.1009
10.972 -1.86038 -19.7759
10.975 -1.72898 -20.1809
10.786 -1.81408 -19.8479
10.551 -1.84418 -19.5869
10.125 -1.73678 -19.2269
10.146 -2.42048 -19.3059
10.557 -2.68818 -19.6979
10.717 -2.51598 -19.6069
10.277 -2.28088 -19.2319
10.944 -2.86618 -20.3469
10.776 -2.81828 -19.9879
11.158 -2.63438 -20.2259
10.964 -2.61348 -19.8809
11.313 -2.37128 -20.1239
11.1 -2.38118 -19.7909
10.83 -2.32058 -19.5329
10.369 -2.12248 -19.1729
10.264 -2.68968 -21.2959
10.317 -2.90548 -21.3049
10.552 -2.67618 -21.9799
10.605 -2.89168 -22.0019
10.757 -3.03588 -21.9759
10.468 -3.04988 -21.2659
10.874 -2.63748 -22.5649
10.932 -2.83358 -22.6229
11.082 -2.96448 -22.6359
11.476 -2.97148 -22.3699
11.26 -3.01568 -22.5179
11.219 -3.04348 -21.7649
10.969 -3.09208 -21.8859
10.941 -3.05758 -21.0789
10.686 -3.10618 -21.1879
11.007 -1.71998 -20.8719
10.746 -1.89028 -20.9999
11.311 -1.70848 -21.5489
11.052 -1.87808 -21.6899
10.82 -2.12498 -21.8289
10.513 -2.13798 -21.1259
11.577 -1.75758 -22.1669
11.354 -1.91098 -22.3319
11.155 -2.13438 -22.4959
10.972 -2.39048 -22.5479
10.639 -2.40578 -21.9239
10.341 -2.41908 -21.2299
11.681 -2.08778 -20.6349
11.629 -1.87188 -20.6299
11.975 -2.07558 -21.3159
11.933 -1.85968 -21.3199
11.792 -1.71518 -21.3749
11.479 -1.72758 -20.6749
12.176 -2.09148 -21.9569
12.158 -1.89358 -21.9939
12.048 -1.76098 -22.0789
11.831 -1.71168 -22.1099
11.571 -1.65948 -21.4479
11.261 -1.67138 -20.7599
11.202 -2.88728 -20.9469
11.487 -2.87348 -21.6439
11.728 -2.62608 -21.5229
11.434 -2.63948 -20.8159
11.737 -2.81628 -22.2949
11.975 -2.59108 -22.2189
12.119 -2.33678 -22.0689
11.899 -2.34558 -21.3979
11.605 -2.35828 -20.7049
1.271 8.60152 0.547073
1.133 8.77902 0.460073
1.692 8.17482 -0.407927
1.56 8.34552 -0.489927
1.376 8.45802 -0.613927
0.941996 8.89602 0.330073
2.117 7.58302 -1.68093
1.993 7.74422 -1.75793
1.819 7.85062 -1.87293
1.444 7.85022 -2.13793
1.626 7.88992 -2.00693
0.980996 8.45752 -0.896927
1.172 8.49962 -0.756927
0.531996 8.89542 0.0340729
0.729996 8.93932 0.180073
0.379996 8.75112 -0.0849271
0.833996 8.31882 -1.01093
0.740996 8.11902 -1.08993
0.284996 8.54322 -0.165927
1.303 7.71922 -2.24493
1.214 7.53052 -2.31993
1.229 7.11362 -2.33593
1.186 7.31752 -2.35293
0.760996 7.67772 -1.10593
0.712996 7.89352 -1.12393
0.307996 8.08412 -0.180927
0.256996 8.30862 -0.201927
0.446996 7.90652 -0.0949271
0.893996 7.50702 -1.02393
1.08 7.39432 -0.901927
0.640996 7.78932 0.0330729
1.354 6.95232 -2.26093
1.53 6.84582 -2.14693
1.907 6.84602 -1.88493
1.724 6.80632 -2.01493
1.478 7.39452 -0.621927
1.286 7.35252 -0.759927
1.053 7.78972 0.327073
0.853996 7.74592 0.182073
1.204 7.93412 0.447073
1.624 7.53332 -0.506927
1.715 7.73332 -0.425927
1.297 8.14212 0.530073
2.047 6.97702 -1.77693
2.135 7.16592 -1.69993
2.161 7.37902 -1.66493
1.74 7.95892 -0.389927
1.322 8.37692 0.567073
0.216996 9.61772 1.71907
3 0 1 2
3 0 2 3
3 2 4 5
3 2 5 3
3 5 6 7
3 5 7 3
3 7 8 0
3 7 0 3
3 9 10 11
3 9 11 12
3 11 13 14
3 11 14 12
3 14 6 5
3 14 5 12
3 5 4 9
3 5 9 12
3 15 16 17
3 15 17 18
3 17 19 20
3 17 20 18
3 20 6 14
3 20 14 18
3 14 13 15
3 14 15 18
3 21 22 23
3 21 23 24
3 23 8 7
3 23 7 24
3 7 6 20
3 7 20 24
3 20 19 21
3 20 21 24
3 25 26 27
3 25 27 28
3 27 29 30
3 27 30 28
3 31 32 33
3 31 33 34
3 33 35 36
3 33 36 34
3 36 29 27
3 36 27 34
3 27 26 31
3 27 31 34
3 37 38 39
3 37 39 40
3 39 41 42
3 39 42 40
3 42 29 36
3 42 36 40
3 36 35 37
3 36 37 40
3 30 29 42
3 43 44 45
3 44 46 47
3 44 47 45
3 47 48 49
3 47 49 45
3 49 43 45
3 50 51 52
3 50 52 53
3 52 54 55
3 52 55 53
3 55 48 47
3 55 47 53
3 47 46 50
3 47 50 53
3 56 32 31
3 56 31 57
3 31 26 58
3 31 58 57
3 58 48 55
3 58 55 57
3 55 54 56
3 55 56 57
3 49 48 58
3 49 58 59
3 58 26 25
3 58 25 59
3 60 61 62
3 60 62 63
3 62 64 65
3 62 65 63
3 65 66 67
3 65 67 63
3 67 68 60
3 67 60 63
3 69 70 71
3 69 71 72
3 71 73 74
3 71 74 72
3 74 66 65
3 74 65 72
3 65 64 69
3 65 69 72
3 75 51 50
3 75 50 76
3 50 46 77
3 50 77 76
3 77 66 74
3 77 74 76
3 74 73 75
3 74 75 76
3 44 78 79
3 78 68 67
3 78 67 79
3 67 66 77
3 67 77 79
3 77 46 44
3 77 44 79
3 80 81 82
3 39 38 83
3 39 83 84
3 83 85 86
3 83 86 84
3 86 81 80
3 86 80 84
3 80 41 39
3 80 39 84
3 87 70 69
3 87 69 88
3 69 64 89
3 69 89 88
3 89 81 86
3 89 86 88
3 86 85 87
3 86 87 88
3 62 61 90
3 62 90 91
3 90 82 91
3 82 81 89
3 82 89 91
3 89 64 62
3 89 62 91
3 92 93 94
3 92 94 95
3 94 96 97
3 94 97 95
3 97 98 99
3 97 99 95
3 99 100 92
3 99 92 95
3 101 102 103
3 101 103 104
3 103 105 106
3 103 106 104
3 106 98 97
3 106 97 104
3 97 96 101
3 97 101 104
3 107 108 109
3 107 109 110
3 109 111 112
3 109 112 110
3 112 98 106
3 112 106 110
3 106 105 107
3 106 107 110
3 113 114 115
3 113 115 116
3 115 100 99
3 115 99 116
3 99 98 112
3 99 112 116
3 112 111 113
3 112 113 116
3 117 118 119
3 117 119 120
3 119 121 122
3 119 122 120
3 122 123 124
3 122 124 120
3 124 125 117
3 124 117 120
3 126 127 128
3 126 128 129
3 128 130 131
3 128 131 129
3 131 123 122
3 131 122 129
3 122 121 126
3 122 126 129
3 132 102 101
3 132 101 133
3 101 96 134
3 101 134 133
3 134 123 131
3 134 131 133
3 131 130 132
3 131 132 133
3 94 93 135
3 94 135 136
3 135 125 124
3 135 124 136
3 124 123 134
3 124 134 136
3 134 96 94
3 134 94 136
3 137 138 139
3 137 139 140
3 139 141 142
3 139 142 140
3 142 143 144
3 142 144 140
3 144 145 137
3 144 137 140
3 146 147 148
3 146 148 149
3 148 150 151
3 148 151 149
3 151 143 142
3 151 142 149
3 142 141 146
3 142 146 149
3 152 127 126
3 152 126 153
3 126 121 154
3 126 154 153
3 154 143 151
3 154 151 153
3 151 150 152
3 151 152 153
3 119 118 155
3 119 155 156
3 155 145 144
3 155 144 156
3 144 143 154
3 144 154 156
3 154 121 119
3 154 119 156
3 157 114 113
3 157 113 158
3 113 111 159
3 113 159 158
3 159 160 161
3 159 161 158
3 161 162 157
3 161 157 158
3 109 108 163
3 109 163 164
3 163 165 166
3 163 166 164
3 166 160 159
3 166 159 164
3 159 111 109
3 159 109 164
3 167 147 146
3 167 146 168
3 146 141 169
3 146 169 168
3 169 160 166
3 169 166 168
3 166 165 167
3 166 167 168
3 139 138 170
3 139 170 171
3 170 162 161
3 170 161 171
3 161 160 169
3 161 169 171
3 169 141 139
3 169 139 171
3 103 102 172
3 103 172 173
3 172 174 175
3 172 175 173
3 175 176 177
3 175 177 173
3 177 105 103
3 177 103 173
3 178 179 180
3 178 180 181
3 180 182 183
3 180 183 181
3 183 176 175
3 183 175 181
3 175 174 178
3 175 178 181
3 184 185 186
3 184 186 187
3 186 188 189
3 186 189 187
3 189 176 183
3 189 183 187
3 183 182 184
3 183 184 187
3 190 108 107
3 190 107 191
3 107 105 177
3 107 177 191
3 177 176 189
3 177 189 191
3 189 188 190
3 189 190 191
3 128 127 192
3 128 192 193
3 192 194 195
3 192 195 193
3 195 196 197
3 195 197 193
3 197 130 128
3 197 128 193
3 198 199 200
3 198 200 201
3 200 202 203
3 200 203 201
3 203 196 195
3 203 195 201
3 195 194 198
3 195 198 201
3 204 179 178
3 204 178 205
3 178 174 206
3 178 206 205
3 206 196 203
3 206 203 205
3 203 202 204
3 203 204 205
3 172 102 132
3 172 132 207
3 132 130 197
3 132 197 207
3 197 196 206
3 197 206 207
3 206 174 172
3 206 172 207
3 148 147 208
3 148 208 209
3 208 210 211
3 208 211 209
3 211 212 213
3 211 213 209
3 213 150 148
3 213 148 209
3 214 215 216
3 214 216 217
3 216 218 219
3 216 219 217
3 219 212 211
3 219 211 217
3 211 210 214
3 211 214 217
3 220 199 198
3 220 198 221
3 198 194 222
3 198 222 221
3 222 212 219
3 222 219 221
3 219 218 220
3 219 220 221
3 192 127 152
3 192 152 223
3 152 150 213
3 152 213 223
3 213 212 222
3 213 222 223
3 222 194 192
3 222 192 223
3 163 108 190
3 163 190 224
3 190 188 225
3 190 225 224
3 225 226 227
3 225 227 224
3 227 165 163
3 227 163 224
3 186 185 228
3 186 228 229
3 228 230 231
3 228 231 229
3 231 226 225
3 231 225 229
3 225 188 186
3 225 186 229
3 232 215 214
3 232 214 233
3 214 210 234
3 214 234 233
3 234 226 231
3 234 231 233
3 231 230 232
3 231 232 233
3 208 147 167
3 208 167 235
3 167 165 227
3 167 227 235
3 227 226 234
3 227 234 235
3 234 210 208
3 234 208 235
3 180 179 236
3 180 236 237
3 236 238 239
3 236 239 237
3 239 240 241
3 239 241 237
3 241 182 180
3 241 180 237
3 242 243 244
3 242 244 245
3 244 246 247
3 244 247 245
3 247 240 239
3 247 239 245
3 239 238 242
3 239 242 245
3 248 249 250
3 248 250 251
3 250 252 253
3 250 253 251
3 253 240 247
3 253 247 251
3 247 246 248
3 247 248 251
3 254 185 184
3 254 184 255
3 184 182 241
3 184 241 255
3 241 240 253
3 241 253 255
3 253 252 254
3 253 254 255
3 200 199 256
3 200 256 257
3 256 258 259
3 256 259 257
3 259 260 261
3 259 261 257
3 261 202 200
3 261 200 257
3 262 263 264
3 262 264 265
3 264 266 267
3 264 267 265
3 267 260 259
3 267 259 265
3 259 258 262
3 259 262 265
3 268 243 242
3 268 242 269
3 242 238 270
3 242 270 269
3 270 260 267
3 270 267 269
3 267 266 268
3 267 268 269
3 236 179 204
3 236 204 271
3 204 202 261
3 204 261 271
3 261 260 270
3 261 270 271
3 270 238 236
3 270 236 271
3 216 215 272
3 216 272 273
3 272 274 275
3 272 275 273
3 275 276 277
3 275 277 273
3 277 218 216
3 277 216 273
3 278 279 280
3 278 280 281
3 280 282 283
3 280 283 281
3 283 276 275
3 283 275 281
3 275 274 278
3 275 278 281
3 284 263 262
3 284 262 285
3 262 258 286
3 262 286 285
3 286 276 283
3 286 283 285
3 283 282 284
3 283 284 285
3 256 199 220
3 256 220 287
3 220 218 277
3 220 277 287
3 277 276 286
3 277 286 287
3 286 258 256
3 286 256 287
3 228 185 254
3 228 254 288
3 254 252 289
3 254 289 288
3 289 290 291
3 289 291 288
3 291 230 228
3 291 228 288
3 250 249 292
3 250 292 293
3 292 294 295
3 292 295 293
3 295 290 289
3 295 289 293
3 289 252 250
3 289 250 293
3 296 279 278
3 296 278 297
3 278 274 298
3 278 298 297
3 298 290 295
3 298 295 297
3 295 294 296
3 295 296 297
3 272 215 232
3 272 232 299
3 232 230 291
3 232 291 299
3 291 290 298
3 291 298 299
3 298 274 272
3 298 272 299
3 244 243 300
3 244 300 301
3 300 302 303
3 300 303 301
3 303 304 305
3 303 305 301
3 305 246 244
3 305 244 301
3 306 1 0
3 306 0 307
3 0 8 308
3 0 308 307
3 308 304 303
3 308 303 307
3 303 302 306
3 303 306 307
3 23 22 309
3 23 309 310
3 309 311 312
3 309 312 310
3 312 304 308
3 312 308 310
3 308 8 23
3 308 23 310
3 313 249 248
3 313 248 314
3 248 246 305
3 248 305 314
3 305 304 312
3 305 312 314
3 312 311 313
3 312 313 314
3 264 263 315
3 264 315 316
3 315 317 318
3 315 318 316
3 318 319 320
3 318 320 316
3 320 266 264
3 320 264 316
3 321 10 9
3 321 9 322
3 9 4 323
3 9 323 322
3 323 319 318
3 323 318 322
3 318 317 321
3 318 321 322
3 2 1 306
3 2 306 324
3 306 302 325
3 306 325 324
3 325 319 323
3 325 323 324
3 323 4 2
3 323 2 324
3 300 243 268
3 300 268 326
3 268 266 320
3 268 320 326
3 320 319 325
3 320 325 326
3 325 302 300
3 325 300 326
3 280 279 327
3 280 327 328
3 327 329 330
3 327 330 328
3 330 331 332
3 330 332 328
3 332 282 280
3 332 280 328
3 333 16 15
3 333 15 334
3 15 13 335
3 15 335 334
3 335 331 330
3 335 330 334
3 330 329 333
3 330 333 334
3 11 10 321
3 11 321 336
3 321 317 337
3 321 337 336
3 337 331 335
3 337 335 336
3 335 13 11
3 335 11 336
3 315 263 284
3 315 284 338
3 284 282 332
3 284 332 338
3 332 331 337
3 332 337 338
3 337 317 315
3 337 315 338
3 292 249 313
3 292 313 339
3 313 311 340
3 313 340 339
3 340 341 342
3 340 342 339
3 342 294 292
3 342 292 339
3 309 22 21
3 309 21 343
3 21 19 344
3 21 344 343
3 344 341 340
3 344 340 343
3 340 311 309
3 340 309 343
3 17 16 333
3 17 333 345
3 333 329 346
3 333 346 345
3 346 341 344
3 346 344 345
3 344 19 17
3 344 17 345
3 327 279 296
3 327 296 347
3 296 294 342
3 296 342 347
3 342 341 346
3 342 346 347
3 346 329 327
3 346 327 347
3 71 70 348
3 71 348 349
3 348 350 351
3 348 351 349
3 351 352 353
3 351 353 349
3 353 73 71
3 353 71 349
3 354 138 137
3 354 137 355
3 137 145 356
3 137 356 355
3 356 352 351
3 356 351 355
3 351 350 354
3 351 354 355
3 155 118 357
3 155 357 358
3 357 359 360
3 357 360 358
3 360 352 356
3 360 356 358
3 356 145 155
3 356 155 358
3 361 51 75
3 361 75 362
3 75 73 353
3 75 353 362
3 353 352 360
3 353 360 362
3 360 359 361
3 360 361 362
3 52 51 361
3 52 361 363
3 361 359 364
3 361 364 363
3 364 365 366
3 364 366 363
3 366 54 52
3 366 52 363
3 357 118 117
3 357 117 367
3 117 125 368
3 117 368 367
3 368 365 364
3 368 364 367
3 364 359 357
3 364 357 367
3 135 93 369
3 135 369 370
3 369 371 372
3 369 372 370
3 372 365 368
3 372 368 370
3 368 125 135
3 368 135 370
3 373 32 56
3 373 56 374
3 56 54 366
3 56 366 374
3 366 365 372
3 366 372 374
3 372 371 373
3 372 373 374
3 33 32 373
3 33 373 375
3 373 371 376
3 373 376 375
3 376 377 378
3 376 378 375
3 378 35 33
3 378 33 375
3 369 93 92
3 369 92 379
3 92 100 380
3 92 380 379
3 380 377 376
3 380 376 379
3 376 371 369
3 376 369 379
3 115 114 381
3 115 381 382
3 381 383 384
3 381 384 382
3 384 377 380
3 384 380 382
3 380 100 115
3 380 115 382
3 385 38 37
3 385 37 386
3 37 35 378
3 37 378 386
3 378 377 384
3 378 384 386
3 384 383 385
3 384 385 386
3 83 38 385
3 83 385 387
3 385 383 388
3 385 388 387
3 388 389 390
3 388 390 387
3 390 85 83
3 390 83 387
3 381 114 157
3 381 157 391
3 157 162 392
3 157 392 391
3 392 389 388
3 392 388 391
3 388 383 381
3 388 381 391
3 170 138 354
3 170 354 393
3 354 350 394
3 354 394 393
3 394 389 392
3 394 392 393
3 392 162 170
3 392 170 393
3 348 70 87
3 348 87 395
3 87 85 390
3 87 390 395
3 390 389 394
3 390 394 395
3 394 350 348
3 394 348 395
3 60 68 396
3 396 68 78
