0.792273
1.07347
1.36467
0.977806
1.36733
1.32514
1.42016
1.14204
1.3764
1.50604
1.5039
1.45802
1.36602
1.54488
0.986646
0.849827
0.864283
0.881325
0.639972
0.79455
1.52598
1.19553
1.41138
1.33352
0.880821
0.76875
1.20948
1.0918
1.38288
1.14677
0.552405
0.746224
0.735331
1.25088
0.224555
0.669288
2.50951
1.14033
1.04893
0.750938
1.45593
1.08462
1.22864
1.34822
1.35712
1.1586
1.21456
1.02525
1.03636
0.957224
1.18992
1.04529
0.804763
0.865665
1.21867
1.00568
1.25287
1.69731
1.17378
2.28644
2.28083
2.07962
1.36642
1.71854
3.03327
1.66587
1.83118
1.21824
1.55796
1.16361
1.34383
2.00657
1.74851
1.62232
1.54776
1.41032
1.66461
1.78519
1.79825
1.83633
1.85213
1.42234
1.5242
1.92414
2.41769
2.06341
1.58381
1.84566
2.07158
1.75224
2.08264
2.13581
1.47907
0.741517
1.94014
1.49615
1.70204
3.10078
1.77488
1.31862
2.02167
1.51706
1.56748
2.15544
1.87233
1.95756
1.66793
1.31716
2.05779
1.76456
2.26507
2.21983
1.36003
1.61432
1.41502
1.73207
2.09137
1.41353
1.96846
2.26919
1.37747
2.28023
1.90054
1.96671
1.56986
1.86343
2.05356
1.84329
1.62622
1.07149
2.29586
1.27251
1.65223
1.57487
1.23713
1.69326
2.20309
2.15425
2.33636
2.0574
2.03918
1.6698
2.0355
1.82905
2.19931
2.29068
1.69235
1.86802
1.61318
1.81957
1.81417
1.71333
2.21573
2.19385
1.9819
1.99864
0.803598
2.42082
1.27437
1.84888
2.11719
2.46327
1.16874
1.02848
1.5731
2.35618
1.31618
2.4028
1.40555
2.0549
1.80253
1.54039
0.988025
1.87108
0.889484
1.84201
1.9945
2.3849
1.44105
1.81345
1.54839
2.36405
2.18256
2.19962
2.22267
1.91593
2.13581
1.48204
1.85893
1.63211
1.70831
1.72189
1.59419
1.68228
1.66834
1.23849
2.10429
2.67495
2.07065
1.97654
1.66886
1.58315
1.61365
1.81706
1.7959
1.9921
1.7191
2.57835
1.84663
1.58543
1.50738
2.06748
1.47254
1.55283
1.92602
2.07733
1.92348
1.47927
1.42221
1.48866
1.73211
1.75631
0.865919
1.87671
1.85389
1.32338
1.72512
2.22549
2.42276
2.50275
1.6519
1.90507
2.61314
2.09098
1.48017
1.76046
1.58423
2.08359
2.44638
1.97918
1.64682
1.51693
1.93864
1.36903
1.81808
1.71861
1.62957
1.09998
1.51253
1.86873
1.89298
1.38481
1.95342
1.74307
1.62811
2.19862
1.60501
1.56392
1.48756
1.44143
2.01274
1.21359
2.18447
1.82573
1.86125
1.74611
1.59398
1.79334
2.16831
1.49895
1.77096
2.07762
1.72256
1.96844
1.71207
1.70149
1.54298
1.51875
2.2761
1.42296
2.05325
1.28817
1.91015
1.82985
1.88242
2.02286
1.68763
1.34887
1.86469
1.08241
1.66563
0.874172
1.65802
2.1687
1.59447
1.59684
1.93983
1.52956
2.02005
1.83434
1.52446
1.37159
1.91723
1.17175
1.59053
1.75594
1.59424
1.23101
1.7117
0.962139
1.26553
1.85515
0.91505
1.6244
1.515
0.898116
0.966721
0.932604
1.01852
1.16643
1.1502
1.00653
1.08907
1.49214
1.44814
1.38945
1.40771
1.62608
1.4853
1.44438
1.57874
1.49218
1.25321
1.20145
1.30208
1.74093
1.45534
1.29113
1.00385
2.07906
2.23975
2.05291
1.73238
1.55013
1.93493
1.8874
0.843047
1.99297
1.84252
1.77359
1.71186
1.57415
2.05262
1.47141
1.88099
1.9603
1.97008
2.00945
2.09171
2.1278
1.92737
1.8558
1.92172
1.95313
2.06838
1.89655
1.90669
1.81971
1.76638
1.92871
2.15347
1.5402
1.41862
1.65506
1.88231
2.13226
2.10344
2.19575
1.90134
1.66228
1.38502
2.20994
1.90824
1.44635
2.10723
1.45615
1.31062
0.735541
0.423991
0.706863
0.639045
0.89114
0.834257
0.583727
0.497637
1.41466
1.38352
1.2992
1.25681
1.36051
1.33071
0.925112
0.903106
0.683051
1.47168
0.999942
0.759643
1.23619
1.13281
1.3429
1.08001
0.374701
0.52444
0.645397
0.692716
1.19321
1.12377
0.757046
0.650133
2.09912
1.8598
1.98028
2.18269
2.05437
2.10109
1.46899
1.89359
1.40048
1.86119
1.71924
1.36812
1.70263
1.7115
1.40589
2.13166
1.37834
1.09728
2.1145
1.95182
2.07311
2.27563
1.3763
1.34769
2.04781
1.73027
1.75172
2.33706
2.07497
1.83099
2.80381
2.02753
1.42938
1.43864
1.47707
3.88919
1.59507
1.41691
1.38389
1.46604
1.66444
1.38948
1.70267
1.81294
1.37937
1.94696
1.62004
1.30958
2.26384
1.57596
1.64238
1.88805
1.48069
1.80714
1.99614
1.74848
1.40352
1.24586
1.31381
1.35157
1.58754
1.60813
1.55067
1.20583
0.723403
1.05688
0.819168
0.65769
1.25077
1.0336
1.04204
1.06455
0.800817
1.5924
1.1565
1.42279
1.56762
1.4418
0.966995
1.22714
1.24034
1.32796
1.1498
1.21066
1.39429
1.25638
1.34298
1.53666
1.50805
0.931732
1.11011
0.690915
1.07824
1.30078
1.10796
1.21793
0.955217
1.06612
1.14716
1.19783
1.13101
1.20446
1.16895
1.14673
1.18753
1.36865
1.27164
1.32677
1.34386
1.24049
1.17466
1.01113
1.28988
1.22727
1.47044
1.34578
1.42719
1.34942
1.30039
1.26346
1.30844
1.02949
1.07623
1.04614
1.14533
1.11857
1.20574
1.28342
1.23156
0.780644
0.926598
1.08402
1.11049
0.988393
1.22691
0.627471
0.588825
1.65433
1.36143
1.7882
1.46449
1.01728
1.34027
1.38535
1.64182
1.74342
1.67339
1.59672
1.65499
1.51147
1.42819
0.930708
1.86984
0.702249
0.998087
0.82084
0.590165
1.13139
1.16972
1.16922
1.08836
1.18002
1.30172
1.16362
1.20543
1.19776
1.1938
1.35947
1.23495
1.10602
1.18491
1.22668
1.37561
1.33619
1.18609
1.16411
1.1475
1.17516
1.19061
1.16182
1.19442
1.29366
0.994242
1.57868
1.34731
1.27995
1.37638
1.23325
1.29321
1.19965
1.15218
1.22091
1.31451
1.16011
1.20052
1.17344
1.26346
1.17144
1.1813
1.18427
1.37984
1.42767
1.52013
1.35839
1.41469
1.2291
1.1904
1.34167
1.72279
1.57548
1.16969
1.28967
1.71411
1.04152
1.51716
1.65164
1.35631
0.990662
1.30617
1.108
1.09557
1.41176
1.0325
1.15394
1.30348
0.900808
0.785843
1.52618
1.4378
1.10825
0.958875
0.872511
1.10662
1.18081
1.46765
1.65695
1.28364
1.50402
1.3842
1.73254
1.45941
1.51655
0.867779
1.12912
1.54198
1.32026
1.07484
1.72214
1.28322
1.16981
1.22214
0.878091
1.0521
1.03109
1.11129
0.988723
0.956395
0.925697
0.864901
0.641207
0.757858
0.301374
0.338224
1.73063
0.827208
0.700428
1.31459
1.57291
0.72076
1.19177
0.359378
0.43921
0.480626
0.728299
0.691428
0.274867
0.488272
0.283776
0.319476
0.616457
0.908839
1.76484
0.837161
0.949421
0.352094
0.248347
0.326014
0.47928
0.688387
1.25128
1.00486
0.534806
0.870468
1.53178
1.15354
1.40713
0.808544
0.635042
0.624776
0.760269
0.621439
0.991523
1.05394
0.351811
0.866171
0.355257
0.270799
0.206064
0.250767
0.335239
0.48574
0.432166
0.443453
0.93264
0.746531
1.05295
0.933818
0.376594
0.388869
0.355919
0.464137
1.03528
0.54889
0.314018
0.340753
0.281605
0.340885
0.942485
0.971553
0.836181
0.172056
0.445155
0.330325
0.347085
0.168043
0.315916
0.18119
0.399343
0.298288
0.185246
0.303709
0.66479
0.419097
0.384794
0.256402
0.793229
0.595374
1.04977
0.752393
0.465139
0.629495
0.211176
0.430017
1.0129
0.791998
0.900756
0.872855
0.333486
0.459751
0.401016
0.447009
0.826154
0.751029
0.310087
0.383242
0.24098
0.346544
0.990123
0.820998
0.328948
0.275082
0.592147
0.304316
0.165734
0.252849
0.193844
0.219217
0.382958
0.376908
0.273691
0.265886
0.418059
0.27322
0.815682
0.442798
1.43186
0.686786
0.369307
0.58794
0.285109
0.418895
0.796901
0.520539
0.814307
0.435121
0.395072
0.330755
0.269569
0.286508
0.31665
0.286044
0.631365
0.49441
0.293818
0.338995
0.190304
0.209184
0.528308
0.359077
0.651462
0.57599
0.92224
0.949223
0.262937
0.274626
0.559087
0.551543
1.20826
1.70074
0.542767
0.943403
1.39099
1.20122
1.46124
1.49918
0.824512
0.891326
1.5057
1.25111
1.54858
1.45448
0.697482
0.848181
0.903986
0.849954
0.985788
0.991531
1.34436
1.35824
1.61168
1.605
1.15648
2.05397
1.85192
1.51385
1.36737
1.46801
0.879976
1.10865
1.09001
1.17442
1.094
0.569901
1.25945
1.31377
1.3205
1.35945
1.22463
1.20713
0.716495
1.20861
1.27407
1.33769
0.566151
0.255947
0.975181
0.959366
1.20294
1.18091
1.17078
1.0747
0.823785
0.804008
1.16316
1.16721
1.03685
0.979715
1.1658
1.06846
1.16204
1.19298
1.25564
1.33935
1.23944
1.26775
1.20233
1.18073
1.16808
1.15571
1.07904
1.25935
1.15166
1.24487
1.22404
1.15313
1.21121
1.23201
0.923461
0.830055
1.32358
0.853392
1.25955
0.924387
1.16705
1.19756
0.709669
0.809935
1.24186
1.44593
1.25992
1.5615
0.657744
0.765162
0.567214
1.21652
1.23292
0.838901
0.488802
0.693996
0.22279
1.182
0.754645
0.703574
0.435591
0.520557
0.507079
0.500493
1.28978
0.734786
0.47589
0.735166
0.362148
0.42364
0.42663
0.568656
0.398206
0.430423
0.794592
0.577003
0.750991
0.637833
0.373807
0.400472
0.855842
0.303852
1.17772
1.14932
1.00754
1.07974
1.07588
1.11133
1.1776
1.44445
0.896284
0.902922
0.612336
1.02439
0.856977
0.934752
0.934342
0.933524
0.596364
0.927895
1.15066
1.08177
1.01259
1.0019
0.941845
0.987662
1.1841
1.17933
1.1677
1.16898
1.10453
1.20622
1.34511
1.2068
1.16558
1.13119
1.18221
1.16136
1.15693
1.18377
1.19276
1.19455
1.1592
0.694319
0.871351
1.16318
0.962466
1.19853
1.18145
1.02923
1.12519
0.833588
1.1048
1.12094
1.10115
0.984948
0.907309
1.16314
1.09584
0.889495
0.92022
0.921115
0.891509
0.907436
1.18073
1.05996
0.949489
0.892547
0.723268
0.897746
1.27684
0.812648
1.22031
0.857101
0.960253
0.889614
1.07318
0.886924
0.372482
0.58643
0.992394
0.924134
0.907029
1.03832
0.986589
1.01116
0.645268
1.25151
0.615981
1.1052
0.471708
1.12482
