1.78918
2.00983
1.85503
3.48695
3.25111
4.75999
1.5056
1.58223
4.39273
3.68964
4.71779
3.86185
3.71575
5.41179
1.52417
2.5629
3.66953
6.37794
3.17579
7.16562
3.34843
4.81696
3.9907
4.32109
1.69
4.80391
1.18273
2.42467
4.35258
4.43695
9.61214
1.87708
0.255348
0.270607
0.230045
0.239166
1.3269
4.15116
0.940285
2.83406
2.52943
3.77905
3.20968
3.16575
3.99984
2.62718
3.49753
4.0954
3.68971
3.09224
3.36165
2.8093
3.06709
3.43879
1.48444
2.69071
3.54821
2.96629
3.72386
1.8596
3.62622
3.76596
1.12876
2.19089
1.61314
2.41268
3.57195
4.60421
3.06046
2.16893
2.43231
2.75003
3.4879
2.44941
3.09062
1.35842
3.2153
2.98073
3.17311
4.56196
4.24675
3.8245
4.41913
4.48034
3.90393
3.83234
1.40785
3.66976
4.12604
3.19953
1.95533
3.16479
2.59497
3.15152
4.22434
3.82679
3.44448
2.65938
3.17883
2.72889
3.90056
3.48657
2.69918
5.49601
3.62356
3.51385
4.32668
3.57266
4.53198
3.81647
4.35619
3.46196
3.69085
4.326
4.135
4.95798
3.8873
1.52814
1.84717
3.96555
2.76861
3.68894
3.15277
4.16181
3.34522
2.14689
3.57919
3.14603
3.69299
2.98305
3.1362
3.84182
3.08822
3.79888
3.71371
3.68006
4.16101
3.61128
4.28728
4.38816
3.61101
4.23428
2.86165
2.5097
2.30303
4.6277
2.586
1.6694
3.23209
3.51956
2.94111
2.74181
3.2699
2.13129
2.39665
4.36565
5.04514
4.32611
7.78686
6.04713
3.37018
4.65101
4.74777
2.97258
5.08543
3.57312
4.71559
4.60129
5.48823
5.86122
8.01407
2.15082
3.16204
6.07563
6.0234
4.74958
4.84229
2.59954
3.75389
3.43673
5.93661
4.86591
5.83488
4.12069
3.52834
4.72824
5.67576
4.70223
6.72845
5.67532
5.41213
3.30118
4.44963
3.46543
3.36423
1.23193
1.09864
3.66202
4.05719
3.50963
6.09166
5.59526
3.63825
1.63466
3.7142
1.42855
2.05377
2.09817
4.27589
1.64833
6.91545
1.66372
2.0786
1.20705
3.67443
2.48792
2.22194
1.93746
1.68529
5.7271
5.06496
4.11173
5.17615
4.06
6.3835
4.98476
4.99264
4.1869
4.35101
5.37354
5.20995
5.49935
5.13662
4.07321
5.01398
3.62007
3.96599
4.96762
1.25769
4.7526
4.86671
1.7857
5.13667
2.49532
4.69807
1.87144
2.8791
4.99293
4.23108
4.89892
5.03985
1.59973
2.07069
2.16865
1.69009
2.33079
2.04172
3.15552
2.27802
5.50182
1.66891
2.36092
1.72244
3.62424
2.79982
1.55988
1.84457
4.85658
3.82031
4.13674
3.98863
3.85209
3.39138
3.31573
3.97498
5.5471
4.43279
3.47965
3.45935
3.22286
2.00105
4.47366
3.5265
2.5335
1.93938
1.68699
4.32314
2.1015
4.76131
2.65522
1.70656
1.89958
4.15372
5.16223
1.59704
5.16806
2.26602
5.37845
3.08388
4.3845
3.62066
4.12823
2.60852
2.84241
1.46473
5.9045
4.22093
2.85816
4.21348
2.98368
2.65083
1.6493
2.13098
3.17421
2.79932
1.051
0.961832
4.72796
3.28448
2.59994
6.15451
5.64509
4.4645
3.83454
3.61841
2.64955
1.33001
5.07013
4.87383
4.75418
0.790949
2.19796
4.2896
5.85691
4.62253
2.72945
3.07949
4.10091
5.13698
2.23532
2.51137
5.12184
5.10601
1.5234
1.92744
1.66213
5.14691
2.15445
4.08974
4.70487
1.10077
5.44837
2.57003
1.84057
4.69405
4.64704
4.44885
4.91688
4.88028
2.92639
4.80868
4.22883
2.84269
4.85609
6.27863
6.23088
3.43656
5.26156
1.01093
4.57254
4.48306
4.01846
3.53832
3.5872
2.25408
2.64192
5.49084
3.02321
3.15232
3.03027
2.78186
3.5566
4.68907
1.51296
4.31095
3.05897
3.44069
0.997625
2.11464
0.745944
1.50364
4.17216
3.97826
1.69888
3.4456
1.08673
4.34108
4.5313
3.46564
0.398495
2.64744
3.68948
1.25705
2.46674
1.05222
3.51921
3.11052
2.45672
3.25401
2.43313
5.62367
3.69318
2.50294
0.873944
0.615409
4.37495
0.53001
0.619574
0.907173
0.9267
0.992919
0.492628
0.651314
0.512761
0.75047
7.55369
0.971743
1.19796
0.793132
0.511162
0.306886
0.580203
0.634191
0.810737
1.31324
2.18259
3.37002
0.334742
0.466297
0.593658
0.413965
1.08247
1.72008
2.96596
0.824865
2.62155
5.14877
1.10036
0.837877
2.93594
0.904719
0.704594
1.12721
0.423247
0.693952
0.511487
0.588663
1.25735
0.83019
0.673059
0.494208
0.955867
2.57227
0.645093
0.592321
0.7386
8.03682
1.17184
1.12463
1.17025
1.33166
3.14313
0.337488
3.11429
6.62711
1.21086
0.949234
0.819274
0.806116
1.1772
2.31393
0.49471
0.911103
3.08718
0.965043
1.04513
0.907481
0.621325
0.540455
0.91076
1.27543
1.84826
1.55588
0.845198
0.38449
0.52424
0.400311
4.08414
1.15875
0.412807
0.790156
0.544572
0.945408
1.78443
0.415558
0.884636
1.028
0.983568
3.98012
0.946793
0.865219
0.960925
1.25085
0.605494
4.66913
2.34876
0.688877
2.93333
3.86744
2.00742
4.50213
2.38749
2.10082
2.22252
4.15813
1.06305
1.56485
1.83175
6.6601
1.83727
2.26717
4.92409
2.2805
0.87724
1.10182
1.7599
2.09728
0.887705
0.924594
1.08471
0.883588
2.26746
3.85632
3.04885
1.30324
3.02279
2.63666
3.05102
4.1926
4.99468
1.59706
4.86246
4.1774
2.96039
2.19808
2.09945
1.28902
6.10494
1.06504
1.72886
1.99582
4.49469
5.62373
4.22527
4.78813
5.13495
2.91767
5.47568
3.13407
3.9221
3.97273
4.06774
2.36988
4.87292
3.55777
4.48686
4.39322
2.50357
0.827554
3.45386
4.33991
2.37017
1.3994
1.032
0.917917
2.06967
3.26589
5.37725
2.56814
3.22258
2.76034
3.33796
4.50423
3.16845
5.21073
3.09754
2.41131
3.53889
5.56052
0.86654
0.977502
1.41724
1.85876
3.37545
2.63458
0.681792
2.05446
3.20831
1.09808
1.31658
1.18775
1.40346
2.15082
2.33773
3.32433
2.71039
0.543217
2.76893
3.36716
2.30599
3.24508
8.35856
7.28887
3.2281
0.796254
2.89413
1.89771
2.64205
2.97367
3.20662
3.02048
2.89823
3.88759
2.87312
3.10243
2.84757
2.73418
1.95975
3.05692
2.92193
2.58756
3.42319
3.57627
1.74544
1.24795
3.68534
2.88899
3.16069
3.00581
2.83092
3.18432
2.92648
2.99071
3.23497
3.51137
0.602088
2.88157
2.88758
3.41585
2.25284
3.249
2.34626
2.90429
