0.782474
0.645561
0.604089
0.52095
0.283036
0.376662
0.595654
0.579804
0.749866
0.663419
0.657586
0.590458
0.273167
0.441953
0.595629
0.527583
0.788626
0.621572
0.604946
0.508821
0.292036
0.418735
0.621576
0.585186
0.720302
0.659533
0.52396
0.528137
0.260075
0.353306
0.623845
0.515417
1.1003
0.993504
1.06939
1.03351
1.06125
1.15229
1.27094
0.989161
1.08591
1.0115
1.1058
1.13118
1.08839
1.11734
1.03352
1.04078
1.12642
1.08603
0.950222
1.1399
1.02373
1.09643
1.1864
1.09688
1.316
1.2052
1.18443
1.05574
1.1274
1.11365
1.12717
1.07223
1.24142
1.21267
1.06007
1.12471
1.16057
1.16648
1.15118
1.11146
1.1967
1.16128
1.13813
1.12748
1.11615
1.09199
1.05623
1.12646
1.05045
1.04317
1.00361
1.02037
0.975786
1.02302
1.042
1.04275
1.13185
1.1296
1.10299
1.11341
1.03784
1.01697
1.03984
1.01449
1.21042
1.17386
1.08513
1.11452
1.06731
1.05187
0.949193
1.09086
1.10298
1.11837
1.10997
1.12464
1.06876
1.06125
1.11021
1.12341
1.1834
1.13653
1.0685
1.14781
0.994708
1.11402
1.07866
1.07894
1.3607
1.18919
1.09256
1.23028
1.06829
1.03668
1.11616
1.16119
1.29348
1.21443
1.06487
1.09767
1.05304
1.02959
1.26886
1.18299
0.93741
1.0751
1.12371
1.14224
1.12099
1.11014
1.06087
1.07439
1.08824
1.15693
1.11515
1.14712
1.06495
1.10078
1.11288
1.09817
1.20893
1.17487
1.1855
1.09928
1.12802
1.1487
1.14404
1.16462
1.107
1.03558
1.85436
0.924761
1.40397
1.03634
1.18818
1.06974
0.939089
0.633798
1.90782
1.24977
1.34817
1.13014
0.8575
1.40053
0.830473
1.38829
1.92293
2.32906
1.27257
0.971256
1.08354
1.75107
1.4377
0.926035
1.28411
1.21285
1.15448
1.10679
1.09954
1.37559
1.0951
1.12517
1.23635
0.962754
3.4741
0.957573
0.924218
1.57902
1.37927
0.724812
0.98527
0.752502
0.825806
1.16777
0.963208
1.07746
1.21086
0.865936
0.841301
1.12877
1.0055
1.31684
1.26339
0.862242
0.989603
1.16977
0.917506
1.18572
1.56651
0.975158
1.36776
0.967174
1.35314
1.03608
0.997776
1.49055
1.4012
1.3655
1.11621
1.09917
0.688026
1.43479
0.737034
1.58065
1.2552
1.27441
1.65038
0.823416
5.16497
0.795918
0.904439
2.13245
1.38694
1.58258
1.89266
0.920765
1.24939
1.22833
1.28927
1.2255
1.10513
1.26309
1.5875
1.20788
1.39566
0.946748
0.905518
1.50819
0.892068
1.41035
1.29909
0.997987
0.724869
1.07599
0.711822
1.25427
1.44685
0.778632
1.37973
1.00934
0.661648
1.39018
2.21524
0.932153
1.50088
0.837655
0.709984
1.25554
1.66643
0.944563
1.57573
1.00129
0.952994
1.44891
0.863252
1.72211
0.903364
0.933358
1.235
0.532665
0.940813
0.873296
5.48418
1.04036
1.39229
0.451194
1.33096
0.712846
0.797375
0.696922
0.457545
1.16647
0.570282
0.838493
1.2353
0.540733
1.51772
1.57387
0.793735
1.30796
1.25584
0.528031
2.57073
0.819468
1.0543
1.58363
0.584914
1.31357
0.660451
1.07634
1.39503
0.500021
2.32979
0.546542
0.685135
3.22029
1.21504
0.535782
1.00633
0.537955
0.585321
0.93796
0.468128
1.67659
1.02137
0.523469
0.43115
1.5256
0.538493
2.0784
1.0761
0.560339
0.489485
1.12862
0.634327
2.36224
0.61596
0.589933
1.19637
0.61403
1.51911
0.69965
0.545219
1.33818
0.666367
2.13466
1.53532
0.748506
0.618398
0.877895
0.724386
0.972604
1.51493
0.547146
1.3079
0.480663
1.26997
0.695139
0.851295
1.12166
1.94666
2.02903
1.31591
0.839271
0.979219
1.57803
1.26697
3.63094
0.918168
1.30481
1.239
0.895367
1.71572
0.520563
0.462761
1.0625
0.524302
1.62035
1.94242
0.556129
0.503638
1.18911
0.652695
1.24566
0.872963
0.528604
1.71384
0.560686
0.629536
0.859114
1.70123
0.51583
2.55304
0.515849
0.629597
0.767688
1.12857
0.559899
2.40851
0.585768
0.526316
0.839424
0.484412
0.916985
0.492636
1.16525
0.916385
0.692651
1.07491
0.680582
0.551775
0.895356
0.812938
0.950946
0.905802
1.04554
1.12803
1.09791
0.785134
1.01027
0.938956
0.970648
1.06811
1.11926
1.1271
1.09748
0.890747
1.07
0.7794
0.727484
0.841217
1.02358
1.18967
0.837222
1.03476
0.94546
0.55816
1.07686
0.883965
0.862376
0.978412
0.856557
0.705364
0.979855
0.84315
0.852016
0.795118
0.823337
0.946187
0.919711
1.00412
0.792334
0.815465
0.893162
0.924611
0.907166
0.935063
0.945872
0.790445
0.818544
0.679616
0.902624
0.684986
0.900762
0.970688
0.843057
1.03105
0.877035
0.919554
0.830743
0.944993
0.890325
1.14165
0.970411
0.874594
0.842782
0.758474
0.772157
0.85031
0.888638
1.19095
1.1194
0.996714
1.0808
0.915444
0.930836
0.926928
1.13085
1.16933
1.0697
0.774673
0.910155
0.828686
1.00926
0.972705
0.901666
1.17679
1.02199
1.12611
0.717062
0.85106
0.751801
0.90722
0.94402
0.906306
0.953328
0.849372
0.732205
0.930064
0.823736
0.767547
0.878894
0.995219
0.878255
0.882421
1.04973
0.853239
0.792195
0.941914
0.847054
0.935827
0.864476
0.779134
0.8951
0.869075
0.788458
0.804926
0.758527
0.869268
0.923782
0.943944
1.00704
1.20158
1.04436
0.880547
0.892379
0
0.29746
1.24683
0.862884
1.21406
1.29063
0.777035
0.689221
0
0.65744
1.25064
1.2831
0.841008
0.93298
1.1524
1.22278
1.20865
1.31139
1.55407
1.39923
1.12481
1.03992
1.22175
1.24963
1.13251
1.15718
1.21881
1.24294
1.1901
0.85618
0.993749
1.10028
1.20682
1.04327
1.25954
0.774836
1.10557
1.28233
1.08827
1.26196
0.952768
1.06732
0.900058
1.19065
1.24832
1.21697
1.54967
1.41018
1.14575
1.06384
1.25688
1.23321
1.21096
1.15465
1.20008
1.17962
1.0952
1.09499
1.07267
1.01829
1.08807
1.09358
1.09347
1.07806
1.24376
1.07471
1.20097
1.24644
1.3179
1.25783
1.13445
1.13867
0.724223
1.25786
1.26087
1.15285
1.20662
1.27375
1.20013
1.45877
1.13283
1.09089
1.1278
1.10813
1.13709
1.14789
1.18738
1.16667
1.06862
1.17474
0.984257
1.01942
1.18144
1.13646
1.12449
1.08361
1.01823
1.42188
1.05439
1.30375
1.1532
0.988584
1.21105
1.15996
1.12778
1.33088
1.32222
1.0997
1.2109
1.10104
0.974683
1.19362
1.1285
1.14703
1.10554
1.11499
1.14018
1.19369
1.13736
1.16963
1.09498
1.11491
1.13666
1.12507
1.11079
1.08826
1.13143
1.09437
1.10491
1.35886
1.21704
1.18345
1.25947
1.09038
1.23879
1.15215
1.35857
1.23408
1.27483
1.29509
1.19887
1.36777
1.33873
1.14909
1.22431
1.114
1.10625
1.14541
1.12484
1.18439
1.25387
1.19143
1.1375
1.13778
1.29964
1.14781
1.16457
1.159
1.15545
1.13913
1.18696
0.961544
1.27508
1.13416
1.16968
1.15256
1.24736
1.28104
1.29112
1.06902
1.14746
1.26774
1.11687
1.35261
1.12031
0.935876
1.07874
1.11268
1.08808
1.11621
1.09619
1.12852
1.13155
1.13461
