OFF
424 830 0
-14.734 -6.3142 -18.3189
-14.611 -6.0918 -18.1315
-14.472 -5.9774 -18.3306
-14.584 -6.2618 -18.6794
-14.187 -5.9016 -18.4289
-14.297 -6.2059 -18.8015
-14.31 -6.5725 -18.9163
-14.606 -6.6037 -18.7876
-14.754 -6.6312 -18.4035
-13.825 -5.9194 -18.3306
-13.529 -5.9949 -18.1315
-13.508 -6.2043 -18.3189
-13.919 -6.2022 -18.6794
-13.499 -6.5189 -18.4035
-13.922 -6.5425 -18.7876
-13.509 -6.8421 -18.295
-13.522 -7.0692 -18.0913
-13.77 -7.1789 -18.2833
-13.886 -6.8882 -18.6536
-14.066 -7.2485 -18.3781
-14.231 -6.9403 -18.7738
-14.302 -7.2264 -18.2833
-14.427 -7.1502 -18.0913
-14.619 -6.9415 -18.295
-14.494 -6.9427 -18.6536
-8.13995 -5.4869 -0.275215
-8.15195 -4.9293 1.14302
-8.01995 -5.1589 1.15204
-8.01695 -5.6997 -0.266845
-7.99595 -5.4465 1.16287
-7.99495 -5.9663 -0.256804
-8.05295 -6.6105 -2.02553
-8.07296 -6.3692 -2.03462
-8.18395 -6.1765 -2.0422
-8.06096 -5.742 1.17371
-8.19695 -5.9956 1.18273
-8.18095 -6.4754 -0.238395
-8.05495 -6.2403 -0.246765
-8.22095 -7.0714 -2.00886
-8.10695 -6.8586 -2.01644
-8.37795 -7.7082 -3.91068
-8.71395 -8.3101 -5.72582
-8.62195 -8.1381 -5.73195
-8.27595 -7.5176 -3.91746
-8.57795 -7.9376 -5.7393
-8.22695 -7.2955 -3.9256
-8.59396 -7.7426 -5.74665
-8.68395 -7.5868 -5.75277
-8.34495 -6.9069 -3.94052
-8.24496 -7.0794 -3.93374
-8.38396 -6.1573 1.18815
-8.35395 -6.6252 -0.233375
-8.60096 -6.225 1.18995
-8.55595 -6.688 -0.231705
-8.55995 -7.2639 -2.0028
-8.37795 -7.2071 -2.00432
-8.82595 -6.1969 1.18815
-9.03895 -6.0711 1.18273
-8.96196 -6.5454 -0.238395
-8.76495 -6.662 -0.233375
-8.92795 -7.1348 -2.00886
-8.74995 -7.2404 -2.00432
-9.01095 -7.7649 -3.91068
-9.28595 -8.3613 -5.72582
-9.14095 -8.4466 -5.72215
-8.85096 -7.8594 -3.90661
-8.98796 -8.4656 -5.72093
-8.68195 -7.8805 -3.90525
-8.84095 -8.4197 -5.72215
-8.51895 -7.8296 -3.90661
-9.50395 -7.8241 -5.74665
-9.44395 -7.6549 -5.75277
-9.97295 -8.1889 -7.2615
-10.029 -8.3471 -7.25578
-10.658 -8.5516 -8.54098
-10.713 -8.7044 -8.53538
-10.696 -8.8803 -8.52878
-10.012 -8.5293 -7.2489
-9.48595 -8.0189 -5.7393
-11.385 -8.7105 -9.66528
-12.037 -8.6329 -10.7089
-12.091 -8.7839 -10.7034
-11.439 -8.8614 -9.65988
-12.074 -8.9577 -10.6968
-11.422 -9.0353 -9.65328
-12.003 -9.1267 -10.6903
-11.895 -9.2631 -10.6848
-11.244 -9.3407 -9.64128
-11.352 -9.2042 -9.64678
-10.516 -9.1894 -8.51658
-10.625 -9.0513 -8.52218
-9.82495 -8.8495 -7.2363
-9.40695 -8.2083 -5.73195
-9.93795 -8.7065 -7.24203
-8.85995 -7.5043 -5.75644
-9.26195 -8.1252 -7.2615
-9.42695 -8.0481 -7.26494
-9.97195 -8.4902 -8.54098
-10.131 -8.4157 -8.54428
-10.326 -8.4036 -8.54538
-9.62895 -8.0355 -7.26608
-9.07595 -7.4909 -5.75767
-10.707 -8.6498 -9.66528
-11.359 -8.5722 -10.7089
-11.516 -8.4986 -10.7121
-10.864 -8.5762 -9.66858
-11.708 -8.4867 -10.7132
-11.056 -8.5642 -9.66968
-11.895 -8.5327 -10.7121
-11.244 -8.6102 -9.66858
-10.516 -8.4501 -8.54428
-9.28496 -7.5425 -5.75644
-9.82495 -8.0837 -7.26494
-9.28996 -8.8016 -7.2363
-9.20395 -8.6408 -7.24203
-9.99895 -9.1432 -8.51658
-9.91595 -8.9879 -8.52218
-9.87696 -8.8069 -8.52878
-9.16295 -8.4533 -7.2489
-10.734 -9.295 -9.64128
-11.385 -9.2174 -10.6848
-11.303 -9.064 -10.6903
-10.652 -9.1415 -9.64678
-11.264 -8.8852 -10.6968
-10.612 -8.9627 -9.65328
-11.279 -8.7112 -10.7034
-10.627 -8.7887 -9.65988
-9.89195 -8.6308 -8.53538
-9.17795 -8.2709 -7.25578
-9.68995 -8.9293 -7.23287
-10.385 -9.2664 -8.51328
-10.247 -9.2836 -8.51218
-9.54696 -8.9471 -7.23172
-11.767 -9.3392 -10.6816
-11.115 -9.4168 -9.63798
-11.63 -9.3562 -10.6805
-10.978 -9.4337 -9.63688
-11.499 -9.3152 -10.6816
-10.847 -9.3928 -9.63798
-10.114 -9.2421 -8.51328
-9.40895 -8.9041 -7.23287
-12.498 -8.2863 -11.7458
-12.552 -8.4372 -11.7403
-12.813 -7.7791 -12.7137
-12.868 -7.933 -12.7081
-12.851 -8.1102 -12.7015
-12.535 -8.611 -11.7337
-13.025 -7.2198 -13.5505
-13.178 -6.7168 -14.1937
-13.243 -6.8974 -14.1872
-13.083 -7.3826 -13.5446
-13.223 -7.1054 -14.1793
-13.065 -7.57 -13.5375
-13.139 -7.3076 -14.1715
-13.01 -7.4708 -14.165
-12.873 -7.8994 -13.5245
-12.989 -7.7523 -13.5304
-12.669 -8.4216 -12.6892
-12.779 -8.2825 -12.6948
-12.357 -8.9164 -11.7217
-12.465 -8.78 -11.7272
-11.82 -8.2256 -11.7458
-11.977 -8.152 -11.749
-12.122 -7.7172 -12.7137
-12.282 -7.6421 -12.7171
-12.478 -7.6299 -12.7182
-12.17 -8.14 -11.7501
-12.294 -7.1543 -13.5505
-12.368 -6.6442 -14.1937
-12.555 -6.5561 -14.1976
-12.463 -7.0749 -13.554
-12.785 -6.5418 -14.1989
-12.671 -7.062 -13.5552
-13.01 -6.5968 -14.1976
-12.873 -7.1116 -13.554
-12.669 -7.6768 -12.7171
-12.357 -8.186 -11.749
-11.847 -8.8708 -11.7217
-11.765 -8.7173 -11.7272
-12.149 -8.375 -12.6892
-12.065 -8.2186 -12.6948
-12.025 -8.0362 -12.7015
-11.726 -8.5385 -11.7337
-12.323 -7.8502 -13.5245
-12.399 -7.4162 -14.165
-12.301 -7.2326 -14.1715
-12.234 -7.6847 -13.5304
-12.254 -7.0186 -14.1793
-12.192 -7.4918 -13.5375
-12.272 -6.8104 -14.1872
-12.208 -7.3041 -13.5446
-12.04 -7.8588 -12.7081
-11.74 -8.3645 -11.7403
-12.228 -8.9926 -11.7184
-12.538 -8.4992 -12.6859
-12.398 -8.5165 -12.6847
-12.091 -9.0095 -11.7173
-12.855 -7.5619 -14.161
-12.734 -7.9815 -13.521
-12.692 -7.5822 -14.1597
-12.587 -7.9998 -13.5198
-12.535 -7.5332 -14.161
-12.445 -7.9556 -13.521
-12.264 -8.4747 -12.6859
-11.96 -8.9685 -11.7184
-13.317 -6.3788 -14.5812
-13.392 -6.5891 -14.5736
-13.461 -6.1698 -14.8447
-13.549 -6.4156 -14.8358
-13.522 -6.6987 -14.8251
-13.369 -6.8312 -14.5644
-13.631 -6.0538 -15.1161
-13.849 -5.9951 -15.5272
-13.96 -6.3061 -15.5159
-13.732 -6.3352 -15.1059
-13.926 -6.6644 -15.5024
-13.701 -6.6594 -15.0937
-13.781 -7.0127 -15.4889
-13.558 -7.2939 -15.4777
-13.368 -7.2288 -15.0713
-13.569 -6.9745 -15.0815
-13.231 -7.1962 -14.8055
-13.407 -6.974 -14.8144
-13.12 -7.2566 -14.5477
-13.27 -7.0666 -14.5553
-12.373 -6.2943 -14.5812
-12.591 -6.1917 -14.5857
-12.357 -6.0709 -14.8447
-12.612 -5.951 -14.85
-12.926 -5.9315 -14.8518
-12.859 -6.175 -14.5873
-12.367 -5.9406 -15.1161
-12.452 -5.8699 -15.5272
-12.775 -5.7182 -15.534
-12.66 -5.8034 -15.1222
-13.172 -5.6935 -15.5362
-13.019 -5.781 -15.1242
-13.558 -5.7883 -15.534
-13.368 -5.8668 -15.1222
-13.231 -6.0064 -14.85
-13.12 -6.2391 -14.5857
-12.41 -7.193 -14.5477
-12.295 -6.9793 -14.5553
-12.4 -7.1218 -14.8055
-12.266 -6.8719 -14.8144
-12.202 -6.5806 -14.8251
-12.241 -6.7301 -14.5644
-12.417 -7.1436 -15.0713
-12.507 -7.1998 -15.4777
-12.338 -6.8835 -15.4889
-12.264 -6.8576 -15.0815
-12.257 -6.5149 -15.5024
-12.191 -6.5241 -15.0937
-12.287 -6.1563 -15.5159
-12.218 -6.1997 -15.1059
-12.226 -6.2972 -14.8358
-12.261 -6.4878 -14.5736
-12.941 -7.3627 -14.5431
-13.021 -7.3202 -14.8002
-12.798 -7.3478 -14.7984
-12.75 -7.3863 -14.5416
-13.293 -7.4508 -15.4709
-13.128 -7.3708 -15.0652
-13.011 -7.4858 -15.4687
-12.873 -7.4024 -15.0631
-12.74 -7.4013 -15.4709
-12.628 -7.326 -15.0652
-12.584 -7.2811 -14.8002
-12.567 -7.3292 -14.5431
-14.136 -5.9576 -16.2099
-14.253 -6.2865 -16.198
-14.404 -5.9573 -16.9875
-14.528 -6.2843 -16.9889
-14.499 -6.6608 -16.988
-14.217 -6.6653 -16.1837
-14.57 -6.0101 -17.6834
-14.701 -6.3076 -17.7256
-14.698 -6.6498 -17.7657
-14.321 -7.2521 -17.6361
-14.549 -6.9829 -17.6999
-14.106 -7.3225 -16.9354
-14.344 -7.0269 -16.9605
-13.828 -7.3308 -16.1575
-14.063 -7.0335 -16.1694
-12.659 -5.8253 -16.2099
-13.0 -5.6649 -16.217
-12.944 -5.8265 -16.9875
-13.287 -5.6665 -17.0079
-13.706 -5.64 -17.0235
-13.42 -5.6388 -16.2194
-13.265 -5.8932 -17.6834
-13.588 -5.7461 -17.7429
-13.976 -5.7203 -17.7981
-14.316 -5.8113 -17.7429
-14.105 -5.7398 -17.0079
-13.828 -5.7391 -16.217
-12.717 -7.2312 -16.1575
-12.538 -6.8969 -16.1694
-12.994 -7.2229 -16.9354
-12.823 -6.8906 -16.9605
-12.744 -6.5036 -16.988
-12.452 -6.5072 -16.1837
-13.289 -7.1597 -17.6361
-13.15 -6.8576 -17.6999
-13.1 -6.5067 -17.7657
-13.12 -6.166 -17.7256
-12.774 -6.1272 -16.9889
-12.484 -6.1281 -16.198
-13.547 -7.4966 -16.1504
-13.83 -7.4875 -16.9416
-13.537 -7.5243 -16.9524
-13.25 -7.5336 -16.148
-14.081 -7.4028 -17.6826
-13.822 -7.4362 -17.7334
-13.536 -7.3539 -17.6826
-13.245 -7.4351 -16.9416
-12.963 -7.4443 -16.1504
-8.44095 -4.2364 2.56215
-8.16095 -4.3678 2.56799
-8.16395 -4.3704 2.56615
-8.44195 -4.2395 2.56032
-8.16295 -4.4273 2.4223
-8.43995 -4.2976 2.41653
-8.77895 -4.2765 2.4146
-8.78395 -4.2183 2.55838
-8.78395 -4.215 2.5602
-8.15996 -4.5948 1.99505
-8.41095 -4.8076 1.1376
-8.42995 -4.4679 1.9894
-8.72995 -4.7878 1.1358
-8.76195 -4.4472 1.98752
-9.03895 -4.8638 1.1376
-9.27195 -5.0296 1.14301
-9.32895 -4.6995 1.99505
-9.08495 -4.5265 1.9894
-9.35695 -4.5342 2.4223
-9.10895 -4.3575 2.41653
-9.36795 -4.4782 2.56615
-9.11895 -4.2971 2.56215
-9.11695 -4.3 2.56032
-9.45195 -4.8001 2.43192
-9.46395 -4.7464 2.57585
-9.42295 -5.1063 2.44346
-9.43395 -5.0553 2.5875
-9.36195 -5.279 1.15204
-9.42196 -4.9598 2.00447
-9.33395 -5.5663 1.16287
-9.39295 -5.2596 2.01577
-9.21795 -5.8456 1.17371
-9.08495 -5.7864 2.0365
-9.27195 -5.5511 2.02708
-9.10895 -5.6444 2.46463
-9.29895 -5.404 2.45501
-9.11695 -5.5981 2.60885
-9.11895 -5.6006 2.61087
-9.31096 -5.3572 2.60113
-9.30895 -5.3557 2.59915
-8.88896 -5.7365 2.61672
-8.88795 -5.7334 2.61467
-8.88195 -5.7785 2.4704
-8.64095 -5.8084 2.47233
-8.64596 -5.7636 2.61661
-8.64495 -5.7668 2.61867
-8.86296 -5.9177 2.04215
-8.62795 -5.947 2.04403
-8.20595 -5.7077 2.0365
-8.40095 -5.8763 2.04215
-8.21095 -5.5639 2.46463
-8.40996 -5.7362 2.4704
-8.21095 -5.517 2.60885
-8.20895 -5.5192 2.61088
-8.41095 -5.6937 2.61672
-8.41195 -5.6907 2.61467
-8.06295 -5.2454 2.60113
-8.06595 -5.2443 2.59915
-8.06595 -5.2936 2.45501
-7.99695 -4.9786 2.44347
-7.99595 -4.9265 2.5875
-7.99295 -4.9262 2.58944
-8.06495 -5.443 2.02708
-7.99695 -5.1346 2.01577
-8.02195 -4.8345 2.00447
-8.02295 -4.672 2.43192
-8.01895 -4.6157 2.57774
-8.02195 -4.6173 2.57585
-9.17795 -5.5799 -0.275215
-8.96196 -5.4262 -0.280235
-8.67495 -5.3557 -0.281905
-8.66795 -6.0577 -2.04826
-8.92795 -6.1215 -2.04674
-9.12395 -6.2607 -2.0422
-8.37995 -5.3741 -0.280235
-8.40095 -6.0744 -2.04674
-8.53895 -6.8154 -3.94459
-8.77895 -6.8006 -3.94595
-9.18596 -6.9822 -3.94052
-9.01095 -6.8577 -3.94459
-9.12795 -6.3364 -0.246765
-9.23595 -6.0774 -0.256804
-9.17595 -6.7111 -2.02553
-9.07795 -6.9455 -2.01644
-9.26095 -5.8111 -0.266845
-9.19895 -6.47 -2.03462
-9.25395 -7.1697 -3.93374
-9.23295 -7.3856 -3.9256
-9.14495 -7.5954 -3.91746
-8.10295 -4.3046 2.57248
-8.14095 -4.3459 2.57051
-8.43095 -4.2098 2.56445
-8.15695 -4.3633 2.56923
-8.43895 -4.231 2.56334
-8.78496 -4.2094 2.56138
-9.12195 -5.6051 2.61242
-8.88995 -5.742 2.61831
-8.64495 -5.7725 2.62028
-8.89495 -5.7631 2.62096
-8.20496 -5.523 2.61242
-8.03895 -5.2545 2.60482
-7.96595 -4.9241 2.59271
-7.91695 -4.9201 2.59611
-8.05795 -5.2472 2.60261
-7.98695 -4.9258 2.59083
-8.01295 -4.613 2.57905
-7.99295 -4.6026 2.5806
3 0 1 2
3 0 2 3
3 2 4 5
3 2 5 3
3 5 6 7
3 5 7 3
3 7 8 0
3 7 0 3
3 9 10 11
3 9 11 12
3 11 13 14
3 11 14 12
3 14 6 5
3 14 5 12
3 5 4 9
3 5 9 12
3 15 16 17
3 15 17 18
3 17 19 20
3 17 20 18
3 20 6 14
3 20 14 18
3 14 13 15
3 14 15 18
3 21 22 23
3 21 23 24
3 23 8 7
3 23 7 24
3 7 6 20
3 7 20 24
3 20 19 21
3 20 21 24
3 25 26 27
3 25 27 28
3 27 29 30
3 27 30 28
3 30 31 32
3 30 32 28
3 32 33 25
3 32 25 28
3 34 35 36
3 34 36 37
3 36 38 39
3 36 39 37
3 39 31 30
3 39 30 37
3 30 29 34
3 30 34 37
3 40 41 42
3 40 42 43
3 42 44 45
3 42 45 43
3 45 31 39
3 45 39 43
3 39 38 40
3 39 40 43
3 46 47 48
3 46 48 49
3 48 33 32
3 48 32 49
3 32 31 45
3 32 45 49
3 45 44 46
3 45 46 49
3 36 35 50
3 36 50 51
3 50 52 53
3 50 53 51
3 53 54 55
3 53 55 51
3 55 38 36
3 55 36 51
3 56 57 58
3 56 58 59
3 58 60 61
3 58 61 59
3 61 54 53
3 61 53 59
3 53 52 56
3 53 56 59
3 62 63 64
3 62 64 65
3 64 66 67
3 64 67 65
3 67 54 61
3 67 61 65
3 61 60 62
3 61 62 65
3 68 41 40
3 68 40 69
3 40 38 55
3 40 55 69
3 55 54 67
3 55 67 69
3 67 66 68
3 67 68 69
3 70 71 72
3 70 72 73
3 72 74 75
3 72 75 73
3 75 76 77
3 75 77 73
3 77 78 70
3 77 70 73
3 79 80 81
3 79 81 82
3 81 83 84
3 81 84 82
3 84 76 75
3 84 75 82
3 75 74 79
3 75 79 82
3 85 86 87
3 85 87 88
3 87 89 90
3 87 90 88
3 90 76 84
3 90 84 88
3 84 83 85
3 84 85 88
3 91 63 92
3 91 92 93
3 92 78 77
3 92 77 93
3 77 76 90
3 77 90 93
3 90 89 91
3 90 91 93
3 94 47 95
3 94 95 96
3 95 97 98
3 95 98 96
3 98 99 100
3 98 100 96
3 100 101 94
3 100 94 96
3 102 103 104
3 102 104 105
3 104 106 107
3 104 107 105
3 107 99 98
3 107 98 105
3 98 97 102
3 98 102 105
3 108 80 79
3 108 79 109
3 79 74 110
3 79 110 109
3 110 99 107
3 110 107 109
3 107 106 108
3 107 108 109
3 72 71 111
3 72 111 112
3 111 101 100
3 111 100 112
3 100 99 110
3 100 110 112
3 110 74 72
3 110 72 112
3 42 41 113
3 42 113 114
3 113 115 116
3 113 116 114
3 116 117 118
3 116 118 114
3 118 44 42
3 118 42 114
3 119 120 121
3 119 121 122
3 121 123 124
3 121 124 122
3 124 117 116
3 124 116 122
3 116 115 119
3 116 119 122
3 125 103 102
3 125 102 126
3 102 97 127
3 102 127 126
3 127 117 124
3 127 124 126
3 124 123 125
3 124 125 126
3 95 47 46
3 95 46 128
3 46 44 118
3 46 118 128
3 118 117 127
3 118 127 128
3 127 97 95
3 127 95 128
3 64 63 91
3 64 91 129
3 91 89 130
3 91 130 129
3 130 131 132
3 130 132 129
3 132 66 64
3 132 64 129
3 87 86 133
3 87 133 134
3 133 135 136
3 133 136 134
3 136 131 130
3 136 130 134
3 130 89 87
3 130 87 134
3 137 120 119
3 137 119 138
3 119 115 139
3 119 139 138
3 139 131 136
3 139 136 138
3 136 135 137
3 136 137 138
3 113 41 68
3 113 68 140
3 68 66 132
3 68 132 140
3 132 131 139
3 132 139 140
3 139 115 113
3 139 113 140
3 81 80 141
3 81 141 142
3 141 143 144
3 141 144 142
3 144 145 146
3 144 146 142
3 146 83 81
3 146 81 142
3 147 148 149
3 147 149 150
3 149 151 152
3 149 152 150
3 152 145 144
3 152 144 150
3 144 143 147
3 144 147 150
3 153 154 155
3 153 155 156
3 155 157 158
3 155 158 156
3 158 145 152
3 158 152 156
3 152 151 153
3 152 153 156
3 159 86 85
3 159 85 160
3 85 83 146
3 85 146 160
3 146 145 158
3 146 158 160
3 158 157 159
3 158 159 160
3 104 103 161
3 104 161 162
3 161 163 164
3 161 164 162
3 164 165 166
3 164 166 162
3 166 106 104
3 166 104 162
3 167 168 169
3 167 169 170
3 169 171 172
3 169 172 170
3 172 165 164
3 172 164 170
3 164 163 167
3 164 167 170
3 173 148 147
3 173 147 174
3 147 143 175
3 147 175 174
3 175 165 172
3 175 172 174
3 172 171 173
3 172 173 174
3 141 80 108
3 141 108 176
3 108 106 166
3 108 166 176
3 166 165 175
3 166 175 176
3 175 143 141
3 175 141 176
3 121 120 177
3 121 177 178
3 177 179 180
3 177 180 178
3 180 181 182
3 180 182 178
3 182 123 121
3 182 121 178
3 183 184 185
3 183 185 186
3 185 187 188
3 185 188 186
3 188 181 180
3 188 180 186
3 180 179 183
3 180 183 186
3 189 168 167
3 189 167 190
3 167 163 191
3 167 191 190
3 191 181 188
3 191 188 190
3 188 187 189
3 188 189 190
3 161 103 125
3 161 125 192
3 125 123 182
3 125 182 192
3 182 181 191
3 182 191 192
3 191 163 161
3 191 161 192
3 133 86 159
3 133 159 193
3 159 157 194
3 159 194 193
3 194 195 196
3 194 196 193
3 196 135 133
3 196 133 193
3 155 154 197
3 155 197 198
3 197 199 200
3 197 200 198
3 200 195 194
3 200 194 198
3 194 157 155
3 194 155 198
3 201 184 183
3 201 183 202
3 183 179 203
3 183 203 202
3 203 195 200
3 203 200 202
3 200 199 201
3 200 201 202
3 177 120 137
3 177 137 204
3 137 135 196
3 137 196 204
3 196 195 203
3 196 203 204
3 203 179 177
3 203 177 204
3 149 148 205
3 149 205 206
3 205 207 208
3 205 208 206
3 208 209 210
3 208 210 206
3 210 151 149
3 210 149 206
3 211 212 213
3 211 213 214
3 213 215 216
3 213 216 214
3 216 209 208
3 216 208 214
3 208 207 211
3 208 211 214
3 217 218 219
3 217 219 220
3 219 221 222
3 219 222 220
3 222 209 216
3 222 216 220
3 216 215 217
3 216 217 220
3 223 154 153
3 223 153 224
3 153 151 210
3 153 210 224
3 210 209 222
3 210 222 224
3 222 221 223
3 222 223 224
3 169 168 225
3 169 225 226
3 225 227 228
3 225 228 226
3 228 229 230
3 228 230 226
3 230 171 169
3 230 169 226
3 231 232 233
3 231 233 234
3 233 235 236
3 233 236 234
3 236 229 228
3 236 228 234
3 228 227 231
3 228 231 234
3 237 212 211
3 237 211 238
3 211 207 239
3 211 239 238
3 239 229 236
3 239 236 238
3 236 235 237
3 236 237 238
3 205 148 173
3 205 173 240
3 173 171 230
3 173 230 240
3 230 229 239
3 230 239 240
3 239 207 205
3 239 205 240
3 185 184 241
3 185 241 242
3 241 243 244
3 241 244 242
3 244 245 246
3 244 246 242
3 246 187 185
3 246 185 242
3 247 248 249
3 247 249 250
3 249 251 252
3 249 252 250
3 252 245 244
3 252 244 250
3 244 243 247
3 244 247 250
3 253 232 231
3 253 231 254
3 231 227 255
3 231 255 254
3 255 245 252
3 255 252 254
3 252 251 253
3 252 253 254
3 225 168 189
3 225 189 256
3 189 187 246
3 189 246 256
3 246 245 255
3 246 255 256
3 255 227 225
3 255 225 256
3 197 154 223
3 197 223 257
3 223 221 258
3 223 258 257
3 258 259 260
3 258 260 257
3 260 199 197
3 260 197 257
3 219 218 261
3 219 261 262
3 261 263 264
3 261 264 262
3 264 259 258
3 264 258 262
3 258 221 219
3 258 219 262
3 265 248 247
3 265 247 266
3 247 243 267
3 247 267 266
3 267 259 264
3 267 264 266
3 264 263 265
3 264 265 266
3 241 184 201
3 241 201 268
3 201 199 260
3 201 260 268
3 260 259 267
3 260 267 268
3 267 243 241
3 267 241 268
3 213 212 269
3 213 269 270
3 269 271 272
3 269 272 270
3 272 273 274
3 272 274 270
3 274 215 213
3 274 213 270
3 275 1 0
3 275 0 276
3 0 8 277
3 0 277 276
3 277 273 272
3 277 272 276
3 272 271 275
3 272 275 276
3 23 22 278
3 23 278 279
3 278 280 281
3 278 281 279
3 281 273 277
3 281 277 279
3 277 8 23
3 277 23 279
3 282 218 217
3 282 217 283
3 217 215 274
3 217 274 283
3 274 273 281
3 274 281 283
3 281 280 282
3 281 282 283
3 233 232 284
3 233 284 285
3 284 286 287
3 284 287 285
3 287 288 289
3 287 289 285
3 289 235 233
3 289 233 285
3 290 10 9
3 290 9 291
3 9 4 292
3 9 292 291
3 292 288 287
3 292 287 291
3 287 286 290
3 287 290 291
3 2 1 275
3 2 275 293
3 275 271 294
3 275 294 293
3 294 288 292
3 294 292 293
3 292 4 2
3 292 2 293
3 269 212 237
3 269 237 295
3 237 235 289
3 237 289 295
3 289 288 294
3 289 294 295
3 294 271 269
3 294 269 295
3 249 248 296
3 249 296 297
3 296 298 299
3 296 299 297
3 299 300 301
3 299 301 297
3 301 251 249
3 301 249 297
3 302 16 15
3 302 15 303
3 15 13 304
3 15 304 303
3 304 300 299
3 304 299 303
3 299 298 302
3 299 302 303
3 11 10 290
3 11 290 305
3 290 286 306
3 290 306 305
3 306 300 304
3 306 304 305
3 304 13 11
3 304 11 305
3 284 232 253
3 284 253 307
3 253 251 301
3 253 301 307
3 301 300 306
3 301 306 307
3 306 286 284
3 306 284 307
3 261 218 282
3 261 282 308
3 282 280 309
3 282 309 308
3 309 310 311
3 309 311 308
3 311 263 261
3 311 261 308
3 278 22 21
3 278 21 312
3 21 19 313
3 21 313 312
3 313 310 309
3 313 309 312
3 309 280 278
3 309 278 312
3 17 16 302
3 17 302 314
3 302 298 315
3 302 315 314
3 315 310 313
3 315 313 314
3 313 19 17
3 313 17 314
3 296 248 265
3 296 265 316
3 265 263 311
3 265 311 316
3 311 310 315
3 311 315 316
3 315 298 296
3 315 296 316
3 317 318 319
3 317 319 320
3 319 321 322
3 319 322 320
3 322 323 324
3 322 324 320
3 324 325 317
3 324 317 320
3 326 26 327
3 326 327 328
3 327 329 330
3 327 330 328
3 330 323 322
3 330 322 328
3 322 321 326
3 322 326 328
3 331 332 333
3 331 333 334
3 333 335 336
3 333 336 334
3 336 323 330
3 336 330 334
3 330 329 331
3 330 331 334
3 337 338 339
3 338 325 324
3 338 324 339
3 324 323 336
3 324 336 339
3 336 335 337
3 336 337 339
3 337 335 340
3 337 340 341
3 340 342 343
3 340 343 341
3 333 332 344
3 333 344 345
3 344 346 347
3 344 347 345
3 347 342 340
3 347 340 345
3 340 335 333
3 340 333 345
3 348 57 349
3 348 349 350
3 349 351 352
3 349 352 350
3 352 342 347
3 352 347 350
3 347 346 348
3 347 348 350
3 353 354 355
3 353 355 356
3 355 343 356
3 343 342 352
3 343 352 356
3 352 351 353
3 352 353 356
3 357 354 353
3 357 353 358
3 353 351 359
3 353 359 358
3 359 360 361
3 359 361 358
3 361 362 357
3 361 357 358
3 349 57 56
3 349 56 363
3 56 52 364
3 56 364 363
3 364 360 359
3 364 359 363
3 359 351 349
3 359 349 363
3 50 35 365
3 50 365 366
3 365 367 368
3 365 368 366
3 368 360 364
3 368 364 366
3 364 52 50
3 364 50 366
3 369 370 371
3 369 371 372
3 371 362 361
3 371 361 372
3 361 360 368
3 361 368 372
3 368 367 369
3 368 369 372
3 373 370 369
3 373 369 374
3 369 367 375
3 369 375 374
3 375 376 377
3 375 377 374
3 377 378 373
3 377 373 374
3 365 35 34
3 365 34 379
3 34 29 380
3 34 380 379
3 380 376 375
3 380 375 379
3 375 367 365
3 375 365 379
3 27 26 326
3 27 326 381
3 326 321 382
3 326 382 381
3 382 376 380
3 382 380 381
3 380 29 27
3 380 27 381
3 319 318 383
3 319 383 384
3 383 378 377
3 383 377 384
3 377 376 382
3 377 382 384
3 382 321 319
3 382 319 384
3 385 332 331
3 385 331 386
3 331 329 387
3 331 387 386
3 387 388 389
3 387 389 386
3 389 390 385
3 389 385 386
3 327 26 25
3 327 25 391
3 25 33 392
3 25 392 391
3 392 388 387
3 392 387 391
3 387 329 327
3 387 327 391
3 48 47 94
3 48 94 393
3 94 101 394
3 94 394 393
3 394 388 392
3 394 392 393
3 392 33 48
3 392 48 393
3 111 71 395
3 111 395 396
3 395 390 389
3 395 389 396
3 389 388 394
3 389 394 396
3 394 101 111
3 394 111 396
3 58 57 348
3 58 348 397
3 348 346 398
3 348 398 397
3 398 399 400
3 398 400 397
3 400 60 58
3 400 58 397
3 344 332 385
3 344 385 401
3 385 390 402
3 385 402 401
3 402 399 398
3 402 398 401
3 398 346 344
3 398 344 401
3 395 71 70
3 395 70 403
3 70 78 404
3 70 404 403
3 404 399 402
3 404 402 403
3 402 390 395
3 402 395 403
3 92 63 62
3 92 62 405
3 62 60 400
3 62 400 405
3 400 399 404
3 400 404 405
3 404 78 92
3 404 92 405
3 406 407 408
3 409 318 317
3 409 317 410
3 317 325 411
3 317 411 410
3 411 408 410
3 408 407 409
3 408 409 410
3 411 325 338
3 355 354 412
3 412 354 357
3 412 357 413
3 357 362 414
3 357 414 413
3 414 415 413
3 415 412 413
3 371 370 416
3 414 362 371
3 417 418 419
3 416 370 373
3 416 373 420
3 373 378 421
3 373 421 420
3 421 418 417
3 421 417 420
3 417 416 420
3 383 318 409
3 383 409 422
3 409 407 423
3 409 423 422
3 423 418 421
3 423 421 422
3 421 378 383
3 421 383 422
3 419 418 423
3 423 407 406
