0.964222
0.692591
0.87441
0.375684
0.609463
0.483195
0.828419
1.12291
0.719938
0.725106
0.687886
0.399633
0.735881
0.492594
0.892271
0.676664
0.50421
0.745457
0.974889
0.919111
0.582843
0.689291
1.42845
1.4829
1.44078
1.52002
1.45111
1.54409
1.699
1.46118
1.54412
1.08857
1.57542
1.73924
1.55582
1.56163
1.64047
1.40056
1.9164
1.10295
0.738989
1.84449
1.69019
1.36588
1.75918
1.88943
1.5619
1.52498
1.58805
1.59519
1.61749
1.57844
1.68022
1.26834
1.08635
0.855074
0.927688
0.869003
1.14378
1.13224
0.752751
0.642377
0.665235
0.613594
0.521816
0.759617
0.810008
0.674961
0.815775
0.55004
0.558061
0.7041
0.541557
0.57767
0.78568
1.04135
1.01539
0.912235
0.934289
0.7826
0.826962
0.822869
0.945046
1.13889
0.911425
0.67812
0.868005
0.858845
0.835418
1.01318
0.913617
0.915832
0.570283
0.657491
0.561016
0.73851
0.660711
0.634311
0.754251
0.583911
0.673748
0.672664
0.54326
0.688833
0.667418
0.684499
0.809645
1.12288
0.93547
0.842709
0.847072
1.19657
0.959158
1.04957
0.593175
1.09363
1.02752
1.3155
0.867553
0.501929
0.601574
0.719545
1.08622
0.929139
0.732378
0.825097
0.624402
0.586707
0.561121
0.68892
0.560606
0.63426
0.647763
0.612178
1.08691
1.16511
1.11933
0.913368
0.679758
0.76711
0.587982
0.853347
0.711492
0.927552
0.951095
0.883727
0.790849
0.792491
0.78893
1.04275
0.922989
0.893712
0.664509
0.621802
0.580037
0.545168
0.557559
0.72845
0.659675
0.723251
0.60703
0.544827
0.609301
0.587165
0.436339
0.694971
0.77637
0.937214
0.792679
0.68529
0.687068
1.12118
1.05386
0.877928
0.766229
0.805495
0.922815
1.08657
0.828332
0.906961
0.468429
0.425256
0.468891
0.479368
0.540815
0.56852
0.682375
0.532583
0.484094
0.575228
0.560661
0.431959
0.562074
0.538611
0.453189
0.471434
0.667378
0.526097
0.499867
0.521076
0.569984
0.583283
0.636288
0.377627
0.464162
0.518587
0.512507
0.584169
0.402556
0.453027
0.445901
0.538834
0.444682
0.530892
0.512736
0.505816
0.567694
0.550407
0.522672
0.598254
0.541542
0.516751
0.440579
0.545676
0.321269
0.542724
0.544363
0.543248
0.606642
0.51459
0.548627
0.444026
0.602341
0.448022
0.506267
0.491426
0.518988
0.499371
0.643493
0.604337
0.338235
0.394308
0.789344
0.781643
0.60999
0.588649
0.611356
0.516395
0.258821
0.601574
0.626032
0.594914
0.507508
0.586085
0.313704
0.655944
0.59019
0.539147
0.678444
0.428851
0.583635
0.582013
0.47951
0.648026
0.570866
0.508726
0.417808
0.515844
0.477528
0.534597
0.498545
0.515749
0.494251
0.47135
0.585351
0.620854
0.59212
0.54714
0.544335
0.496658
0.534359
0.464887
0.458914
0.571516
0.564409
0.508856
0.545526
0.511414
0.4874
0.507183
0.582299
0.476365
0.568858
0.406379
0.442017
0.434708
0.631063
0.638479
0.650814
0.547034
0.594955
0.560162
0.4507
0.440972
0.50299
0.539702
0.60846
0.6061
0.559632
0.510552
0.670173
0.417331
0.678464
0.513698
0.565326
0.66265
0.599713
0.590472
0.507854
0.533572
0.476733
0.769459
0.691263
0.472489
0.538071
0.621985
0.487519
0.489664
0.466005
0.485496
0.398706
0.622204
0.59521
0.653513
0.5717
0.618675
0.593852
0.53904
0.676675
0.661049
0.621618
0.557465
0.463418
0.56563
0.669954
0.594713
0.650041
0.493664
0.540633
0.448805
0.586427
0.623318
0.566435
0.584593
0.533771
0.667234
0.565925
0.550088
0.583548
0.606072
0.591919
0.602461
0.606086
0.628802
0.572875
0.701534
0.557213
0.617285
0.400412
0.576775
0.745435
0.528045
0.650467
0.446302
0.583961
0.518858
0.63299
0.64456
0.54326
0.492645
0.530072
0.419819
0.629065
0.594911
0.48353
0.775832
0.651628
0.619117
0.615207
0.621905
0.564919
0.623686
0.529803
0.461857
0.547839
0.613759
0.535423
0.592015
0.572607
0.511239
0.488503
0.567131
0.549368
0.464784
0.564887
0.57976
0.715398
0.613753
0.594695
0.556776
0.663161
0.578202
0.559099
0.556558
0.574214
0.503255
0.525145
0.656618
0.538826
0.608323
0.614943
0.575614
0.593553
0.590571
0.538705
0.551233
0.617542
0.5518
0.604279
0.548158
0.429173
0.581458
1.12841
0.759788
1.06948
0.418289
1.02269
1.1799
1.32935
1.38988
1.03458
0.952441
1.12741
1.38278
0.915425
1.3784
1.35432
0.390473
0.918863
0.363044
0.853041
0.918539
0.715328
1.09091
1.09828
0.950583
1.20522
1.38025
0.973412
1.26386
1.22667
1.17256
1.36219
1.16758
1.26664
1.15037
1.33542
0.646061
1.08494
0.816294
0.679461
1.30217
1.21738
1.09108
0.689918
1.28238
1.37977
1.36473
1.30236
1.16686
1.0999
1.11467
1.09502
1.5432
1.16612
1.2603
0.942409
0.574774
1.02123
0.661091
0.674255
0.733133
1.49397
1.19393
1.25953
1.33622
0.903314
0.862697
1.11495
1.38146
1.28217
1.22001
0.636591
0.433953
0.621153
0.747294
0.923148
0.847118
0.917111
1.18126
1.38473
1.80402
1.71163
1.35796
1.65584
1.62286
1.87172
1.30439
1.07343
1.14013
1.18702
1.55808
1.46393
1.00436
1.388
1.25498
1.44095
1.19316
1.24851
1.40292
1.15914
1.20635
1.87208
1.65393
1.74967
1.32045
1.43928
1.39395
1.2345
1.57569
1.42799
1.46131
1.20877
1.43457
1.12177
1.23717
1.45636
1.48574
1.79025
1.52322
1.26921
1.1744
1.46414
1.39642
1.45234
1.40073
1.28511
1.46458
1.5032
1.45886
1.48608
1.51609
1.59158
1.8719
1.85674
1.13263
1.43798
1.23107
0.863708
1.6948
1.5487
1.50431
1.5942
1.59197
1.41148
0.999244
1.76162
1.36376
1.65463
1.17822
1.3802
1.1322
1.33882
1.73264
1.5531
0.976854
1.35592
1.17367
1.69779
1.19278
1.52657
1.51205
1.49662
1.47069
1.18475
1.22336
1.15899
0.930128
1.18221
1.66595
1.67102
1.10402
1.03434
1.48639
1.36365
1.29904
1.3414
1.10966
1.32705
1.41472
1.40012
1.4295
1.66432
1.53887
0.983447
1.44684
1.81668
0.83164
0.646921
0.0997771
1.56765
1.29931
1.37019
1.44159
1.37653
1.47404
1.3204
1.17252
1.22154
1.3607
1.21372
1.13297
1.42753
1.39109
0.987779
1.10755
1.29308
1.5096
1.31068
1.43735
1.49835
1.7781
1.34408
1.54557
1.38036
1.63982
1.55072
1.33687
0.84581
1.37744
1.47358
0.915881
1.43879
1.02059
1.17985
1.08764
1.20948
1.08989
0.896191
1.21493
1.25306
1.20186
1.06234
0.975206
1.49222
1.42315
1.41118
1.40498
1.23887
1.39003
1.42177
1.4173
1.41776
1.04594
1.1264
1.24576
1.32863
1.13516
1.22078
1.30226
1.33208
1.09217
1.05415
1.01581
1.8491
0.922219
1.00961
1.42623
1.20974
1.6076
1.26638
1.2325
1.60527
1.65232
1.35025
1.35007
1.30331
1.19584
1.41424
1.40293
1.47248
1.19071
1.37944
1.31053
1.44013
1.43761
1.18101
0.9153
1.19317
1.29789
1.28974
1.31611
1.18282
1.58375
1.72101
1.74933
