OFF
385 751 0
3.41146 3.75829 -26.6621
3.30146 3.88029 -26.4674
3.30946 4.07009 -26.6508
3.48546 3.98379 -27.0037
3.37646 4.31319 -26.7343
3.57346 4.23999 -27.1104
3.80546 4.13889 -27.2372
3.69446 3.87159 -27.1238
3.59746 3.63759 -26.7589
3.49846 4.52169 -26.6296
3.61946 4.64159 -26.4316
3.78546 4.65369 -26.6201
3.68946 4.47169 -26.9807
3.99846 4.59919 -26.7137
3.91246 4.39589 -27.0992
4.18146 4.47069 -26.622
4.28646 4.33309 -26.4348
4.28346 4.15889 -26.6333
4.11746 4.27399 -26.9828
4.21946 3.92349 -26.7383
4.03346 4.02749 -27.1126
4.09546 3.70729 -26.6545
3.96946 3.57179 -26.4705
3.80846 3.57529 -26.664
3.91446 3.78609 -27.0057
3.90146 14.1 0.240745
4.13246 13.969 0.238645
4.13846 13.9811 0.326745
3.72846 14.2171 0.0107451
3.67446 14.0692 -0.443255
3.81946 13.8836 -0.448855
3.87646 14.0286 0.00514513
4.04346 13.7568 -0.450855
4.10346 13.8999 0.00304513
3.75246 14.2917 0.246545
4.30546 13.704 -0.449255
4.56646 13.7399 -0.444055
4.63446 13.8827 0.00994513
4.37046 13.8462 0.00464513
4.67246 13.9515 0.245645
4.40346 13.9144 0.240345
4.41546 13.9248 0.328345
4.69146 13.9631 0.333845
4.19646 15.1788 0.376745
4.19046 15.131 0.287145
3.96546 14.9866 0.278045
4.16046 15.0421 0.0507451
4.09846 14.8814 -0.403855
3.88046 14.7417 -0.412755
3.93846 14.9002 0.0417451
3.72446 14.5352 -0.423455
3.77946 14.6904 0.0308451
3.80446 14.7732 0.267045
3.64946 14.2987 -0.434255
3.70346 14.4502 0.0199451
3.72646 14.5289 0.255845
4.96046 14.9825 0.292045
4.72946 15.1134 0.294145
4.74946 15.1607 0.383845
5.06546 14.7076 0.0499451
4.99046 14.5521 -0.404755
4.84546 14.7377 -0.399155
4.91846 14.8961 0.0555451
4.62146 14.8645 -0.397155
4.69146 15.0248 0.0575451
5.11046 14.7907 0.286345
4.35946 14.9174 -0.398755
4.42446 15.0785 0.0560451
4.45846 15.1681 0.292545
4.18846 15.216 0.390645
4.47546 15.2563 0.396345
4.47246 15.217 0.382245
4.89746 14.0958 0.254745
4.78446 13.8796 -0.435255
4.85646 14.0246 0.0189451
4.94046 14.0861 -0.424555
5.01546 14.2344 0.0297451
5.05846 14.3092 0.265845
5.01546 14.3226 -0.413755
5.09146 14.4745 0.0407451
5.13646 14.5536 0.276945
2.64746 12.1354 -5.10365
2.52846 12.2873 -5.09905
1.72146 11.4204 -6.94735
1.82746 11.2844 -6.95135
0.87046 10.4141 -9.00965
0.96246 10.2951 -9.01315
1.10646 10.2139 -9.01445
1.99146 11.1915 -6.95285
2.83046 12.0317 -5.10525
0.19546 9.32229 -11.2315
-0.0795397 8.19909 -13.5585
-0.00853974 8.10929 -13.5612
0.27646 9.21949 -11.2346
0.0994603 8.04789 -13.5621
0.40046 9.14919 -11.2357
0.22646 8.02229 -13.5614
0.35246 8.03969 -13.5589
0.69046 9.13979 -11.232
0.54646 9.11989 -11.2348
1.44146 10.203 -9.01015
1.27446 10.1799 -9.01345
2.37546 11.179 -6.94795
3.25846 12.0178 -5.09975
3.04546 11.9884 -5.10395
2.18446 11.1527 -6.95176
2.69746 12.8376 -5.07415
2.87546 12.9519 -5.06685
2.03246 12.0157 -6.91845
1.87246 11.9133 -6.92495
1.14246 10.9348 -8.98435
1.00246 10.8452 -8.99006
0.90246 10.7128 -8.99685
1.75846 11.7619 -6.93275
2.56946 12.6686 -5.08285
0.43146 9.77259 -11.2097
0.12646 8.59229 -13.5394
0.0204603 8.52469 -13.5437
0.31046 9.69509 -11.2146
-0.0545397 8.42469 -13.5489
0.22346 9.58059 -11.2205
-0.0915397 8.31019 -13.5541
0.18246 9.44959 -11.2265
0.85346 10.5612 -9.00375
2.50746 12.4751 -5.09165
1.70346 11.5886 -6.94065
3.48746 12.8344 -5.06306
3.60546 12.6825 -5.06755
2.68646 11.7744 -6.91905
2.58046 11.9104 -6.91495
1.71446 10.7237 -8.98485
1.62146 10.8427 -8.98135
1.47746 10.9239 -8.98005
2.41646 12.0033 -6.91355
3.30346 12.9381 -5.06135
0.92546 9.58999 -11.2102
0.55846 8.43289 -13.5398
0.48846 8.52279 -13.5371
0.84546 9.69289 -11.2071
0.37946 8.58409 -13.5361
0.72146 9.76319 -11.206
0.25246 8.60969 -13.5369
0.57546 9.79249 -11.2068
1.30946 10.9578 -8.98106
3.08946 12.9813 -5.06265
2.22346 12.042 -6.91465
3.43746 12.1321 -5.09256
2.53546 11.2814 -6.94145
1.58146 10.2925 -9.00445
1.68246 10.425 -8.99765
2.64946 11.4328 -6.93355
3.56446 12.3012 -5.08376
0.45846 8.10739 -13.5546
0.81146 9.21729 -11.2271
0.53346 8.20729 -13.5494
0.89746 9.33169 -11.2211
0.57046 8.32179 -13.5442
0.93946 9.46279 -11.2152
1.73046 10.5766 -8.99065
3.62646 12.4947 -5.07495
2.70446 11.6061 -6.92565
0.26646 7.09839 -15.936
0.33046 7.01639 -15.9385
0.99146 6.07799 -18.1983
1.05446 5.99739 -18.2008
1.15046 5.94239 -18.2016
0.42946 6.96039 -15.9393
1.85546 5.19579 -20.1797
2.61646 4.50959 -21.7144
2.69046 4.40809 -21.7175
1.92046 5.10909 -20.1824
2.80346 4.33879 -21.7188
2.02146 5.04989 -20.1834
2.93646 4.30989 -21.7181
3.06946 4.32959 -21.7154
2.25746 5.04199 -20.1803
2.14046 5.02519 -20.1827
1.37546 5.93499 -18.1987
1.26346 5.91939 -18.201
0.66046 6.95289 -15.9364
0.54546 6.93699 -15.9386
0.45446 7.45739 -15.9186
0.35746 7.39559 -15.9225
1.17446 6.43069 -18.1813
1.08046 6.36999 -18.1851
1.01346 6.28029 -18.1897
0.28846 7.30429 -15.9272
2.04646 5.57519 -20.1615
2.83146 4.95389 -21.6931
2.72146 4.87739 -21.6979
1.94846 5.50989 -20.1655
2.64146 4.76449 -21.7036
1.87846 5.41349 -20.1705
2.60346 4.63519 -21.7095
1.84446 5.30299 -20.1755
0.98046 6.17769 -18.1944
0.25546 7.19979 -15.932
0.84846 7.31179 -15.919
0.78446 7.39389 -15.9165
1.55846 6.28769 -18.1817
1.49546 6.36829 -18.1793
1.39946 6.42329 -18.1784
0.68546 7.44989 -15.9156
2.44946 5.42139 -20.162
3.28446 4.77379 -21.6941
3.21046 4.87529 -21.691
2.38446 5.50809 -20.1594
3.09746 4.94459 -21.6897
2.28346 5.56729 -20.1584
2.96446 4.97349 -21.6905
2.16446 5.59199 -20.1591
1.28646 6.44629 -18.179
0.56946 7.47319 -15.9163
0.75746 7.01459 -15.9325
1.46946 5.99569 -18.1949
1.53646 6.08539 -18.1903
0.82646 7.10589 -15.9277
3.17946 4.40599 -21.7107
2.35646 5.10729 -20.1762
3.25846 4.51889 -21.7049
2.42646 5.20369 -20.1713
3.29746 4.64829 -21.6991
2.46046 5.31419 -20.1663
1.56846 6.18809 -18.1856
0.85946 7.21039 -15.923
3.03346 4.07739 -22.6366
3.12046 3.95119 -22.6406
3.20046 3.84149 -23.1658
3.30346 3.68569 -23.1707
3.46346 3.57929 -23.1728
3.25546 3.86499 -22.6422
3.20946 3.74439 -23.5214
3.15346 3.72869 -23.9228
3.28646 3.51849 -23.9295
3.32946 3.55899 -23.5273
3.49246 3.37509 -23.9325
3.51346 3.43239 -23.5299
3.73346 3.31519 -23.9315
3.97246 3.35589 -23.9265
3.94446 3.41549 -23.5244
3.73046 3.37959 -23.529
3.83646 3.56509 -23.1681
3.65046 3.53489 -23.172
3.56946 3.85349 -22.6382
3.41346 3.82909 -22.6414
3.28846 4.62959 -22.6104
3.15746 4.53469 -22.6161
3.50246 4.52339 -23.1335
3.34746 4.40609 -23.1406
3.23646 4.23269 -23.1493
3.06446 4.39419 -22.6232
3.55946 4.55599 -23.4831
3.54346 4.64829 -23.8795
3.34346 4.49009 -23.8889
3.37946 4.41639 -23.4914
3.19946 4.25629 -23.9005
3.25046 4.20999 -23.5017
3.13046 3.98849 -23.9125
3.18846 3.97369 -23.5123
3.18246 4.03419 -23.1582
3.01846 4.23339 -22.6305
3.82446 4.40579 -22.6119
3.73746 4.53199 -22.608
4.13846 4.24699 -23.1358
4.03546 4.40279 -23.1309
3.87546 4.50919 -23.1288
3.60246 4.61809 -22.6064
4.29446 4.22709 -23.4862
4.36146 4.27559 -23.8832
4.22846 4.48569 -23.8764
4.17546 4.41249 -23.4802
4.02346 4.62919 -23.8735
3.99046 4.53909 -23.4777
3.78246 4.68899 -23.8745
3.77446 4.59189 -23.4786
3.68846 4.55359 -23.1297
3.44546 4.65409 -22.6071
3.70046 3.94849 -22.6324
3.99146 3.68239 -23.1611
4.10246 3.85579 -23.1524
3.79446 4.08899 -22.6253
4.17246 3.51409 -23.9171
4.12446 3.55509 -23.5161
4.31546 3.74799 -23.9055
4.25346 3.76149 -23.5058
4.38446 4.01579 -23.8935
4.31546 3.99779 -23.4953
4.15646 4.05439 -23.1435
3.83946 4.24979 -22.6181
3.12646 3.73669 -24.5895
3.26746 3.51169 -24.5967
3.14046 3.76799 -25.3491
3.28046 3.54349 -25.3692
3.49746 3.39029 -25.3854
3.48546 3.35819 -24.5999
3.20846 3.82229 -26.0291
3.33646 3.61859 -26.0875
3.53346 3.48029 -26.1422
3.99346 3.45939 -26.0328
3.76446 3.42089 -26.0895
4.00446 3.36929 -25.3531
3.75246 3.32599 -25.3714
3.99446 3.33769 -24.5935
3.74146 3.29409 -24.5989
3.53946 4.72119 -24.5432
3.32746 4.55179 -24.5532
3.55146 4.75189 -25.3028
3.34046 4.58319 -25.3257
3.18846 4.33369 -25.3511
3.17546 4.30149 -24.5656
3.58146 4.71769 -25.9871
3.38946 4.56599 -26.0479
3.25146 4.34099 -26.1109
3.18546 4.07809 -26.0708
3.11546 4.04669 -25.3509
3.10246 4.01479 -24.5784
4.40846 4.32219 -24.5472
4.26746 4.54709 -24.54
4.41546 4.35319 -25.3069
4.27546 4.57879 -25.3126
4.05946 4.73299 -25.3223
4.04946 4.70069 -24.5368
4.36746 4.35479 -25.9908
4.24046 4.56279 -26.0359
4.04446 4.70529 -26.0847
3.81246 4.76049 -26.0339
3.80446 4.79619 -25.3104
3.79346 4.76479 -24.5378
4.20746 3.50699 -24.5835
4.21646 3.53899 -25.3561
4.36846 3.78959 -25.3566
4.35946 3.75739 -24.5711
4.18746 3.61529 -26.0755
4.32646 3.84459 -26.116
4.39146 4.10329 -26.0526
4.44046 4.07549 -25.3309
4.43246 4.04399 -24.5583
4.86746 14.2976 -1.14885
4.72646 14.4785 -1.14345
4.63546 13.9184 -2.17735
4.50046 14.0923 -2.17215
4.29046 14.211 -2.17025
4.50846 14.602 -1.14145
4.23546 13.3886 -3.48525
4.10746 13.553 -3.48035
3.90846 13.6652 -3.47855
3.44546 13.6802 -3.48455
3.67646 13.712 -3.47995
3.80046 14.2269 -2.17665
4.04446 14.2606 -2.17175
3.99846 14.6185 -1.14805
4.25246 14.6536 -1.14295
3.78546 14.4824 -1.15665
3.59546 14.096 -2.18485
3.44946 13.9025 -2.19495
3.63346 14.2811 -1.16705
3.25246 13.5565 -3.49245
3.11346 13.3736 -3.50185
3.06946 12.9608 -3.51945
3.04746 13.1641 -3.51145
3.40246 13.4658 -2.21355
3.37846 13.6809 -2.20505
3.58446 13.827 -1.18635
3.56046 14.0507 -1.17755
3.72546 13.6461 -1.19185
3.53846 13.2919 -2.21875
3.74746 13.1731 -2.22055
3.94446 13.5226 -1.19375
3.19746 12.7965 -3.52435
3.39646 12.6842 -3.52615
3.85946 12.6692 -3.52015
3.62846 12.6374 -3.52475
4.23846 13.1572 -2.21425
3.99446 13.1236 -2.21915
4.45346 13.5061 -1.18715
4.19946 13.4711 -1.19225
4.66646 13.6422 -1.17855
4.44246 13.2881 -2.20595
4.58946 13.4817 -2.19595
4.81846 13.8435 -1.16815
4.05246 12.7929 -3.51235
4.19146 12.9758 -3.50285
4.25746 13.1853 -3.49335
4.65946 13.7033 -2.18585
4.89246 14.074 -1.15765
3 0 1 2
3 0 2 3
3 2 4 5
3 2 5 3
3 5 6 7
3 5 7 3
3 7 8 0
3 7 0 3
3 9 10 11
3 9 11 12
3 11 13 14
3 11 14 12
3 14 6 5
3 14 5 12
3 5 4 9
3 5 9 12
3 15 16 17
3 15 17 18
3 17 19 20
3 17 20 18
3 20 6 14
3 20 14 18
3 14 13 15
3 14 15 18
3 21 22 23
3 21 23 24
3 23 8 7
3 23 7 24
3 7 6 20
3 7 20 24
3 20 19 21
3 20 21 24
3 25 26 27
3 28 29 30
3 28 30 31
3 30 32 33
3 30 33 31
3 33 26 25
3 33 25 31
3 25 34 28
3 25 28 31
3 35 36 37
3 35 37 38
3 37 39 40
3 37 40 38
3 40 26 33
3 40 33 38
3 33 32 35
3 33 35 38
3 27 26 40
3 27 40 41
3 40 39 42
3 40 42 41
3 43 44 45
3 46 47 48
3 46 48 49
3 48 50 51
3 48 51 49
3 51 52 45
3 51 45 49
3 45 44 46
3 45 46 49
3 53 29 28
3 53 28 54
3 28 34 55
3 28 55 54
3 55 52 51
3 55 51 54
3 51 50 53
3 51 53 54
3 56 57 58
3 59 60 61
3 59 61 62
3 61 63 64
3 61 64 62
3 64 57 56
3 64 56 62
3 56 65 59
3 56 59 62
3 66 47 46
3 66 46 67
3 46 44 68
3 46 68 67
3 68 57 64
3 68 64 67
3 64 63 66
3 64 66 67
3 43 69 70
3 43 70 71
3 70 58 71
3 58 57 68
3 58 68 71
3 68 44 43
3 68 43 71
3 42 39 72
3 37 36 73
3 37 73 74
3 73 75 76
3 73 76 74
3 76 77 72
3 76 72 74
3 72 39 37
3 72 37 74
3 78 60 59
3 78 59 79
3 59 65 80
3 59 80 79
3 80 77 76
3 80 76 79
3 76 75 78
3 76 78 79
3 81 82 83
3 81 83 84
3 83 85 86
3 83 86 84
3 86 87 88
3 86 88 84
3 88 89 81
3 88 81 84
3 90 91 92
3 90 92 93
3 92 94 95
3 92 95 93
3 95 87 86
3 95 86 93
3 86 85 90
3 86 90 93
3 96 97 98
3 96 98 99
3 98 100 101
3 98 101 99
3 101 87 95
3 101 95 99
3 95 94 96
3 95 96 99
3 102 103 104
3 102 104 105
3 104 89 88
3 104 88 105
3 88 87 101
3 88 101 105
3 101 100 102
3 101 102 105
3 106 107 108
3 106 108 109
3 108 110 111
3 108 111 109
3 111 112 113
3 111 113 109
3 113 114 106
3 113 106 109
3 115 116 117
3 115 117 118
3 117 119 120
3 117 120 118
3 120 112 111
3 120 111 118
3 111 110 115
3 111 115 118
3 121 91 90
3 121 90 122
3 90 85 123
3 90 123 122
3 123 112 120
3 123 120 122
3 120 119 121
3 120 121 122
3 83 82 124
3 83 124 125
3 124 114 113
3 124 113 125
3 113 112 123
3 113 123 125
3 123 85 83
3 123 83 125
3 126 127 128
3 126 128 129
3 128 130 131
3 128 131 129
3 131 132 133
3 131 133 129
3 133 134 126
3 133 126 129
3 135 136 137
3 135 137 138
3 137 139 140
3 137 140 138
3 140 132 131
3 140 131 138
3 131 130 135
3 131 135 138
3 141 116 115
3 141 115 142
3 115 110 143
3 115 143 142
3 143 132 140
3 143 140 142
3 140 139 141
3 140 141 142
3 108 107 144
3 108 144 145
3 144 134 133
3 144 133 145
3 133 132 143
3 133 143 145
3 143 110 108
3 143 108 145
3 146 103 102
3 146 102 147
3 102 100 148
3 102 148 147
3 148 149 150
3 148 150 147
3 150 151 146
3 150 146 147
3 98 97 152
3 98 152 153
3 152 154 155
3 152 155 153
3 155 149 148
3 155 148 153
3 148 100 98
3 148 98 153
3 156 136 135
3 156 135 157
3 135 130 158
3 135 158 157
3 158 149 155
3 158 155 157
3 155 154 156
3 155 156 157
3 128 127 159
3 128 159 160
3 159 151 150
3 159 150 160
3 150 149 158
3 150 158 160
3 158 130 128
3 158 128 160
3 92 91 161
3 92 161 162
3 161 163 164
3 161 164 162
3 164 165 166
3 164 166 162
3 166 94 92
3 166 92 162
3 167 168 169
3 167 169 170
3 169 171 172
3 169 172 170
3 172 165 164
3 172 164 170
3 164 163 167
3 164 167 170
3 173 174 175
3 173 175 176
3 175 177 178
3 175 178 176
3 178 165 172
3 178 172 176
3 172 171 173
3 172 173 176
3 179 97 96
3 179 96 180
3 96 94 166
3 96 166 180
3 166 165 178
3 166 178 180
3 178 177 179
3 178 179 180
3 117 116 181
3 117 181 182
3 181 183 184
3 181 184 182
3 184 185 186
3 184 186 182
3 186 119 117
3 186 117 182
3 187 188 189
3 187 189 190
3 189 191 192
3 189 192 190
3 192 185 184
3 192 184 190
3 184 183 187
3 184 187 190
3 193 168 167
3 193 167 194
3 167 163 195
3 167 195 194
3 195 185 192
3 195 192 194
3 192 191 193
3 192 193 194
3 161 91 121
3 161 121 196
3 121 119 186
3 121 186 196
3 186 185 195
3 186 195 196
3 195 163 161
3 195 161 196
3 137 136 197
3 137 197 198
3 197 199 200
3 197 200 198
3 200 201 202
3 200 202 198
3 202 139 137
3 202 137 198
3 203 204 205
3 203 205 206
3 205 207 208
3 205 208 206
3 208 201 200
3 208 200 206
3 200 199 203
3 200 203 206
3 209 188 187
3 209 187 210
3 187 183 211
3 187 211 210
3 211 201 208
3 211 208 210
3 208 207 209
3 208 209 210
3 181 116 141
3 181 141 212
3 141 139 202
3 141 202 212
3 202 201 211
3 202 211 212
3 211 183 181
3 211 181 212
3 152 97 179
3 152 179 213
3 179 177 214
3 179 214 213
3 214 215 216
3 214 216 213
3 216 154 152
3 216 152 213
3 175 174 217
3 175 217 218
3 217 219 220
3 217 220 218
3 220 215 214
3 220 214 218
3 214 177 175
3 214 175 218
3 221 204 203
3 221 203 222
3 203 199 223
3 203 223 222
3 223 215 220
3 223 220 222
3 220 219 221
3 220 221 222
3 197 136 156
3 197 156 224
3 156 154 216
3 156 216 224
3 216 215 223
3 216 223 224
3 223 199 197
3 223 197 224
3 169 168 225
3 169 225 226
3 225 227 228
3 225 228 226
3 228 229 230
3 228 230 226
3 230 171 169
3 230 169 226
3 231 232 233
3 231 233 234
3 233 235 236
3 233 236 234
3 236 229 228
3 236 228 234
3 228 227 231
3 228 231 234
3 237 238 239
3 237 239 240
3 239 241 242
3 239 242 240
3 242 229 236
3 242 236 240
3 236 235 237
3 236 237 240
3 243 174 173
3 243 173 244
3 173 171 230
3 173 230 244
3 230 229 242
3 230 242 244
3 242 241 243
3 242 243 244
3 189 188 245
3 189 245 246
3 245 247 248
3 245 248 246
3 248 249 250
3 248 250 246
3 250 191 189
3 250 189 246
3 251 252 253
3 251 253 254
3 253 255 256
3 253 256 254
3 256 249 248
3 256 248 254
3 248 247 251
3 248 251 254
3 257 232 231
3 257 231 258
3 231 227 259
3 231 259 258
3 259 249 256
3 259 256 258
3 256 255 257
3 256 257 258
3 225 168 193
3 225 193 260
3 193 191 250
3 193 250 260
3 250 249 259
3 250 259 260
3 259 227 225
3 259 225 260
3 205 204 261
3 205 261 262
3 261 263 264
3 261 264 262
3 264 265 266
3 264 266 262
3 266 207 205
3 266 205 262
3 267 268 269
3 267 269 270
3 269 271 272
3 269 272 270
3 272 265 264
3 272 264 270
3 264 263 267
3 264 267 270
3 273 252 251
3 273 251 274
3 251 247 275
3 251 275 274
3 275 265 272
3 275 272 274
3 272 271 273
3 272 273 274
3 245 188 209
3 245 209 276
3 209 207 266
3 209 266 276
3 266 265 275
3 266 275 276
3 275 247 245
3 275 245 276
3 217 174 243
3 217 243 277
3 243 241 278
3 243 278 277
3 278 279 280
3 278 280 277
3 280 219 217
3 280 217 277
3 239 238 281
3 239 281 282
3 281 283 284
3 281 284 282
3 284 279 278
3 284 278 282
3 278 241 239
3 278 239 282
3 285 268 267
3 285 267 286
3 267 263 287
3 267 287 286
3 287 279 284
3 287 284 286
3 284 283 285
3 284 285 286
3 261 204 221
3 261 221 288
3 221 219 280
3 221 280 288
3 280 279 287
3 280 287 288
3 287 263 261
3 287 261 288
3 233 232 289
3 233 289 290
3 289 291 292
3 289 292 290
3 292 293 294
3 292 294 290
3 294 235 233
3 294 233 290
3 295 1 0
3 295 0 296
3 0 8 297
3 0 297 296
3 297 293 292
3 297 292 296
3 292 291 295
3 292 295 296
3 23 22 298
3 23 298 299
3 298 300 301
3 298 301 299
3 301 293 297
3 301 297 299
3 297 8 23
3 297 23 299
3 302 238 237
3 302 237 303
3 237 235 294
3 237 294 303
3 294 293 301
3 294 301 303
3 301 300 302
3 301 302 303
3 253 252 304
3 253 304 305
3 304 306 307
3 304 307 305
3 307 308 309
3 307 309 305
3 309 255 253
3 309 253 305
3 310 10 9
3 310 9 311
3 9 4 312
3 9 312 311
3 312 308 307
3 312 307 311
3 307 306 310
3 307 310 311
3 2 1 295
3 2 295 313
3 295 291 314
3 295 314 313
3 314 308 312
3 314 312 313
3 312 4 2
3 312 2 313
3 289 232 257
3 289 257 315
3 257 255 309
3 257 309 315
3 309 308 314
3 309 314 315
3 314 291 289
3 314 289 315
3 269 268 316
3 269 316 317
3 316 318 319
3 316 319 317
3 319 320 321
3 319 321 317
3 321 271 269
3 321 269 317
3 322 16 15
3 322 15 323
3 15 13 324
3 15 324 323
3 324 320 319
3 324 319 323
3 319 318 322
3 319 322 323
3 11 10 310
3 11 310 325
3 310 306 326
3 310 326 325
3 326 320 324
3 326 324 325
3 324 13 11
3 324 11 325
3 304 252 273
3 304 273 327
3 273 271 321
3 273 321 327
3 321 320 326
3 321 326 327
3 326 306 304
3 326 304 327
3 281 238 302
3 281 302 328
3 302 300 329
3 302 329 328
3 329 330 331
3 329 331 328
3 331 283 281
3 331 281 328
3 298 22 21
3 298 21 332
3 21 19 333
3 21 333 332
3 333 330 329
3 333 329 332
3 329 300 298
3 329 298 332
3 17 16 322
3 17 322 334
3 322 318 335
3 322 335 334
3 335 330 333
3 335 333 334
3 333 19 17
3 333 17 334
3 316 268 285
3 316 285 336
3 285 283 331
3 285 331 336
3 331 330 335
3 331 335 336
3 335 318 316
3 335 316 336
3 61 60 337
3 61 337 338
3 337 339 340
3 337 340 338
3 340 341 342
3 340 342 338
3 342 63 61
3 342 61 338
3 343 127 126
3 343 126 344
3 126 134 345
3 126 345 344
3 345 341 340
3 345 340 344
3 340 339 343
3 340 343 344
3 144 107 346
3 144 346 347
3 346 348 349
3 346 349 347
3 349 341 345
3 349 345 347
3 345 134 144
3 345 144 347
3 350 47 66
3 350 66 351
3 66 63 342
3 66 342 351
3 342 341 349
3 342 349 351
3 349 348 350
3 349 350 351
3 48 47 350
3 48 350 352
3 350 348 353
3 350 353 352
3 353 354 355
3 353 355 352
3 355 50 48
3 355 48 352
3 346 107 106
3 346 106 356
3 106 114 357
3 106 357 356
3 357 354 353
3 357 353 356
3 353 348 346
3 353 346 356
3 124 82 358
3 124 358 359
3 358 360 361
3 358 361 359
3 361 354 357
3 361 357 359
3 357 114 124
3 357 124 359
3 362 29 53
3 362 53 363
3 53 50 355
3 53 355 363
3 355 354 361
3 355 361 363
3 361 360 362
3 361 362 363
3 30 29 362
3 30 362 364
3 362 360 365
3 362 365 364
3 365 366 367
3 365 367 364
3 367 32 30
3 367 30 364
3 358 82 81
3 358 81 368
3 81 89 369
3 81 369 368
3 369 366 365
3 369 365 368
3 365 360 358
3 365 358 368
3 104 103 370
3 104 370 371
3 370 372 373
3 370 373 371
3 373 366 369
3 373 369 371
3 369 89 104
3 369 104 371
3 374 36 35
3 374 35 375
3 35 32 367
3 35 367 375
3 367 366 373
3 367 373 375
3 373 372 374
3 373 374 375
3 73 36 374
3 73 374 376
3 374 372 377
3 374 377 376
3 377 378 379
3 377 379 376
3 379 75 73
3 379 73 376
3 370 103 146
3 370 146 380
3 146 151 381
3 146 381 380
3 381 378 377
3 381 377 380
3 377 372 370
3 377 370 380
3 159 127 343
3 159 343 382
3 343 339 383
3 343 383 382
3 383 378 381
3 383 381 382
3 381 151 159
3 381 159 382
3 337 60 78
3 337 78 384
3 78 75 379
3 78 379 384
3 379 378 383
3 379 383 384
3 383 339 337
3 383 337 384
