0.847924
2.52943
2.53006
4.14596
4.71708
7.63538
0.957434
4.41428
4.05872
5.3394
1.73292
3.37881
3.61934
4.11214
2.94136
4.00322
2.92551
5.13776
2.40769
2.59852
3.62553
2.31906
1.80865
3.19152
0.924602
2.55618
0.845735
1.23774
5.66142
1.90935
2.33585
2.10981
2.02138
2.13014
2.22498
1.03405
2.88051
2.1208
2.19328
1.48573
1.96538
3.57871
1.05496
1.38316
3.23139
2.67528
2.20891
2.84851
2.72581
1.53338
2.04119
2.89927
2.90479
1.62135
2.34232
1.74337
1.93509
2.27131
1.82719
3.92413
2.09133
5.0689
2.66139
1.57438
2.11794
2.51419
0.49907
1.92751
2.77461
2.99834
1.35122
4.80561
4.2412
2.54227
3.74485
4.18954
3.7091
1.31892
2.68853
2.41894
1.64479
2.24866
1.64449
1.84001
3.16305
3.88875
5.81006
1.22575
1.82091
1.30603
1.50409
3.75273
5.37067
2.56477
4.04871
1.42243
2.63788
3.03988
3.25427
3.37122
2.5553
2.35443
2.28124
3.99732
0.843117
3.76484
3.78295
3.22043
1.86255
1.67773
1.76813
1.6349
3.6937
1.71016
2.52401
2.6427
2.12156
4.16165
3.40116
4.1357
2.74097
1.37164
3.22456
2.35102
3.36022
0.823429
2.44904
2.95192
3.09353
1.88409
2.01911
1.86855
2.67813
2.02956
2.30713
6.00594
2.42595
3.16555
3.82893
1.30107
3.29145
2.75609
3.04594
2.48236
2.86501
3.08048
2.89024
1.65239
0.759844
2.67492
2.13744
1.26888
1.77991
3.25745
2.3606
1.72499
2.41964
2.56605
3.93577
3.03336
1.1299
4.09475
4.83983
5.4958
3.81242
2.12462
3.90026
1.94574
3.13067
4.26973
2.95186
2.59497
1.64828
4.27103
1.79482
4.6824
0.854052
2.50697
1.07571
1.77271
1.86454
1.70725
2.73291
4.0553
3.35575
4.38967
1.75005
2.03663
5.29047
1.90181
0.995216
1.5299
1.12423
1.59326
1.1618
1.2515
2.6054
4.55211
2.25519
3.92125
0.961521
1.68584
2.69355
2.28145
3.74612
1.90041
5.94278
1.2493
1.63975
2.02495
1.32549
3.04844
4.60634
5.96802
4.83247
4.82217
2.66842
5.05915
2.27532
2.00924
4.17521
1.98518
4.19027
3.24151
2.92892
3.94132
2.68319
3.61433
2.18579
3.19642
3.24451
1.86081
1.2609
1.87062
4.2017
3.2838
0.60702
1.24504
0.768968
1.75371
1.52736
2.40251
3.18716
4.78558
3.81117
2.0656
3.94527
3.191
3.61344
1.93339
3.94211
4.23788
4.32448
3.01546
3.09562
1.93518
0.708963
0.381904
0.346832
0.340413
1.5293
0.396002
0.71025
0.360683
1.39673
1.22744
0.577625
1.3761
1.20084
5.22074
1.23461
0.984049
1.84412
0.763463
1.44888
1.35331
1.9206
4.56462
1.72706
0.46948
1.05718
0.749313
0.80698
0.481714
3.31816
1.21138
2.1882
3.83912
0.66449
0.58485
4.54093
0.504838
0.611099
0.638467
0.879012
0.867784
1.53487
1.43882
1.01464
0.707585
0.9523
4.54917
1.80761
0.755666
1.22267
1.31215
3.29297
1.39465
4.18505
3.61772
2.40699
1.08971
0.671558
0.520014
0.788699
0.593727
0.392071
0.428013
4.28856
0.541689
4.05437
1.09802
1.94766
4.53936
4.46458
1.5664
3.88881
0.991338
4.32011
0.53832
1.18372
1.40998
0.799082
4.26041
1.68982
1.53304
1.35558
1.16024
1.04034
1.77416
4.16312
1.17257
0.568234
1.66305
0.861316
2.99912
0.87084
0.793151
4.47633
0.463197
0.405956
1.7355
3.8949
3.93873
3.87537
3.64846
3.86365
4.36862
3.14933
4.27284
3.64228
4.17132
2.99386
4.55091
3.74218
3.47725
3.30256
4.4431
3.36438
3.68777
1.81775
4.15606
5.37617
4.02237
3.71097
1.36982
3.6916
4.86712
2.14852
4.62538
4.34844
4.20017
4.11427
1.82894
1.22349
4.23364
1.59075
2.61245
4.13795
5.88164
3.61548
5.85913
4.07022
2.13023
3.78912
3.73334
3.66588
3.24472
3.73693
3.81954
4.64481
2.01706
3.74192
4.33443
3.76621
3.76766
1.62104
1.42834
4.91756
3.02597
3.70936
4.46627
2.82958
3.32004
1.69267
2.13167
2.01221
4.0389
3.28038
2.04847
4.02359
4.05515
4.09246
1.74528
4.08549
1.80146
1.30663
3.62626
2.82451
0.761284
4.20664
3.89359
3.58044
3.97116
4.10854
4.11341
2.7682
3.86241
4.00152
1.21282
2.82297
3.71818
4.19386
2.23725
1.28492
3.30785
3.38915
0.892595
0.541287
0.680947
4.87517
4.49989
4.74563
4.02936
2.49018
3.87815
4.09269
0.836716
4.45738
2.70382
2.78041
3.98337
1.56439
4.04179
4.48273
0.759788
3.46877
0.563149
4.04145
1.1026
4.93322
2.20703
0.473557
2.99957
0.630779
1.16619
0.878635
0.83997
0.729695
2.7598
4.06299
1.11732
2.75149
1.28071
2.69043
1.54329
2.36119
1.94177
2.07372
4.17643
0.540609
4.31545
0.778381
4.89764
0.507791
3.60308
0.873805
2.4602
4.28844
1.16209
4.415
0.62626
4.20831
4.41943
3.96486
2.72919
2.71056
2.72021
2.58192
2.81676
3.98653
2.82913
2.51896
3.5278
0.863408
4.03869
0.743213
0.71015
0.611683
0.515647
0.762465
3.2349
4.99001
0.998743
0.565169
1.49744
1.05968
0.85312
1.3292
1.29299
1.14015
1.05868
1.16131
1.3063
0.635726
1.2504
1.47643
0.797728
1.45057
1.2288
1.24436
4.97475
3.75689
4.05145
4.02897
4.11528
4.06945
3.0383
3.84989
1.29907
3.99327
4.84065
4.13999
4.77809
4.20078
4.3181
4.08118
2.29699
5.37198
4.43543
4.10328
3.9306
4.25016
4.09399
4.21883
4.34774
3.28963
4.18864
3.90755
4.14673
1.51449
4.15054
3.99275
4.00261
4.14202
3.75198
3.7793
5.03561
2.18318
3.51122
1.4671
0.846553
1.37386
2.41819
1.40527
1.7214
1.77697
0.830689
1.72323
1.1245
1.65943
3.40839
1.3972
1.64976
1.37845
1.01046
1.59873
1.56656
1.84926
1.08252
1.34027
0.776785
1.59313
0.650963
1.62359
1.34563
1.03323
1.43647
1.35306
1.51301
1.75491
1.79597
1.84515
2.2476
4.11886
1.66308
1.41704
1.24511
1.18753
1.64968
0.709423
1.70296
0.883065
1.37634
1.47526
1.90653
2.07391
0.86783
1.16209
1.41191
1.60144
2.06573
1.61938
1.54116
1.62792
1.23773
1.56107
1.03975
1.92607
0.724194
1.3239
0.885791
1.63263
1.40916
1.86125
2.40667
1.91794
0.8417
1.56692
1.57596
1.13589
0.915038
1.60804
1.14515
1.25045
1.1451
1.23138
1.56572
1.24402
1.65129
0.318126
1.03758
1.29459
1.77871
1.26858
1.34579
1.49608
1.70899
2.14217
1.6159
1.67241
1.21187
0.650095
1.61927
1.98515
1.91736
1.29853
2.74265
1.88025
1.6796
1.34877
0.886499
