0.907772
0.964432
1.94326
1.48032
1.60633
1.85069
0.916764
1.22999
2.52738
2.993
2.29346
3.20402
1.732
1.82064
2.25258
2.71009
2.93512
0.904834
2.37857
2.90675
1.53117
3.04725
1.26174
0.94427
0.692859
0.638765
0.622277
0.725107
1.38923
1.24818
0.875333
2.08262
1.37216
2.77368
7.94591
2.84339
2.78907
3.40683
2.79381
2.5649
2.58748
2.84531
2.62411
2.22419
4.63058
1.89764
3.68049
0.937088
2.76006
2.83706
3.03613
2.60398
2.22334
3.38751
4.60554
3.84086
2.62401
2.02712
1.41075
2.53889
3.59136
3.68528
3.3054
3.59143
3.31907
3.07025
1.98462
3.28203
2.58131
2.8611
1.92353
2.10044
1.78365
1.89315
1.39779
1.53472
0.549901
1.8775
2.97961
1.71111
1.38645
4.09155
1.41613
1.99395
1.59461
3.0831
1.03598
2.7001
3.2047
3.29589
2.71412
1.95689
2.78457
2.82643
2.89793
0.757446
2.96434
0.586042
1.05881
1.20394
2.95614
1.94759
1.73653
3.16739
2.56086
3.05827
3.06333
1.8157
2.81883
2.99492
1.92189
1.62229
1.92424
3.92138
3.19489
1.46838
1.68491
2.19221
2.43247
2.34654
1.05176
2.80941
1.85182
0.991651
3.14719
1.89979
3.36146
2.84527
2.98009
1.71103
1.03963
1.58177
1.46093
1.44246
2.19697
2.26393
3.26573
2.83042
3.01714
2.07004
1.60053
2.35118
2.7694
1.66567
2.57909
2.5578
2.91177
2.42913
2.77541
2.59608
2.74146
1.99881
2.28946
2.40613
2.8386
2.7587
2.14438
3.09628
2.64791
2.81424
1.64447
3.40822
2.99778
3.00994
2.05804
1.66446
2.52415
3.16896
3.17412
2.93049
2.65929
3.83091
2.31822
1.21671
1.24491
2.96002
2.8539
2.47743
1.27166
2.86235
1.15815
3.07114
2.37552
3.42416
3.12253
2.95132
2.4622
1.72268
1.53273
2.89353
1.09369
2.90956
3.24047
2.20353
1.66764
3.39425
2.59666
3.09933
2.55679
3.28891
3.25792
2.09546
3.28354
2.74895
3.07861
2.92975
2.46146
2.25593
2.25845
0.941029
2.78059
3.09489
2.21926
1.5203
0.96325
3.23189
3.28556
2.75707
1.26714
2.08902
1.83081
2.38023
2.99224
2.90366
1.36751
3.12758
2.62006
2.99524
1.75807
2.59623
2.77087
2.0366
3.44113
3.14341
3.3069
2.95815
3.40994
1.98653
1.42718
3.16426
2.31571
3.16546
2.01472
2.96975
2.06046
2.52451
3.17325
2.78339
2.21031
1.03657
1.15764
0.770779
2.42118
2.78706
2.67658
2.82842
2.79392
2.98431
2.05129
3.31145
1.4131
3.23945
2.44207
1.46055
3.79231
2.95634
2.32193
2.27785
2.48401
2.36128
1.8687
2.5899
1.85599
1.56401
1.71199
1.41025
2.7072
2.22284
3.06541
0.973917
1.78661
1.96018
1.444
1.3379
2.73479
2.3696
1.23922
1.74228
2.71747
2.99849
2.9126
2.00793
1.81482
2.47662
1.89423
2.14709
2.35275
2.51347
2.50396
2.32006
2.39034
2.45514
2.06034
2.2817
1.69479
2.03278
1.56389
2.04926
1.57339
1.44477
2.58787
1.83239
1.37776
2.23897
2.23576
2.00035
1.96683
1.37733
1.99116
1.99757
2.63917
3.14447
2.06731
2.27369
2.36237
2.30227
2.46186
2.64377
3.08518
3.26121
2.38942
2.16202
2.25294
1.95031
2.34563
2.45694
2.38648
2.28807
1.89151
1.58394
2.23406
1.85415
2.24283
1.12236
2.4143
2.47732
2.16483
1.65487
2.14614
2.39411
3.04818
2.15137
1.69401
1.71685
2.74057
2.22352
2.40429
3.82749
2.03336
2.3489
3.00995
2.05943
1.6624
2.42003
1.98251
2.47099
2.57886
1.33465
1.49365
1.94652
2.14586
2.09159
2.09194
2.09383
2.4863
2.03469
3.06388
1.57917
1.41849
1.68413
1.94651
2.06568
2.1037
2.12825
2.39232
2.96421
2.6505
1.75294
2.08357
2.47463
2.24277
2.41895
1.17878
2.66588
3.03879
3.22715
1.36854
3.25925
1.37893
1.39133
1.01061
0.69514
1.428
1.71649
1.33034
0.925733
0.840382
1.59888
0.547752
0.698628
1.66733
0.725154
1.63692
0.724664
1.20793
1.38074
2.39489
2.54237
2.36474
1.79001
1.34781
2.43428
1.77501
2.06126
2.67698
2.32651
2.59991
2.56337
2.2785
2.01135
2.08555
2.10334
2.39705
2.42242
2.58922
2.57811
2.51329
2.49162
2.44096
2.92957
1.24129
1.88986
1.13862
0.606087
2.23326
1.82983
2.15058
2.1947
1.86528
1.41815
1.65823
1.89702
2.32596
2.12219
2.09065
2.05247
1.47886
1.27615
0.798573
1.07438
0.702366
0.745052
1.09009
1.16221
0.524705
0.538525
0.500375
0.788745
0.46947
0.63418
0.521309
0.717471
0.758507
0.715609
0.563867
0.56963
0.501993
0.725886
0.807118
1.21131
1.16249
0.853451
1.22587
0.883186
0.894706
1.28561
0.671707
0.663167
1.98447
2.05205
2.12334
1.11416
2.09665
2.24668
2.29869
2.26278
0.493288
0.635313
1.07469
1.39123
1.48772
1.4254
0.977109
1.05273
3.1292
3.09191
1.28265
1.99796
2.56738
2.40514
2.79972
2.27737
2.96256
2.5958
2.29548
2.28533
2.8478
2.83511
2.5226
2.38522
2.20693
1.43488
2.22676
2.98042
1.92652
2.90301
2.44568
2.6203
1.54402
1.5568
1.20699
2.07903
1.69447
1.34387
1.66876
2.01279
1.96347
1.94352
1.45886
2.07488
1.47617
1.30769
1.2723
1.79964
1.59359
3.02218
2.36047
2.0106
0.94631
1.86227
2.10032
2.07958
3.03832
2.87718
2.2336
2.00983
1.55261
1.79881
4.25991
1.71648
0.643432
0.528087
0.960012
1.07681
1.15185
1.08712
0.416679
1.85686
1.57361
1.68003
1.8685
1.66731
1.8772
1.63735
1.10268
2.13833
2.39074
2.25477
1.74696
3.48531
2.66875
2.33505
2.67551
3.20958
2.81118
2.21737
2.18364
1.89531
1.90807
1.87061
2.69707
2.10102
0.900445
1.11051
0.80493
0.993782
1.38235
1.21356
1.86263
1.58848
0.532852
0.654884
0.633509
1.42292
1.5547
1.008
0.764903
0.910528
3.50091
1.39256
2.38414
2.69383
1.28608
0.907941
1.22505
2.64875
1.86892
2.88485
1.87089
2.85654
2.31201
2.22336
2.98715
2.48571
1.43777
1.80476
1.16836
1.87223
2.17488
2.38886
1.54663
2.40662
0.801875
1.2993
1.37771
1.1666
1.02602
1.59646
0.991245
0.735854
2.32885
2.87317
2.6124
2.31975
2.15985
2.09462
1.95321
2.10412
1.2731
2.9476
1.48365
2.97917
3.24735
1.91295
3.25522
2.08947
3.46612
2.89933
2.92114
2.69072
3.37095
3.33901
3.18379
2.91791
2.75689
2.93187
3.22169
3.26245
1.84851
3.31247
3.41859
3.13508
2.03142
3.63247
2.81785
1.74272
3.18604
1.73872
2.84741
2.89793
0.900757
2.07012
1.35259
2.40596
2.03155
2.83774
2.90641
2.95249
2.19165
3.02503
2.56307
2.98741
3.0608
2.23942
2.57295
3.21323
2.83534
2.35142
1.21425
1.91678
2.58361
3.15124
2.91649
1.4778
2.68738
2.25628
2.52975
2.40112
2.18696
1.52239
1.82827
2.84032
1.58495
3.13695
2.35226
3.26038
2.34006
3.26712
2.20661
2.94467
3.1781
2.98857
2.54705
3.02605
2.42111
2.11343
2.76187
2.90644
0.80035
2.3177
3.13656
2.58752
2.34625
3.14386
2.50084
3.22306
2.23521
1.88599
2.71714
1.8958
2.72408
3.50454
3.55184
3.766
3.23938
2.67937
2.45099
3.25482
1.90228
1.68631
2.00114
2.56352
3.18118
2.69355
2.88187
1.70409
1.83909
2.31383
2.44747
3.02321
2.9517
3.82371
1.16612
3.31789
3.09291
2.4716
2.91347
3.11782
2.60876
2.23959
2.96327
1.00054
1.70996
3.21985
3.60552
2.09955
