0.486263
0.712825
0.537749
0.359879
0.186852
0.323627
0.491756
0.368663
0.49313
0.402555
0.393226
0.301125
0.765037
1.18459
1.18457
1.2381
1.46776
0.926935
2.15998
1.73265
1.66743
1.38282
2.28646
1.47656
1.38354
1.72487
1.72384
1.87346
1.16174
0.565724
0.697497
1.98285
1.77945
1.7422
0.879911
1.55804
1.55189
1.67945
1.63046
1.43121
1.56799
1.48104
0.505951
0.293827
1.86372
1.48406
1.73756
2.0038
1.50753
1.77198
1.52849
1.54471
1.66288
0.0436716
1.44724
0.27618
0.797157
0.618713
0.622249
0.497775
0.725374
0.574967
0.560118
0.658409
0.636515
0.582024
0.362386
0.392385
0.591095
0.390479
0.536064
0.494938
0.571784
0.471837
0.448298
0.381004
0.48874
0.422355
0.602991
0.536443
0.762688
0.477635
0.308272
0.396005
0.360922
0.546198
0.385623
0.629326
0.684641
0.611334
0.668227
0.498461
0.671975
0.556415
0.578497
0.708052
0.487267
0.894439
0.692562
0.352116
0.841432
0.547527
0.827364
0.748861
0.582639
0.58712
0.581157
0.110357
0.393553
0.257256
0.803519
0.470858
0.238921
0.761406
0.626231
0.316212
0.444149
0.671484
0.338572
0.760625
0.317984
0.797822
0.439454
0.544361
0.869711
0.599992
0.670857
0.385716
0.315757
0.522409
0.716177
0.641717
0.540251
0.939478
0.745346
0.680877
0.550932
0.586796
0.922277
0.568989
0.626765
0.567449
0.747965
0.479078
0.605795
0.489212
0.667842
0.536924
0.424043
0.595157
0.369299
0.681338
0.485064
0.732729
0.451736
0.40941
0.403003
0.387388
0.618277
0.554829
0.510124
0.455544
0.545189
0.422374
0.38709
0.639488
0.362856
0.478052
0.667314
0.466885
0.633376
0.597062
0.612463
0.538184
0.724433
0.651422
0.613788
0.429927
0.611985
0.635593
0.570612
0.619944
0.616708
0.904055
0.481962
0.766533
0.791591
0.751166
0.700603
0.603282
0.730769
0.588811
0.310922
0.366661
0.491445
0.769585
0.339997
0.644181
0.279729
0.500513
0.50888
0.406564
0.454797
0.544852
0.313399
0.859796
0.476063
0.245122
0.506447
0.376044
0.381608
0.530438
0.476143
0.294939
0.35155
0.661586
0.655936
0.537951
0.547296
0.541805
0.653409
0.483386
0.47811
0.97686
0.300925
0.341796
0.463104
0.311113
0.503044
0.327618
0.353467
0.475525
0.304628
0.430523
0.390813
0.309798
0.278623
0.268407
0.30631
0.385332
0.240257
0.342447
0.295949
0.440564
0.256393
0.555531
0.282741
0.81391
0.316529
0.274398
0.409287
0.23433
0.526565
0.497494
0.470056
0.184055
0.558675
0.228111
0.463969
0.138876
0.808639
0.165788
0.228117
0.285891
0.353881
0.179718
0.589362
0.422454
0.394206
0.294615
0.322867
0.328849
0.260604
0.565385
0.294625
0.489597
0.265635
0.33535
0.312165
0.495768
0.292291
0.379458
0.418866
0.382926
0.235713
0.276698
0.381149
0.549409
0.215223
0.291146
0.273438
0.258935
0.675387
0.548057
0.293557
0.36787
0.208771
0.2262
0.396395
0.347165
0.502917
0.361148
0.191259
0.269836
0.26044
0.356301
0.480103
0.267255
0.216876
0.323869
0.391907
0.213329
0.317765
0.303406
0.288509
0.25717
0.604247
0.449721
0.636719
0.216815
0.556358
0.230481
0.480983
0.265649
0.473086
0.517591
0.606076
0.54678
0.48139
0.30119
0.363848
0.296828
0.230381
0.427918
0.335213
0.347459
0.48579
0.344688
0.449127
0.465292
0.479474
0.550235
0.606592
0.532227
0.874422
0.822648
1.02919
0.613452
0.526844
0.394215
0.601381
0.473441
0.261885
0.293716
0.535481
0.458999
0.398271
0.433191
0.295906
0.656068
0.622586
0.520215
0.553155
0.509436
0.233402
0.308099
0.489865
0.700502
0.732112
0.664993
0.662968
0.703427
0.886308
0.678431
0.650775
0.618924
0.60544
0.567589
0.741189
0.948509
0.635704
0.292513
0.71118
0.584629
0.692155
1.08826
1.22247
0.656771
0.835249
0.682864
0.529002
0.607449
0.758114
0.663257
0.752617
0.714681
0.731079
0.706553
0.773731
0.520953
0.492007
0.768588
0.737315
0.701184
0.547014
0.889011
0.551098
0.804765
0.914917
0.867399
0.475182
0.564941
0.656613
0.366545
0.512549
0.60842
0.413727
0.237308
0.674607
0.731946
0.648436
0.52103
1.35272
1.45067
1.36244
1.15681
1.27587
1.28228
1.43429
1.32874
0.860187
0.863508
0.7617
0.883647
0.843239
0.81578
1.02595
0.773136
0.969316
1.00972
0.768135
0.848097
0.889782
0.830158
1.07951
1.04005
1.00696
1.04666
1.92602
1.75425
1.34432
1.37813
1.09798
1.36416
1.23318
1.2926
1.10995
1.27584
1.16114
1.33737
1.56611
0.975356
1.48347
1.55377
1.45115
0.933896
1.49998
1.01946
1.07467
0.90454
0.908552
1.16728
0.646924
1.16062
1.25696
1.10305
0.978031
1.00661
1.12201
0.763471
1.07241
0.983276
1.20641
1.10643
1.06482
1.1817
1.0211
1.64129
0.926432
1.2662
1.62566
1.3535
1.38607
1.29718
1.39726
1.2757
1.23676
1.32162
1.28551
0.952319
1.37718
1.66068
0.957806
0.818431
0.697985
0.861544
0.889392
0.959135
1.00005
1.09434
0.801647
0.716986
0.85465
1.13894
1.04375
1.00245
0.993178
0.956113
1.02673
0.8782
1.80216
1.67788
1.65546
1.90846
1.22318
1.17243
1.41704
1.28753
1.27779
1.06408
1.10718
1.15448
1.17272
1.18112
1.27082
1.50742
1.30295
1.31905
1.16118
1.90728
1.60352
1.8817
0.77311
1.04525
0.842535
1.07729
0.663087
1.13755
1.27686
1.06226
1.29601
1.08148
1.00753
1.05284
1.0985
0.866803
1.24574
1.03589
1.10403
1.13804
1.10763
1.10319
1.04339
0.996138
0.959191
1.62393
1.45797
1.53509
1.85813
1.6732
1.64363
1.32656
0.904922
1.10723
1.47622
