2.35879
2.55565
1.7672
0.910939
1.64197
1.71772
4.37809
4.06172
0.659326
3.6545
1.81413
1.46445
2.83028
3.0036
1.82076
2.3498
1.5391
1.11913
1.3299
2.35741
2.79656
1.70445
2.58999
1.67371
1.15142
3.72599
1.96874
1.18952
4.00996
3.78857
2.88526
1.2399
4.65729
5.389
4.40207
1.89314
2.97553
5.51744
1.22293
3.66879
3.39862
1.44541
1.40133
2.49364
1.9388
5.90097
6.43522
3.42846
1.70016
4.27891
5.54688
1.75624
5.94705
5.6677
1.71035
3.24516
3.46733
1.95996
0.407643
0.789202
5.46034
2.88737
4.39453
2.41256
0
1.53807
2.16268
4.32479
4.94998
2.47499
4.65626
3.11096
1.77304
1.30854
3.27228
2.95902
4.96067
4.29625
4.36455
1.39009
4.60282
2.88101
3.58675
2.65011
4.46329
5.03917
4.75211
4.50245
4.64617
2.09132
5.42026
1.62778
3.87248
5.76655
3.92894
1.08299
4.88031
0.852589
3.28652
1.61516
4.12667
2.03121
3.67939
0.505526
1.57868
1.33916
4.58105
1.60296
1.57264
1.47663
2.63099
2.90068
3.10178
1.9873
2.6957
5.22415
3.38048
1.41498
2.22161
5.28574
3.10554
3.56243
7.26614
4.35687
5.08491
2.08599
4.8897
5.5924
7.49819
1.87029
4.3995
3.77381
6.46597
4.84299
5.39039
4.97049
4.86223
4.98725
2.61942
4.9358
2.98046
2.02332
1.38616
2.82427
2.87102
5.25762
2.67855
3.21219
1.89594
1.63509
1.06358
1.57671
0.959019
1.2632
1.43822
1.60217
0.682098
0.480777
0.399174
0.90884
0.392655
0.557785
0.765725
2.1127
1.52821
0.594194
2.33778
0.593681
0.853299
2.08347
2.14226
1.54624
1.37362
0.612987
1.2135
2.02552
1.86471
3.08612
3.41544
1.72376
1.20133
3.69329
2.04503
3.79082
3.81929
1.28777
1.32161
4.31428
0.685464
0.38475
1.93885
1.22314
1.45519
1.26569
1.89953
1.14538
0.890341
1.18528
2.02964
0.567762
1.20178
3.5252
3.7024
3.06011
2.46773
2.69966
2.14782
1.90301
1.84086
1.68435
1.36863
2.4799
2.43018
0.958052
1.39733
1.65158
1.08382
0.397902
0.445386
0.610278
2.16494
0.743744
1.39038
0.531139
0.822058
0.348606
0.453409
0.742417
0.97634
0.837699
1.01931
0.429631
2.16176
1.35645
1.29964
1.77023
1.48134
1.48937
0.912297
0.934665
1.41277
2.3402
2.27836
1.59108
1.08207
4.03398
3.66258
2.00449
3.58764
0.82697
0.999594
0.713953
1.46477
1.58646
2.9723
3.10238
0.445752
1.93529
0.988172
3.67623
1.9004
1.44279
1.14574
3.22818
0.581427
2.23864
2.5291
1.80699
3.14997
1.60187
1.0895
0.672717
0.614568
2.45188
1.74583
1.95432
2.07331
2.78025
1.87483
3.44845
2.43934
2.34573
2.26573
1.27421
1.46327
3.65445
1.6904
2.24536
1.55005
1.51796
1.26547
1.72318
1.71983
1.87873
1.97654
1.9246
1.68064
3.27729
2.18898
2.31733
4.71421
2.663
3.42961
2.26343
1.98614
1.2633
0.663712
0.487022
0.527985
0.575211
0.369732
1.00982
0.592445
0.868347
0.390371
0.411313
0.397484
0.265307
0.405263
0.454898
0.280391
1.88251
1.30012
1.32485
1.05813
0.6028
0.711583
0.590845
0.558629
2.40768
1.13141
0.868559
1.3248
0.611746
0.640766
1.15443
1.26607
3.37923
1.02227
0.516491
0.813854
0.869035
1.45508
3.4852
1.52711
0.517723
0.448655
2.19324
0.29771
0.838615
0.350496
0.322728
0.719817
1.1343
0.734983
0.557642
0.838014
0.721434
0.48375
0.789125
1.58383
0.98447
1.15819
1.34274
1.1658
0.8934
1.14063
0.486341
0.771457
1.3648
3.56371
1.46063
1.62261
1.17418
0.920749
0.3862
0.876722
1.19277
1.05101
0.684449
0.726615
0.69904
1.68806
2.42004
0.924936
0.178311
0.346169
0.538548
0.315071
0.593348
0.331858
0.575203
0.404893
0.596073
0.494317
0.393194
1.14699
0.52094
0.532551
0.637757
0.478497
0.611465
1.15578
0.577888
0.339703
0.458795
1.04769
0.349231
1.76191
0.703715
0.351857
0.350544
2.49362
3.34886
3.5699
1.42879
2.47773
1.43324
2.50916
1.24017
3.02766
3.81808
0.905881
4.75864
2.12361
2.191
3.29085
3.42156
4.0738
1.67064
1.69841
2.794
3.78957
3.02803
1.968
3.68759
0.801261
2.67661
2.77872
4.12863
4.42558
2.33653
2.69617
3.17197
3.25753
1.21673
3.26522
4.38589
5.04091
4.287
4.54196
2.39304
3.43036
3.3197
5.00405
3.91661
2.07671
1.82054
0.872209
1.2716
2.35992
3.71458
3.7782
1.76795
2.9674
1.14435
2.87618
5.42238
1.04609
2.99056
2.66014
1.42194
1.775
3.55371
2.89066
4.31928
4.5402
2.91769
3.07763
1.72098
2.4713
0.700128
0.82514
3.62975
3.00554
3.0152
4.86777
3.56714
2.20376
2.47808
4.60981
2.28374
3.6876
4.61001
3.11231
1.10622
2.39513
2.71228
4.47126
5.3795
3.01248
2.75903
2.10497
1.77486
1.40737
4.33423
5.46001
3.60701
1.81179
2.80061
2.61304
2.53115
3.68036
4.01068
5.32222
3.93344
1.62794
4.44343
4.06438
2.42848
2.85711
1.04341
2.05571
2.27772
1.98843
3.49914
4.10698
3.17738
3.36449
1.88028
2.73765
2.13478
3.653
3.58471
2.28737
3.84666
2.94012
1.66518
2.21676
4.54489
3.69148
3.62796
3.34834
