OFF
321 634 0
7.89017 -16.3578 4.98579
8.46917 -16.38 5.00479
8.22117 -16.3817 5.04679
8.31117 -16.3877 5.31079
8.47517 -16.3817 5.44779
8.50717 -16.3292 4.99879
8.05117 -8.72319 3.07479
7.09717 -9.03872 3.56879
8.00517 -9.03872 3.39579
5.33017 -8.72394 -0.366211
5.46617 -9.03872 0.513789
6.08517 -8.72579 3.43679
7.28517 -8.723 -0.820211
6.74417 -9.46835 -0.0392107
5.34717 -8.72275 -0.442211
7.54417 -8.81829 0.524789
7.42617 -9.46835 0.165789
7.44217 -9.46835 3.91479
7.73617 -10.1758 4.54379
5.44117 -10.1758 0.846789
5.44917 -10.1758 0.929789
5.42817 -9.46835 0.518789
5.56617 -8.81829 0.909789
7.43117 -10.1758 0.503789
7.39017 -10.1758 0.504789
7.10917 -10.1758 0.546789
7.45117 -9.03872 0.138789
8.30017 -12.9964 7.41279
8.21017 -12.5633 6.89879
7.91217 -12.9897 7.43979
8.68917 -13.7375 8.36579
8.60617 -13.462 8.00879
8.52017 -13.4624 8.06479
8.53217 -13.7397 8.39079
8.33817 -12.9924 7.36779
5.41717 -12.9924 3.06779
5.53017 -12.5681 3.11879
5.51017 -12.5681 2.78679
5.02717 -13.738 3.31079
5.02917 -13.7381 3.58479
5.14017 -13.4702 3.19879
5.28217 -13.2489 3.14979
5.20017 -13.4577 4.07279
5.47617 -12.9897 3.83379
5.62717 -12.5681 4.17579
7.96617 -12.9872 2.84179
7.70117 -12.5704 2.57379
7.81317 -12.5666 2.57279
8.25217 -13.4522 2.97779
6.73617 -13.2473 3.03979
8.11817 -13.2452 2.93679
7.13117 -12.9897 2.90479
7.85017 -12.5681 2.90779
7.94817 -12.5681 3.96479
8.03417 -12.9897 3.62679
8.31717 -13.4577 3.85479
8.39217 -13.7381 3.50679
8.35317 -13.7336 3.08379
8.40717 -14.7683 9.33879
8.68317 -14.2172 8.83479
8.12617 -14.2055 8.85679
8.52717 -15.3351 9.81479
8.01917 -15.3351 9.82979
8.48517 -16.3523 10.6628
8.62717 -15.3351 9.76779
8.68017 -14.7683 9.28179
8.65417 -14.7683 9.31979
4.96617 -14.2034 3.56579
4.93217 -14.1942 3.64279
4.92817 -14.7683 3.91779
4.87817 -14.7683 3.96179
4.88117 -14.7683 4.35279
4.89617 -15.3351 4.29279
4.83017 -16.3651 5.00379
4.84517 -15.3351 4.33679
4.83817 -15.3351 4.45179
4.85517 -15.3351 5.25579
4.81917 -15.8145 5.05979
4.96917 -14.2055 4.49879
8.43817 -14.2215 3.43979
8.37617 -14.1983 3.37779
8.47217 -14.7683 3.82479
8.44317 -14.7683 3.78379
8.19617 -14.7683 3.78279
8.49117 -15.3351 4.24679
8.46217 -15.3351 4.20479
8.38917 -15.3351 4.19879
7.88017 -15.3351 4.20879
7.88517 -16.1149 4.79179
7.84517 -14.2055 3.40579
8.49417 -14.7683 4.21579
8.48517 -14.2055 4.31779
8.49917 -15.3351 4.36179
8.52117 -15.3351 5.16579
8.51517 -16.1149 5.77079
8.50517 -16.3498 6.75879
8.39117 -16.2732 4.91179
4.80017 -16.3106 5.04579
4.85517 -16.3817 5.04779
4.79917 -16.2791 5.37779
4.80617 -16.3498 6.62979
4.82317 -16.3698 5.43979
4.80817 -16.1149 5.79479
7.42217 -15.8145 10.2348
8.35417 -16.2825 10.6118
7.59617 -11.0214 1.57579
7.46717 -10.1758 0.612789
7.55717 -10.1758 1.18479
7.75817 -11.8655 2.70979
7.69117 -11.8655 2.11179
7.66317 -11.8646 1.99679
7.55417 -11.0214 1.29079
7.53517 -11.0214 1.26179
7.39217 -11.0214 1.27279
7.61517 -11.8655 1.99579
7.31417 -11.8655 2.02679
5.52117 -11.0214 1.52979
5.49617 -11.0214 1.56479
5.52717 -11.0214 1.85179
5.54317 -11.8676 2.23279
5.53017 -11.8655 2.34879
5.59417 -11.8655 2.94679
5.65917 -11.0214 2.84179
5.53717 -10.1758 1.50179
7.44717 -11.0214 5.40779
7.98517 -11.0214 5.33479
8.01617 -10.1758 4.49779
8.07617 -11.8655 6.17279
7.77617 -11.8655 6.20779
8.12417 -11.8672 6.16379
8.08717 -11.0214 5.28779
8.07517 -11.0214 5.31679
8.06717 -10.1758 4.45779
5.13817 -14.7683 9.45379
5.42117 -14.7683 9.45179
5.38117 -14.2068 8.99779
5.24617 -14.2055 8.99279
5.36417 -13.7324 8.58079
5.00117 -15.3351 9.88079
4.86617 -16.3545 10.6678
5.12517 -15.3351 9.89879
5.66717 -15.3351 9.88779
5.39317 -15.9647 10.3778
5.87017 -14.2055 8.97279
5.07417 -16.238 10.5858
4.81417 -16.3397 10.6208
4.85717 -16.3816 10.6518
4.94717 -16.3877 5.45279
5.14617 -16.3877 5.16779
5.14617 -16.3897 5.45379
6.06217 -15.8145 4.59079
4.97717 -16.3351 4.96679
5.06317 -15.9647 4.70779
4.98717 -15.3351 4.28279
5.22617 -13.7399 3.28179
5.58917 -14.2055 3.52179
5.10017 -14.2036 3.54679
5.21017 -14.7683 3.89579
5.52917 -15.3351 4.26679
5.65817 -12.566 2.75679
5.58817 -12.9855 3.02779
5.81317 -10.1758 0.749789
6.18417 -11.0214 1.43379
5.62717 -11.0214 1.50879
5.51517 -10.1758 0.798789
5.56417 -9.46835 0.169789
5.60617 -11.8655 2.21579
5.92617 -11.8655 2.17879
5.46517 -10.1758 0.811789
6.04817 -9.46835 0.0837893
6.44017 -10.1758 4.74679
6.74617 -9.46835 4.03679
6.11417 -8.72333 3.46079
6.09017 -10.1758 4.79479
6.14117 -10.1758 4.79279
6.16917 -11.0214 5.57679
6.72617 -11.0214 5.50279
6.05717 -10.1758 4.77279
6.06217 -11.0214 5.58479
5.90817 -12.5671 7.10079
6.05417 -12.5733 7.10779
6.06817 -11.8655 6.39379
6.00317 -11.865 6.39279
6.68317 -12.5681 7.04479
6.38817 -11.8655 6.35979
5.78717 -12.9978 7.62179
5.64617 -13.2441 7.94479
5.69817 -13.4559 8.25179
5.49717 -13.4604 8.24979
6.47817 -13.7381 8.51779
6.29817 -14.7683 9.41879
7.00417 -14.2055 8.91479
7.64617 -13.7381 8.44479
6.13817 -15.8145 10.2518
6.84917 -15.3351 9.85879
7.55517 -14.7683 9.37079
6.72617 -16.197 10.5488
8.22417 -16.3698 10.6648
8.22117 -16.3897 5.45479
6.69817 -16.2791 4.92079
6.70217 -16.1149 4.79879
7.34617 -15.8145 4.57379
7.31317 -13.7381 3.14979
7.34317 -14.7683 3.81479
6.08617 -14.7683 3.86279
6.72317 -14.2055 3.46379
6.14517 -13.7381 3.22279
6.71017 -15.3351 4.23679
7.09017 -12.5682 2.62779
6.73717 -13.4577 3.08379
6.28317 -12.5681 2.70079
6.46417 -10.1758 0.647789
6.90417 -11.0214 1.33779
6.62317 -11.8655 2.10179
7.09117 -10.1758 4.64479
7.08617 -11.8655 6.28379
7.49017 -12.5681 6.97079
7.09617 -12.9897 7.50579
7.09217 -13.4577 8.15779
8.70817 -14.2055 8.72779
8.67217 -14.7683 8.89779
8.68017 -13.7381 8.09979
8.53217 -16.197 10.2418
8.62917 -15.3351 9.65679
8.61217 -15.3351 8.85979
8.57417 -15.8145 9.78079
8.66917 -14.2055 7.89979
8.59217 -13.7381 6.68579
8.53817 -16.1149 9.50679
8.50917 -16.3498 10.6368
8.47617 -16.3817 10.6488
8.40117 -16.3877 10.2628
8.22117 -16.3877 10.5438
8.22117 -16.3897 10.2648
8.49517 -16.3698 10.2468
5.14617 -16.3877 10.5438
5.14617 -16.3897 10.2648
4.94717 -16.3877 10.2628
4.83217 -16.1149 9.52979
4.80817 -16.2791 8.79879
4.81417 -16.279 10.3198
4.86117 -15.9647 10.0828
4.82517 -16.3698 10.2488
4.81017 -16.3498 10.2338
5.05917 -14.7683 9.03479
5.19917 -14.2158 8.92779
5.15317 -14.2055 8.08079
5.31617 -13.7381 8.17879
4.96917 -15.3351 9.74679
4.94617 -15.3351 8.94979
5.08617 -14.7683 9.41779
5.72017 -12.9897 6.83579
5.86717 -12.5681 6.78079
5.43417 -13.4577 7.40679
6.01617 -9.46835 3.85079
5.84717 -9.46835 2.89179
5.94817 -10.1758 4.12779
5.98417 -11.0214 5.28179
6.03917 -10.1758 4.69479
5.96517 -11.8655 6.28779
5.89817 -11.8655 5.69479
5.98017 -11.8655 6.36979
6.02917 -11.0214 5.56079
5.83917 -8.81829 2.30779
5.95317 -9.03872 3.09379
6.06017 -9.03872 3.65079
8.02017 -8.77835 2.92779
7.81717 -8.81829 1.92179
8.05717 -10.1758 4.37879
8.01517 -9.46835 3.49779
7.84517 -9.46835 2.53979
7.93817 -9.03872 2.71979
7.96917 -10.1758 3.81179
8.05417 -11.0214 5.00579
7.92217 -11.0214 4.01979
8.12617 -11.8655 6.05079
8.18817 -12.5681 6.56879
8.06117 -11.8655 5.45779
8.27917 -12.9897 6.62879
8.46317 -13.2473 7.50279
8.36717 -13.2473 6.21579
8.55117 -13.4577 7.18979
8.62117 -14.7683 7.55179
8.54517 -14.7683 5.56679
8.57717 -14.2055 6.11079
8.47317 -13.7381 4.79479
8.55617 -15.8145 8.40879
8.56617 -15.3351 7.01379
8.52917 -15.8145 6.38779
8.52717 -16.1149 7.63979
8.51917 -16.2791 8.78879
8.51317 -16.2791 6.75379
4.83817 -15.8145 6.43679
4.82017 -16.1149 7.66379
4.80317 -16.2791 6.76379
4.86517 -15.8145 8.45779
5.11717 -13.7381 5.00479
4.93217 -14.7683 5.70379
5.00817 -14.7683 7.68879
5.06117 -14.2055 6.29079
5.23617 -13.7381 6.89579
4.90017 -15.3351 7.10379
5.59817 -12.9897 5.33579
5.40017 -13.2473 4.70579
5.52917 -13.2473 6.42779
5.31717 -13.4577 5.74079
5.77017 -12.5681 5.72779
5.59817 -9.46835 1.48079
5.74317 -10.1758 2.81579
5.85317 -11.0214 4.29479
5.74617 -11.8655 4.32179
5.71017 -9.03872 1.80479
7.59617 -9.46835 1.12779
7.69517 -9.03872 1.42979
7.76317 -10.1758 2.49879
7.72817 -11.0214 2.56579
8.09117 -12.5681 5.51579
7.91017 -11.8655 4.08479
8.15717 -12.9897 5.12879
8.23717 -13.2473 4.49379
8.43417 -13.4577 5.52379
3 0 1 2
3 1 3 2
3 3 1 4
3 1 5 4
3 6 7 8
3 9 10 11
3 12 13 14
3 12 15 16
3 8 17 18
3 19 20 9
3 9 14 19
3 10 9 21
3 9 20 21
3 22 11 10
3 23 24 12
3 13 12 25
3 12 24 25
3 16 15 26
3 27 28 29
3 30 31 32
3 31 27 32
3 27 29 32
3 32 33 30
3 34 28 27
3 27 31 34
3 35 36 37
3 38 39 40
3 41 40 42
3 40 39 42
3 43 44 36
3 36 35 43
3 35 41 43
3 45 46 47
3 48 49 50
3 46 45 51
3 45 50 51
3 50 49 51
3 52 53 54
3 50 45 54
3 45 52 54
3 55 56 48
3 50 55 48
3 48 56 57
3 47 52 45
3 58 59 60
3 59 33 60
3 61 58 62
3 63 64 61
3 64 65 66
3 64 66 61
3 66 58 61
3 30 33 59
3 59 58 66
3 66 65 59
3 38 67 68
3 67 69 70
3 67 70 68
3 70 71 68
3 68 39 38
3 72 73 74
3 75 71 70
3 75 70 74
3 70 69 72
3 70 72 74
3 71 75 76
3 75 77 76
3 39 68 78
3 68 71 78
3 57 79 80
3 79 81 82
3 79 82 80
3 82 83 80
3 84 5 85
3 86 83 82
3 86 82 85
3 82 81 84
3 82 84 85
3 83 86 87
3 86 88 87
3 57 80 89
3 80 83 89
3 90 79 91
3 79 56 91
3 92 90 93
3 81 90 92
3 81 92 84
3 57 56 79
3 79 90 81
3 5 92 93
3 5 93 94
3 4 5 95
3 84 92 5
3 5 1 85
3 1 96 85
3 96 86 85
3 96 1 0
3 88 86 96
3 74 73 97
3 97 75 74
3 73 98 97
3 99 97 100
3 97 98 101
3 97 101 100
3 77 75 97
3 97 99 77
3 99 102 77
3 103 104 62
3 104 61 62
3 63 61 104
3 105 106 107
3 106 16 107
3 108 53 52
3 52 109 108
3 109 105 108
3 47 110 109
3 110 111 109
3 111 105 109
3 109 52 47
3 23 12 106
3 12 16 106
3 106 105 111
3 111 23 106
3 23 111 112
3 112 113 24
3 112 24 23
3 47 46 114
3 47 114 110
3 114 113 112
3 114 112 110
3 112 111 110
3 113 114 115
3 114 46 115
3 24 113 25
3 19 116 117
3 117 118 20
3 117 20 19
3 119 37 120
3 37 36 120
3 120 118 117
3 117 116 119
3 117 119 120
3 36 44 121
3 121 122 118
3 118 120 121
3 120 36 121
3 21 20 123
3 20 118 123
3 118 122 123
3 18 124 125
3 125 126 18
3 126 8 18
3 28 127 128
3 127 125 128
3 125 124 128
3 129 130 131
3 131 125 127
3 131 127 129
3 127 28 129
3 132 6 126
3 6 8 126
3 126 125 131
3 131 130 132
3 131 132 126
3 133 134 135
3 133 135 136
3 135 137 136
3 138 139 140
3 140 134 133
3 133 138 140
3 134 140 141
3 140 142 141
3 143 137 135
3 134 143 135
3 142 140 144
3 138 145 139
3 144 140 139
3 139 145 146
3 147 98 148
3 147 148 149
3 150 151 152
3 0 98 151
3 151 98 73
3 72 153 152
3 152 151 73
3 152 73 72
3 154 155 156
3 155 157 156
3 152 153 158
3 153 157 158
3 69 157 153
3 69 153 72
3 38 154 156
3 38 156 67
3 156 157 69
3 156 69 67
3 40 154 38
3 37 159 160
3 37 160 35
3 160 41 35
3 161 162 163
3 163 164 161
3 164 165 161
3 159 166 167
3 166 163 167
3 163 162 167
3 116 163 166
3 116 166 119
3 166 159 37
3 166 37 119
3 19 14 168
3 164 163 116
3 164 116 168
3 116 19 168
3 165 164 14
3 14 169 165
3 14 164 168
3 170 171 172
3 173 174 172
3 172 174 170
3 174 175 170
3 175 176 170
3 173 172 177
3 177 178 173
3 178 175 174
3 178 174 173
3 179 180 181
3 179 181 182
3 181 175 178
3 181 178 182
3 180 183 184
3 184 176 175
3 175 181 184
3 181 180 184
3 185 183 180
3 186 187 185
3 185 180 179
3 137 187 188
3 187 186 188
3 189 137 143
3 143 134 190
3 190 191 143
3 191 192 189
3 191 189 143
3 141 142 193
3 141 193 194
3 190 134 141
3 190 141 194
3 62 58 195
3 195 190 194
3 195 194 62
3 194 193 103
3 194 103 62
3 60 33 192
3 192 191 60
3 191 190 195
3 191 195 60
3 195 58 60
3 103 193 196
3 196 104 103
3 142 144 196
3 196 193 142
3 139 197 63
3 196 144 139
3 196 139 63
3 63 104 196
3 149 148 198
3 148 3 198
3 2 3 148
3 148 98 2
3 98 0 2
3 88 96 199
3 199 200 88
3 200 150 201
3 200 201 88
3 199 96 0
3 199 0 151
3 200 199 150
3 199 151 150
3 202 57 89
3 89 83 203
3 203 204 205
3 203 205 89
3 205 206 202
3 205 202 89
3 87 88 201
3 87 201 207
3 201 150 207
3 207 204 203
3 203 83 87
3 203 87 207
3 150 152 158
3 158 157 204
3 204 207 158
3 207 150 158
3 155 154 206
3 155 206 205
3 204 157 155
3 204 155 205
3 208 46 51
3 48 57 202
3 48 202 209
3 202 206 209
3 49 48 209
3 206 154 40
3 206 40 209
3 40 41 49
3 40 49 209
3 160 159 210
3 210 208 51
3 210 51 160
3 51 49 160
3 49 41 160
3 13 25 211
3 25 113 212
3 25 212 211
3 212 162 211
3 211 169 13
3 115 46 208
3 115 208 213
3 213 162 212
3 212 113 115
3 212 115 213
3 210 159 167
3 210 167 213
3 167 162 213
3 213 208 210
3 161 165 169
3 161 169 211
3 162 161 211
3 14 13 169
3 172 171 7
3 172 7 6
3 171 17 7
3 17 8 7
3 18 17 214
3 124 18 214
3 171 170 214
3 170 176 214
3 176 124 214
3 214 17 171
3 183 215 184
3 215 124 176
3 215 176 184
3 216 28 128
3 124 215 128
3 215 183 216
3 215 216 128
3 29 28 216
3 216 183 217
3 216 217 29
3 183 185 217
3 185 187 217
3 187 137 189
3 189 192 218
3 189 218 187
3 218 29 217
3 218 217 187
3 192 33 32
3 29 218 32
3 218 192 32
3 30 59 219
3 59 65 219
3 65 220 219
3 219 221 30
3 64 222 223
3 223 220 65
3 223 65 64
3 220 223 224
3 223 222 225
3 223 225 224
3 226 227 221
3 221 219 226
3 219 220 226
3 222 228 225
3 63 229 64
3 229 222 64
3 230 63 197
3 231 230 232
3 231 232 233
3 234 229 230
3 229 63 230
3 230 197 146
3 232 230 146
3 235 232 146
3 233 232 235
3 235 236 233
3 235 146 237
3 235 237 236
3 146 197 139
3 238 239 240
3 238 240 241
3 242 146 145
3 242 145 243
3 145 240 243
3 240 239 243
3 241 240 145
3 244 245 246
3 245 247 246
3 241 248 249
3 248 244 249
3 145 138 250
3 138 133 250
3 250 244 248
3 248 241 145
3 248 145 250
3 136 137 245
3 137 247 245
3 245 244 250
3 250 133 136
3 250 136 245
3 186 185 251
3 185 252 251
3 247 188 253
3 188 186 253
3 188 247 137
3 179 252 185
3 254 255 256
3 257 258 256
3 258 254 256
3 252 259 260
3 259 257 260
3 179 182 261
3 182 178 262
3 182 262 261
3 262 257 259
3 262 259 261
3 259 252 179
3 259 179 261
3 177 172 11
3 11 258 177
3 258 257 262
3 258 262 177
3 262 178 177
3 11 263 264
3 264 255 254
3 254 258 265
3 265 264 254
3 265 258 11
3 264 265 11
3 6 266 267
3 6 267 12
3 132 268 266
3 266 6 132
3 269 270 271
3 271 266 269
3 266 268 269
3 272 270 269
3 269 268 272
3 268 273 272
3 273 274 272
3 130 273 268
3 130 268 132
3 129 28 275
3 28 276 275
3 275 273 130
3 130 129 275
3 277 274 273
3 273 275 277
3 275 276 277
3 276 34 278
3 34 279 278
3 279 280 278
3 31 279 34
3 34 276 28
3 30 221 31
3 221 227 281
3 281 280 279
3 279 31 281
3 31 221 281
3 226 220 282
3 282 283 284
3 282 284 226
3 284 285 227
3 284 227 226
3 224 225 286
3 224 286 287
3 286 288 287
3 287 283 282
3 282 220 224
3 282 224 287
3 93 90 283
3 283 287 93
3 287 288 93
3 91 56 285
3 285 284 91
3 284 283 91
3 283 90 91
3 94 93 288
3 94 288 289
3 289 290 291
3 291 5 94
3 291 94 289
3 286 225 228
3 228 222 290
3 290 289 228
3 289 288 286
3 289 286 228
3 234 95 229
3 95 290 229
3 290 222 229
3 234 4 95
3 95 5 291
3 291 290 95
3 198 3 231
3 231 233 198
3 233 149 198
3 234 230 4
3 230 231 4
3 231 3 4
3 236 237 147
3 236 147 149
3 236 149 233
3 146 242 101
3 146 101 98
3 237 146 98
3 147 237 98
3 292 77 102
3 292 102 293
3 102 99 294
3 102 294 293
3 293 295 292
3 294 99 100
3 101 242 243
3 239 294 100
3 239 100 243
3 100 101 243
3 238 241 295
3 295 293 238
3 293 294 239
3 293 239 238
3 296 39 78
3 78 71 297
3 297 298 299
3 297 299 78
3 299 300 296
3 299 296 78
3 76 77 292
3 292 295 301
3 292 301 76
3 301 298 297
3 301 297 76
3 297 71 76
3 295 241 249
3 249 244 298
3 298 301 249
3 301 295 249
3 246 247 300
3 300 299 246
3 299 298 246
3 298 244 246
3 44 43 302
3 43 41 303
3 43 303 302
3 303 304 302
3 42 39 296
3 296 300 305
3 296 305 42
3 305 304 303
3 305 303 42
3 303 41 42
3 300 247 253
3 253 186 304
3 304 305 253
3 305 300 253
3 251 252 306
3 306 44 302
3 306 302 251
3 302 304 251
3 304 186 251
3 307 21 123
3 307 123 308
3 123 122 308
3 122 309 308
3 44 310 121
3 310 309 122
3 310 122 121
3 306 252 260
3 306 260 310
3 260 257 309
3 260 309 310
3 310 44 306
3 255 307 308
3 255 308 256
3 308 309 256
3 309 257 256
3 10 21 307
3 307 311 10
3 311 22 10
3 263 22 311
3 263 311 264
3 311 307 255
3 311 255 264
3 22 263 11
3 15 12 267
3 270 312 313
3 270 313 271
3 313 267 271
3 267 266 271
3 312 16 26
3 15 267 313
3 15 313 26
3 313 312 26
3 107 16 312
3 312 314 107
3 314 274 315
3 314 315 107
3 315 105 107
3 274 314 272
3 314 312 270
3 314 270 272
3 277 276 316
3 316 317 277
3 317 274 277
3 108 105 315
3 315 274 317
3 315 317 108
3 317 316 53
3 317 53 108
3 53 316 318
3 53 318 54
3 318 319 54
3 319 50 54
3 316 276 278
3 316 278 318
3 278 280 318
3 280 319 318
3 227 285 320
3 227 320 281
3 320 319 280
3 320 280 281
3 285 56 55
3 55 50 319
3 319 320 55
3 320 285 55
