0.0788748
0.0492431
1.67017
0.733477
8.09814
0.902147
0.67118
0.455399
8.14689
0.864837
1.77543
0.980736
0.419687
1.18449
0.447873
0.241249
4.01492
3.85706
7.60619
0.215585
3.59662
0.2641
3.56208
4.51029
7.23262
4.17206
6.86819
6.62239
0.831388
0.334578
0.761095
0.82686
0.222757
0.162689
0.306061
0.152609
0.324475
0.226354
2.29946
1.40336
1.36152
1.18596
0.121122
0.0660613
0.105977
0.134408
0.25846
0.198195
0.418932
0.631466
1.15914
0.361015
0.341353
0.132238
1.23399
0.908316
2.29946
1.4026
0.234444
0.19974
0.340022
2.53851
0.759078
2.60827
0.831851
0.35436
0.147507
0.230396
0.67005
2.37142
0.947577
1.08113
1.60449
1.10836
1.18517
0.454597
0.678734
0.287276
1.51918
1.62382
1.85612
1.9216
2.23936
2.20283
1.23787
0.237048
1.02566
1.30985
1.10093
1.07363
0.537427
0.804736
2.01322
1.316
11.2993
2.27636
0.194936
9.59601
6.22296
6.25438
0.0514969
0.0485061
4.56589
1.01496
1.09623
1.25714
1.91178
1.93159
4.24288
4.04261
0.0962239
0.124439
0.895679
0.997191
2.33449
2.49352
6.03073
6.05396
1.63485
1.33978
7.08256
1.02743
0.107151
0.132193
5.37231
7.84516
1.28199
8.92243
3.64509
7.02951
0.918965
3.32096
2.06707
2.04942
4.22126
3.08882
3.22357
3.79557
5.40001
1.95352
0.204841
0.0688951
0.158186
0.193078
0.770289
0.399341
1.31846
0.638133
6.26838
2.18513
4.95358
4.48099
0.98814
2.61916
0.69562
8.79321
4.13217
3.8122
3.46861
3.40228
0.428157
0.214076
3.91482
3.86384
1.89501
8.40654
1.50065
3.29038
4.19827
7.62397
2.93216
7.02951
1.03649
0.731593
1.29747
0.365813
0.689153
0.18901
0.177618
0.541207
3.60585
7.02951
1.28132
3.17847
3.57959
3.74242
3.87248
2.17083
0.552469
3.27476
3.53779
4.30302
0.647888
16.6591
0.843292
3.49567
5.03198
3.90793
6.34328
1.87891
0.244
0.170058
0.213863
0.143761
0.740696
0.420011
2.55234
0.374965
5.16231
4.48463
5.49457
5.81428
1.09303
2.60195
1.90041
2.58862
3.46216
3.38754
3.47844
3.37765
3.28717
0.214001
0.427931
0.214012
1.49857
3.5688
3.55233
6.79992
7.6216
4.17592
7.62261
0.739931
0.358624
0.500079
0.433051
0.166112
0.315118
0.192176
0.437973
0.21639
0.439019
0.216481
3.23438
0.553003
3.25542
3.6344
4.98578
3.42089
3.65803
10.8192
11.1746
5.00635
11.1392
0.85612
0.72397
1.17859
1.48695
5.15275
1.38142
1.16273
1.57967
0.447447
2.42102
0.600947
11.5993
11.3432
1.70072
1.36009
2.27901
1.15014
1.41636
1.13222
1.28606
1.25552
1.30944
1.66127
1.36334
1.24939
1.96016
0.759376
1.29247
0.926365
1.61613
1.22163
1.06049
6.40725
6.63169
11.5799
10.0765
10.1233
4.02666
8.08347
9.85918
3.48926
7.42824
3.32683
4.28508
6.66872
9.99537
6.63227
12.7798
9.9456
8.67081
8.59495
7.62238
7.65418
7.58192
0.115633
8.99292
9.22948
9.94383
8.40233
9.59568
7.49937
7.49601
8.8699
8.68286
4.7698
9.56894
8.41577
9.5717
6.9635
6.96633
8.11614
14.4221
8.40388
9.59568
8.55032
9.96176
10.2169
10.2207
9.74222
9.85314
9.96176
9.96176
7.73541
14.4221
9.85611
9.85543
2.02806
2.09267
7.09724
3.25207
17.6044
8.50751
2.42025
1.84165
2.30047
1.96395
11.7475
9.00639
17.6044
8.28292
2.56613
1.6199
17.5627
9.00051
7.14068
8.56915
8.01248
8.61833
7.27295
6.88107
2.44094
1.85558
17.6044
8.53177
5.34638
9.00639
2.30047
2.07728
0.23101
0.124418
0.0243907
0.033645
7.20594
0.0867641
0.00677727
0.00457168
0.0229424
0.0216884
7.16464
0.142093
0.00596589
0.00609984
0.128759
0.0843424
5.73315
4.13079
6.44764
6.34218
6.00868
5.98178
14.2885
5.13505
14.2893
5.14022
7.91017
7.94973
4.94287
4.85512
10.7957
5.23869
7.45243
7.16377
13.5388
12.9328
6.57766
6.43656
7.23397
7.0651
10.4637
10.6796
4.94287
4.85512
6.61893
6.57552
14.2893
10.6845
0.53589
0.165112
3.86569
1.00957
7.23701
1.02814
0.0654845
0.213672
0.815836
1.76492
0.908323
0.890527
0.2966
0.45933
0.143688
1.47589
0.0963578
0.151801
7.23701
1.02814
3.86712
1.00084
0.497162
0.167142
0.190666
0.500339
0.671575
0.714414
0.979122
0.945586
0.697412
0.827963
0.12945
0.0534683
6.56951
0.569613
3.7722
0.474289
0.29773
0.255605
1.16687
0.706434
6.37652
0.907667
0.203269
0.146489
0.197333
0.25113
0.392282
0.245168
3.76941
0.474028
0.884219
0.792881
0.0780163
0.100098
0.228884
0.234973
0.119774
0.0846207
6.37652
0.499566
0.613551
0.460458
1.65678
0.641914
1.81533
1.51494
1.83244
0.0887355
0.540501
2.02839
0.456233
5.06526
2.75006
8.54924
0.0813576
0.075069
0.852718
1.03546
1.25088
0.932772
4.96059
0.112265
2.22273
1.46836
0.0897381
0.235939
1.28737
1.61953
0.0843263
0.0837554
2.27865
2.39914
0.502377
1.93151
1.28037
1.55308
1.43418
1.28904
1.01901
1.09159
1.15474
1.30108
1.17687
1.00476
1.58978
4.75443
1.62153
1.55305
0.804628
1.44007
0.824939
1.26943
0.754453
1.21399
2.22344
1.19875
1.41633
1.36301
0.973872
1.40633
2.38229
1.89351
2.41976
1.80934
1.92809
1.44054
0.936764
1.20654
0.773904
0.964045
1.24884
0.936865
1.95987
1.95259
2.80149
1.26824
1.13121
0.924997
0.820186
1.3371
0.773254
0.881005
1.1688
1.27258
1.826
1.71893
1.06579
4.22449
0.489951
1.25938
0.588065
0.680823
0.373752
1.42579
0.920704
1.00358
1.57633
0.999289
10.7537
12.7817
7.30657
9.23168
7.30673
8.88046
10.6708
5.57601
7.32379
5.43707
4.74391
5.21861
13.0417
5.47485
14.1008
5.83834
14.2882
6.80016
14.2882
10.5889
5.58624
5.67778
9.96616
9.90841
6.20915
10.6831
6.89579
7.36614
4.35013
6.9538
5.07654
7.17001
11.623
9.12799
13.3471
5.45903
14.2249
9.71484
11.1515
10.6527
7.32379
4.62345
3.9938
6.23731
10.7962
5.67785
4.74391
5.01507
3.99946
4.12577
11.2955
8.97332
11.3597
5.61532
8.0371
1.31398
6.36244
5.64989
8.09748
16.1061
7.77243
11.9324
7.26684
12.1142
8.0302
9.67461
7.88497
7.43953
7.51846
8.99249
7.376
8.68103
6.32489
12.2414
9.69153
6.33918
5.15539
7.63204
5.89391
8.39651
2.56338
2.46155
6.94382
3.16926
7.30921
6.10824
7.46301
9.27519
7.34042
1.42964
2.21729
1.51241
2.22995
8.1277
2.112
5.97446
2.98951
5.67866
3.29862
5.44341
3.79858
7.35294
4.2516
7.35294
4.57256
4.2595
3.97779
4.2595
3.6163
2.06984
5.09789
2.33345
5.20183
5.16269
5.20183
5.16269
3.54977
8.29294
3.87372
3.48544
4.06311
7.9295
4.08026
8.36541
6.99065
6.34134
4.70544
8.59028
3.26212
7.80502
3.03902
7.80503
9.21114
5.61242
8.95713
11.344
13.0562
8.88118
13.1861
13.9453
7.05726
2.90992
6.18928
2.87637
7.00937
6.12194
2.19913
1.1778
2.21733
1.1778
7.08338
6.23217
1.70471
6.40525
1.68756
8.66362
1.67754
2.92093
13.1998
7.50865
2.97646
8.15898
12.8688
2.95975
13.0269
5.61242
3.01857
3.96895
2.34263
8.10877
2.08026
8.59028
6.71726
6.34134
4.26109
6.23707
9.20726
2.62669
2.58654
2.62011
2.70913
3.07558
4.8656
2.14705
3.29598
4.83068
4.09101
4.06448
4.81704
3.99894
3.36169
4.83068
10.6438
4.63978
7.80588
3.65029
4.81773
3.76661
0.594737
8.36435
1.85822
2.04112
1.86692
5.97283
1.34545
3.25797
2.36574
2.35317
1.27393
0.271154
1.29525
0.634374
0.301546
0.228013
0.121326
0.111924
2.02334
2.08517
2.54612
1.6335
17.6044
8.25169
7.98369
8.50352
5.29323
10.9638
14.2885
10.7365
5.09069
5.04739
6.46564
6.4551
0.247933
0.135424
0.179658
0.21584
5.86602
6.09073
0.0245904
0.025492
7.2786
7.0577
12.1514
16.3632
6.57335
6.53289
7.44855
7.15893
7.16936
9.18707
7.12612
8.55986
8.20307
10.599
10.4077
6.40258
8.33629
0.653806
0.232916
0.134373
6.39276
1.82967
8.05809
1.17276
8.22719
1.70865
6.96537
1.73617
2.97158
7.02951
2.86725
7.2754
3.88313
3.93993
4.16195
3.83784
3.89275
3.87385
4.09525
0.215585
2.20616
2.02897
3.3429
3.83837
5.846
2.21918
1.72447
1.92358
4.48717
0.721121
0.47468
0.30396
0.439548
0.320263
1.52182
1.729
1.51204
1.79233
0.781658
1.4318
1.10115
1.27195
1.42285
1.77683
1.86926
0.381535
1.44075
1.84943
0.0800232
0.0720399
0.0837735
8.52198
2.33886
2.40268
0.143295
0.223822
0.822786
0.35401
0.76396
2.60827
1.17687
4.6625
1.62978
4.11228
5.22091
4.73089
2.31525
4.94677
1.97448
1.6441
4.22707
6.36962
0.189037
0.339302
15.5182
2.28377
1.46312
0.864801
0.241319
0.0921816
0.380567
0.339376
0.9107
0.917585
1.20755
0.669047
0.216102
0.258165
0.098264
0.137966
10.2804
1.00526
0.707513
0.455838
4.85911
0.929306
1.64816
0.481126
0.0925535
0.132313
0.76649
0.690612
6.4385
0.771846
0.18301
0.106054
0.236523
0.226017
1.49788
0.907839
1.02104
0.91259
0.44668
0.684811
0.0814326
0.479848
2.22929
1.6441
0.924775
1.19266
0.106881
0.167562
4.06017
4.07962
1.92809
1.22699
2.41976
2.17238
2.3439
1.7191
0.973834
1.43645
1.89164
2.23471
1.85612
1.79334
0.678131
1.97744
0.174305
0.283231
0.502377
0.488161
1.83887
2.3721
0.0821603
0.0757521
0.576889
0.270852
1.10968
1.06939
2.30789
1.72598
2.77457
1.48927
0.800113
1.0755
0.866606
1.62432
1.2099
0.967816
1.05696
1.30645
0.701767
1.10272
1.43142
0.990441
2.82813
0.328488
0.357531
0.221336
0.160378
0.10814
0.43616
1.16465
1.15478
1.83527
1.12533
1.35934
1.16563
1.64722
2.07689
2.39156
8.58907
10.5207
10.3635
13.228
7.23863
8.88057
11.1986
11.197
11.7167
11.9614
4.96908
3.86363
8.93622
7.52423
10.3359
10.2775
11.0008
9.96176
7.41811
8.22414
9.71604
7.29254
0.26981
0.412152
1.45462
9.92755
10.6085
5.51276
1.68704
17.1183
8.05809
0.995997
1.63077
1.24923
0.325676
0.302223
8.49931
1.16956
8.40463
8.48495
11.2955
8.75077
10.6605
13.7327
10.7192
13.6961
8.05809
0.866097
0.816583
0.850831
0.267997
4.35607
1.9267
1.93379
11.2385
11.3581
11.8441
11.6347
8.56191
8.56742
7.69996
7.61409
8.41098
9.5717
5.51374
9.56894
8.13344
10.7932
4.62177
8.32889
1.16277
1.57906
0.381059
0.263242
0.2034
0.160426
9.3629
0.273422
0.87163
1.31704
0.460216
1.03319
1.02931
1.32486
1.4691
1.03504
0.906224
0.908559
1.02674
1.53019
0.0923234
0.0603466
1.48504
1.56259
0.442546
1.0156
1.88455
1.89994
1.69147
2.10227
0.54247
0.93928
0.805863
1.03708
2.07713
3.6868
1.29226
1.59583
1.40948
1.00745
1.83209
1.15174
1.79037
1.8024
0.0503653
0.0649888
8.09893
1.30952
1.23121
0.871074
0.224077
0.319078
0.0684098
0.0314901
1.25529
0.967283
0.8147
1.18403
0.173327
0.142926
0.135411
0.0982417
0.461245
0.814009
0.630555
0.481655
8.06512
0.925941
0.309713
1.10856
0.0478837
0.0483655
1.45086
1.15377
9.31495
6.35032
13.4025
6.30421
2.25351
1.15377
4.85911
0.837938
0.784706
0.502472
0.0799979
0.0466785
0.374958
0.697728
0.730521
1.18403
0.312926
0.694292
0.117203
0.0467817
0.169659
0.216564
1.22723
0.738647
1.69727
0.967108
0.485659
0.12408
0.229186
0.298284
1.33063
1.25714
7.34508
1.30999
0.511919
0.0511096
7.34659
7.33169
1.19771
1.22212
1.25483
1.25433
1.71854
1.40977
1.4515
1.25555
0.467066
1.05618
1.1453
1.04086
1.54359
1.47195
1.66873
1.48775
3.32823
0.926757
1.42674
1.5302
1.76134
1.72127
1.42784
1.4479
12.4211
12.7709
5.65417
3.56707
10.4769
16.6927
9.7417
18.5348
0.417084
0.136639
0.613582
0.604379
0.680483
1.287
0.843396
1.06466
0.295135
0.123365
1.18482
0.763751
1.47918
0.738061
1.19458
0.955136
0.871675
0.928195
1.39738
2.22566
1.17686
0.790041
0.29004
0.130396
5.65417
3.62602
7.03284
5.89475
10.2238
9.4094
10.774
3.66904
1.6431
2.39479
1.23378
1.0238
0.171487
0.132541
1.33851
0.817853
0.898219
1.05182
1.4117
0.641849
1.33111
0.559636
0.170632
0.0425923
2.76815
1.13013
0.796537
7.95958
0.551081
0.504335
0.177115
0.178568
9.94903
9.96176
11.5225
9.41438
9.41096
9.4108
11.8494
11.6445
12.22
8.47791
0.846347
0.213304
3.68769
5.86044
17.9611
4.58762
7.93444
8.35379
0.766478
4.05869
3.69385
6.44183
17.9611
4.66228
7.94389
8.943
7.46803
11.7897
9.24722
11.8797
7.94389
8.20514
5.11344
8.14303
8.74944
3.53832
1.5955
2.1879
3.29322
6.93138
3.27987
8.06062
1.5813
2.99588
2.49681
5.43467
3.37253
2.60289
3.36332
2.40753
4.6501
4.25153
5.64922
4.23006
0.645018
0.332503
1.22858
0.464451
0.480262
0.347671
3.69763
0.714145
1.63568
0.527812
0.709244
0.215472
0.354098
0.0849582
0.260528
17.7148
1.7647
1.28658
4.91307
10.9029
3.16579
1.37303
1.61706
1.6481
10.7768
7.13648
7.53085
5.94019
8.60466
6.33923
11.1986
11.1443
6.695
7.87512
9.96627
11.9324
11.7167
11.5978
9.48338
11.5127
9.40322
9.40289
6.86819
6.62239
9.9219
9.93816
1.08817
1.25837
1.31853
1.24751
5.99426
2.73673
11.2883
1.28658
0.62377
0.941954
0.411692
0.221043
0.52116
0.330678
0.950998
0.522693
1.57205
6.94323
10.7791
8.02078
8.17739
8.28917
11.7475
3.8078
10.154
10.6397
7.4587
7.17528
16.958
9.88615
9.99926
10.2144
6.78861
1.46678
0.0469438
0.0354422
1.47346
1.46678
0.015825
0.0201997
8.72636
7.15472
9.99926
10.2144
9.91867
9.96249
7.45983
7.17571
4.30192
7.73059
11.7475
3.78467
7.12125
8.6955
10.7919
8.77872
0.778418
1.02528
0.620803
10.3515
0.539297
0.51515
0.497824
0.395965
9.7266
9.69367
9.40987
9.41108
9.41609
9.41582
13.3901
9.94331
10.1071
8.29686
10.0783
5.15754
9.58294
8.12215
10.4871
9.62598
2.66679
8.61498
4.21569
12.2199
4.16008
1.77844
3.25913
1.77901
6.72803
4.01729
3.41158
1.22254
5.17205
7.06094
6.37291
3.45599
4.24877
10.0525
4.27532
10.0511
4.27308
3.41158
6.41998
3.40312
16.2472
5.62924
7.16349
16.3467
7.16349
16.3445
16.2561
5.96434
1.74601
3.61301
4.3158
5.38267
4.08545
3.51054
4.4525
3.47402
4.4324
3.45303
4.08544
3.45599
4.57888
5.41212
3.24741
5.12886
3.24024
3.07182
4.56934
3.28352
3.12691
3.15394
3.07487
3.11359
3.55543
3.43598
3.45413
3.15345
2.81629
1.89719
3.52243
2.402
8.61001
3.62679
4.72973
1.91036
2.89677
4.07322
9.24915
4.42672
4.6821
5.64705
6.06985
7.48419
8.7635
2.59902
3.54973
17.0741
7.27642
8.11141
7.17276
7.64209
9.85512
10.7795
9.88675
7.02453
10.1438
9.69225
10.1874
9.96176
7.76168
10.2519
10.2519
8.22887
9.96176
10.1438
9.69225
4.67737
3.47531
2.77794
3.47531
4.95346
3.59552
5.88419
3.63691
2.61601
7.67673
9.23828
9.2973
5.83027
7.93491
10.3202
8.67716
2.62937
5.5298
6.04337
5.81703
8.26535
5.64825
8.30671
3.90143
14.3603
5.96488
14.303
5.98462
14.8767
14.7797
5.99888
14.7967
6.08715
6.23167
7.22177
6.72672
7.20419
6.49149
6.15923
4.22217
14.3456
15.0054
5.50739
14.8432
6.18976
14.8432
7.27688
14.9688
3.71443
5.87913
4.43018
5.25327
7.11258
5.52156
12.9445
5.80984
2.97999
8.6719
2.45315
8.67716
5.83027
9.3078
2.86535
13.416
9.96187
7.19275
10.3073
10.307
10.307
9.71949
6.41412
9.08494
9.37974
10.7935
8.37272
11.1503
6.50766
2.46093
6.11611
9.66281
10.4356
10.0045
10.2014
14.3946
15.123
15.0573
10.0302
14.8027
9.7689
1.15428
10.341
1.60601
10.0906
3.01832
9.76807
13.8488
9.29182
2.5743
4.7584
2.32451
2.40906
7.49707
8.87929
2.17175
9.33299
8.94841
7.30807
1.39509
3.64281
2.0044
3.64281
2.08029
0.693431
0.733652
0.475695
2.08327
0.852988
4.38836
1.97826
1.98691
4.08899
1.98691
2.0253
8.85278
7.05271
8.85278
10.28
8.51817
4.43945
8.26225
4.42301
6.54089
12.4274
6.14588
12.4274
5.55435
6.74777
6.44738
12.2552
10.8085
10.78
9.32937
9.27626
3.43814
7.18991
8.64015
7.20602
10.088
4.24125
13.9426
4.24125
5.20115
8.63916
5.20423
10.8195
2.45368
10.8195
7.53874
6.45629
13.9426
8.09053
6.45741
8.02208
11.4623
9.5183
10.6016
10.329
6.84024
11.8928
9.21635
7.70306
7.75274
7.70306
6.44891
12.2514
8.51817
6.7904
4.85575
10.6234
6.54058
10.6234
2.32239
10.9044
9.72587
10.304
9.72587
7.67385
2.96969
2.99167
3.80371
2.99166
2.08146
3.08951
7.32325
7.18707
4.38905
7.18707
2.08146
4.11934
2.24117
2.20651
2.0024
6.35342
2.03052
6.3633
2.18261
9.33299
13.8458
9.29182
7.49637
8.87228
8.86731
2.40821
3.64062
3.81745
10.0131
9.0173
7.64323
9.76807
1.86475
2.57285
10.2775
10.0364
10.647
9.69486
13.7933
15.1011
8.81575
7.84023
2.28901
6.41853
6.625
6.3995
9.77277
9.4641
9.96186
12.22
9.96186
12.22
12.1196
10.3163
12.2189
9.9614
12.1629
9.43705
12.1629
6.18682
9.78577
9.96176
8.28001
7.70802
9.96176
7.45275
9.96176
9.12542
7.85665
9.96176
8.88374
9.96176
10.8012
10.1387
9.70072
10.1387
7.71597
10.5255
9.96835
10.4707
9.96353
9.55752
9.81046
10.1091
12.1196
9.9614
9.67535
9.71854
9.35596
9.71854
12.2189
9.59453
7.14107
12.8088
9.96186
10.0536
9.96186
12.22
7.76695
12.8088
9.85026
9.42923
9.05855
9.89734
9.0374
9.7136
9.69815
10.206
8.76649
8.62436
8.37681
8.47477
7.08267
8.71146
8.67087
8.62436
6.05166
11.091
8.9446
10.2481
9.71751
10.2261
11.119
11.091
9.46876
7.19217
9.54577
7.19217
11.1491
10.2575
10.7934
10.4744
2.47727
1.54422
1.71616
3.18913
9.8418
9.19099
5.84583
9.26516
7.02059
8.0032
7.78327
13.1725
9.37623
8.38209
10.0974
5.58666
5.58666
6.21813
14.4428
7.72728
2.0137
2.54939
1.47662
1.54834
1.79422
2.07081
7.10006
1.79486
16.0177
6.16074
8.05165
4.21668
4.33374
9.76866
3.22602
2.95092
6.97335
4.22284
5.86793
6.48115
9.08613
6.42432
4.61408
1.37438
16.0869
6.78667
6.98774
4.27315
10.0307
9.78067
9.67691
8.74808
10.4031
9.41274
9.69439
7.52314
8.8957
7.42811
13.6715
9.41321
7.29215
7.3737
4.91849
3.72255
6.56171
4.1012
7.0166
6.60515
7.30955
8.06163
9.76334
0.0150648
9.68593
5.39292
9.8603
6.47775
10.0455
5.1459
7.04247
10.2929
5.47105
10.6207
8.53632
8.31774
1.63442
1.61691
5.93272
2.59089
2.73588
1.68308
2.65631
1.61787
1.51021
1.90866
1.63795
1.40573
1.72001
4.19041
2.6717
13.6711
9.41322
8.89522
7.42856
9.69389
12.22
11.3677
9.41274
1.46218
1.50191
1.23086
1.43111
1.46201
1.48902
1.61809
4.78871
0.993829
1.29256
1.56213
1.46521
8.66703
2.9388
12.7699
3.32709
7.95653
2.95125
1.69806
1.49879
2.83683
2.247
3.87062
6.62126
4.46479
7.82689
9.9618
6.6212
8.42031
6.40043
5.00794
5.45688
1.47194
6.97577
7.95653
14.5564
4.17081
10.2315
2.70212
6.70376
7.97215
7.56874
6.54143
7.01039
5.14653
9.81077
13.2877
7.72368
11.9966
9.83019
9.94898
12.3971
12.2042
9.94794
8.51706
9.84433
9.96177
6.32903
1.07792
1.1862
1.73328
9.35419
5.97388
7.21903
4.94863
6.73523
10.0564
12.2199
5.97255
9.96186
8.96958
4.71284
6.64704
5.04936
5.60931
5.00828
5.00011
5.12148
6.21248
10.2173
9.63308
12.2199
4.57282
2.70114
0.470616
1.47171
2.6151
4.89395
2.6174
3.68238
1.31592
1.6241
1.04389
3.62695
8.17029
5.45112
7.33436
12.2593
9.96176
11.1047
9.96176
9.07518
6.85483
8.64348
11.8567
10.1305
13.5585
13.624
7.99283
13.9333
10.4765
9.88817
11.3939
10.6449
10.2592
9.23408
11.3913
10.3127
11.3913
12.0469
10.8419
12.7024
9.92885
11.2446
0.0150217
10.3551
10.9279
13.9343
10.4544
9.63512
12.4214
6.21069
13.7314
9.97106
9.39828
11.2069
10.4822
10.3685
6.36594
10.1274
11.5321
10.8297
8.97857
10.9443
10.6719
12.91
