3.49445
1.0168
2.72413
4.41158
5.43125
2.71642
6.62088
4.40598
2.67946
5.05048
4.80649
4.30029
6.83274
5.03516
2.62422
3.26224
1.5905
2.0616
2.44249
4.41937
2.80753
7.01039
2.34611
4.5791
0.970316
3.49336
1.58538
3.6626
2.721
5.90906
3.22268
3.33344
3.02074
2.49519
1.31166
1.45376
2.77868
2.96931
2.08323
3.01106
2.90912
2.19058
4.96394
1.8638
2.76497
2.03172
2.54614
2.32826
0.99933
1.49933
2.76679
2.55904
2.84194
3.00336
2.95016
2.98524
1.01808
2.56055
3.03787
2.63436
1.52285
1.85839
1.1378
1.61915
0.690765
2.06854
2.11575
2.11232
1.55885
1.16976
2.69783
1.05505
1.38375
2.05077
1.07948
1.5517
0.445634
0.849356
2.13043
2.9905
1.3905
0.694934
2.55552
1.15437
1.7269
2.97826
2.43514
1.28473
2.22097
1.48422
0.876969
3.37161
1.91134
2.91109
2.3372
2.28286
2.46443
3.08315
1.99706
1.84885
2.93191
1.0601
1.66314
2.60657
2.43127
2.77054
1.84846
2.73881
0.81387
1.02014
1.60203
1.29128
1.96772
2.59218
2.94513
2.18984
0.897477
1.51724
2.81633
1.38028
3.80798
3.17537
0.453191
1.35532
3.35931
3.37897
1.39143
1.25695
0.970053
1.38108
0.535142
1.07136
1.29625
1.2859
1.65495
1.53176
1.58362
1.56507
0.757121
1.23564
2.24452
2.64605
1.49445
2.86251
3.38783
3.37148
1.442
3.35514
3.34124
3.36882
2.71902
4.2092
5.08243
4.4928
4.25087
5.187
2.2315
2.93523
3.76049
1.33585
1.75065
2.68819
2.26171
4.76706
3.55761
3.17017
4.79725
1.37308
1.90487
1.58569
2.1383
2.81279
1.66769
2.67673
4.351
3.57625
3.6903
3.88446
4.51394
2.91488
3.51597
3.30079
4.49333
4.45862
3.05713
4.60433
4.18052
2.85254
3.89296
1.84026
5.46384
2.89503
2.01878
2.69269
2.82929
3.16424
3.21714
4.21614
3.18231
1.50804
1.6262
1.4265
3.57308
4.48583
2.27363
3.25785
3.85797
4.31321
5.19877
2.08774
3.81448
4.50503
2.01526
4.50873
3.68179
2.17963
4.02144
0.972736
4.56389
3.62704
4.14006
3.27507
1.40175
2.64979
0.906696
2.82541
3.84758
4.21612
4.73916
3.85125
1.07657
1.35654
1.15024
3.96961
2.89282
2.7147
5.40326
1.28924
1.52102
5.49218
3.87661
1.52875
2.74511
2.9286
4.88891
4.41741
1.63101
3.60749
4.03678
4.97154
3.32801
4.50701
1.39836
4.2102
1.96427
1.50567
6.05637
5.04213
2.17599
4.02573
4.13466
3.81524
1.90765
1.44521
4.30667
4.97094
2.00239
4.96376
3.40619
4.77585
3.43317
4.08174
3.6898
3.76695
4.0306
4.38501
4.29699
5.35747
0.460735
0.556682
1.65156
2.30477
1.67187
2.75422
2.93844
1.03026
1.33606
1.25132
4.31313
2.68903
2.27496
2.49123
2.05379
2.97648
1.97971
3.16017
2.53379
2.02334
1.53952
3.69048
3.72604
2.30226
2.75847
2.61219
2.4146
1.53785
1.29167
3.53813
3.06452
2.45649
1.59
2.28911
2.62604
2.26495
2.86303
3.25115
1.14413
2.40833
1.84372
3.07652
2.59611
3.12849
2.49369
2.60281
2.20629
3.6027
3.00558
3.20808
3.42382
2.74731
2.69575
0.773674
2.62603
2.79729
1.68613
2.40024
1.18898
2.02039
2.82202
1.24326
2.719
1.3934
2.72392
0.582188
2.81058
1.31574
2.77988
1.04991
0.975685
1.48108
2.77674
3.69902
4.47617
3.92759
0.559209
2.88233
3.6208
2.81404
3.06049
4.72382
3.55707
2.33634
2.78188
1.43083
3.36726
1.71949
1.16444
1.92663
1.47843
2.1675
2.68856
1.19707
3.40604
1.0637
2.41607
3.31186
1.3858
0.808225
2.81635
2.35732
2.51024
2.92312
3.80692
5.59711
3.17732
3.57567
3.02523
2.87104
2.81738
3.10562
2.41574
1.56018
1.21728
2.5485
3.02741
3.40085
1.18527
1.42789
1.84555
0.708054
2.14342
1.49606
2.91965
2.5208
1.03307
3.02675
2.89466
3.50531
2.99995
1.49998
3.61983
2.5599
3.01035
0.689776
2.68056
1.48858
0.866236
1.65549
1.12763
1.71097
0.808947
4.91636
2.94358
1.63991
3.17571
3.73929
1.41636
5.42172
0.738656
4.53041
5.38613
0.813026
2.76616
2.93529
3.8024
4.12231
3.31219
2.10124
0.6443
1.74678
0.677279
2.00631
0.658293
0.592752
1.30235
0.533419
0.631764
0.89353
0.70493
0.945985
0.946377
0.96617
0.983375
1.80041
1.3727
3.87437
0.971503
0.610431
1.02057
3.05466
0.453689
1.74548
1.62741
0.922815
2.35905
0.870498
2.29275
2.32021
0.71734
0.608427
0.835328
0.88024
0.865476
0.327306
3.59153
0.55614
1.23454
2.08167
1.45379
1.93442
2.72926
1.89945
1.04339
3.88026
1.33838
1.24242
3.1176
0.839792
1.34728
1.86906
1.02263
0.57057
2.76235
2.26225
0.908028
2.90248
0.66666
1.36758
2.67737
1.13659
2.96164
1.37626
0.759108
2.83031
1.56298
3.79654
2.4573
1.86252
1.14398
0.934161
0.817666
1.30403
3.3045
0.375714
0.697324
0.896061
1.14692
1.9773
1.56288
0.944696
0.568825
1.48298
2.28726
1.13675
7.7426
1.76912
0.757881
0.643215
1.84699
0.680562
1.56191
1.57449
0.785661
0.682941
0.796137
1.03527
0.759731
0.837736
1.58032
0.770639
0.770483
