0.760157
0.780657
0.821474
0.680949
0.615647
0.906693
0.728878
0.749953
0.881716
0.519194
0.761524
0.927845
0.837672
0.706341
0.746113
0.602835
0.854651
0.852132
0.849582
1.17202
1.2675
1.1757
1.32977
1.69736
1.51942
1.2416
1.33887
1.23791
0.730386
0.40009
0.380097
0.672936
0.551293
0.818755
0.493149
0.608786
0.576109
0.703314
0.292233
0.768144
0.416969
0.772483
0.795532
0.418072
0.612026
0.778843
0.755616
0.283726
0.926521
0.452095
0.394273
0.658849
0.728073
0.322507
0.518097
0.745409
0.777633
0.587136
0.432626
0.495297
0.563853
0.348413
0.64671
0.480142
0.204446
0.592522
0.965323
0.925043
0.837726
0.548673
0.585438
0.332901
0.455848
2.14661
0.989302
0.572198
0.661416
0.697136
0.487156
0.474761
0.653103
0.403947
0.63624
0.458272
0.504925
0.629809
0.445739
0.505374
0.47992
0.432723
0.426886
0.621677
0.468903
0.566904
0.433744
0.94032
0.467741
0.330015
0.759286
0.538137
0.36925
0.572441
0.374418
0.431832
0.477583
0.400865
0.852247
0.616833
0.331824
0.469049
0.412857
0.446767
0.57251
0.35647
0.369702
0.554432
0.380836
0.538442
0.392882
0.612181
0.593237
0.719769
0.478551
0.711445
0.688452
0.481646
0.497855
0.760161
0.603097
0.378609
0.401326
0.50432
0.707693
0.461764
6.77173
0.37695
0.485124
0.740227
0.714597
0.384756
0.67448
0.367585
0.427435
0.475766
0.471377
0.457216
0.465232
0.587974
0.376226
0.666795
0.902506
0.607789
1.27781
1.3077
0.512097
0.534328
0.732879
0.86836
0.479317
0.58958
1.15892
1.16733
0.913826
1.66723
1.2785
0.384088
0.502974
0.742864
0.368297
0.484267
0.496125
0.601545
1.2513
1.20609
1.19276
0.984994
1.185
1.38027
0.685428
0.545232
0.539513
0.403267
0.7696
0.506151
1.28044
1.67647
1.21254
1.25196
1.05252
1.16574
0.309795
0.597915
0.582533
0.581528
1.21693
0.964991
1.16988
1.15109
1.03341
0.730594
1.2367
0.785009
0.719198
0.553739
0.686619
1.16396
1.15395
1.11558
1.2365
0.902835
1.10888
1.17422
1.15084
0.907044
0.691379
0.429521
1.06505
0.891248
1.05725
1.1707
1.21365
1.14835
0.982128
0.75839
0.904985
0.962627
1.02954
0.550694
0.636668
0.890986
0.688103
0.77761
1.0046
1.00608
0.792411
1.12023
1.13328
1.08821
1.17267
1.08767
0.887269
0.853337
0.697685
0.461015
1.10524
1.15189
0.908836
1.11323
0.806295
1.37738
0.740065
0.612141
0.761246
0.645883
1.1474
0.940506
0.983716
0.97078
1.22285
0.658795
1.38183
0.844652
1.33056
1.19975
1.21436
0.77826
0.928163
0.672155
1.03555
0.985202
0.94712
1.04931
1.06506
0.724074
0.872714
1.10444
1.09712
0.701348
1.2225
1.42531
1.34
1.68518
0.973222
0.52032
0.935566
0.990675
0.902924
1.31439
0.580369
0.834092
1.0788
0.986702
0.588903
0.730679
0.776227
0.514571
1.69431
1.38811
1.22738
0.596195
0.706351
0.957959
1.06157
0.98281
1.23868
1.01509
1.12526
0.661446
0.680385
1.33868
1.41299
1.36939
0.206261
0.102376
0.091608
