1.27036
1.3013
1.18332
1.43572
2.4785
1.98503
1.50755
1.88704
1.1723
2.29018
1.31043
2.85726
2.22758
3.8967
1.4296
1.53826
2.94346
2.70862
3.2624
3.74747
5.38318
1.17697
2.86249
2.62276
2.8862
2.7263
2.42428
0.848146
3.03712
2.93967
3.14378
3.79497
1.04927
0.759908
1.13944
1.79551
0.92171
0.966257
1.53361
1.31462
0.81894
1.59312
0.638106
1.46557
1.50499
1.73935
1.46754
1.41046
0.893713
1.53045
0.996894
1.5916
1.48655
1.29091
0.935855
1.43404
1.03506
1.93525
1.52681
1.73699
1.47501
1.34663
0.734561
0.88894
1.40254
1.5541
2.03582
1.56961
1.66159
1.63306
1.58237
1.29831
1.64351
1.91869
0.641508
1.66565
1.2877
1.53345
1.77504
1.7756
1.56472
1.61734
1.60591
1.24304
1.57886
1.80108
1.90739
1.44467
1.26275
1.14077
1.67882
1.03863
1.97112
0.422452
0.850604
1.54639
1.2297
0.936558
0.896339
1.56715
1.00599
1.46636
0.80855
1.1163
1.80479
1.46884
1.47015
0.973017
1.1198
0.536619
0.952385
0.598507
0.943434
0.649922
1.54976
1.14313
1.21399
0.873788
1.48348
1.29729
0.847893
1.10713
1.86373
1.6474
2.24346
0.958226
1.19632
0.724264
1.70855
1.28813
1.11298
1.44721
1.27725
1.52471
1.28087
0.770801
0.829158
1.81359
1.79361
0.972618
1.55209
0.718457
1.5744
1.41859
1.11809
1.89255
1.21968
1.36444
1.8807
1.66352
2.12621
2.99593
2.03251
2.4085
3.86772
2.5866
2.85849
0.776519
2.41488
1.43512
2.96168
1.93015
2.77372
1.82949
3.03694
2.18215
3.79353
1.2289
2.23408
1.838
3.39321
3.57987
2.884
2.03294
2.99515
2.84084
1.79411
3.31928
2.66616
1.73841
1.19221
1.27301
2.85913
2.19474
3.31778
2.25231
3.63653
2.70766
2.50251
2.83758
2.181
2.67779
2.14413
2.88369
1.78435
2.50902
0.784984
1.69299
2.30289
2.54977
2.08874
2.51682
1.76453
2.47272
1.03872
1.38919
3.13976
2.08959
2.24246
2.28238
2.23515
2.08624
2.86149
2.50836
2.81282
2.81478
1.83176
0.699915
2.73344
2.49417
1.63626
2.75746
3.66438
0.883118
2.16192
3.37451
2.90982
0.899175
2.58836
0.846934
1.42212
1.68511
2.25344
2.20761
2.89379
2.0119
2.60333
2.95588
2.70641
2.10186
1.46757
2.47409
3.84806
1.92308
2.10992
1.91563
3.41019
2.87062
3.05936
3.46493
3.48168
3.42968
3.38447
3.19216
3.92388
3.33163
2.81018
3.82464
2.76218
3.40005
0.821524
3.26898
3.81664
2.98937
3.42522
3.31561
3.19417
3.71547
3.21758
2.30558
3.44214
2.18528
2.55668
3.30253
1.20963
3.43364
3.23695
4.57384
1.78725
2.1284
3.23061
3.78627
3.22649
2.58328
2.25354
2.8458
5.94215
1.71931
4.44983
2.31969
1.91906
2.1956
1.42742
2.12278
2.84862
2.9872
3.05881
4.36616
2.85068
4.75003
2.58909
2.8565
3.27284
3.68438
2.69521
3.4975
5.21797
3.84229
3.03752
2.82651
3.25916
3.34216
4.63528
4.04522
2.48198
4.15824
2.01519
3.39799
3.04736
3.77593
3.33456
4.67806
3.28769
3.99577
3.39002
3.72057
3.10847
3.87886
3.25595
6.82608
4.33026
4.51217
4.74611
2.92099
3.08827
3.21047
3.64515
3.15222
2.27075
3.12277
4.17784
3.94532
3.04779
3.24524
3.26889
3.05762
3.18596
2.55122
5.33272
3.19527
4.10809
3.38861
2.31117
3.053
2.70552
2.19188
2.91988
2.85852
1.76828
1.61677
1.55778
2.09121
1.86944
2.40733
4.72022
1.98539
1.7997
5.43312
2.46551
2.89538
4.30114
2.62292
1.42702
1.78163
3.41093
3.24253
3.33273
3.31369
3.34834
1.94384
3.68576
1.64472
4.09827
3.26656
3.57641
4.54279
3.44641
3.59554
1.02029
4.93981
2.91037
3.9932
3.65643
3.10741
4.41064
3.59783
3.66023
3.10604
2.33719
3.13299
3.46464
3.91688
3.37837
3.81701
3.12068
3.21276
1.18965
0.821548
1.6741
3.38864
0.383095
3.71268
2.38297
3.17882
2.27204
1.29698
1.81771
3.48745
0.806966
3.55819
3.32909
3.88739
1.98316
2.96563
3.07531
4.14015
2.67418
3.63867
4.26103
3.21721
1.06573
4.91771
3.65962
2.59604
3.60043
2.02577
3.76532
2.80662
1.17549
0.875183
0.446729
0.702053
0.445761
0.718551
0.938124
5.82189
1.30729
0.601543
0.715164
1.10847
0.86416
0.384209
3.05233
2.47433
2.28347
3.2783
1.6876
0.745498
4.02609
1.38314
1.07535
1.70736
3.55452
0.693295
0.980512
1.39253
0.698509
0.681296
1.36612
0.640895
1.05531
0.805611
0.815058
0.549513
0.485812
0.457004
0.826518
0.741399
1.82935
1.12187
4.74366
3.42094
0.327531
1.52482
1.04008
0.436022
1.88858
1.45463
0.407148
2.70565
2.69526
0.965573
1.78586
2.59985
1.40551
0.771666
0.898932
1.22494
0.555167
3.45086
5.07852
0.941923
1.56135
1.09057
1.45421
0.591261
2.99532
2.78497
0.920433
3.15425
0.897178
3.63707
3.36638
4.04719
0.363973
0.808473
0.913325
0.92875
1.28841
0.613656
1.97732
2.51111
2.51312
0.680838
0.483838
1.06141
1.68241
3.32452
1.06334
0.684282
0.540929
0.584647
0.523809
0.622008
3.05658
2.47089
2.83862
2.48297
3.06206
3.20652
2.90914
3.17603
3.13718
3.26039
2.99534
3.36403
3.25497
3.20743
3.21395
3.81407
3.06539
3.14424
2.87003
2.93449
4.06254
4.38411
3.6068
3.43636
2.22389
1.25343
2.99161
1.22839
5.01705
0.91393
2.11734
2.65829
2.74724
0.791842
0.824067
1.1333
3.00495
5.68751
0.724457
1.2611
2.87586
5.56639
3.06158
2.29139
3.49947
4.034
2.52414
2.39926
3.29169
3.70624
3.16721
3.51754
3.45947
3.05514
3.55897
2.18843
1.44437
2.02139
3.95284
1.58697
0.876322
0.793217
2.24835
2.50445
3.96771
0.488291
0.808718
0.605752
1.17619
0.689689
4.52582
0.371983
4.53507
2.90836
4.51248
2.9627
2.27446
1.20445
2.19206
4.29319
2.49029
2.86412
3.97123
2.2493
5.33638
1.16773
3.15831
2.39672
3.65785
1.63994
3.69403
1.99665
0.837696
0.655994
1.0339
5.05612
1.7565
2.2765
2.55716
2.09928
5.23098
2.7069
1.06168
1.67761
2.96367
5.08891
3.92214
3.3329
3.76559
3.85035
4.669
2.93634
4.35866
4.25532
2.33418
1.69347
2.47961
4.29188
3.70424
2.43418
1.33018
0.829615
2.40815
0.730239
2.09224
2.17452
2.49453
0.998787
0.989207
1.89527
1.42237
1.95874
1.92519
1.90614
1.53704
1.91184
2.51569
2.19986
1.31863
2.02686
1.68186
1.82612
1.71094
2.09758
1.72138
2.11256
1.84448
1.87679
1.90628
1.60244
2.10044
2.02601
1.98083
1.92347
1.6247
1.9627
1.94413
1.30948
1.32097
1.77253
1.4165
1.39137
1.60034
1.82903
0.900836
2.1451
1.55802
1.3813
2.15656
1.982
1.24498
2.08704
1.44138
2.10927
2.1547
1.24967
2.19066
1.67361
2.06625
1.69945
1.68895
2.12758
1.29052
3.0137
1.93263
0.873242
1.54166
1.0255
0.921985
1.85174
1.74892
1.81447
1.89251
1.56799
1.15091
1.91944
1.98842
1.41538
1.62838
1.84745
1.93525
2.05617
2.11869
1.6982
2.12092
1.6413
1.48026
1.93898
3.37428
2.33002
4.09264
2.09953
1.69126
1.9316
1.79937
2.16463
1.80302
0.838258
1.60751
1.90266
1.89564
1.88865
1.47557
1.76578
0.919625
1.57386
1.49404
1.64538
1.61889
1.46043
0.947649
1.64841
1.12434
2.54419
1.17935
2.59738
1.54964
1.66034
1.70242
1.45948
2.67992
1.76712
1.25409
1.8775
1.50568
2.07862
1.12286
2.2791
1.47194
1.59961
0.932078
1.72873
1.67809
1.62552
1.60415
1.53435
1.53442
1.03413
0.668513
0.334257
0
0.435221
1.17111
0.971406
2.06734
1.94563
1.65093
1.82391
1.38451
