0.331265
0.234054
0.311547
0.484273
0.125675
0.208463
0.148835
3.03702
11.6665
5.68296
2.20415
4.49666
4.7644
0.976488
2.42286
2.82899
1.8228
0.513593
2.34618
2.86026
4.01962
0.687917
2.35366
6.46258
2.7067
0.318639
4.64141
0.538256
1.89523
0.6465
0.239841
0.121944
2.6859
0.493775
0.30648
0.437102
0.71944
0.321197
2.27422
0.212832
0.275591
0.140422
0.211648
0.0680885
0.399229
0.166525
1.56804
0.146633
0.0814639
3.32977
4.42507
0.254605
0.292665
1.17113
0.385145
0.181941
0.312031
0.599797
4.84206
0.294973
0.23255
0.145775
0.58061
0.323066
0.528432
2.21631
0.159153
3.72627
0.724556
0.750741
4.82426
0.860065
4.20117
3.23483
0.100692
0.38563
4.01549
0.223797
0.413686
0.647733
1.17821
0.564031
0.918755
0.856222
0.433461
0.472399
0.44523
0.540968
0.316533
1.63954
0.273062
0.193967
0.446501
0.27119
0.170905
0.446742
0.263725
4.16284
2.50196
0.327599
2.2466
0.592738
0.212913
0.927823
0.328061
0.259479
3.07315
0.0989025
1.02574
1.7819
0.593474
0.474094
0.907777
0.40196
5.55193
1.32613
0.844652
0.591154
0.503912
0.964051
0.229931
1.31291
0.209391
3.91153
4.25196
0.944514
2.20736
2.3683
1.80421
1.06327
0.288118
0.34522
2.78409
0.27901
0.170811
0.0831483
3.45596
0.774489
0.380887
0.420459
0.261602
0.669896
0.315092
0.545445
0.17486
0.570979
0.434248
0.896292
0.847816
0.177048
0.350551
0.419075
2.82036
3.03226
0.671387
0.775082
0.611585
0.767571
1.05802
4.07108
0.345955
0.860562
1.8983
2.62628
2.97717
0.484698
2.58753
2.52457
2.41796
2.37047
2.2142
4.68619
3.95485
2.71318
1.40422
2.37503
2.78496
2.33079
2.96539
1.92165
0.15425
4.66901
3.9876
2.43821
5.50064
4.16955
2.74656
0.770289
2.45028
2.52748
3.79571
5.72781
2.56391
0.315574
2.18824
5.32071
0.429456
0.621847
2.35131
0.692052
4.14391
2.88472
0.85741
0.110487
2.78487
2.91701
1.79989
0.210069
2.06816
2.96101
3.47566
0.257335
3.31127
3.72127
0.149576
0.654892
0.627436
0.375109
2.00606
4.19224
2.45156
0.606618
3.0003
1.5072
1.01534
3.08212
4.13246
0.215331
0.281301
2.76693
2.86672
1.35853
2.63675
2.04395
0.420476
3.03716
3.96906
0.529995
3.23375
0.712974
3.07461
0.0554212
2.43663
0.795398
2.52183
2.83184
1.78358
2.54452
2.59983
2.23566
0.413484
0.338063
0.167052
0.335756
0.774773
0.526326
0.57079
0.782641
0.723423
1.35832
0.781759
0.363652
0.486739
0.404527
5.03324
0.472861
4.2712
0.756157
0.740335
0.8569
0.591717
0.120394
0.334458
0.292378
0.222239
0.243263
0.365411
0.538646
0.621244
1.12004
0.163764
0.54035
0.417418
0.527934
1.02349
2.89355
1.01742
0.860433
0.158386
0.702454
0.313358
0.578553
0.536476
0.467749
0.363412
0.813593
0.278477
0.583944
0.719602
0.361486
0.124954
3.37692
0.240417
0.0877297
2.40469
2.24981
3.99032
0.40204
3.64572
2.77615
2.34682
4.94642
2.41638
2.58409
4.23369
2.67527
0.400782
0.5056
2.2004
3.41276
1.30167
1.81764
3.56312
0.184038
1.79272
1.12039
0.59522
4.14111
8.66617
1.8439
1.29476
1.41295
7.91026
2.16526
2.15376
2.79713
4.85609
1.15523
0.582718
5.51276
2.86285
2.11753
1.53278
1.10502
0.851378
0.998992
2.05796
2.53319
1.8862
1.02921
1.34394
1.69432
1.53676
4.18321
1.46209
0.94402
1.47445
4.61662
2.09548
2.51649
5.03421
4.25127
2.09459
2.94219
2.98835
1.76386
2.02239
4.85465
5.56609
0.749945
4.43419
4.80388
3.07798
5.20098
0.415235
3.72254
3.61484
0.511137
4.28733
1.94269
2.35566
4.29634
4.25357
0.92675
2.0773
3.22788
0.051408
5.8587
2.29622
2.87519
1.04496
1.88406
0.881144
5.07864
4.9426
3.04958
1.92518
4.7665
3.79384
3.05367
3.14221
2.59692
1.14373
5.01434
5.02933
1.5548
1.72387
4.70643
2.53327
2.04809
1.85335
1.00517
1.61417
1.24085
4.66953
1.05256
2.0463
1.87825
1.9729
2.11382
3.28929
2.29527
3.07334
3.84108
1.77772
2.46759
2.00679
2.46799
0.790807
3.59144
3.34267
3.71516
2.17103
3.76227
2.64873
3.10717
2.22099
2.04528
2.37717
2.68164
2.50464
2.605
1.89146
2.06602
2.35447
2.35611
1.94194
2.36016
2.88895
3.61728
2.35424
1.86879
2.37796
2.9822
3.01828
2.42862
2.45228
2.44169
3.70916
2.47449
2.47665
2.15548
4.85272
3.24708
3.12144
2.88024
4.0326
3.57112
2.28438
3.17645
4.12765
4.5569
2.31495
3.60918
5.6104
3.74366
3.77503
3.37535
3.91462
3.20598
4.49385
4.59416
4.09386
3.95538
4.00984
4.11083
4.92071
3.37586
3.3743
4.60416
3.96052
4.06153
5.69561
5.3357
4.84607
4.93561
4.85244
6.45398
2.85354
2.35004
5.51691
4.19225
4.31401
2.44174
2.92668
3.9138
4.05594
3.96804
0.299674
4.4875
0.316082
0.495336
0.705433
1.21981
1.13426
4.32401
3.92174
1.88901
3.73477
3.56828
3.33626
2.33635
2.57562
4.42175
4.67305
5.97515
6.49019
3.63443
1.57089
2.54246
1.22332
0.0859817
4.06953
0.553377
1.42395
2.37236
2.34534
0.317695
2.97729
0.175257
2.0962
0.367527
2.84511
3.09166
1.23035
0.198229
2.55022
2.40536
2.71087
2.2044
3.12163
2.47958
2.91448
1.97729
3.14223
4.34799
4.28137
1.93218
0.423738
0.38161
0.149764
0.32704
2.77112
0.14959
0.115362
0.189371
0.369619
1.03272
0.960182
0.518532
0.39021
0.496883
0.544436
3.79616
0.566857
0.568288
0.281086
0.490946
2.03197
0.317257
0.574885
0.241094
0.481036
2.24477
0.205096
0.462226
0.993719
1.95614
2.32819
0.641424
0.49792
4.51826
0.583186
0.206549
0.121117
0.139508
0.41045
0.147703
0.268634
0.201476
0.188744
0.129522
0.710041
1.73821
0.199022
0.0997393
0.224378
0.092401
0.2822
0.380663
0.0832025
0.173062
0.0343741
0.263198
0.18555
0.300875
0.528202
0.746162
0.568959
0.319332
0.325297
0.274681
0.38181
0.296599
0.414935
1.69908
1.18825
0.733282
4.72214
0.154548
0.547914
0.232178
0.0657774
0.274964
0.311945
0.61413
0.209071
0.819725
