0.129964
6.71736
1.71149
7.93071
5.25961
0.455584
0.309411
0.372034
0.210977
0.685915
1.04486
0.88073
0.249436
0.565796
0.596284
0.731456
0.913892
0.807359
0.682305
0.332174
0.218518
15.8105
0.417287
0.547629
0.719912
0.988629
0.448512
0.438056
0.3682
0.380129
0.421308
0.409577
0.502752
0.277529
0.544
1.07345
0.78223
2.13222
2.10758
1.42818
1.49729
0.591956
1.1134
1.4487
1.24027
1.39618
0.793073
1.30868
0.637547
1.15183
1.00253
0.847659
0.917502
0.432464
1.47134
1.21887
0.452367
0.977474
2.10064
2.33164
1.86583
1.05934
1.40748
0.410973
0.734006
1.19423
0.706701
0.840739
2.08762
2.59912
1.48183
1.5302
1.29357
1.15449
2.33955
1.62398
1.4634
1.38764
1.4507
1.67532
0.068348
2.55722
4.10189
2.25591
1.2245
5.90485
1.22583
1.48527
0.91932
1.44451
0.18073
0.653589
1.74852
2.0142
3.2188
1.62338
1.92442
1.4612
2.99289
1.53967
1.36541
1.72689
1.17466
1.76766
1.6137
1.57094
1.55702
0.869911
0.421619
1.03592
0.866519
1.53064
4.04656
0.378898
1.54754
8.41415
1.98023
6.88872
2.71468
12.471
11.1187
2.04089
12.8959
2.41782
2.30424
8.75501
5.32597
10.8253
0.665601
2.49453
6.49536
6.02497
16.5017
1.47671
0.368238
3.6313
1.07743
2.19484
0.709859
3.46621
15.1752
1.07351
9.90549
0.370875
0.2308
0.337498
0.0695994
0.644515
1.01116
1.64209
1.32747
1.56474
1.28213
1.55532
1.67137
1.56777
1.50716
1.02677
2.2685
0.824961
0.409823
0.808469
1.77118
2.42001
1.62405
1.533
0.995565
0.324474
0.833898
2.12358
1.09927
0.156691
0.313288
0.291321
0.249235
0.579735
0.618437
0.339471
0.391446
0.426899
1.54233
1.74912
12.3237
0.580431
0.980559
1.82727
0.933406
0.369039
0.593195
1.0004
0.32292
0.365015
2.46397
1.1863
1.89844
0.992508
0.769178
0.598287
0.511013
0.0170694
0.318109
0.534229
0.427347
0.437419
2.11061
0.0151638
0.811114
0.309456
2.3922
0.675777
0.903188
0.921056
1.76734
1.71771
1.68987
1.74905
0.0318326
1.28445
4.25006
12.7667
0.971982
2.97357
12.3892
12.6164
0.234877
0.606104
0.534671
3.66872
8.41609
3.79999
14.1141
0.67871
4.06167
0.31532
12.8445
1.63733
1.10391
3.08078
0.833744
1.52803
1.36581
1.01607
0.657771
2.80976
2.05824
0.99932
2.28191
1.85984
3.20463
11.3604
8.71334
12.7559
10.3377
10.214
11.7925
10.6571
12.3807
12.2699
7.17475
13.1804
10.0453
10.4917
12.4437
5.71608
7.01827
13.232
8.56061
0.721289
1.01885
10.4776
4.3099
8.03356
13.1216
7.36488
4.04335
11.2007
11.3635
0.667649
0.443356
0.7281
0.744309
0.567388
11.9997
1.15855
1.63688
10.3793
7.48046
6.93923
0.880582
9.40124
12.3324
8.50725
4.7975
9.223
9.71084
11.1204
11.7545
13.2427
11.784
11.7166
11.7555
6.82507
11.3042
11.1477
11.6658
5.91759
12.2482
8.92555
11.7225
13.1919
12.1122
12.4649
13.6887
11.4569
12.2611
8.73033
5.60629
7.83588
13.6276
11.6902
12.4064
10.2527
11.9085
11.5026
11.4966
11.5962
3.21546
12.1779
7.32656
7.7164
11.7296
9.80278
6.81265
4.85855
12.6403
10.3115
4.43454
10.7913
12.5885
11.3408
11.3608
9.62275
12.5195
7.24353
11.65
10.9588
11.7732
12.0135
11.5473
12.0338
11.8929
11.5807
3.90699
12.6812
10.4538
11.9021
0.253987
11.7782
11.1646
7.51375
8.2224
12.3273
7.07185
11.5603
4.80195
5.40626
6.28239
0.942263
11.2032
12.4378
12.9898
12.924
12.2294
12.1961
12.5596
13.4536
12.6804
8.99855
12.3993
12.5646
12.6776
12.4921
12.9524
13.1326
13.1019
11.8319
5.43866
12.5364
12.2074
12.8885
9.2265
12.4564
12.5239
7.64062
12.1318
12.3273
11.6639
12.8523
12.8315
12.4388
12.5399
12.9295
12.1381
12.4239
6.65173
4.64115
0.199621
11.6052
13.5783
13.4488
11.5488
12.0614
11.8644
12.1063
12.3116
12.5395
12.2744
7.04505
13.2234
12.3485
14.2431
13.399
12.299
12.3512
10.2903
13.2067
12.1205
10.9213
11.6817
8.94769
13.7614
5.2056
1.95314
11.3153
1.95564
7.18721
6.44812
12.5101
7.40097
7.07579
0.29574
0.50398
8.71739
12.1847
12.5338
9.64919
0.68762
9.76755
11.2909
1.12276
7.16826
6.64718
11.8336
6.01578
5.59038
10.1922
14.9515
11.2624
12.3962
5.00804
8.40064
9.65537
11.749
12.6014
0.614098
13.3057
11.7344
11.5714
5.58069
9.78195
14.0323
8.64377
11.687
5.03057
10.3083
13.0976
9.93473
16.615
1.30607
11.0934
9.38775
11.6428
13.1623
12.2028
0.528241
12.9328
0.656243
14.0537
13.773
12.6354
12.4216
8.7013
8.90833
11.8658
11.7042
12.4098
12.9355
10.2347
11.6115
9.56792
13.0143
14.2092
13.4559
4.71514
12.0858
13.296
1.31408
11.9351
6.94273
11.2901
12.1829
11.9467
12.2872
11.7187
6.58993
9.03391
15.665
13.9495
12.1611
5.28355
17.7089
16.2603
13.8963
7.08302
5.47571
6.77277
0.141713
0.355142
0.61056
1.26582
2.2919
13.3741
12.5713
12.2627
8.93866
1.05302
0.321016
0.589807
1.19916
1.06165
0.524128
1.06957
0.692345
1.43281
1.74215
0.907249
1.23105
1.6766
1.40829
4.44045
11.3331
12.6325
10.3189
10.0502
2.53257
5.28115
7.6762
7.44784
7.25708
7.64939
9.35805
7.77355
6.45248
11.4585
8.91936
9.97347
12.8799
9.31087
8.81568
10.7403
8.35332
9.48532
11.2389
10.2964
8.0667
12.2602
8.16587
9.91472
9.90891
10.5024
5.25941
9.90363
6.96392
12.7385
8.81263
13.0692
11.8095
8.26618
11.5795
8.1093
8.49816
11.7826
11.8466
10.6181
11.6831
11.5981
1.45733
11.8415
5.21485
8.44058
7.02851
7.52838
12.0179
11.5803
12.2537
12.5772
12.8288
6.8624
12.0889
11.7027
9.06373
14.2689
9.09444
8.22104
12.2901
12.8701
12.6645
1.48724
0.902785
1.14585
1.33975
6.51469
5.45462
1.44773
1.62508
1.23967
1.01895
0.789085
1.11177
0.488403
8.19702
0.755076
6.73862
1.0377
1.12619
0.586449
0.655375
1.28643
3.18595
1.24965
3.13649
0.749553
0.157027
1.90879
1.09918
0.624076
2.14382
1.08625
0.605224
0.47764
11.5077
0.224056
12.0406
12.0269
11.4259
12.2611
12.3199
11.8325
12.1805
12.0024
11.9221
11.4656
11.6965
10.8386
11.3591
10.8532
7.48619
11.8767
8.73572
13.5321
13.8849
5.71789
10.9934
11.4828
11.4334
12.3595
12.7094
7.18098
11.8253
11.7095
13.6571
13.4272
12.6979
12.9771
10.7173
11.8414
9.59246
12.1553
12.539
7.43711
10.941
13.6199
11.9132
4.72833
11.8793
5.03547
12.2984
11.4074
5.83315
11.906
13.7204
13.3773
10.8822
11.6323
11.528
11.3728
12.2753
13.2023
11.7275
12.0538
0.896308
1.39297
0.613804
0.275842
0.470902
0.450844
0.592798
0.333813
0.46503
0.378095
1.57806
1.68687
1.65036
1.01036
1.07497
0.33151
0.514493
0.347689
0.402608
0.682539
0.908107
0.803129
0.884078
0.970264
0.778106
1.65922
1.9704
1.63476
1.79263
1.78421
1.99343
0.0323194
5.13371
1.40235
1.97651
2.06684
1.01808
1.57559
1.51137
1.04618
1.66905
1.36036
1.52386
1.64836
1.55896
1.57091
14.3784
6.10116
11.3683
1.58146
6.03318
1.21593
0.693568
1.34362
13.0499
0.804503
12.488
13.8934
0.250784
10.1192
11.2435
11.4944
11.7708
12.8479
11.8734
10.5133
12.2403
3.90353
9.15253
13.5565
11.8709
7.77599
12.2349
7.47814
11.4091
11.3799
4.45226
12.0992
11.4442
12.1227
12.3534
12.1237
8.83035
8.82702
11.5037
11.4191
11.918
5.1988
12.9037
10.5939
10.612
11.1174
10.4877
7.11294
11.4176
7.11691
10.8016
6.63831
11.2652
10.6892
11.4854
7.40978
11.9396
11.7853
9.64691
11.8828
8.26136
13.056
3.79632
3.11159
4.82251
11.3702
10.8068
4.93997
4.69767
4.60401
0.439176
10.478
10.5998
4.45412
3.7539
1.82894
1.82366
1.92681
2.76967
1.88281
2.42528
2.48171
1.7359
1.817
2.35702
1.47892
2.27495
2.5024
1.45437
1.76037
1.23572
11.4587
1.58799
1.64048
1.70331
1.50766
1.36125
1.17603
3.26635
7.70199
1.71977
0.955123
0.793884
8.04196
1.26401
1.10689
1.09436
1.45065
1.2044
1.74201
2.43215
1.39066
3.34413
2.64821
2.38822
2.49065
1.70359
1.51854
1.47369
1.64444
12.9756
10.9244
11.5467
12.0389
14.6209
12.3686
11.4228
3.93058
12.6355
12.834
14.9468
14.367
13.4572
7.07009
3.76995
11.0309
0.429197
12.8337
11.937
11.4673
12.8767
12.4378
12.5227
12.5673
9.80751
13.1223
12.9484
10.2263
12.1628
11.0124
7.36451
11.0351
12.3216
6.76135
5.83117
8.40745
12.3672
9.45347
12.589
13.2898
12.4871
12.1048
11.4495
13.9078
13.2818
12.591
10.7704
9.18349
12.2208
10.3381
11.8842
12.6201
10.9225
11.6613
9.87479
12.5677
12.7204
12.1637
10.5326
11.3966
12.561
0.00140888
11.8105
10.1843
12.2514
10.2618
12.317
13.3641
13.3062
7.83584
14.2761
8.10505
12.5382
5.1695
5.07983
11.8146
7.02768
7.94779
1.99786
1.35338
1.1223
1.65351
1.37021
1.29959
1.00868
1.25546
1.06129
1.70955
0.943222
1.36926
1.07255
1.77057
12.0427
1.04662
4.50267
1.54741
1.81884
13.7536
1.64503
1.00958
1.24373
1.33992
1.43188
3.86473
1.26714
5.47906
12.1314
1.18858
1.01027
1.38509
6.19172
1.35697
3.68469
0.902637
1.31942
0.565784
12.5065
12.4023
0.594242
1.33787
1.59647
0.265434
0.488285
1.17463
0.3598
0.992975
11.0567
2.14737
2.14014
12.0869
2.4738
2.41421
1.25542
1.33082
1.84331
1.25655
0.970452
2.90677
0.993577
2.21204
11.1847
4.57891
5.70412
1.51401
5.76985
10.499
1.64218
1.59847
0.599387
0.744828
11.5779
1.23106
0.956299
1.39938
0.454639
0.370132
14.0192
10.5299
11.3325
13.1842
11.8474
9.2132
11.8052
11.9898
12.4649
12.0643
10.9523
11.3162
12.0163
12.2506
10.5329
12.1932
12.1334
7.77221
12.3365
12.5803
11.7837
12.1711
12.4734
11.1628
12.4958
7.91194
12.0539
12.0263
12.4272
12.6484
12.3658
12.3672
12.4693
12.4031
10.0401
12.5152
12.724
5.79599
12.5108
8.73436
12.2024
12.2542
12.2983
12.271
12.0798
12.4636
11.9485
13.7676
5.68639
12.0578
12.3374
1.23797
0.992108
1.12945
1.41842
0.715903
0.846184
1.68821
14.8436
0.638412
0.422632
1.36152
0.787171
16.1586
0.226537
13.6519
2.42919
2.52494
2.93615
2.51637
2.32595
2.14173
4.83016
2.48207
0.827953
1.36398
6.64479
1.51842
5.30998
4.81347
1.3025
0.778683
4.36405
0.907696
1.69075
3.94425
1.19782
1.00295
1.12151
4.27126
0.879364
15.0509
0.967111
0.4402
0.957575
0.860511
0.706262
1.22899
0.51921
0.994117
8.88487
10.2262
12.8519
15.2463
9.38254
8.98626
7.04345
7.33529
6.56406
7.54693
11.5219
3.30824
0.462264
8.24939
10.9044
16.4272
10.0507
12.1378
11.0064
10.2748
0.000831688
0.539422
0.688691
1.32056
0.448797
0.324532
0.619072
0.810712
0.366616
0.612947
6.51705
0.461034
0.874073
5.66433
2.79538
2.31485
1.32966
2.03536
1.38613
14.4262
0.583463
0.814983
0.629727
3.08754
3.53772
2.58584
5.18659
2.6976
2.97603
2.84607
9.04903
2.87859
2.34965
1.91281
2.03404
2.44094
1.82564
2.02922
1.69399
1.58604
2.78998
3.6347
2.43791
0.931216
11.2865
0.780997
6.02589
1.65679
0.972432
0.987812
1.01792
1.30737
0.660394
6.71205
0.458792
0.7957
0.972593
5.28781
1.36067
1.16427
8.68811
3.41125
7.47026
5.01666
1.10568
1.07386
0.906499
1.28939
0.497792
0.61166
0.755027
0.341685
0.577251
0.687597
0.775153
0.967655
0.852777
0.192553
0.956392
0.729779
0.689786
0.942968
13.0991
9.46414
10.4418
2.04308
0.562544
7.72482
7.75832
5.91146
10.6162
11.8519
0.779265
1.08765
0.768121
0.414932
9.79726
0.802261
0.245564
0.426232
0.553081
0.506415
0.178218
0.691864
3.7056
0.655963
0.607593
0.787197
4.62221
1.19004
0.331709
0.47886
0.733313
0.625622
13.52
0.903959
1.20372
0.934632
4.07986
2.70981
1.18133
1.59988
1.52637
2.27778
1.93009
15.3513
2.85958
14.6035
1.49071
1.24016
1.56541
1.56171
1.85795
1.408
1.68664
5.06099
3.5663
0.736491
0.522478
0.683961
1.63513
1.05646
1.13117
0.820963
14.5793
0.995398
1.17326
1.36023
1.05161
1.07684
1.77873
2.43384
3.30959
2.32846
10.2574
1.84152
1.60836
1.84116
4.44561
1.2499
0.725077
0.831311
0.953587
1.25151
0.466346
0.501847
0.848418
16.105
15.2938
1.12348
1.24116
0.870995
0.644651
0.558029
0.855539
0.337889
0.252591
0.579618
0.385137
1.16618
0.834482
0.958156
0.922055
4.61207
9.82796
5.50199
5.32103
5.27881
0.698652
3.74649
5.84951
0.74721
0.362437
8.62056
9.26061
6.53806
6.6583
7.57796
9.464
6.21677
7.78106
8.78937
7.00255
4.48115
11.7133
9.31676
11.3473
15.6063
4.9745
6.12452
1.26129
1.23989
0.599643
0.704534
1.79698
2.57251
1.6666
2.14329
2.07538
1.10939
1.08037
5.62772
1.15923
3.50487
12.5945
2.01579
7.89059
13.1424
11.0877
13.1896
10.2885
12.5053
11.7141
4.2392
11.7119
12.3931
0.0224524
12.8218
12.1423
12.0941
7.31817
12.2385
9.73738
9.42144
7.47124
12.1892
8.17298
12.5361
9.90622
11.8399
6.22843
10.9051
10.8099
5.03641
2.22329
5.46773
6.76166
1.26298
13.0746
1.67721
2.08106
11.7193
9.81903
15.3892
2.05691
1.1786
1.70139
1.28302
12.2247
0.816652
12.0761
11.4104
11.6811
12.1977
11.7086
11.5249
12.4224
12.0939
12.1219
12.5101
11.8052
11.7408
9.82202
11.8157
12.4189
11.7127
6.43858
12.3602
12.3124
8.87884
11.6003
11.9313
11.1465
12.5385
0.00350172
14.0968
0.463587
1.35217
4.22865
4.82094
3.21982
11.5428
1.4047
3.76277
9.08883
11.9261
5.20891
2.46736
15.6855
0.920343
1.9159
1.66032
0.959927
11.7594
11.9757
12.1225
11.5851
12.7578
11.7035
12.2322
8.74448
12.4343
11.1311
11.1538
6.44648
11.8433
9.10646
12.366
10.8051
11.8215
1.7968
15.6103
12.646
5.79218
0.520322
1.686
2.18106
8.24254
9.17729
1.37124
2.09511
1.52779
1.62541
14.2315
1.45311
12.0354
11.8901
8.17471
11.1591
10.9837
12.3277
9.43901
9.67206
7.98512
12.1434
11.2701
11.5858
1.62066
1.46746
1.63361
12.4066
15.4818
12.2565
5.98144
3.51997
2.54182
2.32398
5.02766
4.74834
1.97057
4.49764
1.12306
8.95326
6.04774
15.7499
6.56003
11.5611
14.0651
2.35959
13.5044
6.11496
2.46932
3.75434
9.90709
3.52575
2.497
5.08914
0.557626
0.82775
3.17611
0.987239
6.84438
2.95862
2.23954
2.08937
10.4243
4.9901
4.22918
9.09586
4.13448
4.02016
2.95813
5.25264
0.000989936
0.908289
1.9253
1.2427
1.44175
10.9768
10.8118
12.6727
12.7933
12.1259
11.9056
12.0336
13.2239
12.1491
9.96938
11.9622
11.9171
11.6822
11.7298
10.9144
12.4132
9.85231
10.8767
12.5035
11.3796
12.2766
6.93464
4.77103
12.0572
14.6362
9.64043
14.421
2.60376
2.37976
3.06247
1.37385
1.69913
1.6333
2.02952
1.55419
1.54045
1.69785
1.51967
11.2357
2.27973
1.39118
8.07792
9.86605
14.7169
9.55851
7.86327
9.74805
0.0320121
2.80378
3.04993
1.73953
2.22148
1.24302
1.95077
13.0451
12.2542
11.7418
12.2067
11.4054
7.62845
11.6585
11.956
11.9771
12.1603
11.9781
12.479
12.8164
12.0337
12.3158
12.2696
11.9573
12.5007
12.1311
12.1045
12.5182
12.1647
12.2194
1.74788
1.83569
3.20593
15.147
2.40169
1.52259
10.2421
11.2327
12.5072
7.4042
10.2425
12.6191
0.00753559
11.7142
15.861
11.0227
12.721
11.2342
15.7419
11.8623
11.7504
11.8281
5.06808
13.09
8.94128
9.6456
8.78837
10.5144
0.00198031
8.41904
9.37715
9.97025
9.19533
9.32716
15.279
9.38595
8.86166
9.41309
10.039
8.55668
9.35675
15.8069
10.2863
15.5026
10.0347
15.2867
7.83339
6.14507
0.776217
0.000119505
15.6301
15.7972
8.75134
10.0601
11.1983
9.80269
10.0884
9.74361
8.72626
9.36031
8.65609
9.25671
9.70068
15.9199
13.8874
9.23034
12.6177
4.2224
5.90605
7.58733
5.31527
4.18119
5.22803
3.46697
4.18709
4.71164
5.47952
2.61277
2.55655
2.09956
1.91005
2.57424
2.41373
1.64896
7.18969
1.29794
1.90661
1.41728
1.0143
1.57057
1.60453
14.5267
1.23023
0.630107
0.682028
1.21545
0.474832
1.02731
1.38987
0.956765
1.0554
1.24057
12.6934
8.05282
1.65805
1.16919
0.502161
0.499568
1.06026
0.689967
1.422
1.29185
1.2285
0.851542
2.39047
1.47947
1.13542
1.11048
1.47599
1.27846
4.38357
5.813
1.18749
2.06918
1.95929
1.01967
1.36114
1.59766
1.64128
5.48206
5.53074
5.12453
1.05029
2.40329
1.84939
1.28096
2.30012
3.3345
1.20157
1.93424
1.80055
1.67719
0.99842
1.69634
1.2382
1.24712
1.86535
1.5515
1.53871
7.1601
5.53147
6.46206
7.99312
2.26757
14.1381
13.411
13.0827
13.0889
12.8278
12.5241
0.859942
12.447
13.1365
13.6051
12.5336
8.95224
9.57243
11.4429
8.12621
12.7751
11.7739
11.7995
8.8562
12.0628
11.0972
10.6819
12.532
11.6332
11.8284
12.5622
12.42
12.2038
11.78
12.2156
11.9096
11.2916
11.7611
11.7595
8.65374
12.086
7.65924
12.2573
11.421
11.121
13.1901
12.6073
9.81603
10.6267
10.6988
10.7848
12.4705
12.6314
12.1897
13.7171
7.64185
11.7688
3.51637
13.2883
11.5647
3.33071
12.1723
12.1571
14.3364
7.05525
12.2861
5.01701
11.5348
3.32743
10.0946
3.34938
3.72042
3.49836
2.17922
12.8382
14.7695
8.21731
8.98311
3.56152
2.17339
1.79737
1.578
1.33393
1.65363
1.50505
1.79809
1.57097
1.69527
2.90882
1.52522
2.46766
2.12134
1.49241
1.81097
1.3917
1.78422
1.88925
2.39011
1.84019
1.48083
1.23325
1.63598
1.00243
1.20264
1.49498
1.23992
1.68883
7.12893
1.2287
1.89879
1.20812
1.30012
1.81742
1.17495
1.54628
2.17951
1.05289
1.16135
1.02409
0.906736
1.61632
1.22401
0.996192
0.89685
1.02878
1.81984
2.55957
1.2189
1.84688
1.10154
3.18123
4.51231
6.9168
0.329803
1.56279
0.871073
14.8722
8.19266
6.244
1.28513
9.23971
14.6034
7.29234
1.04999
1.47003
1.68526
5.23497
1.49734
11.5075
1.75418
7.51281
1.18587
2.68551
5.86526
2.54005
5.82858
5.1121
15.3943
15.5453
9.08649
10.7185
10.1034
9.23007
11.1203
1.91653
2.19935
3.51417
6.7206
2.51842
2.14976
2.45807
3.30741
1.6193
2.33832
2.00435
1.73529
1.82536
2.50981
2.02335
1.57448
2.05757
0.807523
12.0007
11.88
0.84782
0.857001
0.820348
1.54071
1.57321
1.64921
2.2795
1.07747
0.818759
17.2929
13.3412
1.28815
0.777568
0.872603
1.69823
12.7398
13.5315
0.729872
4.39344
0.559883
8.52492
8.07862
11.6023
11.8295
12.096
11.6913
12.0602
11.4316
12.8397
12.1724
10.4622
12.0151
11.6194
9.96774
12.2507
12.1575
11.8642
12.8077
4.44644
4.82524
5.17452
11.6102
6.94097
11.4036
12.3573
11.864
11.831
12.2232
11.8737
12.1247
11.9512
11.7724
11.262
11.4315
8.93784
11.2701
12.1331
1.17392
0.669437
1.00081
0.82296
0.797681
13.5248
11.8164
1.01855
15.3538
0.723497
0.479786
0.221264
0.45844
0.667019
0.7546
0.980498
0.854321
1.18648
1.30027
1.08591
11.3787
0.870628
1.62965
2.4422
15.9419
10.3671
4.28329
2.31755
2.40888
3.44458
2.20918
5.67703
1.47931
1.64429
3.02055
1.61889
1.1662
1.28006
2.37093
1.53038
1.55564
14.3157
15.1259
12.9028
14.1517
7.05493
11.9033
11.5919
8.64624
13.8302
13.9315
13.652
11.2731
11.4754
9.05216
11.8997
9.17877
5.3441
2.52034
1.4148
1.29611
1.72766
1.30804
14.6514
15.2307
12.2238
12.3101
12.2123
8.64485
13.4309
12.2881
12.1164
12.2173
6.6785
12.5917
6.57429
4.31399
6.62628
3.3596
1.65008
1.7665
1.76226
3.33476
14.0498
8.92017
0.362381
12.2641
10.8451
12.4802
12.9145
10.115
12.3062
12.4824
12.9784
12.6835
12.7716
11.8232
11.6444
12.6198
14.0247
12.4131
13.3803
11.176
12.6951
4.72789
0.828471
0.874276
2.35621
3.44808
12.6707
14.5671
16.6855
7.9598
5.69248
0.113619
0.582325
4.13296
14.3274
3.39382
14.3448
1.64308
1.3221
1.46632
1.1118
12.6436
2.24117
3.68624
1.43327
4.843
2.21022
11.6205
1.28169
1.18865
1.83699
2.3812
13.2947
14.8248
4.02714
8.27703
5.33156
10.777
12.1508
11.8235
13.2642
14.0228
13.0455
9.93336
12.7853
13.1795
11.8702
12.0621
9.22388
12.0458
5.04794
11.3817
10.2484
11.8765
0.00191282
11.129
3.70177
2.12137
0.00257167
2.82731
3.96739
3.7612
2.16818
1.76907
1.75099
1.42902
0.719097
2.91943
1.86664
1.52878
1.21261
2.64362
1.35428
2.01454
4.19319
11.4634
10.3685
15.401
9.41614
9.21575
9.29924
2.39013
3.38921
2.01273
1.80638
1.03095
0.766283
1.59369
0.805692
13.1095
12.8965
10.6107
12.5876
7.06027
11.7207
12.2953
13.1998
12.6237
12.3061
12.6138
12.0768
12.9991
12.7437
12.5759
12.6218
11.9983
11.5207
12.2077
12.7103
13.0407
12.3888
11.9381
12.6014
12.4108
1.22921
1.30017
0.980213
1.47135
6.64623
4.77682
2.62529
9.21633
15.5843
13.131
10.2382
10.1848
9.34073
8.51397
10.7637
0.0239902
9.29932
10.0647
8.3537
15.5932
9.44231
10.4518
15.9962
9.73383
9.58338
16.0797
9.52417
7.88013
16.2112
9.49006
9.55336
9.66761
8.9387
10.4281
10.11
8.70404
9.31812
15.2578
10.3256
9.599
15.6328
10.476
11.3111
13.6499
12.3084
13.5948
8.29345
15.5441
11.2554
12.2117
8.52111
17.034
12.8761
7.9374
12.3909
10.0827
10.6524
8.38662
7.10176
8.37369
8.20035
7.76028
0.082942
6.3397
0.0719297
12.5211
15.8127
4.17738
14.3185
6.90698
8.57922
5.53843
8.11209
0.00903812
5.26495
5.976
6.05937
5.89075
4.55777
0.00352914
0.00562576
7.54587
5.22072
8.1163
1.84872
0.00772238
9.8505
8.39508
7.52669
10.3025
8.43382
5.14545
5.72762
5.30536
7.14058
7.93403
0.0630808
3.10838
10.5334
5.90606
4.49853
2.1942
8.24941
0.000358516
3.71428
0.00138874
8.29767
4.45998
4.99377
8.93986
8.54911
0.321125
10.9023
6.21582
2.74095
1.37171
1.75819
12.5249
11.5487
4.51793
5.39468
6.52555
7.93989
13.127
7.30798
6.01043
12.0344
5.17409
8.07536
3.38313
5.36584
12.1767
6.94011
12.713
5.1469
5.28547
8.19427
12.2806
12.095
12.2567
11.9087
9.15613
3.22086
5.07765
5.34997
5.95419
2.84949
13.6018
8.09876
13.1039
6.66265
10.2291
12.2898
4.51372
7.70013
6.36559
0.0107608
5.91338
6.99266
5.95954
11.7199
9.84205
5.83092
8.38722
12.0585
8.49137
11.2509
11.5981
8.96783
6.23296
6.12567
2.80176
7.53896
7.77293
10.1633
11.2879
9.46186
8.73315
8.47947
10.2147
9.10564
9.68123
7.78681
2.52787
4.99391
12.37
4.17946
3.71409
6.60156
0.896924
3.37196
6.45807
8.31772
9.41794
1.14745
8.71516
14.2783
11.969
11.9777
11.8313
11.8632
11.8423
11.8295
12.0233
11.2631
10.5155
12.2927
11.3254
9.46894
12.4494
12.3147
11.9125
12.0391
12.0899
12.4859
12.3322
12.6485
11.7268
12.9021
12.7722
6.07556
5.47102
6.00988
11.1186
6.3545
12.1009
4.50199
5.45756
2.78285
6.08375
6.30903
12.3172
11.2839
12.6474
12.9391
2.31631
11.3491
2.96992
12.6526
5.98371
2.1391
5.64018
3.78872
12.1937
5.13702
2.34187
0.811724
8.55365
3.9547
5.61384
2.84903
4.84448
7.91075
4.73679
12.4796
3.66025
2.7854
2.06335
3.32991
13.4705
4.37838
4.02224
4.42669
2.22856
3.69491
3.89406
1.67876
2.21799
2.56964
3.1175
2.5407
4.70998
4.07998
2.01051
3.93118
3.47189
2.34792
4.18168
1.79321
1.78836
3.60143
2.26127
1.55897
2.05374
5.7961
5.15607
2.63128
4.79215
4.86352
3.34417
5.06419
1.49001
1.87625
1.54615
2.64675
3.00284
2.13418
5.7307
3.79403
6.09134
3.63453
1.61063
2.61038
3.76185
7.95336
4.70348
11.3826
2.54612
0.560751
13.4181
7.33119
1.56335
5.03443
2.55042
3.01343
3.16258
1.59512
11.2483
2.1927
11.2745
2.48152
2.49796
7.78363
8.03293
0.993273
5.01976
4.69969
1.64822
3.32993
14.0825
0.723555
2.58663
1.71905
10.9882
11.0012
4.10654
9.88914
3.70948
11.8875
15.35
9.90267
12.924
12.3665
12.4423
2.40464
12.6932
10.9553
9.02929
12.4826
11.4303
11.7883
12.0071
9.49457
9.98701
9.03953
10.9799
6.26683
9.76026
9.7297
11.9376
10.7874
11.7249
12.079
3.77692
11.3616
12.5768
5.27585
4.67299
11.0104
4.80573
12.606
13.0817
11.5302
3.73113
10.173
2.80664
4.63221
3.511
5.34571
7.06576
2.74802
3.87832
0.820458
0.319359
10.3856
11.9178
12.4757
5.24984
9.27457
5.28278
14.1681
1.55396
5.50976
3.71827
2.55733
2.51393
1.67578
3.92292
2.79917
2.1762
2.71165
1.56513
8.06469
1.77823
1.23001
1.23847
1.86455
4.47304
0.00209678
3.13718
5.43828
7.27035
3.25222
2.62108
8.53558
6.26223
17.3548
9.22149
1.94096
3.95105
2.05946
6.2045
3.37745
13.1053
8.75668
4.52372
3.65874
6.09843
2.53649
15.6113
14.6598
9.79303
14.7871
14.5951
5.88533
7.53602
15.8644
8.27441
8.37573
14.8075
4.99116
7.91628
14.9152
5.65019
12.0419
8.13135
7.13816
9.63502
3.53394
2.86398
6.3821
0.007189
7.81307
6.93943
7.1559
5.31802
12.6957
5.6605
9.61937
10.6064
8.43239
9.01193
5.50027
4.78606
5.49281
5.05588
4.70746
9.52238
7.87521
11.0521
2.10034
1.42363
5.34082
5.24254
10.9592
3.14936
8.34937
9.33061
12.2041
8.81908
9.75168
3.91541
10.694
9.72877
16.9135
8.0843
5.92118
10.2283
4.8146
7.34855
7.50067
7.34266
7.23689
10.9275
10.8418
16.8732
11.2847
6.59074
11.2282
4.86702
10.7945
11.6908
12.7749
15.0736
12.2478
16.2442
5.75448
14.6722
8.60161
11.5514
13.7543
9.71186
4.51914
8.38102
13.8576
7.87712
7.75016
9.49617
9.05735
7.12498
11.3478
9.53956
13.5999
12.5882
13.4308
15.1302
8.37442
9.38929
10.0458
5.13156
12.1252
14.2744
9.97878
10.6238
13.2467
11.5842
11.9943
7.48287
11.0509
7.3335
14.5542
12.0963
14.6527
8.72812
9.52896
11.7982
12.3183
9.23594
11.2496
6.36583
11.9625
10.8859
7.01883
12.091
11.8408
5.75271
9.49206
13.8506
12.1544
9.22694
13.8848
8.32242
11.3882
12.2308
12.1092
5.03422
10.9396
14.2271
13.4189
14.4083
9.60824
7.6154
8.15156
0.0300447
2.36649
0.731596
3.85532
7.71973
13.4
7.42217
6.59635
8.37484
7.30423
7.88678
8.4645
8.57584
8.93514
7.27388
6.07522
8.48615
7.84721
8.49191
15.644
9.68499
7.87135
9.66772
13.2053
6.33071
6.83617
9.16482
8.34788
9.37621
9.46893
3.77441
9.97515
6.59479
8.44588
9.01947
9.0527
9.10489
10.9433
14.4162
8.90516
8.05809
8.29371
9.08766
9.54685
11.7766
13.6308
7.02693
12.8493
13.2829
8.13876
11.597
10.5382
6.10837
12.9458
15.8223
12.2324
13.0759
9.94182
13.8995
10.341
9.05467
11.9388
11.2195
12.4439
8.62866
7.21297
5.38115
9.53841
11.3203
13.2473
8.28611
13.0121
8.39006
14.5589
14.2011
15.8043
13.2287
13.3313
13.3688
10.7744
9.25891
12.7156
10.3654
12.243
13.0688
6.58527
13.067
6.44587
7.13215
10.1498
2.40442
8.64193
11.8506
11.1143
11.9721
9.55915
10.9069
4.22798
9.56567
1.80237
14.7809
16.9213
10.4855
8.82632
11.3646
9.77899
9.01033
9.1996
16.4557
16.6189
10.8612
9.71178
13.0409
10.7506
12.1366
10.2682
9.31639
16.5422
9.54391
8.37715
4.32396
4.6624
8.82908
5.49262
11.9145
10.4355
9.91938
11.1282
6.36832
12.2589
12.1106
13.2329
10.5803
8.88076
3.71349
10.9184
12.1658
9.8198
10.8732
11.5153
8.28508
7.20511
10.5693
5.02397
10.0924
7.09642
12.8015
7.3793
12.5849
10.6831
10.6244
11.5357
7.86759
11.1258
8.23753
7.25997
7.18051
6.89003
10.0107
10.0217
11.9455
14.8362
9.69945
15.1989
9.01099
10.7786
9.80065
12.2345
8.00137
12.0584
11.6853
4.05016
8.94759
12.5508
6.4724
13.0042
8.92336
13.0733
11.9723
12.9184
13.6353
12.3115
13.6628
14.4797
13.0409
6.17809
5.36559
3.68257
5.37127
15.285
8.68708
11.0784
13.4851
13.9026
12.2815
15.3729
14.6685
14.7614
12.1841
14.2829
12.4206
15.0366
15.3758
15.5575
14.8137
12.2516
6.99496
10.6299
7.86925
7.60761
14.3892
9.06378
10.82
14.4432
14.9536
15.1884
0.599222
0.624039
0.608787
7.02081
8.96231
10.6974
6.91016
7.79031
5.8093
5.49935
3.28626
1.76942
1.50947
9.37675
8.35909
6.38216
10.0269
11.3942
13.1051
10.1317
13.6199
13.9196
8.4421
12.988
12.3379
10.5609
12.3219
10.5663
8.41503
13.0223
7.3109
8.92035
10.7562
7.57188
10.406
12.3217
12.989
10.093
13.3341
11.507
14.2694
9.92126
5.64754
8.38045
8.16588
8.99566
9.57998
9.5304
8.74326
13.3077
11.1843
11.2175
12.0829
8.55061
12.4112
9.16155
7.68598
6.68545
8.33067
12.0904
9.57133
10.1812
10.5563
11.9621
7.63312
9.52851
10.1465
10.6398
10.6782
8.63843
6.97338
9.76509
10.9668
8.39252
15.4742
10.8857
8.21992
13.1199
13.5303
9.74255
8.15516
13.8518
11.4669
13.1622
10.7869
11.2545
11.3328
10.9959
12.8555
12.2098
10.8814
10.4069
8.07179
8.95211
12.831
8.27474
4.38763
10.6144
9.64972
11.408
11.5838
14.5007
15.1015
9.09779
4.15112
12.0249
12.6066
11.8838
12.0624
10.4963
15.1039
9.05453
13.6191
12.8674
12.9247
9.34339
5.03049
13.6309
9.31384
7.57798
7.46989
6.65839
13.0963
9.16306
0.454212
16.6383
15.7176
16.4601
9.27355
12.5607
13.1301
1.91528
5.74571
9.98725
6.34821
8.52487
5.7197
8.54135
12.1007
12.4984
18.1646
1.72974
4.11256
1.54576
10.8558
13.5123
9.27292
16.7831
4.99789
4.41871
3.51953
15.1983
2.59852
3.30248
9.38244
3.90368
2.90563
3.61122
2.98577
2.79008
4.00408
3.60342
3.55533
2.56465
2.48345
2.79979
6.29055
8.77371
9.2942
3.31532
3.90891
10.6677
3.41404
4.15516
3.97913
3.97304
2.75173
5.27096
7.3024
4.95109
3.04382
3.55201
3.04043
7.98206
5.19924
2.99474
2.53586
9.63261
3.34531
8.36514
10.7718
9.48423
3.37841
10.2686
9.82436
15.2203
8.73546
2.55574
11.9533
4.82738
11.8816
12.2532
5.35202
6.77275
9.1567
3.5322
7.20269
4.90705
9.31433
3.8968
10.1387
5.67552
7.64647
13.8667
8.7127
2.89184
14.279
3.78136
3.55938
3.22107
5.14035
2.95293
3.23107
5.29997
7.53996
3.60589
9.90548
2.41466
6.25122
11.9275
7.75567
8.26358
3.33086
6.42041
8.44466
3.16252
2.77502
8.55764
2.83498
10.4969
8.85767
15.3804
12.6718
15.7569
10.8213
9.87727
10.7262
2.91494
3.80003
14.0604
3.20983
8.51822
5.62822
7.97053
15.4198
0.0176256
8.38459
11.43
15.9823
10.9922
15.2006
10.7134
4.37484
11.4355
10.2642
11.5587
14.1099
1.09668
5.87964
0.00303342
1.7934
7.7788
0.00246504
4.86922
1.67824
4.55364
1.69728
7.85023
8.88464
3.51478
12.02
11.896
10.7025
13.4477
11.7069
13.2525
11.6496
13.6462
12.0068
8.88963
3.09159
7.17707
11.0278
11.832
12.1373
12.0602
9.05779
11.9627
9.20699
8.80166
10.892
10.13
6.98557
11.9809
7.56597
11.4259
6.96233
5.24392
13.0023
12.1153
11.6597
11.6272
12.8444
11.2452
5.75872
0.882968
1.57075
10.6823
14.0295
13.7807
5.20113
7.6236
12.332
10.2328
12.3556
12.2177
3.50857
10.3392
11.4655
11.9065
8.03563
4.78493
12.0181
3.74901
7.79496
10.7738
11.8844
8.75043
9.3363
8.56905
6.57182
11.5375
6.55482
6.54967
4.72227
4.88867
12.4708
6.92656
12.3108
12.8008
4.75734
5.86065
7.50088
7.07154
9.42831
8.19485
8.72098
6.96471
13.2213
7.92418
8.06285
7.6227
4.71387
10.179
4.94598
5.30631
6.41341
12.8727
10.6992
3.53097
6.57368
5.94716
10.6178
9.04889
11.5532
8.74404
9.03288
11.8517
11.9417
7.03311
5.22335
13.025
11.2785
3.05607
12.0115
8.43378
5.72972
8.84645
2.93385
3.25915
8.35833
3.4619
3.35637
4.07335
2.5336
1.84502
4.94183
1.70036
8.54522
1.7257
8.96564
1.04769
2.96536
12.4162
2.0571
7.60832
8.06799
11.6717
6.96831
1.78017
12.5442
1.05487
3.64158
12.6708
6.40514
10.1491
6.67486
5.64137
1.52633
8.36333
1.6658
12.4762
10.5155
12.456
9.5251
9.61085
12.6198
13.1595
11.9433
7.31558
7.8294
8.52382
12.5739
8.72418
9.12161
10.3875
7.12204
9.38296
12.2194
8.94089
11.9626
10.6731
7.07527
5.39295
11.5715
8.76607
8.76547
5.13552
4.70182
4.89235
5.13863
8.78816
4.79875
3.49909
8.05837
2.79406
9.23689
8.3531
14.1516
7.67051
11.0445
5.89489
5.44756
4.31876
4.81616
3.42273
5.71547
11.0041
12.2587
2.71418
3.3881
1.15788
6.63913
3.27882
2.55111
1.59573
7.16292
2.04678
13.7542
5.04471
1.13024
4.93668
0.810989
1.54748
6.53949
2.96154
1.70933
3.92191
5.62303
6.17411
3.3685
12.4061
3.43601
6.21795
7.66705
13.1302
6.00476
3.74397
12.5268
2.4055
5.08634
2.52329
2.73837
3.79965
1.31903
3.02266
1.95687
1.15273
12.0443
1.93984
1.97481
7.30126
4.84693
3.72544
3.99992
4.84219
4.42106
2.31968
12.8996
5.09956
2.15546
3.27276
1.81977
2.89543
3.9337
1.70986
0.00563789
3.79016
4.09829
6.68387
6.36318
1.63857
2.54955
3.81535
2.82182
3.10089
2.93108
2.22111
1.75135
5.68483
4.75954
3.18904
1.79643
7.97239
2.34813
11.3414
2.04217
2.20769
1.57922
2.37154
1.31137
2.04613
2.9855
2.47234
2.71373
0.909826
1.33963
1.71683
