0.263856
0.172815
0.340657
0.178589
0.281682
0.147518
0.092059
0.102211
0.202063
0.109506
0.261306
0.193426
0.196165
0.0842491
0.024513
0.0365564
1.51391
0.0785625
1.37504
1.33114
1.44932
0.0104336
0.00850629
0.00862323
1.38971
0.0385064
0.55703
0.199006
0.00633525
0.00899832
1.61108
1.39023
1.38859
1.31401
1.49354
0.0786156
5.48931
0.845216
1.08928
0.644834
0
0.214944
0
0.353387
1.1851
0.824882
1.39898
1.28954
0
0.429848
0
0.418243
2.13623
4.27247
3.11648
2.46298
0
1.57391
2.11725
2.25875
0
0
0
0.429696
1.39647
1.28909
1.18501
0.8247
0.548934
0.844931
1.2248
1.98586
0
0.661953
0
0.502295
2.39077
4.37769
2.16189
2.17986
0
0.72662
0
1.70144
1.03883
0.769512
0
0.671883
1.3416
1.24614
0.423237
1.26971
0
1.4323
0
0.477434
1.92278
2.23237
2.36295
4.2969
1.1691
1.3108
0.600876
0.265773
0.00976555
2.37616
0
1.22899
1.0529
1.06889
1.3407
1.36542
1.37145
1.28002
2.00688
1.27537
0.634317
0.356119
1.07148
1.1747
1.37981
1.28194
1.28198
1.39104
1.05203
1.06706
1.6264
0.257426
1.03922
1.95516
1.99275
2.14344
1.83687
0.0405214
1.40322
0.568132
0.913596
0.714789
2.03836
1.78529
1.83184
1.73886
1.6775
1.7094
1.68473
1.0479
0.9537
2.37547
2.4296
0.389811
1.70729
1.81407
0.856354
1.84317
0.838909
0.714086
1.39522
0.601142
3.26643
1.24527
0.89177
1.55718
0.863813
1.72763
1.53882
1.81171
1.76784
1.15621
1.78291
1.2752
1.65281
1.23809
1.89571
1.60698
0.916294
1.18203
1.48243
1.41871
1.65014
1.23608
1.77706
1.20204
1.49757
0.975752
1.45917
1.21306
1.4367
1.19252
0.870596
1.03976
0.533876
0.984543
2.28658
1.10062
1.46561
0.923118
17.7892
6.23744
0.297257
2.5451
1.92886
1.53313
6.81991
2.67054
0.365013
1.01185
10.1429
4.2293
3.5705
1.19017
1.27002
0.820061
0.709968
0.51001
0.728852
0.809676
0.961757
0.859775
1.0056
0.901476
1.11209
0.917412
1.04752
0.873861
1.29997
1.16113
1.4375
1.6469
0.751808
1.11785
0.773244
1.39928
1.71363
1.14628
1.73561
1.31192
0.926215
0.787189
0.717293
1.02692
1.63462
1.51546
1.63044
1.43806
0.726459
1.42626
0.879416
1.40776
1.0053
0.877403
1.08805
0.891808
1.0838
0.950744
1.02239
0.852734
0.141079
0.0470263
0.782299
0.276442
0.793706
0.356716
0
0.134581
1.00816
0.336055
0.0470263
0.127694
0.829794
0.319162
0.768862
0.474693
1.13343
0.982786
0.907245
0.63001
0.560157
0.717884
1.13339
0.963483
1.21888
0.850069
0.983581
0.846069
0.875659
0.543017
1.19924
0.231805
0.115791
0.0285828
0.0471089
0.216781
1.5404
0.537382
0.200089
1.23238
1.69414
1.53896
15.873
0
5.72709
6.36583
1.30831
4.39525
1.46508
0
0.488361
0
0.162787
1.09504
0.907636
3.44504
1.52287
0
0.507623
0
0.439014
1.12431
0.809421
1.16118
1.22947
0.00567057
0.0113411
0.0181363
1.30044
0.54283
0.323335
0.195202
0.444664
1.64934
0.0354358
1.93103
0.205043
0.940075
2.22984
0.279365
0.150024
0.107946
0.0733248
0.303035
0.146012
0.25773
0.137582
1.52768
0.383536
1.06171
2.3689
0.875184
0.0162958
1.79489
0.125423
1.07306
1.15532
0.69317
0.345142
1.47879
1.2207
1.17028
1.02145
1.35873
0.793393
0
0.264464
0
0.428639
2.30658
2.2554
2.48938
0.73702
0
0.245673
0
0.83369
1.51826
1.45448
0.91161
1.37256
1.33682
1.97136
0.182042
0.122977
0.571263
0.193763
0.0654032
0.0749642
0.0149034
0.020069
0.171838
0.0941053
0.0163999
0.0425142
0.0937722
0.227395
0.204414
1.20998
1.1007
1.22822
1.4383
1.40198
0.0176699
0.00555775
1.1765
1.66241
1.17893
1.17175
0.00185258
0.391202
0
0.523145
1.36986
1.17823
1.39407
0.93846
0
0.31282
0
0.578044
0.867195
1.42131
1.18027
1.11461
0.627101
1.2542
0.0661507
1.33651
0.974112
0.344111
1.66936
1.73671
1.86709
1.5038
0.698896
0.765282
0.758319
1.17816
0.264857
0.175721
0.261368
0.15793
0.160889
0.10443
0.27747
0.179745
0.502723
1.80523
1.04504
0.970192
1.62703
1.33905
1.6272
1.26413
0.288077
0.145054
0.298834
0.179431
0.236323
0.137782
0.265859
0.148615
1.56414
1.73575
1.03684
0.750085
1.40243
1.68138
1.84826
1.0275
1.01564
1.06732
1.3011
1.31864
1.29455
1.40379
1.10039
0.00348573
1.39354
0.937815
0.811848
1.41991
0.00116191
0.473689
3.46276
1.62475
1.18044
1.17164
1.36818
1.17914
9.34944
3.50953
1.0222
1.90112
1.37692
1.22892
1.17896
1.66888
0.930371
1.68467
1.41986
1.46245
0.204931
1.36999
0.0633166
1.51209
1.41475
1.25449
0.489445
1.19028
0.595854
1.43295
1.39749
1.41964
1.2277
1.17019
1.86947
0.509187
1.18015
1.20766
1.7817
0.934062
1.18492
1.17114
1.18853
1.17165
0.921668
0.697773
0.931542
0.933484
1.39565
4.34973
1.39515
4.33112
1.08591
1.42515
1.53566
1.42856
1.01652
0.93681
0.96539
1.06011
0.971672
0.796304
0.95602
1.19785
1.80101
1.74142
1.8327
1.73375
1.39043
1.3433
1.93725
1.38051
0.426686
0.152609
1.51753
0.917256
1.83798
1.48429
0.318071
1.2419
0.724475
1.415
0.678316
1.35136
0.724485
1.38852
0.746257
1.11301
0.781941
1.27886
2.03826
0.630208
1.77567
1.46755
1.4663
0.845932
1.73844
1.72078
1.33191
1.72212
1.38923
1.34168
1.84258
1.63143
1.08015
0.98759
1.27257
1.22466
1.20414
1.25773
0.952485
1.05213
1.39548
4.27018
1.4766
1.42686
1.06261
1.42349
1.39517
4.2613
1.18493
1.17115
1.25544
0.808865
0.921115
1.11931
1.19071
1.62794
1.30002
1.1759
0.939805
0.948101
1.18071
1.20724
1.37695
0.510771
1.36768
1.25449
1.34298
1.40913
0.59737
1.12436
1.19028
