3.49216
2.91761
2.79344
4.37586
3.69431
4.0355
5.6766
3.26023
3.53954
5.53777
3.69738
3.78314
4.00418
4.51877
3.38508
6.36591
1.96589
1.36969
2.85574
3.45346
4.46729
2.79211
4.69897
4.02505
3.6252
3.86346
2.68172
3.04413
4.36544
2.31061
4.04354
4.73489
5.65372
5.83088
6.62423
3.74911
5.85636
4.67277
5.70674
6.03931
4.36974
5.97533
6.15368
6.22666
5.9048
6.66234
6.26787
5.5409
5.52312
5.20217
5.93241
4.24903
6.03154
5.20101
6.06716
4.06162
3.15448
2.59593
1.99844
5.79298
5.89374
4.57362
5.44759
6.58908
2.19601
4.06559
4.46809
6.57712
5.82572
5.4954
3.31186
2.67492
4.60293
5.16852
4.87031
6.91107
7.51154
5.2329
7.19812
5.87242
1.62482
4.0893
6.46988
3.69278
7.64268
3.305
2.76344
4.2662
1.55618
3.79027
5.7886
4.45248
4.01239
4.07192
6.14663
3.61956
1.71783
3.77897
6.21095
6.06264
5.57046
3.88801
6.43727
4.41843
1.62885
3.31545
2.48612
4.25817
4.91357
3.57562
7.60217
3.45865
4.04554
4.72999
4.92509
5.07767
7.40214
5.07071
3.76401
5.00699
5.01742
5.34134
4.09348
4.00499
6.14437
5.1522
4.40158
3.78491
6.119
6.50423
6.15334
5.66086
6.30071
5.37387
7.25615
6.42753
7.10556
5.56806
6.07248
5.34917
6.06607
6.53863
6.189
6.32268
5.32017
5.53137
6.31158
6.34939
6.59562
6.45546
5.81329
4.2263
6.47887
6.41776
6.49974
6.4506
6.06639
5.80127
5.12887
6.09169
3.71987
3.86748
5.99932
5.34137
5.57765
4.17175
2.9588
3.59354
5.62411
3.24672
3.12607
3.91488
2.96437
6.25881
5.96313
4.42151
4.52412
3.83394
6.26797
4.64041
2.96585
4.37017
3.65908
4.11244
3.90531
4.71368
3.23933
6.17665
3.68425
4.37126
6.50364
3.76012
5.83373
5.61789
6.65547
5.29562
5.91356
4.71848
6.0449
4.39991
5.52146
6.89972
6.41056
6.23173
5.50131
5.83574
5.50448
5.46713
5.62018
4.27053
6.18502
5.7201
6.24999
5.26095
5.95814
5.48024
6.0672
2.63916
3.20977
5.96795
5.90957
6.03058
5.91904
6.18988
6.45845
2.82336
3.55454
3.26023
2.13849
3.76635
3.62719
4.45262
4.58135
4.69004
3.96786
2.48285
3.98618
2.5438
2.7046
3.97959
3.67822
6.55085
4.21629
3.97641
4.43789
6.40722
5.00382
3.48715
4.80915
5.69231
3.60047
4.32244
3.53797
3.96388
2.93847
3.7534
1.02614
1.16659
3.81439
1.39149
1.35296
1.6664
1.07939
1.06168
5.37962
5.31132
6.01858
6.33827
1.5658
2.2366
6.30133
1.80312
6.11617
7.14562
1.34323
6.98612
4.25761
2.23468
5.75939
7.35345
1.09011
1.55244
0.970665
1.07586
5.84731
1.22066
1.2621
1.27154
6.71535
5.62306
6.50146
4.52965
7.17673
3.79705
6.61193
6.94287
5.58565
5.71841
7.0042
7.059
7.02614
5.36286
5.80291
5.90542
6.36107
5.98085
6.08714
5.91125
6.10655
6.00066
4.35789
4.46486
2.26891
3.58464
4.22091
3.89407
4.55473
6.91556
3.72662
5.36883
2.94929
1.18532
4.26314
6.26643
3.43614
2.84641
1.65463
2.57823
4.63694
5.18889
5.79031
5.48205
0.968112
2.96832
0.70385
6.21455
6.17642
4.63951
6.09052
5.14263
5.48133
6.10833
5.71576
5.80489
3.51675
4.6517
1.59358
2.12497
4.55259
5.62058
4.34961
5.25789
2.05832
6.62767
2.12098
1.32505
1.97472
5.62639
3.95538
1.87486
2.52442
6.20893
2.60884
3.08743
3.69559
4.51741
2.11881
4.2778
3.9497
4.77878
5.28964
4.08551
7.03875
3.97205
6.93109
2.62539
1.8825
5.55558
4.70113
1.50776
2.21603
5.73538
1.24425
0.56089
1.15903
1.0364
1.6385
1.19333
4.25301
7.20626
0.856587
0.854256
5.61269
7.35411
4.89528
5.07387
3.54613
5.90309
5.82673
6.77495
5.33964
7.50145
6.72107
6.34329
6.27081
5.91849
5.15239
7.15709
0.985631
0.977178
0.791619
0.911072
6.15591
6.77622
1.47315
1.17906
6.24711
6.86475
4.96536
2.23546
7.09306
6.84992
4.72442
3.64241
7.06226
5.47416
6.69127
7.13501
6.81012
5.22846
4.90819
6.00276
5.75502
3.71161
6.00777
3.89256
7.12924
3.89855
6.85874
4.26085
4.39473
3.90629
3.61055
3.25607
6.66358
6.77553
4.05465
4.33132
6.50824
6.99371
6.81121
5.04295
1.07081
6.92531
5.97826
6.33939
7.03035
6.99008
7.05549
6.71233
7.48614
7.60802
5.65168
5.30769
7.06621
7.047
5.99988
5.45193
7.49168
7.54259
5.72545
6.90957
6.4747
7.19606
5.67075
5.55692
1.11973
6.20969
4.87852
5.02431
6.36001
4.02438
6.0278
4.38774
5.97951
5.31488
3.31988
3.26185
5.68538
5.7148
4.82645
4.48678
6.34072
5.94582
4.61265
3.57977
7.27939
7.20452
5.04157
5.71079
7.28056
5.20495
4.88556
7.12444
6.30431
6.45102
4.94508
6.07109
7.13854
5.87389
5.26356
6.9153
0.73409
1.42308
1.75295
1.23784
5.68739
3.36764
0.966581
0.926727
3.77846
3.65278
5.07393
4.12462
3.89694
2.72112
1.69985
1.73386
5.55214
5.71791
5.85185
5.70057
4.36833
1.91235
7.13869
4.86813
0.998862
1.3162
1.15298
1.05471
3.34681
1.26203
2.34468
1.35172
2.03988
2.00463
4.36237
6.02687
2.77588
2.46854
10.0613
5.13408
7.20992
3.27136
6.77713
4.51934
6.72247
6.94422
5.30863
4.65532
6.13382
3.1236
2.08565
4.32753
4.31178
3.43662
2.11903
3.44135
3.31519
6.38731
7.796
3.26877
5.78327
5.57047
3.12098
2.30314
5.94393
5.95141
3.12774
4.98829
6.41315
4.96815
3.05907
5.65921
5.37305
6.60673
5.62366
6.24251
1.60202
5.99803
5.62353
4.98254
4.61578
5.50393
1.03538
0.603309
1.47767
3.98514
7.062
4.77524
1.59599
6.86113
4.31851
1.02239
4.47932
2.3674
7.1451
4.269
3.239
5.63395
2.79916
5.32677
7.16524
6.01201
4.03659
3.53489
5.65706
6.75841
3.76929
4.34104
4.32855
3.91421
5.04536
4.30298
5.6057
5.70271
5.68068
5.96885
6.69465
5.55385
5.41656
3.56535
6.77185
6.93738
6.59976
4.04847
7.06784
3.79516
1.38188
3.87198
0.962894
0.633689
0.788194
0.39071
0.486844
0.470358
0.591811
0.692263
0.401544
0.435195
0.431576
0.389515
0.558458
0.435762
0.48008
0.398069
0.29718
0.454498
0.566344
0.347834
0.386532
0.375408
0.5543
0.634604
0.827824
0.715038
0.715428
0.636364
0.476438
0.464746
0.594462
0.484173
1.10152
0.855012
1.06773
0.935158
0.714655
0.760587
0.997835
1.20786
0.794704
0.991198
1.61039
1.39036
0.623876
0.855482
0.925193
1.34519
0.434391
0.625682
0.527843
0.545668
0.653734
0.323873
1.06482
1.03106
1.33251
0.596885
0.769638
0.803474
0.665137
0.712269
0.631605
0.584095
1.33091
0.932415
1.91612
0.769403
4.55062
0.836886
3.87024
3.33429
1.39547
0.387459
0.584259
4.31752
0.918413
0.601029
0.788536
0.839967
0.634136
1.84695
1.03895
1.99667
3.57704
0.7168
4.62713
0.889105
2.77337
1.18776
5.16185
1.75334
2.58609
4.61111
0.934697
2.37149
0.900682
0.701503
0.63217
0.478876
0.569822
0.480473
0.478536
0.689959
0.350614
0.469715
0.617556
0.543805
0.603876
0.454856
0.341659
0.391693
0.527149
0.508614
0.54323
0.391821
0.582899
0.57589
0.643313
0.470194
0.813291
0.842208
0.637625
0.797302
0.490667
0.576925
0.411782
0.641248
1.00165
0.783501
0.48281
0.508546
0.495528
0.78425
0.778491
0.717259
3.48909
0.61031
0.505923
0.467873
0.408502
0.369642
0.500498
0.409519
0.371129
0.361289
0.412407
0.44788
0.562645
0.534356
0.711756
0.50575
0.98245
0.749159
0.858466
0.728546
0.717257
0.696788
0.517051
0.625825
0.90785
0.797031
0.512844
0.446053
0.492943
0.472128
0.579377
0.580067
0.351872
0.446274
0.38541
0.498044
0.479654
0.381183
0.559933
0.362263
0.575626
0.236785
0.557602
0.246144
0.608218
0.357266
0.508309
0.491941
0.816176
0.690346
0.660381
0.749529
0.53983
0.398344
0.730118
0.432845
2.13249
1.15331
0.752481
3.74561
2.59124
5.51291
6.7234
7.37793
0.636739
1.88633
4.71296
0.891196
3.92457
2.08245
4.58197
2.17226
1.39981
2.08813
1.08519
1.06053
3.80033
4.37762
5.57807
4.34174
1.32974
1.82324
3.45592
3.34226
0.729138
0.830839
1.91697
0.765576
0.784028
0.632168
0.552487
0.578197
0.542045
0.609072
0.821784
0.842215
0.568419
0.605583
1.35393
1.37206
0.515024
0.425247
0.468472
0.222529
1.52131
0.903854
0.761794
1.29296
0.721122
0.664037
1.27179
1.19764
1.39891
0.931847
0.929109
0.969098
0.7844
0.539693
0.777252
1.88604
1.29305
0.635186
0.388653
1.18623
0.873766
0.730656
0.394051
0.384536
0.696407
0.787532
0.65946
0.317946
0.41945
0.413749
0.467614
1.20972
0.499314
0.563585
0.622262
0.583028
0.986374
0.603856
0.674756
0.441499
0.375861
0.432763
1.58373
0.642683
0.464026
1.01043
0.43398
0.262615
1.97363
1.91168
0.617497
1.5303
0.770952
1.4008
1.15035
1.84719
0.853306
0.930495
0.918936
0.920681
0.858938
1.19731
1.20754
1.46027
0.839086
0.712532
1.01381
0.725455
1.0151
0.805103
0.61728
0.44247
1.74764
2.04756
1.05164
0.400302
0.46993
1.24962
0.493663
0.495176
0.925777
0.438703
0.661215
2.19489
0.791915
0.479092
4.13596
0.719636
0.694859
1.74958
1.57758
4.50566
1.84665
0.528
1.63014
1.9275
1.16696
1.78538
2.39242
2.02052
3.31049
0.722328
1.71999
0.789881
2.35348
2.82231
3.51305
3.99257
0.630294
2.24568
2.27263
2.28764
1.67351
0.510648
1.08059
0.851857
0.881084
0.804866
0.694062
0.603178
0.50604
0.526555
0.58048
0.787109
0.658728
0.81686
0.788248
0.532899
0.404087
0.972802
0.753837
0.730803
0.702019
0.879902
0.593429
0.759977
0.429374
0.695393
0.677165
0.645275
0.890711
1.0927
1.11868
1.05056
0.567724
2.48186
1.42531
0.82018
1.35776
1.06317
0.572896
1.52763
1.13716
1.00767
0.653699
0.70672
1.57488
1.2489
1.13632
1.29391
0.599621
0.501543
0.949954
0.424364
0.674334
1.15361
0.654053
0.740408
0.330175
1.76671
0.549523
0.487134
0.916392
1.31434
1.42849
1.42216
0.679556
0.456319
0.442355
0.342028
0.534601
1.04622
0.743175
0.705563
0.516023
0.566227
0.632119
0.477316
0.593623
0.8069
0.603087
0.564117
0.806826
0.539672
0.639655
0.3893
0.434709
0.530912
0.965347
1.32843
0.662178
0.624478
0.509897
0.41985
1.03752
0.871632
0.301386
1.03819
1.94191
2.86992
1.72846
2.20324
2.73357
2.5622
3.2308
1.86868
1.70974
2.35612
4.67503
2.03945
3.35796
2.10657
2.38374
2.35324
0.942745
3.48463
1.63266
1.92932
1.40909
2.31425
1.5814
2.06984
0.978574
1.96719
4.60584
4.1406
2.43096
0.479542
0.775028
2.19669
0.474095
1.7811
0.422797
0.519625
0.61974
0.821234
0.447678
0.374176
0.489375
0.694282
0.655137
0.669813
1.64814
0.804747
0.575309
1.233
0.865857
1.16277
0.970453
1.54042
0.883209
1.13631
0.829409
0.659948
1.46683
2.12973
1.27656
1.38664
1.17757
1.73543
0.548279
1.30263
1.38253
1.48121
1.40106
5.48361
4.91479
1.40431
1.28272
1.40376
5.88101
4.36758
4.70779
5.08023
5.49485
6.72946
6.24278
4.29661
0.963298
2.55586
3.62433
1.80745
6.84321
3.88641
1.75359
5.46413
1.11938
1.19765
1.35625
1.30882
3.15385
5.14909
2.26268
1.45119
3.55217
2.10805
7.55117
4.24688
3.39657
3.93926
2.24444
1.54269
4.3611
5.8519
3.75743
4.21134
4.48544
4.65368
4.06262
3.13868
5.81298
3.09601
4.24433
4.29199
2.00726
4.04371
6.06558
3.45384
1.4601
1.24735
1.05835
1.73027
9.64416
3.00389
4.26048
1.81131
2.41875
5.43183
2.8482
4.65199
4.84566
5.88058
5.00161
3.25823
3.54315
5.07254
5.2916
3.38476
3.54579
3.72344
3.81627
5.48263
5.91157
3.33442
4.65543
3.42821
4.00994
3.67075
3.68279
3.33808
2.10521
4.19705
3.51471
4.89156
5.69592
4.48849
3.22
3.6101
2.44282
1.07078
3.14662
5.51655
5.17433
6.47608
1.11478
1.06777
4.58965
5.34173
7.23476
6.87382
6.52689
6.28894
4.56758
6.62775
4.63145
4.48298
6.82094
6.64839
6.57959
4.41875
4.97064
4.70347
1.40864
1.14387
1.02486
1.01804
1.61832
1.24524
5.0246
5.30727
1.57662
1.31276
4.53261
5.97527
1.78035
6.55669
1.45035
1.28872
5.03592
5.66038
6.67408
6.05196
6.44011
3.89866
3.16859
2.57399
2.46307
4.8494
2.79628
2.59047
3.1657
3.43395
6.99999
5.67676
1.57916
1.10578
1.36697
1.32592
1.78741
6.65198
4.26479
5.81731
1.15317
1.17474
2.26356
1.42321
5.31765
1.24355
1.16387
1.31018
1.08647
4.56722
3.79518
3.92522
6.77865
6.5483
3.44022
1.79595
6.23778
3.10243
6.01872
4.41798
5.13728
5.96455
5.6151
5.58372
1.27326
1.31929
1.28556
1.46039
4.7278
1.5724
4.72432
5.09774
2.97025
4.15953
3.18908
3.61026
4.72141
4.34473
3.55657
7.10234
2.71182
5.46534
3.54568
7.26231
3.60349
3.61311
4.67287
3.29421
3.47657
5.4202
4.90244
6.67872
4.72585
3.93923
5.66049
4.57812
4.38465
5.20036
4.33044
5.67758
6.44612
5.87828
2.85261
4.5556
1.17525
1.25919
1.68476
1.89826
2.55401
2.11009
1.85089
1.62028
4.53162
4.81138
1.04791
3.79458
3.52916
5.27903
2.82706
3.87398
1.72606
3.49122
2.72905
3.67832
4.30474
4.3969
4.04448
1.01629
1.78945
3.54801
1.68151
1.68572
3.35511
2.74163
3.19483
3.86581
7.30399
7.67
1.36992
3.8134
1.29052
2.1742
0.751168
6.91176
5.33367
6.65554
2.29992
4.47864
4.20678
6.86112
6.87258
7.0238
4.52361
6.42828
7.196
4.76305
1.83542
4.67591
4.7844
6.69044
5.26134
1.42859
5.58794
0.810708
1.04303
0.99894
5.03898
0.970334
1.33492
6.41401
4.59136
2.65958
3.41107
3.91189
4.15066
3.0622
5.91961
4.47626
4.44796
3.75039
3.82654
3.52386
5.1554
4.68339
5.04998
5.02618
4.59384
4.73541
4.51264
4.44197
4.25252
5.60905
6.68726
5.31647
7.14533
7.24803
4.20988
4.39408
5.05872
5.14988
0.957755
1.08019
1.38071
1.24359
0.883944
1.00498
0.789716
0.891356
3.38409
1.4758
1.46673
1.32221
1.23619
1.02302
1.45571
1.36251
1.88452
3.61215
3.82997
3.8957
1.02575
1.10358
1.33977
1.15931
0.850125
2.55161
0.795455
0.747267
0.893968
0.874854
1.31845
1.00623
1.22362
5.05013
4.76062
7.11982
0.863962
5.14711
1.3525
5.49508
6.90588
7.0347
3.69575
3.37998
3.33024
3.33578
6.47265
4.56417
1.62475
3.43332
1.57436
4.54669
3.95463
2.92736
2.95833
2.95308
1.21592
2.29838
4.09982
2.51863
4.321
2.47314
1.4783
2.10557
1.45034
5.21566
5.01911
7.05847
4.33927
4.08693
7.14642
4.57534
7.10693
6.46116
4.37458
4.33674
4.26022
4.391
5.15397
6.89243
5.99782
4.10801
5.09668
4.50041
4.03111
3.60893
3.49196
3.71108
1.29796
2.56547
4.45239
4.19455
3.76016
3.48335
3.90213
5.06818
5.70787
1.16064
5.37964
1.00498
6.11312
5.79293
3.33416
0.935884
4.70108
6.82616
1.31214
4.72113
2.28628
1.29668
6.91578
6.52046
5.5123
6.80997
6.91049
7.00711
4.51461
6.89181
6.63602
6.72358
2.74344
5.10977
0.871036
6.81771
1.27413
1.33746
6.26071
1.39247
1.2832
2.79431
1.79887
5.35669
4.1785
2.50828
3.67915
2.56771
2.10999
4.60353
3.23663
2.63756
3.92606
2.44524
3.89101
4.01864
1.20514
6.88739
4.43801
4.09146
4.137
3.05182
3.4917
3.55146
5.18809
5.05034
1.35247
5.6504
3.29284
5.1696
4.75457
7.12965
0.806967
0.821629
1.21553
1.00157
0.877541
0.843184
0.831371
0.76016
1.89333
3.5766
1.48969
1.21287
0.993646
1.08629
3.50474
3.87788
1.61851
1.43762
1.44196
1.30211
0.972435
1.09818
1.46235
1.29342
0.960148
1.14562
0.677826
0.947351
0.898731
1.15464
1.37505
1.22456
4.50794
5.60688
5.72132
7.17539
8.20483
6.16711
7.71766
4.74399
5.72785
1.74962
2.03586
2.71014
7.76126
5.38362
3.34953
7.45438
6.77979
5.57958
6.36962
7.04076
5.85069
5.48842
6.43684
4.06131
7.80449
7.48063
7.09684
5.10155
5.25028
7.56047
5.06844
4.72067
4.49231
3.81411
5.5314
5.40083
1.90822
6.1359
2.60609
7.40587
4.9131
4.72027
4.85345
3.06507
4.3714
8.08212
8.12921
4.89342
4.76485
4.86244
4.62342
5.82208
5.50098
4.97519
5.57968
5.0662
4.88783
5.58234
5.23032
1.85324
4.50884
7.26438
5.36954
7.04102
5.5927
7.23531
4.02849
4.56753
7.00772
6.78435
5.69898
5.36797
7.13495
5.15781
5.35342
7.00328
6.08157
4.56283
3.75997
2.93929
3.76156
5.73295
3.95814
5.54349
1.15225
3.76802
3.3892
4.39986
3.68766
6.37142
1.77242
5.59579
2.79025
6.86161
6.76018
1.63605
2.17555
5.00547
0.893299
1.67381
4.81242
6.95413
1.23618
7.06344
1.35785
6.82038
6.88063
6.22746
7.11373
7.12723
6.94035
6.66832
1.35785
1.55406
3.88204
4.18778
7.07561
7.08468
0.68493
2.28923
2.06247
2.65402
3.97187
6.76697
4.55336
3.76798
3.47537
1.77235
3.63358
3.22711
3.8446
3.92868
6.21254
5.81187
3.79941
5.79501
4.56455
5.73307
5.37497
4.32197
6.99471
6.741
7.02825
6.8683
4.48927
7.21859
7.07582
5.37985
6.68644
7.01341
7.15612
4.56821
4.46312
7.20978
5.36461
5.27655
1.0015
5.85912
7.59464
0.915544
0.877532
0.949713
0.830031
0.853046
6.76791
1.28411
4.5863
4.5697
0.978085
4.61492
5.47349
1.1977
5.97879
1.31478
5.45818
5.29297
0.96291
0.943295
1.1271
1.85181
0.850939
0.794157
0.844596
0.863922
0.874298
0.901786
5.14921
0.945139
5.92464
6.98537
6.68894
5.88739
5.79112
5.14554
6.0122
6.40869
6.60735
6.59987
5.83237
2.2558
2.50282
6.73173
0.995432
2.28358
6.42265
1.31918
1.18359
7.28675
3.71092
7.87079
5.16505
8.14203
1.14304
6.16826
3.0445
1.64744
0.741173
0.403746
0.385356
0.613681
0.677317
0.323256
1.38186
1.16307
1.69663
6.20049
1.58653
1.12974
2.20741
1.57872
1.32089
1.66787
2.17192
2.33279
3.52379
4.63458
4.49208
2.71237
1.96367
2.05189
4.30402
2.47427
2.71112
2.668
1.84746
2.07933
1.78579
3.8367
1.01707
0.729691
4.07017
4.14303
3.53184
3.86733
3.53667
0.480228
3.79316
4.38092
4.13344
2.72172
1.03373
4.424
1.18663
0.929778
1.1274
1.46405
0.58582
0.629779
0.616553
1.01908
0.950242
0.895852
0.461905
0.441468
0.579765
0.789361
1.47162
0.806762
0.31829
0.683577
0.455213
0.49634
0.461771
0.558029
0.463123
0.34572
0.850883
0.672902
0.733474
0.557286
0.388875
0.544772
0.586745
0.529314
0.78359
0.557742
0.608632
0.783798
0.669467
0.826714
0.246073
1.30683
0.713584
0.436659
0.536455
0.537109
0.502019
0.638983
1.05044
0.676909
0.779191
0.47988
0.714118
0.752504
0.816983
1.08191
0.462752
0.564199
0.779285
1.41381
1.43272
1.58038
0.750994
1.19187
0.904536
0.763539
1.70691
1.54645
1.82741
1.84541
2.47213
2.37324
3.23437
4.24778
1.08635
1.17599
4.41703
1.3313
1.88189
2.1663
1.60616
1.47952
0.606364
0.546232
5.62961
3.15505
4.1979
4.24625
3.63608
3.44043
1.9126
1.07238
3.45883
3.27948
1.20564
5.74341
1.32111
1.53352
0.210393
4.09958
0.181593
0.328446
1.02617
0.174158
0.849108
0.149461
3.11556
2.6543
1.40598
0.800232
0.609256
0.658452
3.58615
2.21713
0.856427
0.83367
0.5846
0.956118
1.64829
3.68441
0.983608
4.51182
0.224747
0.125779
0.171612
0.163081
0.373625
0.290901
0.445963
0.311969
5.91577
0.870039
2.88409
4.20824
3.7049
0.459901
3.99503
3.93284
2.38522
5.07981
0.435791
0.0464432
3.73346
0.256618
2.5075
4.04148
0.308802
0.0468788
2.52318
0.298304
3.58354
0.328446
0.156293
4.38714
1.44688
0.735541
4.06664
6.45949
0.357194
0.513292
0.369928
0.473578
2.8353
6.26649
2.3315
4.60864
0.619011
0.648538
1.70074
2.58942
2.30371
1.57283
0.438166
3.74305
5.83627
4.69757
6.23342
2.44715
0.404038
0.212804
0.369625
0.309043
0.271859
0.279036
0.0442152
0.158454
0.912928
0.835108
1.17207
0.953463
0.77847
2.78956
0.5309
0.669703
1.70734
2.20143
2.42881
3.17938
3.02558
2.55128
1.82132
1.84175
1.19367
1.07517
1.47974
2.05941
5.73584
1.29093
5.6429
5.79087
0.593702
1.0743
3.67382
3.50722
3.00661
3.21357
3.26859
3.21365
1.1433
1.15596
4.87114
3.76804
1.97235
2.3536
4.30951
1.32931
0.783903
0.558
1.05361
0.771774
0.667044
1.00141
0.860769
0.862209
1.46501
1.41488
0.835026
0.760008
0.65994
1.15776
1.43546
1.44099
0.713975
0.505613
0.537208
0.567865
0.82549
1.10289
0.869119
0.663937
0.762357
0.460151
0.527559
0.565091
0.712106
0.485879
0.446674
0.739552
1.29263
1.02665
0.73629
0.815643
0.494504
0.518165
0.98564
1.46476
0.844434
0.742909
0.585179
0.690837
0.583656
0.528079
0.833455
0.858968
0.299897
0.543047
0.459
0.295695
0.458024
0.336506
0.576458
0.49283
0.866739
0.905069
1.41861
1.00164
0.575958
0.733723
0.464556
0.458664
1.45368
0.534943
1.10524
0.782333
5.88052
4.44718
3.80126
2.82434
4.4783
3.97369
3.41489
3.66109
4.3003
4.12206
0.810615
4.67579
1.97897
2.04993
1.61096
3.59319
2.71988
2.6791
3.90781
2.47766
1.33998
2.14291
4.50175
4.02748
4.19552
4.46491
2.22149
2.34352
6.46557
3.01697
6.54995
2.31381
0.935046
2.22299
6.44998
5.70592
1.48799
3.0162
0.539195
6.40153
0.962839
1.21799
1.56709
6.25722
7.40908
1.75547
3.79352
0.423548
0.646238
0.605243
1.55622
0.402335
6.87752
7.20647
0.936548
5.59682
0.573202
5.99478
0.601047
7.79772
6.43096
1.36414
6.49187
3.02802
0.551646
5.93368
5.67756
5.32525
6.4607
6.00172
5.71559
6.02046
0.449997
6.09178
3.9073
6.25895
6.33919
7.57154
3.07626
7.50764
0.249902
6.36381
5.84395
6.84794
2.98145
7.73364
6.49916
6.71214
5.71885
6.60228
8.44106
7.61629
2.55746
2.6687
2.83859
2.30311
5.56165
4.25058
1.9536
2.68854
3.08767
1.84208
2.17764
5.62834
5.71785
3.31987
3.25469
3.06478
0.975694
3.02384
3.14393
2.23076
1.93578
1.84304
4.28812
3.67623
4.07612
3.86109
2.34149
4.06124
4.83529
3.84002
5.02705
3.64775
1.82612
0.828746
0.896054
2.88645
0.507305
0.765399
0.832424
1.00676
0.954737
0.857736
0.346797
0.482037
0.596641
0.653036
1.96559
0.891684
0.418854
0.398517
0.593897
0.409699
0.457879
0.482565
0.366927
0.408614
0.724151
0.262452
0.315845
0.343718
0.402348
0.349972
0.689284
0.627827
0.860412
5.01271
0.817798
0.959277
1.23636
1.10833
6.12667
5.59792
0.572172
0.510972
0.951877
0.700478
1.01976
0.836277
0.674997
0.671549
2.0316
1.46015
2.90665
1.77223
1.08523
4.94552
0.776652
5.00967
5.88864
1.52381
2.18493
5.19486
1.24166
2.30348
4.12334
1.32855
4.57981
4.68443
4.41998
4.1842
4.08866
1.17583
4.85436
4.71383
5.38819
5.12783
0.510551
2.26032
3.75933
0.72041
5.77769
2.93656
1.9371
4.74983
3.25996
4.50922
3.59981
0.634107
0.508825
2.26032
4.71939
4.77278
4.83078
1.42578
3.98039
1.25787
3.88703
4.25504
5.84234
4.20065
3.83804
4.38525
1.97778
4.65507
4.71509
1.44524
2.3555
2.18544
1.31606
1.35215
1.84258
2.22126
5.92554
2.64457
0.729344
0.519506
0.694677
0.709049
1.03701
0.900849
0.86728
0.714148
0.886317
5.92022
4.71427
1.3175
1.13992
1.17077
0.837137
1.13679
1.31121
0.962035
0.920974
0.986124
0.513821
2.53692
0.896237
2.106
0.564629
0.277522
0.704143
0.64456
0.351577
0.362842
0.445045
0.451881
0.433536
0.403724
0.386297
0.417958
0.340032
0.490539
0.606219
0.425046
0.697428
0.666319
1.11708
0.750079
0.45738
0.666044
0.353053
0.486863
4.27797
5.1061
2.96722
3.4168
2.11907
2.9222
2.06072
5.41957
0.7941
2.97052
4.06414
3.65565
1.92623
1.83058
2.23301
2.22909
4.66236
1.29203
3.07155
1.49387
4.54481
3.29262
2.16159
5.42859
6.17166
2.23068
3.25087
3.41979
4.58354
3.96767
2.07582
2.23756
5.46939
4.8194
1.5654
4.70771
3.13742
0.941833
1.17057
3.65403
4.47446
0.740867
0.553434
0.731211
4.20221
0.887763
0.964986
0.81192
0.849412
1.0701
3.29032
0.790452
3.91232
3.68877
0.483935
0.826847
4.70275
1.31946
1.147
4.4941
0.892748
4.73829
1.21127
1.07756
5.26637
6.87935
4.38011
5.67208
3.89281
4.20071
5.94156
5.16803
1.20343
2.2479
2.83559
2.45092
3.38761
3.25463
2.70403
4.41427
1.22988
2.24741
5.96739
5.38945
3.88918
3.97559
2.8585
2.41987
5.2313
4.85908
6.1997
4.87338
0.933994
1.11425
5.07544
5.99253
1.42137
1.29883
1.21261
1.04465
0.777821
4.82727
1.11281
5.03112
1.97789
0.562356
1.17886
2.64168
0.642969
3.85066
3.28171
0.762311
0.49517
0.929431
1.0692
0.977882
1.36844
1.12835
0.466317
0.729947
0.767189
1.03106
1.83346
3.90992
1.23642
1.36932
0.701853
4.16877
0.538161
0.548628
0.64724
0.698419
1.00556
1.01384
0.803963
0.585713
1.10298
0.857463
1.12426
2.87263
0.876597
0.973356
0.95514
1.72939
1.90194
1.44143
1.55386
1.13575
0.915308
1.31333
1.36241
1.19077
0.978569
1.70717
1.36374
1.33938
0.998801
1.34641
1.56997
1.62156
1.34104
1.70204
1.95781
2.02292
1.95218
4.02636
1.66096
2.04274
3.85925
3.72504
1.46733
1.98757
2.11669
2.38938
1.62528
1.83888
2.16669
2.29969
3.63702
1.05092
5.1202
1.29531
3.30662
1.59588
0.973329
1.96522
1.43423
0.788326
1.07022
0.939659
3.36244
2.12114
1.56368
1.41079
1.037
0.965621
1.27464
1.65786
0.836579
1.11542
1.80437
1.43554
2.00685
2.14901
1.8491
1.80449
1.50201
1.22432
1.4502
1.13162
1.01806
1.05452
1.03684
1.19319
1.14017
1.58098
0.689694
1.03346
0.962901
0.964501
1.26239
1.1663
0.848787
0.858463
0.792269
0.82104
0.892227
0.880388
0.834857
0.805036
0.981571
1.19332
1.15189
1.00624
1.30388
1.25901
1.01503
0.916847
1.04735
0.969727
1.19111
0.951348
1.60657
3.42695
1.01358
1.00679
1.17299
1.14768
0.457578
1.08507
0.648094
0.80549
0.762581
0.974071
0.975369
1.04427
0.630051
0.84905
0.944708
0.977753
0.972627
0.797519
1.16202
0.866331
1.28808
1.21713
1.21053
1.39383
1.03473
0.941239
1.04598
0.89041
1.21469
1.37749
1.46831
4.6429
0.896951
1.11998
1.17784
1.13995
0.916212
0.756173
0.762865
0.883261
0.873159
0.932605
0.935617
0.912502
1.19423
1.12336
0.632654
0.95127
0.857675
0.875735
1.11822
0.861659
1.41479
3.6033
1.13545
1.26175
1.10847
0.920839
0.795262
3.96178
1.21169
1.01718
1.09979
0.967641
0.924228
0.939083
1.30968
1.0665
0.842484
0.81986
0.890332
0.918174
0.788515
1.0038
0.975769
0.889836
1.5616
1.34973
0.869896
0.992862
1.19357
1.21002
0.950381
2.11978
0.794816
0.787898
0.846292
0.914896
0.948262
1.0022
0.977956
0.962046
1.12993
1.11987
2.88515
2.22562
0.977073
1.3441
0.974999
0.982037
1.80422
1.43677
1.50188
1.22378
1.64862
2.09666
2.13985
2.25365
0.849482
1.96433
3.35139
0.865471
1.06924
0.939057
2.26868
0.787823
2.16537
1.38246
3.29485
1.59428
5.12965
4.55207
3.61921
1.05091
3.73868
3.85488
3.40044
5.32537
2.40344
2.55033
2.67417
2.23882
1.74466
1.04208
2.33199
2.13217
1.38709
2.40498
2.5175
2.00343
1.12937
1.29541
1.78722
1.18831
1.03061
1.17252
1.04068
0.816401
1.97425
1.36321
1.27046
1.09825
1.24803
1.65449
3.01123
1.48594
1.12544
0.812142
1.37386
0.866834
0.908843
0.760387
1.20936
2.65106
0.790478
0.601924
0.599
0.553128
0.864861
1.01298
0.652298
0.669703
0.814323
0.615334
0.965141
0.937821
0.771301
0.921499
0.603743
0.617115
0.972083
1.32459
1.29097
5.79858
0.997335
1.055
0.91962
1.80847
1.22392
0.969611
1.03317
1.03501
1.00824
1.48697
1.30134
1.33619
0.637101
0.565127
0.766124
0.803491
1.49385
1.31481
0.833571
0.64068
2.74436
3.09285
3.19623
1.97599
3.77843
3.2457
1.39342
4.85827
1.52639
4.17485
2.74104
3.07886
2.82147
2.90273
1.90639
1.49944
3.18801
2.28118
3.64337
4.55723
3.20825
4.01186
2.28736
2.15262
5.22934
2.98957
4.27967
2.9186
3.95516
4.45996
5.11653
4.68895
0.720751
0.489871
1.51315
0.529111
0.325398
0.448167
0.319194
0.395284
0.931912
0.679911
0.474521
0.452939
0.313581
0.45521
0.453152
0.591379
0.27593
0.22909
0.403304
0.318525
0.24409
0.258632
0.370579
0.268288
0.353052
0.258898
0.313803
0.272739
0.314412
0.307625
0.263347
0.226428
0.573791
0.613002
0.422838
0.504961
0.37722
0.472997
0.520628
0.670365
0.165201
0.153914
0.315653
0.302249
1.47562
0.430102
0.465592
0.504751
2.24915
0.881872
3.47523
3.18753
6.33128
3.28127
5.88655
6.41651
2.53518
5.02739
5.42301
5.16488
6.65053
6.35369
5.68591
5.70093
2.63463
5.553
5.65393
5.30034
0.269399
4.18332
0.511725
4.45715
5.28854
5.21953
0.0821777
6.52816
6.75331
6.63065
6.39228
6.39322
4.88462
6.61326
6.29398
6.33294
6.54865
3.7066
6.86201
0.115043
6.1225
5.35553
0.558142
4.72431
0.512726
0.317372
4.84967
6.00737
2.22725
1.76851
3.19314
1.67082
6.39706
0.511683
0.684308
0.582146
0.0816395
2.14144
6.6206
0.259665
3.75279
0.964909
0.135151
3.39182
0.166256
0.110803
0.233845
0.25128
0.591197
4.02812
0.197039
0.31374
0.578868
0.628842
0.543311
0.687599
0.396075
0.426937
0.43814
0.517778
0.718322
0.739
0.320757
0.397556
0.316678
0.376732
0.288974
0.375872
0.368249
0.366149
0.274961
0.235229
0.157984
0.303493
0.332638
0.286029
0.288625
0.202026
0.37213
0.270876
0.247649
0.263569
0.349593
0.331914
0.691759
0.691087
0.461179
0.530181
0.325357
0.466656
0.482723
0.442077
1.1659
2.73676
3.6227
1.59959
5.39588
3.34553
4.26694
2.86963
5.0775
2.25753
2.2784
2.13624
1.94152
4.11311
3.00005
4.59915
1.87462
3.78076
1.42223
2.60622
2.87047
2.91546
3.04566
2.69163
2.68688
1.40152
1.9123
4.74676
3.66527
3.01908
2.69365
1.23509
0.610212
0.444213
3.37818
0.389284
0.271081
0.328548
0.430271
3.98392
0.755772
0.787183
4.40538
3.82773
3.20375
2.97732
3.37556
0.706608
1.66003
2.90192
0.916568
2.93822
2.5648
0.388236
2.87668
1.45688
1.07885
0.88469
1.47639
1.03918
3.40937
0.240004
0.391356
0.527939
6.0543
4.23572
4.94611
2.33094
5.28987
0.151479
3.27792
0.27286
4.23768
4.13942
3.51458
3.36667
3.96301
5.02368
4.08351
6.33126
4.46088
4.31734
1.994
6.15743
4.18258
0.498787
3.82224
3.90463
0.513075
4.25251
3.93355
3.81103
0.146459
2.48922
2.3696
2.4668
1.79625
0.94987
4.78176
2.99248
3.38824
3.45556
1.45169
1.46214
1.21856
2.7052
1.14867
2.74491
2.28129
2.61305
0.591907
2.79745
0.810905
0.816618
0.462229
0.616059
3.56529
3.75496
4.13387
3.98817
0.829705
0.317046
0.467617
0.479168
0.277547
0.306527
3.11217
0.784003
6.47878
5.84473
6.22452
5.58154
6.51765
4.354
4.44659
5.86127
5.68117
5.85803
5.99168
4.5036
3.18527
5.41582
5.40693
4.97966
7.14085
6.07408
4.17714
5.54154
5.14562
6.42314
6.62414
6.01836
6.92692
5.32237
5.08808
5.29471
6.37256
5.78189
6.40356
6.13656
4.47454
5.00931
7.31445
7.70213
6.09738
5.11649
3.71378
7.23625
4.05631
6.7088
6.01536
4.55279
6.81966
6.66979
4.09395
4.26623
4.69636
2.45306
5.16845
5.32346
4.36427
4.75343
2.25692
6.00605
4.45331
4.33564
3.80991
6.90127
3.49373
3.92945
5.54713
5.67553
5.46713
4.08816
3.44867
3.94973
5.11514
4.39165
2.40848
4.41612
3.14294
4.30868
2.90446
2.37356
3.6107
2.41874
3.86435
3.49875
2.13027
1.84155
2.77973
2.47025
5.06902
1.43789
7.13675
2.15763
6.97094
3.66019
4.18109
2.88618
2.96936
3.058
1.94279
4.27989
2.95937
5.06564
1.83871
3.6476
3.76069
2.05707
3.509
2.94565
1.72774
2.85914
3.4865
2.68347
3.68055
1.87089
1.75825
2.61123
3.44689
3.39999
1.59981
1.72929
1.62991
2.24388
2.61545
3.45735
3.73026
2.72098
4.76843
4.54379
2.14452
2.70414
2.18513
3.1214
3.07803
2.07918
2.9081
1.65741
1.86259
2.45969
2.8986
2.64506
2.73651
1.7112
4.37658
4.54904
2.80903
2.50724
2.85713
4.34503
3.69368
2.37163
3.11675
2.5641
2.86359
3.65298
3.85476
2.93195
1.8317
4.67904
7.23652
3.68015
5.72111
4.80214
4.35183
4.61622
4.56795
4.57823
3.49849
6.30934
3.57499
3.98307
5.73788
4.00682
3.49488
6.22915
6.98515
5.31425
6.90822
5.38389
3.27772
3.59503
4.75821
4.58468
7.03624
5.81142
7.00373
4.72239
2.96219
6.06174
5.5368
5.58996
7.29826
6.75502
6.54485
4.84898
5.32674
6.437
6.41739
5.36335
5.53767
6.58719
6.75688
5.55903
5.35034
6.96407
6.84419
4.62467
6.22695
5.00255
4.17059
7.12095
4.40041
5.55064
6.46082
4.64608
5.09526
4.8868
4.44377
4.30225
3.42446
5.05285
4.52218
4.377
7.8032
6.62511
4.61036
6.02849
5.98826
3.96873
4.06171
4.16623
3.82112
2.49941
6.62316
6.45126
5.42629
5.27211
6.87016
4.446
4.55145
4.03987
6.93483
4.29257
5.45671
5.98517
6.92575
5.33128
6.98272
6.32933
7.10813
4.90627
5.63882
4.75836
6.93096
4.84345
5.31337
7.04497
7.04959
7.12743
6.81222
6.97003
6.72836
8.60045
7.19782
7.10915
6.12817
7.00096
5.33773
4.92361
7.02089
7.08281
7.13446
7.03496
5.46726
6.8575
4.92525
6.93459
7.13827
5.30452
7.00312
7.35974
6.58063
7.26768
7.09924
5.33866
7.05458
6.9828
4.78066
6.96744
4.83383
4.24365
6.98894
5.74654
6.86106
5.45436
5.98288
6.99189
7.35084
3.55947
4.4198
4.69293
4.67474
4.29681
6.1667
6.64095
4.63832
4.42374
5.21188
3.5686
3.61355
6.45019
6.06404
1.64879
7.39542
1.79028
6.21805
5.33258
1.48773
1.30816
1.4061
5.44364
2.42733
3.39459
7.00821
1.20255
1.4747
3.82214
2.085
3.59195
7.01342
