OFF
1607 3111 0
-2.38848 -2.93318 8.45312
-1.64448 -2.56008 8.37212
-1.25048 -1.45688 8.45312
-2.17848 -1.48608 8.60112
-1.00848 0.182724 8.49312
-1.99248 0.220224 8.65112
-3.14248 0.264024 8.70412
-3.26348 -1.51838 8.65112
-3.42548 -3.02398 8.49312
-1.12548 1.83582 8.45312
-1.43448 2.96592 8.37212
-2.14748 3.39452 8.45312
-2.04748 1.93562 8.60112
-3.17448 3.56392 8.49312
-3.12748 2.05042 8.65112
-4.16548 3.29852 8.45312
-4.84748 2.83802 8.37212
-5.09847 1.81432 8.45312
-4.19047 1.93012 8.60112
-5.25148 0.344324 8.49312
-4.27948 0.307324 8.65112
-5.21047 -1.13308 8.45312
-5.03848 -2.17288 8.37212
-4.39348 -2.68388 8.45312
-4.31448 -1.31758 8.60112
-7.99848 -3.73488 6.16512
-7.43348 -4.19298 7.56812
-7.87848 -1.90678 7.42012
-8.10847 -1.83478 6.18312
-7.88848 0.446124 7.37312
-8.06147 0.453424 6.15112
-8.10048 0.409824 4.67512
-8.18148 -1.78808 4.67512
-8.13148 -3.62638 4.67512
-7.66948 2.79302 7.40312
-7.00848 5.04612 7.51212
-7.55848 4.64012 6.13012
-7.88848 2.74072 6.17212
-7.67648 4.48292 4.67512
-7.95347 2.61852 4.67512
-7.46648 4.44232 3.22112
-6.77748 4.42272 1.83912
-7.36847 2.16872 1.94812
-7.77248 2.52392 3.17912
-7.58648 -0.0478765 1.97812
-7.94248 0.267424 3.19912
-7.62148 -2.21918 1.93112
-7.27948 -4.29948 1.78312
-7.93648 -3.78648 3.18612
-8.01148 -1.95418 3.16812
-1.97748 -6.33528 8.05312
0.197525 -6.01958 7.71612
-0.267475 -5.06228 8.28312
-1.98348 -5.91898 8.32912
-0.525475 -4.56818 8.45412
-2.11248 -5.50008 8.46612
-3.86948 -5.51848 8.47512
-3.91848 -5.79498 8.36512
-3.97248 -6.06478 8.13012
-0.700475 -4.27688 8.44712
-0.812475 -4.11898 8.30412
-2.22648 -5.03628 8.30412
-2.18648 -5.21638 8.44712
-3.78348 -5.12028 8.30412
-3.82248 -5.29028 8.44712
-5.19448 -4.49468 8.30412
-6.26947 -3.26838 8.30412
-6.42948 -3.36138 8.44712
-5.30247 -4.63278 8.44712
-6.66548 -3.51718 8.43112
-5.46047 -4.82788 8.45712
-6.98748 -3.76218 8.19012
-5.80648 -5.38458 8.00312
-5.67747 -5.08218 8.29612
1.36452 3.16332 8.01712
0.612525 6.26632 7.67512
0.113525 5.35372 8.26512
1.04452 3.04812 8.31412
-0.169475 4.88242 8.45012
0.750525 2.75612 8.46212
1.01452 0.105524 8.47312
1.27952 0.0950235 8.36112
1.53952 0.0849235 8.10912
-0.362475 4.60592 8.44712
-0.485475 4.45692 8.30412
0.348525 2.51322 8.30412
0.517525 2.59402 8.44712
0.594525 0.121624 8.30412
0.778525 0.114624 8.44712
0.167525 -2.24438 8.30412
0.330525 -2.33788 8.44712
0.552525 -2.51778 8.46412
1.14552 -2.97338 8.02912
0.830525 -2.83308 8.32212
-5.32348 6.10642 7.91012
-6.64748 4.57432 8.16712
-5.24848 5.78972 8.26112
-6.36147 4.30312 8.42512
-5.06248 5.51802 8.44912
-3.42748 6.08502 8.46512
-3.45448 6.36462 8.32512
-3.48648 6.63782 8.02512
-6.14447 4.12892 8.44712
-5.99148 4.02392 8.30412
-4.82648 5.16502 8.30412
-4.92348 5.31082 8.44712
-3.37248 5.68142 8.30412
-3.39748 5.85382 8.44712
-1.82548 5.47912 8.30412
-1.77248 5.65572 8.44712
-1.67948 5.93262 8.45812
-1.51748 6.74882 7.96412
-1.52648 6.33922 8.29812
-7.57448 -1.81668 8.11712
-7.26248 -1.67538 8.41212
-7.36847 0.425124 8.40512
-7.64048 0.436024 8.08512
-6.82048 -1.54968 8.30412
-7.00848 -1.59338 8.44712
-6.92747 0.408224 8.30412
-7.12248 0.415624 8.44712
-6.67148 2.35222 8.30412
-6.85548 2.41012 8.44712
-7.09948 2.51172 8.41012
-7.38848 2.67802 8.10512
-0.879475 -4.02458 8.06512
-2.25048 -4.92848 8.06512
-0.918475 -3.96928 7.80712
-2.26448 -4.86518 7.80712
-3.74748 -4.95808 7.80712
-3.76048 -5.01818 8.06512
-0.948475 -3.92888 7.60412
-0.984475 -3.87958 7.53412
-2.28848 -4.76228 7.53412
-2.27548 -4.81888 7.60412
-3.72648 -4.85998 7.53412
-3.73848 -4.91408 7.60412
-5.03048 -4.28198 7.53412
-6.02548 -3.12378 7.53412
-6.07548 -3.15418 7.60412
-5.06448 -4.32638 7.60412
-6.11648 -3.17868 7.80712
-5.09248 -4.36238 7.80712
-6.17348 -3.21208 8.06512
-5.12948 -4.41158 8.06512
-0.559475 4.36782 8.06512
0.247525 2.46502 8.06512
-0.603475 4.31582 7.80712
0.187525 2.43682 7.80712
0.418525 0.128324 7.80712
0.483525 0.125824 8.06512
-0.635475 4.27772 7.60412
-0.675475 4.23132 7.53412
0.0895248 2.39122 7.53412
0.143525 2.41622 7.60412
0.312525 0.132424 7.53412
0.370525 0.130124 7.60412
-0.0814752 -2.10298 7.53412
-0.0294752 -2.13208 7.60412
0.0125248 -2.15588 7.80712
0.0695248 -2.18858 8.06512
-5.90048 3.96062 8.06512
-4.76848 5.07712 8.06512
-5.84648 3.92292 7.80712
-4.73448 5.02532 7.80712
-3.34848 5.51692 7.80712
-3.35748 5.57782 8.06512
-5.80748 3.89532 7.60412
-5.75948 3.86122 7.53412
-4.67948 4.94042 7.53412
-4.70948 4.98722 7.60412
-3.33548 5.41762 7.53412
-3.34248 5.47232 7.60412
-1.90848 5.21072 7.53412
-1.89048 5.26612 7.60412
-1.87648 5.31142 7.80712
-1.85748 5.37342 8.06512
-6.70748 -1.52318 8.06512
-6.64148 -1.50738 7.80712
-6.74248 0.401124 7.80712
-6.81148 0.403724 8.06512
-6.53348 -1.48138 7.53412
-6.59348 -1.49578 7.60412
-6.63048 0.396924 7.53412
-6.69248 0.399224 7.60412
-6.39148 2.26222 7.53412
-6.44948 2.28112 7.60412
-6.49648 2.29642 7.80712
-6.56148 2.31722 8.06512
-1.04348 -3.79758 7.67212
-2.31048 -4.66798 7.67212
-1.16348 -3.58058 7.92112
-2.34948 -4.41228 7.92712
-3.65948 -4.51858 7.93212
-3.70748 -4.76998 7.67212
-1.37648 -3.12618 8.18612
-2.41048 -3.87128 8.20712
-3.56148 -3.98028 8.22912
-5.42248 -2.58778 8.18612
-4.61548 -3.53118 8.20712
-5.76048 -2.92128 7.92112
-4.85148 -3.99418 7.92712
-5.94148 -3.07308 7.67212
-4.97548 -4.20788 7.67212
-0.741475 4.15412 7.67212
-0.000475188 2.34952 7.67212
-0.876475 3.94672 7.92112
-0.187475 2.23752 7.92712
0.00952481 0.143924 7.93212
0.214525 0.136124 7.67212
-1.12348 3.50992 8.18612
-0.533475 2.00142 8.20712
-0.369475 0.158324 8.22912
-0.673475 -1.66688 8.20712
-0.346475 -1.92868 7.92712
-0.167475 -2.05458 7.67212
-5.67948 3.80422 7.67212
-4.62948 4.86222 7.67212
-5.51148 3.63922 7.92112
-4.52248 4.63982 7.92712
-3.29448 5.07202 7.93212
-3.32348 5.32642 7.67212
-5.19848 3.28092 8.18612
-4.32247 4.16012 8.20712
-3.23748 4.52782 8.22912
-2.09748 4.33162 8.20712
-1.99548 4.86632 7.92712
-1.93748 5.11832 7.67212
-6.43448 -1.45718 7.67212
-6.22448 -1.38198 7.92712
-6.31148 0.384724 7.93212
-6.52848 0.392924 7.67212
-5.83248 -1.21418 8.20712
-5.90747 0.369324 8.22912
-5.71148 1.94252 8.20712
-6.09048 2.13962 7.92712
-6.29448 2.23062 7.67212
0.443525 -6.63928 3.18912
0.0695248 -6.06848 1.63512
1.07252 -4.81698 2.28212
0.990525 -5.83538 3.34412
1.55952 -3.90998 2.73012
1.43852 -4.91248 3.60812
1.40052 -5.22298 4.67512
1.01152 -6.08518 4.67512
0.541525 -6.80428 4.67512
1.89352 -3.23258 3.07012
2.22252 -2.77618 3.30812
2.13652 -3.54488 3.93012
1.78152 -4.12728 3.80012
2.10052 -3.80028 4.67512
1.73352 -4.42428 4.67512
2.13652 -3.54488 5.42112
2.22252 -2.77618 6.04212
1.89352 -3.23258 6.28112
1.78152 -4.12728 5.55112
1.57352 -3.90038 6.62112
1.44452 -4.91148 5.74312
1.12952 -4.77838 7.06912
0.480525 -6.63378 6.16212
1.01552 -5.83178 6.00712
1.11952 2.43002 1.33412
0.554525 5.68462 1.67612
1.44752 4.76202 2.29412
1.59152 2.55032 1.76712
1.84752 4.01922 2.72812
1.92552 2.20472 2.23012
1.92852 0.0147235 2.07712
1.63852 -0.150876 1.63412
1.21252 -0.509376 1.24212
2.08252 3.41912 3.05112
2.32152 3.06102 3.24612
2.40952 1.65142 2.89312
2.14752 1.90012 2.61912
2.41752 0.0651235 2.80012
2.14752 0.0711235 2.48312
2.33552 -1.49178 2.93512
2.03852 -1.73648 2.63212
1.76452 -2.14548 2.23112
0.857525 -3.31398 1.32212
1.37752 -2.76438 1.75912
0.879525 6.84582 6.13312
1.47752 4.96302 7.05712
1.42652 6.01882 5.99912
1.85552 4.06942 6.62312
1.78852 5.08102 5.74512
1.76052 5.38172 4.67512
1.43552 6.24072 4.67512
0.940525 6.96362 4.67512
2.08252 3.41912 6.30012
2.32152 3.06102 6.10412
2.11252 3.74852 5.43212
1.99452 4.29672 5.56412
2.05052 3.94592 4.67512
1.94452 4.57522 4.67512
2.11252 3.74852 3.91812
1.99452 4.29672 3.78712
1.78652 5.05302 3.60612
0.868525 6.67782 3.21812
1.41852 5.90692 3.35212
1.47852 -2.62828 7.59212
1.78952 -2.11148 7.11912
1.95952 0.0716235 7.27412
1.76152 0.0766235 7.71712
2.33552 -1.49178 6.41512
2.03852 -1.73648 6.71912
2.41752 0.0651235 6.55012
2.14752 0.0711235 6.86812
2.40952 1.65142 6.45812
2.14752 1.90012 6.73212
1.94652 2.26582 7.12112
1.67552 2.79472 7.58412
2.69352 -2.53198 3.44912
2.62152 -3.23018 4.00612
3.22352 -2.49478 3.49512
3.15552 -3.17748 4.03112
3.12652 -3.40448 4.67512
2.59152 -3.46228 4.67512
3.72952 -2.65938 3.44512
4.12052 -3.01938 3.30012
4.02852 -3.83428 3.92512
3.65552 -3.38138 4.00412
3.99052 -4.10508 4.67412
3.62352 -3.62138 4.67412
4.02852 -3.83428 5.42312
4.12052 -3.01938 6.04812
3.72952 -2.65938 5.90412
3.65552 -3.38138 5.34512
3.22352 -2.49478 5.85412
3.15552 -3.17748 5.31812
2.69352 -2.53198 5.90012
2.62152 -3.23008 5.34312
2.85552 2.62572 3.13012
2.86752 1.47362 3.01012
3.41452 2.54132 3.10312
3.41852 1.40622 3.02812
3.39252 0.0199235 3.02912
2.86252 0.0438235 2.97712
3.96552 2.68182 3.12312
4.46352 3.18772 3.23512
4.40252 1.68222 2.88212
3.96452 1.48872 3.00312
4.34853 -0.00507646 2.79012
3.91852 0.00582354 2.97112
4.24052 -1.65758 2.92612
3.82852 -1.45358 3.10912
3.31552 -1.35468 3.17312
2.78952 -1.36598 3.11512
2.78952 -1.36598 6.23512
3.31552 -1.35468 6.17612
3.39252 0.0199235 6.32012
2.86252 0.0438235 6.37212
4.24052 -1.65758 6.42212
3.82852 -1.45358 6.23912
4.34853 -0.00507646 6.55812
3.91852 0.00582354 6.37712
4.40252 1.68222 6.46612
4.46352 3.18772 6.11212
3.96552 2.68182 6.22512
3.96452 1.48872 6.34512
3.41452 2.54132 6.24612
3.41852 1.40622 6.32212
2.85552 2.62572 6.22012
2.86752 1.47362 6.34012
4.30452 -3.56828 3.06212
4.18453 -4.52888 3.79512
4.39252 -4.36308 2.72512
4.22752 -5.43888 3.60412
4.15252 -5.76648 4.67412
4.13252 -4.84778 4.67412
4.49052 -5.46058 2.28212
4.92352 -7.16508 1.64212
4.40352 -7.58108 3.19212
4.26452 -6.53828 3.34312
4.25052 -7.69978 4.67412
4.15252 -6.77858 4.67412
4.37252 -7.56048 6.15612
4.81352 -7.06878 7.70512
4.44452 -5.39958 7.06612
4.24353 -6.52448 6.00412
4.38052 -4.34778 6.62312
4.22152 -5.43548 5.74312
4.30452 -3.56828 6.28512
4.18453 -4.52888 5.55312
4.63153 3.58412 3.04212
4.63352 1.94732 2.60912
4.74752 4.25102 2.72212
4.78953 2.28052 2.22312
4.75452 -0.100276 2.07012
4.59152 -0.0197765 2.47312
4.94753 5.11212 2.29012
5.58152 6.28142 1.67212
5.37952 2.52772 1.33412
5.00052 2.67772 1.76412
5.25952 -0.771376 1.24412
4.94152 -0.308376 1.63212
5.05352 -3.93958 1.32612
4.74452 -3.20248 1.75812
4.59552 -2.44908 2.22512
4.46152 -1.96178 2.62312
4.60852 3.94392 5.43612
4.63153 3.58412 6.30612
4.63052 4.53512 5.56612
4.72752 4.30952 6.62612
4.66652 5.40142 5.74512
4.63252 5.72312 4.67412
4.62952 4.83912 4.67412
4.64152 4.16332 4.67412
4.86853 5.34622 7.05712
5.38153 7.00332 7.67512
5.02452 7.51512 6.13412
4.76652 6.48032 5.99812
4.93552 7.60912 4.67412
4.70752 6.70412 4.67412
5.08852 7.32142 3.21412
4.80852 6.35122 3.34912
4.67753 5.36912 3.60212
4.60852 3.94392 3.91112
4.63052 4.53512 3.78112
4.46152 -1.96178 6.72512
4.57452 -2.40528 7.12212
4.72652 -0.0306765 7.27712
4.59152 -0.0197765 6.87512
4.82253 -3.48018 8.02212
4.66052 -3.02728 7.59012
4.97752 -0.0202765 8.10312
4.83152 -0.0302765 7.71612
5.09352 3.43772 8.01312
4.89552 2.96842 7.58412
4.76252 2.35312 7.12412
4.63352 1.94732 6.73912
7.66152 -2.01798 8.42512
7.78052 -3.45028 8.33512
8.33652 -4.10968 8.42512
8.45552 -2.22778 8.58912
9.18952 -4.50778 8.46912
9.39552 -2.45658 8.64412
9.54653 -0.0289765 8.70312
8.52353 0.00552354 8.64412
7.65652 0.0347235 8.46912
10.1305 -4.31838 8.42512
10.8135 -3.77298 8.33512
11.2135 -2.28588 8.42512
10.3795 -2.36748 8.58912
11.4685 -0.0936765 8.46912
10.5865 -0.0639765 8.64412
11.3615 2.11062 8.42512
11.0625 3.62122 8.33512
10.4175 4.21132 8.42512
10.5345 2.24822 8.58912
9.49253 4.46362 8.46912
9.55853 2.40322 8.64412
8.61352 4.12392 8.42512
8.01452 3.50342 8.33512
7.79952 2.08232 8.42512
8.60652 2.23822 8.58912
5.53352 -6.28378 8.27212
5.15852 -3.41658 8.31312
5.96352 -5.86238 8.44112
5.53552 -3.14848 8.45112
5.53352 0.0198235 8.46112
5.23752 -0.00257646 8.35312
6.24452 -5.59918 8.42712
6.43052 -5.42758 8.26712
6.02752 -2.88898 8.26712
5.81752 -2.98768 8.42712
6.00352 0.0631235 8.26712
5.79152 0.0434235 8.42712
6.23053 3.00662 8.26712
6.80752 5.51162 8.26712
6.63952 5.64022 8.42712
6.03052 3.06512 8.42712
6.38752 5.85482 8.43812
5.76452 3.17922 8.45012
6.00653 6.23522 8.25912
5.41752 3.40572 8.30712
10.1465 -9.21708 7.98612
12.0495 -8.28538 7.55512
11.8785 -7.34108 8.17912
10.2065 -8.72878 8.28412
11.7365 -6.81048 8.41812
10.1595 -8.26538 8.44412
8.47552 -8.47878 8.46112
8.37852 -8.82918 8.35212
8.28852 -9.17008 8.11212
11.6085 -6.45828 8.42712
11.5025 -6.21648 8.26712
10.0995 -7.63508 8.26712
10.1245 -7.91158 8.42712
8.61352 -7.89928 8.26712
8.55153 -8.16868 8.42712
7.34152 -7.13058 8.26712
7.20752 -7.36198 8.42712
7.00952 -7.65848 8.45212
6.52252 -8.49058 8.03712
6.71452 -8.05098 8.31712
13.5795 3.84362 7.39812
12.5995 7.66812 7.51412
12.3855 6.82132 8.16212
13.3585 3.66082 8.09812
12.2075 6.38532 8.41412
13.1415 3.40722 8.39812
13.4095 -0.263376 8.39212
13.6265 -0.311476 8.07612
13.8275 -0.352576 7.36612
12.0505 6.12102 8.42712
11.9205 5.95002 8.26712
12.7535 3.19182 8.26712
12.9335 3.26992 8.42712
12.9945 -0.177376 8.26712
13.1905 -0.216476 8.42712
12.5225 -3.52208 8.26712
12.6895 -3.67618 8.42712
12.8805 -3.90628 8.40012
13.2865 -4.52458 7.41112
13.0765 -4.25708 8.10712
7.17952 8.30982 7.97112
7.30953 7.91332 8.29412
7.55953 7.57172 8.44712
9.07753 8.28512 8.45412
9.01752 8.56902 8.32312
8.96252 8.85562 8.03512
7.83252 7.14792 8.26712
7.72353 7.33122 8.42712
9.15352 7.82752 8.26712
9.12052 8.04162 8.42712
10.6185 7.46172 8.26712
10.6715 7.67492 8.42712
10.7395 7.95042 8.43812
10.7895 8.75552 7.91712
10.8245 8.33122 8.25812
6.57352 -5.28108 8.00212
6.18752 -2.80698 8.00212
6.68552 -5.15238 7.71412
6.31052 -2.73718 7.71412
6.28752 0.0781235 7.71412
6.16453 0.0740235 8.00212
6.77653 -5.03418 7.48912
6.86052 -4.91848 7.41012
6.49952 -2.61458 7.41012
6.40952 -2.67478 7.48912
6.47552 0.0745235 7.41012
6.38652 0.0775235 7.48912
6.68052 2.75582 7.41012
7.19552 5.03022 7.41012
7.12052 5.15122 7.48912
6.59452 2.82192 7.48912
7.03752 5.26982 7.71412
6.49952 2.88542 7.71412
6.93652 5.38902 8.00212
6.38252 2.94682 8.00212
11.4245 -6.01698 8.00212
10.0845 -7.40358 8.00212
11.3685 -5.84758 7.71412
10.0775 -7.20378 7.71412
8.70652 -7.47238 7.71412
8.66352 -7.67128 8.00212
11.3255 -5.69598 7.48912
11.2885 -5.55048 7.41012
10.0745 -6.84728 7.41012
10.0745 -7.02268 7.48912
8.78152 -7.11338 7.41012
8.74452 -7.29048 7.48912
7.66552 -6.44428 7.41012
7.60052 -6.60018 7.48912
7.52952 -6.75968 7.71412
7.44652 -6.93318 8.00212
11.8255 5.79402 8.00212
12.6185 3.11572 8.00212
11.7565 5.64762 7.71412
12.5175 3.04032 7.71412
12.7365 -0.139676 7.71412
12.8475 -0.152976 8.00212
11.7025 5.50552 7.48912
11.6555 5.36282 7.41012
12.3665 2.88622 7.41012
12.4375 2.96412 7.48912
12.5685 -0.130776 7.41012
12.6475 -0.133476 7.48912
12.1645 -3.12728 7.41012
12.2295 -3.20988 7.48912
12.3035 -3.29758 7.71412
12.3975 -3.39868 8.00212
7.91852 6.97802 8.00212
7.98852 6.81652 7.71412
9.21052 7.44822 7.71412
9.18353 7.63182 8.00212
8.10152 6.49832 7.41012
8.04653 6.65832 7.48912
9.25952 7.09082 7.41012
9.23553 7.27002 7.48912
10.5325 6.73832 7.41012
10.5445 6.91332 7.48912
10.5595 7.08772 7.71412
10.5835 7.26832 8.00212
6.94652 -4.79758 7.56212
6.59253 -2.55168 7.56212
7.11052 -4.55018 7.83712
6.77052 -2.42258 7.84312
6.74452 0.0654235 7.84912
6.56752 0.0713235 7.56212
7.42452 -4.05548 8.12912
7.11352 -2.16378 8.15312
7.08553 0.0539235 8.17812
7.70052 4.13112 8.12912
7.26252 2.26472 8.15312
7.41952 4.64592 7.83712
6.93752 2.54602 7.84312
7.27352 4.90372 7.56212
6.76952 2.68682 7.56212
11.2485 -5.39908 7.56212
10.0735 -6.66468 7.56212
11.1715 -5.09828 7.83712
10.0685 -6.29848 7.84312
8.88653 -6.55488 7.84912
8.81852 -6.92858 7.56212
11.0215 -4.50418 8.12912
10.0575 -5.57258 8.15312
9.01552 -5.81088 8.17812
8.09752 -5.28818 8.15312
7.85752 -5.94988 7.84312
7.73252 -6.28138 7.56212
11.6065 5.21442 7.56212
12.2925 2.80512 7.56212
11.5095 4.91942 7.83712
12.1485 2.64462 7.84312
12.3265 -0.122576 7.84912
12.4855 -0.127976 7.56212
11.3195 4.33682 8.12912
11.8695 2.32792 8.15312
12.0175 -0.112276 8.17812
11.7055 -2.53678 8.15312
11.9625 -2.87158 7.84312
12.0955 -3.04148 7.56212
8.15753 6.33132 7.56212
8.26052 5.99222 7.84312
9.32652 6.52662 7.84912
9.28452 6.90402 7.56212
8.45552 5.31582 8.15312
9.40553 5.77562 8.17812
10.4295 5.46762 8.15312
10.4895 6.19122 7.84312
10.5185 6.55622 7.56212
5.41052 -8.44168 2.25512
4.75152 -8.32158 3.32912
5.81652 -8.94268 2.67712
5.19552 -8.79118 3.57812
4.99652 -8.75668 4.67412
4.56752 -8.34588 4.67412
6.16852 -9.16738 2.99712
6.44352 -9.24068 3.22612
5.96952 -9.11428 3.88412
5.61853 -9.02108 3.75912
5.81052 -9.07218 4.67412
5.43552 -8.97228 4.67412
5.96952 -9.11428 5.46312
6.44352 -9.24068 6.12112
6.16852 -9.16738 6.35012
5.61853 -9.02108 5.58812
5.80852 -8.93938 6.67112
5.19052 -8.78768 5.76912
5.37752 -8.42838 7.09212
4.73152 -8.30788 6.01812
10.0555 -9.16688 1.36112
11.8725 -8.38008 1.79212
11.1535 -9.64138 2.30612
9.83253 -9.62328 1.75512
10.6015 -10.134 2.68912
9.51052 -9.92688 2.17212
8.19753 -9.63118 2.00612
8.23652 -9.41308 1.59712
8.30853 -9.07858 1.23612
10.2005 -10.2404 2.99712
9.92552 -10.1672 3.22612
9.13452 -9.95658 2.83112
9.28452 -9.99658 2.54012
8.18452 -9.70388 2.70012
8.18452 -9.70388 2.38812
7.23552 -9.45118 2.83112
7.08553 -9.41128 2.54012
6.89152 -9.26298 2.16312
6.62052 -8.46788 1.31112
6.66652 -8.91238 1.72112
12.7175 -7.82628 6.15712
11.2055 -9.63798 7.04212
11.9365 -9.55878 5.98412
10.6145 -10.1331 6.65812
11.2535 -10.2348 5.76112
11.4565 -10.2614 4.67412
12.1385 -9.50308 4.67412
12.8885 -7.72028 4.67412
10.2005 -10.2404 6.35012
9.92552 -10.1672 6.12112
10.4005 -10.2935 5.46312
10.7505 -10.3868 5.58812
10.5585 -10.3356 4.67412
10.9335 -10.4355 4.67412
10.4005 -10.2935 3.88412
10.7505 -10.3868 3.75912
11.2445 -10.2366 3.58612
12.6445 -7.88508 3.19112
11.8995 -9.56598 3.36312
6.63853 -8.92788 7.62712
6.88452 -9.26678 7.18412
8.19553 -9.64088 7.34212
8.22853 -9.45178 7.75012
7.23552 -9.45118 6.51612
7.08553 -9.41128 6.80712
8.18452 -9.70388 6.64812
8.18452 -9.70388 6.96012
9.13452 -9.95658 6.51612
9.28452 -9.99658 6.80712
9.51752 -9.93238 7.17612
9.86053 -9.64538 7.59312
6.39252 -9.25268 4.02212
6.77452 -9.35478 3.49112
6.77852 -9.38178 3.48412
6.39852 -9.28018 4.01012
6.27152 -9.24628 4.64212
6.26452 -9.21868 4.65812
6.39252 -9.25268 5.29512
7.41252 -9.52488 3.17312
8.17153 -9.75418 6.22212
8.17852 -9.72908 6.24912
7.41252 -9.52488 6.14312
8.94352 -9.93318 6.14312
-2.06148 -6.31448 1.29812
-0.882475 -6.84288 2.23912
-2.29548 -6.60058 1.69912
-1.48648 -7.03018 2.65312
-2.66148 -6.75048 2.13212
-4.08148 -6.40138 1.97212
-4.02647 -6.25658 1.57312
-3.95848 -6.02798 1.22112
-1.91548 -7.03198 2.96812
-2.20848 -6.95388 3.19712
-3.06748 -6.72468 2.79412
-2.90848 -6.76728 2.50312
-4.09948 -6.44968 2.66012
-4.09948 -6.44968 2.34712
-5.13048 -6.17458 2.79412
-5.99048 -5.94548 3.19712
-6.28348 -5.86738 2.96812
-5.29048 -6.13198 2.50312
-6.62448 -5.65588 2.66512
-5.47748 -6.00608 2.14012
-6.96348 -5.20348 2.28912
-5.70248 -5.40138 1.34812
-5.66548 -5.72738 1.73212
-0.845475 -6.84098 7.11212
-0.172475 -7.06328 6.02912
-1.47748 -7.02968 6.69812
-0.815475 -7.21678 5.78512
-0.615475 -7.28818 4.67512
-0.0314752 -7.17348 4.67512
-1.91548 -7.03198 6.38312
-2.20848 -6.95388 6.15412
-1.69248 -7.09138 5.48212
-1.31948 -7.19078 5.60712
-1.52048 -7.13718 4.67512
-1.12148 -7.24368 4.67512
-1.69248 -7.09138 3.86912
-1.31948 -7.19078 3.74412
-0.821475 -7.21778 3.56612
-0.197475 -7.06698 3.32212
-7.01048 -5.18088 7.06212
-5.70048 -5.72418 7.61912
-6.63548 -5.65018 6.68612
-5.48647 -6.00528 7.21112
-4.08248 -6.40538 7.37912
-4.03348 -6.27268 7.77812
-6.28348 -5.86738 6.38312
-5.99048 -5.94548 6.15412
-5.13048 -6.17458 6.55712
-5.29048 -6.13198 6.84812
-4.09948 -6.44968 6.69112
-4.09948 -6.44968 7.00412
-3.06748 -6.72468 6.55712
-2.90848 -6.76728 6.84812
-2.65648 -6.75308 7.21912
-2.27448 -6.61118 7.65212
-7.67248 -4.87548 3.35512
-7.29448 -5.44238 3.57412
-7.51248 -5.36868 4.67512
-7.88648 -4.75608 4.67512
-6.50647 -5.80788 3.86912
-6.87948 -5.70848 3.74412
-6.67848 -5.76208 4.67512
-7.07748 -5.65558 4.67512
-6.50647 -5.80788 5.48212
-6.87948 -5.70848 5.60712
-7.30247 -5.43798 5.77712
-7.70248 -4.85808 5.99612
-3.30448 -6.70598 3.23312
-2.63348 -6.88588 3.54812
-2.66448 -6.92308 3.59012
-3.32648 -6.74458 3.27912
-4.12148 -6.53038 3.17612
-4.11048 -6.49008 3.12812
-5.57748 -6.13778 3.59012
-5.58648 -6.09428 3.54812
-4.91548 -6.27418 3.23312
-2.13448 -7.06588 4.73012
-2.09648 -7.02978 4.70312
-2.23048 -6.99378 5.33212
-2.23048 -6.99378 4.07312
-2.26648 -7.03018 4.10812
-4.91548 -6.27418 6.17212
-5.58648 -6.09428 5.85712
-5.57748 -6.13778 5.86912
-4.91548 -6.31628 6.18012
-4.12148 -6.53038 6.28412
-4.11048 -6.49008 6.27712
-3.30448 -6.70598 6.17212
-5.98948 -5.98628 4.07312
-5.97548 -6.03068 4.10812
-6.10748 -5.99498 4.73012
-6.12348 -5.95028 4.70312
-5.98948 -5.98628 5.33212
-5.97548 -6.03068 5.35112
13.2015 7.12632 6.13112
13.8025 3.76812 6.16912
13.9975 -0.378476 6.14712
14.0425 -0.474576 4.67412
13.8945 3.55952 4.67412
13.3645 6.88292 4.67412
13.5205 -4.50468 6.17712
13.6155 -4.47268 4.67412
12.9755 -5.02228 1.93612
13.4055 -4.70388 3.17012
13.4895 -1.24668 1.98212
13.8695 -0.726576 3.20112
13.3445 2.66342 1.94912
12.5535 6.49212 1.83412
13.1785 6.72832 3.21612
13.7225 3.34282 3.17912
-1.48148 5.72422 1.38612
-0.195475 3.27842 1.08612
-1.55048 4.03092 1.05312
-0.779475 1.31812 0.878119
-1.83348 2.06692 0.869119
-3.12548 2.24772 0.862119
-3.20848 4.01922 1.02612
-3.33548 5.51922 1.32612
-1.33548 -0.324776 0.808119
-1.80548 -1.57758 0.808119
-2.41648 -1.10498 0.808119
-2.13748 0.302824 0.808119
-3.18348 -0.906776 0.808119
-3.12948 0.528724 0.808119
-3.96948 -0.979076 0.808119
-4.65048 -1.31688 0.808119
-4.98148 -0.141076 0.808119
-4.12848 0.373524 0.808119
-5.45648 1.28592 0.902119
-4.39748 1.99272 0.879119
-6.07448 2.80712 1.18412
-5.09948 5.12492 1.44112
-4.80348 3.66822 1.09012
-0.734475 -5.26638 1.06812
0.188525 -3.51518 1.02912
-1.33848 -4.90158 0.873119
-0.528475 -3.60168 0.863119
-0.139475 -1.89798 0.854119
0.584525 -1.14428 0.990119
-1.84348 -4.73058 0.808119
-2.23048 -4.66728 0.808119
-1.72448 -4.03028 0.808119
-1.18848 -3.80738 0.808119
-1.46648 -3.19908 0.808119
-0.857475 -2.61308 0.808119
-1.49148 -2.32858 0.808119
-0.907475 -1.37448 0.808119
-0.219475 -0.130776 0.865119
0.486525 1.33682 1.03712
-6.56547 -4.06148 1.16112
-5.43448 -5.13368 1.05512
-5.95248 -4.01878 0.896119
-5.04648 -4.92168 0.870118
-3.84148 -5.41548 0.852118
-3.89748 -5.72858 0.985119
-5.43648 -4.06318 0.808119
-5.03947 -4.13818 0.808119
-4.47548 -4.65028 0.808119
-4.72248 -4.76278 0.808119
-3.73848 -4.93558 0.808119
-3.78548 -5.14588 0.808119
-2.94548 -4.95518 0.808119
-2.76748 -5.15598 0.808119
-2.52448 -5.45748 0.862119
-2.21348 -5.88848 1.02212
-6.76348 1.26492 1.24612
-6.10448 0.111224 0.918119
-6.39348 -1.30828 0.923119
-7.02948 -0.609976 1.26612
-5.10448 -1.91508 0.808119
-5.53848 -0.993476 0.808119
-5.32648 -2.65998 0.808119
-5.80448 -2.03168 0.808119
-5.31448 -3.43788 0.808119
-5.78348 -3.10388 0.808119
-6.37248 -2.74968 0.915119
-7.02948 -2.46948 1.23412
6.62152 3.51252 1.08812
6.03953 1.21892 1.04112
7.35852 1.11172 0.883119
6.75152 -0.590676 0.871119
6.44952 -2.65788 0.860119
5.81652 -1.61678 0.995118
7.83152 -1.03388 0.814119
8.10553 -2.73688 0.814119
7.66152 -3.57198 0.814119
7.28953 -2.24298 0.814119
7.41453 -4.59938 0.814119
6.99552 -3.70818 0.814119
7.36952 -5.65598 0.814119
7.56652 -6.58278 0.814119
7.18852 -6.50708 0.814119
6.94252 -5.20278 0.814119
6.65052 -6.49908 0.880119
6.36853 -4.72828 0.870118
5.93352 -6.65448 1.07512
5.66652 -4.37768 1.03512
10.8875 7.09952 1.43012
12.1445 3.62662 1.18512
10.9125 4.76892 1.09012
11.6915 1.05092 0.907118
10.7335 2.09632 0.883119
9.54653 2.39592 0.867119
9.39252 4.95532 1.02512
9.18552 7.12822 1.31312
11.1655 -1.21418 0.814119
10.6795 -2.98408 0.814119
10.1445 -2.37768 0.814119
10.4475 -0.379876 0.814119
9.45452 -2.13598 0.814119
9.54252 -0.0834765 0.814119
8.73852 -2.25688 0.814119
8.62652 -0.307776 0.814119
8.35652 2.08742 0.874119
7.44652 6.85802 1.37612
7.85052 4.64732 1.05312
11.3955 -7.62348 1.16912
12.4065 -5.25178 1.24112
10.9215 -7.27688 0.903118
11.7715 -5.49388 0.921118
12.2285 -3.21768 0.929119
12.9145 -2.14708 1.27112
10.4745 -7.11768 0.814119
10.1105 -7.06218 0.814119
10.6185 -6.19598 0.814119
11.1445 -5.85018 0.814119
10.9065 -5.09528 0.814119
11.5185 -4.24848 0.814119
10.9305 -3.95728 0.814119
11.5245 -2.60338 0.814119
12.1965 -0.878276 0.923119
12.8195 1.06692 1.24912
6.96152 -8.03798 1.03012
7.43652 -7.66748 0.868119
8.54052 -8.21838 0.860119
8.42052 -8.65648 0.995118
8.04453 -7.22108 0.814119
7.79452 -7.40138 0.814119
8.69952 -7.53698 0.814119
8.63352 -7.83578 0.814119
9.42952 -7.49658 0.814119
9.58253 -7.76038 0.814119
9.77353 -8.13668 0.877119
9.98353 -8.63838 1.06412
-2.85948 -2.81488 0.777119
-2.47248 -3.07568 0.777119
-2.50148 -3.09838 0.746119
-2.88148 -2.84588 0.746119
-3.36348 -2.71238 0.746119
-3.35148 -2.67788 0.777119
-4.29948 -2.83278 0.746119
-4.30748 -2.80598 0.777119
-3.86148 -2.67258 0.777119
-3.86348 -2.70548 0.746119
-2.41148 -4.26428 0.777119
-2.72148 -4.55518 0.777119
-2.74248 -4.52278 0.746119
-2.43948 -4.24338 0.746119
-2.28948 -3.86678 0.746119
-2.25648 -3.87288 0.777119
-2.27448 -3.45248 0.777119
-3.68348 -4.60448 0.746119
-3.68348 -4.64208 0.777119
-4.16648 -4.47968 0.777119
-3.17348 -4.67418 0.777119
-4.60648 -3.08558 0.777119
-4.59148 -3.10148 0.746119
-4.73248 -3.45428 0.746119
-4.75148 -3.45178 0.777119
-4.73448 -3.84518 0.777119
8.00352 -5.12048 0.775119
8.30352 -4.71388 0.775119
8.27952 -4.75428 0.736118
9.65553 -4.63578 0.775119
10.0005 -4.96668 0.775119
9.95152 -5.00508 0.736118
9.61152 -4.68148 0.736118
9.16752 -4.52678 0.736118
9.20452 -4.47838 0.775119
8.72853 -4.50208 0.775119
10.1605 -5.46358 0.775119
2.44652 3.33942 5.84112
2.20852 3.51842 5.32412
2.51752 3.43372 5.71512
2.28552 3.46612 5.24512
2.21052 3.48702 4.67512
2.13752 3.61842 4.67512
2.56952 3.46712 5.64012
2.60752 3.46982 5.59512
2.39552 3.45462 5.17612
2.34652 3.45122 5.20112
2.32452 3.44962 4.67512
2.27252 3.44592 4.67512
2.39552 3.45462 4.17412
2.60752 3.46982 3.75512
2.56952 3.46712 3.71012
2.34652 3.45122 4.14912
2.51752 3.43372 3.63512
2.28552 3.46612 4.10512
2.44652 3.33942 3.50912
2.20852 3.51842 4.02612
4.33652 3.46852 5.84812
3.92152 3.27162 6.10012
4.25653 3.55752 5.72112
3.86552 3.48742 5.98812
3.39052 3.43502 6.06912
3.40252 3.16212 6.15712
4.20252 3.58522 5.64512
4.16453 3.58242 5.60012
3.81052 3.55672 5.85112
3.83152 3.55822 5.90812
3.38552 3.52592 5.93312
3.38552 3.52592 5.99512
2.96152 3.49532 5.84712
2.94052 3.49382 5.90512
2.91352 3.42022 5.98412
2.87752 3.20272 6.09512
4.33652 3.46852 3.50012
4.55152 3.69022 4.02012
4.25653 3.55752 3.62712
4.48352 3.62562 4.09912
4.55552 3.65902 4.67412
4.60952 3.80732 4.67412
4.20252 3.58522 3.70312
4.16453 3.58242 3.74812
4.37652 3.59792 4.16812
4.42552 3.60142 4.14412
4.44753 3.60312 4.67412
4.49952 3.60692 4.67412
4.37652 3.59792 5.17912
4.42552 3.60142 5.20412
4.48352 3.62562 5.24812
4.55152 3.69022 5.32812
2.87752 3.20272 3.25512
2.91352 3.42022 3.36612
3.39052 3.43502 3.28012
3.40252 3.16212 3.19212
2.96152 3.49532 3.50212
2.94052 3.49382 3.44512
3.38552 3.52592 3.41612
3.38552 3.52592 3.35412
3.81052 3.55672 3.49712
3.83152 3.55822 3.44012
3.86552 3.48742 3.36112
3.92152 3.27162 3.24912
2.45352 3.48872 4.67512
2.44252 3.47302 4.67512
2.50552 3.47752 5.12012
2.70152 3.50672 3.86812
2.69452 3.49112 3.85812
2.50552 3.47752 4.23012
2.51552 3.49322 4.23512
3.38452 3.55642 5.77812
3.38552 3.54122 5.79112
3.76152 3.56862 5.71912
3.00852 3.51382 5.71512
4.26452 3.60542 4.22512
4.07652 3.59162 3.85212
4.06652 3.60652 3.86212
4.25252 3.62022 4.23112
4.31452 3.62482 4.67412
4.32752 3.61002 4.67412
4.26452 3.60542 5.12212
3.00852 3.51382 3.63412
3.01252 3.52932 3.64712
3.38452 3.55642 3.57112
3.38552 3.54122 3.55712
3.76152 3.56862 3.63012
3.75652 3.58372 3.64212
6.14552 8.31722 6.98412
5.53752 8.24912 5.96012
6.71753 8.80582 6.47912
6.15552 8.71262 5.66512
5.98452 8.69112 4.67412
5.39952 8.26492 4.67412
7.19952 9.02292 6.07212
7.58052 9.09382 5.76112
7.21852 9.02632 5.26712
6.73252 8.93612 5.43612
7.09752 9.00382 4.67412
6.57752 8.90712 4.67412
7.21852 9.02632 4.08112
7.58052 9.09382 3.58712
7.19952 9.02292 3.27512
6.73252 8.93612 3.91112
6.73752 8.73372 2.86912
6.16652 8.68032 3.68312
6.22452 8.02882 2.36412
5.57952 8.11992 3.38712
11.7775 9.03602 6.92912
10.4995 9.16182 7.44512
11.1285 9.54422 6.46512
10.1265 9.44872 6.92912
8.91552 9.28262 7.07712
8.93052 9.10712 7.59012
10.6215 9.65942 6.07212
10.2395 9.58852 5.76112
9.63552 9.47612 6.05712
9.84352 9.51472 6.45312
8.91052 9.34112 6.15612
8.91052 9.34112 6.58112
8.18552 9.20622 6.05712
7.97752 9.16752 6.45312
7.70852 9.03212 6.93812
7.37752 8.71442 7.48212
11.7905 8.59132 2.41812
12.4565 8.65402 3.42412
11.1325 9.43302 2.88212
11.7075 9.52492 3.69212
11.8925 9.57402 4.67412
12.6485 8.74882 4.67412
10.6215 9.65942 3.27512
10.2395 9.58852 3.58712
10.6025 9.65602 4.08112
11.0875 9.74622 3.91112
10.7235 9.67842 4.67412
11.2435 9.77512 4.67412
10.6025 9.65602 5.26712
11.0875 9.74622 5.43612
11.7085 9.58322 5.65612
12.4575 8.88732 5.92412
7.48252 8.20632 1.86612
7.73452 8.90502 2.41012
8.94152 9.11782 2.27112
9.03452 8.44792 1.75712
8.18552 9.20622 3.29012
7.97752 9.16752 2.89412
8.91052 9.34112 3.19212
8.91052 9.34112 2.76712
9.63552 9.47612 3.29012
9.84352 9.51472 2.89412
10.1415 9.29562 2.41912
10.5605 8.54952 1.90212
8.00552 9.20422 4.98912
8.19753 9.24022 5.25112
8.23152 9.27802 5.21912
8.04953 9.24392 4.97112
7.98852 9.23252 4.67412
7.94052 9.19222 4.67412
8.23152 9.27802 4.12812
8.19753 9.24022 4.09612
8.00552 9.20422 4.35912
9.28953 9.44412 5.40912
9.61152 9.50412 5.25112
9.56652 9.52832 5.21912
9.26252 9.47142 5.36812
8.89853 9.40322 5.41812
8.90452 9.37222 5.46112
8.51952 9.30022 5.40912
8.53452 9.33492 5.36812
9.80352 9.54012 4.35912
9.61152 9.50412 4.09612
9.56652 9.52832 4.12812
9.74852 9.56252 4.37612
9.80853 9.57392 4.67412
9.86852 9.55212 4.67412
9.80352 9.54012 4.98912
9.74852 9.56252 4.97112
8.51952 9.30022 3.93812
8.53452 9.33492 3.97912
8.89853 9.40322 3.92912
8.90452 9.37222 3.88612
9.28953 9.44412 3.93812
9.26252 9.47142 3.97912
-0.503475 7.13842 6.96412
-1.85648 7.03442 7.45512
-1.26048 7.34782 6.44212
-2.30548 7.19002 6.89112
-3.57248 6.98562 7.02512
-3.53248 6.84972 7.56112
-1.83048 7.35842 6.02412
-2.23648 7.28262 5.71212
-2.84948 7.16822 5.99512
-2.62848 7.20952 6.39212
-3.58548 7.03092 6.08912
-3.58548 7.03092 6.51512
-4.32148 6.89372 5.99512
-4.93448 6.77932 5.71212
-5.34148 6.70352 6.02412
-4.54348 6.85232 6.39212
-5.84048 6.48902 6.42812
-4.81948 6.72722 6.88112
-6.38648 6.02322 6.90912
-5.13048 6.44882 7.41812
-0.504475 6.90902 2.38712
0.112525 7.18522 3.40012
-1.26048 7.29042 2.90912
-0.682475 7.43852 3.70512
-0.507475 7.50912 4.67512
0.248525 7.36222 4.67512
-1.83048 7.35842 3.32712
-2.23648 7.28262 3.63912
-1.86848 7.35122 4.11012
-1.35148 7.44772 3.94012
-1.74648 7.37412 4.67512
-1.19148 7.47752 4.67512
-1.86848 7.35122 5.24112
-1.35148 7.44772 5.41112
-0.680475 7.46652 5.64612
0.120525 7.29712 5.95112
-6.30148 5.78942 2.44212
-5.03947 6.08792 1.93312
-5.81948 6.43062 2.92312
-4.79748 6.63702 2.47012
-3.55448 6.87922 2.32512
-3.46148 6.42392 1.79012
-5.34148 6.70352 3.32712
-4.93448 6.77932 3.63912
-4.32148 6.89372 3.35612
-4.54348 6.85232 2.95912
-3.58548 7.03092 3.26212
-3.58548 7.03092 2.83612
-2.84948 7.16822 3.35612
-2.62848 7.20952 2.95912
-2.29748 7.10052 2.46012
-1.82248 6.67642 1.89612
-7.03947 5.76442 5.91412
-6.42747 6.34522 5.63712
-6.60948 6.28982 4.67512
-7.20148 5.64802 4.67512
-5.30247 6.71062 5.24112
-5.82048 6.61422 5.41112
-5.42548 6.68782 4.67512
-5.97948 6.58442 4.67512
-5.30247 6.71062 4.11012
-5.82048 6.61422 3.94012
-6.41548 6.31652 3.71412
-6.98848 5.64952 3.43712
-2.57848 7.27122 4.34112
-2.79648 7.22972 4.06312
-2.83048 7.27482 4.08312
-2.62048 7.31582 4.35212
-2.55048 7.33052 4.67512
-2.50648 7.28552 4.67512
-2.57948 7.27252 5.01012
-3.60348 7.12722 3.86712
-3.59448 7.07912 3.84012
-4.03048 6.99722 3.89512
-3.15948 7.16112 3.89512
-3.18248 7.20742 3.92112
-4.65848 6.93012 4.67512
-4.68348 6.87572 4.67512
-4.61147 6.89002 5.01012
-4.61147 6.88882 4.34112
9.97052 9.53842 5.54012
9.48852 9.44872 5.77712
9.79052 9.50822 5.39412
9.39052 9.43372 5.59112
8.90952 9.34422 5.65612
8.91052 9.34112 5.85612
9.67852 9.49712 5.30412
9.32852 9.43192 5.47512
8.90753 9.35352 5.53312
8.13752 9.21002 5.30412
8.48752 9.27522 5.47512
8.02852 9.18022 5.39412
8.42852 9.25482 5.59112
7.84952 9.14392 5.54012
8.33152 9.23352 5.77712
7.56052 9.09012 5.14612
7.78852 9.13552 5.06712
7.70752 9.12062 4.67412
7.46452 9.07212 4.67412
7.92753 9.17082 5.01712
7.85752 9.15782 4.67412
8.13752 9.21002 4.04412
7.92753 9.17082 4.33012
8.02852 9.18022 3.95312
7.78852 9.13552 4.28112
7.84952 9.14392 3.80712
7.56052 9.09012 4.20112
8.33152 9.23352 3.57112
8.42852 9.25482 3.75712
8.90952 9.34422 3.69112
8.91052 9.34112 3.49212
8.48752 9.27522 3.87212
8.90753 9.35352 3.81512
9.67852 9.49712 4.04412
9.32852 9.43192 3.87212
9.79052 9.50822 3.95312
9.39052 9.43372 3.75712
9.97052 9.53842 3.80712
9.48852 9.44872 3.57112
10.2595 9.59222 4.20112
10.0315 9.55302 4.28112
10.1115 9.56792 4.67412
10.3565 9.61012 4.67412
9.88853 9.53632 4.33012
9.95852 9.54932 4.67412
9.88853 9.53632 5.01712
10.0315 9.55302 5.06712
10.2595 9.59222 5.14612
-2.50448 7.23272 5.50612
-2.99548 7.14102 5.73312
-2.66548 7.20802 5.38312
-3.08448 7.12992 5.57612
-3.58648 7.03602 5.64112
-3.58548 7.03092 5.80912
-2.75248 7.20802 5.31912
-3.15948 7.16402 5.45612
-3.13248 7.13692 5.49412
-3.59548 7.08212 5.51112
-3.58948 7.05142 5.55312
-4.03048 7.00012 5.45612
-4.42648 6.89452 5.31912
-4.04648 6.96592 5.49412
-4.50848 6.86402 5.38312
-4.08948 6.94222 5.57612
-4.66748 6.82922 5.50612
-4.17548 6.92092 5.73312
-4.96248 6.77422 5.12912
-4.75948 6.81712 5.06212
-4.84348 6.80142 4.67512
-5.06048 6.75582 4.67512
-4.65548 6.85152 5.02612
-4.73148 6.83712 4.67512
-4.39348 6.92922 4.06312
-4.42648 6.89362 4.03212
-4.65548 6.85112 4.32512
-4.50848 6.86382 3.96812
-4.75948 6.81692 4.28912
-4.66748 6.82922 3.84512
-4.96248 6.77422 4.22212
-4.17548 6.92092 3.61812
-4.08948 6.94192 3.77512
-3.58648 7.03572 3.71012
-3.58548 7.03092 3.54212
-4.04648 6.96472 3.85712
-3.58948 7.05022 3.79812
-2.75148 7.20712 4.03212
-3.13248 7.13572 3.85712
-2.66548 7.20782 3.96812
-3.08448 7.12962 3.77512
-2.50448 7.23272 3.84512
-2.99548 7.14102 3.61812
-2.20948 7.28772 4.22212
-2.41448 7.25472 4.28912
-2.33048 7.27042 4.67512
-2.11048 7.30602 4.67512
-2.52348 7.25002 4.32512
-2.44748 7.26452 4.67512
-2.52348 7.25052 5.02612
-2.41448 7.25492 5.06212
-2.20948 7.28772 5.12912
4.13352 3.58012 5.56312
3.79352 3.55552 5.80412
4.10852 3.57992 5.53412
3.78052 3.55602 5.76712
3.38552 3.52742 5.84312
3.38552 3.52592 5.88312
4.08952 3.58322 5.51212
3.76952 3.55992 5.73912
3.38552 3.53202 5.81312
2.69452 3.49112 5.49112
2.68152 3.48122 5.50712
3.00152 3.50422 5.73512
2.66252 3.47532 5.52912
2.99152 3.49902 5.76412
2.63852 3.47212 5.55812
2.97852 3.49652 5.80112
2.43452 3.45742 5.15612
2.46552 3.46122 5.14112
2.40052 3.45652 4.67512
2.36652 3.45262 4.67512
2.48952 3.46732 5.12912
2.42552 3.46272 4.67512
2.68152 3.48122 3.84312
2.48952 3.46732 4.22112
2.66252 3.47532 3.82112
2.46552 3.46122 4.20912
2.63852 3.47212 3.79212
2.43452 3.45742 4.19412
2.97852 3.49652 3.54912
2.99152 3.49902 3.58612
3.38552 3.52742 3.50612
3.38552 3.52592 3.46612
3.00152 3.50422 3.61412
3.38552 3.53202 3.53612
4.08952 3.58322 3.83612
3.76952 3.55992 3.61012
4.10852 3.57992 3.81412
3.78052 3.55602 3.58112
4.13352 3.58012 3.78512
3.79352 3.55552 3.54412
4.33752 3.59502 4.18812
4.30552 3.59432 4.20412
4.37152 3.59912 4.67412
4.40552 3.60002 4.67412
4.28152 3.59722 4.21612
4.34552 3.60192 4.67412
4.28152 3.59722 5.13112
4.30552 3.59432 5.14312
4.33752 3.59502 5.15912
9.74953 -10.1204 5.97512
10.1765 -10.234 5.38412
9.64952 -10.0966 5.89112
10.0495 -10.203 5.33712
10.1825 -10.2385 4.67212
10.3195 -10.2719 4.67412
10.1175 -10.2296 4.66712
9.60152 -10.0921 5.84812
9.96352 -10.2054 4.02212
9.58152 -10.1034 3.49112
9.60152 -10.0921 3.48712
9.98852 -10.1952 4.02312
9.64952 -10.0966 3.45312
10.0495 -10.203 4.00712
9.74953 -10.1204 3.37212
10.1765 -10.234 3.96412
9.03852 -9.93108 3.01712
8.98353 -9.91928 3.12112
8.18452 -9.70638 3.01012
8.18452 -9.70388 2.89912
8.94352 -9.93318 3.17312
8.95652 -9.92018 3.16512
8.17852 -9.72908 3.06712
8.18252 -9.71398 3.05812
6.76252 -9.33588 3.48712
7.40752 -9.50768 3.16512
6.71852 -9.31628 3.45312
7.38452 -9.49358 3.12112
6.61952 -9.28738 3.37212
7.33052 -9.47668 3.01712
6.19252 -9.17378 3.96412
6.31852 -9.20988 4.00712
6.18552 -9.17438 4.67212
6.05052 -9.13588 4.67412
6.37552 -9.23268 4.02412
6.24652 -9.19838 4.66712
6.76252 -9.33588 5.84812
6.37552 -9.23268 5.31112
6.71852 -9.31628 5.89112
6.31852 -9.20988 5.33712
6.61952 -9.28738 5.97512
6.19252 -9.17378 5.38412
7.33052 -9.47668 6.33012
7.38452 -9.49358 6.22412
8.18452 -9.70638 6.33412
8.18452 -9.70388 6.44912
7.40752 -9.50768 6.17012
8.18252 -9.71398 6.27712
8.95652 -9.92018 6.17012
8.98353 -9.91928 6.22412
9.03852 -9.93108 6.33012
-2.40448 -6.90158 6.00012
-1.94248 -7.02478 5.39812
-2.52548 -6.87368 5.90912
-2.09648 -6.98828 5.35012
-1.95348 -7.02648 4.67812
-1.78748 -7.06588 4.67512
-2.59448 -6.86898 5.86612
-2.63348 -6.88588 5.85712
-2.18348 -6.97888 5.33012
-2.04648 -7.01548 4.68612
-2.59448 -6.86898 3.50712
-2.18348 -6.97888 4.04312
-2.52548 -6.87368 3.44712
-2.09648 -6.98828 4.00712
-2.40448 -6.90158 3.35112
-1.94248 -7.02478 3.95312
-3.17448 -6.69618 2.98912
-3.24148 -6.68278 3.11212
-4.10048 -6.45368 3.00012
-4.09948 -6.44968 2.86912
-3.28048 -6.68568 3.18512
-4.10348 -6.46578 3.07812
-5.61248 -6.06268 3.50712
-4.92648 -6.24598 3.18512
-5.67448 -6.03368 3.44712
-4.95948 -6.22458 3.11212
-5.79448 -5.99778 3.35112
-5.02348 -6.20318 2.98912
-6.25647 -5.87448 3.95312
-6.10448 -5.91908 4.00712
-6.24748 -5.88098 4.67812
-6.41048 -5.83338 4.67512
-6.02348 -5.95278 4.04312
-6.16048 -5.91608 4.68612
-5.61248 -6.06268 5.86612
-6.02348 -5.95278 5.33012
-5.67448 -6.03368 5.90912
-6.10448 -5.91908 5.35012
-5.79448 -5.99778 6.00012
-6.25647 -5.87448 5.39812
-5.02348 -6.20318 6.36212
-4.95948 -6.22458 6.24512
-4.10048 -6.45368 6.35712
-4.09948 -6.44968 6.48212
-4.92648 -6.24598 6.18712
-4.10348 -6.46578 6.29512
-3.28048 -6.68568 6.18712
-3.24148 -6.68278 6.24512
-3.17448 -6.69618 6.36212
-2.12948 -2.36768 0.808119
-2.62348 -1.99978 0.808119
-2.33048 -2.80788 0.805119
-2.76048 -2.50358 0.805119
-3.30648 -2.35148 0.805119
-3.24848 -1.82758 0.808119
-2.42948 -3.01138 0.796118
-2.82948 -2.73798 0.796118
-3.33648 -2.59628 0.796118
-4.32247 -2.73748 0.796118
-3.86248 -2.59378 0.796118
-4.36548 -2.52948 0.805119
-3.87148 -2.35818 0.805119
-4.46047 -2.08448 0.808119
-3.89548 -1.85488 0.808119
-4.83948 -2.51958 0.808119
-4.69747 -2.87118 0.805119
-4.86048 -3.31248 0.805119
-5.02748 -3.07278 0.808119
-4.63048 -3.03428 0.796118
-4.78148 -3.42168 0.796118
-4.57048 -4.21828 0.796118
-4.76548 -3.83688 0.796118
-4.64048 -4.21278 0.805119
-4.84648 -3.78288 0.805119
-4.78548 -4.18698 0.808119
-5.01548 -3.65698 0.808119
-4.31648 -4.57758 0.808119
-4.22648 -4.53288 0.805119
-3.69248 -4.71958 0.805119
-3.70848 -4.80018 0.808119
-4.18348 -4.50428 0.796118
-3.68548 -4.67368 0.796118
-2.69248 -4.57748 0.796118
-3.15948 -4.70538 0.796118
-2.62248 -4.59818 0.805119
-3.12748 -4.74958 0.805119
-2.47948 -4.62568 0.808119
-3.06048 -4.82628 0.808119
-2.07248 -4.16828 0.808119
-2.27348 -4.24108 0.805119
-2.09648 -3.76528 0.805119
-1.86448 -3.56508 0.808119
-2.37048 -4.26828 0.796118
-2.21048 -3.85348 0.796118
-2.22648 -3.40888 0.796118
-2.11248 -3.25808 0.805119
-1.88048 -2.92718 0.808119
10.3455 -4.07438 0.814119
9.91752 -3.61478 0.814119
10.1415 -4.65668 0.811119
9.76653 -4.27978 0.811119
9.27752 -4.10668 0.811119
9.35853 -3.41448 0.814119
10.0455 -4.90238 0.799119
9.69352 -4.56098 0.799119
9.23353 -4.39978 0.799119
8.31452 -4.64718 0.799119
8.74852 -4.42628 0.799119
8.29953 -4.39788 0.811119
8.76153 -4.14408 0.811119
8.24552 -3.80968 0.814119
8.77052 -3.47838 0.814119
7.87352 -4.41188 0.814119
7.97252 -4.87378 0.811119
7.79252 -5.47388 0.811119
7.66552 -5.16348 0.814119
8.00752 -5.06918 0.799119
7.83952 -5.60438 0.799119
7.77052 -6.10008 0.811119
7.80152 -6.63068 0.814119
7.63252 -5.94268 0.814119
8.20053 -7.10808 0.814119
8.28152 -7.04538 0.811119
8.75852 -7.24748 0.811119
8.74053 -7.35018 0.814119
8.75952 -7.20088 0.799119
9.27752 -7.24158 0.811119
9.88153 -7.02658 0.814119
9.33352 -7.33198 0.814119
10.2865 -6.40698 0.814119
10.1005 -6.51748 0.811119
10.2955 -5.88878 0.811119
10.5165 -5.61408 0.814119
10.1925 -6.00308 0.799119
10.2075 -5.41648 0.799119
10.3135 -5.23078 0.811119
10.5405 -4.78868 0.814119
3 0 1 2
3 0 2 3
3 2 4 5
3 2 5 3
3 5 6 7
3 5 7 3
3 7 8 0
3 7 0 3
3 9 10 11
3 9 11 12
3 11 13 14
3 11 14 12
3 14 6 5
3 14 5 12
3 5 4 9
3 5 9 12
3 15 16 17
3 15 17 18
3 17 19 20
3 17 20 18
3 20 6 14
3 20 14 18
3 14 13 15
3 14 15 18
3 21 22 23
3 21 23 24
3 23 8 7
3 23 7 24
3 7 6 20
3 7 20 24
3 20 19 21
3 20 21 24
3 25 26 27
3 25 27 28
3 27 29 30
3 27 30 28
3 30 31 32
3 30 32 28
3 32 33 25
3 32 25 28
3 34 35 36
3 34 36 37
3 36 38 39
3 36 39 37
3 39 31 30
3 39 30 37
3 30 29 34
3 30 34 37
3 40 41 42
3 40 42 43
3 42 44 45
3 42 45 43
3 45 31 39
3 45 39 43
3 39 38 40
3 39 40 43
3 46 47 48
3 46 48 49
3 48 33 32
3 48 32 49
3 32 31 45
3 32 45 49
3 45 44 46
3 45 46 49
3 50 51 52
3 50 52 53
3 52 54 55
3 52 55 53
3 55 56 57
3 55 57 53
3 57 58 50
3 57 50 53
3 59 60 61
3 59 61 62
3 61 63 64
3 61 64 62
3 64 56 55
3 64 55 62
3 55 54 59
3 55 59 62
3 65 66 67
3 65 67 68
3 67 69 70
3 67 70 68
3 70 56 64
3 70 64 68
3 64 63 65
3 64 65 68
3 71 26 72
3 71 72 73
3 72 58 57
3 72 57 73
3 57 56 70
3 57 70 73
3 70 69 71
3 70 71 73
3 74 75 76
3 74 76 77
3 76 78 79
3 76 79 77
3 79 80 81
3 79 81 77
3 81 82 74
3 81 74 77
3 83 84 85
3 83 85 86
3 85 87 88
3 85 88 86
3 88 80 79
3 88 79 86
3 79 78 83
3 79 83 86
3 89 60 59
3 89 59 90
3 59 54 91
3 59 91 90
3 91 80 88
3 91 88 90
3 88 87 89
3 88 89 90
3 52 51 92
3 52 92 93
3 92 82 81
3 92 81 93
3 81 80 91
3 81 91 93
3 91 54 52
3 91 52 93
3 94 35 95
3 94 95 96
3 95 97 98
3 95 98 96
3 98 99 100
3 98 100 96
3 100 101 94
3 100 94 96
3 102 103 104
3 102 104 105
3 104 106 107
3 104 107 105
3 107 99 98
3 107 98 105
3 98 97 102
3 98 102 105
3 108 84 83
3 108 83 109
3 83 78 110
3 83 110 109
3 110 99 107
3 110 107 109
3 107 106 108
3 107 108 109
3 76 75 111
3 76 111 112
3 111 101 100
3 111 100 112
3 100 99 110
3 100 110 112
3 110 78 76
3 110 76 112
3 27 26 71
3 27 71 113
3 71 69 114
3 71 114 113
3 114 115 116
3 114 116 113
3 116 29 27
3 116 27 113
3 67 66 117
3 67 117 118
3 117 119 120
3 117 120 118
3 120 115 114
3 120 114 118
3 114 69 67
3 114 67 118
3 121 103 102
3 121 102 122
3 102 97 123
3 102 123 122
3 123 115 120
3 123 120 122
3 120 119 121
3 120 121 122
3 95 35 34
3 95 34 124
3 34 29 116
3 34 116 124
3 116 115 123
3 116 123 124
3 123 97 95
3 123 95 124
3 61 60 125
3 61 125 126
3 125 127 128
3 125 128 126
3 128 129 130
3 128 130 126
3 130 63 61
3 130 61 126
3 131 132 133
3 131 133 134
3 133 135 136
3 133 136 134
3 136 129 128
3 136 128 134
3 128 127 131
3 128 131 134
3 137 138 139
3 137 139 140
3 139 141 142
3 139 142 140
3 142 129 136
3 142 136 140
3 136 135 137
3 136 137 140
3 143 66 65
3 143 65 144
3 65 63 130
3 65 130 144
3 130 129 142
3 130 142 144
3 142 141 143
3 142 143 144
3 85 84 145
3 85 145 146
3 145 147 148
3 145 148 146
3 148 149 150
3 148 150 146
3 150 87 85
3 150 85 146
3 151 152 153
3 151 153 154
3 153 155 156
3 153 156 154
3 156 149 148
3 156 148 154
3 148 147 151
3 148 151 154
3 157 132 131
3 157 131 158
3 131 127 159
3 131 159 158
3 159 149 156
3 159 156 158
3 156 155 157
3 156 157 158
3 125 60 89
3 125 89 160
3 89 87 150
3 89 150 160
3 150 149 159
3 150 159 160
3 159 127 125
3 159 125 160
3 104 103 161
3 104 161 162
3 161 163 164
3 161 164 162
3 164 165 166
3 164 166 162
3 166 106 104
3 166 104 162
3 167 168 169
3 167 169 170
3 169 171 172
3 169 172 170
3 172 165 164
3 172 164 170
3 164 163 167
3 164 167 170
3 173 152 151
3 173 151 174
3 151 147 175
3 151 175 174
3 175 165 172
3 175 172 174
3 172 171 173
3 172 173 174
3 145 84 108
3 145 108 176
3 108 106 166
3 108 166 176
3 166 165 175
3 166 175 176
3 175 147 145
3 175 145 176
3 117 66 143
3 117 143 177
3 143 141 178
3 143 178 177
3 178 179 180
3 178 180 177
3 180 119 117
3 180 117 177
3 139 138 181
3 139 181 182
3 181 183 184
3 181 184 182
3 184 179 178
3 184 178 182
3 178 141 139
3 178 139 182
3 185 168 167
3 185 167 186
3 167 163 187
3 167 187 186
3 187 179 184
3 187 184 186
3 184 183 185
3 184 185 186
3 161 103 121
3 161 121 188
3 121 119 180
3 121 180 188
3 180 179 187
3 180 187 188
3 187 163 161
3 187 161 188
3 133 132 189
3 133 189 190
3 189 191 192
3 189 192 190
3 192 193 194
3 192 194 190
3 194 135 133
3 194 133 190
3 195 1 0
3 195 0 196
3 0 8 197
3 0 197 196
3 197 193 192
3 197 192 196
3 192 191 195
3 192 195 196
3 23 22 198
3 23 198 199
3 198 200 201
3 198 201 199
3 201 193 197
3 201 197 199
3 197 8 23
3 197 23 199
3 202 138 137
3 202 137 203
3 137 135 194
3 137 194 203
3 194 193 201
3 194 201 203
3 201 200 202
3 201 202 203
3 153 152 204
3 153 204 205
3 204 206 207
3 204 207 205
3 207 208 209
3 207 209 205
3 209 155 153
3 209 153 205
3 210 10 9
3 210 9 211
3 9 4 212
3 9 212 211
3 212 208 207
3 212 207 211
3 207 206 210
3 207 210 211
3 2 1 195
3 2 195 213
3 195 191 214
3 195 214 213
3 214 208 212
3 214 212 213
3 212 4 2
3 212 2 213
3 189 132 157
3 189 157 215
3 157 155 209
3 157 209 215
3 209 208 214
3 209 214 215
3 214 191 189
3 214 189 215
3 169 168 216
3 169 216 217
3 216 218 219
3 216 219 217
3 219 220 221
3 219 221 217
3 221 171 169
3 221 169 217
3 222 16 15
3 222 15 223
3 15 13 224
3 15 224 223
3 224 220 219
3 224 219 223
3 219 218 222
3 219 222 223
3 11 10 210
3 11 210 225
3 210 206 226
3 210 226 225
3 226 220 224
3 226 224 225
3 224 13 11
3 224 11 225
3 204 152 173
3 204 173 227
3 173 171 221
3 173 221 227
3 221 220 226
3 221 226 227
3 226 206 204
3 226 204 227
3 181 138 202
3 181 202 228
3 202 200 229
3 202 229 228
3 229 230 231
3 229 231 228
3 231 183 181
3 231 181 228
3 198 22 21
3 198 21 232
3 21 19 233
3 21 233 232
3 233 230 229
3 233 229 232
3 229 200 198
3 229 198 232
3 17 16 222
3 17 222 234
3 222 218 235
3 222 235 234
3 235 230 233
3 235 233 234
3 233 19 17
3 233 17 234
3 216 168 185
3 216 185 236
3 185 183 231
3 185 231 236
3 231 230 235
3 231 235 236
3 235 218 216
3 235 216 236
3 237 238 239
3 237 239 240
3 239 241 242
3 239 242 240
3 242 243 244
3 242 244 240
3 244 245 237
3 244 237 240
3 246 247 248
3 246 248 249
3 248 250 251
3 248 251 249
3 251 243 242
3 251 242 249
3 242 241 246
3 242 246 249
3 252 253 254
3 252 254 255
3 254 256 257
3 254 257 255
3 257 243 251
3 257 251 255
3 251 250 252
3 251 252 255
3 258 51 259
3 258 259 260
3 259 245 244
3 259 244 260
3 244 243 257
3 244 257 260
3 257 256 258
3 257 258 260
3 261 262 263
3 261 263 264
3 263 265 266
3 263 266 264
3 266 267 268
3 266 268 264
3 268 269 261
3 268 261 264
3 270 271 272
3 270 272 273
3 272 274 275
3 272 275 273
3 275 267 266
3 275 266 273
3 266 265 270
3 266 270 273
3 276 247 246
3 276 246 277
3 246 241 278
3 246 278 277
3 278 267 275
3 278 275 277
3 275 274 276
3 275 276 277
3 239 238 279
3 239 279 280
3 279 269 268
3 279 268 280
3 268 267 278
3 268 278 280
3 278 241 239
3 278 239 280
3 281 75 282
3 281 282 283
3 282 284 285
3 282 285 283
3 285 286 287
3 285 287 283
3 287 288 281
3 287 281 283
3 289 290 291
3 289 291 292
3 291 293 294
3 291 294 292
3 294 286 285
3 294 285 292
3 285 284 289
3 285 289 292
3 295 271 270
3 295 270 296
3 270 265 297
3 270 297 296
3 297 286 294
3 297 294 296
3 294 293 295
3 294 295 296
3 263 262 298
3 263 298 299
3 298 288 287
3 298 287 299
3 287 286 297
3 287 297 299
3 297 265 263
3 297 263 299
3 92 51 258
3 92 258 300
3 258 256 301
3 258 301 300
3 301 302 303
3 301 303 300
3 303 82 92
3 303 92 300
3 254 253 304
3 254 304 305
3 304 306 307
3 304 307 305
3 307 302 301
3 307 301 305
3 301 256 254
3 301 254 305
3 308 290 289
3 308 289 309
3 289 284 310
3 289 310 309
3 310 302 307
3 310 307 309
3 307 306 308
3 307 308 309
3 282 75 74
3 282 74 311
3 74 82 303
3 74 303 311
3 303 302 310
3 303 310 311
3 310 284 282
3 310 282 311
3 248 247 312
3 248 312 313
3 312 314 315
3 312 315 313
3 315 316 317
3 315 317 313
3 317 250 248
3 317 248 313
3 318 319 320
3 318 320 321
3 320 322 323
3 320 323 321
3 323 316 315
3 323 315 321
3 315 314 318
3 315 318 321
3 324 325 326
3 324 326 327
3 326 328 329
3 326 329 327
3 329 316 323
3 329 323 327
3 323 322 324
3 323 324 327
3 330 253 252
3 330 252 331
3 252 250 317
3 252 317 331
3 317 316 329
3 317 329 331
3 329 328 330
3 329 330 331
3 272 271 332
3 272 332 333
3 332 334 335
3 332 335 333
3 335 336 337
3 335 337 333
3 337 274 272
3 337 272 333
3 338 339 340
3 338 340 341
3 340 342 343
3 340 343 341
3 343 336 335
3 343 335 341
3 335 334 338
3 335 338 341
3 344 319 318
3 344 318 345
3 318 314 346
3 318 346 345
3 346 336 343
3 346 343 345
3 343 342 344
3 343 344 345
3 312 247 276
3 312 276 347
3 276 274 337
3 276 337 347
3 337 336 346
3 337 346 347
3 346 314 312
3 346 312 347
3 304 253 330
3 304 330 348
3 330 328 349
3 330 349 348
3 349 350 351
3 349 351 348
3 351 306 304
3 351 304 348
3 326 325 352
3 326 352 353
3 352 354 355
3 352 355 353
3 355 350 349
3 355 349 353
3 349 328 326
3 349 326 353
3 356 357 358
3 356 358 359
3 358 360 361
3 358 361 359
3 361 350 355
3 361 355 359
3 355 354 356
3 355 356 359
3 362 290 308
3 362 308 363
3 308 306 351
3 308 351 363
3 351 350 361
3 351 361 363
3 361 360 362
3 361 362 363
3 320 319 364
3 320 364 365
3 364 366 367
3 364 367 365
3 367 368 369
3 367 369 365
3 369 322 320
3 369 320 365
3 370 371 372
3 370 372 373
3 372 374 375
3 372 375 373
3 375 368 367
3 375 367 373
3 367 366 370
3 367 370 373
3 376 377 378
3 376 378 379
3 378 380 381
3 378 381 379
3 381 368 375
3 381 375 379
3 375 374 376
3 375 376 379
3 382 325 324
3 382 324 383
3 324 322 369
3 324 369 383
3 369 368 381
3 369 381 383
3 381 380 382
3 381 382 383
3 340 339 384
3 340 384 385
3 384 386 387
3 384 387 385
3 387 388 389
3 387 389 385
3 389 342 340
3 389 340 385
3 390 391 392
3 390 392 393
3 392 394 395
3 392 395 393
3 395 388 387
3 395 387 393
3 387 386 390
3 387 390 393
3 396 371 370
3 396 370 397
3 370 366 398
3 370 398 397
3 398 388 395
3 398 395 397
3 395 394 396
3 395 396 397
3 364 319 344
3 364 344 399
3 344 342 389
3 344 389 399
3 389 388 398
3 389 398 399
3 398 366 364
3 398 364 399
3 400 357 401
3 400 401 402
3 401 403 404
3 401 404 402
3 404 405 406
3 404 406 402
3 406 407 400
3 406 400 402
3 408 409 410
3 408 410 411
3 410 412 413
3 410 413 411
3 413 405 404
3 413 404 411
3 404 403 408
3 404 408 411
3 414 391 390
3 414 390 415
3 390 386 416
3 390 416 415
3 416 405 413
3 416 413 415
3 413 412 414
3 413 414 415
3 384 339 417
3 384 417 418
3 417 407 406
3 417 406 418
3 406 405 416
3 406 416 418
3 416 386 384
3 416 384 418
3 352 325 382
3 352 382 419
3 382 380 420
3 382 420 419
3 420 421 422
3 420 422 419
3 422 354 352
3 422 352 419
3 378 377 423
3 378 423 424
3 423 425 426
3 423 426 424
3 426 421 420
3 426 420 424
3 420 380 378
3 420 378 424
3 427 409 408
3 427 408 428
3 408 403 429
3 408 429 428
3 429 421 426
3 429 426 428
3 426 425 427
3 426 427 428
3 401 357 356
3 401 356 430
3 356 354 422
3 356 422 430
3 422 421 429
3 422 429 430
3 429 403 401
3 429 401 430
3 431 432 433
3 431 433 434
3 433 435 436
3 433 436 434
3 436 437 438
3 436 438 434
3 438 439 431
3 438 431 434
3 440 441 442
3 440 442 443
3 442 444 445
3 442 445 443
3 445 437 436
3 445 436 443
3 436 435 440
3 436 440 443
3 446 447 448
3 446 448 449
3 448 450 451
3 448 451 449
3 451 437 445
3 451 445 449
3 445 444 446
3 445 446 449
3 452 453 454
3 452 454 455
3 454 439 438
3 454 438 455
3 438 437 451
3 438 451 455
3 451 450 452
3 451 452 455
3 423 377 456
3 423 456 457
3 456 458 459
3 456 459 457
3 459 460 461
3 459 461 457
3 461 425 423
3 461 423 457
3 462 463 464
3 462 464 465
3 464 466 467
3 464 467 465
3 467 460 459
3 467 459 465
3 459 458 462
3 459 462 465
3 468 469 470
3 468 470 471
3 470 472 473
3 470 473 471
3 473 460 467
3 473 467 471
3 467 466 468
3 467 468 471
3 474 409 427
3 474 427 475
3 427 425 461
3 427 461 475
3 461 460 473
3 461 473 475
3 473 472 474
3 473 474 475
3 476 477 478
3 476 478 479
3 478 480 481
3 478 481 479
3 481 482 483
3 481 483 479
3 483 484 476
3 483 476 479
3 485 486 487
3 485 487 488
3 487 489 490
3 487 490 488
3 490 482 481
3 490 481 488
3 481 480 485
3 481 485 488
3 491 463 462
3 491 462 492
3 462 458 493
3 462 493 492
3 493 482 490
3 493 490 492
3 490 489 491
3 490 491 492
3 456 377 494
3 456 494 495
3 494 484 483
3 494 483 495
3 483 482 493
3 483 493 495
3 493 458 456
3 493 456 495
3 496 497 498
3 496 498 499
3 498 500 501
3 498 501 499
3 501 502 503
3 501 503 499
3 503 504 496
3 503 496 499
3 505 506 507
3 505 507 508
3 507 509 510
3 507 510 508
3 510 502 501
3 510 501 508
3 501 500 505
3 501 505 508
3 511 486 485
3 511 485 512
3 485 480 513
3 485 513 512
3 513 502 510
3 513 510 512
3 510 509 511
3 510 511 512
3 478 477 514
3 478 514 515
3 514 504 503
3 514 503 515
3 503 502 513
3 503 513 515
3 513 480 478
3 513 478 515
3 516 409 474
3 516 474 517
3 474 472 518
3 474 518 517
3 518 519 520
3 518 520 517
3 520 521 516
3 520 516 517
3 470 469 522
3 470 522 523
3 522 524 525
3 522 525 523
3 525 519 518
3 525 518 523
3 518 472 470
3 518 470 523
3 526 506 505
3 526 505 527
3 505 500 528
3 505 528 527
3 528 519 525
3 528 525 527
3 525 524 526
3 525 526 527
3 498 497 529
3 498 529 530
3 529 521 520
3 529 520 530
3 520 519 528
3 520 528 530
3 528 500 498
3 528 498 530
3 464 463 531
3 464 531 532
3 531 533 534
3 531 534 532
3 534 535 536
3 534 536 532
3 536 466 464
3 536 464 532
3 537 538 539
3 537 539 540
3 539 541 542
3 539 542 540
3 542 535 534
3 542 534 540
3 534 533 537
3 534 537 540
3 543 544 545
3 543 545 546
3 545 547 548
3 545 548 546
3 548 535 542
3 548 542 546
3 542 541 543
3 542 543 546
3 549 469 468
3 549 468 550
3 468 466 536
3 468 536 550
3 536 535 548
3 536 548 550
3 548 547 549
3 548 549 550
3 487 486 551
3 487 551 552
3 551 553 554
3 551 554 552
3 554 555 556
3 554 556 552
3 556 489 487
3 556 487 552
3 557 558 559
3 557 559 560
3 559 561 562
3 559 562 560
3 562 555 554
3 562 554 560
3 554 553 557
3 554 557 560
3 563 538 537
3 563 537 564
3 537 533 565
3 537 565 564
3 565 555 562
3 565 562 564
3 562 561 563
3 562 563 564
3 531 463 491
3 531 491 566
3 491 489 556
3 491 556 566
3 556 555 565
3 556 565 566
3 565 533 531
3 565 531 566
3 507 506 567
3 507 567 568
3 567 569 570
3 567 570 568
3 570 571 572
3 570 572 568
3 572 509 507
3 572 507 568
3 573 574 575
3 573 575 576
3 575 577 578
3 575 578 576
3 578 571 570
3 578 570 576
3 570 569 573
3 570 573 576
3 579 558 557
3 579 557 580
3 557 553 581
3 557 581 580
3 581 571 578
3 581 578 580
3 578 577 579
3 578 579 580
3 551 486 511
3 551 511 582
3 511 509 572
3 511 572 582
3 572 571 581
3 572 581 582
3 581 553 551
3 581 551 582
3 522 469 549
3 522 549 583
3 549 547 584
3 549 584 583
3 584 585 586
3 584 586 583
3 586 524 522
3 586 522 583
3 545 544 587
3 545 587 588
3 587 589 590
3 587 590 588
3 590 585 584
3 590 584 588
3 584 547 545
3 584 545 588
3 591 574 573
3 591 573 592
3 573 569 593
3 573 593 592
3 593 585 590
3 593 590 592
3 590 589 591
3 590 591 592
3 567 506 526
3 567 526 594
3 526 524 586
3 526 586 594
3 586 585 593
3 586 593 594
3 593 569 567
3 593 567 594
3 539 538 595
3 539 595 596
3 595 597 598
3 595 598 596
3 598 599 600
3 598 600 596
3 600 541 539
3 600 539 596
3 601 432 431
3 601 431 602
3 431 439 603
3 431 603 602
3 603 599 598
3 603 598 602
3 598 597 601
3 598 601 602
3 454 453 604
3 454 604 605
3 604 606 607
3 604 607 605
3 607 599 603
3 607 603 605
3 603 439 454
3 603 454 605
3 608 544 543
3 608 543 609
3 543 541 600
3 543 600 609
3 600 599 607
3 600 607 609
3 607 606 608
3 607 608 609
3 559 558 610
3 559 610 611
3 610 612 613
3 610 613 611
3 613 614 615
3 613 615 611
3 615 561 559
3 615 559 611
3 616 441 440
3 616 440 617
3 440 435 618
3 440 618 617
3 618 614 613
3 618 613 617
3 613 612 616
3 613 616 617
3 433 432 601
3 433 601 619
3 601 597 620
3 601 620 619
3 620 614 618
3 620 618 619
3 618 435 433
3 618 433 619
3 595 538 563
3 595 563 621
3 563 561 615
3 563 615 621
3 615 614 620
3 615 620 621
3 620 597 595
3 620 595 621
3 575 574 622
3 575 622 623
3 622 624 625
3 622 625 623
3 625 626 627
3 625 627 623
3 627 577 575
3 627 575 623
3 628 447 446
3 628 446 629
3 446 444 630
3 446 630 629
3 630 626 625
3 630 625 629
3 625 624 628
3 625 628 629
3 442 441 616
3 442 616 631
3 616 612 632
3 616 632 631
3 632 626 630
3 632 630 631
3 630 444 442
3 630 442 631
3 610 558 579
3 610 579 633
3 579 577 627
3 579 627 633
3 627 626 632
3 627 632 633
3 632 612 610
3 632 610 633
3 587 544 608
3 587 608 634
3 608 606 635
3 608 635 634
3 635 636 637
3 635 637 634
3 637 589 587
3 637 587 634
3 604 453 452
3 604 452 638
3 452 450 639
3 452 639 638
3 639 636 635
3 639 635 638
3 635 606 604
3 635 604 638
3 448 447 628
3 448 628 640
3 628 624 641
3 628 641 640
3 641 636 639
3 641 639 640
3 639 450 448
3 639 448 640
3 622 574 591
3 622 591 642
3 591 589 637
3 591 637 642
3 637 636 641
3 637 641 642
3 641 624 622
3 641 622 642
3 372 371 643
3 372 643 644
3 643 645 646
3 643 646 644
3 646 647 648
3 646 648 644
3 648 374 372
3 648 372 644
3 649 650 651
3 649 651 652
3 651 653 654
3 651 654 652
3 654 647 646
3 654 646 652
3 646 645 649
3 646 649 652
3 655 656 657
3 655 657 658
3 657 659 660
3 657 660 658
3 660 647 654
3 660 654 658
3 654 653 655
3 654 655 658
3 661 377 376
3 661 376 662
3 376 374 648
3 376 648 662
3 648 647 660
3 648 660 662
3 660 659 661
3 660 661 662
3 663 664 665
3 663 665 666
3 665 667 668
3 665 668 666
3 668 669 670
3 668 670 666
3 670 671 663
3 670 663 666
3 672 673 674
3 672 674 675
3 674 676 677
3 674 677 675
3 677 669 668
3 677 668 675
3 668 667 672
3 668 672 675
3 678 650 649
3 678 649 679
3 649 645 680
3 649 680 679
3 680 669 677
3 680 677 679
3 677 676 678
3 677 678 679
3 643 371 681
3 643 681 682
3 681 671 670
3 681 670 682
3 670 669 680
3 670 680 682
3 680 645 643
3 680 643 682
3 683 477 684
3 683 684 685
3 684 686 687
3 684 687 685
3 687 688 689
3 687 689 685
3 689 690 683
3 689 683 685
3 691 692 693
3 691 693 694
3 693 695 696
3 693 696 694
3 696 688 687
3 696 687 694
3 687 686 691
3 687 691 694
3 697 673 672
3 697 672 698
3 672 667 699
3 672 699 698
3 699 688 696
3 699 696 698
3 696 695 697
3 696 697 698
3 665 664 700
3 665 700 701
3 700 690 689
3 700 689 701
3 689 688 699
3 689 699 701
3 699 667 665
3 699 665 701
3 494 377 661
3 494 661 702
3 661 659 703
3 661 703 702
3 703 704 705
3 703 705 702
3 705 484 494
3 705 494 702
3 657 656 706
3 657 706 707
3 706 708 709
3 706 709 707
3 709 704 703
3 709 703 707
3 703 659 657
3 703 657 707
3 710 692 691
3 710 691 711
3 691 686 712
3 691 712 711
3 712 704 709
3 712 709 711
3 709 708 710
3 709 710 711
3 684 477 476
3 684 476 713
3 476 484 705
3 476 705 713
3 705 704 712
3 705 712 713
3 712 686 684
3 712 684 713
3 714 715 716
3 714 716 717
3 718 719 714
3 718 714 717
3 720 719 718
3 716 715 721
3 722 723 724
3 725 723 722
3 726 238 727
3 726 727 728
3 727 729 730
3 727 730 728
3 730 731 732
3 730 732 728
3 732 733 726
3 732 726 728
3 734 735 736
3 734 736 737
3 736 738 739
3 736 739 737
3 739 731 730
3 739 730 737
3 730 729 734
3 730 734 737
3 740 741 742
3 740 742 743
3 742 744 745
3 742 745 743
3 745 731 739
3 745 739 743
3 739 738 740
3 739 740 743
3 746 47 747
3 746 747 748
3 747 733 732
3 747 732 748
3 732 731 745
3 732 745 748
3 745 744 746
3 745 746 748
3 259 51 749
3 259 749 750
3 749 751 752
3 749 752 750
3 752 753 754
3 752 754 750
3 754 245 259
3 754 259 750
3 755 756 757
3 755 757 758
3 757 759 760
3 757 760 758
3 760 753 752
3 760 752 758
3 752 751 755
3 752 755 758
3 761 735 734
3 761 734 762
3 734 729 763
3 734 763 762
3 763 753 760
3 763 760 762
3 760 759 761
3 760 761 762
3 727 238 237
3 727 237 764
3 237 245 754
3 237 754 764
3 754 753 763
3 754 763 764
3 763 729 727
3 763 727 764
3 72 26 765
3 72 765 766
3 765 767 768
3 765 768 766
3 768 769 770
3 768 770 766
3 770 58 72
3 770 72 766
3 771 772 773
3 771 773 774
3 773 775 776
3 773 776 774
3 776 769 768
3 776 768 774
3 768 767 771
3 768 771 774
3 777 756 755
3 777 755 778
3 755 751 779
3 755 779 778
3 779 769 776
3 779 776 778
3 776 775 777
3 776 777 778
3 749 51 50
3 749 50 780
3 50 58 770
3 50 770 780
3 770 769 779
3 770 779 780
3 779 751 749
3 779 749 780
3 48 47 746
3 48 746 781
3 746 744 782
3 746 782 781
3 782 783 784
3 782 784 781
3 784 33 48
3 784 48 781
3 742 741 785
3 742 785 786
3 785 787 788
3 785 788 786
3 788 783 782
3 788 782 786
3 782 744 742
3 782 742 786
3 789 772 771
3 789 771 790
3 771 767 791
3 771 791 790
3 791 783 788
3 791 788 790
3 788 787 789
3 788 789 790
3 765 26 25
3 765 25 792
3 25 33 784
3 25 784 792
3 784 783 791
3 784 791 792
3 791 767 765
3 791 765 792
3 793 794 795
3 793 795 796
3 797 798 793
3 797 793 796
3 799 800 801
3 801 798 797
3 802 803 804
3 795 794 805
3 795 805 806
3 805 803 802
3 805 802 806
3 807 808 809
3 807 809 810
3 811 812 807
3 811 807 810
3 813 812 811
3 814 800 799
3 814 799 815
3 816 817 814
3 816 814 815
3 809 808 818
3 809 818 819
3 818 817 816
3 818 816 819
3 820 497 496
3 820 496 821
3 496 504 822
3 496 822 821
3 822 823 824
3 822 824 821
3 824 825 820
3 824 820 821
3 514 477 683
3 514 683 826
3 683 690 827
3 683 827 826
3 827 823 822
3 827 822 826
3 822 504 514
3 822 514 826
3 700 664 828
3 700 828 829
3 828 830 831
3 828 831 829
3 831 823 827
3 831 827 829
3 827 690 700
3 827 700 829
3 832 833 834
3 832 834 835
3 834 825 824
3 834 824 835
3 824 823 831
3 824 831 835
3 831 830 832
3 831 832 835
3 836 262 837
3 836 837 838
3 837 839 840
3 837 840 838
3 840 841 842
3 840 842 838
3 842 843 836
3 842 836 838
3 844 845 846
3 844 846 847
3 846 848 849
3 846 849 847
3 849 841 840
3 849 840 847
3 840 839 844
3 840 844 847
3 850 851 852
3 850 852 853
3 852 854 855
3 852 855 853
3 855 841 849
3 855 849 853
3 849 848 850
3 849 850 853
3 856 41 857
3 856 857 858
3 857 843 842
3 857 842 858
3 842 841 855
3 842 855 858
3 855 854 856
3 855 856 858
3 279 238 859
3 279 859 860
3 859 861 862
3 859 862 860
3 862 863 864
3 862 864 860
3 864 269 279
3 864 279 860
3 865 866 867
3 865 867 868
3 867 869 870
3 867 870 868
3 870 863 862
3 870 862 868
3 862 861 865
3 862 865 868
3 871 845 844
3 871 844 872
3 844 839 873
3 844 873 872
3 873 863 870
3 873 870 872
3 870 869 871
3 870 871 872
3 837 262 261
3 837 261 874
3 261 269 864
3 261 864 874
3 864 863 873
3 864 873 874
3 873 839 837
3 873 837 874
3 747 47 875
3 747 875 876
3 875 877 878
3 875 878 876
3 878 879 880
3 878 880 876
3 880 733 747
3 880 747 876
3 881 882 883
3 881 883 884
3 883 885 886
3 883 886 884
3 886 879 878
3 886 878 884
3 878 877 881
3 878 881 884
3 887 866 865
3 887 865 888
3 865 861 889
3 865 889 888
3 889 879 886
3 889 886 888
3 886 885 887
3 886 887 888
3 859 238 726
3 859 726 890
3 726 733 880
3 726 880 890
3 880 879 889
3 880 889 890
3 889 861 859
3 889 859 890
3 42 41 856
3 42 856 891
3 856 854 892
3 856 892 891
3 892 893 894
3 892 894 891
3 894 44 42
3 894 42 891
3 852 851 895
3 852 895 896
3 895 897 898
3 895 898 896
3 898 893 892
3 898 892 896
3 892 854 852
3 892 852 896
3 899 882 881
3 899 881 900
3 881 877 901
3 881 901 900
3 901 893 898
3 901 898 900
3 898 897 899
3 898 899 900
3 875 47 46
3 875 46 902
3 46 44 894
3 46 894 902
3 894 893 901
3 894 901 902
3 901 877 875
3 901 875 902
3 392 391 903
3 392 903 904
3 903 905 906
3 903 906 904
3 906 907 908
3 906 908 904
3 908 394 392
3 908 392 904
3 909 910 911
3 909 911 912
3 911 913 914
3 911 914 912
3 914 907 906
3 914 906 912
3 906 905 909
3 906 909 912
3 915 916 917
3 915 917 918
3 917 919 920
3 917 920 918
3 920 907 914
3 920 914 918
3 914 913 915
3 914 915 918
3 921 371 396
3 921 396 922
3 396 394 908
3 396 908 922
3 908 907 920
3 908 920 922
3 920 919 921
3 920 921 922
3 923 833 924
3 923 924 925
3 924 926 927
3 924 927 925
3 927 928 929
3 927 929 925
3 929 930 923
3 929 923 925
3 931 932 933
3 931 933 934
3 933 935 936
3 933 936 934
3 936 928 927
3 936 927 934
3 927 926 931
3 927 931 934
3 937 910 909
3 937 909 938
3 909 905 939
3 909 939 938
3 939 928 936
3 939 936 938
3 936 935 937
3 936 937 938
3 903 391 940
3 903 940 941
3 940 930 929
3 940 929 941
3 929 928 939
3 929 939 941
3 939 905 903
3 939 903 941
3 828 664 942
3 828 942 943
3 942 944 945
3 942 945 943
3 945 946 947
3 945 947 943
3 947 830 828
3 947 828 943
3 948 949 950
3 948 950 951
3 950 952 953
3 950 953 951
3 953 946 945
3 953 945 951
3 945 944 948
3 945 948 951
3 954 932 931
3 954 931 955
3 931 926 956
3 931 956 955
3 956 946 953
3 956 953 955
3 953 952 954
3 953 954 955
3 924 833 832
3 924 832 957
3 832 830 947
3 832 947 957
3 947 946 956
3 947 956 957
3 956 926 924
3 956 924 957
3 681 371 921
3 681 921 958
3 921 919 959
3 921 959 958
3 959 960 961
3 959 961 958
3 961 671 681
3 961 681 958
3 917 916 962
3 917 962 963
3 962 964 965
3 962 965 963
3 965 960 959
3 965 959 963
3 959 919 917
3 959 917 963
3 966 949 948
3 966 948 967
3 948 944 968
3 948 968 967
3 968 960 965
3 968 965 967
3 965 964 966
3 965 966 967
3 942 664 663
3 942 663 969
3 663 671 961
3 663 961 969
3 961 960 968
3 961 968 969
3 968 944 942
3 968 942 969
3 970 971 972
3 970 972 973
3 974 975 970
3 974 970 973
3 976 977 978
3 976 978 979
3 978 975 974
3 978 974 979
3 980 981 982
3 980 982 983
3 984 985 980
3 984 980 983
3 972 971 986
3 986 985 984
3 987 988 989
3 982 981 990
3 990 988 987
3 991 977 976
3 991 976 992
3 993 994 991
3 993 991 992
3 995 994 993
3 996 997 998
3 999 1000 1001
3 999 1001 1002
3 1003 1004 999
3 1003 999 1002
3 998 997 1005
3 1005 1004 1003
3 1001 1000 1006
3 291 290 1007
3 291 1007 1008
3 1007 1009 1010
3 1007 1010 1008
3 1010 1011 1012
3 1010 1012 1008
3 1012 293 291
3 1012 291 1008
3 1013 1014 1015
3 1013 1015 1016
3 1015 1017 1018
3 1015 1018 1016
3 1018 1011 1010
3 1018 1010 1016
3 1010 1009 1013
3 1010 1013 1016
3 1019 1020 1021
3 1019 1021 1022
3 1021 1023 1024
3 1021 1024 1022
3 1024 1011 1018
3 1024 1018 1022
3 1018 1017 1019
3 1018 1019 1022
3 1025 271 295
3 1025 295 1026
3 295 293 1012
3 295 1012 1026
3 1012 1011 1024
3 1012 1024 1026
3 1024 1023 1025
3 1024 1025 1026
3 358 357 1027
3 358 1027 1028
3 1027 1029 1030
3 1027 1030 1028
3 1030 1031 1032
3 1030 1032 1028
3 1032 360 358
3 1032 358 1028
3 1033 1034 1035
3 1033 1035 1036
3 1035 1037 1038
3 1035 1038 1036
3 1038 1031 1030
3 1038 1030 1036
3 1030 1029 1033
3 1030 1033 1036
3 1039 1014 1013
3 1039 1013 1040
3 1013 1009 1041
3 1013 1041 1040
3 1041 1031 1038
3 1041 1038 1040
3 1038 1037 1039
3 1038 1039 1040
3 1007 290 362
3 1007 362 1042
3 362 360 1032
3 362 1032 1042
3 1032 1031 1041
3 1032 1041 1042
3 1041 1009 1007
3 1041 1007 1042
3 417 339 1043
3 417 1043 1044
3 1043 1045 1046
3 1043 1046 1044
3 1046 1047 1048
3 1046 1048 1044
3 1048 407 417
3 1048 417 1044
3 1049 1050 1051
3 1049 1051 1052
3 1051 1053 1054
3 1051 1054 1052
3 1054 1047 1046
3 1054 1046 1052
3 1046 1045 1049
3 1046 1049 1052
3 1055 1034 1033
3 1055 1033 1056
3 1033 1029 1057
3 1033 1057 1056
3 1057 1047 1054
3 1057 1054 1056
3 1054 1053 1055
3 1054 1055 1056
3 1027 357 400
3 1027 400 1058
3 400 407 1048
3 400 1048 1058
3 1048 1047 1057
3 1048 1057 1058
3 1057 1029 1027
3 1057 1027 1058
3 332 271 1025
3 332 1025 1059
3 1025 1023 1060
3 1025 1060 1059
3 1060 1061 1062
3 1060 1062 1059
3 1062 334 332
3 1062 332 1059
3 1021 1020 1063
3 1021 1063 1064
3 1063 1065 1066
3 1063 1066 1064
3 1066 1061 1060
3 1066 1060 1064
3 1060 1023 1021
3 1060 1021 1064
3 1067 1050 1049
3 1067 1049 1068
3 1049 1045 1069
3 1049 1069 1068
3 1069 1061 1066
3 1069 1066 1068
3 1066 1065 1067
3 1066 1067 1068
3 1043 339 338
3 1043 338 1070
3 338 334 1062
3 338 1062 1070
3 1062 1061 1069
3 1062 1069 1070
3 1069 1045 1043
3 1069 1043 1070
3 1071 1072 1073
3 1074 1075 1076
3 1074 1076 1077
3 1076 1072 1071
3 1076 1071 1077
3 1078 1079 1080
3 1081 1079 1078
3 1082 1083 1084
3 1082 1084 1085
3 1086 1087 1082
3 1086 1082 1085
3 1088 1087 1086
3 1089 1075 1074
3 1089 1074 1090
3 1091 1092 1089
3 1091 1089 1090
3 1084 1083 1093
3 1084 1093 1094
3 1093 1092 1091
3 1093 1091 1094
3 410 409 1095
3 410 1095 1096
3 1095 1097 1098
3 1095 1098 1096
3 1098 1099 1100
3 1098 1100 1096
3 1100 412 410
3 1100 410 1096
3 1101 1102 1103
3 1101 1103 1104
3 1103 1105 1106
3 1103 1106 1104
3 1106 1099 1098
3 1106 1098 1104
3 1098 1097 1101
3 1098 1101 1104
3 1107 1108 1109
3 1107 1109 1110
3 1109 1111 1112
3 1109 1112 1110
3 1112 1099 1106
3 1112 1106 1110
3 1106 1105 1107
3 1106 1107 1110
3 1113 391 414
3 1113 414 1114
3 414 412 1100
3 414 1100 1114
3 1100 1099 1112
3 1100 1112 1114
3 1112 1111 1113
3 1112 1113 1114
3 529 497 1115
3 529 1115 1116
3 1115 1117 1118
3 1115 1118 1116
3 1118 1119 1120
3 1118 1120 1116
3 1120 521 529
3 1120 529 1116
3 1121 1122 1123
3 1121 1123 1124
3 1123 1125 1126
3 1123 1126 1124
3 1126 1119 1118
3 1126 1118 1124
3 1118 1117 1121
3 1118 1121 1124
3 1127 1102 1101
3 1127 1101 1128
3 1101 1097 1129
3 1101 1129 1128
3 1129 1119 1126
3 1129 1126 1128
3 1126 1125 1127
3 1126 1127 1128
3 1095 409 516
3 1095 516 1130
3 516 521 1120
3 516 1120 1130
3 1120 1119 1129
3 1120 1129 1130
3 1129 1097 1095
3 1129 1095 1130
3 834 833 1131
3 834 1131 1132
3 1131 1133 1134
3 1131 1134 1132
3 1134 1135 1136
3 1134 1136 1132
3 1136 825 834
3 1136 834 1132
3 1137 1138 1139
3 1137 1139 1140
3 1139 1141 1142
3 1139 1142 1140
3 1142 1135 1134
3 1142 1134 1140
3 1134 1133 1137
3 1134 1137 1140
3 1143 1122 1121
3 1143 1121 1144
3 1121 1117 1145
3 1121 1145 1144
3 1145 1135 1142
3 1145 1142 1144
3 1142 1141 1143
3 1142 1143 1144
3 1115 497 820
3 1115 820 1146
3 820 825 1136
3 820 1136 1146
3 1136 1135 1145
3 1136 1145 1146
3 1145 1117 1115
3 1145 1115 1146
3 940 391 1113
3 940 1113 1147
3 1113 1111 1148
3 1113 1148 1147
3 1148 1149 1150
3 1148 1150 1147
3 1150 930 940
3 1150 940 1147
3 1109 1108 1151
3 1109 1151 1152
3 1151 1153 1154
3 1151 1154 1152
3 1154 1149 1148
3 1154 1148 1152
3 1148 1111 1109
3 1148 1109 1152
3 1155 1138 1137
3 1155 1137 1156
3 1137 1133 1157
3 1137 1157 1156
3 1157 1149 1154
3 1157 1154 1156
3 1154 1153 1155
3 1154 1155 1156
3 1131 833 923
3 1131 923 1158
3 923 930 1150
3 923 1150 1158
3 1150 1149 1157
3 1150 1157 1158
3 1157 1133 1131
3 1157 1131 1158
3 1159 1160 1161
3 1159 1161 1162
3 1163 1164 1159
3 1163 1159 1162
3 1165 1166 1167
3 1167 1164 1163
3 1168 1169 1170
3 1168 1170 1171
3 1172 1173 1168
3 1172 1168 1171
3 1161 1160 1174
3 1161 1174 1175
3 1174 1173 1172
3 1174 1172 1175
3 1176 1177 1178
3 1176 1178 1179
3 1180 1181 1176
3 1180 1176 1179
3 1170 1169 1182
3 1170 1182 1183
3 1182 1181 1180
3 1182 1180 1183
3 1184 1166 1165
3 1184 1165 1185
3 1186 1187 1184
3 1186 1184 1185
3 1178 1177 1188
3 1178 1188 1189
3 1188 1187 1186
3 1188 1186 1189
3 111 75 1190
3 111 1190 1191
3 1190 1192 1193
3 1190 1193 1191
3 1193 1194 1195
3 1193 1195 1191
3 1195 101 111
3 1195 111 1191
3 1196 1197 1198
3 1196 1198 1199
3 1198 1200 1201
3 1198 1201 1199
3 1201 1194 1193
3 1201 1193 1199
3 1193 1192 1196
3 1193 1196 1199
3 1202 1203 1204
3 1202 1204 1205
3 1204 1206 1207
3 1204 1207 1205
3 1207 1194 1201
3 1207 1201 1205
3 1201 1200 1202
3 1201 1202 1205
3 1208 35 94
3 1208 94 1209
3 94 101 1195
3 94 1195 1209
3 1195 1194 1207
3 1195 1207 1209
3 1207 1206 1208
3 1207 1208 1209
3 298 262 1210
3 298 1210 1211
3 1210 1212 1213
3 1210 1213 1211
3 1213 1214 1215
3 1213 1215 1211
3 1215 288 298
3 1215 298 1211
3 1216 1217 1218
3 1216 1218 1219
3 1218 1220 1221
3 1218 1221 1219
3 1221 1214 1213
3 1221 1213 1219
3 1213 1212 1216
3 1213 1216 1219
3 1222 1197 1196
3 1222 1196 1223
3 1196 1192 1224
3 1196 1224 1223
3 1224 1214 1221
3 1224 1221 1223
3 1221 1220 1222
3 1221 1222 1223
3 1190 75 281
3 1190 281 1225
3 281 288 1215
3 281 1215 1225
3 1215 1214 1224
3 1215 1224 1225
3 1224 1192 1190
3 1224 1190 1225
3 857 41 1226
3 857 1226 1227
3 1226 1228 1229
3 1226 1229 1227
3 1229 1230 1231
3 1229 1231 1227
3 1231 843 857
3 1231 857 1227
3 1232 1233 1234
3 1232 1234 1235
3 1234 1236 1237
3 1234 1237 1235
3 1237 1230 1229
3 1237 1229 1235
3 1229 1228 1232
3 1229 1232 1235
3 1238 1217 1216
3 1238 1216 1239
3 1216 1212 1240
3 1216 1240 1239
3 1240 1230 1237
3 1240 1237 1239
3 1237 1236 1238
3 1237 1238 1239
3 1210 262 836
3 1210 836 1241
3 836 843 1231
3 836 1231 1241
3 1231 1230 1240
3 1231 1240 1241
3 1240 1212 1210
3 1240 1210 1241
3 36 35 1208
3 36 1208 1242
3 1208 1206 1243
3 1208 1243 1242
3 1243 1244 1245
3 1243 1245 1242
3 1245 38 36
3 1245 36 1242
3 1204 1203 1246
3 1204 1246 1247
3 1246 1248 1249
3 1246 1249 1247
3 1249 1244 1243
3 1249 1243 1247
3 1243 1206 1204
3 1243 1204 1247
3 1250 1233 1232
3 1250 1232 1251
3 1232 1228 1252
3 1232 1252 1251
3 1252 1244 1249
3 1252 1249 1251
3 1249 1248 1250
3 1249 1250 1251
3 1226 41 40
3 1226 40 1253
3 40 38 1245
3 40 1245 1253
3 1245 1244 1252
3 1245 1252 1253
3 1252 1228 1226
3 1252 1226 1253
3 1254 1255 1256
3 1254 1256 1257
3 1258 1259 1254
3 1258 1254 1257
3 1260 1259 1258
3 1261 1262 1263
3 1256 1255 1264
3 1256 1264 1265
3 1264 1262 1261
3 1264 1261 1265
3 1266 1267 1268
3 1269 1267 1266
3 1123 1122 1270
3 1123 1270 1271
3 1270 1272 1273
3 1270 1273 1271
3 1273 1274 1275
3 1273 1275 1271
3 1275 1125 1123
3 1275 1123 1271
3 1276 1169 1168
3 1276 1168 1277
3 1168 1173 1278
3 1168 1278 1277
3 1278 1274 1273
3 1278 1273 1277
3 1273 1272 1276
3 1273 1276 1277
3 1174 1160 1279
3 1174 1279 1280
3 1279 1281 1282
3 1279 1282 1280
3 1282 1274 1278
3 1282 1278 1280
3 1278 1173 1174
3 1278 1174 1280
3 1283 1102 1127
3 1283 1127 1284
3 1127 1125 1275
3 1127 1275 1284
3 1275 1274 1282
3 1275 1282 1284
3 1282 1281 1283
3 1282 1283 1284
3 1103 1102 1283
3 1103 1283 1285
3 1283 1281 1286
3 1283 1286 1285
3 1286 1287 1288
3 1286 1288 1285
3 1288 1105 1103
3 1288 1103 1285
3 1279 1160 1159
3 1279 1159 1289
3 1159 1164 1290
3 1159 1290 1289
3 1290 1287 1286
3 1290 1286 1289
3 1286 1281 1279
3 1286 1279 1289
3 1167 1166 1291
3 1167 1291 1292
3 1291 1293 1294
3 1291 1294 1292
3 1294 1287 1290
3 1294 1290 1292
3 1290 1164 1167
3 1290 1167 1292
3 1295 1108 1107
3 1295 1107 1296
3 1107 1105 1288
3 1107 1288 1296
3 1288 1287 1294
3 1288 1294 1296
3 1294 1293 1295
3 1294 1295 1296
3 1151 1108 1295
3 1151 1295 1297
3 1295 1293 1298
3 1295 1298 1297
3 1298 1299 1300
3 1298 1300 1297
3 1300 1153 1151
3 1300 1151 1297
3 1291 1166 1184
3 1291 1184 1301
3 1184 1187 1302
3 1184 1302 1301
3 1302 1299 1298
3 1302 1298 1301
3 1298 1293 1291
3 1298 1291 1301
3 1188 1177 1303
3 1188 1303 1304
3 1303 1305 1306
3 1303 1306 1304
3 1306 1299 1302
3 1306 1302 1304
3 1302 1187 1188
3 1302 1188 1304
3 1307 1138 1155
3 1307 1155 1308
3 1155 1153 1300
3 1155 1300 1308
3 1300 1299 1306
3 1300 1306 1308
3 1306 1305 1307
3 1306 1307 1308
3 1139 1138 1307
3 1139 1307 1309
3 1307 1305 1310
3 1307 1310 1309
3 1310 1311 1312
3 1310 1312 1309
3 1312 1141 1139
3 1312 1139 1309
3 1303 1177 1176
3 1303 1176 1313
3 1176 1181 1314
3 1176 1314 1313
3 1314 1311 1310
3 1314 1310 1313
3 1310 1305 1303
3 1310 1303 1313
3 1182 1169 1276
3 1182 1276 1315
3 1276 1272 1316
3 1276 1316 1315
3 1316 1311 1314
3 1316 1314 1315
3 1314 1181 1182
3 1314 1182 1315
3 1270 1122 1143
3 1270 1143 1317
3 1143 1141 1312
3 1143 1312 1317
3 1312 1311 1316
3 1312 1316 1317
3 1316 1272 1270
3 1316 1270 1317
3 1198 1197 1318
3 1198 1318 1319
3 1318 1320 1321
3 1318 1321 1319
3 1321 1322 1323
3 1321 1323 1319
3 1323 1200 1198
3 1323 1198 1319
3 1324 1325 1326
3 1325 1327 1328
3 1325 1328 1326
3 1328 1322 1321
3 1328 1321 1326
3 1321 1320 1324
3 1321 1324 1326
3 1329 1330 1331
3 1330 1332 1333
3 1330 1333 1331
3 1333 1322 1328
3 1333 1328 1331
3 1328 1327 1329
3 1328 1329 1331
3 1334 1203 1202
3 1334 1202 1335
3 1202 1200 1323
3 1202 1323 1335
3 1323 1322 1333
3 1323 1333 1335
3 1333 1332 1334
3 1333 1334 1335
3 1246 1203 1334
3 1246 1334 1336
3 1334 1332 1337
3 1334 1337 1336
3 1337 1338 1339
3 1337 1339 1336
3 1339 1248 1246
3 1339 1246 1336
3 1330 1268 1340
3 1268 1267 1341
3 1268 1341 1340
3 1341 1338 1337
3 1341 1337 1340
3 1337 1332 1330
3 1337 1330 1340
3 1269 1342 1343
3 1269 1343 1344
3 1343 1345 1346
3 1343 1346 1344
3 1346 1338 1341
3 1346 1341 1344
3 1341 1267 1269
3 1341 1269 1344
3 1347 1233 1250
3 1347 1250 1348
3 1250 1248 1339
3 1250 1339 1348
3 1339 1338 1346
3 1339 1346 1348
3 1346 1345 1347
3 1346 1347 1348
3 1234 1233 1347
3 1234 1347 1349
3 1347 1345 1350
3 1347 1350 1349
3 1350 1351 1352
3 1350 1352 1349
3 1352 1236 1234
3 1352 1234 1349
3 1343 1342 1263
3 1343 1263 1353
3 1263 1262 1354
3 1263 1354 1353
3 1354 1351 1350
3 1354 1350 1353
3 1350 1345 1343
3 1350 1343 1353
3 1264 1255 1355
3 1264 1355 1356
3 1355 1357 1358
3 1355 1358 1356
3 1358 1351 1354
3 1358 1354 1356
3 1354 1262 1264
3 1354 1264 1356
3 1359 1217 1238
3 1359 1238 1360
3 1238 1236 1352
3 1238 1352 1360
3 1352 1351 1358
3 1352 1358 1360
3 1358 1357 1359
3 1358 1359 1360
3 1218 1217 1359
3 1218 1359 1361
3 1359 1357 1362
3 1359 1362 1361
3 1362 1363 1364
3 1362 1364 1361
3 1364 1220 1218
3 1364 1218 1361
3 1355 1255 1254
3 1355 1254 1365
3 1254 1259 1366
3 1254 1366 1365
3 1366 1363 1362
3 1366 1362 1365
3 1362 1357 1355
3 1362 1355 1365
3 1260 1324 1367
3 1324 1320 1368
3 1324 1368 1367
3 1368 1363 1366
3 1368 1366 1367
3 1366 1259 1260
3 1366 1260 1367
3 1318 1197 1222
3 1318 1222 1369
3 1222 1220 1364
3 1222 1364 1369
3 1364 1363 1368
3 1364 1368 1369
3 1368 1320 1318
3 1368 1318 1369
3 1035 1034 1370
3 1035 1370 1371
3 1370 1372 1373
3 1370 1373 1371
3 1373 1374 1375
3 1373 1375 1371
3 1375 1037 1035
3 1375 1035 1371
3 1376 1080 1377
3 1080 1079 1378
3 1080 1378 1377
3 1378 1374 1373
3 1378 1373 1377
3 1373 1372 1376
3 1373 1376 1377
3 1081 1379 1380
3 1081 1380 1381
3 1380 1382 1383
3 1380 1383 1381
3 1383 1374 1378
3 1383 1378 1381
3 1378 1079 1081
3 1378 1081 1381
3 1384 1014 1039
3 1384 1039 1385
3 1039 1037 1375
3 1039 1375 1385
3 1375 1374 1383
3 1375 1383 1385
3 1383 1382 1384
3 1383 1384 1385
3 1015 1014 1384
3 1015 1384 1386
3 1384 1382 1387
3 1384 1387 1386
3 1387 1388 1389
3 1387 1389 1386
3 1389 1017 1015
3 1389 1015 1386
3 1380 1379 1073
3 1380 1073 1390
3 1073 1072 1391
3 1073 1391 1390
3 1391 1388 1387
3 1391 1387 1390
3 1387 1382 1380
3 1387 1380 1390
3 1076 1075 1392
3 1076 1392 1393
3 1392 1394 1395
3 1392 1395 1393
3 1395 1388 1391
3 1395 1391 1393
3 1391 1072 1076
3 1391 1076 1393
3 1396 1020 1019
3 1396 1019 1397
3 1019 1017 1389
3 1019 1389 1397
3 1389 1388 1395
3 1389 1395 1397
3 1395 1394 1396
3 1395 1396 1397
3 1063 1020 1396
3 1063 1396 1398
3 1396 1394 1399
3 1396 1399 1398
3 1399 1400 1401
3 1399 1401 1398
3 1401 1065 1063
3 1401 1063 1398
3 1392 1075 1089
3 1392 1089 1402
3 1089 1092 1403
3 1089 1403 1402
3 1403 1400 1399
3 1403 1399 1402
3 1399 1394 1392
3 1399 1392 1402
3 1093 1083 1404
3 1093 1404 1405
3 1404 1406 1407
3 1404 1407 1405
3 1407 1400 1403
3 1407 1403 1405
3 1403 1092 1093
3 1403 1093 1405
3 1408 1050 1067
3 1408 1067 1409
3 1067 1065 1401
3 1067 1401 1409
3 1401 1400 1407
3 1401 1407 1409
3 1407 1406 1408
3 1407 1408 1409
3 1051 1050 1408
3 1051 1408 1410
3 1408 1406 1411
3 1408 1411 1410
3 1411 1412 1413
3 1411 1413 1410
3 1413 1053 1051
3 1413 1051 1410
3 1404 1083 1082
3 1404 1082 1414
3 1082 1087 1415
3 1082 1415 1414
3 1415 1412 1411
3 1415 1411 1414
3 1411 1406 1404
3 1411 1404 1414
3 1088 1376 1416
3 1376 1372 1417
3 1376 1417 1416
3 1417 1412 1415
3 1417 1415 1416
3 1415 1087 1088
3 1415 1088 1416
3 1370 1034 1055
3 1370 1055 1418
3 1055 1053 1413
3 1055 1413 1418
3 1413 1412 1417
3 1413 1417 1418
3 1417 1372 1370
3 1417 1370 1418
3 693 692 1419
3 693 1419 1420
3 1419 1421 1422
3 1419 1422 1420
3 1422 1423 1424
3 1422 1424 1420
3 1424 695 693
3 1424 693 1420
3 1425 1423 1422
3 1422 1421 1426
3 1427 1428 1429
3 1427 1429 1430
3 1429 1431 1432
3 1429 1432 1430
3 1432 1423 1425
3 1432 1425 1430
3 1425 1427 1430
3 1433 673 697
3 1433 697 1434
3 697 695 1424
3 697 1424 1434
3 1424 1423 1432
3 1424 1432 1434
3 1432 1431 1433
3 1432 1433 1434
3 674 673 1433
3 674 1433 1435
3 1433 1431 1436
3 1433 1436 1435
3 1436 1437 1438
3 1436 1438 1435
3 1438 676 674
3 1438 674 1435
3 1429 1428 1439
3 1429 1439 1440
3 1439 1441 1442
3 1439 1442 1440
3 1442 1437 1436
3 1442 1436 1440
3 1436 1431 1429
3 1436 1429 1440
3 721 715 1443
3 721 1443 1444
3 1443 1445 1446
3 1443 1446 1444
3 1446 1437 1442
3 1446 1442 1444
3 1442 1441 721
3 1442 721 1444
3 1447 650 678
3 1447 678 1448
3 678 676 1438
3 678 1438 1448
3 1438 1437 1446
3 1438 1446 1448
3 1446 1445 1447
3 1446 1447 1448
3 651 650 1447
3 651 1447 1449
3 1447 1445 1450
3 1447 1450 1449
3 1450 1451 1452
3 1450 1452 1449
3 1452 653 651
3 1452 651 1449
3 1443 715 714
3 1443 714 1453
3 714 719 1454
3 714 1454 1453
3 1454 1451 1450
3 1454 1450 1453
3 1450 1445 1443
3 1450 1443 1453
3 720 1455 1456
3 1455 1457 1458
3 1455 1458 1456
3 1458 1451 1454
3 1458 1454 1456
3 1454 719 720
3 1454 720 1456
3 1459 656 655
3 1459 655 1460
3 655 653 1452
3 655 1452 1460
3 1452 1451 1458
3 1452 1458 1460
3 1458 1457 1459
3 1458 1459 1460
3 706 656 1459
3 706 1459 1461
3 1459 1457 1462
3 1459 1462 1461
3 1462 1463 1464
3 1462 1464 1461
3 1464 708 706
3 1464 706 1461
3 1455 724 1465
3 724 723 1466
3 724 1466 1465
3 1466 1463 1462
3 1466 1462 1465
3 1462 1457 1455
3 1462 1455 1465
3 725 1426 1467
3 1426 1421 1468
3 1426 1468 1467
3 1468 1463 1466
3 1468 1466 1467
3 1466 723 725
3 1466 725 1467
3 1419 692 710
3 1419 710 1469
3 710 708 1464
3 710 1464 1469
3 1464 1463 1468
3 1464 1468 1469
3 1468 1421 1419
3 1468 1419 1469
3 757 756 1470
3 757 1470 1471
3 1470 1472 1473
3 1470 1473 1471
3 1473 1474 1475
3 1473 1475 1471
3 1475 759 757
3 1475 757 1471
3 1476 1477 804
3 1476 804 1478
3 804 803 1479
3 804 1479 1478
3 1479 1474 1473
3 1479 1473 1478
3 1473 1472 1476
3 1473 1476 1478
3 805 794 1480
3 805 1480 1481
3 1480 1482 1483
3 1480 1483 1481
3 1483 1474 1479
3 1483 1479 1481
3 1479 803 805
3 1479 805 1481
3 1484 735 761
3 1484 761 1485
3 761 759 1475
3 761 1475 1485
3 1475 1474 1483
3 1475 1483 1485
3 1483 1482 1484
3 1483 1484 1485
3 736 735 1484
3 736 1484 1486
3 1484 1482 1487
3 1484 1487 1486
3 1487 1488 1489
3 1487 1489 1486
3 1489 738 736
3 1489 736 1486
3 1480 794 793
3 1480 793 1490
3 793 798 1491
3 793 1491 1490
3 1491 1488 1487
3 1491 1487 1490
3 1487 1482 1480
3 1487 1480 1490
3 801 800 1492
3 801 1492 1493
3 1492 1494 1495
3 1492 1495 1493
3 1495 1488 1491
3 1495 1491 1493
3 1491 798 801
3 1491 801 1493
3 1496 741 740
3 1496 740 1497
3 740 738 1489
3 740 1489 1497
3 1489 1488 1495
3 1489 1495 1497
3 1495 1494 1496
3 1495 1496 1497
3 785 741 1496
3 785 1496 1498
3 1496 1494 1499
3 1496 1499 1498
3 1499 1500 1501
3 1499 1501 1498
3 1501 787 785
3 1501 785 1498
3 1492 800 814
3 1492 814 1502
3 814 817 1503
3 814 1503 1502
3 1503 1500 1499
3 1503 1499 1502
3 1499 1494 1492
3 1499 1492 1502
3 818 808 1504
3 818 1504 1505
3 1504 1506 1507
3 1504 1507 1505
3 1507 1500 1503
3 1507 1503 1505
3 1503 817 818
3 1503 818 1505
3 1508 772 789
3 1508 789 1509
3 789 787 1501
3 789 1501 1509
3 1501 1500 1507
3 1501 1507 1509
3 1507 1506 1508
3 1507 1508 1509
3 773 772 1508
3 773 1508 1510
3 1508 1506 1511
3 1508 1511 1510
3 1511 1512 1513
3 1511 1513 1510
3 1513 775 773
3 1513 773 1510
3 1504 808 807
3 1504 807 1514
3 807 812 1515
3 807 1515 1514
3 1515 1512 1511
3 1515 1511 1514
3 1511 1506 1504
3 1511 1504 1514
3 813 1477 1476
3 813 1476 1516
3 1476 1472 1517
3 1476 1517 1516
3 1517 1512 1515
3 1517 1515 1516
3 1515 812 813
3 1515 813 1516
3 1470 756 777
3 1470 777 1518
3 777 775 1513
3 777 1513 1518
3 1513 1512 1517
3 1513 1517 1518
3 1517 1472 1470
3 1517 1470 1518
3 846 845 1519
3 846 1519 1520
3 1519 1521 1522
3 1519 1522 1520
3 1522 1523 1524
3 1522 1524 1520
3 1524 848 846
3 1524 846 1520
3 1525 971 970
3 1525 970 1526
3 970 975 1527
3 970 1527 1526
3 1527 1523 1522
3 1527 1522 1526
3 1522 1521 1525
3 1522 1525 1526
3 978 977 1528
3 978 1528 1529
3 1528 1530 1531
3 1528 1531 1529
3 1531 1523 1527
3 1531 1527 1529
3 1527 975 978
3 1527 978 1529
3 1532 851 850
3 1532 850 1533
3 850 848 1524
3 850 1524 1533
3 1524 1523 1531
3 1524 1531 1533
3 1531 1530 1532
3 1531 1532 1533
3 895 851 1532
3 895 1532 1534
3 1532 1530 1535
3 1532 1535 1534
3 1535 1536 1537
3 1535 1537 1534
3 1537 897 895
3 1537 895 1534
3 1528 977 991
3 1528 991 1538
3 991 994 1539
3 991 1539 1538
3 1539 1536 1535
3 1539 1535 1538
3 1535 1530 1528
3 1535 1528 1538
3 995 1540 1541
3 1540 1542 1543
3 1540 1543 1541
3 1543 1536 1539
3 1543 1539 1541
3 1539 994 995
3 1539 995 1541
3 1544 882 899
3 1544 899 1545
3 899 897 1537
3 899 1537 1545
3 1537 1536 1543
3 1537 1543 1545
3 1543 1542 1544
3 1543 1544 1545
3 883 882 1544
3 883 1544 1546
3 1544 1542 1547
3 1544 1547 1546
3 1547 1548 1549
3 1547 1549 1546
3 1549 885 883
3 1549 883 1546
3 1540 989 1550
3 989 988 1551
3 989 1551 1550
3 1551 1548 1547
3 1551 1547 1550
3 1547 1542 1540
3 1547 1540 1550
3 990 981 1552
3 990 1552 1553
3 1552 1554 1555
3 1552 1555 1553
3 1555 1548 1551
3 1555 1551 1553
3 1551 988 990
3 1551 990 1553
3 1556 866 887
3 1556 887 1557
3 887 885 1549
3 887 1549 1557
3 1549 1548 1555
3 1549 1555 1557
3 1555 1554 1556
3 1555 1556 1557
3 867 866 1556
3 867 1556 1558
3 1556 1554 1559
3 1556 1559 1558
3 1559 1560 1561
3 1559 1561 1558
3 1561 869 867
3 1561 867 1558
3 1552 981 980
3 1552 980 1562
3 980 985 1563
3 980 1563 1562
3 1563 1560 1559
3 1563 1559 1562
3 1559 1554 1552
3 1559 1552 1562
3 986 971 1525
3 986 1525 1564
3 1525 1521 1565
3 1525 1565 1564
3 1565 1560 1563
3 1565 1563 1564
3 1563 985 986
3 1563 986 1564
3 1519 845 871
3 1519 871 1566
3 871 869 1561
3 871 1561 1566
3 1561 1560 1565
3 1561 1565 1566
3 1565 1521 1519
3 1565 1519 1566
3 933 932 1567
3 933 1567 1568
3 1567 1569 1570
3 1567 1570 1568
3 1570 1571 1572
3 1570 1572 1568
3 1572 935 933
3 1572 933 1568
3 1573 1000 999
3 1573 999 1574
3 999 1004 1575
3 999 1575 1574
3 1575 1571 1570
3 1575 1570 1574
3 1570 1569 1573
3 1570 1573 1574
3 1005 997 1576
3 1005 1576 1577
3 1576 1578 1579
3 1576 1579 1577
3 1579 1571 1575
3 1579 1575 1577
3 1575 1004 1005
3 1575 1005 1577
3 1580 910 937
3 1580 937 1581
3 937 935 1572
3 937 1572 1581
3 1572 1571 1579
3 1572 1579 1581
3 1579 1578 1580
3 1579 1580 1581
3 911 910 1580
3 911 1580 1582
3 1580 1578 1583
3 1580 1583 1582
3 1583 1584 1585
3 1583 1585 1582
3 1585 913 911
3 1585 911 1582
3 1576 997 996
3 1576 996 1586
3 996 1587 1586
3 1587 1584 1583
3 1587 1583 1586
3 1583 1578 1576
3 1583 1576 1586
3 1588 1584 1587
3 1589 916 915
3 1589 915 1590
3 915 913 1585
3 915 1585 1590
3 1585 1584 1588
3 1585 1588 1590
3 1588 1589 1590
3 962 916 1589
3 962 1589 1591
3 1592 1593 1594
3 1592 1594 1591
3 1594 964 962
3 1594 962 1591
3 1595 1593 1592
3 1596 1593 1595
3 1597 949 966
3 1597 966 1598
3 966 964 1594
3 966 1594 1598
3 1594 1593 1596
3 1594 1596 1598
3 1596 1597 1598
3 950 949 1597
3 950 1597 1599
3 1597 1600 1599
3 1600 1601 1602
3 1600 1602 1599
3 1602 952 950
3 1602 950 1599
3 1603 1601 1600
3 1006 1000 1573
3 1006 1573 1604
3 1573 1569 1605
3 1573 1605 1604
3 1605 1601 1603
3 1605 1603 1604
3 1603 1006 1604
3 1567 932 954
3 1567 954 1606
3 954 952 1602
3 954 1602 1606
3 1602 1601 1605
3 1602 1605 1606
3 1605 1569 1567
3 1605 1567 1606
