1.05314
0.956386
1.08453
0.748555
0.794364
0.618391
0.602634
0.780556
0.847438
1.018
0.865378
0.812362
0.703652
0.724362
0.770626
0.776638
1.04157
0.898083
0.786265
1.05385
0.628592
0.705411
0.834064
0.604314
0.931974
0.977094
0.737701
0.757556
0.716937
0.537697
1.0799
1.18819
1.15392
1.6977
1.62874
1.56754
0.780019
1.53419
1.4609
1.22152
1.49827
1.19256
1.05045
1.39106
1.39725
1.39438
1.5358
1.24842
1.39702
1.46016
1.32468
1.38179
1.40076
1.47844
1.30535
1.48978
0.355376
0.846849
1.81613
0.949463
1.46241
1.36009
1.66268
0.967918
1.90284
0.700811
1.43073
0.512913
1.35917
1.05777
0.981493
0.836944
0.919298
1.23402
0.958704
1.23468
1.80977
1.53396
1.28769
1.51735
0.949805
1.23656
2.31614
2.19867
1.04601
1.82047
1.787
1.55
1.99845
0.972447
0.597394
1.69629
1.52809
0.793662
1.27273
0.978108
1.76358
1.43986
1.95742
1.5189
1.01749
1.72805
0.891294
1.53762
1.4718
1.60713
1.56772
1.73009
1.51493
1.4318
1.09768
1.87385
1.20042
1.24269
1.1371
1.35463
1.12374
1.11136
1.66581
1.11103
1.36381
1.40571
1.43401
1.45571
1.72264
0.340264
1.07599
1.17809
1.01394
0.671365
1.05463
2.15184
1.69235
2.17829
1.09563
1.2524
0.969473
1.13198
0.988982
1.13873
1.10355
0.867617
0.952131
0.898666
1.0379
1.05212
0.761389
0.740895
0.94965
0.654473
0.776093
0.894114
1.14718
0.838099
1.04021
0.643318
0.7601
0.953253
0.84847
0.909461
0.900377
0.653459
1.09035
1.08425
1.06877
1.09307
0.918199
0.914058
1.02003
0.867958
1.11395
0.967797
0.984985
1.00469
0.799282
1.15516
1.22363
1.20285
0.634505
1.08403
0.521196
1.15731
1.20673
0.855094
1.15314
0.807468
1.09461
0.556064
0.931692
1.2795
1.01258
1.0732
0.860758
0.833737
1.20122
1.32289
0.999773
1.24387
1.01451
1.3263
0.956087
0.90685
1.09618
1.05646
0.697019
1.11122
0.815262
1.01946
1.22969
1.15101
0.554364
0.800948
0.596729
1.09253
0.923967
0.752223
0.78512
0.755255
0.565402
0.920927
1.19608
0.713374
1.50239
0.701967
0.620882
0.911708
1.08278
0.944621
1.15667
1.0093
0.831368
0.910157
0.896161
1.0786
1.1732
1.16537
1.20007
0.749089
0.938558
1.10482
1.04583
1.24781
0.747552
0.658232
1.07359
1.03332
0.835641
0.99552
1.03597
0.813373
0.603326
0.991635
1.24077
0.677525
1.30102
0.988468
1.20142
0.934206
1.27319
1.01881
0.975542
1.39465
1.23042
1.32857
0.749579
0.995174
0.561959
0.661429
0.621026
0.613957
0.697923
0.565814
0.593664
0.917113
0.758643
0.590875
0.615309
0.627449
0.578991
0.733725
0.532814
0.707845
0.832646
0.691452
0.687243
0.740529
0.559097
0.710048
0.688067
0.634032
0.56154
0.790486
0.619049
0.652497
0.726581
0.571932
0.988772
0.549877
0.871246
0.500532
0.660695
0.782667
0.49113
0.727846
1.04572
0.414835
0.681287
0.905942
0.681768
0.948807
0.842164
0.606962
1.02718
0.566908
0.741767
0.585289
0.593036
0.535238
0.594908
0.489677
0.768247
0.818154
0.665396
0.950963
0.739211
0.660701
0.497803
0.471537
0.866481
0.465981
1.24876
0.557668
0.491568
1.15642
0.547725
1.73883
0.986241
0.537942
0.621471
1.02455
0.62604
0.712505
0.89241
0.566551
0.768205
0.610011
0.576949
0.681433
0.847146
0.569305
0.950667
0.573309
0.61632
0.720076
1.00434
0.554262
1.09136
0.558642
0.533187
2.56969
0.500586
1.11929
0.729487
0.614554
0.964258
0.482509
0.896649
0.573637
0.84372
0.921745
0.789342
0.753589
0.864067
0.942464
0.719121
0.925897
0.726105
0.798394
0.615837
0.765198
0.770624
0.731244
0.877973
0.742043
0.694051
1.02168
1.00786
0.383267
0.753091
0.549557
0.352303
0.847309
0.44122
1.50995
0.789554
0.660496
0.564279
0.760509
0.60672
0.723772
0.698015
0.588447
0.717977
0.660909
0.691656
0.627022
0.757135
0.617369
0.740406
0.761744
0.746307
0.731477
0.72808
0.673832
0.651941
0.629915
0.693177
0.666098
0.82592
0.637022
0.744451
0.652068
0.63322
0.771316
0.671123
0.737212
0.802399
0.62023
0.864162
0.757958
0.776814
0.727051
0.844245
0.802359
0.674488
0.537368
0.78617
0.639549
0.704441
0.744418
0.658975
0.865416
0.676785
0.730451
0.786812
0.956158
0.748983
0.695246
0.577369
0.699824
0.705592
0.739342
0.669308
0.78906
0.645622
0.717913
0.569332
0.801451
0.833133
0.643824
0.691929
0.815068
0.668495
0.755249
0.701043
0.628014
0.667597
0.664691
0.700651
0.56715
0.794624
0.725586
0.799957
0.690662
0.660577
0.606108
0.663831
0.817461
0.778159
0.788777
0.67018
0.624426
0.750107
0.547185
0.699192
0.603233
0.613479
0.74807
0.725485
0.692746
0.777175
0.689903
0.608035
0.775541
0.626775
0.775304
0.845545
0.760774
0.789872
0.746913
0.71617
0.807554
0.78463
0.753609
0.77588
0.677427
0.84985
0.774037
0.797628
0.795837
0.751573
0.779384
0.844791
0.78763
0.687616
0.621168
0.841339
0.677328
0.648823
0.733361
0.729466
0.808897
0.804433
0.930353
1.05799
0.987937
1.0421
0.934586
0.79913
0.833347
1.28002
1.28432
1.24357
1.22116
1.12819
1.13653
1.14998
1.19226
1.14674
1.01914
1.08175
1.09281
1.14948
1.11351
1.25523
1.29731
0.871408
0.869542
0.799614
0.886671
1.06226
0.980364
1.20593
1.05208
0.616348
0.790398
0.902369
0.701615
1.09959
0.952364
0.70532
0.902831
1.06357
1.21349
0.983671
1.14103
1.03735
1.09276
1.13681
1.07382
1.45841
1.25385
1.18477
1.24336
1.16684
1.44385
1.33321
1.35627
0.683583
0.738179
0.783297
0.956466
1.05539
0.925656
1.04095
0.958951
0.763814
0.824742
1.05888
0.8779
0.951175
0.95561
0.805077
0.822392
1.0786
1.20106
1.24896
1.23884
1.01911
1.13887
0.974649
1.13743
0.958006
1.24878
0.941628
1.11203
1.0132
0.975364
1.26246
1.14992
0.661048
0.728014
0.7375
0.757872
0.885191
0.819606
0.850332
0.825914
0.969626
0.836777
1.09142
0.94128
1.12445
1.06821
1.00177
1.03331
1.48198
1.22548
1.46803
0.847752
1.28973
1.34218
1.14306
1.06052
1.16328
1.18937
1.25432
0.907132
1.03969
0.981077
1.11804
1.05117
0.887452
0.953323
0.93173
0.960478
1.06971
1.23855
1.17542
1.11694
1.09793
1.42537
1.71827
1.66723
1.4655
1.30292
1.39969
1.29595
1.16791
1.24885
0.998778
1.24711
1.44169
1.30204
1.58497
1.46764
1.14958
1.26193
1.07225
1.51288
1.4355
1.3518
1.04789
1.16593
1.34325
1.25954
1.38462
1.30757
1.45497
1.34838
1.65934
1.4107
1.69515
1.22021
1.79791
1.5228
1.67228
1.77188
1.29974
1.30572
1.0965
1.11921
1.08989
0.952658
1.52083
1.26043
1.48626
1.08826
1.0039
1.15936
1.48302
1.27964
1.39719
1.18689
1.07821
0.886848
1.57326
1.0645
1.49686
1.74071
1.4502
1.4955
1.73388
1.33196
1.34673
1.37962
1.59972
1.43187
1.55557
1.33293
1.38315
1.42648
1.25295
1.18323
1.05004
1.22641
1.39551
1.37974
1.35012
1.3293
1.23799
1.22152
1.56913
1.41589
1.43347
1.06445
1.03908
1.28529
1.14631
1.41453
1.37829
1.32172
1.52702
1.30289
1.57938
1.40075
1.55628
1.09425
1.29618
1.20161
1.11978
1.35263
1.51378
1.25822
0.93919
0.91786
0.825028
0.837853
1.4854
1.41471
1.36955
1.12835
1.17962
1.25088
1.27768
1.06391
1.5501
1.29034
1.0391
1.13396
1.3453
1.1431
1.30825
1.57155
1.56191
1.31146
1.4906
1.33332
0.929934
1.45936
1.08423
1.53867
1.40244
1.43444
1.34976
1.28447
1.22271
1.39441
1.1148
1.25995
1.36523
1.40543
1.52648
1.43897
1.08063
1.19222
1.24464
1.31249
1.39992
1.25244
1.12452
1.12831
1.21795
1.33963
1.32164
1.37627
1.33938
1.29294
1.20516
1.3793
1.36014
1.4609
1.16289
1.14443
0.718985
1.03215
1.13085
0.743044
1.18858
1.3382
1.5006
1.46091
1.85187
1.87092
1.56516
1.25112
1.32222
1.2931
1.47276
1.41819
1.45268
1.23775
1.45402
0.878273
0.962314
1.43355
1.46286
1.65042
1.27553
1.12967
1.30314
1.12961
1.06663
1.59606
1.74391
1.44911
1.41531
1.4137
1.3529
1.39556
1.29792
1.38589
1.30549
1.27437
1.34557
1.53026
1.426
1.37667
1.20547
1.40672
1.39329
1.56481
1.36347
1.36371
1.28822
1.19238
1.38632
1.35695
1.49752
1.37258
1.40648
1.414
1.39253
1.47212
1.67596
1.097
1.28755
1.31493
1.35715
1.47125
1.28389
1.17983
1.37148
0.729568
1.49307
0.593134
1.66714
1.55746
1.36305
1.57149
1.12732
1.45811
1.91058
0.983101
1.75536
1.62152
1.38242
0.856751
1.08969
1.1288
1.06632
1.69764
1.15738
1.35921
1.64749
1.27255
2.32873
3.1068
