OFF
606 1188 0
5.59495 -5.91734 -2.48238
5.70164 -5.70164 -2.95538
5.94804 -5.80994 -3.19038
5.91914 -6.16724 -2.57938
6.30733 -5.86334 -3.30638
6.30733 -6.24564 -2.65038
6.30733 -6.50844 -1.81938
5.87733 -6.41564 -1.79038
5.51883 -6.13354 -1.73238
6.66662 -5.80994 -3.19038
6.91302 -5.70164 -2.95538
7.01971 -5.91734 -2.48238
6.69553 -6.16724 -2.57938
7.09583 -6.13354 -1.73238
6.73733 -6.41564 -1.79038
7.11356 -6.28604 -0.88438
7.09637 -6.37644 -0.13538
6.73772 -6.66024 -0.17838
6.74709 -6.57604 -0.92838
6.30733 -6.75494 -0.19238
6.30733 -6.67274 -0.94338
5.87694 -6.66024 -0.17838
5.51829 -6.37644 -0.13538
5.5011 -6.28604 -0.88438
5.86757 -6.57604 -0.92838
4.13302 0.0880624 0.96262
4.12896 0.0842624 0.95762
4.28545 0.163562 0.43362
4.1262 0.0782624 0.95262
4.12364 0.0694624 0.94862
4.2792 0.148262 0.42862
4.28218 0.157262 0.43162
4.33105 0.242962 -0.19638
4.33418 0.252162 -0.19438
4.2792 0.337562 -0.82038
3.24214 0.0221624 1.26062
3.55326 0.00636239 1.36462
3.55424 0.0149624 1.37062
3.86437 0.0221624 1.26062
3.86621 0.0307624 1.26662
3.86815 0.0367624 1.27162
3.55517 0.0208624 1.37562
4.13948 0.0897624 0.96962
3.87521 0.0417624 1.28662
3.8709 0.0402624 1.27762
3.55808 0.0256624 1.39262
3.55635 0.0243624 1.38262
5.90882 -3.68504 -3.33438
5.57341 -3.74624 -2.93038
5.65718 -3.43874 -2.71938
5.95632 -3.38414 -3.08038
5.71021 -3.22034 -2.48838
5.96764 -3.17334 -2.79838
6.27655 -3.15764 -2.90238
6.3153 -3.36594 -3.20038
6.31131 -3.66464 -3.46838
5.66828 -2.98954 -2.25238
5.46715 -2.64464 -2.02738
5.66096 -2.60934 -2.26138
5.88758 -2.94954 -2.51638
5.89353 -2.59754 -2.33938
6.15073 -2.93614 -2.60438
6.12609 -2.60934 -2.26138
6.3199 -2.64464 -2.02738
6.63318 -2.98954 -2.25238
6.41389 -2.94954 -2.51638
6.84288 -3.22034 -2.48838
6.58546 -3.17334 -2.79838
6.97342 -3.43874 -2.71938
7.04922 -3.74624 -2.93038
6.71381 -3.68504 -3.33438
6.67428 -3.38414 -3.08038
7.25047 -3.84824 -2.25738
7.15291 -3.52964 -2.11938
6.99734 -3.29864 -1.97238
7.05062 -3.39154 -1.34738
7.21992 -3.63454 -1.38138
7.33245 -3.96424 -1.42338
6.43618 -2.70364 -1.63838
6.76476 -3.05624 -1.81238
6.47494 -2.77434 -1.17238
6.80862 -3.13624 -1.28438
6.43618 -2.84504 -0.70538
6.3199 -2.90404 -0.31638
6.63318 -3.28304 -0.31638
6.76476 -3.21634 -0.75638
6.85366 -3.55294 -0.18838
7.00452 -3.48224 -0.71438
7.01653 -3.79134 0.0306201
7.17021 -4.12164 0.33462
7.31008 -4.06724 -0.53538
7.18165 -3.73084 -0.60838
5.37216 -3.84824 -2.25738
5.52315 -4.24454 -3.10438
5.30885 -4.35314 -2.38738
5.52435 -4.81624 -3.18538
5.31023 -4.93414 -2.47238
5.20888 -5.07784 -1.60538
5.21358 -4.47924 -1.50938
5.28996 -3.96424 -1.42338
5.59495 -5.34414 -3.12038
5.39879 -5.48084 -2.47538
5.30332 -5.65854 -1.67538
5.30309 -5.90334 -0.0633799
5.28122 -5.80264 -0.81138
5.2217 -5.32074 0.0366201
5.191 -5.21114 -0.71338
5.26447 -4.70854 0.16562
5.44991 -4.12164 0.33462
5.31169 -4.06724 -0.53538
5.21353 -4.59664 -0.59638
7.0947 -4.24454 -3.10438
6.73753 -4.17934 -3.53438
7.09111 -4.81624 -3.18538
6.73494 -4.76064 -3.61738
6.30773 -4.74844 -3.76238
6.30892 -4.15764 -3.67738
7.01971 -5.34414 -3.12038
6.69553 -5.32264 -3.51938
6.30733 -5.34064 -3.65838
5.91914 -5.32264 -3.51938
5.88052 -4.76064 -3.61738
5.88032 -4.17934 -3.53438
7.35212 -4.70854 0.16562
7.40375 -4.59664 -0.59638
7.39344 -5.32074 0.0366201
7.42431 -5.21114 -0.71338
7.40655 -5.07784 -1.60538
7.40412 -4.47924 -1.50938
7.31157 -5.90334 -0.0633799
7.33344 -5.80264 -0.81138
7.31134 -5.65854 -1.67538
7.21587 -5.48084 -2.47538
7.30523 -4.93414 -2.47238
7.309 -4.35314 -2.38738
6.08786 -4.88464 0.88362
5.93566 -4.96064 0.85762
5.87644 -5.16354 0.84162
6.07574 -5.15154 0.86962
5.84772 -5.45414 0.80462
6.06057 -5.45834 0.83262
6.30733 -5.45974 0.84162
6.30733 -5.13284 0.88162
6.30733 -4.84784 0.89662
5.87644 -5.74254 0.75362
5.93566 -5.94114 0.70862
6.08786 -6.02144 0.71162
6.07574 -5.76244 0.77762
6.30733 -6.06034 0.71262
6.30733 -5.78384 0.78262
6.5268 -6.02144 0.71162
6.679 -5.94114 0.70862
6.73822 -5.74254 0.75362
6.53892 -5.76244 0.77762
6.76694 -5.45414 0.80462
6.55409 -5.45834 0.83262
6.73822 -5.16354 0.84162
6.679 -4.96064 0.85762
6.5268 -4.88464 0.88362
6.53892 -5.15154 0.86962
5.8711 -3.95314 0.62162
5.52109 -4.34494 0.70462
5.876 -4.09654 0.80562
5.57484 -4.46554 0.85762
5.90717 -4.21064 0.91262
6.30769 -4.12934 0.93362
6.30878 -4.02854 0.85162
6.3111 -3.90744 0.69562
5.61567 -4.53524 0.89962
5.64431 -4.57134 0.88262
5.94569 -4.33274 0.91862
5.93006 -4.28634 0.93762
6.30733 -4.25324 0.93062
6.30733 -4.20344 0.94962
6.66897 -4.33274 0.91862
6.97034 -4.57134 0.88262
6.99899 -4.53524 0.89962
6.6846 -4.28634 0.93762
7.0403 -4.46554 0.85762
6.70814 -4.21064 0.91262
7.0955 -4.34494 0.70462
6.75067 -3.95314 0.62162
6.74127 -4.09654 0.80562
5.54693 -6.40644 0.31862
5.33955 -5.95054 0.38762
5.5813 -6.39474 0.54662
5.38329 -5.95944 0.61262
5.3162 -5.43464 0.69462
5.26608 -5.39384 0.47962
5.61567 -6.35994 0.62262
5.64431 -6.32044 0.61762
5.46349 -5.92294 0.67762
5.42704 -5.94514 0.68562
5.40322 -5.44584 0.75062
5.36416 -5.44754 0.76162
5.46349 -4.96884 0.82262
5.42704 -4.94994 0.83662
5.37895 -4.90514 0.78062
5.32219 -4.81804 0.59062
7.06773 -6.40644 0.31862
6.72209 -6.68004 0.27662
7.03336 -6.39474 0.54662
6.70335 -6.65594 0.50762
6.30733 -6.74304 0.49462
6.30733 -6.77124 0.26262
6.99899 -6.35994 0.62262
6.97034 -6.32044 0.61762
6.66897 -6.55894 0.58162
6.6846 -6.60874 0.58562
6.30733 -6.63844 0.56962
6.30733 -6.69164 0.57262
5.94569 -6.55894 0.58162
5.93006 -6.60874 0.58562
5.91131 -6.65594 0.50762
5.89257 -6.68004 0.27662
7.2935 -4.81804 0.59062
7.23596 -4.90514 0.78062
7.29852 -5.43464 0.69462
7.34884 -5.39384 0.47962
7.15117 -4.96884 0.82262
7.18762 -4.94994 0.83662
7.21144 -5.44584 0.75062
7.2505 -5.44754 0.76162
7.15117 -5.92294 0.67762
7.18762 -5.94514 0.68562
7.23137 -5.95944 0.61262
7.27511 -5.95054 0.38762
5.6615 -4.59124 0.86062
5.95506 -4.35884 0.89662
5.67009 -4.59874 0.83362
5.95975 -4.36944 0.86862
6.30733 -4.29304 0.88062
6.30733 -4.28144 0.90762
5.67296 -4.59764 0.80162
5.67296 -4.59194 0.76362
5.96131 -4.36374 0.79862
5.96131 -4.36944 0.83662
6.30733 -4.28774 0.81062
6.30733 -4.29344 0.84762
6.65335 -4.36374 0.79862
6.9417 -4.59194 0.76362
6.9417 -4.59764 0.80162
6.65335 -4.36944 0.83662
6.94457 -4.59874 0.83362
6.65491 -4.36944 0.86862
6.95316 -4.59124 0.86062
6.6596 -4.35884 0.89662
5.6615 -6.29494 0.60262
5.48537 -5.90774 0.66162
5.67009 -6.27984 0.57962
5.4963 -5.89774 0.63662
5.43837 -5.43924 0.70662
5.42665 -5.44304 0.73162
5.67296 -6.27124 0.54762
5.67296 -6.26554 0.51062
5.49995 -5.88514 0.56762
5.49995 -5.89084 0.60562
5.44228 -5.42874 0.63762
5.44228 -5.43444 0.67462
5.49995 -4.97234 0.70662
5.49995 -4.97804 0.74362
5.4963 -4.98074 0.77562
5.48537 -4.97844 0.80262
6.95316 -6.29494 0.60262
6.6596 -6.52734 0.56762
6.94457 -6.27984 0.57962
6.65491 -6.50904 0.54462
6.30733 -6.58544 0.53262
6.30733 -6.60474 0.55562
6.9417 -6.27124 0.54762
6.9417 -6.26554 0.51062
6.65335 -6.49374 0.47562
6.65335 -6.49944 0.51362
6.30733 -6.56984 0.46462
6.30733 -6.57554 0.50162
5.96131 -6.49374 0.47562
5.96131 -6.49944 0.51362
5.95975 -6.50904 0.54462
5.95506 -6.52734 0.56762
7.12929 -4.97844 0.80262
7.11836 -4.98074 0.77562
7.17629 -5.43924 0.70662
7.18801 -5.44304 0.73162
7.11471 -4.97234 0.70662
7.11471 -4.97804 0.74362
7.17238 -5.42874 0.63762
7.17238 -5.43444 0.67462
7.11471 -5.88514 0.56762
7.11471 -5.89084 0.60562
7.11836 -5.89774 0.63662
7.12929 -5.90774 0.66162
5.96491 -4.35304 0.65262
5.67957 -4.57884 0.61862
5.68618 -4.58704 0.61362
5.96852 -4.36354 0.64762
5.69621 -4.60234 0.62562
5.97399 -4.38254 0.65862
6.30733 -4.30924 0.66962
6.30733 -4.28914 0.65862
6.30733 -4.27774 0.66462
5.71044 -4.62574 0.65262
5.72963 -4.65794 0.69462
5.99222 -4.45004 0.72562
5.98175 -4.41104 0.68562
6.30733 -4.38084 0.73662
6.30733 -4.33944 0.69662
6.62244 -4.45004 0.72562
6.88502 -4.65794 0.69462
6.90422 -4.62574 0.65262
6.63291 -4.41104 0.68562
6.91845 -4.60234 0.62562
6.64067 -4.38254 0.65862
6.92848 -4.58704 0.61362
6.93509 -4.57884 0.61862
6.64974 -4.35304 0.65262
6.64614 -4.36354 0.64762
5.50836 -5.85864 0.42462
5.67957 -6.23504 0.36762
5.68618 -6.22574 0.36562
5.51678 -5.85324 0.42162
5.69621 -6.21464 0.38162
5.52954 -5.84814 0.43662
5.47399 -5.40844 0.50362
5.46031 -5.40634 0.48962
5.45129 -5.40694 0.49362
5.71044 -6.20044 0.41462
5.72964 -6.18194 0.46362
5.57208 -5.83554 0.51562
5.54765 -5.84254 0.46862
5.51957 -5.41994 0.57862
5.49339 -5.41304 0.53362
5.57208 -5.00424 0.64162
5.54765 -4.98364 0.59862
5.52954 -4.96884 0.57062
5.50836 -4.95524 0.56162
5.51678 -4.95944 0.55762
6.64974 -6.46084 0.33362
6.93509 -6.23504 0.36762
6.92848 -6.22574 0.36562
6.64614 -6.44914 0.33162
6.91845 -6.21464 0.38162
6.64067 -6.43444 0.34762
6.30733 -6.50774 0.33662
6.30733 -6.52364 0.32062
6.30733 -6.53614 0.32262
6.90422 -6.20044 0.41462
6.88502 -6.18194 0.46362
6.62244 -6.38974 0.43162
6.63291 -6.41514 0.38162
6.30733 -6.45904 0.42162
6.30733 -6.48674 0.37062
5.99222 -6.38974 0.43162
5.98175 -6.41514 0.38162
5.97399 -6.43444 0.34762
5.96491 -6.46084 0.33362
5.96852 -6.44914 0.33162
7.1063 -4.95524 0.56162
7.09788 -4.95944 0.55762
7.08512 -4.96884 0.57062
7.14067 -5.40844 0.50362
7.15435 -5.40634 0.48962
7.16337 -5.40694 0.49362
7.04258 -5.00424 0.64162
7.06701 -4.98364 0.59862
7.0951 -5.41994 0.57862
7.12127 -5.41304 0.53362
7.04258 -5.83554 0.51562
7.06701 -5.84254 0.46862
7.08512 -5.84814 0.43662
7.1063 -5.85864 0.42462
7.09788 -5.85324 0.42162
4.64797 -0.434538 0.18962
4.50553 -0.506738 0.66662
4.89954 -1.04134 0.40562
5.0309 -0.974738 -0.0333799
5.3812 -1.68474 0.11162
5.50165 -1.62364 -0.29138
5.54181 -1.55044 -0.77538
5.07469 -0.894838 -0.56038
4.69545 -0.347938 -0.38138
5.87861 -2.33844 -0.15138
5.99261 -2.28064 -0.53338
6.03062 -2.21134 -0.99038
5.87861 -2.08414 -1.82938
5.99261 -2.14194 -1.44838
5.3812 -1.41604 -1.66138
5.50165 -1.47714 -1.25838
4.89954 -0.748338 -1.52738
4.50553 -0.189038 -1.43038
4.64797 -0.261238 -0.95338
5.0309 -0.814938 -1.08838
4.26812 -0.145738 -1.71638
4.6806 -0.708438 -1.79138
5.18043 -1.37944 -1.90338
4.93952 -1.36724 -1.98438
4.41788 -0.695038 -1.87938
3.98324 -0.131338 -1.81138
5.6886 -2.04954 -2.05838
5.46059 -2.03794 -2.13438
5.04258 -2.08414 -1.82938
5.23259 -2.04954 -2.05838
4.49784 -1.41604 -1.66138
4.6986 -1.37944 -1.90338
3.93621 -0.748338 -1.52738
3.46096 -0.189038 -1.43038
3.69836 -0.145738 -1.71638
4.15515 -0.708438 -1.79138
3.31852 -0.261238 -0.95338
3.80485 -0.814938 -1.08838
4.37738 -1.47714 -1.25838
4.33723 -1.55044 -0.77538
3.76106 -0.894838 -0.56038
3.27104 -0.347938 -0.38138
5.35087 -2.70364 -1.63838
4.92857 -2.14194 -1.44838
5.31211 -2.77434 -1.17238
4.89057 -2.21134 -0.99038
5.35087 -2.84504 -0.70538
5.46715 -2.90404 -0.31638
5.04258 -2.33844 -0.15138
4.92857 -2.28064 -0.53338
4.49784 -1.68474 0.11162
4.37738 -1.62364 -0.29138
3.93621 -1.04134 0.40562
3.46096 -0.506738 0.66662
3.31852 -0.434538 0.18962
3.80485 -0.974738 -0.0333799
3.69836 -0.550138 0.95262
4.15515 -1.08134 0.66962
4.6986 -1.72134 0.35262
4.93952 -1.73364 0.43362
4.41788 -1.09464 0.75762
3.98324 -0.564538 1.04762
5.66096 -2.93944 -0.0833799
5.23259 -2.37314 0.0766201
5.89353 -2.95114 -0.00537989
5.46059 -2.38474 0.15362
6.12609 -2.93944 -0.0833799
5.6886 -2.37314 0.0766201
5.18043 -1.72134 0.35262
4.26812 -0.550138 0.95262
4.6806 -1.08134 0.66962
6.41389 -3.32304 -0.0523799
6.15073 -3.33634 0.0356201
6.27651 -3.59264 0.21162
6.59264 -3.58574 0.11562
5.66828 -3.28304 -0.31638
5.88758 -3.32304 -0.0523799
5.69922 -3.55294 -0.18838
5.96031 -3.58574 0.11562
5.6132 -3.79134 0.0306201
5.92701 -3.78934 0.36562
6.31515 -3.77264 0.45762
6.70302 -3.78934 0.36562
5.5367 -3.21634 -0.75638
5.49285 -3.13624 -1.28438
5.50244 -3.39154 -1.34738
5.54843 -3.48224 -0.71438
5.5367 -3.05624 -1.81238
5.55576 -3.29864 -1.97238
5.47769 -3.52964 -2.11938
5.41053 -3.63454 -1.38138
5.44837 -3.73084 -0.60838
5.75458 -4.69964 0.74762
6.00583 -4.50084 0.77862
5.79513 -4.76244 0.80062
6.02784 -4.57904 0.82962
6.30733 -4.51824 0.83962
6.30733 -4.43454 0.78862
5.86118 -4.85744 0.83962
6.06354 -4.70044 0.86762
6.30733 -4.64954 0.87962
6.75348 -4.85744 0.83962
6.55112 -4.70044 0.86762
6.81953 -4.76244 0.80062
6.58682 -4.57904 0.82962
6.86008 -4.69964 0.74762
6.60883 -4.50084 0.77862
7.01084 -5.03114 0.69762
6.95867 -5.06954 0.75562
7.00485 -5.43834 0.70062
7.06109 -5.42884 0.63762
6.87297 -5.12494 0.80362
6.912 -5.44714 0.75862
6.75348 -6.03444 0.66162
6.87297 -5.76814 0.70562
6.81953 -6.11364 0.59562
6.95867 -5.80684 0.64362
6.86008 -6.15794 0.52662
7.01084 -5.82654 0.57762
6.60883 -6.35674 0.49662
6.58682 -6.29734 0.56962
6.30733 -6.35844 0.56062
6.30733 -6.42304 0.48662
6.55112 -6.19264 0.64162
6.30733 -6.24474 0.63762
5.86118 -6.03444 0.66162
6.06354 -6.19264 0.64162
5.79513 -6.11364 0.59662
6.02784 -6.29734 0.56962
5.75458 -6.15794 0.52662
6.00583 -6.35674 0.49662
5.60383 -5.82654 0.57762
5.65599 -5.80684 0.64362
5.60981 -5.43834 0.70062
5.55358 -5.42884 0.63762
5.74169 -5.76814 0.70562
5.70266 -5.44714 0.75862
5.74169 -5.12494 0.80362
5.65599 -5.06954 0.75562
5.60383 -5.03114 0.69762
5.67296 -4.58544 0.72062
5.96131 -4.35724 0.75562
5.67362 -4.57984 0.67862
5.96167 -4.35194 0.71262
6.30733 -4.27594 0.72462
6.30733 -4.28114 0.76662
5.6756 -4.57714 0.64262
5.96275 -4.34984 0.67662
6.30733 -4.27404 0.68862
6.93906 -4.57714 0.64262
6.65191 -4.34984 0.67662
6.94104 -4.57984 0.67862
6.65299 -4.35194 0.71262
6.9417 -4.58544 0.72062
6.65335 -4.35724 0.75562
7.11471 -4.96584 0.66362
7.11387 -4.95984 0.62062
7.17148 -5.41584 0.55162
7.17238 -5.42224 0.59462
7.11135 -4.95584 0.58462
7.16878 -5.41034 0.51562
6.93906 -6.24364 0.38962
7.11135 -5.86494 0.44762
6.94104 -6.25174 0.42462
7.11387 -5.87174 0.48262
6.9417 -6.25904 0.46762
7.11471 -5.87864 0.52462
6.65335 -6.48724 0.43262
6.65299 -6.47964 0.39062
6.30733 -6.55564 0.37862
6.30733 -6.56334 0.42162
6.65191 -6.47094 0.35562
6.30733 -6.54674 0.34362
5.6756 -6.24364 0.38962
5.96275 -6.47094 0.35562
5.67362 -6.25174 0.42462
5.96167 -6.47964 0.39062
5.67296 -6.25904 0.46762
5.96131 -6.48724 0.43262
5.49995 -5.87864 0.52462
5.50079 -5.87174 0.48262
5.44318 -5.41584 0.55162
5.44228 -5.42224 0.59462
5.50331 -5.86494 0.44762
5.44588 -5.41034 0.51562
5.50331 -4.95584 0.58462
5.50079 -4.95984 0.62062
5.49995 -4.96584 0.66362
4.14944 0.0898624 0.98062
3.8818 0.0413624 1.29962
3.89773 0.0373624 1.33162
3.56064 0.0252624 1.40662
2.98369 0.0575624 0.94262
3.24198 0.0104624 1.25362
3.03206 -0.00833761 0.90962
3.28749 -0.0549376 1.21762
3.594 -0.0705376 1.31962
3.55193 -0.00523761 1.35662
3.17536 -0.179438 0.82562
3.42438 -0.224938 1.12562
3.7232 -0.240038 1.22562
4.27103 -0.179438 0.82562
4.02201 -0.224938 1.12562
4.15595 -0.00833761 0.90962
3.90052 -0.0549376 1.21762
4.12019 0.0575624 0.94262
3.86189 0.0104624 1.25362
4.27517 0.136162 0.42362
4.30921 0.0693624 0.39762
4.3603 0.162562 -0.21838
4.32683 0.230462 -0.19838
4.42044 -0.103738 0.32662
4.47024 -0.0128376 -0.27338
4.27103 0.153762 -1.37338
4.42044 0.0780624 -0.87338
4.15595 0.333462 -1.34538
4.30921 0.255762 -0.83338
4.12019 0.403262 -1.33838
4.27517 0.324762 -0.82038
3.90052 0.380162 -1.65338
4.02201 0.199262 -1.67238
3.7232 0.214362 -1.77238
3.594 0.395662 -1.75638
3.17536 0.153762 -1.37338
3.42438 0.199262 -1.67238
3.03206 0.333462 -1.34538
3.28749 0.380162 -1.65338
2.8788 0.255762 -0.83338
2.82772 0.162562 -0.21838
2.77705 0.230462 -0.19838
3.02596 0.0780624 -0.87338
2.97615 -0.0128376 -0.27338
3.02596 -0.103738 0.32662
2.8788 0.0693624 0.39762
2.82871 0.136162 0.42362
3 0 1 2
3 0 2 3
3 2 4 5
3 2 5 3
3 5 6 7
3 5 7 3
3 7 8 0
3 7 0 3
3 9 10 11
3 9 11 12
3 11 13 14
3 11 14 12
3 14 6 5
3 14 5 12
3 5 4 9
3 5 9 12
3 15 16 17
3 15 17 18
3 17 19 20
3 17 20 18
3 20 6 14
3 20 14 18
3 14 13 15
3 14 15 18
3 21 22 23
3 21 23 24
3 23 8 7
3 23 7 24
3 7 6 20
3 7 20 24
3 20 19 21
3 20 21 24
3 25 26 27
3 28 29 30
3 28 30 31
3 30 32 33
3 30 33 31
3 33 27 31
3 27 26 28
3 27 28 31
3 33 32 34
3 35 36 37
3 38 29 28
3 38 28 39
3 28 26 40
3 28 40 39
3 40 41 37
3 40 37 39
3 37 36 38
3 37 38 39
3 25 42 43
3 25 43 44
3 43 45 46
3 43 46 44
3 46 41 40
3 46 40 44
3 40 26 25
3 40 25 44
3 47 48 49
3 47 49 50
3 49 51 52
3 49 52 50
3 52 53 54
3 52 54 50
3 54 55 47
3 54 47 50
3 56 57 58
3 56 58 59
3 58 60 61
3 58 61 59
3 61 53 52
3 61 52 59
3 52 51 56
3 52 56 59
3 62 63 64
3 62 64 65
3 64 66 67
3 64 67 65
3 67 53 61
3 67 61 65
3 61 60 62
3 61 62 65
3 68 69 70
3 68 70 71
3 70 55 54
3 70 54 71
3 54 53 67
3 54 67 71
3 67 66 68
3 67 68 71
3 72 69 68
3 72 68 73
3 68 66 74
3 68 74 73
3 74 75 76
3 74 76 73
3 76 77 72
3 76 72 73
3 64 63 78
3 64 78 79
3 78 80 81
3 78 81 79
3 81 75 74
3 81 74 79
3 74 66 64
3 74 64 79
3 82 83 84
3 82 84 85
3 84 86 87
3 84 87 85
3 87 75 81
3 87 81 85
3 81 80 82
3 81 82 85
3 88 89 90
3 88 90 91
3 90 77 76
3 90 76 91
3 76 75 87
3 76 87 91
3 87 86 88
3 87 88 91
3 92 48 93
3 92 93 94
3 93 95 96
3 93 96 94
3 96 97 98
3 96 98 94
3 98 99 92
3 98 92 94
3 100 1 0
3 100 0 101
3 0 8 102
3 0 102 101
3 102 97 96
3 102 96 101
3 96 95 100
3 96 100 101
3 23 22 103
3 23 103 104
3 103 105 106
3 103 106 104
3 106 97 102
3 106 102 104
3 102 8 23
3 102 23 104
3 107 108 109
3 107 109 110
3 109 99 98
3 109 98 110
3 98 97 106
3 98 106 110
3 106 105 107
3 106 107 110
3 70 69 111
3 70 111 112
3 111 113 114
3 111 114 112
3 114 115 116
3 114 116 112
3 116 55 70
3 116 70 112
3 117 10 9
3 117 9 118
3 9 4 119
3 9 119 118
3 119 115 114
3 119 114 118
3 114 113 117
3 114 117 118
3 2 1 100
3 2 100 120
3 100 95 121
3 100 121 120
3 121 115 119
3 121 119 120
3 119 4 2
3 119 2 120
3 93 48 47
3 93 47 122
3 47 55 116
3 47 116 122
3 116 115 121
3 116 121 122
3 121 95 93
3 121 93 122
3 90 89 123
3 90 123 124
3 123 125 126
3 123 126 124
3 126 127 128
3 126 128 124
3 128 77 90
3 128 90 124
3 129 16 15
3 129 15 130
3 15 13 131
3 15 131 130
3 131 127 126
3 131 126 130
3 126 125 129
3 126 129 130
3 11 10 117
3 11 117 132
3 117 113 133
3 117 133 132
3 133 127 131
3 133 131 132
3 131 13 11
3 131 11 132
3 111 69 72
3 111 72 134
3 72 77 128
3 72 128 134
3 128 127 133
3 128 133 134
3 133 113 111
3 133 111 134
3 135 136 137
3 135 137 138
3 137 139 140
3 137 140 138
3 140 141 142
3 140 142 138
3 142 143 135
3 142 135 138
3 144 145 146
3 144 146 147
3 146 148 149
3 146 149 147
3 149 141 140
3 149 140 147
3 140 139 144
3 140 144 147
3 150 151 152
3 150 152 153
3 152 154 155
3 152 155 153
3 155 141 149
3 155 149 153
3 149 148 150
3 149 150 153
3 156 157 158
3 156 158 159
3 158 143 142
3 158 142 159
3 142 141 155
3 142 155 159
3 155 154 156
3 155 156 159
3 160 108 161
3 160 161 162
3 161 163 164
3 161 164 162
3 164 165 166
3 164 166 162
3 166 167 160
3 166 160 162
3 168 169 170
3 168 170 171
3 170 172 173
3 170 173 171
3 173 165 164
3 173 164 171
3 164 163 168
3 164 168 171
3 174 175 176
3 174 176 177
3 176 178 179
3 176 179 177
3 179 165 173
3 179 173 177
3 173 172 174
3 173 174 177
3 180 89 181
3 180 181 182
3 181 167 166
3 181 166 182
3 166 165 179
3 166 179 182
3 179 178 180
3 179 180 182
3 103 22 183
3 103 183 184
3 183 185 186
3 183 186 184
3 186 187 188
3 186 188 184
3 188 105 103
3 188 103 184
3 189 190 191
3 189 191 192
3 191 193 194
3 191 194 192
3 194 187 186
3 194 186 192
3 186 185 189
3 186 189 192
3 195 169 168
3 195 168 196
3 168 163 197
3 168 197 196
3 197 187 194
3 197 194 196
3 194 193 195
3 194 195 196
3 161 108 107
3 161 107 198
3 107 105 188
3 107 188 198
3 188 187 197
3 188 197 198
3 197 163 161
3 197 161 198
3 17 16 199
3 17 199 200
3 199 201 202
3 199 202 200
3 202 203 204
3 202 204 200
3 204 19 17
3 204 17 200
3 205 206 207
3 205 207 208
3 207 209 210
3 207 210 208
3 210 203 202
3 210 202 208
3 202 201 205
3 202 205 208
3 211 190 189
3 211 189 212
3 189 185 213
3 189 213 212
3 213 203 210
3 213 210 212
3 210 209 211
3 210 211 212
3 183 22 21
3 183 21 214
3 21 19 204
3 21 204 214
3 204 203 213
3 204 213 214
3 213 185 183
3 213 183 214
3 123 89 180
3 123 180 215
3 180 178 216
3 180 216 215
3 216 217 218
3 216 218 215
3 218 125 123
3 218 123 215
3 176 175 219
3 176 219 220
3 219 221 222
3 219 222 220
3 222 217 216
3 222 216 220
3 216 178 176
3 216 176 220
3 223 206 205
3 223 205 224
3 205 201 225
3 205 225 224
3 225 217 222
3 225 222 224
3 222 221 223
3 222 223 224
3 199 16 129
3 199 129 226
3 129 125 218
3 129 218 226
3 218 217 225
3 218 225 226
3 225 201 199
3 225 199 226
3 170 169 227
3 170 227 228
3 227 229 230
3 227 230 228
3 230 231 232
3 230 232 228
3 232 172 170
3 232 170 228
3 233 234 235
3 233 235 236
3 235 237 238
3 235 238 236
3 238 231 230
3 238 230 236
3 230 229 233
3 230 233 236
3 239 240 241
3 239 241 242
3 241 243 244
3 241 244 242
3 244 231 238
3 244 238 242
3 238 237 239
3 238 239 242
3 245 175 174
3 245 174 246
3 174 172 232
3 174 232 246
3 232 231 244
3 232 244 246
3 244 243 245
3 244 245 246
3 191 190 247
3 191 247 248
3 247 249 250
3 247 250 248
3 250 251 252
3 250 252 248
3 252 193 191
3 252 191 248
3 253 254 255
3 253 255 256
3 255 257 258
3 255 258 256
3 258 251 250
3 258 250 256
3 250 249 253
3 250 253 256
3 259 234 233
3 259 233 260
3 233 229 261
3 233 261 260
3 261 251 258
3 261 258 260
3 258 257 259
3 258 259 260
3 227 169 195
3 227 195 262
3 195 193 252
3 195 252 262
3 252 251 261
3 252 261 262
3 261 229 227
3 261 227 262
3 207 206 263
3 207 263 264
3 263 265 266
3 263 266 264
3 266 267 268
3 266 268 264
3 268 209 207
3 268 207 264
3 269 270 271
3 269 271 272
3 271 273 274
3 271 274 272
3 274 267 266
3 274 266 272
3 266 265 269
3 266 269 272
3 275 254 253
3 275 253 276
3 253 249 277
3 253 277 276
3 277 267 274
3 277 274 276
3 274 273 275
3 274 275 276
3 247 190 211
3 247 211 278
3 211 209 268
3 211 268 278
3 268 267 277
3 268 277 278
3 277 249 247
3 277 247 278
3 219 175 245
3 219 245 279
3 245 243 280
3 245 280 279
3 280 281 282
3 280 282 279
3 282 221 219
3 282 219 279
3 241 240 283
3 241 283 284
3 283 285 286
3 283 286 284
3 286 281 280
3 286 280 284
3 280 243 241
3 280 241 284
3 287 270 269
3 287 269 288
3 269 265 289
3 269 289 288
3 289 281 286
3 289 286 288
3 286 285 287
3 286 287 288
3 263 206 223
3 263 223 290
3 223 221 282
3 223 282 290
3 282 281 289
3 282 289 290
3 289 265 263
3 289 263 290
3 291 292 293
3 291 293 294
3 293 295 296
3 293 296 294
3 296 297 298
3 296 298 294
3 298 299 291
3 298 291 294
3 300 301 302
3 300 302 303
3 302 304 305
3 302 305 303
3 305 297 296
3 305 296 303
3 296 295 300
3 296 300 303
3 306 307 308
3 306 308 309
3 308 310 311
3 308 311 309
3 311 297 305
3 311 305 309
3 305 304 306
3 305 306 309
3 312 313 314
3 312 314 315
3 314 299 298
3 314 298 315
3 298 297 311
3 298 311 315
3 311 310 312
3 311 312 315
3 316 317 318
3 316 318 319
3 318 320 321
3 318 321 319
3 321 322 323
3 321 323 319
3 323 324 316
3 323 316 319
3 325 326 327
3 325 327 328
3 327 329 330
3 327 330 328
3 330 322 321
3 330 321 328
3 321 320 325
3 321 325 328
3 331 301 300
3 331 300 332
3 300 295 333
3 300 333 332
3 333 322 330
3 333 330 332
3 330 329 331
3 330 331 332
3 293 292 334
3 293 334 335
3 334 324 323
3 334 323 335
3 323 322 333
3 323 333 335
3 333 295 293
3 333 293 335
3 336 337 338
3 336 338 339
3 338 340 341
3 338 341 339
3 341 342 343
3 341 343 339
3 343 344 336
3 343 336 339
3 345 346 347
3 345 347 348
3 347 349 350
3 347 350 348
3 350 342 341
3 350 341 348
3 341 340 345
3 341 345 348
3 351 326 325
3 351 325 352
3 325 320 353
3 325 353 352
3 353 342 350
3 353 350 352
3 350 349 351
3 350 351 352
3 318 317 354
3 318 354 355
3 354 344 343
3 354 343 355
3 343 342 353
3 343 353 355
3 353 320 318
3 353 318 355
3 356 313 312
3 356 312 357
3 312 310 358
3 312 358 357
3 358 359 360
3 358 360 357
3 360 361 356
3 360 356 357
3 308 307 362
3 308 362 363
3 362 364 365
3 362 365 363
3 365 359 358
3 365 358 363
3 358 310 308
3 358 308 363
3 366 346 345
3 366 345 367
3 345 340 368
3 345 368 367
3 368 359 365
3 368 365 367
3 365 364 366
3 365 366 367
3 338 337 369
3 338 369 370
3 369 361 360
3 369 360 370
3 360 359 368
3 360 368 370
3 368 340 338
3 368 338 370
3 371 372 373
3 371 373 374
3 373 375 376
3 373 376 374
3 376 377 378
3 376 378 374
3 378 379 371
3 378 371 374
3 380 83 82
3 380 82 381
3 82 80 382
3 82 382 381
3 382 377 376
3 382 376 381
3 376 375 380
3 376 380 381
3 78 63 383
3 78 383 384
3 383 385 386
3 383 386 384
3 386 377 382
3 386 382 384
3 382 80 78
3 382 78 384
3 387 388 389
3 387 389 390
3 389 379 378
3 389 378 390
3 378 377 386
3 378 386 390
3 386 385 387
3 386 387 390
3 391 388 387
3 391 387 392
3 387 385 393
3 387 393 392
3 393 394 395
3 393 395 392
3 395 396 391
3 395 391 392
3 383 63 62
3 383 62 397
3 62 60 398
3 62 398 397
3 398 394 393
3 398 393 397
3 393 385 383
3 393 383 397
3 58 57 399
3 58 399 400
3 399 401 402
3 399 402 400
3 402 394 398
3 402 398 400
3 398 60 58
3 398 58 400
3 403 404 405
3 403 405 406
3 405 396 395
3 405 395 406
3 395 394 402
3 395 402 406
3 402 401 403
3 402 403 406
3 407 404 403
3 407 403 408
3 403 401 409
3 403 409 408
3 409 410 411
3 409 411 408
3 411 412 407
3 411 407 408
3 399 57 413
3 399 413 414
3 413 415 416
3 413 416 414
3 416 410 409
3 416 409 414
3 409 401 399
3 409 399 414
3 417 418 419
3 417 419 420
3 419 421 422
3 419 422 420
3 422 410 416
3 422 416 420
3 416 415 417
3 416 417 420
3 423 424 425
3 423 425 426
3 425 412 411
3 425 411 426
3 411 410 422
3 411 422 426
3 422 421 423
3 422 423 426
3 427 424 423
3 427 423 428
3 423 421 429
3 423 429 428
3 429 430 431
3 429 431 428
3 431 432 427
3 431 427 428
3 419 418 433
3 419 433 434
3 433 435 436
3 433 436 434
3 436 430 429
3 436 429 434
3 429 421 419
3 429 419 434
3 437 83 380
3 437 380 438
3 380 375 439
3 380 439 438
3 439 430 436
3 439 436 438
3 436 435 437
3 436 437 438
3 373 372 440
3 373 440 441
3 440 432 431
3 440 431 441
3 431 430 439
3 431 439 441
3 439 375 373
3 439 373 441
3 84 83 437
3 84 437 442
3 437 435 443
3 437 443 442
3 443 444 445
3 443 445 442
3 445 86 84
3 445 84 442
3 433 418 446
3 433 446 447
3 446 448 449
3 446 449 447
3 449 444 443
3 449 443 447
3 443 435 433
3 443 433 447
3 450 108 160
3 450 160 451
3 160 167 452
3 160 452 451
3 452 444 449
3 452 449 451
3 449 448 450
3 449 450 451
3 181 89 88
3 181 88 453
3 88 86 445
3 88 445 453
3 445 444 452
3 445 452 453
3 452 167 181
3 452 181 453
3 446 418 417
3 446 417 454
3 417 415 455
3 417 455 454
3 455 456 457
3 455 457 454
3 457 448 446
3 457 446 454
3 413 57 56
3 413 56 458
3 56 51 459
3 56 459 458
3 459 456 455
3 459 455 458
3 455 415 413
3 455 413 458
3 49 48 92
3 49 92 460
3 92 99 461
3 92 461 460
3 461 456 459
3 461 459 460
3 459 51 49
3 459 49 460
3 109 108 450
3 109 450 462
3 450 448 457
3 450 457 462
3 457 456 461
3 457 461 462
3 461 99 109
3 461 109 462
3 302 301 463
3 302 463 464
3 463 465 466
3 463 466 464
3 466 467 468
3 466 468 464
3 468 304 302
3 468 302 464
3 469 136 135
3 469 135 470
3 135 143 471
3 135 471 470
3 471 467 466
3 471 466 470
3 466 465 469
3 466 469 470
3 158 157 472
3 158 472 473
3 472 474 475
3 472 475 473
3 475 467 471
3 475 471 473
3 471 143 158
3 471 158 473
3 476 307 306
3 476 306 477
3 306 304 468
3 306 468 477
3 468 467 475
3 468 475 477
3 475 474 476
3 475 476 477
3 362 307 476
3 362 476 478
3 476 474 479
3 476 479 478
3 479 480 481
3 479 481 478
3 481 364 362
3 481 362 478
3 472 157 156
3 472 156 482
3 156 154 483
3 156 483 482
3 483 480 479
3 483 479 482
3 479 474 472
3 479 472 482
3 152 151 484
3 152 484 485
3 484 486 487
3 484 487 485
3 487 480 483
3 487 483 485
3 483 154 152
3 483 152 485
3 488 346 366
3 488 366 489
3 366 364 481
3 366 481 489
3 481 480 487
3 481 487 489
3 487 486 488
3 487 488 489
3 347 346 488
3 347 488 490
3 488 486 491
3 488 491 490
3 491 492 493
3 491 493 490
3 493 349 347
3 493 347 490
3 484 151 150
3 484 150 494
3 150 148 495
3 150 495 494
3 495 492 491
3 495 491 494
3 491 486 484
3 491 484 494
3 146 145 496
3 146 496 497
3 496 498 499
3 496 499 497
3 499 492 495
3 499 495 497
3 495 148 146
3 495 146 497
3 500 326 351
3 500 351 501
3 351 349 493
3 351 493 501
3 493 492 499
3 493 499 501
3 499 498 500
3 499 500 501
3 327 326 500
3 327 500 502
3 500 498 503
3 500 503 502
3 503 504 505
3 503 505 502
3 505 329 327
3 505 327 502
3 496 145 144
3 496 144 506
3 144 139 507
3 144 507 506
3 507 504 503
3 507 503 506
3 503 498 496
3 503 496 506
3 137 136 469
3 137 469 508
3 469 465 509
3 469 509 508
3 509 504 507
3 509 507 508
3 507 139 137
3 507 137 508
3 463 301 331
3 463 331 510
3 331 329 505
3 331 505 510
3 505 504 509
3 505 509 510
3 509 465 463
3 509 463 510
3 235 234 511
3 235 511 512
3 511 513 514
3 511 514 512
3 514 515 516
3 514 516 512
3 516 237 235
3 516 235 512
3 517 292 291
3 517 291 518
3 291 299 519
3 291 519 518
3 519 515 514
3 519 514 518
3 514 513 517
3 514 517 518
3 314 313 520
3 314 520 521
3 520 522 523
3 520 523 521
3 523 515 519
3 523 519 521
3 519 299 314
3 519 314 521
3 524 240 239
3 524 239 525
3 239 237 516
3 239 516 525
3 516 515 523
3 516 523 525
3 523 522 524
3 523 524 525
3 283 240 524
3 283 524 526
3 524 522 527
3 524 527 526
3 527 528 529
3 527 529 526
3 529 285 283
3 529 283 526
3 520 313 356
3 520 356 530
3 356 361 531
3 356 531 530
3 531 528 527
3 531 527 530
3 527 522 520
3 527 520 530
3 369 337 532
3 369 532 533
3 532 534 535
3 532 535 533
3 535 528 531
3 535 531 533
3 531 361 369
3 531 369 533
3 536 270 287
3 536 287 537
3 287 285 529
3 287 529 537
3 529 528 535
3 529 535 537
3 535 534 536
3 535 536 537
3 271 270 536
3 271 536 538
3 536 534 539
3 536 539 538
3 539 540 541
3 539 541 538
3 541 273 271
3 541 271 538
3 532 337 336
3 532 336 542
3 336 344 543
3 336 543 542
3 543 540 539
3 543 539 542
3 539 534 532
3 539 532 542
3 354 317 544
3 354 544 545
3 544 546 547
3 544 547 545
3 547 540 543
3 547 543 545
3 543 344 354
3 543 354 545
3 548 254 275
3 548 275 549
3 275 273 541
3 275 541 549
3 541 540 547
3 541 547 549
3 547 546 548
3 547 548 549
3 255 254 548
3 255 548 550
3 548 546 551
3 548 551 550
3 551 552 553
3 551 553 550
3 553 257 255
3 553 255 550
3 544 317 316
3 544 316 554
3 316 324 555
3 316 555 554
3 555 552 551
3 555 551 554
3 551 546 544
3 551 544 554
3 334 292 517
3 334 517 556
3 517 513 557
3 517 557 556
3 557 552 555
3 557 555 556
3 555 324 334
3 555 334 556
3 511 234 259
3 511 259 558
3 259 257 553
3 259 553 558
3 553 552 557
3 553 557 558
3 557 513 511
3 557 511 558
3 43 42 559
3 43 559 560
3 559 561 560
3 561 562 560
3 562 45 43
3 562 43 560
3 35 563 564
3 563 565 566
3 563 566 564
3 566 567 568
3 566 568 564
3 568 36 35
3 568 35 564
3 569 424 427
3 569 427 570
3 427 432 571
3 427 571 570
3 571 567 566
3 571 566 570
3 566 565 569
3 566 569 570
3 440 372 572
3 440 572 573
3 572 574 575
3 572 575 573
3 575 567 571
3 575 571 573
3 571 432 440
3 571 440 573
3 576 29 38
3 576 38 577
3 38 36 568
3 38 568 577
3 568 567 575
3 568 575 577
3 575 574 576
3 575 576 577
3 30 29 576
3 30 576 578
3 576 574 579
3 576 579 578
3 579 580 581
3 579 581 578
3 581 32 30
3 581 30 578
3 572 372 371
3 572 371 582
3 371 379 583
3 371 583 582
3 583 580 579
3 583 579 582
3 579 574 572
3 579 572 582
3 389 388 584
3 389 584 585
3 584 586 587
3 584 587 585
3 587 580 583
3 587 583 585
3 583 379 389
3 583 389 585
3 588 34 589
3 34 32 581
3 34 581 589
3 581 580 587
3 581 587 589
3 587 586 588
3 587 588 589
3 588 586 590
3 584 388 391
3 584 391 591
3 391 396 592
3 391 592 591
3 592 593 590
3 592 590 591
3 590 586 584
3 590 584 591
3 405 404 594
3 405 594 595
3 594 596 597
3 594 597 595
3 597 593 592
3 597 592 595
3 592 396 405
3 592 405 595
3 598 599 600
3 594 404 407
3 594 407 601
3 407 412 602
3 407 602 601
3 602 599 598
3 602 598 601
3 598 596 594
3 598 594 601
3 425 424 569
3 425 569 603
3 569 565 604
3 569 604 603
3 604 599 602
3 604 602 603
3 602 412 425
3 602 425 603
3 600 599 604
3 600 604 605
3 604 565 563
3 604 563 605
