1.92568
6.06667
6.41697
6.10938
3.54695
3.45371
5.33745
2.13767
4.63306
3.82596
4.28276
1.01901
5.14918
4.11742
5.89405
5.82581
6.30723
4.92956
4.60397
5.45112
5.81102
2.89453
5.04783
1.73504
4.66135
1.83137
5.51141
2.55195
1.51822
3.15669
4.30018
3.22314
1.43387
1.65659
0.669641
0.712918
1.7787
1.95414
0.849201
0.25284
1.01748
1.57042
2.92897
0.940078
1.32903
1.06443
2.15053
0.93598
1.72062
2.63607
2.26856
2.08455
1.65827
1.5038
0.760787
1.93602
1.32466
2.76048
1.29974
0.703933
1.15592
2.38147
3.10867
2.26834
2.39381
1.50638
2.14931
1.88636
0.735196
1.05718
0.867527
0.854477
0.976572
1.18629
1.65597
1.20228
1.92849
1.60034
1.90081
1.11945
1.95742
2.24361
1.56304
2.63485
5.00884
2.41773
1.64791
1.52056
1.86214
2.29801
1.33908
1.96405
1.37651
0.751154
1.10218
1.36449
6.18063
2.20661
1.31849
2.38082
2.42601
2.24048
1.3699
2.3661
3.43132
1.4809
2.08672
2.41036
3.04824
2.14108
2.94587
3.54276
1.28238
1.33151
1.53812
1.3815
1.49508
3.75157
3.97293
1.66777
1.29165
2.45907
2.11544
4.89838
4.07632
2.49583
1.06777
1.15865
6.75338
2.44971
4.36257
1.03925
1.9251
2.10314
2.19529
4.41598
3.40975
2.26404
1.10659
3.31367
3.28974
2.65586
2.94113
2.68258
3.70031
4.21043
3.60154
1.5714
3.4787
2.34956
2.3491
3.18815
2.40823
5.18061
3.59424
4.16173
2.02514
5.55521
3.93414
0.778374
3.22332
3.32294
4.51247
3.46759
4.56865
1.75044
4.13909
2.18754
2.60191
2.3352
2.21021
4.87801
0.887461
3.14541
1.6997
4.62569
2.01615
4.4691
2.19031
0.778397
1.80184
1.9221
4.0309
2.04518
4.40818
4.42103
3.26435
3.19411
1.40063
1.26145
1.09546
2.64826
3.95162
2.14889
3.93362
1.78251
1.71685
2.25019
1.69145
1.35917
4.58514
3.31687
3.72648
6.24185
3.78051
3.12712
2.64067
4.476
3.68099
2.71479
2.53809
3.99972
3.5353
5.4495
3.29191
3.89083
3.3907
2.17369
3.05966
6.78934
2.7626
2.18108
4.18064
2.83658
2.55363
3.36461
3.7912
2.45102
2.47276
2.81674
1.078
2.57462
5.47189
5.17075
3.77091
4.59876
3.41332
2.41104
2.91621
2.11865
2.50961
6.00982
5.70348
5.05721
5.17353
3.45832
4.15457
3.38669
5.26906
5.06303
3.23306
5.03646
6.27603
6.81329
4.58699
6.72093
4.38785
4.08116
6.39746
5.61645
6.84128
6.6686
3.07827
5.51518
5.30965
3.5689
3.67586
4.59685
4.31168
4.92951
4.74455
4.85806
4.79139
6.05088
5.634
6.31194
5.24598
4.83478
3.06677
4.78514
2.06446
2.66381
1.78189
4.81215
5.76361
3.85421
4.72524
3.3903
3.67174
3.56975
4.21362
3.63673
4.01383
5.16262
2.60921
3.88879
2.81396
2.30431
3.4421
3.43976
1.77913
4.27902
1.20255
2.14802
6.71768
7.06043
1.86523
6.25922
5.53424
7.05314
4.94498
0.869711
6.05793
5.76652
6.04756
3.56549
5.95555
4.87983
2.90151
3.63233
2.56795
8.72501
0.99212
5.04103
3.04555
4.62001
7.2674
8.09492
1.73171
5.0987
3.19102
3.00083
5.01591
4.73148
4.60121
3.91817
3.52141
5.90489
3.78921
2.96505
3.67551
5.68089
2.43685
3.80291
6.09357
6.03952
3.16628
3.72583
4.48901
4.26623
6.17435
3.87133
1.89557
3.38931
3.42997
4.44056
2.77165
4.15805
4.59667
4.36784
1.66907
0.842624
0.537275
0.690606
0.561804
0.463356
0.883873
0.793278
0.579091
0.605404
1.14105
7.88765
4.05129
1.12465
0.892772
2.20881
0.296479
1.27563
0.631762
0.42649
0.8402
0.841963
1.84143
0.950745
1.26799
0.712071
0.866069
0.984564
0.704989
0.74977
0.757179
0.628102
1.15837
0.875456
0.548806
0.627262
0.572722
0.775393
1.09993
0.962933
0.844719
0.88333
0.275059
0.54017
0.483714
0.493823
0.480884
0.50058
0.613734
0.653475
0.715002
0.366286
1.51412
0.628813
3.40288
0.64361
1.63253
1.27468
1.46419
0.87939
0.881027
0.770726
0.859595
0.705892
1.06211
0.97211
0.524945
0.680522
0.78616
0.902408
1.28312
1.50788
0.53393
0.506101
0.498691
0.436008
0.235379
0.622867
0.463165
0.384048
0.445996
0.49928
0.505671
0.458378
1.04741
0.349547
0.770395
0.470667
1.14813
1.07758
1.16324
1.18847
0.616803
0.716303
0.66271
2.52109
5.12722
0.994544
0.681435
0.694809
0.853262
0.517202
1.48945
1.30702
0.696104
0.562969
0.755308
0.274663
0.978105
0.471546
2.19625
0.236342
0.429241
0.440621
0.56785
0.387177
0.525692
0.452462
0.292552
0.808866
1.26867
0.962686
1.31413
0.884569
0.59852
0.666032
0.776441
0.698092
0.567087
0.686568
1.46634
0.950883
1.19659
1.15145
4.24707
0.931546
3.32972
1.9918
5.58755
4.36837
1.08399
2.18045
1.04395
1.09993
2.60576
6.36065
2.32357
3.89814
3.10028
2.00026
2.3499
3.31501
0.773753
0.64186
6.71427
0.754374
0.785437
2.65
1.81979
0.852452
0.465045
0.642969
0.540488
0.736567
1.25952
0.638977
0.425373
0.681174
1.3794
1.08989
4.85123
1.33856
0.772307
1.52932
0.868648
1.79084
3.39134
1.15691
2.39566
2.03617
0.975073
1.37982
5.99695
2.45494
0.888948
0.812453
0.686796
0.641931
0.607358
0.797868
0.608868
0.820794
0.501534
0.784693
1.21312
0.62823
0.633575
1.32773
0.591425
0.643833
2.47931
6.26767
1.33656
1.18971
1.71805
1.06021
1.19657
7.90744
6.27973
1.67733
1.09433
2.03397
1.13051
1.63883
6.24826
1.18352
0.694944
0.566725
0.707852
0.523838
1.01699
0.660739
0.683794
0.903265
0.52487
0.751822
0.839152
0.700403
0.6258
0.711981
0.555663
0.720386
3.06568
6.5038
6.76483
1.98001
5.57775
2.99703
2.06675
5.98065
1.15037
1.74129
4.75066
4.64296
0.958771
2.2976
6.65409
7.73243
0.479459
0.529258
0.270673
0.645488
0.746718
0.952437
3.97542
0.49374
0.460779
1.13477
2.56927
0.783007
1.37902
1.66295
1.12337
0.691031
3.35866
1.36645
1.94847
0.686311
1.31533
3.59928
1.86402
6.32298
2.65453
0.759718
0.938199
1.79627
1.43164
2.74663
4.06248
0.405842
0.975237
1.66498
1.05981
2.31077
0.607929
0.967336
1.30711
0.763723
0.967868
2.31144
1.56555
2.21568
2.51489
2.3157
2.26226
2.33479
3.14864
3.24162
2.30251
2.49586
2.28303
2.47179
1.95254
3.43348
3.082
2.40407
1.96336
2.59525
2.72221
2.25078
3.3722
2.51583
1.20945
1.99778
2.11555
2.19423
2.19926
2.08304
2.01607
2.33554
0.843115
1.76757
1.54885
1.06869
1.51937
1.03447
0.938705
0.871024
3.14537
3.06551
3.94099
5.04614
2.26001
3.20632
1.86285
1.64498
2.66064
0.521659
3.01558
4.15594
1.4309
0.829679
4.58063
2.92858
1.22676
1.47071
2.11344
3.07105
0.606666
1.24658
1.54467
1.33527
1.96558
1.53586
2.13444
2.23756
2.40868
2.37356
2.18436
2.38771
3.16619
5.78363
2.4638
2.42248
2.28347
2.68708
2.06371
3.15989
3.67636
2.40439
2.52358
1.55715
2.50171
2.04735
3.7893
2.20538
2.04282
2.05731
1.84448
2.49149
2.21408
2.48491
2.13772
2.28427
