OFF
262 506 0
-6.30792 10.3204 -17.7543
-6.10792 10.0768 -17.1642
-6.03692 10.5553 -17.5229
-6.18092 10.6339 -17.9566
-5.75692 10.6882 -17.5478
-5.90192 10.7721 -18.0121
-5.93392 10.6224 -18.3646
-6.22092 10.4947 -18.2854
-6.34391 10.1793 -18.0491
-5.38991 10.6132 -17.5229
-5.07892 10.4363 -17.7302
-5.51592 10.6934 -17.9566
-5.08892 10.2917 -18.0491
-5.53692 10.556 -18.2854
-5.10092 9.99976 -18.2251
-4.87292 9.34126 -18.0857
-5.37192 9.76496 -18.4565
-5.50292 10.2315 -18.4653
-5.67592 9.78276 -18.5503
-5.85691 10.2785 -18.5587
-5.90292 9.71736 -18.4565
-6.20192 9.88336 -18.2364
-6.11192 10.177 -18.4653
1.52608 -2.69304 -5.9634
1.86508 -4.30214 -3.4704
1.64208 -2.83304 -6.1287
1.88208 -4.50974 -3.7001
1.65608 -3.01234 -6.327
1.45808 -2.08194 -7.9523
1.44408 -1.91964 -7.7728
1.33908 -1.79284 -7.6232
1.80308 -4.72564 -3.9297
1.65008 -4.91374 -4.1212
1.45608 -3.36124 -6.6906
1.58808 -3.19894 -6.5253
1.27608 -2.39784 -8.2815
1.39608 -2.25094 -8.1319
0.970085 -1.36434 -9.98
0.492085 -0.380138 -11.584
0.588085 -0.261338 -11.463
1.07708 -1.23284 -9.846
0.638085 -0.124838 -11.3179
1.13208 -1.08154 -9.6853
0.628085 0.00636195 -11.1728
0.543085 0.108762 -11.0519
1.02608 -0.822638 -9.3905
1.12008 -0.936238 -9.5245
1.44408 -5.03644 -4.236
1.27908 -3.46744 -6.7897
1.07608 -3.51564 -6.8228
0.932085 -2.53764 -8.4012
1.11608 -2.49394 -8.3713
0.969085 -5.07894 -4.2361
0.745085 -4.99464 -4.1212
0.675085 -3.43124 -6.6906
0.868085 -3.50414 -6.7897
0.569085 -2.46124 -8.2815
0.744085 -2.52724 -8.3713
0.336085 -1.42114 -9.98
-0.0799152 -0.431338 -11.5839
0.0620848 -0.484738 -11.6565
0.493085 -1.48024 -10.0604
0.214085 -0.493038 -11.6807
0.662085 -1.48954 -10.0872
0.362085 -0.457738 -11.6565
0.826085 -1.45044 -10.0604
-0.281915 -0.0751381 -11.1728
-0.216915 0.0407619 -11.0519
-0.864915 0.829162 -12.3937
-0.925915 0.720762 -12.5068
-1.64692 1.54846 -13.4468
-1.70592 1.44386 -13.5559
-1.69492 1.32556 -13.6869
-0.913915 0.598262 -12.6425
-0.269915 -0.206138 -11.3179
-2.45292 2.28006 -14.2418
-3.17192 3.10516 -14.8096
-3.23992 2.96476 -14.957
-2.51192 2.17666 -14.3497
-2.48692 2.01586 -14.5298
-3.11492 2.72666 -15.2309
-2.28892 1.83276 -14.7497
-1.52292 1.12226 -13.9271
-1.62792 1.21226 -13.8179
-0.735915 0.387662 -12.8913
-0.195915 -0.331638 -11.463
-0.844915 0.480862 -12.7782
0.370085 0.159362 -10.9794
-0.153915 0.892762 -12.3937
-0.315915 0.940062 -12.3259
-0.960915 1.60996 -13.4468
-1.11692 1.65556 -13.3813
-1.31092 1.65806 -13.3594
-0.516915 0.942662 -12.3033
0.155085 0.162162 -10.9552
-1.77592 2.34076 -14.2418
-2.49392 3.16586 -14.8096
-2.64792 3.21096 -14.7449
-1.92992 2.38586 -14.1771
-2.83992 3.21336 -14.7233
-2.12192 2.38826 -14.1555
-3.02792 3.17696 -14.7449
-2.30992 2.35186 -14.1771
-1.50192 1.62116 -13.3813
-0.0559152 0.121262 -10.9794
-0.713915 0.904462 -12.3259
-0.201915 0.435562 -12.8913
-0.110915 0.546562 -12.7782
-1.00692 1.16846 -13.9271
-0.919915 1.27566 -13.8179
-0.874915 1.39896 -13.6869
-0.0649152 0.674362 -12.6425
-1.85792 1.87156 -14.7498
-2.53992 2.72966 -15.2842
-2.42192 2.88776 -15.1219
-1.69792 2.08866 -14.5316
-2.41892 3.07436 -14.9175
-1.69992 2.24936 -14.3497
-0.884915 1.51736 -13.5559
-0.0749152 0.796962 -12.5068
-0.603915 0.337762 -12.9592
-1.39592 1.07406 -13.9926
-1.25792 1.06656 -14.0144
-0.461915 0.329862 -12.9818
-2.92292 2.63636 -15.3489
-2.70492 2.63916 -15.3674
-2.06892 1.80386 -14.8027
-1.12392 1.09836 -13.9926
-0.322915 0.362962 -12.9592
-3.69192 4.10506 -15.181
-3.74992 4.00166 -15.2889
-4.20392 5.69186 -15.4684
-4.12192 5.00556 -15.5438
-3.72492 3.83996 -15.4684
-4.57892 7.19126 -15.5311
-4.55092 6.79566 -15.6538
-4.52092 6.58036 -15.8052
-4.41492 6.49286 -16.0158
-4.17492 5.69946 -16.005
-4.06492 4.91176 -15.7874
-3.86392 4.69176 -15.9254
-3.56992 3.68396 -15.6556
-3.01392 4.16576 -15.181
-3.27192 4.22186 -15.094
-3.36492 5.22286 -15.3956
-3.52192 5.26886 -15.3296
-3.84492 5.25516 -15.3115
-3.53292 6.18706 -15.5203
-3.74692 7.03746 -15.4627
-3.85192 6.27286 -15.3989
-4.23492 7.05516 -15.4146
-4.15192 6.23106 -15.4233
-3.54792 4.17686 -15.1163
-3.09392 3.69266 -15.6876
-2.93392 3.91056 -15.4682
-3.56992 5.39626 -15.9733
-3.29092 4.93666 -15.714
-3.66092 6.56036 -16.0159
-3.48792 5.93216 -15.802
-3.57492 6.98636 -15.7031
-3.28792 5.12966 -15.5056
-2.93792 4.07436 -15.2889
-3.36592 3.62226 -15.7428
-3.57592 4.67486 -15.9623
-4.12392 6.37266 -16.1783
-3.93292 5.53406 -16.0866
-3.87992 6.40396 -16.1598
-5.24692 7.87996 -16.1687
-4.72592 7.20496 -15.9414
-5.29192 8.13646 -15.9368
-5.04992 8.17136 -15.5988
-5.33392 7.94436 -16.7168
-5.16992 7.84396 -17.0302
-4.50592 7.02466 -16.2203
-3.69992 7.90396 -15.4903
-3.96092 8.12806 -15.3916
-4.24692 7.97296 -15.3538
-3.74292 8.33496 -15.6321
-4.14592 8.64426 -15.6417
-4.42291 8.42146 -15.4573
-4.92892 8.57416 -15.6417
-4.62592 8.08906 -15.395
-3.68592 7.07856 -16.1024
-3.57092 7.92496 -16.0937
-3.70892 7.79906 -16.4654
-3.88492 7.58816 -16.6862
-3.76692 8.60516 -16.1736
-3.56592 7.94276 -15.7051
-4.26892 7.01186 -16.4022
-3.99292 6.96066 -16.3141
-4.84391 7.65586 -17.0901
-4.60792 7.73126 -17.2227
-4.26992 7.70726 -17.0901
-5.55592 8.96176 -16.1662
-5.68292 8.73646 -16.4013
-5.87691 9.54636 -16.648
-6.01092 9.33216 -16.8898
-5.99392 9.08906 -17.1782
-5.65792 8.48186 -16.6833
-6.23492 9.87336 -17.3698
-6.24492 9.68286 -17.6567
-5.87892 9.20666 -18.0583
-6.10192 9.42206 -17.8785
-5.61892 8.63386 -17.6757
-5.84892 8.83646 -17.4503
-4.07892 9.09406 -16.1662
-4.41492 9.19236 -16.0252
-4.41692 9.67716 -16.648
-4.75492 9.78516 -16.5157
-5.17291 9.80096 -16.4769
-4.83292 9.19776 -15.9782
-4.78692 10.1545 -17.1247
-5.10792 10.2847 -17.0288
-5.49792 10.3312 -17.0181
-5.83592 10.2195 -17.0288
-5.57292 9.71196 -16.5157
-5.24292 9.11826 -16.0252
-4.17792 8.14366 -17.2005
-3.98992 8.37446 -16.9654
-4.50792 8.73336 -17.6757
-4.32692 8.97266 -17.4503
-4.23891 9.24626 -17.1782
-3.89292 8.63996 -16.6833
-4.70392 9.54736 -17.8785
-4.64692 9.82596 -17.6567
-4.65392 10.015 -17.3698
-4.25692 9.48926 -16.8898
-5.34992 8.54056 -17.8243
-5.05892 8.53436 -17.8794
-5.64792 9.15236 -18.2194
-5.39392 9.17766 -18.2953
-5.10292 9.20126 -18.2194
-4.76491 8.59296 -17.8243
1.73008 -4.14044 -3.2793
1.45708 -4.06004 -3.1641
0.996085 -2.62004 -5.8312
1.11708 -4.05604 -3.1262
0.708085 -2.67604 -5.8642
0.487085 -2.78594 -5.9634
0.529085 -4.24804 -3.2793
0.783085 -4.12074 -3.1645
0.425085 -4.43104 -3.4704
0.416085 -3.12344 -6.327
0.446085 -4.63864 -3.7004
0.562085 -4.83684 -3.9298
1.21008 -5.09264 -4.2745
0.860085 -1.72684 -7.5035
0.599085 -1.77744 -7.5334
0.399085 -1.87704 -7.6232
1.12608 -1.73034 -7.5334
0.835085 -0.766638 -9.3101
0.597085 -0.763538 -9.2834
0.184085 -0.898038 -9.3905
0.363085 -0.808938 -9.3101
0.516085 -3.29494 -6.5253
0.335085 -2.18254 -7.9523
0.425085 -2.33784 -8.1319
0.398085 -2.94444 -6.1287
0.319085 -2.02054 -7.7728
0.112085 -1.02654 -9.5245
0.126085 -1.17164 -9.6853
0.208085 -1.31064 -9.846
3 0 1 2
3 0 2 3
3 2 4 5
3 2 5 3
3 5 6 7
3 5 7 3
3 7 8 0
3 7 0 3
3 9 10 11
3 10 12 13
3 10 13 11
3 13 6 5
3 13 5 11
3 5 4 9
3 5 9 11
3 14 15 16
3 14 16 17
3 16 18 19
3 16 19 17
3 19 6 13
3 19 13 17
3 13 12 14
3 13 14 17
3 20 21 22
3 21 8 7
3 21 7 22
3 7 6 19
3 7 19 22
3 19 18 20
3 19 20 22
3 23 24 25
3 24 26 27
3 24 27 25
3 27 28 29
3 27 29 25
3 29 30 23
3 29 23 25
3 31 32 33
3 31 33 34
3 33 35 36
3 33 36 34
3 36 28 27
3 36 27 34
3 27 26 31
3 27 31 34
3 37 38 39
3 37 39 40
3 39 41 42
3 39 42 40
3 42 28 36
3 42 36 40
3 36 35 37
3 36 37 40
3 43 44 45
3 43 45 46
3 45 30 29
3 45 29 46
3 29 28 42
3 29 42 46
3 42 41 43
3 42 43 46
3 33 32 47
3 33 47 48
3 47 49 48
3 49 50 51
3 49 51 48
3 51 35 33
3 51 33 48
3 52 53 54
3 52 54 55
3 54 56 57
3 54 57 55
3 57 50 49
3 57 49 55
3 49 52 55
3 58 59 60
3 58 60 61
3 60 62 63
3 60 63 61
3 63 50 57
3 63 57 61
3 57 56 58
3 57 58 61
3 64 38 37
3 64 37 65
3 37 35 51
3 37 51 65
3 51 50 63
3 51 63 65
3 63 62 64
3 63 64 65
3 66 67 68
3 66 68 69
3 68 70 71
3 68 71 69
3 71 72 73
3 71 73 69
3 73 74 66
3 73 66 69
3 75 76 77
3 75 77 78
3 77 79 78
3 79 72 71
3 79 71 78
3 71 70 75
3 71 75 78
3 80 81 79
3 81 82 83
3 81 83 79
3 83 72 79
3 79 77 80
3 84 59 85
3 84 85 86
3 85 74 73
3 85 73 86
3 73 72 83
3 73 83 86
3 83 82 84
3 83 84 86
3 87 44 88
3 87 88 89
3 88 90 91
3 88 91 89
3 91 92 93
3 91 93 89
3 93 94 87
3 93 87 89
3 95 96 97
3 95 97 98
3 97 99 100
3 97 100 98
3 100 92 91
3 100 91 98
3 91 90 95
3 91 95 98
3 101 76 75
3 101 75 102
3 75 70 103
3 75 103 102
3 103 92 100
3 103 100 102
3 100 99 101
3 100 101 102
3 68 67 104
3 68 104 105
3 104 94 93
3 104 93 105
3 93 92 103
3 93 103 105
3 103 70 68
3 103 68 105
3 39 38 106
3 39 106 107
3 106 108 109
3 106 109 107
3 109 110 111
3 109 111 107
3 111 41 39
3 111 39 107
3 112 113 114
3 112 114 115
3 115 110 109
3 109 108 112
3 109 112 115
3 116 96 95
3 116 95 117
3 95 90 118
3 95 118 117
3 118 110 115
3 118 115 117
3 115 114 116
3 115 116 117
3 88 44 43
3 88 43 119
3 43 41 111
3 43 111 119
3 111 110 118
3 111 118 119
3 118 90 88
3 118 88 119
3 60 59 84
3 60 84 120
3 84 82 121
3 84 121 120
3 121 122 123
3 121 123 120
3 123 62 60
3 123 60 120
3 81 80 124
3 124 125 126
3 124 126 81
3 126 122 121
3 126 121 81
3 121 82 81
3 125 113 112
3 112 108 127
3 127 122 126
3 127 126 112
3 126 125 112
3 106 38 64
3 106 64 128
3 64 62 123
3 64 123 128
3 123 122 127
3 123 127 128
3 127 108 106
3 127 106 128
3 77 76 129
3 77 129 130
3 129 131 132
3 129 132 130
3 132 133 130
3 133 77 130
3 131 134 135
3 136 132 135
3 132 131 135
3 137 138 139
3 138 140 139
3 139 132 136
3 136 137 139
3 141 80 133
3 80 77 133
3 133 132 139
3 139 140 141
3 139 141 133
3 97 96 142
3 97 142 143
3 142 144 145
3 142 145 143
3 145 146 143
3 143 99 97
3 147 148 149
3 148 150 149
3 149 146 145
3 145 144 147
3 145 147 149
3 150 134 131
3 150 131 151
3 131 146 151
3 146 149 151
3 149 150 151
3 129 76 101
3 129 101 152
3 101 99 143
3 101 143 152
3 143 146 152
3 146 131 129
3 146 129 152
3 114 113 153
3 114 153 154
3 153 155 156
3 153 156 154
3 155 157 158
3 157 159 158
3 156 155 158
3 159 148 147
3 147 144 160
3 160 156 158
3 160 158 147
3 158 159 147
3 142 96 116
3 142 116 161
3 116 114 154
3 116 154 161
3 154 156 160
3 154 160 161
3 160 144 142
3 160 142 161
3 124 80 141
3 124 141 162
3 141 140 162
3 140 163 162
3 162 125 124
3 138 137 164
3 138 164 165
3 165 163 140
3 140 138 165
3 166 157 155
3 155 163 166
3 163 165 166
3 165 164 166
3 153 113 125
3 125 162 153
3 162 163 153
3 163 155 153
3 134 167 168
3 168 136 135
3 168 135 134
3 167 134 169
3 134 170 169
3 171 172 173
3 171 173 168
3 167 171 168
3 173 137 168
3 137 136 168
3 148 174 175
3 176 150 148
3 176 148 175
3 177 178 175
3 178 179 175
3 179 176 175
3 175 174 177
3 180 170 181
3 181 176 179
3 179 180 181
3 134 150 181
3 150 176 181
3 181 170 134
3 182 183 159
3 159 157 182
3 183 182 184
3 182 185 184
3 186 177 187
3 177 174 187
3 183 186 187
3 174 148 159
3 174 159 187
3 159 183 187
3 164 137 173
3 188 189 173
3 189 164 173
3 173 172 190
3 173 190 188
3 190 191 188
3 192 185 189
3 185 182 189
3 188 191 192
3 188 192 189
3 182 157 166
3 182 166 189
3 166 164 189
3 169 170 193
3 169 193 194
3 193 195 196
3 193 196 194
3 196 197 198
3 196 198 194
3 198 167 169
3 198 169 194
3 1 0 199
3 0 8 200
3 0 200 199
3 200 197 196
3 200 196 199
3 196 195 1
3 196 1 199
3 21 201 202
3 201 203 204
3 201 204 202
3 204 197 200
3 204 200 202
3 200 8 21
3 200 21 202
3 171 167 198
3 198 197 204
3 198 204 171
3 204 203 172
3 204 172 171
3 178 177 205
3 178 205 206
3 205 207 208
3 205 208 206
3 208 209 210
3 208 210 206
3 210 179 178
3 210 178 206
3 211 10 9
3 211 9 212
3 9 4 213
3 9 213 212
3 213 209 208
3 213 208 212
3 208 207 211
3 208 211 212
3 2 1 214
3 1 195 215
3 1 215 214
3 215 209 213
3 215 213 214
3 213 4 2
3 213 2 214
3 193 170 180
3 193 180 216
3 180 179 210
3 180 210 216
3 210 209 215
3 210 215 216
3 215 195 193
3 215 193 216
3 184 185 217
3 184 217 218
3 217 219 220
3 217 220 218
3 220 221 222
3 220 222 218
3 222 183 184
3 222 184 218
3 15 14 223
3 14 12 224
3 14 224 223
3 224 221 220
3 224 220 223
3 220 219 15
3 220 15 223
3 10 211 225
3 211 207 226
3 211 226 225
3 226 221 224
3 226 224 225
3 224 12 10
3 224 10 225
3 205 177 186
3 186 183 222
3 222 221 226
3 222 226 186
3 226 207 205
3 226 205 186
3 172 203 227
3 172 227 190
3 227 228 191
3 227 191 190
3 201 21 20
3 201 20 229
3 20 18 230
3 20 230 229
3 230 228 227
3 230 227 229
3 227 203 201
3 227 201 229
3 16 15 231
3 15 219 232
3 15 232 231
3 232 228 230
3 232 230 231
3 230 18 16
3 230 16 231
3 217 185 192
3 191 228 232
3 191 232 192
3 232 219 217
3 232 217 192
3 233 23 234
3 234 235 236
3 237 238 239
3 237 239 240
3 236 235 237
3 236 237 240
3 239 238 241
3 241 242 243
3 243 242 244
3 52 49 245
3 245 49 47
3 24 23 233
3 235 246 247
3 235 247 237
3 247 248 238
3 247 238 237
3 234 23 249
3 23 30 249
3 249 246 235
3 235 234 249
3 45 44 87
3 45 87 250
3 87 94 251
3 87 251 250
3 251 246 249
3 251 249 250
3 249 30 45
3 249 45 250
3 104 67 252
3 104 252 253
3 252 248 247
3 252 247 253
3 247 246 251
3 247 251 253
3 251 94 104
3 251 104 253
3 54 53 244
3 54 244 254
3 244 242 254
3 242 255 256
3 242 256 254
3 256 56 54
3 256 54 254
3 241 238 257
3 238 248 258
3 238 258 257
3 258 255 242
3 258 242 257
3 242 241 257
3 252 67 66
3 252 66 259
3 66 74 260
3 66 260 259
3 260 255 258
3 260 258 259
3 258 248 252
3 258 252 259
3 85 59 58
3 85 58 261
3 58 56 256
3 58 256 261
3 256 255 260
3 256 260 261
3 260 74 85
3 260 85 261
