0.764505
0.503048
0.431774
0.650539
0.651363
0.917622
0.675551
1.21543
0.95713
0.964524
0.591516
0.610935
0.72095
0.54235
0.752083
1.15714
0.961049
0.533352
1.04896
0.671096
0.478879
1.1799
0.758076
0.891795
1.04143
1.11662
0.815505
0.502163
0.697316
0.841131
1.38126
0.434478
0.701721
0.671818
0.621512
0.553024
1.11527
0.55291
1.04499
0.903072
0.77897
0.875951
0.800439
0.802138
0.887107
0.874426
0.545093
0.997268
0.664213
0.883147
0.857371
0.709418
0.864938
0.643532
0.668414
0.614057
1.02651
0.909317
0.906843
0.765143
0.771527
0.788104
0.953189
0.838395
0.921129
0.804376
0.777384
0.929549
0.616178
0.911269
0.682351
0.632045
0.679856
0.907998
0.713539
0.476784
0.778166
0.791308
0.636902
0.709876
0.885923
0.88957
0.757294
0.941637
1.12542
0.956053
0.55533
1.19559
0.91482
0.948769
0.526787
0.686837
0.716966
0.389115
0.902485
0.789771
0.63302
0.641322
0.705254
0.747399
0.896472
0.781253
0.843036
0.964143
0.838286
0.935597
0.921927
0.859828
0.853604
0.736177
0.968426
0.916109
0.748189
1.01388
0.805661
0.875271
0.941041
0.835945
0.754609
0.83714
0.780595
0.851019
0.701998
0.681484
1.19858
0.498253
0.759287
1.04022
0.463548
0.443596
1.001
0.785975
1.01093
0.879506
0.852729
1.05336
0.803045
1.02995
0.868996
0.989277
0.827296
0.98753
0.788066
1.18136
0.889966
0.696276
0.662405
0.894724
0.532319
0.721857
0.78971
0.860551
0.764376
0.69243
0.97402
0.991178
0.745725
0.753114
0.727664
0.693105
0.874834
0.874103
0.804618
0.599814
0.688954
0.705757
0.522996
0.550419
0.532202
0.548508
0.626895
0.806143
1.09383
0.758978
0.609071
0.678252
0.640096
0.705537
0.763151
0.655246
0.960431
0.845612
0.706046
0.57061
0.806873
0.830992
0.816326
0.680404
0.828092
0.789928
1.09821
1.02845
0.717913
1.15496
0.687857
0.838793
0.772167
0.992792
0.780717
0.747079
0.656606
0.595153
0.522335
0.53083
0.732681
0.536024
0.647784
0.75217
0.69624
0.773992
0.679561
0.798346
0.732921
1.19321
0.916567
0.634571
0.771132
0.740308
0.624095
0.673261
0.666446
0.412242
0.538761
0.648499
0.317151
0.5856
0.552691
0.428851
0.398065
0.412607
0.697301
0.804251
1.01823
0.417343
0.564474
0.686638
0.818194
0.651062
1.45401
0.808624
1.29941
1.08882
0.973261
0.917165
0.537592
0.574705
1.03991
0.944956
0.885221
1.1313
0.797909
1.30716
0.578989
0.696063
0.997708
1.07318
0.607174
1.13476
1.19952
1.07398
1.13998
0.686381
0.635621
1.29816
1.12523
0.991651
0.381305
0.66025
0.845072
0.860075
0.815902
1.12787
1.33911
0.764189
1.60238
1.05488
1.65927
1.47085
1.49005
1.2224
1.56785
0.876524
1.03328
1.24478
1.50687
1.44895
1.59157
1.00217
1.71967
1.11316
0.849614
1.55291
1.49149
1.55762
1.25245
1.22312
1.15242
1.55714
1.26818
1.45264
1.59967
1.55558
1.43199
1.61926
0.872078
1.30999
1.45952
1.56884
1.32203
0.724353
1.48944
1.19976
1.03829
1.11759
1.03281
0.988275
1.25568
1.61777
1.02749
0.893973
1.22878
1.81109
1.18357
1.24339
1.29232
0.894919
0.827541
0.770986
2.1209
1.85035
0.782926
1.53917
1.20626
1.14911
1.13708
1.30867
1.66816
1.48038
1.42324
1.16656
1.46549
1.24441
1.18006
1.33004
1.40172
1.50379
1.43749
1.1781
1.24141
1.42967
1.4622
1.48266
1.37531
1.21534
1.35718
1.24762
1.24284
1.43111
1.59861
1.41585
1.72431
1.21938
1.35864
1.49621
1.8714
1.46324
1.57878
1.1604
1.1519
1.58671
1.19468
1.13654
0.761346
0.703416
1.16574
1.59882
1.3961
1.06403
1.22991
1.3642
0.964225
1.00536
1.34446
0.927728
1.21565
1.38388
1.03329
1.18786
1.26822
1.01989
1.55512
1.53074
0.737165
0.606094
0.541084
0.650175
0.762573
0.603929
0.961443
0.697989
0.632894
0.853046
1.3748
0.931109
0.932487
0.744174
1.19042
0.632298
0.971633
0.953736
0.869031
0.698345
0.625805
0.811487
0.795776
0.724828
0.824103
0.900338
0.764992
0.507636
0.613735
0.636898
0.797187
0.830754
0.783828
0.752515
0.822398
0.820896
0.805215
0.797629
0.498259
0.858737
0.86482
1.06991
0.33368
0.5004
0.76891
0.624315
0.922697
1.12803
0.554158
0.491035
0.754344
0.689922
0.765898
0.716056
0.978696
1.08291
0.638391
0.761329
0.678473
0.689167
0.807829
0.816395
0.728557
0.74401
0.867783
0.850168
0.794888
0.821908
0.742472
0.237663
0.333399
