OFF
401 787 0
16.8393 -0.884256 8.00892
16.3221 -1.65536 8.32072
16.1031 -1.91116 7.40212
16.6344 -1.11636 7.08132
15.7718 -2.09926 6.35442
16.2888 -1.32076 6.02092
16.502 -0.337256 5.73012
16.8562 -0.112656 6.80392
17.0551 0.0897442 7.73952
15.3491 -2.10706 5.41492
14.9574 -1.96016 4.80852
15.1509 -1.46476 4.35052
15.8041 -1.41226 5.05662
15.2802 -0.660556 3.99522
15.9836 -0.533256 4.73732
15.2532 0.226544 3.96022
15.1298 0.889944 4.15082
15.5516 1.23904 4.64282
15.9144 0.410744 4.63592
15.9951 1.59104 5.50282
16.4105 0.691644 5.55662
16.33 1.83964 6.53662
16.5423 1.98454 7.48082
16.9594 1.10114 7.55072
16.7582 0.929544 6.60922
7.57002 0.594144 5.16972
6.67232 0.628144 4.72222
6.57592 0.380044 4.90462
7.49872 0.380244 5.33292
6.46122 0.0792442 4.96962
7.40992 0.118444 5.39572
8.55052 0.167944 5.94832
8.61332 0.397444 5.88482
8.65852 0.581844 5.73592
6.34712 -0.224456 4.91632
6.25242 -0.481556 4.74362
7.23912 -0.375856 5.21242
7.31842 -0.148056 5.35622
8.41572 -0.273256 5.80612
8.48102 -0.0683558 5.92312
9.59292 -0.186556 6.42202
10.5809 -0.128256 6.95772
10.6279 0.0613442 7.03882
9.64692 0.00474419 6.51722
10.664 0.272544 7.03942
9.69712 0.221444 6.52902
10.6846 0.471444 6.96542
10.685 0.624644 6.82292
9.75712 0.591844 6.32032
9.73632 0.428744 6.46192
6.19732 -0.665056 3.74042
6.25592 -0.521456 3.44152
7.20742 -0.432956 4.08702
7.16912 -0.553456 4.34872
8.34082 -0.353756 4.83132
8.32442 -0.453156 5.06252
8.33382 -0.470056 5.33152
7.16272 -0.581856 4.65752
6.17732 -0.704556 4.09642
9.47002 -0.294756 5.55482
10.4095 -0.266556 6.13812
10.4341 -0.338756 6.34292
9.47542 -0.377256 5.76592
10.4761 -0.335156 6.57252
9.50142 -0.383056 6.00702
10.5277 -0.262756 6.78982
9.54252 -0.317656 6.23892
8.36552 -0.408656 5.59412
6.19572 -0.642456 4.45062
7.18662 -0.521556 4.96252
6.58552 0.343044 3.24732
6.68122 0.602544 3.41992
7.54262 0.549544 4.04382
7.46262 0.319644 3.90012
8.58662 0.512344 4.76012
8.52082 0.305644 4.64332
8.45032 0.0656442 4.61842
7.36972 0.0490442 3.86082
6.46972 0.0345442 3.19402
9.63642 0.493644 5.45182
10.5149 0.496044 6.00162
10.4677 0.304744 5.92072
9.58202 0.300644 5.35682
10.4312 0.0904442 5.92072
9.53112 0.0806442 5.34552
10.4101 -0.111756 5.99522
9.49122 -0.129956 5.41312
8.38652 -0.167456 4.68212
6.35322 -0.270856 3.25912
7.27952 -0.216956 3.92372
6.73182 0.774244 4.42332
7.60912 0.716744 4.90802
8.67542 0.683144 5.50452
8.66702 0.703644 5.23522
7.61692 0.749344 4.59902
6.75362 0.818444 4.06722
10.6606 0.698444 6.61782
9.75212 0.676044 6.10902
10.619 0.698144 6.38752
9.72682 0.685144 5.86752
10.5679 0.628844 6.16972
9.68642 0.623044 5.63522
8.63642 0.645844 4.97222
6.73702 0.761044 3.71302
7.59442 0.693144 4.29382
11.8083 -0.430056 8.32672
11.9064 -0.733856 8.61042
12.019 -0.0889558 8.83082
12.0799 0.622644 8.78372
11.9465 0.791044 8.29162
11.7557 -0.144856 8.01692
12.1526 -1.00146 9.00852
12.6471 -1.33526 9.45192
12.4678 -0.264656 9.61632
12.2248 -0.199456 9.25462
12.4639 0.766844 9.48502
12.2605 0.703444 9.16622
12.5894 1.74474 9.15262
12.8857 2.60974 8.54152
12.3445 2.17004 8.27662
12.3308 1.55224 8.85042
12.0585 1.77884 8.03062
12.1022 1.28564 8.51362
11.8961 1.42614 7.80182
11.7191 0.990844 7.38932
11.3104 -1.12306 6.72262
11.1419 -0.581456 5.81472
11.1934 -0.958556 6.19422
11.181 -1.28936 5.95322
11.3298 -1.49866 6.62532
11.5244 -1.45746 7.37082
11.4648 -1.08866 7.30312
11.6299 -0.876956 7.84282
11.3313 -1.63016 5.67842
11.7411 -1.94446 5.37922
11.9459 -2.23266 6.30442
11.5108 -1.88286 6.48962
12.205 -2.19756 7.36482
11.7408 -1.84056 7.40872
12.4606 -1.90286 8.44142
11.973 -1.54766 8.32082
11.7291 -1.19626 8.07812
11.2054 0.498144 5.56372
11.4609 1.36534 6.14832
11.3121 1.00254 5.74162
11.3319 1.20514 5.37762
11.1963 0.563544 5.15132
11.1212 -0.142956 5.18962
11.1464 -0.0572558 5.59382
11.5134 1.38044 4.98372
11.9489 1.48914 4.58682
11.7621 0.605944 4.27542
11.3497 0.606144 4.71062
11.6588 -0.366456 4.32812
11.2591 -0.246556 4.75682
11.6487 -1.26956 4.70822
11.2502 -1.03836 5.09012
11.1138 -0.798956 5.46582
11.7794 1.59484 7.27242
11.9213 1.98104 7.34492
11.7294 1.93084 6.58892
11.6255 1.56864 6.68992
12.7389 2.69844 7.37962
12.2106 2.37984 7.41452
12.4906 2.52344 6.27542
11.9896 2.27204 6.45972
12.2095 2.12434 5.29902
11.7419 1.93734 5.60812
11.5213 1.66654 5.89492
13.4165 0.0965442 8.44202
13.5031 -0.657456 8.62572
13.9981 -0.820256 8.47892
14.2921 -0.240456 8.23642
14.8583 -0.957356 8.25692
14.6065 0.603344 7.96002
14.0613 0.649744 8.11192
15.3807 -0.360056 7.96542
15.6146 0.447244 7.73342
15.153 0.518544 7.82942
15.7199 1.29684 7.57782
15.0069 1.49864 7.69022
14.1427 1.57174 7.92692
13.6365 1.54734 8.11692
13.6602 0.943144 8.18602
12.5076 -2.19566 5.06492
12.7275 -2.50506 6.05852
13.435 -2.30766 4.82352
13.6709 -2.62036 5.81422
13.9809 -2.62306 6.93122
13.0085 -2.48806 7.18662
14.3278 -2.20436 4.74252
14.5914 -2.49876 5.63362
14.9523 -2.51346 6.65582
15.5134 -2.05806 8.63672
15.2727 -2.32656 7.72712
14.5473 -2.12736 8.94122
14.2872 -2.41616 8.03642
13.558 -1.89796 9.21822
13.2909 -2.23366 8.31062
12.7307 1.49174 4.21402
12.5301 0.543344 3.87962
13.6582 1.38164 3.97212
13.473 0.430244 3.63222
13.3776 -0.616456 3.68382
12.4192 -0.501056 3.93622
14.5309 1.15194 3.96802
14.41 0.278844 3.64232
14.3715 -0.678956 3.67382
14.2993 -1.55226 4.06492
13.3511 -1.58436 4.09712
12.4083 -1.47086 4.34442
13.8488 2.90804 8.10922
13.5981 2.84424 7.13882
14.8502 2.87954 7.78582
14.6013 2.77464 6.83862
14.2918 2.51504 5.74552
13.3173 2.61594 6.00882
15.7936 2.57454 7.56772
15.5615 2.44724 6.62552
15.2366 2.18614 5.57132
14.8497 1.77104 4.64832
13.9543 2.06364 4.73332
13.0106 2.17384 4.97882
13.0578 -1.08076 9.84092
12.7133 -0.207856 9.83342
13.2903 -0.912056 9.97402
12.9276 -0.110556 9.92632
12.8528 0.809244 9.76302
12.6684 0.800344 9.67832
13.4309 -0.799356 9.97382
13.537 -0.702356 9.86652
13.2021 -0.0181558 9.82472
13.0775 -0.0540558 9.91512
13.1368 0.769844 9.66592
12.9963 0.799144 9.75602
13.296 1.53484 9.46642
13.7081 2.12524 9.21392
13.6166 2.27084 9.26532
13.1788 1.62064 9.52872
13.49 2.38754 9.21262
13.0367 1.69274 9.51022
13.2749 2.50614 9.01312
12.8325 1.76284 9.37872
16.4077 -1.44426 8.87252
15.6351 -1.82806 9.17432
16.3983 -1.27586 9.14442
15.6693 -1.63746 9.42902
14.8143 -1.68636 9.68512
14.7186 -1.88446 9.45692
16.332 -1.14816 9.22302
16.209 -1.02366 9.17502
15.5852 -1.34746 9.43072
15.6473 -1.48756 9.49032
14.8419 -1.37716 9.63942
14.8477 -1.53196 9.72722
14.1177 -1.17106 9.81052
14.0649 -1.29736 9.89982
13.9703 -1.44096 9.88022
13.7929 -1.63746 9.69722
16.6176 2.02574 8.07182
17.0163 1.18344 8.13832
16.5961 1.99444 8.38972
16.9724 1.20054 8.45232
17.0588 0.291744 8.62172
17.1079 0.219144 8.31822
16.5177 1.92204 8.51452
16.38 1.80404 8.52252
16.7201 1.12324 8.58032
16.8711 1.17674 8.57322
16.7803 0.331844 8.72302
16.9523 0.323544 8.73232
16.6261 -0.429756 8.93872
16.7698 -0.497956 8.95962
16.8645 -0.583256 8.86392
16.9018 -0.709256 8.57502
14.0648 2.85684 8.66012
14.2233 2.74074 8.91522
15.0844 2.77804 8.65492
15.0061 2.86684 8.36052
14.337 2.45254 8.97432
14.3013 2.61024 8.99812
15.0752 2.47884 8.74962
15.101 2.65464 8.76112
15.8044 2.27614 8.59452
15.8837 2.42004 8.58862
15.9211 2.52474 8.46852
15.9023 2.58834 8.15512
13.5654 -0.668056 9.69712
13.2566 -0.0149558 9.65672
13.1852 0.730344 9.50732
13.3456 1.45174 9.31662
13.7279 2.01994 9.08142
16.1031 -0.973156 9.04052
15.5083 -1.27106 9.28442
14.8047 -1.30896 9.48152
14.1217 -1.10396 9.64162
16.2721 1.71754 8.42852
16.5806 1.06344 8.48092
16.6457 0.314144 8.61122
15.8473 1.40234 7.63222
16.4908 -0.403756 8.81822
14.3289 2.31954 8.85312
15.0265 2.35364 8.63692
15.7154 2.15284 8.49432
5.83972 0.844944 4.48492
5.89922 0.756544 4.43202
5.98922 0.949444 4.04852
5.94242 1.06254 4.05332
6.02912 1.01264 3.58862
5.98832 1.13424 3.53542
6.14612 0.683344 4.49372
6.22212 0.852544 4.15432
6.25422 0.906744 3.74812
6.17922 0.668644 3.00562
6.24062 0.845544 3.34272
5.94762 0.746944 2.74602
6.01612 0.945344 3.12882
5.97452 1.05914 3.01742
5.89782 0.836344 2.58582
5.82102 0.416844 2.51652
5.66182 0.228444 2.23872
5.66342 0.0216442 2.44052
6.06812 0.375744 2.80472
5.93102 0.0259442 2.73942
5.67192 -0.608556 3.01432
5.79112 -0.321856 2.80942
5.36282 -0.696856 2.74812
5.50162 -0.371856 2.51772
5.39332 -0.422756 2.32692
5.18822 -0.897056 2.70702
5.27402 -0.886656 3.13162
5.23662 -0.943756 3.59152
5.08502 -1.06536 3.77892
5.59692 -0.775056 3.35362
5.56702 -0.823856 3.75982
5.64532 -0.577756 4.50222
5.58282 -0.757356 4.16522
5.32182 -0.668956 4.43412
5.25212 -0.870356 4.05122
5.18622 -0.759756 4.48492
5.39252 -0.353756 4.66562
5.60242 0.0472442 4.73962
5.50322 0.0460442 4.83022
5.75522 -0.287556 4.70322
5.89022 0.0569442 4.76852
6.02802 0.399344 4.69852
5.76172 0.434544 4.66232
11.2616 0.680944 7.14312
11.2222 0.753244 6.92692
11.5789 0.774844 7.34112
11.5002 0.870644 6.98692
11.1666 0.746444 6.68712
11.526 0.973044 6.66902
11.3592 0.581444 6.20632
11.3397 0.682244 6.44472
11.0455 0.522044 6.29242
11.1044 0.667144 6.46272
10.9733 0.188544 6.19762
11.2408 0.241144 6.26612
11.2907 0.0534442 6.18582
11.2273 -0.274456 6.47022
11.2991 -0.418056 6.43822
10.9733 -0.280056 6.46172
10.9601 -0.120456 6.30742
11.0128 -0.350656 6.67762
11.3005 -0.423956 6.82642
11.4162 -0.365056 7.26482
11.0687 -0.340456 6.91662
11.4318 -0.584756 7.02852
11.6331 -0.306256 7.67742
11.5441 -0.0294558 7.61162
11.1903 -0.111056 7.31032
11.1312 -0.257856 7.14032
11.236 0.0916442 7.38812
11.6041 0.509444 7.57792
11.2653 0.314744 7.38122
11.7636 0.403744 7.85402
11.2749 0.522944 7.29702
15.7024 -0.992956 8.18502
15.5949 -0.915756 8.09102
15.1492 -1.25566 8.34412
14.5188 -1.17856 8.44052
14.5444 -1.29236 8.57832
13.9238 -1.10796 8.66092
13.439 -0.720856 8.77072
13.1595 -0.146056 8.67312
13.195 0.488244 8.46112
13.1 0.526244 8.60082
13.3006 1.09104 8.31552
13.2424 1.16714 8.42342
13.584 1.67444 8.21792
14.1067 1.91684 7.96312
14.6999 1.81514 7.74972
14.742 1.97394 7.82462
15.3322 1.76954 7.64602
15.9991 0.766644 7.61712
16.123 0.820844 7.67802
16.0238 0.148244 7.72912
16.1864 0.155244 7.80212
15.9256 -0.449656 7.89782
16.044 -0.485656 7.97952
3 0 1 2
3 0 2 3
3 2 4 5
3 2 5 3
3 5 6 7
3 5 7 3
3 7 8 0
3 7 0 3
3 9 10 11
3 9 11 12
3 11 13 14
3 11 14 12
3 14 6 5
3 14 5 12
3 5 4 9
3 5 9 12
3 15 16 17
3 15 17 18
3 17 19 20
3 17 20 18
3 20 6 14
3 20 14 18
3 14 13 15
3 14 15 18
3 21 22 23
3 21 23 24
3 23 8 7
3 23 7 24
3 7 6 20
3 7 20 24
3 20 19 21
3 20 21 24
3 25 26 27
3 25 27 28
3 27 29 30
3 27 30 28
3 30 31 32
3 30 32 28
3 32 33 25
3 32 25 28
3 34 35 36
3 34 36 37
3 36 38 39
3 36 39 37
3 39 31 30
3 39 30 37
3 30 29 34
3 30 34 37
3 40 41 42
3 40 42 43
3 42 44 45
3 42 45 43
3 45 31 39
3 45 39 43
3 39 38 40
3 39 40 43
3 46 47 48
3 46 48 49
3 48 33 32
3 48 32 49
3 32 31 45
3 32 45 49
3 45 44 46
3 45 46 49
3 50 51 52
3 50 52 53
3 52 54 55
3 52 55 53
3 55 56 57
3 55 57 53
3 57 58 50
3 57 50 53
3 59 60 61
3 59 61 62
3 61 63 64
3 61 64 62
3 64 56 55
3 64 55 62
3 55 54 59
3 55 59 62
3 65 41 40
3 65 40 66
3 40 38 67
3 40 67 66
3 67 56 64
3 67 64 66
3 64 63 65
3 64 65 66
3 36 35 68
3 36 68 69
3 68 58 57
3 68 57 69
3 57 56 67
3 57 67 69
3 67 38 36
3 67 36 69
3 70 71 72
3 70 72 73
3 72 74 75
3 72 75 73
3 75 76 77
3 75 77 73
3 77 78 70
3 77 70 73
3 79 80 81
3 79 81 82
3 81 83 84
3 81 84 82
3 84 76 75
3 84 75 82
3 75 74 79
3 75 79 82
3 85 60 59
3 85 59 86
3 59 54 87
3 59 87 86
3 87 76 84
3 87 84 86
3 84 83 85
3 84 85 86
3 52 51 88
3 52 88 89
3 88 78 77
3 88 77 89
3 77 76 87
3 77 87 89
3 87 54 52
3 87 52 89
3 90 26 25
3 90 25 91
3 25 33 92
3 25 92 91
3 92 93 94
3 92 94 91
3 94 95 90
3 94 90 91
3 48 47 96
3 48 96 97
3 96 98 99
3 96 99 97
3 99 93 92
3 99 92 97
3 92 33 48
3 92 48 97
3 100 80 79
3 100 79 101
3 79 74 102
3 79 102 101
3 102 93 99
3 102 99 101
3 99 98 100
3 99 100 101
3 72 71 103
3 72 103 104
3 103 95 94
3 103 94 104
3 94 93 102
3 94 102 104
3 102 74 72
3 102 72 104
3 105 106 107
3 107 108 109
3 107 109 105
3 109 110 105
3 111 112 113
3 111 113 114
3 113 115 116
3 113 116 114
3 116 108 107
3 116 107 114
3 107 106 111
3 107 111 114
3 117 118 119
3 117 119 120
3 119 121 122
3 119 122 120
3 122 108 116
3 122 116 120
3 116 115 117
3 116 117 120
3 123 124 109
3 109 108 122
3 122 121 123
3 122 123 109
3 125 126 127
3 127 128 129
3 127 129 125
3 129 130 131
3 129 131 125
3 131 132 125
3 133 134 135
3 133 135 136
3 135 137 138
3 135 138 136
3 138 130 129
3 138 129 136
3 129 128 133
3 129 133 136
3 139 112 111
3 139 111 140
3 111 106 141
3 111 141 140
3 141 130 138
3 141 138 140
3 138 137 139
3 138 139 140
3 105 110 132
3 131 130 141
3 131 141 132
3 141 106 105
3 141 105 132
3 142 143 144
3 144 145 146
3 144 146 142
3 146 147 148
3 146 148 142
3 149 150 151
3 149 151 152
3 151 153 154
3 151 154 152
3 154 147 146
3 154 146 152
3 146 145 149
3 146 149 152
3 155 134 133
3 155 133 156
3 133 128 157
3 133 157 156
3 157 147 154
3 157 154 156
3 154 153 155
3 154 155 156
3 126 142 148
3 148 147 157
3 148 157 126
3 157 128 127
3 157 127 126
3 158 124 123
3 123 121 159
3 123 159 158
3 159 160 161
3 159 161 158
3 119 118 162
3 119 162 163
3 162 164 165
3 162 165 163
3 165 160 159
3 165 159 163
3 159 121 119
3 159 119 163
3 166 150 149
3 166 149 167
3 149 145 168
3 149 168 167
3 168 160 165
3 168 165 167
3 165 164 166
3 165 166 167
3 143 158 161
3 161 160 168
3 161 168 143
3 168 145 144
3 168 144 143
3 169 170 171
3 169 171 172
3 171 173 172
3 172 174 175
3 175 169 172
3 176 177 178
3 178 174 172
3 178 172 176
3 172 173 176
3 177 179 180
3 177 180 178
3 180 174 178
3 181 182 183
3 181 183 175
3 183 169 175
3 174 180 181
3 174 181 175
3 135 134 184
3 135 184 185
3 184 186 187
3 184 187 185
3 187 188 189
3 187 189 185
3 189 137 135
3 189 135 185
3 190 10 9
3 190 9 191
3 9 4 192
3 9 192 191
3 192 188 187
3 192 187 191
3 187 186 190
3 187 190 191
3 2 1 193
3 2 193 194
3 193 195 196
3 193 196 194
3 196 188 192
3 196 192 194
3 192 4 2
3 192 2 194
3 197 112 139
3 197 139 198
3 139 137 189
3 139 189 198
3 189 188 196
3 189 196 198
3 196 195 197
3 196 197 198
3 151 150 199
3 151 199 200
3 199 201 202
3 199 202 200
3 202 203 204
3 202 204 200
3 204 153 151
3 204 151 200
3 205 16 15
3 205 15 206
3 15 13 207
3 15 207 206
3 207 203 202
3 207 202 206
3 202 201 205
3 202 205 206
3 11 10 190
3 11 190 208
3 190 186 209
3 190 209 208
3 209 203 207
3 209 207 208
3 207 13 11
3 207 11 208
3 184 134 155
3 184 155 210
3 155 153 204
3 155 204 210
3 204 203 209
3 204 209 210
3 209 186 184
3 209 184 210
3 162 118 211
3 162 211 212
3 211 213 214
3 211 214 212
3 214 215 216
3 214 216 212
3 216 164 162
3 216 162 212
3 217 22 21
3 217 21 218
3 21 19 219
3 21 219 218
3 219 215 214
3 219 214 218
3 214 213 217
3 214 217 218
3 17 16 205
3 17 205 220
3 205 201 221
3 205 221 220
3 221 215 219
3 221 219 220
3 219 19 17
3 219 17 220
3 199 150 166
3 199 166 222
3 166 164 216
3 166 216 222
3 216 215 221
3 216 221 222
3 221 201 199
3 221 199 222
3 113 112 223
3 113 223 224
3 223 225 226
3 223 226 224
3 226 227 228
3 226 228 224
3 228 115 113
3 228 113 224
3 229 230 231
3 229 231 232
3 231 233 234
3 231 234 232
3 234 227 226
3 234 226 232
3 226 225 229
3 226 229 232
3 235 236 237
3 235 237 238
3 237 239 240
3 237 240 238
3 240 227 234
3 240 234 238
3 234 233 235
3 234 235 238
3 241 118 117
3 241 117 242
3 117 115 228
3 117 228 242
3 228 227 240
3 228 240 242
3 240 239 241
3 240 241 242
3 193 1 243
3 193 243 244
3 243 245 246
3 243 246 244
3 246 247 248
3 246 248 244
3 248 195 193
3 248 193 244
3 249 250 251
3 249 251 252
3 251 253 254
3 251 254 252
3 254 247 246
3 254 246 252
3 246 245 249
3 246 249 252
3 255 230 229
3 255 229 256
3 229 225 257
3 229 257 256
3 257 247 254
3 257 254 256
3 254 253 255
3 254 255 256
3 223 112 197
3 223 197 258
3 197 195 248
3 197 248 258
3 248 247 257
3 248 257 258
3 257 225 223
3 257 223 258
3 23 22 259
3 23 259 260
3 259 261 262
3 259 262 260
3 262 263 264
3 262 264 260
3 264 8 23
3 264 23 260
3 265 266 267
3 265 267 268
3 267 269 270
3 267 270 268
3 270 263 262
3 270 262 268
3 262 261 265
3 262 265 268
3 271 250 249
3 271 249 272
3 249 245 273
3 249 273 272
3 273 263 270
3 273 270 272
3 270 269 271
3 270 271 272
3 243 1 0
3 243 0 274
3 0 8 264
3 0 264 274
3 264 263 273
3 264 273 274
3 273 245 243
3 273 243 274
3 211 118 241
3 211 241 275
3 241 239 276
3 241 276 275
3 276 277 278
3 276 278 275
3 278 213 211
3 278 211 275
3 237 236 279
3 237 279 280
3 279 281 282
3 279 282 280
3 282 277 276
3 282 276 280
3 276 239 237
3 276 237 280
3 283 266 265
3 283 265 284
3 265 261 285
3 265 285 284
3 285 277 282
3 285 282 284
3 282 281 283
3 282 283 284
3 259 22 217
3 259 217 286
3 217 213 278
3 217 278 286
3 278 277 285
3 278 285 286
3 285 261 259
3 285 259 286
3 230 287 288
3 230 288 231
3 288 289 233
3 288 233 231
3 233 289 290
3 233 290 235
3 290 291 236
3 290 236 235
3 250 292 293
3 250 293 251
3 293 294 253
3 293 253 251
3 253 294 295
3 253 295 255
3 295 287 230
3 295 230 255
3 266 296 297
3 266 297 267
3 297 298 269
3 297 269 267
3 296 299 297
3 269 298 300
3 269 300 271
3 300 292 250
3 300 250 271
3 236 291 301
3 236 301 279
3 301 302 281
3 301 281 279
3 303 299 296
3 281 302 303
3 281 303 283
3 303 296 266
3 303 266 283
3 304 305 306
3 304 306 307
3 306 308 309
3 306 309 307
3 310 26 90
3 310 90 311
3 90 95 312
3 90 312 311
3 312 308 306
3 312 306 311
3 306 305 310
3 306 310 311
3 103 71 313
3 103 313 314
3 313 315 316
3 313 316 314
3 316 308 312
3 316 312 314
3 312 95 103
3 312 103 314
3 309 308 316
3 309 316 317
3 316 315 318
3 316 318 317
3 318 315 319
3 318 319 320
3 319 321 320
3 313 71 70
3 313 70 322
3 70 78 323
3 70 323 322
3 323 321 319
3 323 319 322
3 319 315 313
3 319 313 322
3 88 51 324
3 88 324 325
3 324 326 327
3 324 327 325
3 327 321 323
3 327 323 325
3 323 78 88
3 323 88 325
3 320 321 327
3 320 327 328
3 327 326 329
3 327 329 328
3 329 326 330
3 330 331 332
3 330 332 329
3 324 51 50
3 324 50 333
3 50 58 334
3 50 334 333
3 334 331 330
3 334 330 333
3 330 326 324
3 330 324 333
3 68 35 335
3 68 335 336
3 335 337 338
3 335 338 336
3 338 331 334
3 338 334 336
3 334 58 68
3 334 68 336
3 332 331 338
3 338 337 339
3 338 339 332
3 339 337 340
3 340 341 342
3 335 35 34
3 335 34 343
3 34 29 344
3 34 344 343
3 344 341 340
3 344 340 343
3 340 337 335
3 340 335 343
3 27 26 310
3 27 310 345
3 310 305 346
3 310 346 345
3 346 341 344
3 346 344 345
3 344 29 27
3 344 27 345
3 342 341 346
3 346 305 304
3 96 47 347
3 96 347 348
3 347 349 350
3 347 350 348
3 350 351 348
3 351 98 96
3 351 96 348
3 158 352 124
3 352 350 124
3 350 349 124
3 143 353 352
3 353 354 352
3 354 350 352
3 352 158 143
3 355 80 100
3 355 100 356
3 100 98 351
3 100 351 356
3 351 350 354
3 351 354 356
3 354 355 356
3 81 80 355
3 81 355 357
3 355 354 358
3 355 358 357
3 357 83 81
3 353 143 142
3 142 359 353
3 359 358 353
3 358 354 353
3 360 358 359
3 360 359 361
3 359 142 126
3 359 126 361
3 362 60 85
3 362 85 363
3 85 83 357
3 85 357 363
3 357 358 360
3 357 360 363
3 360 362 363
3 61 60 362
3 61 362 364
3 362 360 365
3 362 365 364
3 365 366 367
3 365 367 364
3 367 63 61
3 367 61 364
3 361 126 125
3 361 125 368
3 125 132 368
3 368 366 365
3 365 360 361
3 365 361 368
3 132 110 369
3 369 370 366
3 366 368 369
3 368 132 369
3 371 41 65
3 371 65 372
3 65 63 367
3 65 367 372
3 367 366 372
3 366 370 371
3 366 371 372
3 42 41 371
3 42 371 373
3 371 370 373
3 370 374 375
3 370 375 373
3 375 44 42
3 375 42 373
3 369 110 376
3 110 109 376
3 376 374 370
3 370 369 376
3 109 124 376
3 124 349 374
3 124 374 376
3 347 47 46
3 347 46 377
3 46 44 375
3 46 375 377
3 375 374 377
3 374 349 347
3 374 347 377
3 378 379 380
3 380 381 382
3 379 176 173
3 381 380 173
3 380 379 173
3 170 383 171
3 383 381 171
3 381 173 171
3 382 381 383
3 383 170 384
3 384 170 385
3 385 386 387
3 386 385 169
3 385 170 169
3 183 182 388
3 386 169 183
3 386 183 388
3 387 386 388
3 387 388 389
3 388 182 390
3 388 390 389
3 390 182 391
3 391 392 393
3 181 180 392
3 392 391 181
3 391 182 181
3 179 394 180
3 394 392 180
3 393 392 394
3 394 179 299
3 299 179 395
3 299 395 396
3 395 397 398
3 395 398 396
3 179 177 395
3 177 397 395
3 176 379 399
3 397 177 176
3 397 176 399
3 398 397 399
3 398 399 400
3 399 379 378
3 399 378 400
3 293 292 380
3 294 293 380
3 382 294 380
3 380 292 378
3 384 287 383
3 383 294 382
3 294 383 295
3 383 287 295
3 288 287 385
3 385 387 289
3 289 288 385
3 385 287 384
3 390 291 290
3 289 387 389
3 289 389 290
3 389 390 290
3 301 291 390
3 301 390 391
3 391 393 302
3 302 301 391
3 299 303 394
3 303 302 394
3 302 393 394
3 297 299 396
3 298 297 396
3 398 298 396
3 378 292 400
3 400 298 398
3 298 400 300
3 400 292 300
