9.50384
9.89514
13.864
12.0116
13.8035
9.61168
11.2441
9.24342
12.6888
14.0664
11.7101
11.5175
14.2441
15.1919
14.581
14.3804
14.5136
12.0332
10.6952
12.0011
14.0699
14.1804
12.0581
13.4234
12.1262
8.97082
8.33883
11.9501
13.3371
8.2557
13.8013
11.0613
15.9073
13.8887
12.4221
13.4272
10.8367
9.58018
14.3173
11.3577
11.8838
11.856
10.4891
11.9577
11.2982
11.7883
10.9097
13.9258
11.2519
14.2768
11.9049
13.3817
13.1485
12.3962
10.555
13.8952
14.0748
13.5802
15.2606
15.2079
13.7372
12.8749
12.1976
10.188
15.4335
14.7424
13.8117
13.4046
13.8916
14.2022
13.213
14.5317
5.56559
8.50195
11.1469
9.9905
15.4538
13.7888
10.8875
13.3548
13.8707
15.1728
10.5211
10.1544
10.6449
8.18866
7.55015
14.2275
12.9678
10.8245
15.1283
13.6811
11.759
12.0491
10.9231
12.7495
14.19
13.2263
9.75127
13.9796
14.377
13.6994
14.09
11.6585
12.0866
11.8454
13.9402
14.055
13.955
15.3971
16.0399
16.0497
14.3756
16.2116
16.3426
14.6387
16.3351
15.9167
14.0396
13.2728
15.6769
10.961
11.3575
11.7511
10.8659
10.6584
10.5138
11.3051
10.5074
14.0461
12.3462
11.115
7.38685
8.13154
9.28899
7.19974
9.45316
7.90331
9.10997
7.59435
11.9859
9.28531
8.73188
8.42752
7.76538
9.01588
10.8168
8.15514
12.9239
10.8201
10.5606
11.5074
11.2071
9.87333
9.50718
11.5875
10.5793
11.2373
11.2099
8.34334
8.45632
8.15245
9.20287
10.741
12.7981
12.5015
13.3905
12.4508
12.611
12.845
13.1547
14.0249
13.487
7.07511
12.3074
11.9633
12.09
6.0348
7.65784
14.2793
11.3094
12.3175
11.5243
12.7471
7.18544
13.1586
13.469
12.7957
11.8033
8.5307
11.018
13.5977
11.2479
11.0206
13.8707
13.9217
13.9041
9.26078
10.2742
9.97865
10.7458
10.0805
11.2181
12.4415
11.858
4.5393
5.96911
11.0487
17.102
9.4682
8.82331
10.5148
10.3639
10.9072
8.38543
5.39243
11.2512
9.00042
11.9697
10.6885
11.5202
7.26867
6.94927
10.9429
13.0752
13.4249
3.7833
8.69474
7.53951
6.97798
7.2309
8.87772
11.3511
14.4078
8.12415
8.43157
8.90608
10.3736
13.0645
8.5999
9.35305
8.76001
8.8046
8.65561
7.51428
6.58943
5.91819
12.7956
8.4686
12.2958
11.171
6.27051
8.68577
10.4119
10.0131
12.1907
7.28334
9.59179
8.9571
9.43407
9.39134
15.013
15.2424
7.83688
9.86474
10.8642
7.42441
18.0611
10.8369
10.1206
9.53946
8.66568
11.6346
11.7373
8.64075
10.5377
12.1422
12.9678
8.88802
13.537
12.4574
13.0239
9.20166
14.185
12.0026
11.7612
13.4063
14.1419
13.4464
14.3949
11.5015
11.1558
15.4411
15.4039
14.344
15.1723
10.9949
9.09619
15.3418
12.6508
14.0186
12.8206
12.7366
11.8875
12.3811
14.5295
14.9302
11.5823
9.23807
12.9825
13.9716
11.5992
12.1015
13.81
12.6495
8.24947
14.1037
12.9875
13.4309
11.4016
12.4909
12.2014
13.8918
10.7751
14.2127
13.019
6.85582
16.7431
14.155
16.7709
3.00623
9.78458
1.43124
1.36851
2.06526
2.57456
2.30549
10.1206
2.54738
9.44822
8.70062
2.41923
1.87823
8.56579
1.58521
1.2424
9.4289
1.63251
6.01212
1.60532
1.28268
9.27351
14.3385
12.0103
2.63757
7.44812
9.4756
13.7224
6.64085
1.72251
1.70472
1.04363
2.08991
1.98136
2.42739
4.9663
2.69616
4.23514
4.92122
4.79747
2.91138
2.76963
5.2457
1.52045
5.9157
2.23752
8.30424
4.47717
4.93386
9.64744
7.43052
2.77413
1.76983
1.88572
1.87879
2.97479
2.94244
4.93905
2.79771
4.44222
3.55576
2.77085
2.64188
9.25646
2.69257
4.40249
3.46823
3.89132
9.78509
3.03343
3.58079
3.72097
12.951
5.23946
2.85779
2.34727
6.45686
5.443
6.21723
6.90758
5.23364
8.28339
8.72898
1.33638
7.14546
1.72721
11.9194
1.17995
1.76682
2.22059
1.86566
1.82174
11.6467
1.19153
0.657082
0.974823
4.23265
1.67629
1.1571
1.3201
1.47464
1.80814
6.90552
1.5542
10.403
1.25721
7.66418
2.25214
1.47321
1.99223
1.45518
12.9725
9.0905
2.77681
9.78872
15.5481
2.17689
2.52927
9.04508
16.282
12.4998
2.9316
12.109
11.3351
11.5773
13.274
4.66555
5.80333
8.62604
16.6058
3.91449
2.89173
2.33661
7.52023
1.33819
7.62955
5.55555
8.07226
5.76576
4.62009
14.4615
2.86524
2.25017
2.33862
6.4664
4.2689
5.79729
0.881263
1.35499
1.2069
10.8563
11.0803
10.8869
7.94337
4.03308
1.89061
1.39469
1.53069
11.4523
6.53415
1.61787
1.63547
4.21911
3.12416
3.71424
2.09744
4.1646
2.7854
2.9712
3.59548
3.89274
4.81427
3.10142
1.33521
2.46048
2.64896
3.22387
3.34029
3.00778
3.28524
2.55617
3.33274
3.17762
5.19449
3.72839
2.87523
4.8595
3.41777
3.12574
3.31075
4.95955
4.4425
4.29974
4.13958
3.75621
5.31196
6.35134
3.57553
5.77108
4.65535
5.88379
2.83608
3.74523
3.38825
8.28906
3.51805
1.5863
3.26176
2.93255
1.50426
2.84052
2.44569
1.6947
1.9518
5.74661
1.91086
2.03634
1.52025
1.53148
2.66655
4.12432
8.57052
5.83059
8.08971
3.45887
4.54411
4.02865
5.17703
3.40038
3.0369
4.74318
2.63317
2.93072
10.2001
6.02612
3.22279
4.31269
3.47853
4.3618
2.54274
2.40143
2.84755
3.09178
3.93295
3.26504
2.27368
3.02726
2.38996
2.51706
1.96306
4.28648
1.8685
2.46364
2.40786
4.03156
2.91751
8.56595
9.37853
8.64912
8.17654
6.41291
5.80924
12.5537
11.1593
7.68972
14.7023
6.69173
11.3544
16.7543
11.549
10.9209
9.03446
13.1368
11.7216
9.07715
14.1268
8.41476
8.40114
8.64044
8.58892
9.54653
11.3075
7.87853
10.5153
11.5669
12.8215
12.9865
12.8636
12.9766
9.52215
13.1787
7.54569
9.46802
9.21078
12.3415
7.64192
9.19945
10.6071
9.02013
10.8205
16.0992
8.30447
8.38554
10.2158
7.03009
8.81415
10.7383
12.3422
12.6664
15.1873
9.54005
9.66782
10.2382
8.78514
12.1352
13.0988
12.6972
12.3762
13.9354
12.0964
16.2499
12.6618
12.2326
17.0622
11.6469
8.89243
14.235
14.6684
9.67895
13.8077
13.9882
12.8405
12.8308
8.69917
6.43922
10.1279
7.00203
11.1614
10.6321
8.61412
10.5618
10.3824
10.7766
10.8366
15.0575
14.5087
8.50119
12.0747
6.77232
9.48193
11.7075
10.1379
9.74482
11.0176
11.3821
5.28809
9.60464
9.87449
10.7213
7.24725
15.4274
9.79218
12.4546
13.4561
9.24885
13.5445
6.88878
12.2308
12.5333
8.98413
7.75697
14.782
13.2413
13.0143
13.0294
8.65279
2.56381
10.3712
2.95794
3.22321
4.15058
11.1585
11.4536
5.84811
1.99367
11.6759
7.30493
9.67946
9.87108
6.57834
9.09486
12.9367
7.76873
5.94925
6.67452
9.10409
8.78729
9.42299
6.28822
12.8839
10.1917
9.00507
8.32155
9.43321
6.31324
8.01827
7.90336
7.4219
5.60098
5.61499
8.92666
8.93746
9.83475
8.45051
9.18803
6.9965
15.3442
8.99067
9.64761
8.05062
8.69201
8.53474
10.4816
8.32807
6.44067
13.2076
9.4171
10.94
12.3651
15.2896
10.2635
10.5711
8.13804
12.0963
7.69922
10.0893
7.61742
13.3448
12.5249
9.45065
11.6953
11.1647
14.8084
8.15664
6.93193
12.7123
7.16619
7.24102
4.94419
12.1271
7.11929
11.4106
7.94621
7.9187
7.24014
7.75837
14.6646
8.42848
7.43173
8.46219
9.00436
9.90547
10.5575
2.1095
1.52755
9.10969
12.3841
8.36141
11.71
11.2312
8.59581
5.73327
7.95413
15.5044
11.0186
15.8283
11.8155
8.32111
8.08906
12.9621
8.03218
12.4824
10.7821
13.6685
9.38737
13.3173
10.7523
10.2928
8.01408
7.94436
7.78522
9.04099
12.4659
15.4694
8.07633
8.182
6.49067
10.8891
5.12647
4.42758
9.89217
8.49446
11.763
6.87687
11.2218
7.13011
7.03865
6.82666
6.56463
3.04732
8.61219
11.4016
6.88707
10.1449
11.2599
5.66821
7.10251
7.09789
6.83238
6.83878
15.7016
11.7118
12.124
14.7471
14.5033
10.7553
12.8767
12.5886
9.50143
10.127
13.2201
14.1855
13.6594
10.3598
3.33905
11.5985
12.4866
11.6909
13.8081
5.23195
13.685
12.6496
14.177
13.9904
10.9995
10.3672
13.1222
9.48275
14.9718
8.25873
8.69887
10.7102
13.9069
8.39059
9.03531
9.55222
9.78884
11.4372
11.7967
9.06616
10.135
10.0807
5.59883
13.7334
10.5348
12.4791
5.09149
4.85333
2.84072
4.69924
4.49545
3.17866
3.12543
4.00759
5.42867
6.0472
4.8062
2.95039
7.68768
4.13423
3.98357
2.71201
5.52476
3.89282
3.42724
2.97254
2.75051
2.57522
2.91122
2.4708
3.01573
2.38898
2.506
2.50781
10.3478
11.5634
3.71896
3.66795
3.92064
3.65552
7.63876
2.96869
3.17181
3.31056
5.72159
3.29876
7.0446
8.01087
10.7582
2.27222
7.6545
6.52229
3.69365
2.27172
9.39105
6.99516
2.11429
7.21169
11.8359
6.6135
2.7373
2.00612
3.20207
2.64092
4.54068
3.79042
2.58646
3.63103
4.0791
2.9756
3.68959
4.10077
7.63195
5.76516
7.84218
5.92388
9.43151
6.39434
4.13684
3.7998
5.57755
5.73699
4.87907
3.94146
3.95637
3.76691
10.0177
5.08762
5.00612
6.33827
4.18666
5.0362
5.76244
5.10139
3.49818
3.76624
4.03941
3.54484
3.25223
3.43027
7.33332
3.21343
2.77868
2.71355
3.2215
3.50447
11.1371
10.984
15.0517
12.5936
14.1435
11.876
11.7189
11.3353
11.4218
11.2332
13.3818
11.4171
15.157
13.4805
14.4716
11.5171
13.8854
10.6104
10.2357
12.2744
1.34964
5.43326
12.1296
6.99622
8.9861
7.01669
11.1037
10.0135
15.2625
1.2061
2.54616
0.753678
9.7689
14.777
14.4502
1.12987
10.4318
14.2236
14.343
8.87622
14.4435
8.35386
8.00006
11.1717
14.0779
15.6839
16.5227
13.9886
16.5951
15.5435
11.791
15.0711
12.2443
10.3754
13.2172
13.4808
14.1767
14.9619
14.0365
16.2985
16.4853
16.5342
14.1515
15.8231
16.2955
14.719
16.1033
14.9423
12.7473
12.4515
15.9999
11.0356
8.91173
16.5224
16.6316
16.1007
16.4567
11.6266
16.508
11.0861
9.7957
11.1515
16.4247
16.3113
16.5866
13.9215
3.94462
6.94258
11.6618
12.8816
9.09108
12.9093
12.5792
15.7478
9.22361
14.4634
14.263
14.3092
16.4596
14.8127
13.6522
15.211
14.3292
16.1572
16.614
15.0577
15.4
14.9627
14.4129
14.6981
5.95014
15.2499
15.4568
14.8087
14.9822
7.97232
16.0888
15.9937
15.7162
6.75295
13.864
15.4957
15.6466
12.036
14.1333
14.0591
15.9237
15.8071
16.6068
16.5177
10.6475
9.17029
7.00759
12.4939
12.8044
9.61079
9.96061
11.2242
10.0071
8.28091
11.6139
12.2876
11.5202
8.32255
7.77856
8.87863
4.93847
3.3554
7.64499
4.80002
16.7853
13.2375
3.29809
2.64803
10.6795
5.97394
4.00185
7.38884
13.6102
11.0273
9.02492
8.54738
6.01591
8.28616
14.2121
11.5256
8.93305
15.0953
11.0406
9.49323
14.1958
14.4617
13.7019
8.97118
9.19927
7.27655
9.73608
10.0749
9.84243
15.8516
10.6349
11.0064
9.37969
11.0176
8.02936
10.5878
7.07211
7.88142
7.29942
9.71188
1.84959
8.46417
8.31771
10.2757
1.75508
2.59332
6.44431
8.0022
10.4873
12.4887
4.27269
6.2419
9.68852
3.28558
2.43216
7.21915
7.61426
4.40859
7.58193
5.56325
6.06799
8.33493
7.99108
4.88432
9.52512
2.60637
5.02505
2.23906
1.80169
4.76329
7.39741
3.40082
4.99743
8.71195
10.6795
1.69035
7.06913
7.3443
8.18584
10.4182
5.62129
12.0879
13.6761
9.24315
9.14285
8.1325
11.0114
10.7873
1.99421
9.66902
2.39778
1.69061
1.71296
1.42627
1.84508
3.0445
2.21877
3.47173
3.27617
2.61583
4.55016
2.0572
2.10723
1.62156
2.03344
6.72923
1.98618
2.0764
2.09905
2.23323
2.11834
10.1421
3.15623
2.44017
2.91179
10.7568
8.32412
5.94873
13.3819
8.43113
14.7071
12.261
13.5529
6.0466
10.7753
15.1686
15.3484
8.2237
10.7138
10.2061
13.671
8.31845
8.25526
15.8704
9.69965
14.3547
16.0168
13.1641
10.1152
12.5885
15.3155
11.8259
8.6859
4.84898
3.87811
14.6733
14.1755
2.67512
2.60172
12.2332
13.6584
4.15638
10.0163
8.84363
8.34618
8.15086
11.3998
9.9053
13.4272
13.9297
7.95395
7.33337
10.8438
8.33472
14.2174
10.83
6.6806
9.40204
12.6932
11.3866
15.2676
15.0298
12.6863
13.9689
15.347
13.8858
12.6361
9.02369
15.2947
13.5866
13.4053
7.36295
9.17985
10.8286
8.7134
6.17159
7.30804
8.01539
9.03388
10.8065
3.60389
8.50784
11.1297
6.89543
12.1826
6.15793
10.2762
13.4287
11.4806
10.1588
15.2492
17.5267
15.0355
13.8853
12.7382
12.7044
12.9851
13.0266
11.4952
11.2282
9.23204
10.5979
12.9839
13.7744
11.32
10.6391
13.0703
9.68679
12.116
3.4618
3.18705
2.67546
2.2878
7.64582
7.25857
2.27791
5.10323
1.75174
1.52381
9.10164
2.50927
9.40504
9.34525
1.53587
11.834
10.011
8.54867
7.42672
9.81864
1.72378
10.26
10.1419
13.1904
9.98892
4.00626
15.0997
11.4659
10.674
9.9218
9.44902
6.23768
8.3269
10.247
10.2206
6.19222
7.88315
11.3629
11.042
10.0511
9.98115
11.7683
9.12687
9.9757
14.5009
12.1487
9.66932
14.261
15.5638
14.267
13.5495
11.3187
15.8062
14.8446
5.70744
17.4387
12.8591
16.634
13.1703
15.1536
14.2035
11.0785
15.7296
15.6984
15.7339
14.3478
10.1709
16.225
15.46
16.5003
15.8913
16.162
9.67628
16.3776
16.7639
16.4917
16.1769
12.6379
13.6612
13.5608
13.5904
15.291
16.5689
16.4529
16.7318
11.9507
16.123
15.8592
16.2063
0.0484725
15.5425
15.5142
15.5358
8.92752
15.0725
15.5195
11.9337
10.8558
15.6956
5.31998
11.3228
10.1626
12.2316
10.6958
11.9327
12.3925
12.858
11.8122
9.63938
11.8259
13.7062
10.9714
13.4128
11.0821
13.1851
4.65001
11.4732
12.8315
12.56
11.1162
10.6285
12.1776
10.5756
12.4334
12.2855
14.4234
16.111
12.0776
12.2476
16.2455
14.8703
8.86057
16.0085
11.1067
13.2969
10.9005
3.89595
11.5397
5.29841
2.47794
2.8505
10.4607
3.76243
1.76065
4.16727
2.77788
2.51624
7.64811
1.46866
15.7939
3.00489
11.7378
7.9724
11.1414
15.3411
7.34985
8.02546
1.45821
5.89886
2.00387
6.56404
1.58389
11.6231
6.01839
1.40841
1.56413
1.91452
1.76856
1.77558
1.87867
1.27396
1.86209
1.44671
10.4649
1.42631
4.01038
2.05695
3.40316
4.16574
6.25029
5.37643
3.30236
4.02861
3.53904
3.41652
6.35918
3.70603
2.55289
2.24984
3.78504
6.14807
2.4483
2.4841
2.27347
3.13208
2.57682
3.2775
3.06863
2.94182
2.5969
4.13134
2.89575
3.04271
4.16361
2.91173
3.00764
3.18588
3.90454
3.45588
3.44846
9.67167
7.5861
9.814
4.56049
9.1263
11.8831
9.28132
3.01701
4.01498
4.30248
4.31206
3.66646
4.15972
4.15412
5.59632
4.13659
11.0046
14.7257
9.88694
10.3701
9.50844
14.2576
14.5062
11.9106
12.1544
11.0523
12.1661
11.5177
9.52892
13.1492
11.8293
12.4848
12.1795
12.2299
12.3343
12.2811
10.4818
12.3144
11.3982
12.4318
9.05645
13.4447
13.1414
14.048
13.8398
12.8876
14.4169
9.4168
10.1124
12.9563
10.6885
14.0062
10.4981
1.98175
2.36225
1.74908
10.6433
11.4827
11.5176
16.005
8.08588
5.82003
13.2701
10.1626
12.198
11.8934
14.3773
9.89953
9.67034
13.1866
13.0773
5.93565
12.8167
12.5527
12.65
11.0394
8.42796
15.1501
14.8763
14.3263
10.0567
12.4783
15.5115
15.3894
9.33542
15.1221
15.1407
11.7294
8.4006
9.30008
12.4069
8.03784
12.1532
12.7244
12.0288
8.91446
8.75278
11.3188
10.434
9.0372
12.531
7.31309
8.48863
7.09239
8.85282
7.68358
8.82745
9.09929
12.7973
13.1593
7.47058
14.5679
10.3888
3.70351
13.3935
12.1699
7.10087
14.4361
8.02536
10.6567
8.70404
15.054
11.7624
11.9098
13.1562
16.3015
13.9179
9.33804
13.3507
6.72293
9.52146
17.0377
12.4082
8.02168
5.84425
8.70314
14.269
4.01847
8.83851
9.36966
17.0438
9.6054
9.649
12.6754
15.8567
11.6769
11.3102
13.1193
2.80506
2.43837
9.11626
8.46693
3.0333
2.62589
2.66077
4.52253
5.77108
3.99923
5.21571
4.6284
4.89608
3.10342
6.15551
4.55834
10.715
3.65457
1.37426
2.91959
8.26342
2.99442
6.38417
2.15513
2.83203
4.27711
1.59396
3.15197
15.2478
2.01811
5.37649
5.96913
3.20536
4.53957
1.85218
6.96034
4.46012
3.33102
1.43432
9.24971
12.0848
8.68513
13.6739
12.5392
19.047
6.9444
11.486
11.245
10.6227
16.0998
12.4807
14.1357
1.83597
6.5853
8.4424
14.7923
13.3142
14.9259
12.1446
13.549
12.6498
12.0976
11.8086
12.731
3.11245
10.3423
12.2326
12.625
7.24461
3.79819
10.9595
16.039
15.1677
14.9679
9.06241
7.13075
13.8007
8.93366
13.2315
11.294
8.85925
6.97157
13.3202
8.43059
12.8334
14.944
10.1111
13.4269
11.7278
13.1174
12.3956
15.1505
12.9407
11.645
11.8772
14.9648
14.4597
10.6388
13.5725
16.0014
13.9139
14.6853
15.1182
15.395
15.7159
14.5718
14.5521
13.599
14.0042
15.465
14.6837
13.6738
14.6092
16.0739
16.0636
15.4337
16.0144
13.4947
15.8684
15.2631
15.483
15.6777
16.2821
16.3531
16.3465
10.1595
13.4923
11.6692
9.42628
15.5203
14.7116
15.516
15.0581
15.6288
14.8429
15.363
14.9035
15.285
15.5143
15.2189
14.8625
15.1254
13.8108
14.6135
12.078
14.9367
16.8368
15.6315
14.6316
15.4904
13.9935
16.0418
16.5147
15.4834
14.957
14.8262
14.5168
14.6877
14.92
14.2151
14.1026
14.6919
14.307
12.5849
11.885
12.7653
15.4428
10.9404
14.2045
10.4345
11.4961
11.9627
12.0643
13.4582
11.4207
11.5182
10.3307
12.6289
10.4595
13.6935
11.2636
12.4116
12.113
11.5136
6.07322
13.3447
7.49836
9.18836
10.3574
11.8797
9.50692
13.199
7.6761
13.6723
13.1514
12.0482
10.5169
10.7387
9.68791
10.1435
10.3839
12.4178
7.15677
11.3811
11.6249
12.3176
5.71414
6.70801
4.00125
10.924
10.4903
7.02088
10.6514
4.09348
3.4485
12.4932
10.3876
8.56438
10.1054
8.89442
10.7554
9.00824
7.20746
10.1186
9.93113
10.7495
8.02374
9.33019
4.73023
14.9227
1.61401
3.68613
3.4684
8.39317
1.41585
6.85601
6.67202
9.42937
2.1257
10.0998
6.08035
6.90552
1.41572
9.68821
3.10654
2.98814
0.870763
13.596
1.3606
11.1868
8.86155
11.9107
3.40732
10.8163
1.09501
7.28317
3.15752
8.78335
1.66368
1.84425
1.45223
2.41243
10.4019
1.16077
3.66536
5.17185
1.99226
1.99152
2.10709
2.34152
1.55974
2.68695
2.04674
2.09598
3.46125
9.44019
2.17883
11.0091
2.83705
13.7252
11.3659
5.83618
5.02581
9.34357
3.72434
8.40955
3.72696
3.94941
13.2184
14.6068
15.6139
10.6643
14.8207
13.2276
11.5523
11.27
13.4777
13.5847
10.8085
12.3171
14.005
9.47504
5.91595
8.52878
10.285
12.3956
9.74099
10.6842
10.4606
10.6037
4.83904
14.8978
11.467
9.82493
13.4738
14.3042
15.0031
11.4882
10.1013
12.3867
10.1379
14.8956
7.52389
14.7203
10.9113
11.6426
14.4992
9.85321
9.51233
8.92345
9.55467
1.63335
11.7235
15.2501
8.62816
11.7271
9.18863
14.9936
9.74156
10.9075
9.07616
9.40331
9.06014
13.3421
14.2408
8.37265
9.19919
8.19419
10.9683
9.05988
9.96488
8.52681
8.53364
13.8545
14.4419
12.7259
12.3636
13.6613
15.3306
11.4955
10.5891
11.2975
10.8518
9.15399
10.1113
11.0302
9.06489
11.4776
12.5665
11.2641
8.70286
15.1224
10.7497
6.97777
8.89544
7.82299
11.4333
7.537
8.68854
8.42082
11.7226
13.7834
7.35751
7.55605
10.93
14.3827
14.4771
6.31391
14.7775
11.3685
6.24563
9.36057
13.0031
11.634
11.1649
11.8375
13.6989
15.2393
11.9307
5.93139
12.6028
12.758
5.66201
5.80643
6.32043
5.68739
12.0549
14.7879
11.1899
10.6006
15.2169
14.8598
5.36696
12.2335
10.2302
13.6886
12.7008
13.206
10.0739
2.94549
5.70588
4.55631
3.36484
4.36538
3.58093
3.87683
2.65945
4.45061
2.62645
3.72624
3.76786
3.32213
2.76354
3.62547
2.51809
3.27872
3.11929
4.98299
3.25605
2.98156
4.51676
2.88902
10.572
11.9611
6.77534
4.16514
2.65217
3.43151
7.31014
6.49913
11.1984
4.84132
9.42049
9.89951
2.03047
2.08997
11.2424
10.4431
13.4173
12.3689
12.0054
9.44584
3.39233
1.7104
3.55621
9.98248
8.66892
14.8257
12.4138
8.17418
7.55513
7.10246
11.0223
11.9319
10.9277
9.54173
13.9399
10.28
14.0925
11.3747
9.53295
9.38825
9.38754
6.28583
14.0502
7.10106
6.59961
10.4225
13.3765
12.5494
13.2312
12.9869
10.3233
12.5935
8.43334
8.21857
10.2766
8.54183
12.139
9.43493
11.0496
12.047
10.4617
11.7104
3.17774
11.1933
11.9952
13.7949
13.4533
13.3854
11.5753
14.1221
13.6792
10.7724
11.1202
11.9009
14.7235
14.3722
14.4731
13.7049
11.9185
15.7461
14.1583
13.5406
13.9391
13.5137
15.1905
15.7855
13.4675
16.1039
13.3098
14.6309
9.73313
14.4798
7.71539
10.711
14.5965
14.465
14.4977
14.506
14.8696
15.6699
13.885
12.4492
15.4343
16.1356
15.7749
16.0676
15.0319
16.1054
14.7306
15.8097
16.1045
15.5512
15.883
14.8055
15.4795
11.4879
15.7176
12.155
15.7395
14.999
15.1501
12.836
12.7494
13.427
12.844
13.9451
15.4062
15.6461
15.424
14.574
14.8678
14.3814
13.893
11.2082
13.8047
13.3212
14.068
13.7246
13.9853
11.1083
13.9648
11.8069
12.5207
10.8766
12.4136
11.1003
13.4382
14.2627
14.2375
14.6261
14.3277
13.668
14.8778
8.70863
9.9992
7.82094
9.71803
14.2684
13.4821
9.17783
10.6871
9.54323
10.089
8.38485
9.41982
13.2198
12.8572
10.9114
10.2687
10.257
8.26732
12.8342
4.04877
1.97997
9.48883
8.63576
12.2589
15.0219
7.34874
2.03131
8.18455
8.30775
1.35528
2.0811
1.29823
14.3981
1.82863
1.28395
10.1867
1.33131
11.0317
9.93276
7.81507
2.59336
2.73557
3.60074
2.50221
1.63235
2.76258
2.1871
8.98807
8.73773
13.121
10.3082
7.3578
2.48464
2.94311
4.83948
13.0224
9.84881
14.5664
10.879
10.5817
11.3852
7.87105
8.08031
7.93697
11.4228
7.78582
11.0636
9.94773
6.74127
10.6585
12.7286
10.8893
10.55
15.7028
11.335
10.1101
15.5233
12.004
11.2855
1.57115
4.92714
3.96654
8.99051
7.38649
4.66485
9.94251
10.2641
13.9155
11.3584
9.84714
8.58998
10.8302
10.3355
7.89184
10.0489
9.65917
11.6457
6.57526
12.6957
15.8402
9.81182
9.86646
9.81401
13.2106
10.3502
10.4535
14.9967
13.8968
14.9312
13.4423
9.91234
10.2363
10.4632
11.3392
10.9748
9.44108
14.8305
11.4594
10.6446
11.9501
10.875
13.0476
13.4956
9.70059
9.81183
7.71535
12.5971
14.1218
11.0358
12.2581
10.5608
10.1839
10.3595
9.80401
10.9149
11.5061
11.0704
8.27425
14.3734
10.5055
12.4416
10.3912
6.85703
6.80697
13.3304
9.96908
6.17632
6.94275
6.93181
11.3515
11.4795
11.0243
8.91565
12.3504
12.3741
10.7271
7.87156
9.38142
9.08646
11.0226
12.5612
6.93326
10.9134
8.55374
11.3593
14.3954
13.0166
10.5568
11.4686
12.7447
12.1577
9.14083
9.30095
10.1004
11.2298
10.5993
9.37864
14.5951
10.9208
8.93777
8.2986
10.5412
9.99729
8.89015
3.6561
8.93394
8.25941
4.03674
8.79488
8.03082
8.0806
3.64343
2.50941
2.30667
2.28117
2.53485
3.0526
1.67063
2.03256
1.74287
1.88117
2.11634
2.21463
2.4291
2.50388
2.69678
1.88923
2.08467
1.36162
1.91045
2.26889
1.42405
1.10919
1.74234
2.83571
7.403
9.55367
2.89743
1.7363
4.1581
1.53923
1.20734
11.7958
1.26041
1.27309
6.38184
1.21753
4.39003
1.75924
2.94396
1.83966
4.10336
1.8645
1.0141
1.84682
1.76107
2.8875
1.18278
2.74286
3.6828
10.0879
2.11369
1.27444
2.42821
3.66392
1.89974
7.54725
14.0794
11.5753
11.6616
10.995
10.7336
12.5861
13.6142
10.838
11.7986
11.1077
12.2731
10.99
10.5047
11.6306
7.33383
10.9501
11.5921
10.2361
10.9999
12.206
11.5719
11.7484
11.2854
13.2641
14.0392
13.713
14.381
12.0924
12.6296
12.7019
13.9077
11.2272
12.3104
12.684
15.3471
14.6853
14.9551
12.2228
14.6458
13.3868
14.5324
13.996
13.7482
14.4105
13.9105
9.11337
11.3689
14.1817
14.8774
14.1979
14.1113
8.90033
12.4561
11.5946
13.223
15.1297
13.7935
14.2735
14.975
11.9133
11.7575
14.5283
12.2047
12.3869
11.6543
11.9464
11.4293
13.8488
14.7868
8.72972
9.06698
9.51816
14.7497
12.9818
15.1242
14.6496
13.9022
15.9831
14.2914
14.7593
9.54789
15.0672
14.4155
13.4962
11.6158
12.7029
13.8902
13.9496
12.7087
12.6257
11.9543
11.1038
14.081
11.2239
13.3066
11.3614
11.4963
8.72485
12.1213
12.9009
10.9438
11.795
12.481
12.8559
12.8978
11.6217
12.2244
12.9623
11.9508
13.4289
11.8142
12.2643
11.1073
11.639
8.47373
10.1703
10.6112
8.4115
16.4526
8.42845
7.65269
15.2984
9.98611
10.8711
9.26277
6.88793
13.0502
11.7767
9.62691
11.5657
12.981
11.8004
10.6698
11.8452
11.2053
11.2393
11.5134
10.7789
11.6807
9.51213
12.4239
10.9596
11.1956
10.2171
11.6364
11.2298
10.6758
10.3074
9.39217
9.77472
10.5803
11.1783
12.8019
7.21033
10.8078
7.40446
8.66326
10.4144
10.5725
9.1532
10.7098
13.1945
8.17412
11.1874
12.5375
11.9686
12.769
13.6125
7.3133
8.84952
10.4442
7.99734
11.5832
11.0256
11.6678
7.44699
9.57347
12.6818
8.92516
13.1477
10.5885
9.9264
10.0937
9.75319
10.4042
9.54037
9.41621
8.62954
8.03672
11.2079
7.87349
10.0014
9.92815
10.8373
11.5739
12.6654
9.98375
12.5599
12.37
9.30431
10.6359
11.2095
10.2368
13.2208
9.48938
12.3484
12.5478
15.2943
10.9337
16.1351
6.99711
14.3852
10.2685
12.0441
12.2514
12.1376
12.7797
10.582
12.0305
14.3303
13.895
12.4371
10.6496
12.5966
9.1883
8.06296
10.2319
12.3043
12.9226
11.7059
10.7671
11.0359
10.6109
9.31353
12.157
7.85338
10.7457
9.08867
14.1669
12.5164
10.9963
11.0741
10.9078
8.99078
11.3476
12.3201
7.2212
10.4872
9.67429
10.0098
11.8461
9.34763
11.9498
10.9566
13.0214
11.5302
13.7926
9.67435
11.3399
11.1324
11.7977
10.8834
12.7539
12.6961
10.0167
10.9574
13.4259
10.7163
13.5222
11.5105
11.3219
12.6152
12.6837
14.776
13.0236
11.3003
11.8529
12.6841
12.5443
11.0581
13.7378
12.0153
12.8205
11.1407
11.6879
9.54052
11.585
12.7706
11.9164
12.1377
11.7237
13.578
12.0531
12.1542
13.2083
10.627
13.4606
10.9694
8.54039
13.7554
10.7121
10.4711
11.4968
9.84027
11.1953
9.85094
12.6627
13.5169
11.3007
9.59924
7.95577
8.52123
12.375
10.8537
10.2482
10.7456
10.292
11.1071
11.3379
12.177
10.7599
11.0251
9.72906
11.6344
10.066
12.48
12.8967
13.3377
13.6825
9.22619
10.9977
13.2276
13.5896
13.209
12.49
13.4949
8.35295
11.4928
13.7117
13.2636
10.2976
10.975
11.9688
11.57
10.0238
9.37566
10.9115
10.5102
12.8439
12.7799
11.0181
8.03826
10.6862
10.0979
13.8499
9.22473
14.4589
11.4764
9.38174
14.6292
10.3494
10.4434
12.5045
11.5793
11.5704
10.335
11.4245
9.80215
13.7739
13.813
12.5756
12.4049
11.9536
12.003
11.031
12.4167
12.3021
11.9505
11.204
12.5653
11.3903
1.35736
8.65578
1.50104
1.53188
1.6506
1.51962
1.14803
9.2193
11.199
1.74632
1.86438
7.71365
2.33957
1.48434
1.11513
1.56435
1.47384
1.05888
1.72758
1.26866
1.17111
2.40389
1.33001
2.47884
2.756
1.47437
2.35432
3.80831
3.3516
3.17295
3.74689
2.42405
2.91722
3.03219
3.19323
3.66276
2.08696
3.35237
3.17296
9.04305
9.1037
8.7172
9.90122
9.67732
4.24425
4.65157
7.38604
9.05911
5.30668
3.68228
13.7017
11.4675
6.88963
9.84146
10.098
13.5816
10.2026
15.0481
10.8459
7.8305
12.598
11.657
13.039
10.3416
11.0284
11.998
11.5075
12.2068
11.8893
7.99655
12.7019
12.7311
8.6806
12.9685
8.63822
16.5235
10.862
12.7453
1.63672
1.19159
7.65561
2.49638
11.4791
11.4278
6.54471
9.79326
12.0738
10.2967
10.5624
11.9163
11.6719
11.3762
13.2027
11.231
11.5628
10.8006
15.0334
10.6936
8.9082
10.9272
11.2405
15.6658
10.0359
12.6922
8.01513
8.10948
10.7315
10.9085
11.4191
9.42002
9.3504
9.574
8.98996
8.41714
9.9615
8.35822
8.93457
11.2591
8.62436
7.84691
8.33916
8.53219
12.6316
8.80916
10.2153
9.9004
12.4991
10.3705
7.79698
6.89687
8.63229
6.05987
5.55955
10.5202
0.959083
11.4998
3.40951
5.87559
9.35502
10.8783
7.27881
10.3644
11.7631
13.2623
14.6914
15.8855
11.1244
8.37081
9.90957
6.8678
3.23214
2.69156
2.28732
3.11583
3.1437
1.96277
5.68873
1.93574
2.83166
1.6885
9.92769
1.73649
7.15164
2.40779
5.39542
1.25377
1.62374
2.41135
1.71729
1.7019
1.68169
3.24484
1.47601
2.17163
1.44025
8.02276
1.83312
1.92967
1.01408
5.43921
5.7233
4.00355
1.4157
5.43988
6.99685
9.86144
1.55289
3.74606
3.85273
3.1916
4.91299
4.10572
6.6093
6.04884
5.64149
15.2807
5.68313
8.7626
4.57294
6.24505
12.1682
11.2622
5.57385
12.0155
10.2313
10.1941
9.37561
12.0427
3.2292
0.797041
1.43887
12.3716
12.0303
6.1002
10.1659
7.60737
7.59785
1.29083
10.172
11.4966
10.8739
5.71095
10.3104
9.39489
12.0013
10.7713
12.0513
15.2429
13.1811
12.028
10.4479
11.8936
11.7712
10.6899
10.8134
4.83347
11.1973
13.8177
14.0827
14.0095
14.1463
13.6379
14.2064
12.3395
14.2439
12.9552
14.7593
14.4467
9.09529
15.6124
14.6886
12.4198
13.4416
14.4951
13.588
14.603
15.1788
15.9492
8.57267
14.5129
14.8537
14.607
1.69624
7.66712
14.325
8.31249
9.30526
7.06086
9.82476
13.2976
9.83968
6.56039
12.3948
8.64106
8.69723
12.8445
14.7801
14.5594
14.093
3.42868
11.8825
12.9553
14.5555
13.1162
14.0116
14.903
11.0457
12.1745
13.4326
11.8997
11.8032
11.6231
12.5725
11.7587
12.6339
12.1732
12.1931
12.0861
11.2069
10.3486
10.0549
12.0436
12.064
9.42143
11.6388
12.863
10.2761
11.4298
7.2659
13.3674
12.7766
10.583
12.7444
13.0516
8.66793
6.97331
11.8408
12.164
13.0928
13.0899
10.7985
12.4597
12.699
10.6293
13.5479
13.7253
13.0878
12.0451
14.837
13.4217
13.4584
10.3933
13.9151
13.7501
11.5049
11.3131
5.32493
5.92475
4.04117
10.9541
8.70559
5.12175
5.36993
4.07799
5.6819
4.32141
3.6215
11.4776
11.6766
12.2923
10.4453
11.32
10.2884
9.92646
11.5107
12.2061
12.578
12.8877
9.80869
12.5462
12.5909
12.724
11.3954
11.6742
11.4062
10.8526
10.6503
10.3766
13.8451
13.3875
13.8653
13.6611
12.0498
12.1493
13.3032
9.28177
12.9404
6.64504
10.9052
11.2979
15.1884
9.19672
12.1079
13.1551
10.7765
11.1701
12.3284
11.5833
9.84421
13.7486
14.0492
13.5017
13.5344
12.1919
15.2555
14.7295
14.2816
14.346
11.8072
14.2889
14.0808
16.0427
16.5079
14.2834
14.5538
14.8188
14.1539
12.7914
16.2616
12.7032
15.1223
12.2003
15.7198
15.523
15.5897
15.2549
13.128
15.092
15.3885
10.3576
15.9529
14.3868
15.0136
12.226
15.9549
15.4687
15.6214
15.3296
14.3411
16.0981
14.9977
16.2982
14.6875
15.8302
13.7808
15.167
15.2095
15.3468
10.3829
15.8977
15.0285
15.0537
9.93982
11.4849
15.8886
16.0898
15.8392
16.1241
15.9625
16.0395
8.76591
16.1772
16.0305
15.7466
13.5586
15.3001
15.5277
15.0856
14.7314
14.8
13.264
15.3946
11.6153
15.9302
15.6106
15.3763
14.2807
15.0242
13.9842
11.2515
15.7035
14.2816
13.9623
15.2762
14.4946
8.52117
15.4592
15.0626
15.1175
14.4914
11.6513
14.4407
15.4783
10.7902
13.5681
13.4731
14.6631
15.7496
14.2637
15.1715
12.1048
15.6285
13.3889
12.5292
12.3345
11.322
12.6792
11.8235
12.9438
12.5074
14.1022
11.5823
11.5311
12.8508
12.623
7.89265
9.77604
10.2116
10.8625
11.7005
9.39486
7.82715
12.4084
10.3233
10.6762
12.0788
10.7467
11.6172
11.2637
14.5994
10.8472
10.0418
10.7422
11.3602
13.8804
7.90517
11.5308
17.0386
6.90205
10.3079
6.52241
6.2862
9.80142
9.04839
10.7345
13.104
9.1136
9.23319
8.12961
9.44993
13.3127
11.0792
12.4887
13.8741
2.92207
6.78925
10.7506
7.27025
7.0711
16.4605
7.92074
10.4727
11.8409
10.2915
2.47106
10.7119
8.09789
10.3766
2.9369
9.02083
9.13217
3.08431
7.4621
2.48938
2.04652
5.40466
8.23235
13.2779
8.65844
5.90427
1.821
11.5069
2.13131
15.3998
2.41317
1.69899
7.80728
2.11268
8.24956
1.37355
1.37618
2.69923
6.0261
2.64103
4.49946
5.73827
6.43134
6.35665
3.39387
4.24769
2.19906
2.58534
1.68141
3.86133
1.17707
1.38023
5.75766
9.81218
5.42477
6.38794
1.54691
2.49985
1.91441
2.61823
3.97963
3.2116
3.21519
3.9869
3.96921
4.04259
4.07378
4.15985
1.82044
7.01812
4.49194
1.4953
4.39913
4.57924
6.1749
4.6932
3.01006
2.83239
4.59909
6.15032
12.0499
8.09614
3.41754
5.4631
4.60442
4.5343
2.68348
3.07479
3.05695
3.96719
3.66211
11.4102
10.2651
11.6242
13.1536
11.915
11.6078
14.7849
8.84564
8.96356
9.57698
11.4996
15.1642
10.4813
10.7646
10.3642
10.0546
9.91069
11.1848
7.41112
13.9739
10.0146
9.8452
11.6147
9.43909
8.02074
9.54261
10.6424
9.40173
10.4447
9.2045
8.47206
2.98762
10.6305
8.59166
6.13544
10.7415
10.8146
14.0946
12.0344
9.35229
11.5398
9.84901
10.7279
9.13105
2.55048
8.71903
9.35891
9.71914
10.1669
14.8381
9.47891
12.3456
5.81404
9.91436
10.7711
9.03063
9.62199
9.49794
11.9568
11.6482
12.3273
13.0789
13.457
10.6654
14.0989
12.6157
13.9104
10.9959
15.1677
14.7172
11.5271
14.4496
14.8642
14.6306
13.6732
12.2963
13.5938
14.1082
14.4982
14.5961
14.1227
12.3687
11.9341
13.9528
13.4093
11.7085
12.6303
12.3156
9.39256
10.4679
10.1271
10.7761
11.0181
14.6469
14.3779
13.3586
10.2162
10.6536
12.7302
11.271
11.2785
11.2221
12.8887
11.0039
9.9773
9.0065
10.9037
12.9974
8.15081
10.122
12.9084
10.2107
10.1037
9.5547
10.0163
10.7084
12.5312
11.2943
6.58235
9.98628
7.8456
5.74454
10.7947
9.73435
8.25246
10.4299
7.68393
8.65161
11.4114
7.68165
7.58737
7.21863
9.80501
15.0798
12.2922
10.7928
13.9577
10.0658
13.2062
7.50862
12.3962
11.9395
9.78351
10.2259
8.26141
8.0982
8.17106
8.08023
8.45351
9.57969
8.08245
7.80175
15.611
14.0474
10.0711
8.74465
12.0998
10.579
13.9407
3.61388
11.8329
14.5062
14.5552
9.344
11.9986
12.4302
10.2736
14.5797
8.49707
14.0695
12.9202
12.5842
5.40726
7.32161
8.54473
2.86059
8.96343
7.80621
7.48652
6.18873
9.93618
8.98917
5.56942
6.20834
9.1035
6.20509
11.1551
4.6541
2.43808
6.17713
5.92446
5.82482
3.44579
2.05069
4.74165
4.84623
6.02774
1.4801
1.94823
1.82952
2.9656
2.98459
3.67287
4.02502
2.20045
5.92348
1.69036
2.55091
1.86501
1.09686
2.43939
2.12647
3.0637
5.48786
1.07652
7.53702
3.71347
11.1083
5.38778
2.88309
6.16904
5.84786
7.7476
9.19231
1.1052
1.21381
8.5175
1.71563
7.4877
7.5136
6.3697
7.82782
9.44117
9.91123
13.5483
10.1627
8.70898
7.05148
1.34366
8.95956
3.70583
1.05263
10.1427
0.991733
1.36131
6.81044
0.817056
10.2978
8.98345
9.59562
2.15607
8.82824
2.8045
7.67161
10.0587
6.49905
10.4353
7.71573
1.53449
10.5524
12.4627
5.06225
12.7052
6.25227
1.79208
10.9609
6.95049
12.2389
7.34977
16.0607
10.6301
9.2189
8.53739
5.00565
9.44395
7.18277
8.92132
11.551
11.8502
9.85504
8.89535
7.5839
14.1179
13.4426
1.51881
1.50477
10.9081
10.6321
1.78591
1.45626
1.59426
7.83436
8.03104
1.9534
1.44888
1.95349
2.92966
3.56715
8.1867
1.79984
0.925573
10.8812
2.83059
3.45108
2.91913
2.95412
3.51294
3.55779
3.70957
7.49389
3.94506
4.99662
3.86235
5.26392
8.65884
9.5149
8.63904
9.96711
7.81776
13.8184
9.7599
0.913142
11.2488
14.205
9.09894
11.9854
9.96947
11.6832
9.07472
11.5636
9.16155
10.3778
9.45076
8.73322
4.24627
10.65
10.5747
10.3247
10.0579
10.6981
10.2014
7.45276
10.217
10.6742
9.27779
9.36284
10.4028
10.8418
9.79619
9.66461
8.46802
11.3199
10.4775
12.4841
8.23648
9.2594
10.8489
10.1545
12.4387
9.83095
8.57629
7.77571
10.0108
10.0294
15.7242
10.046
11.4458
10.8208
10.0478
11.5507
11.6825
9.03153
10.221
8.90038
9.6392
15.58
12.4608
10.7895
12.0864
10.3758
11.8738
9.76697
7.95536
11.2628
11.3416
8.17528
6.87957
8.68876
5.67286
9.79312
9.76737
11.4735
7.72584
10.8977
8.45475
10.382
10.0174
6.55081
14.9806
11.2949
13.3801
9.28689
8.07031
12.3769
11.8164
5.13562
9.42769
13.137
7.70621
3.95079
2.60176
4.83446
2.90573
3.37689
5.00131
3.09416
3.67019
3.44675
4.8263
7.37797
4.02508
1.81852
1.22446
1.36662
9.19045
1.78227
13.247
1.51074
1.41918
1.46227
10.5911
1.67032
3.30631
5.61382
6.60374
1.48036
9.37687
8.79163
5.13444
13.0461
7.80331
10.331
8.44825
6.56239
7.16442
6.3187
8.72081
9.32602
7.07866
9.35715
8.31888
10.3364
7.56105
8.67619
9.81287
7.52738
11.3183
8.44208
10.0257
11.4634
9.83679
10.7237
11.2486
10.0855
10.4291
10.5625
10.2449
10.0923
10.6721
8.94475
6.08609
11.0662
8.5939
0.563457
12.5307
10.5239
11.6847
13.5304
12.4351
13.2282
14.0478
9.80828
10.7708
12.2934
12.7056
13.2103
12.2575
11.2323
10.8551
10.5319
11.7801
11.6576
11.1667
10.3322
14.4232
9.89492
11.9267
11.8781
10.9786
12.9152
13.3947
12.5923
11.9895
13.5444
13.9218
8.37618
14.6432
14.8388
14.2674
14.8118
13.3745
14.4078
13.8639
12.9272
12.9997
11.8904
15.9158
15.9325
13.7335
14.8489
13.643
13.7944
11.1037
13.4792
12.6654
14.3902
13.8506
15.5791
12.6554
2.01217
11.9639
0.536061
1.73308
10.0171
0.982485
11.8415
14.9201
2.3678
1.31179
15.47
13.9331
13.4622
11.4864
10.8917
12.0495
8.96915
1.03549
0.629162
0.478237
13.9225
13.7158
13.4638
14.0932
14.2093
17.8387
14.916
11.6955
14.7572
12.9116
15.1629
12.9691
15.0476
12.1532
14.3675
15.0344
14.2086
9.00116
13.8267
14.9908
14.1994
14.4207
14.3625
14.4929
14.6217
12.8297
12.3892
11.9261
12.9901
12.6032
11.9463
10.8841
15.2135
14.1329
8.05071
12.179
10.708
9.7046
13.6037
13.4331
13.2971
14.2336
14.304
13.3293
11.0907
13.4482
13.2489
12.8617
12.0369
10.9688
11.5658
11.08
12.4483
10.6354
12.8728
11.3281
12.3698
12.4148
4.07272
11.5733
7.92393
6.93726
12.603
12.3136
9.39016
0.770905
1.01251
0.715746
0.763638
11.2716
6.66157
10.6878
9.37646
5.6047
4.07576
11.9579
4.82862
14.9676
16.0044
8.80663
9.59691
7.93198
9.26613
9.88619
10.1713
9.57361
10.4371
11.6954
10.4179
10.5415
12.7901
11.4455
10.8226
8.0711
7.40685
9.37891
10.916
10.2027
5.53796
14.3215
7.90471
9.76868
10.9383
10.8925
11.6215
6.61687
6.12511
1.52783
7.90885
5.33389
3.91773
1.67247
0.00490983
6.01743
0.740412
2.16569
2.21282
10.3307
9.96379
1.11516
1.41447
7.11418
1.00265
4.10475
1.37182
1.34196
11.5624
10.5041
10.9366
12.6247
1.92217
3.08739
7.97697
2.33589
2.0699
1.42753
1.56332
1.84268
1.72984
1.75908
6.15838
1.67395
10.7472
9.90234
1.77532
8.06767
10.4384
11.7267
8.90143
6.63807
1.96318
4.18276
2.34394
4.01737
10.4193
6.18485
10.4393
10.7252
12.2877
10.8965
7.09221
10.0139
11.8375
12.0484
9.0154
13.6302
8.48381
8.58077
12.3317
11.326
11.181
11.3867
10.7416
12.979
10.4278
9.48457
11.857
10.0849
12.3837
9.72223
9.47357
11.5643
11.8721
12.6717
10.5089
11.4787
12.271
13.3383
12.448
11.404
11.1236
14.0707
11.5286
13.3892
10.9221
14.2191
2.58679
13.7506
13.3295
12.5099
12.2906
8.99284
7.41281
11.4209
13.8122
12.0549
14.0668
11.5112
13.7551
10.1019
13.4141
11.6331
11.9228
12.8242
13.533
11.2709
10.4605
12.9579
10.741
12.4755
8.58866
13.1211
13.5019
14.5583
4.04833
14.6195
8.37772
15.0268
9.24822
15.5653
2.2194
9.38858
10.1769
10.9717
12.7164
8.71426
8.92639
0.406121
9.79952
6.8095
12.4421
10.788
9.88434
15.7478
9.83451
14.9949
10.279
10.5461
13.4431
13.4662
14.7207
15.3831
12.6776
15.0591
14.0783
15.3535
15.3667
14.593
11.4472
13.2412
14.8323
16.5414
16.2818
16.327
11.9998
15.0671
12.5053
15.1191
11.5551
16.979
16.3228
15.849
10.6097
16.0989
16.64
11.2445
10.8506
15.2262
17.1428
17.1085
16.5492
16.4095
16.5875
16.2018
9.82373
16.7987
10.1833
16.6169
16.7936
12.9237
14.8696
15.6833
6.29448
15.978
16.2988
16.2907
16.2378
15.2302
16.5422
15.8408
16.0406
16.5104
11.2351
12.5502
14.966
13.9924
15.886
11.8473
10.8473
7.62748
9.87028
0.695847
9.54182
10.7171
10.8413
2.34403
7.70185
3.53186
8.94258
1.49044
7.91341
12.7984
10.182
11.1248
7.56719
0.930781
1.32399
11.0252
0.819036
12.7576
7.1204
13.6221
12.924
4.61616
13.03
12.1038
13.83
14.8664
12.9933
9.36758
7.06522
17.1896
12.1799
11.8597
13.6133
13.9844
12.8795
11.1117
12.6853
8.31537
8.21167
12.3077
14.9033
12.8682
13.0112
7.99883
6.67102
12.3284
10.9623
8.56205
11.1634
10.0942
7.72881
7.78013
8.47856
8.32563
8.51241
8.9359
12.2916
11.9809
9.39092
8.84009
6.98187
12.6798
13.5466
7.86908
11.2495
9.93511
12.6295
8.32704
11.7503
9.14955
10.3404
9.07555
6.6321
8.96166
10.819
6.3847
6.14626
11.3186
10.1955
8.9102
5.62068
6.29544
7.59836
6.70439
7.35093
3.32962
7.45992
10.5827
2.14673
1.86605
2.2471
3.00253
2.11995
1.65179
2.96988
8.18867
4.66479
4.671
2.30028
5.04024
6.2942
4.8169
6.33913
4.68323
4.009
3.74576
3.58532
3.98695
3.23512
4.26649
2.99479
3.63444
4.20481
5.29235
8.00463
9.65584
5.44734
6.43198
5.32087
3.85639
5.50411
5.78103
8.23203
7.91588
5.90461
7.12853
12.5414
6.44513
8.7088
11.3199
9.58709
11.4437
11.2553
8.7899
9.80423
12.4498
13.4392
15.7272
10.8768
10.3184
13.3268
11.9521
11.4723
9.01862
11.0926
11.9931
12.1832
13.008
10.5844
10.8489
12.8098
7.01678
12.8719
6.63372
6.27149
2.29143
3.6116
4.49016
11.8411
6.09125
3.43366
11.1364
8.43619
13.6386
7.38665
10.0842
7.2998
7.30616
7.75065
8.03951
8.8223
8.71898
10.6396
9.03254
7.85529
7.99392
10.5134
8.60503
12.2209
7.36495
11.9807
10.5768
11.9238
8.83311
12.1031
9.08341
8.91378
10.4672
10.2015
14.6996
9.8863
6.63778
9.71224
13.685
8.77701
9.56362
7.66532
11.5873
11.6874
10.9791
15.3361
15.589
15.309
14.7806
13.8405
14.5149
14.9128
11.3089
12.5158
8.15418
8.71017
8.26461
7.78881
12.1575
8.39586
13.3342
10.5572
8.01868
10.598
15.8208
10.3005
10.9035
13.1486
7.43623
7.70862
8.45108
10.3371
11.6269
7.55182
9.39141
11.4872
11.3656
7.13638
7.61026
7.0663
4.97033
12.7415
11.1391
6.75021
6.25127
9.88375
8.87915
8.25209
13.4098
13.4285
13.0109
13.1059
7.70155
13.5066
9.43941
10.2501
8.98194
11.7687
12.5063
13.006
13.5035
4.59461
7.92021
13.3486
12.0494
4.33509
2.73647
2.73862
3.01869
3.10607
1.74376
2.72257
2.15411
2.10838
2.0345
1.40127
1.42757
2.95331
1.666
9.2324
9.0278
9.57273
8.45966
15.1106
8.85378
12.7503
10.4021
10.5502
8.34239
8.97131
12.7414
3.99739
7.1766
10.1136
15.0855
14.0722
9.84693
9.03907
11.0191
13.4897
10.9595
13.9983
12.8693
6.61997
15.4391
4.44394
5.67402
14.9017
6.38702
10.6443
11.5122
9.85304
12.4635
12.5382
12.7177
11.8945
11.6819
9.89774
15.9469
15.4345
13.017
11.4153
13.2812
8.43905
2.68213
10.8456
9.21808
11.2521
10.0991
10.9147
7.87362
8.14351
7.90639
8.79605
12.4196
14.9545
15.142
12.1152
7.80999
12.4128
11.4043
15.1026
7.48798
6.65662
14.0441
14.256
15.9796
12.8524
9.87724
13.0442
14.0452
8.48136
13.7673
15.0751
10.7988
10.3771
13.6262
13.1328
10.6748
10.1747
14.1568
12.2668
11.9478
7.17958
11.0676
13.4637
12.526
12.1046
13.2362
11.168
12.4315
12.7553
