OFF
244 470 0
4.71644 -24.2474 -4.1501
4.53344 -24.4321 -3.8801
4.26844 -24.5144 -3.7741
4.40544 -24.2707 -4.1331
3.91944 -24.5516 -3.7301
4.03744 -24.2881 -4.1151
4.18044 -23.9675 -4.5741
4.56644 -23.9733 -4.5591
4.89044 -23.9729 -4.5431
3.60844 -24.5045 -3.8001
3.41944 -24.4162 -3.9231
3.40444 -24.2257 -4.1981
3.69044 -24.2574 -4.1591
3.47744 -23.9479 -4.5941
3.79644 -23.9581 -4.5861
3.64844 -23.6705 -4.9861
3.83244 -23.4803 -5.2511
4.09644 -23.4035 -5.3611
3.95744 -23.6573 -5.0091
4.44844 -23.3692 -5.4071
4.32644 -23.6433 -5.0291
4.76544 -23.4138 -5.3361
4.95844 -23.4969 -5.2081
4.96844 -23.6926 -4.9371
4.67644 -23.6707 -4.9841
3.66044 -19.0665 -0.321099
3.74444 -19.3671 -0.580099
4.05244 -18.8928 -0.941099
4.01844 -18.5299 -0.712099
4.17244 -18.5487 -1.5031
4.15344 -18.1519 -1.3311
4.31744 -17.7621 -1.1691
4.17744 -18.151 -0.441099
3.76744 -18.7291 0.013901
4.10344 -18.3734 -2.1641
3.84744 -18.4055 -2.8181
3.75944 -18.0327 -2.7891
4.06544 -17.9727 -2.0611
3.85744 -17.551 -2.8331
4.21744 -17.519 -2.0051
1.16444 -21.3096 -1.5791
1.63044 -21.2662 -1.6711
2.08844 -20.974 -1.1221
1.70744 -20.9518 -0.961099
2.66044 -20.4991 -0.722099
2.38444 -20.3862 -0.506099
2.19744 -20.3943 -0.278099
1.34144 -21.1044 -0.807099
3.24644 -19.933 -0.524099
3.07544 -19.7215 -0.272099
3.05644 -19.5397 0.031901
1.37744 -20.1645 -4.0001
1.81844 -20.2201 -3.8741
1.49544 -20.7085 -3.5191
0.999445 -20.7197 -3.6161
1.34744 -21.0808 -2.9681
0.827445 -21.1348 -3.0141
1.38844 -21.2842 -2.3191
0.876445 -21.351 -2.2991
3.40344 -18.6836 -3.3611
3.23544 -18.372 -3.3991
2.85944 -19.1303 -3.7491
2.59644 -18.9005 -3.8391
2.42944 -18.6683 -4.0541
3.21844 -17.987 -3.5361
2.30144 -19.6683 -3.9351
1.94344 -19.5281 -4.0561
1.61844 -19.4358 -4.3271
4.04644 -19.7887 -0.843099
4.33244 -19.3485 -1.1821
4.45744 -20.3111 -1.1231
4.74044 -19.8867 -1.4491
4.86144 -19.5641 -1.9561
4.44844 -19.0214 -1.7091
4.86644 -20.9141 -1.4321
5.16344 -21.5773 -1.7831
5.46944 -21.1689 -2.1091
5.15844 -20.4969 -1.7541
5.61844 -20.8373 -2.6021
5.29244 -20.1714 -2.2511
5.60444 -20.625 -3.1741
5.41844 -20.5746 -3.7331
5.06444 -19.9559 -3.4071
5.26244 -19.9776 -2.8331
4.61044 -19.3797 -3.1381
4.81944 -19.3823 -2.5501
4.16744 -18.8587 -2.9381
4.39444 -18.8454 -2.3271
2.13344 -21.486 -1.8511
2.54444 -21.2339 -1.3391
2.61944 -21.8882 -2.0921
3.00944 -21.6627 -1.6001
3.50444 -21.2744 -1.2431
3.06144 -20.8127 -0.969099
3.03644 -22.3914 -2.3681
3.32844 -22.9146 -2.6551
3.70444 -22.7523 -2.1931
3.41844 -22.1917 -1.8891
4.19444 -22.4328 -1.8671
3.90944 -21.8319 -1.5441
4.70944 -22.0198 -1.7161
4.42044 -21.3826 -1.3771
4.01644 -20.7988 -1.0691
3.59244 -20.3039 -0.787099
2.32644 -20.4874 -3.9161
2.02844 -20.9391 -3.5821
2.84044 -20.8967 -4.0801
2.54644 -21.3311 -3.7581
2.40244 -21.6737 -3.2601
1.88844 -21.2891 -3.0641
3.30144 -21.378 -4.3181
3.64744 -21.8618 -4.5811
3.33044 -22.2785 -4.2601
2.99844 -21.8044 -4.0001
3.15944 -22.6268 -3.7741
2.84244 -22.1483 -3.5111
3.15344 -22.8558 -3.2111
2.84944 -22.3604 -2.9381
2.42244 -21.8756 -2.6751
1.91944 -21.4879 -2.4571
3.76844 -19.0995 -3.4451
4.23144 -19.5952 -3.6261
3.75944 -19.9634 -3.9731
3.27544 -19.4978 -3.8051
5.05244 -20.7285 -4.1911
4.69344 -20.1463 -3.8821
4.58444 -21.0313 -4.5101
4.22444 -20.4877 -4.2191
4.09044 -21.4276 -4.6521
3.73544 -20.9187 -4.3771
3.27044 -20.419 -4.1381
2.76844 -19.9837 -3.9771
5.23844 -22.2804 -2.1881
5.55544 -21.8922 -2.5251
5.16244 -22.9674 -2.6051
5.48644 -22.6056 -2.9561
5.67144 -22.2666 -3.4451
5.72244 -21.5562 -3.0151
5.00644 -23.5819 -2.9891
4.84044 -24.0678 -3.2991
5.17344 -23.7575 -3.6821
5.33544 -23.2478 -3.3571
5.38744 -23.4153 -4.1691
5.53644 -22.9068 -3.8451
5.45644 -23.0959 -4.6761
5.35744 -22.8537 -5.1211
5.46844 -22.4122 -4.8391
5.58744 -22.611 -4.3671
5.55744 -21.8522 -4.4881
5.70044 -21.9992 -3.9841
5.56144 -21.2232 -4.1061
5.72844 -21.318 -3.5721
3.44344 -23.3767 -2.9251
3.80244 -23.2758 -2.4981
3.43444 -23.7704 -3.1681
3.77044 -23.743 -2.7841
4.22444 -23.5745 -2.5451
4.27744 -23.0246 -2.2101
3.35544 -24.0883 -3.3731
3.25944 -24.323 -3.5291
3.54944 -24.4317 -3.2291
3.66644 -24.1347 -3.0341
3.95644 -24.4172 -3.0831
4.09544 -24.0496 -2.8451
4.41044 -24.2918 -3.1031
4.56744 -23.8573 -2.8241
4.71444 -23.3031 -2.4761
4.78444 -22.6753 -2.0951
3.81744 -22.278 -4.8241
3.49244 -22.6732 -4.4911
3.86144 -22.6245 -5.0371
3.53244 -22.9914 -4.6871
3.33744 -23.3406 -4.2031
3.30844 -23.0229 -4.0061
3.82944 -22.8986 -5.2141
3.77044 -23.098 -5.3471
3.43844 -23.4102 -4.9651
3.49844 -23.2361 -4.8471
3.22744 -23.756 -4.4791
3.29344 -23.5837 -4.3621
3.16044 -24.079 -3.9731
3.23844 -23.8862 -3.8431
3.29744 -23.6183 -3.6691
3.28544 -23.275 -3.4561
5.21144 -21.3172 -4.5301
5.22744 -21.8745 -4.8691
4.78444 -22.0328 -5.1031
4.75244 -21.5546 -4.8121
5.06744 -22.7432 -5.4211
5.15944 -22.3625 -5.1761
4.65744 -22.7541 -5.5651
4.73444 -22.4409 -5.3621
4.20144 -22.8759 -5.5441
4.26644 -22.6266 -5.3801
4.30444 -22.2938 -5.1671
4.26244 -21.89 -4.9201
4.73644 -24.3688 -3.4921
5.07144 -24.0733 -3.8841
4.66544 -24.5077 -3.6241
4.99044 -24.2297 -4.0091
5.20944 -23.8979 -4.4791
5.29344 -23.7305 -4.3701
4.59744 -24.5074 -3.7541
4.89244 -24.2607 -4.1031
5.08944 -23.9632 -4.5271
5.09844 -23.408 -5.3161
5.16644 -23.6618 -4.9541
5.21644 -23.292 -5.3631
5.29244 -23.5668 -4.9571
5.28844 -23.127 -5.2971
5.37344 -23.3963 -4.8691
5.00944 -22.9787 -5.5731
4.95244 -23.1289 -5.6181
4.57144 -23.0771 -5.7191
4.61044 -22.9475 -5.6911
4.86444 -23.2536 -5.5431
4.52444 -23.1991 -5.6311
3.77044 -23.3924 -5.3691
4.13944 -23.2453 -5.5731
3.73044 -23.3053 -5.4421
4.14144 -23.1361 -5.6621
3.73444 -23.2203 -5.4291
4.16144 -23.0293 -5.6451
3.40144 -23.5167 -5.0371
3.40844 -23.584 -5.0571
3.19744 -23.9169 -4.5871
3.18644 -23.8613 -4.5511
3.47844 -23.6407 -5.0211
3.28644 -23.94 -4.5981
3.28844 -24.4927 -3.8071
3.21644 -24.2403 -4.1701
3.20144 -24.5232 -3.7031
3.12144 -24.2483 -4.1101
3.20044 -24.4673 -3.6251
3.11144 -24.1971 -4.0531
3.47644 -24.6147 -3.3491
3.46144 -24.6862 -3.4481
3.83444 -24.7377 -3.3471
3.86944 -24.6443 -3.2301
3.51844 -24.6485 -3.5811
3.85144 -24.7041 -3.4941
4.23144 -24.6561 -3.5511
4.25744 -24.6776 -3.4051
4.31244 -24.5607 -3.2761
3 0 1 2
3 0 2 3
3 2 4 5
3 2 5 3
3 5 6 7
3 5 7 3
3 7 8 0
3 7 0 3
3 9 10 11
3 9 11 12
3 11 13 14
3 11 14 12
3 14 6 5
3 14 5 12
3 5 4 9
3 5 9 12
3 15 16 17
3 15 17 18
3 17 19 20
3 17 20 18
3 20 6 14
3 20 14 18
3 14 13 15
3 14 15 18
3 21 22 23
3 21 23 24
3 23 8 7
3 23 7 24
3 7 6 20
3 7 20 24
3 20 19 21
3 20 21 24
3 25 26 27
3 25 27 28
3 27 29 30
3 27 30 28
3 30 31 32
3 30 32 28
3 32 33 25
3 32 25 28
3 34 35 36
3 34 36 37
3 36 38 39
3 36 39 37
3 39 31 30
3 39 30 37
3 30 29 34
3 30 34 37
3 40 41 42
3 40 42 43
3 42 44 45
3 42 45 43
3 45 46 47
3 45 47 43
3 47 40 43
3 48 26 25
3 48 25 49
3 25 33 50
3 25 50 49
3 50 46 45
3 50 45 49
3 45 44 48
3 45 48 49
3 51 52 53
3 51 53 54
3 53 55 56
3 53 56 54
3 57 41 40
3 57 40 58
3 56 55 57
3 56 57 58
3 36 35 59
3 36 59 60
3 59 61 62
3 59 62 60
3 62 63 64
3 62 64 60
3 64 38 36
3 64 36 60
3 65 52 51
3 65 51 66
3 51 67 66
3 67 63 62
3 67 62 66
3 62 61 65
3 62 65 66
3 27 26 68
3 27 68 69
3 68 70 71
3 68 71 69
3 71 72 73
3 71 73 69
3 73 29 27
3 73 27 69
3 74 75 76
3 74 76 77
3 76 78 79
3 76 79 77
3 79 72 71
3 79 71 77
3 71 70 74
3 71 74 77
3 80 81 82
3 80 82 83
3 82 84 85
3 82 85 83
3 85 72 79
3 85 79 83
3 79 78 80
3 79 80 83
3 86 35 34
3 86 34 87
3 34 29 73
3 34 73 87
3 73 72 85
3 73 85 87
3 85 84 86
3 85 86 87
3 42 41 88
3 42 88 89
3 88 90 91
3 88 91 89
3 91 92 93
3 91 93 89
3 93 44 42
3 93 42 89
3 94 95 96
3 94 96 97
3 96 98 99
3 96 99 97
3 99 92 91
3 99 91 97
3 91 90 94
3 91 94 97
3 100 75 74
3 100 74 101
3 74 70 102
3 74 102 101
3 102 92 99
3 102 99 101
3 99 98 100
3 99 100 101
3 68 26 48
3 68 48 103
3 48 44 93
3 48 93 103
3 93 92 102
3 93 102 103
3 102 70 68
3 102 68 103
3 53 52 104
3 53 104 105
3 104 106 107
3 104 107 105
3 107 108 109
3 107 109 105
3 109 55 53
3 109 53 105
3 110 111 112
3 110 112 113
3 112 114 115
3 112 115 113
3 115 108 107
3 115 107 113
3 107 106 110
3 107 110 113
3 116 95 94
3 116 94 117
3 94 90 118
3 94 118 117
3 118 108 115
3 118 115 117
3 115 114 116
3 115 116 117
3 88 41 57
3 88 57 119
3 57 55 109
3 57 109 119
3 109 108 118
3 109 118 119
3 118 90 88
3 118 88 119
3 59 35 86
3 59 86 120
3 86 84 121
3 86 121 120
3 121 122 123
3 121 123 120
3 123 61 59
3 123 59 120
3 82 81 124
3 82 124 125
3 124 126 127
3 124 127 125
3 127 122 121
3 127 121 125
3 121 84 82
3 121 82 125
3 128 111 110
3 128 110 129
3 110 106 130
3 110 130 129
3 130 122 127
3 130 127 129
3 127 126 128
3 127 128 129
3 104 52 65
3 104 65 131
3 65 61 123
3 65 123 131
3 123 122 130
3 123 130 131
3 130 106 104
3 130 104 131
3 76 75 132
3 76 132 133
3 132 134 135
3 132 135 133
3 135 136 137
3 135 137 133
3 137 78 76
3 137 76 133
3 138 139 140
3 138 140 141
3 140 142 143
3 140 143 141
3 143 136 135
3 143 135 141
3 135 134 138
3 135 138 141
3 144 145 146
3 144 146 147
3 146 148 149
3 146 149 147
3 149 136 143
3 149 143 147
3 143 142 144
3 143 144 147
3 150 81 80
3 150 80 151
3 80 78 137
3 80 137 151
3 137 136 149
3 137 149 151
3 149 148 150
3 149 150 151
3 96 95 152
3 96 152 153
3 152 154 155
3 152 155 153
3 155 156 157
3 155 157 153
3 157 98 96
3 157 96 153
3 158 159 160
3 158 160 161
3 160 162 163
3 160 163 161
3 163 156 155
3 163 155 161
3 155 154 158
3 155 158 161
3 164 139 138
3 164 138 165
3 138 134 166
3 138 166 165
3 166 156 163
3 166 163 165
3 163 162 164
3 163 164 165
3 132 75 100
3 132 100 167
3 100 98 157
3 100 157 167
3 157 156 166
3 157 166 167
3 166 134 132
3 166 132 167
3 112 111 168
3 112 168 169
3 168 170 171
3 168 171 169
3 171 172 173
3 171 173 169
3 173 114 112
3 173 112 169
3 174 175 176
3 174 176 177
3 176 178 179
3 176 179 177
3 179 172 171
3 179 171 177
3 171 170 174
3 171 174 177
3 180 159 158
3 180 158 181
3 158 154 182
3 158 182 181
3 182 172 179
3 182 179 181
3 179 178 180
3 179 180 181
3 152 95 116
3 152 116 183
3 116 114 173
3 116 173 183
3 173 172 182
3 173 182 183
3 182 154 152
3 182 152 183
3 124 81 150
3 124 150 184
3 150 148 185
3 150 185 184
3 185 186 187
3 185 187 184
3 187 126 124
3 187 124 184
3 146 145 188
3 146 188 189
3 188 190 191
3 188 191 189
3 191 186 185
3 191 185 189
3 185 148 146
3 185 146 189
3 192 175 174
3 192 174 193
3 174 170 194
3 174 194 193
3 194 186 191
3 194 191 193
3 191 190 192
3 191 192 193
3 168 111 128
3 168 128 195
3 128 126 187
3 128 187 195
3 187 186 194
3 187 194 195
3 194 170 168
3 194 168 195
3 140 139 196
3 140 196 197
3 196 198 199
3 196 199 197
3 199 200 201
3 199 201 197
3 201 142 140
3 201 140 197
3 202 1 0
3 202 0 203
3 0 8 204
3 0 204 203
3 204 200 199
3 204 199 203
3 199 198 202
3 199 202 203
3 23 22 205
3 23 205 206
3 205 207 208
3 205 208 206
3 208 200 204
3 208 204 206
3 204 8 23
3 204 23 206
3 209 145 144
3 209 144 210
3 144 142 201
3 144 201 210
3 201 200 208
3 201 208 210
3 208 207 209
3 208 209 210
3 188 145 209
3 188 209 211
3 209 207 212
3 209 212 211
3 212 213 214
3 212 214 211
3 214 190 188
3 214 188 211
3 205 22 21
3 205 21 215
3 21 19 216
3 21 216 215
3 216 213 212
3 216 212 215
3 212 207 205
3 212 205 215
3 17 16 217
3 17 217 218
3 217 219 220
3 217 220 218
3 220 213 216
3 220 216 218
3 216 19 17
3 216 17 218
3 221 175 192
3 221 192 222
3 192 190 214
3 192 214 222
3 214 213 220
3 214 220 222
3 220 219 221
3 220 221 222
3 176 175 221
3 176 221 223
3 221 219 224
3 221 224 223
3 224 225 226
3 224 226 223
3 226 178 176
3 226 176 223
3 217 16 15
3 217 15 227
3 15 13 228
3 15 228 227
3 228 225 224
3 228 224 227
3 224 219 217
3 224 217 227
3 11 10 229
3 11 229 230
3 229 231 232
3 229 232 230
3 232 225 228
3 232 228 230
3 228 13 11
3 228 11 230
3 233 159 180
3 233 180 234
3 180 178 226
3 180 226 234
3 226 225 232
3 226 232 234
3 232 231 233
3 232 233 234
3 160 159 233
3 160 233 235
3 233 231 236
3 233 236 235
3 236 237 238
3 236 238 235
3 238 162 160
3 238 160 235
3 229 10 9
3 229 9 239
3 9 4 240
3 9 240 239
3 240 237 236
3 240 236 239
3 236 231 229
3 236 229 239
3 2 1 202
3 2 202 241
3 202 198 242
3 202 242 241
3 242 237 240
3 242 240 241
3 240 4 2
3 240 2 241
3 196 139 164
3 196 164 243
3 164 162 238
3 164 238 243
3 238 237 242
3 238 242 243
3 242 198 196
3 242 196 243
