OFF
586 1146 0
-9.14479 7.18804 7.70387
-9.08519 7.32614 7.73387
-9.36299 7.34064 7.94687
-9.42349 7.20324 7.91587
-9.59869 7.41994 7.96587
-9.65959 7.28284 7.93387
-9.69889 7.16454 7.86287
-9.46889 7.08954 7.84587
-9.19719 7.07624 7.64187
-9.76209 7.54404 7.80687
-9.82269 7.69314 7.48787
-9.88229 7.55504 7.45887
-9.82269 7.40674 7.77587
-9.91179 7.43044 7.40587
-9.85579 7.28574 7.71087
-9.88039 7.33504 7.30787
-9.80529 7.28174 7.19087
-9.75669 7.17164 7.34387
-9.83299 7.19994 7.58087
-9.62469 7.06484 7.45387
-9.69399 7.08644 7.71587
-9.42929 7.01394 7.44487
-9.25219 7.01704 7.35887
-9.23409 7.01924 7.51487
-9.48309 7.02554 7.69787
0.552512 6.28084 -0.673132
0.527212 6.60614 -0.651132
0.430712 6.59814 -0.652132
0.452912 6.27764 -0.674132
0.340012 6.58974 -0.666132
0.358712 6.27424 -0.687132
0.367612 6.10784 -0.696132
0.463812 6.10874 -0.683132
0.565212 6.10954 -0.683132
0.262512 6.58084 -0.706132
0.205612 6.57124 -0.785132
0.215112 6.26684 -0.805132
0.277012 6.27074 -0.726132
0.219312 6.10604 -0.814132
0.283812 6.10694 -0.736132
0.219312 6.04244 -0.816132
0.905012 6.04244 -1.39513
0.901912 6.10814 -1.39013
0.937512 6.10914 -1.25913
0.896712 6.27524 -1.38013
0.887712 6.59214 -1.36313
0.914112 6.60254 -1.23113
0.929212 6.27934 -1.24913
0.915812 6.61244 -1.07213
0.937212 6.28334 -1.09213
0.948712 6.11014 -1.10213
0.894412 6.62044 -0.914132
0.851512 6.62504 -0.782132
0.882212 6.28844 -0.804132
0.921312 6.28654 -0.935132
0.898312 6.11134 -0.814132
0.935512 6.11094 -0.945132
0.219312 6.04244 -1.39513
0.222912 6.10274 -1.39013
0.288412 6.10274 -1.46913
0.284912 6.04244 -1.47413
0.372712 6.10324 -1.50813
0.369812 6.04244 -1.51413
0.229612 6.25374 -1.38213
0.241812 6.53834 -1.36613
0.308612 6.53904 -1.44513
0.295512 6.25394 -1.46013
0.391012 6.54344 -1.48413
0.379112 6.25574 -1.49913
0.483412 6.55034 -1.49713
0.579912 6.55834 -1.49613
0.573612 6.26174 -1.51213
0.474012 6.25854 -1.51213
0.570512 6.10474 -1.52113
0.469112 6.10394 -1.52113
0.467012 6.04244 -1.52713
0.569512 6.04244 -1.52713
0.176712 6.56064 -0.917132
0.180112 6.26264 -0.936132
0.174212 6.55064 -1.07613
0.171312 6.25864 -1.09413
0.169112 6.10394 -1.10213
0.181112 6.10494 -0.945132
0.196412 6.54274 -1.23413
0.188012 6.25544 -1.25113
0.183112 6.10314 -1.26013
0.166712 6.04244 -1.10513
0.179912 6.04244 -1.26313
0.179912 6.04244 -0.947132
-0.194588 8.90434 -0.392132
-0.127088 8.95244 -0.389132
-0.620888 9.30444 -0.269132
-0.678988 9.24704 -0.273132
-1.28099 9.48134 -0.0601324
-1.32999 9.41604 -0.0651324
-1.37909 9.35384 -0.0811324
-0.734088 9.19094 -0.289132
-0.256588 8.85624 -0.409132
-2.10289 9.50104 0.299868
-3.08229 9.38134 0.873868
-3.11689 9.30504 0.867868
-2.14379 9.42944 0.293868
-3.15769 9.23554 0.853868
-2.18809 9.36284 0.278868
-3.21019 9.18084 0.823868
-3.27999 9.14894 0.769868
-2.29779 9.27074 0.181868
-2.23849 9.30784 0.244868
-1.47499 9.25654 -0.189132
-1.42769 9.29924 -0.118132
-0.819188 9.09184 -0.406132
-0.337888 8.76214 -0.531132
-0.306588 8.80854 -0.451132
-0.782188 9.13844 -0.329132
-0.430088 9.47634 -0.378132
0.114112 9.08364 -0.510132
0.158312 9.07484 -0.640132
-0.408788 9.48074 -0.500132
0.190312 9.04934 -0.797132
-0.401388 9.46804 -0.648132
-1.18179 9.72214 -0.400132
-1.15579 9.71604 -0.266132
-1.14689 9.69394 -0.156132
0.206212 9.01234 -0.954132
0.202012 8.96904 -1.08613
-0.428288 9.40484 -0.921132
-0.407788 9.44174 -0.796132
-1.26349 9.68764 -0.649132
-1.21939 9.71254 -0.535132
-2.26599 9.81494 -0.213132
-3.39789 9.78404 0.447868
-3.30599 9.78304 0.532868
-2.19629 9.82594 -0.112132
-3.20659 9.75824 0.632868
-2.12529 9.81694 0.00686762
-3.11539 9.71504 0.730868
-3.04839 9.65934 0.811868
-2.02389 9.75044 0.219868
-2.06419 9.79084 0.123868
-0.194788 8.66264 -1.18413
-0.249988 8.64754 -1.10813
-0.817388 9.02034 -0.948132
-0.779888 9.04744 -1.01913
-1.59159 9.25024 -0.682132
-1.57609 9.29124 -0.746132
-1.54339 9.34494 -0.776132
-0.731488 9.09014 -1.05313
-0.132788 8.69464 -1.22113
-2.53989 9.33524 -0.250132
-3.62949 9.27364 0.405868
-3.65489 9.33954 0.359868
-2.54659 9.38994 -0.306132
-3.65009 9.41124 0.340868
-2.52919 9.45374 -0.331132
-3.62519 9.48634 0.338868
-3.59059 9.56264 0.344868
-2.45499 9.59484 -0.329132
-2.49589 9.52324 -0.335132
-1.45049 9.47214 -0.777132
-1.49949 9.40684 -0.782132
-0.618188 9.20044 -1.05713
0.000812214 8.78564 -1.22813
-0.0666878 8.73764 -1.23113
-0.676388 9.14304 -1.06113
-3.37279 9.14804 0.684868
-2.36849 9.25784 0.0818676
-3.47249 9.17224 0.584868
-2.43979 9.26624 -0.0371324
-1.55839 9.21984 -0.438132
-1.52029 9.22994 -0.303132
-3.56339 9.21604 0.485868
-2.50059 9.29304 -0.154132
-1.58389 9.22654 -0.572132
-0.295988 8.65514 -0.978132
-0.840088 9.01454 -0.826132
-0.328588 8.68024 -0.821132
-0.848088 9.02664 -0.679132
-0.343888 8.71764 -0.663132
-0.841088 9.05354 -0.530132
-4.21499 9.14004 1.72587
-4.24589 9.06104 1.71887
-5.37339 8.83264 2.70687
-5.40269 8.75124 2.69987
-5.44069 8.67804 2.68887
-4.28449 8.98964 1.70587
-6.42999 8.51464 3.66987
-7.25709 8.24174 4.46487
-7.28879 8.15094 4.45787
-6.45959 8.42984 3.66287
-7.33049 8.06914 4.44787
-6.49859 8.35354 3.65187
-7.39159 8.00664 4.43387
-7.48139 7.97404 4.41387
-6.63979 8.26574 3.60887
-6.55569 8.29554 3.63587
-5.57579 8.59384 2.63387
-5.49559 8.62234 2.66787
-4.41429 8.90584 1.63687
-4.33819 8.93494 1.68087
-4.20809 9.43464 1.68087
-4.29089 9.49884 1.61787
-4.39999 9.55134 1.53887
-5.59099 9.26414 2.57387
-5.47169 9.20714 2.63187
-5.37989 9.13844 2.67987
-4.62139 9.59244 1.39087
-4.51639 9.58494 1.45887
-5.83019 9.31174 2.46087
-5.71729 9.30164 2.51287
-6.91789 9.01354 3.50087
-7.77819 8.76924 4.35487
-7.65099 8.75914 4.38287
-6.79889 9.00304 3.53887
-7.50829 8.71884 4.41387
-6.66529 8.96404 3.58287
-7.37319 8.65684 4.44287
-7.26879 8.58164 4.46487
-6.44109 8.83334 3.65787
-6.53879 8.90474 3.62387
-4.82759 9.06364 1.34687
-4.86419 9.13584 1.31087
-6.02609 8.76714 2.41487
-6.06869 8.84294 2.38887
-6.07519 8.92214 2.37987
-4.86689 9.21204 1.29687
-7.11649 8.44584 3.45187
-7.99079 8.16174 4.30287
-8.03989 8.24544 4.29287
-7.16249 8.52474 3.43587
-8.04829 8.33354 4.29187
-7.17049 8.60734 3.43087
-8.02979 8.42384 4.29587
-7.99799 8.51464 4.30387
-7.12349 8.77674 3.44087
-7.15309 8.69194 3.43387
-6.02839 9.08464 2.38787
-6.05759 9.00334 2.38087
-4.81619 9.36964 1.30287
-4.84699 9.29064 1.29687
-7.60939 7.98184 4.38587
-6.75949 8.27404 3.57087
-7.75239 8.02134 4.35487
-6.89339 8.31234 3.52687
-5.81589 8.63874 2.52087
-5.68939 8.60194 2.58087
-7.88719 8.08414 4.32487
-7.01959 8.37234 3.48487
-5.93499 8.69644 2.46187
-4.74549 8.99744 1.40987
-4.63679 8.94424 1.48887
-4.52009 8.91134 1.56887
-7.72719 8.06914 4.94587
-7.76249 7.96844 4.93687
-7.95289 7.96104 5.23587
-7.99249 7.84854 5.22587
-8.04439 7.74704 5.21487
-7.80869 7.87764 4.92687
-8.04659 7.88124 5.46087
-8.12069 7.79364 5.74487
-8.16939 7.66034 5.73087
-8.09079 7.75714 5.44887
-8.23239 7.54044 5.71387
-8.14849 7.64534 5.43587
-8.32319 7.44944 5.69387
-8.45519 7.40314 5.66787
-8.35509 7.51564 5.39887
-8.23239 7.56004 5.41987
-8.23129 7.62854 5.18387
-8.12009 7.66944 5.20087
-7.97599 7.77154 4.89687
-7.87639 7.80814 4.91387
-7.74019 8.44554 4.95387
-7.85579 8.52824 4.93687
-8.00559 8.59624 4.91387
-8.26229 8.54994 5.21287
-8.09529 8.47404 5.23387
-7.96639 8.38154 5.24987
-8.30469 8.65044 4.86687
-8.16369 8.64004 4.88987
-8.59609 8.61064 5.16587
-8.43879 8.59904 5.18887
-8.75089 8.60334 5.38287
-8.86799 8.58174 5.64587
-8.68259 8.56454 5.67787
-8.57779 8.58934 5.40887
-8.47519 8.50234 5.71287
-8.38379 8.53404 5.43587
-8.27949 8.40824 5.74387
-8.12909 8.29524 5.76587
-8.05899 8.34594 5.47787
-8.20029 8.44904 5.46087
-8.54049 7.97644 4.80987
-8.59489 8.06894 4.80287
-8.86089 7.85774 5.09987
-8.92139 7.96104 5.09487
-8.93149 8.06994 5.09787
-8.60419 8.16644 4.80387
-9.04709 7.77294 5.30387
-9.19409 7.68964 5.54787
-9.26359 7.81414 5.54087
-9.11309 7.88754 5.29787
-9.27359 7.94414 5.54487
-9.12359 8.00794 5.30187
-9.24419 8.07714 5.55587
-9.19549 8.21044 5.57087
-9.05309 8.25554 5.32287
-9.09729 8.13144 5.31087
-8.86869 8.29434 5.11487
-8.90829 8.18184 5.10487
-8.54839 8.36724 4.81887
-8.58359 8.26654 4.80987
-8.64179 7.41704 5.63487
-8.52939 7.52644 5.37287
-8.84959 7.47804 5.60087
-8.72379 7.58064 5.34487
-8.56639 7.68544 5.13687
-8.38959 7.63744 5.16087
-9.04489 7.57334 5.56987
-8.90679 7.66674 5.32087
-8.73299 7.76244 5.11487
-8.42579 7.89124 4.82587
-8.27629 7.82234 4.84887
-8.11779 7.77944 4.87387
-8.28769 7.66214 6.21387
-8.34019 7.52404 6.19587
-8.52149 7.51904 6.76787
-8.57709 7.37934 6.74587
-8.64419 7.25634 6.71587
-8.40719 7.40024 6.17487
-8.79609 7.39624 7.30687
-8.85399 7.25704 7.28087
-8.91489 7.14004 7.23487
-9.08779 7.04354 7.07487
-8.98099 7.06994 7.14987
-8.86449 7.12894 6.62487
-8.73369 7.16884 6.67187
-8.63929 7.26154 6.11687
-8.50239 7.30724 6.14887
-8.28809 8.18564 6.23887
-8.44149 8.30664 6.20987
-8.64189 8.40874 6.17087
-8.84749 8.27494 6.70787
-8.65009 8.17234 6.74587
-8.49889 8.05204 6.76987
-9.04589 8.49954 6.08487
-8.85479 8.47784 6.12587
-9.23389 8.37684 6.58887
-9.05099 8.34934 6.64687
-9.38129 8.23384 7.04887
-9.45629 8.11344 7.35287
-9.38389 8.05064 7.52087
-9.22759 8.19934 7.13487
-9.24009 7.96714 7.63887
-9.05599 8.12244 7.22287
-9.05639 7.89294 7.62187
-8.90319 7.84884 7.52087
-8.72459 7.92924 7.23287
-8.86929 8.03384 7.23387
-9.39719 7.57544 5.96287
-9.46689 7.70674 5.95287
-9.59949 7.45374 6.44387
-9.66899 7.58304 6.44087
-9.67959 7.71564 6.45787
-9.47499 7.84254 5.95787
-9.74449 7.34814 6.88987
-9.81629 7.46094 6.90987
-9.83909 7.57604 6.96487
-9.74999 7.84724 7.02687
-9.80789 7.70794 6.99987
-9.59029 7.99334 6.50087
-9.64579 7.85374 6.47887
-9.38999 8.11874 5.98987
-9.44249 7.98064 5.97187
-9.27089 7.05744 7.05687
-9.47119 7.11594 7.03787
-9.26679 7.21764 6.53987
-9.05579 7.14864 6.58387
-9.62929 7.22294 6.95787
-9.45679 7.32564 6.48487
-9.24509 7.45094 5.99087
-9.04509 7.34764 6.02987
-8.83169 7.27974 6.07487
0.788812 6.62474 -0.703132
0.820612 6.28824 -0.725132
0.710812 6.62064 -0.664132
0.741612 6.28664 -0.686132
0.757412 6.11094 -0.696132
0.837012 6.11134 -0.736132
0.622112 6.61404 -0.651132
0.650512 6.28404 -0.673132
0.665012 6.11024 -0.683132
-0.0606878 8.99964 -0.386132
-0.563788 9.36094 -0.265132
0.00281221 9.04074 -0.396132
-0.510788 9.41164 -0.273132
-1.19079 9.60504 -0.0621324
-1.23279 9.54564 -0.0551324
0.0616122 9.07054 -0.433132
-0.465188 9.45164 -0.307132
-1.16039 9.65574 -0.0921324
-3.02149 9.59674 0.857868
-2.01539 9.69874 0.275868
-3.02479 9.52854 0.877868
-2.03089 9.63824 0.300868
-3.04829 9.45624 0.879868
-2.06259 9.57154 0.304868
-4.18479 9.21764 1.73187
-4.16609 9.29324 1.73187
-5.32819 8.99064 2.71487
-5.34469 8.91264 2.71387
-4.17019 9.36574 1.71687
-5.33599 9.06614 2.70587
-7.21839 8.50164 4.47587
-6.39389 8.75804 3.67487
-7.20849 8.41784 4.47687
-6.38459 8.67934 3.67987
-7.22589 8.33094 4.47287
-6.40079 8.59804 3.67687
-7.69259 8.16814 4.95387
-7.67329 8.26454 4.95987
-7.89229 8.17924 5.25287
-7.91399 8.07164 5.24587
-7.68429 8.35734 4.96087
-7.90429 8.28294 5.25487
-8.05749 8.17634 5.77387
-7.99109 8.23664 5.48387
-8.04519 8.05254 5.76987
-7.97849 8.12204 5.48087
-8.07279 7.92464 5.75987
-8.00309 8.00314 5.47287
-8.23609 7.79794 6.23187
-8.20549 7.93074 6.24487
-8.43169 7.79134 6.80087
-8.46689 7.65634 6.78987
-8.21619 8.06024 6.24887
-8.43429 7.92414 6.79187
-8.93039 7.73504 7.65887
-8.67889 7.80414 7.28287
-8.97359 7.59744 7.75087
-8.69589 7.66874 7.33387
-9.02669 7.46184 7.76287
-8.73919 7.53314 7.33287
-9.16909 7.75134 7.85387
-9.37269 7.82454 7.87787
-9.46759 7.68904 7.98287
-9.24029 7.61154 7.96187
-9.57669 8.05074 7.45287
-9.51899 7.92584 7.73687
-9.68829 7.95164 7.51487
-9.62719 7.80774 7.82787
-9.76419 7.82884 7.51687
-9.70259 7.67914 7.83787
-9.53889 7.55474 7.99687
-9.30339 7.47564 7.97787
-9.14759 8.34144 5.58487
-9.33839 8.25444 6.00787
-9.53569 8.13064 6.52287
-9.46709 8.25064 6.54287
-9.27339 8.37304 6.02787
-9.08639 8.45634 5.60087
-9.69309 7.98404 7.05187
-9.62009 8.10474 7.06287
-9.51419 8.19514 7.04387
-9.36959 8.33834 6.55987
-8.99789 8.54104 5.62087
-9.18069 8.45974 6.05287
-7.96679 8.60384 4.31187
-8.51379 8.46624 4.82687
-8.82979 8.40494 5.12487
-8.77949 8.50214 5.13587
-8.46879 8.55334 4.83687
-7.92629 8.68224 4.32087
-9.00959 8.37744 5.33387
-8.95359 8.48464 5.34687
-8.87179 8.56414 5.36287
-8.70559 8.57454 5.14887
-7.86669 8.74044 4.33487
-8.40279 8.61814 4.84987
-3.55659 9.63764 0.350868
-4.78589 9.44724 1.30987
-5.99959 9.16464 2.39487
-5.96269 9.23484 2.40587
-4.74849 9.51564 1.32287
-3.51709 9.70424 0.364868
-7.09429 8.86014 3.44787
-7.05639 8.93324 3.45787
-7.00069 8.98734 3.47487
-5.90909 9.28674 2.42687
-3.46619 9.75534 0.394868
-4.69619 9.56674 1.34787
0.0672122 8.83284 -1.22513
-0.561088 9.25694 -1.05313
-1.40229 9.53644 -0.773132
-1.35509 9.59614 -0.757132
-0.508188 9.31084 -1.03713
0.126712 8.87924 -1.20913
-2.41479 9.66534 -0.324132
-2.37199 9.72914 -0.309132
-2.32349 9.78084 -0.275132
-1.30879 9.64764 -0.719132
0.173512 8.92464 -1.16713
-0.462788 9.36074 -0.997132
0.670212 6.10554 -1.52113
0.670212 6.04244 -1.52713
0.762512 6.10634 -1.50813
0.763512 6.04244 -1.51413
0.674812 6.56624 -1.49613
0.671612 6.26484 -1.51213
0.761912 6.57434 -1.48213
0.762112 6.26814 -1.49913
0.834912 6.58284 -1.44213
0.839012 6.27154 -1.45913
0.841712 6.10714 -1.46913
0.843712 6.04244 -1.47413
-0.0385878 8.25294 -0.628132
-0.0415878 8.21154 -0.764132
-0.0195878 8.17414 -0.925132
0.131812 7.59364 -0.998132
0.113912 7.62404 -0.836132
0.122512 7.65654 -0.700132
0.0777122 8.13344 -1.22013
0.0219122 8.14634 -1.08613
0.227712 7.55764 -1.29413
0.171312 7.57004 -1.16013
0.261812 6.99944 -1.34013
0.210212 7.00824 -1.20613
0.178712 7.02404 -1.04613
0.189312 7.06514 -0.751132
0.170612 7.04404 -0.885132
0.330212 7.00074 -1.41913
0.296212 7.56094 -1.37413
0.373412 7.57594 -1.41313
0.410812 7.00964 -1.45913
0.142612 8.14104 -1.29913
0.213912 8.16374 -1.33713
0.365512 8.23364 -1.34613
0.289012 8.19634 -1.34913
0.540512 7.62474 -1.42413
0.456012 7.59854 -1.42513
0.590412 7.03954 -1.47013
0.499112 7.02344 -1.47113
0.680212 7.05534 -1.46913
0.623612 7.65044 -1.42213
0.698112 7.67664 -1.40713
0.761712 7.07144 -1.45513
0.440612 8.27024 -1.34413
0.507612 8.30684 -1.32813
0.589412 8.38264 -1.20413
0.559512 8.34414 -1.28613
0.793312 7.73304 -1.28413
0.757112 7.70384 -1.36513
0.873012 7.10714 -1.33313
0.828212 7.08854 -1.41413
0.800512 7.17284 -0.745132
0.849812 7.16374 -0.878132
0.880512 7.14774 -1.03913
0.781212 7.79504 -0.986132
0.742412 7.81884 -0.824132
0.688112 7.83194 -0.690132
0.889312 7.12784 -1.19913
0.799812 7.76494 -1.14813
0.590412 8.42324 -1.06913
0.567812 8.46024 -0.907132
0.473112 8.50214 -0.612132
0.527012 8.48834 -0.746132
0.485012 7.13514 -0.614132
0.574812 7.15094 -0.613132
0.659612 7.16414 -0.626132
0.549912 7.81594 -0.570132
0.470612 7.79434 -0.558132
0.387512 7.76864 -0.560132
0.736012 7.17224 -0.665132
0.623212 7.82974 -0.610132
0.411412 8.49614 -0.533132
0.343712 8.47524 -0.495132
0.196312 8.40744 -0.486132
0.271412 8.44404 -0.483132
0.393712 7.11904 -0.615132
0.303012 7.74244 -0.561132
0.225212 7.71534 -0.576132
0.308712 7.10224 -0.630132
0.119812 8.37014 -0.488132
0.0499122 8.33214 -0.504132
-0.00548779 8.29314 -0.546132
0.162312 7.68684 -0.618132
0.237912 7.08444 -0.670132
3 0 1 2
3 0 2 3
3 2 4 5
3 2 5 3
3 5 6 7
3 5 7 3
3 7 8 0
3 7 0 3
3 9 10 11
3 9 11 12
3 11 13 14
3 11 14 12
3 14 6 5
3 14 5 12
3 5 4 9
3 5 9 12
3 15 16 17
3 15 17 18
3 17 19 20
3 17 20 18
3 20 6 14
3 20 14 18
3 14 13 15
3 14 15 18
3 21 22 23
3 21 23 24
3 23 8 7
3 23 7 24
3 7 6 20
3 7 20 24
3 20 19 21
3 20 21 24
3 25 26 27
3 25 27 28
3 27 29 30
3 27 30 28
3 30 31 32
3 30 32 28
3 32 33 25
3 32 25 28
3 34 35 36
3 34 36 37
3 36 38 39
3 36 39 37
3 39 31 30
3 39 30 37
3 30 29 34
3 30 34 37
3 39 38 40
3 41 42 43
3 44 45 46
3 44 46 47
3 46 48 49
3 46 49 47
3 49 50 43
3 49 43 47
3 43 42 44
3 43 44 47
3 51 52 53
3 51 53 54
3 53 55 56
3 53 56 54
3 56 50 49
3 56 49 54
3 49 48 51
3 49 51 54
3 57 58 59
3 57 59 60
3 59 61 62
3 59 62 60
3 63 64 65
3 63 65 66
3 65 67 68
3 65 68 66
3 68 61 59
3 68 59 66
3 59 58 63
3 59 63 66
3 69 70 71
3 69 71 72
3 71 73 74
3 71 74 72
3 74 61 68
3 74 68 72
3 68 67 69
3 68 69 72
3 62 61 74
3 62 74 75
3 74 73 76
3 74 76 75
3 36 35 77
3 36 77 78
3 77 79 80
3 77 80 78
3 80 81 82
3 80 82 78
3 82 38 36
3 82 36 78
3 83 64 63
3 83 63 84
3 63 58 85
3 63 85 84
3 85 81 80
3 85 80 84
3 80 79 83
3 80 83 84
3 86 81 85
3 86 85 87
3 85 58 57
3 85 57 87
3 40 38 82
3 40 82 88
3 82 81 86
3 82 86 88
3 89 90 91
3 89 91 92
3 91 93 94
3 91 94 92
3 94 95 96
3 94 96 92
3 96 97 89
3 96 89 92
3 98 99 100
3 98 100 101
3 100 102 103
3 100 103 101
3 103 95 94
3 103 94 101
3 94 93 98
3 94 98 101
3 104 105 106
3 104 106 107
3 106 108 109
3 106 109 107
3 109 95 103
3 109 103 107
3 103 102 104
3 103 104 107
3 110 111 112
3 110 112 113
3 112 97 96
3 112 96 113
3 96 95 109
3 96 109 113
3 109 108 110
3 109 110 113
3 114 115 116
3 114 116 117
3 116 118 119
3 116 119 117
3 119 120 121
3 119 121 117
3 121 122 114
3 121 114 117
3 123 124 125
3 123 125 126
3 125 127 128
3 125 128 126
3 128 120 119
3 128 119 126
3 119 118 123
3 119 123 126
3 129 130 131
3 129 131 132
3 131 133 134
3 131 134 132
3 134 120 128
3 134 128 132
3 128 127 129
3 128 129 132
3 135 136 137
3 135 137 138
3 137 122 121
3 137 121 138
3 121 120 134
3 121 134 138
3 134 133 135
3 134 135 138
3 139 140 141
3 139 141 142
3 141 143 144
3 141 144 142
3 144 145 146
3 144 146 142
3 146 147 139
3 146 139 142
3 148 149 150
3 148 150 151
3 150 152 153
3 150 153 151
3 153 145 144
3 153 144 151
3 144 143 148
3 144 148 151
3 154 155 156
3 154 156 157
3 156 158 159
3 156 159 157
3 159 145 153
3 159 153 157
3 153 152 154
3 153 154 157
3 160 161 162
3 160 162 163
3 162 147 146
3 162 146 163
3 146 145 159
3 146 159 163
3 159 158 160
3 159 160 163
3 106 105 164
3 106 164 165
3 164 166 167
3 164 167 165
3 167 168 169
3 167 169 165
3 169 108 106
3 169 106 165
3 170 149 148
3 170 148 171
3 148 143 172
3 148 172 171
3 172 168 167
3 172 167 171
3 167 166 170
3 167 170 171
3 141 140 173
3 141 173 174
3 173 175 176
3 173 176 174
3 176 168 172
3 176 172 174
3 172 143 141
3 172 141 174
3 177 111 110
3 177 110 178
3 110 108 169
3 110 169 178
3 169 168 176
3 169 176 178
3 176 175 177
3 176 177 178
3 100 99 179
3 100 179 180
3 179 181 182
3 179 182 180
3 182 183 184
3 182 184 180
3 184 102 100
3 184 100 180
3 185 186 187
3 185 187 188
3 187 189 190
3 187 190 188
3 190 183 182
3 190 182 188
3 182 181 185
3 182 185 188
3 191 192 193
3 191 193 194
3 193 195 196
3 193 196 194
3 196 183 190
3 196 190 194
3 190 189 191
3 190 191 194
3 197 105 104
3 197 104 198
3 104 102 184
3 104 184 198
3 184 183 196
3 184 196 198
3 196 195 197
3 196 197 198
3 199 136 135
3 199 135 200
3 135 133 201
3 135 201 200
3 201 202 203
3 201 203 200
3 203 204 199
3 203 199 200
3 131 130 205
3 131 205 206
3 205 207 208
3 205 208 206
3 208 202 201
3 208 201 206
3 201 133 131
3 201 131 206
3 209 210 211
3 209 211 212
3 211 213 214
3 211 214 212
3 214 202 208
3 214 208 212
3 208 207 209
3 208 209 212
3 215 216 217
3 215 217 218
3 217 204 203
3 217 203 218
3 203 202 214
3 203 214 218
3 214 213 215
3 214 215 218
3 150 149 219
3 150 219 220
3 219 221 222
3 219 222 220
3 222 223 224
3 222 224 220
3 224 152 150
3 224 150 220
3 225 226 227
3 225 227 228
3 227 229 230
3 227 230 228
3 230 223 222
3 230 222 228
3 222 221 225
3 222 225 228
3 231 232 233
3 231 233 234
3 233 235 236
3 233 236 234
3 236 223 230
3 236 230 234
3 230 229 231
3 230 231 234
3 237 155 154
3 237 154 238
3 154 152 224
3 154 224 238
3 224 223 236
3 224 236 238
3 236 235 237
3 236 237 238
3 193 192 239
3 193 239 240
3 239 241 242
3 239 242 240
3 242 243 244
3 242 244 240
3 244 195 193
3 244 193 240
3 245 226 225
3 245 225 246
3 225 221 247
3 225 247 246
3 247 243 242
3 247 242 246
3 242 241 245
3 242 245 246
3 219 149 170
3 219 170 248
3 170 166 249
3 170 249 248
3 249 243 247
3 249 247 248
3 247 221 219
3 247 219 248
3 164 105 197
3 164 197 250
3 197 195 244
3 197 244 250
3 244 243 249
3 244 249 250
3 249 166 164
3 249 164 250
3 187 186 251
3 187 251 252
3 251 253 254
3 251 254 252
3 254 255 256
3 254 256 252
3 256 189 187
3 256 187 252
3 257 258 259
3 257 259 260
3 259 261 262
3 259 262 260
3 262 255 254
3 262 254 260
3 254 253 257
3 254 257 260
3 263 264 265
3 263 265 266
3 265 267 268
3 265 268 266
3 268 255 262
3 268 262 266
3 262 261 263
3 262 263 266
3 269 192 191
3 269 191 270
3 191 189 256
3 191 256 270
3 256 255 268
3 256 268 270
3 268 267 269
3 268 269 270
3 271 216 215
3 271 215 272
3 215 213 273
3 215 273 272
3 273 274 275
3 273 275 272
3 275 276 271
3 275 271 272
3 211 210 277
3 211 277 278
3 277 279 280
3 277 280 278
3 280 274 273
3 280 273 278
3 273 213 211
3 273 211 278
3 281 282 283
3 281 283 284
3 283 285 286
3 283 286 284
3 286 274 280
3 286 280 284
3 280 279 281
3 280 281 284
3 287 288 289
3 287 289 290
3 289 276 275
3 289 275 290
3 275 274 286
3 275 286 290
3 286 285 287
3 286 287 290
3 227 226 291
3 227 291 292
3 291 293 294
3 291 294 292
3 294 295 296
3 294 296 292
3 296 229 227
3 296 227 292
3 297 298 299
3 297 299 300
3 299 301 302
3 299 302 300
3 302 295 294
3 302 294 300
3 294 293 297
3 294 297 300
3 303 304 305
3 303 305 306
3 305 307 308
3 305 308 306
3 308 295 302
3 308 302 306
3 302 301 303
3 302 303 306
3 309 232 231
3 309 231 310
3 231 229 296
3 231 296 310
3 296 295 308
3 296 308 310
3 308 307 309
3 308 309 310
3 265 264 311
3 265 311 312
3 311 313 314
3 311 314 312
3 314 315 316
3 314 316 312
3 316 267 265
3 316 265 312
3 317 298 297
3 317 297 318
3 297 293 319
3 297 319 318
3 319 315 314
3 319 314 318
3 314 313 317
3 314 317 318
3 291 226 245
3 291 245 320
3 245 241 321
3 245 321 320
3 321 315 319
3 321 319 320
3 319 293 291
3 319 291 320
3 239 192 269
3 239 269 322
3 269 267 316
3 269 316 322
3 316 315 321
3 316 321 322
3 321 241 239
3 321 239 322
3 259 258 323
3 259 323 324
3 323 325 326
3 323 326 324
3 326 327 328
3 326 328 324
3 328 261 259
3 328 259 324
3 329 1 0
3 329 0 330
3 0 8 331
3 0 331 330
3 331 327 326
3 331 326 330
3 326 325 329
3 326 329 330
3 23 22 332
3 23 332 333
3 332 334 335
3 332 335 333
3 335 327 331
3 335 331 333
3 331 8 23
3 331 23 333
3 336 264 263
3 336 263 337
3 263 261 328
3 263 328 337
3 328 327 335
3 328 335 337
3 335 334 336
3 335 336 337
3 338 288 287
3 338 287 339
3 287 285 340
3 287 340 339
3 340 341 342
3 340 342 339
3 342 343 338
3 342 338 339
3 283 282 344
3 283 344 345
3 344 346 347
3 344 347 345
3 347 341 340
3 347 340 345
3 340 285 283
3 340 283 345
3 348 349 350
3 348 350 351
3 350 352 353
3 350 353 351
3 353 341 347
3 353 347 351
3 347 346 348
3 347 348 351
3 354 355 356
3 354 356 357
3 356 343 342
3 356 342 357
3 342 341 353
3 342 353 357
3 353 352 354
3 353 354 357
3 299 298 358
3 299 358 359
3 358 360 361
3 358 361 359
3 361 362 363
3 361 363 359
3 363 301 299
3 363 299 359
3 364 16 15
3 364 15 365
3 15 13 366
3 15 366 365
3 366 362 361
3 366 361 365
3 361 360 364
3 361 364 365
3 11 10 367
3 11 367 368
3 367 369 370
3 367 370 368
3 370 362 366
3 370 366 368
3 366 13 11
3 366 11 368
3 371 304 303
3 371 303 372
3 303 301 363
3 303 363 372
3 363 362 370
3 363 370 372
3 370 369 371
3 370 371 372
3 332 22 21
3 332 21 373
3 21 19 374
3 21 374 373
3 374 375 376
3 374 376 373
3 376 334 332
3 376 332 373
3 17 16 364
3 17 364 377
3 364 360 378
3 364 378 377
3 378 375 374
3 378 374 377
3 374 19 17
3 374 17 377
3 358 298 317
3 358 317 379
3 317 313 380
3 317 380 379
3 380 375 378
3 380 378 379
3 378 360 358
3 378 358 379
3 311 264 336
3 311 336 381
3 336 334 376
3 336 376 381
3 376 375 380
3 376 380 381
3 380 313 311
3 380 311 381
3 53 52 382
3 53 382 383
3 382 384 385
3 382 385 383
3 385 386 387
3 385 387 383
3 387 55 53
3 387 53 383
3 388 26 25
3 388 25 389
3 25 33 390
3 25 390 389
3 390 386 385
3 390 385 389
3 385 384 388
3 385 388 389
3 91 90 391
3 91 391 392
3 391 393 394
3 391 394 392
3 394 395 396
3 394 396 392
3 396 93 91
3 396 91 392
3 397 115 114
3 397 114 398
3 114 122 399
3 114 399 398
3 399 395 394
3 399 394 398
3 394 393 397
3 394 397 398
3 137 136 400
3 137 400 401
3 400 402 403
3 400 403 401
3 403 395 399
3 403 399 401
3 399 122 137
3 399 137 401
3 404 99 98
3 404 98 405
3 98 93 396
3 98 396 405
3 396 395 403
3 396 403 405
3 403 402 404
3 403 404 405
3 179 99 404
3 179 404 406
3 404 402 407
3 404 407 406
3 407 408 409
3 407 409 406
3 409 181 179
3 409 179 406
3 400 136 199
3 400 199 410
3 199 204 411
3 199 411 410
3 411 408 407
3 411 407 410
3 407 402 400
3 407 400 410
3 217 216 412
3 217 412 413
3 412 414 415
3 412 415 413
3 415 408 411
3 415 411 413
3 411 204 217
3 411 217 413
3 416 186 185
3 416 185 417
3 185 181 409
3 185 409 417
3 409 408 415
3 409 415 417
3 415 414 416
3 415 416 417
3 251 186 416
3 251 416 418
3 416 414 419
3 416 419 418
3 419 420 421
3 419 421 418
3 421 253 251
3 421 251 418
3 412 216 271
3 412 271 422
3 271 276 423
3 271 423 422
3 423 420 419
3 423 419 422
3 419 414 412
3 419 412 422
3 289 288 424
3 289 424 425
3 424 426 427
3 424 427 425
3 427 420 423
3 427 423 425
3 423 276 289
3 423 289 425
3 428 258 257
3 428 257 429
3 257 253 421
3 257 421 429
3 421 420 427
3 421 427 429
3 427 426 428
3 427 428 429
3 323 258 428
3 323 428 430
3 428 426 431
3 428 431 430
3 431 432 433
3 431 433 430
3 433 325 323
3 433 323 430
3 424 288 338
3 424 338 434
3 338 343 435
3 338 435 434
3 435 432 431
3 435 431 434
3 431 426 424
3 431 424 434
3 356 355 436
3 356 436 437
3 436 438 439
3 436 439 437
3 439 432 435
3 439 435 437
3 435 343 356
3 435 356 437
3 440 1 329
3 440 329 441
3 329 325 433
3 329 433 441
3 433 432 439
3 433 439 441
3 439 438 440
3 439 440 441
3 436 355 354
3 436 354 442
3 354 352 443
3 354 443 442
3 443 444 445
3 443 445 442
3 445 438 436
3 445 436 442
3 350 349 446
3 350 446 447
3 446 448 449
3 446 449 447
3 449 444 443
3 449 443 447
3 443 352 350
3 443 350 447
3 450 10 9
3 450 9 451
3 9 4 452
3 9 452 451
3 452 444 449
3 452 449 451
3 449 448 450
3 449 450 451
3 2 1 440
3 2 440 453
3 440 438 445
3 440 445 453
3 445 444 452
3 445 452 453
3 452 4 2
3 452 2 453
3 454 304 371
3 454 371 455
3 371 369 456
3 371 456 455
3 456 457 458
3 456 458 455
3 458 459 454
3 458 454 455
3 367 10 450
3 367 450 460
3 450 448 461
3 450 461 460
3 461 457 456
3 461 456 460
3 456 369 367
3 456 367 460
3 446 349 348
3 446 348 462
3 348 346 463
3 348 463 462
3 463 457 461
3 463 461 462
3 461 448 446
3 461 446 462
3 344 282 464
3 344 464 465
3 464 459 458
3 464 458 465
3 458 457 463
3 458 463 465
3 463 346 344
3 463 344 465
3 466 232 309
3 466 309 467
3 309 307 468
3 309 468 467
3 468 469 470
3 468 470 467
3 470 471 466
3 470 466 467
3 305 304 454
3 305 454 472
3 454 459 473
3 454 473 472
3 473 469 468
3 473 468 472
3 468 307 305
3 468 305 472
3 464 282 281
3 464 281 474
3 281 279 475
3 281 475 474
3 475 469 473
3 475 473 474
3 473 459 464
3 473 464 474
3 277 210 476
3 277 476 477
3 476 471 470
3 476 470 477
3 470 469 475
3 470 475 477
3 475 279 277
3 475 277 477
3 478 155 237
3 478 237 479
3 237 235 480
3 237 480 479
3 480 481 482
3 480 482 479
3 482 483 478
3 482 478 479
3 233 232 466
3 233 466 484
3 466 471 485
3 466 485 484
3 485 481 480
3 485 480 484
3 480 235 233
3 480 233 484
3 476 210 209
3 476 209 486
3 209 207 487
3 209 487 486
3 487 481 485
3 487 485 486
3 485 471 476
3 485 476 486
3 205 130 488
3 205 488 489
3 488 483 482
3 488 482 489
3 482 481 487
3 482 487 489
3 487 207 205
3 487 205 489
3 490 161 160
3 490 160 491
3 160 158 492
3 160 492 491
3 492 493 494
3 492 494 491
3 494 495 490
3 494 490 491
3 156 155 478
3 156 478 496
3 478 483 497
3 478 497 496
3 497 493 492
3 497 492 496
3 492 158 156
3 492 156 496
3 488 130 129
3 488 129 498
3 129 127 499
3 129 499 498
3 499 493 497
3 499 497 498
3 497 483 488
3 497 488 498
3 125 124 500
3 125 500 501
3 500 495 494
3 500 494 501
3 494 493 499
3 494 499 501
3 499 127 125
3 499 125 501
3 76 73 502
3 76 502 503
3 502 504 505
3 502 505 503
3 71 70 506
3 71 506 507
3 506 508 509
3 506 509 507
3 509 504 502
3 509 502 507
3 502 73 71
3 502 71 507
3 510 45 44
3 510 44 511
3 44 42 512
3 44 512 511
3 512 504 509
3 512 509 511
3 509 508 510
3 509 510 511
3 505 504 512
3 505 512 513
3 512 42 41
3 512 41 513
3 514 111 177
3 514 177 515
3 177 175 516
3 177 516 515
3 516 517 518
3 516 518 515
3 518 519 514
3 518 514 515
3 173 140 520
3 173 520 521
3 520 522 523
3 520 523 521
3 523 517 516
3 523 516 521
3 516 175 173
3 516 173 521
3 524 64 83
3 524 83 525
3 83 79 526
3 83 526 525
3 526 517 523
3 526 523 525
3 523 522 524
3 523 524 525
3 77 35 527
3 77 527 528
3 527 519 518
3 527 518 528
3 518 517 526
3 518 526 528
3 526 79 77
3 526 77 528
3 65 64 524
3 65 524 529
3 524 522 530
3 524 530 529
3 530 531 532
3 530 532 529
3 532 67 65
3 532 65 529
3 520 140 139
3 520 139 533
3 139 147 534
3 139 534 533
3 534 531 530
3 534 530 533
3 530 522 520
3 530 520 533
3 162 161 535
3 162 535 536
3 535 537 538
3 535 538 536
3 538 531 534
3 538 534 536
3 534 147 162
3 534 162 536
3 539 70 69
3 539 69 540
3 69 67 532
3 69 532 540
3 532 531 538
3 532 538 540
3 538 537 539
3 538 539 540
3 506 70 539
3 506 539 541
3 539 537 542
3 539 542 541
3 542 543 544
3 542 544 541
3 544 508 506
3 544 506 541
3 535 161 490
3 535 490 545
3 490 495 546
3 490 546 545
3 546 543 542
3 546 542 545
3 542 537 535
3 542 535 545
3 500 124 547
3 500 547 548
3 547 549 550
3 547 550 548
3 550 543 546
3 550 546 548
3 546 495 500
3 546 500 548
3 551 45 510
3 551 510 552
3 510 508 544
3 510 544 552
3 544 543 550
3 544 550 552
3 550 549 551
3 550 551 552
3 553 52 51
3 553 51 554
3 51 48 555
3 51 555 554
3 555 556 557
3 555 557 554
3 557 558 553
3 557 553 554
3 46 45 551
3 46 551 559
3 551 549 560
3 551 560 559
3 560 556 555
3 560 555 559
3 555 48 46
3 555 46 559
3 547 124 123
3 547 123 561
3 123 118 562
3 123 562 561
3 562 556 560
3 562 560 561
3 560 549 547
3 560 547 561
3 116 115 563
3 116 563 564
3 563 558 557
3 563 557 564
3 557 556 562
3 557 562 564
3 562 118 116
3 562 116 564
3 565 26 388
3 565 388 566
3 388 384 567
3 388 567 566
3 567 568 569
3 567 569 566
3 569 570 565
3 569 565 566
3 382 52 553
3 382 553 571
3 553 558 572
3 553 572 571
3 572 568 567
3 572 567 571
3 567 384 382
3 567 382 571
3 563 115 397
3 563 397 573
3 397 393 574
3 397 574 573
3 574 568 572
3 574 572 573
3 572 558 563
3 572 563 573
3 391 90 575
3 391 575 576
3 575 570 569
3 575 569 576
3 569 568 574
3 569 574 576
3 574 393 391
3 574 391 576
3 27 26 565
3 27 565 577
3 565 570 578
3 565 578 577
3 578 579 580
3 578 580 577
3 580 29 27
3 580 27 577
3 575 90 89
3 575 89 581
3 89 97 582
3 89 582 581
3 582 579 578
3 582 578 581
3 578 570 575
3 578 575 581
3 112 111 514
3 112 514 583
3 514 519 584
3 514 584 583
3 584 579 582
3 584 582 583
3 582 97 112
3 582 112 583
3 527 35 34
3 527 34 585
3 34 29 580
3 34 580 585
3 580 579 584
3 580 584 585
3 584 519 527
3 584 527 585
