4.06346
3.45846
1.71148
2.60625
4.27972
2.728
1.44421
2.47947
2.24938
3.39244
3.56499
3.12917
2.72043
5.68203
1.46505
2.06417
3.07462
3.28023
1.87408
4.56245
2.85501
6.96986
4.59955
4.94988
6.29324
5.04744
3.54427
6.80585
3.39867
4.32006
2.65522
2.0456
1.47326
1.13927
0.887634
0.333038
1.67891
2.48447
3.7235
1.00473
1.79437
1.37725
2.76844
1.3196
1.12391
0.89572
0.619268
1.41146
1.75356
1.45069
1.81804
0.927381
1.40746
2.09487
2.05079
3.39551
2.22755
0.87601
1.87102
1.49542
2.20801
1.18931
3.31796
1.00253
1.49759
2.8967
1.37432
3.07263
2.26282
2.78939
1.54469
1.18031
2.2142
0.819188
2.36749
2.86946
2.76356
6.68048
2.91032
2.87445
2.6071
1.81271
3.11746
2.39447
1.34713
3.13415
1.30033
0.654455
1.29238
1.2923
2.04155
2.39389
2.53187
1.52621
1.044
0.868923
1.38387
1.09389
3.18517
3.08401
1.13385
3.02218
1.38215
1.26864
1.41056
1.06486
0.876493
1.38055
0.671657
1.47778
3.22149
0.797965
2.46654
1.58787
3.38016
2.50794
1.1786
0.69102
2.76723
2.76951
2.74983
2.13624
2.43661
1.63885
1.50488
0.946298
1.65849
1.32561
1.75722
2.13972
2.76112
2.55094
0.645211
2.44081
4.59022
4.10892
3.12073
4.497
3.87126
4.25013
5.24622
2.05339
4.77931
1.5419
3.72979
4.71967
2.78394
4.47625
3.97711
1.49039
5.40283
4.90825
3.2297
3.75264
2.75652
3.77801
3.33367
2.01852
4.33302
3.17796
3.86304
4.06681
4.31258
2.80528
3.0943
5.09011
2.94981
4.93422
3.87884
3.5095
3.59705
1.71542
3.69135
4.13869
5.08223
1.42226
1.83984
2.03115
2.21698
2.9904
2.01342
4.65708
5.73054
1.38369
4.28825
1.79024
2.29477
2.97713
4.55898
2.50482
1.55519
2.52889
4.1473
2.6921
0.752427
4.62456
2.51335
4.45537
3.60142
3.7936
3.055
3.45869
4.08102
2.07415
3.54446
4.08021
1.8856
4.48782
3.35742
4.78694
3.05087
4.97967
4.13804
2.05557
4.12978
1.80429
4.21103
3.962
2.26506
3.81425
3.1031
1.23775
3.95521
3.43908
1.38811
4.1731
3.83072
4.5627
3.28081
3.41818
2.68989
3.64138
3.95679
4.85013
3.7932
2.94173
1.01798
3.11057
2.8834
1.34711
5.36322
2.36833
3.88436
3.20713
2.20367
4.1033
2.35815
3.39991
3.54818
1.7096
4.0531
1.65444
1.32558
5.1807
3.43922
3.65702
3.65247
3.23026
2.73125
5.44632
5.35101
3.63897
2.62515
0.601615
2.39385
2.54882
2.68493
1.92041
2.69136
1.14643
3.04424
3.47707
2.17927
2.77083
1.01828
1.42031
3.19328
2.51827
2.75629
2.83131
2.56721
2.81761
1.2868
2.76089
3.5599
3.91539
2.65126
1.81663
0.904693
1.4767
2.77242
3.51402
2.80855
1.32118
1.02497
2.46355
2.72278
2.47936
2.84388
1.2348
1.04774
3.65708
1.61746
3.07923
2.76785
2.48548
2.42876
3.32271
3.49125
2.73761
1.82058
3.0605
2.04004
6.98998
1.01522
3.31815
2.55595
3.31566
1.54256
1.82326
1.83608
2.59724
2.91928
2.33431
2.47306
1.37612
1.02502
1.02224
3.37065
2.53799
2.75677
1.42342
1.53909
0.644037
4.50525
2.91556
3.72326
1.42029
1.80719
2.30847
2.53735
2.77344
3.22241
3.63924
3.3423
2.98013
2.22619
2.65814
4.28551
2.68633
0.85269
0.698011
3.5493
2.21087
1.2322
1.4662
1.56605
1.94365
4.37216
2.79961
1.1715
2.57509
2.16086
2.58502
1.34053
2.14697
3.29809
2.36802
2.60743
1.43533
3.18878
3.0564
5.26307
3.23963
2.92651
1.08284
3.1993
0.631513
2.42818
2.35314
1.04395
3.73413
2.43953
2.99317
2.98163
3.00493
2.87615
2.10041
2.34457
0.773732
0.736631
2.21524
0.492594
1.02244
0
0.340813
1.45777
1.86264
2.57472
1.36007
1.80554
0.882749
3.09701
1.95692
0.886637
3.76764
0.725837
0.958067
1.23037
3.84294
0.90422
1.85315
3.29475
2.12023
5.63462
1.53675
0.680578
1.45796
2.6437
2.84779
3.07742
1.86859
3.6789
2.38276
1.49091
2.18566
1.60625
4.47647
1.5291
4.79561
2.42628
0.475921
4.73505
0.767642
2.37679
0.500283
0.950653
0.513773
2.44511
2.61582
1.09506
0.678731
1.50122
1.08772
0.842217
0.856596
0.429543
0.733904
3.89869
1.775
2.88428
2.05749
3.12032
0.801786
2.63144
3.6997
0.912116
0.5711
1.12928
0.718326
1.03912
0.917104
3.40378
1.68385
0.777751
4.99168
3.06505
0.556787
1.40907
2.08037
2.16387
2.10383
1.12351
2.36458
3.9571
2.2674
1.59793
0.709218
2.68307
0.69793
4.75813
1.98427
2.47993
1.88008
0.552549
1.23126
6.3939
2.96664
5.26099
1.01908
0.680984
4.81966
1.13153
1.89934
2.19419
0.722097
1.12316
0.595865
0.811855
1.39933
3.96768
0.620198
1.35789
1.02959
0.595178
2.97613
0.768607
1.25415
0.858393
0.44956
1.66407
1.32087
1.425
1.40884
1.49373
1.34864
5.21045
0.421284
2.52925
1.12739
0.743197
1.23499
2.48088
0.816676
0.899295
1.4066
2.36192
1.0555
0.604819
