0.753034
0.661561
0.621213
2.15217
1.14335
1.99247
2.08838
2.4242
2.06855
1.45154
1.34456
1.44111
1.28002
1.1854
1.37256
1.4582
1.4572
1.86722
1.71685
1.58264
1.87124
1.35706
1.46768
1.62576
1.44737
2.28358
1.57102
1.52323
1.7846
1.37888
1.52435
1.74343
2.17658
1.24285
1.30651
1.03417
1.32284
1.25713
1.21747
1.20769
1.20064
1.22695
1.31354
1.31006
1.03652
1.35114
1.25052
1.39799
1.38692
2.18808
2.22942
2.11003
1.86819
1.41292
1.80352
1.45623
1.39153
2.40545
2.18323
1.28501
1.67675
1.68303
1.44982
1.80263
1.59507
1.43097
1.4055
1.44212
1.39479
1.26087
1.26763
1.34756
1.06094
1.33118
1.29998
1.2368
1.23672
1.30561
1.47007
1.37888
1.24708
2.23916
1.84416
1.78445
1.94644
1.46819
1.52502
1.69314
1.50271
2.24808
1.78364
1.59977
1.6514
1.5922
1.60322
1.80623
1.71798
1.43065
1.38508
1.08729
1.51797
1.29399
1.39024
1.31782
1.29563
1.34085
1.19837
1.35555
1.29838
0.963707
1.19017
1.18061
1.34513
2.51671
2.30241
2.37461
2.39297
1.47914
1.68835
1.70157
1.77322
2.38104
1.66074
1.72811
1.82797
1.31851
1.7542
1.90407
2.13457
1.30158
1.46003
1.3813
1.49593
1.27999
1.44109
1.5493
1.3066
2.39716
2.89267
2.8048
2.74028
2.42914
2.47164
2.79538
3.13877
2.86107
2.99994
2.69633
2.73017
2.65777
2.84749
2.84799
2.88569
2.63805
2.52404
2.52586
2.55753
2.88597
2.30999
1.263
0.49795
0.492726
0.901881
0.649953
0.588022
1.61098
0.670133
0.549015
2.66186
2.20139
2.23797
2.31244
3.51675
3.22029
2.15229
1.21122
1.33978
1.29579
1.40597
1.6523
1.50946
1.54533
1.47995
1.37355
1.15456
1.61557
1.33886
1.36594
1.42304
1.3271
1.30818
2.34427
2.56712
2.69876
2.2476
1.96364
1.72278
2.06902
2.76335
1.9414
1.96642
2.07144
2.07784
2.2101
3.06298
2.07149
1.15956
1.33398
1.1773
1.61899
0.956831
1.01764
1.5868
1.23221
1.3323
1.25624
1.60717
0.988456
1.11067
1.26069
1.45131
1.34092
3.11539
3.31425
2.0722
2.26019
2.28434
1.29894
1.72485
1.87624
2.36303
2.15882
1.61756
1.8214
1.5479
1.58842
1.96448
1.82895
1.19526
1.47347
1.28515
1.34689
1.10886
1.29891
1.17343
1.2889
1.31337
1.5075
2.68109
1.94247
2.07521
1.59184
1.65481
1.47346
1.79698
1.56072
1.4598
1.33936
2.17054
1.2893
1.56671
2.62101
2.36917
0.985922
1.16236
1.36203
1.18241
1.30246
1.73252
1.79732
1.28647
1.43666
1.08711
1.26619
1.2409
1.68052
2.45637
2.414
2.23726
2.42417
1.9189
2.29117
1.86
1.60362
2.71491
3.14637
2.04504
1.97536
2.0483
2.26079
2.88995
2.49034
1.46795
1.49709
1.12614
1.64761
1.61153
1.74889
1.81856
1.70397
1.66889
1.79326
1.85554
1.69874
1.59737
1.5862
1.54386
1.72747
2.26711
3.42844
2.42189
2.51502
1.90639
2.81393
1.99842
3.06767
2.36127
2.48895
1.81082
2.02176
1.67765
1.67898
2.32886
1.92102
1.48059
1.46855
1.45087
1.49368
1.67614
1.62155
1.65909
1.4752
1.21517
1.42368
1.47478
1.4131
1.61188
1.56006
1.47188
1.43473
2.44435
2.41516
2.05813
2.37513
1.76743
1.771
1.84313
1.81315
1.93882
2.41512
2.15771
1.90268
2.24191
2.18554
2.11944
2.35316
1.64536
1.44712
1.3866
1.44576
1.59071
1.86312
1.76182
1.4481
1.3397
1.59046
1.18165
1.61762
1.16517
1.50302
1.48322
2.50988
2.18458
2.23373
2.79838
1.88564
2.13104
1.84333
2.08664
2.24915
3.01341
1.98504
2.40708
1.76346
1.77871
2.34136
2.69609
1.54994
1.51225
1.4355
1.52337
1.51297
1.51983
1.66966
1.60432
1.40318
1.62014
1.51671
1.58322
1.62867
1.37727
1.46722
1.80633
2.37308
1.57622
1.77164
1.54698
1.95474
2.57728
2.58005
2.85389
3.50974
3.07432
2.92867
2.58941
2.44019
4.02156
2.60113
4.18737
3.2762
2.50703
3.50034
2.28228
3.82329
2.53837
2.50739
2.56642
2.60555
2.61648
2.6666
3.48241
2.87895
2.46364
2.74514
2.60859
3.02869
2.66769
2.60174
2.66054
2.46343
1.62659
2.12908
2.21349
2.24527
2.3595
2.34114
2.12617
2.24064
2.34782
2.13367
2.99565
2.25088
2.17801
2.54703
3.02886
2.88501
3.17328
2.62861
2.63847
3.51458
3.03388
2.75845
2.66151
2.35014
2.83925
3.05912
3.18431
2.56156
2.55328
2.15509
2.13347
1.50688
2.03439
1.74421
2.05801
1.98586
1.67525
2.14417
2.21098
2.411
1.97233
1.82717
2.28139
1.53224
2.20808
3.04064
2.47846
2.71583
2.83298
3.20116
3.23096
2.56804
2.72466
2.91919
2.99377
3.15109
3.11115
3.81939
2.76172
2.85072
3.04313
2.47938
3.4118
2.29279
2.82522
3.51817
1.36546
1.97515
2.99964
2.53687
2.37656
2.63775
2.43405
2.13718
2.6145
2.95731
2.39904
2.46844
3.48333
3.0596
2.47888
2.74192
2.94012
3.37998
2.54142
2.66559
3.37004
2.81527
2.49348
3.03929
1.62696
1.80286
1.33844
1.57247
1.86759
1.62262
2.01481
1.58186
1.60874
1.75272
1.87653
1.94572
1.543
1.77796
1.54096
1.50237
2.4067
2.60584
2.18886
2.24567
2.3149
2.38998
2.01552
2.61274
2.00052
1.94298
1.48836
1.57918
1.83074
1.45608
1.43477
1.53878
1.56511
1.60346
1.68572
1.55526
1.53548
1.45565
1.38845
1.62932
1.53173
1.61355
1.39156
1.58603
2.53145
2.82422
2.75752
1.81157
1.89563
2.01979
2.28202
2.19824
2.11009
1.58997
1.18203
1.41776
1.43256
1.7085
2.15319
1.48409
1.45311
1.52149
1.47277
1.5026
1.62772
1.46985
1.44693
1.43669
1.86511
1.69148
1.62972
1.79273
1.52373
1.55422
2.03655
1.81215
2.10328
2.13939
1.60463
1.45878
1.94454
1.80497
2.41175
3.43523
2.00147
2.20864
1.80856
1.79751
2.73474
2.55151
1.06287
1.46207
1.37908
1.46352
1.55825
1.48223
1.7084
1.59228
1.48165
1.61674
1.39745
1.61716
1.64828
1.66823
1.38205
1.50434
2.55667
3.02579
2.28793
2.10685
1.70246
1.76629
1.72857
1.7375
1.21442
1.24456
1.3852
1.37654
1.26488
1.46594
1.43343
1.25164
0.949433
1.08377
0.92324
1.22023
1.31284
1.32888
1.36372
1.4716
1.37191
1.4404
1.19538
1.28033
1.45496
1.04006
1.37411
1.33021
1.57206
1.44032
1.50434
1.42717
1.5002
1.34334
1.3913
1.45056
1.56683
1.49979
1.13405
1.2819
1.17663
1.17252
1.48326
1.36748
1.00993
1.05167
1.23026
1.0909
1.08354
1.05438
1.01402
1.13755
1.01892
1.15906
1.11474
1.30007
1.19262
1.20067
1.17046
1.13612
1.37413
1.29524
1.41221
1.22924
1.13908
1.43598
1.48588
1.49829
1.35232
1.42715
1.38351
1.64313
1.43848
1.39469
0.977969
1.25242
1.15194
1.47713
1.2029
1.30891
1.19488
1.05894
1.00534
1.09925
1.46061
1.34039
0.970126
1.35707
1.26031
1.41939
1.50381
1.53202
1.29201
1.45195
1.14779
1.27665
1.37365
1.47981
1.2271
1.43442
1.34035
1.31315
1.35698
1.41641
1.3274
1.47941
1.03579
1.26679
1.11037
1.13021
1.19397
1.19998
1.37705
1.10204
1.00058
1.25756
1.06956
1.12381
1.17562
1.18549
1.13083
1.18519
1.56201
1.44857
1.27621
1.26204
1.1424
1.35859
2.01857
2.09905
1.6536
1.98546
1.86045
2.00178
1.87101
1.98059
1.58486
1.6214
1.65935
1.59665
1.58555
1.72166
1.55319
1.76018
1.60299
1.73588
1.70873
1.65398
1.52526
1.71655
1.64396
1.65688
2.06425
1.98678
1.87701
2.29212
1.88704
2.01802
1.83045
2.29774
1.85799
1.15977
2.00278
1.89646
2.1695
1.54023
1.5849
1.41413
1.74463
1.8386
1.68258
1.71674
1.80104
1.50309
1.46609
1.63666
1.64203
1.70664
1.45907
1.44503
1.28896
2.02242
1.73229
1.72015
1.91344
2.00911
1.70088
1.87934
1.8879
1.84503
1.48554
1.76538
1.6151
1.68075
1.56538
1.48735
1.56235
1.55937
1.38619
1.57433
1.63495
1.30169
1.33382
1.60315
1.5235
1.66342
1.35365
1.55725
1.71934
1.42207
1.40927
1.46562
1.90451
1.59376
1.50419
1.34101
1.79343
1.70148
1.99294
1.96986
1.86474
1.67279
2.06781
1.76236
1.80636
1.59196
2.01626
1.6754
1.51183
1.43565
1.46834
1.64157
1.70047
1.65029
1.72588
1.58939
1.63723
1.68445
1.85447
1.76314
1.76596
1.54795
1.38235
1.94161
1.78825
1.78149
1.88235
1.17608
1.42673
1.36213
1.41161
1.4871
1.29807
1.23612
1.40648
1.2407
0.999032
1.13235
1.44231
1.33974
1.26017
1.18853
1.24299
1.21913
1.44193
1.40087
1.45824
1.4311
1.34573
1.19605
1.19613
1.50692
1.46352
1.41399
1.26272
1.34265
1.40313
1.4366
1.52548
1.31534
1.30111
1.2749
1.37827
1.50014
0.982829
1.03689
1.12241
1.13024
1.13752
1.14979
1.05921
1.06924
1.06211
1.06833
1.44693
1.1231
1.17112
1.17737
1.19522
1.0798
1.51889
1.40763
1.4475
1.37799
1.28944
1.31093
1.4572
1.32305
1.37039
1.30176
1.37552
1.41804
1.24467
1.36766
1.52211
1.49244
1.03417
1.17181
1.37576
1.12197
1.35325
1.10453
1.26902
1.27173
0.957987
0.960016
1.28713
1.30314
1.45096
1.55039
1.18108
1.07003
1.38001
1.58832
1.41225
1.45466
1.46817
1.57678
0.987988
1.23294
1.34739
1.23293
1.34465
1.18532
1.27462
1.27197
1.01535
1.23761
1.14831
1.17903
1.1913
1.24091
1.26178
1.16339
1.04554
1.28881
1.17242
1.1247
1.12979
1.17455
1.49186
1.4995
1.32145
1.40126
1.30906
1.33404
1.20881
1.30449
0.878953
1.03863
1.30731
1.03865
1.25528
1.15372
0.954277
1.1794
0.945604
1.22846
1.15516
1.00919
1.05361
1.05199
1.18872
1.08375
1.33925
0.778668
1.07916
0.964679
1.01299
1.16515
1.307
1.0809
1.11155
1.10484
1.24673
1.08638
1.34205
1.24265
0.940088
1.27601
1.20227
0.948585
1.1613
0.986899
0.980273
1.1032
1.15866
0.954414
0.938442
0.925795
1.03999
0.970809
1.13982
1.07215
0.931624
0.984524
0.976119
1.00343
0.905733
0.934148
0.946991
1.09098
1.08747
1.0565
1.11702
1.03393
1.13211
1.01422
1.18456
1.19114
0.996725
0.925849
1.06313
1.37491
1.35331
1.05352
0.79357
1.31867
0.694263
0.802916
1.2767
1.12499
1.20478
1.01746
0.980826
0.69063
1.16242
0.65936
0.993605
1.16412
1.13153
1.2027
1.11297
1.0527
0.904158
0.953427
1.37353
0.987392
1.1094
0.878771
1.06612
1.00106
1.00981
1.06481
1.03259
1.15917
0.882473
0.900963
0.945904
1.001
0.797546
1.2567
0.888564
1.03634
1.00812
0.982022
0.783044
1.21682
1.24957
1.13636
1.03465
1.12573
1.0182
0.997147
0.917625
1.05909
1.53199
1.53349
1.39126
1.46141
1.62988
1.52441
1.46554
1.53578
0.881724
1.57731
1.31407
1.07225
1.49343
1.29932
1.04803
1.04708
1.1231
1.58777
1.44441
1.5445
1.44861
1.31705
0.910282
1.16665
1.58329
1.60437
1.36083
1.45677
1.48566
1.33031
1.57116
1.62123
1.34052
1.31455
1.1624
1.28911
1.37098
1.10999
1.35091
1.43955
0.990131
1.45111
1.29468
1.27968
1.07289
1.43836
1.16409
1.14901
1.3145
1.41149
1.42082
1.25653
1.31845
1.35845
1.30288
1.376
1.29636
1.50174
1.31666
1.38912
1.37374
1.25468
1.39011
1.41492
1.38095
0.745024
1.21762
1.49054
1.33343
1.51216
1.40115
1.1851
1.53699
1.52453
0.810467
1.40254
1.59322
1.12285
1.22618
1.14596
0.977544
1.00069
0.735777
1.45108
1.5035
1.50005
1.41106
1.39312
1.26333
1.36023
1.39798
1.37045
0.752181
1.56195
0.823479
1.39673
1.03437
1.31455
1.33065
1.16816
1.17716
1.32369
1.34588
1.45595
1.42942
1.37582
1.21533
1.28755
1.43798
1.35556
1.16517
1.12618
1.11928
0.811742
1.1383
1.15269
0.960169
1.50734
1.00147
1.07901
1.01209
1.05521
1.22601
1.19924
1.15721
1.29214
0.930145
0.782508
1.00712
1.15658
1.18335
1.16661
1.15232
1.07085
0.874731
1.23431
1.26075
1.0603
1.32425
0.760765
1.22858
1.11382
1.0669
1.0681
1.05974
1.0756
1.13911
1.11488
1.16881
0.936453
1.08131
1.01908
0.939846
1.01663
1.0456
0.942085
0.963413
0.851003
0.978716
1.08298
1.07582
1.12381
1.15404
0.995388
0.981652
0.964809
1.11461
1.24902
1.10079
0.935167
1.35676
0.984351
1.17422
1.164
0.849119
0.894959
0.892752
0.910708
0.922537
1.17335
1.29702
1.14312
1.10597
1.16478
1.10291
0.662386
0.842863
1.17963
1.0936
0.970202
1.10677
1.07354
1.29279
1.1529
1.24204
1.04177
1.09235
1.19016
1.04687
1.06027
1.10591
1.12149
0.913533
1.10317
1.10854
0.941895
1.05869
0.981585
1.01498
0.861929
0.890745
0.912972
0.926388
1.05604
0.97938
0.931572
1.1819
1.04628
1.08042
1.02434
1.03486
1.11871
0.908456
1.24002
0.568656
0.420895
0.265641
0.305169
0.261414
0.549998
1.09503
1.05943
0.258236
0.23335
0.214965
1.00205
0.866225
0.885847
1.26904
0.236744
0.224268
0.25175
0.320324
0.407922
0.852909
0.231379
0.193902
0.409067
0.276651
0.188626
0.456442
0.348168
0.254892
0.250607
0.219854
1.04014
0.285425
0.395189
0.216117
0.239777
0.248908
0.991681
0.782717
0.765236
0.366021
0.183376
0.663567
1.27047
1.17562
0.390267
0.292617
0.278279
0.427915
1.22987
1.1185
1.20256
1.17842
1.1865
1.19504
1.27275
1.14099
1.0778
1.14139
1.1604
1.12118
1.22029
1.15502
1.13933
1.2052
1.02643
1.2487
1.1371
1.2024
1.16586
1.10922
1.09751
1.22308
1.04221
1.16968
1.56168
1.13159
1.18381
1.14708
1.24871
1.10235
1.2787
1.30997
1.05016
1.25104
1.50059
1.50808
1.35301
1.25313
1.05538
1.47278
1.06165
1.01169
1.05517
1.15385
1.20643
1.12343
1.07708
1.19189
1.12689
0.993431
1.26553
1.09968
1.22684
1.12946
1.09227
1.13358
1.30361
1.31816
0.966389
1.18025
1.32575
1.20724
1.32922
1.45245
1.02533
1.37131
1.32086
1.0247
1.14931
1.36257
1.07063
1.05922
0.429627
0.525468
0.594451
0.972785
0.922288
0.196899
0.649092
0.587228
0.591451
0.488036
1.17145
0.501139
0.473967
0.410528
0.644031
0.414276
1.01924
0.44201
0.578393
0.837004
1.78209
1.88929
1.61686
1.98944
1.68319
1.51914
1.62619
1.50087
2.23653
2.40895
2.33757
1.89968
1.9785
1.95779
1.96247
1.98781
1.4572
2.20181
2.17285
2.00592
1.70375
2.29703
2.28984
1.22113
1.37235
1.20305
1.40094
1.383
1.33746
1.42878
1.36837
1.35881
1.40936
1.43395
1.34331
1.35248
0.982969
1.34793
1.41252
1.43061
1.44329
1.21936
1.49963
1.46402
1.60595
1.51635
1.87604
1.13754
1.8765
1.4744
1.13996
1.24502
1.85763
