4.33121
1.383
3.4634
1.62805
1.58943
2.974
4.74457
2.2626
2.43875
2.26862
1.33048
2.22956
1.52904
3.533
1.73088
1.43184
1.61136
1.24819
3.26592
2.7535
5.368
3.32288
2.06777
3.15519
2.72491
2.72517
2.17168
2.83026
2.77032
2.27933
2.0797
2.8377
7.92428
0.848709
1.92644
8.08332
1.93046
1.72356
2.04532
2.1679
1.30064
2.74237
1.79406
0.934728
1.38013
7.54868
1.96221
2.40415
1.20197
1.45604
3.31641
2.78656
0.932992
2.5387
2.72289
0.853143
1.52652
2.0436
3.70141
5.49179
1.83885
2.69556
1.75838
1.13967
1.50599
2.35504
0.748991
1.26295
4.27042
4.19646
6.041
3.68549
3.22959
3.19033
0.589849
0.770428
2.48122
1.15459
2.69847
2.5763
2.55971
2.45272
2.58972
2.30718
2.26957
2.29907
0.898121
2.47757
2.65095
4.09503
2.68096
2.21945
5.43521
3.0289
1.6415
1.75253
2.24017
2.28414
2.42157
1.7777
4.03309
1.59586
1.74817
1.33154
0.941128
3.35527
1.91012
2.47663
2.05694
0.688356
1.33408
1.42584
3.0427
1.69268
1.35988
2.61538
2.57275
1.30988
2.85419
2.51833
2.06211
1.58626
2.39186
0.894255
2.0884
2.26681
2.42161
3.85005
3.10834
3.68086
3.32037
4.66343
2.43267
3.72853
4.71711
2.34031
2.05874
4.25294
0.940615
3.34838
2.98172
3.43138
1.65618
1.81617
1.69059
1.93345
2.22247
2.62637
2.55036
4.73601
1.15775
6.57645
0.872857
3.77137
3.22179
2.60609
3.54707
2.46763
2.89419
1.53038
2.60701
6.80633
1.86571
2.29296
2.30381
1.91645
2.28337
2.98394
3.0406
2.602
2.67679
2.27761
2.48074
2.43667
0.788191
3.45208
1.80251
3.20587
6.70037
2.45103
3.91977
2.31401
3.8325
3.02611
3.43103
3.74714
3.56447
4.63147
4.63731
3.90485
3.35119
2.79284
4.31501
3.31514
3.90554
3.76356
3.44844
3.59142
3.44527
4.8157
1.84514
2.44197
2.95064
2.8402
3.84231
1.07653
4.29892
2.05262
2.41668
2.35105
5.56307
2.07121
0.85737
4.30866
2.62514
1.75611
1.90415
1.13845
4.67428
1.63814
2.09695
5.39723
2.21403
1.77256
2.40852
1.85685
1.23704
1.56505
2.74155
4.41407
3.20462
3.50048
4.44742
3.60988
4.00986
3.34324
2.08683
1.26626
3.06359
4.7236
2.08244
4.12099
2.95576
5.43081
4.96168
3.65165
2.11411
5.0633
1.67833
4.23665
3.81795
3.34433
3.14413
2.11865
2.86487
3.83675
4.57161
4.33323
6.046
4.59134
2.47231
3.04951
3.45386
0.818219
2.95262
3.18772
0.723273
2.14478
3.70172
1.92931
2.39362
3.65369
3.7603
2.06977
4.55027
0.976875
3.99693
2.6626
0.957057
2.82115
0.53952
5.04943
3.94862
2.94009
1.17723
5.53519
2.25552
0.591556
1.84059
4.41646
2.20319
0.738567
2.2115
1.52452
1.67296
1.27394
0.997692
2.5791
2.87051
0.446384
1.44207
0.297065
2.5265
1.15329
0.593835
0.536151
1.77938
0.354443
5.33748
1.14437
4.79889
1.73495
1.27001
3.32628
1.18432
3.94062
2.53524
3.00796
6.80326
0.85577
5.51096
1.18946
1.76841
0.357203
5.06182
0.952822
1.49365
0.936601
1.29208
1.13133
0.645205
4.11469
4.55654
0.416693
1.37192
1.57524
1.45306
1.67106
2.63557
6.1982
1.15555
0.545947
1.21764
0.951896
1.02175
0.702137
1.0621
0.763447
0.596776
3.47695
3.30966
1.29241
3.51231
3.523
3.40733
1.41312
3.79122
3.16845
4.34139
3.785
3.22187
1.77106
2.3589
0.80431
5.11414
3.43847
0.881112
2.49411
4.16738
4.96004
5.91696
3.50619
3.8179
2.22559
2.13151
2.41404
4.46531
1.56546
0.791894
1.77065
1.21629
2.95696
2.90543
2.8163
2.82018
4.58604
0.65211
1.20172
5.00826
1.81053
2.4112
2.90734
0.924267
1.68243
3.80102
3.20298
4.42913
2.7045
3.2858
2.54454
0.727475
1.02243
3.43563
2.00899
1.84611
2.31329
1.51151
2.19839
1.86459
0.893278
0.708844
1.44514
2.23602
1.44446
2.28597
2.27178
2.90417
1.77211
0.276751
0.948938
1.6568
1.90921
0.874757
3.03258
3.2099
0.557166
3.31813
3.42532
2.1397
1.55477
1.32995
1.94521
0.706485
2.01967
1.4941
2.14268
1.90578
2.50735
2.06151
2.31437
1.92055
1.39663
1.64208
2.02432
2.01387
2.04208
0.969526
2.04935
2.36599
1.96256
2.34908
2.026
2.38766
2.07934
0.679666
1.1132
1.39646
2.83796
3.8822
2.4694
1.60042
1.83542
2.44534
2.10054
1.36673
1.10454
2.07516
1.40397
1.26283
0.645981
1.64837
1.67972
1.69427
1.01594
