OFF
344 680 0
11.2588 25.2836 -1.29943
11.1558 25.1882 -1.27243
11.1188 25.9593 -1.62643
10.8078 25.3401 -1.35943
10.8408 25.9061 -1.61843
10.3908 25.7133 -1.53743
10.8078 26.3752 -1.82443
9.93485 26.0793 -1.69943
10.3428 26.1836 -1.75243
10.3898 26.4876 -1.88143
9.92785 26.2526 -1.76543
3.50985 4.78259 5.14857
4.52385 4.87159 5.08357
3.16185 4.79619 5.10157
4.02885 5.07149 4.90457
2.91985 4.99979 4.91057
2.34485 4.70529 5.14557
4.74585 4.85709 2.80157
4.47985 4.87859 2.85057
4.65085 4.89289 2.88257
2.91685 4.99939 2.98257
3.69985 5.05099 2.96957
3.02385 4.77339 2.84757
4.40385 5.10229 2.97857
2.43185 4.75029 2.88757
2.36085 4.70959 2.83957
3.22285 6.50729 4.43757
3.47085 6.50759 4.43557
3.05185 7.67819 4.18957
2.73585 7.69239 4.18757
2.58385 9.12539 3.93757
2.39985 9.16869 3.92857
2.38585 10.6494 3.73357
2.49685 12.1642 3.61357
2.36085 12.2212 3.59757
2.07885 10.738 3.70957
2.03385 12.3579 3.55057
1.89685 12.4149 3.52757
1.71485 10.8831 3.66157
1.88385 10.8099 3.68657
2.03185 9.24819 3.90157
2.29085 7.74809 4.16257
2.78385 6.50839 4.43057
2.48685 7.72179 4.17657
3.59585 6.51519 2.94857
3.38485 6.50669 2.93857
3.01185 7.68619 2.76857
3.10485 7.67989 2.77757
2.58385 9.12539 2.55557
2.66985 9.11019 2.56657
2.72685 9.10009 2.58157
3.16585 7.67579 2.78957
2.35585 10.6698 2.36057
2.49685 12.1642 2.24357
2.57885 12.1301 2.26057
2.43885 10.6451 2.37457
2.63385 12.1073 2.27957
2.49385 10.6286 2.39057
3.64485 6.50929 2.96457
2.84985 6.49699 2.93257
2.33285 7.73219 2.74857
2.48685 7.72179 2.74957
1.95085 9.23639 2.51557
2.09485 9.21119 2.52157
2.43985 9.15059 2.54357
2.67285 7.70919 2.75357
1.71385 10.8776 2.29557
1.89685 12.4149 2.15857
2.03385 12.3579 2.17457
1.88385 10.8099 2.30957
2.05085 10.7604 2.32557
2.36085 12.2212 2.22157
2.17885 7.74289 2.75957
2.58085 6.49799 2.94157
2.53585 6.49789 2.95657
1.76085 12.4718 2.15957
1.79985 12.462 2.15057
1.60685 10.8923 2.30057
1.85885 9.24689 2.51757
1.80785 9.26159 2.52357
3.17885 13.4534 3.63357
2.88285 13.61 3.58357
4.20785 14.6027 3.71057
4.07485 14.6863 3.68357
3.75685 14.8867 3.61157
5.43185 15.6639 3.77157
6.47685 16.8076 3.69857
5.26185 15.7716 3.73357
6.25585 16.9673 3.63657
5.10385 15.884 3.69257
6.03485 17.1268 3.57157
4.77685 16.1047 3.60157
4.94685 15.9963 3.64957
3.62485 14.9702 3.57757
2.58785 13.7666 3.52357
2.72185 13.6954 3.55157
3.17885 13.4534 2.26357
3.25885 13.4106 2.28357
4.20785 14.6027 2.34057
4.30985 14.5474 2.36957
3.31285 13.3823 2.30457
5.43085 15.6628 2.40457
6.54485 16.7449 2.34857
6.64285 16.6726 2.38457
5.51185 15.5938 2.43957
4.33985 14.5192 2.39157
5.52485 15.5844 2.45157
6.67585 16.6437 2.40857
2.58785 13.7666 2.15357
2.72185 13.6954 2.17557
3.62485 14.9702 2.20757
3.75685 14.8867 2.23457
4.07485 14.6863 2.30757
2.88285 13.61 2.20457
4.77685 16.1042 2.23457
6.03785 17.1255 2.19757
5.10385 15.884 2.31357
6.41285 16.846 2.30657
3.49185 15.0537 2.19857
3.51485 15.0173 2.19257
2.45385 13.8379 2.14457
5.83585 17.2908 2.15857
5.86885 17.262 2.15457
4.69685 16.1742 2.22257
4.68385 16.1835 2.22757
2.50685 13.8093 2.14457
7.50585 17.8469 3.49857
7.25785 18.0379 3.42657
8.12585 19.0109 3.14457
7.81185 19.2633 3.04157
8.74085 19.9125 2.82557
9.05685 20.7077 2.53057
8.50885 20.0979 2.75057
8.68685 20.9985 2.40557
8.34085 21.2726 2.27657
8.10185 20.4223 2.60757
7.59285 19.4389 2.96457
6.85085 18.3557 3.29357
7.01985 18.2281 3.34957
7.50585 17.8454 2.13157
8.12585 19.0109 1.76057
8.29485 18.877 1.82457
7.58885 17.7737 2.17157
8.75085 19.9059 1.41557
9.05685 20.7077 1.05057
9.25585 20.5514 1.12857
8.87185 19.8083 1.47157
8.32985 18.8464 1.85157
8.88685 19.7969 1.48457
9.29785 20.5179 1.15857
7.60185 17.7631 2.18457
6.85085 18.3569 1.92557
7.01985 18.2281 1.97357
7.59285 19.4389 1.58457
7.72985 19.3292 1.62657
7.17885 18.1013 2.02357
8.06185 20.4476 1.18657
8.59085 21.0744 0.888574
8.33385 20.2369 1.27057
7.45685 19.5485 1.56057
7.49085 19.517 1.55957
6.75485 18.4388 1.90857
8.26885 21.3273 0.804574
8.31085 21.2913 0.805574
7.95685 20.5381 1.16257
9.34285 21.1002 2.42357
9.79385 21.5563 2.34857
9.99585 21.9831 2.20157
9.57085 22.3086 2.05957
9.10685 22.0885 2.11357
9.26285 21.5766 2.28257
8.96085 22.7765 1.84357
8.68685 22.3652 1.97957
8.58485 21.7006 2.15557
9.41885 21.0492 0.860574
9.49585 21.395 0.646574
9.81385 21.1465 0.773574
9.58985 20.9139 0.939574
9.84385 21.5159 0.531574
9.99585 21.9831 0.258574
10.1908 21.832 0.337574
10.0208 21.3817 0.610574
10.2608 21.7797 0.380574
8.65685 21.6356 0.598574
8.45585 22.2032 0.297574
9.00785 21.7746 0.474574
8.96085 22.7765 -0.103426
9.73085 22.1865 0.161574
9.39585 21.8653 0.367574
8.72185 22.3862 0.138574
8.41085 21.8346 0.531574
8.56285 23.0815 -0.209426
8.63385 23.031 -0.206426
8.48185 22.5722 0.0765742
10.3018 22.7183 1.89057
10.0188 22.932 1.79757
10.6108 23.5887 1.50057
10.3318 23.8152 1.39957
9.99685 24.084 1.27557
9.67985 23.1886 1.68057
10.8338 24.4097 1.12057
10.8908 25.5319 0.590574
10.4488 24.8056 0.939574
10.3908 25.7133 0.507574
9.68985 25.2546 0.721574
9.97185 25.1214 0.789574
9.36285 24.5202 1.06557
9.65185 24.3232 1.16257
9.05885 23.6588 1.45757
9.34085 23.4451 1.56157
10.3018 22.7183 -0.115426
10.4708 22.59 -0.0484258
10.6108 23.5887 -0.536426
10.7868 23.4762 -0.475426
10.8798 23.4345 -0.445426
10.5838 22.5043 0.00657417
10.8338 24.4097 -0.922426
11.0128 24.3524 -0.887426
11.1248 24.3823 -0.891426
10.9118 23.4205 -0.426426
11.1628 24.3922 -0.883426
9.05885 23.6588 -0.548426
9.34085 23.4451 -0.454426
9.36285 24.5202 -0.971426
9.65185 24.3232 -0.883426
9.84985 23.0603 -0.278426
9.62085 25.3423 -1.35943
9.97185 25.1214 -1.26243
10.4488 24.8056 -1.11443
10.3318 23.8152 -0.646426
9.09285 24.7769 -1.06043
9.11885 24.7482 -1.05943
8.77585 23.8726 -0.623426
9.50285 25.5772 -1.45743
9.48585 25.6262 -1.46843
9.19685 24.6623 -1.02943
8.88885 23.7871 -0.599426
2.53585 6.49799 4.40357
2.17885 7.74289 4.14557
1.80785 9.26159 3.87157
1.60685 10.8923 3.63757
1.76085 12.4718 3.48657
3.49185 15.0538 3.52457
2.45385 13.8377 3.48157
4.68385 16.1834 3.55357
7.45685 19.5487 2.89657
6.75485 18.4394 3.24457
8.41085 21.8365 2.07457
8.56285 23.0816 1.67157
9.09285 24.7769 0.912574
9.48585 25.6262 0.514574
11.2588 25.2837 0.683574
11.1628 24.3922 1.09957
10.5838 22.5046 1.95657
7.60185 17.7632 3.51557
6.67585 16.6437 3.73557
4.33985 14.5192 3.71857
3.31285 13.3822 3.64157
3.64485 6.50939 4.41257
2.72685 9.10019 3.92457
3.16585 7.67569 4.17557
2.42985 4.74699 5.07957
2.57985 6.50289 4.41957
1.86485 9.25159 3.88657
1.79885 12.4582 3.50657
3.52185 15.0242 3.54757
2.50685 13.8093 3.50257
5.86885 17.2616 3.50957
4.69685 16.1742 3.56557
5.83585 17.2909 3.48457
7.49185 19.5162 2.92457
7.95685 20.5381 2.54057
8.26885 21.3272 2.23357
8.48185 22.5704 1.86957
8.63385 23.0264 1.71757
8.80485 23.8512 1.34957
8.77585 23.8725 1.32657
9.11885 24.7482 0.938574
8.88885 23.7871 1.39057
9.19685 24.6623 0.990574
9.93485 26.0793 0.318574
9.55185 25.4299 0.630574
9.50285 25.5772 0.550574
9.92785 26.2526 0.218574
11.1558 25.1882 0.744574
11.1188 25.9593 0.372574
10.8078 26.3752 0.172574
10.7058 26.0885 0.324574
10.3718 26.3502 0.192574
10.3898 26.4876 0.109574
10.9118 23.4206 1.54657
10.8798 23.4345 1.55257
10.5558 22.5259 1.95957
10.1908 21.8366 2.25657
10.2608 21.7797 2.26157
11.1248 24.3823 1.11657
11.0128 24.3524 1.14057
10.7868 23.4762 1.54457
10.4708 22.59 1.94057
9.58985 20.9138 2.48357
9.25385 20.5495 2.58857
9.29785 20.518 2.58757
10.0208 21.3817 2.40357
9.81485 21.1479 2.45357
8.32985 18.8462 3.18857
8.29585 18.8796 3.18957
6.64285 16.6731 3.73857
8.87185 19.8083 2.85657
8.88685 19.7967 2.85257
4.32085 14.5588 3.72557
2.59485 12.1182 3.62057
2.63385 12.1073 3.61057
5.51185 15.5938 3.78257
5.52485 15.5845 3.77757
3.25885 13.4106 3.64257
2.68885 9.10339 3.93757
3.59785 6.51089 4.42757
2.49385 10.6286 3.72757
4.72785 4.85979 5.12357
4.65685 4.88829 5.04657
4.40885 5.09929 4.87057
3.84485 5.74879 4.62957
3.34585 5.72129 4.64057
3.80685 5.28829 4.79057
2.84285 5.69909 4.63357
3.05485 5.24019 4.79557
2.71085 5.21789 4.77957
2.64385 4.98009 4.88857
2.69385 5.68999 4.61657
2.69385 5.68999 3.03557
2.84385 5.69609 3.01757
3.14185 5.24489 3.01557
2.71085 5.21779 3.03857
2.64385 4.98009 3.00857
3.25285 5.71379 3.00957
3.84385 5.75129 3.01357
3.89685 5.29639 3.01057
4.24185 5.31709 3.02557
3.99585 5.75519 3.03057
3.99585 5.75509 4.61057
4.23585 5.31999 4.76557
2.28785 4.69969 2.80057
3.57685 4.77979 2.71557
4.88285 4.86249 5.21457
3 0 1 2
3 1 3 4
3 3 5 4
3 4 6 2
3 2 1 4
3 5 7 8
3 7 9 8
3 9 6 4
3 9 4 8
3 4 5 8
3 9 7 10
3 11 12 13
3 13 12 14
3 13 14 15
3 13 16 11
3 17 18 19
3 20 21 22
3 21 23 18
3 18 22 21
3 17 22 18
3 24 20 22
3 22 25 24
3 26 27 28
3 26 28 29
3 28 30 31
3 28 31 29
3 32 33 34
3 32 34 35
3 34 36 35
3 31 30 32
3 31 32 35
3 36 37 38
3 36 38 39
3 38 40 39
3 40 31 35
3 40 35 39
3 35 36 39
3 41 42 43
3 42 26 29
3 42 29 43
3 29 31 40
3 29 40 43
3 40 41 43
3 44 45 46
3 44 46 47
3 46 48 49
3 46 49 47
3 49 50 51
3 49 51 47
3 51 44 47
3 52 53 54
3 52 54 55
3 54 56 57
3 54 57 55
3 57 50 49
3 57 49 55
3 49 48 52
3 49 52 55
3 58 44 51
3 59 60 61
3 60 62 63
3 60 63 61
3 63 64 65
3 63 65 61
3 65 59 61
3 66 67 68
3 66 68 69
3 68 70 69
3 70 64 63
3 70 63 69
3 63 62 66
3 63 66 69
3 71 53 52
3 71 52 70
3 52 48 64
3 52 64 70
3 70 68 71
3 46 45 65
3 45 59 65
3 64 48 46
3 64 46 65
3 72 73 74
3 75 76 77
3 76 67 66
3 66 62 78
3 78 79 77
3 78 77 66
3 77 76 66
3 60 59 73
3 60 73 78
3 73 72 78
3 72 79 78
3 78 62 60
3 34 33 80
3 34 80 81
3 80 82 83
3 80 83 81
3 83 84 81
3 81 36 34
3 85 86 87
3 86 88 89
3 86 89 87
3 89 84 83
3 89 83 87
3 83 82 85
3 83 85 87
3 90 91 92
3 91 93 84
3 91 84 92
3 84 89 92
3 89 88 90
3 89 90 92
3 94 37 36
3 94 36 95
3 36 81 95
3 81 84 95
3 84 93 94
3 84 94 95
3 54 53 96
3 54 96 97
3 96 98 99
3 96 99 97
3 99 100 97
3 100 56 54
3 100 54 97
3 101 102 103
3 103 104 101
3 104 99 101
3 99 98 101
3 105 99 104
3 105 104 106
3 104 103 107
3 104 107 106
3 100 99 105
3 68 67 108
3 68 108 109
3 108 110 111
3 108 111 109
3 111 112 113
3 111 113 109
3 113 68 109
3 114 115 116
3 115 117 116
3 116 112 111
3 111 110 114
3 111 114 116
3 117 102 101
3 117 101 116
3 101 98 112
3 101 112 116
3 96 53 71
3 96 71 113
3 71 68 113
3 112 98 96
3 112 96 113
3 118 119 120
3 120 76 75
3 121 122 123
3 121 123 124
3 123 119 118
3 123 118 124
3 122 115 114
3 114 110 119
3 119 123 114
3 123 122 114
3 108 67 76
3 108 76 125
3 76 120 125
3 120 119 125
3 119 110 108
3 119 108 125
3 86 126 127
3 126 128 127
3 128 129 127
3 127 88 86
3 130 131 132
3 131 133 132
3 132 129 128
3 128 130 132
3 133 134 135
3 135 136 129
3 129 132 135
3 132 133 135
3 137 90 138
3 90 88 127
3 90 127 138
3 127 129 138
3 129 136 137
3 129 137 138
3 103 102 139
3 139 140 141
3 141 142 139
3 142 103 139
3 143 144 145
3 145 146 143
3 146 141 143
3 141 140 143
3 147 141 146
3 147 146 148
3 146 145 149
3 146 149 148
3 107 103 142
3 107 142 150
3 142 141 147
3 142 147 150
3 115 151 152
3 151 153 154
3 151 154 152
3 154 155 152
3 155 117 115
3 155 115 152
3 156 157 158
3 154 153 156
3 154 156 158
3 140 154 158
3 140 158 143
3 158 157 144
3 158 144 143
3 139 102 117
3 139 117 155
3 155 154 140
3 140 139 155
3 159 160 161
3 161 122 121
3 162 163 164
3 164 160 159
3 163 157 156
3 156 153 160
3 160 164 156
3 164 163 156
3 151 115 122
3 122 161 151
3 161 160 151
3 160 153 151
3 165 133 131
3 166 167 168
3 168 169 166
3 169 170 166
3 170 165 166
3 171 172 169
3 172 170 169
3 169 168 171
3 173 134 133
3 133 165 173
3 165 170 172
3 165 172 173
3 145 144 174
3 174 175 176
3 176 177 174
3 177 145 174
3 178 179 180
3 180 181 178
3 181 176 178
3 176 175 178
3 181 180 182
3 149 145 177
3 183 184 185
3 186 187 188
3 186 188 189
3 188 185 189
3 185 184 189
3 187 179 178
3 187 178 188
3 178 175 188
3 175 185 188
3 144 157 183
3 144 183 174
3 183 185 175
3 183 175 174
3 190 163 162
3 191 192 193
3 192 186 189
3 184 193 189
3 193 192 189
3 183 157 163
3 163 190 183
3 190 184 183
3 168 167 194
3 168 194 195
3 194 196 197
3 194 197 195
3 197 198 199
3 197 199 195
3 199 168 195
3 200 201 202
3 201 203 202
3 202 198 197
3 197 196 200
3 197 200 202
3 203 204 205
3 204 206 207
3 204 207 205
3 207 198 202
3 207 202 205
3 202 203 205
3 208 171 209
3 171 168 199
3 171 199 209
3 199 198 207
3 199 207 209
3 207 206 208
3 207 208 209
3 180 179 210
3 180 210 211
3 210 212 213
3 210 213 211
3 213 214 215
3 213 215 211
3 215 180 211
3 216 3 1
3 216 1 217
3 1 218 217
3 218 214 213
3 218 213 217
3 213 212 216
3 213 216 217
3 219 214 218
3 219 218 220
3 218 1 0
3 218 0 220
3 182 180 215
3 215 214 219
3 186 221 222
3 221 223 224
3 221 224 222
3 224 225 222
3 225 187 186
3 225 186 222
3 226 5 227
3 5 228 227
3 228 224 227
3 224 223 226
3 224 226 227
3 3 216 228
3 216 212 229
3 216 229 228
3 229 224 228
3 228 5 3
3 210 179 187
3 210 187 225
3 225 224 229
3 229 212 210
3 229 210 225
3 230 231 232
3 232 192 191
3 10 7 233
3 10 233 234
3 233 231 230
3 233 230 234
3 7 5 226
3 226 223 235
3 235 231 233
3 235 233 226
3 233 7 226
3 221 186 192
3 221 192 236
3 192 232 236
3 232 231 235
3 232 235 236
3 235 223 221
3 235 221 236
3 74 237 72
3 237 238 72
3 238 239 79
3 238 79 72
3 240 241 77
3 241 75 77
3 79 239 240
3 79 240 77
3 242 118 120
3 242 120 243
3 120 75 241
3 120 241 243
3 244 118 242
3 118 244 124
3 244 121 124
3 245 159 161
3 245 161 246
3 161 121 246
3 164 159 245
3 184 190 247
3 190 162 247
3 193 248 191
3 191 248 232
3 232 249 230
3 250 10 234
3 230 249 250
3 230 250 234
3 2 251 0
3 0 251 252
3 0 252 220
3 252 219 220
3 253 182 215
3 219 253 215
3 107 150 254
3 150 147 254
3 254 255 107
3 105 256 100
3 106 256 105
3 107 255 106
3 56 100 257
3 100 256 257
3 51 258 58
3 57 259 50
3 260 258 51
3 50 259 260
3 50 260 51
3 16 13 261
3 13 15 261
3 237 262 238
3 262 42 41
3 41 40 263
3 263 239 238
3 263 238 41
3 238 262 41
3 38 37 264
3 264 240 38
3 240 239 263
3 240 263 38
3 263 40 38
3 240 264 241
3 241 264 243
3 243 265 242
3 264 37 94
3 264 94 266
3 94 93 265
3 94 265 266
3 265 243 266
3 243 264 266
3 91 90 267
3 267 268 91
3 268 265 91
3 265 93 91
3 242 265 268
3 242 268 244
3 268 267 269
3 268 269 244
3 269 267 246
3 246 270 245
3 267 90 137
3 137 136 270
3 270 246 137
3 246 267 137
3 134 271 135
3 271 270 135
3 270 136 135
3 245 270 271
3 271 134 272
3 272 134 247
3 172 273 247
3 172 247 173
3 247 134 173
3 172 171 274
3 274 273 172
3 273 274 248
3 248 274 275
3 248 275 276
3 275 277 249
3 275 249 276
3 274 171 208
3 274 208 278
3 208 206 279
3 208 279 278
3 279 277 275
3 279 275 278
3 275 274 278
3 204 203 280
3 204 280 281
3 280 282 281
3 282 277 279
3 282 279 281
3 279 206 204
3 279 204 281
3 249 277 282
3 249 282 250
3 282 280 283
3 282 283 250
3 284 285 201
3 285 286 287
3 285 287 201
3 287 203 201
3 285 284 251
3 283 280 288
3 283 288 289
3 288 286 289
3 280 203 288
3 203 287 288
3 287 286 288
3 290 291 292
3 290 292 253
3 292 293 294
3 292 294 253
3 251 284 295
3 251 295 252
3 295 291 290
3 295 290 252
3 284 201 200
3 284 200 296
3 200 196 297
3 200 297 296
3 297 291 295
3 297 295 296
3 295 284 296
3 194 167 293
3 194 293 298
3 293 292 298
3 292 291 297
3 292 297 298
3 297 196 194
3 297 194 298
3 299 300 301
3 294 293 302
3 293 167 166
3 166 165 303
3 303 302 166
3 302 293 166
3 165 131 300
3 300 299 165
3 299 303 165
3 304 305 254
3 254 306 255
3 301 300 307
3 301 307 308
3 307 305 304
3 307 304 308
3 300 131 130
3 130 128 305
3 305 307 130
3 307 300 130
3 126 86 306
3 306 254 126
3 254 305 126
3 305 128 126
3 256 309 257
3 257 310 311
3 255 306 312
3 255 312 313
3 312 309 256
3 312 256 313
3 306 86 85
3 85 82 309
3 309 312 85
3 312 306 85
3 80 33 310
3 80 310 314
3 310 257 314
3 257 309 314
3 309 82 80
3 309 80 314
3 259 315 260
3 260 316 258
3 311 310 317
3 317 315 259
3 310 33 32
3 32 30 315
3 315 317 32
3 317 310 32
3 28 27 316
3 316 260 28
3 260 315 28
3 315 30 28
3 12 318 319
3 320 12 319
3 321 27 26
3 321 26 322
3 323 321 322
3 42 324 322
3 324 325 322
3 325 323 322
3 322 26 42
3 14 323 325
3 14 325 15
3 15 325 326
3 326 327 15
3 327 261 15
3 324 42 262
3 262 328 324
3 328 326 324
3 326 325 324
3 328 262 237
3 329 237 74
3 74 73 329
3 73 59 330
3 330 331 332
3 332 329 330
3 329 73 330
3 24 333 20
3 333 332 20
3 332 331 20
3 331 21 20
3 330 59 334
3 331 330 334
3 45 335 334
3 335 336 334
3 336 331 334
3 334 59 45
3 21 331 336
3 336 23 21
3 23 336 337
3 335 45 44
3 44 338 335
3 338 337 335
3 337 336 335
3 338 44 58
3 19 18 23
3 58 258 338
3 19 23 320
3 23 337 320
3 258 316 339
3 316 27 321
3 321 323 340
3 340 339 321
3 339 316 321
3 12 320 14
3 320 340 14
3 340 323 14
3 341 17 342
3 25 22 341
3 341 22 17
3 318 12 11
3 11 343 318
3 244 269 121
3 121 269 246
3 272 162 271
3 247 162 272
3 273 184 247
3 248 193 273
3 193 184 273
3 232 248 276
3 249 232 276
3 283 10 250
3 289 10 283
3 294 182 253
3 302 182 294
3 148 301 308
3 304 148 308
3 311 56 257
3 255 313 106
3 313 256 106
3 57 56 311
3 57 311 317
3 259 57 317
3 340 337 339
3 320 337 340
3 25 341 16
3 25 261 24
3 25 16 261
3 327 333 261
3 261 333 24
3 327 332 333
3 326 332 327
3 328 332 326
3 237 329 328
3 329 332 328
3 271 162 164
3 245 271 164
3 251 2 285
3 2 6 285
3 6 286 285
3 9 286 6
3 286 9 289
3 9 10 289
3 252 290 219
3 219 290 253
3 301 149 177
3 302 303 176
3 176 181 302
3 181 182 302
3 299 301 177
3 176 303 299
3 176 299 177
3 254 147 304
3 148 149 301
3 304 147 148
3 258 339 338
3 339 337 338
3 318 17 19
3 320 319 19
3 318 19 319
3 318 343 17
