0.496523
0.858704
1.51323
2.86674
5.34264
1.72986
1.10296
3.08533
3.86734
3.57655
3.06485
3.15735
2.32967
2.41388
4.23464
3.19548
2.37905
3.85293
2.90226
3.27318
4.32458
2.50543
2.70805
3.6735
0.536667
2.06754
1.99974
3.08967
3.69954
1.7299
1.62541
1.64368
2.53605
5.4892
2.0779
1.10174
3.5473
2.29205
3.97631
1.84914
1.40548
2.6899
2.23838
1.73219
4.07388
1.68591
0.958419
1.4501
1.40566
1.68766
0.958453
1.73277
3.95152
2.69052
1.59773
3.54611
2.29294
2.08221
3.1155
3.62288
1.84609
3.99701
2.28518
1.56203
1.59015
1.97348
2.69368
1.21241
2.09074
1.70746
1.79055
1.68832
3.37663
1.2389
1.29082
1.357
3.88983
1.06192
1.89022
1.33749
3.58329
1.32236
2.26632
1.06114
1.78257
4.10464
1.53061
1.43813
1.50566
3.22677
2.83448
0.795896
3.03492
2.8206
3.21241
2.83975
1.87358
2.41133
3.24736
2.71372
2.78885
2.78336
2.99537
3.12962
2.84108
2.88318
2.83853
2.9005
2.76796
2.58858
2.99626
2.69203
3.22273
3.22728
2.96272
2.82514
2.17061
2.82086
2.87376
3.00634
2.95494
1.07187
1.44012
1.50566
2.95489
3.82518
2.19542
1.811
1.31491
1.53775
3.86326
1.32147
4.0458
1.34026
3.88983
1.46717
2.69199
1.56384
1.35766
1.8227
2.05503
1.77079
2.5108
1.70696
3.70272
1.86983
3.67691
3.13981
1.49816
2.11738
1.5726
2.114
1.75582
2.55456
1.53323
3.27679
3.054
3.58601
2.857
2.06437
3.94792
2.60314
2.21792
1.85946
2.37909
3.16953
3.11538
2.94311
2.6194
2.60541
3.11538
2.81707
1.39935
2.51032
2.21693
1.90351
1.75959
1.71524
2.87261
2.06616
3.12705
3.58523
1.48171
3.47029
2.53673
1.53051
3.35362
1.74337
3.0059
2.07002
3.9183
1.573
2.89811
2.73831
3.10376
3.27088
3.51875
3.38099
2.62342
2.99528
1.16873
2.42663
2.89592
3.29505
3.23423
2.62908
4.90948
3.22614
3.51569
2.58173
3.12246
1.75251
3.68431
3.67124
3.73824
3.01869
1.30975
3.48161
1.23175
3.33041
3.16734
2.51629
2.92857
2.9127
2.28995
3.38159
2.78419
3.88111
2.40021
2.50908
2.72631
2.33932
1.59564
3.24134
2.70077
2.8386
3.08675
2.50793
2.79143
4.40191
1.44964
3.11431
2.81497
2.97582
3.12409
2.51592
1.23087
3.42326
3.65802
2.57566
3.6689
3.02029
2.60868
3.28416
3.12251
1.75129
3.50894
0.991298
4.17227
3.0415
3.23423
4.39074
2.91818
3.29472
3.58955
2.42616
2.62311
3.00797
3.51874
3.37092
3.11622
3.10813
2.53084
1.5239
1.75638
1.93944
3.14911
2.05932
2.70224
1.91989
2.99694
4.81676
3.36204
2.22627
1.80404
2.89138
2.48044
2.85163
3.44977
1.08132
1.60698
2.37693
4.26312
1.8301
2.41135
1.45583
1.69572
1.08132
2.21741
1.72323
3.56412
1.8301
1.54137
2.45031
2.99712
5.3089
2.31979
3.01576
2.0717
2.80538
2.87313
2.42583
3.03158
2.59949
2.78331
2.50524
1.82572
3.76364
2.59213
3.19858
2.71945
2.70608
2.41355
2.57858
2.29819
2.7696
2.29741
2.39925
2.37555
2.87269
2.34212
3.00798
2.63391
2.43138
2.69481
2.72775
3.02625
2.29005
3.40677
3.19429
3.13323
1.95159
2.72946
3.11828
2.88748
2.46827
2.57308
2.25912
2.32005
1.47428
2.25979
2.85343
2.7898
4.63399
2.27463
2.19732
2.42431
1.91848
2.38821
1.36923
2.60833
2.98805
1.78705
1.36923
2.62364
1.89461
1.77886
2.22944
2.88925
2.74413
2.11387
2.7913
2.32083
2.18182
2.45671
2.38558
3.02844
2.60018
2.97051
3.2318
3.29359
2.46246
3.40642
0.821587
2.74217
2.8461
2.69599
2.72808
2.39858
2.6575
2.39521
2.81682
2.25867
2.70204
2.56201
2.23476
2.14466
2.82781
2.51094
2.78812
3.14793
2.59229
2.59385
3.20036
2.13134
1.86716
2.78298
2.50911
3.01234
4.8519
4.3595
1.80787
5.35669
1.511
3.43491
1.86151
2.66121
1.05448
0.967305
1.50234
2.92752
1.46338
1.56903
2.70244
2.3585
0.942203
1.3886
3.04444
2.19477
1.46338
0.714018
1.50216
3.0753
4.98733
3.42305
1.70096
5.35669
2.49371
4.57308
2.02702
3.16492
3.30433
3.72882
3.15749
2.67543
3.54909
2.91592
3.68523
4.01772
3.6199
3.10099
3.49468
2.60642
3.44174
3.6005
2.84784
0.720044
0.546429
2.75083
1.98799
3.06731
3.58412
1.15821
2.85728
2.44337
3.3865
2.85481
2.92681
3.30557
0.41834
1.43762
2.55957
2.13833
1.23112
1.50092
1.52259
1.26485
0.983484
1.09003
1.41866
0.870224
0.801481
0.936124
1.32254
1.28842
1.67905
1.82924
0.747517
1.85531
0.79714
1.80321
0.751873
1.50148
1.86763
0.899056
1.14714
2.13784
1.39877
1.08946
1.52069
1.29662
0.935159
1.34946
1.62658
2.44343
3.16949
2.30378
1.59442
2.83892
0.501859
3.0501
2.92672
0.634291
0.673695
4.36058
2.88943
2.92626
2.35217
0.644726
2.71748
3.79095
3.61988
3.7919
2.84676
2.84965
3.33088
3.11305
3.26674
3.39416
3.31152
2.9135
3.62461
3.00749
3.12288
3.72534
3.27854
2.11243
3.35974
4.83733
3.42367
4.34203
2.33561
4.16144
3.54813
2.33636
1.82145
1.33674
2.58985
1.2574
3.91951
2.03615
2.95023
2.33646
1.83585
2.86294
2.95023
1.2574
2.7259
1.79616
2.49715
1.99962
3.10466
4.3836
3.52239
2.78912
3.42923
4.41282
3.44683
3.4143
3.63725
2.23773
2.5535
2.80931
3.77015
1.94134
2.26168
1.61567
2.18619
0.89863
1.91945
3.42988
3.00232
2.83153
3.35512
2.23873
2.30617
2.65411
2.84549
1.78868
1.32609
1.81853
2.25715
3.53761
3.04829
2.43367
3.61997
2.18213
3.55895
3.74384
3.01585
2.776
2.98312
2.09012
3.13526
2.32774
2.453
2.21159
2.59788
2.11354
0.627283
1.86232
1.61945
1.75567
2.40995
1.12443
1.95742
2.26903
0.66457
1.12443
1.95402
2.25064
1.71813
1.86135
1.7677
2.45777
2.94281
2.306
2.62565
2.39133
2.6578
2.13347
3.1351
3.38404
3.04944
3.74389
2.9944
2.36772
3.56329
2.60674
3.86204
2.33561
2.30645
2.08177
2.25467
1.78868
2.01068
2.36737
2.93536
1.60977
2.0614
2.56432
3.48633
2.62034
2.99972
1.15385
1.56357
3.51962
3.81552
3.46319
2.26168
2.51301
3.76795
1.29786
2.56287
2.92749
1.21945
2.92421
1.0792
1.74073
3.89794
1.70538
2.26339
1.35661
1.10206
2.09613
2.07131
2.00293
3.78015
2.39074
1.96285
3.62839
2.37929
1.66007
3.42596
1.79702
3.96933
1.61194
2.91986
0.721006
1.33771
1.80771
1.19997
3.88442
4.13694
1.52118
1.86058
1.58929
0.95895
2.44273
2.99733
2.56287
2.11371
2.75082
3.09321
2.77928
2.76671
2.61677
2.23948
2.75818
2.72176
2.01173
2.4963
2.88466
2.80479
2.01297
2.61983
2.75779
2.72228
2.61614
2.24065
1.63665
0.959851
2.75082
3.09258
3.88625
2.15055
1.99116
3.0001
0.721505
0.920255
1.64972
2.14085
3.88997
4.23006
1.8035
1.30401
3.6308
2.24997
1.75765
2.99956
1.9008
3.96675
2.66441
3.48402
3.76607
1.36827
2.4037
2.87024
2.30742
3.69626
2.20245
2.14914
3.21843
0.854198
1.81311
2.62706
4.02759
3.89616
2.94468
3.32762
3.23748
2.95079
1.41961
2.36181
2.54932
2.34813
2.37703
2.62428
1.79552
2.65096
2.56036
2.79361
2.62672
2.75631
2.49648
3.13446
1.82393
1.4567
2.65559
3.44971
2.62683
2.72396
2.42122
2.9366
2.61767
2.95101
2.37688
2.88953
2.63882
1.71494
2.76519
2.14624
2.91635
3.01591
2.86784
3.1236
3.74443
2.91529
4.07585
2.7942
3.33795
2.55332
1.98155
0
1.87199
3.63442
2.7942
3.3038
1.6519
0
1.41913
2.55263
2.60549
