0.397136
0.386251
0.301161
0.313901
0.139417
0.192313
0.293381
0.298445
0.371837
0.373681
0.302167
0.24229
0.113772
0.208513
0.36085
0.307062
0.394982
0.368395
0.305667
0.296793
0.108383
0.198919
0.284356
0.246214
0.398189
0.388765
0.276028
0.283281
0.128622
0.193512
0.360427
0.312534
1.14786
1.02535
0.548804
0.961137
0.772212
0.646511
0.870493
0.916103
0.430678
0.551156
0.481766
0.674122
1.07985
0.760455
0.890709
0.760038
0.510447
0.608494
0.779277
0.582933
0.611215
0.443445
0.453905
0.415465
1.14785
1.02536
0.870502
0.916109
0.772219
0.231903
0.300328
0.961158
1.25429
1.1841
0.699674
0.753453
0.90881
0.954346
0.981281
0.916353
0.857667
0.82873
0.875096
0.787862
0.888688
0.882211
0.887825
0.707657
0.764489
0.621197
0.917551
0.832089
0.897173
0.859628
0.854705
0.782647
0.773404
1.15976
0.977014
0.916221
0.889749
0.895972
0.741764
0.814872
1.18674
1.07485
0.598478
0.625547
0.386067
0.961434
0
0.678763
1.02726
0.937926
0.373735
0.789981
0.705837
0.775032
0.921676
0.795438
0.800931
0.699162
0.923012
0.795406
0.570728
0.775011
0.818128
0.490818
1.18673
1.07484
0
0.452897
0.386071
0.28385
0.671752
0.625527
0.773386
1.15976
0.741777
0.814871
0.897643
0.89607
0.977062
0.916215
0.780688
0.625908
0.825635
0.773342
0.907701
0.859623
0.917549
0.832092
0.88284
0.83042
0.811061
0.812377
0.888688
0.873882
0.851356
0.798135
1.25428
1.18408
1.10781
0.916347
0.908809
0.923954
0.6997
0.705539
0.8141
0.743706
0.743218
0.700412
0.691481
1.09338
0.719101
0.551475
0.652384
0.563718
0.543868
0.724181
0.937493
0.516808
0.683581
0.623843
0.673113
0.410842
0.740996
0.652393
0.883457
0.65159
0.613191
0.523953
0.741569
0.711166
0.721174
0.562314
0.643783
0.801712
0.659756
0.833466
0.756881
0.794246
0.866755
0.677413
0.787243
0.841258
0.811662
0.843498
0.765086
0.754451
0.761049
0.671993
0.81843
0.783293
0.742517
0.735079
0.714773
0.750548
0.715712
0.678502
0.840815
0.604591
0.700406
0.745731
0.814021
0.746009
0.818521
0.831532
0.636957
0.575914
0.798144
1.19569
0.686638
0.840557
0.67699
0.736231
0.753997
0.800229
0.647088
0.635779
0.666166
0.725618
0.696985
0.697544
0.689008
0.638151
0.615388
0.783952
0.736476
0.686958
0.699153
0.653106
0.967112
0.759966
0.460238
0.554128
0.67644
0.840494
0.679356
0.546442
0.666842
0.493966
0.667232
0.747415
0.854053
0.778287
0.711525
0.791486
0.812457
0.838202
0.72187
0.800448
0.681613
0.706167
0.764514
0.774775
0.870049
0.81398
0.808038
0.68781
0.709105
0.791301
0.660426
0.586069
0.592728
0.552312
0.766799
0.703157
0.755828
0.857732
0.626314
0.843195
0.697412
0.61129
0.783445
0.742466
0.628483
0.649591
0.507047
0.531534
0.69282
0.481684
0.586768
0.586426
0.676943
0.649781
0.693077
1.17096
0.542006
0.604007
0.620967
0.772822
0.739874
0.539241
0.529438
0.595916
0.479654
0.60958
1.73641
0.577321
0.611214
0.698724
0.483254
0.591636
0.573029
0.532606
0.568296
0.496856
0.68386
0.621569
0.576644
0.592115
0.632
0.597779
0.631905
0.402114
0.677548
0.744545
0.769548
0.789238
0.583684
0.665058
0.666196
0.517554
0.741441
0.568678
0.692664
0.820158
0.66425
0.759138
0.780392
0.732428
0.494957
0.703146
0.744678
0.643027
0.659256
0.679621
0.981098
0.682593
0.673605
0.487099
0.561039
0.616174
0.528435
0.554037
0.624298
0.557602
0.556532
0.75885
0.571178
0.618001
0.688061
0.549407
0.587344
0.628991
0.630089
0.463547
0.702487
0.525574
0.576435
0.497228
0.527375
0.593819
0.54984
0.587994
0.573459
0.554623
0.451374
0.622847
0.478654
0.565162
0.680459
0.641221
0.626539
0.633439
0.678532
0.520926
0.667502
0.63037
0.769071
0.633908
0.738531
0.692659
0.589989
0.762752
0.480574
0.631701
0.756602
0.784629
0.809878
0.683169
0.661409
0.667721
0.787313
0.695807
0.518332
0.399398
0.663348
0.632156
0.748241
0.751345
0.720579
0.639793
0.634745
0.611653
0.574312
0.665206
0.471536
0.612147
0.583467
0.5739
0.469517
0.472576
0.293807
0.469277
0.560389
0.509123
0.623206
0.461155
0.45571
0.485556
0.599952
0.513441
0.560426
0.503279
0.406365
0.49439
0.664684
0.778623
0.515262
0.622931
0.491898
0.585059
0.568559
0.563452
0.56414
0.642719
0.603315
0.570973
0.602622
0.566234
0.715559
0.614938
0.463783
0.401011
0.459624
0.480534
0.549296
0.506094
0.528843
0.551402
0.45246
0.489354
0.531667
0.714996
0.564901
0.467674
0.353404
0.47291
0.650233
0.634819
0.73052
0.707175
0.560806
0.63281
0.630779
0.648211
0.652073
0.708295
0.594652
1.087
0.557451
0.611381
0.634595
3.22381
0.39477
0.513096
0.294165
0.353767
0.488186
0.512334
0.563864
0.524669
0.485312
0.476381
0.596851
0.514153
0.507109
0.487671
0.357817
0.408017
0.646348
1.39986
0.495141
0.600748
0.479409
0.62324
0.634803
1.44511
0.609228
0.669094
0.501917
0.619211
0.550691
0.621062
0.630944
0.705707
0.411506
0.49144
0.336242
0.449988
0.548382
0.471677
0.528662
0.517814
0.413261
0.4567
0.477682
0.577268
0.541718
0.468139
0.45362
0.481509
0.682922
0.725587
0.67587
0.635616
0.462375
0.641208
0.625039
0.584794
0.83028
0.739077
0.847613
0.750925
0.791531
0.875582
0.847933
0.611783
0.776036
0.90262
0.786612
0.773943
0.770389
0.688567
0.928601
0.761392
0.821236
0.887431
0.906769
0.871129
0.837943
0.718529
0.773511
0.772112
0.769754
0.701315
0.864555
0.609666
0.793848
0.873855
0.90402
0.706515
0.731272
0.844335
0.854438
0.657647
0.856366
0.843047
0.860002
0.833663
0.778479
0.801612
0.792813
0.805519
0.831446
0.785536
0.825759
0.714955
0.874562
0.794363
0.763473
0.864809
0.867481
0.813576
0.793414
0.658324
0.822637
0.841749
0.859369
0.849572
0.827894
0.792944
0.798703
0.758136
0.67949
0.728382
0.836791
0.622677
0.667358
0.703581
0.500539
0.446517
0.867889
0.669394
0.801456
0.834189
0.853005
0.759737
0.788036
0.794782
0.867135
0.745614
0.770354
0.839489
0.861598
0.57618
0.810126
0.881053
0.59157
0.728384
0.605222
0.529852
0.637031
0.852535
0.836703
0.603923
0.786156
0.931002
0.821283
0.7817
0.874417
0.845126
0.906961
0.847661
0.584166
0.760547
0.777128
0.658519
0.867213
0.813608
0.824488
0.832132
0.793745
0.80254
0.878743
0.779199
0.85832
0.810555
0.806859
0.806308
0.758253
0.709741
0.889537
0.835775
0.856356
0.825852
0.871899
0.919237
