OFF
194 371 0
-10.6967 -13.4591 -2.44102
-10.7437 -13.897 -1.35132
-11.4017 -13.4308 -1.14712
-11.4527 -12.925 -2.17112
-11.7447 -13.3083 -0.679715
-10.0957 -14.3251 -1.53122
-10.1227 -14.667 -0.535215
-10.6477 -14.4393 -0.155215
-10.8057 -14.1412 -0.629215
-11.2777 -14.0156 0.0386846
-3.57068 -3.06391 -1.87812
-3.24868 -3.05701 -0.763215
-3.35668 -3.09431 -1.34292
-5.30968 -3.10911 -1.60482
-5.54768 -5.38711 -0.745815
-5.66468 -4.28211 -0.229415
-5.85368 -5.44951 1.10328
-5.62668 -3.10241 0.625985
-5.54768 -3.09411 -0.587415
-5.67568 -4.34301 1.88428
-5.31268 -3.09931 2.49558
-5.54768 -3.10031 1.75288
-3.65668 -3.47501 -1.71722
-3.98368 -3.08981 -2.19602
-4.16768 -4.37061 -1.73022
-4.76068 -5.49181 -1.38162
-4.46668 -3.08561 -2.32592
-5.06168 -4.29311 -1.67522
-4.92268 -3.10021 -2.15452
-3.57168 -3.07211 0.744285
-3.64668 -3.47201 0.788385
-3.35668 -3.09861 -0.0268154
-3.33768 -3.46811 -0.646115
-3.98168 -5.80521 1.09528
-3.57068 -4.48731 0.217585
-3.69468 -5.78401 -0.125015
-3.57168 -4.44831 -0.973115
-4.91968 -3.07671 2.60188
-4.51368 -3.55261 2.24388
-4.44368 -3.07661 2.25078
-5.07868 -4.42071 2.64148
-4.17368 -4.47631 1.66338
-3.98068 -3.06491 1.56448
-6.98368 -9.48611 0.711985
-6.76468 -9.44041 0.0873846
-7.68468 -10.448 -0.228815
-7.91368 -10.5061 0.393785
-8.74768 -11.2019 -0.783415
-8.99168 -11.272 -0.129215
-9.11068 -11.4872 0.630485
-8.02268 -10.692 1.11248
-7.08268 -9.63891 1.43148
-9.79668 -11.7412 -1.42482
-11.2237 -12.3332 -2.36322
-11.5017 -12.4249 -1.58772
-10.0567 -11.822 -0.722615
-11.6487 -12.6977 -0.665115
-10.1857 -12.0617 0.0982846
-11.6197 -13.0735 0.225785
-11.4577 -13.4911 0.835285
-9.99768 -12.7714 1.40768
-10.1707 -12.3987 0.865685
-8.92368 -12.1284 1.81728
-9.09168 -11.7914 1.33328
-7.83168 -11.2498 2.21038
-6.88168 -10.1008 2.51288
-7.05168 -9.85761 2.08538
-7.99868 -10.9563 1.77028
-5.68568 -9.99991 -0.398215
-5.37868 -10.2574 -0.219015
-6.27368 -11.4173 -0.518615
-6.58168 -11.1086 -0.710615
-7.27468 -12.296 -1.04532
-7.59368 -11.9438 -1.26902
-7.98668 -11.6015 -1.32132
-6.95968 -10.8062 -0.748215
-6.05768 -9.74571 -0.431115
-8.24768 -12.9332 -1.65502
-9.55968 -13.6405 -2.54742
-9.89968 -13.1814 -2.85792
-8.57868 -12.5458 -1.91862
-10.3547 -12.7996 -2.97152
-8.99168 -12.172 -1.99002
-10.8197 -12.4836 -2.81472
-9.41968 -11.8809 -1.83642
-8.39168 -11.333 -1.17012
-6.43668 -9.54311 -0.281515
-7.34668 -10.567 -0.598615
-5.20968 -10.7177 0.888285
-5.41468 -10.7325 1.37418
-6.33768 -12.0066 1.16138
-6.12268 -11.9839 0.665285
-7.37268 -12.9913 0.830985
-7.14168 -12.9597 0.297485
-7.04868 -12.8216 -0.220615
-6.04168 -11.8689 0.199685
-5.13668 -10.6266 0.446185
-8.37868 -13.7198 0.462785
-9.73568 -14.5425 -0.0676154
-9.45668 -14.4874 -0.718915
-8.13068 -13.6796 -0.120315
-9.33968 -14.306 -1.40632
-8.02468 -13.5211 -0.703015
-9.33568 -13.9816 -2.03212
-8.06368 -13.2653 -1.23222
-7.09368 -12.5945 -0.682015
-5.19468 -10.4698 0.0696846
-6.09268 -11.6753 -0.205015
-6.56068 -10.3274 2.55328
-7.50868 -11.5231 2.27588
-8.59168 -12.4421 1.92038
-8.17268 -12.7072 1.73118
-7.10368 -11.7547 2.06038
-6.16168 -10.5199 2.30888
-10.5407 -13.5856 1.23658
-9.65468 -13.1182 1.55218
-10.6337 -14.2041 0.899985
-9.21868 -13.4108 1.38528
-10.1467 -14.4375 0.494785
-8.76668 -13.6208 0.993385
-7.74168 -12.8987 1.33848
-5.75568 -10.6607 1.88178
-6.68868 -11.9231 1.65768
-3.97968 -5.65491 -1.02152
-4.33468 -5.56891 -1.29582
-4.27568 -7.17601 -0.602215
-4.61068 -7.03601 -0.833715
-5.01268 -6.89641 -0.898215
-4.72768 -8.77691 -0.290815
-5.04468 -8.57771 -0.486915
-5.42668 -8.37981 -0.530815
-6.14568 -8.14001 0.0140846
-5.81368 -8.22131 -0.378515
-5.76068 -6.72601 -0.310715
-5.41768 -6.78411 -0.741815
-5.18668 -5.41391 -1.22342
-5.76968 -5.39181 0.102785
-5.97868 -6.74901 0.448785
-6.06568 -6.83061 1.33428
-6.36168 -8.17381 0.691085
-6.45268 -8.29071 1.47478
-6.23268 -8.64631 2.65068
-6.41268 -8.45891 2.18718
-5.82068 -7.07961 2.67208
-6.01468 -6.94831 2.14288
-5.58168 -5.59411 2.62538
-5.79068 -5.51371 2.01958
-5.22168 -5.66911 2.69018
-5.47668 -7.20191 2.71918
-5.05768 -7.30621 2.41488
-4.78568 -5.73301 2.35958
-5.90368 -8.82091 2.68738
-5.49768 -8.96941 2.41248
-4.74468 -9.13541 1.38948
-5.08768 -9.07871 1.94148
-4.28268 -7.42351 1.27418
-4.63468 -7.38311 1.88968
-4.34668 -5.78021 1.77938
-3.76468 -5.80231 0.453185
-4.07368 -7.41821 0.698985
-4.00468 -7.37191 0.182385
-4.54068 -9.12621 0.871785
-4.47168 -9.05851 0.406985
-4.53568 -8.93961 0.0132846
-4.07268 -7.28961 -0.257415
-3.76568 -5.72431 -0.625215
-11.0967 -13.8783 1.03898
-11.7307 -13.6391 0.646985
-11.3777 -14.0233 0.858785
-10.9267 -14.3473 0.734685
-11.7587 -13.6942 0.391585
-11.4417 -14.0479 0.595385
-10.8817 -14.4466 0.420485
-10.0447 -14.6818 -0.205015
-10.4547 -14.5773 0.353485
-9.77568 -14.6291 -0.861215
-9.65268 -14.4443 -1.54242
-9.85968 -14.3478 -1.82122
-10.0677 -13.8213 -2.63492
-9.86368 -13.7813 -2.68972
-9.68068 -14.1526 -2.17562
-10.2097 -13.3576 -3.01382
-10.6447 -12.9542 -3.11362
-10.6287 -13.1992 -3.02692
-11.5507 -12.6731 -2.43232
-11.1887 -12.8021 -2.84942
-11.4987 -12.4981 -2.50722
-11.0977 -12.6433 -2.95492
-11.7777 -12.5916 -1.74012
-11.9187 -12.8572 -0.836515
-11.8067 -12.7557 -1.74332
-11.9367 -12.9919 -0.938215
-11.9217 -13.3235 -0.173115
-11.9067 -13.2283 0.0204846
3 0 1 2
3 0 2 3
3 2 4 3
3 5 1 0
3 5 6 7
3 5 7 8
3 7 9 8
3 1 5 8
3 4 2 9
3 2 1 8
3 2 8 9
3 10 11 12
3 13 14 15
3 15 16 17
3 17 18 15
3 18 13 15
3 19 20 21
3 17 16 19
3 17 19 21
3 10 22 23
3 22 24 23
3 24 25 26
3 24 26 23
3 27 14 13
3 27 13 28
3 26 25 27
3 26 27 28
3 29 30 31
3 31 32 11
3 30 33 34
3 30 34 31
3 34 35 32
3 34 32 31
3 36 22 12
3 32 35 36
3 32 36 12
3 11 32 12
3 12 22 10
3 37 38 39
3 20 40 37
3 40 38 37
3 41 33 30
3 30 42 41
3 42 38 41
3 39 38 42
3 42 30 29
3 43 44 45
3 43 45 46
3 45 47 48
3 45 48 46
3 48 49 50
3 48 50 46
3 50 51 43
3 50 43 46
3 52 53 54
3 52 54 55
3 54 56 57
3 54 57 55
3 57 49 48
3 57 48 55
3 48 47 52
3 48 52 55
3 58 59 60
3 58 60 61
3 60 62 63
3 60 63 61
3 63 49 57
3 63 57 61
3 57 56 58
3 57 58 61
3 64 65 66
3 64 66 67
3 66 51 50
3 66 50 67
3 50 49 63
3 50 63 67
3 63 62 64
3 63 64 67
3 68 69 70
3 68 70 71
3 70 72 73
3 70 73 71
3 73 74 75
3 73 75 71
3 75 76 68
3 75 68 71
3 77 78 79
3 77 79 80
3 79 81 82
3 79 82 80
3 82 74 73
3 82 73 80
3 73 72 77
3 73 77 80
3 83 53 52
3 83 52 84
3 52 47 85
3 52 85 84
3 85 74 82
3 85 82 84
3 82 81 83
3 82 83 84
3 45 44 86
3 45 86 87
3 86 76 75
3 86 75 87
3 75 74 85
3 75 85 87
3 85 47 45
3 85 45 87
3 88 89 90
3 88 90 91
3 90 92 93
3 90 93 91
3 93 94 95
3 93 95 91
3 95 96 88
3 95 88 91
3 97 98 99
3 97 99 100
3 99 101 102
3 99 102 100
3 102 94 93
3 102 93 100
3 93 92 97
3 93 97 100
3 103 78 77
3 103 77 104
3 77 72 105
3 77 105 104
3 105 94 102
3 105 102 104
3 102 101 103
3 102 103 104
3 70 69 106
3 70 106 107
3 106 96 95
3 106 95 107
3 95 94 105
3 95 105 107
3 105 72 70
3 105 70 107
3 108 65 64
3 108 64 109
3 64 62 110
3 64 110 109
3 110 111 112
3 110 112 109
3 112 113 108
3 112 108 109
3 60 59 114
3 60 114 115
3 114 116 117
3 114 117 115
3 117 111 110
3 117 110 115
3 110 62 60
3 110 60 115
3 118 98 97
3 118 97 119
3 97 92 120
3 97 120 119
3 120 111 117
3 120 117 119
3 117 116 118
3 117 118 119
3 90 89 121
3 90 121 122
3 121 113 112
3 121 112 122
3 112 111 120
3 112 120 122
3 120 92 90
3 120 90 122
3 24 22 123
3 24 123 124
3 123 125 126
3 123 126 124
3 126 127 25
3 126 25 124
3 25 24 124
3 128 69 68
3 128 68 129
3 68 76 130
3 68 130 129
3 130 127 126
3 130 126 129
3 126 125 128
3 126 128 129
3 86 44 131
3 86 131 132
3 131 133 134
3 131 134 132
3 134 127 130
3 134 130 132
3 130 76 86
3 130 86 132
3 14 27 135
3 27 25 135
3 25 127 134
3 25 134 135
3 134 133 14
3 134 14 135
3 15 14 136
3 14 133 137
3 14 137 136
3 137 138 16
3 137 16 136
3 16 15 136
3 131 44 43
3 131 43 139
3 43 51 140
3 43 140 139
3 140 138 137
3 140 137 139
3 137 133 131
3 137 131 139
3 66 65 141
3 66 141 142
3 141 143 144
3 141 144 142
3 144 138 140
3 144 140 142
3 140 51 66
3 140 66 142
3 145 20 19
3 145 19 146
3 19 16 146
3 16 138 144
3 16 144 146
3 144 143 145
3 144 145 146
3 40 20 145
3 40 145 147
3 145 143 148
3 145 148 147
3 148 149 150
3 148 150 147
3 150 38 40
3 150 40 147
3 141 65 108
3 141 108 151
3 108 113 152
3 108 152 151
3 152 149 148
3 152 148 151
3 148 143 141
3 148 141 151
3 121 89 153
3 121 153 154
3 153 155 156
3 153 156 154
3 156 149 152
3 156 152 154
3 152 113 121
3 152 121 154
3 33 41 157
3 41 38 150
3 41 150 157
3 150 149 156
3 150 156 157
3 156 155 33
3 156 33 157
3 34 33 158
3 33 155 159
3 33 159 158
3 159 160 35
3 159 35 158
3 35 34 158
3 153 89 88
3 153 88 161
3 88 96 162
3 88 162 161
3 162 160 159
3 162 159 161
3 159 155 153
3 159 153 161
3 106 69 128
3 106 128 163
3 128 125 164
3 128 164 163
3 164 160 162
3 164 162 163
3 162 96 106
3 162 106 163
3 123 22 36
3 123 36 165
3 36 35 165
3 35 160 164
3 35 164 165
3 164 125 123
3 164 123 165
3 114 59 166
3 59 167 168
3 59 168 166
3 168 169 116
3 168 116 166
3 116 114 166
3 170 4 9
3 170 9 171
3 9 172 171
3 172 169 168
3 172 168 171
3 168 167 170
3 168 170 171
3 7 6 172
3 6 173 174
3 6 174 172
3 174 169 172
3 172 9 7
3 116 169 174
3 116 174 118
3 174 173 98
3 174 98 118
3 98 173 175
3 98 175 99
3 175 176 101
3 175 101 99
3 5 177 6
3 177 176 175
3 177 175 6
3 175 173 6
3 5 0 178
3 5 178 177
3 178 179 180
3 178 180 177
3 180 176 177
3 101 176 180
3 101 180 103
3 180 179 78
3 180 78 103
3 78 179 181
3 78 181 79
3 181 182 81
3 181 81 79
3 178 0 183
3 183 182 181
3 181 179 178
3 181 178 183
3 3 184 185
3 184 186 187
3 184 187 185
3 187 182 183
3 187 183 185
3 183 0 3
3 183 3 185
3 81 182 187
3 81 187 83
3 187 186 53
3 187 53 83
3 53 186 188
3 53 188 54
3 188 189 56
3 188 56 54
3 184 3 190
3 3 4 191
3 3 191 190
3 191 189 188
3 191 188 190
3 188 186 184
3 188 184 190
3 4 170 192
3 170 167 193
3 170 193 192
3 193 189 191
3 193 191 192
3 191 4 192
3 56 189 193
3 56 193 58
3 193 167 59
3 193 59 58
