5.5613
2.04827
9.11235
2.87357
4.60538
7.76249
7.94798
3.27722
5.77243
6.40746
7.10766
4.98087
6.71097
8.00904
7.74411
2.8262
4.98224
6.76815
3.4201
1.88092
3.01042
6.15262
7.73747
8.55695
7.62089
7.31467
7.51565
2.87064
6.09879
4.30995
5.6327
6.69711
2.10257
3.39303
1.93134
4.79838
4.66861
2.36922
3.48617
7.97752
5.35256
2.71654
4.71276
4.65095
4.54152
4.67036
7.85621
4.716
2.81496
5.01242
6.12698
7.62698
5.96143
5.93476
7.05798
3.40972
1.72719
1.87852
2.99085
7.67094
7.56275
7.33984
7.95415
4.43996
7.89919
3.92519
4.99234
7.4914
7.08514
3.31155
4.57988
4.71512
3.48955
7.80462
7.1453
4.54938
7.09507
4.90403
3.59179
5.73147
8.26261
7.565
3.31384
4.37067
7.82597
4.28078
7.32873
6.97066
9.25928
4.48491
9.15273
6.70282
7.68021
6.2557
7.73083
6.20817
5.94596
4.17737
4.46407
6.73233
6.94133
4.26039
7.20452
4.09443
9.39252
5.51598
6.6219
7.75612
6.21049
2.21135
3.68989
7.90875
2.14786
8.61401
4.44155
8.78786
6.62994
5.58595
4.76086
9.12433
8.92513
8.19923
8.14851
4.9324
8.491
4.3945
8.79794
3.59402
8.24848
7.97515
6.24629
7.88465
6.60697
7.45742
6.9381
6.61654
4.32339
5.48683
4.94464
8.59682
7.12073
2.10976
6.62946
3.76151
6.86539
9.22026
7.82598
7.47802
6.2855
7.17515
9.56939
9.53652
8.21316
3.67339
9.32759
8.3546
6.34666
3.87141
6.44681
4.36053
5.61012
8.32797
9.06783
6.70826
9.1504
7.28652
6.88107
6.42319
5.12198
6.9845
1.95394
4.96147
5.33582
1.71338
5.55598
4.39591
1.80319
6.30304
6.42672
6.51593
10.3977
9.16214
9.1286
4.62864
5.52043
6.664
8.01466
5.32301
6.21013
6.41535
6.30354
7.14164
6.7322
10.6768
5.32593
5.64756
1.72106
5.13779
7.234
6.68484
4.75012
6.43001
10.8642
6.61622
1.7515
6.12075
5.5878
6.8675
1.76611
5.28398
5.78114
6.35713
6.20029
5.56373
11.9565
4.78645
3.44808
5.35364
10.603
5.79048
4.31177
6.01697
4.04261
5.05973
11.5074
9.35104
4.6295
6.13166
4.66752
2.42323
6.89338
6.53295
6.09243
5.63839
1.966
5.41609
4.76641
5.18421
5.82322
6.05987
4.08569
3.40493
1.93321
6.4648
5.73737
4.83535
5.47198
7.96299
5.52903
5.98382
7.29329
5.54169
6.7087
5.39221
9.90976
6.72413
11.1971
6.83179
5.32426
5.77766
1.55891
5.39757
7.21513
6.48615
4.75627
2.98633
11.0809
6.43642
6.88441
5.79622
6.27918
7.1015
1.83345
5.25044
5.31145
5.97465
6.19828
8.23109
11.8468
8.32619
2.92213
5.45481
7.83907
1.98697
5.14266
2.0333
4.38863
5.71027
5.41817
8.32547
10.6507
5.11867
4.34595
2.37549
7.6993
6.50536
5.51459
6.97042
8.08411
4.23555
2.1305
6.1847
6.2913
9.60202
5.72107
6.98912
6.7465
7.84905
9.324
8.53148
7.82366
5.80382
4.74358
8.0604
3.9555
7.05898
10.0904
5.08998
8.34191
10.6767
6.72183
6.12122
7.8236
6.25896
5.90596
6.84365
4.54994
7.09834
5.35149
3.15212
5.48417
8.19624
7.56368
5.96341
4.57832
8.29977
6.13098
7.32912
6.89981
7.24837
7.44509
8.51862
6.43669
7.69618
6.25438
7.75131
6.23914
4.68088
5.14776
7.99161
6.7448
6.95568
7.80924
8.28849
4.78027
7.51716
5.52058
7.02204
4.72352
6.95558
6.54502
5.66733
8.33282
2.19472
8.59762
4.03607
9.73557
6.63701
5.58471
2.14546
9.2404
8.92585
7.67572
8.14509
5.06465
7.67852
7.90728
8.84529
8.28953
8.18127
7.61574
6.21994
8.43436
6.60363
7.91223
6.93934
9.63839
5.38936
6.48144
1.77809
8.3349
1.97982
5.77166
4.16951
5.51309
5.49604
6.82896
1.97111
5.77558
3.36301
9.66277
10.0364
5.47193
6.58314
6.56845
5.25887
6.93028
8.38408
5.39076
3.33383
6.60484
3.9489
6.929
8.7696
5.94817
6.31297
6.51804
6.42398
4.58333
7.81905
6.75202
9.89088
10.7575
5.15047
6.8091
6.68209
3.63409
9.04477
8.98139
5.83733
9.10507
1.71127
8.04254
10.3114
8.38206
5.08595
1.78317
7.24309
4.29779
10.9435
5.5834
4.94688
4.59455
5.68846
5.50134
3.76616
4.5152
8.35025
6.18345
4.51527
2.74188
3.22351
5.10467
5.81071
6.97944
5.04698
5.79118
5.98155
5.73657
6.95824
7.01979
3.03699
6.05861
6.70384
6.43553
7.71162
6.19501
5.96759
6.30444
7.65217
6.21789
8.11566
6.82286
4.54162
7.5349
4.23882
5.47211
9.79576
5.47817
6.4968
2.74802
3.06733
5.43655
3.69676
7.51428
7.32293
6.1666
4.3562
7.27755
5.78119
9.22168
5.77546
7.40559
2.59654
7.59435
4.70474
5.99757
7.67679
6.81818
8.42047
7.30478
7.60588
10.8867
2.79842
9.91669
3.05781
3.01315
6.499
7.56511
5.52236
11.671
5.01397
6.36593
4.13393
5.54031
6.63206
6.53131
5.80015
6.98057
5.05465
5.73293
6.13354
7.16925
7.15848
6.06342
2.64345
6.06062
5.90633
6.62012
8.89375
6.19058
6.78624
6.2478
8.04139
5.87355
8.41935
6.79097
6.61426
7.45832
6.39218
6.16972
9.88698
5.20803
6.41628
7.66751
5.86317
7.94674
5.05636
7.77176
7.31723
5.45833
4.12354
6.76427
4.51675
6.29263
5.44669
6.04666
8.5791
5.68003
5.10031
6.41917
9.08946
6.81418
8.4317
7.35963
8.29329
5.06898
3.15866
6.33361
3.10771
2.9128
3.6396
7.5451
2.87115
6.3264
4.85144
9.64278
1.89143
5.67081
6.28203
8.83842
4.57834
5.32575
4.25704
5.84067
4.57766
5.62047
5.49869
3.10423
3.6204
9.49428
8.50898
5.48513
6.25919
8.59678
5.42866
6.15672
7.94651
5.39092
1.89912
5.5018
5.68561
7.0039
7.34942
2.58437
9.38701
5.51894
5.85989
4.59203
8.80361
4.83327
9.87574
6.06521
4.25649
7.22508
6.84318
2.62446
9.03746
6.447
6.1247
8.623
9.60629
9.09276
10.6414
7.26676
5.81027
1.78617
7.06293
4.23161
10.1717
4.64843
7.80575
6.11189
5.25007
9.7885
6.40719
4.14117
7.6378
3.30402
1.41968
8.00619
3.90907
2.90267
1.03286
1.47455
0.857105
2.60124
3.44591
7.27304
2.5725
7.6797
5.97442
9.79519
2.43188
0.956824
1.02537
1.18258
0.789044
0.711269
4.05592
0.916505
1.06973
3.83294
10.2351
1.22151
3.25852
1.03984
1.24801
0.615204
2.37898
2.19437
2.96909
6.11644
3.15581
0.982931
0.934597
1.16545
1.04521
0.75265
1.97446
0.982415
0.929957
0.601358
0.765801
3.80347
6.01729
4.73439
2.14023
0.818129
0.846171
0.929104
3.5476
0.852916
0.733936
4.35764
7.15485
4.22029
5.97925
4.82013
5.28558
1.78328
4.58199
2.49941
7.92833
3.50732
7.77259
1.26707
8.18915
7.35237
7.96715
1.19445
2.6608
2.43147
1.57196
0.963039
1.20336
2.78957
0.79715
7.62462
6.32325
8.20275
3.22278
1.09918
4.83726
4.63387
5.14235
0.77877
0.90097
1.06556
5.44765
0.820721
1.19718
1.123
0.780875
5.36763
6.00209
4.90293
1.76281
8.39354
4.47865
5.94385
7.37318
1.10714
1.68381
0.843801
1.03727
1.40327
0.98145
1.13026
1.18958
0.739742
0.405919
0.676862
0.408615
0.703811
2.77413
1.06017
1.36544
3.65541
0.657958
0.996504
0.809374
1.18562
0.917429
1.32965
1.4069
0.643037
0.903984
0.782671
0.963622
0.58362
0.588879
0.720891
0.832483
0.948097
0.775515
0.75681
0.557683
1.19261
1.37475
1.02427
1.0191
3.28142
1.67677
5.0197
5.82872
1.27907
1.7876
7.46542
8.91022
3.30311
4.44287
2.97701
3.85998
1.26364
1.56293
2.42386
4.21485
0.809348
0.9054
1.20362
1.09289
0.873591
0.958136
0.914942
0.765038
5.69887
4.14004
8.12625
2.50595
2.7899
2.51494
1.09055
1.21393
1.62201
2.70575
3.44832
3.01864
2.75122
7.90991
2.86542
10.1703
8.15009
8.94886
1.47019
0.440187
0.863522
0.876101
0.709665
0.800654
0.987766
0.929226
1.21401
3.67317
3.88906
3.20817
2.58853
0.702833
0.625259
1.22225
0.753913
3.49937
1.93203
2.97145
1.03196
0.886983
1.15911
0.856684
0.873242
1.17491
2.68877
0.929758
0.561101
0.962197
3.69055
3.41641
1.77826
0.916881
2.46661
3.40439
0.762992
0.970832
0.607581
0.733388
3.55303
3.4497
4.17329
3.13413
7.38269
3.5329
1.31453
4.58193
3.12989
8.01875
3.68734
3.13724
5.35478
3.38453
5.98813
7.96616
2.59067
2.77752
2.15557
4.34469
0.911458
1.20985
2.74586
1.75098
6.96038
9.19808
5.21331
1.82373
1.21181
6.46509
4.41885
5.61609
0.742107
0.773876
0.996945
6.61092
0.874467
1.17008
1.03507
4.92541
6.10899
5.56027
4.85247
6.40182
4.77063
4.47218
5.88894
7.56139
1.02997
1.52906
0.605662
1.12452
1.32233
1.02692
1.74756
1.2178
1.06958
0.720844
0.736617
0.835933
0.865584
2.99224
1.01705
0.964222
4.04525
0.580905
0.489775
0.666656
1.06454
0.877098
0.614354
0.941809
0.704473
0.564481
0.832148
0.93999
0.470793
0.867825
0.805851
0.96141
1.13128
1.09678
0.746018
0.722893
1.27325
0.906466
1.14661
1.15358
3.50588
6.09184
4.55409
5.29945
1.21433
1.72078
7.43045
1.60902
4.43421
5.45459
4.00841
9.96763
2.01689
1.52372
2.71511
1.70567
5.65208
0.88948
1.20528
1.09418
0.941594
1.01108
0.852766
0.778178
0.691259
0.698264
0.702288
0.767543
4.04483
3.67514
2.15742
1.05674
1.00592
1.10747
1.80587
2.09793
1.47399
1.16745
0.930533
0.964424
1.87332
3.55586
0.84397
1.73424
1.13758
0.792803
0.756572
1.19383
1.22241
1.10052
1.46527
1.17661
1.31651
1.35728
1.39626
1.20085
1.19877
1.05536
1.22022
1.10975
0.893234
1.13658
0.691266
1.89151
2.2907
2.08575
1.23119
3.66363
3.30921
0.95566
1.08601
1.35984
0.908045
1.94073
1.32269
1.13506
1.79474
0.966637
1.46639
2.73096
1.22774
0.637231
0.995271
0.766161
0.75902
0.913139
1.22299
1.11858
1.46363
1.33083
1.49915
1.36113
1.37547
1.52567
1.17795
1.05514
1.268
1.00589
0.890842
1.13305
6.62405
6.01941
5.19677
5.10565
3.58236
4.82872
4.17653
6.28229
4.23998
6.65929
4.56872
4.42141
5.43448
7.29584
1.41933
1.64501
8.26958
6.22245
1.67068
5.01041
3.82355
3.93514
8.09057
6.92742
6.72044
5.28135
3.77388
3.18968
8.01705
4.98027
6.96956
6.20924
2.60364
5.70579
5.71346
1.67559
2.59742
1.79513
2.47262
2.69497
4.97299
6.80908
5.73369
5.00894
2.79409
5.16029
2.87801
2.76889
4.45961
4.03637
3.99624
3.62267
6.68667
3.50684
3.9744
5.66457
4.98735
3.66283
4.34612
5.31807
5.32305
2.83675
4.53984
3.76329
4.09464
4.67001
4.92014
3.38787
6.56095
4.80727
4.98887
4.63493
5.10668
5.06508
1.23505
6.81218
2.28434
1.04544
1.27575
5.94218
1.2141
4.70488
4.31303
5.32143
1.199
5.37125
4.804
4.17724
1.20406
1.35913
1.49541
4.26218
1.20996
5.52187
1.21025
3.5544
6.35868
1.78443
5.1711
5.549
4.97695
4.43362
4.32595
4.48437
6.98029
4.35533
3.01919
8.83165
7.6362
3.97643
6.67937
4.59202
1.27444
4.34114
6.61928
5.50419
5.13361
3.09406
3.58628
4.80248
5.88596
6.29105
3.93058
3.9309
5.06582
3.75327
5.3827
4.29205
1.31721
1.38333
6.12406
5.16266
2.23827
2.12435
3.72926
6.75809
3.40696
6.5193
5.40474
3.82417
1.53371
1.81397
5.08763
7.45812
5.55237
4.02629
5.6979
5.7
2.29921
1.93075
1.78447
5.4073
1.94358
5.27668
5.51049
5.64326
9.31848
5.00625
4.03765
1.94976
4.47383
3.52138
4.26221
4.19188
6.42355
3.61397
6.64839
3.50736
4.32906
2.77135
5.64647
3.1349
3.85845
3.93381
4.38626
2.30199
3.88072
6.25587
3.82045
3.13648
3.88657
3.38428
6.57517
3.66735
2.77076
4.66431
3.83564
1.29791
4.41019
1.95865
4.85524
1.34073
5.97
1.15896
2.19487
4.13579
5.32712
5.45712
4.77615
4.20414
5.18882
1.22376
2.06921
1.28442
4.98909
4.96389
5.54712
1.25005
9.05943
4.98312
7.48801
5.72785
5.05712
4.23236
4.5953
3.79417
4.33434
5.79229
7.1956
7.04569
3.02317
8.81368
8.15806
4.0312
4.45694
4.13257
2.92562
4.11634
6.97901
3.84557
7.03458
4.92552
5.93165
4.68742
4.74689
7.09393
6.54658
2.18367
5.7818
6.4147
7.43356
6.32541
8.00627
4.9936
6.67444
8.24593
5.33425
6.29738
5.02999
7.02978
6.40852
3.99083
3.10585
2.99436
3.79132
8.26421
4.79867
9.08306
7.93608
5.713
6.4095
2.67502
7.63189
6.99149
8.61746
7.59587
5.08137
7.98307
3.20659
7.30986
4.59712
7.09489
7.61808
4.49868
3.82264
6.17768
8.6243
6.07894
5.97113
7.95704
5.68662
8.5161
5.54553
10.1415
8.04915
7.77194
8.26163
5.9978
9.16826
7.22194
9.49628
8.20082
9.18575
8.4697
5.92406
4.62744
3.96747
5.25936
7.48154
9.42443
9.88765
5.17284
6.72695
4.27249
4.23103
5.60093
4.25473
5.02936
7.37035
5.97574
1.81459
6.18808
4.97742
8.46569
6.24791
3.26961
4.05338
3.46367
5.24252
4.24203
5.7081
5.45923
1.89356
5.92746
4.02557
6.07654
7.20551
7.36828
7.43782
7.59611
7.99121
6.74607
4.86492
4.95764
6.39011
5.70044
4.14436
4.82127
7.63424
4.41087
7.49684
6.00696
7.38793
7.80586
7.00985
3.92395
6.69524
7.67658
8.5092
8.37164
4.58413
7.73779
5.73246
7.30383
8.34922
7.35881
6.62273
7.65863
3.59904
4.81787
3.26831
6.78738
5.85658
5.665
7.58424
7.82343
4.9268
8.0742
5.99912
5.82769
8.06231
8.06848
6.25021
8.33314
5.3489
5.87923
4.5625
4.17351
