3.01433
4.58954
4.45726
6.24497
2.7306
5.33234
1.56436
2.29729
4.5905
1.77501
1.77189
2.20549
2.71887
6.68208
3.30145
4.21275
1.6383
4.54673
6.71509
6.25972
3.03362
5.43328
4.00653
4.06928
1.62514
5.05118
3.66839
4.45563
7.41642
3.59037
3.58439
4.77137
2.28968
2.36836
2.10671
2.09542
2.23933
2.52705
2.01603
2.32184
2.79657
2.57648
0.896035
2.77779
0.893643
2.15639
2.25012
2.11054
3.1686
0.897569
1.83301
2.25591
2.63881
2.26841
2.94961
1.82057
2.75944
2.66395
1.42165
1.44245
1.78386
1.34342
3.09766
1.22326
3.14684
1.19752
3.03484
2.95805
0.894145
0.642506
1.42596
1.3081
1.80717
1.78058
2.19967
2.01329
1.75007
1.41559
1.68533
1.00305
1.82035
2.58
1.93517
2.42271
2.21094
2.40937
2.08209
2.64571
1.41075
1.5543
2.30367
1.47928
2.58729
2.84394
1.21601
2.29558
2.96677
1.41739
1.79984
2.90622
2.07752
2.44474
2.09709
2.23121
2.39598
1.96714
2.14597
2.25816
2.32481
3.15614
1.77305
3.05607
1.18543
2.20477
2.32009
0.990069
2.93583
1.34931
1.58748
2.03756
1.84459
0.99822
0.581176
0.64305
0.591293
3.23211
1.69842
2.27794
2.98089
1.34313
2.27304
1.7562
0.968917
1.68296
1.34631
2.68149
2.63661
2.657
4.44575
1.41304
5.46748
2.81785
3.16268
2.88523
0.899461
3.08239
2.13394
1.80024
2.5295
1.98982
2.17833
4.00228
2.16199
1.95562
2.09009
2.05737
2.86123
2.50573
1.80103
1.31623
3.92304
4.70622
0.956625
4.37738
4.66017
1.62831
4.9362
5.60098
1.85623
5.79642
4.33007
2.42186
4.61046
3.17557
2.30238
5.0707
1.83816
1.74523
2.04534
1.90693
5.17538
2.38587
2.56628
2.06337
2.50698
4.83122
3.62398
1.02727
3.25544
4.44916
1.85623
3.43764
3.78566
0.806384
3.719
2.14233
3.46745
4.36415
4.1653
3.88934
3.77198
3.53335
4.21682
0.826002
2.37793
4.04174
3.55635
3.53169
1.0616
3.38888
4.74849
1.27234
4.44987
3.47089
1.99834
3.50423
1.5286
2.85256
1.96765
1.94395
3.78263
3.19962
2.34224
3.57798
3.46034
2.33789
1.16327
3.52876
3.5571
2.316
6.08211
0.716529
3.9607
4.11035
3.84143
4.42012
3.59518
4.40829
4.94743
3.76835
1.96041
1.32869
2.11102
4.69983
2.83486
4.9565
1.60999
1.66757
2.40855
3.08178
3.35882
2.08526
4.21396
4.44401
2.25979
3.84858
3.63371
4.0857
1.28446
4.01392
2.89938
4.82272
4.30494
4.22898
3.0979
0.710589
2.9515
2.47235
1.1574
2.58554
2.94576
2.3208
3.74435
2.82869
3.74588
2.62209
1.47209
2.21767
2.54205
3.09378
2.86856
3.12683
3.07246
2.20708
2.28966
3.23648
3.5721
3.56176
1.15248
1.84429
1.47324
2.1937
2.60544
1.5682
2.55018
1.70043
1.38909
2.60218
1.43435
2.25604
2.54319
6.51639
2.44064
2.08148
3.4021
3.00818
2.90818
3.08769
1.88067
3.07532
2.31868
2.41535
3.15958
1.11431
1.98022
1.12726
2.71358
2.59075
3.22104
3.3951
1.06333
2.77773
2.92556
2.34979
3.0615
3.10517
2.45346
1.495
2.24898
2.71696
0.946347
1.42838
1.37693
2.92443
0.937417
1.6581
2.64094
2.41333
5.2341
2.21327
3.62994
1.04544
1.97495
3.25652
4.27579
3.17605
0.846278
2.55022
2.09473
1.69095
3.85074
3.08782
1.82216
2.16966
2.27594
1.87146
2.30363
2.83838
2.76255
2.56202
2.11534
2.85705
2.81792
2.74897
2.47435
2.90614
3.44351
1.94172
5.45736
1.776
4.34429
3.43728
2.94675
3.31594
1.80658
3.15145
3.23913
1.4577
1.05472
3.27743
3.12886
2.00215
2.81735
2.45878
2.91419
2.26537
2.41874
2.75499
1.21704
2.33441
3.16254
2.9586
1.52803
1.19799
1.93097
2.21495
3.28382
1.8611
2.69974
2.59394
2.60222
2.34602
1.20798
0.857607
1.45088
2.19915
2.48685
2.05842
2.51358
0.711752
1.75595
0.575011
0.524136
1.33168
2.27373
0.459011
0.666186
0.88783
2.91172
4.69492
0.975394
1.60078
1.01201
2.45016
0.535043
1.92369
0.729644
1.35468
0.801653
0.919923
0.764086
1.88508
0.84471
0.425386
1.57761
1.03259
0.828617
1.13354
1.5545
1.1239
0.938642
1.5474
1.30565
1.0927
0.344632
3.10822
1.10434
0.769875
0.930123
0.909279
2.35395
1.55952
0.873242
2.74698
0.815795
0.894189
1.00224
0.723706
0.64128
1.69881
1.99259
1.83134
2.76046
0.942765
5.28589
4.30917
0.564703
2.14187
2.05652
2.28431
2.40472
4.00756
1.64987
0.943225
1.25961
1.05636
2.51487
1.85847
1.19672
0.505619
4.58448
3.23299
3.20101
2.14895
3.59057
0.879482
3.7947
1.44067
0.834198
2.33469
0.679383
3.08241
2.51176
0.771222
0.779394
2.99553
0.902885
0.398895
1.77492
0.919369
0.569657
2.15609
1.74383
2.03473
1.6968
4.01202
1.42974
0.83195
0.798954
1.40381
0.91376
0.726792
2.51286
0.773599
0.955166
2.72847
0.746319
0.792697
1.02373
0.736519
1.28108
0.371372
0.792969
2.00206
1.13664
