OFF
192 368 0
-9.20433 -14.4 -9.11369
-8.50033 -13.8853 -9.53469
-8.42733 -14.4505 -9.08309
-8.42833 -15.2615 -8.37109
-9.47433 -15.205 -8.40099
-7.49133 -14.7712 -8.74679
-7.97433 -15.963 -7.70709
-8.67833 -16.6277 -7.07389
-8.70333 -15.8775 -7.81439
-9.42733 -16.1834 -7.50759
-2.94133 -2.60361 -1.00679
-3.28333 -2.86311 0.506213
-3.04633 -2.75831 -0.278587
-3.26333 -2.42441 -2.11499
-3.04833 -2.54211 -1.59109
-5.01133 -2.49421 -1.87259
-5.08833 -2.81491 -1.90839
-5.30133 -2.90801 -0.897787
-5.24833 -2.66361 -0.853287
-5.47033 -3.45391 0.151413
-5.32733 -2.87151 0.352413
-5.72933 -5.07521 -2.38859
-5.60533 -4.44331 0.861713
-5.72133 -5.88201 0.893713
-4.99833 -3.19431 2.20011
-5.24233 -3.07301 1.46591
-3.40633 -2.85271 -2.14689
-3.67633 -2.40351 -2.42869
-4.07333 -3.72291 -2.64579
-4.89733 -4.92641 -2.96909
-4.14333 -2.37811 -2.55319
-4.99433 -3.72991 -2.61219
-4.61933 -2.43151 -2.39449
-3.14133 -3.21601 -1.13559
-4.03333 -5.53781 -0.517487
-3.45233 -3.87821 -1.88969
-4.98433 -4.59861 1.61781
-4.60733 -3.18121 2.31321
-4.87433 -5.82851 0.674313
-4.15933 -3.13281 1.95681
-4.05633 -4.40621 0.681013
-3.67033 -2.99431 1.29201
-7.52633 -10.1162 -3.66499
-7.30033 -9.82151 -4.19739
-7.88833 -11.0971 -5.24339
-8.12533 -11.4515 -4.74709
-8.44933 -12.1113 -6.38839
-8.70133 -12.5323 -5.89779
-8.78333 -13.045 -5.30389
-8.20233 -11.88 -4.15129
-7.59933 -10.4696 -3.03079
-8.94433 -12.8816 -7.48669
-9.57833 -13.7677 -8.96629
-9.86533 -14.3355 -8.42999
-9.21133 -13.3673 -6.98389
-9.96133 -15.0436 -7.77659
-9.29933 -13.962 -6.37069
-9.85633 -15.7203 -7.11569
-9.57133 -16.2587 -6.64379
-8.93533 -14.9747 -5.33779
-8.69533 -13.5394 -4.73619
-8.43533 -13.9052 -4.32439
-7.87033 -12.5843 -3.19249
-7.28033 -11.0365 -2.03199
-7.51833 -10.8026 -2.43859
-8.11833 -12.2888 -3.58889
-6.01033 -9.67291 -4.48589
-5.62233 -9.79381 -4.28419
-6.13333 -11.0965 -5.28429
-6.53933 -10.9363 -5.49059
-6.59133 -12.1446 -6.38289
-7.01933 -11.9388 -6.60759
-7.52633 -11.8446 -6.70739
-7.01833 -10.8656 -5.57759
-6.46933 -9.62221 -4.56639
-6.97833 -12.9498 -7.43869
-7.45833 -13.8835 -8.86099
-7.94833 -13.5415 -9.11819
-7.42833 -12.699 -7.68819
-8.52033 -13.4233 -9.28929
-7.96533 -12.5814 -7.80319
-9.09533 -13.4768 -9.23999
-8.49933 -12.631 -7.74789
-8.03033 -11.8921 -6.64629
-6.92333 -9.66431 -4.48399
-7.49333 -10.9105 -5.50769
-5.33733 -10.3886 -3.27519
-5.55533 -10.6183 -2.86769
-6.07233 -12.153 -3.88419
-5.84233 -11.8704 -4.27199
-6.54333 -13.4673 -4.90759
-6.29733 -13.1248 -5.30009
-6.22633 -12.7692 -5.69769
-5.77933 -11.5855 -4.65079
-5.27933 -10.1655 -3.65979
-6.94533 -14.5345 -5.84289
-7.44633 -15.8169 -7.06119
-7.15633 -15.3334 -7.48009
-6.68233 -14.1336 -6.25349
-7.06733 -14.8219 -7.98999
-6.60233 -13.7084 -6.68239
-7.16033 -14.2817 -8.43709
-6.70133 -13.3 -7.09039
-6.32633 -12.4319 -6.06909
-5.37633 -9.96261 -4.00239
-5.87833 -11.3203 -4.99629
-6.88333 -11.0924 -1.95499
-7.45733 -12.6728 -3.09459
-8.00233 -14.0325 -4.19779
-7.48333 -13.9696 -4.29419
-6.96433 -12.5999 -3.22459
-6.41033 -11.0128 -2.12429
-8.85533 -15.9673 -5.95899
-8.48033 -15.1408 -5.18049
-8.50633 -16.438 -6.47639
-7.93633 -15.0889 -5.24989
-7.92633 -16.1988 -6.70239
-7.39433 -14.8699 -5.48959
-6.96833 -13.765 -4.55159
-5.94033 -10.8406 -2.45629
-6.47433 -12.4114 -3.51139
-4.06433 -5.03431 -2.58129
-4.44633 -4.96501 -2.86549
-4.54233 -6.57551 -2.96739
-4.92233 -6.49721 -3.21659
-5.37233 -6.46741 -3.31039
-5.07733 -8.22441 -3.52349
-5.45733 -8.12991 -3.74239
-5.90733 -8.09231 -3.82619
-6.72333 -8.26661 -3.39579
-6.35333 -8.13141 -3.72679
-6.19033 -6.62281 -2.80479
-5.81833 -6.50341 -3.19199
-5.35433 -4.97231 -2.83519
-5.95733 -5.28061 -1.57149
-6.41233 -6.84301 -2.09189
-6.48533 -7.10411 -1.24769
-6.03133 -5.51701 -0.602487
-6.94533 -8.51751 -2.78489
-7.01733 -8.81631 -2.05999
-6.70533 -9.28621 -0.932987
-6.93833 -9.09511 -1.38739
-6.17633 -7.50941 0.0578131
-6.40733 -7.34621 -0.466387
-5.95333 -5.73561 0.293613
-5.33633 -5.90181 0.974613
-5.79133 -7.53381 0.130713
-5.33033 -7.45591 -0.128187
-6.31733 -9.32171 -0.862887
-5.85333 -9.24111 -1.07659
-5.01633 -8.88961 -1.95339
-5.39333 -9.08391 -1.47359
-4.49533 -7.13881 -1.16289
-4.87233 -7.31211 -0.599287
-4.41333 -5.69591 0.130913
-3.81133 -5.38771 -1.13279
-4.27833 -6.97251 -1.69939
-4.21633 -6.81921 -2.19089
-3.74433 -5.25051 -1.69509
-4.80133 -8.69771 -2.41559
-4.74333 -8.51711 -2.84279
-4.83733 -8.35641 -3.21789
-4.30633 -6.68491 -2.61959
-3.82933 -5.13111 -2.18449
-9.09033 -16.4814 -6.44919
-9.67233 -16.475 -6.97129
-9.19833 -16.7017 -6.76789
-8.63133 -16.6749 -6.79439
-9.62233 -16.429 -7.22209
-9.19433 -16.6466 -7.03149
-7.73733 -16.0895 -7.52799
-8.16733 -16.4365 -7.22079
-7.58933 -16.0607 -7.35059
-8.06233 -16.4438 -7.00379
-7.30533 -15.5784 -7.78909
-7.21233 -15.0528 -8.26629
-7.38933 -15.3564 -8.19669
-7.73833 -14.2633 -9.17039
-7.59233 -14.0982 -9.12859
-7.30733 -14.5402 -8.72949
-8.06633 -13.7847 -9.41349
-8.63433 -13.6366 -9.54839
-9.62233 -14.1915 -9.23539
-9.19533 -13.9164 -9.48659
-9.67333 -13.9858 -9.22939
-9.20033 -13.6914 -9.49759
-9.95833 -14.5568 -8.71229
-10.0533 -15.2587 -8.07649
-9.88333 -14.7083 -8.77499
-9.97233 -15.3381 -8.21259
-9.88333 -15.9522 -7.65539
-9.95733 -15.9461 -7.45179
3 0 1 2
3 2 3 4
3 2 4 0
3 5 3 2
3 6 7 8
3 8 3 6
3 3 5 6
3 4 3 8
3 4 8 9
3 8 7 9
3 10 11 12
3 13 10 14
3 15 16 17
3 15 17 18
3 17 19 20
3 17 20 18
3 16 21 17
3 22 23 24
3 24 25 22
3 25 19 22
3 20 19 25
3 13 26 27
3 26 28 27
3 28 29 30
3 28 30 27
3 31 21 16
3 31 16 32
3 30 29 31
3 30 31 32
3 32 16 15
3 12 33 10
3 11 34 12
3 35 26 14
3 33 35 14
3 10 33 14
3 14 26 13
3 24 23 36
3 24 36 37
3 36 38 39
3 36 39 37
3 40 34 11
3 11 41 40
3 41 39 40
3 39 38 40
3 42 43 44
3 42 44 45
3 44 46 47
3 44 47 45
3 47 48 49
3 47 49 45
3 49 50 42
3 49 42 45
3 51 52 53
3 51 53 54
3 53 55 56
3 53 56 54
3 56 48 47
3 56 47 54
3 47 46 51
3 47 51 54
3 57 58 59
3 57 59 60
3 59 61 60
3 60 48 56
3 56 55 57
3 56 57 60
3 62 63 64
3 62 64 65
3 64 50 49
3 64 49 65
3 49 48 60
3 49 60 65
3 60 61 62
3 60 62 65
3 66 67 68
3 66 68 69
3 68 70 71
3 68 71 69
3 71 72 73
3 71 73 69
3 73 74 66
3 73 66 69
3 75 76 77
3 75 77 78
3 77 79 80
3 77 80 78
3 80 72 71
3 80 71 78
3 71 70 75
3 71 75 78
3 81 52 51
3 81 51 82
3 51 46 83
3 51 83 82
3 83 72 80
3 83 80 82
3 80 79 81
3 80 81 82
3 44 43 84
3 44 84 85
3 84 74 73
3 84 73 85
3 73 72 83
3 73 83 85
3 83 46 44
3 83 44 85
3 86 87 88
3 86 88 89
3 88 90 91
3 88 91 89
3 91 92 93
3 91 93 89
3 93 94 86
3 93 86 89
3 95 96 97
3 95 97 98
3 97 99 100
3 97 100 98
3 100 92 91
3 100 91 98
3 91 90 95
3 91 95 98
3 101 76 75
3 101 75 102
3 75 70 103
3 75 103 102
3 103 92 100
3 103 100 102
3 100 99 101
3 100 101 102
3 68 67 104
3 68 104 105
3 104 94 93
3 104 93 105
3 93 92 103
3 93 103 105
3 103 70 68
3 103 68 105
3 106 63 62
3 106 62 107
3 62 61 108
3 62 108 107
3 108 109 110
3 108 110 107
3 110 111 106
3 110 106 107
3 59 58 112
3 59 112 113
3 112 114 115
3 112 115 113
3 115 109 108
3 115 108 113
3 108 61 59
3 108 59 113
3 116 96 95
3 116 95 117
3 95 90 118
3 95 118 117
3 118 109 115
3 118 115 117
3 115 114 116
3 115 116 117
3 88 87 119
3 88 119 120
3 119 111 110
3 119 110 120
3 110 109 118
3 110 118 120
3 118 90 88
3 118 88 120
3 28 26 121
3 28 121 122
3 121 123 124
3 121 124 122
3 124 125 29
3 124 29 122
3 29 28 122
3 126 67 66
3 126 66 127
3 66 74 128
3 66 128 127
3 128 125 124
3 128 124 127
3 124 123 126
3 124 126 127
3 84 43 129
3 84 129 130
3 129 131 132
3 129 132 130
3 132 125 128
3 132 128 130
3 128 74 84
3 128 84 130
3 21 31 133
3 31 29 133
3 29 125 132
3 29 132 133
3 132 131 21
3 132 21 133
3 17 21 134
3 21 131 135
3 21 135 134
3 135 136 137
3 135 137 134
3 137 19 17
3 137 17 134
3 129 43 42
3 129 42 138
3 42 50 139
3 42 139 138
3 139 136 135
3 139 135 138
3 135 131 129
3 135 129 138
3 64 63 140
3 64 140 141
3 140 142 143
3 140 143 141
3 143 136 139
3 143 139 141
3 139 50 64
3 139 64 141
3 23 22 144
3 22 19 137
3 22 137 144
3 137 136 143
3 137 143 144
3 143 142 23
3 143 23 144
3 36 23 145
3 23 142 146
3 23 146 145
3 146 147 38
3 146 38 145
3 38 36 145
3 140 63 106
3 140 106 148
3 106 111 149
3 106 149 148
3 149 147 146
3 149 146 148
3 146 142 140
3 146 140 148
3 119 87 150
3 119 150 151
3 150 152 153
3 150 153 151
3 153 147 149
3 153 149 151
3 149 111 119
3 149 119 151
3 34 40 154
3 40 38 154
3 38 147 153
3 38 153 154
3 153 152 34
3 153 34 154
3 12 34 155
3 34 152 156
3 34 156 155
3 156 157 158
3 156 158 155
3 158 33 12
3 158 12 155
3 150 87 86
3 150 86 159
3 86 94 160
3 86 160 159
3 160 157 156
3 160 156 159
3 156 152 150
3 156 150 159
3 104 67 126
3 104 126 161
3 126 123 162
3 126 162 161
3 162 157 160
3 162 160 161
3 160 94 104
3 160 104 161
3 121 26 35
3 121 35 163
3 35 33 158
3 35 158 163
3 158 157 162
3 158 162 163
3 162 123 121
3 162 121 163
3 112 58 164
3 58 165 166
3 58 166 164
3 166 167 114
3 166 114 164
3 114 112 164
3 168 9 169
3 9 7 169
3 7 167 166
3 7 166 169
3 166 165 168
3 166 168 169
3 6 170 171
3 170 172 173
3 170 173 171
3 173 167 7
3 173 7 171
3 7 6 171
3 114 167 173
3 114 173 116
3 173 172 96
3 173 96 116
3 96 172 174
3 96 174 97
3 174 175 99
3 174 99 97
3 170 6 176
3 6 5 176
3 176 175 174
3 174 172 170
3 174 170 176
3 5 2 177
3 177 178 179
3 177 179 5
3 179 175 176
3 179 176 5
3 99 175 179
3 99 179 101
3 179 178 76
3 179 76 101
3 76 178 180
3 76 180 77
3 180 181 79
3 180 79 77
3 177 2 1
3 1 181 180
3 180 178 177
3 180 177 1
3 0 182 183
3 182 184 185
3 182 185 183
3 185 181 1
3 185 1 183
3 1 0 183
3 79 181 185
3 79 185 81
3 185 184 52
3 185 52 81
3 52 184 186
3 52 186 53
3 186 187 55
3 186 55 53
3 182 0 4
3 182 4 188
3 4 189 188
3 189 187 186
3 189 186 188
3 186 184 182
3 186 182 188
3 9 168 190
3 168 165 191
3 168 191 190
3 191 187 189
3 191 189 190
3 189 4 9
3 189 9 190
3 55 187 191
3 55 191 57
3 191 165 58
3 191 58 57
