0.400308
0.395888
0.495003
0.410201
0.381394
0.384996
0.306939
0.405374
0.622412
0.631569
0.693994
0.584868
0.385592
0.595359
0.413778
0.615953
0.743472
0.718513
0.597011
0.648065
0.53253
0.619404
0.642077
0.696022
0.414537
0.39146
0.39784
0.59784
0.599354
0.573811
0.573058
0.478003
0.517676
0.582836
0.84037
0.803453
0.553317
0.674475
0.740375
0.718783
0.768554
0.768196
0.79056
0.755875
0.786751
0.79916
0.814428
0.78129
0.710204
0.700617
0.778562
0.642659
0.707563
0.698443
0.659073
0.706483
0.878167
0.886712
0.877105
0.606878
0.736032
0.805325
0.763299
0.728948
0.774481
0.766694
0.722826
0.709293
0.747614
0.754583
0.722319
0.77434
0.74938
0.714009
0.706916
0.541319
0.642064
0.744409
0.672939
0.706258
0.73886
0.734729
0.709617
0.740868
0.725606
0.747359
0.709413
0.706716
0.667032
0.763707
0.720061
0.788864
0.769783
0.836976
0.828877
0.724302
0.712187
0.680136
0.729023
0.80853
0.481267
0.766962
0.725636
0.810989
0.760259
0.697069
0.634988
0.769347
0.702107
0.790566
0.676109
0.781572
0.749914
0.722548
0.708596
0.740609
0.747698
0.771436
0.725515
0.738013
0.728115
0.706372
0.767909
0.696954
0.761335
0.768633
0.693064
0.672481
0.75982
0.756707
0.791455
0.75597
0.686302
0.750543
0.717259
0.793799
0.797787
0.824812
0.830554
0.691124
0.646715
0.60955
0.671746
0.617393
0.791927
0.604753
0.835384
0.7643
0.821871
0.691976
0.676377
0.684271
1.44256
0.716213
0.562034
0.661374
0.569032
0.711205
0.644178
0.814096
0.601403
0.772262
0.712021
0.713086
0.619657
0.752756
0.697667
0.586035
0.777999
0.58884
0.832817
0.62938
0.665749
0.556662
0.597169
1.08135
0.534813
0.739316
0.578323
0.516915
0.681349
0.63349
0.610069
0.53076
0.546962
0.538537
0.685214
0.575895
0.620953
0.560347
0.682429
0.504165
0.646891
0.623889
0.707368
0.734843
0.627743
0.579278
0.679439
0.509276
0.742634
0.709454
0.521699
0.679527
0.644185
0.629344
0.686671
0.774184
0.544436
0.6274
0.684744
0.620126
0.789082
0.71302
0.754365
0.649039
0.703045
0.538525
0.740039
0.692751
0.671138
0.638895
0.638307
0.620041
0.557747
0.690524
0.81552
0.599889
0.688793
0.576302
0.630036
0.456086
0.532177
0.671271
0.556416
0.640065
0.691411
0.677252
0.86221
0.602983
0.581575
0.558082
0.667506
0.763372
0.729196
0.695978
0.60448
0.50873
0.638532
0.746333
0.631459
0.788854
0.614329
0.67032
0.604723
0.56054
0.562915
0.657172
0.555765
0.818547
0.546885
0.629879
0.669312
0.589649
0.693636
0.729172
0.610914
0.642385
0.948524
0.922294
0.573227
0.764419
0.626722
0.631612
0.972901
0.71249
0.461482
0.795137
0.466604
0.53697
0.713073
0.551559
0.756826
0.722316
0.687108
0.599709
1.15435
0.566707
0.944268
0.857254
0.692927
0.726137
0.851899
0.601492
0.903153
1.0476
0.569496
3.41144
0.634233
0.780676
0.700647
0.695961
0.749993
0.788957
0.620117
1.14392
0.640822
0.84446
0.634354
0.683869
0.650922
0.917943
0.588951
0.756407
0.686441
0.746854
0.937023
0.859364
0.480954
0.877507
0.643101
0.802057
0.682488
0.726944
0.535393
0.554321
0.639193
0.559547
0.831701
0.635787
0.448662
1.504
0.614299
0.640176
1.83042
0.600893
1.04657
0.748361
0.686758
0.571077
0.70493
0.571983
0.763344
1.0679
0.54458
1.13436
0.589098
0.54116
0.648754
0.948409
0.558293
1.04404
0.568952
0.529598
0.64637
0.794427
0.622762
0.8705
0.629479
0.56477
1.08533
0.550505
1.01466
0.543324
0.778659
0.465564
0.604085
0.603075
0.789784
0.761177
1.29409
0.577568
0.672679
2.49929
0.572736
0.930991
0.51454
0.537921
0.65955
0.724152
0.634399
0.63826
0.559929
0.611027
0.758764
0.621715
1.17288
0.578558
0.702159
0.876307
0.678687
1.16952
0.609417
0.61947
0.355203
0.607356
0.54587
0.712692
0.708163
0.692825
0.72881
0.56947
0.716664
0.825245
0.707339
0.833797
0.752457
0.432495
0.59837
0.574021
0.66742
0.774907
0.786346
0.839692
0.764812
0.898407
0.784685
1.0054
0.992031
0.71768
0.849192
0.803785
0.671269
0.534022
0.657604
0.826703
0.87778
0.672259
0.627849
0.551888
0.524807
0.733302
0.738621
0.69182
0.644158
0.85371
0.693313
0.447039
0.650738
0.716426
0.698546
0.540186
0.775347
0.68929
0.591711
0.75329
0.562116
0.709595
0.683361
0.371224
0.452716
0.834457
0.79507
0.747419
0.74684
0.650144
0.711041
0.826343
0.774308
0.646718
0.684445
0.82265
0.804204
0.804981
0.769398
0.718186
0.734389
0.959979
0.812412
0.79885
0.926238
0.743948
0.904764
0.834471
0.854628
0.850827
0.706795
0.846027
0.92692
0.660121
0.787142
0.752647
0.761969
0.662369
0.734953
0.666063
0.781018
0.96395
0.796638
0.75705
0.804401
0.868975
0.858196
0.859102
0.826562
0.792019
0.677118
0.701797
0.723677
0.924616
0.93245
0.827221
0.804828
0.855586
0.860827
0.906386
0.937347
0.666437
0.648188
0.689529
0.634955
0.716101
0.70245
0.801557
0.694698
0.681226
0.595136
0.648066
0.346413
0.740897
0.720516
0.600108
0.548411
0.903615
0.838767
1.11875
0.615436
1.09743
1.11562
0.588848
0.873331
0.795882
0.818255
0.765072
0.87095
1.01258
0.823272
1.03599
0.936118
0.748746
0.844744
0.750243
0.906943
1.04568
0.970069
0.623027
0.905008
0.848443
0.733592
1.19765
0.993584
1.34956
0.951323
0.883862
0.790221
0.913426
0.892265
0.875515
0.886975
0.921504
0.92173
0.969388
0.982662
0.744704
0.885152
1.18667
0.960467
1.11946
1.03296
0.7974
0.86958
0.844842
0.855612
0.888758
0.809151
1.02853
1.00847
0.966686
0.966336
0.794911
0.882075
0.956562
0.986888
0.843354
0.909862
0.80055
0.847129
0.97361
0.96111
1.10169
1.13288
1.0414
1.02433
1.04218
0.943973
0.810703
0.835156
0.816086
0.886604
1.05896
0.985491
0.985993
1.05923
0.89814
0.913841
1.05509
1.10567
1.09396
0.971828
0.821942
0.899674
1.10942
1.0579
1.14531
0.820876
1.20241
1.21277
0.988644
1.10567
0.821379
0.622963
0.711531
0.7326
0.958442
0.834464
1.09913
0.85232
0.834549
0.858588
0.9567
0.897647
0.913676
0.913172
0.70322
0.767269
0.882115
0.944219
0.962014
0.93491
0.908618
0.982775
1.05445
1.09042
1.01371
1.09101
0.971611
1.06624
0.916131
1.06775
1.11145
1.04857
0.719179
0.793291
0.867086
0.858735
0.61562
0.679394
0.772575
0.801932
0.790639
0.826774
0.761672
0.725106
0.736268
0.721999
0.808013
0.71653
0.679938
0.787463
0.766424
0.722502
0.696064
0.692814
0.760962
0.683149
0.721584
0.695846
0.776619
0.698139
0.722422
0.697559
0.728118
0.679006
0.786803
0.611006
0.74499
0.613084
0.612231
0.703876
0.719414
0.748899
0.630685
0.636002
0.669387
0.927199
0.707234
0.630027
0.707442
0.647107
0.690303
0.555404
0.794432
0.725649
0.715014
0.699448
0.700876
0.712682
0.797986
0.676578
0.456278
0.648707
0.514211
0.685977
0.816803
0.662343
0.653054
0.799936
0.645502
0.813014
0.916628
0.582531
1.05669
0.567581
0.672395
0.824767
1.96516
0.58781
1.14219
0.598504
0.651685
0.847806
0.647555
0.518493
0.666664
0.541429
0.553138
1.08306
0.653953
2.13267
0.979572
0.54632
0.539782
1.31102
0.588882
1.10869
0.639231
0.565307
0.476458
0.57719
0.499184
0.576374
0.740583
0.61677
0.599927
0.53735
0.582994
0.666538
0.679348
0.704421
0.684747
0.689625
0.595751
0.61738
0.868565
0.829111
0.822352
0.860338
0.746667
0.777008
0.745668
0.759158
0.917727
0.98258
0.708536
0.825482
0.796564
0.823163
1.03425
0.996831
0.850251
0.895545
0.97892
1.16128
1.0932
1.13262
1.0401
1.05022
0.891135
1.09703
1.09941
1.09406
1.13944
1.04851
1.01151
1.1028
0.836411
0.830476
0.780183
0.866033
1.1015
0.97137
1.04774
0.960883
0.630362
0.993668
1.0754
0.718131
1.09078
0.816459
0.706031
0.702475
0.778083
0.768453
0.803067
0.700095
0.507275
0.626406
0.666992
0.664807
0.641024
0.662644
0.607825
0.738455
0.699636
0.690938
0.789921
0.604868
0.649022
0.516663
0.459064
0.467303
0.685781
0.657859
0.700068
0.59674
0.556734
0.474843
0.59647
0.567536
0.631082
0.618001
0.474521
0.443026
1.02008
0.856148
0.752517
0.937262
1.02783
0.852835
0.887293
0.931681
0.669241
0.789795
0.577265
0.706291
0.94762
0.812864
0.710365
0.695193
0.777899
0.727666
0.777611
0.980083
1.17274
1.27047
0.843809
0.865258
0.655054
0.890473
0.948183
1.09755
1.29435
0.93338
0.737902
0.705794
0.619198
0.684183
0.513718
0.628725
0.475829
0.608
0.528876
0.656523
0.981646
0.915073
0.804855
0.907633
0.434842
0.432037
0.528545
0.606927
0.440004
0.400697
0.895962
0.901125
0.481843
0.621418
0.834046
0.375537
0.766616
0.915542
0.749131
0.5927
0.607861
0.611776
0.725322
0.604719
0.789502
0.628653
0.566296
0.768574
0.514846
0.75783
0.827528
0.589751
0.517938
0.788528
0.578163
0.783564
0.783806
0.553032
0.880922
0.559802
0.782949
0.818832
3.00667
0.561732
0.812886
0.509654
0.569428
0.715056
0.743932
0.672664
0.870662
0.631087
0.626276
0.745745
0.599753
2.22689
0.614175
0.461414
0.711363
0.446392
0.721518
0.528439
0.639417
0.545475
0.713082
0.786968
0.567644
0.843781
0.77548
0.608725
0.313826
0.594726
0.618467
0.823778
0.580534
0.63065
0.5339
0.654339
0.717812
0.752836
0.686212
0.809827
0.662561
0.656573
0.852197
0.529959
0.660002
0.571485
0.787826
0.712867
0.563045
0.750892
0.748839
0.721049
0.687092
0.7291
0.762617
0.763575
0.758811
0.714769
0.787957
0.722529
0.681382
0.74162
0.753963
0.583935
0.729235
0.607219
0.73219
0.747279
0.662146
0.706976
0.653384
0.621887
0.619343
0.716108
0.68212
0.700302
0.689114
0.64794
0.620639
0.709557
0.710118
0.746221
0.702414
0.699511
0.717929
0.721643
0.747758
0.756767
0.66803
0.711283
0.725272
0.739959
0.69012
0.755515
0.725876
0.729246
0.763067
0.758753
0.724803
0.709628
0.756697
0.749081
0.772311
0.72349
0.75819
0.624233
0.708475
0.772619
0.735038
0.712923
0.774151
0.645104
0.715974
0.75144
0.555352
0.706455
0.729924
0.674095
0.698325
0.713926
0.784741
0.78341
0.752662
0.750547
0.754087
0.718109
0.739436
0.749415
0.709246
0.67548
0.729001
0.768898
0.66936
0.700775
0.716931
0.627863
0.655472
0.700274
0.684891
0.771738
0.7459
0.759698
0.632238
0.66018
0.622701
0.706323
0.698973
0.695746
0.659746
0.614802
0.741955
0.765861
0.820096
0.728589
0.848648
0.775762
0.658374
0.714965
0.65094
0.738169
0.719852
0.740179
0.671825
0.616151
0.760127
0.650585
0.768996
0.733874
0.720628
0.665155
0.699211
0.635386
0.704026
0.729701
0.718202
0.673778
0.574736
0.680489
0.664647
0.699624
0.698761
0.658101
0.706777
0.667426
0.695294
0.708973
0.657101
0.743371
0.667164
0.582673
0.678893
0.81082
0.7562
0.786066
0.686025
0.752125
0.698396
0.681656
0.70474
0.781061
0.720778
0.693317
0.729094
0.746959
0.786503
0.864248
0.671775
0.66626
0.708198
0.671741
0.818015
0.728422
0.800284
0.718478
0.613632
0.594088
0.83508
0.680605
0.751228
0.744478
0.723319
0.616058
0.884639
0.753486
0.757472
0.701975
0.762304
0.692482
0.751999
0.812295
0.797336
0.650499
0.665877
0.61009
0.665749
0.731058
0.614607
0.699882
0.62878
0.598517
0.688642
0.738981
0.657182
0.773516
0.609516
0.625898
0.751586
0.732276
0.749397
0.75313
0.652614
0.733121
0.728579
0.735376
0.764578
0.833642
0.789129
0.699509
0.783641
0.630869
0.797627
0.730751
0.74694
0.791962
0.819357
0.829913
0.814638
