1.00406
1.67126
1.34766
2.55229
3.05319
1.8806
2.80691
3.43912
1.00758
1.56822
1.43169
1.99073
3.06475
2.10575
1.312
2.26084
3.54841
4.2469
3.42715
4.30204
3.02552
4.21161
2.81277
3.6825
3.56258
3.61241
2.85042
2.63301
2.64928
4.22228
3.65072
4.5162
3.1763
2.68968
1.88627
0.759124
3.32858
2.91579
3.40173
1.47084
2.84204
2.24787
2.89271
3.83938
3.52106
3.42038
1.42987
2.007
1.54827
2.92711
3.54567
2.11966
1.70561
2.21333
2.82734
2.00272
1.11304
2.09563
1.88446
2.98636
2.09085
1.61097
1.9696
3.98171
2.78778
1.70767
2.72953
1.86619
2.55338
3.90017
2.8371
1.426
2.18078
1.98337
2.94626
3.46805
3.05854
2.95908
3.47297
2.27619
1.64151
1.61925
3.22337
2.08246
2.83914
2.45639
1.39288
2.30602
3.36081
3.59692
1.46439
2.24711
3.44934
4.07808
1.31278
3.35539
2.2533
2.11826
2.04725
2.63907
3.28049
2.89689
2.63936
2.36067
3.30484
1.90861
1.87758
2.32273
1.74212
2.56075
2.35419
2.34114
1.99525
1.18743
1.05673
3.64176
1.45868
2.63376
3.16248
1.80563
1.94049
1.15359
4.03015
2.40248
1.54026
2.23922
1.35143
3.47552
1.35257
1.69759
1.89017
2.26353
2.98479
2.54432
2.17421
2.81543
2.60785
2.98641
2.49188
2.38525
2.39801
3.1759
2.03915
2.81246
3.60619
3.49421
2.80758
3.27897
2.45802
3.24135
3.25233
3.31053
1.85672
1.77767
2.49591
2.17122
3.00348
2.98293
2.31935
2.06412
1.9762
2.30131
3.56812
2.73174
3.05473
2.96775
2.66243
2.48145
2.40117
2.48073
2.31371
2.98948
3.26858
2.41463
1.27683
3.14977
2.67365
2.63747
3.81378
2.22069
3.06611
2.9943
4.32499
3.58146
2.71078
2.89507
3.83576
3.44917
2.44986
2.37829
3.65126
3.95579
1.38991
2.30353
2.16402
2.31706
2.80437
2.38216
3.68836
2.98333
1.67442
2.1846
1.31686
1.36851
3.45023
2.48999
4.16468
1.83313
0.912505
1.94095
2.24751
2.19613
3.01649
5.12659
1.14949
1.73708
4.09221
4.03504
3.05195
4.07118
2.8644
4.14252
2.4748
4.08145
3.65225
4.23362
3.10323
3.79347
3.82289
4.53293
0.81208
4.17516
3.88831
4.45073
2.31082
3.42836
3.91529
3.52846
4.4123
4.43369
2.91368
3.87921
4.40256
3.46946
3.79576
4.53745
3.55892
4.88063
4.27955
3.09674
2.95397
4.87971
3.94219
4.42969
4.39241
3.72111
3.03987
4.07989
4.29329
3.41443
3.38439
3.47146
3.09065
4.32965
4.16967
3.32302
2.29269
4.15549
3.82273
4.56414
2.98979
3.60837
2.85279
4.02931
2.48129
1.21972
3.725
2.61696
2.30715
3.63372
0.896145
1.54604
1.05363
1.18371
2.9038
3.72434
1.98195
3.39724
1.86919
1.99599
3.42777
3.03328
2.51339
2.73711
1.54688
2.14116
4.66533
4.39838
4.83787
4.69469
4.26912
1.97652
4.5832
1.3471
2.39027
1.06975
4.05245
2.98685
4.7444
4.62158
4.37075
3.90094
2.39172
0.915182
3.83283
3.70073
4.51404
2.38964
3.87094
2.21451
4.21796
5.19511
4.89295
2.88772
2.0426
4.41713
5.16293
4.48602
0.986601
0.832031
0.512129
0.659041
0.741415
0.577694
0.897091
0.696432
0.626698
0.709701
1.44642
1.17276
1.19711
0.43247
0.407994
0.397475
0.978459
0.850601
0.394156
0.750803
0.813669
0.820897
1.35577
0.958228
0.954326
0.884827
0.895232
0.750632
0.748232
0.678769
0.992007
0.704429
0.698861
0.675576
0.461926
0.600956
0.494969
0.553378
0.654017
0.712735
0.362524
0.940913
0.245457
0.734354
0.376562
1.08644
0.571331
0.440787
0.32769
0.354135
0.426713
0.390038
0.717409
0.598229
0.952052
1.02927
0.838303
0.792855
0.876659
0.659632
0.713668
0.617307
0.505019
0.65219
0.922554
0.685399
0.576848
0.575825
0.518712
0.540734
0.885602
0.666247
0.513904
0.30965
0.808323
1.02236
0.558835
0.621118
0.440943
0.369007
0.749125
0.420832
0.510893
0.456976
0.576053
0.562359
0.535782
1.2464
0.769335
0.634959
0.776384
0.66644
0.603645
0.559363
0.558772
0.589966
0.969917
0.783498
0.561812
0.664038
0.467091
0.589071
0.671779
0.622158
0.41075
0.697937
0.728161
0.729261
0.40575
0.564383
0.513285
0.695644
0.319461
0.180875
0.491084
0.272109
0.631674
0.48822
0.864603
0.943706
0.732038
0.605176
0.778976
0.610937
0.736927
0.545875
0.460455
0.503395
1.98201
0.928347
1.02002
0.610976
0.906029
0.78045
0.903639
1.25777
1.73498
0.787649
0.537365
0.700477
1.18711
0.783571
0.743498
0.771926
1.73868
0.936659
0.666484
1.11421
1.15189
0.918791
0.556413
1.27311
1.77477
1.46411
1.3223
0.614349
1.20268
0.777906
1.00166
0.588198
0.703726
0.542184
0.568327
0.453489
0.463591
0.659819
0.505662
0.602181
0.511045
0.430883
0.711447
0.689273
0.451233
0.684207
0.500872
0.436312
0.514582
0.517725
0.58444
0.530578
0.447608
0.736913
0.49064
0.611358
0.881484
0.428766
0.656847
0.712453
0.545616
0.776558
0.333132
0.374389
0.801113
0.406673
0.524833
0.586464
0.597567
0.555791
0.726163
0.680889
0.880326
0.500733
0.589439
0.587914
0.480231
0.468051
0.375788
0.422949
0.57265
0.68676
0.50442
0.568853
0.332849
0.63393
0.725355
0.80729
0.669708
0.933093
0.733429
0.598949
0.361353
0.804846
0.357498
0.404548
0.555004
0.754468
1.17965
0.519144
0.583512
0.444482
0.748008
0.624371
0.408857
0.584368
0.516397
0.699292
0.985466
0.731784
0.922543
0.579383
0.564741
0.438212
0.362687
0.321644
0.456707
0.503594
0.530212
1.06446
0.280577
0.182214
0.857489
1.01747
0.46613
0.550333
0.317089
0.241271
3.60495
3.7329
0.952693
0.635068
1.20792
1.8711
2.91578
3.2566
1.61052
0.824816
2.31668
2.29631
1.86108
2.53008
1.60036
2.67535
1.89211
1.04171
1.30024
3.48306
1.81433
2.22308
1.07216
2.1997
3.53844
2.23377
3.5421
3.20054
1.99836
0.84822
1.07169
2.42061
3.01698
1.843
1.4593
0.712934
0.808956
1.58029
1.17792
3.3065
0.477514
2.42092
1.3965
2.1137
1.37907
1.83071
2.07843
3.26221
1.74545
0.794417
1.81639
2.50889
2.61073
2.08309
2.58256
1.13342
2.83591
2.21804
3.40823
2.6964
0.808793
2.95402
1.71198
2.86113
1.87362
3.03081
0.604397
4.05784
0.714629
2.74004
1.87829
1.54617
2.26109
1.01064
2.33601
2.62392
1.649
2.47826
0.675031
0.89445
1.27332
0.764027
2.26325
0.769972
1.70106
2.33162
2.66063
2.2896
1.52913
2.75322
2.82359
2.87004
2.2415
1.86045
0.992865
2.41639
2.82188
3.37718
2.9849
2.87124
0.802419
1.7126
1.96857
2.69357
1.87841
0.79642
1.4159
2.11483
2.52414
2.09102
1.82873
2.51289
0.481137
2.69286
1.86876
0.782532
2.57434
1.84
1.4028
2.12527
1.0858
2.9195
2.06801
3.52972
2.48842
1.23023
1.46141
0.713271
2.48686
1.02597
2.09878
2.77573
2.58967
1.38457
1.94996
2.25098
2.15822
1.82965
1.45674
1.99688
2.09343
1.2728
2.14949
1.25919
1.82325
1.79948
2.76602
1.45853
2.12512
1.49589
1.94039
1.75183
2.32964
3.25982
1.93007
2.30302
2.60662
2.02863
1.83233
1.8464
0.488295
2.54507
1.25911
2.47725
1.15623
2.34212
1.3997
1.94677
1.72364
1.07769
1.54631
1.42184
2.06883
2.13823
2.22222
1.50612
1.83729
1.08237
2.23519
1.61015
2.33281
1.57397
1.70482
1.43279
1.87588
2.48229
2.46703
3.09665
1.28172
1.80103
2.16048
2.38168
2.08333
1.2948
2.07525
1.00446
1.69366
1.61325
1.9369
1.70097
1.82209
2.12595
1.5465
1.04311
2.23392
1.44284
1.40397
0.543428
1.78423
2.08483
2.24366
1.88136
2.12739
2.0307
1.63673
0.98023
1.22508
1.14944
1.95044
0.816781
1.90844
1.6107
2.08306
2.76008
1.63666
0.714613
2.1657
2.55213
2.03194
2.57038
2.48351
2.08868
1.6848
0.964988
1.67399
2.1664
1.51338
2.12362
1.77043
1.61293
1.05311
0.978946
2.0539
1.73022
1.85749
2.32406
1.55879
1.25604
1.19289
2.55111
1.40843
2.96925
2.18177
2.39258
1.11515
2.05534
0.902229
0.868499
1.1485
0.835596
1.10558
0.887702
1.118
0.843842
4.33973
5.36751
5.7462
2.49093
1.83217
3.877
1.16755
1.47525
2.75743
4.56163
0.982027
1.48341
1.75845
3.86764
2.52427
5.19083
0.847386
0.913283
0.893014
0.839464
1.04059
0.783712
2.95236
1.10258
1.12048
1.28997
4.41593
0.805797
1.24399
4.96031
0.757043
0.829792
4.79806
2.11079
5.13578
3.11043
1.95256
2.08473
1.62323
1.92566
2.81866
4.4516
3.55169
1.60314
2.27115
4.38731
4.42883
3.49015
1.19842
1.21582
1.20297
0.850654
1.06198
3.6482
4.28184
1.21095
1.25574
1.18767
2.49498
2.61217
3.71878
2.88656
1.32881
1.02308
3.28059
3.67437
3.67855
3.6141
3.19172
3.76597
1.67719
3.49274
3.40009
3.74328
2.36442
2.03076
3.6423
2.95512
3.04907
2.71266
1.16061
1.3234
1.26364
1.46224
3.91135
2.73104
2.82311
2.66832
1.20601
1.00459
1.66462
2.66637
1.26104
2.71479
0.803648
0.855651
5.25993
3.11732
4.15155
4.25366
2.19054
2.15315
3.41403
1.78498
2.37437
5.077
1.15807
1.23466
1.94514
2.08487
4.91352
2.46682
0.793834
1.28796
0.867758
0.784922
3.96196
1.53595
2.69639
0.811085
0.535083
0.657214
0.75041
0.69079
0.691339
0.64932
0.572754
0.601669
0.651766
0.762175
0.850259
0.83167
0.712031
0.793269
0.780014
0.74688
0.809742
0.817582
0.743045
0.791568
0.714799
0.782835
0.783912
0.764056
0.582544
0.666851
0.655578
0.651069
0.757966
0.707677
0.72973
0.696853
0.534063
0.572576
0.675617
0.610836
0.758193
0.664531
0.587816
0.612547
0.806079
0.678858
0.766928
0.990246
0.590109
0.890754
0.704111
0.685167
1.2537
2.01097
0.780013
0.786283
0.670113
0.76012
0.824593
0.896573
0.554701
0.621265
0.553607
0.590089
0.67318
0.690203
0.711399
0.69243
0.797346
0.697184
0.844584
0.701085
0.861943
0.788257
0.651232
0.875405
1.14689
0.873133
1.30425
2.07346
0.919832
2.03764
0.84969
0.820873
1.10598
0.911545
0.8728
0.826412
1.91243
1.0436
1.26275
2.07715
1.78608
0.627552
0.621836
0.722328
0.907475
0.796317
0.881246
0.708543
0.517794
0.617343
0.702285
0.675062
0.681684
0.6945
0.566079
0.598415
1.09803
2.21097
0.880157
0.795969
0.731713
0.764033
0.775817
0.795663
0.78087
0.645635
0.73593
0.696378
0.74076
0.895168
1.0723
0.61639
0.540673
0.602422
0.552385
0.628356
0.691731
0.693918
0.72523
0.706302
1.58066
1.33047
1.27015
1.51694
1.49415
1.21644
1.63212
1.52482
1.94286
1.77233
2.23768
1.34583
1.66991
1.52728
1.52059
1.39241
2.1072
1.85259
1.34303
1.48454
1.66629
1.67492
2.22914
1.83285
1.60896
1.4501
1.72976
1.55195
1.0455
1.47617
1.42946
1.33798
1.28471
1.65015
1.58855
1.38538
1.42727
1.45462
1.29097
1.58664
2.0006
1.77383
1.90321
1.69296
1.46303
1.07121
1.61528
1.14971
3.26549
1.9705
1.64603
1.426
1.45631
1.33745
1.89422
1.74685
1.83446
1.69925
1.29821
1.55412
1.36846
1.45806
1.36608
1.42678
1.56913
1.41711
1.36989
1.27025
1.47235
1.19384
1.39919
1.0658
2.15689
1.61807
1.68796
1.85632
1.45117
1.73086
1.63714
1.71872
1.93796
1.72566
1.40409
0.891781
1.48708
1.73655
1.69382
2.11989
1.66358
1.36337
1.4492
1.20466
1.33507
1.11153
1.46978
1.48474
1.24198
1.5163
0.983103
1.53734
1.27354
1.48051
1.44617
1.49847
2.02345
1.89984
1.73346
2.32169
1.45965
1.09685
1.56242
1.57871
1.9988
1.80087
1.44269
1.59213
1.45022
0.935963
1.9027
1.68488
1.56499
1.60591
1.49491
1.52487
1.36735
1.42268
0.88976
1.51959
