0.767746
0.773364
0.864264
1.15631
1.05077
1.08686
0.508736
0.8156
0.628862
0.690395
0.428476
0.640763
0.786067
0.692587
1.03832
0.888273
0.80021
0.224461
0.502156
0.60376
0.732253
0.685324
0.374414
0.659025
0.285185
0.335008
0.416943
0.440513
0.832786
0.708647
0.383194
0.656091
0.409784
0.140481
0.240228
0.143733
0.223628
0.685408
1.48852
1.24294
0.310877
0.368826
0.584887
0.366433
0.613746
0.611887
0.684293
0.760287
0.398015
0.364299
0.305009
0.432416
0.440937
0.360529
0.406204
0.218606
0.12692
0.20263
0.185178
0.256334
0.401983
0.232597
0.557737
0.475917
0.626416
0.407085
0.208838
0.240147
0.246539
0.294239
1.3982
1.23167
1.96947
0.452073
0.669056
1.21452
1.06178
0.842438
0.598208
2.14392
1.26352
1.23507
1.86401
0.854577
0.395741
1.13991
2.17773
2.20648
0.688327
1.34037
1.18653
0.985025
1.72337
1.10833
0.752734
1.03388
1.79963
1.14716
1.19149
1.23359
0.57233
1.44502
0.546997
0.422509
0.212327
0.255372
0.236507
0.291005
0.470108
0.469109
0.516099
0.208778
0.284503
0.207132
0.134218
0.138685
0.137324
0.129456
0.557739
0.388061
0.281392
0.290177
0.171715
0.237429
0.333701
0.31447
0.600053
0.522024
0.491967
0.428038
0.282892
0.25841
0.236117
0.327403
0.760577
0.682634
0.208677
0.363599
1.45505
0.296462
1.20242
0.448148
0.294023
0.192684
0.784229
0.671782
1.57517
0.200931
0.152356
0.918476
0.286566
0.164654
0.294379
2.11864
0.206057
0.808082
0.879247
0.266122
0.888136
0.51134
1.12875
0.833112
0.3074
0.449536
0.254344
0.415258
1.42668
1.52209
1.74531
1.8368
1.75744
1.8773
1.6826
1.66075
1.74682
2.66161
1.97532
1.21397
0.901873
1.91384
1.86524
1.98508
1.80748
1.92796
1.69377
1.6766
1.22583
1.5572
1.45692
1.80515
1.42886
1.23904
0.712622
1.341
1.65046
1.5165
1.1736
1.41991
1.30389
1.20643
0.991557
1.48829
1.61173
1.94996
1.54163
1.77808
2.06333
1.91685
2.16059
2.04898
2.00422
2.57779
3.07864
1.90425
2.08235
1.65565
1.18975
1.88648
2.11978
1.99479
2.29568
2.06812
1.52315
0.521422
2.00262
1.0016
1.43191
1.79967
1.28697
1.43673
1.74775
1.08573
1.52849
1.90962
1.57478
1.39163
1.16501
1.40622
1.58894
1.7306
2.0985
3.09102
1.52756
1.79627
1.37678
1.62972
1.9846
2.0165
2.73242
1.85197
1.99936
1.79356
1.83067
1.64097
1.14778
1.48504
1.20541
1.62985
2.27406
1.76901
1.90872
1.66257
1.56766
1.44666
1.67567
1.67774
1.59715
1.48931
1.15093
1.57933
1.64395
1.06207
2.42769
2.02228
1.33031
1.77495
1.35884
1.71497
1.88189
1.17104
1.26857
2.11366
1.50329
1.60927
1.47863
0.967719
1.66059
1.64788
0.95864
1.21557
1.04619
1.39752
1.6689
1.40801
1.27394
1.50723
1.28505
1.51777
1.62519
1.6515
1.49827
1.82501
1.47021
1.38895
1.90584
2.65228
1.64211
1.58632
1.26233
1.47515
1.84467
1.9264
1.87153
1.72667
2.70267
1.62163
1.964
1.11056
1.74342
1.948
2.12067
1.7559
1.51114
1.82996
2.29447
2.07207
1.76006
1.11635
1.63091
2.20349
0.519128
0.909298
0.811212
0.750578
1.88574
1.60827
2.03841
1.48513
0.665034
0.400984
1.46581
1.79176
0.95131
1.96038
1.12888
0.913487
0.840247
0.353283
1.04626
2.04109
0.711809
1.14346
1.11201
0.726119
0.446004
1.11771
1.13566
0.87723
0.990546
1.39599
1.56447
1.0494
1.16492
1.36151
1.43438
1.06672
1.61864
1.54032
1.37417
1.42458
1.35062
1.4253
1.17084
1.86665
0.799298
1.08155
0.802346
1.05241
1.61091
1.19382
1.54835
1.58484
0.862496
0.883426
1.23348
1.1485
1.52244
1.12635
1.14528
0.96736
0.863764
0.844294
0.924093
0.446315
1.13973
0.603686
1.192
1.00719
0.43793
0.385031
1.01602
0.631597
0.802551
0.915631
0.237404
0.278095
0.636555
0.413037
1.61474
0.98179
0.258238
0.317974
0.950641
0.477872
0.863256
1.07565
0.7738
0.755999
0.316997
0.403624
0.850887
1.44591
1.56678
1.33889
1.89862
1.49085
1.43598
1.36147
1.3876
1.30332
1.77539
1.83596
1.93758
1.88178
1.60841
1.75182
1.98257
1.72131
2.13657
2.24417
1.61189
1.47887
2.57166
1.7465
2.04214
1.69082
1.61563
1.38174
1.59607
1.46968
1.4403
1.5803
1.26794
2.0392
0.162146
0.78469
0.538039
1.12465
0.521233
0.645269
0.573758
0.511602
1.60906
0.483284
1.66404
1.23085
1.32589
1.27785
0.872451
1.72525
1.3462
1.10921
1.26844
1.05459
1.32748
0.954008
0.742148
1.16499
0.912302
0.792147
0.491655
0.714068
0.404402
0.731465
1.09628
0.935162
1.00446
1.37269
1.10125
0.98935
1.08132
1.30105
1.00613
0.9707
1.25421
1.22756
1.98717
1.15428
1.10533
1.44736
1.23766
1.31012
0.943239
1.1636
1.39882
1.11108
1.06029
1.257
1.22716
1.13092
1.02059
1.19659
1.15727
0.88256
1.21395
1.25688
1.02811
1.09773
1.18431
0.834995
1.47882
0.932167
0.504696
0.665784
0.616383
0.653157
0.665757
1.36744
1.12676
1.25815
0.965393
1.17258
1.15639
1.4193
1.14638
0.977814
1.67674
0.527715
1.17019
0.825921
1.41807
1.69748
0.706947
0.683721
0.457503
0.555254
0.612908
1.44121
0.869729
0.579088
0.950715
0.922835
0.937373
0.984405
0.851592
0.93292
0.991967
1.00137
0.613331
0.800073
0.691423
0.885434
1.14774
0.857377
0.830763
0.911122
1.34914
1.36815
1.08946
0.948473
0.938543
1.0422
1.30319
0.816574
1.50579
1.22648
1.01749
1.23793
1.06971
1.03486
1.40249
1.3824
0.861476
0.838071
1.08712
0.973065
0.897134
0.891852
0.884952
0.937303
1.17562
1.13264
1.30127
1.19591
1.07248
1.0518
1.07975
1.13993
1.2058
1.78472
0.938516
1.25021
1.39657
1.30969
1.16029
1.38896
0.799015
0.79662
0.888748
0.880843
0.928319
0.886909
0.830272
0.853159
0.805891
0.643125
0.809228
0.71682
1.03713
1.24357
0.54426
0.615936
1.76078
1.14076
1.26135
1.54834
0.806587
1.49865
1.353
1.5245
1.55958
0.62755
0.963012
0.956398
0.791258
1.45704
1.10659
1.14145
0.286801
0.635267
0.522846
0.542345
0.939524
0.899629
0.515484
0.923367
1.62178
2.42278
2.02796
2.2235
2.08792
2.22208
2.47724
1.39446
0.715108
0.918465
0.819423
1.29854
1.41099
1.15398
1.55802
1.29009
0.928989
1.03376
1.77571
1.31732
1.89289
1.6492
0.757825
0.948206
2.09088
1.83672
2.03196
1.665
2.03312
2.18784
2.00193
2.02978
2.34635
2.23855
1.98041
1.52879
1.8281
1.73031
1.59517
1.57411
0.968258
1.63486
1.19252
1.29878
1.582
1.6098
1.41935
1.85482
1.22433
1.36093
1.49613
1.43882
2.00407
1.95129
1.34671
1.12437
2.59692
1.3392
1.10529
1.46648
1.94566
1.64064
1.8415
1.78877
1.65208
1.9553
2.17715
1.45704
2.45175
1.51837
1.91797
2.08554
1.57514
1.38266
1.46737
1.50714
1.44861
2.00675
1.30981
2.16534
0.708074
1.33371
1.12014
1.86167
2.1056
0.55979
0.882319
0.738834
1.30001
2.14032
2.10969
2.30064
2.23619
1.91351
1.04177
2.28069
1.20409
1.61743
2.08425
2.08738
1.30829
2.33575
1.16492
1.4197
2.95982
2.02125
2.2925
1.98552
2.22344
1.92796
2.09032
1.93909
1.87521
1.90442
1.16731
1.38732
2.18702
1.88778
1.59875
2.33192
1.08009
1.15882
2.03332
2.14385
1.87177
2.26706
1.23314
1.93517
2.17315
1.87506
2.08795
1.86235
2.15438
1.15222
0.724484
1.79054
0.944883
1.83443
0.796531
1.15871
1.78484
1.37676
2.20729
1.58917
1.15376
0.999487
1.46008
1.85246
1.47254
1.69829
1.28047
1.13167
1.58604
1.1223
1.8206
2.06744
1.9169
1.14139
1.51806
1.44275
1.85027
2.11842
2.03166
1.99922
1.6926
2.15736
1.901
2.04217
1.04482
1.48047
0.980788
1.33248
1.43629
2.0637
2.17218
1.81609
1.07756
1.47097
1.78601
1.96746
2.06367
1.42164
1.23062
1.2485
1.03221
2.23428
2.27908
2.32529
1.78512
2.03158
1.86142
1.75991
0.405892
0.443452
1.04099
0.977382
1.34334
0.178808
0.452425
0.469828
0.207553
0.195369
0.952922
0.133541
0.860948
0.923055
0.816264
0.75428
0.634769
0.706949
0.513399
0.636387
0.796944
0.639216
0.82464
0.735743
1.09944
0.877116
1.13909
1.0591
1.00319
1.03158
1.04254
0.957763
1.06257
1.04842
1.08575
0.877034
0.968583
0.889874
0.90196
0.978617
1.21629
0.80988
0.800823
0.958577
0.865298
1.15831
0.905558
0.914765
1.0668
0.870866
0.874369
1.2234
0.709762
0.827308
0.799817
0.710732
0.700889
0.757883
0.39825
0.721152
0.647206
0.563981
0.68257
0.607761
0.830887
0.620349
0.802423
0.776288
0.388101
0.244956
0.589814
0.569816
0.785582
0.600035
0.455503
0.579122
0.697596
1.05371
1.24793
1.2908
1.60205
1.56732
1.65666
1.27428
1.22747
0.615113
0.833376
1.32237
1.25597
0.663602
0.78651
1.19528
1.00466
1.40367
1.17773
0.67248
0.822143
1.08236
1.1878
1.71396
0.992003
1.33287
1.13686
1.19072
1.07838
0.186058
0.783854
0.599631
1.45898
1.26972
0.330534
0.192548
0.194458
1.48733
1.5491
1.00936
1.44018
0.574158
0.708405
0.878794
1.66276
0.829579
0.812636
0.183039
0.177085
0.202707
0.299684
0.635798
1.05887
0.12437
0.179789
0.129325
0.169214
0.406094
0.3618
0.973385
1.14589
0.683611
0.375699
0.422927
0.427383
1.71263
0.493347
1.0695
0.855284
0.485808
0.58119
0.517373
0.512957
0.463036
0.879636
0.652324
0.318958
0.433873
0.249843
0.628945
0.969814
0.844618
0.411453
0.898643
1.3894
1.01976
0.391472
0.432805
