OFF
269 520 0
-10.2608 -21.9141 -21.8169
-10.0398 -21.2867 -21.8879
-9.92379 -21.8489 -22.0699
-10.1028 -22.2549 -21.9349
-9.62879 -21.9421 -22.1009
-9.81079 -22.3767 -21.9539
-9.91479 -22.5895 -21.6519
-10.2268 -22.4948 -21.5359
-10.3598 -22.0834 -21.5529
-9.28279 -21.8796 -21.9689
-9.03879 -21.9555 -21.6439
-9.44379 -22.2865 -21.8319
-9.13779 -22.1547 -21.2249
-9.53079 -22.4863 -21.5489
-9.20579 -21.6965 -20.4489
-9.54279 -22.1956 -20.7759
-9.81579 -22.5713 -21.2239
-9.95479 -22.2591 -20.8169
-10.3168 -21.9325 -21.1309
-5.52979 -11.3075 -14.0759
-5.44479 -11.2655 -14.1849
-6.10579 -12.4607 -15.1289
-6.19379 -12.4977 -15.0079
-7.27879 -14.1024 -16.0359
-6.95779 -13.5913 -15.6389
-6.98479 -13.6366 -15.4749
-6.21879 -12.5611 -14.7859
-5.55579 -11.3626 -13.9349
-8.22579 -15.4922 -16.7989
-8.33779 -15.5387 -16.6209
-7.70379 -14.5976 -16.1369
-7.73379 -14.661 -15.9049
-8.29579 -15.6371 -16.2529
-7.60379 -14.7447 -15.5939
-6.93279 -13.6996 -15.2249
-6.12579 -12.6429 -14.5419
-5.50879 -11.4408 -13.7179
-4.93579 -11.268 -14.1869
-4.80879 -11.304 -14.0959
-5.44879 -12.4954 -15.0299
-5.67179 -12.4482 -15.1699
-6.20079 -13.5897 -15.6619
-6.33279 -13.5598 -15.7669
-6.63879 -13.5364 -15.8369
-5.10879 -11.2481 -14.2349
-6.91179 -14.6069 -16.1219
-7.51479 -15.5419 -16.6289
-7.68779 -15.4952 -16.7999
-7.17179 -14.5547 -16.3119
-7.99679 -15.4742 -16.8709
-7.45279 -14.5489 -16.3259
-5.29179 -11.2464 -14.2359
-5.94779 -12.4441 -15.1849
-4.91179 -11.4692 -13.6279
-5.72279 -12.8205 -14.5729
-5.44679 -12.5931 -14.6649
-6.26879 -13.7185 -15.1949
-6.13879 -13.6251 -15.4519
-4.79579 -11.4086 -13.8289
-7.17279 -14.7597 -15.5239
-7.74079 -15.6825 -16.0949
-7.57679 -15.6332 -16.2839
-6.94879 -14.6967 -15.7809
-4.76879 -11.3536 -13.9699
-5.40679 -12.5393 -14.8899
-5.36379 -11.5064 -13.5699
-5.95479 -12.6865 -14.4089
-6.78379 -13.7554 -15.0509
-6.57179 -13.7704 -14.9929
-5.16379 -11.5269 -13.5209
-8.14079 -15.6861 -16.0719
-7.92879 -15.7027 -16.0149
-7.40079 -14.7716 -15.4909
-5.76279 -12.6871 -14.4079
-8.62779 -16.3556 -17.5019
-8.81679 -17.4623 -18.7889
-8.87679 -17.1492 -18.1709
-8.70479 -16.4468 -17.1709
-8.90179 -18.337 -20.0609
-8.96579 -18.223 -19.6679
-8.99679 -18.2313 -19.4039
-8.93679 -18.3595 -19.1959
-8.76479 -17.3965 -17.7779
-8.87079 -17.3015 -17.9509
-8.60679 -16.5177 -16.9089
-7.88479 -16.3942 -17.3889
-8.14379 -16.3422 -17.5789
-8.13079 -17.1239 -18.3169
-8.53179 -17.0913 -18.4349
-8.07479 -17.7761 -19.0109
-8.11279 -18.1943 -19.7829
-8.35379 -17.722 -19.2179
-8.59379 -17.9781 -19.6259
-8.42479 -16.3366 -17.5929
-8.14679 -16.5485 -16.7909
-7.92179 -16.4841 -17.0489
-8.31779 -17.7219 -18.1339
-8.10279 -17.2526 -17.8339
-8.15579 -18.627 -19.3629
-8.11479 -17.8719 -18.6429
-7.98479 -18.3671 -19.5739
-8.03679 -17.184 -18.1019
-8.43079 -16.5564 -16.7659
-8.49879 -17.4328 -17.6809
-8.69579 -18.4292 -18.9459
-8.44979 -18.4304 -18.9249
-9.49979 -19.2488 -20.4339
-9.09279 -18.688 -19.8869
-9.46579 -19.1956 -20.7769
-9.18079 -18.9315 -20.9309
-9.63979 -19.7426 -20.2139
-9.53879 -19.9496 -19.9269
-8.94879 -18.8221 -19.5409
-7.90479 -18.6922 -20.4629
-8.20879 -18.6938 -20.7889
-7.88179 -19.0469 -20.7479
-8.29679 -19.4936 -21.2299
-8.50579 -18.9492 -21.0669
-9.10479 -19.4549 -21.3569
-8.75879 -18.7152 -20.8759
-7.84979 -19.2081 -20.1289
-8.14979 -19.4686 -19.7099
-7.92079 -19.6481 -20.6849
-7.79379 -18.8929 -20.3489
-8.74179 -18.9669 -19.3799
-8.47279 -18.8646 -19.3219
-9.26379 -19.8962 -19.6679
-9.03579 -20.0481 -19.6049
-8.69579 -19.9234 -19.5789
-9.59279 -19.8401 -21.3869
-9.98779 -20.4318 -21.3299
-9.85279 -20.5639 -21.6789
-10.0068 -20.4054 -20.9059
-10.2278 -21.3473 -21.6409
-10.3098 -21.483 -21.3359
-10.0198 -21.2728 -20.4929
-10.0608 -20.8459 -20.6659
-8.12979 -19.9103 -21.1579
-8.40579 -20.6333 -21.4519
-8.69879 -20.5824 -21.6879
-9.09779 -20.5592 -21.8169
-8.81979 -19.8109 -21.5139
-8.73379 -21.2942 -21.6709
-9.00979 -21.2858 -21.9009
-9.37879 -21.3029 -22.0339
-9.73079 -21.2512 -22.0139
-9.50879 -20.5435 -21.8149
-8.67179 -20.6414 -20.0019
-8.46079 -20.6987 -20.3319
-8.23479 -20.4901 -20.6289
-8.77879 -21.6276 -20.9979
-8.66179 -21.4225 -21.3959
-8.31579 -20.7323 -21.1339
-9.67779 -20.9959 -20.1119
-9.58679 -21.5415 -20.2589
-9.89979 -21.6621 -20.4669
-9.09879 -21.0237 -20.0209
-3.93179 -6.37762 -7.29894
-3.81879 -6.47522 -7.27994
-3.98179 -7.49112 -9.12394
-4.09179 -7.41932 -9.15894
-4.15079 -8.70142 -10.9819
-4.26379 -8.64732 -11.0369
-4.41879 -8.61802 -11.0659
-4.24179 -7.38132 -9.17794
-4.08779 -6.32722 -7.30894
-4.40179 -10.0058 -12.6929
-4.52079 -9.96312 -12.7669
-4.68479 -9.93962 -12.8069
-5.00179 -9.96112 -12.7659
-4.85679 -9.93802 -12.8079
-4.71879 -8.64692 -11.0349
-4.58179 -8.61682 -11.0659
-4.53679 -7.42252 -9.15694
-4.39879 -6.38742 -7.29694
-4.25479 -6.32882 -7.30894
-4.40179 -7.38112 -9.17794
-4.48879 -6.50762 -7.27194
-4.61579 -7.50962 -9.11394
-4.79579 -8.71162 -10.9689
-4.81779 -8.84512 -10.8319
-4.64379 -7.62242 -9.05794
-4.52579 -6.66242 -7.23994
-5.08179 -10.0115 -12.6759
-5.10679 -10.0985 -12.5099
-4.99179 -10.2245 -12.2949
-4.69679 -8.99472 -10.6769
-4.57179 -7.84462 -8.94794
-4.46079 -6.96692 -7.17794
-4.51579 -6.82462 -7.20694
-4.62779 -7.74072 -8.99894
-4.36479 -7.06222 -7.15894
-4.42079 -7.94092 -8.89794
-4.46879 -9.04502 -10.6349
-4.24279 -7.10802 -7.14994
-4.75979 -10.2723 -12.2189
-4.51979 -10.2147 -12.2869
-4.24679 -8.97872 -10.7149
-4.17479 -7.92952 -8.92294
-3.98379 -7.04092 -7.16494
-4.11079 -7.10172 -7.15194
-3.87679 -6.92292 -7.18894
-4.03879 -7.81452 -8.96494
-4.13979 -8.86132 -10.8199
-3.96979 -7.70642 -9.01794
-3.80479 -6.77282 -7.21894
-4.38979 -10.1309 -12.4739
-4.36379 -10.0651 -12.5899
-4.11479 -8.77712 -10.9059
-3.78079 -6.61522 -7.25094
-3.94679 -7.59272 -9.07394
-3.18979 -5.12132 -3.56394
-2.61779 -4.60572 -1.13394
-2.54279 -5.02102 -1.12394
-3.26779 -5.52592 -4.14694
-2.58279 -5.49272 -1.09794
-3.03379 -5.63932 -2.94194
-3.29779 -5.81422 -4.13294
-2.73079 -5.95252 -1.08694
-2.94479 -6.30002 -1.03694
-3.32479 -6.24802 -2.91694
-3.14679 -5.98002 -2.92794
-3.54579 -6.30712 -4.10794
-3.39479 -6.09012 -4.11894
-3.77579 -6.54082 -5.54194
-3.64979 -6.37632 -5.55694
-3.56779 -6.16702 -5.57494
-3.58479 -5.75432 -5.60994
-3.54079 -5.94802 -5.59394
-3.95479 -4.80282 -2.97094
-3.72779 -4.39262 -1.13794
-3.42779 -4.21242 -1.15394
-3.71979 -4.66612 -2.97794
-3.11379 -4.19262 -1.14794
-3.46379 -4.65392 -2.97994
-3.67079 -5.01192 -4.16994
-3.89279 -5.02032 -4.16894
-4.09379 -5.13042 -4.16294
-2.83279 -4.32602 -1.15194
-3.46679 -5.09802 -4.16694
-3.71179 -5.62082 -5.62194
-3.88879 -5.55352 -5.62694
-4.24679 -5.64102 -5.61794
-4.07779 -5.55832 -5.62594
-4.17679 -6.08702 -2.91894
-4.04779 -6.08712 -1.06994
-4.12579 -5.68762 -1.09294
-4.32079 -5.91982 -4.12294
-4.08979 -5.20372 -1.10594
-4.26779 -5.52162 -3.54194
-4.25879 -6.17572 -4.11094
-3.95379 -4.75152 -1.12194
-4.23479 -5.34912 -4.15194
-4.35879 -5.80752 -5.60294
-4.41379 -6.02092 -5.58394
-4.35479 -6.43982 -5.54794
-4.41279 -6.24402 -5.56494
-3.24679 -6.47962 -1.06394
-3.55279 -6.38582 -2.90994
-3.55879 -6.49932 -1.05394
-3.79479 -6.40032 -2.90894
-3.93779 -6.43052 -4.09994
-3.73679 -6.41882 -4.10194
-3.84079 -6.36602 -1.06594
-4.01479 -6.29842 -2.91194
-4.12179 -6.34772 -4.10294
-4.24179 -6.57122 -5.53694
-4.09279 -6.63442 -5.53194
-3.93079 -6.62552 -5.53394
3 0 1 2
3 0 2 3
3 2 4 5
3 2 5 3
3 5 6 7
3 5 7 3
3 7 8 0
3 7 0 3
3 9 10 11
3 10 12 13
3 10 13 11
3 13 6 5
3 13 5 11
3 5 4 9
3 5 9 11
3 12 14 15
3 12 15 16
3 15 17 16
3 16 6 13
3 13 12 16
3 17 18 7
3 18 8 7
3 7 6 16
3 16 17 7
3 19 20 21
3 19 21 22
3 21 23 24
3 21 24 22
3 24 25 26
3 24 26 22
3 26 27 19
3 26 19 22
3 23 28 29
3 23 29 30
3 29 31 30
3 31 25 24
3 31 24 30
3 24 23 30
3 32 33 31
3 33 34 31
3 34 25 31
3 31 29 32
3 35 36 26
3 36 27 26
3 26 25 34
3 34 35 26
3 37 38 39
3 37 39 40
3 39 41 42
3 39 42 40
3 42 43 40
3 40 44 37
3 45 46 47
3 45 47 48
3 47 49 48
3 48 43 42
3 42 41 45
3 42 45 48
3 49 28 23
3 49 23 50
3 23 43 50
3 43 48 50
3 48 49 50
3 21 20 51
3 21 51 52
3 51 44 40
3 51 40 52
3 40 43 52
3 43 23 21
3 43 21 52
3 53 54 55
3 54 56 55
3 56 57 55
3 55 58 53
3 59 60 61
3 59 61 62
3 62 57 56
3 56 54 59
3 56 59 62
3 45 41 57
3 57 62 45
3 62 61 46
3 62 46 45
3 39 38 63
3 39 63 64
3 63 58 55
3 63 55 64
3 55 57 64
3 57 41 39
3 57 39 64
3 65 36 35
3 65 35 66
3 35 34 67
3 35 67 66
3 67 68 66
3 66 69 65
3 33 32 70
3 70 71 72
3 70 72 33
3 72 68 67
3 72 67 33
3 67 34 33
3 71 60 59
3 59 54 68
3 68 72 59
3 72 71 59
3 54 53 69
3 54 69 73
3 69 66 73
3 66 68 73
3 68 54 73
3 29 28 74
3 74 75 76
3 76 77 74
3 77 29 74
3 75 78 79
3 80 76 79
3 76 75 79
3 81 82 83
3 83 76 80
3 80 81 83
3 84 32 77
3 32 29 77
3 77 76 83
3 83 82 84
3 83 84 77
3 47 46 85
3 47 85 86
3 85 87 86
3 87 88 86
3 86 49 47
3 89 90 91
3 90 92 91
3 91 88 87
3 87 89 91
3 92 78 75
3 75 88 92
3 88 91 92
3 74 28 49
3 74 49 93
3 49 86 93
3 86 88 93
3 88 75 74
3 88 74 93
3 61 60 94
3 61 94 95
3 94 96 97
3 94 97 95
3 96 98 99
3 98 100 99
3 97 96 99
3 100 90 89
3 89 87 101
3 101 97 99
3 101 99 89
3 99 100 89
3 46 61 95
3 46 95 85
3 95 97 101
3 95 101 85
3 101 87 85
3 70 32 84
3 70 84 102
3 84 82 102
3 82 103 102
3 102 71 70
3 82 81 104
3 104 103 82
3 105 98 96
3 96 103 105
3 103 104 105
3 94 60 71
3 71 102 94
3 102 103 94
3 103 96 94
3 78 106 107
3 107 80 79
3 107 79 78
3 106 78 108
3 78 109 108
3 110 111 112
3 110 112 107
3 106 110 107
3 112 81 107
3 81 80 107
3 90 113 114
3 114 92 90
3 115 116 114
3 116 117 114
3 114 113 115
3 118 109 119
3 119 114 117
3 117 118 119
3 78 92 119
3 92 114 119
3 119 109 78
3 98 120 100
3 120 98 121
3 122 115 123
3 115 113 123
3 120 122 123
3 113 90 100
3 113 100 123
3 100 120 123
3 104 81 112
3 124 125 112
3 125 104 112
3 112 111 126
3 112 126 124
3 126 127 124
3 128 121 125
3 121 98 125
3 124 127 128
3 124 128 125
3 98 105 125
3 105 104 125
3 108 109 129
3 108 129 130
3 129 131 130
3 132 106 108
3 132 108 130
3 1 0 133
3 0 8 134
3 0 134 133
3 134 132 130
3 134 130 133
3 130 131 1
3 130 1 133
3 135 136 18
3 136 132 134
3 136 134 18
3 134 8 18
3 110 106 132
3 132 136 110
3 136 135 111
3 136 111 110
3 116 115 137
3 137 138 139
3 137 139 116
3 139 140 141
3 139 141 116
3 141 117 116
3 142 10 9
3 142 9 143
3 9 4 144
3 9 144 143
3 144 140 139
3 144 139 143
3 139 138 142
3 139 142 143
3 2 1 145
3 1 131 146
3 1 146 145
3 146 140 144
3 146 144 145
3 144 4 2
3 144 2 145
3 129 109 118
3 118 117 141
3 141 140 146
3 141 146 118
3 146 131 129
3 146 129 118
3 121 147 148
3 149 120 121
3 149 121 148
3 14 12 150
3 150 149 148
3 148 147 14
3 148 14 150
3 10 142 151
3 142 138 152
3 142 152 151
3 152 149 150
3 152 150 151
3 150 12 10
3 150 10 151
3 137 115 122
3 122 120 149
3 149 152 122
3 152 138 137
3 152 137 122
3 111 135 153
3 111 153 126
3 153 154 127
3 153 127 126
3 135 18 17
3 135 17 155
3 17 154 155
3 154 153 155
3 153 135 155
3 14 147 156
3 156 154 14
3 154 17 15
3 154 15 14
3 147 121 128
3 127 154 156
3 127 156 128
3 156 147 128
3 157 158 159
3 157 159 160
3 159 161 162
3 159 162 160
3 162 163 164
3 162 164 160
3 164 165 157
3 164 157 160
3 166 38 37
3 166 37 167
3 37 44 168
3 37 168 167
3 168 163 162
3 168 162 167
3 162 161 166
3 162 166 167
3 51 20 169
3 51 169 170
3 169 171 172
3 169 172 170
3 172 163 168
3 172 168 170
3 168 44 51
3 168 51 170
3 173 174 175
3 173 175 176
3 175 165 164
3 175 164 176
3 164 163 172
3 164 172 176
3 172 171 173
3 172 173 176
3 177 174 173
3 177 173 178
3 173 171 179
3 173 179 178
3 179 180 181
3 179 181 178
3 181 182 177
3 181 177 178
3 169 20 19
3 169 19 183
3 19 27 184
3 19 184 183
3 184 180 179
3 184 179 183
3 179 171 169
3 179 169 183
3 36 185 184
3 185 186 180
3 185 180 184
3 184 27 36
3 187 188 189
3 187 189 190
3 189 182 181
3 189 181 190
3 181 180 190
3 180 186 187
3 180 187 190
3 191 188 187
3 191 187 192
3 187 186 192
3 186 193 192
3 192 194 191
3 185 36 65
3 65 69 195
3 65 195 185
3 195 193 186
3 195 186 185
3 69 53 196
3 69 196 195
3 196 197 193
3 196 193 195
3 198 199 200
3 200 194 192
3 200 192 198
3 192 193 198
3 193 197 198
3 201 199 198
3 201 198 202
3 198 197 202
3 197 203 204
3 197 204 202
3 204 205 201
3 204 201 202
3 53 58 206
3 53 206 196
3 206 203 197
3 206 197 196
3 63 38 166
3 63 166 207
3 166 161 208
3 166 208 207
3 208 203 206
3 208 206 207
3 206 58 63
3 206 63 207
3 159 158 209
3 159 209 210
3 209 205 204
3 209 204 210
3 204 203 208
3 204 208 210
3 208 161 159
3 208 159 210
3 211 212 213
3 211 213 214
3 213 215 216
3 213 216 214
3 216 217 214
3 218 219 220
3 218 220 221
3 220 222 223
3 220 223 221
3 223 217 216
3 223 216 221
3 216 215 218
3 216 218 221
3 224 199 201
3 224 201 225
3 201 205 226
3 201 226 225
3 226 217 223
3 226 223 225
3 223 222 224
3 223 224 225
3 209 158 227
3 209 227 228
3 227 211 214
3 227 214 228
3 214 217 226
3 214 226 228
3 226 205 209
3 226 209 228
3 229 230 231
3 229 231 232
3 231 233 234
3 231 234 232
3 234 235 236
3 234 236 232
3 236 237 229
3 236 229 232
3 238 212 211
3 238 211 239
3 239 235 234
3 234 233 238
3 234 238 239
3 227 158 157
3 227 157 240
3 157 165 241
3 157 241 240
3 241 235 239
3 241 239 240
3 239 211 227
3 239 227 240
3 175 174 242
3 175 242 243
3 242 237 236
3 242 236 243
3 236 235 241
3 236 241 243
3 241 165 175
3 241 175 243
3 244 245 246
3 244 246 247
3 246 248 249
3 246 249 247
3 247 250 244
3 251 230 229
3 251 229 252
3 229 237 252
3 249 248 251
3 249 251 252
3 242 174 177
3 242 177 253
3 177 182 254
3 177 254 253
3 254 249 252
3 254 252 253
3 252 237 242
3 252 242 253
3 189 188 255
3 189 255 256
3 255 250 247
3 255 247 256
3 247 249 254
3 247 254 256
3 254 182 189
3 254 189 256
3 220 219 257
3 220 257 258
3 257 259 260
3 257 260 258
3 260 261 262
3 260 262 258
3 262 222 220
3 262 220 258
3 263 245 244
3 263 244 264
3 244 250 265
3 244 265 264
3 265 261 260
3 265 260 264
3 260 259 263
3 260 263 264
3 255 188 191
3 255 191 266
3 191 194 267
3 191 267 266
3 267 261 265
3 267 265 266
3 265 250 255
3 265 255 266
3 200 199 224
3 200 224 268
3 224 222 262
3 224 262 268
3 262 261 267
3 262 267 268
3 267 194 200
3 267 200 268
