0.92767
0.677772
0.748032
1.03825
0.91496
0.726337
0.748755
0.962637
1.02945
0.801649
0.887594
0.868216
0.80013
0.795129
0.957741
0.713387
1.09191
0.769549
1.32304
1.31643
0.695613
1.7296
2.20184
0.476975
0.500642
0.371705
0.46004
0.693576
1.11552
0.604291
0.400357
0.598953
0.510527
0.689593
0.523058
0.616039
0.634479
0.705775
0.648144
0.366407
0.831458
0.599552
0.275504
0.405808
0.626305
0.6468
0.549133
0.563418
0.394943
0.373005
0.385126
0.288737
0.343803
0.617837
0.630787
0.488498
0.851083
0.65325
0.40847
0.553274
0.686811
0.773582
0.85037
0.587754
0.499675
0.50053
0.716154
0.373404
0.501146
0.380639
0.710309
0.402221
0.56141
0.79142
0.61332
0.41475
0.673076
0.615137
0.373348
0.431642
0.857352
0.388524
0.62024
0.407903
0.566741
0.391971
0.661121
0.539524
0.573377
0.711089
0.481396
0.481998
0.340025
0.489483
0.442074
0.489431
0.511692
0.482787
0.541058
0.528214
0.482666
0.495082
0.414041
0.434451
0.32358
0.584139
0.415238
0.689201
0.771045
0.486355
0.489457
0.390703
0.468419
0.508775
0.620041
0.374668
0.477398
0.424733
0.455697
0.312679
0.477002
0.404271
0.367137
0.584121
0.468541
0.8056
0.508636
0.478713
0.556678
0.386474
0.456455
0.40064
0.531517
0.462023
0.628857
0.390589
0.503074
0.478658
0.734395
0.433955
0.742788
0.480733
0.41357
0.40931
0.414996
0.371481
0.450677
0.421825
0.814864
0.34611
0.439974
0.327941
0.746462
0.422334
0.707543
0.545308
0.997579
1.09334
0.505151
0.650915
0.779993
0.782409
0.757635
1.18687
0.973501
1.35411
0.762011
0.736982
0.596368
0.759076
0.736901
0.55514
0.655689
1.36619
0.97709
1.21323
1.25374
1.13116
0.560487
0.703521
0.735897
0.572451
1.31697
1.00454
0.704169
1.27912
1.13275
0.515802
0.704469
1.15869
1.02953
1.55852
1.38803
0.771514
0.964499
1.05904
1.10388
1.17132
0.909525
1.13453
1.05105
1.20161
1.11668
1.17674
1.15544
1.08157
0.937285
0.952199
0.839626
0.9902
0.859756
0.873402
1.09752
1.09938
0.993272
1.01582
1.35703
0.939234
1.25462
1.00861
1.1982
1.12985
1.0169
0.684161
1.12147
1.33748
1.00031
1.01121
1.23593
1.10482
1.05316
0.819422
1.09883
1.10208
0.921891
1.09748
1.07057
1.02128
1.19521
1.07758
0.942167
0.997643
0.892281
0.188439
0.367184
0.900408
0.835607
0.803003
0.983953
0.825692
0.849497
1.34068
1.16082
1.13999
1.03529
0.5787
1.19019
1.17157
1.18094
0.747959
0.845345
0.87141
0.844372
0.926809
0.683202
0.981097
0.94398
0.899207
0.872244
1.25902
1.35022
1.14468
1.26417
1.40893
0.787374
0.932364
0.855122
0.898421
0.950265
0.97189
0.620921
0.912052
0.940235
0.958842
1.10253
1.04518
0.79781
1.98135
1.60475
0.57981
0.875509
2.20825
0.953905
0.761213
0.769028
1.30144
0.626768
0.768669
0.794867
0.932891
1.20468
0.579228
0.777637
0.869535
0.87574
1.01429
1.0119
0.993391
1.05826
0.446941
0.100963
0.199412
0.062916
0.0552552
