1.70218
0.432958
0.249225
0.359067
0.117085
0.107921
0.237766
0.22993
0.0591073
0.0924367
0.692806
0.292484
0.254351
0.539756
0.614704
6.18491
0.19381
0.101074
0.0798404
2.23439
1.20693
0.516884
0.663058
0.551661
0.265359
0.0537877
0.0637641
0.476698
0.0881491
0.478938
0.207713
0.400619
0.242762
0.986859
0.357088
0.516884
0.362546
4.40845
0.213666
0.051988
0.0691608
2.48522
4.67195
5.33979
0.80252
1.27847
0.648529
1.70078
0.257497
0.168149
0.235814
0.232938
0.487756
1.61582
0.543481
1.2316
0.551805
0.107362
3.42325
0.172965
4.05551
0.378484
3.05636
0.58465
0.558193
1.22835
0.615655
1.52087
0.70115
0.16231
0.399933
0.0522857
0.197224
6.63175
0.806997
0.808489
0.971731
2.55851
1.29971
3.79501
3.69581
0.404547
0.949068
1.74715
1.27511
0.89919
1.0488
3.45993
1.81927
0.536867
0.396006
4.98296
1.49318
2.3612
0.964925
3.94694
1.76929
3.45954
2.87537
0.899189
1.04686
1.42249
2.42641
3.67502
4.11971
0.304747
0.315916
0.0538286
0.113026
1.21407
0.149054
0.824188
0.456968
0.637716
0.333334
0.478404
0.291861
0.139407
0.139597
0.256719
0.241315
0.672489
0.452755
0.158918
0.176894
0.10871
0.0754465
0.153406
0.198436
0.221504
0.781308
0.0779362
0.1091
0.738116
0.483245
0.486176
0.418051
4.08332
2.83316
2.78052
5.3378
0.936282
0.525713
0.539754
1.29954
2.60581
2.9002
4.19239
4.10882
1.34973
3.68868
4.53901
2.31883
5.7917
2.91561
2.85173
4.09813
4.73814
4.29277
4.79585
4.00141
4.54112
2.31883
1.35161
3.68152
2.8964
4.01282
3.97197
3.43454
2.31883
2.31883
2.73236
1.12308
1.28515
0.945239
1.51641
2.31883
2.31883
2.31883
2.72844
6.39852
3.54767
2.83495
2.90048
2.76709
4.33695
2.76709
3.10169
4.26742
4.50557
3.43499
3.63517
5.14892
4.74606
3.28023
1.89171
2.66365
2.4527
3.17997
2.80273
5.83799
5.64376
4.28272
6.72222
4.59203
10.2402
3.46636
10.2401
4.18116
4.7029
4.13386
5.31605
2.36788
3.39953
1.76361
4.61149
5.83799
4.66361
3.61644
3.77526
3.79206
4.51257
4.28181
4.48599
5.14138
4.7457
3.48526
2.80273
2.66334
2.45111
1.98785
1.88725
2.76561
4.3264
2.42339
3.6366
4.26618
4.51191
2.76561
2.19994
2.31883
2.31883
2.83783
2.89929
6.40516
3.54119
2.31883
2.72629
2.31883
2.31883
0.945239
1.08802
1.12309
1.41305
3.84052
2.02803
1.3766
1.97607
3.84091
2.31883
2.24295
0.173049
1.05042
0.3434
1.5545
2.31883
6.99211
5.94507
5.6855
6.47522
2.83679
0.354293
2.88639
1.20213
0.106704
0.972268
0.730777
0.717896
0.351696
0.52841
1.91346
1.9724
4.0251
3.49839
4.47267
2.27485
3.70822
1.24231
3.88131
0.571544
0.211503
0.308669
0.0767518
0.112079
1.7723
0.552904
0.608267
0.543919
1.9642
0.467123
1.48642
0.28912
0.102559
0.0913745
0.686148
0.353176
0.88593
0.478613
0.0863205
0.172958
0.197346
0.373477
1.91093
2.8093
3.70822
2.60553
0.520308
0.451494
0.3175
1.42092
2.88297
0.969515
0.351303
0.529874
0.538051
0.618999
1.44312
0.946037
0.575605
3.74601
2.83675
0.329562
3.39023
6.06198
5.66493
5.70265
2.84447
0.459946
1.05042
0.345136
4.6859
0.109977
2.57005
2.56445
4.53604
0.348133
2.24458
2.75898
0.562472
1.59254
1.3189
2.40478
2.63019
1.95972
3.52339
0.8442
0.602117
0.291463
0.749503
0.265536
0.116046
0.0692736
0.435782
0.268436
0.58191
0.315171
0.09978
0.116398
0.688569
0.375566
1.9642
0.475642
4.06638
3.12748
2.33248
1.81999
3.30218
3.47941
4.06638
5.31606
3.687
0.400368
0.064149
0.604035
0.0847029
0.0716816
0.295595
0.205063
0.436969
0.329723
0.582415
0.244866
0.0897902
0.10999
0.0781291
0.413987
0.694253
2.32059
5.80682
0.837069
5.25
1.7169
1.05762
5.43044
0.438064
0.409805
0.483438
0.598579
0.212455
0.386679
0.0924363
0.10916
2.81511
3.59169
3.60691
2.39953
1.42828
1.27594
4.17706
3.01489
0.35707
0.206291
0.639328
0.180689
4.2025
0.0777127
0.0378467
0.0403048
0
0.0944782
0.254348
0.283435
0.0316237
0.0450211
0.0697496
0.0659767
0.109798
0.267449
0.249952
0.429265
0.219076
0.0270724
0.036734
0.205588
0.0374053
0.481082
0.522363
5.79363
2.94768
3.79216
3.93822
2.584
5.30789
2.89027
4.09813
0.911449
1.16687
2.11192
3.34388
2.60009
2.37898
5.33312
0.753666
6.45395
2.24427
1.31053
5.68132
1.26668
5.79509
1.42945
1.65144
0.530183
0.689922
3.69455
3.67938
3.99073
6.65368
4.11851
1.53958
1.02764
1.01907
1.00754
2.30126
2.54752
2.23242
2.19868
2.2627
2.04698
2.97585
3.13038
2.97585
3.73893
3.28132
7.92517
3.19994
1.08419
0.812593
2.75281
2.34181
5.79074
0.395295
3.46359
1.55716
1.01502
1.84833
5.61031
3.92615
3.30922
3.55451
1.02216
1.84834
1.66562
1.64071
1.56077
3.47019
5.96453
3.58304
1.39816
3.31671
0.899989
3.2101
1.17527
1.41609
1.72824
1.55551
0.84385
3.14729
1.7455
2.06444
1.69848
3.61043
2.68706
3.61043
1.65097
2.11681
0.541368
1.22349
0.689347
0.637611
0.810867
0.87454
0.595519
1.17514
0.14447
0.361553
0.288941
0.254346
0.288931
0
0.144467
0.922087
1.08127
0.922087
1.27839
0.810868
1.33632
0.857301
1.3913
2.4736
1.24098
2.52607
1.19027
0.922232
2.33775
1.00843
2.27088
2.74201
4.7272
2.70592
3.57897
2.79368
4.81709
2.72597
1.3981
