OFF
190 370 0
-18.9135 2.62262 -0.276089
-18.7755 2.64362 0.324911
-19.1435 2.81672 0.239911
-19.2485 2.84852 -0.287089
-19.3895 3.15582 0.284911
-19.5205 3.19242 -0.0310894
-19.4325 3.14842 -0.426089
-19.0705 3.55082 0.278911
-19.4605 3.63232 -0.276089
-19.4805 3.44842 -0.566089
-19.2015 3.72922 -0.792089
-19.0235 3.35442 -1.13809
-19.2095 3.10442 -0.821089
-18.7995 3.00292 -1.09309
-18.3875 2.85342 -1.17809
-18.7575 2.72222 -0.763089
-7.0765 3.41892 -0.0520894
-5.6535 3.26822 -0.293089
-5.6545 3.14222 0.0499106
-5.6695 3.42892 0.706911
-7.0475 3.49112 0.513911
-5.6835 3.20902 0.490911
-5.6795 3.95042 -0.293089
-7.0475 4.05842 -0.219089
-5.6835 4.06572 -0.0130894
-7.1315 4.16922 0.256911
-5.6835 4.00642 0.508911
-5.6865 3.42762 -0.408089
-5.9505 3.62202 -0.424089
-5.6755 3.77972 -0.412089
-8.6035 3.79532 0.254911
-8.3005 3.77592 0.459911
-9.2615 4.12952 0.436911
-9.2895 4.06542 0.218911
-10.8125 4.76212 0.334911
-10.3505 4.55072 0.0339106
-11.0765 4.81392 0.197911
-10.9845 4.81712 -0.147089
-10.2835 4.62052 -0.169089
-8.6865 3.84292 -0.0140894
-8.7015 3.91492 -0.150089
-8.4215 4.18262 0.540911
-8.3005 4.26212 0.459911
-9.2485 4.60392 0.400911
-9.3535 4.45642 0.536911
-10.4285 5.10722 0.345911
-7.8895 3.90762 0.593911
-11.1185 5.39632 0.225911
-11.0205 5.12822 0.454911
-10.8425 4.89052 0.447911
-8.7635 4.03132 0.527911
-8.5905 4.39422 -0.0930894
-9.3875 4.61372 -0.183089
-9.2605 4.67252 0.0729106
-10.1075 4.98522 -0.150089
-8.6015 4.43132 0.254911
-11.0855 5.40762 -0.205089
-10.4835 5.20252 0.0289106
-8.0125 3.79912 -0.262089
-9.6165 4.46772 -0.238089
-8.2815 4.01862 -0.279089
-10.9615 5.04292 -0.361089
-10.3575 4.82752 -0.284089
-10.7475 5.16962 -0.295089
-8.1195 4.10002 -0.257089
-11.7865 5.05312 0.286911
-11.6755 4.94662 -0.0720894
-12.4375 5.04982 0.0729106
-12.3235 5.04112 -0.325089
-13.2085 5.03692 0.0419106
-13.9115 4.79922 -0.112089
-13.0875 4.96812 -0.238089
-13.7715 4.80822 -0.568089
-13.7545 4.93842 -0.825089
-13.0045 5.07782 -0.659089
-12.2975 5.14992 -0.549089
-11.6055 5.09562 -0.432089
-11.8785 5.48142 0.285911
-12.6435 5.60712 0.140911
-12.9715 5.49752 0.190911
-12.2525 5.33052 0.309911
-13.4275 5.62342 -0.00308938
-14.2335 5.40972 -0.0330894
-14.3925 5.20902 0.0599106
-14.5405 4.95482 0.0879106
-13.3205 5.22922 0.179911
-14.0515 4.95582 0.0749106
-12.5435 5.20062 0.234911
-11.7265 5.53022 -0.438089
-11.8015 5.62762 -0.0700894
-12.5075 5.70852 -0.482089
-12.6135 5.71602 -0.0830894
-13.2325 5.66262 -0.703089
-14.0755 5.54972 -0.745089
-13.3535 5.73182 -0.424089
-14.2155 5.54052 -0.290089
-12.5945 5.29592 -0.713089
-12.0355 5.39632 -0.600089
-14.0145 5.00812 -0.961089
-13.9025 5.34112 -0.962089
-13.0895 5.47592 -0.836089
-12.3965 5.55632 -0.643089
-14.7375 4.47482 -0.0650894
-14.6485 4.42002 -0.251089
-15.8065 3.79642 -0.0520894
-15.5805 3.83422 -0.250089
-15.2715 3.99602 -0.631089
-14.5495 4.43622 -0.576089
-16.7365 3.04192 0.0389106
-16.4745 3.07372 -0.283089
-15.9565 3.49292 -0.468089
-16.2035 3.32132 -0.705089
-16.4935 3.17132 -0.925089
-15.6275 3.88592 -0.907089
-14.5255 4.58442 -0.884089
-15.1745 4.99652 -0.0700894
-16.1585 4.20852 0.0679106
-16.0965 4.01922 0.108911
-16.9355 3.85272 0.00791062
-16.9485 3.63292 0.154911
-17.0885 3.26542 0.241911
-16.8345 3.19792 0.167911
-15.8145 3.98652 0.0609106
-14.8355 4.59272 0.0469106
-14.8275 5.16922 -0.884089
-14.9645 5.23412 -0.576089
-15.5835 4.73442 -0.904089
-15.6775 4.78972 -0.713089
-15.7765 4.76632 -0.334089
-16.9395 3.99772 -0.452089
-16.8715 3.99262 -0.705089
-16.7585 3.94012 -0.917089
-16.9965 3.92532 -0.195089
-15.0325 5.16422 -0.251089
-15.6595 4.05232 -1.02609
-15.7945 4.18252 -1.06509
-14.6575 4.97872 -1.03309
-16.5245 3.36432 -1.05609
-16.7475 3.44782 -1.12009
-15.4815 4.61402 -1.02009
-16.6295 3.81432 -1.04509
-17.0085 2.50742 -0.255089
-17.3075 2.56382 0.251911
-17.4905 2.42812 -0.0250894
-17.4265 2.43162 -0.426089
-17.2835 2.54012 -0.828089
-16.9635 2.75182 -1.10409
-16.9015 2.61632 -0.762089
-17.4515 3.46862 0.206911
-18.2915 3.57072 0.313911
-17.8265 3.17562 0.522911
-17.5215 2.74382 0.452911
-17.1235 3.63932 -1.07609
-17.3865 3.77002 -0.595089
-17.9095 3.77752 -1.16709
-18.0035 3.86882 -0.828089
-18.2035 3.86532 -0.426089
-18.2105 3.75682 -0.0250894
-17.4895 3.67062 -0.119089
-17.0795 2.98742 -1.30609
-17.2615 3.27702 -1.38509
-17.6595 3.56392 -1.36209
-18.0895 2.51102 0.323911
-18.3155 2.44282 -0.0370894
-18.3145 2.46682 -0.426089
-18.1145 2.55152 -0.816089
-17.7035 2.72062 -1.17709
-18.6585 3.30652 0.524911
-18.4495 3.00552 0.597911
-19.1045 3.11912 0.485911
-18.3435 2.72492 0.524911
-18.6605 3.75332 -1.13909
-18.6315 3.86882 -0.827089
-19.0535 3.83002 -0.426089
-19.0205 3.74542 -0.0370894
-17.8535 2.99042 -1.37709
-17.9225 3.29132 -1.45009
-18.5715 3.27582 -1.33809
-18.4805 3.55282 -1.34409
-5.7095 3.72212 0.737911
-7.0845 4.06332 0.511911
-7.1705 3.94692 0.605911
-7.5335 3.70532 0.584911
-7.1625 3.41262 0.255911
-7.9635 3.59912 0.227911
-7.9785 3.66442 -0.138089
-7.0835 3.49862 -0.217089
-7.9445 4.22892 -0.140089
-7.1685 4.15002 -0.0490894
-7.9455 4.28782 0.228911
3 0 1 2
3 0 2 3
3 2 4 5
3 2 5 3
3 5 6 3
3 4 7 8
3 4 8 5
3 8 9 5
3 9 6 5
3 10 11 9
3 11 12 9
3 12 6 9
3 9 8 10
3 13 14 15
3 13 15 12
3 15 0 3
3 15 3 12
3 3 6 12
3 12 11 13
3 16 17 18
3 19 20 21
3 22 23 24
3 24 25 26
3 27 28 29
3 29 23 22
3 30 31 32
3 30 32 33
3 32 34 33
3 34 35 33
3 36 37 35
3 36 35 34
3 37 38 35
3 39 30 33
3 33 35 39
3 35 38 40
3 35 40 39
3 41 42 43
3 41 43 44
3 43 45 44
3 44 46 41
3 45 47 48
3 44 45 48
3 34 32 49
3 49 44 48
3 32 31 50
3 50 46 44
3 44 49 50
3 49 32 50
3 51 52 53
3 52 54 53
3 53 55 51
3 54 56 57
3 56 47 57
3 53 54 57
3 45 53 57
3 57 47 45
3 43 42 55
3 55 53 43
3 53 45 43
3 58 40 59
3 40 38 59
3 59 60 58
3 38 37 61
3 38 61 62
3 59 38 62
3 63 56 54
3 54 52 63
3 52 59 62
3 52 62 63
3 62 61 63
3 52 51 64
3 64 60 59
3 64 59 52
3 36 34 65
3 36 65 66
3 65 67 66
3 67 68 66
3 66 37 36
3 69 70 71
3 70 72 71
3 71 68 67
3 67 69 71
3 72 73 74
3 74 75 68
3 68 71 74
3 71 72 74
3 76 37 66
3 68 75 76
3 68 76 66
3 48 47 77
3 77 78 79
3 79 80 77
3 80 48 77
3 81 82 83
3 81 83 79
3 83 84 85
3 83 85 79
3 85 80 79
3 79 78 81
3 86 70 69
3 86 69 85
3 69 67 87
3 69 87 85
3 87 80 85
3 85 84 86
3 65 34 49
3 49 48 80
3 49 80 65
3 80 87 65
3 87 67 65
3 56 88 89
3 88 90 89
3 90 91 89
3 89 47 56
3 92 93 94
3 93 95 94
3 94 91 90
3 90 92 94
3 95 82 81
3 81 78 91
3 91 94 81
3 94 95 81
3 77 47 89
3 91 78 77
3 91 77 89
3 61 37 76
3 76 75 96
3 96 97 76
3 97 61 76
3 74 73 98
3 74 98 96
3 98 99 100
3 98 100 96
3 100 97 96
3 96 75 74
3 99 93 92
3 99 92 100
3 92 90 101
3 92 101 100
3 101 97 100
3 88 56 63
3 63 61 97
3 63 97 88
3 97 101 88
3 101 90 88
3 70 102 103
3 102 104 105
3 102 105 103
3 105 106 107
3 105 107 103
3 107 72 70
3 107 70 103
3 104 108 109
3 104 109 105
3 109 110 105
3 110 106 105
3 111 112 113
3 113 106 111
3 106 110 111
3 110 109 111
3 114 73 72
3 114 72 107
3 106 113 114
3 106 114 107
3 83 82 115
3 115 116 83
3 116 117 84
3 116 84 83
3 118 119 116
3 119 120 117
3 119 117 116
3 116 115 118
3 121 108 104
3 121 104 122
3 117 120 121
3 117 121 122
3 102 70 86
3 102 86 123
3 86 84 123
3 84 117 122
3 84 122 123
3 122 104 102
3 122 102 123
3 93 124 125
3 124 126 127
3 124 127 125
3 127 128 125
3 125 95 93
3 129 128 127
3 129 127 130
3 127 126 131
3 127 131 130
3 118 115 128
3 118 128 132
3 128 129 132
3 115 82 95
3 115 95 133
3 95 125 133
3 125 128 133
3 128 115 133
3 98 73 114
3 114 113 134
3 114 134 98
3 134 135 136
3 134 136 98
3 136 99 98
3 113 112 137
3 113 137 134
3 137 138 135
3 137 135 134
3 131 126 139
3 131 139 140
3 139 135 140
3 135 138 140
3 124 93 99
3 124 99 136
3 136 135 139
3 139 126 124
3 139 124 136
3 109 108 141
3 108 142 141
3 142 143 141
3 143 144 141
3 145 146 147
3 141 144 145
3 141 145 147
3 112 111 147
3 111 109 141
3 111 141 147
3 147 146 112
3 119 118 148
3 120 119 148
3 148 149 150
3 150 120 148
3 151 120 150
3 120 151 121
3 151 142 108
3 151 108 121
3 130 131 152
3 130 152 153
3 153 129 130
3 152 154 155
3 152 155 153
3 155 156 153
3 157 149 148
3 157 148 158
3 153 156 157
3 153 157 158
3 148 118 132
3 148 132 158
3 132 129 153
3 132 153 158
3 112 146 159
3 112 159 137
3 159 138 137
3 160 138 159
3 161 154 152
3 152 138 160
3 160 161 152
3 152 131 140
3 140 138 152
3 143 142 162
3 162 163 143
3 163 164 144
3 163 144 143
3 1 0 163
3 0 164 163
3 163 162 1
3 15 14 165
3 14 166 165
3 164 0 15
3 164 15 165
3 166 146 145
3 144 164 165
3 144 165 145
3 165 166 145
3 150 149 167
3 149 7 167
3 168 150 167
3 7 4 169
3 169 168 167
3 167 7 169
3 1 162 170
3 170 168 169
3 170 169 1
3 169 4 2
3 169 2 1
3 162 142 151
3 162 151 170
3 151 150 168
3 151 168 170
3 154 171 172
3 154 172 155
3 172 173 156
3 172 156 155
3 10 8 173
3 173 172 10
3 172 171 10
3 8 7 174
3 173 8 174
3 156 173 174
3 156 174 157
3 174 7 149
3 174 149 157
3 159 146 166
3 159 166 175
3 176 160 159
3 176 159 175
3 13 11 177
3 13 177 14
3 177 176 175
3 177 175 14
3 175 166 14
3 11 10 171
3 11 171 178
3 178 176 177
3 177 11 178
3 161 160 176
3 176 178 161
3 178 171 154
3 178 154 161
3 26 179 19
3 21 18 19
3 179 26 180
3 179 180 181
3 46 179 181
3 46 181 41
3 181 180 42
3 181 42 41
3 50 31 182
3 31 20 182
3 46 50 182
3 20 19 182
3 19 179 46
3 19 46 182
3 21 20 183
3 183 18 21
3 31 30 184
3 183 20 31
3 183 31 184
3 39 40 185
3 185 186 16
3 16 183 184
3 16 184 185
3 184 30 39
3 184 39 185
3 186 17 16
3 16 18 183
3 27 17 186
3 27 186 58
3 28 27 58
3 185 40 58
3 60 28 58
3 58 186 185
3 64 51 187
3 187 23 64
3 64 28 60
3 28 64 29
3 64 23 29
3 24 23 188
3 25 24 188
3 51 55 189
3 51 189 187
3 189 25 188
3 189 188 187
3 188 23 187
3 55 42 189
3 42 180 25
3 42 25 189
3 180 26 25
