4.74444
6.18632
6.67265
6.3264
7.91898
6.45467
3.9558
6.97934
7.08041
6.68787
4.22884
4.91638
7.96717
6.1992
5.62085
8.61197
6.52354
5.39152
6.51157
6.92342
7.18263
5.9462
5.30352
7.79344
7.5306
7.26909
5.72977
5.26148
6.75538
6.83481
5.41098
7.1712
6.15979
8.04408
7.96888
8.20397
7.0449
6.12478
7.6527
8.31282
2.04429
3.60926
5.34164
9.83445
7.90507
4.76908
8.78736
6.87965
2.58172
4.17453
7.63269
7.13113
8.25934
5.38372
2.69271
3.01144
6.13636
5.38652
3.73447
5.26575
5.30702
6.78641
9.17888
7.39392
0.698746
0.696775
0.973173
0.963802
1.59219
1.0931
1.21827
0.677327
1.30348
1.1849
3.67523
1.47817
1.38144
1.465
0.967609
1.32178
3.58361
2.75912
2.83486
2.76043
1.35865
2.75679
6.73153
2.64163
1.81576
1.93899
2.57919
1.44909
1.62707
3.21256
2.61331
2.18264
1.82699
6.9312
3.24612
6.55046
7.66837
7.44046
7.06609
8.25216
7.79865
4.23175
9.49401
7.64692
6.3727
7.91467
4.05439
4.289
3.03803
3.70459
4.06352
3.32601
5.54025
7.85762
5.81748
5.36876
2.50471
2.41029
8.63775
5.55904
6.72374
4.19642
4.7981
3.2455
1.23152
1.24414
3.07122
1.38892
1.96402
1.93077
1.15929
1.68479
2.46055
3.03774
2.41427
2.0798
1.94845
1.39983
2.33116
1.53609
1.4007
1.42741
1.59397
1.71789
1.39729
1.5684
1.93208
1.69698
0.723644
1.35983
1.07061
1.05858
1.29055
1.30212
1.53312
1.24659
2.4467
2.58025
3.05385
2.85997
6.49929
3.45681
5.96188
5.12314
3.03722
4.24018
5.24965
9.12749
9.59093
8.01291
2.88811
3.37607
6.68189
3.60873
9.16294
5.32532
6.84423
8.26285
6.99332
6.72327
4.25091
4.47735
8.5882
7.1832
8.08486
8.2407
5.56745
6.65344
1.23775
1.38388
1.82775
1.56059
1.69471
1.7585
4.61254
1.65736
1.08973
1.13107
1.13741
1.34451
1.16448
1.52157
1.30096
1.45284
3.05823
3.00734
2.53074
2.87311
1.8971
2.77541
2.65529
2.25428
3.78616
2.23512
3.61475
2.48977
1.48622
3.55413
2.68594
2.64794
1.8211
2.8045
1.80782
2.1539
7.90143
1.59143
9.44749
9.13395
2.2966
0.883033
3.40867
1.29043
6.7385
1.4874
1.8253
2.04668
2.67376
1.41487
2.67255
2.95689
1.64191
5.59225
0.890532
2.20107
3.15594
4.24221
2.41471
10.2653
2.16983
3.82096
2.7333
4.22936
3.54081
2.67232
2.32984
2.41446
1.98994
1.97581
2.10471
1.20233
0.600573
1.91749
1.16444
1.14635
1.83998
2.06147
1.36923
2.14608
1.36176
1.41039
1.19826
1.3438
1.35252
0.844346
1.42503
0.951909
1.36398
1.31442
2.09845
1.36312
1.77403
1.86417
1.61447
0.967626
3.07439
3.98843
2.81552
4.53751
4.72478
4.1443
1.81993
5.18671
2.37876
2.23821
0.986422
2.13722
1.61573
5.3378
3.74682
3.48645
1.75802
4.48724
3.12983
1.31652
6.78946
0.958014
3.57883
3.65229
3.77566
2.30754
8.97408
2.3559
2.11777
1.22024
1.77564
1.82041
1.5391
1.57984
2.19678
2.66234
3.0061
2.5645
1.58154
1.93156
5.48965
5.84774
6.119
8.90353
4.98532
1.95526
10.6078
2.86082
1.4557
6.91921
5.19602
6.6955
3.87383
2.34965
1.83893
2.62284
2.96295
3.0208
2.78699
2.31553
10.081
4.67057
4.00398
4.66116
3.58811
3.11797
7.23634
6.50347
6.56208
7.45322
6.99208
4.28087
6.72797
7.82225
8.99241
6.96013
6.59742
8.78048
6.66232
5.81565
3.41507
6.42616
4.34002
3.66297
4.64771
5.24328
5.28779
4.9164
3.09983
3.66846
8.86947
4.82237
6.7811
8.47744
3.76191
4.62042
2.52758
2.61426
2.67846
5.88163
2.52287
2.78497
2.37561
2.45711
4.03553
5.55863
3.5409
1.97014
2.93744
3.06157
4.18506
5.70423
3.80904
3.43999
3.74337
3.4815
2.85772
2.85651
3.32443
3.18436
2.10433
1.92894
2.44576
2.18318
3.34545
3.23972
3.01514
3.12142
3.51832
3.48927
3.67745
4.32515
6.68332
5.00366
5.30798
5.90467
3.6296
4.10368
5.63178
5.92777
5.4776
5.25733
3.70605
3.69415
4.60316
7.62199
5.29913
7.47212
8.3713
7.44095
6.62268
8.44726
3.82434
2.99468
5.99894
4.26401
7.36479
7.19516
4.08793
7.7642
1.64973
2.19485
2.42747
2.1822
2.78515
2.36619
3.63391
2.03286
6.43541
4.49423
5.99178
4.60617
2.58724
3.83051
3.08099
4.87677
3.69793
6.41434
3.43293
2.94846
3.11954
3.27743
3.88774
4.45299
1.51493
1.85235
2.69416
4.22618
3.06806
2.91433
2.88918
4.45426
2.52974
2.98331
3.77512
5.23667
3.37775
4.35809
2.62498
2.96675
1.82115
3.72156
3.84442
3.07992
4.79629
5.08934
4.01639
4.13473
4.4148
10.9663
3.68931
3.70388
2.84209
3.49811
4.29433
4.16033
3.96047
3.93169
4.09504
3.59562
2.57862
10.768
3.55375
3.39682
2.76231
4.14564
4.00754
5.10799
4.58597
4.34838
4.42103
4.41625
4.86261
3.90038
4.17272
3.99848
3.55811
3.80977
5.07633
4.01842
3.19943
3.80859
4.47114
2.92287
3.55767
3.19223
4.1619
3.43398
3.07328
3.67663
4.08771
3.73905
3.29434
3.40602
3.49287
2.2093
4.27586
4.35801
2.83958
3.55053
2.68855
4.00818
3.70706
4.4631
5.19528
6.91914
3.42527
3.76616
6.31126
3.93209
3.58354
3.46984
1.82235
4.48737
5.97064
3.44052
7.69141
2.98835
3.66345
4.63972
3.8082
3.04449
3.28035
3.77614
3.22591
2.60511
4.86335
3.16722
3.31218
4.11381
4.05686
10.0233
10.2233
3.69991
3.14656
3.82006
4.32154
4.51855
3.6984
4.02441
4.02887
3.72525
3.72
3.52432
3.51939
4.04818
4.11597
3.59687
3.4225
2.94576
3.36019
3.2596
3.2802
2.81979
3.60485
3.54903
3.25182
3.47175
3.32364
3.25592
1.1153
1.05487
0.710613
0.906088
1.49027
1.24354
2.0034
1.39458
0.682145
1.16631
1.26553
1.17871
1.34325
1.25077
0.865619
1.01839
2.52544
2.25942
2.15017
1.75792
1.52984
1.54895
1.55569
1.96895
2.92258
2.30411
2.28417
2.26021
1.58767
2.14216
2.05733
2.01739
8.15416
8.06147
8.47104
6.0576
7.48699
7.60103
7.94099
6.92073
7.73417
6.43007
6.56223
7.44827
8.16824
7.12534
7.1047
7.35523
5.05789
5.83376
3.62006
5.48246
7.48828
4.3384
6.45732
5.41972
2.30288
2.62926
4.32288
4.11628
6.88967
4.68407
3.25394
3.45566
4.8242
3.72682
2.79402
2.96318
2.74726
4.07274
6.26959
5.09925
5.9261
3.97653
5.94216
3.00803
2.81786
2.47865
4.88096
4.12224
5.4384
6.84344
5.6521
6.05173
3.10032
5.89704
6.60332
6.4687
5.47273
5.11687
6.03549
6.04551
4.58685
6.3095
3.94528
5.89958
2.35906
3.23429
3.32566
3.21094
5.88976
3.7452
5.48678
4.92538
3.74833
4.10255
6.40097
5.07444
6.75841
4.88404
3.62734
3.77358
6.96171
6.81909
3.27358
6.65889
6.62591
7.52903
6.18964
7.45639
5.67688
8.02027
7.65213
6.32217
8.1483
6.16809
6.02966
3.76056
3.94983
3.63786
4.16824
2.8641
4.58973
3.01099
2.9729
3.41467
4.19623
3.66572
3.47366
2.56958
4.1643
3.55193
3.18683
3.1835
5.31992
3.86525
6.46492
3.53375
4.31861
3.80631
3.39397
7.91916
7.06933
8.15162
7.8838
6.30509
9.58669
8.25136
8.54463
8.58427
5.65874
7.61835
8.05035
7.71112
7.79205
8.26128
7.77454
1.66259
1.84989
2.41572
1.85524
1.33733
1.62384
0.793228
1.25803
2.72507
2.74436
2.14137
2.99068
1.19893
4.34169
2.7827
2.59162
1.17194
1.47688
0.932278
1.02438
1.43468
1.41758
3.22341
1.30156
0.635696
1.21961
0.813353
0.431828
1.23032
1.12243
0.761908
0.957155
1.36514
1.50334
4.18064
1.51207
1.44487
1.5127
1.74969
1.67642
4.32622
2.4096
2.11077
2.69969
1.94785
2.21012
3.13015
2.90923
2.93469
2.21757
1.73363
2.10971
1.3452
1.22382
2.50188
2.19604
1.11907
1.10388
1.26232
1.62526
1.87861
1.64415
1.66694
1.26956
1.59879
1.74828
1.8309
1.83879
3.29645
3.10429
4.58011
3.43481
2.928
2.57375
2.97869
2.7472
2.53411
3.72339
3.33224
2.13852
5.05072
3.74936
5.70228
1.8609
2.21174
2.69206
2.9633
3.29043
9.57944
5.31381
2.65816
6.78964
3.25213
6.50859
3.54097
6.25545
8.23924
5.99428
8.29814
6.35416
7.73946
6.26777
5.04401
6.17185
6.81811
6.81509
7.35175
8.1604
6.78644
6.83911
5.85175
6.64853
4.05152
6.57198
4.68727
5.43534
6.31444
6.1776
6.56658
6.95161
7.24056
6.04372
5.66583
8.61835
6.52188
8.41599
7.71923
7.96279
2.47105
2.17341
3.20334
3.29334
3.26544
3.14837
1.98414
2.03085
3.76152
3.87194
3.38551
3.77588
3.52284
3.71017
4.19947
4.10707
1.78513
5.99147
2.86079
5.61794
3.2676
3.22289
3.23221
2.80128
2.54149
2.55168
2.57827
2.47371
6.04536
3.58368
2.40235
5.50716
1.85593
1.2708
1.68118
1.77289
2.91549
1.31937
1.98246
2.2666
1.37757
1.30173
1.14624
1.31829
1.5705
1.41813
1.03628
1.41576
0.658471
1.71568
3.03485
2.5364
2.03233
1.49209
1.27552
1.30803
2.82704
2.84789
1.97685
1.78881
1.61026
2.47758
2.76781
2.63441
0.879805
1.58288
1.44794
1.39618
1.47444
1.1144
1.1842
1.1719
2.07749
1.65831
2.27338
2.7144
2.53642
1.82439
1.70367
1.78624
5.0303
2.99876
2.19256
3.29671
1.988
2.393
1.77664
1.84433
1.4717
1.02094
0.903864
1.93384
1.45384
2.43953
1.45765
3.18083
6.85
2.89071
2.44758
2.63132
2.72807
3.06786
6.8145
2.69956
1.88074
2.41859
1.55562
1.54632
3.51426
3.21479
2.62784
2.57155
1.77923
1.62331
3.67343
2.284
3.55691
4.12015
1.2673
1.39702
3.90871
4.68649
6.3149
4.0907
2.97318
3.68844
3.88911
3.61871
3.73043
3.72715
3.57396
3.45918
3.92515
4.16167
3.85706
4.34556
2.52216
2.77217
4.20459
3.16212
3.2632
3.80168
3.4734
1.946
3.85038
3.65487
3.49367
3.56875
4.1688
4.69186
3.15006
2.87424
4.30848
4.10901
2.2048
3.77016
3.52955
3.26175
3.45067
3.48129
2.52407
3.83963
3.83405
3.92087
3.80723
3.38666
2.85675
5.0433
7.10906
8.52022
8.15201
7.27486
5.60956
5.69135
6.73536
7.78758
7.28159
4.40788
9.28984
7.65738
5.9152
8.72625
2.65732
7.49032
2.03996
9.75724
2.89882
10.9167
7.27877
5.26982
10.1959
7.36587
2.42163
5.73322
8.75265
4.32838
7.99511
4.58496
2.62131
7.68544
1.19247
1.67888
3.94879
6.09915
3.14096
1.0216
4.89456
1.69771
1.03855
0.632856
0.859572
1.23042
8.94883
2.49932
11.1612
11.9837
1.08003
2.03594
1.26421
1.22906
3.28876
2.07118
2.23012
3.50928
1.86726
1.62874
2.09839
2.23127
3.096
2.53431
1.2211
1.67406
0.273852
6.71438
0.884608
1.46859
0.639315
0.994066
0.526914
0.417552
5.25954
6.68293
1.60837
5.51148
4.99149
0.770692
2.56206
4.41685
6.24565
6.56468
2.19983
6.12479
1.19657
3.88227
8.57311
8.64206
6.77791
5.44643
0.954252
3.43369
1.12251
3.49212
6.79177
6.0345
1.11884
0.883614
1.24161
0.930152
11.003
1.43222
4.81238
1.14433
1.49757
2.08939
3.16581
1.01811
3.88281
1.4952
1.38915
1.41508
0.787326
0.753185
0.637848
0.548647
1.10595
4.37789
0.923118
3.56589
0.380969
6.09982
1.42834
0.490071
3.44311
12.1363
2.81599
0.24614
1.04058
0.617197
0.892141
0.679116
0.311354
0.37398
0.542592
0.416987
1.14216
0.605526
0.530981
0.567783
0.270928
0.498233
0.515492
0.346938
0.844022
0.423721
0.799338
0.665602
0.289388
0.824929
0.501424
0.71854
0.478042
1.0875
0.535713
0.352074
0.356163
0.658893
1.20028
0.800227
1.25532
5.41966
3.28323
4.61562
5.4467
5.45101
4.33819
6.25068
0.296092
3.50018
0.597846
0.901859
0.876995
4.6339
0.509768
0.922061
2.04304
6.01279
6.76277
6.0751
1.40473
3.38693
0.929823
3.30193
6.44158
6.47796
4.05832
4.94289
2.81193
3.57896
6.41209
6.16312
1.7455
1.74324
1.08654
1.33455
1.55417
1.58155
2.27435
1.6268
1.27533
2.35477
2.87702
1.18352
2.12894
3.78475
1.2288
1.8217
1.06042
0.551973
3.59282
4.97392
3.91938
10.4748
1.19274
7.05036
1.4857
1.83259
3.78655
1.3352
8.67568
1.34852
6.19753
0.703397
1.06834
0.637367
0.65029
0.307818
0.294905
0.406476
0.504102
0.345717
0.983065
0.612947
0.641166
0.530005
0.326302
0.323786
0.578883
0.404338
0.678379
0.749082
1.08921
0.655343
0.333376
0.588535
0.545202
0.454339
0.94511
0.59742
0.630023
0.607712
0.34167
0.355839
1.26593
0.488178
6.17014
6.40055
3.14961
0.470901
3.97252
4.05813
4.12315
0.971605
0.919476
0.939304
1.15818
1.19328
1.15537
1.89768
1.06973
0.655416
1.53471
1.10802
1.12973
1.11606
3.83036
2.24287
3.22501
0.929403
1.19538
1.22861
4.18956
1.082
1.71928
2.45891
0.388507
0.549778
10.1377
9.6816
11.2459
10.959
11.7303
10.2228
10.1475
10.5659
2.67999
9.05168
3.43725
7.11992
11.6182
7.69184
9.89745
8.76774
8.79847
9.40989
9.86666
9.60979
9.49838
10.6997
6.58843
6.06546
6.01366
9.46888
8.85643
5.78555
7.13574
5.89054
5.49184
3.14978
9.09036
9.41099
11.3781
9.35164
9.03148
3.97537
7.25625
8.98961
9.78555
9.87569
8.83695
4.92948
10.1273
11.7359
5.47954
6.41578
7.46307
2.88117
11.1262
10.176
9.48958
9.25612
9.40326
10.7504
10.8537
9.37146
9.62923
10.0162
7.68511
8.37693
10.6099
10.2311
9.31693
4.40013
6.65017
6.39523
5.11446
8.43875
7.5683
11.3209
4.86953
4.92128
6.02175
6.05183
6.09174
5.38116
6.87223
7.83177
5.03025
5.13715
7.15226
7.19735
8.81015
6.86027
5.90548
6.26749
6.14399
7.04014
3.05566
2.91112
2.59295
3.34902
3.13582
2.81819
3.34716
2.77211
3.82989
4.65842
5.6287
5.77867
5.62902
8.00573
6.83347
8.23635
5.71427
5.37065
9.07717
4.24758
10.8687
11.085
8.02151
4.68688
4.11905
4.81029
4.22243
4.57403
4.57035
4.97738
4.96444
3.26574
3.28283
4.49075
4.468
4.62709
4.64528
3.21949
3.25586
4.95732
5.06414
4.37677
4.23615
10.8781
11.2955
10.8867
10.8946
6.20778
5.37594
2.93122
2.80148
2.86232
2.85725
3.36459
2.75803
3.40696
3.51184
5.06696
4.0808
2.73819
3.4372
4.78046
4.51942
6.77548
6.99346
3.64929
7.35153
3.18557
4.05184
3.75569
3.37347
3.55121
3.4955
10.642
10.0772
3.1379
3.28894
2.92878
2.96713
4.42612
4.81559
3.82136
3.60283
3.33617
4.60146
3.69595
4.63851
3.65948
5.14849
4.45146
4.61323
10.6995
4.62778
4.79785
9.94754
5.57227
5.57299
4.50921
4.80498
4.60528
4.6439
6.48146
5.24918
4.03687
4.42961
4.35033
3.97737
4.22997
4.13074
4.39332
4.57555
3.25082
4.06512
3.29457
4.26765
4.39921
4.04478
3.35046
3.81888
5.57507
5.38242
4.49814
4.85702
10.5659
10.5866
4.5323
4.84613
3.65732
8.09798
7.18647
10.4087
10.3855
4.6063
3.7949
4.26854
4.19105
4.15804
4.18395
4.55926
4.41768
4.77194
4.69681
4.77626
5.41165
3.58969
3.65314
4.20732
4.34377
10.0876
10.1018
4.7441
4.81678
5.06671
5.063
4.22121
4.68982
3.7436
3.75145
7.38046
5.96459
5.42901
6.33755
6.37882
5.83483
5.72213
5.9818
4.55087
5.98811
5.20888
5.65977
5.57085
5.62862
4.90547
4.47769
5.84694
5.50669
4.5344
5.68226
3.68553
6.11242
6.11896
6.01595
6.3602
4.97925
5.50476
5.49113
6.38784
5.48382
4.2429
4.10947
10.0143
9.35036
8.4781
5.7119
7.94615
8.43779
5.13362
4.89796
9.08392
6.31413
9.05133
8.78447
8.39541
8.55528
8.4315
5.76491
7.24423
5.63871
7.88622
7.79013
7.83503
7.85484
8.39169
6.07192
3.43465
7.66468
4.82507
4.66237
7.56673
7.64503
7.53241
7.44381
9.81633
9.81249
9.03279
8.91649
4.71055
5.72329
5.36219
6.12425
10.306
9.90371
10.0332
10.2098
10.0462
9.87866
8.22905
9.31167
9.61194
7.41992
2.97415
3.85365
9.83201
9.85308
3.76166
11.3426
2.47566
9.20962
8.85885
5.07647
3.65253
3.85256
2.63571
2.95225
3.27109
3.17049
3.48763
3.6015
3.26094
3.48906
3.13356
7.31955
2.63742
2.61092
2.08183
2.44799
2.45446
2.49795
2.97726
2.71058
1.94339
2.44337
1.91279
3.89726
2.54064
2.38977
1.96305
2.15492
2.27946
3.84079
2.37902
2.44158
2.6573
2.75437
5.63285
8.75683
2.67286
3.09389
2.99578
3.28441
4.07291
3.45025
3.88006
6.93093
2.76217
5.53201
5.85993
4.66628
3.88362
3.41984
3.49234
7.5881
9.47699
8.89923
9.33579
9.01487
9.07461
9.88312
7.40051
9.84794
6.39033
8.39419
5.08164
5.3985
4.33081
4.23701
6.68953
9.26761
5.91984
3.79849
4.10041
6.02719
5.05316
4.0777
3.95274
4.48471
9.63068
9.71126
6.3309
4.82084
7.49132
4.56711
9.10311
9.30006
2.63635
5.07214
3.10721
3.28243
3.29904
3.2706
5.84477
8.502
2.5192
3.02906
6.11769
3.14158
3.12798
3.16154
3.04684
3.20178
2.91098
3.09264
3.05573
2.32208
2.47639
2.79323
2.61253
7.67702
3.31681
4.49518
2.04622
3.13946
2.49429
3.64777
1.79642
3.61038
1.85316
1.96781
2.04161
1.94681
2.55886
4.28985
2.46522
2.59556
2.88264
2.62519
2.26338
2.20628
2.1664
2.28558
2.38969
2.69578
2.38062
2.85937
3.1049
3.76055
2.95071
9.30597
2.71525
9.71061
7.13386
5.6717
10.0298
2.97103
4.95435
2.81476
9.51304
9.62608
9.59671
9.40666
2.97802
7.49191
10.835
10.1617
9.66847
9.41985
9.60137
8.95043
10.0376
7.83011
4.3463
9.28581
6.05407
4.88632
6.96603
8.31168
7.7946
7.49917
9.24422
6.57483
6.99516
10.9085
6.39591
8.04128
7.87576
3.9841
3.993
8.34996
8.03956
8.43034
4.73865
7.85338
7.8464
7.55426
7.85567
9.04513
8.65598
8.71975
7.50392
7.96717
4.82959
4.77449
1.72406
3.82019
2.21
4.38209
4.37844
4.86309
5.98543
3.29219
2.36039
3.51638
4.67752
4.26726
2.79319
10.6716
5.32728
4.91859
1.31045
2.48559
4.16754
3.30212
3.99446
5.19675
4.90153
6.43103
5.01227
5.08102
4.42859
4.49819
4.61784
2.79513
5.07143
2.68296
0.842826
0.589011
0.620622
0.536652
1.04281
0.80035
0.564393
0.640773
1.02514
1.0185
1.22024
0.939138
0.961396
1.37643
0.891362
0.777874
1.20361
1.23871
3.17784
0.998004
1.31385
1.132
1.0258
0.996165
2.79317
0.694972
1.1911
0.651464
1.04263
0.926932
1.57013
1.53667
2.18296
1.0778
1.1176
1.05953
1.61655
1.42439
0.920701
0.833783
2.54667
2.41569
0.908123
1.22138
1.08583
0.817089
2.06449
0.603072
2.0635
0.67958
1.18442
0.894372
1.05578
1.06841
0.863831
0.943306
1.37931
1.48392
0.96
1.05484
1.40581
1.65829
1.15576
0.960808
1.78874
4.09412
4.58681
4.77169
3.46211
4.49675
1.09442
3.81599
4.84971
1.6867
4.35745
3.72394
4.93009
3.02296
5.26635
4.88106
5.31136
3.39123
3.53565
2.56099
5.28649
7.70185
4.90779
3.13201
2.37179
4.98583
1.77895
4.94015
3.89005
4.93349
10.4933
2.96922
4.06899
3.99907
5.13472
3.16196
1.74401
2.37788
2.27443
3.83415
3.80595
4.00164
3.7754
3.55528
3.07306
2.26901
2.7181
3.255
3.60973
4.70046
1.35185
4.7979
2.70283
1.83343
4.09606
4.45786
3.41226
1.40102
1.82932
5.63108
3.24038
0.895965
1.06081
2.18568
4.16973
6.29731
1.07592
2.35916
6.35373
2.17638
2.79036
5.34737
2.38571
2.39202
4.2632
0.973812
1.24761
1.5161
1.66881
2.19033
3.30023
2.15967
3.13215
3.53228
1.0526
1.29595
3.05899
3.56282
4.39147
4.25155
5.71954
4.23171
3.88678
3.87427
5.12814
4.00491
2.61822
1.99631
2.25901
2.2835
1.4693
1.68483
1.84962
1.9134
1.89134
2.23773
1.42475
1.74786
1.47561
1.66707
1.70624
1.75944
0.778062
0.993899
0.819355
1.05655
1.2078
1.28542
1.38212
1.27948
1.55296
1.09628
1.50327
1.23926
1.21173
1.19641
0.794998
1.10289
1.22958
2.44285
1.93957
1.89768
5.42992
2.37558
3.32013
3.24738
2.47438
2.44885
9.9647
2.87771
5.9639
2.67056
2.44424
7.81511
8.29471
7.27579
4.72929
6.2852
2.52566
10.6774
9.55987
8.76645
5.67901
5.58082
4.42936
2.7749
7.29486
9.55138
10.5846
10.1757
4.60553
6.30542
4.95248
5.37291
2.72465
5.75916
8.2802
5.41362
3.01292
3.62246
3.70664
4.10383
5.75459
4.26928
7.39795
7.1568
6.85329
8.09743
8.39348
8.29452
8.03245
7.92508
3.60026
5.76787
5.60058
7.90279
7.31102
7.8382
5.67962
7.24578
8.01179
7.81834
2.92773
3.00392
3.94389
3.42855
4.51136
2.09513
2.38085
2.23614
10.4061
6.30082
3.36622
4.46095
2.95147
2.55986
5.70381
5.61909
2.35763
2.38927
2.11659
2.14134
3.52318
2.79189
3.16549
3.45197
1.68431
1.69394
1.26228
1.95179
2.70529
2.24519
2.19853
1.83252
8.00814
6.33494
5.10538
2.44438
9.00475
2.41919
1.85916
2.2017
7.90095
8.14998
6.5971
6.05344
5.81546
7.28961
6.85008
6.11283
6.47291
6.36635
4.23956
5.73015
5.79231
6.27979
8.87519
6.66069
3.01917
3.52819
4.57734
4.15018
5.75402
1.64184
3.48333
3.5717
0.827517
4.18727
7.06754
9.35246
7.36394
9.14984
1.55626
1.0547
4.83224
6.465
3.24302
6.96381
7.1345
3.68585
7.13921
10.6396
2.50992
2.53839
2.32992
2.27047
4.09057
3.20178
9.97033
3.264
1.12322
2.08815
2.90094
4.08899
5.2665
2.81019
1.93398
1.73166
2.46524
2.23685
1.98193
1.97987
1.66265
2.02207
2.17372
2.00893
1.45624
1.50089
0.713314
0.913205
1.13663
1.17678
1.65903
1.38824
0.639327
1.05585
1.46145
1.73119
1.31641
1.12507
0.738835
0.878919
2.13744
1.8861
1.62491
1.69213
1.59458
1.85131
1.66047
2.46339
1.74049
1.90638
2.02464
2.03554
3.77106
2.69793
1.55503
2.87436
2.61401
5.25659
3.07823
2.63839
3.75191
3.27397
2.19003
2.37943
10.2864
6.3654
7.06595
7.07819
3.36975
3.61331
3.51948
8.30722
2.37016
3.06611
2.29593
2.83887
3.82841
4.19228
3.54244
3.81499
4.08672
4.17824
5.41695
2.71223
3.52365
3.77051
3.4613
3.19069
4.27269
3.8882
4.78642
4.99443
3.28059
4.08356
8.05561
4.33393
6.28373
4.57027
3.47714
3.45674
3.96072
4.09743
4.22462
5.01715
3.92
3.93557
3.25102
3.05548
3.40555
3.37683
3.0701
5.00886
3.66086
3.57514
3.17354
3.27887
3.72007
3.51518
3.37445
3.27463
9.07434
5.07454
7.45619
5.59076
3.7262
4.87668
3.67402
3.57044
4.14169
3.60345
4.57721
4.57309
3.44939
4.1773
5.16401
4.36408
3.18737
6.07902
2.95572
3.65143
4.20405
3.47305
4.04858
3.86026
6.72478
8.03897
6.65384
6.74208
6.60774
7.15606
8.99434
6.92084
5.94009
5.72391
6.32984
7.17403
4.38836
7.55037
6.07984
5.34916
5.39417
5.03659
6.50232
4.52216
6.2628
5.82477
6.09592
6.68954
3.81569
4.23456
5.38644
5.0363
8.7845
4.78837
4.70933
6.6936
10.6775
2.95602
6.14185
1.31414
2.68878
2.78344
2.9838
6.02692
5.1328
3.81605
3.3216
2.53491
3.60018
3.2963
7.29059
6.12407
6.13485
6.61943
4.00596
3.81062
3.49589
9.50871
3.31768
3.50408
4.16679
3.87
2.73232
2.58945
3.119
3.86614
3.63182
7.19886
6.13123
3.99991
6.60725
6.88049
2.06176
2.53081
3.2209
8.60825
4.27601
3.16567
3.73999
3.26401
2.46183
3.89112
3.94135
7.51007
6.9746
6.55162
3.42617
3.89177
3.83518
3.53808
3.65877
3.62281
1.33184
7.32994
2.28411
3.2161
3.73174
1.4585
3.07533
2.81802
3.47536
4.02392
5.61681
6.7803
5.38071
5.75849
5.87894
6.59771
6.20262
6.42091
5.52428
7.55177
8.03995
5.61732
4.6935
4.71057
4.9507
5.61368
7.26171
5.76136
7.14759
7.30906
6.77662
7.37506
4.63914
7.44402
9.38286
8.72559
7.12483
7.28193
2.40581
5.12783
0.690277
1.56246
1.3747
1.72269
1.73757
1.56413
1.28274
1.40537
1.80284
2.25367
1.90114
1.94917
1.81981
1.71613
1.53378
1.7615
1.6697
1.64016
1.32047
1.34741
1.63362
1.59313
1.85902
1.67729
1.38004
1.31667
1.05011
1.04689
1.34608
1.16213
1.39086
1.41001
1.39547
1.38482
1.4108
1.53211
1.31195
1.24884
1.22775
1.13305
1.64815
1.56455
1.91568
1.72098
1.22463
1.49002
1.49141
1.42313
1.5734
2.02634
1.44686
1.574
1.80627
1.6055
2.09905
1.92466
0.809979
1.34892
1.10804
1.49274
1.60119
1.49641
1.49717
1.33826
2.31897
0.897794
1.69285
1.02868
0.971266
1.1298
3.58675
1.20012
1.43869
1.8784
6.91328
1.16889
4.65736
1.43513
1.61773
1.24825
3.6973
3.42652
3.27479
2.45732
1.00204
1.33939
1.22233
1.22542
3.17243
1.58163
0.828041
1.6517
0.956421
1.53295
3.15964
1.96542
1.16313
1.13989
1.50986
1.24941
1.63188
1.38554
1.2548
1.30472
2.94192
2.55609
2.98733
2.73892
1.70958
1.98874
1.53752
1.77122
2.6223
2.79908
2.11196
1.73784
1.58133
2.10802
2.55665
2.88137
1.48898
1.57201
1.40013
1.50814
1.69156
1.36707
1.45906
1.93866
1.16421
1.17282
1.3828
1.43103
1.83307
1.4206
1.65892
1.36792
1.37222
1.49558
1.61795
1.83288
1.81086
1.53817
1.44641
1.46311
2.68765
1.79524
2.6679
3.56391
1.99578
3.64087
1.83553
2.29267
3.08868
2.98549
1.96981
1.95596
2.05309
2.1726
2.6535
2.98628
2.18865
1.97844
3.11023
2.20667
1.18637
1.58838
1.05158
2.30819
2.39837
2.95764
1.18292
1.17804
1.15588
1.27824
3.75634
1.42521
1.42266
1.18187
1.61726
1.13594
1.66395
1.37596
1.2348
1.20613
1.80428
1.00115
3.71492
3.71286
1.53408
0.9806
1.58309
1.72957
4.9586
6.45085
7.09932
10.8447
5.88549
5.90522
11.0701
8.2018
1.77305
1.73008
1.65883
8.1346
6.10881
7.22817
1.96681
1.18656
1.1837
1.40757
1.0851
6.0336
0.654453
13.332
2.35895
6.25863
0.978697
0.763575
0.980348
0.734022
11.9482
6.13247
6.27918
0.856788
0.910588
2.82131
2.22055
1.008
4.7187
3.05992
1.02918
1.57772
5.17632
3.91391
3.49769
3.7843
2.03131
4.25253
6.89441
1.50292
2.28306
1.01826
4.25398
5.84432
1.6493
1.79363
2.65212
1.2326
1.2227
1.29101
1.4054
1.39101
2.20633
2.04351
4.0011
6.52047
1.89741
2.57513
4.60836
1.48556
1.78298
1.2628
1.67397
1.73631
7.70452
4.89785
3.78504
6.17218
11.5694
6.75475
10.8244
12.3183
6.20341
1.81899
6.9267
1.74765
6.381
3.89893
8.19652
1.77958
1.91278
10.5592
5.51652
6.02643
8.75154
1.87495
1.7057
1.77022
12.455
1.8692
7.39034
11.9526
8.93988
6.11222
10.4313
6.31553
5.16142
11.0905
6.29007
9.28827
11.465
5.42974
6.07553
7.686
6.2348
7.16937
7.59729
6.0834
6.39437
7.53022
8.80496
9.15631
8.26049
7.70325
9.21452
6.2414
7.52489
5.77952
6.61954
7.73438
7.16094
7.5956
6.73971
7.88499
9.39819
9.80204
9.80899
8.28531
8.91752
7.73159
9.2147
7.82117
7.36128
8.13344
8.50798
7.76883
8.02863
7.81392
7.36663
8.03081
8.33634
8.00652
7.48355
7.45142
8.14875
7.60341
7.94252
8.01306
8.38072
8.21317
7.96391
9.17815
8.80335
8.24404
9.40106
8.74683
8.27085
9.88464
8.32735
8.61792
9.50908
8.3933
8.38749
8.28715
8.26554
9.6756
9.60603
9.16636
9.08354
8.85024
9.1775
9.11988
9.26322
7.13136
9.25494
8.02577
8.99896
8.88159
9.29182
8.90478
9.08636
7.12536
4.39158
6.95406
4.39693
8.41496
7.26768
8.42076
7.27328
7.15417
6.48869
8.69566
6.71195
8.38353
7.58571
9.94393
5.87018
9.45664
9.50869
9.44702
8.44682
8.7254
9.495
9.47864
9.38196
9.46608
9.4086
8.69453
9.28163
8.72015
9.15673
9.45861
9.47357
9.55377
8.95695
9.59416
4.67277
8.41636
8.9843
8.51192
8.81281
7.12504
4.41547
8.41699
7.86436
8.45252
7.87975
9.61024
4.43274
9.47047
9.39227
9.24516
9.31275
8.70788
9.52897
8.6951
9.22338
8.71519
8.96862
8.92529
9.02786
9.2323
9.68483
9.10562
8.6447
7.10483
7.48982
8.59597
7.83089
8.14941
8.65213
7.57011
8.55642
7.80214
8.67276
9.05505
8.9126
10.071
8.02425
8.11721
8.06223
8.56224
9.1182
9.64241
9.31124
9.34115
9.239
8.91916
9.09344
7.9143
9.644
7.79774
6.9493
9.36899
9.64737
8.24172
9.56501
8.64778
8.35634
6.82605
9.15233
7.24231
6.87603
9.62604
10.0478
7.14406
8.10887
9.68384
7.56492
6.46228
7.51558
9.05224
10.1502
7.89964
7.57671
7.82754
7.59461
7.38335
9.45994
7.84307
9.47526
9.87429
6.35604
8.37796
7.57161
6.23419
9.46071
7.66955
8.72652
7.26398
7.37377
5.19089
6.63462
7.03326
9.09309
12.0774
11.7752
10.3758
11.2625
5.1432
7.28399
11.2237
11.7965
10.8342
7.04698
3.82977
6.11544
12.0548
6.16797
1.666
6.31909
8.02251
1.78899
6.60865
6.58144
2.208
1.96498
5.15029
1.60788
8.87494
1.71741
5.56251
11.3763
2.52221
4.78428
2.7226
5.85131
9.04654
6.74919
6.38896
1.64529
4.62324
6.98181
6.33371
4.05442
1.79135
3.60518
1.86388
3.03164
2.07634
5.93412
1.53548
5.58661
2.12584
3.16708
4.69748
4.36887
1.9512
1.13611
8.07008
1.42194
5.55399
6.58538
1.50831
1.09143
3.57309
1.27584
2.9719
1.01101
1.14112
1.36303
4.00504
1.37953
1.09669
1.81505
1.33782
10.3156
7.48569
4.74936
5.3793
4.91762
1.62729
1.78625
2.79014
1.36758
0.857992
7.05148
0.823074
1.23822
1.54911
1.21252
0.931233
1.4012
4.57273
1.60059
8.03766
1.36052
0.854334
1.53952
1.53526
0.668351
9.83748
5.30569
1.48093
1.96086
1.20003
1.9192
5.63434
4.98724
1.61015
1.34901
1.96843
2.66981
1.31782
1.55668
1.37717
1.08146
4.23693
1.46081
11.1787
1.57651
2.51808
1.81722
5.98526
3.45843
7.80165
1.30387
1.27719
1.55301
3.8408
4.07574
1.63469
4.95605
5.01324
1.37992
7.09948
7.24158
7.69491
2.8946
5.04365
5.60762
2.67657
4.38162
5.55867
10.9223
5.70727
7.07659
7.89009
7.55286
5.9413
6.54206
5.45177
8.63453
6.85186
8.53656
6.9649
6.25067
6.35645
5.83406
8.79441
8.8697
3.69433
3.61549
6.95567
6.54735
2.91036
2.539
2.35092
2.31426
0.642988
1.02832
0.863633
0.864271
0.284255
0.622858
0.593185
0.527562
0.603861
0.479809
0.671239
0.577226
0.400478
0.509716
0.64486
0.511898
1.24782
0.781882
0.848541
0.585396
0.363193
0.497929
0.58763
0.552637
1.03618
0.718259
0.552749
0.552614
0.398071
0.325446
0.843433
0.756293
1.82962
1.83439
1.61148
1.84225
1.57981
1.45438
1.93304
1.89777
0.953769
1.03522
0.522394
0.944898
1.29521
1.27507
1.61321
1.44309
0.892753
1.18463
1.57304
1.20575
1.65393
1.43743
0.941434
1.0107
2.20744
1.82417
2.01566
1.81866
1.5717
1.72793
1.90955
1.85009
3.31223
2.48405
5.51077
9.16903
2.19019
2.51525
2.70683
1.76256
1.8511
1.98136
2.00178
2.01113
1.83741
7.02317
1.74941
2.32608
2.34582
2.70196
2.52999
2.11207
2.31937
2.1684
2.22516
2.33473
2.25015
10.0961
2.37369
2.27899
2.78139
2.61385
10.2332
9.56986
9.13676
6.31447
5.6828
5.92511
6.27337
8.24209
7.87543
10.1903
9.95074
8.97861
10.4641
9.20754
9.48025
10.784
9.66843
6.50732
9.46232
7.67692
9.38797
9.84744
9.90715
8.60279
8.62684
8.8882
8.46258
9.51458
9.84543
9.84784
10.5673
9.89441
9.82552
8.51566
8.19237
8.0098
8.04657
8.44164
8.38487
4.6766
7.97107
9.76234
10.0887
8.23134
10.443
9.60069
9.38804
8.17763
9.52285
8.16511
10.1071
8.05998
8.05719
10.4361
7.83865
8.21603
8.52825
7.53289
10.5639
10.3225
7.84741
8.07348
8.09019
7.97403
7.88366
9.25732
5.94927
4.73027
6.66902
5.57412
1.48494
4.8864
10.4647
6.89442
6.61946
9.32295
6.46069
8.67121
6.30238
9.45867
5.80253
6.33939
9.92561
6.368
10.0426
0.889837
5.43777
0.895524
4.97141
9.77977
9.9193
4.95982
5.31329
3.26378
4.97619
10.2603
10.1323
0.934191
0.633397
0.186076
0.423908
0.872904
0.794732
0.971496
1.08235
0.958041
0.584332
0.580018
2.32275
0.361445
0.789624
0.460865
0.45647
6.70135
6.04099
6.64366
6.18416
0.836527
9.64913
5.03669
9.66929
6.3416
6.58804
0.675803
5.9697
0.686571
5.75092
6.32703
6.59646
2.85661
0.687998
0.555384
0.463018
0.474858
0.500837
0.496137
0.262843
2.61792
0.964084
0.97365
1.53342
0.622945
3.00016
5.89403
0.379214
9.52023
9.92632
9.8572
8.22633
7.50541
7.98464
7.83542
7.70382
8.38745
8.28651
10.9634
6.04784
10.6643
9.23859
8.4353
8.16801
3.18289
7.04489
6.603
7.58465
5.66268
5.03268
0.993106
7.96532
6.8979
9.83331
7.84782
7.98272
10.426
10.7722
10.6193
7.05417
9.80901
6.26896
8.59383
8.69102
10.3346
6.76368
6.02907
9.77233
8.50669
7.09113
8.08056
10.3885
8.57866
10.0885
9.1658
10.244
8.62686
8.42268
9.18117
8.507
8.82407
9.12304
8.4459
8.75206
9.79147
9.81834
9.91143
9.82938
8.60472
9.43797
10.6408
10.2053
8.42778
9.04352
10.0252
8.99852
5.03059
6.42059
8.94658
10.2824
9.61207
10.4022
10.1351
7.39777
2.81433
3.93786
6.41541
2.29139
2.38132
5.3651
2.05097
12.6992
10.011
3.3379
5.43335
5.50699
2.37434
2.4004
1.76964
1.76454
9.23192
10.8612
2.14954
2.30429
2.75304
2.38157
2.25519
2.12368
1.87213
1.90132
2.33064
2.41411
2.05312
2.07824
2.1525
1.95632
2.44272
2.25282
2.14745
2.06631
4.1318
2.2275
1.70429
1.76767
2.22151
1.90873
1.83793
3.80287
1.84226
1.93639
1.82869
1.9226
1.20866
1.90433
2.16893
1.77277
1.79296
1.78081
1.61235
1.65849
1.80886
1.75242
1.06402
1.23651
0.824684
1.06123
1.57
1.38821
1.47536
1.22892
1.0228
1.3044
1.75242
1.55584
1.39428
1.27451
0.681859
0.91649
0.835694
0.533702
0.653809
0.655929
0.241859
0.345549
0.368161
0.586141
0.997151
0.659267
0.522277
0.453539
0.446407
0.368551
0.598413
0.695509
0.942782
0.74364
1.02644
0.395143
0.291621
0.439007
0.551004
0.564705
1.01367
0.658941
0.54361
0.357496
0.172208
0.381882
0.708908
0.518941
1.49687
1.17314
1.58571
1.70765
1.11072
1.34927
0.637614
0.911825
2.65289
2.35321
2.39752
1.96109
1.7211
1.84355
2.35983
2.18971
2.18817
1.55619
1.37266
1.62431
1.41756
1.50439
1.74217
1.61848
0.813008
1.00976
0.702271
0.914452
1.36075
1.16539
1.13448
1.09661
2.94307
3.05509
5.06381
2.59788
3.30493
2.66967
2.72808
2.43229
4.84738
4.34852
5.43602
5.47477
2.43602
5.41143
3.24871
5.68233
5.58834
5.7497
4.05219
3.61911
2.19407
2.31812
5.45928
5.18223
3.93682
2.12457
6.29001
5.8672
5.21512
0.906163
4.95348
4.35591
2.6239
3.72401
5.12848
5.48707
4.405
5.59196
0.399132
4.09952
5.4843
2.84419
5.58092
5.31793
1.64099
1.97769
2.5386
3.89607
1.62313
3.46095
5.08453
4.38802
4.63082
3.80161
4.37416
3.99069
5.21583
5.35963
5.66039
4.03437
3.23229
3.45542
9.17086
5.16361
4.82861
6.36766
7.3374
4.86209
5.50551
5.1734
6.60482
6.32169
7.11241
6.8789
7.36693
3.97273
4.02481
4.16939
4.14398
5.36891
4.46801
4.89563
5.66913
5.52597
4.55621
5.52111
5.12045
7.17949
8.25132
6.46014
4.01787
5.71295
8.99906
6.40891
7.0278
6.1355
5.92056
9.82724
8.86038
6.83212
5.92398
5.93936
5.57115
5.7597
6.24886
6.15548
8.66342
7.13114
5.30099
5.48538
4.33777
4.18604
5.19234
3.16494
5.68838
5.79638
6.92638
7.27326
6.49114
6.55625
6.78451
9.79436
5.62015
6.70057
6.11786
7.73515
7.66055
7.4675
6.26999
6.15539
8.89213
7.35499
4.22914
4.30842
3.05909
3.40192
5.57602
5.11293
4.52333
4.48715
5.51223
5.15536
4.16359
5.04675
5.41434
6.16399
4.92798
6.29039
4.99075
4.28887
5.64868
5.22062
5.88566
5.83453
5.3177
5.08689
2.21011
4.55679
4.13762
4.4128
5.41153
5.49781
4.46229
4.4641
5.53352
5.32113
4.57599
5.09133
6.34625
4.98266
5.5406
5.91258
5.73491
6.38522
7.53322
5.76522
7.73562
8.72295
7.10108
8.78876
7.51804
5.39626
5.2392
8.60246
5.68736
5.02102
6.89797
5.43722
5.19501
7.03894
4.91643
7.03447
6.36488
5.26196
6.37709
5.2654
8.34118
7.54831
7.42998
7.61406
8.21163
7.26672
5.412
8.17441
7.9201
7.57756
7.65801
7.4927
8.21643
7.54648
7.24635
7.70516
9.23429
9.05561
9.61189
7.44797
7.48553
5.36667
7.63178
7.79332
6.23595
8.25479
6.64465
6.64959
5.86217
6.71754
8.77973
8.7836
3.57115
4.87572
8.11251
4.7899
7.56683
9.61997
6.38414
8.05605
9.36504
5.66696
7.62465
7.07304
7.5953
8.0392
8.50952
5.63029
7.71452
7.85992
7.68739
7.67717
8.26615
8.61156
8.25685
8.68972
7.65293
7.70759
8.33943
7.54346
8.2731
8.75682
7.69277
7.82476
3.71634
3.44442
3.6682
7.14303
2.33274
6.47535
6.94965
6.52927
7.38902
6.98031
2.17048
2.67458
2.46124
3.06593
3.61739
6.47508
5.78933
2.22479
2.52021
2.29931
2.0859
1.95083
5.18622
2.36366
2.72578
2.42337
2.34618
2.39104
6.96774
2.27875
2.75357
2.40749
6.05941
4.88037
5.99533
6.43845
7.16538
11.4155
11.0199
11.3977
4.18236
7.75094
5.61851
10.7711
7.10147
11.4925
5.23497
4.82066
4.40329
7.34037
9.07388
7.07142
6.83646
8.2701
7.01265
11.172
5.87171
5.90872
7.6294
8.24919
6.05677
5.96259
6.86781
5.53234
3.94165
3.52692
4.92875
2.66234
2.41292
2.50629
2.45341
2.82515
2.40514
2.39705
2.07584
2.52567
2.35251
2.39391
4.86476
2.49887
2.63078
2.55727
3.05776
2.64894
2.38707
2.43751
2.49239
2.36014
3.03237
2.88151
2.72493
3.03494
2.57704
2.69106
3.00805
2.58914
7.57165
7.48969
7.3112
8.07026
8.72011
7.6798
7.2754
7.5038
6.02386
6.30622
6.72676
8.05133
5.17121
6.2453
8.82015
6.972
2.56263
4.03808
4.71752
4.23939
5.86957
6.87678
5.57141
6.25535
4.43612
7.64117
7.93145
3.90024
6.88628
6.40495
4.27717
7.87274
5.91789
4.81701
6.03773
6.05905
6.06042
5.1659
5.88621
7.32105
7.16723
7.4846
6.44571
7.09274
4.70702
5.89849
5.42948
5.16954
4.75273
5.89667
5.96433
5.83903
4.98397
5.91504
6.38822
4.25656
6.61636
5.0751
4.55009
5.00435
5.00805
5.1447
5.93951
5.93137
7.22625
9.57037
10.9122
5.95033
7.57874
7.21197
8.78837
7.92029
3.77979
3.20215
3.60284
3.71879
8.30809
7.99211
6.48852
5.92554
3.44745
3.41629
4.95282
2.99781
7.52476
3.80026
3.58176
4.52036
2.89011
2.89631
4.75772
3.64758
3.78048
6.66247
3.0722
2.91519
3.09605
5.09048
4.85542
6.02683
6.08438
5.66282
5.75669
4.19566
5.09529
5.42994
6.75168
4.97896
9.34706
6.99382
4.59112
6.67884
5.58651
5.25143
7.72268
7.83336
9.12886
7.56942
6.24597
6.70921
5.31244
5.86258
6.4249
4.7949
5.94824
5.78768
4.39948
5.76496
5.8064
5.35229
7.61403
5.53999
5.78289
5.9621
4.46406
5.89358
5.7931
7.66535
7.85817
7.47563
6.03915
8.73107
7.96964
7.57732
5.39547
6.32707
3.31923
5.94628
5.92766
5.94622
8.67547
6.40999
4.89869
9.57141
5.45357
5.78321
5.6524
6.03039
5.78262
6.19015
3.141
2.88283
2.88299
3.00665
10.9727
5.82562
4.66085
5.01041
3.45425
5.72251
6.77939
4.53795
10.1504
6.227
6.46706
3.417
8.44949
7.08892
8.15718
7.07644
6.31418
7.16399
8.64205
8.7085
4.98828
9.02313
7.10821
7.8304
7.96971
6.63124
7.49457
6.94695
3.15282
2.56817
2.18449
2.37949
1.82343
1.88275
2.46854
2.05997
1.51676
1.47759
0.799567
0.914176
1.372
1.47296
1.82933
1.78026
1.06046
0.973488
1.42922
1.2443
1.29864
1.25244
0.888532
0.910817
1.88748
1.85038
1.95067
1.83305
1.49823
1.46067
1.7012
1.71057
2.41054
1.53249
1.66153
2.09127
1.48595
1.82258
6.90559
7.32255
0.999382
1.41051
1.44951
1.78442
1.43368
1.57635
1.49596
1.55626
1.355
1.88819
2.11724
1.8779
4.10902
1.02127
1.29075
1.59604
4.16944
1.75475
6.23026
7.36977
7.16277
7.51733
2.17212
4.88616
2.29364
1.9804
1.80382
2.16919
1.79276
1.92655
2.14464
2.19913
1.12811
1.14624
0.936648
1.02878
1.43817
1.49865
1.87905
1.51889
1.22826
1.3034
1.78882
1.48658
1.87876
1.52703
0.692519
0.906008
2.52796
2.52894
2.31674
2.20853
1.91662
1.86953
1.90144
2.24318
5.67691
5.92441
7.13153
8.34899
4.98993
7.15243
5.5388
7.78586
7.758
7.28039
5.37574
5.46019
5.12168
6.45961
7.63391
7.6406
3.26203
3.26751
2.78441
5.04767
5.0863
3.7891
6.59842
4.32674
1.86681
3.21841
5.35351
5.01139
3.8749
6.37616
2.89987
3.11564
8.17505
8.45546
5.63507
7.34855
6.34717
5.8755
8.19546
7.92618
5.80548
4.27533
2.47703
4.59277
5.73138
4.86505
8.50188
4.48283
5.70108
6.39627
3.66977
3.00423
6.04983
2.93862
4.30966
6.04419
7.31409
6.74703
6.52647
7.66148
6.56248
6.652
4.99303
6.6765
7.10975
6.19217
6.02178
5.37177
4.52082
5.36673
5.76172
6.07135
5.70815
6.31797
5.30897
6.31768
3.76482
4.37895
3.82081
4.20128
3.21579
3.4331
5.09478
6.79427
5.3171
6.08396
5.71209
5.94479
6.44497
6.63265
5.19009
6.10029
5.69375
5.71914
5.7395
5.50178
6.87189
6.44513
5.31456
5.46947
5.50533
6.08184
6.95397
6.45972
6.01207
6.03773
5.93136
6.22316
5.01165
5.22276
6.08826
5.35392
4.7351
4.68787
5.8725
5.96369
4.91904
4.50282
5.16854
6.4879
5.40209
5.32229
7.26906
5.49099
5.4628
8.00193
5.28951
7.31424
4.86771
4.65246
3.50812
6.85295
5.48921
5.17089
6.17508
5.11106
3.81193
7.12071
5.62107
5.78833
5.93476
6.91149
3.57096
7.08391
6.26787
7.51001
6.68496
7.56788
8.29552
5.45338
6.82983
5.86969
7.57844
6.8256
5.98174
5.45792
6.59283
8.43579
7.15084
6.71048
3.04378
2.90126
2.9944
2.8805
3.11959
2.89789
2.58309
2.92182
2.75781
2.75296
2.50031
3.10802
3.91029
2.33129
2.79573
2.77668
2.65731
4.28429
2.47927
5.28001
2.43225
2.66053
2.17512
2.3233
2.76264
2.75263
3.18985
2.61777
2.93403
2.61535
2.80258
2.72396
3.87573
2.86068
3.85855
2.84518
5.67325
5.36088
5.78233
5.61797
4.81355
5.08617
7.22831
7.21397
5.58433
7.2427
3.36983
3.55604
3.38819
6.60218
5.34718
6.75945
2.08814
4.47818
7.00773
4.6652
2.6618
2.62059
2.06113
11.0195
2.01855
11.1325
3.81732
2.30021
3.20386
2.60402
2.65946
2.67443
2.68474
2.41256
4.41128
2.57712
2.27051
2.17086
1.85302
1.98164
2.06965
2.09149
2.59172
2.67006
2.94213
2.47776
3.89526
2.47482
2.16429
2.29987
1.94688
2.25436
3.0275
2.60944
2.96645
2.182
2.34079
2.36743
2.81456
2.58722
7.69683
5.17938
8.30078
8.13864
8.18117
8.06523
6.18469
8.53903
7.15819
7.20382
8.92407
6.87681
8.52941
6.84419
7.1392
7.57264
5.92913
5.61521
5.67156
5.54475
6.0611
7.37377
6.1543
10.1356
4.45128
4.60556
5.87127
7.23748
5.75967
7.81636
5.63152
5.41514
6.34337
5.78739
8.7975
9.13737
8.87857
9.14696
6.66824
5.7509
7.1861
8.5544
6.85931
8.38612
6.78834
6.30907
6.95913
6.23808
6.90849
6.39417
7.91302
7.35736
6.80363
7.33866
6.74619
8.18063
7.7529
7.06269
5.93602
7.41179
10.1819
7.37905
5.93319
5.18521
5.49516
7.14901
7.88713
5.17903
8.99108
5.15298
5.59043
7.1181
5.9344
6.16639
5.87866
5.84848
8.10523
8.6663
5.45983
8.65895
6.70026
6.08468
8.0622
8.44081
8.23873
8.45326
6.04268
5.85374
5.85244
5.6968
5.20643
5.44482
8.95574
6.34383
4.60405
4.45346
