OFF
557 1085 0
1.55341 -17.4077 1.22393
1.55341 -17.5272 1.00393
1.94471 -17.5333 1.01193
1.94471 -17.4138 1.23093
2.41191 -17.5353 1.01393
2.41191 -17.4159 1.23293
2.41141 -17.3285 1.39093
1.95931 -17.3273 1.38693
1.58051 -17.3221 1.37893
2.87711 -17.5333 1.01193
3.26201 -17.5272 1.00393
3.26201 -17.4077 1.22393
2.87711 -17.4138 1.23093
3.23411 -17.3221 1.37893
2.86151 -17.3273 1.38693
3.15021 -17.2663 1.47393
3.03701 -17.2374 1.51893
2.78131 -17.229 1.54293
2.81461 -17.2686 1.48593
2.40691 -17.2249 1.55493
2.40991 -17.2674 1.49393
2.03101 -17.229 1.54293
1.77231 -17.2374 1.51893
1.66221 -17.2663 1.47393
2.00341 -17.2686 1.48593
-0.0867937 -5.75882 -0.980069
-0.0686937 -5.69482 -0.810069
-0.0713937 -5.68062 -0.805069
-0.0144937 -5.65042 -0.692069
0.0940063 -5.62162 -0.616069
0.0914063 -5.60752 -0.611069
-0.0170937 -5.63632 -0.687069
0.887006 -6.29172 -2.43307
0.889306 -6.30682 -2.43507
0.708506 -6.36562 -2.59107
0.706106 -6.35052 -2.59007
0.491606 -6.38522 -2.64307
0.489206 -6.37012 -2.64207
0.486306 -6.36442 -2.65207
0.708206 -6.34522 -2.60107
0.274706 -6.36562 -2.59107
0.0940063 -6.30682 -2.43507
0.0914063 -6.29172 -2.43307
0.272206 -6.35052 -2.59007
0.261606 -6.34602 -2.60207
0.994906 -5.62742 -0.685069
1.04921 -5.67172 -0.803069
1.05141 -5.66652 -0.804069
0.996906 -5.62232 -0.686069
1.05681 -5.66342 -0.808069
1.00211 -5.61942 -0.691069
0.887006 -5.60752 -0.611069
0.889306 -5.62162 -0.616069
0.997806 -5.65042 -0.692069
0.995406 -5.63632 -0.687069
1.05201 -5.69482 -0.810069
1.04971 -5.68062 -0.805069
1.07011 -5.75882 -0.980069
1.07011 -5.84652 -1.21307
1.06781 -5.83212 -1.20907
1.06781 -5.74462 -0.976069
1.06731 -5.82302 -1.20707
1.06731 -5.73562 -0.974069
1.06951 -5.81752 -1.20807
1.07511 -5.72692 -0.978069
1.06951 -5.73022 -0.975069
0.274706 -5.60432 -0.570069
0.708506 -5.60432 -0.570069
1.04021 -17.0749 0.817931
1.04021 -17.1943 0.598931
1.10841 -17.3774 0.821931
1.10841 -17.2579 1.04093
1.18411 -17.476 0.941931
1.18411 -17.3566 1.16093
1.22161 -17.2696 1.32093
1.14661 -17.1707 1.20093
1.07751 -16.9877 0.978931
1.31611 -17.517 0.991931
1.31611 -17.3976 1.21093
1.35051 -17.3115 1.36793
1.65791 -17.2194 1.53093
1.45341 -17.2544 1.46893
1.55871 -17.1718 1.49893
1.33411 -17.21 1.42893
1.49011 -17.0709 1.38393
1.41331 -16.8879 1.16193
1.18941 -16.9272 1.08993
1.26111 -17.1102 1.31193
2.68191 -17.9015 -0.699069
3.05511 -17.8213 -0.551069
3.16911 -18.0044 -0.329069
2.78751 -18.0846 -0.476069
3.20271 -18.093 -0.192069
2.82911 -18.1709 -0.334069
2.38091 -18.1971 -0.382069
2.32961 -18.1113 -0.525069
2.23421 -17.9282 -0.748069
3.14451 -18.1038 -0.0920687
3.03701 -18.0722 -0.0140687
2.78131 -18.1135 -0.0800687
2.80661 -18.1751 -0.221069
2.40691 -18.1339 -0.113069
2.40201 -18.1997 -0.263069
2.03101 -18.1135 -0.0800687
1.77231 -18.0722 -0.0140687
1.65791 -18.1038 -0.0920687
1.99661 -18.1751 -0.221069
1.55871 -18.093 -0.192069
1.93261 -18.1709 -0.334069
1.49001 -18.0044 -0.329069
1.41331 -17.8213 -0.551069
1.78641 -17.9015 -0.699069
1.87171 -18.0846 -0.476069
3.27891 -16.9272 1.08993
3.05511 -16.8879 1.16193
3.16911 -17.0709 1.38393
3.39811 -17.1102 1.31193
3.20271 -17.1718 1.49893
3.42751 -17.21 1.42893
3.54031 -17.2696 1.32093
3.51261 -17.1707 1.20093
3.39091 -16.9877 0.978931
3.14441 -17.2194 1.53093
3.34971 -17.2544 1.46893
3.45391 -17.3115 1.36793
3.48861 -17.517 0.991931
3.48861 -17.3976 1.21093
3.57791 -17.476 0.941931
3.57791 -17.3566 1.16093
3.55071 -17.3774 0.821931
3.42821 -17.1943 0.598931
3.42821 -17.0749 0.817931
3.55071 -17.2579 1.04093
1.78641 -16.8643 1.20493
1.87171 -17.0474 1.42793
1.93261 -17.1491 1.54093
2.38091 -17.1417 1.55493
2.32961 -17.0395 1.44193
2.23421 -16.8565 1.21893
1.99661 -17.1994 1.56993
2.40201 -17.1932 1.58393
2.80661 -17.1994 1.56993
2.82911 -17.1491 1.54093
2.68191 -16.8643 1.20493
2.78751 -17.0474 1.42793
1.47851 -9.03783 -1.08407
1.36261 -9.00762 -1.02507
1.52101 -10.3447 -1.00707
1.64841 -10.3765 -1.06707
1.70291 -11.8081 -0.916069
1.84551 -11.842 -0.978069
1.91681 -11.8941 -1.07407
1.71221 -10.4256 -1.15907
1.53641 -9.08437 -1.17507
1.90851 -13.2482 -0.738069
2.13741 -14.5155 -0.461069
2.31371 -14.5531 -0.530069
2.06781 -13.2841 -0.804069
2.40181 -14.6109 -0.636069
2.14751 -13.3394 -0.905069
2.43121 -14.6944 -0.789069
2.43121 -14.8086 -0.999069
2.17411 -13.5281 -1.25207
2.17411 -13.419 -1.05207
1.94051 -12.0722 -1.40307
1.94051 -11.9692 -1.21307
1.73341 -10.5931 -1.47307
1.55581 -9.24334 -1.48407
1.55581 -9.15146 -1.30507
1.73341 -10.4963 -1.29107
1.16951 -9.7874 -2.54407
1.36261 -9.72574 -2.42407
1.52101 -11.1015 -2.42807
1.30851 -11.1665 -2.55007
1.70291 -12.6126 -2.40007
1.46541 -12.6817 -2.52807
1.18031 -12.7047 -2.57007
1.05351 -11.1882 -2.59107
0.937706 -9.80795 -2.58407
1.90851 -14.1009 -2.30307
2.13741 -15.4085 -2.10007
1.84361 -15.4852 -2.24007
1.64281 -14.1741 -2.43707
1.49111 -15.5108 -2.28707
1.32411 -14.1985 -2.48207
1.13851 -15.4852 -2.24007
0.844806 -15.4085 -2.10007
0.739706 -14.1009 -2.30307
1.00531 -14.1741 -2.43707
0.657606 -12.6126 -2.40007
0.895206 -12.6817 -2.52807
0.586006 -11.1015 -2.42807
0.512706 -9.72574 -2.42407
0.705906 -9.7874 -2.54407
0.798506 -11.1665 -2.55007
0.319606 -9.15146 -1.30507
0.319606 -9.24334 -1.48407
0.373606 -10.5931 -1.47307
0.373606 -10.4963 -1.29107
0.420006 -12.0722 -1.40307
0.420006 -11.9692 -1.21307
0.443706 -11.8941 -1.07407
0.394806 -10.4256 -1.15907
0.338906 -9.08437 -1.17507
0.474106 -13.5281 -1.25207
0.551006 -14.8086 -0.999069
0.551006 -14.6944 -0.789069
0.474106 -13.419 -1.05207
0.580306 -14.6109 -0.636069
0.500606 -13.3394 -0.905069
0.668506 -14.5531 -0.530069
0.844806 -14.5155 -0.461069
0.739706 -13.2482 -0.738069
0.580306 -13.2841 -0.804069
0.657606 -11.8081 -0.916069
0.515006 -11.842 -0.978069
0.586006 -10.3447 -1.00707
0.512706 -9.00762 -1.02507
0.396906 -9.03783 -1.08407
0.458606 -10.3765 -1.06707
0.705906 -8.98949 -0.990069
0.798506 -10.3256 -0.971069
0.895206 -11.7878 -0.878069
1.18031 -11.781 -0.866069
1.05351 -10.3192 -0.959069
0.937706 -8.98345 -0.978069
1.13851 -14.4929 -0.419069
1.00531 -13.2267 -0.699069
1.49111 -14.4854 -0.406069
1.32411 -13.2195 -0.685069
1.84361 -14.4929 -0.419069
1.64281 -13.2267 -0.699069
1.46541 -11.7878 -0.878069
1.16951 -8.98949 -0.990069
1.30851 -10.3256 -0.971069
-0.0144937 -6.20872 -2.17407
0.319606 -9.36424 -1.72007
0.373606 -10.7206 -1.71307
0.338906 -9.49662 -1.97807
0.394806 -10.8601 -1.97507
0.443706 -12.3559 -1.92707
0.420006 -12.2076 -1.65307
0.396906 -9.62297 -2.22407
0.458606 -10.9932 -2.22507
0.515006 -12.4975 -2.18807
0.668506 -15.2807 -1.86507
0.580306 -13.9789 -2.07907
0.580406 -15.1236 -1.57707
0.500606 -13.8289 -1.80407
0.551006 -14.959 -1.27507
0.474106 -13.6717 -1.51507
1.04021 -17.3514 0.310931
1.10841 -17.5345 0.533931
1.07751 -17.5235 -0.00506872
1.14661 -17.7066 0.217931
1.22161 -17.8038 0.339931
1.18411 -17.6331 0.653931
1.18941 -17.6878 -0.306069
1.26111 -17.8708 -0.0840687
1.33411 -17.9639 0.0459313
1.66221 -17.9866 0.151931
1.45341 -17.9881 0.122931
1.58061 -17.8479 0.413931
1.35051 -17.8407 0.396931
1.55341 -17.6843 0.715931
1.31621 -17.6742 0.703931
1.94471 -17.6904 0.722931
1.95931 -17.8564 0.415931
2.41141 -17.861 0.413931
2.41191 -17.6925 0.725931
2.00341 -18.0024 0.139931
2.40991 -18.0145 0.122931
3.15021 -17.9866 0.151931
2.81461 -18.0024 0.139931
3.23411 -17.8479 0.413931
2.86151 -17.8564 0.415931
3.26201 -17.6843 0.715931
2.87711 -17.6904 0.722931
3.42821 -17.3514 0.310931
3.55081 -17.5345 0.533931
3.57791 -17.6331 0.653931
3.54031 -17.8038 0.339931
3.51261 -17.7066 0.217931
3.39091 -17.5235 -0.00506872
3.48861 -17.6742 0.703931
3.45391 -17.8407 0.396931
3.34971 -17.9881 0.122931
3.42751 -17.9639 0.0459313
3.27891 -17.6878 -0.306069
3.39811 -17.8708 -0.0840687
1.55581 -9.36424 -1.72007
1.73341 -10.7206 -1.71307
1.94051 -12.2076 -1.65307
1.91681 -12.3559 -1.92707
1.71221 -10.8601 -1.97507
1.53641 -9.49662 -1.97807
2.43121 -14.959 -1.27507
2.17411 -13.6717 -1.51507
2.40181 -15.1236 -1.57707
2.14751 -13.8289 -1.80407
2.31371 -15.2807 -1.86507
2.06781 -13.9789 -2.07907
1.84551 -12.4975 -2.18807
1.47851 -9.62297 -2.22407
1.64841 -10.9932 -2.22507
1.06731 -5.93802 -1.51407
1.07011 -5.96182 -1.51907
1.06781 -5.94732 -1.51607
1.05201 -6.08822 -1.85407
1.04971 -6.07342 -1.85207
0.997806 -6.20872 -2.17407
0.995406 -6.19382 -2.17307
1.07331 -6.14282 -0.799069
0.965906 -6.11382 -0.727069
1.02971 -6.53002 -0.813069
1.13631 -6.55892 -0.881069
1.11701 -7.13072 -0.906069
1.22391 -7.15972 -0.970069
1.27731 -7.20422 -1.06807
1.18961 -6.60342 -0.986069
1.12701 -6.18742 -0.910069
1.22801 -7.94642 -0.984069
1.33741 -7.97572 -1.04507
1.39221 -8.02092 -1.13807
1.41041 -8.17512 -1.45707
1.41041 -8.08602 -1.27307
1.29511 -7.35652 -1.40607
1.29511 -7.26852 -1.21107
1.20731 -6.75542 -1.34507
1.14491 -6.33982 -1.28907
1.14491 -6.25172 -1.07007
1.20731 -6.66752 -1.13707
1.14491 -6.45582 -1.57707
1.20731 -6.87102 -1.61807
1.29511 -7.47222 -1.66207
1.27731 -7.59902 -1.94307
1.18961 -6.99752 -1.91607
1.12701 -6.58272 -1.89207
1.41041 -8.29242 -1.70007
1.39221 -8.42082 -1.96507
1.22801 -8.64312 -2.42507
1.33741 -8.54342 -2.21907
1.11701 -7.81842 -2.42907
1.22391 -7.72002 -2.21107
1.02971 -7.21662 -2.43407
0.965906 -6.80242 -2.43807
1.07331 -6.70382 -2.19307
1.13631 -7.11832 -2.20207
0.786806 -6.86152 -2.58407
0.852006 -7.27562 -2.57307
0.939006 -7.87752 -2.56007
0.725406 -7.89722 -2.60307
0.638806 -7.29522 -2.61907
0.571906 -6.88122 -2.63307
1.04561 -8.70292 -2.54907
0.826706 -8.72282 -2.59007
0.425306 -8.64312 -2.42507
0.607706 -8.70292 -2.54907
0.333706 -7.81842 -2.42907
0.511806 -7.87752 -2.56007
0.247906 -7.21662 -2.43407
0.177906 -6.80242 -2.43807
0.357006 -6.86152 -2.58407
0.425606 -7.27562 -2.57307
0.0703063 -6.75542 -1.34507
-0.00109367 -6.33982 -1.28907
-0.00109367 -6.45582 -1.57707
0.0703063 -6.87102 -1.61807
0.0168063 -6.58272 -1.89207
0.0880063 -6.99752 -1.91607
0.173506 -7.59902 -1.94307
0.155706 -7.47222 -1.66207
0.155706 -7.35652 -1.40607
0.0705063 -6.70382 -2.19307
0.141306 -7.11832 -2.20207
0.226906 -7.72002 -2.21107
0.315906 -8.54342 -2.21907
0.261106 -8.42082 -1.96507
0.242906 -8.17512 -1.45707
0.242906 -8.29242 -1.70007
-0.00109367 -6.25172 -1.07007
0.0703063 -6.66752 -1.13707
0.155706 -7.26852 -1.21107
0.173506 -7.20422 -1.06807
0.0880063 -6.60342 -0.986069
0.0168063 -6.18742 -0.910069
0.242906 -8.08602 -1.27307
0.261106 -8.02092 -1.13807
0.425306 -7.94642 -0.984069
0.315906 -7.97572 -1.04507
0.333706 -7.13072 -0.906069
0.226906 -7.15972 -0.970069
0.247906 -6.53002 -0.813069
0.177906 -6.11382 -0.727069
0.0705063 -6.14282 -0.799069
0.141306 -6.55892 -0.881069
0.357006 -6.09642 -0.684069
0.425606 -6.51272 -0.772069
0.511806 -7.11342 -0.867069
0.725406 -7.10762 -0.854069
0.638806 -6.50692 -0.758069
0.571906 -6.09062 -0.670069
0.607706 -7.92882 -0.947069
0.826706 -7.92302 -0.935069
1.04561 -7.92882 -0.947069
0.939006 -7.11342 -0.867069
0.786806 -6.09642 -0.684069
0.852006 -6.51272 -0.772069
2.38971 -15.4602 -0.0700687
2.58121 -15.4988 -0.141069
2.64221 -16.1354 0.371931
2.84701 -16.1745 0.300931
2.94941 -16.2347 0.189931
2.67701 -15.5583 -0.250069
2.87171 -16.5936 0.803931
3.08741 -16.6329 0.730931
3.19521 -16.6934 0.619931
3.23121 -16.9 0.240931
3.23121 -16.7806 0.459931
2.98351 -16.4404 -0.188069
2.98351 -16.3215 0.0309313
2.70891 -15.7613 -0.622069
2.70891 -15.644 -0.407069
0.985106 -15.4602 -0.0700687
1.30441 -15.4371 -0.0270687
1.14031 -16.1354 0.371931
1.48171 -16.1119 0.414931
1.89131 -16.1041 0.429931
1.68741 -15.4294 -0.0130687
1.28991 -16.5936 0.803931
1.64941 -16.5701 0.846931
2.08081 -16.5622 0.860931
2.51221 -16.5701 0.846931
2.30091 -16.1119 0.414931
2.07051 -15.4371 -0.0270687
0.665906 -15.7613 -0.622069
0.665906 -15.644 -0.407069
0.799006 -16.4404 -0.188069
0.799006 -16.3215 0.0309313
0.833106 -16.2347 0.189931
0.697806 -15.5583 -0.250069
0.930406 -16.9 0.240931
0.930406 -16.7806 0.459931
0.966306 -16.6934 0.619931
1.07421 -16.6329 0.730931
0.935506 -16.1745 0.300931
0.793606 -15.4988 -0.141069
0.930406 -17.0572 -0.0470687
0.799006 -16.5969 -0.475069
0.833206 -16.7683 -0.789069
0.966306 -17.2293 -0.363069
0.665906 -15.9158 -0.906069
0.697806 -16.0849 -1.21607
0.985106 -16.3776 -1.75307
0.793606 -16.2463 -1.51207
1.14031 -17.0648 -1.33307
0.935606 -16.9318 -1.08907
1.28991 -17.5271 -0.910069
1.07421 -17.3935 -0.664069
2.38971 -16.3776 -1.75307
2.07051 -16.4563 -1.89807
2.64221 -17.0648 -1.33307
2.30091 -17.1446 -1.48007
1.89131 -17.1712 -1.52907
1.68741 -16.4826 -1.94607
2.87171 -17.5271 -0.910069
2.51221 -17.6072 -1.05707
2.08081 -17.634 -1.10607
1.64941 -17.6072 -1.05707
1.48171 -17.1446 -1.48007
1.30441 -16.4563 -1.89807
2.70891 -15.9158 -0.906069
2.98351 -16.5969 -0.475069
2.94941 -16.7683 -0.789069
2.67701 -16.0849 -1.21607
3.23121 -17.0572 -0.0470687
3.19521 -17.2293 -0.363069
3.08741 -17.3935 -0.664069
2.84701 -16.9318 -1.08907
2.58121 -16.2463 -1.51207
1.06631 -5.66102 -0.816069
1.01111 -5.61712 -0.699069
0.892806 -5.64242 -0.623069
1.00121 -5.67132 -0.699069
0.903006 -5.70692 -0.639069
1.01131 -5.73582 -0.715069
1.06541 -5.78042 -0.832069
1.05541 -5.71582 -0.817069
0.925506 -5.85172 -0.672069
1.03351 -5.88072 -0.746069
1.08751 -5.92532 -0.861069
1.10541 -6.07782 -1.25207
1.10541 -5.98972 -1.02607
1.08341 -5.93272 -1.23007
1.08341 -5.84472 -1.00007
1.07351 -5.86782 -1.21807
1.07351 -5.78002 -0.986069
1.07351 -5.98342 -1.52407
1.08341 -6.04852 -1.53307
1.06541 -6.17542 -1.86407
1.05541 -6.11002 -1.85807
1.10541 -6.19382 -1.54907
1.08751 -6.32082 -1.87507
0.925506 -6.54062 -2.43907
1.03351 -6.44202 -2.18607
0.903006 -6.39492 -2.43807
1.01131 -6.29642 -2.18107
0.892806 -6.32912 -2.43707
1.00121 -6.23082 -2.17707
0.712106 -6.38802 -2.59207
0.722506 -6.45402 -2.59307
0.506006 -6.47372 -2.64407
0.495306 -6.40772 -2.64407
0.745506 -6.59972 -2.59107
0.529606 -6.61942 -2.64107
0.133606 -6.54062 -2.43907
0.313606 -6.59972 -2.59107
0.109006 -6.39492 -2.43807
0.289406 -6.45402 -2.59307
0.0978063 -6.32912 -2.43707
0.278506 -6.38802 -2.59207
-0.0828937 -5.86782 -1.21807
-0.0867937 -5.84652 -1.21307
-0.0867937 -5.96182 -1.51907
-0.0828937 -5.98342 -1.52407
-0.0686937 -6.08822 -1.85407
-0.0647937 -6.11002 -1.85807
-0.0533937 -6.17542 -1.86407
-0.0714937 -6.04852 -1.53307
-0.0714937 -5.93272 -1.23007
-0.0105937 -6.23082 -2.17707
0.000706328 -6.29642 -2.18107
0.0257063 -6.44202 -2.18607
-0.0282937 -6.32082 -1.87507
-0.0462937 -6.07782 -1.25207
-0.0462937 -6.19382 -1.54907
-0.0828937 -5.78002 -0.986069
-0.0714937 -5.84472 -1.00007
-0.0533937 -5.78042 -0.832069
-0.0647937 -5.71582 -0.817069
-0.0462937 -5.98972 -1.02607
-0.0282937 -5.92532 -0.861069
0.133606 -5.85172 -0.672069
0.0257063 -5.88072 -0.746069
0.109006 -5.70692 -0.639069
0.000706328 -5.73582 -0.715069
0.0978063 -5.64242 -0.623069
-0.0105937 -5.67132 -0.699069
0.278506 -5.62512 -0.577069
0.289406 -5.68952 -0.594069
0.506006 -5.68372 -0.579069
0.495306 -5.61932 -0.562069
0.313606 -5.83432 -0.627069
0.529606 -5.82852 -0.612069
0.745506 -5.83432 -0.627069
0.722506 -5.68952 -0.594069
0.712106 -5.62512 -0.577069
3 0 1 2
3 0 2 3
3 2 4 5
3 2 5 3
3 5 6 7
3 5 7 3
3 7 8 0
3 7 0 3
3 9 10 11
3 9 11 12
3 11 13 14
3 11 14 12
3 14 6 5
3 14 5 12
3 5 4 9
3 5 9 12
3 15 16 17
3 15 17 18
3 17 19 20
3 17 20 18
3 20 6 14
3 20 14 18
3 14 13 15
3 14 15 18
3 21 22 23
3 21 23 24
3 23 8 7
3 23 7 24
3 7 6 20
3 7 20 24
3 20 19 21
3 20 21 24
3 25 26 27
3 28 29 30
3 28 30 31
3 27 26 28
3 27 28 31
3 32 33 34
3 32 34 35
3 34 36 37
3 34 37 35
3 37 38 39
3 37 39 35
3 39 32 35
3 40 41 42
3 40 42 43
3 42 44 43
3 44 38 37
3 44 37 43
3 37 36 40
3 37 40 43
3 45 46 47
3 45 47 48
3 47 49 50
3 47 50 48
3 51 52 53
3 51 53 54
3 53 55 56
3 53 56 54
3 56 46 45
3 56 45 54
3 45 51 54
3 57 58 59
3 57 59 60
3 59 61 62
3 59 62 60
3 62 46 56
3 62 56 60
3 56 55 57
3 56 57 60
3 63 64 65
3 64 49 47
3 64 47 65
3 47 46 62
3 47 62 65
3 62 61 63
3 62 63 65
3 30 29 66
3 67 52 51
3 68 69 70
3 68 70 71
3 70 72 73
3 70 73 71
3 73 74 75
3 73 75 71
3 75 76 68
3 75 68 71
3 77 1 0
3 77 0 78
3 0 8 79
3 0 79 78
3 79 74 73
3 79 73 78
3 73 72 77
3 73 77 78
3 23 22 80
3 23 80 81
3 80 82 83
3 80 83 81
3 83 74 79
3 83 79 81
3 79 8 23
3 79 23 81
3 84 85 86
3 84 86 87
3 86 76 75
3 86 75 87
3 75 74 83
3 75 83 87
3 83 82 84
3 83 84 87
3 88 89 90
3 88 90 91
3 90 92 93
3 90 93 91
3 93 94 95
3 93 95 91
3 95 96 88
3 95 88 91
3 97 98 99
3 97 99 100
3 99 101 102
3 99 102 100
3 102 94 93
3 102 93 100
3 93 92 97
3 93 97 100
3 103 104 105
3 103 105 106
3 105 107 108
3 105 108 106
3 108 94 102
3 108 102 106
3 102 101 103
3 102 103 106
3 109 110 111
3 109 111 112
3 111 96 95
3 111 95 112
3 95 94 108
3 95 108 112
3 108 107 109
3 108 109 112
3 113 114 115
3 113 115 116
3 115 117 118
3 115 118 116
3 118 119 120
3 118 120 116
3 120 121 113
3 120 113 116
3 122 16 15
3 122 15 123
3 15 13 124
3 15 124 123
3 124 119 118
3 124 118 123
3 118 117 122
3 118 122 123
3 11 10 125
3 11 125 126
3 125 127 128
3 125 128 126
3 128 119 124
3 128 124 126
3 124 13 11
3 124 11 126
3 129 130 131
3 129 131 132
3 131 121 120
3 131 120 132
3 120 119 128
3 120 128 132
3 128 127 129
3 128 129 132
3 133 85 84
3 133 84 134
3 84 82 135
3 84 135 134
3 135 136 137
3 135 137 134
3 137 138 133
3 137 133 134
3 80 22 21
3 80 21 139
3 21 19 140
3 21 140 139
3 140 136 135
3 140 135 139
3 135 82 80
3 135 80 139
3 17 16 122
3 17 122 141
3 122 117 142
3 122 142 141
3 142 136 140
3 142 140 141
3 140 19 17
3 140 17 141
3 115 114 143
3 115 143 144
3 143 138 137
3 143 137 144
3 137 136 142
3 137 142 144
3 142 117 115
3 142 115 144
3 145 146 147
3 145 147 148
3 147 149 150
3 147 150 148
3 150 151 152
3 150 152 148
3 152 153 145
3 152 145 148
3 154 155 156
3 154 156 157
3 156 158 159
3 156 159 157
3 159 151 150
3 159 150 157
3 150 149 154
3 150 154 157
3 160 161 162
3 160 162 163
3 162 164 165
3 162 165 163
3 165 151 159
3 165 159 163
3 159 158 160
3 159 160 163
3 166 167 168
3 166 168 169
3 168 153 152
3 168 152 169
3 152 151 165
3 152 165 169
3 165 164 166
3 165 166 169
3 170 171 172
3 170 172 173
3 172 174 175
3 172 175 173
3 175 176 177
3 175 177 173
3 177 178 170
3 177 170 173
3 179 180 181
3 179 181 182
3 181 183 184
3 181 184 182
3 184 176 175
3 184 175 182
3 175 174 179
3 175 179 182
3 185 186 187
3 185 187 188
3 187 189 190
3 187 190 188
3 190 176 184
3 190 184 188
3 184 183 185
3 184 185 188
3 191 192 193
3 191 193 194
3 193 178 177
3 193 177 194
3 177 176 190
3 177 190 194
3 190 189 191
3 190 191 194
3 195 196 197
3 195 197 198
3 197 199 200
3 197 200 198
3 200 201 202
3 200 202 198
3 202 203 195
3 202 195 198
3 204 205 206
3 204 206 207
3 206 208 209
3 206 209 207
3 209 201 200
3 209 200 207
3 200 199 204
3 200 204 207
3 210 211 212
3 210 212 213
3 212 214 215
3 212 215 213
3 215 201 209
3 215 209 213
3 209 208 210
3 209 210 213
3 216 217 218
3 216 218 219
3 218 203 202
3 218 202 219
3 202 201 215
3 202 215 219
3 215 214 216
3 215 216 219
3 220 217 216
3 220 216 221
3 216 214 222
3 216 222 221
3 222 223 224
3 222 224 221
3 224 225 220
3 224 220 221
3 212 211 226
3 212 226 227
3 226 228 229
3 226 229 227
3 229 223 222
3 229 222 227
3 222 214 212
3 222 212 227
3 230 155 154
3 230 154 231
3 154 149 232
3 154 232 231
3 232 223 229
3 232 229 231
3 229 228 230
3 229 230 231
3 147 146 233
3 147 233 234
3 233 225 224
3 233 224 234
3 224 223 232
3 224 232 234
3 232 149 147
3 232 147 234
3 42 41 235
3 197 196 236
3 197 236 237
3 236 238 239
3 236 239 237
3 239 240 241
3 239 241 237
3 241 199 197
3 241 197 237
3 242 192 191
3 242 191 243
3 191 189 244
3 191 244 243
3 244 240 239
3 244 239 243
3 239 238 242
3 239 242 243
3 187 186 245
3 187 245 246
3 245 247 248
3 245 248 246
3 248 240 244
3 248 244 246
3 244 189 187
3 244 187 246
3 249 205 204
3 249 204 250
3 204 199 241
3 204 241 250
3 241 240 248
3 241 248 250
3 248 247 249
3 248 249 250
3 70 69 251
3 70 251 252
3 251 253 254
3 251 254 252
3 254 255 256
3 254 256 252
3 256 72 70
3 256 70 252
3 257 110 109
3 257 109 258
3 109 107 259
3 109 259 258
3 259 255 254
3 259 254 258
3 254 253 257
3 254 257 258
3 105 104 260
3 105 260 261
3 260 262 263
3 260 263 261
3 263 255 259
3 263 259 261
3 259 107 105
3 259 105 261
3 264 1 77
3 264 77 265
3 77 72 256
3 77 256 265
3 256 255 263
3 256 263 265
3 263 262 264
3 263 264 265
3 2 1 264
3 2 264 266
3 264 262 267
3 264 267 266
3 267 268 269
3 267 269 266
3 269 4 2
3 269 2 266
3 260 104 103
3 260 103 270
3 103 101 271
3 103 271 270
3 271 268 267
3 271 267 270
3 267 262 260
3 267 260 270
3 99 98 272
3 99 272 273
3 272 274 275
3 272 275 273
3 275 268 271
3 275 271 273
3 271 101 99
3 271 99 273
3 276 10 9
3 276 9 277
3 9 4 269
3 9 269 277
3 269 268 275
3 269 275 277
3 275 274 276
3 275 276 277
3 278 130 129
3 278 129 279
3 129 127 280
3 129 280 279
3 280 281 282
3 280 282 279
3 282 283 278
3 282 278 279
3 125 10 276
3 125 276 284
3 276 274 285
3 276 285 284
3 285 281 280
3 285 280 284
3 280 127 125
3 280 125 284
3 272 98 97
3 272 97 286
3 97 92 287
3 97 287 286
3 287 281 285
3 287 285 286
3 285 274 272
3 285 272 286
3 90 89 288
3 90 288 289
3 288 283 282
3 288 282 289
3 282 281 287
3 282 287 289
3 287 92 90
3 287 90 289
3 290 167 166
3 290 166 291
3 166 164 292
3 166 292 291
3 292 293 294
3 292 294 291
3 294 295 290
3 294 290 291
3 162 161 296
3 162 296 297
3 296 298 299
3 296 299 297
3 299 293 292
3 299 292 297
3 292 164 162
3 292 162 297
3 300 180 179
3 300 179 301
3 179 174 302
3 179 302 301
3 302 293 299
3 302 299 301
3 299 298 300
3 299 300 301
3 172 171 303
3 172 303 304
3 303 295 294
3 303 294 304
3 294 293 302
3 294 302 304
3 302 174 172
3 302 172 304
3 63 61 305
3 59 58 306
3 59 306 307
3 306 308 309
3 306 309 307
3 309 305 307
3 305 61 59
3 305 59 307
3 310 33 32
3 310 32 311
3 309 308 310
3 309 310 311
3 312 313 314
3 312 314 315
3 314 316 317
3 314 317 315
3 317 318 319
3 317 319 315
3 319 320 312
3 319 312 315
3 321 146 145
3 321 145 322
3 145 153 323
3 145 323 322
3 323 318 317
3 323 317 322
3 317 316 321
3 317 321 322
3 168 167 324
3 168 324 325
3 324 326 327
3 324 327 325
3 327 318 323
3 327 323 325
3 323 153 168
3 323 168 325
3 328 329 330
3 328 330 331
3 330 320 319
3 330 319 331
3 319 318 327
3 319 327 331
3 327 326 328
3 327 328 331
3 332 329 328
3 332 328 333
3 328 326 334
3 328 334 333
3 334 335 336
3 334 336 333
3 336 337 332
3 336 332 333
3 324 167 290
3 324 290 338
3 290 295 339
3 290 339 338
3 339 335 334
3 339 334 338
3 334 326 324
3 334 324 338
3 303 171 340
3 303 340 341
3 340 342 343
3 340 343 341
3 343 335 339
3 343 339 341
3 339 295 303
3 339 303 341
3 344 345 346
3 344 346 347
3 346 337 336
3 346 336 347
3 336 335 343
3 336 343 347
3 343 342 344
3 343 344 347
3 348 345 344
3 348 344 349
3 344 342 350
3 344 350 349
3 350 351 352
3 350 352 349
3 352 353 348
3 352 348 349
3 340 171 170
3 340 170 354
3 170 178 355
3 170 355 354
3 355 351 350
3 355 350 354
3 350 342 340
3 350 340 354
3 193 192 356
3 193 356 357
3 356 358 359
3 356 359 357
3 359 351 355
3 359 355 357
3 355 178 193
3 355 193 357
3 360 361 362
3 360 362 363
3 362 353 352
3 362 352 363
3 352 351 359
3 352 359 363
3 359 358 360
3 359 360 363
3 364 365 366
3 364 366 367
3 366 368 369
3 366 369 367
3 369 370 371
3 369 371 367
3 371 372 364
3 371 364 367
3 373 361 360
3 373 360 374
3 360 358 375
3 360 375 374
3 375 370 369
3 375 369 374
3 369 368 373
3 369 373 374
3 356 192 242
3 356 242 376
3 242 238 377
3 242 377 376
3 377 370 375
3 377 375 376
3 375 358 356
3 375 356 376
3 236 196 378
3 236 378 379
3 378 372 371
3 378 371 379
3 371 370 377
3 371 377 379
3 377 238 236
3 377 236 379
3 380 365 364
3 380 364 381
3 364 372 382
3 364 382 381
3 382 383 384
3 382 384 381
3 384 385 380
3 384 380 381
3 378 196 195
3 378 195 386
3 195 203 387
3 195 387 386
3 387 383 382
3 387 382 386
3 382 372 378
3 382 378 386
3 218 217 388
3 218 388 389
3 388 390 391
3 388 391 389
3 391 383 387
3 391 387 389
3 387 203 218
3 387 218 389
3 392 393 394
3 392 394 395
3 394 385 384
3 394 384 395
3 384 383 391
3 384 391 395
3 391 390 392
3 391 392 395
3 396 393 392
3 396 392 397
3 392 390 398
3 392 398 397
3 398 399 400
3 398 400 397
3 400 401 396
3 400 396 397
3 388 217 220
3 388 220 402
3 220 225 403
3 220 403 402
3 403 399 398
3 403 398 402
3 398 390 388
3 398 388 402
3 233 146 321
3 233 321 404
3 321 316 405
3 321 405 404
3 405 399 403
3 405 403 404
3 403 225 233
3 403 233 404
3 314 313 406
3 314 406 407
3 406 401 400
3 406 400 407
3 400 399 405
3 400 405 407
3 405 316 314
3 405 314 407
3 156 155 408
3 156 408 409
3 408 410 411
3 408 411 409
3 411 412 413
3 411 413 409
3 413 158 156
3 413 156 409
3 414 114 113
3 414 113 415
3 113 121 416
3 113 416 415
3 416 412 411
3 416 411 415
3 411 410 414
3 411 414 415
3 131 130 417
3 131 417 418
3 417 419 420
3 417 420 418
3 420 412 416
3 420 416 418
3 416 121 131
3 416 131 418
3 421 161 160
3 421 160 422
3 160 158 413
3 160 413 422
3 413 412 420
3 413 420 422
3 420 419 421
3 420 421 422
3 226 211 423
3 226 423 424
3 423 425 426
3 423 426 424
3 426 427 428
3 426 428 424
3 428 228 226
3 428 226 424
3 429 85 133
3 429 133 430
3 133 138 431
3 133 431 430
3 431 427 426
3 431 426 430
3 426 425 429
3 426 429 430
3 143 114 414
3 143 414 432
3 414 410 433
3 414 433 432
3 433 427 431
3 433 431 432
3 431 138 143
3 431 143 432
3 408 155 230
3 408 230 434
3 230 228 428
3 230 428 434
3 428 427 433
3 428 433 434
3 433 410 408
3 433 408 434
3 206 205 435
3 206 435 436
3 435 437 438
3 435 438 436
3 438 439 440
3 438 440 436
3 440 208 206
3 440 206 436
3 441 69 68
3 441 68 442
3 68 76 443
3 68 443 442
3 443 439 438
3 443 438 442
3 438 437 441
3 438 441 442
3 86 85 429
3 86 429 444
3 429 425 445
3 429 445 444
3 445 439 443
3 445 443 444
3 443 76 86
3 443 86 444
3 423 211 210
3 423 210 446
3 210 208 440
3 210 440 446
3 440 439 445
3 440 445 446
3 445 425 423
3 445 423 446
3 251 69 441
3 251 441 447
3 441 437 448
3 441 448 447
3 448 449 450
3 448 450 447
3 450 253 251
3 450 251 447
3 435 205 249
3 435 249 451
3 249 247 452
3 249 452 451
3 452 449 448
3 452 448 451
3 448 437 435
3 448 435 451
3 245 186 453
3 245 453 454
3 453 455 456
3 453 456 454
3 456 449 452
3 456 452 454
3 452 247 245
3 452 245 454
3 457 110 257
3 457 257 458
3 257 253 450
3 257 450 458
3 450 449 456
3 450 456 458
3 456 455 457
3 456 457 458
3 181 180 459
3 181 459 460
3 459 461 462
3 459 462 460
3 462 463 464
3 462 464 460
3 464 183 181
3 464 181 460
3 465 89 88
3 465 88 466
3 88 96 467
3 88 467 466
3 467 463 462
3 467 462 466
3 462 461 465
3 462 465 466
3 111 110 457
3 111 457 468
3 457 455 469
3 457 469 468
3 469 463 467
3 469 467 468
3 467 96 111
3 467 111 468
3 453 186 185
3 453 185 470
3 185 183 464
3 185 464 470
3 464 463 469
3 464 469 470
3 469 455 453
3 469 453 470
3 296 161 421
3 296 421 471
3 421 419 472
3 421 472 471
3 472 473 474
3 472 474 471
3 474 298 296
3 474 296 471
3 417 130 278
3 417 278 475
3 278 283 476
3 278 476 475
3 476 473 472
3 476 472 475
3 472 419 417
3 472 417 475
3 288 89 465
3 288 465 477
3 465 461 478
3 465 478 477
3 478 473 476
3 478 476 477
3 476 283 288
3 476 288 477
3 459 180 300
3 459 300 479
3 300 298 474
3 300 474 479
3 474 473 478
3 474 478 479
3 478 461 459
3 478 459 479
3 50 49 480
3 50 480 481
3 480 49 64
3 53 52 482
3 53 482 483
3 482 484 485
3 482 485 483
3 485 486 487
3 485 487 483
3 487 55 53
3 487 53 483
3 488 313 312
3 488 312 489
3 312 320 490
3 312 490 489
3 490 486 485
3 490 485 489
3 485 484 488
3 485 488 489
3 330 329 491
3 330 491 492
3 491 493 494
3 491 494 492
3 494 486 490
3 494 490 492
3 490 320 330
3 490 330 492
3 495 58 57
3 495 57 496
3 57 55 487
3 57 487 496
3 487 486 494
3 487 494 496
3 494 493 495
3 494 495 496
3 306 58 495
3 306 495 497
3 495 493 498
3 495 498 497
3 498 499 500
3 498 500 497
3 500 308 306
3 500 306 497
3 491 329 332
3 491 332 501
3 332 337 502
3 332 502 501
3 502 499 498
3 502 498 501
3 498 493 491
3 498 491 501
3 346 345 503
3 346 503 504
3 503 505 506
3 503 506 504
3 506 499 502
3 506 502 504
3 502 337 346
3 502 346 504
3 507 33 310
3 507 310 508
3 310 308 500
3 310 500 508
3 500 499 506
3 500 506 508
3 506 505 507
3 506 507 508
3 34 33 507
3 34 507 509
3 507 505 510
3 507 510 509
3 510 511 512
3 510 512 509
3 512 36 34
3 512 34 509
3 503 345 348
3 503 348 513
3 348 353 514
3 348 514 513
3 514 511 510
3 514 510 513
3 510 505 503
3 510 503 513
3 362 361 515
3 362 515 516
3 515 517 518
3 515 518 516
3 518 511 514
3 518 514 516
3 514 353 362
3 514 362 516
3 519 41 40
3 519 40 520
3 40 36 512
3 40 512 520
3 512 511 518
3 512 518 520
3 518 517 519
3 518 519 520
3 521 522 523
3 521 523 524
3 523 525 526
3 523 526 524
3 526 527 528
3 526 528 524
3 528 529 521
3 528 521 524
3 235 41 519
3 235 519 530
3 519 517 531
3 519 531 530
3 531 527 526
3 531 526 530
3 526 525 235
3 526 235 530
3 515 361 373
3 515 373 532
3 373 368 533
3 373 533 532
3 533 527 531
3 533 531 532
3 531 517 515
3 531 515 532
3 366 365 534
3 366 534 535
3 534 529 528
3 534 528 535
3 528 527 533
3 528 533 535
3 533 368 366
3 533 366 535
3 25 522 521
3 25 521 536
3 521 529 537
3 521 537 536
3 537 538 539
3 537 539 536
3 539 26 25
3 539 25 536
3 534 365 380
3 534 380 540
3 380 385 541
3 380 541 540
3 541 538 537
3 541 537 540
3 537 529 534
3 537 534 540
3 394 393 542
3 394 542 543
3 542 544 545
3 542 545 543
3 545 538 541
3 545 541 543
3 541 385 394
3 541 394 543
3 546 29 28
3 546 28 547
3 28 26 539
3 28 539 547
3 539 538 545
3 539 545 547
3 545 544 546
3 545 546 547
3 66 29 546
3 66 546 548
3 546 544 549
3 546 549 548
3 549 550 551
3 549 551 548
3 551 66 548
3 542 393 396
3 542 396 552
3 396 401 553
3 396 553 552
3 553 550 549
3 553 549 552
3 549 544 542
3 549 542 552
3 406 313 488
3 406 488 554
3 488 484 555
3 488 555 554
3 555 550 553
3 555 553 554
3 553 401 406
3 553 406 554
3 482 52 67
3 482 67 556
3 67 551 556
3 551 550 555
3 551 555 556
3 555 484 482
3 555 482 556
