OFF
469 920 0
-1.29078 17.5432 5.66858
-1.25378 17.5009 6.5278
-0.552783 17.9974 6.5308
-0.572783 18.0515 5.67003
0.289217 18.1711 6.53439
0.289217 18.2294 5.67177
0.289217 18.1788 4.6534
-0.554783 18.0039 4.67037
-1.25778 17.5052 4.68737
1.13122 18.0201 6.53799
1.83222 17.5425 6.54098
1.86922 17.5857 5.67496
1.15122 18.0747 5.67351
1.83622 17.5468 4.68652
1.13222 18.0266 4.66997
1.68722 17.3726 3.79992
1.47822 17.1274 3.22713
0.994217 17.3632 2.98088
1.05122 17.8095 3.73424
0.289217 17.4733 2.86107
0.289217 17.9493 3.66857
-0.415783 17.3443 2.98566
-0.899783 17.0955 3.23462
-1.10878 17.3349 3.80559
-0.472783 17.789 3.7371
-0.592783 3.73994 5.08136
-0.394783 3.75584 5.44263
-0.581783 3.75334 5.07586
-0.384783 3.86394 5.43026
-0.567783 3.86144 5.06912
-0.629783 3.86064 4.63635
-0.643783 3.75254 4.63637
-0.655783 3.73914 4.63638
-0.365783 4.15624 5.40763
-0.330783 4.72204 5.36673
-0.499783 4.71974 5.03444
-0.543783 4.15384 5.05676
-0.555783 4.71904 4.63625
-0.603783 4.15304 4.63632
-0.499783 4.71974 4.23799
-0.330783 4.72204 3.90549
-0.365783 4.15624 3.8647
-0.543783 4.15384 4.21579
-0.384783 3.86394 3.84212
-0.567783 3.86144 4.20351
-0.394783 3.75584 3.8298
-0.403783 3.74244 3.81976
-0.592783 3.73994 4.19133
-0.581783 3.75334 4.19679
0.973217 3.77424 5.44718
0.963217 3.88204 5.43475
0.656217 3.87794 5.65134
0.662217 3.77014 5.66714
0.289217 3.87304 5.72223
0.289217 3.76504 5.73913
0.943217 4.17384 5.41198
0.909217 4.73874 5.37086
0.627217 4.73494 5.57015
0.646217 4.16984 5.62241
0.289217 4.73044 5.63537
0.289217 4.16504 5.69128
-0.0487831 4.72584 5.5673
-0.0677831 4.16024 5.61941
-0.0787831 3.86804 5.64825
-0.0837831 3.76004 5.664
0.973217 3.77424 3.8235
0.963217 3.88204 3.83592
1.14622 3.88454 4.19885
1.16022 3.77684 4.19207
1.20822 3.88534 4.63518
1.22222 3.77764 4.63518
0.943217 4.17384 3.85867
0.909217 4.73874 3.89978
1.07822 4.74104 4.23371
1.12222 4.17624 4.21127
1.13422 4.74174 4.63517
1.18122 4.17704 4.63518
1.07822 4.74104 5.03671
1.12222 4.17624 5.05916
1.14622 3.88454 5.07158
1.16022 3.77684 5.07837
-0.0887831 3.74674 3.59522
-0.0837831 3.76004 3.60802
-0.0787831 3.86804 3.62374
0.289217 3.87304 3.5493
0.289217 3.76504 3.53242
0.289217 3.75184 3.51867
-0.0487831 4.72584 3.70456
-0.0677831 4.16024 3.65254
0.289217 4.73044 3.63606
0.289217 4.16504 3.58021
0.627217 4.73494 3.70085
0.646217 4.16984 3.64862
0.656217 3.87794 3.61971
0.667217 3.75684 3.59107
0.662217 3.77014 3.60393
-0.259783 9.30424 4.91303
-0.141783 9.30584 5.14429
-0.168783 10.3766 5.17573
-0.293783 10.3749 4.93019
-0.238783 11.2746 5.25807
-0.382783 11.2726 4.97513
-0.430783 11.272 4.63608
-0.335783 10.3744 4.63596
-0.298783 9.30374 4.63591
-0.347783 11.988 5.38703
-0.492783 12.5051 5.55833
-0.706783 12.5022 5.13901
-0.521783 11.9856 5.04552
-0.777783 12.5012 4.63654
-0.579783 11.9849 4.63628
-0.706783 12.5022 4.13398
-0.492783 12.5051 3.71439
-0.347783 11.988 3.88524
-0.521783 11.9856 4.22697
-0.238783 11.2746 4.01386
-0.382783 11.2726 4.29698
-0.168783 10.3766 4.09598
-0.141783 9.30584 4.12734
-0.259783 9.30424 4.35874
-0.293783 10.3749 4.34168
0.524217 9.31484 5.28586
0.720217 9.31744 5.14716
0.747217 10.3889 5.17878
0.539217 10.3861 5.32604
0.817217 11.2888 5.26158
0.577217 11.2855 5.43127
0.289217 11.2817 5.48681
0.289217 10.3828 5.37423
0.289217 9.31164 5.33125
0.926217 12.0051 5.39127
1.07122 12.5261 5.56354
0.716217 12.5213 5.81502
0.636217 12.0012 5.59609
0.289217 12.5156 5.89732
0.289217 11.9965 5.66312
-0.137783 12.5099 5.81143
-0.0587831 11.9919 5.59316
0.00121688 11.2778 5.42885
0.0542169 9.30844 5.28387
0.0392169 10.3794 5.32394
0.838217 9.31904 4.35576
0.720217 9.31744 4.12337
0.747217 10.3889 4.09176
0.872217 10.3906 4.33851
0.817217 11.2888 4.009
0.961217 11.2907 4.29333
1.00922 11.2914 4.63517
0.913217 10.3912 4.63516
0.877217 9.31954 4.63516
0.926217 12.0051 3.87938
1.07122 12.5261 3.70719
1.28422 12.529 4.12858
1.10022 12.0075 4.22257
1.35522 12.5299 4.63518
1.15822 12.0082 4.63517
1.28422 12.529 5.14188
1.10022 12.0075 5.04785
0.961217 11.2907 4.97707
0.838217 9.31904 4.91461
0.872217 10.3906 4.93187
0.0542169 9.30844 3.9875
0.0392169 10.3794 3.94751
0.00121688 11.2778 3.84277
0.289217 11.2817 3.78445
0.289217 10.3828 3.89689
0.289217 9.31164 3.93983
-0.137783 12.5099 3.46084
-0.0587831 11.9919 3.67873
0.289217 12.5156 3.3744
0.289217 11.9965 3.60834
0.716217 12.5213 3.45616
0.636217 12.0012 3.67492
0.577217 11.2855 3.83961
0.524217 9.31484 3.98492
0.539217 10.3861 3.94477
-0.670783 12.8141 5.7677
-0.931783 12.8106 5.25329
-0.878783 13.0231 6.01691
-1.18478 13.0346 5.39268
-1.27878 13.0429 4.64185
-1.01978 12.8094 4.63686
-1.11578 13.2401 6.30772
-1.40578 13.6389 6.68331
-1.68778 13.7759 5.68948
-1.44878 13.2981 5.56154
-1.73478 13.8325 4.66565
-1.52778 13.3351 4.65614
-1.57378 13.8537 3.69743
-1.17478 13.8591 2.91235
-1.03278 13.3545 3.07845
-1.39378 13.3496 3.78784
-0.857783 13.0517 3.28489
-1.17078 13.0475 3.90021
-0.670783 12.8141 3.50557
-0.931783 12.8106 4.02032
1.24822 12.8399 5.77409
0.812217 12.8341 6.08261
1.45722 13.0545 6.02508
0.928217 13.026 6.38438
0.289217 13.0053 6.49549
0.289217 12.827 6.18357
1.69422 13.2779 6.31868
1.98422 13.6846 6.69916
1.15622 13.3328 7.00002
1.06522 13.1838 6.70589
0.289217 13.2297 7.07477
0.289217 13.1247 6.8067
-0.577783 13.3095 6.99079
-0.486783 13.1629 6.69838
-0.349783 13.0088 6.37876
-0.233783 12.82 6.0782
1.24822 12.8399 3.49674
1.51022 12.8435 4.01369
1.43622 13.0826 3.27434
1.74922 13.0868 3.89228
1.85622 13.0851 4.63995
1.59722 12.8446 4.63519
1.61122 13.3901 3.06628
1.75222 13.8985 2.89888
2.15222 13.9038 3.68732
1.97222 13.3949 3.77871
2.31322 13.8869 4.66376
2.10622 13.384 4.6542
2.26622 13.8291 5.69743
2.02722 13.3448 5.56782
1.76322 13.0743 5.39724
1.51022 12.8435 5.2568
-0.233783 12.82 3.19452
-0.336783 13.0587 2.91307
0.289217 13.0671 2.78631
0.289217 12.827 3.08848
-0.508783 13.868 2.43793
-0.431783 13.3626 2.64978
0.289217 13.8788 2.2762
0.289217 13.3723 2.50364
1.08722 13.8895 2.42918
1.01022 13.382 2.64187
0.915217 13.0756 2.90621
0.812217 12.8341 3.18878
-1.75778 14.6346 6.58358
-1.86378 14.6431 5.70613
-1.83578 15.6824 6.5398
-1.90078 15.6898 5.67703
-1.86878 15.6944 4.6506
-1.86778 14.6812 4.65633
-1.67478 16.6835 6.52601
-1.72178 16.7062 5.66771
-1.68078 16.6856 4.67086
-1.10878 16.533 2.98876
-1.49378 16.5935 3.73987
-1.24978 15.6659 2.82348
-1.66978 15.6766 3.64928
-1.25878 14.7021 2.81269
-1.68078 14.6964 3.64319
0.738217 14.7215 6.58262
1.04922 14.866 6.63053
1.17122 15.228 6.58549
0.763217 15.1938 6.49847
1.22922 15.7485 6.56325
0.794217 15.7426 6.47028
0.289217 15.7358 6.43675
0.289217 15.1515 6.46693
0.289217 14.6475 6.55701
1.17122 16.2674 6.58549
1.04922 16.6261 6.63053
0.738217 16.7622 6.58262
0.763217 16.2906 6.49847
0.289217 16.8242 6.55701
0.289217 16.3202 6.46693
-0.159783 16.7501 6.57666
-0.471783 16.6057 6.62045
-0.592783 16.2437 6.57379
-0.184783 16.2779 6.49218
-0.650783 15.7232 6.55077
-0.215783 15.729 6.46358
-0.592783 15.2043 6.57379
-0.471783 14.8455 6.62045
-0.159783 14.7095 6.57666
-0.184783 15.181 6.49218
1.83722 14.7437 2.79844
2.25922 14.7494 3.63249
1.82822 15.7073 2.80979
2.24822 15.7294 3.63896
2.44722 15.7525 4.64881
2.44622 14.7392 4.65443
1.68722 16.5706 2.97778
2.07222 16.6415 3.73147
2.25822 16.7386 4.66949
2.25322 16.7364 6.54278
2.30022 16.7603 5.67583
2.41422 15.7395 6.55807
2.47922 15.7487 5.6859
2.33522 14.6897 6.60156
2.44222 14.701 5.71494
-0.555783 14.7115 2.31083
-0.549783 15.6917 2.32364
0.289217 15.7194 2.15298
0.289217 14.7229 2.13974
-0.472783 16.6072 2.53155
0.289217 16.6831 2.37465
1.05122 16.6277 2.52445
1.12822 15.7143 2.31475
1.13322 14.7343 2.30157
1.82722 13.9423 7.15012
1.13522 13.4985 7.21968
1.70622 14.1058 7.32617
1.06422 13.6624 7.34044
0.289217 13.5126 7.3461
0.289217 13.3645 7.25728
1.60622 14.2296 7.34185
1.51822 14.3293 7.24542
0.960217 13.9337 7.24171
1.00722 13.8059 7.33788
0.289217 13.7953 7.23726
0.289217 13.6577 7.33311
-0.381783 13.9157 7.23282
-0.940783 14.2963 7.22911
-1.02778 14.1942 7.32438
-0.428783 13.7866 7.32835
-1.12878 14.0676 7.30797
-0.485783 13.6416 7.33048
-1.24878 13.9009 7.13215
-0.556783 13.4758 7.20972
1.77022 17.4704 7.06033
2.17522 16.6965 7.06262
1.69222 17.379 7.30372
2.07522 16.6458 7.30616
2.20522 15.7575 7.30942
2.31922 15.7466 7.07318
1.60622 17.2775 7.34185
1.51822 17.1754 7.24542
1.85422 16.5331 7.24764
1.96522 16.5896 7.34423
1.96622 15.7584 7.24839
2.08422 15.76 7.34502
1.85422 14.9807 7.24764
1.96522 14.9271 7.34423
2.08522 14.8574 7.31596
2.21222 14.7601 7.10182
-1.19278 17.4306 7.0436
-0.518783 17.9073 7.0474
-1.11478 17.3412 7.28583
-0.476783 17.7928 7.2899
0.289217 17.9507 7.29478
0.289217 18.074 7.05196
-1.02778 17.2421 7.32438
-0.940783 17.1423 7.22911
-0.381783 17.5379 7.23282
-0.428783 17.6658 7.32835
0.289217 17.6763 7.23726
0.289217 17.814 7.33311
0.960217 17.556 7.24171
1.00722 17.6851 7.33788
1.05422 17.8134 7.29965
1.09722 17.929 7.05653
-1.63378 14.7083 7.07969
-1.50678 14.8091 7.29299
-1.62678 15.7059 7.28498
-1.74078 15.6919 7.05015
-1.27578 14.9386 7.22689
-1.38678 14.882 7.322
-1.38778 15.7133 7.22614
-1.50678 15.7117 7.3212
-1.27578 16.491 7.22689
-1.38678 16.5445 7.322
-1.49678 16.5978 7.28339
-1.59678 16.6457 7.04131
1.43922 14.4205 7.08514
0.916217 14.0506 7.08168
1.34122 14.5318 6.90212
0.863217 14.1944 6.89584
0.289217 14.0768 6.88893
0.289217 13.9211 7.07752
1.20222 14.6918 6.73745
0.788217 14.4032 6.72228
0.289217 14.3041 6.70655
-0.623783 14.6672 6.72534
-0.209783 14.3898 6.71567
-0.763783 14.5035 6.88816
-0.284783 14.1789 6.88822
-0.860783 14.3896 7.06989
-0.337783 14.0337 7.07336
1.43922 17.0821 7.08514
1.75222 16.4814 7.08722
1.34122 16.9682 6.90212
1.62722 16.4186 6.90091
1.72222 15.7551 6.89843
1.85722 15.7569 7.08792
1.20222 16.8045 6.73745
1.44622 16.3286 6.72665
1.52622 15.7525 6.71475
1.44622 15.1742 6.72665
1.62722 15.0891 6.90091
1.75222 15.0297 7.08722
-0.860783 17.0511 7.06989
-0.337783 17.4211 7.07336
-0.763783 16.9399 6.88816
-0.284783 17.2773 6.88822
0.289217 17.3948 6.88893
0.289217 17.5505 7.07752
-0.623783 16.7799 6.72534
-0.209783 17.0684 6.71567
0.289217 17.1676 6.70655
0.788217 17.0819 6.72228
0.863217 17.2927 6.89584
0.916217 17.438 7.08168
-1.17478 14.9903 7.06781
-1.04978 15.0531 6.88316
-1.14478 15.7165 6.87942
-1.27878 15.7147 7.06712
-0.867783 15.143 6.7113
-0.947783 15.7192 6.69834
-0.867783 16.2975 6.7113
-1.04978 16.3826 6.88316
-1.17478 16.442 7.06781
-0.273783 5.65104 5.2996
-0.427783 5.64894 4.9978
-0.211783 6.81194 5.22657
-0.348783 6.81014 4.95794
-0.393783 6.80954 4.63604
-0.478783 5.64824 4.63615
-0.162783 8.07394 5.16802
-0.285783 8.07224 4.92598
-0.326783 8.07174 4.63595
-0.162783 8.07394 4.10367
-0.285783 8.07224 4.34586
-0.211783 6.81194 4.04527
-0.348783 6.81014 4.31408
-0.273783 5.65104 3.97244
-0.427783 5.64894 4.27444
-0.0177831 5.65444 3.78995
0.0162169 6.81504 3.88283
0.289217 6.81874 3.82746
0.289217 5.65854 3.72774
0.0432169 8.07664 3.95731
0.289217 8.08004 3.90742
0.740217 8.08604 4.09951
0.535217 8.08334 3.95461
0.790217 6.82544 4.04066
0.562217 6.82234 3.87984
0.852217 5.66614 3.96726
0.596217 5.66274 3.78658
1.00522 5.66824 4.27055
0.927217 6.82724 4.31061
0.972217 6.82794 4.63517
1.05722 5.66894 4.63517
0.864217 8.08774 4.34274
0.905217 8.08824 4.63516
0.740217 8.08604 5.17103
0.864217 8.08774 4.92764
0.790217 6.82544 5.22991
0.927217 6.82724 4.95978
0.852217 5.66614 5.30334
1.00522 5.66824 4.99986
0.596217 5.66274 5.48435
0.562217 6.82234 5.39102
0.289217 6.81874 5.44375
0.289217 5.65854 5.54358
0.535217 8.08334 5.31619
0.289217 8.08004 5.36369
0.0432169 8.07664 5.31411
0.0162169 6.81504 5.38872
-0.0177831 5.65444 5.48176
-0.673783 3.73084 4.63641
-0.416783 3.73434 3.80404
-0.0957831 3.73864 3.57518
0.289217 3.74384 3.49715
-0.105783 3.73454 3.54708
3 0 1 2
3 0 2 3
3 2 4 5
3 2 5 3
3 5 6 7
3 5 7 3
3 7 8 0
3 7 0 3
3 9 10 11
3 9 11 12
3 11 13 14
3 11 14 12
3 14 6 5
3 14 5 12
3 5 4 9
3 5 9 12
3 15 16 17
3 15 17 18
3 17 19 20
3 17 20 18
3 20 6 14
3 20 14 18
3 14 13 15
3 14 15 18
3 21 22 23
3 21 23 24
3 23 8 7
3 23 7 24
3 7 6 20
3 7 20 24
3 20 19 21
3 20 21 24
3 25 26 27
3 26 28 29
3 26 29 27
3 29 30 31
3 29 31 27
3 31 32 25
3 31 25 27
3 33 34 35
3 33 35 36
3 35 37 38
3 35 38 36
3 38 30 29
3 38 29 36
3 29 28 33
3 29 33 36
3 39 40 41
3 39 41 42
3 41 43 44
3 41 44 42
3 44 30 38
3 44 38 42
3 38 37 39
3 38 39 42
3 45 46 47
3 45 47 48
3 47 32 31
3 47 31 48
3 31 30 44
3 31 44 48
3 44 43 45
3 44 45 48
3 49 50 51
3 49 51 52
3 51 53 54
3 51 54 52
3 55 56 57
3 55 57 58
3 57 59 60
3 57 60 58
3 60 53 51
3 60 51 58
3 51 50 55
3 51 55 58
3 61 34 33
3 61 33 62
3 33 28 63
3 33 63 62
3 63 53 60
3 63 60 62
3 60 59 61
3 60 61 62
3 54 53 63
3 54 63 64
3 63 28 26
3 63 26 64
3 65 66 67
3 65 67 68
3 67 69 70
3 67 70 68
3 71 72 73
3 71 73 74
3 73 75 76
3 73 76 74
3 76 69 67
3 76 67 74
3 67 66 71
3 67 71 74
3 77 56 55
3 77 55 78
3 55 50 79
3 55 79 78
3 79 69 76
3 79 76 78
3 76 75 77
3 76 77 78
3 70 69 79
3 70 79 80
3 79 50 49
3 79 49 80
3 81 46 45
3 81 45 82
3 45 43 83
3 45 83 82
3 83 84 85
3 83 85 82
3 85 86 81
3 85 81 82
3 41 40 87
3 41 87 88
3 87 89 90
3 87 90 88
3 90 84 83
3 90 83 88
3 83 43 41
3 83 41 88
3 91 72 71
3 91 71 92
3 71 66 93
3 71 93 92
3 93 84 90
3 93 90 92
3 90 89 91
3 90 91 92
3 65 94 95
3 94 86 85
3 94 85 95
3 85 84 93
3 85 93 95
3 93 66 65
3 93 65 95
3 96 97 98
3 96 98 99
3 98 100 101
3 98 101 99
3 101 102 103
3 101 103 99
3 103 104 96
3 103 96 99
3 105 106 107
3 105 107 108
3 107 109 110
3 107 110 108
3 110 102 101
3 110 101 108
3 101 100 105
3 101 105 108
3 111 112 113
3 111 113 114
3 113 115 116
3 113 116 114
3 116 102 110
3 116 110 114
3 110 109 111
3 110 111 114
3 117 118 119
3 117 119 120
3 119 104 103
3 119 103 120
3 103 102 116
3 103 116 120
3 116 115 117
3 116 117 120
3 121 122 123
3 121 123 124
3 123 125 126
3 123 126 124
3 126 127 128
3 126 128 124
3 128 129 121
3 128 121 124
3 130 131 132
3 130 132 133
3 132 134 135
3 132 135 133
3 135 127 126
3 135 126 133
3 126 125 130
3 126 130 133
3 136 106 105
3 136 105 137
3 105 100 138
3 105 138 137
3 138 127 135
3 138 135 137
3 135 134 136
3 135 136 137
3 98 97 139
3 98 139 140
3 139 129 128
3 139 128 140
3 128 127 138
3 128 138 140
3 138 100 98
3 138 98 140
3 141 142 143
3 141 143 144
3 143 145 146
3 143 146 144
3 146 147 148
3 146 148 144
3 148 149 141
3 148 141 144
3 150 151 152
3 150 152 153
3 152 154 155
3 152 155 153
3 155 147 146
3 155 146 153
3 146 145 150
3 146 150 153
3 156 131 130
3 156 130 157
3 130 125 158
3 130 158 157
3 158 147 155
3 158 155 157
3 155 154 156
3 155 156 157
3 123 122 159
3 123 159 160
3 159 149 148
3 159 148 160
3 148 147 158
3 148 158 160
3 158 125 123
3 158 123 160
3 161 118 117
3 161 117 162
3 117 115 163
3 117 163 162
3 163 164 165
3 163 165 162
3 165 166 161
3 165 161 162
3 113 112 167
3 113 167 168
3 167 169 170
3 167 170 168
3 170 164 163
3 170 163 168
3 163 115 113
3 163 113 168
3 171 151 150
3 171 150 172
3 150 145 173
3 150 173 172
3 173 164 170
3 173 170 172
3 170 169 171
3 170 171 172
3 143 142 174
3 143 174 175
3 174 166 165
3 174 165 175
3 165 164 173
3 165 173 175
3 173 145 143
3 173 143 175
3 107 106 176
3 107 176 177
3 176 178 179
3 176 179 177
3 179 180 181
3 179 181 177
3 181 109 107
3 181 107 177
3 182 183 184
3 182 184 185
3 184 186 187
3 184 187 185
3 187 180 179
3 187 179 185
3 179 178 182
3 179 182 185
3 188 189 190
3 188 190 191
3 190 192 193
3 190 193 191
3 193 180 187
3 193 187 191
3 187 186 188
3 187 188 191
3 194 112 111
3 194 111 195
3 111 109 181
3 111 181 195
3 181 180 193
3 181 193 195
3 193 192 194
3 193 194 195
3 132 131 196
3 132 196 197
3 196 198 199
3 196 199 197
3 199 200 201
3 199 201 197
3 201 134 132
3 201 132 197
3 202 203 204
3 202 204 205
3 204 206 207
3 204 207 205
3 207 200 199
3 207 199 205
3 199 198 202
3 199 202 205
3 208 183 182
3 208 182 209
3 182 178 210
3 182 210 209
3 210 200 207
3 210 207 209
3 207 206 208
3 207 208 209
3 176 106 136
3 176 136 211
3 136 134 201
3 136 201 211
3 201 200 210
3 201 210 211
3 210 178 176
3 210 176 211
3 152 151 212
3 152 212 213
3 212 214 215
3 212 215 213
3 215 216 217
3 215 217 213
3 217 154 152
3 217 152 213
3 218 219 220
3 218 220 221
3 220 222 223
3 220 223 221
3 223 216 215
3 223 215 221
3 215 214 218
3 215 218 221
3 224 203 202
3 224 202 225
3 202 198 226
3 202 226 225
3 226 216 223
3 226 223 225
3 223 222 224
3 223 224 225
3 196 131 156
3 196 156 227
3 156 154 217
3 156 217 227
3 217 216 226
3 217 226 227
3 226 198 196
3 226 196 227
3 167 112 194
3 167 194 228
3 194 192 229
3 194 229 228
3 229 230 231
3 229 231 228
3 231 169 167
3 231 167 228
3 190 189 232
3 190 232 233
3 232 234 235
3 232 235 233
3 235 230 229
3 235 229 233
3 229 192 190
3 229 190 233
3 236 219 218
3 236 218 237
3 218 214 238
3 218 238 237
3 238 230 235
3 238 235 237
3 235 234 236
3 235 236 237
3 212 151 171
3 212 171 239
3 171 169 231
3 171 231 239
3 231 230 238
3 231 238 239
3 238 214 212
3 238 212 239
3 184 183 240
3 184 240 241
3 240 242 243
3 240 243 241
3 243 244 245
3 243 245 241
3 245 186 184
3 245 184 241
3 246 1 0
3 246 0 247
3 0 8 248
3 0 248 247
3 248 244 243
3 248 243 247
3 243 242 246
3 243 246 247
3 23 22 249
3 23 249 250
3 249 251 252
3 249 252 250
3 252 244 248
3 252 248 250
3 248 8 23
3 248 23 250
3 253 189 188
3 253 188 254
3 188 186 245
3 188 245 254
3 245 244 252
3 245 252 254
3 252 251 253
3 252 253 254
3 255 256 257
3 255 257 258
3 257 259 260
3 257 260 258
3 260 261 262
3 260 262 258
3 262 263 255
3 262 255 258
3 264 265 266
3 264 266 267
3 266 268 269
3 266 269 267
3 269 261 260
3 269 260 267
3 260 259 264
3 260 264 267
3 270 271 272
3 270 272 273
3 272 274 275
3 272 275 273
3 275 261 269
3 275 269 273
3 269 268 270
3 269 270 273
3 276 277 278
3 276 278 279
3 278 263 262
3 278 262 279
3 262 261 275
3 262 275 279
3 275 274 276
3 275 276 279
3 220 219 280
3 220 280 281
3 280 282 283
3 280 283 281
3 283 284 285
3 283 285 281
3 285 222 220
3 285 220 281
3 286 16 15
3 286 15 287
3 15 13 288
3 15 288 287
3 288 284 283
3 288 283 287
3 283 282 286
3 283 286 287
3 11 10 289
3 11 289 290
3 289 291 292
3 289 292 290
3 292 284 288
3 292 288 290
3 288 13 11
3 288 11 290
3 293 203 224
3 293 224 294
3 224 222 285
3 224 285 294
3 285 284 292
3 285 292 294
3 292 291 293
3 292 293 294
3 232 189 253
3 232 253 295
3 253 251 296
3 253 296 295
3 296 297 298
3 296 298 295
3 298 234 232
3 298 232 295
3 249 22 21
3 249 21 299
3 21 19 300
3 21 300 299
3 300 297 296
3 300 296 299
3 296 251 249
3 296 249 299
3 17 16 286
3 17 286 301
3 286 282 302
3 286 302 301
3 302 297 300
3 302 300 301
3 300 19 17
3 300 17 301
3 280 219 236
3 280 236 303
3 236 234 298
3 236 298 303
3 298 297 302
3 298 302 303
3 302 282 280
3 302 280 303
3 204 203 304
3 204 304 305
3 304 306 307
3 304 307 305
3 307 308 309
3 307 309 305
3 309 206 204
3 309 204 305
3 310 311 312
3 310 312 313
3 312 314 315
3 312 315 313
3 315 308 307
3 315 307 313
3 307 306 310
3 307 310 313
3 316 317 318
3 316 318 319
3 318 320 321
3 318 321 319
3 321 308 315
3 321 315 319
3 315 314 316
3 315 316 319
3 322 183 208
3 322 208 323
3 208 206 309
3 208 309 323
3 309 308 321
3 309 321 323
3 321 320 322
3 321 322 323
3 289 10 324
3 289 324 325
3 324 326 327
3 324 327 325
3 327 328 329
3 327 329 325
3 329 291 289
3 329 289 325
3 330 331 332
3 330 332 333
3 332 334 335
3 332 335 333
3 335 328 327
3 335 327 333
3 327 326 330
3 327 330 333
3 336 311 310
3 336 310 337
3 310 306 338
3 310 338 337
3 338 328 335
3 338 335 337
3 335 334 336
3 335 336 337
3 304 203 293
3 304 293 339
3 293 291 329
3 293 329 339
3 329 328 338
3 329 338 339
3 338 306 304
3 338 304 339
3 2 1 340
3 2 340 341
3 340 342 343
3 340 343 341
3 343 344 345
3 343 345 341
3 345 4 2
3 345 2 341
3 346 347 348
3 346 348 349
3 348 350 351
3 348 351 349
3 351 344 343
3 351 343 349
3 343 342 346
3 343 346 349
3 352 331 330
3 352 330 353
3 330 326 354
3 330 354 353
3 354 344 351
3 354 351 353
3 351 350 352
3 351 352 353
3 324 10 9
3 324 9 355
3 9 4 345
3 9 345 355
3 345 344 354
3 345 354 355
3 354 326 324
3 354 324 355
3 240 183 322
3 240 322 356
3 322 320 357
3 322 357 356
3 357 358 359
3 357 359 356
3 359 242 240
3 359 240 356
3 318 317 360
3 318 360 361
3 360 362 363
3 360 363 361
3 363 358 357
3 363 357 361
3 357 320 318
3 357 318 361
3 364 347 346
3 364 346 365
3 346 342 366
3 346 366 365
3 366 358 363
3 366 363 365
3 363 362 364
3 363 364 365
3 340 1 246
3 340 246 367
3 246 242 359
3 246 359 367
3 359 358 366
3 359 366 367
3 366 342 340
3 366 340 367
3 312 311 368
3 312 368 369
3 368 370 371
3 368 371 369
3 371 372 373
3 371 373 369
3 373 314 312
3 373 312 369
3 374 256 255
3 374 255 375
3 255 263 376
3 255 376 375
3 376 372 371
3 376 371 375
3 371 370 374
3 371 374 375
3 278 277 377
3 278 377 378
3 377 379 380
3 377 380 378
3 380 372 376
3 380 376 378
3 376 263 278
3 376 278 378
3 381 317 316
3 381 316 382
3 316 314 373
3 316 373 382
3 373 372 380
3 373 380 382
3 380 379 381
3 380 381 382
3 332 331 383
3 332 383 384
3 383 385 386
3 383 386 384
3 386 387 388
3 386 388 384
3 388 334 332
3 388 332 384
3 389 265 264
3 389 264 390
3 264 259 391
3 264 391 390
3 391 387 386
3 391 386 390
3 386 385 389
3 386 389 390
3 257 256 374
3 257 374 392
3 374 370 393
3 374 393 392
3 393 387 391
3 393 391 392
3 391 259 257
3 391 257 392
3 368 311 336
3 368 336 394
3 336 334 388
3 336 388 394
3 388 387 393
3 388 393 394
3 393 370 368
3 393 368 394
3 348 347 395
3 348 395 396
3 395 397 398
3 395 398 396
3 398 399 400
3 398 400 396
3 400 350 348
3 400 348 396
3 401 271 270
3 401 270 402
3 270 268 403
3 270 403 402
3 403 399 398
3 403 398 402
3 398 397 401
3 398 401 402
3 266 265 389
3 266 389 404
3 389 385 405
3 389 405 404
3 405 399 403
3 405 403 404
3 403 268 266
3 403 266 404
3 383 331 352
3 383 352 406
3 352 350 400
3 352 400 406
3 400 399 405
3 400 405 406
3 405 385 383
3 405 383 406
3 360 317 381
3 360 381 407
3 381 379 408
3 381 408 407
3 408 409 410
3 408 410 407
3 410 362 360
3 410 360 407
3 377 277 276
3 377 276 411
3 276 274 412
3 276 412 411
3 412 409 408
3 412 408 411
3 408 379 377
3 408 377 411
3 272 271 401
3 272 401 413
3 401 397 414
3 401 414 413
3 414 409 412
3 414 412 413
3 412 274 272
3 412 272 413
3 395 347 364
3 395 364 415
3 364 362 410
3 364 410 415
3 410 409 414
3 410 414 415
3 414 397 395
3 414 395 415
3 35 34 416
3 35 416 417
3 416 418 419
3 416 419 417
3 419 420 421
3 419 421 417
3 421 37 35
3 421 35 417
3 422 97 96
3 422 96 423
3 96 104 424
3 96 424 423
3 424 420 419
3 424 419 423
3 419 418 422
3 419 422 423
3 119 118 425
3 119 425 426
3 425 427 428
3 425 428 426
3 428 420 424
3 428 424 426
3 424 104 119
3 424 119 426
3 429 40 39
3 429 39 430
3 39 37 421
3 39 421 430
3 421 420 428
3 421 428 430
3 428 427 429
3 428 429 430
3 87 40 429
3 87 429 431
3 429 427 432
3 429 432 431
3 432 433 434
3 432 434 431
3 434 89 87
3 434 87 431
3 425 118 161
3 425 161 435
3 161 166 436
3 161 436 435
3 436 433 432
3 436 432 435
3 432 427 425
3 432 425 435
3 174 142 437
3 174 437 438
3 437 439 440
3 437 440 438
3 440 433 436
3 440 436 438
3 436 166 174
3 436 174 438
3 441 72 91
3 441 91 442
3 91 89 434
3 91 434 442
3 434 433 440
3 434 440 442
3 440 439 441
3 440 441 442
3 73 72 441
3 73 441 443
3 441 439 444
3 441 444 443
3 444 445 446
3 444 446 443
3 446 75 73
3 446 73 443
3 437 142 141
3 437 141 447
3 141 149 448
3 141 448 447
3 448 445 444
3 448 444 447
3 444 439 437
3 444 437 447
3 159 122 449
3 159 449 450
3 449 451 452
3 449 452 450
3 452 445 448
3 452 448 450
3 448 149 159
3 448 159 450
3 453 56 77
3 453 77 454
3 77 75 446
3 77 446 454
3 446 445 452
3 446 452 454
3 452 451 453
3 452 453 454
3 57 56 453
3 57 453 455
3 453 451 456
3 453 456 455
3 456 457 458
3 456 458 455
3 458 59 57
3 458 57 455
3 449 122 121
3 449 121 459
3 121 129 460
3 121 460 459
3 460 457 456
3 460 456 459
3 456 451 449
3 456 449 459
3 139 97 422
3 139 422 461
3 422 418 462
3 422 462 461
3 462 457 460
3 462 460 461
3 460 129 139
3 460 139 461
3 416 34 61
3 416 61 463
3 61 59 458
3 61 458 463
3 458 457 462
3 458 462 463
3 462 418 416
3 462 416 463
3 25 32 464
3 47 46 465
3 464 32 47
3 465 46 81
3 465 81 466
3 81 86 467
3 81 467 466
3 467 468 466
3 468 465 466
3 467 86 94
