2.23931
5.50282
7.81748
2.54436
4.52662
5.95777
4.54461
4.39974
4.44571
4.98156
7.79899
7.51402
5.79051
7.80085
7.90775
5.90403
2.88923
2.5806
2.41909
3.8636
3.99095
3.29213
3.15418
4.92784
4.14055
3.04719
4.36607
6.23242
6.62277
2.92126
4.01176
4.69056
7.58965
4.84844
2.5382
3.73665
4.98153
4.0786
10.7032
5.0891
2.30114
5.20695
4.46005
7.02145
9.03634
5.24446
2.95712
3.58423
3.18061
3.16514
8.42302
6.53403
5.54685
3.24399
7.95434
2.15582
2.59343
7.79711
3.36542
2.39738
8.97039
3.22549
7.22569
2.70994
6.93067
4.15387
4.23289
5.1629
7.9956
4.28769
4.8198
5.42996
4.91583
5.55071
4.51697
9.15986
4.4696
5.1813
7.77843
8.11842
7.81883
4.40906
5.41177
8.70929
7.21726
7.13135
4.28954
6.9324
7.46434
8.70851
6.83807
6.09108
7.68738
8.94475
7.4721
4.55712
8.03015
4.92335
4.43397
3.76819
8.12508
5.25319
1.92584
8.51516
1.93831
5.23305
8.75443
3.2676
7.27217
8.54854
2.13986
8.13269
10.5504
10.4102
5.72277
8.13798
6.65868
6.96765
8.89668
7.38003
8.12834
4.77625
7.46896
8.72924
5.89698
6.78266
7.36301
4.95141
3.74271
4.81809
3.55859
7.51177
7.61142
6.62855
7.31403
4.49545
4.61992
6.98578
2.87281
7.72553
4.74043
7.81066
8.02795
3.67526
7.85651
3.6183
8.65836
7.52141
7.16918
9.15371
8.62235
8.38824
7.58707
7.04205
7.66154
7.67712
6.47822
7.69805
2.30933
10.3394
6.78279
4.90243
6.67763
8.03626
2.90573
4.23303
1.90051
1.61628
6.14719
1.74637
8.11824
3.99666
5.05243
4.07541
5.69689
7.07736
5.17904
7.96942
3.19784
3.22313
9.55055
5.66111
10.8517
4.82342
4.68987
5.06377
7.97437
5.31916
4.97219
7.87285
6.61402
7.34978
5.39368
4.77346
5.72693
5.89313
8.92301
3.38605
1.8918
6.54367
6.94662
5.30164
6.67105
4.99464
6.65887
6.27583
5.92935
10.6048
6.28021
5.44611
5.93419
6.1645
6.10245
4.774
6.44293
6.16202
4.65152
5.17586
4.78302
2.15488
5.38465
5.42073
5.38054
12.7047
4.78436
6.21393
5.17885
5.83123
9.47068
8.6561
10.3627
4.94127
1.73153
9.55661
1.99356
7.33288
8.73321
5.5571
5.30172
7.94966
4.602
6.37721
5.51383
9.94004
2.15046
4.06184
5.07367
7.56125
4.98171
5.89279
5.9525
1.83174
9.68997
6.21142
5.38682
2.21126
5.49142
5.71375
6.0762
11.6655
4.04174
1.99108
9.19187
8.11968
5.07635
1.69333
5.25044
5.94827
5.88204
4.45614
6.03002
9.11714
4.90107
4.73427
2.03775
7.84201
4.63962
8.67587
5.15118
5.21449
4.43664
5.5569
5.33011
5.57791
6.50501
4.71602
5.98457
5.14716
5.11171
5.29139
5.65655
4.73926
6.39482
3.48557
6.82373
9.91405
5.80962
6.43282
8.65671
6.12307
7.23668
8.43962
2.59192
7.90948
4.6514
3.79851
9.7153
9.34303
6.04069
5.79138
8.64518
8.23069
8.1477
3.78243
9.02493
2.21792
8.63018
10.5586
8.92143
9.25583
8.75657
4.29584
5.23402
6.39944
4.66962
4.8496
5.27636
6.13087
4.74622
7.32691
5.06642
7.41828
7.10603
6.55112
5.57156
8.78147
6.99104
6.99031
6.98009
9.5346
8.5077
7.43796
7.40177
8.72383
8.02545
4.02735
4.20626
4.97546
4.24682
4.24135
7.75552
5.53266
7.18512
6.9229
7.25116
6.09842
7.3796
3.03227
7.58153
7.49333
3.31963
2.31382
9.26034
9.57637
9.81514
5.14581
2.4268
8.97796
9.77444
9.08059
8.14232
8.11401
9.49275
7.99277
5.1972
8.95856
6.83098
5.66978
9.51461
7.30756
4.70513
8.64971
3.27012
7.74791
7.70677
5.601
5.62728
2.76128
8.17524
5.70339
8.45254
4.80614
7.68808
1.8723
3.68015
5.10175
8.79938
7.91496
5.73644
2.95255
8.75595
4.14217
4.2614
4.62939
5.17951
4.65719
2.16272
10.2205
7.56502
6.83547
4.76848
10.4486
4.18725
5.97232
6.61744
6.80487
7.30494
2.89061
1.91624
4.60763
1.61576
4.70441
7.5453
5.83687
6.56198
7.29102
7.44059
7.38883
7.50671
8.30024
7.61164
5.08774
3.43825
5.24524
6.09421
7.58624
2.34676
7.22992
7.22985
4.31175
1.59022
1.63688
5.35339
8.78962
1.69775
4.50893
5.15398
3.50539
4.44908
2.33195
9.56516
5.15698
4.30158
4.46452
4.80686
7.68853
3.18573
6.98455
3.74398
3.56193
5.37514
6.16286
6.39266
6.40976
6.05652
6.75499
4.92336
9.40085
4.11444
5.49725
9.45214
7.05998
4.47104
7.25226
5.52707
7.65065
10.2706
7.03411
8.19682
3.62014
3.81547
6.38093
7.39598
4.15694
6.74022
2.76113
6.29414
4.46565
6.71591
10.822
8.03119
8.1271
4.63941
6.93211
6.49012
7.34992
4.5641
8.29417
7.9823
4.3521
7.41846
2.79683
4.63024
6.26655
2.35725
6.82059
4.37841
5.00649
3.61704
3.10312
5.45737
2.9492
5.27987
6.31916
6.4383
7.30227
4.83263
8.90121
5.80245
4.26486
4.51635
4.98238
4.24826
3.24168
10.1896
6.21294
6.02714
7.75733
9.13293
6.31666
5.4802
4.4778
6.38395
5.93395
7.89656
3.23037
4.98486
4.01025
5.00255
5.68402
5.60699
2.76025
6.14749
3.07887
3.37413
3.74377
4.61907
6.44396
4.88093
6.2134
7.57163
4.89082
6.34627
4.63423
3.88673
4.56035
3.24451
4.90562
2.25297
6.00065
5.07916
5.15794
5.04774
5.37565
5.35664
7.20017
5.24866
5.95996
6.42372
5.31471
4.54758
5.43165
7.30751
2.16734
6.56175
6.76107
5.10938
2.54807
3.87041
2.76932
6.63224
3.72909
2.46521
3.20633
8.33725
4.91012
5.25156
1.58947
5.61767
9.33198
5.85304
2.6477
2.81586
6.41142
6.4266
6.63261
4.66085
8.1105
7.07415
6.6361
6.79453
11.0675
6.93065
4.99256
7.21847
1.71093
6.7072
5.92777
6.44089
8.32895
2.55159
6.27608
4.53564
2.36555
7.70414
5.52284
8.76367
6.12983
5.32448
7.51431
7.02432
8.61176
3.79904
8.98673
6.80894
5.31829
5.41611
5.13147
1.6197
1.42565
4.0462
6.16714
9.96852
8.65496
1.80473
3.01129
3.53382
1.75931
7.1715
5.10144
0.708663
0.651272
1.01547
3.17543
2.90039
3.13224
4.31653
2.99712
10.0144
4.43343
5.79404
3.78112
1.16664
0.661753
1.12759
4.0238
0.638856
0.573208
0.526142
0.75632
3.62488
0.362516
0.920803
4.42413
0.691564
1.24584
0.562843
0.70392
0.465722
5.93269
0.501415
0.609175
0.814283
1.13613
0.852473
0.554218
2.34698
4.83042
0.844732
0.493564
0.474879
3.33079
3.12387
3.92099
1.12104
4.72418
3.32092
0.776707
0.625982
0.88479
3.45088
3.92939
2.89145
5.61874
3.97749
1.63974
6.47419
1.06275
8.37063
3.02934
5.8614
8.21306
3.46335
8.48746
4.64716
6.82912
6.13622
2.85051
6.13227
1.0486
5.27084
0.905329
1.10743
1.65534
4.98047
4.80485
4.71262
5.60056
1.46036
1.84624
4.43067
4.51286
7.92034
0.814137
0.871166
1.20358
1.14339
1.02497
4.84945
1.07721
0.951097
5.08501
1.52868
4.57791
1.6998
1.39404
9.67258
4.01399
2.08848
1.01916
0.82897
0.62985
0.619774
0.822693
0.684679
0.898214
0.950552
0.79824
0.695279
0.753092
1.09705
0.911872
2.60554
0.752833
0.709184
0.594527
0.834928
0.721524
0.752948
0.78424
0.601135
0.820683
0.734907
0.703907
0.90194
1.11689
0.688084
0.969282
0.599045
0.866403
0.841323
0.701233
0.699589
0.65126
0.968186
0.837272
0.739232
1.09562
2.26982
5.25575
5.69403
5.66174
1.56042
1.79298
1.24971
1.41082
1.73887
4.98897
1.29051
3.97479
1.46749
1.68341
5.95101
2.70087
0.91585
0.942567
1.18785
1.02938
1.03666
1.28114
1.6479
1.05257
3.39984
3.30991
4.70078
5.01219
3.70963
0.791844
1.27757
1.44405
1.69063
1.35067
3.34739
3.24655
2.75195
7.0522
6.71732
7.80184
3.86759
3.57201
2.25561
0.880404
0.97681
0.680885
0.840876
0.626133
1.60667
0.959942
2.79968
0.600644
0.967369
2.02353
5.00647
0.427349
1.55856
2.70737
0.728997
3.25534
0.716352
0.82474
0.923543
1.14542
0.644695
0.448643
1.93168
1.19788
1.16876
0.497491
0.762016
1.37633
0.555173
0.373175
0.479242
0.362336
1.07472
0.902944
0.714743
1.25584
1.2181
4.11975
4.30045
4.89712
3.2189
4.48832
5.31495
6.35728
8.92521
3.09573
6.84366
3.2305
3.16461
8.64903
3.37219
7.89231
3.781
0.52438
3.51694
0.831568
4.34064
0.711981
1.21896
1.13368
1.08638
8.21909
4.44935
1.57279
1.77391
1.67349
5.5066
5.01284
5.20131
0.955452
0.984714
1.03242
1.30894
0.906157
1.23985
1.12516
0.926217
4.95716
5.06157
5.1242
1.57263
4.43057
1.58698
1.17784
4.98196
0.954461
0.633496
0.906015
0.76138
0.910597
0.988499
0.8025
1.57692
0.851472
0.860316
0.899677
0.657556
0.712866
0.505318
3.79634
0.500068
0.622863
0.74889
0.650531
0.714486
0.928147
3.54176
0.774777
0.718733
1.26046
0.740843
0.748977
2.03633
0.669263
0.763262
0.755507
0.392619
0.647363
1.09242
0.830321
1.66683
1.06684
0.977937
0.83523
6.43101
4.16699
4.52754
4.12271
1.42891
1.81312
1.32486
1.63179
5.17874
3.95667
1.64937
1.62604
1.70409
10.2846
4.37286
1.92845
1.06585
0.911039
0.98835
1.2726
0.79199
1.30407
4.01415
0.899078
1.04581
0.828269
1.22667
0.659289
1.92971
0.999758
0.982841
1.81232
1.08031
0.980932
1.19771
1.03741
1.00516
2.20774
1.26775
0.872467
0.810167
0.79115
0.861033
0.993552
2.56501
1.07577
1.17523
1.3214
1.07196
1.23629
1.91735
1.27802
1.2422
1.34633
1.15196
1.14638
1.08659
1.11007
0.681504
0.671359
0.889951
0.607954
0.931667
2.58746
0.969664
1.01112
1.241
2.26805
1.88417
6.70434
6.84252
2.77819
3.09919
1.74999
0.928697
0.772354
0.694559
1.22871
0.877018
1.08815
1.62805
0.873149
0.993822
0.893226
1.21913
1.35403
1.29809
1.0873
1.218
1.23583
1.53028
1.3098
1.03466
0.990414
1.13063
0.998777
7.51368
4.27253
6.42864
3.86511
1.71383
2.60663
3.01322
4.46616
3.53335
7.15513
4.61815
5.9843
5.867
6.97542
2.29596
5.54444
4.64164
8.71547
4.28464
6.05968
1.85238
5.2745
5.58447
3.21184
2.28964
4.9305
1.70973
4.10426
1.29441
6.85447
2.50316
6.03539
5.10439
4.73296
8.95687
5.0499
2.48234
3.02153
5.51015
7.35257
7.70106
6.33054
4.48785
4.62575
5.04958
8.63072
6.08205
4.9195
4.40444
6.70485
3.34009
7.72957
8.26021
7.15452
2.91811
5.70979
2.05848
6.48519
6.23568
3.03091
3.42399
3.32303
4.27463
4.63482
3.89069
3.50975
3.91415
8.01388
3.76735
4.0179
2.08785
1.85455
1.49624
2.33961
1.56857
6.59847
1.1317
6.98431
5.53832
4.19832
5.23225
5.53671
1.25855
1.46928
7.83163
2.37765
1.18461
1.26358
5.7306
3.99602
4.63615
1.7568
1.338
1.33689
1.58687
2.07908
5.37498
2.22566
1.56322
3.58599
4.75454
6.41035
7.51133
7.71457
3.61525
3.54762
3.95851
3.96193
3.74159
6.54323
7.00561
6.82311
3.62961
5.6612
3.86696
5.13441
5.16708
5.78764
2.40852
5.93593
4.19151
3.99784
4.44758
6.53682
5.10275
4.90032
5.46909
3.49795
2.09328
5.69409
4.32182
6.34873
6.26468
6.2378
1.3826
2.05564
6.12978
2.74639
3.7079
5.81936
5.30459
1.16068
3.22053
6.2389
3.81621
3.64993
6.57639
5.33877
6.78256
1.92459
5.60769
1.78549
5.95645
3.53353
2.52271
3.99762
5.65992
4.97556
4.96875
6.53048
4.89344
4.29258
4.41404
7.07623
6.47006
4.0842
2.12501
5.84994
3.68202
6.97446
6.2318
2.85
5.84341
3.36832
3.68465
3.66633
4.05819
3.6594
3.57279
5.41017
8.03234
6.35087
5.55371
3.32523
1.50745
1.94518
1.52631
8.14982
1.2927
4.41941
7.91328
4.20933
5.49186
5.52599
4.8322
5.38238
1.18315
1.27407
1.20047
2.59321
6.22341
1.21684
8.05383
5.74712
5.46041
1.2142
5.4825
2.40836
1.18161
5.43733
1.69717
2.57967
5.62983
5.68686
4.21155
6.13523
2.83089
4.06865
4.18875
3.579
5.50932
4.39719
3.60793
3.55886
3.37996
3.47709
7.85216
3.86447
6.0473
6.29349
7.23317
1.41776
4.63646
4.65756
4.0045
8.1689
2.83053
4.43095
8.19855
4.57431
6.55123
5.6859
5.53707
6.37031
5.00724
5.12309
3.81033
5.59832
7.91571
5.3416
2.96689
4.07574
3.35162
2.86661
6.62348
2.82588
5.14238
3.02815
3.58312
3.37682
3.39617
4.58005
7.10319
7.82056
8.69768
7.43389
6.79858
7.88739
5.4817
7.14273
4.53315
5.49837
6.20855
4.45452
4.27397
9.27637
4.11656
3.69411
6.59213
5.26638
10.0935
7.73744
9.92708
5.84724
7.10986
4.5763
7.00635
6.38365
8.5065
6.85819
6.32649
7.02309
7.9889
7.79409
1.45496
5.04853
3.60785
7.00945
4.39456
4.38607
3.45823
7.47155
4.63462
7.88917
8.42986
8.0339
4.20927
7.1402
9.5298
4.86881
8.35069
5.62827
1.60573
7.01589
5.66881
3.45142
7.55781
3.55919
7.17388
3.90597
8.18208
4.03603
5.5062
3.78134
3.36686
3.28898
7.59795
6.60061
6.01834
6.9498
3.17247
6.51543
7.42666
5.96807
6.38356
3.9338
8.05344
4.37277
5.93952
8.25194
4.61777
4.56788
9.08385
5.01937
9.45086
4.45173
8.7888
4.92279
3.33561
5.75229
7.93384
8.05883
6.66092
6.40154
9.36084
9.47657
3.69559
5.72036
4.26334
5.16691
2.46681
5.65148
5.8598
4.90271
3.62916
4.61565
7.82964
8.0844
7.22924
6.50954
7.02521
9.00722
4.7053
7.2473
