1.69943
0.452218
0.286853
0.330757
0.0850423
0.110058
2.71909
0.661749
0.6869
0.343757
0.260645
0.231903
0.141651
0.188918
0.434611
0.483031
0.477475
0.124343
0.351338
0.288563
0.434611
0.483031
1.30808
0.126197
2.44195
0.606605
0.696924
0.804456
0.203791
0.49251
5.29173
0.0485795
1.27226
0.552628
0.26423
0.89821
1.51925
0.509342
1.96817
0.428826
0.0761702
0.107458
0.201739
0.322796
0.379128
0.352626
1.07625
0.966209
1.51865
0.467429
1.49274
0.674411
0.160214
0.444799
4.30621
1.49721
6.63052
0.805944
2.73357
1.87079
2.61051
2.07285
3.41243
3.70468
0.289888
0.195268
0.870165
6.28512
0.89979
2.75261
4.0164
0.433325
0.661631
6.28647
1.7491
1.2739
2.34039
0.696053
5.75233
4.32484
4.01669
0.429023
0.89979
2.75382
3.80353
1.81477
3.67709
0.858236
0.141424
0.329054
0.0986657
0.116377
2.53918
0.677442
0.672467
0.663424
0.973638
0.323299
0.361504
0.375223
0.141813
0.154565
0.231799
0.237021
0.676077
0.661347
0.456484
0.177065
0.107443
0.123774
0.148912
0.184311
0.169884
0.568508
0.0973421
0.103251
0.574565
0.381483
0.549081
0.451698
1.16842
2.45001
3.96683
4.47891
4.36724
4.19633
1.01165
4.20922
0.248223
0.606363
0.512304
0.264648
2.83577
1.75862
2.25204
1.30622
0.514414
1.88063
0.623062
0.834563
5.45824
3.80676
3.0572
5.12747
2.25206
1.30622
2.83723
1.75507
2.90133
0.430948
0.577779
0.771648
4.24947
5.6929
1.65787
3.67539
4.53901
4.12902
6.58601
2.46923
1.65093
2.49565
2.83723
5.37881
2.7496
4.34805
2.45715
4.01913
4.26573
5.25217
3.73227
3.57077
3.56198
3.86872
1.43056
2.86305
3.97136
3.92229
3.48492
4.24023
3.94771
3.89382
4.28316
2.72566
3.30181
2.00916
2.74349
2.88215
6.12154
5.38285
4.13965
5.3161
7.77399
3.39938
8.44925
4.71091
3.47156
3.89382
3.36318
5.45206
2.22552
3.20385
4.28275
3.79347
3.55679
3.86901
3.48492
4.24038
3.97161
3.92346
1.70818
1.97234
2.20158
3.78979
3.73739
3.56973
1.85274
5.24703
2.46152
4.54853
4.54113
3.53128
2.83678
3.58348
1.65236
2.49557
4.54112
2.46923
0.953115
1.65858
2.7688
3.56845
5.69472
0.808639
1.90623
0.681827
0.185198
0.220442
0.469516
0.323556
2.3759
2.31204
2.31707
3.70881
3.43579
2.51986
2.50708
5.37881
0.49149
1.0098
1.16304
0.397359
0.765242
0.693206
0.485291
3.38905
1.91203
1.95977
3.67474
4.61148
6.27712
1.38094
3.70861
1.24201
0.74286
0.340172
0.272485
0.300369
0.0601766
0.101678
1.45617
0.808251
0.572901
0.568674
3.20143
0.466678
0.899141
0.400032
0.136654
0.126731
0.746539
0.353012
0.878338
0.399532
0.0866965
0.145217
0.237678
0.320215
2.89863
1.97233
3.70861
2.60424
0.392555
0.736631
0.446061
0.935411
0.491877
3.39751
0.484855
3.38624
0.42578
0.864572
4.09599
2.78602
2.37589
2.30908
1.8763
3.48467
3.20282
2.27893
2.22545
2.32083
0.519686
0.825478
0.469516
0.325519
0.12613
0.128891
0.11877
0.170906
0.555016
0.34974
0.13746
0.175717
0.564326
1.05
1.10543
3.11859
0.721765
1.51036
1.05435
0.690731
0.52453
0.292173
0.276043
0.262069
0.0676016
0.108861
0.332079
0.332788
0.581246
0.315372
0.100287
0.117315
0.69502
0.418311
1.9628
0.474909
6.11914
3.81175
2.33247
2.33449
7.427
0.859246
3.99225
5.3161
0.541355
0.497348
0.629098
0.603252
0.0982069
0.0878811
0.392768
0.305185
0.476445
0.392423
0.546466
0.335158
0.0914703
0.121713
0.0790359
0.223879
0.885476
4.37905
5.80772
0.840246
4.97663
2.03325
0.854417
1.30658
0.686306
0.621147
0.500182
0.478193
0.215539
0.359725
0.114977
0.0721186
0.905529
1.29106
4.42664
1.9059
0.209094
1.69422
5.00526
2.96765
0.640303
0.180813
0.0727563
0.0689749
0.0312154
0.0358726
0.313156
0.180125
0.313158
0.192372
0.0284017
0.0357364
4.25827
0.0238841
0.614631
0.294671
0.475167
0.158389
2.16124
0.77321
3.23354
1.33558
0.55509
0.683021
2.47494
1.7999
0.105261
5.97932
0.253945
5.54611
5.32771
0.755382
6.13775
1.58651
1.28651
5.68546
1.26248
5.79445
1.53167
1.65024
0.530437
2.37185
0.603681
1.51854
4.138
1.5801
4.09401
6.58512
1.02709
1.01986
1.00731
2.3012
2.54755
2.31922
2.1968
2.26371
2.04645
4.08195
3.12923
4.14758
3.34131
3.27988
3.34656
3.20138
2.69866
0.663061
2.7518
3.27988
3.40074
0.393432
1.01677
0.393432
1.01677
1.8697
2.92769
3.46822
2.77468
3.55326
0.96363
1.8697
1.32246
2.28936
1.49561
3.4704
1.46142
3.58299
1.15685
3.3162
2.13788
4.38067
1.80771
5.51469
1.72987
1.55568
2.82416
4.50238
2.46576
4.20922
0.956739
4.19633
0.905287
4.19633
2.33482
4.20922
0.973798
1.39076
0.922087
1.33633
0.573368
1.3478
1.63923
1.38165
0.878456
3.02506
0.950279
2.94382
0.856342
1.98953
0.810869
1.1959
5.16699
3.75311
5.18014
3.91635
0.981366
4.91675
0.928054
1.17348
4.04435
2.21672
1.45925
2.14914
