OFF
271 525 0
12.6877 18.4709 -7.32322
13.4577 17.9201 -6.88922
13.5867 17.4808 -7.60622
12.7907 18.0479 -8.05322
13.6137 16.9044 -8.38122
12.8297 17.453 -8.83522
11.8037 17.7182 -9.11022
11.7477 18.3264 -8.31922
11.6787 18.7411 -7.58122
13.4557 16.2739 -9.01222
13.1827 15.7597 -9.35922
12.6367 15.9184 -9.80222
12.7477 16.7447 -9.46622
11.7767 16.0647 -10.1092
11.8207 16.9581 -9.75922
10.8527 16.1238 -10.0692
10.1777 16.1059 -9.80922
9.92873 16.6801 -9.54022
10.8257 16.966 -9.75422
9.72674 17.3521 -8.96322
10.7097 17.6972 -9.15222
9.64174 17.9351 -8.19722
9.63974 18.3598 -7.46122
10.6047 18.7107 -7.63522
10.6387 18.2957 -8.37522
9.69374 10.9928 -3.27022
10.1457 10.9049 -3.25822
10.6357 12.1012 -4.09822
10.5297 10.7403 -3.37322
8.89274 10.9289 -3.61822
9.25374 11.0121 -3.39522
9.73974 12.2047 -4.23322
10.8897 10.2842 -3.95822
10.8477 10.0528 -4.30722
11.3377 11.2427 -5.14722
10.6407 9.87671 -4.61822
10.7827 10.5189 -3.62222
11.2747 11.7166 -4.46422
9.85874 11.1021 -5.82922
10.3117 10.9914 -5.80622
9.82874 9.81511 -4.97022
9.36974 9.908 -4.98522
8.97974 10.0694 -4.86822
10.7737 11.0032 -5.69822
10.2797 9.80451 -4.84722
9.17274 11.9589 -4.77922
9.11273 11.7134 -5.12022
8.63574 10.5344 -4.28922
8.68774 10.7669 -3.94022
8.73174 10.2918 -4.62022
9.21874 11.487 -5.46422
11.1057 13.1588 -4.57722
11.5787 12.962 -4.71722
11.8447 13.2579 -4.70422
11.2787 13.4908 -4.53722
11.4877 13.8388 -4.34322
10.6337 13.6737 -4.53922
10.5537 13.2698 -4.58922
12.4477 13.8501 -4.43722
12.8637 14.4042 -4.32722
11.7517 14.378 -4.02922
10.6607 14.4421 -4.08222
9.61273 14.6243 -4.34922
8.67274 14.8869 -4.95422
8.98174 14.2493 -4.95622
9.84974 14.0038 -4.60022
9.45774 13.5464 -5.06022
9.57174 13.1932 -5.01822
10.0127 13.2847 -4.74122
9.98374 13.64 -4.73122
11.9967 12.1432 -5.88522
11.7147 11.9034 -6.24322
12.0017 12.0035 -6.51122
12.2987 12.048 -6.77722
12.6437 12.3416 -6.23122
12.7227 12.7323 -5.62022
12.3557 12.5804 -5.54222
12.0147 12.3904 -5.42522
12.5997 12.1767 -7.09722
12.8977 12.5289 -7.52822
13.3427 12.9073 -6.82422
12.9997 12.5165 -6.46522
13.4697 13.4065 -6.00522
13.0997 12.9668 -5.74022
13.3207 13.9335 -5.15722
12.9267 13.446 -5.00822
12.5497 13.1513 -5.03522
11.8847 12.6898 -5.02322
12.2027 12.9352 -5.06522
10.1567 11.9406 -6.68822
9.67873 12.1379 -6.54822
9.58874 12.2813 -6.87322
10.1557 12.0476 -7.03822
9.43474 12.3779 -7.20622
10.1077 12.1004 -7.40222
10.8977 11.9427 -7.38222
10.8207 11.9147 -7.02122
10.7187 11.8285 -6.67422
9.28374 12.5585 -7.59422
9.20574 12.9541 -8.08122
10.0727 12.5963 -8.33422
10.0627 12.2372 -7.82022
11.0917 12.3931 -8.30922
10.9777 12.0547 -7.79822
12.0897 12.3641 -8.03222
11.8747 12.0286 -7.54922
11.6717 11.9202 -7.16722
11.2697 11.8124 -6.52122
11.4737 11.8957 -6.84022
9.32174 12.985 -5.40722
9.16574 13.2849 -5.52022
8.91174 13.5703 -5.58022
8.83774 13.1798 -6.20222
9.08974 12.9566 -6.03122
9.25774 12.7079 -5.83822
8.39774 14.5004 -5.89522
8.62174 13.9419 -5.65322
8.40274 13.99 -6.76422
8.57874 13.4875 -6.41722
8.66074 13.4466 -7.52622
8.79374 13.0009 -7.09522
9.01074 12.76 -6.77522
9.37774 12.4096 -6.24222
9.23174 12.6032 -6.50922
11.4937 15.6148 -5.31122
12.0447 15.5657 -5.02922
12.1707 16.1993 -5.69122
11.7087 16.229 -5.84522
11.1827 16.4533 -6.06822
10.8737 16.0002 -5.74622
10.7527 15.6424 -5.40722
12.2557 16.8537 -6.11122
12.4517 17.4471 -6.29822
11.8637 17.3288 -6.46722
11.4887 16.9375 -6.34922
11.1427 17.4458 -6.62322
10.2887 17.6963 -6.62222
10.2847 17.0807 -6.40722
10.6537 16.7086 -6.25022
10.1277 16.6385 -6.13822
10.0957 16.2058 -5.81722
9.88173 15.8149 -5.35322
13.1857 13.2443 -8.12722
13.6577 13.6459 -7.38022
13.3687 14.149 -8.72822
13.8437 14.564 -7.99422
14.0207 15.1148 -7.16322
13.8127 14.1739 -6.52222
13.3527 15.0691 -9.16622
13.7987 15.4935 -8.53022
13.9827 16.075 -7.80322
13.8167 17.1087 -6.30522
13.9577 16.6457 -7.00422
13.8147 16.1685 -5.64022
13.9767 15.6818 -6.32722
13.5047 15.2309 -4.96422
13.7177 14.7283 -5.65422
9.26774 13.6955 -8.71422
10.1887 13.3159 -8.98222
9.47074 14.598 -9.31222
10.3897 14.2348 -9.58922
11.4687 14.0351 -9.57422
11.2687 13.1002 -8.95522
9.81274 15.4767 -9.69622
10.6597 15.1921 -9.98322
11.6487 15.0568 -10.0032
12.5907 14.9697 -9.69422
12.5187 13.9896 -9.27122
12.3287 13.0694 -8.66122
8.44174 15.814 -5.72322
8.34574 15.347 -6.45922
8.55674 16.774 -6.42722
8.50974 16.3115 -7.14622
8.59873 15.7393 -7.97522
8.39974 14.7974 -7.33322
8.95674 17.6684 -7.03322
8.93674 17.224 -7.75622
9.03174 16.6452 -8.54522
9.29774 16.0119 -9.20422
8.89573 15.1338 -8.73522
8.68874 14.2181 -8.12422
12.6747 14.9389 -4.16822
11.7377 14.6792 -3.96922
12.5297 15.2292 -4.16522
11.6677 14.9349 -4.00122
10.7037 14.9225 -4.04822
10.6767 14.7102 -4.01522
12.4107 15.391 -4.26122
12.3097 15.4665 -4.42822
11.6027 15.1551 -4.17822
10.7767 15.1785 -4.33922
10.7387 15.0762 -4.16122
9.95574 15.3448 -4.42522
9.43874 15.7971 -4.85822
9.27974 15.7515 -4.73022
9.10674 15.6234 -4.67822
9.79673 15.1504 -4.28222
8.91174 15.3724 -4.73222
9.66774 14.9175 -4.27922
13.3107 18.1394 -6.43422
13.6507 17.3673 -5.87722
13.1547 18.1876 -6.18722
13.4727 17.4651 -5.66622
13.4547 16.6413 -5.09722
13.6377 16.4784 -5.25422
12.9987 18.1137 -6.09722
12.8497 17.9631 -6.11222
13.2357 17.4276 -5.61722
13.1007 16.6543 -5.19322
13.2737 16.6868 -5.09422
12.9207 15.9822 -4.64322
13.1327 15.847 -4.56322
13.3107 15.6038 -4.64022
9.68674 18.5569 -6.97722
10.6027 18.8911 -7.14322
9.76674 18.5778 -6.69422
10.6237 18.8907 -6.85022
11.5767 18.9182 -6.80222
11.6227 18.9202 -7.09122
9.86874 18.4743 -6.56622
9.97873 18.2937 -6.54222
10.6737 18.7105 -6.68122
11.5117 18.5808 -6.63322
11.5407 18.789 -6.66522
12.3357 18.519 -6.43222
12.4717 18.6779 -6.57322
12.5797 18.6634 -6.84622
8.60474 16.1458 -5.34522
8.79774 16.3463 -5.21322
8.82874 17.174 -5.79022
8.67173 17.0504 -5.99822
9.04673 16.4284 -5.22422
9.18874 17.105 -5.77922
9.00473 17.1785 -5.73322
9.35674 17.8742 -6.19822
9.16074 17.9617 -6.31222
9.03773 17.8987 -6.56822
11.5057 15.3334 -4.87522
10.8937 15.3499 -4.99122
10.2877 15.4737 -5.05822
12.7087 17.0114 -5.94822
12.6247 16.4487 -5.62722
12.4797 15.9522 -5.23322
10.8247 17.9593 -6.73422
11.4417 17.8831 -6.70022
12.0427 17.8191 -6.55122
9.62174 16.2813 -5.66222
9.71173 16.7842 -6.06422
9.85074 17.3405 -6.37622
9.37874 12.14 -4.46422
9.54174 12.755 -4.82722
9.31874 12.5699 -5.17322
9.26274 12.3235 -5.55722
9.63673 11.8167 -6.18822
9.36874 12.0583 -5.91622
9.46673 11.2717 -5.72422
10.0617 11.6412 -6.31222
10.5617 11.5415 -6.30022
11.4477 11.6081 -5.91722
11.0517 11.5273 -6.16422
11.1427 11.0784 -5.47322
11.3887 11.4791 -4.79922
11.6657 11.7937 -5.57222
11.7137 12.0412 -5.18922
11.3267 12.5495 -4.56022
11.5977 12.3074 -4.83222
11.0307 11.9497 -4.21722
10.1867 12.2031 -4.11222
10.9047 12.7244 -4.43522
10.4147 12.8231 -4.44622
9.93373 12.8364 -4.58122
3 0 1 2
3 0 2 3
3 2 4 5
3 2 5 3
3 5 6 7
3 5 7 3
3 7 8 0
3 7 0 3
3 9 10 11
3 9 11 12
3 11 13 14
3 11 14 12
3 14 6 5
3 14 5 12
3 5 4 9
3 5 9 12
3 15 16 17
3 15 17 18
3 17 19 20
3 17 20 18
3 20 6 14
3 20 14 18
3 14 13 15
3 14 15 18
3 21 22 23
3 21 23 24
3 23 8 7
3 23 7 24
3 7 6 20
3 7 20 24
3 20 19 21
3 20 21 24
3 25 26 27
3 26 28 27
3 29 30 31
3 30 25 31
3 32 33 34
3 33 35 34
3 28 36 37
3 36 32 37
3 38 39 40
3 40 41 38
3 41 42 38
3 43 35 44
3 40 39 43
3 40 43 44
3 45 46 47
3 47 48 45
3 48 29 45
3 42 49 50
3 49 47 50
3 47 46 50
3 51 52 53
3 51 53 54
3 53 55 54
3 55 56 54
3 56 57 51
3 56 51 54
3 58 59 60
3 58 60 55
3 60 61 55
3 61 56 55
3 55 53 58
3 62 63 64
3 62 64 65
3 64 66 65
3 65 56 61
3 61 62 65
3 66 67 68
3 66 68 69
3 68 57 56
3 68 56 69
3 56 65 69
3 65 66 69
3 70 71 72
3 72 73 74
3 72 74 70
3 74 75 76
3 74 76 70
3 76 77 70
3 78 79 80
3 78 80 81
3 80 82 83
3 80 83 81
3 83 75 74
3 83 74 81
3 74 73 78
3 74 78 81
3 84 59 58
3 84 58 85
3 58 53 86
3 58 86 85
3 86 75 83
3 86 83 85
3 83 82 84
3 83 84 85
3 53 52 87
3 53 87 88
3 87 77 76
3 87 76 88
3 76 75 86
3 76 86 88
3 86 53 88
3 89 90 91
3 89 91 92
3 91 93 94
3 91 94 92
3 94 95 96
3 94 96 92
3 96 97 89
3 96 89 92
3 98 99 100
3 98 100 101
3 100 102 103
3 100 103 101
3 103 95 94
3 103 94 101
3 94 93 98
3 94 98 101
3 104 79 78
3 104 78 105
3 78 73 106
3 78 106 105
3 106 95 103
3 106 103 105
3 103 102 104
3 103 104 105
3 72 71 107
3 72 107 108
3 107 97 96
3 107 96 108
3 96 95 106
3 96 106 108
3 106 73 72
3 106 72 108
3 109 67 66
3 109 66 110
3 66 111 110
3 111 112 113
3 111 113 110
3 113 114 109
3 113 109 110
3 64 63 115
3 64 115 116
3 115 117 118
3 115 118 116
3 118 112 111
3 118 111 116
3 111 66 64
3 111 64 116
3 119 99 98
3 119 98 120
3 98 93 121
3 98 121 120
3 121 112 118
3 121 118 120
3 118 117 119
3 118 119 120
3 91 90 122
3 91 122 123
3 122 114 113
3 122 113 123
3 113 112 121
3 113 121 123
3 121 93 91
3 121 91 123
3 124 125 126
3 124 126 127
3 127 128 129
3 129 130 124
3 129 124 127
3 131 132 133
3 131 133 134
3 133 135 134
3 134 128 127
3 127 126 131
3 127 131 134
3 135 136 137
3 135 137 138
3 137 139 138
3 138 128 134
3 134 135 138
3 140 141 130
3 140 130 129
3 129 128 138
3 138 139 140
3 138 140 129
3 80 79 142
3 80 142 143
3 142 144 145
3 142 145 143
3 145 146 147
3 145 147 143
3 147 82 80
3 147 80 143
3 148 10 9
3 148 9 149
3 9 4 150
3 9 150 149
3 150 146 145
3 150 145 149
3 145 144 148
3 145 148 149
3 2 1 151
3 2 151 152
3 151 153 154
3 151 154 152
3 154 146 150
3 154 150 152
3 150 4 2
3 150 2 152
3 155 59 84
3 155 84 156
3 84 82 147
3 84 147 156
3 147 146 154
3 147 154 156
3 154 153 155
3 154 155 156
3 100 99 157
3 100 157 158
3 157 159 160
3 157 160 158
3 160 161 162
3 160 162 158
3 162 102 100
3 162 100 158
3 163 16 15
3 163 15 164
3 15 13 165
3 15 165 164
3 165 161 160
3 165 160 164
3 160 159 163
3 160 163 164
3 11 10 148
3 11 148 166
3 148 144 167
3 148 167 166
3 167 161 165
3 167 165 166
3 165 13 11
3 165 11 166
3 142 79 104
3 142 104 168
3 104 102 162
3 104 162 168
3 162 161 167
3 162 167 168
3 167 144 142
3 167 142 168
3 115 63 169
3 115 169 170
3 169 171 172
3 169 172 170
3 172 173 174
3 172 174 170
3 174 117 115
3 174 115 170
3 175 22 21
3 175 21 176
3 21 19 177
3 21 177 176
3 177 173 172
3 177 172 176
3 172 171 175
3 172 175 176
3 17 16 163
3 17 163 178
3 163 159 179
3 163 179 178
3 179 173 177
3 179 177 178
3 177 19 17
3 177 17 178
3 157 99 119
3 157 119 180
3 119 117 174
3 119 174 180
3 174 173 179
3 174 179 180
3 179 159 157
3 179 157 180
3 60 59 181
3 60 181 182
3 181 183 184
3 181 184 182
3 184 185 186
3 184 186 182
3 186 61 60
3 186 60 182
3 187 188 189
3 189 190 191
3 191 185 184
3 191 184 189
3 184 183 187
3 184 187 189
3 192 193 194
3 194 195 196
3 194 196 192
3 196 185 191
3 196 191 192
3 191 190 192
3 197 63 62
3 197 62 198
3 62 61 186
3 62 186 198
3 186 185 196
3 186 196 198
3 196 195 197
3 196 197 198
3 151 1 199
3 151 199 200
3 199 201 202
3 199 202 200
3 202 203 204
3 202 204 200
3 204 153 151
3 204 151 200
3 205 206 207
3 207 208 209
3 209 203 202
3 209 202 207
3 202 201 205
3 202 205 207
3 210 188 187
3 187 183 211
3 187 211 210
3 211 203 209
3 211 209 210
3 209 208 210
3 181 59 155
3 181 155 212
3 155 153 204
3 155 204 212
3 204 203 211
3 204 211 212
3 211 183 181
3 211 181 212
3 23 22 213
3 23 213 214
3 213 215 216
3 213 216 214
3 216 217 218
3 216 218 214
3 218 8 23
3 218 23 214
3 219 220 221
3 221 222 223
3 223 217 216
3 223 216 221
3 216 215 219
3 216 219 221
3 224 206 205
3 205 201 225
3 205 225 224
3 225 217 223
3 225 223 224
3 223 222 224
3 199 1 0
3 199 0 226
3 0 8 218
3 0 218 226
3 218 217 225
3 218 225 226
3 225 201 199
3 225 199 226
3 169 63 197
3 169 197 227
3 197 195 228
3 197 228 227
3 228 229 230
3 228 230 227
3 230 171 169
3 230 169 227
3 194 193 231
3 231 232 233
3 233 229 228
3 233 228 231
3 228 195 194
3 228 194 231
3 234 220 219
3 219 215 235
3 219 235 234
3 235 229 233
3 235 233 234
3 233 232 234
3 213 22 175
3 213 175 236
3 175 171 230
3 175 230 236
3 230 229 235
3 230 235 236
3 235 215 213
3 235 213 236
3 189 188 237
3 188 125 237
3 237 238 190
3 190 189 237
3 125 124 237
3 124 130 238
3 124 238 237
3 130 141 239
3 238 130 239
3 193 192 239
3 192 190 239
3 190 238 239
3 239 141 193
3 207 206 240
3 206 132 240
3 240 241 208
3 208 207 240
3 132 131 240
3 131 126 241
3 131 241 240
3 126 125 242
3 241 126 242
3 188 210 242
3 210 208 242
3 208 241 242
3 242 125 188
3 221 220 243
3 220 136 243
3 243 244 222
3 222 221 243
3 136 135 243
3 135 244 243
3 133 132 245
3 244 135 133
3 244 133 245
3 206 224 245
3 224 222 245
3 222 244 245
3 245 132 206
3 231 193 246
3 193 141 246
3 246 247 232
3 232 231 246
3 141 140 246
3 140 139 247
3 140 247 246
3 137 136 248
3 247 139 137
3 247 137 248
3 220 234 248
3 234 232 248
3 232 247 248
3 248 136 220
3 45 29 249
3 250 67 109
3 250 109 251
3 109 114 252
3 109 252 251
3 252 46 45
3 252 45 251
3 45 249 250
3 45 250 251
3 122 90 253
3 122 253 254
3 253 255 50
3 253 50 254
3 50 46 252
3 50 252 254
3 252 114 122
3 252 122 254
3 255 42 50
3 38 42 255
3 253 90 89
3 253 89 256
3 89 97 257
3 89 257 256
3 257 39 38
3 257 38 256
3 38 255 253
3 38 253 256
3 107 71 258
3 107 258 259
3 258 260 43
3 258 43 259
3 43 39 257
3 43 257 259
3 257 97 107
3 257 107 259
3 260 35 43
3 34 35 260
3 261 32 34
3 258 71 70
3 258 70 262
3 70 77 263
3 70 263 262
3 263 261 34
3 263 34 262
3 34 260 258
3 34 258 262
3 87 52 264
3 87 264 265
3 264 266 37
3 264 37 265
3 37 261 263
3 37 263 265
3 263 77 87
3 263 87 265
3 266 28 37
3 37 32 261
3 27 28 266
3 267 25 27
3 264 52 51
3 264 51 268
3 51 57 269
3 51 269 268
3 269 267 27
3 269 27 268
3 27 266 264
3 27 264 268
3 68 67 250
3 68 250 270
3 250 249 31
3 250 31 270
3 31 267 269
3 31 269 270
3 269 57 68
3 269 68 270
3 249 29 31
3 31 25 267
3 33 32 36
