sdf_190_seg_1_comp_0.sdf
sdf_190_seg_1_comp_1.sdf
sdf_190_seg_2_comp_0.sdf
sdf_190_seg_3_comp_0.sdf
sdf_190_seg_3_comp_1.sdf
sdf_190_seg_4_comp_0.sdf
sdf_190_seg_4_comp_1.sdf
sdf_190_seg_4_comp_2.sdf
sdf_190_seg_4_comp_3.sdf
sdf_190_seg_4_comp_4.sdf
