OFF
408 798 0
22.7559 -5.71701 -6.02393
22.2739 -6.69982 -5.30493
21.1309 -6.90148 -6.73693
21.6699 -5.88561 -7.42993
19.7329 -6.99469 -8.29993
20.2859 -5.99413 -8.95993
20.4709 -4.72089 -9.34993
21.8279 -4.59215 -7.85393
22.8579 -4.46511 -6.48893
18.3449 -6.86532 -9.57993
17.3189 -6.58086 -10.2949
17.3229 -5.90306 -10.9839
18.8149 -5.96219 -10.2249
17.3809 -4.84053 -11.3959
18.9529 -4.81396 -10.6239
17.4809 -3.7039 -11.2119
17.5689 -2.87596 -10.6959
18.5539 -2.52119 -10.1379
18.9229 -3.59595 -10.5359
19.8169 -2.21313 -9.06693
20.3299 -3.38681 -9.37993
21.0199 -2.05399 -7.71993
21.9759 -2.00751 -6.45293
22.5939 -3.15748 -6.64993
21.6089 -3.24148 -7.96593
9.78494 -3.62629 1.59007
9.77194 -4.20398 1.29607
9.82994 -3.62563 1.56407
9.91394 -4.21951 1.21807
9.97294 -3.64462 1.48207
10.0509 -2.95281 1.44607
9.90894 -2.92977 1.52807
9.86494 -2.92231 1.55307
10.2299 -4.27079 1.00907
10.8019 -4.37045 0.598074
10.8839 -3.79668 0.847074
10.2969 -3.69705 1.26807
10.9549 -3.10614 0.805074
10.3729 -3.00656 1.23007
11.0069 -2.41313 0.517074
11.0329 -1.83192 0.0320739
10.5049 -1.73241 0.448074
10.4449 -2.3136 0.941074
10.2099 -1.67628 0.658074
10.1339 -2.25854 1.15507
10.0779 -1.64598 0.735074
9.95294 -2.21606 1.25707
9.99594 -2.23151 1.23607
9.74894 -4.55467 -0.996926
9.81194 -4.19646 -1.72993
9.85594 -4.18717 -1.70893
9.79394 -4.54168 -0.985926
9.96594 -4.20182 -1.75593
9.91194 -4.55449 -1.03993
9.88394 -4.67477 -0.200926
9.75794 -4.66239 -0.137926
9.71194 -4.67627 -0.136926
10.1879 -4.25274 -1.92493
10.5709 -4.35225 -2.26993
10.5869 -4.70434 -1.57593
10.1569 -4.6048 -1.21693
10.6399 -4.82455 -0.764926
10.1569 -4.72497 -0.387926
10.7159 -4.71316 0.0100739
10.1819 -4.61353 0.405074
9.88394 -4.563 0.604074
9.70294 -4.56174 0.688074
9.74894 -4.5497 0.676074
10.1749 -1.61015 -1.90193
10.2789 -1.6399 -1.95093
10.2169 -2.2179 -2.27593
10.1149 -2.19167 -2.23193
10.1329 -2.91594 -2.36093
10.0319 -2.89387 -2.31893
10.4919 -1.69592 -2.12693
10.8569 -1.79557 -2.48893
10.7659 -2.37236 -2.79593
10.4199 -2.27273 -2.44593
10.6769 -3.06895 -2.86993
10.3349 -2.96937 -2.52693
10.6069 -3.76802 -2.69793
10.2519 -3.66848 -2.35693
10.0449 -3.61644 -2.19193
9.89694 -3.60113 -2.17493
9.93994 -3.59847 -2.14893
10.1009 -1.26252 0.0790739
10.1419 -1.2883 0.0730738
10.2669 -1.3205 0.00307385
10.2999 -1.19398 -0.714926
10.1829 -1.16125 -0.651926
10.1419 -1.13441 -0.655926
11.0269 -1.47681 -0.604926
10.5399 -1.37728 -0.199926
10.9919 -1.35055 -1.29993
10.5509 -1.25096 -0.908926
10.9339 -1.45588 -1.95893
10.5349 -1.35625 -1.58293
10.3059 -1.29952 -1.39793
10.1549 -1.24243 -1.35693
10.1949 -1.26761 -1.34293
15.2169 -4.52554 -1.87393
14.9599 -5.19562 -2.11193
15.7319 -5.41687 -2.20893
16.0689 -4.65062 -1.91893
16.3959 -5.65042 -2.03293
16.7799 -4.75699 -1.67493
16.8359 -3.7118 -1.75793
16.1369 -3.7508 -1.99093
15.2729 -3.73023 -1.94193
17.0989 -5.92089 -1.71493
18.1259 -6.29286 -1.36793
18.0479 -4.93691 -0.908926
17.4479 -4.87672 -1.28193
17.9369 -3.58553 -1.06193
17.4329 -3.64625 -1.39793
17.8349 -2.27895 -1.61893
17.7669 -1.09575 -2.69193
16.8479 -1.51607 -2.77893
17.2719 -2.45061 -1.90893
16.2039 -1.86603 -2.92493
16.6449 -2.68951 -2.19393
15.5869 -2.13591 -2.97693
14.8689 -2.28548 -2.79493
15.1499 -2.94008 -2.26693
15.9669 -2.86377 -2.36293
13.3059 -5.65138 -4.35793
12.8409 -5.26792 -5.09593
12.9139 -5.58046 -5.72393
13.5369 -5.99517 -4.85993
12.8589 -5.90394 -6.31493
13.6379 -6.35615 -5.28993
14.6149 -6.45407 -4.08893
14.3139 -6.09935 -3.86393
13.8899 -5.76371 -3.51093
12.8819 -6.22502 -6.94793
13.1879 -6.53034 -7.70693
14.2209 -7.0513 -6.37693
13.8029 -6.71472 -5.75893
15.5349 -7.16094 -4.74793
14.9679 -6.81346 -4.32393
16.9049 -6.91971 -3.02993
16.1699 -6.55766 -2.85293
15.6039 -6.21747 -2.92093
14.4799 -5.61006 -2.70993
15.0959 -5.90318 -2.91793
12.7369 -3.00194 -5.73293
13.0429 -2.32669 -5.43693
13.1499 -2.25389 -6.08793
12.7499 -3.02775 -6.44493
13.1499 -2.11492 -6.69493
12.6489 -3.0071 -7.13293
12.4059 -4.05336 -7.22393
12.5539 -3.94277 -6.50893
12.5829 -3.80762 -5.77793
13.2339 -1.97357 -7.33993
13.5939 -1.89363 -8.10693
12.9239 -3.0027 -8.70193
12.6389 -2.98406 -7.86393
12.5959 -4.28952 -8.84793
12.3499 -4.16156 -7.98393
12.6649 -5.53757 -8.52293
12.4139 -5.30792 -7.68493
12.4619 -5.07766 -6.95493
12.6089 -4.60814 -5.56793
12.5979 -4.845 -6.27093
14.4519 -1.89683 -3.47593
15.0279 -1.7136 -3.77393
15.5109 -1.41729 -3.89393
14.6889 -1.32051 -4.94393
14.3769 -1.59422 -4.63593
13.9659 -1.77414 -4.20893
16.7619 -0.780994 -4.28993
16.0489 -1.0689 -3.97293
15.6529 -0.820514 -5.76393
15.0629 -1.03198 -5.26493
14.5499 -1.17881 -7.08093
14.0829 -1.32821 -6.43093
13.8659 -1.55289 -5.92193
13.4739 -1.91742 -4.89593
13.7219 -1.77518 -5.44593
19.1029 -4.87475 -2.51193
19.4059 -5.41794 -2.46993
19.8459 -5.73975 -2.84193
19.6309 -5.0676 -3.09993
20.5109 -5.96634 -3.39793
20.3379 -5.25355 -3.72193
20.2119 -4.36406 -4.01993
19.4589 -4.23173 -3.33293
18.8989 -4.09217 -2.68293
21.1989 -5.94458 -3.96693
21.6859 -5.76321 -4.36693
21.7819 -5.28066 -4.74193
21.0909 -5.28878 -4.31493
21.7749 -4.52784 -5.07593
21.0269 -4.46927 -4.63793
21.6169 -3.72469 -5.19293
21.4079 -3.14016 -5.12793
20.8739 -2.85969 -4.86293
20.9139 -3.60775 -4.80293
20.1629 -2.65368 -4.36193
20.1489 -3.44745 -4.24793
19.5239 -2.65531 -3.74093
19.1339 -2.79557 -3.23493
18.9409 -3.31923 -2.96593
19.4549 -3.38679 -3.58893
13.9839 -6.80655 -8.66993
15.0829 -7.34631 -7.25793
15.0869 -6.94789 -9.56993
16.1999 -7.48385 -8.18093
17.6189 -7.63997 -6.51093
16.4789 -7.4799 -5.54293
16.3169 -6.8486 -10.1369
17.3799 -7.34803 -8.92593
18.7739 -7.51077 -7.45693
21.3969 -7.20018 -4.38493
20.2049 -7.41937 -5.81993
20.3009 -7.27552 -3.36193
19.0749 -7.52386 -4.79293
19.1649 -6.98327 -2.33393
17.9249 -7.29954 -3.76993
14.4229 -1.93888 -9.07593
13.7079 -3.10707 -9.71493
15.5169 -2.12857 -9.97993
14.8209 -3.29034 -10.6339
14.4909 -4.63244 -10.8089
13.3559 -4.45942 -9.87593
16.6689 -2.4819 -10.5469
16.0959 -3.54566 -11.1889
15.8629 -4.76975 -11.3859
15.8739 -5.92995 -10.9959
14.5489 -5.92452 -10.4499
13.4279 -5.76842 -9.53493
18.7639 -0.742694 -3.88493
17.7709 -0.666184 -5.12693
19.8939 -0.810354 -4.95293
18.9219 -0.798014 -6.16093
17.7519 -0.959714 -7.56893
16.6109 -0.777964 -6.60693
21.0209 -1.22854 -5.84893
20.0639 -1.25006 -7.07193
18.8889 -1.42109 -8.42693
17.6779 -1.80271 -9.60593
16.5549 -1.37746 -8.89993
15.4429 -1.18236 -7.98193
19.0449 -5.98981 -0.949926
18.5539 -4.86464 -0.723926
19.4749 -5.79539 -0.863926
18.9139 -4.75627 -0.707926
18.6549 -3.56909 -0.897926
18.3539 -3.56105 -0.902926
19.6359 -5.67789 -0.967926
19.6139 -5.63116 -1.18393
19.0819 -4.71224 -1.06293
19.0749 -4.70812 -0.840926
18.8289 -3.6679 -1.23893
18.8079 -3.60599 -1.02693
18.8709 -2.66836 -1.66093
19.2259 -1.88388 -2.27793
19.2259 -1.72325 -2.12293
18.8519 -2.55114 -1.47093
19.0499 -1.54268 -2.08793
18.6819 -2.43112 -1.37793
18.6279 -1.34055 -2.23593
18.3239 -2.30642 -1.43493
22.8949 -6.50386 -4.41793
22.0719 -6.97957 -3.52293
23.1199 -6.33107 -3.96293
22.3489 -6.779 -3.10993
21.3719 -6.82227 -2.21793
21.0309 -7.03495 -2.55693
23.0699 -6.19892 -3.82593
22.8709 -6.12487 -3.89393
22.1839 -6.52381 -3.12993
22.3469 -6.61993 -3.01993
21.3139 -6.55948 -2.34093
21.4289 -6.65758 -2.18793
20.4079 -6.25442 -1.65093
20.4729 -6.33563 -1.45993
20.3539 -6.48923 -1.41793
19.9459 -6.70914 -1.62993
22.5009 -2.03742 -5.62693
23.1159 -3.13233 -5.78993
22.6919 -2.12278 -5.15993
23.2859 -3.15456 -5.30093
23.5679 -4.32746 -5.11293
23.3989 -4.37712 -5.60593
22.6499 -2.24263 -4.97093
22.4719 -2.37603 -4.97993
23.0059 -3.29521 -5.10193
23.2119 -3.21267 -5.09993
23.2629 -4.34007 -4.92893
23.4829 -4.31536 -4.91693
23.2239 -5.34013 -4.50993
23.4429 -5.37075 -4.47493
23.5199 -5.45009 -4.64893
23.3319 -5.56867 -5.13093
19.4329 -0.903184 -3.22293
19.8149 -1.10412 -2.96293
20.7949 -1.07715 -3.85993
20.4949 -0.914714 -4.22293
19.9099 -1.48468 -3.04093
19.9479 -1.30196 -2.92693
20.7779 -1.44849 -3.82693
20.8619 -1.26376 -3.75593
21.6799 -1.75303 -4.51393
21.8149 -1.58516 -4.48093
21.8079 -1.42351 -4.63593
21.5729 -1.2955 -5.06493
19.4939 -5.64908 -1.43293
18.9799 -4.76067 -1.31593
19.3709 -5.65464 -1.73593
18.8779 -4.81049 -1.62693
18.6409 -3.85142 -1.79193
18.7349 -3.751 -1.48593
19.3399 -5.57084 -2.11093
18.8849 -4.81878 -2.02393
18.6609 -3.96527 -2.17993
19.0199 -2.48671 -3.01093
18.7109 -3.13822 -2.51393
19.0149 -2.20794 -2.74193
18.6839 -2.93096 -2.17693
19.1189 -2.02622 -2.49093
18.7759 -2.78466 -1.89393
22.6439 -6.1264 -4.05493
21.9809 -6.5121 -3.31493
22.3689 -6.10873 -4.22993
21.7339 -6.47805 -3.52993
20.9299 -6.513 -2.80693
21.1379 -6.54658 -2.55193
22.0209 -5.97706 -4.34293
21.4429 -6.31494 -3.72593
20.7139 -6.35287 -3.09093
19.9809 -6.09352 -2.50993
20.0989 -6.23034 -2.16893
20.2619 -6.25165 -1.88493
22.2589 -2.50203 -5.10393
22.7749 -3.39069 -5.22193
22.0029 -2.66063 -5.22893
22.4909 -3.50781 -5.34593
22.7249 -4.47014 -5.19093
23.0239 -4.40086 -5.05493
21.6939 -2.89186 -5.23693
22.1239 -3.65526 -5.35493
22.3249 -4.5203 -5.22893
22.3029 -5.33653 -4.86793
22.6919 -5.38826 -4.80093
22.9859 -5.36771 -4.64993
19.7809 -1.64027 -3.22893
19.6409 -1.84117 -3.44793
20.4359 -1.80855 -4.17593
20.6199 -1.60528 -3.98993
19.5709 -2.15981 -3.65593
20.2719 -2.1327 -4.31893
21.0279 -2.38052 -4.86893
21.2699 -2.08796 -4.80393
21.4939 -1.89971 -4.65393
9.83794 -2.91531 1.59707
9.78394 -4.21736 -1.76293
9.71994 -4.58175 -1.01293
9.68194 -4.70482 -0.133926
11.7079 -4.53109 -0.0899261
11.8149 -3.95729 0.144074
12.8009 -4.73439 -0.882926
12.9439 -4.15093 -0.662926
13.0009 -3.44979 -0.719926
11.8779 -3.26668 0.0950738
13.9339 -4.96201 -1.61393
14.1269 -4.34966 -1.39493
14.1799 -3.6171 -1.45893
13.9199 -2.2745 -2.23993
14.1059 -2.88512 -1.75593
12.8749 -2.15834 -1.47493
12.9759 -2.74694 -1.00593
11.8679 -1.99235 -0.663926
11.8969 -2.5736 -0.189926
11.7919 -1.63728 -1.28193
12.7039 -1.79993 -2.08293
12.4909 -1.67415 -2.73993
11.6809 -1.51108 -1.95293
13.6339 -1.90603 -2.86393
13.2949 -1.78131 -3.53493
12.6359 -2.26951 -4.65993
12.9469 -1.90193 -4.16393
12.0529 -2.1301 -3.84693
12.2649 -1.7834 -3.35793
11.4189 -1.95621 -3.09293
11.5519 -1.61649 -2.58693
11.2959 -2.53297 -3.38093
11.8849 -2.71668 -4.11993
11.7789 -3.42406 -4.16893
11.2009 -3.22949 -3.44193
12.4069 -2.88563 -4.93093
12.2819 -3.62574 -4.97293
12.4349 -4.97967 -4.34893
12.2839 -4.36527 -4.77993
11.8299 -4.72487 -3.56993
11.7539 -4.13315 -3.98793
11.1639 -4.51268 -2.84793
11.1509 -3.92848 -3.26793
11.2569 -4.8648 -2.17493
12.0259 -5.08016 -2.90993
12.2889 -5.1997 -2.14793
11.3979 -4.98509 -1.39393
12.7559 -5.34436 -3.67293
13.1669 -5.46154 -2.89593
13.5869 -5.33336 -2.16193
12.5639 -5.08421 -1.42493
11.5589 -4.87377 -0.650926
3 0 1 2
3 0 2 3
3 2 4 5
3 2 5 3
3 5 6 7
3 5 7 3
3 7 8 0
3 7 0 3
3 9 10 11
3 9 11 12
3 11 13 14
3 11 14 12
3 14 6 5
3 14 5 12
3 5 4 9
3 5 9 12
3 15 16 17
3 15 17 18
3 17 19 20
3 17 20 18
3 20 6 14
3 20 14 18
3 14 13 15
3 14 15 18
3 21 22 23
3 21 23 24
3 23 8 7
3 23 7 24
3 7 6 20
3 7 20 24
3 20 19 21
3 20 21 24
3 25 26 27
3 26 28 29
3 26 29 27
3 29 30 31
3 29 31 27
3 31 32 25
3 31 25 27
3 33 34 35
3 33 35 36
3 35 37 38
3 35 38 36
3 38 30 29
3 38 29 36
3 29 28 33
3 29 33 36
3 39 40 41
3 39 41 42
3 41 43 44
3 41 44 42
3 44 30 38
3 44 38 42
3 38 37 39
3 38 39 42
3 45 46 47
3 46 32 31
3 46 31 47
3 31 30 44
3 31 44 47
3 44 43 45
3 44 45 47
3 48 49 50
3 48 50 51
3 50 52 53
3 50 53 51
3 53 54 55
3 53 55 51
3 55 56 48
3 55 48 51
3 57 58 59
3 57 59 60
3 59 61 62
3 59 62 60
3 62 54 53
3 62 53 60
3 53 52 57
3 53 57 60
3 63 34 33
3 63 33 64
3 33 28 65
3 33 65 64
3 65 54 62
3 65 62 64
3 62 61 63
3 62 63 64
3 26 66 67
3 66 56 55
3 66 55 67
3 55 54 65
3 55 65 67
3 65 28 26
3 65 26 67
3 68 69 70
3 68 70 71
3 70 72 73
3 70 73 71
3 74 75 76
3 74 76 77
3 76 78 79
3 76 79 77
3 79 72 70
3 79 70 77
3 70 69 74
3 70 74 77
3 80 58 57
3 80 57 81
3 57 52 82
3 57 82 81
3 82 72 79
3 82 79 81
3 79 78 80
3 79 80 81
3 50 49 83
3 50 83 84
3 83 73 84
3 73 72 82
3 73 82 84
3 82 52 50
3 82 50 84
3 85 45 86
3 45 43 87
3 45 87 86
3 87 88 89
3 87 89 86
3 89 90 85
3 89 85 86
3 41 40 91
3 41 91 92
3 91 93 94
3 91 94 92
3 94 88 87
3 94 87 92
3 87 43 41
3 87 41 92
3 95 75 74
3 95 74 96
3 74 69 97
3 74 97 96
3 97 88 94
3 97 94 96
3 94 93 95
3 94 95 96
3 68 98 99
3 98 90 89
3 98 89 99
3 89 88 97
3 89 97 99
3 97 69 68
3 97 68 99
3 100 101 102
3 100 102 103
3 102 104 105
3 102 105 103
3 105 106 107
3 105 107 103
3 107 108 100
3 107 100 103
3 109 110 111
3 109 111 112
3 111 113 114
3 111 114 112
3 114 106 105
3 114 105 112
3 105 104 109
3 105 109 112
3 115 116 117
3 115 117 118
3 117 119 120
3 117 120 118
3 120 106 114
3 120 114 118
3 114 113 115
3 114 115 118
3 121 122 123
3 121 123 124
3 123 108 107
3 123 107 124
3 107 106 120
3 107 120 124
3 120 119 121
3 120 121 124
3 125 126 127
3 125 127 128
3 127 129 130
3 127 130 128
3 130 131 132
3 130 132 128
3 132 133 125
3 132 125 128
3 134 135 136
3 134 136 137
3 136 138 139
3 136 139 137
3 139 131 130
3 139 130 137
3 130 129 134
3 130 134 137
3 140 110 109
3 140 109 141
3 109 104 142
3 109 142 141
3 142 131 139
3 142 139 141
3 139 138 140
3 139 140 141
3 102 101 143
3 102 143 144
3 143 133 132
3 143 132 144
3 132 131 142
3 132 142 144
3 142 104 102
3 142 102 144
3 145 146 147
3 145 147 148
3 147 149 150
3 147 150 148
3 150 151 152
3 150 152 148
3 152 153 145
3 152 145 148
3 154 155 156
3 154 156 157
3 156 158 159
3 156 159 157
3 159 151 150
3 159 150 157
3 150 149 154
3 150 154 157
3 160 135 134
3 160 134 161
3 134 129 162
3 134 162 161
3 162 151 159
3 162 159 161
3 159 158 160
3 159 160 161
3 127 126 163
3 127 163 164
3 163 153 152
3 163 152 164
3 152 151 162
3 152 162 164
3 162 129 127
3 162 127 164
3 165 122 121
3 165 121 166
3 121 119 167
3 121 167 166
3 167 168 169
3 167 169 166
3 169 170 165
3 169 165 166
3 117 116 171
3 117 171 172
3 171 173 174
3 171 174 172
3 174 168 167
3 174 167 172
3 167 119 117
3 167 117 172
3 175 155 154
3 175 154 176
3 154 149 177
3 154 177 176
3 177 168 174
3 177 174 176
3 174 173 175
3 174 175 176
3 147 146 178
3 147 178 179
3 178 170 169
3 178 169 179
3 169 168 177
3 169 177 179
3 177 149 147
3 177 147 179
3 180 181 182
3 180 182 183
3 182 184 185
3 182 185 183
3 185 186 187
3 185 187 183
3 187 188 180
3 187 180 183
3 189 190 191
3 189 191 192
3 191 193 194
3 191 194 192
3 194 186 185
3 194 185 192
3 185 184 189
3 185 189 192
3 195 196 197
3 195 197 198
3 197 199 200
3 197 200 198
3 200 186 194
3 200 194 198
3 194 193 195
3 194 195 198
3 201 202 203
3 201 203 204
3 203 188 187
3 203 187 204
3 187 186 200
3 187 200 204
3 200 199 201
3 200 201 204
3 136 135 205
3 136 205 206
3 205 207 208
3 205 208 206
3 208 209 210
3 208 210 206
3 210 138 136
3 210 136 206
3 211 10 9
3 211 9 212
3 9 4 213
3 9 213 212
3 213 209 208
3 213 208 212
3 208 207 211
3 208 211 212
3 2 1 214
3 2 214 215
3 214 216 217
3 214 217 215
3 217 209 213
3 217 213 215
3 213 4 2
3 213 2 215
3 218 110 140
3 218 140 219
3 140 138 210
3 140 210 219
3 210 209 217
3 210 217 219
3 217 216 218
3 217 218 219
3 156 155 220
3 156 220 221
3 220 222 223
3 220 223 221
3 223 224 225
3 223 225 221
3 225 158 156
3 225 156 221
3 226 16 15
3 226 15 227
3 15 13 228
3 15 228 227
3 228 224 223
3 228 223 227
3 223 222 226
3 223 226 227
3 11 10 211
3 11 211 229
3 211 207 230
3 211 230 229
3 230 224 228
3 230 228 229
3 228 13 11
3 228 11 229
3 205 135 160
3 205 160 231
3 160 158 225
3 160 225 231
3 225 224 230
3 225 230 231
3 230 207 205
3 230 205 231
3 171 116 232
3 171 232 233
3 232 234 235
3 232 235 233
3 235 236 237
3 235 237 233
3 237 173 171
3 237 171 233
3 238 22 21
3 238 21 239
3 21 19 240
3 21 240 239
3 240 236 235
3 240 235 239
3 235 234 238
3 235 238 239
3 17 16 226
3 17 226 241
3 226 222 242
3 226 242 241
3 242 236 240
3 242 240 241
3 240 19 17
3 240 17 241
3 220 155 175
3 220 175 243
3 175 173 237
3 175 237 243
3 237 236 242
3 237 242 243
3 242 222 220
3 242 220 243
3 111 110 244
3 111 244 245
3 244 246 247
3 244 247 245
3 247 248 249
3 247 249 245
3 249 113 111
3 249 111 245
3 250 251 252
3 250 252 253
3 252 254 255
3 252 255 253
3 255 248 247
3 255 247 253
3 247 246 250
3 247 250 253
3 256 257 258
3 256 258 259
3 258 260 261
3 258 261 259
3 261 248 255
3 261 255 259
3 255 254 256
3 255 256 259
3 262 116 115
3 262 115 263
3 115 113 249
3 115 249 263
3 249 248 261
3 249 261 263
3 261 260 262
3 261 262 263
3 214 1 264
3 214 264 265
3 264 266 267
3 264 267 265
3 267 268 269
3 267 269 265
3 269 216 214
3 269 214 265
3 270 271 272
3 270 272 273
3 272 274 275
3 272 275 273
3 275 268 267
3 275 267 273
3 267 266 270
3 267 270 273
3 276 251 250
3 276 250 277
3 250 246 278
3 250 278 277
3 278 268 275
3 278 275 277
3 275 274 276
3 275 276 277
3 244 110 218
3 244 218 279
3 218 216 269
3 218 269 279
3 269 268 278
3 269 278 279
3 278 246 244
3 278 244 279
3 23 22 280
3 23 280 281
3 280 282 283
3 280 283 281
3 283 284 285
3 283 285 281
3 285 8 23
3 285 23 281
3 286 287 288
3 286 288 289
3 288 290 291
3 288 291 289
3 291 284 283
3 291 283 289
3 283 282 286
3 283 286 289
3 292 271 270
3 292 270 293
3 270 266 294
3 270 294 293
3 294 284 291
3 294 291 293
3 291 290 292
3 291 292 293
3 264 1 0
3 264 0 295
3 0 8 285
3 0 285 295
3 285 284 294
3 285 294 295
3 294 266 264
3 294 264 295
3 232 116 262
3 232 262 296
3 262 260 297
3 262 297 296
3 297 298 299
3 297 299 296
3 299 234 232
3 299 232 296
3 258 257 300
3 258 300 301
3 300 302 303
3 300 303 301
3 303 298 297
3 303 297 301
3 297 260 258
3 297 258 301
3 304 287 286
3 304 286 305
3 286 282 306
3 286 306 305
3 306 298 303
3 306 303 305
3 303 302 304
3 303 304 305
3 280 22 238
3 280 238 307
3 238 234 299
3 238 299 307
3 299 298 306
3 299 306 307
3 306 282 280
3 306 280 307
3 252 251 308
3 252 308 309
3 308 310 311
3 308 311 309
3 311 312 313
3 311 313 309
3 313 254 252
3 313 252 309
3 314 181 180
3 314 180 315
3 180 188 316
3 180 316 315
3 316 312 311
3 316 311 315
3 311 310 314
3 311 314 315
3 203 202 317
3 203 317 318
3 317 319 320
3 317 320 318
3 320 312 316
3 320 316 318
3 316 188 203
3 316 203 318
3 321 257 256
3 321 256 322
3 256 254 313
3 256 313 322
3 313 312 320
3 313 320 322
3 320 319 321
3 320 321 322
3 272 271 323
3 272 323 324
3 323 325 326
3 323 326 324
3 326 327 328
3 326 328 324
3 328 274 272
3 328 272 324
3 329 190 189
3 329 189 330
3 189 184 331
3 189 331 330
3 331 327 326
3 331 326 330
3 326 325 329
3 326 329 330
3 182 181 314
3 182 314 332
3 314 310 333
3 314 333 332
3 333 327 331
3 333 331 332
3 331 184 182
3 331 182 332
3 308 251 276
3 308 276 334
3 276 274 328
3 276 328 334
3 328 327 333
3 328 333 334
3 333 310 308
3 333 308 334
3 288 287 335
3 288 335 336
3 335 337 338
3 335 338 336
3 338 339 340
3 338 340 336
3 340 290 288
3 340 288 336
3 341 196 195
3 341 195 342
3 195 193 343
3 195 343 342
3 343 339 338
3 343 338 342
3 338 337 341
3 338 341 342
3 191 190 329
3 191 329 344
3 329 325 345
3 329 345 344
3 345 339 343
3 345 343 344
3 343 193 191
3 343 191 344
3 323 271 292
3 323 292 346
3 292 290 340
3 292 340 346
3 340 339 345
3 340 345 346
3 345 325 323
3 345 323 346
3 300 257 321
3 300 321 347
3 321 319 348
3 321 348 347
3 348 349 350
3 348 350 347
3 350 302 300
3 350 300 347
3 317 202 201
3 317 201 351
3 201 199 352
3 201 352 351
3 352 349 348
3 352 348 351
3 348 319 317
3 348 317 351
3 197 196 341
3 197 341 353
3 341 337 354
3 341 354 353
3 354 349 352
3 354 352 353
3 352 199 197
3 352 197 353
3 335 287 304
3 335 304 355
3 304 302 350
3 304 350 355
3 350 349 354
3 350 354 355
3 354 337 335
3 354 335 355
3 25 32 356
3 356 32 46
3 83 49 357
3 357 49 48
3 357 48 358
3 48 56 359
3 48 359 358
3 359 56 66
3 35 34 360
3 35 360 361
3 360 362 363
3 360 363 361
3 363 364 365
3 363 365 361
3 365 37 35
3 365 35 361
3 366 101 100
3 366 100 367
3 100 108 368
3 100 368 367
3 368 364 363
3 368 363 367
3 363 362 366
3 363 366 367
3 123 122 369
3 123 369 370
3 369 371 372
3 369 372 370
3 372 364 368
3 372 368 370
3 368 108 123
3 368 123 370
3 373 40 39
3 373 39 374
3 39 37 365
3 39 365 374
3 365 364 372
3 365 372 374
3 372 371 373
3 372 373 374
3 91 40 373
3 91 373 375
3 373 371 376
3 373 376 375
3 376 377 378
3 376 378 375
3 378 93 91
3 378 91 375
3 369 122 165
3 369 165 379
3 165 170 380
3 165 380 379
3 380 377 376
3 380 376 379
3 376 371 369
3 376 369 379
3 178 146 381
3 178 381 382
3 381 383 384
3 381 384 382
3 384 377 380
3 384 380 382
3 380 170 178
3 380 178 382
3 385 75 95
3 385 95 386
3 95 93 378
3 95 378 386
3 378 377 384
3 378 384 386
3 384 383 385
3 384 385 386
3 76 75 385
3 76 385 387
3 385 383 388
3 385 388 387
3 388 389 390
3 388 390 387
3 390 78 76
3 390 76 387
3 381 146 145
3 381 145 391
3 145 153 392
3 145 392 391
3 392 389 388
3 392 388 391
3 388 383 381
3 388 381 391
3 163 126 393
3 163 393 394
3 393 395 396
3 393 396 394
3 396 389 392
3 396 392 394
3 392 153 163
3 392 163 394
3 397 58 80
3 397 80 398
3 80 78 390
3 80 390 398
3 390 389 396
3 390 396 398
3 396 395 397
3 396 397 398
3 59 58 397
3 59 397 399
3 397 395 400
3 397 400 399
3 400 401 402
3 400 402 399
3 402 61 59
3 402 59 399
3 393 126 125
3 393 125 403
3 125 133 404
3 125 404 403
3 404 401 400
3 404 400 403
3 400 395 393
3 400 393 403
3 143 101 366
3 143 366 405
3 366 362 406
3 366 406 405
3 406 401 404
3 406 404 405
3 404 133 143
3 404 143 405
3 360 34 63
3 360 63 407
3 63 61 402
3 63 402 407
3 402 401 406
3 402 406 407
3 406 362 360
3 406 360 407
