OFF
1124 2142 0
-2.40439 5.5513 7.00597
-2.44059 5.5512 6.99257
-2.44879 5.5292 7.00597
-2.40019 5.5219 7.02327
-2.44879 4.1983 7.00597
-2.40019 4.1928 7.02327
-1.62099 4.1928 7.02327
-1.62099 5.5219 7.02327
-1.62409 5.5513 7.00597
-3.95699 8.3054 -1.72463
-2.77519 8.3054 -1.72463
-2.79079 8.2719 -1.74323
-3.97809 8.2719 -1.74323
-2.79079 6.2466 -1.74323
-3.97809 6.2466 -1.74323
-4.04569 5.7997 -1.44183
-4.04569 7.6735 -1.44183
-4.04009 7.9249 -1.51853
-1.84829 -9.2878 3.90767
-1.21189 -9.2878 3.90767
-1.21189 -9.2878 4.43487
-1.84829 -9.2878 4.43487
-1.40919 -9.09843 4.67647
-2.11449 -9.09843 4.67657
-2.15469 -9.09843 4.67647
-1.88449 -9.2878 4.43487
-1.88449 -9.2878 3.90767
5.29281 3.2282 3.77317
5.29281 2.4798 3.77317
5.29281 2.1557 3.54997
5.29281 2.7943 3.54997
5.29281 2.1557 3.23987
5.29281 2.7943 3.23987
-3.70039 -7.94206 6.08127
-2.58489 -7.94206 6.08127
-2.75669 -7.69221 6.31487
-3.93209 -7.69221 6.31487
-2.65469 -7.451 6.31487
-3.79449 -7.451 6.31487
-3.85929 -7.443 6.31487
-3.99899 -7.68405 6.31487
-3.96889 -7.62913 6.13867
5.21831 8.2249 6.31487
5.07881 7.984 6.31487
5.10561 7.9518 6.31487
5.24591 8.1917 6.31487
5.10561 6.0075 6.31487
5.24591 6.1867 6.31487
5.28111 6.0471 6.19047
5.28111 8.0047 6.19047
5.26571 8.1924 6.24917
-3.94549 8.2965 6.29637
-4.04349 8.0356 6.17067
-3.99899 8.2249 6.31487
-3.93209 8.236 6.31487
-3.85929 7.984 6.31487
-3.79449 7.9947 6.31487
-2.65469 7.9947 6.31487
-2.75669 8.236 6.31487
-2.76659 8.2965 6.29637
-4.05649 7.6535 6.01357
-4.02129 8.1917 6.31487
-4.05649 5.7847 6.01357
-4.02129 6.1867 6.31487
-3.88099 6.0075 6.31487
-3.88099 7.9518 6.31487
-2.99899 -6.0568 6.28607
-2.06489 -6.0568 6.28607
-2.03909 -5.9959 6.19967
-2.96419 -5.9959 6.19967
-2.00309 -5.9107 6.04557
-2.91559 -5.9107 6.04557
-2.96749 -5.9044 6.04557
-3.01679 -5.9895 6.19967
-3.05209 -6.0504 6.28607
4.23731 6.5309 6.19967
4.18801 6.4459 6.04557
4.20951 6.4202 6.04557
4.25901 6.5048 6.19967
4.20951 4.8637 6.04557
4.25901 4.9269 6.19967
4.29451 4.9722 6.28607
4.29451 6.5654 6.28607
4.27251 6.5918 6.28607
-2.99899 6.6006 6.28607
-3.05209 6.5918 6.28607
-3.01679 6.5309 6.19967
-2.96419 6.5396 6.19967
-2.96749 6.4459 6.04557
-2.91559 6.4545 6.04557
-2.00309 6.4545 6.04557
-2.03909 6.5396 6.19967
-2.06489 6.6006 6.28607
-3.06979 6.5654 6.28607
-3.03439 6.5048 6.19967
-3.06979 4.9722 6.28607
-3.03439 4.9269 6.19967
-2.98479 4.8636 6.04557
-2.98479 6.4202 6.04557
-2.77659 -5.6672 5.61827
-1.90009 -5.6672 5.61827
-1.88019 -5.6201 5.57357
-2.74969 -5.6201 5.57357
-1.84739 -5.5427 5.75667
-2.70559 -5.5427 5.75667
-2.75439 -5.5368 5.75667
-2.79919 -5.6141 5.57357
-2.82649 -5.6611 5.61827
4.01991 6.1557 5.57357
3.97521 6.0784 5.75667
3.99531 6.0542 5.75667
4.04041 6.1311 5.57357
3.99531 4.5903 5.75667
4.04041 4.6478 5.57357
4.06781 4.6828 5.61827
4.06781 6.178 5.61827
4.04721 6.2028 5.61827
-2.77659 6.211 5.61827
-2.82649 6.2027 5.61827
-2.79919 6.1557 5.57357
-2.74969 6.1639 5.57357
-2.75439 6.0784 5.75667
-2.70559 6.0865 5.75667
-1.84739 6.0865 5.75667
-1.88019 6.1639 5.57357
-1.90009 6.211 5.61827
-2.84319 6.178 5.61827
-2.81569 6.1311 5.57357
-2.84319 4.6828 5.61827
-2.81569 4.6478 5.57357
-2.77069 4.5903 5.75667
-2.77069 6.0542 5.75667
-3.71189 -7.95397 -1.50953
-2.59349 -7.95397 -1.50953
-2.00139 -8.53032 -0.808535
-2.91319 -8.53032 -0.808535
-1.40919 -9.09843 -0.0894346
-2.11449 -9.09843 -0.0894346
-2.15469 -9.09843 -0.0894346
-2.96509 -8.53032 -0.808535
-3.93819 -7.58619 -1.49153
-2.96509 -8.53032 5.38017
-2.91319 -8.53032 5.38017
-2.00139 -8.53032 5.38017
5.19181 -7.74434 6.19637
5.02141 -7.96222 6.07627
5.29291 -7.77285 6.29497
5.29291 -7.5243 6.17117
5.03041 -7.97599 6.07567
5.30181 -7.78665 6.29447
5.30181 -7.78665 5.31117
5.29291 -7.77285 5.31157
5.29291 -7.5243 5.21807
4.18561 -8.53032 5.38017
3.37611 -9.09843 4.67647
3.39261 -9.09843 4.67657
4.20701 -8.53032 5.38017
3.40191 -9.11205 4.67617
4.21621 -8.54402 5.37977
3.10621 -9.2878 4.43487
3.10621 -9.2878 3.90767
3.12121 -9.2878 3.90767
3.12121 -9.2878 4.43487
3.13051 -9.30139 3.90747
3.13051 -9.30139 4.43457
4.18561 -8.53032 -0.808535
5.16051 -7.743 -1.56953
5.02141 -7.96222 -1.47573
4.20701 -8.53032 -0.808535
5.03041 -7.97599 -1.47523
4.21621 -8.54402 -0.808035
3.40191 -9.11205 -0.0890346
3.39261 -9.09843 -0.0894346
3.37611 -9.09843 -0.0894346
-4.06819 -7.1711 5.99517
-4.06819 -7.1711 5.08527
-4.06819 -7.77285 5.31157
-4.06819 -7.77285 6.29497
-4.07919 -7.78777 5.31337
-4.07919 -7.78777 6.29737
-3.80749 -7.97725 6.07847
-3.79679 -7.96222 6.07627
-2.16799 -9.09843 -0.0894346
-2.98239 -8.53032 -0.808535
-3.79679 -7.96222 -1.47573
-2.16799 -9.09843 4.67657
-1.89659 -9.2878 4.43487
-2.17779 -9.11414 4.67797
-1.90619 -9.30362 4.43617
-1.90619 -9.30362 3.90867
-1.89659 -9.2878 3.90767
-2.98239 -8.53032 5.38017
-2.99269 -8.54569 5.38207
5.05751 -8.01732 6.07407
5.32881 -7.82807 6.29267
5.08921 -8.06568 6.07217
5.36041 -7.87652 6.29067
5.36041 -7.87652 5.30827
5.32881 -7.82807 5.30987
3.42971 -9.15288 4.67517
4.24361 -8.5851 5.37837
3.46221 -9.20066 4.67397
4.27571 -8.63317 5.37687
3.15841 -9.34214 3.90677
3.15841 -9.34214 4.43357
3.19111 -9.38983 3.90597
3.19111 -9.38983 4.43247
5.05751 -8.01733 -1.47353
4.24361 -8.5851 -0.806735
4.27571 -8.63317 -0.805135
3.46221 -9.20066 -0.0868346
3.42971 -9.15288 -0.0880346
-4.11189 -7.83252 5.31877
-4.11189 -7.83252 6.30457
-4.15099 -7.886 6.31307
-3.87829 -8.07622 6.09337
-3.83979 -8.02234 6.08527
-2.20719 -9.16126 4.68217
-1.93509 -9.35108 4.43997
-2.24219 -9.21756 4.68727
-1.96949 -9.40778 4.44457
-1.93509 -9.35108 3.91157
-3.02349 -8.5918 5.38757
-3.06029 -8.64689 5.39417
5.29291 -6.7715 5.81267
5.29291 -6.7787 5.79957
5.29291 -6.7787 4.93767
5.29291 -6.0294 4.65587
5.29291 -6.0294 5.42617
5.29291 -6.0229 5.43777
5.29291 5.5083 -1.24533
5.26501 6.062 -1.61873
5.26501 8.0247 -1.61873
5.29291 7.2833 -1.24533
5.26131 8.1506 -1.63083
5.29291 7.3127 -1.21573
5.29291 6.5644 -0.843535
5.29291 6.5381 -0.870035
5.29291 4.9518 -0.870035
5.29291 7.3225 4.93767
5.27131 8.0681 5.20417
5.27131 8.0681 6.15267
5.29291 7.3225 5.79957
5.29291 7.3127 5.81267
5.29291 6.5644 5.43777
5.29291 6.5731 5.42617
5.29291 6.5731 4.65587
5.29291 6.5381 5.44167
5.29291 7.2833 5.81697
5.29291 5.5083 5.81697
5.29291 4.9518 5.44167
5.29381 4.5476 0.141465
5.29381 3.2406 0.807565
5.29281 3.2282 0.807565
5.29281 4.5298 0.141465
5.29281 2.4798 0.807565
5.29281 3.4519 0.141465
5.29291 4.4267 -0.515935
5.29291 5.8351 -0.515935
5.29351 6.0169 -0.577735
5.29381 4.5476 4.43027
5.29351 6.0169 5.16327
5.29291 5.8351 5.08767
5.29281 4.5298 4.43027
5.29291 4.4267 5.08767
5.29281 3.4519 4.43027
5.29681 -4.0054 0.141465
5.29681 -2.6979 0.807565
5.30861 -2.7009 0.807565
5.30861 -4.0098 0.141465
5.30861 -5.3187 -0.488835
5.29541 -5.4745 -0.577735
5.29681 -2.262 3.54997
5.29681 -2.6979 3.77317
5.30861 -2.7009 3.77317
5.30861 -2.2646 3.54997
5.30861 -2.2646 3.23987
5.29681 -2.262 3.23987
5.29681 -4.0054 4.43027
-4.06819 -2.949 3.49727
-4.06819 -3.5583 3.72647
-4.06819 -3.5583 4.19467
-4.06819 -2.949 3.89097
-4.06819 -3.5543 4.20177
-4.06819 -2.9457 3.89697
-4.06899 -2.9382 3.89327
-4.06899 -2.9415 3.88727
-4.06899 -2.9415 3.49447
-4.06819 2.664 3.89897
-4.06819 3.1165 4.20407
-4.06819 4.0807 4.20407
-4.06819 3.4749 3.89897
-4.06819 4.0967 4.20177
-4.06819 3.4883 3.89697
-4.06899 3.4808 3.89327
-4.06899 3.4674 3.89527
-4.06899 2.6584 3.89527
-4.06819 4.102 4.19467
-4.06819 3.4927 3.89097
-4.06819 4.102 3.72637
-4.06819 3.4927 3.49727
-4.06899 3.4853 3.88727
-4.06819 3.4883 0.686265
-4.06819 4.0967 0.383665
-4.06819 4.0807 0.367565
-4.06819 3.4749 0.672765
-4.06819 3.1165 0.367565
-4.06819 2.664 0.672765
-4.06899 2.6584 0.676465
-4.06899 3.4674 0.676465
-4.06899 3.4808 0.689965
-3.39739 8.3166 5.80517
-2.36029 8.3166 5.80517
-1.38239 8.3166 4.64747
-2.07829 8.3166 4.64747
-0.396385 8.3166 3.48007
-0.748285 8.3166 3.48007
-0.768385 8.3166 3.47867
-2.11799 8.3166 4.64457
-3.45639 8.3166 5.80087
4.70071 8.3166 5.78777
4.70071 8.3166 4.92877
3.35581 8.3166 4.05937
3.35581 8.3166 4.63577
1.99971 8.3166 3.18267
1.99971 8.3166 3.47417
1.99141 8.3166 3.47867
3.33941 8.3166 4.64457
4.67641 8.3166 5.80087
-3.39739 8.3166 -1.23353
-3.45639 8.3166 -1.20403
-2.11799 8.3166 -0.0559346
-2.07829 8.3166 -0.0757346
-0.768385 8.3166 1.10157
-0.748285 8.3166 1.09157
-0.396385 8.3166 1.09157
-1.38239 8.3166 -0.0757346
-2.36029 8.3166 -1.23353
-3.47609 8.3166 5.78777
-2.13119 8.3166 4.63577
-0.775085 8.3166 3.47417
-0.775085 8.3166 3.18267
-2.13119 8.3166 4.05937
-3.47609 8.3166 4.92877
-0.123085 8.3314 2.93097
0.0671146 8.3314 2.93097
0.0909146 8.3758 2.90177
-0.0910854 8.3758 2.90177
-0.101385 8.3758 2.90107
-0.133985 8.3314 2.93017
1.36221 8.3314 2.92787
1.36221 8.3312 2.77037
1.32951 8.3748 2.74847
1.32951 8.3758 2.89877
1.32521 8.3758 2.90107
1.35771 8.3314 2.93017
-0.123085 8.3294 1.64067
-0.133985 8.3294 1.64607
-0.101385 8.3678 1.67507
-0.0910854 8.3678 1.66987
0.0909146 8.3678 1.66987
0.0671146 8.3294 1.64067
-0.137585 8.3314 2.92787
-0.104885 8.3758 2.89877
-0.104885 8.3748 2.74847
-0.137585 8.3312 2.77037
-0.00428542 8.3166 3.01587
-0.219385 8.3166 3.01587
-0.231685 8.3166 3.01497
-0.235785 8.3166 3.01227
-0.235785 8.3166 2.83407
-0.231685 8.3166 1.56197
-0.219385 8.3166 1.55577
-0.00428542 8.3166 1.55577
1.46041 8.3166 2.83407
1.46041 8.3166 3.01227
1.45531 8.3166 3.01497
3.85591 5.8725 6.24457
3.73431 5.6626 6.74217
3.75311 5.6401 6.74217
3.87541 5.8491 6.24457
3.75311 4.2811 6.74217
3.87541 4.4372 6.24457
-1.76019 -5.3366 6.24457
-2.58789 -5.3366 6.24457
-1.67129 -5.1263 6.74217
-2.46799 -5.1263 6.74217
-2.51329 -5.1208 6.74217
-2.63509 -5.3308 6.24457
-2.63509 5.8725 6.24457
-2.65079 5.8491 6.24457
-2.65079 4.4372 6.24457
-2.52839 4.2811 6.74217
-2.52839 5.6401 6.74217
-2.51329 5.6626 6.74217
-2.58789 5.8803 6.24457
-2.46799 5.6701 6.74217
-1.67129 5.6701 6.74217
-1.76019 5.8803 6.24457
3.68251 5.5731 6.95407
3.65891 5.5512 6.99257
3.66991 5.5292 7.00597
3.70091 5.551 6.95407
3.66991 4.1983 7.00597
3.70091 4.2145 6.95407
-1.63339 -5.0367 6.95407
-2.41689 -5.0367 6.95407
-1.62409 -5.0094 7.00597
-2.40439 -5.0094 7.00597
-2.44059 -5.0109 6.99257
-2.46149 -5.0313 6.95407
-2.46149 5.5731 6.95407
-2.47629 5.551 6.95407
-2.47629 4.2145 6.95407
-2.41689 5.5805 6.95407
-1.63339 5.5805 6.95407
4.30471 6.6474 6.31487
4.32681 6.6207 6.31487
4.32681 5.0135 6.31487
4.45511 5.1772 6.31487
4.45511 6.84 6.31487
4.43221 6.8675 6.31487
-3.15649 -6.3329 6.31487
-2.18169 -6.3329 6.31487
-2.08849 -6.1125 6.31487
-3.03069 -6.1125 6.31487
-3.08429 -6.1059 6.31487
-3.21199 -6.3262 6.31487
-3.08429 6.6474 6.31487
-3.21199 6.8675 6.31487
-3.23049 6.84 6.31487
-3.10219 6.6207 6.31487
-3.23049 5.1772 6.31487
-3.10219 5.0135 6.31487
-3.15649 6.8767 6.31487
-3.03069 6.6562 6.31487
-2.08849 6.6562 6.31487
-2.18169 6.8767 6.31487
4.11391 6.318 5.81367
4.13491 6.2928 5.81367
4.13491 4.7685 5.81367
-1.94889 -5.7827 5.81367
-2.84249 -5.7827 5.81367
-2.89339 -5.7765 5.81367
-2.89339 6.318 5.81367
-2.91029 6.2928 5.81367
-2.91029 4.7685 5.81367
-2.84249 6.3264 5.81367
-1.94889 6.3264 5.81367
-2.41669 7.4322 6.31487
-3.47349 7.4322 6.31487
-3.53369 7.4223 6.31487
4.75351 7.4223 6.31487
4.77831 7.3925 6.31487
4.77831 5.5898 6.31487
-2.41669 -6.8885 6.31487
-3.47349 -6.8885 6.31487
-3.53369 -6.8811 6.31487
-3.55369 7.3925 6.31487
-3.55369 5.5898 6.31487
0.591015 8.2965 6.29637
0.591015 8.236 6.31487
0.591715 7.9947 6.31487
3.84321 7.9947 6.31487
3.94411 8.236 6.31487
3.95391 8.2965 6.29637
0.593615 8.3166 5.80517
0.599715 8.3166 4.64747
3.55211 8.3166 5.80517
2.58501 8.3166 4.64747
1.60991 8.3166 3.48007
0.605915 8.3166 3.48007
0.608415 8.3166 3.01587
1.22211 8.3166 3.01587
1.15151 8.3314 2.93097
0.608915 8.3314 2.93097
0.609015 8.3758 2.90177
1.12801 8.3758 2.90177
0.608915 8.3294 1.64067
0.609015 8.3678 1.66987
1.12801 8.3678 1.66987
1.15151 8.3294 1.64067
0.605915 8.3166 1.09157
0.608415 8.3166 1.55577
1.22211 8.3166 1.55577
1.60991 8.3166 1.09157
0.593615 8.3166 -1.23353
0.599715 8.3166 -0.0757346
2.58501 8.3166 -0.0757346
3.55211 8.3166 -1.23353
0.590915 8.3054 -1.72463
3.96241 8.3054 -1.72463
3.97791 8.2719 -1.74323
0.590815 8.2719 -1.74323
3.97791 6.2466 -1.74323
0.590815 6.2466 -1.74323
0.592115 -7.95397 -1.50953
0.595815 -8.53032 -0.808535
3.78271 -7.95397 -1.50953
3.19711 -8.53032 -0.808535
2.61151 -9.09843 -0.0894346
0.599615 -9.09843 -0.0894346
0.600815 -9.2878 3.90767
0.600815 -9.2878 4.43487
2.41631 -9.2878 3.90767
2.41631 -9.2878 4.43487
2.61151 -9.09843 4.67647
0.599515 -9.09843 4.67657
0.592115 -7.94206 6.08127
0.595815 -8.53032 5.38017
3.19711 -8.53032 5.38017
3.77421 -7.94206 6.08127
0.591015 -7.69221 6.31487
3.94411 -7.69221 6.31487
3.84321 -7.451 6.31487
0.591715 -7.451 6.31487
0.593215 -6.8885 6.31487
3.60791 -6.8885 6.31487
3.37551 -6.3329 6.31487
0.594715 -6.3329 6.31487
0.595315 -6.1125 6.31487
3.28321 -6.1125 6.31487
3.26001 -6.0568 6.28607
0.595415 -6.0568 6.28607
0.595615 -5.9959 6.19967
3.23451 -5.9959 6.19967
3.19891 -5.9107 6.04557
0.595815 -5.9107 6.04557
0.596115 -5.7827 5.81367
3.14531 -5.7827 5.81367
3.09701 -5.6672 5.61827
0.596515 -5.6672 5.61827
0.596615 -5.6201 5.57357
3.07731 -5.6201 5.57357
3.04491 -5.5427 5.75667
0.596815 -5.5427 5.75667
0.597315 -5.3366 6.24457
2.95861 -5.3366 6.24457
2.87071 -5.1263 6.74217
0.597915 -5.1263 6.74217
0.598115 -5.0367 6.95407
2.83321 -5.0367 6.95407
2.82401 -5.0094 7.00597
0.598215 -5.0094 7.00597
0.598215 5.5513 7.00597
0.598215 5.5219 7.02327
0.598215 4.1928 7.02327
2.82101 4.1928 7.02327
2.82101 5.5219 7.02327
2.82401 5.5513 7.00597
0.597915 5.6701 6.74217
0.598115 5.5805 6.95407
2.83321 5.5805 6.95407
2.87071 5.6701 6.74217
0.596815 6.0865 5.75667
0.597315 5.8803 6.24457
2.95861 5.8803 6.24457
3.04491 6.0865 5.75667
0.596515 6.211 5.61827
0.596615 6.1639 5.57357
3.07731 6.1639 5.57357
3.09701 6.211 5.61827
0.595815 6.4545 6.04557
0.596115 6.3264 5.81367
3.14531 6.3264 5.81367
3.19891 6.4545 6.04557
0.595415 6.6006 6.28607
0.595615 6.5396 6.19967
3.23451 6.5396 6.19967
3.26001 6.6006 6.28607
0.594715 6.8767 6.31487
0.595315 6.6562 6.31487
3.28321 6.6562 6.31487
3.37551 6.8767 6.31487
3.60791 7.4322 6.31487
0.593215 7.4322 6.31487
5.14881 8.2965 6.29637
5.13551 8.236 6.31487
4.99851 7.9947 6.31487
4.60331 8.3166 5.80517
3.29041 8.3166 4.64747
1.96661 8.3166 3.48007
1.44021 8.3166 3.01587
1.34431 8.3314 2.93097
1.31241 8.3758 2.90177
1.34431 8.3294 1.64067
1.31241 8.3678 1.66987
1.32521 8.3678 1.67507
1.35771 8.3294 1.64607
1.96661 8.3166 1.09157
1.44021 8.3166 1.55577
1.45531 8.3166 1.56197
1.99141 8.3166 1.10157
4.60331 8.3166 -1.23353
3.29041 8.3166 -0.0757346
3.33941 8.3166 -0.0559346
4.67641 8.3166 -1.20403
5.16021 8.3054 -1.72463
5.18131 8.2719 -1.74323
5.18131 6.2466 -1.74323
4.91631 -7.95397 -1.50953
4.12131 -8.53032 -0.808535
3.32641 -9.09843 -0.0894346
3.06141 -9.2878 3.90767
3.06141 -9.2878 4.43487
3.32641 -9.09843 4.67657
4.90481 -7.94206 6.08127
4.12131 -8.53033 5.38017
5.13551 -7.69221 6.31487
5.21831 -7.68405 6.31487
5.07881 -7.443 6.31487
4.99851 -7.451 6.31487
4.67901 -6.8885 6.31487
4.75351 -6.8811 6.31487
4.43221 -6.3262 6.31487
4.36351 -6.3329 6.31487
4.23831 -6.1125 6.31487
4.30471 -6.1059 6.31487
4.27251 -6.0504 6.28607
4.20671 -6.0568 6.28607
4.17211 -5.9959 6.19967
4.23731 -5.9895 6.19967
4.18801 -5.9044 6.04557
4.12371 -5.9107 6.04557
4.05101 -5.7827 5.81367
4.11391 -5.7765 5.81367
4.04721 -5.6611 5.61827
3.98541 -5.6672 5.61827
3.95861 -5.6201 5.57357
4.01991 -5.6141 5.57357
3.97521 -5.5368 5.75667
3.91471 -5.5427 5.75667
3.79761 -5.3366 6.24457
3.85591 -5.3308 6.24457
3.73431 -5.1208 6.74217
3.67821 -5.1263 6.74217
3.62731 -5.0367 6.95407
3.68251 -5.0313 6.95407
3.65891 -5.0109 6.99257
3.61491 -5.0094 7.00597
3.61491 5.5513 7.00597
3.61071 5.5219 7.02327
3.61071 4.1928 7.02327
3.67821 5.6701 6.74217
3.62731 5.5805 6.95407
3.91471 6.0865 5.75667
3.79761 5.8803 6.24457
3.98541 6.211 5.61827
3.95861 6.1639 5.57357
4.12371 6.4545 6.04557
4.05101 6.3264 5.81367
4.20671 6.6006 6.28607
4.17211 6.5396 6.19967
4.36351 6.8767 6.31487
4.23831 6.6562 6.31487
4.67901 7.4322 6.31487
5.10561 -7.4193 6.31487
5.10561 -5.4835 6.31487
4.77831 -5.0643 6.31487
4.77831 -6.8591 6.31487
4.45511 -4.6503 6.31487
4.45511 -6.3059 6.31487
5.28111 -7.4723 6.19047
5.28111 -5.5231 6.19047
5.24591 -5.6633 6.31487
5.24591 -7.65956 6.31487
5.29291 -6.7498 5.81697
5.29291 -6.0035 5.44167
5.29291 -4.4241 5.44167
5.29291 -4.9825 5.81697
5.29281 -2.919 4.43027
5.29291 -3.8972 5.08767
5.29291 -5.2995 5.08767
5.29281 -3.9923 4.43027
5.29541 -5.4745 5.16327
5.29281 -2.6887 3.77317
5.29281 -1.9436 3.77317
5.29281 -2.2542 3.23987
5.29281 -2.2542 3.54997
5.29281 -1.6184 3.23987
5.29281 -1.6184 3.54997
5.29291 -5.2995 -0.515935
5.29291 -3.8972 -0.515935
5.29281 -2.919 0.141465
5.29281 -3.9923 0.141465
5.29281 -1.9436 0.807565
5.29281 -2.6887 0.807565
5.29291 -6.7715 -1.21573
5.26501 -7.4924 -1.61873
5.29291 -6.7498 -1.24533
5.26501 -5.5382 -1.61873
5.29291 -4.9825 -1.24533
5.29291 -4.4241 -0.870035
5.29291 -6.0035 -0.870035
5.29291 -6.0229 -0.843535
3.97791 -7.73987 -1.74323
3.97791 -5.7234 -1.74323
5.18131 -5.7234 -1.74323
5.18131 -7.73987 -1.74323
-2.79079 -7.73987 -1.74323
-2.79079 -5.7234 -1.74323
0.590815 -5.7234 -1.74323
0.590815 -7.73987 -1.74323
-3.97809 -5.7234 -1.74323
-3.97809 -7.73987 -1.74323
-4.04569 -7.1406 -1.44183
-4.04569 -5.2749 -1.44183
-4.06819 -2.1284 0.672765
-4.06819 -2.5825 0.367565
-4.06819 -3.5426 0.367565
-4.06819 -2.9358 0.672765
-4.06819 -3.5543 0.383665
-4.06819 -2.9457 0.686265
-4.06899 -2.9382 0.689965
-4.06899 -2.9283 0.676465
-4.06899 -2.1229 0.676465
-4.06819 -3.5426 4.20407
-4.06819 -2.9358 3.89897
-4.06819 -2.5825 4.20407
-4.06819 -2.1284 3.89897
-4.06899 -2.1229 3.89527
-4.06899 -2.9283 3.89527
-4.02129 -5.6633 6.31487
-4.05649 -5.2599 6.01357
-4.05649 -7.1205 6.01357
-4.02129 -7.65956 6.31487
-3.88099 -7.4193 6.31487
-3.88099 -5.4835 6.31487
-3.55369 -5.0643 6.31487
-3.55369 -6.8591 6.31487
-3.23049 -6.3059 6.31487
-3.23049 -4.6503 6.31487
-3.10219 -4.486 6.31487
-3.10219 -6.0863 6.31487
-3.06979 -6.0309 6.28607
-3.06979 -4.4445 6.28607
-3.03439 -4.3991 6.19967
-3.03439 -5.9702 6.19967
-2.98479 -5.8854 6.04557
-2.98479 -4.3357 6.04557
-2.91029 -4.2402 5.81367
-2.91029 -5.7578 5.81367
-2.84319 -5.6429 5.61827
-2.84319 -4.1542 5.61827
-2.81569 -4.1191 5.57357
-2.81569 -5.596 5.57357
-2.77069 -5.5189 5.75667
-2.77069 -4.0614 5.75667
-2.65079 -3.9078 6.24457
-2.65079 -5.3136 6.24457
-2.52839 -5.1042 6.74217
-2.52839 -3.7511 6.74217
-2.47629 -3.6843 6.95407
-2.47629 -5.015 6.95407
-2.44879 -4.9932 7.00597
-2.44879 -3.668 7.00597
-1.62099 -4.9859 7.02327
-2.40019 -4.9859 7.02327
-1.62099 -3.6625 7.02327
-2.40019 -3.6625 7.02327
0.598215 -3.6625 7.02327
0.598215 -4.9859 7.02327
2.82101 -4.9859 7.02327
2.82101 -3.6625 7.02327
3.61071 -3.6625 7.02327
3.61071 -4.9859 7.02327
3.66991 -4.9932 7.00597
3.66991 -3.668 7.00597
3.75311 -5.1042 6.74217
3.75311 -3.7511 6.74217
3.70091 -3.6843 6.95407
3.70091 -5.015 6.95407
3.99531 -5.5189 5.75667
3.99531 -4.0614 5.75667
3.87541 -3.9078 6.24457
3.87541 -5.3136 6.24457
4.06781 -5.6429 5.61827
4.06781 -4.1542 5.61827
4.04041 -4.1191 5.57357
4.04041 -5.596 5.57357
4.20951 -5.8854 6.04557
4.20951 -4.3357 6.04557
4.13491 -4.2402 5.81367
4.13491 -5.7578 5.81367
4.29451 -6.0309 6.28607
4.29451 -4.4445 6.28607
4.25901 -4.3991 6.19967
4.25901 -5.9702 6.19967
4.32681 -4.486 6.31487
4.32681 -6.0863 6.31487
-2.72809 8.3166 -1.66893
0.591215 8.3166 -1.66893
3.91581 8.3166 -1.66893
-3.95979 8.3166 -1.63573
-3.89349 8.3166 -1.66893
-3.98199 8.3166 6.22107
-4.04669 7.7149 5.97667
-3.95979 8.3166 6.23577
-3.98199 8.3166 5.25577
-4.04669 7.7149 5.07137
-2.72809 8.3166 6.24067
-3.89349 8.3166 6.24067
0.591215 8.3166 6.24067
3.91581 8.3166 6.24067
5.09701 8.3166 6.24067
5.17921 8.3166 6.23577
5.20661 8.3166 5.25577
5.20661 8.3166 6.22107
5.09701 8.3166 -1.66893
5.17921 8.3166 -1.63573
-4.06819 -3.5583 0.431965
-4.06819 -3.5583 0.941265
-4.06819 -2.949 1.15517
-4.06819 -2.949 0.726865
-4.06899 -2.9415 1.15777
-4.06899 -2.9415 0.730465
-4.06819 -7.77285 -0.538135
-4.06819 -7.1711 -0.326935
-4.06819 -7.1711 -1.31683
-4.06819 -7.77285 -1.60803
-1.88449 -9.2878 0.198665
-1.88449 -9.2878 0.772065
-1.89659 -9.2878 0.772065
-1.89659 -9.2878 0.198665
-1.21189 -9.2878 0.198665
-1.84829 -9.2878 0.198665
-1.21189 -9.2878 0.772065
-1.84829 -9.2878 0.772065
0.600815 -9.2878 0.772065
0.600815 -9.2878 0.198665
2.41631 -9.2878 0.198665
2.41631 -9.2878 0.772065
3.06141 -9.2878 0.772065
3.06141 -9.2878 0.198665
3.10621 -9.2878 0.198665
3.10621 -9.2878 0.772065
3.12121 -9.2878 0.772065
3.12121 -9.2878 0.198665
3.13051 -9.30139 0.198965
3.13051 -9.30139 0.772365
3.15841 -9.34214 0.772965
3.15841 -9.34214 0.199865
3.19111 -9.38983 0.200865
3.19111 -9.38983 0.773765
5.30181 -7.78665 -1.60753
5.30181 -7.78665 -0.537735
5.32881 -7.82807 -0.536535
5.32881 -7.82807 -1.60583
5.29291 -7.5243 -1.48773
5.29291 -7.5243 -0.450935
5.29291 -7.77285 -0.538135
5.29291 -7.77285 -1.60803
5.29291 -6.7787 -1.12683
5.29291 -6.0294 -0.764135
5.29291 -6.0294 0.0738654
5.29291 -6.7787 -0.189235
5.30861 -5.755 0.170165
5.29681 -5.7587 0.168865
5.29681 -5.7587 -0.633135
5.30861 -5.755 -0.631335
5.29681 -2.262 1.05807
5.29681 -2.262 1.39537
5.30861 -2.2646 1.39537
5.30861 -2.2646 1.05807
5.29281 -2.2542 1.39537
5.29281 -2.2542 1.05807
5.29281 -1.6184 1.05807
5.29281 -1.6184 1.39537
5.29381 2.8049 1.05807
5.29281 2.7943 1.05807
5.29381 2.8049 1.39537
5.29281 2.7943 1.39537
5.29281 2.1557 1.39537
5.29281 2.1557 1.05807
5.27131 8.0681 -1.46983
5.29291 7.3225 -1.12683
5.27131 8.0681 -0.437935
5.29291 7.3225 -0.189235
5.29291 6.5731 0.0738654
5.29291 6.5731 -0.764135
5.20661 8.3166 -0.486135
5.20661 8.3166 -1.53623
4.70071 8.3166 -1.11543
4.70071 8.3166 -0.180935
3.35581 8.3166 0.630565
3.35581 8.3166 0.00346541
1.99971 8.3166 1.13167
1.99971 8.3166 1.44877
1.46041 8.3166 1.77417
1.46041 8.3166 1.58027
1.36221 8.3294 1.66227
1.36221 8.3297 1.83367
1.32951 8.369 1.85407
1.32951 8.3679 1.69057
-0.137585 8.3294 1.66227
-0.137585 8.3297 1.83367
-0.104885 8.369 1.85407
-0.104885 8.3679 1.69057
-0.775085 8.3166 1.13167
-0.775085 8.3166 1.44877
-0.235785 8.3166 1.77417
-0.235785 8.3166 1.58027
-3.47609 8.3166 -1.11543
-3.47609 8.3166 -0.180935
-2.13119 8.3166 0.630565
-2.13119 8.3166 0.00346541
-4.04669 7.7149 -1.29883
-4.04669 7.7149 -0.313935
-3.98199 8.3166 -0.486135
-3.98199 8.3166 -1.53623
-4.06819 4.102 0.431965
-4.06819 3.4927 0.726865
-4.06899 3.4853 0.730465
-4.06899 3.4853 1.15777
-4.06819 3.4927 1.15517
-4.06819 4.102 0.941265
-4.06819 -3.5583 2.34077
-4.06819 -2.949 2.33197
-4.06899 -2.9415 2.33187
-4.06819 -7.1711 2.39247
-4.06819 -7.77285 2.40107
-4.07919 -7.78777 2.40117
-1.90619 -9.30362 2.34767
-1.88449 -9.2878 2.34767
-1.89659 -9.2878 2.34767
-1.21189 -9.2878 2.34767
-1.84829 -9.2878 2.34767
0.600815 -9.2878 2.34767
2.41631 -9.2878 2.34767
3.06141 -9.2878 2.34767
3.10621 -9.2878 2.34767
3.12121 -9.2878 2.34767
3.13051 -9.30139 2.34767
3.15841 -9.34214 2.34757
3.19111 -9.38983 2.34757
5.30181 -7.78665 2.40107
5.32881 -7.82807 2.40107
5.36041 -7.87652 2.40097
5.29291 -7.5243 2.39757
5.29291 -7.77285 2.40107
5.29291 -6.7787 2.38687
5.29291 -6.0294 2.37617
5.29681 -5.7587 2.37227
5.29681 -2.262 2.32217
5.30861 -2.2646 2.32217
5.29281 -2.2542 2.32217
5.29281 -1.6184 2.32217
5.29381 2.8049 2.32217
5.29281 2.7943 2.32217
5.29281 2.1557 2.32217
5.27131 8.0681 2.39707
5.29291 7.3225 2.38687
5.29291 6.5731 2.37617
5.20661 8.3166 2.39897
4.70071 8.3166 2.38657
3.35581 8.3166 2.35337
1.99971 8.3166 2.31997
1.46041 8.3166 2.30677
1.36221 8.3304 2.30427
1.32951 8.3719 2.30347
-0.137585 8.3304 2.30427
-0.104885 8.3719 2.30347
-0.775085 8.3166 2.31997
-0.235785 8.3166 2.30677
-3.47609 8.3166 2.38657
-2.13119 8.3166 2.35337
-4.04669 7.7149 2.39197
-3.98199 8.3166 2.39897
-4.06819 4.102 2.34077
-4.06819 3.4927 2.33197
-4.06899 3.4853 2.33187
-4.06819 0.2663 4.20407
-4.06819 0.2672 3.89897
-4.06899 0.2672 3.89527
-4.05649 0.2611 6.01357
-4.02129 0.2603 6.31487
-3.88099 0.2606 6.31487
-3.55369 0.2614 6.31487
-3.23049 0.2622 6.31487
-3.10219 0.2626 6.31487
-3.06979 0.2627 6.28607
-3.03439 0.2627 6.19967
-2.98479 0.2629 6.04557
-2.91029 0.2631 5.81367
-2.84319 0.2632 5.61827
-2.81569 0.2633 5.57357
-2.77069 0.2634 5.75667
-2.65079 0.2637 6.24457
-2.52839 0.264 6.74217
-2.47629 0.2641 6.95407
-2.44879 0.2642 7.00597
-2.40019 0.2642 7.02327
-1.62099 0.2642 7.02327
0.598215 0.2642 7.02327
2.82101 0.2642 7.02327
3.61071 0.2642 7.02327
3.66991 0.2642 7.00597
3.75311 0.264 6.74217
3.70091 0.2641 6.95407
3.99531 0.2634 5.75667
3.87541 0.2637 6.24457
4.04041 0.2633 5.57357
4.06781 0.2632 5.61827
4.20951 0.2629 6.04557
4.13491 0.2631 5.81367
4.25901 0.2627 6.19967
4.29451 0.2627 6.28607
4.45511 0.2622 6.31487
4.32681 0.2626 6.31487
5.10561 0.2606 6.31487
4.77831 0.2614 6.31487
5.24591 0.2603 6.31487
5.28111 0.2605 6.19047
5.29291 0.2616 5.81697
5.29291 0.2627 5.44167
5.29291 0.2637 5.08767
5.29281 0.2656 4.43027
5.29281 0.2676 3.77317
5.29281 0.2682 3.54997
5.29281 0.2682 3.23987
5.29281 0.2682 2.32217
5.29281 0.2682 1.39537
5.29281 0.2676 0.807565
5.29281 0.2682 1.05807
5.29291 0.2637 -0.515935
5.29281 0.2656 0.141465
5.26501 0.2605 -1.61873
5.29291 0.2616 -1.24533
5.29291 0.2627 -0.870035
3.97791 0.2601 -1.74323
5.18131 0.2601 -1.74323
-2.79079 0.2601 -1.74323
0.590815 0.2601 -1.74323
-4.04569 0.261 -1.44183
-3.97809 0.2601 -1.74323
-4.06819 0.2663 0.367565
-4.06819 0.2672 0.672765
-4.06899 0.2672 0.676465
5.29671 6.2988 4.55267
5.29381 6.3024 4.55407
5.29381 6.3024 5.29127
5.29671 6.2988 5.28937
5.29671 5.8625 5.08207
5.29671 2.8084 1.39537
5.29671 3.2447 0.807565
5.29671 2.8084 1.05807
5.29671 5.8625 -0.488835
5.29671 4.5536 0.141465
5.29381 6.3024 -0.633135
5.29381 6.3024 0.168865
5.29671 6.2988 0.170165
5.29381 6.3024 2.37227
5.29671 6.2988 2.37217
5.29291 6.3135 4.55817
5.29291 6.3135 5.29677
5.29291 6.3051 5.30797
5.29291 6.3135 0.164965
5.29291 6.3135 2.37237
5.29291 6.3051 -0.714635
5.29291 6.3135 -0.638535
5.29291 4.7589 -0.740035
5.29291 6.2799 -0.740035
5.29291 0.2631 -0.740035
5.29291 -4.2306 -0.740035
5.29291 -5.7636 -0.714635
5.29291 -5.745 -0.740035
5.29291 -5.7698 -0.638535
5.29291 -5.7698 0.164965
5.29291 -5.7698 2.37237
5.29681 -5.7587 4.55407
5.29291 -5.7698 4.55817
5.29291 -5.7636 5.30797
5.29291 -5.7698 5.29677
5.29681 -5.7587 5.29127
5.29291 -5.745 5.31167
5.29291 -4.2306 5.31167
5.29291 4.7589 5.31167
5.29291 0.2631 5.31167
5.29291 6.2799 5.31167
-4.06819 4.459 5.10947
-4.06819 5.8784 5.10947
-4.06819 5.9019 5.10597
-4.06819 5.9097 5.09547
-4.06819 5.9097 4.40627
-4.06819 5.9097 0.306765
-4.06819 5.9097 2.36667
-4.06819 5.9019 -0.514135
-4.06819 5.9097 -0.443035
-4.06819 5.8784 -0.537735
-4.06819 4.459 -0.537735
-4.06819 0.2637 -0.537735
-4.06819 -3.9297 -0.537735
-4.06819 -5.3428 -0.537735
-4.06819 -5.3602 -0.514135
-4.06819 -5.3659 0.306765
-4.06819 -5.3659 -0.443035
-4.06819 -5.3659 2.36667
-4.06819 -5.3659 4.40627
-4.06819 -5.3659 5.09547
-4.06819 -5.3602 5.10597
-4.06819 -5.3428 5.10947
-4.06819 -3.9297 5.10947
-4.06819 0.2637 5.10947
-4.07129 2.6567 3.89407
-4.07129 3.4652 3.89407
-4.07129 3.4785 3.89207
-4.07129 3.483 1.15857
-4.07129 3.483 0.731565
-4.07129 3.4785 0.691065
-4.07129 3.4652 0.677565
-4.07129 2.6567 0.677565
-4.07129 0.2672 0.677565
-4.07129 -2.1212 0.677565
-4.07129 -2.9261 0.677565
-4.07129 -2.9359 0.691065
-4.07129 -2.9392 0.731565
-4.07129 -2.9392 1.15857
-4.07129 -2.9392 2.33187
-4.07129 -2.9392 3.49357
-4.07129 -2.9392 3.88617
-4.07129 -2.9359 3.89207
-4.07129 -2.9261 3.89407
-4.07129 -2.1212 3.89407
-4.07129 0.2672 3.89407
3 0 1 2
3 0 2 3
3 2 4 5
3 2 5 3
3 5 6 7
3 5 7 3
3 7 8 0
3 7 0 3
3 9 10 11
3 9 11 12
3 11 13 14
3 11 14 12
3 14 15 16
3 14 16 12
3 16 17 9
3 16 9 12
3 18 19 20
3 18 20 21
3 20 22 23
3 20 23 21
3 23 24 25
3 23 25 21
3 25 26 18
3 25 18 21
3 27 28 29
3 27 29 30
3 29 31 32
3 29 32 30
3 33 34 35
3 33 35 36
3 35 37 38
3 35 38 36
3 38 39 40
3 38 40 36
3 40 41 33
3 40 33 36
3 42 43 44
3 42 44 45
3 44 46 47
3 44 47 45
3 47 48 49
3 47 49 45
3 49 50 42
3 49 42 45
3 51 52 53
3 51 53 54
3 53 55 56
3 53 56 54
3 56 57 58
3 56 58 54
3 58 59 51
3 58 51 54
3 53 52 60
3 53 60 61
3 60 62 63
3 60 63 61
3 63 64 65
3 63 65 61
3 65 55 53
3 65 53 61
3 66 67 68
3 66 68 69
3 68 70 71
3 68 71 69
3 71 72 73
3 71 73 69
3 73 74 66
3 73 66 69
3 75 76 77
3 75 77 78
3 77 79 80
3 77 80 78
3 80 81 82
3 80 82 78
3 82 83 75
3 82 75 78
3 84 85 86
3 84 86 87
3 86 88 89
3 86 89 87
3 89 90 91
3 89 91 87
3 91 92 84
3 91 84 87
3 86 85 93
3 86 93 94
3 93 95 96
3 93 96 94
3 96 97 98
3 96 98 94
3 98 88 86
3 98 86 94
3 99 100 101
3 99 101 102
3 101 103 104
3 101 104 102
3 104 105 106
3 104 106 102
3 106 107 99
3 106 99 102
3 108 109 110
3 108 110 111
3 110 112 113
3 110 113 111
3 113 114 115
3 113 115 111
3 115 116 108
3 115 108 111
3 117 118 119
3 117 119 120
3 119 121 122
3 119 122 120
3 122 123 124
3 122 124 120
3 124 125 117
3 124 117 120
3 119 118 126
3 119 126 127
3 126 128 129
3 126 129 127
3 129 130 131
3 129 131 127
3 131 121 119
3 131 119 127
3 132 133 134
3 132 134 135
3 134 136 137
3 134 137 135
3 137 138 139
3 137 139 135
3 139 140 132
3 139 132 135
3 33 41 141
3 33 141 142
3 141 24 23
3 141 23 142
3 23 22 143
3 23 143 142
3 143 34 33
3 143 33 142
3 144 145 146
3 144 146 147
3 145 148 149
3 145 149 146
3 149 150 151
3 149 151 146
3 151 152 147
3 151 147 146
3 153 154 155
3 153 155 156
3 155 157 158
3 155 158 156
3 158 148 145
3 158 145 156
3 145 144 153
3 145 153 156
3 159 160 161
3 159 161 162
3 161 163 164
3 161 164 162
3 164 157 155
3 164 155 162
3 155 154 159
3 155 159 162
3 165 166 167
3 165 167 168
3 167 169 170
3 167 170 168
3 170 171 172
3 170 172 168
3 172 173 165
3 172 165 168
3 174 175 176
3 174 176 177
3 176 178 179
3 176 179 177
3 179 180 181
3 179 181 177
3 177 181 41
3 177 41 174
3 139 138 182
3 139 182 183
3 184 140 139
3 184 139 183
3 25 24 185
3 25 185 186
3 185 187 188
3 185 188 186
3 188 189 190
3 188 190 186
3 190 26 25
3 190 25 186
3 141 41 181
3 141 181 191
3 181 180 192
3 181 192 191
3 192 187 185
3 192 185 191
3 185 24 141
3 185 141 191
3 149 148 193
3 149 193 194
3 193 195 196
3 193 196 194
3 196 197 198
3 196 198 194
3 198 150 149
3 198 149 194
3 158 157 199
3 158 199 200
3 199 201 202
3 199 202 200
3 202 195 193
3 202 193 200
3 193 148 158
3 193 158 200
3 164 163 203
3 164 203 204
3 203 205 206
3 203 206 204
3 206 201 199
3 206 199 204
3 199 157 164
3 199 164 204
3 170 169 207
3 170 207 208
3 207 209 208
3 209 210 211
3 209 211 208
3 211 171 170
3 211 170 208
3 179 178 212
3 179 212 213
3 212 214 213
3 214 215 216
3 214 216 213
3 216 180 179
3 216 179 213
3 188 187 217
3 188 217 218
3 217 219 220
3 217 220 218
3 220 221 218
3 221 189 188
3 221 188 218
3 192 180 216
3 192 216 222
3 216 215 223
3 216 223 222
3 223 219 217
3 223 217 222
3 217 187 192
3 217 192 222
3 224 144 147
3 224 147 225
3 147 152 226
3 147 226 225
3 226 227 228
3 226 228 225
3 228 229 224
3 228 224 225
3 230 231 232
3 230 232 233
3 232 234 235
3 232 235 233
3 235 236 237
3 235 237 233
3 237 238 230
3 237 230 233
3 239 240 241
3 239 241 242
3 241 50 243
3 241 243 242
3 243 244 245
3 243 245 242
3 245 246 239
3 245 239 242
3 247 244 243
3 247 243 248
3 243 50 49
3 243 49 248
3 49 48 249
3 49 249 248
3 249 250 247
3 249 247 248
3 251 252 253
3 251 253 254
3 253 255 256
3 253 256 254
3 256 257 258
3 256 258 254
3 258 259 251
3 258 251 254
3 260 261 262
3 260 262 263
3 262 264 265
3 262 265 263
3 265 28 27
3 265 27 263
3 27 260 263
3 266 267 268
3 266 268 269
3 270 271 266
3 270 266 269
3 272 273 274
3 272 274 275
3 276 277 272
3 276 272 275
3 274 273 278
3 279 280 281
3 279 281 282
3 281 283 284
3 281 284 282
3 284 285 286
3 284 286 282
3 286 287 279
3 286 279 282
3 288 289 290
3 288 290 291
3 290 292 293
3 290 293 291
3 293 294 295
3 293 295 291
3 295 296 288
3 295 288 291
3 293 292 297
3 293 297 298
3 297 299 300
3 297 300 298
3 301 294 293
3 301 293 298
3 302 303 304
3 302 304 305
3 304 306 307
3 304 307 305
3 307 308 309
3 307 309 305
3 309 310 302
3 309 302 305
3 311 312 313
3 311 313 314
3 313 315 316
3 313 316 314
3 316 317 318
3 316 318 314
3 318 319 311
3 318 311 314
3 320 321 322
3 320 322 323
3 322 324 325
3 322 325 323
3 325 326 327
3 325 327 323
3 327 328 320
3 327 320 323
3 329 330 331
3 329 331 332
3 331 333 334
3 331 334 332
3 334 335 336
3 334 336 332
3 336 337 329
3 336 329 332
3 338 319 318
3 338 318 339
3 318 317 340
3 318 340 339
3 340 341 342
3 340 342 339
3 342 343 338
3 342 338 339
3 344 345 346
3 344 346 347
3 348 349 344
3 348 344 347
3 350 351 352
3 350 352 353
3 354 355 350
3 354 350 353
3 356 357 358
3 356 358 359
3 360 361 356
3 360 356 359
3 362 349 348
3 362 348 363
3 364 365 362
3 364 362 363
3 316 315 366
3 316 366 367
3 366 345 344
3 366 344 367
3 344 349 368
3 344 368 367
3 368 317 316
3 368 316 367
3 340 317 368
3 340 368 369
3 368 349 362
3 368 362 369
3 362 365 370
3 362 370 369
3 370 341 340
3 370 340 369
3 334 333 371
3 334 371 372
3 371 357 356
3 371 356 372
3 356 361 373
3 356 373 372
3 373 335 334
3 373 334 372
3 325 324 374
3 325 374 375
3 374 351 350
3 374 350 375
3 350 355 376
3 350 376 375
3 376 326 325
3 376 325 375
3 377 378 379
3 377 379 380
3 379 381 382
3 379 382 380
3 382 112 110
3 382 110 380
3 110 109 377
3 110 377 380
3 104 103 383
3 104 383 384
3 383 385 386
3 383 386 384
3 386 387 388
3 386 388 384
3 388 105 104
3 388 104 384
3 389 121 131
3 389 131 390
3 131 130 391
3 131 391 390
3 391 392 393
3 391 393 390
3 393 394 389
3 393 389 390
3 122 121 389
3 122 389 395
3 389 394 396
3 389 396 395
3 396 397 398
3 396 398 395
3 398 123 122
3 398 122 395
3 399 400 401
3 399 401 402
3 401 403 404
3 401 404 402
3 404 381 379
3 404 379 402
3 379 378 399
3 379 399 402
3 386 385 405
3 386 405 406
3 405 407 408
3 405 408 406
3 408 409 410
3 408 410 406
3 410 387 386
3 410 386 406
3 411 394 393
3 411 393 412
3 393 392 413
3 393 413 412
3 413 4 2
3 413 2 412
3 2 1 411
3 2 411 412
3 396 394 411
3 396 411 414
3 411 1 0
3 411 0 414
3 0 8 415
3 0 415 414
3 415 397 396
3 415 396 414
3 416 83 82
3 416 82 417
3 82 81 418
3 82 418 417
3 418 419 420
3 418 420 417
3 420 421 416
3 420 416 417
3 422 423 424
3 422 424 425
3 424 67 66
3 424 66 425
3 66 74 426
3 66 426 425
3 426 427 422
3 426 422 425
3 428 429 430
3 428 430 431
3 430 432 433
3 430 433 431
3 433 95 93
3 433 93 431
3 93 85 428
3 93 428 431
3 434 429 428
3 434 428 435
3 428 85 84
3 428 84 435
3 84 92 436
3 84 436 435
3 436 437 434
3 436 434 435
3 438 116 115
3 438 115 439
3 115 114 440
3 115 440 439
3 440 79 77
3 440 77 439
3 77 76 438
3 77 438 439
3 71 70 441
3 71 441 442
3 441 100 99
3 441 99 442
3 99 107 443
3 99 443 442
3 443 72 71
3 443 71 442
3 444 88 98
3 444 98 445
3 98 97 446
3 98 446 445
3 446 128 126
3 446 126 445
3 126 118 444
3 126 444 445
3 89 88 444
3 89 444 447
3 444 118 117
3 444 117 447
3 117 125 448
3 117 448 447
3 448 90 89
3 448 89 447
3 449 57 56
3 449 56 450
3 56 55 451
3 56 451 450
3 451 429 434
3 451 434 450
3 434 437 449
3 434 449 450
3 452 421 420
3 452 420 453
3 420 419 454
3 420 454 453
3 454 46 44
3 454 44 453
3 44 43 452
3 44 452 453
3 38 37 455
3 38 455 456
3 455 423 422
3 455 422 456
3 422 427 457
3 422 457 456
3 457 39 38
3 457 38 456
3 451 55 65
3 451 65 458
3 65 64 459
3 65 459 458
3 459 432 430
3 459 430 458
3 430 429 451
3 430 451 458
3 460 59 58
3 460 58 461
3 58 57 462
3 58 462 461
3 462 463 464
3 462 464 461
3 464 465 460
3 464 460 461
3 313 312 466
3 313 466 467
3 466 468 469
3 466 469 467
3 469 470 471
3 469 471 467
3 471 315 313
3 471 313 467
3 366 315 471
3 366 471 472
3 471 470 473
3 471 473 472
3 473 474 475
3 473 475 472
3 475 345 366
3 475 366 472
3 346 345 475
3 346 475 476
3 475 474 477
3 475 477 476
3 478 361 360
3 478 360 479
3 480 481 478
3 480 478 479
3 482 335 373
3 482 373 483
3 373 361 478
3 373 478 483
3 478 481 484
3 478 484 483
3 484 485 482
3 484 482 483
3 486 337 336
3 486 336 487
3 336 335 482
3 336 482 487
3 482 485 488
3 482 488 487
3 488 489 486
3 488 486 487
3 490 491 492
3 490 492 493
3 492 494 495
3 492 495 493
3 495 13 11
3 495 11 493
3 11 10 490
3 11 490 493
3 134 133 496
3 134 496 497
3 496 498 499
3 496 499 497
3 499 500 501
3 499 501 497
3 501 136 134
3 501 134 497
3 20 19 502
3 20 502 503
3 502 504 505
3 502 505 503
3 505 506 507
3 505 507 503
3 507 22 20
3 507 20 503
3 508 34 143
3 508 143 509
3 143 22 507
3 143 507 509
3 507 506 510
3 507 510 509
3 510 511 508
3 510 508 509
3 35 34 508
3 35 508 512
3 508 511 513
3 508 513 512
3 513 514 515
3 513 515 512
3 515 37 35
3 515 35 512
3 455 37 515
3 455 515 516
3 515 514 517
3 515 517 516
3 517 518 519
3 517 519 516
3 519 423 455
3 519 455 516
3 424 423 519
3 424 519 520
3 519 518 521
3 519 521 520
3 521 522 523
3 521 523 520
3 523 67 424
3 523 424 520
3 68 67 523
3 68 523 524
3 523 522 525
3 523 525 524
3 525 526 527
3 525 527 524
3 527 70 68
3 527 68 524
3 441 70 527
3 441 527 528
3 527 526 529
3 527 529 528
3 529 530 531
3 529 531 528
3 531 100 441
3 531 441 528
3 101 100 531
3 101 531 532
3 531 530 533
3 531 533 532
3 533 534 535
3 533 535 532
3 535 103 101
3 535 101 532
3 383 103 535
3 383 535 536
3 535 534 537
3 535 537 536
3 537 538 539
3 537 539 536
3 539 385 383
3 539 383 536
3 405 385 539
3 405 539 540
3 539 538 541
3 539 541 540
3 541 542 543
3 541 543 540
3 543 407 405
3 543 405 540
3 544 8 7
3 544 7 545
3 7 6 546
3 7 546 545
3 546 547 548
3 546 548 545
3 548 549 544
3 548 544 545
3 550 397 415
3 550 415 551
3 415 8 544
3 415 544 551
3 544 549 552
3 544 552 551
3 552 553 550
3 552 550 551
3 554 123 398
3 554 398 555
3 398 397 550
3 398 550 555
3 550 553 556
3 550 556 555
3 556 557 554
3 556 554 555
3 558 125 124
3 558 124 559
3 124 123 554
3 124 554 559
3 554 557 560
3 554 560 559
3 560 561 558
3 560 558 559
3 562 90 448
3 562 448 563
3 448 125 558
3 448 558 563
3 558 561 564
3 558 564 563
3 564 565 562
3 564 562 563
3 566 92 91
3 566 91 567
3 91 90 562
3 91 562 567
3 562 565 568
3 562 568 567
3 568 569 566
3 568 566 567
3 570 437 436
3 570 436 571
3 436 92 566
3 436 566 571
3 566 569 572
3 566 572 571
3 572 573 570
3 572 570 571
3 574 463 462
3 574 462 575
3 462 57 449
3 462 449 575
3 449 437 570
3 449 570 575
3 570 573 574
3 570 574 575
3 576 465 464
3 576 464 577
3 464 463 578
3 464 578 577
3 578 43 42
3 578 42 577
3 42 50 576
3 42 576 577
3 469 468 579
3 469 579 580
3 579 328 327
3 579 327 580
3 327 326 581
3 327 581 580
3 581 470 469
3 581 469 580
3 473 470 581
3 473 581 582
3 581 326 376
3 581 376 582
3 376 355 583
3 376 583 582
3 583 474 473
3 583 473 582
3 477 474 583
3 477 583 584
3 583 355 354
3 583 354 584
3 585 481 480
3 585 480 586
3 587 588 585
3 587 585 586
3 589 485 484
3 589 484 590
3 484 481 585
3 484 585 590
3 585 588 591
3 585 591 590
3 591 592 589
3 591 589 590
3 593 489 488
3 593 488 594
3 488 485 589
3 488 589 594
3 589 592 595
3 589 595 594
3 595 596 593
3 595 593 594
3 492 491 597
3 492 597 598
3 597 234 232
3 597 232 598
3 232 231 599
3 232 599 598
3 599 494 492
3 599 492 598
3 499 498 600
3 499 600 601
3 600 166 165
3 600 165 601
3 165 173 602
3 165 602 601
3 602 500 499
3 602 499 601
3 505 504 603
3 505 603 604
3 603 160 159
3 603 159 604
3 159 154 605
3 159 605 604
3 605 506 505
3 605 505 604
3 606 511 510
3 606 510 607
3 510 506 605
3 510 605 607
3 605 154 153
3 605 153 607
3 153 144 606
3 153 606 607
3 513 511 606
3 513 606 608
3 606 144 609
3 606 609 608
3 609 610 611
3 609 611 608
3 611 514 513
3 611 513 608
3 517 514 611
3 517 611 612
3 611 610 613
3 611 613 612
3 613 614 615
3 613 615 612
3 615 518 517
3 615 517 612
3 521 518 615
3 521 615 616
3 615 614 617
3 615 617 616
3 617 618 619
3 617 619 616
3 619 522 521
3 619 521 616
3 525 522 619
3 525 619 620
3 619 618 621
3 619 621 620
3 621 622 623
3 621 623 620
3 623 526 525
3 623 525 620
3 529 526 623
3 529 623 624
3 623 622 625
3 623 625 624
3 625 626 627
3 625 627 624
3 627 530 529
3 627 529 624
3 533 530 627
3 533 627 628
3 627 626 629
3 627 629 628
3 629 630 631
3 629 631 628
3 631 534 533
3 631 533 628
3 537 534 631
3 537 631 632
3 631 630 633
3 631 633 632
3 633 634 635
3 633 635 632
3 635 538 537
3 635 537 632
3 541 538 635
3 541 635 636
3 635 634 637
3 635 637 636
3 637 638 639
3 637 639 636
3 639 542 541
3 639 541 636
3 640 549 548
3 640 548 641
3 548 547 642
3 548 642 641
3 642 403 401
3 642 401 641
3 401 400 640
3 401 640 641
3 643 553 552
3 643 552 644
3 552 549 640
3 552 640 644
3 640 400 399
3 640 399 644
3 399 378 643
3 399 643 644
3 645 557 556
3 645 556 646
3 556 553 643
3 556 643 646
3 643 378 377
3 643 377 646
3 377 109 645
3 377 645 646
3 647 561 560
3 647 560 648
3 560 557 645
3 560 645 648
3 645 109 108
3 645 108 648
3 108 116 647
3 108 647 648
3 649 565 564
3 649 564 650
3 564 561 647
3 564 647 650
3 647 116 438
3 647 438 650
3 438 76 649
3 438 649 650
3 651 569 568
3 651 568 652
3 568 565 649
3 568 649 652
3 649 76 75
3 649 75 652
3 75 83 651
3 75 651 652
3 653 573 572
3 653 572 654
3 572 569 651
3 572 651 654
3 651 83 416
3 651 416 654
3 416 421 653
3 416 653 654
3 578 463 574
3 578 574 655
3 574 573 653
3 574 653 655
3 653 421 452
3 653 452 655
3 452 43 578
3 452 578 655
3 656 657 658
3 656 658 659
3 658 660 661
3 658 661 659
3 661 614 613
3 661 613 659
3 613 610 656
3 613 656 659
3 662 663 664
3 662 664 665
3 664 657 656
3 664 656 665
3 656 610 609
3 656 609 665
3 609 144 662
3 609 662 665
3 662 144 224
3 662 224 666
3 224 229 667
3 224 667 666
3 667 668 669
3 667 669 666
3 669 663 662
3 669 662 666
3 670 671 672
3 670 672 673
3 672 674 278
3 672 278 673
3 278 273 675
3 278 675 673
3 675 676 670
3 675 670 673
3 272 277 677
3 272 677 678
3 677 679 680
3 677 680 678
3 680 676 675
3 680 675 678
3 675 273 272
3 675 272 678
3 681 682 683
3 681 683 684
3 683 685 686
3 683 686 684
3 686 267 266
3 686 266 684
3 266 271 681
3 266 681 684
3 687 166 688
3 687 688 689
3 688 690 691
3 688 691 689
3 691 692 693
3 691 693 689
3 693 694 687
3 693 687 689
3 695 696 697
3 695 697 698
3 697 690 688
3 697 688 698
3 166 600 698
3 166 698 688
3 600 498 695
3 600 695 698
3 699 700 701
3 699 701 702
3 701 696 695
3 701 695 702
3 695 498 496
3 695 496 702
3 496 133 699
3 496 699 702
3 703 700 699
3 703 699 704
3 699 133 132
3 699 132 704
3 704 132 140
3 704 140 705
3 705 706 703
3 705 703 704
3 707 708 709
3 707 709 710
3 709 711 712
3 709 712 710
3 712 713 714
3 712 714 710
3 714 715 707
3 714 707 710
3 284 283 716
3 284 716 717
3 716 718 719
3 716 719 717
3 719 720 721
3 719 721 717
3 721 285 284
3 721 284 717
3 722 723 724
3 722 724 725
3 724 41 40
3 724 40 725
3 40 39 726
3 40 726 725
3 726 727 722
3 726 722 725
3 728 727 726
3 728 726 729
3 726 39 457
3 726 457 729
3 457 427 730
3 457 730 729
3 730 731 728
3 730 728 729
3 732 731 730
3 732 730 733
3 730 427 426
3 730 426 733
3 426 74 734
3 426 734 733
3 734 735 732
3 734 732 733
3 736 735 734
3 736 734 737
3 734 74 73
3 734 73 737
3 73 72 738
3 73 738 737
3 738 739 736
3 738 736 737
3 740 739 738
3 740 738 741
3 738 72 443
3 738 443 741
3 443 107 742
3 443 742 741
3 742 743 740
3 742 740 741
3 744 743 742
3 744 742 745
3 742 107 106
3 742 106 745
3 106 105 746
3 106 746 745
3 746 747 744
3 746 744 745
3 748 747 746
3 748 746 749
3 746 105 388
3 746 388 749
3 388 387 750
3 388 750 749
3 750 751 748
3 750 748 749
3 752 751 750
3 752 750 753
3 750 387 410
3 750 410 753
3 410 409 754
3 410 754 753
3 754 755 752
3 754 752 753
3 408 407 756
3 408 756 757
3 756 758 759
3 756 759 757
3 759 755 754
3 759 754 757
3 754 409 408
3 754 408 757
3 760 758 756
3 760 756 761
3 756 407 543
3 756 543 761
3 543 542 762
3 543 762 761
3 762 763 760
3 762 760 761
3 764 763 762
3 764 762 765
3 762 542 639
3 762 639 765
3 639 638 766
3 639 766 765
3 766 767 764
3 766 764 765
3 768 769 770
3 768 770 771
3 770 767 766
3 770 766 771
3 766 638 637
3 766 637 771
3 637 634 768
3 637 768 771
3 772 773 774
3 772 774 775
3 774 769 768
3 774 768 775
3 768 634 633
3 768 633 775
3 633 630 772
3 633 772 775
3 776 777 778
3 776 778 779
3 778 773 772
3 778 772 779
3 772 630 629
3 772 629 779
3 629 626 776
3 629 776 779
3 780 781 782
3 780 782 783
3 782 777 776
3 782 776 783
3 776 626 625
3 776 625 783
3 625 622 780
3 625 780 783
3 784 785 786
3 784 786 787
3 786 781 780
3 786 780 787
3 780 622 621
3 780 621 787
3 621 618 784
3 621 784 787
3 661 660 788
3 661 788 789
3 788 785 784
3 788 784 789
3 784 618 617
3 784 617 789
3 617 614 661
3 617 661 789
3 490 10 790
3 490 790 791
3 790 337 486
3 790 486 791
3 486 489 792
3 486 792 791
3 792 491 490
3 792 490 791
3 9 17 793
3 9 793 794
3 793 330 329
3 793 329 794
3 329 337 790
3 329 790 794
3 790 10 9
3 790 9 794
3 795 796 52
3 795 52 797
3 797 319 338
3 797 338 795
3 338 343 798
3 338 798 795
3 798 799 796
3 798 796 795
3 51 59 800
3 51 800 801
3 800 312 311
3 800 311 801
3 311 319 797
3 311 797 801
3 797 52 51
3 797 51 801
3 466 312 800
3 466 800 802
3 800 59 460
3 800 460 802
3 460 465 803
3 460 803 802
3 803 468 466
3 803 466 802
3 579 468 803
3 579 803 804
3 803 465 576
3 803 576 804
3 576 50 805
3 576 805 804
3 805 328 579
3 805 579 804
3 241 240 806
3 241 806 807
3 806 321 320
3 806 320 807
3 320 328 805
3 320 805 807
3 50 241 807
3 50 807 805
3 597 491 792
3 597 792 808
3 792 489 593
3 792 593 808
3 593 596 809
3 593 809 808
3 809 234 597
3 809 597 808
3 810 811 812
3 810 812 813
3 812 814 815
3 812 815 813
3 815 713 712
3 815 712 813
3 712 711 810
3 712 810 813
3 816 817 818
3 816 818 819
3 819 818 140
3 819 140 184
3 820 821 822
3 820 822 823
3 182 138 820
3 182 820 823
3 137 136 824
3 137 824 825
3 824 826 827
3 824 827 825
3 827 821 820
3 827 820 825
3 820 138 137
3 820 137 825
3 828 826 824
3 828 824 829
3 824 136 501
3 824 501 829
3 501 500 830
3 501 830 829
3 830 831 828
3 830 828 829
3 832 831 830
3 832 830 833
3 830 500 602
3 830 602 833
3 602 173 834
3 602 834 833
3 834 835 832
3 834 832 833
3 836 835 834
3 836 834 837
3 834 173 172
3 834 172 837
3 172 171 838
3 172 838 837
3 838 839 836
3 838 836 837
3 840 839 838
3 840 838 841
3 838 171 211
3 838 211 841
3 211 210 842
3 211 842 841
3 842 843 840
3 842 840 841
3 844 845 846
3 844 846 847
3 207 169 844
3 207 844 847
3 848 849 850
3 848 850 851
3 850 845 844
3 850 844 851
3 844 169 167
3 844 167 851
3 851 167 166
3 851 166 848
3 848 166 687
3 848 687 852
3 687 694 853
3 687 853 852
3 853 854 855
3 853 855 852
3 855 849 848
3 855 848 852
3 856 857 858
3 856 858 859
3 858 271 270
3 858 270 859
3 860 861 862
3 860 862 863
3 268 267 860
3 268 860 863
3 864 861 860
3 864 860 865
3 860 267 686
3 860 686 865
3 686 685 866
3 686 866 865
3 866 867 864
3 866 864 865
3 253 252 868
3 253 868 869
3 868 870 871
3 868 871 869
3 871 872 873
3 871 873 869
3 873 255 253
3 873 253 869
3 235 234 874
3 235 874 875
3 874 876 877
3 874 877 875
3 877 878 879
3 877 879 875
3 879 236 235
3 879 235 875
3 880 876 874
3 880 874 881
3 874 234 809
3 874 809 881
3 809 596 882
3 809 882 881
3 882 883 880
3 882 880 881
3 884 883 882
3 884 882 885
3 882 596 595
3 882 595 885
3 595 592 886
3 595 886 885
3 886 887 884
3 886 884 885
3 888 887 886
3 888 886 889
3 886 592 591
3 886 591 889
3 591 588 890
3 591 890 889
3 890 891 888
3 890 888 889
3 892 891 890
3 892 890 893
3 890 588 587
3 890 587 893
3 894 895 896
3 894 896 897
3 358 357 894
3 358 894 897
3 898 899 900
3 898 900 901
3 900 895 894
3 900 894 901
3 894 357 371
3 894 371 901
3 371 333 898
3 371 898 901
3 902 903 904
3 902 904 905
3 904 899 898
3 904 898 905
3 898 333 331
3 898 331 905
3 331 330 902
3 331 902 905
3 906 907 908
3 906 908 909
3 908 903 902
3 908 902 909
3 902 330 793
3 902 793 909
3 793 17 906
3 793 906 909
3 910 303 302
3 910 302 911
3 302 310 912
3 302 912 911
3 912 913 914
3 912 914 911
3 914 915 910
3 914 910 911
3 812 811 916
3 812 916 917
3 916 280 279
3 916 279 917
3 279 287 918
3 279 918 917
3 918 814 812
3 918 812 917
3 176 175 919
3 176 919 920
3 919 817 816
3 919 816 920
3 816 921 920
3 921 178 176
3 921 176 920
3 212 178 921
3 922 189 221
3 923 26 190
3 923 190 924
3 190 189 922
3 190 922 924
3 922 822 924
3 822 821 923
3 822 923 924
3 827 826 925
3 827 925 926
3 925 19 18
3 925 18 926
3 18 26 923
3 18 923 926
3 923 821 827
3 923 827 926
3 502 19 925
3 502 925 927
3 925 826 828
3 925 828 927
3 828 831 928
3 828 928 927
3 928 504 502
3 928 502 927
3 603 504 928
3 603 928 929
3 928 831 832
3 928 832 929
3 832 835 930
3 832 930 929
3 930 160 603
3 930 603 929
3 161 160 930
3 161 930 931
3 930 835 836
3 930 836 931
3 836 839 932
3 836 932 931
3 932 163 161
3 932 161 931
3 203 163 932
3 203 932 933
3 932 839 840
3 932 840 933
3 840 843 934
3 840 934 933
3 934 205 203
3 934 203 933
3 935 150 198
3 935 198 936
3 198 197 937
3 198 937 936
3 937 846 936
3 846 845 935
3 846 935 936
3 938 152 151
3 938 151 939
3 151 150 935
3 151 935 939
3 935 845 850
3 935 850 939
3 850 849 938
3 850 938 939
3 938 849 855
3 938 855 940
3 855 854 941
3 855 941 940
3 941 227 226
3 941 226 940
3 226 152 938
3 226 938 940
3 942 857 856
3 943 277 276
3 943 276 944
3 862 861 943
3 862 943 944
3 677 277 943
3 677 943 945
3 943 861 864
3 943 864 945
3 864 867 946
3 864 946 945
3 946 679 677
3 946 677 945
3 871 870 947
3 871 947 948
3 947 32 948
3 32 31 949
3 32 949 948
3 949 872 871
3 949 871 948
3 877 876 950
3 877 950 951
3 950 240 239
3 950 239 951
3 239 246 952
3 239 952 951
3 952 878 877
3 952 877 951
3 806 240 950
3 806 950 953
3 950 876 880
3 950 880 953
3 880 883 954
3 880 954 953
3 954 321 806
3 954 806 953
3 322 321 954
3 322 954 955
3 954 883 884
3 954 884 955
3 884 887 956
3 884 956 955
3 956 324 322
3 956 322 955
3 374 324 956
3 374 956 957
3 956 887 888
3 956 888 957
3 888 891 958
3 888 958 957
3 958 351 374
3 958 374 957
3 352 351 958
3 352 958 959
3 958 891 892
3 958 892 959
3 960 365 364
3 960 364 961
3 896 895 960
3 896 960 961
3 962 341 370
3 962 370 963
3 370 365 960
3 370 960 963
3 960 895 900
3 960 900 963
3 900 899 962
3 900 962 963
3 964 343 342
3 964 342 965
3 342 341 962
3 342 962 965
3 962 899 904
3 962 904 965
3 904 903 964
3 904 964 965
3 966 799 798
3 966 798 967
3 798 343 964
3 798 964 967
3 964 903 908
3 964 908 967
3 908 907 966
3 908 966 967
3 968 915 914
3 968 914 969
3 914 913 970
3 914 970 969
3 970 300 969
3 300 299 968
3 300 968 969
3 971 289 288
3 971 288 972
3 288 296 973
3 288 973 972
3 973 720 719
3 973 719 972
3 719 718 971
3 719 971 972
3 63 62 974
3 63 974 975
3 974 723 722
3 974 722 975
3 722 727 976
3 722 976 975
3 976 64 63
3 976 63 975
3 459 64 976
3 459 976 977
3 976 727 728
3 976 728 977
3 728 731 978
3 728 978 977
3 978 432 459
3 978 459 977
3 433 432 978
3 433 978 979
3 978 731 732
3 978 732 979
3 732 735 980
3 732 980 979
3 980 95 433
3 980 433 979
3 96 95 980
3 96 980 981
3 980 735 736
3 980 736 981
3 736 739 982
3 736 982 981
3 982 97 96
3 982 96 981
3 446 97 982
3 446 982 983
3 982 739 740
3 982 740 983
3 740 743 984
3 740 984 983
3 984 128 446
3 984 446 983
3 129 128 984
3 129 984 985
3 984 743 744
3 984 744 985
3 744 747 986
3 744 986 985
3 986 130 129
3 986 129 985
3 391 130 986
3 391 986 987
3 986 747 748
3 986 748 987
3 748 751 988
3 748 988 987
3 988 392 391
3 988 391 987
3 413 392 988
3 413 988 989
3 988 751 752
3 988 752 989
3 752 755 990
3 752 990 989
3 990 4 413
3 990 413 989
3 5 4 990
3 5 990 991
3 990 755 759
3 990 759 991
3 759 758 992
3 759 992 991
3 992 6 5
3 992 5 991
3 546 6 992
3 546 992 993
3 992 758 760
3 992 760 993
3 760 763 994
3 760 994 993
3 994 547 546
3 994 546 993
3 642 547 994
3 642 994 995
3 994 763 764
3 994 764 995
3 764 767 996
3 764 996 995
3 996 403 642
3 996 642 995
3 997 381 404
3 997 404 998
3 404 403 996
3 404 996 998
3 996 767 770
3 996 770 998
3 770 769 997
3 770 997 998
3 999 112 382
3 999 382 1000
3 382 381 997
3 382 997 1000
3 997 769 774
3 997 774 1000
3 774 773 999
3 774 999 1000
3 113 112 999
3 113 999 1001
3 999 773 778
3 999 778 1001
3 778 777 1002
3 778 1002 1001
3 1002 114 113
3 1002 113 1001
3 1003 79 440
3 1003 440 1004
3 440 114 1002
3 440 1002 1004
3 1002 777 782
3 1002 782 1004
3 782 781 1003
3 782 1003 1004
3 80 79 1003
3 80 1003 1005
3 1003 781 786
3 1003 786 1005
3 786 785 1006
3 786 1006 1005
3 1006 81 80
3 1006 80 1005
3 1007 419 418
3 1007 418 1008
3 418 81 1006
3 418 1006 1008
3 1006 785 788
3 1006 788 1008
3 788 660 1007
3 788 1007 1008
3 1009 46 454
3 1009 454 1010
3 454 419 1007
3 454 1007 1010
3 1007 660 658
3 1007 658 1010
3 658 657 1009
3 658 1009 1010
3 47 46 1009
3 47 1009 1011
3 1009 657 664
3 1009 664 1011
3 664 663 1012
3 664 1012 1011
3 1012 48 47
3 1012 47 1011
3 249 48 1012
3 249 1012 1013
3 1012 663 669
3 1012 669 1013
3 669 668 1014
3 669 1014 1013
3 1014 250 249
3 1014 249 1013
3 265 264 1015
3 265 1015 1016
3 1015 671 670
3 1015 670 1016
3 670 676 1017
3 670 1017 1016
3 1017 28 265
3 1017 265 1016
3 29 28 1017
3 29 1017 1018
3 1017 676 680
3 1017 680 1018
3 680 679 1019
3 680 1019 1018
3 1019 31 29
3 1019 29 1018
3 949 31 1019
3 949 1019 1020
3 1019 679 946
3 1019 946 1020
3 946 867 1021
3 946 1021 1020
3 1021 872 949
3 1021 949 1020
3 1022 255 873
3 1022 873 1023
3 873 872 1021
3 873 1021 1023
3 1021 867 866
3 1021 866 1023
3 866 685 1022
3 866 1022 1023
3 1024 257 256
3 1024 256 1025
3 256 255 1022
3 256 1022 1025
3 1022 685 683
3 1022 683 1025
3 683 682 1024
3 683 1024 1025
3 1026 231 230
3 1026 230 1027
3 230 238 1028
3 230 1028 1027
3 1028 692 691
3 1028 691 1027
3 691 690 1026
3 691 1026 1027
3 1029 494 599
3 1029 599 1030
3 599 231 1026
3 599 1026 1030
3 1026 690 697
3 1026 697 1030
3 697 696 1029
3 697 1029 1030
3 1031 13 495
3 1031 495 1032
3 495 494 1029
3 495 1029 1032
3 1029 696 701
3 1029 701 1032
3 701 700 1031
3 701 1031 1032
3 1033 15 14
3 1033 14 1034
3 14 13 1031
3 14 1031 1034
3 1031 700 703
3 1031 703 1034
3 703 706 1033
3 703 1033 1034
3 307 306 1035
3 307 1035 1036
3 1035 708 707
3 1035 707 1036
3 707 715 1037
3 707 1037 1036
3 1037 308 307
3 1037 307 1036
3 1038 1039 1040
3 1038 1040 1041
3 1040 261 1042
3 1040 1042 1041
3 1042 261 260
3 947 870 1043
3 868 252 1044
3 868 1044 1045
3 1043 870 868
3 1043 868 1045
3 251 259 1046
3 251 1046 1047
3 1044 252 251
3 1044 251 1047
3 1046 259 1048
3 1048 1049 1050
3 1050 1049 1051
3 1050 1051 1052
3 1051 1039 1038
3 1051 1038 1052
3 1053 246 245
3 1053 245 1054
3 245 244 1055
3 245 1055 1054
3 1055 261 1040
3 1055 1040 1054
3 1040 1039 1053
3 1040 1053 1054
3 1056 878 952
3 1056 952 1057
3 952 246 1053
3 952 1053 1057
3 1053 1039 1051
3 1053 1051 1057
3 1051 1049 1056
3 1051 1056 1057
3 1058 236 879
3 1058 879 1059
3 879 878 1056
3 879 1056 1059
3 1056 1049 1048
3 1056 1048 1059
3 1048 259 1058
3 1048 1058 1059
3 1060 238 237
3 1060 237 1061
3 237 236 1058
3 237 1058 1061
3 1058 259 258
3 1058 258 1061
3 258 257 1060
3 258 1060 1061
3 1060 257 1024
3 1060 1024 1062
3 1024 682 1063
3 1024 1063 1062
3 1063 692 1028
3 1063 1028 1062
3 1028 238 1060
3 1028 1060 1062
3 1064 694 693
3 1064 693 1065
3 693 692 1063
3 693 1063 1065
3 1063 682 681
3 1063 681 1065
3 681 271 1064
3 681 1064 1065
3 853 694 1064
3 853 1064 1066
3 1064 271 858
3 1064 858 1066
3 858 857 1067
3 858 1067 1066
3 1067 854 853
3 1067 853 1066
3 941 854 1067
3 941 1067 1068
3 1067 857 942
3 1067 942 1068
3 942 1069 1070
3 942 1070 1068
3 1070 227 941
3 1070 941 1068
3 1071 229 228
3 1071 228 1072
3 228 227 1070
3 228 1070 1072
3 1070 1069 1073
3 1070 1073 1072
3 1073 1071 1072
3 667 229 1071
3 667 1071 1074
3 1071 674 672
3 1071 672 1074
3 672 671 1075
3 672 1075 1074
3 1075 668 667
3 1075 667 1074
3 1076 250 1014
3 1076 1014 1077
3 1014 668 1075
3 1014 1075 1077
3 1075 671 1015
3 1075 1015 1077
3 1015 264 1076
3 1015 1076 1077
3 1055 244 247
3 1055 247 1078
3 247 250 1076
3 247 1076 1078
3 1076 264 262
3 1076 262 1078
3 262 261 1055
3 262 1055 1078
3 1079 62 60
3 1079 60 1080
3 60 52 1081
3 60 1081 1080
3 1081 292 290
3 1081 290 1080
3 290 289 1079
3 290 1079 1080
3 297 292 1081
3 297 1081 1082
3 1081 52 796
3 1081 796 1082
3 796 799 1083
3 796 1083 1082
3 1083 299 297
3 1083 297 1082
3 966 907 1084
3 966 1084 1085
3 1084 915 968
3 1084 968 1085
3 968 299 1083
3 968 1083 1085
3 1083 799 966
3 1083 966 1085
3 906 17 1086
3 906 1086 1087
3 1086 303 910
3 1086 910 1087
3 910 915 1084
3 910 1084 1087
3 1084 907 906
3 1084 906 1087
3 304 303 1086
3 304 1086 1088
3 1086 17 16
3 1086 16 1088
3 16 15 1089
3 16 1089 1088
3 1089 306 304
3 1089 304 1088
3 1035 306 1089
3 1035 1089 1090
3 1089 15 1033
3 1089 1033 1090
3 1033 706 1091
3 1033 1091 1090
3 1091 708 1035
3 1091 1035 1090
3 709 708 1091
3 709 1091 1092
3 1091 706 705
3 1091 705 1092
3 705 140 1093
3 705 1093 1092
3 1093 711 709
3 1093 709 1092
3 818 817 1094
3 818 1094 1095
3 1094 811 810
3 1094 810 1095
3 810 711 1093
3 810 1093 1095
3 1095 1093 140
3 1095 140 818
3 916 811 1094
3 916 1094 1096
3 1094 817 919
3 1094 919 1096
3 919 175 1097
3 919 1097 1096
3 1097 280 916
3 1097 916 1096
3 281 280 1097
3 281 1097 1098
3 1097 175 174
3 1097 174 1098
3 1098 174 41
3 1098 41 1099
3 1099 283 281
3 1099 281 1098
3 716 283 1099
3 716 1099 1100
3 1099 41 724
3 1099 724 1100
3 724 723 1101
3 724 1101 1100
3 1101 718 716
3 1101 716 1100
3 974 62 1079
3 974 1079 1102
3 1079 289 971
3 1079 971 1102
3 971 718 1101
3 971 1101 1102
3 1101 723 974
3 1101 974 1102
3 1103 296 295
3 1103 295 1104
3 295 294 1105
3 295 1105 1104
3 1105 294 301
3 970 913 1106
3 1106 913 912
3 1106 912 1107
3 912 310 1108
3 912 1108 1107
3 1108 310 309
3 1108 309 1109
3 309 308 1110
3 309 1110 1109
3 1110 308 1037
3 1110 1037 1111
3 1037 715 1112
3 1037 1112 1111
3 1112 715 714
3 1112 714 1113
3 714 713 1114
3 714 1114 1113
3 1114 713 815
3 1114 815 1115
3 815 814 1116
3 815 1116 1115
3 1116 814 918
3 1116 918 1117
3 918 287 1118
3 918 1118 1117
3 1118 287 286
3 1118 286 1119
3 286 285 1120
3 286 1120 1119
3 1120 285 721
3 1120 721 1121
3 721 720 1122
3 721 1122 1121
3 1122 720 973
3 1122 973 1123
3 973 296 1103
3 973 1103 1123
