OFF
122 234 0
9.99779 1.91822 -29.0335
10.0821 2.19972 -29.0395
10.323 2.29822 -29.2235
10.323 1.91822 -29.2075
10.5638 2.19972 -29.0395
10.6481 1.91822 -29.0335
10.5638 1.63672 -28.7575
10.323 1.53822 -28.8435
10.0821 1.63672 -28.7575
8.35659 4.02032 -2.17449
8.28769 4.70942 -2.50849
8.29639 4.68642 -2.51049
8.36269 4.02272 -2.18949
8.35449 5.02322 -3.49849
8.41599 4.40402 -3.20149
8.79329 3.91022 -2.90549
8.76909 3.49402 -1.86849
8.77859 3.47122 -1.84149
8.73559 5.12582 -2.61949
9.34719 5.12952 -2.50849
9.31669 5.09092 -2.51049
8.72769 5.08742 -2.61749
9.30179 5.39912 -3.49849
8.75509 5.39662 -3.59749
9.76929 4.58042 -2.17449
9.78939 3.89852 -1.86849
9.72309 4.56212 -2.18949
9.74039 4.28622 -2.90549
9.67899 4.90532 -3.20149
9.39019 3.47492 -1.72949
9.35809 3.49752 -1.76149
9.33989 3.91272 -2.80649
9.17999 5.39942 -9.64149
9.16469 5.76122 -9.79849
10.606 2.24982 -12.1435
10.5649 1.90342 -11.9855
11.6963 -0.969079 -14.6575
11.6084 -1.32578 -14.5165
11.7214 -1.67508 -14.3755
10.7062 1.58642 -11.8275
9.37419 5.09842 -9.48449
9.39829 5.96282 -9.85049
9.70159 5.94362 -9.79749
11.1535 2.33772 -12.1425
10.8631 2.40432 -12.1955
12.2989 -0.947179 -14.6565
11.9934 -0.840479 -14.7035
9.89529 5.64262 -9.63949
9.91019 5.28082 -9.48349
11.2532 1.67432 -11.8255
11.2945 2.02062 -11.9835
12.3238 -1.65308 -14.3755
12.4118 -1.29648 -14.5165
9.67699 5.07922 -9.43149
10.9964 1.51982 -11.7735
12.0268 -1.78168 -14.3285
11.279 -0.364079 -18.5405
11.1882 -0.673979 -18.5215
10.4101 1.51472 -22.5655
10.3367 1.27012 -22.6465
10.4101 1.02562 -22.7285
11.279 -0.98388 -18.5025
11.8236 -0.364079 -18.5405
11.5513 -0.260779 -18.5465
10.85 1.51472 -22.5655
10.63 1.59622 -22.5375
11.8236 -0.98388 -18.5025
11.9144 -0.673979 -18.5215
10.85 1.02562 -22.7285
10.9233 1.27012 -22.6465
11.5513 -1.08718 -18.4965
10.63 0.944121 -22.7555
10.1456 2.11712 -25.5025
10.0865 1.91822 -25.5385
10.1507 2.11742 -27.3115
10.0933 1.91822 -27.2455
10.1507 1.71902 -27.1795
10.1456 1.71932 -25.5755
10.5003 2.11712 -25.5025
10.323 2.18342 -25.4905
10.4952 2.11742 -27.3115
10.323 2.18382 -27.3335
10.5003 1.71932 -25.5755
10.5594 1.91822 -25.5385
10.4952 1.71902 -27.1795
10.5526 1.91822 -27.2455
10.323 1.65302 -25.5875
10.323 1.65262 -27.1575
10.0906 2.18982 -27.9505
10.0131 1.91822 -27.8145
10.021 2.27112 -28.1655
9.92029 1.91822 -27.9885
10.021 1.56532 -27.8115
10.0906 1.64662 -27.6785
10.5553 2.18982 -27.9505
10.323 2.28032 -27.9955
10.6249 2.27112 -28.1655
10.323 2.38872 -28.2245
10.5553 1.64662 -27.6785
10.6328 1.91822 -27.8145
10.6249 1.56532 -27.8115
10.7256 1.91822 -27.9885
10.323 1.55612 -27.6325
10.323 1.44762 -27.7525
9.99779 2.29822 -28.7015
9.88939 1.91822 -28.5115
9.99779 1.53822 -28.3205
10.6481 2.29822 -28.7015
10.323 2.42492 -28.7645
10.6481 1.53822 -28.3205
10.7565 1.91822 -28.5115
10.323 1.41152 -28.2575
9.25719 6.32372 -6.42149
8.83709 6.32432 -6.49549
8.52909 6.03352 -6.42249
8.57609 5.54792 -6.20049
8.86569 5.15902 -5.97749
9.28559 5.15842 -5.90249
9.59329 5.44922 -5.97649
9.54659 5.93482 -6.19849
8.26169 4.77862 -2.54049
8.80709 3.40302 -1.79949
3 0 1 2
3 0 2 3
3 2 4 5
3 2 5 3
3 5 6 7
3 5 7 3
3 7 8 0
3 7 0 3
3 9 10 11
3 9 11 12
3 11 13 14
3 11 14 12
3 14 15 16
3 14 16 12
3 16 17 9
3 16 9 12
3 18 19 20
3 18 20 21
3 20 22 23
3 20 23 21
3 23 13 11
3 23 11 21
3 11 10 18
3 11 18 21
3 24 25 26
3 25 27 28
3 25 28 26
3 28 22 20
3 28 20 26
3 20 19 24
3 20 24 26
3 29 17 16
3 29 16 30
3 16 15 31
3 16 31 30
3 31 27 25
3 31 25 30
3 25 29 30
3 32 33 34
3 32 34 35
3 34 36 37
3 34 37 35
3 37 38 39
3 37 39 35
3 39 40 32
3 39 32 35
3 41 42 43
3 41 43 44
3 43 45 46
3 43 46 44
3 46 36 34
3 46 34 44
3 34 33 41
3 34 41 44
3 47 48 49
3 47 49 50
3 49 51 52
3 49 52 50
3 52 45 43
3 52 43 50
3 43 42 47
3 43 47 50
3 53 40 39
3 53 39 54
3 39 38 55
3 39 55 54
3 55 51 49
3 55 49 54
3 49 48 53
3 49 53 54
3 37 36 56
3 37 56 57
3 56 58 59
3 56 59 57
3 59 60 61
3 59 61 57
3 61 38 37
3 61 37 57
3 46 45 62
3 46 62 63
3 62 64 65
3 62 65 63
3 65 58 56
3 65 56 63
3 56 36 46
3 56 46 63
3 52 51 66
3 52 66 67
3 66 68 69
3 66 69 67
3 69 64 62
3 69 62 67
3 62 45 52
3 62 52 67
3 55 38 61
3 55 61 70
3 61 60 71
3 61 71 70
3 71 68 66
3 71 66 70
3 66 51 55
3 66 55 70
3 59 58 72
3 59 72 73
3 72 74 75
3 72 75 73
3 75 76 77
3 75 77 73
3 77 60 59
3 77 59 73
3 65 64 78
3 65 78 79
3 78 80 81
3 78 81 79
3 81 74 72
3 81 72 79
3 72 58 65
3 72 65 79
3 69 68 82
3 69 82 83
3 82 84 85
3 82 85 83
3 85 80 78
3 85 78 83
3 78 64 69
3 78 69 83
3 71 60 77
3 71 77 86
3 77 76 87
3 77 87 86
3 87 84 82
3 87 82 86
3 82 68 71
3 82 71 86
3 75 74 88
3 75 88 89
3 88 90 91
3 88 91 89
3 91 92 93
3 91 93 89
3 93 76 75
3 93 75 89
3 81 80 94
3 81 94 95
3 94 96 97
3 94 97 95
3 97 90 88
3 97 88 95
3 88 74 81
3 88 81 95
3 85 84 98
3 85 98 99
3 98 100 101
3 98 101 99
3 101 96 94
3 101 94 99
3 94 80 85
3 94 85 99
3 87 76 93
3 87 93 102
3 93 92 103
3 93 103 102
3 103 100 98
3 103 98 102
3 98 84 87
3 98 87 102
3 91 90 104
3 91 104 105
3 104 1 0
3 104 0 105
3 0 8 106
3 0 106 105
3 106 92 91
3 106 91 105
3 97 96 107
3 97 107 108
3 107 4 2
3 107 2 108
3 2 1 104
3 2 104 108
3 104 90 97
3 104 97 108
3 101 100 109
3 101 109 110
3 109 6 5
3 109 5 110
3 5 4 107
3 5 107 110
3 107 96 101
3 107 101 110
3 103 92 106
3 103 106 111
3 106 8 7
3 106 7 111
3 7 6 109
3 7 109 111
3 109 100 103
3 109 103 111
3 23 22 112
3 23 112 113
3 112 42 41
3 112 41 113
3 41 33 114
3 41 114 113
3 114 13 23
3 114 23 113
3 14 13 114
3 14 114 115
3 114 33 32
3 114 32 115
3 32 40 116
3 32 116 115
3 116 15 14
3 116 14 115
3 31 15 116
3 31 116 117
3 116 40 53
3 116 53 117
3 53 48 118
3 53 118 117
3 118 27 31
3 118 31 117
3 28 27 118
3 28 118 119
3 118 48 47
3 118 47 119
3 47 42 112
3 47 112 119
3 112 22 28
3 112 28 119
3 18 10 120
3 120 10 9
3 9 17 121
3 121 17 29
