OFF
377 735 0
7.64619 15.3168 4.26203
7.53519 14.933 3.52033
7.15419 15.1326 3.19393
7.11519 15.7557 4.13163
6.56119 15.1649 2.92593
6.46119 15.8129 3.89303
6.34919 16.1811 4.99543
7.07919 16.1215 5.22373
7.66219 15.6363 5.32743
5.93519 14.9353 2.86393
5.48619 14.6028 2.95293
5.22119 14.9049 3.53193
5.78519 15.523 3.72743
4.97519 15.1545 4.41613
5.60219 15.8489 4.72303
4.83319 15.2633 5.38953
4.78519 15.2629 6.23813
5.41819 15.9644 6.62723
5.47919 15.98 5.75653
6.15619 16.3072 6.98723
6.24119 16.3274 6.09053
6.86819 16.2574 7.26203
7.41819 15.7811 7.39573
7.56419 15.7786 6.45313
6.98219 16.2716 6.33983
6.61019 6.24626 2.53993
6.55619 6.33206 2.66293
6.65619 6.34156 3.14093
6.49119 6.87556 2.82293
6.50819 6.91446 3.66253
6.58019 6.30106 3.66143
6.34519 6.37086 4.12463
5.99319 6.38346 4.43603
5.96219 6.30366 4.56393
4.89719 6.15016 2.00793
4.90619 6.23796 2.14393
5.34919 6.24766 2.03793
5.36419 6.16166 1.86093
5.82919 6.27896 2.10193
5.85819 6.19746 1.95593
6.25619 6.29916 2.31093
6.31619 6.21416 2.13993
4.28419 6.24046 3.27293
4.74819 7.02966 3.00893
4.31919 6.16476 2.80293
4.55819 6.21886 2.41893
5.55619 6.36116 4.50873
5.50219 6.28476 4.67523
5.09919 6.34176 4.38173
5.02619 6.25946 4.53233
4.68719 6.30336 4.10683
7.34219 9.74856 3.50723
7.21519 9.70206 2.96993
7.39619 9.87936 2.80993
7.52919 9.93416 3.45493
7.55419 10.0682 2.64093
7.69119 10.1326 3.39893
7.60219 10.1824 4.24903
7.45819 9.97806 4.16863
7.28819 9.78486 4.09673
7.68519 10.402 2.51293
7.79019 11.0142 2.47293
7.94719 11.1051 3.42693
7.82919 10.4781 3.37693
7.85719 11.1642 4.53563
7.73019 10.5292 4.36773
7.56719 11.1599 5.63983
7.07619 11.0298 6.59573
6.95419 10.4689 6.01273
7.43119 10.5316 5.33023
6.88319 10.1914 5.60993
7.32219 10.2054 5.04343
6.81719 10.0045 5.28443
6.73419 9.80356 5.00633
7.07919 9.80306 4.62603
5.92919 9.55916 2.33993
5.47019 9.53586 2.48393
5.44319 9.69286 2.27893
5.40819 9.86036 2.07293
5.98319 9.88976 1.83393
6.60419 9.93756 1.85593
6.42619 9.60226 2.37693
5.36819 10.1675 1.91393
5.32319 10.7433 1.84893
5.98419 10.7785 1.52093
5.99119 10.1991 1.62593
6.69219 10.8416 1.51693
6.65719 10.2542 1.63293
7.33319 10.9232 1.83593
7.25819 10.3246 1.92993
7.15519 9.99346 2.12993
6.88219 9.65116 2.58993
4.88819 9.59286 3.80033
5.03019 9.61756 4.29493
4.91219 9.79276 4.47873
4.76919 9.94866 4.69553
4.63019 9.90796 3.99033
4.71719 9.85996 3.24993
4.93619 9.54466 3.27993
4.59919 10.1821 4.96073
4.38519 10.6684 5.33773
4.33519 10.746 4.33633
4.47419 10.1862 4.15133
4.49519 10.7559 3.37193
4.59519 10.1802 3.28093
4.82519 10.7454 2.50393
4.89819 10.1676 2.49993
4.97819 9.85456 2.57793
5.13319 9.53096 2.82093
6.28319 9.77436 5.11383
6.30719 9.97246 5.42833
6.31419 10.1302 5.77623
5.76519 9.91766 5.30433
5.79819 9.72726 5.00043
6.32119 10.5507 6.51963
6.32719 10.3248 6.16363
5.61119 10.3569 6.24533
5.65219 10.1922 5.95463
4.95319 10.371 5.85713
5.03319 10.1644 5.55773
5.16119 9.99546 5.25543
5.35619 9.67176 4.71213
5.27119 9.85546 4.97223
7.86519 12.0383 2.57093
8.04919 12.1479 3.58533
7.86319 13.208 2.80093
8.07119 13.3517 3.82133
8.05819 13.4902 5.00813
7.99319 12.2328 4.76363
7.73619 14.257 3.15893
7.95119 14.4618 4.10273
7.96819 14.692 5.22583
7.67519 14.8443 7.33223
7.85019 14.8146 6.37873
7.68219 13.6282 7.13683
7.89719 13.578 6.18243
7.48419 12.3141 6.87493
7.76219 12.2676 5.93003
5.27419 11.7171 1.92593
5.95919 11.758 1.57093
5.26719 12.8481 2.15293
5.94219 12.9129 1.79893
6.67919 13.0155 1.79293
6.69919 11.8324 1.56193
5.35019 13.8957 2.53793
5.96119 14.0187 2.22493
6.63319 14.1793 2.23693
7.26119 14.2108 2.54193
7.36019 13.1049 2.12593
7.37519 11.9295 1.89593
4.20119 11.8101 5.37833
4.24419 11.7562 4.51943
4.20619 13.0357 5.57723
4.26119 12.9877 4.74083
4.44319 12.9349 3.77543
4.42419 11.7425 3.53733
4.39119 14.2367 5.87593
4.44219 14.2113 5.04093
4.60719 14.1277 4.08433
4.90419 13.9772 3.20393
4.77319 12.8719 2.86193
4.76519 11.7207 2.62693
6.30619 12.0938 6.57623
6.70819 12.7874 6.88683
6.37819 12.6751 6.65103
6.83419 13.4562 7.04553
6.47919 13.3883 6.80343
6.04419 13.3108 6.56463
5.97319 12.5535 6.41813
5.90619 11.9244 6.33813
6.84419 14.108 7.17873
6.88919 14.7476 7.40483
6.53119 14.686 7.13423
6.51319 14.0938 6.96293
6.15719 14.7086 6.94913
6.10919 14.071 6.75073
5.73419 14.5278 6.73853
5.33319 13.8351 6.42583
5.69019 13.9459 6.55303
5.22919 13.1767 6.24173
5.60419 13.2361 6.36543
5.23019 12.5397 6.14273
5.51919 11.9658 6.17793
5.57119 12.5395 6.24533
6.87019 11.3966 7.07683
6.27319 10.8024 6.77373
6.75919 11.6261 7.25813
6.22319 11.043 6.91803
5.63119 10.7981 6.59903
5.60719 10.5715 6.46383
6.70019 11.7835 7.27753
6.67719 11.8827 7.19853
6.22319 11.3746 6.89033
6.21119 11.2357 6.94463
5.72419 11.1516 6.60983
5.67319 10.999 6.64033
5.25019 11.2283 6.39143
4.87819 11.6034 6.28003
4.76519 11.4848 6.28703
5.16519 11.0799 6.40693
4.63619 11.3047 6.17953
5.07319 10.876 6.33083
4.50519 11.0531 5.90623
4.98419 10.6239 6.13123
7.29119 15.6811 7.91193
7.52119 14.7959 7.85713
7.18619 15.5192 8.10533
7.39219 14.6985 8.05723
7.36919 13.6533 7.87023
7.50719 13.6539 7.66393
7.10519 15.3359 8.07953
7.05119 15.1717 7.93823
7.22519 14.4723 7.89893
7.29219 14.5809 8.03653
7.20419 13.5872 7.73863
7.26819 13.6248 7.86253
7.01319 12.6722 7.49323
7.06219 12.6361 7.59653
7.15019 12.5627 7.58973
7.28519 12.4339 7.38873
4.81719 15.1847 6.74783
5.41919 15.85 7.13393
4.90319 15.0596 6.99273
5.46219 15.6772 7.35953
6.10619 15.9792 7.70293
6.11519 16.1759 7.49413
5.01319 14.9184 7.04683
5.12319 14.788 6.98183
5.59619 15.3166 7.29833
5.52819 15.486 7.38683
6.14619 15.5686 7.59303
6.11819 15.7622 7.70523
6.65819 15.53 7.82093
6.67819 15.7209 7.95263
6.71919 15.9363 7.96943
6.78119 16.1303 7.77223
4.27319 11.9522 5.91933
4.40719 12.1122 6.21133
4.37819 13.1216 6.38413
4.25919 13.0842 6.10363
4.68619 12.2858 6.31293
4.55219 12.2199 6.32313
4.66619 13.1361 6.45963
4.52319 13.1365 6.48303
4.81019 14.0173 6.69403
4.67719 14.0856 6.73493
4.54219 14.1559 6.65613
4.43519 14.2123 6.39203
6.67119 11.9971 6.96843
6.26019 11.5441 6.68333
5.80719 11.3482 6.42413
6.62119 12.1429 6.84173
6.25619 11.7309 6.58643
5.85219 11.5489 6.35133
5.16519 11.9117 6.10313
5.46719 11.6085 6.18523
5.04519 11.7494 6.13253
5.38019 11.4128 6.23163
6.99819 14.9625 7.62703
7.15419 14.3302 7.58643
7.14119 13.5272 7.44693
7.04519 14.2075 7.38693
7.03819 13.502 7.25413
6.88919 12.7735 7.06833
6.97119 12.711 7.22643
5.69319 15.0912 7.03943
5.26319 14.6225 6.76153
6.17719 15.3189 7.30143
5.36419 14.4768 6.66443
5.74519 14.8976 6.90683
6.17719 15.0982 7.13253
6.58619 15.0597 7.32193
6.64119 15.2802 7.50983
4.86819 12.3667 6.15923
4.84919 13.1335 6.28963
5.00819 12.4607 6.12023
4.99219 13.1452 6.22973
5.11219 13.8549 6.42493
4.98119 13.9273 6.50083
6.02619 6.92076 4.31313
5.71319 7.20156 4.31223
6.05419 7.27986 4.24933
5.37919 7.24306 4.21133
5.26919 6.88176 4.26903
6.10619 7.69736 4.21443
6.19019 8.15256 4.23653
5.90619 8.13736 4.28563
5.80919 7.68316 4.26463
5.60419 8.11396 4.20763
5.49519 7.66116 4.18193
5.33019 8.08686 4.03093
5.12919 8.06066 3.78353
5.00519 7.61116 3.73613
5.21119 7.63576 3.99583
4.79319 7.07696 3.71083
5.04419 7.15376 4.00723
4.39819 6.27976 3.72123
4.73219 7.10926 3.37193
5.04819 8.04006 3.49373
4.92619 7.59176 3.43293
5.07719 8.02616 3.20093
4.96119 7.57876 3.12593
5.20319 8.02036 2.94293
5.41619 8.02376 2.75893
5.32219 7.57646 2.66493
5.09719 7.57326 2.85593
5.17519 7.04196 2.48893
4.93219 7.09026 2.72293
5.53119 7.10716 2.42793
5.89419 7.07616 2.45493
5.70519 8.03766 2.68893
5.62519 7.58956 2.59293
6.01819 8.05856 2.72593
5.95119 7.60916 2.63193
6.30319 8.08326 2.85993
6.50819 8.10826 3.08693
6.45819 7.65576 3.01293
6.24719 7.63236 2.77493
6.46019 7.23746 2.91893
6.22719 7.15086 2.63493
6.53919 7.19536 3.26993
6.48119 7.27396 3.66803
6.58419 8.13006 3.39793
6.53219 7.67626 3.33793
6.54519 8.14636 3.73263
6.48519 7.69166 3.68853
6.40819 8.15466 4.03223
6.33719 7.69946 4.00153
6.31219 7.21736 4.01733
5.18219 8.51686 3.86803
5.09219 8.49266 3.56153
5.17619 8.94886 3.98463
5.07119 8.91946 3.63493
5.09719 8.89966 3.27993
5.11719 8.47646 3.25093
5.12219 9.32606 4.12853
5.00119 9.29006 3.71303
5.03219 9.26566 3.28893
5.48919 9.26006 2.63993
5.19919 9.25496 2.91193
5.49119 8.89586 2.74093
5.24119 8.89116 2.96593
5.47019 8.47366 2.78293
5.24719 8.46966 2.97793
5.77519 8.48986 2.70793
5.83519 8.91536 2.65193
6.21119 8.94486 2.69093
6.10719 8.51446 2.74493
5.88619 9.28296 2.52793
6.32019 9.31806 2.56793
7.01119 9.40286 3.07193
6.71919 9.35996 2.75193
6.80919 9.01526 3.12193
6.55619 8.97976 2.85093
6.63419 8.57256 3.12493
6.41119 8.54326 2.88593
6.71919 8.59816 3.45393
6.90919 9.04656 3.49713
6.87219 9.07016 3.90363
6.68319 8.61736 3.80873
7.12619 9.44136 3.51813
7.08319 9.47076 4.00403
6.60819 9.48396 4.74553
6.90419 9.48656 4.44223
6.46219 9.07966 4.51903
6.71719 9.08246 4.26853
6.31519 8.62456 4.34373
6.54319 8.62706 4.12653
6.01519 8.60686 4.39673
6.12319 9.05836 4.58223
5.75919 9.02496 4.49193
5.69419 8.57936 4.31533
6.21719 9.45856 4.82653
5.79519 9.41836 4.72453
5.40819 9.37146 4.47883
5.42419 8.98626 4.28153
5.39919 8.54756 4.12913
3 0 1 2
3 0 2 3
3 2 4 5
3 2 5 3
3 5 6 7
3 5 7 3
3 7 8 0
3 7 0 3
3 9 10 11
3 9 11 12
3 11 13 14
3 11 14 12
3 14 6 5
3 14 5 12
3 5 4 9
3 5 9 12
3 15 16 17
3 15 17 18
3 17 19 20
3 17 20 18
3 20 6 14
3 20 14 18
3 14 13 15
3 14 15 18
3 21 22 23
3 21 23 24
3 23 8 7
3 23 7 24
3 7 6 20
3 7 20 24
3 20 19 21
3 20 21 24
3 25 26 27
3 26 28 27
3 27 29 30
3 30 29 31
3 31 32 33
3 34 35 36
3 34 36 37
3 36 38 39
3 36 39 37
3 40 28 26
3 39 38 40
3 39 40 41
3 40 26 25
3 40 25 41
3 42 43 44
3 44 43 45
3 33 32 46
3 33 46 47
3 46 48 49
3 46 49 47
3 49 48 50
3 51 52 53
3 51 53 54
3 53 55 56
3 53 56 54
3 56 57 58
3 56 58 54
3 58 59 51
3 58 51 54
3 60 61 62
3 60 62 63
3 62 64 65
3 62 65 63
3 65 57 56
3 65 56 63
3 56 55 60
3 56 60 63
3 66 67 68
3 66 68 69
3 68 70 71
3 68 71 69
3 71 57 65
3 71 65 69
3 65 64 66
3 65 66 69
3 72 73 74
3 74 59 58
3 58 57 71
3 58 71 74
3 71 70 72
3 71 72 74
3 75 76 77
3 77 78 79
3 77 79 75
3 79 80 75
3 80 81 75
3 82 83 84
3 82 84 85
3 84 86 87
3 84 87 85
3 87 80 79
3 87 79 85
3 79 78 82
3 79 82 85
3 88 61 60
3 88 60 89
3 60 55 90
3 60 90 89
3 90 80 87
3 90 87 89
3 87 86 88
3 87 88 89
3 53 52 91
3 53 91 90
3 91 81 80
3 91 80 90
3 90 55 53
3 92 93 94
3 94 95 96
3 94 96 92
3 96 97 92
3 97 98 92
3 99 100 101
3 99 101 102
3 101 103 104
3 101 104 102
3 104 97 96
3 104 96 102
3 96 95 99
3 96 99 102
3 105 83 82
3 105 82 106
3 82 78 107
3 82 107 106
3 107 97 104
3 107 104 106
3 104 103 105
3 104 105 106
3 77 76 108
3 77 108 107
3 108 98 97
3 108 97 107
3 107 78 77
3 109 73 72
3 109 72 110
3 72 70 111
3 72 111 110
3 111 112 110
3 112 113 109
3 112 109 110
3 68 67 114
3 68 114 115
3 114 116 117
3 114 117 115
3 117 112 111
3 117 111 115
3 111 70 68
3 111 68 115
3 118 100 99
3 118 99 119
3 99 95 120
3 99 120 119
3 120 112 117
3 120 117 119
3 117 116 118
3 117 118 119
3 94 93 121
3 94 121 122
3 121 113 112
3 121 112 122
3 112 120 122
3 120 95 94
3 120 94 122
3 62 61 123
3 62 123 124
3 123 125 126
3 123 126 124
3 126 127 128
3 126 128 124
3 128 64 62
3 128 62 124
3 129 1 0
3 129 0 130
3 0 8 131
3 0 131 130
3 131 127 126
3 131 126 130
3 126 125 129
3 126 129 130
3 23 22 132
3 23 132 133
3 132 134 135
3 132 135 133
3 135 127 131
3 135 131 133
3 131 8 23
3 131 23 133
3 136 67 66
3 136 66 137
3 66 64 128
3 66 128 137
3 128 127 135
3 128 135 137
3 135 134 136
3 135 136 137
3 84 83 138
3 84 138 139
3 138 140 141
3 138 141 139
3 141 142 143
3 141 143 139
3 143 86 84
3 143 84 139
3 144 10 9
3 144 9 145
3 9 4 146
3 9 146 145
3 146 142 141
3 146 141 145
3 141 140 144
3 141 144 145
3 2 1 129
3 2 129 147
3 129 125 148
3 129 148 147
3 148 142 146
3 148 146 147
3 146 4 2
3 146 2 147
3 123 61 88
3 123 88 149
3 88 86 143
3 88 143 149
3 143 142 148
3 143 148 149
3 148 125 123
3 148 123 149
3 101 100 150
3 101 150 151
3 150 152 153
3 150 153 151
3 153 154 155
3 153 155 151
3 155 103 101
3 155 101 151
3 156 16 15
3 156 15 157
3 15 13 158
3 15 158 157
3 158 154 153
3 158 153 157
3 153 152 156
3 153 156 157
3 11 10 144
3 11 144 159
3 144 140 160
3 144 160 159
3 160 154 158
3 160 158 159
3 158 13 11
3 158 11 159
3 138 83 105
3 138 105 161
3 105 103 155
3 105 155 161
3 155 154 160
3 155 160 161
3 160 140 138
3 160 138 161
3 162 163 164
3 163 165 166
3 163 166 164
3 166 167 168
3 166 168 164
3 168 169 162
3 168 162 164
3 170 171 172
3 170 172 173
3 172 174 175
3 172 175 173
3 175 167 166
3 175 166 173
3 166 165 170
3 166 170 173
3 176 177 178
3 177 179 180
3 177 180 178
3 180 167 175
3 180 175 178
3 175 174 176
3 175 176 178
3 181 182 183
3 182 169 168
3 182 168 183
3 168 167 180
3 168 180 183
3 180 179 181
3 180 181 183
3 114 67 184
3 114 184 185
3 184 186 187
3 184 187 185
3 187 188 189
3 187 189 185
3 189 116 114
3 189 114 185
3 190 191 192
3 190 192 193
3 192 194 195
3 192 195 193
3 195 188 187
3 195 187 193
3 187 186 190
3 187 190 193
3 196 197 198
3 196 198 199
3 198 200 201
3 198 201 199
3 201 188 195
3 201 195 199
3 195 194 196
3 195 196 199
3 202 100 118
3 202 118 203
3 118 116 189
3 118 189 203
3 189 188 201
3 189 201 203
3 201 200 202
3 201 202 203
3 132 22 204
3 132 204 205
3 204 206 207
3 204 207 205
3 207 208 209
3 207 209 205
3 209 134 132
3 209 132 205
3 210 211 212
3 210 212 213
3 212 214 215
3 212 215 213
3 215 208 207
3 215 207 213
3 207 206 210
3 207 210 213
3 216 191 190
3 216 190 217
3 190 186 218
3 190 218 217
3 218 208 215
3 218 215 217
3 215 214 216
3 215 216 217
3 184 67 136
3 184 136 219
3 136 134 209
3 136 209 219
3 209 208 218
3 209 218 219
3 218 186 184
3 218 184 219
3 17 16 220
3 17 220 221
3 220 222 223
3 220 223 221
3 223 224 225
3 223 225 221
3 225 19 17
3 225 17 221
3 226 227 228
3 226 228 229
3 228 230 231
3 228 231 229
3 231 224 223
3 231 223 229
3 223 222 226
3 223 226 229
3 232 211 210
3 232 210 233
3 210 206 234
3 210 234 233
3 234 224 231
3 234 231 233
3 231 230 232
3 231 232 233
3 204 22 21
3 204 21 235
3 21 19 225
3 21 225 235
3 225 224 234
3 225 234 235
3 234 206 204
3 234 204 235
3 150 100 202
3 150 202 236
3 202 200 237
3 202 237 236
3 237 238 239
3 237 239 236
3 239 152 150
3 239 150 236
3 198 197 240
3 198 240 241
3 240 242 243
3 240 243 241
3 243 238 237
3 243 237 241
3 237 200 198
3 237 198 241
3 244 227 226
3 244 226 245
3 226 222 246
3 226 246 245
3 246 238 243
3 246 243 245
3 243 242 244
3 243 244 245
3 220 16 156
3 220 156 247
3 156 152 239
3 156 239 247
3 239 238 246
3 239 246 247
3 246 222 220
3 246 220 247
3 192 191 248
3 192 248 249
3 249 250 194
3 194 192 249
3 251 162 252
3 162 169 253
3 162 253 252
3 253 250 249
3 253 249 252
3 249 248 251
3 249 251 252
3 182 254 255
3 254 256 257
3 254 257 255
3 257 250 253
3 257 253 255
3 253 169 182
3 253 182 255
3 256 197 196
3 256 196 257
3 196 194 257
3 194 250 257
3 212 211 258
3 212 258 259
3 260 214 212
3 260 212 259
3 171 170 261
3 170 165 262
3 170 262 261
3 262 260 259
3 262 259 261
3 259 258 171
3 259 171 261
3 163 162 251
3 163 251 263
3 251 248 264
3 251 264 263
3 264 260 262
3 264 262 263
3 262 165 163
3 262 163 263
3 248 191 216
3 248 216 264
3 216 214 260
3 216 260 264
3 228 227 265
3 227 266 265
3 265 267 230
3 230 228 265
3 268 176 269
3 176 174 270
3 176 270 269
3 270 267 265
3 270 265 269
3 265 266 268
3 265 268 269
3 172 171 271
3 171 258 272
3 171 272 271
3 272 267 270
3 272 270 271
3 270 174 172
3 270 172 271
3 258 211 232
3 258 232 272
3 232 230 272
3 230 267 272
3 240 197 256
3 256 273 240
3 273 274 242
3 273 242 240
3 254 182 181
3 254 181 275
3 181 179 276
3 181 276 275
3 276 274 273
3 276 273 275
3 273 256 254
3 273 254 275
3 177 176 268
3 177 268 277
3 268 266 278
3 268 278 277
3 278 274 276
3 278 276 277
3 276 179 177
3 276 177 277
3 242 274 278
3 242 278 244
3 278 266 227
3 278 227 244
3 46 32 279
3 46 279 280
3 279 281 280
3 280 282 283
3 283 48 46
3 283 46 280
3 284 285 286
3 284 286 287
3 286 288 289
3 286 289 287
3 289 282 280
3 289 280 287
3 280 281 284
3 280 284 287
3 290 291 292
3 290 292 293
3 292 294 295
3 292 295 293
3 295 282 289
3 295 289 293
3 289 288 290
3 289 290 293
3 294 296 50
3 294 50 295
3 50 48 283
3 50 283 295
3 283 282 295
3 42 296 294
3 42 294 297
3 43 42 297
3 292 291 298
3 292 298 299
3 298 300 301
3 298 301 299
3 301 43 297
3 301 297 299
3 297 294 292
3 297 292 299
3 302 303 304
3 302 304 305
3 304 306 307
3 304 307 305
3 307 43 301
3 307 301 305
3 301 300 302
3 301 302 305
3 306 35 45
3 306 45 307
3 45 43 307
3 36 35 306
3 36 306 308
3 309 38 36
3 309 36 308
3 304 303 310
3 304 310 311
3 310 312 313
3 310 313 311
3 313 309 308
3 313 308 311
3 308 306 304
3 308 304 311
3 314 315 316
3 314 316 317
3 316 318 319
3 316 319 317
3 319 309 313
3 319 313 317
3 313 312 314
3 313 314 317
3 28 40 319
3 40 38 309
3 40 309 319
3 319 318 28
3 27 28 320
3 28 318 320
3 320 321 29
3 29 27 320
3 316 315 322
3 316 322 323
3 322 324 325
3 322 325 323
3 325 321 320
3 325 320 323
3 320 318 316
3 320 316 323
3 326 285 284
3 326 284 327
3 284 281 328
3 284 328 327
3 328 321 325
3 328 325 327
3 325 324 326
3 325 326 327
3 279 32 31
3 279 31 328
3 31 29 328
3 29 321 328
3 328 281 279
3 298 291 329
3 298 329 330
3 329 331 332
3 329 332 330
3 332 333 334
3 332 334 330
3 334 300 298
3 334 298 330
3 335 93 92
3 335 92 336
3 92 98 337
3 92 337 336
3 337 333 332
3 337 332 336
3 332 331 335
3 332 335 336
3 108 76 338
3 108 338 339
3 338 340 341
3 338 341 339
3 341 333 337
3 341 337 339
3 337 98 108
3 337 108 339
3 342 303 302
3 342 302 343
3 302 300 334
3 302 334 343
3 334 333 341
3 334 341 343
3 341 340 342
3 341 342 343
3 310 303 342
3 310 342 344
3 342 340 345
3 342 345 344
3 345 346 347
3 345 347 344
3 347 312 310
3 347 310 344
3 338 76 75
3 338 75 348
3 75 81 349
3 75 349 348
3 349 346 345
3 349 345 348
3 345 340 338
3 345 338 348
3 91 52 350
3 91 350 351
3 350 352 353
3 350 353 351
3 353 346 349
3 353 349 351
3 349 81 91
3 349 91 351
3 354 315 314
3 354 314 355
3 314 312 347
3 314 347 355
3 347 346 353
3 347 353 355
3 353 352 354
3 353 354 355
3 322 315 354
3 322 354 356
3 354 352 357
3 354 357 356
3 357 358 359
3 357 359 356
3 359 324 322
3 359 322 356
3 350 52 51
3 350 51 360
3 51 59 361
3 51 361 360
3 361 358 357
3 361 357 360
3 357 352 350
3 357 350 360
3 74 73 362
3 74 362 363
3 362 364 365
3 362 365 363
3 365 358 361
3 365 361 363
3 361 59 74
3 361 74 363
3 366 285 326
3 366 326 367
3 326 324 359
3 326 359 367
3 359 358 365
3 359 365 367
3 365 364 366
3 365 366 367
3 286 285 366
3 286 366 368
3 366 364 369
3 366 369 368
3 369 370 371
3 369 371 368
3 371 288 286
3 371 286 368
3 362 73 109
3 362 109 372
3 109 113 373
3 109 373 372
3 373 370 369
3 373 369 372
3 369 364 362
3 369 362 372
3 121 93 335
3 121 335 374
3 335 331 375
3 335 375 374
3 375 370 373
3 375 373 374
3 373 113 121
3 373 121 374
3 329 291 290
3 329 290 376
3 290 288 371
3 290 371 376
3 371 370 375
3 371 375 376
3 375 331 329
3 375 329 376
