OFF
295 563 0
9.26236 -15.4491 -1.48154
8.79536 -15.4491 -1.48154
8.79536 -15.4648 -1.54054
9.26236 -15.4648 -1.54054
8.79536 -15.4648 -2.29154
9.26236 -15.4648 -2.29154
9.30436 -15.4491 -2.29154
9.30436 -15.4491 -1.54054
9.29336 -15.4369 -1.49654
6.34936 -7.7974 -2.27254
6.34936 -7.80442 -2.28054
6.34936 -7.80442 -1.70354
6.34936 -7.7974 -1.69554
8.55736 -7.7974 -6.15854
8.55736 -7.80442 -6.16254
8.53236 -7.80442 -6.18354
8.53236 -7.7974 -6.17954
8.25436 -7.80442 -6.18354
8.25436 -7.7974 -6.17954
8.25436 -7.82548 -1.66854
8.25436 -8.40807 -2.07054
8.53236 -8.40808 -2.07054
8.53236 -7.82548 -1.66854
8.55736 -8.40807 -2.08454
8.55736 -7.82548 -1.68354
6.34936 -7.82548 -2.30354
6.34936 -7.82548 -1.72854
6.34936 -8.40807 -2.65954
6.34936 -8.40808 -2.12654
6.36536 -8.40808 -2.08454
6.36536 -7.82548 -1.68354
8.55736 -7.82548 -6.17554
8.53236 -7.82548 -6.19654
8.55736 -8.40807 -6.24954
8.53236 -8.40808 -6.26854
8.25436 -8.40807 -6.26854
8.25436 -7.82548 -6.19654
8.56536 -8.40808 -2.12654
8.56536 -7.82548 -1.72854
8.56536 -8.40807 -2.65954
8.56536 -7.82548 -2.30354
8.62336 -11.7843 -3.93454
8.32236 -11.7843 -3.93454
8.52536 -12.3458 -3.09054
8.89736 -12.3458 -3.09054
8.72736 -12.72 -1.86854
9.17136 -12.72 -1.86854
9.21136 -12.72 -1.88654
8.93136 -12.3458 -3.10354
8.65136 -11.7843 -3.94354
6.25536 -11.7843 -3.97154
6.25536 -11.7843 -4.32454
5.97336 -12.3458 -3.64354
5.97336 -12.3458 -3.14254
5.69136 -12.72 -2.62954
5.69136 -12.72 -1.94054
5.71636 -12.72 -1.88654
5.99436 -12.3458 -3.10354
6.27236 -11.7843 -3.94354
8.62336 -11.7843 -6.71754
8.65136 -11.7843 -6.70454
8.93136 -12.3458 -7.01554
8.89736 -12.3458 -7.03454
9.21136 -12.72 -7.26654
9.17136 -12.72 -7.29154
8.72736 -12.72 -7.29154
8.52536 -12.3458 -7.03454
8.32236 -11.7843 -6.71754
8.66036 -11.7843 -3.97154
8.94236 -12.3458 -3.14254
9.22436 -12.72 -1.94054
9.22436 -12.72 -2.62954
8.94236 -12.3458 -3.64354
8.66036 -11.7843 -4.32454
8.79536 -13.8425 -1.46154
9.26236 -13.8425 -1.46154
8.79536 -14.9806 -1.46154
9.26236 -14.9806 -1.46154
9.30436 -14.9806 -1.48154
9.30436 -13.8425 -1.48154
5.59736 -13.8425 -2.29154
5.59736 -13.8425 -1.54054
5.59736 -14.9806 -2.29154
5.59736 -14.9806 -1.54054
5.62336 -14.9806 -1.48154
5.62336 -13.8425 -1.48154
9.30436 -13.8425 -7.34954
9.26236 -13.8425 -7.37654
9.30436 -14.9806 -7.34954
9.26236 -14.9806 -7.37654
8.79536 -14.9806 -7.37654
8.79536 -13.8425 -7.37654
9.31836 -13.8425 -2.29154
9.31836 -13.8425 -1.54054
9.31836 -14.9806 -1.54054
9.31836 -14.9806 -2.29154
9.30436 -15.4019 -1.48154
9.31836 -15.4019 -1.54054
9.31836 -15.4019 -2.29154
9.30436 -15.4019 -7.34954
9.26236 -15.4019 -7.37654
9.29336 -15.4369 -7.32854
9.26236 -15.4491 -7.34954
8.79536 -15.4491 -7.34954
8.79536 -15.4019 -7.37654
5.59736 -15.4019 -2.29154
5.59736 -15.4019 -1.54054
5.62336 -15.4491 -2.29154
5.62336 -15.4491 -1.54054
5.64336 -15.4369 -1.49654
5.62336 -15.4019 -1.48154
8.79536 -15.4019 -1.46154
9.26236 -15.4019 -1.46154
8.55736 -10.0997 -3.22054
8.56536 -10.0997 -3.25354
8.56536 -10.0997 -3.66454
8.55736 -10.0997 -6.43754
8.53236 -10.0997 -6.45254
8.25436 -10.0997 -6.45254
6.34936 -10.0997 -3.66454
6.34936 -10.0997 -3.25354
6.36536 -10.0997 -3.22054
8.25436 -10.0997 -3.21054
8.53236 -10.0997 -3.21054
6.41236 -8.40808 -2.07054
6.41236 -7.82548 -1.66854
6.71236 -8.40808 -2.07054
6.71236 -7.82548 -1.66854
6.71236 -10.0997 -3.21054
6.41236 -10.0997 -3.21054
6.32336 -11.7843 -3.93454
6.64936 -11.7843 -3.93454
6.45936 -12.3458 -3.09054
6.05736 -12.3458 -3.09054
5.79136 -12.72 -1.86854
6.26936 -12.72 -1.86854
6.20536 -13.8425 -1.46154
5.70236 -13.8425 -1.46154
5.70236 -14.9806 -1.46154
6.20536 -14.9806 -1.46154
6.20536 -15.4019 -1.46154
5.70236 -15.4019 -1.46154
5.70236 -15.4491 -1.48154
6.20536 -15.4491 -1.48154
6.20536 -15.4648 -1.54054
5.70236 -15.4648 -1.54054
5.70236 -15.4648 -2.29154
6.20536 -15.4648 -2.29154
5.70236 -14.9806 -7.37654
6.20536 -14.9806 -7.37654
6.20536 -15.4019 -7.37654
5.70236 -15.4019 -7.37654
6.20536 -15.4491 -7.34954
5.70236 -15.4491 -7.34954
5.64336 -15.4369 -7.32854
5.62336 -15.4019 -7.34954
5.62336 -14.9806 -7.34954
5.79136 -12.72 -7.29154
6.26936 -12.72 -7.29154
6.20536 -13.8425 -7.37654
5.70236 -13.8425 -7.37654
5.62336 -13.8425 -7.34954
5.71636 -12.72 -7.26654
6.32336 -11.7843 -6.71754
6.64936 -11.7843 -6.71754
6.45936 -12.3458 -7.03454
6.05736 -12.3458 -7.03454
5.99436 -12.3458 -7.01554
6.27236 -11.7843 -6.70454
6.41236 -8.40808 -6.26854
6.71236 -8.40807 -6.26854
6.71236 -10.0997 -6.45254
6.41236 -10.0997 -6.45254
6.36536 -10.0997 -6.43754
6.36536 -8.40808 -6.24954
6.41236 -7.80442 -6.18354
6.71236 -7.80442 -6.18354
6.71236 -7.82548 -6.19654
6.41236 -7.82548 -6.19654
6.36536 -7.82548 -6.17554
6.36536 -7.80442 -6.16254
6.71236 -7.7974 -6.17954
6.41236 -7.7974 -6.17954
6.36536 -7.7974 -6.15854
7.48736 -8.40808 -2.07054
7.48736 -7.82548 -1.66854
7.48736 -10.0997 -3.21054
7.48936 -11.7843 -3.93454
7.49636 -12.3458 -3.09054
7.50436 -12.72 -1.86854
7.50636 -13.8425 -1.46154
7.50636 -14.9806 -1.46154
7.50636 -15.4019 -1.46154
7.50636 -15.4491 -1.48154
7.50636 -15.4648 -1.54054
7.50636 -15.4648 -2.29154
7.50636 -14.9806 -7.37654
7.50636 -15.4019 -7.37654
7.50636 -15.4491 -7.34954
7.50436 -12.72 -7.29154
7.50636 -13.8425 -7.37654
7.48936 -11.7843 -6.71754
7.49636 -12.3458 -7.03454
7.48736 -8.40808 -6.26854
7.48736 -10.0997 -6.45254
7.48736 -7.80442 -6.18354
7.48736 -7.82548 -6.19654
7.48736 -7.7974 -6.17954
8.66036 -11.7843 -5.31154
8.94236 -12.3458 -5.04154
9.22436 -12.72 -4.55154
9.22436 -12.72 -6.48054
8.94236 -12.3458 -6.44454
8.66036 -11.7843 -6.30154
8.56536 -8.40808 -4.14754
8.56536 -10.0997 -4.81454
8.56536 -10.0997 -5.96754
8.56536 -8.40807 -5.64154
8.56536 -7.80442 -3.88954
8.56536 -7.82548 -3.90854
8.56536 -7.82548 -5.51954
8.56536 -7.80442 -5.50454
8.56536 -7.7974 -5.50054
6.34936 -7.7974 -5.50054
6.34936 -7.80442 -5.50454
6.34936 -7.80442 -3.88954
6.34936 -7.7974 -3.88354
6.34936 -7.82548 -3.90854
6.34936 -7.82548 -5.51954
6.34936 -8.40807 -5.64154
6.34936 -8.40808 -4.14754
6.34936 -10.0997 -4.81454
6.34936 -10.0997 -5.96754
6.25536 -11.7843 -6.30154
6.25536 -11.7843 -5.31154
5.97336 -12.3458 -5.04154
5.97336 -12.3458 -6.44454
5.69136 -12.72 -6.48054
5.69136 -12.72 -4.55154
5.59736 -13.8425 -4.38854
5.59736 -13.8425 -6.49254
5.59736 -14.9806 -6.49254
5.59736 -14.9806 -4.38854
5.59736 -15.4019 -4.38854
5.59736 -15.4019 -6.49254
5.62336 -15.4491 -6.49254
5.62336 -15.4491 -4.38854
6.20536 -15.4648 -4.38854
5.70236 -15.4648 -4.38854
5.70236 -15.4648 -6.49254
6.20536 -15.4648 -6.49254
8.79536 -15.4648 -4.38854
7.50636 -15.4648 -4.38854
7.50636 -15.4648 -6.49254
8.79536 -15.4648 -6.49254
9.26236 -15.4648 -4.38854
9.26236 -15.4648 -6.49254
9.30436 -15.4491 -6.49254
9.30436 -15.4491 -4.38854
9.31836 -14.9806 -4.38854
9.31836 -15.4019 -4.38854
9.31836 -15.4019 -6.49254
9.31836 -14.9806 -6.49254
9.31836 -13.8425 -6.49254
9.31836 -13.8425 -4.38854
8.66036 -11.7843 -6.66554
8.94236 -12.3458 -6.96154
9.22436 -12.72 -7.19054
8.56536 -8.40808 -6.19154
8.56536 -10.0997 -6.39254
8.56536 -7.80442 -6.09954
8.56536 -7.82548 -6.11254
8.57736 -7.79305 -6.09454
8.56536 -7.7974 -6.09454
6.34936 -7.80442 -6.09954
6.34936 -7.7974 -6.09454
6.34936 -7.82548 -6.11254
6.34936 -8.40808 -6.19154
6.34936 -10.0997 -6.39254
6.25536 -11.7843 -6.66554
5.97336 -12.3458 -6.96154
5.69136 -12.72 -7.19054
5.59736 -13.8425 -7.26754
5.59736 -14.9806 -7.26754
5.59736 -15.4019 -7.26754
5.62336 -15.4491 -7.26754
6.20536 -15.4648 -7.26754
5.70236 -15.4648 -7.26754
8.79536 -15.4648 -7.26754
7.50636 -15.4648 -7.26754
9.26236 -15.4648 -7.26754
9.30436 -15.4491 -7.26754
9.31836 -14.9806 -7.26754
9.31836 -15.4019 -7.26754
9.31836 -13.8425 -7.26754
3 0 1 2
3 0 2 3
3 2 4 5
3 2 5 3
3 5 6 7
3 5 7 3
3 7 8 0
3 7 0 3
3 9 10 11
3 9 11 12
3 13 14 15
3 13 15 16
3 15 17 18
3 15 18 16
3 19 20 21
3 19 21 22
3 21 23 24
3 21 24 22
3 11 10 25
3 11 25 26
3 25 27 28
3 25 28 26
3 28 29 30
3 28 30 26
3 30 11 26
3 15 14 31
3 15 31 32
3 31 33 34
3 31 34 32
3 34 35 36
3 34 36 32
3 36 17 15
3 36 15 32
3 24 23 37
3 24 37 38
3 37 39 40
3 37 40 38
3 41 42 43
3 41 43 44
3 43 45 46
3 43 46 44
3 46 47 48
3 46 48 44
3 48 49 41
3 48 41 44
3 50 51 52
3 50 52 53
3 52 54 55
3 52 55 53
3 55 56 57
3 55 57 53
3 57 58 50
3 57 50 53
3 59 60 61
3 59 61 62
3 61 63 64
3 61 64 62
3 64 65 66
3 64 66 62
3 66 67 59
3 66 59 62
3 68 49 48
3 68 48 69
3 48 47 70
3 48 70 69
3 70 71 72
3 70 72 69
3 72 73 68
3 72 68 69
3 46 45 74
3 46 74 75
3 74 76 77
3 74 77 75
3 77 78 79
3 77 79 75
3 79 47 46
3 79 46 75
3 55 54 80
3 55 80 81
3 80 82 83
3 80 83 81
3 83 84 85
3 83 85 81
3 85 56 55
3 85 55 81
3 64 63 86
3 64 86 87
3 86 88 89
3 86 89 87
3 89 90 91
3 89 91 87
3 91 65 64
3 91 64 87
3 92 71 70
3 92 70 93
3 70 47 79
3 70 79 93
3 79 78 94
3 79 94 93
3 94 95 92
3 94 92 93
3 94 78 96
3 94 96 97
3 96 8 7
3 96 7 97
3 7 6 98
3 7 98 97
3 98 95 94
3 98 94 97
3 89 88 99
3 89 99 100
3 99 101 102
3 99 102 100
3 102 103 104
3 102 104 100
3 104 90 89
3 104 89 100
3 83 82 105
3 83 105 106
3 105 107 108
3 105 108 106
3 108 109 110
3 108 110 106
3 110 84 83
3 110 83 106
3 77 76 111
3 77 111 112
3 111 1 0
3 111 0 112
3 0 8 96
3 0 96 112
3 96 78 77
3 96 77 112
3 37 23 113
3 37 113 114
3 113 49 68
3 113 68 114
3 68 73 115
3 68 115 114
3 115 39 37
3 115 37 114
3 34 33 116
3 34 116 117
3 116 60 59
3 116 59 117
3 59 67 118
3 59 118 117
3 118 35 34
3 118 34 117
3 28 27 119
3 28 119 120
3 119 51 50
3 119 50 120
3 50 58 121
3 50 121 120
3 121 29 28
3 121 28 120
3 21 20 122
3 21 122 123
3 122 42 41
3 122 41 123
3 41 49 113
3 41 113 123
3 113 23 21
3 113 21 123
3 30 29 124
3 30 124 125
3 124 126 127
3 124 127 125
3 128 126 124
3 128 124 129
3 124 29 121
3 124 121 129
3 121 58 130
3 121 130 129
3 130 131 128
3 130 128 129
3 132 131 130
3 132 130 133
3 130 58 57
3 130 57 133
3 57 56 134
3 57 134 133
3 134 135 132
3 134 132 133
3 136 135 134
3 136 134 137
3 134 56 85
3 134 85 137
3 85 84 138
3 85 138 137
3 138 139 136
3 138 136 137
3 140 139 138
3 140 138 141
3 138 84 110
3 138 110 141
3 110 109 142
3 110 142 141
3 142 143 140
3 142 140 141
3 144 143 142
3 144 142 145
3 142 109 108
3 142 108 145
3 108 107 146
3 108 146 145
3 146 147 144
3 146 144 145
3 148 149 150
3 148 150 151
3 150 152 153
3 150 153 151
3 153 154 155
3 153 155 151
3 155 156 148
3 155 148 151
3 157 158 159
3 157 159 160
3 159 149 148
3 159 148 160
3 148 156 161
3 148 161 160
3 161 162 157
3 161 157 160
3 163 164 165
3 163 165 166
3 165 158 157
3 165 157 166
3 157 162 167
3 157 167 166
3 167 168 163
3 167 163 166
3 169 170 171
3 169 171 172
3 171 164 163
3 171 163 172
3 163 168 173
3 163 173 172
3 173 174 169
3 173 169 172
3 175 176 177
3 175 177 178
3 177 170 169
3 177 169 178
3 169 174 179
3 169 179 178
3 179 180 175
3 179 175 178
3 181 176 175
3 181 175 182
3 175 180 183
3 175 183 182
3 127 126 184
3 127 184 185
3 184 20 19
3 184 19 185
3 122 20 184
3 122 184 186
3 184 126 128
3 184 128 186
3 128 131 187
3 128 187 186
3 187 42 122
3 187 122 186
3 43 42 187
3 43 187 188
3 187 131 132
3 187 132 188
3 132 135 189
3 132 189 188
3 189 45 43
3 189 43 188
3 74 45 189
3 74 189 190
3 189 135 136
3 189 136 190
3 136 139 191
3 136 191 190
3 191 76 74
3 191 74 190
3 111 76 191
3 111 191 192
3 191 139 140
3 191 140 192
3 140 143 193
3 140 193 192
3 193 1 111
3 193 111 192
3 2 1 193
3 2 193 194
3 193 143 144
3 193 144 194
3 144 147 195
3 144 195 194
3 195 4 2
3 195 2 194
3 196 90 104
3 196 104 197
3 104 103 198
3 104 198 197
3 198 152 150
3 198 150 197
3 150 149 196
3 150 196 197
3 199 65 91
3 199 91 200
3 91 90 196
3 91 196 200
3 196 149 159
3 196 159 200
3 159 158 199
3 159 199 200
3 201 67 66
3 201 66 202
3 66 65 199
3 66 199 202
3 199 158 165
3 199 165 202
3 165 164 201
3 165 201 202
3 203 35 118
3 203 118 204
3 118 67 201
3 118 201 204
3 201 164 171
3 201 171 204
3 171 170 203
3 171 203 204
3 205 17 36
3 205 36 206
3 36 35 203
3 36 203 206
3 203 170 177
3 203 177 206
3 177 176 205
3 177 205 206
3 18 17 205
3 18 205 207
3 205 176 181
3 205 181 207
3 208 73 72
3 208 72 209
3 72 71 210
3 72 210 209
3 210 211 212
3 210 212 209
3 212 213 208
3 212 208 209
3 214 39 115
3 214 115 215
3 115 73 208
3 115 208 215
3 208 213 216
3 208 216 215
3 216 217 214
3 216 214 215
3 218 40 219
3 40 39 214
3 40 214 219
3 214 217 220
3 214 220 219
3 220 221 218
3 220 218 219
3 218 221 222
3 223 224 225
3 223 225 226
3 225 10 9
3 225 9 226
3 25 10 225
3 25 225 227
3 225 224 228
3 225 228 227
3 228 229 230
3 228 230 227
3 230 27 25
3 230 25 227
3 119 27 230
3 119 230 231
3 230 229 232
3 230 232 231
3 232 233 234
3 232 234 231
3 234 51 119
3 234 119 231
3 52 51 234
3 52 234 235
3 234 233 236
3 234 236 235
3 236 237 238
3 236 238 235
3 238 54 52
3 238 52 235
3 80 54 238
3 80 238 239
3 238 237 240
3 238 240 239
3 240 241 242
3 240 242 239
3 242 82 80
3 242 80 239
3 105 82 242
3 105 242 243
3 242 241 244
3 242 244 243
3 244 245 246
3 244 246 243
3 246 107 105
3 246 105 243
3 247 147 146
3 247 146 248
3 146 107 246
3 146 246 248
3 246 245 249
3 246 249 248
3 249 250 247
3 249 247 248
3 251 4 195
3 251 195 252
3 195 147 247
3 195 247 252
3 247 250 253
3 247 253 252
3 253 254 251
3 253 251 252
3 5 4 251
3 5 251 255
3 251 254 256
3 251 256 255
3 256 257 258
3 256 258 255
3 258 6 5
3 258 5 255
3 259 95 98
3 259 98 260
3 98 6 258
3 98 258 260
3 258 257 261
3 258 261 260
3 261 262 259
3 261 259 260
3 263 211 210
3 263 210 264
3 210 71 92
3 210 92 264
3 92 95 259
3 92 259 264
3 259 262 263
3 259 263 264
3 265 213 212
3 265 212 266
3 212 211 267
3 212 267 266
3 267 63 61
3 267 61 266
3 61 60 265
3 61 265 266
3 268 217 216
3 268 216 269
3 216 213 265
3 216 265 269
3 265 60 116
3 265 116 269
3 116 33 268
3 116 268 269
3 270 221 220
3 270 220 271
3 220 217 268
3 220 268 271
3 268 33 31
3 268 31 271
3 31 14 270
3 31 270 271
3 272 222 273
3 222 221 270
3 222 270 273
3 270 14 13
3 270 13 273
3 13 272 273
3 183 180 274
3 183 274 275
3 274 224 223
3 274 223 275
3 228 224 274
3 228 274 276
3 274 180 179
3 274 179 276
3 179 174 277
3 179 277 276
3 277 229 228
3 277 228 276
3 232 229 277
3 232 277 278
3 277 174 173
3 277 173 278
3 173 168 279
3 173 279 278
3 279 233 232
3 279 232 278
3 236 233 279
3 236 279 280
3 279 168 167
3 279 167 280
3 167 162 281
3 167 281 280
3 281 237 236
3 281 236 280
3 240 237 281
3 240 281 282
3 281 162 161
3 281 161 282
3 161 156 283
3 161 283 282
3 283 241 240
3 283 240 282
3 244 241 283
3 244 283 284
3 283 156 155
3 283 155 284
3 155 154 285
3 155 285 284
3 285 245 244
3 285 244 284
3 286 250 249
3 286 249 287
3 249 245 285
3 249 285 287
3 285 154 153
3 285 153 287
3 153 152 286
3 153 286 287
3 288 254 253
3 288 253 289
3 253 250 286
3 253 286 289
3 286 152 198
3 286 198 289
3 198 103 288
3 198 288 289
3 256 254 288
3 256 288 290
3 288 103 102
3 288 102 290
3 102 101 291
3 102 291 290
3 291 257 256
3 291 256 290
3 292 262 261
3 292 261 293
3 261 257 291
3 261 291 293
3 291 101 99
3 291 99 293
3 99 88 292
3 99 292 293
3 267 211 263
3 267 263 294
3 263 262 292
3 263 292 294
3 292 88 86
3 292 86 294
3 86 63 267
3 86 267 294
