OFF
403 788 0
18.248 3.72482 -12.6249
18.261 3.90892 -12.3579
18.516 3.94112 -12.4069
18.61 3.67602 -12.8099
18.765 3.92202 -12.3569
18.88 3.63302 -12.7789
18.842 3.30792 -13.0149
18.561 3.37752 -13.0369
18.183 3.45322 -12.8289
18.885 3.83532 -12.1809
18.883 3.73052 -11.9769
18.98 3.51492 -12.1809
19.008 3.56162 -12.5679
18.971 3.22782 -12.3559
18.99 3.25462 -12.7799
18.808 2.96842 -12.4049
18.593 2.80912 -12.3529
18.539 2.75202 -12.6229
18.817 2.97152 -12.8099
18.389 2.75902 -12.8279
18.672 2.99912 -13.0379
18.168 2.85802 -12.8409
17.967 2.98782 -12.7219
18.073 3.17852 -12.8409
18.417 3.08602 -13.0479
7.603 0.310416 4.55807
7.715 0.546816 4.69007
7.752 0.501216 4.67607
7.645 0.280416 4.55107
7.78 0.480316 4.58107
7.676 0.267916 4.46007
7.666 -0.0102841 4.37007
7.636 -0.00888406 4.45807
7.814 0.477816 4.33507
7.868 0.487816 3.86807
7.763 0.283216 3.75107
7.71 0.269916 4.21607
7.748 0.0151159 3.66407
7.698 -0.00258406 4.12807
7.819 -0.270284 3.61607
7.972 -0.526984 3.61707
7.933 -0.553684 4.08007
7.774 -0.292684 4.07907
7.908 -0.572884 4.32207
7.745 -0.306484 4.32007
7.889 -0.594084 4.40807
7.866 -0.626284 4.40707
7.685 -0.329384 4.40507
7.719 -0.316984 4.40707
8.516 0.536016 5.12007
8.76 0.295216 5.15107
8.511 0.491416 5.08207
8.757 0.282416 5.04107
8.516 0.471116 4.97407
8.244 0.572916 4.86007
8.23 0.597416 4.96407
8.773 0.284116 4.78707
8.81 0.297116 4.31407
8.581 0.478916 4.24907
8.538 0.468916 4.72107
8.319 0.577016 4.13907
8.271 0.568616 4.60907
8.068 0.582816 4.00507
8.016 0.574516 4.47307
7.984 0.578916 4.72207
7.936 0.656616 4.84407
7.962 0.603816 4.82107
9.056 -0.611884 5.01507
8.91 -0.800984 4.85707
9.015 -0.579984 4.98607
8.896 -0.771584 4.75707
8.999 -0.559084 4.88207
9.005 -0.280684 4.98107
9.02 -0.290384 5.08807
9.059 -0.301684 5.12407
8.902 -0.748084 4.50907
8.925 -0.718384 4.04007
9.028 -0.513584 4.16007
9.004 -0.539984 4.63107
9.04 -0.245284 4.25607
9.012 -0.267284 4.72807
8.965 0.0403159 4.31107
8.933 0.0231159 4.78407
8.922 0.0158159 5.03807
8.965 0.0286159 5.18807
8.932 0.0179159 5.14807
8.133 -0.836784 4.47407
8.14 -0.790484 4.47307
8.151 -0.761684 4.38507
8.427 -0.863784 4.49007
8.426 -0.896684 4.58207
8.204 -0.708884 3.67807
8.17 -0.738484 4.14207
8.469 -0.807184 3.78107
8.44 -0.838484 4.24607
8.724 -0.813284 3.90707
8.699 -0.844684 4.37407
8.69 -0.870184 4.62107
8.698 -0.903384 4.71607
9.007 0.525416 -0.582927
9.112 0.691716 -0.483927
10.026 0.835116 -1.98393
9.926 0.686516 -2.07493
11.129 1.03772 -3.51393
11.037 0.908016 -3.59693
10.995 0.738216 -3.66193
9.886 0.491816 -2.14493
8.97 0.307616 -0.657927
12.302 1.31152 -4.98093
13.422 1.66852 -6.29093
13.344 1.57122 -6.36093
12.217 1.19972 -5.05593
13.3 1.44372 -6.41693
12.174 1.05332 -5.11593
13.295 1.30802 -6.45293
13.334 1.18602 -6.46093
12.228 0.757116 -5.15993
12.177 0.897416 -5.15393
11.074 0.394616 -3.70593
11.007 0.557316 -3.70093
9.993 0.0980159 -2.18893
9.105 -0.133084 -0.700927
9.002 0.0756159 -0.700927
9.908 0.284516 -2.18593
9.697 0.684316 -0.167927
9.869 0.536516 -0.115927
10.699 0.696416 -1.65293
10.55 0.828416 -1.69893
11.713 0.916716 -3.22193
11.588 1.03192 -3.26093
11.431 1.09412 -3.33193
10.368 0.899816 -1.77993
9.491 0.764116 -0.258927
12.801 1.20722 -4.72493
13.853 1.57782 -6.06393
13.767 1.66422 -6.09193
12.697 1.30652 -4.75793
13.654 1.71092 -6.14593
12.564 1.36012 -4.81993
13.532 1.71372 -6.21593
12.425 1.36342 -4.89793
11.269 1.09792 -3.42093
9.285 0.768916 -0.369927
10.183 0.904116 -1.87993
9.973 -0.122384 -0.246927
9.869 -0.288784 -0.348927
10.672 -0.0410841 -1.86993
10.771 0.107516 -1.77693
11.663 0.273316 -3.42393
11.755 0.403016 -3.33893
11.795 0.572916 -3.27093
10.809 0.302416 -1.70293
10.008 0.0956159 -0.166927
12.732 0.652716 -4.91193
13.767 1.09522 -6.23893
13.846 1.19252 -6.16893
12.816 0.764516 -4.83593
13.889 1.32002 -6.10993
12.858 0.911016 -4.77293
13.892 1.45582 -6.07293
12.854 1.06692 -4.73293
11.782 0.753916 -3.22793
9.973 0.327816 -0.118927
10.785 0.509816 -1.65793
9.278 -0.280984 -0.651927
10.143 -0.0341841 -2.14493
11.201 0.279316 -3.66793
11.359 0.217016 -3.59993
10.327 -0.105584 -2.06793
9.486 -0.360884 -0.565927
13.421 1.09962 -6.43393
12.333 0.657816 -5.12893
13.535 1.05292 -6.38193
12.467 0.604116 -5.06993
13.657 1.05002 -6.31293
12.608 0.600816 -4.99393
11.522 0.213116 -3.51493
9.695 -0.365884 -0.459927
10.514 -0.110084 -1.97193
14.371 2.12072 -7.35193
14.296 2.03222 -7.41793
15.146 2.61502 -8.18193
15.069 2.52822 -8.24893
15.021 2.41452 -8.30393
14.251 1.91612 -7.47193
15.743 3.09832 -8.80293
16.16 3.51732 -9.23293
16.067 3.40842 -9.31593
15.661 3.00512 -8.87493
16.005 3.26562 -9.38393
15.608 2.88302 -8.93393
15.983 3.11362 -9.42793
16.007 2.97682 -9.43993
15.614 2.63612 -8.98293
15.59 2.75302 -8.97293
15.033 2.18462 -8.34893
15.008 2.29352 -8.33993
14.271 1.68162 -7.51593
14.241 1.79262 -7.50793
14.759 2.03832 -7.13893
14.684 2.11702 -7.16393
15.518 2.53432 -7.96893
15.448 2.61142 -7.99393
15.352 2.65292 -8.04493
14.583 2.15942 -7.21493
16.128 3.01142 -8.57393
16.59 3.41512 -8.97093
16.513 3.51202 -9.00193
16.058 3.09422 -8.60093
16.402 3.56452 -9.06393
15.959 3.13892 -8.65493
16.278 3.56782 -9.14493
15.848 3.14162 -8.72593
15.246 2.65542 -8.11093
14.473 2.16192 -7.28093
14.66 1.59902 -7.30793
14.736 1.68762 -7.24093
15.406 2.10382 -8.13993
15.482 2.19062 -8.07193
15.53 2.30442 -8.01593
14.78 1.80372 -7.18493
16.001 2.54902 -8.75793
16.44 2.87442 -9.18493
16.533 2.98332 -9.10093
16.083 2.64232 -8.68493
16.593 3.12612 -9.03093
16.135 2.76442 -8.62493
16.614 3.27822 -8.98393
16.152 2.89442 -8.58393
15.543 2.42552 -7.97893
14.789 1.92732 -7.14793
14.346 1.60292 -7.49193
15.102 2.10762 -8.32493
15.199 2.06602 -8.27493
14.448 1.56042 -7.44193
16.085 2.87982 -9.41093
15.684 2.55332 -8.95593
16.196 2.82732 -9.35093
15.784 2.50852 -8.90393
16.321 2.82392 -9.27193
15.895 2.50582 -8.83393
15.306 2.06352 -8.21093
14.558 1.55792 -7.37793
16.395 3.81902 -9.49293
16.283 3.68382 -9.59293
16.532 4.02032 -9.68093
16.398 3.85372 -9.79993
16.309 3.63502 -9.89993
16.209 3.50652 -9.67493
16.654 4.13862 -9.89293
16.847 4.19072 -10.2289
16.672 3.96652 -10.3869
16.499 3.94052 -10.0339
16.551 3.67192 -10.5199
16.393 3.68032 -10.1509
16.501 3.35782 -10.6109
16.536 3.07472 -10.6419
16.384 3.15302 -10.2559
16.351 3.40292 -10.2299
16.305 3.19182 -9.98693
16.274 3.40182 -9.96693
16.208 3.14752 -9.74493
16.181 3.31762 -9.72893
16.901 3.69102 -9.18093
16.811 3.81172 -9.21593
17.13 3.86152 -9.30893
17.025 4.01062 -9.35093
16.872 4.09162 -9.43793
16.682 3.87712 -9.28993
17.346 3.94882 -9.46393
17.615 3.97522 -9.75293
17.482 4.17642 -9.80293
17.225 4.12642 -9.51093
17.287 4.28592 -9.91393
17.048 4.22292 -9.61093
17.064 4.29392 -10.0639
16.848 4.22982 -9.74593
16.698 4.09722 -9.55393
16.535 3.88142 -9.38793
16.718 3.01932 -9.44293
16.829 3.15452 -9.34093
16.908 3.03262 -9.62993
17.041 3.19932 -9.50793
17.128 3.41812 -9.40293
16.902 3.33192 -9.25593
17.082 2.96292 -9.84493
17.311 2.85882 -10.1869
17.486 3.08312 -10.0259
17.237 3.16102 -9.70193
17.603 3.37782 -9.88493
17.34 3.42132 -9.57793
17.651 3.69212 -9.78693
17.38 3.69882 -9.49293
17.162 3.65142 -9.33193
16.929 3.52092 -9.19793
16.299 3.02682 -9.71093
16.411 3.04262 -9.94793
16.566 2.96152 -9.86493
16.43 2.96132 -9.64093
16.67 2.87352 -10.5949
16.506 2.97542 -10.2119
16.868 2.76382 -10.4909
16.685 2.87872 -10.1179
17.094 2.75562 -10.3489
16.887 2.87172 -9.98993
16.74 2.95582 -9.75393
16.577 2.95692 -9.54693
17.194 4.19392 -10.7859
17.005 3.95412 -10.9559
17.607 4.14342 -11.4209
17.421 3.90322 -11.6029
17.292 3.58802 -11.7599
16.873 3.63912 -11.0999
17.994 4.03472 -11.9899
17.843 3.81372 -12.1909
17.745 3.52472 -12.3689
17.656 2.95092 -12.4119
17.659 3.22312 -12.4199
17.246 2.95182 -11.8769
17.224 3.25342 -11.8499
16.848 3.00042 -11.2339
16.815 3.30312 -11.1989
18.007 3.96312 -10.2829
17.869 4.17832 -10.3339
18.413 3.91282 -10.9219
18.285 4.12722 -10.9819
18.089 4.24372 -11.1079
17.663 4.29552 -10.4509
18.726 3.82482 -11.5389
18.634 4.01842 -11.6249
18.479 4.12242 -11.7709
18.236 4.13272 -11.8719
17.846 4.25302 -11.2549
17.426 4.30422 -10.6099
17.668 2.76902 -10.7549
17.857 3.00892 -10.5809
18.06 2.72062 -11.4009
18.258 2.95922 -11.2369
18.398 3.27292 -11.0949
17.986 3.32402 -10.4289
18.394 2.74062 -11.9799
18.598 2.95502 -11.8629
18.75 3.23732 -11.7659
18.778 3.54592 -11.6219
18.45 3.60942 -10.9749
18.041 3.66022 -10.3219
16.988 2.78502 -11.1869
17.389 2.73552 -11.8429
17.601 2.61732 -11.7459
17.196 2.66762 -11.0779
17.803 2.75062 -12.4169
18.016 2.63972 -12.3639
18.206 2.63602 -12.1819
17.833 2.60952 -11.5849
17.436 2.65882 -10.9269
8.871 0.318216 3.54607
8.651 0.495216 3.48307
9.022 0.358116 2.52407
8.815 0.528016 2.46407
8.574 0.619716 2.36007
8.398 0.590716 3.37507
9.333 0.427316 1.29007
9.142 0.587616 1.23307
8.916 0.674116 1.13507
8.509 0.595516 0.893073
8.693 0.679316 1.01507
8.146 0.536316 2.10607
8.338 0.625216 2.23407
7.956 0.503816 3.11107
8.152 0.596416 3.24407
7.849 0.304716 2.99707
8.038 0.345216 1.99507
8.013 0.0947159 1.91207
7.829 0.0438159 2.91107
8.401 0.415216 0.788073
8.369 0.178916 0.708073
8.531 -0.298984 0.665073
8.413 -0.0726841 0.664073
8.199 -0.411784 1.86807
8.067 -0.171884 1.86607
8.037 -0.483784 2.86607
7.893 -0.233884 2.86407
8.259 -0.660784 2.92507
8.408 -0.581784 1.92507
8.653 -0.673684 2.02207
8.515 -0.756484 3.02507
8.724 -0.459284 0.719073
8.952 -0.546084 0.811073
9.364 -0.467784 1.04307
9.178 -0.551384 0.924073
9.085 -0.590684 2.26607
8.892 -0.679384 2.14107
8.962 -0.669984 3.27907
8.764 -0.762384 3.14907
9.067 -0.470784 3.39607
9.191 -0.399384 2.38007
9.214 -0.148784 2.47007
9.084 -0.209684 3.48907
9.47 -0.287284 1.15207
9.499 -0.0508841 1.23707
9.452 0.200916 1.28707
9.156 0.118116 2.52207
9.017 0.0683159 3.54307
3 0 1 2
3 0 2 3
3 2 4 5
3 2 5 3
3 5 6 7
3 5 7 3
3 7 8 0
3 7 0 3
3 9 10 11
3 9 11 12
3 11 13 14
3 11 14 12
3 14 6 5
3 14 5 12
3 5 4 9
3 5 9 12
3 15 16 17
3 15 17 18
3 17 19 20
3 17 20 18
3 20 6 14
3 20 14 18
3 14 13 15
3 14 15 18
3 21 22 23
3 21 23 24
3 23 8 7
3 23 7 24
3 7 6 20
3 7 20 24
3 20 19 21
3 20 21 24
3 25 26 27
3 25 27 28
3 27 29 30
3 27 30 28
3 30 31 32
3 30 32 28
3 32 25 28
3 33 34 35
3 33 35 36
3 35 37 38
3 35 38 36
3 38 31 30
3 38 30 36
3 30 29 33
3 30 33 36
3 39 40 41
3 39 41 42
3 41 43 44
3 41 44 42
3 44 31 38
3 44 38 42
3 38 37 39
3 38 39 42
3 45 46 47
3 45 47 48
3 47 32 48
3 32 31 44
3 32 44 48
3 44 43 45
3 44 45 48
3 49 50 51
3 50 52 53
3 50 53 51
3 53 54 55
3 53 55 51
3 55 49 51
3 56 57 58
3 56 58 59
3 58 60 61
3 58 61 59
3 61 54 53
3 61 53 59
3 53 52 56
3 53 56 59
3 62 34 33
3 62 33 63
3 33 29 64
3 33 64 63
3 64 54 61
3 64 61 63
3 61 60 62
3 61 62 63
3 27 26 65
3 27 65 66
3 65 55 66
3 55 54 64
3 55 64 66
3 64 29 27
3 64 27 66
3 67 68 69
3 68 70 71
3 68 71 69
3 71 72 73
3 71 73 69
3 73 74 67
3 73 67 69
3 75 76 77
3 75 77 78
3 77 79 80
3 77 80 78
3 80 72 71
3 80 71 78
3 71 70 75
3 71 75 78
3 81 57 56
3 81 56 82
3 56 52 83
3 56 83 82
3 83 72 80
3 83 80 82
3 80 79 81
3 80 81 82
3 50 84 85
3 84 74 73
3 84 73 85
3 73 72 83
3 73 83 85
3 83 52 50
3 83 50 85
3 86 46 45
3 86 45 87
3 45 43 88
3 45 88 87
3 88 89 90
3 88 90 87
3 90 86 87
3 41 40 91
3 41 91 92
3 91 93 94
3 91 94 92
3 94 89 88
3 94 88 92
3 88 43 41
3 88 41 92
3 95 76 75
3 95 75 96
3 75 70 97
3 75 97 96
3 97 89 94
3 97 94 96
3 94 93 95
3 94 95 96
3 90 89 97
3 90 97 98
3 97 70 68
3 97 68 98
3 99 100 101
3 99 101 102
3 101 103 104
3 101 104 102
3 104 105 106
3 104 106 102
3 106 107 99
3 106 99 102
3 108 109 110
3 108 110 111
3 110 112 113
3 110 113 111
3 113 105 104
3 113 104 111
3 104 103 108
3 104 108 111
3 114 115 116
3 114 116 117
3 116 118 119
3 116 119 117
3 119 105 113
3 119 113 117
3 113 112 114
3 113 114 117
3 120 121 122
3 120 122 123
3 122 107 106
3 122 106 123
3 106 105 119
3 106 119 123
3 119 118 120
3 119 120 123
3 124 125 126
3 124 126 127
3 126 128 129
3 126 129 127
3 129 130 131
3 129 131 127
3 131 132 124
3 131 124 127
3 133 134 135
3 133 135 136
3 135 137 138
3 135 138 136
3 138 130 129
3 138 129 136
3 129 128 133
3 129 133 136
3 139 109 108
3 139 108 140
3 108 103 141
3 108 141 140
3 141 130 138
3 141 138 140
3 138 137 139
3 138 139 140
3 101 100 142
3 101 142 143
3 142 132 131
3 142 131 143
3 131 130 141
3 131 141 143
3 141 103 101
3 141 101 143
3 144 145 146
3 144 146 147
3 146 148 149
3 146 149 147
3 149 150 151
3 149 151 147
3 151 152 144
3 151 144 147
3 153 154 155
3 153 155 156
3 155 157 158
3 155 158 156
3 158 150 149
3 158 149 156
3 149 148 153
3 149 153 156
3 159 134 133
3 159 133 160
3 133 128 161
3 133 161 160
3 161 150 158
3 161 158 160
3 158 157 159
3 158 159 160
3 126 125 162
3 126 162 163
3 162 152 151
3 162 151 163
3 151 150 161
3 151 161 163
3 161 128 126
3 161 126 163
3 164 121 120
3 164 120 165
3 120 118 166
3 120 166 165
3 166 167 168
3 166 168 165
3 168 169 164
3 168 164 165
3 116 115 170
3 116 170 171
3 170 172 173
3 170 173 171
3 173 167 166
3 173 166 171
3 166 118 116
3 166 116 171
3 174 154 153
3 174 153 175
3 153 148 176
3 153 176 175
3 176 167 173
3 176 173 175
3 173 172 174
3 173 174 175
3 146 145 177
3 146 177 178
3 177 169 168
3 177 168 178
3 168 167 176
3 168 176 178
3 176 148 146
3 176 146 178
3 110 109 179
3 110 179 180
3 179 181 182
3 179 182 180
3 182 183 184
3 182 184 180
3 184 112 110
3 184 110 180
3 185 186 187
3 185 187 188
3 187 189 190
3 187 190 188
3 190 183 182
3 190 182 188
3 182 181 185
3 182 185 188
3 191 192 193
3 191 193 194
3 193 195 196
3 193 196 194
3 196 183 190
3 196 190 194
3 190 189 191
3 190 191 194
3 197 115 114
3 197 114 198
3 114 112 184
3 114 184 198
3 184 183 196
3 184 196 198
3 196 195 197
3 196 197 198
3 135 134 199
3 135 199 200
3 199 201 202
3 199 202 200
3 202 203 204
3 202 204 200
3 204 137 135
3 204 135 200
3 205 206 207
3 205 207 208
3 207 209 210
3 207 210 208
3 210 203 202
3 210 202 208
3 202 201 205
3 202 205 208
3 211 186 185
3 211 185 212
3 185 181 213
3 185 213 212
3 213 203 210
3 213 210 212
3 210 209 211
3 210 211 212
3 179 109 139
3 179 139 214
3 139 137 204
3 139 204 214
3 204 203 213
3 204 213 214
3 213 181 179
3 213 179 214
3 155 154 215
3 155 215 216
3 215 217 218
3 215 218 216
3 218 219 220
3 218 220 216
3 220 157 155
3 220 155 216
3 221 222 223
3 221 223 224
3 223 225 226
3 223 226 224
3 226 219 218
3 226 218 224
3 218 217 221
3 218 221 224
3 227 206 205
3 227 205 228
3 205 201 229
3 205 229 228
3 229 219 226
3 229 226 228
3 226 225 227
3 226 227 228
3 199 134 159
3 199 159 230
3 159 157 220
3 159 220 230
3 220 219 229
3 220 229 230
3 229 201 199
3 229 199 230
3 170 115 197
3 170 197 231
3 197 195 232
3 197 232 231
3 232 233 234
3 232 234 231
3 234 172 170
3 234 170 231
3 193 192 235
3 193 235 236
3 235 237 238
3 235 238 236
3 238 233 232
3 238 232 236
3 232 195 193
3 232 193 236
3 239 222 221
3 239 221 240
3 221 217 241
3 221 241 240
3 241 233 238
3 241 238 240
3 238 237 239
3 238 239 240
3 215 154 174
3 215 174 242
3 174 172 234
3 174 234 242
3 234 233 241
3 234 241 242
3 241 217 215
3 241 215 242
3 187 186 243
3 187 243 244
3 243 245 246
3 243 246 244
3 246 247 248
3 246 248 244
3 248 189 187
3 248 187 244
3 249 250 251
3 249 251 252
3 251 253 254
3 251 254 252
3 254 247 246
3 254 246 252
3 246 245 249
3 246 249 252
3 255 256 257
3 255 257 258
3 257 259 260
3 257 260 258
3 260 247 254
3 260 254 258
3 254 253 255
3 254 255 258
3 261 192 191
3 261 191 262
3 191 189 248
3 191 248 262
3 248 247 260
3 248 260 262
3 260 259 261
3 260 261 262
3 207 206 263
3 207 263 264
3 263 265 266
3 263 266 264
3 266 267 268
3 266 268 264
3 268 209 207
3 268 207 264
3 269 270 271
3 269 271 272
3 271 273 274
3 271 274 272
3 274 267 266
3 274 266 272
3 266 265 269
3 266 269 272
3 275 250 249
3 275 249 276
3 249 245 277
3 249 277 276
3 277 267 274
3 277 274 276
3 274 273 275
3 274 275 276
3 243 186 211
3 243 211 278
3 211 209 268
3 211 268 278
3 268 267 277
3 268 277 278
3 277 245 243
3 277 243 278
3 223 222 279
3 223 279 280
3 279 281 282
3 279 282 280
3 282 283 284
3 282 284 280
3 284 225 223
3 284 223 280
3 285 286 287
3 285 287 288
3 287 289 290
3 287 290 288
3 290 283 282
3 290 282 288
3 282 281 285
3 282 285 288
3 291 270 269
3 291 269 292
3 269 265 293
3 269 293 292
3 293 283 290
3 293 290 292
3 290 289 291
3 290 291 292
3 263 206 227
3 263 227 294
3 227 225 284
3 227 284 294
3 284 283 293
3 284 293 294
3 293 265 263
3 293 263 294
3 235 192 261
3 235 261 295
3 261 259 296
3 261 296 295
3 296 297 298
3 296 298 295
3 298 237 235
3 298 235 295
3 257 256 299
3 257 299 300
3 299 301 302
3 299 302 300
3 302 297 296
3 302 296 300
3 296 259 257
3 296 257 300
3 303 286 285
3 303 285 304
3 285 281 305
3 285 305 304
3 305 297 302
3 305 302 304
3 302 301 303
3 302 303 304
3 279 222 239
3 279 239 306
3 239 237 298
3 239 298 306
3 298 297 305
3 298 305 306
3 305 281 279
3 305 279 306
3 251 250 307
3 251 307 308
3 307 309 310
3 307 310 308
3 310 311 312
3 310 312 308
3 312 253 251
3 312 251 308
3 313 1 0
3 313 0 314
3 0 8 315
3 0 315 314
3 315 311 310
3 315 310 314
3 310 309 313
3 310 313 314
3 23 22 316
3 23 316 317
3 316 318 319
3 316 319 317
3 319 311 315
3 319 315 317
3 315 8 23
3 315 23 317
3 320 256 255
3 320 255 321
3 255 253 312
3 255 312 321
3 312 311 319
3 312 319 321
3 319 318 320
3 319 320 321
3 271 270 322
3 271 322 323
3 322 324 325
3 322 325 323
3 325 326 327
3 325 327 323
3 327 273 271
3 327 271 323
3 328 10 9
3 328 9 329
3 9 4 330
3 9 330 329
3 330 326 325
3 330 325 329
3 325 324 328
3 325 328 329
3 2 1 313
3 2 313 331
3 313 309 332
3 313 332 331
3 332 326 330
3 332 330 331
3 330 4 2
3 330 2 331
3 307 250 275
3 307 275 333
3 275 273 327
3 275 327 333
3 327 326 332
3 327 332 333
3 332 309 307
3 332 307 333
3 287 286 334
3 287 334 335
3 334 336 337
3 334 337 335
3 337 338 339
3 337 339 335
3 339 289 287
3 339 287 335
3 340 16 15
3 340 15 341
3 15 13 342
3 15 342 341
3 342 338 337
3 342 337 341
3 337 336 340
3 337 340 341
3 11 10 328
3 11 328 343
3 328 324 344
3 328 344 343
3 344 338 342
3 344 342 343
3 342 13 11
3 342 11 343
3 322 270 291
3 322 291 345
3 291 289 339
3 291 339 345
3 339 338 344
3 339 344 345
3 344 324 322
3 344 322 345
3 299 256 320
3 299 320 346
3 320 318 347
3 320 347 346
3 347 348 349
3 347 349 346
3 349 301 299
3 349 299 346
3 316 22 21
3 316 21 350
3 21 19 351
3 21 351 350
3 351 348 347
3 351 347 350
3 347 318 316
3 347 316 350
3 17 16 340
3 17 340 352
3 340 336 353
3 340 353 352
3 353 348 351
3 353 351 352
3 351 19 17
3 351 17 352
3 334 286 303
3 334 303 354
3 303 301 349
3 303 349 354
3 349 348 353
3 349 353 354
3 353 336 334
3 353 334 354
3 58 57 355
3 58 355 356
3 355 357 358
3 355 358 356
3 358 359 360
3 358 360 356
3 360 60 58
3 360 58 356
3 361 125 124
3 361 124 362
3 124 132 363
3 124 363 362
3 363 359 358
3 363 358 362
3 358 357 361
3 358 361 362
3 142 100 364
3 142 364 365
3 364 366 367
3 364 367 365
3 367 359 363
3 367 363 365
3 363 132 142
3 363 142 365
3 368 34 62
3 368 62 369
3 62 60 360
3 62 360 369
3 360 359 367
3 360 367 369
3 367 366 368
3 367 368 369
3 35 34 368
3 35 368 370
3 368 366 371
3 368 371 370
3 371 372 373
3 371 373 370
3 373 37 35
3 373 35 370
3 364 100 99
3 364 99 374
3 99 107 375
3 99 375 374
3 375 372 371
3 375 371 374
3 371 366 364
3 371 364 374
3 122 121 376
3 122 376 377
3 376 378 379
3 376 379 377
3 379 372 375
3 379 375 377
3 375 107 122
3 375 122 377
3 380 40 39
3 380 39 381
3 39 37 373
3 39 373 381
3 373 372 379
3 373 379 381
3 379 378 380
3 379 380 381
3 91 40 380
3 91 380 382
3 380 378 383
3 380 383 382
3 383 384 385
3 383 385 382
3 385 93 91
3 385 91 382
3 376 121 164
3 376 164 386
3 164 169 387
3 164 387 386
3 387 384 383
3 387 383 386
3 383 378 376
3 383 376 386
3 177 145 388
3 177 388 389
3 388 390 391
3 388 391 389
3 391 384 387
3 391 387 389
3 387 169 177
3 387 177 389
3 392 76 95
3 392 95 393
3 95 93 385
3 95 385 393
3 385 384 391
3 385 391 393
3 391 390 392
3 391 392 393
3 77 76 392
3 77 392 394
3 392 390 395
3 392 395 394
3 395 396 397
3 395 397 394
3 397 79 77
3 397 77 394
3 388 145 144
3 388 144 398
3 144 152 399
3 144 399 398
3 399 396 395
3 399 395 398
3 395 390 388
3 395 388 398
3 162 125 361
3 162 361 400
3 361 357 401
3 361 401 400
3 401 396 399
3 401 399 400
3 399 152 162
3 399 162 400
3 355 57 81
3 355 81 402
3 81 79 397
3 81 397 402
3 397 396 401
3 397 401 402
3 401 357 355
3 401 355 402
