OFF
331 652 0
20.4253 4.99871 -11.1895
20.4403 4.94912 -11.3075
20.5243 5.02842 -11.2475
20.2073 4.91262 -11.3225
19.6723 5.50042 -10.4355
19.7483 4.99341 -11.2685
19.8973 4.93252 -11.3475
19.8303 4.99012 -11.4405
7.26733 4.70621 -13.0155
7.27133 4.93442 -12.9485
8.46033 4.97642 -13.4775
9.73533 4.93551 -13.9355
8.46433 4.83342 -13.5405
11.0533 5.14052 -14.1035
12.3303 5.35511 -14.0515
12.2923 5.10252 -14.1805
11.0333 5.00571 -14.1695
7.27833 4.63402 -13.0415
8.48733 5.02611 -12.2005
7.51333 5.00291 -11.8355
7.52333 4.95682 -11.7595
10.9393 5.37721 -13.1805
9.69333 5.29352 -12.9145
9.62433 5.09032 -12.6025
10.8273 5.17221 -12.8715
12.0193 5.29872 -12.9195
8.50233 5.13382 -12.3715
7.45233 5.15152 -12.0825
12.0833 4.75632 -13.6405
12.0523 5.03062 -13.2755
10.8783 4.72562 -13.4515
9.65933 4.71501 -13.0605
9.70633 4.53701 -13.2895
10.9013 4.63292 -13.5765
8.52333 4.52462 -12.7315
7.52733 4.47352 -12.1525
7.55233 4.24661 -12.3565
8.54533 4.42202 -12.8495
7.44433 4.36512 -12.5655
8.52033 4.48821 -12.9595
9.69633 4.66312 -13.4915
13.4373 5.28852 -13.8975
14.4583 5.76981 -13.3135
14.4253 5.51542 -13.4545
15.2473 5.82372 -12.9315
15.9173 6.37901 -12.3155
15.8453 5.91752 -12.5995
15.2323 5.73862 -12.9775
15.4103 6.13421 -11.1175
15.5223 6.26792 -11.2865
14.8563 5.95042 -11.6435
15.5153 5.52162 -12.0395
15.4663 5.83322 -11.5675
14.9653 5.39161 -12.4535
14.1243 5.35742 -12.7145
14.1443 5.17942 -12.9685
13.1613 5.13862 -13.1455
13.1803 4.95451 -13.3985
16.2263 6.00522 -12.4395
16.8263 5.99192 -12.4965
17.3833 6.72162 -12.0565
17.2723 5.92962 -12.5695
15.7163 6.24992 -10.7095
16.6963 5.24731 -11.6005
16.6343 5.58471 -11.0715
16.2983 5.37422 -11.6195
15.8523 5.54312 -11.7825
18.0073 5.85852 -12.5775
18.9263 6.34172 -12.1715
18.8773 5.78722 -12.5405
19.7073 5.89922 -12.3665
20.5273 5.67391 -12.4045
19.6473 5.72672 -12.4795
20.4363 5.99661 -12.2015
18.0733 6.16301 -9.68545
19.6183 6.04902 -9.52845
18.9393 6.20941 -9.72945
19.6453 6.15422 -9.65745
19.0833 7.48252 -11.4005
17.1883 6.23072 -9.82145
18.2183 5.05351 -11.4865
18.1863 5.26241 -11.1455
17.3883 5.13991 -11.5505
19.0203 5.09111 -11.2475
17.3173 5.51042 -10.9635
18.2593 5.08891 -11.5435
19.0473 4.99542 -11.4385
19.3873 5.35532 -11.9545
6.81333 4.85682 -11.3605
6.71433 4.94562 -11.5265
5.97833 4.86542 -11.2355
6.32933 4.73291 -10.9505
5.76733 4.64682 -10.6075
5.26233 4.52762 -10.0875
5.87033 4.43512 -9.84845
6.03033 4.59202 -10.4725
4.34233 2.91082 -10.6625
4.22733 3.50182 -10.6405
4.73533 3.62312 -11.3145
5.36233 4.25501 -11.8995
5.41133 3.93352 -11.9285
4.79133 3.35752 -11.3315
6.24133 4.46692 -12.4725
6.27933 4.28701 -12.5205
5.43933 3.83512 -11.9465
5.73433 2.84712 -10.1325
5.28733 2.86422 -10.2965
5.49333 3.25672 -10.9705
5.80533 3.71082 -11.6495
6.19733 3.60041 -11.3675
5.85333 3.21272 -10.7935
6.58233 4.05902 -12.0775
6.75333 3.95472 -11.8665
5.74933 2.96802 -10.0975
6.75933 4.10852 -11.7735
6.23633 3.96502 -11.2265
5.88433 3.44982 -10.7345
3.99633 2.57382 -8.54245
4.04433 2.14992 -8.60045
4.09333 2.42252 -7.69745
4.13333 1.91982 -7.67145
6.65433 1.95982 -6.97645
6.96633 1.78272 -6.28545
6.36733 2.08642 -7.64145
6.70533 1.81622 -6.47045
6.68733 1.86132 -6.64545
6.61233 2.09532 -6.94445
6.45033 2.56462 -6.83745
6.69833 2.19162 -6.49545
6.64933 2.44032 -6.20645
6.37433 2.13912 -7.62245
5.98533 3.78742 -5.92245
5.86633 3.98512 -7.28245
5.83733 3.91352 -6.61945
5.69033 3.92762 -6.27645
4.03433 2.32422 -9.24845
4.00433 2.50822 -9.23345
4.11233 2.57531 -9.94945
3.92533 3.06032 -9.14845
4.04933 2.93272 -9.92745
6.07833 2.28702 -8.45445
5.97633 2.28142 -8.48545
5.82733 2.53442 -9.31245
6.32033 2.08512 -7.66245
5.64833 2.10352 -7.94845
5.42033 2.29412 -8.70745
5.54433 2.53872 -9.41545
5.84133 2.83461 -9.25545
6.01333 2.87602 -8.33745
6.06933 2.42502 -8.41745
5.84233 2.57792 -9.29945
6.30833 2.41112 -7.56845
5.93333 3.94052 -7.26345
5.84033 4.11342 -8.13245
5.68833 4.14812 -8.18745
5.82933 4.25212 -9.00645
5.76933 4.28162 -9.05045
5.47033 4.33132 -9.15645
5.16233 4.26202 -8.38145
5.55833 4.07332 -7.40545
6.09133 3.73892 -5.77645
3.99433 4.64502 -6.77545
6.12633 3.76032 -5.70845
4.25333 1.95542 -7.76845
4.78633 2.89132 -10.4955
4.39933 2.56962 -9.85145
4.68033 2.31162 -9.00245
4.15633 2.14711 -8.58345
4.96333 3.32972 -11.2395
7.34733 4.50802 -12.8185
6.33533 4.22292 -12.4025
8.45833 4.76381 -13.4225
9.71033 4.80882 -13.7285
10.9843 4.88181 -13.9735
16.5003 6.02512 -12.4265
16.0653 5.48221 -11.6635
20.3593 5.62612 -12.3465
21.0013 5.62222 -12.2655
21.0323 5.68801 -12.2975
21.0823 5.70002 -12.1945
20.8273 5.65391 -12.3795
17.4953 7.49422 -11.5545
16.5023 6.28622 -9.98545
18.2313 7.51241 -11.4865
20.7553 7.35572 -11.2265
19.8783 7.36642 -11.2335
20.5713 7.27732 -11.1185
17.0223 7.40601 -11.5875
12.4143 5.87782 -13.7835
13.5543 6.06142 -13.4845
7.29933 5.51792 -12.6935
7.36033 5.37062 -12.4475
8.51933 5.55922 -13.0435
9.77033 5.52272 -13.2675
9.82233 5.67702 -13.5045
8.50633 5.66102 -13.2015
11.1473 5.77802 -13.7885
9.83833 5.72012 -13.5725
7.28133 5.55822 -12.7625
4.11833 4.69622 -10.5275
4.57933 4.62831 -10.3505
4.73933 4.85432 -11.1245
5.57633 5.01142 -11.5475
5.30633 5.10962 -11.7575
4.48333 4.90321 -11.2485
6.27733 5.28742 -12.1575
6.14833 5.36491 -12.3005
5.22633 5.13502 -11.8165
3.98433 4.71332 -10.5795
4.05433 4.54212 -7.40345
4.31333 4.47152 -6.91445
4.14233 4.47702 -7.97445
4.38933 4.42932 -8.66545
3.86833 4.54222 -8.85745
3.78533 4.57612 -8.14845
4.09233 4.55792 -9.64645
3.75233 4.61402 -9.77645
3.71533 4.57232 -8.91745
4.00833 4.62632 -6.78945
4.84833 4.26502 -6.42245
4.13233 1.89782 -7.61545
4.97133 2.55422 -9.63445
8.48933 4.62621 -13.1915
20.8783 5.94862 -11.2955
16.3953 7.06762 -11.7715
15.9113 6.30561 -10.3955
15.9773 6.82531 -12.0445
16.1253 6.31172 -10.1625
16.6993 7.26162 -11.6415
13.1103 5.49252 -12.6615
14.0753 5.72302 -12.1975
14.5393 6.29832 -13.0165
15.3443 6.55872 -12.5035
8.51133 5.34701 -12.7085
5.25233 4.75072 -10.8665
6.49533 5.11682 -11.8425
5.32133 4.09522 -6.84545
4.84833 4.27552 -7.69045
4.78033 4.44482 -9.40245
4.56533 4.36202 -7.17845
5.40333 4.03101 -6.19845
5.00033 4.20002 -6.59645
4.91433 4.30132 -6.28545
3.94933 4.69262 -6.76945
4.02833 4.09612 -7.02245
3.91433 4.41222 -7.51945
3.95933 3.79092 -7.67945
4.00633 4.58642 -10.5865
4.09533 4.14962 -10.6085
3.80833 4.28031 -9.79945
3.81133 3.86932 -9.02345
3.73433 4.41441 -8.93945
3.82933 4.18012 -8.20145
4.53433 4.65032 -11.2645
5.24133 5.04412 -11.8275
7.28233 5.49411 -12.7835
7.27833 5.26871 -12.8505
6.18533 5.19142 -12.3435
8.51433 5.52722 -13.2615
9.83233 5.66691 -13.5995
12.3763 5.63432 -13.9085
11.1373 5.65272 -13.8515
14.5033 6.05211 -13.1545
18.1923 7.24212 -11.6665
19.0473 7.17732 -11.6095
20.5913 7.06702 -11.4535
19.9073 7.27112 -11.4245
21.0313 7.28941 -11.1415
21.2443 7.23242 -11.1815
21.0513 7.27922 -11.2305
21.2013 7.19442 -11.0795
21.2643 7.11211 -11.1355
20.2843 6.08202 -9.62945
20.3643 6.01952 -9.71045
20.0253 6.06922 -9.55345
20.1613 6.02121 -9.55045
20.2363 5.96022 -9.63245
19.9933 5.99352 -9.55145
18.9273 5.73632 -10.1945
18.0493 5.96662 -10.0195
16.5373 6.09552 -10.2735
14.0963 5.55222 -12.4395
14.8803 5.76342 -11.9165
7.52733 4.90582 -11.8005
7.52733 4.73162 -11.9425
8.49633 4.92622 -12.3065
9.63733 4.91472 -12.8145
10.8353 5.08312 -12.9855
6.00333 4.36712 -10.5255
6.29033 4.37662 -11.0835
5.86733 4.32482 -9.87045
6.81033 4.70992 -11.4465
5.83233 3.98692 -9.07345
5.87633 3.97942 -8.14745
5.93133 3.53522 -8.22445
5.85733 4.10172 -8.12745
6.05233 3.71702 -6.57645
6.17933 3.46882 -6.18545
6.00433 3.65852 -7.31845
4.09633 1.85542 -7.62345
4.02733 2.86852 -7.91845
4.04333 3.30032 -7.44745
4.09033 2.79932 -7.40945
3.92833 3.60812 -9.86345
3.91233 3.37892 -8.37145
4.63433 4.13822 -11.2895
5.29033 4.72621 -11.8565
6.21333 4.82992 -12.4085
8.48733 5.25221 -13.3695
9.80433 5.47502 -13.6865
9.76333 5.19192 -13.8165
11.0953 5.39721 -13.9775
13.4913 5.67832 -13.6905
15.2983 6.15692 -12.7345
18.1123 6.69671 -12.0265
19.8213 6.58762 -11.8925
20.9483 6.49852 -11.7825
21.1443 6.46312 -11.7365
20.4433 5.52652 -10.4745
8.51033 4.72602 -12.5185
10.8573 4.90482 -13.2185
5.78333 3.36142 -10.0315
5.94433 3.90962 -10.6295
5.83333 3.93582 -9.93545
6.78433 4.40991 -11.6105
5.83733 3.41242 -9.16345
6.21233 3.25322 -6.68145
6.15633 3.03632 -7.44345
6.43833 2.83162 -6.34045
6.34333 3.13932 -6.03145
6.52433 2.77222 -6.03045
3 0 1 2
3 3 4 5
3 3 1 0
3 6 7 3
3 3 5 6
3 8 9 10
3 11 12 10
3 12 8 10
3 13 14 15
3 15 16 13
3 16 11 13
3 17 8 12
3 18 19 20
3 21 22 23
3 23 24 21
3 24 25 21
3 26 27 19
3 19 18 26
3 18 23 26
3 23 22 26
3 28 29 30
3 30 31 32
3 32 33 30
3 33 28 30
3 34 35 36
3 36 37 34
3 37 32 34
3 32 31 34
3 36 38 39
3 39 40 32
3 32 37 39
3 37 36 39
3 32 40 33
3 15 14 41
3 41 42 43
3 44 45 46
3 43 42 44
3 46 47 44
3 47 43 44
3 48 49 50
3 51 52 53
3 53 54 55
3 56 29 28
3 28 57 56
3 57 55 56
3 55 54 56
3 46 45 58
3 59 60 61
3 62 49 48
3 63 64 65
3 66 52 51
3 61 60 67
3 67 68 69
3 69 68 70
3 71 72 70
3 72 69 70
3 70 73 71
3 74 75 76
3 75 77 76
3 76 78 74
3 74 78 79
3 80 81 82
3 80 6 83
3 6 5 83
3 83 81 80
3 5 4 83
3 84 64 63
3 63 82 84
3 82 81 84
3 85 82 67
3 82 63 67
3 7 86 87
3 86 85 87
3 6 80 86
3 80 85 86
3 86 7 6
3 82 85 80
3 20 19 88
3 19 27 89
3 89 90 91
3 91 88 89
3 88 19 89
3 92 93 94
3 94 95 92
3 95 91 92
3 91 90 92
3 96 97 98
3 98 99 100
3 100 101 98
3 101 96 98
3 102 9 8
3 8 103 102
3 103 100 102
3 100 99 102
3 104 100 103
3 103 8 17
3 101 100 104
3 105 106 107
3 107 108 109
3 109 110 107
3 110 105 107
3 111 38 36
3 36 112 111
3 112 109 111
3 109 108 111
3 110 113 105
3 36 35 114
3 114 115 109
3 109 112 114
3 112 36 114
3 113 110 116
3 110 109 116
3 109 115 116
3 117 118 119
3 118 120 119
3 121 122 123
3 122 124 125
3 122 125 123
3 126 127 128
3 128 129 126
3 126 129 122
3 121 130 126
3 126 122 121
3 131 132 133
3 131 133 134
3 135 136 137
3 118 136 135
3 117 138 136
3 136 118 117
3 139 97 96
3 96 137 139
3 137 136 139
3 136 138 139
3 140 141 142
3 123 125 143
3 143 141 140
3 143 140 123
3 144 145 141
3 141 143 144
3 143 125 144
3 146 106 105
3 105 142 146
3 142 141 146
3 141 145 146
3 147 148 149
3 149 150 147
3 150 113 147
3 151 127 126
3 126 130 151
3 130 149 151
3 149 148 151
3 121 123 130
3 123 140 130
3 140 149 130
3 142 105 150
3 105 113 150
3 150 149 140
3 140 142 150
3 131 152 132
3 152 153 132
3 153 154 132
3 155 94 156
3 156 154 153
3 153 155 156
3 94 93 157
3 157 158 154
3 154 156 157
3 156 94 157
3 159 134 133
3 133 132 159
3 132 154 159
3 154 158 159
3 160 161 162
3 163 120 118
3 96 164 165
3 165 166 135
3 135 137 165
3 137 96 165
3 167 144 163
3 135 166 167
3 135 167 118
3 167 163 118
3 168 164 96
3 96 101 168
3 101 104 168
3 104 108 168
3 17 169 170
3 170 108 104
3 104 103 170
3 103 17 170
3 171 169 17
3 17 12 171
3 12 11 171
3 11 172 171
3 15 28 173
3 173 172 11
3 11 16 173
3 16 15 173
3 41 28 15
3 43 47 53
3 47 46 53
3 174 175 58
3 61 63 65
3 65 175 174
3 174 59 65
3 59 61 65
3 67 63 61
3 71 176 72
3 69 72 87
3 72 176 87
3 177 178 179
3 180 178 177
3 71 73 180
3 180 176 71
3 181 182 183
3 184 78 185
3 185 186 184
3 187 182 181
3 188 25 189
3 190 191 192
3 192 193 194
3 194 195 192
3 195 190 192
3 196 25 188
3 194 193 196
3 197 194 196
3 198 190 195
3 195 194 197
3 199 200 201
3 201 202 203
3 203 204 201
3 204 199 201
3 205 191 190
3 190 206 205
3 206 203 205
3 203 202 205
3 207 203 206
3 206 190 198
3 208 199 204
3 204 203 207
3 209 210 211
3 211 212 213
3 213 214 211
3 214 209 211
3 215 200 199
3 199 216 215
3 216 213 215
3 213 212 215
3 217 213 216
3 216 199 208
3 214 213 217
3 218 219 210
3 214 218 209
3 218 210 209
3 220 120 122
3 120 124 122
3 144 125 163
3 125 124 120
3 125 120 163
3 145 166 221
3 145 221 146
3 221 106 146
3 144 166 145
3 166 144 167
3 165 164 221
3 164 106 221
3 166 165 221
3 164 168 107
3 168 108 107
3 107 106 164
3 169 111 170
3 111 108 170
3 111 169 38
3 39 38 222
3 38 169 222
3 222 172 40
3 40 39 222
3 169 171 222
3 171 172 222
3 28 33 173
3 33 40 173
3 40 172 173
3 57 28 41
3 55 57 41
3 41 43 55
3 53 46 51
3 55 43 53
3 51 46 58
3 175 66 58
3 66 51 58
3 67 69 85
3 87 176 7
3 85 69 87
3 179 1 177
3 223 2 179
3 2 1 179
3 7 180 3
3 180 1 3
3 7 176 180
3 177 1 180
3 78 183 79
3 183 182 79
3 77 186 76
3 78 76 185
3 76 186 185
3 49 62 224
3 62 225 224
3 224 226 49
3 182 187 227
3 187 228 227
3 228 225 227
3 224 225 228
3 25 229 189
3 229 230 189
3 230 231 189
3 49 226 232
3 49 232 50
3 232 231 230
3 232 230 50
3 27 26 233
3 26 22 233
3 25 196 21
3 196 193 21
3 193 22 21
3 191 27 233
3 191 233 192
3 233 22 193
3 233 193 192
3 93 92 234
3 92 90 234
3 89 27 235
3 90 89 235
3 191 205 235
3 205 202 235
3 202 90 235
3 235 27 191
3 201 200 234
3 200 93 234
3 234 90 202
3 202 201 234
3 236 134 159
3 236 159 237
3 159 158 237
3 157 93 238
3 158 157 238
3 212 158 238
3 212 238 215
3 238 93 200
3 238 200 215
3 211 210 239
3 239 237 211
3 237 158 212
3 237 212 211
3 160 131 240
3 240 219 160
3 219 161 160
3 134 236 241
3 236 237 241
3 240 131 134
3 240 134 241
3 239 210 241
3 210 219 241
3 219 240 241
3 241 237 239
3 161 219 218
3 161 242 162
3 242 161 243
3 244 245 246
3 245 244 218
3 218 214 245
3 247 248 249
3 249 250 251
3 251 216 249
3 216 247 249
3 252 246 245
3 245 214 252
3 214 251 252
3 251 250 252
3 217 251 214
3 208 247 216
3 216 251 217
3 253 248 247
3 247 204 253
3 204 254 253
3 207 254 204
3 204 247 208
3 198 255 206
3 206 254 207
3 255 256 257
3 254 206 257
3 206 255 257
3 258 256 255
3 255 195 258
3 195 259 258
3 197 259 195
3 195 255 198
3 196 259 197
3 188 260 261
3 259 196 261
3 196 188 261
3 189 260 188
3 231 262 189
3 226 45 232
3 232 262 231
3 224 45 226
3 228 174 224
3 181 60 187
3 187 174 228
3 263 60 181
3 181 183 263
3 183 264 263
3 78 264 183
3 184 265 266
3 266 264 78
3 78 184 266
3 184 186 267
3 267 268 269
3 267 269 184
3 269 265 184
3 270 268 267
3 268 270 271
3 270 272 273
3 270 273 271
3 273 223 271
3 267 272 270
3 272 267 274
3 267 186 77
3 267 77 274
3 272 275 276
3 272 276 273
3 274 275 272
3 277 275 274
3 277 274 75
3 274 77 75
3 75 4 277
3 276 275 277
3 278 4 75
3 75 74 278
3 74 279 278
3 182 280 79
3 79 279 74
3 48 52 62
3 227 280 182
3 25 29 229
3 229 281 230
3 282 52 48
3 48 50 282
3 50 230 282
3 230 281 282
3 283 284 285
3 285 286 23
3 23 18 285
3 18 283 285
3 287 29 25
3 25 24 287
3 24 23 287
3 23 286 287
3 20 283 18
3 288 289 91
3 91 95 288
3 95 290 288
3 291 284 283
3 283 88 291
3 88 91 291
3 91 289 291
3 88 283 20
3 94 290 95
3 290 155 292
3 155 293 292
3 293 294 292
3 155 153 295
3 295 293 155
3 155 290 94
3 152 293 295
3 295 153 152
3 296 297 298
3 298 294 293
3 293 152 298
3 152 296 298
3 152 131 296
3 160 297 296
3 296 131 160
3 161 299 243
3 300 119 301
3 119 120 302
3 119 302 301
3 220 299 161
3 302 120 220
3 244 302 220
3 244 220 218
3 220 161 218
3 301 302 244
3 301 244 246
3 97 139 303
3 139 138 303
3 303 248 97
3 117 119 300
3 300 301 304
3 300 304 117
3 304 138 117
3 250 138 304
3 250 304 252
3 304 301 246
3 304 246 252
3 249 248 303
3 303 138 250
3 250 249 303
3 98 97 305
3 97 248 305
3 99 98 305
3 248 253 305
3 253 254 306
3 253 306 305
3 306 99 305
3 256 307 257
3 307 99 306
3 307 306 257
3 306 254 257
3 99 307 102
3 307 256 9
3 307 9 102
3 9 256 308
3 9 308 10
3 308 309 310
3 308 310 10
3 310 11 10
3 256 258 308
3 258 259 309
3 258 309 308
3 261 260 311
3 260 14 311
3 309 259 261
3 309 261 311
3 13 11 310
3 310 309 311
3 310 311 13
3 311 14 13
3 14 312 41
3 312 42 41
3 260 189 312
3 189 262 312
3 262 42 312
3 312 14 260
3 232 45 313
3 313 42 262
3 262 232 313
3 45 44 313
3 44 42 313
3 45 224 58
3 224 174 58
3 174 187 59
3 187 60 59
3 60 314 67
3 314 264 68
3 314 68 67
3 60 263 314
3 263 264 314
3 266 265 315
3 265 73 315
3 264 266 315
3 68 264 315
3 68 315 70
3 315 73 70
3 73 316 180
3 316 317 180
3 317 178 180
3 269 268 317
3 317 316 269
3 316 73 265
3 316 265 269
3 317 268 271
3 223 179 271
3 179 178 317
3 179 317 271
3 223 273 318
3 318 2 223
3 318 276 0
3 318 0 2
3 276 318 273
3 4 3 277
3 3 0 277
3 0 276 277
3 4 278 83
3 278 81 83
3 279 81 278
3 79 280 84
3 280 64 84
3 84 81 279
3 279 79 84
3 66 175 225
3 65 64 227
3 225 175 65
3 225 65 227
3 227 64 280
3 62 52 66
3 225 62 66
3 53 52 282
3 54 53 282
3 281 54 282
3 229 29 56
3 56 54 281
3 281 229 56
3 35 34 319
3 34 31 319
3 319 284 35
3 30 29 320
3 31 30 320
3 286 31 320
3 286 320 287
3 320 29 287
3 285 284 319
3 319 31 286
3 286 285 319
3 321 113 116
3 321 116 322
3 116 115 322
3 322 323 321
3 114 35 324
3 35 284 324
3 115 114 324
3 284 291 324
3 291 289 324
3 289 115 324
3 288 290 323
3 323 322 288
3 322 115 289
3 322 289 288
3 147 113 321
3 147 321 325
3 321 323 325
3 148 147 325
3 323 290 292
3 294 148 325
3 294 325 292
3 325 323 292
3 298 297 326
3 298 326 327
3 326 127 327
3 327 148 294
3 294 298 327
3 148 327 151
3 327 127 151
3 127 328 128
3 328 329 129
3 328 129 128
3 326 297 328
3 297 329 328
3 328 127 326
3 330 329 160
3 329 297 160
3 122 129 330
3 129 329 330
