OFF
309 600 0
5.57152 -9.88521 -2.36708
5.86202 -7.96996 -2.24048
6.18392 -9.88446 -2.37608
6.76782 -7.87586 -2.23328
6.69342 -9.88461 -2.37418
4.95832 -9.8867 -2.34938
4.44652 -9.88874 -2.32518
5.00922 -8.13166 -2.23108
4.53392 -8.15676 -2.20998
4.46382 -7.54496 -2.15018
5.33212 -7.12566 -2.15408
5.97192 -7.20436 -2.17688
3.43092 -2.32156 4.61442
3.43772 -2.52146 4.54172
3.72612 -2.43436 4.08592
3.74852 -2.24916 4.12492
3.83692 -2.43926 3.53542
3.85792 -2.23506 3.53322
3.74842 -2.46026 2.98532
3.76862 -2.28106 2.94772
3.47482 -2.56016 2.52792
3.46932 -2.37236 2.45822
1.66832 -2.77686 4.97842
1.19622 -2.92716 4.61812
1.75872 -2.84096 4.85472
1.35982 -3.08826 4.54172
2.39432 -2.79636 4.90772
2.31042 -2.61306 5.01162
1.89142 -3.06556 4.79592
2.92452 -2.52296 4.85472
3.00522 -2.76156 4.79592
2.93782 -2.43316 4.97202
0.832821 -3.06186 2.92222
1.21342 -2.98356 2.45502
0.989121 -3.10086 2.97002
1.37172 -3.13966 2.52932
0.985621 -3.21766 3.53542
0.794921 -3.06656 3.53442
1.15612 -3.31386 2.99522
0.984521 -3.07216 4.10082
1.15162 -3.28636 4.07562
0.821421 -3.03026 4.15222
2.99462 -2.68246 2.25092
2.96392 -2.52136 2.16402
2.42812 -2.86106 2.16352
2.35102 -2.68576 2.06512
1.84352 -2.99956 2.25202
1.72862 -2.85246 2.15832
4.68602 -6.17766 3.43802
4.45782 -5.94286 3.91032
4.61652 -6.81326 3.19442
4.93062 -7.32456 2.48862
4.89152 -8.02626 2.10432
4.99282 -7.15926 2.33952
4.84982 -6.60006 2.80442
5.16492 -8.71716 1.35292
5.35762 -8.45876 1.32952
5.11872 -7.94176 1.90682
5.42602 -8.15456 1.29852
5.18302 -7.70776 1.82202
5.36842 -7.85476 1.26542
5.18272 -7.60996 1.23542
4.95672 -7.30566 1.65912
5.12962 -7.48296 1.73462
4.77582 -6.89966 2.05972
4.94192 -7.00876 2.18822
4.63662 -6.46956 2.40832
4.45402 -5.79096 2.87622
4.73162 -6.24696 2.79672
3.50362 -6.22466 4.02512
3.23422 -6.25306 3.90652
3.39642 -7.03926 3.17782
3.76402 -7.54886 2.79932
3.51922 -7.64126 2.58592
4.13602 -7.66486 2.69842
4.00422 -6.98846 3.32912
3.84382 -6.10896 4.10722
3.65252 -8.24716 1.94652
3.78652 -8.76666 1.32932
4.09912 -8.90636 1.35072
3.94392 -8.33886 1.99602
4.47412 -8.94316 1.36252
4.29372 -8.34966 2.01802
4.84982 -8.87936 1.36362
4.64442 -8.28406 2.01132
4.47362 -7.59426 2.68002
4.16542 -6.07156 4.02892
4.33712 -6.91136 3.29792
3.15752 -6.55616 2.80882
3.23812 -6.19636 2.81572
3.45052 -6.88896 2.22812
3.40752 -7.42946 1.94392
3.41792 -7.84576 1.78342
3.17532 -6.91026 2.78162
3.01312 -6.28096 3.36162
3.65412 -7.40756 1.63062
3.78672 -7.66006 1.21152
3.59702 -7.91836 1.23502
3.58852 -8.36006 1.02022
3.59802 -8.52196 1.29932
3.47682 -8.07016 1.87082
3.35052 -7.53256 2.45732
3.17912 -6.76366 3.21212
4.21272 -5.97016 2.65572
4.46582 -6.78576 2.04972
4.15112 -6.87716 1.94712
4.02092 -6.52176 2.25702
3.86032 -6.02936 2.61742
4.86722 -7.47046 1.21402
4.66252 -7.21426 1.60952
4.48642 -7.43376 1.20212
4.30722 -7.20386 1.58742
4.10472 -7.49776 1.20092
3.95102 -7.26986 1.59402
3.78782 -6.88056 2.03532
3.54782 -6.14236 2.64272
5.43892 -9.08916 0.811422
5.83472 -8.91856 0.530222
5.81842 -9.35776 0.225822
6.17142 -8.54606 0.237622
5.72762 -8.40836 0.815922
6.43432 -9.51676 -0.541478
6.81972 -9.07236 -0.622578
6.79522 -7.92726 -0.511978
6.45852 -7.47856 -0.425178
6.02442 -7.65906 0.0878223
6.03322 -8.09096 0.339822
5.74872 -7.73356 0.427922
5.45742 -7.73486 0.817722
5.66342 -8.03996 0.817322
3.91182 -9.10916 0.804122
4.25832 -9.28926 0.804922
4.05712 -9.36486 0.242222
4.43912 -9.56456 0.280422
4.87502 -9.59756 0.348822
4.67382 -9.34536 0.806722
4.25872 -9.52366 -0.459278
4.75262 -9.79939 -0.500078
5.05962 -9.74086 -0.0126777
5.94252 -9.79723 -0.545978
5.38382 -9.56216 0.269122
5.09012 -9.27836 0.808922
3.91072 -7.75516 0.810322
3.70082 -8.06566 0.807922
4.05452 -7.72526 0.333122
3.81782 -8.09936 0.297122
3.74182 -8.53586 0.247922
4.28132 -7.45256 -0.436978
3.87322 -8.49996 -0.488778
3.96152 -9.05826 -0.439278
3.80442 -8.97956 0.324422
3.70262 -8.80416 0.804522
5.10772 -7.55486 0.816922
5.39902 -7.50926 0.377922
4.88682 -7.45066 0.449422
4.68562 -7.49886 0.815222
5.96202 -7.19866 -0.397278
5.07172 -7.34086 0.127422
4.78842 -7.17316 -0.424978
4.44152 -7.51226 0.387822
4.26282 -7.56586 0.812922
6.93802 -9.20736 -0.868078
6.70372 -10.0036 -0.865078
6.96502 -9.9828 -1.17668
7.03042 -9.21176 -1.13398
7.07302 -10.7442 -1.55448
7.12102 -9.20076 -1.47938
7.09942 -8.45476 -1.55048
7.03742 -8.49256 -1.10128
6.95732 -8.51536 -0.706878
7.14992 -9.93304 -1.79888
7.19622 -9.11966 -2.16098
7.00882 -7.78556 -2.07648
6.70652 -7.30846 -2.03508
6.89742 -7.87696 -0.967278
6.56122 -7.42966 -0.675178
4.95292 -12.4957 -1.15968
4.48112 -12.0763 -1.11238
4.49072 -12.4775 -1.37648
4.93252 -12.7361 -1.39458
4.40522 -12.5603 -1.63718
4.89722 -12.8442 -1.67218
5.48732 -12.9382 -1.69428
5.46202 -12.8232 -1.40098
5.44142 -12.5665 -1.14868
4.39482 -12.5707 -1.92838
4.94912 -12.8177 -2.46898
4.90342 -12.8631 -1.96778
5.51382 -12.9595 -1.99368
6.16802 -12.8153 -2.49688
6.63292 -12.5653 -1.99308
6.12422 -12.8602 -2.00308
6.57112 -12.5545 -1.70658
6.07832 -12.841 -1.70998
6.44022 -12.4719 -1.44358
6.40922 -12.0697 -1.18318
5.93612 -12.4928 -1.19528
5.99492 -12.7331 -1.43088
4.43222 -7.30796 -2.05038
4.02462 -7.87926 -0.982878
3.88642 -8.50366 -1.00718
4.11642 -7.79146 -2.00768
3.95612 -8.43886 -2.02618
3.91702 -9.12886 -2.08358
3.88242 -9.94099 -1.70438
3.86552 -9.20566 -1.37038
3.90032 -10.7505 -1.45178
3.94912 -9.9919 -1.06848
4.14592 -10.012 -0.764978
3.91462 -9.21306 -0.758778
6.06202 -7.13666 -0.716278
5.57412 -6.92366 -2.05308
5.41332 -7.06866 -0.473578
6.19442 -7.02046 -2.08328
4.94552 -7.02376 -1.97538
4.74772 -10.3297 -0.696578
4.25982 -10.8111 -0.892178
4.81942 -11.5011 -0.865778
4.34222 -11.4936 -0.992078
5.42162 -11.5546 -0.850778
5.40912 -10.5251 -0.707378
4.90182 -12.0799 -0.992278
5.42902 -12.12 -0.972078
5.96412 -12.0765 -1.03248
6.53522 -11.4867 -1.07478
6.03312 -11.4911 -0.912078
6.60742 -10.8035 -0.981978
6.07562 -10.3252 -0.749578
3.92272 -10.6803 -2.19708
3.88462 -10.7169 -1.76238
3.97462 -11.4108 -2.25618
3.93662 -11.4473 -1.82168
3.95712 -11.4679 -1.51838
4.12762 -12.0454 -2.31198
4.08962 -12.082 -1.87828
4.10882 -12.0877 -1.58288
4.22062 -12.053 -1.31178
4.07242 -11.4779 -1.22478
3.99632 -10.7675 -1.14008
6.65132 -11.3627 -2.48518
6.15972 -11.3721 -2.48778
5.56832 -11.9894 -2.52358
6.15052 -12.5228 -2.56208
5.18222 -12.6152 -2.54608
6.74332 -11.9819 -2.52368
4.47102 -12.2722 -2.48828
4.48392 -11.3667 -2.43778
5.00722 -11.6634 -2.48348
6.91962 -10.7588 -1.24418
6.84872 -11.4697 -1.32278
7.01712 -11.4596 -1.61708
6.70692 -12.0457 -1.39838
6.86662 -12.0802 -1.67148
6.97662 -12.0397 -2.37978
6.93812 -12.0751 -1.96068
7.09152 -11.4396 -1.91298
7.18342 -10.6735 -2.27468
7.14492 -10.7089 -1.85668
3.09722 -5.87416 4.14732
3.72742 -5.69756 4.36982
3.39152 -5.80806 4.31072
4.36232 -5.52966 4.14712
4.07782 -5.62136 4.31092
4.51002 -5.37376 3.87752
4.63502 -5.59786 3.53362
4.35102 -5.44296 2.90812
4.55792 -5.51666 3.20132
4.10232 -5.65406 2.75822
3.74962 -5.74066 2.69902
3.40732 -5.84826 2.75732
3.10692 -5.91066 2.92162
2.85932 -5.84236 3.19322
2.87122 -5.95576 3.53472
2.97862 -6.01066 3.85802
4.58782 -5.68406 3.79232
3.01282 -6.10466 3.16072
5.34662 -9.89751 -0.527178
4.23372 -9.70056 -0.610678
4.75442 -10.0092 -0.621978
5.39482 -10.1031 -0.637378
6.56872 -9.69266 -0.704078
6.03962 -10.0049 -0.673578
6.85142 -8.49856 -0.507878
6.65152 -7.35806 -2.16598
4.97302 -7.05986 -2.08498
4.17132 -7.80136 -2.11008
4.02362 -8.40956 -2.14418
4.16022 -8.51086 -2.20428
4.15242 -11.2107 -2.39408
3.97742 -9.11436 -2.18738
3.98252 -10.6717 -2.29968
4.03302 -11.3974 -2.35798
4.44632 -12.5212 -2.43018
4.18162 -12.0179 -2.41168
5.56552 -12.8208 -2.54618
5.55212 -12.9237 -2.42008
6.61992 -12.4585 -2.52988
6.67132 -12.5299 -2.41368
7.13002 -11.4044 -2.33118
7.08952 -11.3916 -2.42708
7.14152 -10.6656 -2.37108
7.15402 -9.10806 -2.25918
6.94022 -12.0127 -2.47418
6.96332 -11.2839 -2.46468
6.99782 -9.88585 -2.35948
7.11382 -8.40366 -2.21408
7.15492 -8.40706 -2.11758
6.98492 -8.50246 -2.26638
6.97152 -7.79606 -2.17348
3 0 1 2
3 1 3 4
3 1 4 2
3 5 6 7
3 6 8 7
3 0 5 7
3 8 9 10
3 8 10 7
3 10 11 1
3 10 1 7
3 1 0 7
3 11 3 1
3 12 13 14
3 12 14 15
3 14 16 17
3 14 17 15
3 17 16 18
3 17 18 19
3 18 20 21
3 18 21 19
3 22 23 24
3 23 25 24
3 24 26 27
3 27 22 24
3 26 24 28
3 24 25 28
3 13 29 30
3 29 26 30
3 12 31 29
3 31 27 29
3 27 26 29
3 29 13 12
3 32 33 34
3 33 35 34
3 34 36 37
3 37 32 34
3 36 34 38
3 34 35 38
3 25 39 40
3 39 36 40
3 23 41 39
3 41 37 39
3 37 36 39
3 39 25 23
3 21 20 42
3 21 42 43
3 42 44 45
3 42 45 43
3 45 44 46
3 45 46 47
3 46 35 33
3 46 33 47
3 48 49 50
3 48 50 51
3 50 52 51
3 51 53 54
3 54 48 51
3 52 55 56
3 52 56 57
3 56 58 59
3 56 59 57
3 59 53 51
3 59 51 57
3 51 52 57
3 60 61 62
3 60 62 63
3 62 64 65
3 62 65 63
3 65 53 59
3 65 59 63
3 59 58 60
3 59 60 63
3 66 67 68
3 54 53 65
3 54 65 68
3 65 64 66
3 65 66 68
3 69 70 71
3 69 71 72
3 71 73 72
3 72 74 75
3 75 76 69
3 75 69 72
3 77 78 79
3 77 79 80
3 79 81 82
3 79 82 80
3 82 74 72
3 82 72 80
3 72 73 77
3 72 77 80
3 83 55 52
3 83 52 84
3 52 85 84
3 85 74 82
3 85 82 84
3 82 81 83
3 82 83 84
3 50 49 86
3 50 86 87
3 86 76 75
3 86 75 87
3 75 74 85
3 75 85 87
3 85 52 50
3 85 50 87
3 88 89 90
3 90 91 88
3 91 92 93
3 91 93 88
3 93 94 88
3 95 96 97
3 95 97 91
3 97 98 92
3 97 92 91
3 91 90 95
3 99 78 77
3 99 77 100
3 77 73 101
3 77 101 100
3 101 92 100
3 92 98 99
3 92 99 100
3 71 70 102
3 102 94 93
3 93 92 101
3 93 101 102
3 101 73 71
3 101 71 102
3 103 67 66
3 103 66 104
3 66 64 104
3 104 105 106
3 106 107 103
3 106 103 104
3 62 61 108
3 62 108 109
3 108 110 111
3 108 111 109
3 111 105 104
3 111 104 109
3 104 64 62
3 104 62 109
3 112 96 95
3 112 95 113
3 95 90 114
3 95 114 113
3 114 105 111
3 114 111 113
3 111 110 112
3 111 112 113
3 90 89 115
3 90 115 114
3 115 107 106
3 115 106 114
3 106 105 114
3 56 55 116
3 56 116 117
3 116 118 117
3 117 119 120
3 120 58 56
3 120 56 117
3 118 121 122
3 118 122 117
3 122 119 117
3 123 124 125
3 123 125 126
3 125 127 126
3 119 123 126
3 128 61 60
3 128 60 129
3 60 58 120
3 60 120 129
3 120 119 126
3 120 126 129
3 126 127 128
3 126 128 129
3 79 78 130
3 79 130 131
3 130 132 133
3 130 133 131
3 133 134 135
3 133 135 131
3 135 81 79
3 135 79 131
3 132 136 137
3 132 137 133
3 137 138 133
3 138 134 133
3 139 121 118
3 139 118 140
3 140 134 138
3 138 139 140
3 116 55 83
3 116 83 141
3 83 81 135
3 83 135 141
3 135 134 140
3 135 140 141
3 140 118 116
3 140 116 141
3 97 96 142
3 97 142 143
3 142 144 145
3 142 145 143
3 145 146 98
3 145 98 143
3 98 97 143
3 144 147 145
3 145 148 146
3 149 136 132
3 149 132 150
3 146 148 149
3 146 149 150
3 130 78 99
3 130 99 151
3 99 98 151
3 98 146 150
3 98 150 151
3 150 132 130
3 150 130 151
3 108 61 128
3 108 128 152
3 128 127 153
3 128 153 152
3 153 154 155
3 153 155 152
3 155 110 108
3 155 108 152
3 125 124 156
3 125 156 153
3 156 157 153
3 157 154 153
3 153 127 125
3 158 147 144
3 158 144 159
3 159 154 157
3 157 158 159
3 142 96 112
3 142 112 160
3 112 110 155
3 112 155 160
3 155 154 159
3 155 159 160
3 159 144 142
3 159 142 160
3 161 162 163
3 161 163 164
3 163 165 166
3 163 166 164
3 166 167 168
3 166 168 164
3 168 169 161
3 168 161 164
3 170 171 166
3 171 167 166
3 166 165 170
3 172 173 174
3 167 172 174
3 174 169 168
3 168 167 174
3 174 173 175
3 176 177 178
3 176 178 179
3 178 180 181
3 178 181 179
3 181 182 183
3 181 183 179
3 183 184 176
3 183 176 179
3 185 186 187
3 186 188 187
3 188 182 181
3 188 181 187
3 181 180 185
3 181 185 187
3 189 190 191
3 190 192 193
3 190 193 191
3 193 182 188
3 193 188 191
3 188 189 191
3 194 195 196
3 194 196 197
3 196 184 183
3 196 183 197
3 183 182 193
3 183 193 197
3 193 192 194
3 193 194 197
3 147 198 199
3 200 148 199
3 198 201 199
3 201 202 199
3 202 200 199
3 203 204 205
3 204 206 205
3 205 200 202
3 202 203 205
3 207 208 209
3 209 148 200
3 200 205 209
3 205 206 207
3 205 207 209
3 175 173 210
3 210 211 212
3 173 213 210
3 213 211 210
3 147 158 214
3 158 212 214
3 212 211 214
3 214 198 147
3 215 208 216
3 215 216 217
3 216 218 217
3 217 219 220
3 220 215 217
3 177 176 221
3 176 184 222
3 176 222 221
3 222 219 217
3 222 217 221
3 217 218 177
3 217 177 221
3 196 195 223
3 195 224 225
3 195 225 223
3 225 219 222
3 225 222 223
3 222 184 196
3 222 196 223
3 226 162 227
3 226 227 225
3 227 220 225
3 220 219 225
3 225 224 226
3 204 228 229
3 228 230 231
3 228 231 229
3 231 232 206
3 231 206 229
3 206 204 229
3 233 185 234
3 185 180 235
3 185 235 234
3 235 232 231
3 235 231 234
3 231 230 233
3 231 233 234
3 178 177 236
3 177 218 237
3 177 237 236
3 237 232 235
3 237 235 236
3 235 180 178
3 235 178 236
3 216 208 207
3 216 207 238
3 207 206 238
3 206 232 237
3 206 237 238
3 237 218 216
3 237 216 238
3 2 4 239
3 2 239 240
3 241 0 2
3 241 2 240
3 242 243 241
3 241 240 242
3 240 239 244
3 240 244 242
3 243 245 246
3 243 246 247
3 241 243 247
3 246 6 5
3 5 0 241
3 241 247 5
3 247 246 5
3 163 162 226
3 163 226 248
3 226 224 249
3 226 249 248
3 249 250 165
3 249 165 248
3 165 163 248
3 195 194 251
3 194 192 252
3 194 252 251
3 252 250 249
3 252 249 251
3 249 224 195
3 249 195 251
3 190 253 254
3 253 255 254
3 255 250 252
3 255 252 254
3 252 192 190
3 252 190 254
3 256 170 257
3 170 165 257
3 165 250 255
3 165 255 257
3 255 256 257
3 25 258 28
3 28 259 26
3 259 28 260
3 28 258 260
3 261 30 262
3 30 259 262
3 26 259 30
3 30 261 13
3 14 13 263
3 13 261 263
3 263 264 16
3 16 14 263
3 265 18 266
3 18 264 266
3 265 20 18
3 16 264 18
3 42 20 265
3 42 265 267
3 44 42 267
3 267 268 44
3 269 270 35
3 269 35 46
3 44 268 269
3 44 269 46
3 35 270 271
3 35 271 38
3 271 272 38
3 272 36 38
3 273 258 40
3 40 36 272
3 272 273 40
3 40 258 25
3 76 259 260
3 76 260 69
3 260 258 70
3 260 70 69
3 49 261 262
3 49 262 86
3 262 259 76
3 262 76 86
3 261 274 263
3 274 264 263
3 49 48 274
3 48 54 264
3 48 264 274
3 274 261 49
3 67 266 68
3 266 264 68
3 264 54 68
3 266 67 265
3 265 67 267
3 107 268 267
3 107 267 103
3 267 67 103
3 89 270 269
3 89 269 115
3 269 268 107
3 269 107 115
3 270 275 271
3 275 272 271
3 89 88 275
3 88 94 275
3 94 272 275
3 275 270 89
3 102 70 273
3 70 258 273
3 273 272 94
3 94 102 273
3 276 138 137
3 277 208 215
3 277 215 278
3 215 220 279
3 215 279 278
3 279 276 137
3 279 137 278
3 137 136 277
3 137 277 278
3 227 162 280
3 227 280 281
3 280 121 139
3 280 139 281
3 139 276 279
3 139 279 281
3 279 220 227
3 279 227 281
3 139 138 276
3 282 119 122
3 280 162 161
3 280 161 122
3 161 169 122
3 169 282 122
3 122 121 280
3 174 175 123
3 175 124 123
3 123 282 169
3 169 174 123
3 123 119 282
3 212 157 156
3 212 156 210
3 156 124 175
3 156 175 210
3 158 157 212
3 147 199 145
3 199 148 145
3 209 208 277
3 277 136 149
3 277 149 209
3 149 148 209
3 173 283 213
3 283 3 11
3 10 211 213
3 10 213 11
3 213 283 11
3 9 198 284
3 9 284 10
3 284 211 10
3 211 284 214
3 284 198 214
3 198 285 201
3 285 286 202
3 285 202 201
3 8 287 9
3 287 286 285
3 287 285 9
3 285 198 9
3 6 288 287
3 288 289 287
3 289 286 287
3 287 8 6
3 202 286 289
3 202 289 203
3 228 204 203
3 203 289 290
3 203 290 228
3 290 291 230
3 290 230 228
3 288 6 246
3 288 291 290
3 290 289 288
3 245 292 293
3 293 291 288
3 293 288 245
3 288 246 245
3 292 185 233
3 230 291 293
3 230 293 233
3 293 292 233
3 186 185 292
3 186 294 295
3 295 188 186
3 294 186 243
3 186 292 245
3 186 245 243
3 242 244 296
3 296 189 242
3 189 294 242
3 294 243 242
3 297 190 189
3 189 188 295
3 295 294 189
3 189 296 297
3 171 170 256
3 256 255 298
3 298 299 300
3 298 300 256
3 300 301 171
3 300 171 256
3 253 190 297
3 297 296 302
3 297 302 253
3 302 299 298
3 302 298 253
3 298 255 253
3 244 239 303
3 303 299 302
3 303 302 244
3 302 296 244
3 239 4 304
3 239 304 303
3 304 301 300
3 304 300 303
3 300 299 303
3 301 305 306
3 301 306 171
3 306 167 171
3 304 4 307
3 4 3 307
3 307 305 301
3 301 304 307
3 283 308 3
3 308 305 307
3 308 307 3
3 172 167 306
3 306 305 308
3 306 308 172
3 308 283 173
3 308 173 172
