OFF
309 608 0
8.31017 -16.3868 -1.44221
8.48117 -16.3763 -1.29121
8.22017 -16.3819 -1.32721
8.40117 -16.3878 -1.73121
8.22117 -16.3897 -1.73121
8.49017 -16.3701 -1.73521
8.49817 -16.3502 -1.34121
8.47417 -16.3819 -1.73221
7.23017 -8.72666 -1.06821
7.17517 -8.72262 -1.03821
7.20517 -10.148 -2.30821
5.29517 -8.72371 -0.670211
5.25417 -8.7258 -0.704211
5.19317 -10.1788 -2.04421
6.36717 -8.72261 -5.08421
6.43617 -8.72311 -5.08521
6.60617 -10.1788 -5.67921
6.62617 -10.1788 -5.65021
6.28417 -10.1788 -5.63621
5.98717 -8.93117 -5.09221
7.19417 -10.1788 -2.42521
7.20417 -8.83554 -1.30921
7.04517 -8.93117 -2.19721
7.17017 -9.47165 -1.99221
7.46217 -12.9889 -3.85721
6.26317 -13.2474 -3.35321
7.64517 -13.2468 -3.45921
8.01517 -13.7393 -2.36821
7.83817 -13.4578 -2.91721
6.82017 -13.4579 -2.84121
4.98817 -12.5689 -3.89721
4.91117 -12.5689 -4.64221
4.86117 -12.99 -4.18821
4.80917 -13.2479 -3.24421
4.91217 -12.9914 -3.64821
4.64517 -13.7385 -2.55121
4.73217 -13.4538 -2.70621
4.67217 -13.4579 -3.45321
4.68917 -13.7374 -2.16321
5.01517 -12.572 -3.75321
7.52717 -13.4542 -7.40221
5.97617 -13.2474 -7.16021
7.35517 -13.2419 -7.25721
7.19517 -12.9993 -7.05921
7.30117 -12.5689 -4.17721
7.31517 -12.5676 -3.96221
8.00217 -13.7385 -2.76121
7.78917 -13.4579 -3.67021
7.41917 -12.99 -4.39521
7.23217 -12.5689 -4.85421
8.10117 -14.7722 -1.69221
8.11417 -14.2075 -1.97421
7.58317 -14.2062 -1.94421
8.34317 -15.3506 -1.52121
7.76117 -15.3365 -1.50621
8.28017 -14.769 -1.71421
8.16617 -14.1945 -2.02821
4.66117 -14.7694 -2.00221
4.65917 -14.2157 -1.87621
4.61117 -14.2062 -2.72121
4.74117 -15.816 -1.81121
4.77917 -16.1981 -1.46921
4.71117 -15.3365 -1.59321
4.68717 -15.3365 -2.41421
4.80517 -16.3779 -1.31821
4.75917 -15.3354 -1.44421
4.69217 -14.8608 -1.57921
4.72817 -14.7683 -1.57621
4.72517 -14.2049 -1.80121
7.69517 -13.7339 -7.47121
7.90117 -14.2231 -7.40521
7.83317 -14.1983 -7.46321
8.07017 -14.7739 -7.36621
8.08717 -14.8964 -7.39121
7.79317 -14.7694 -7.41021
8.46917 -16.35 -7.18421
8.12617 -15.3365 -7.34221
7.61717 -15.3365 -7.33221
8.22017 -16.1959 -7.22021
7.30417 -14.2062 -7.44021
8.12717 -14.2062 -2.90121
8.27417 -14.7694 -2.13921
8.36917 -15.3365 -1.56921
8.48317 -16.1982 -1.63021
8.37117 -15.3365 -1.68321
8.43217 -15.816 -1.86021
8.46917 -16.1162 -2.33421
8.35317 -15.3365 -2.50421
8.49417 -16.3816 -7.12621
8.21517 -16.3701 -7.16021
4.76217 -16.1162 -2.31121
4.78317 -16.2801 -1.74621
4.82017 -16.3701 -1.73321
4.79817 -16.3505 -2.97221
8.35817 -16.2612 -1.31021
8.35217 -16.3509 -1.29521
5.14417 -16.3701 -1.30421
7.20617 -11.0213 -3.03421
7.17717 -11.0238 -3.26021
7.22317 -11.8633 -3.62721
7.23317 -11.867 -3.70721
7.18317 -11.867 -4.10021
7.06417 -11.0238 -3.98621
7.11217 -10.1788 -2.89821
6.74417 -11.0238 -6.00821
6.72417 -11.0238 -6.03421
6.63217 -11.0238 -6.02821
6.56517 -10.1788 -5.67821
6.88117 -11.8456 -6.37521
7.02817 -12.5742 -6.77221
6.84617 -11.874 -6.41521
6.51917 -11.867 -6.37921
6.09317 -11.0238 -5.95721
5.09217 -10.1788 -2.58121
4.99417 -11.0238 -3.71121
5.10717 -11.0238 -2.98521
5.17617 -10.1788 -2.10921
5.14517 -9.25669 -1.62621
5.02017 -11.867 -3.86321
5.07817 -11.8588 -3.43221
5.11717 -11.8706 -3.40121
5.15117 -11.0252 -2.76521
5.21617 -10.1788 -2.02921
6.98217 -9.25669 -1.47421
6.59617 -9.47165 -1.59821
6.87217 -10.1788 -2.27821
6.56417 -11.0238 -2.94321
7.08917 -11.017 -3.00721
6.88517 -11.8667 -3.59021
6.26717 -8.93118 -1.04721
5.90117 -9.47165 -1.47521
5.57517 -10.1788 -2.07521
5.27617 -10.1788 -2.03021
5.30917 -11.0264 -2.77821
5.78717 -12.5689 -3.82221
5.48417 -11.8677 -3.43721
5.32817 -14.2062 -1.82821
4.92717 -14.7663 -1.57421
4.90317 -16.2937 -1.29421
4.89917 -15.3378 -1.43621
5.28717 -15.9661 -1.34321
5.40917 -15.3365 -1.44821
5.46717 -16.3494 -1.29221
5.14517 -16.3819 -1.32721
5.14517 -16.3878 -1.44221
4.94717 -16.3878 -1.73121
4.85417 -16.3819 -1.73221
5.14617 -16.3897 -1.73121
5.91717 -15.816 -7.24421
4.88617 -16.3031 -7.19221
5.05517 -15.9661 -7.22221
4.98817 -16.3555 -7.17921
4.85317 -16.3818 -7.12221
4.79217 -16.3366 -7.14021
4.63717 -15.3541 -7.24521
4.56617 -13.7402 -7.27721
5.04817 -14.2062 -7.32521
4.56017 -14.2045 -7.29921
4.80817 -14.7694 -7.29721
5.26617 -15.3365 -7.27521
4.75617 -15.333 -7.26121
4.58517 -15.3404 -7.20721
4.51317 -14.7726 -7.27021
4.36417 -13.7366 -7.24021
4.42517 -14.2053 -7.27721
4.73117 -12.5556 -6.55021
5.50017 -12.5689 -6.63021
4.82517 -12.9825 -6.85421
4.41717 -13.4613 -7.18821
4.64217 -12.9922 -6.82821
4.52217 -13.2501 -7.05221
4.98717 -10.1788 -5.43321
5.37317 -11.0238 -5.86121
4.81617 -11.0238 -5.78621
4.68917 -10.1788 -5.38421
4.57817 -9.04173 -4.86721
5.13117 -11.867 -6.22721
4.75517 -11.8505 -6.17321
4.71017 -11.0238 -5.76621
4.49417 -8.72397 -4.70621
4.63217 -10.1788 -5.36321
5.21017 -9.47165 -5.16921
5.51117 -9.04173 -5.04621
6.22717 -10.1788 -2.17721
5.84317 -11.0238 -2.84721
6.19017 -11.867 -3.51421
6.59517 -12.5689 -3.89521
6.21817 -12.99 -3.75521
5.80517 -13.7385 -2.23121
6.97317 -13.7385 -2.30421
6.46117 -14.2062 -1.88621
5.90017 -14.7694 -1.61021
7.15717 -14.7694 -1.65721
5.99517 -15.816 -1.37721
6.59117 -15.3365 -1.47721
6.66917 -16.1162 -1.32921
7.28017 -15.816 -1.39421
6.68417 -16.2801 -1.30021
7.20217 -15.816 -7.26121
6.63217 -16.1162 -7.22121
6.66917 -16.2801 -7.20021
6.65717 -13.7385 -7.40821
6.18217 -14.2062 -7.38321
6.94117 -14.7694 -7.37821
5.68417 -14.7694 -7.33021
5.48917 -13.7385 -7.33421
6.44717 -15.3365 -7.30421
6.30817 -12.5689 -6.70421
5.94817 -12.99 -6.95121
6.01217 -13.4579 -7.29821
5.90617 -9.47165 -5.29221
5.63917 -10.1788 -5.53521
5.82817 -11.867 -6.30321
7.55517 -13.2474 -4.66521
7.45417 -13.2474 -6.01721
7.33117 -12.99 -5.43721
7.92617 -13.7385 -3.99021
7.68817 -13.4579 -5.13621
7.81317 -13.7385 -5.80321
7.73617 -13.7385 -7.04521
7.58617 -13.4579 -6.60721
7.24317 -12.99 -6.48421
7.06017 -12.5689 -6.53421
7.13017 -12.5689 -5.85121
7.00417 -9.47165 -2.88121
6.89717 -11.0238 -5.05721
6.92017 -10.1788 -3.99321
7.06517 -11.867 -5.01021
6.94717 -11.867 -5.92321
6.75917 -9.47165 -4.19321
6.72817 -10.1788 -5.09321
6.85817 -9.04173 -3.25921
6.48417 -8.89081 -5.03621
4.72917 -8.82062 -3.44321
4.47917 -8.72583 -4.65521
4.87317 -9.04173 -2.88521
4.52917 -8.93118 -4.57121
4.76017 -9.47165 -3.84121
5.00517 -9.47165 -2.52921
4.90017 -10.1788 -3.67721
4.82717 -11.0238 -4.78121
4.70717 -10.1788 -4.77721
4.80917 -12.5689 -5.63921
4.90117 -11.867 -4.77321
4.78317 -11.867 -5.68621
4.77317 -12.99 -5.23021
4.61617 -13.2474 -5.80521
4.71817 -13.2474 -4.45321
4.68417 -12.99 -6.27721
4.46917 -13.4579 -6.38921
4.38017 -13.7385 -6.83521
4.45717 -13.7385 -5.59321
4.57117 -13.4579 -4.91821
4.56917 -13.7385 -3.78021
4.52017 -14.2062 -4.51421
4.60917 -14.7694 -3.37921
4.42917 -14.2062 -6.31521
4.47917 -14.7694 -6.80321
4.53217 -14.7694 -5.41121
4.59317 -15.3365 -6.22321
4.67517 -15.816 -6.73521
4.69417 -15.816 -5.30721
4.64017 -15.3365 -4.31421
4.72217 -15.816 -3.22321
4.75017 -16.1162 -4.23321
4.77417 -16.2801 -5.26521
4.77917 -16.2801 -3.16821
4.73817 -16.1162 -6.16321
4.77017 -16.2801 -6.70321
4.81817 -16.3701 -6.69621
4.79417 -16.3505 -6.69821
5.14617 -16.3897 -6.69521
8.40017 -16.3878 -6.69521
8.22117 -16.3897 -6.69521
8.47317 -16.3819 -6.69621
8.48817 -16.3701 -6.69821
8.49017 -16.2801 -3.17721
8.45717 -16.1162 -4.25621
8.30617 -15.3365 -4.40521
8.41317 -15.816 -3.27221
8.49517 -16.3505 -5.31821
8.48517 -16.2801 -5.27521
8.44517 -16.1162 -6.18621
8.36617 -15.816 -6.78421
8.38517 -15.816 -5.35621
7.94517 -14.2062 -6.49521
8.03617 -14.2062 -4.69521
8.14517 -14.7694 -5.54821
8.09317 -14.7694 -6.94021
8.22217 -14.7694 -3.51621
8.25917 -15.3365 -6.31321
6.59117 -9.47165 -5.09221
6.78217 -11.0238 -5.79021
6.64217 -10.1788 -5.57821
4.61717 -10.1788 -5.33521
4.62417 -10.1788 -5.26221
4.71217 -11.0238 -5.51521
4.68517 -11.0238 -5.73421
4.73017 -11.8817 -6.13021
4.73917 -12.5689 -6.32321
4.38817 -14.1953 -7.18121
4.47617 -14.7694 -7.21821
4.73617 -16.1162 -7.01421
4.57617 -15.3365 -7.06521
5.04617 -16.3878 -6.84521
8.22017 -16.3878 -6.99621
8.48017 -16.28 -6.86221
8.22817 -15.3365 -7.28021
8.23717 -15.3365 -7.15521
3 0 1 2
3 3 0 4
3 5 6 1
3 5 1 7
3 1 0 3
3 1 3 7
3 8 9 10
3 11 12 13
3 14 15 16
3 15 17 16
3 18 19 14
3 10 20 21
3 10 21 8
3 22 21 23
3 21 20 23
3 24 25 26
3 27 28 29
3 28 26 29
3 26 25 29
3 30 31 32
3 33 34 32
3 34 30 32
3 35 36 37
3 36 33 37
3 36 35 38
3 39 30 34
3 40 41 42
3 42 41 43
3 24 44 45
3 27 46 28
3 26 28 47
3 28 46 47
3 48 49 44
3 44 24 48
3 24 26 48
3 50 51 52
3 51 27 52
3 53 50 54
3 55 50 53
3 56 27 51
3 51 50 55
3 55 56 51
3 57 58 59
3 58 35 59
3 60 61 62
3 60 62 63
3 62 57 63
3 64 65 66
3 65 67 66
3 66 57 62
3 62 61 64
3 62 64 66
3 68 38 58
3 38 35 58
3 58 57 66
3 66 67 68
3 66 68 58
3 69 70 71
3 70 72 73
3 70 73 71
3 73 74 71
3 75 76 73
3 76 74 73
3 74 76 77
3 76 78 77
3 69 71 79
3 71 74 79
3 46 56 80
3 56 81 80
3 55 81 56
3 56 46 27
3 53 1 82
3 82 83 84
3 84 81 55
3 84 55 82
3 55 53 82
3 85 86 87
3 81 84 87
3 84 83 85
3 84 85 87
3 82 1 6
3 83 82 6
3 83 86 85
3 78 76 75
3 75 88 89
3 90 91 60
3 91 61 60
3 92 64 93
3 64 61 91
3 64 91 93
3 94 53 54
3 95 96 2
3 95 1 94
3 95 2 1
3 1 53 94
3 97 98 20
3 97 20 10
3 99 45 100
3 45 44 100
3 100 98 97
3 97 99 100
3 44 49 101
3 101 102 98
3 98 100 101
3 100 44 101
3 23 20 103
3 20 98 103
3 98 102 103
3 17 104 105
3 17 105 16
3 105 106 107
3 105 107 16
3 107 14 16
3 108 109 110
3 110 106 105
3 105 104 108
3 105 108 110
3 111 112 106
3 106 110 111
3 110 109 111
3 18 14 107
3 107 106 18
3 106 112 18
3 113 114 115
3 115 116 113
3 116 12 117
3 116 117 113
3 118 31 30
3 30 119 118
3 119 115 118
3 115 114 118
3 39 120 119
3 120 121 119
3 121 115 119
3 119 30 39
3 122 11 13
3 13 12 116
3 116 115 121
3 116 121 13
3 121 122 13
3 123 124 125
3 125 126 127
3 127 10 125
3 10 9 123
3 10 123 125
3 45 99 128
3 99 127 128
3 127 126 128
3 97 127 99
3 10 127 97
3 11 129 9
3 130 129 11
3 130 11 131
3 11 132 131
3 132 133 131
3 121 133 132
3 121 132 122
3 132 11 122
3 120 133 121
3 39 134 135
3 133 120 135
3 120 39 135
3 34 134 39
3 136 38 68
3 137 136 68
3 67 137 68
3 65 138 139
3 139 137 67
3 139 67 65
3 140 141 139
3 141 137 139
3 139 138 140
3 65 64 138
3 138 64 96
3 138 96 142
3 96 64 143
3 64 144 143
3 145 64 146
3 64 92 146
3 144 64 145
3 144 145 147
3 148 149 150
3 149 151 152
3 149 152 153
3 153 154 149
3 155 156 157
3 156 158 157
3 159 148 150
3 159 150 160
3 150 149 160
3 158 159 160
3 154 153 161
3 161 162 154
3 162 158 160
3 162 160 154
3 160 149 154
3 163 155 157
3 163 157 164
3 157 158 162
3 157 162 164
3 165 166 167
3 168 155 163
3 165 167 169
3 167 170 169
3 171 172 173
3 173 174 171
3 174 175 171
3 176 166 165
3 165 177 176
3 177 173 176
3 173 172 176
3 178 173 177
3 179 175 174
3 179 174 180
3 174 173 178
3 174 178 180
3 175 181 171
3 179 182 175
3 129 123 9
3 124 123 129
3 129 130 124
3 124 130 183
3 124 183 125
3 183 184 126
3 183 126 125
3 131 133 184
3 184 183 131
3 183 130 131
3 135 134 185
3 184 133 135
3 184 135 185
3 186 45 128
3 126 184 185
3 126 185 128
3 185 134 186
3 185 186 128
3 24 45 186
3 186 134 187
3 186 187 24
3 187 25 24
3 34 33 25
3 25 187 34
3 187 134 34
3 36 38 188
3 36 188 29
3 188 189 29
3 25 33 36
3 25 36 29
3 189 27 29
3 52 27 189
3 189 190 52
3 190 191 192
3 190 192 52
3 192 50 52
3 188 38 136
3 136 137 191
3 191 190 136
3 190 189 188
3 190 188 136
3 141 140 193
3 141 193 194
3 193 195 194
3 191 137 141
3 191 141 194
3 54 50 192
3 192 191 194
3 192 194 54
3 194 195 196
3 194 196 54
3 94 54 196
3 196 195 94
3 195 197 94
3 140 138 197
3 197 195 140
3 195 193 140
3 197 138 142
3 95 94 197
3 197 142 95
3 142 96 95
3 144 0 2
3 96 143 2
3 143 144 2
3 4 0 144
3 144 147 4
3 198 77 78
3 198 78 199
3 78 200 199
3 200 78 75
3 151 149 200
3 200 75 151
3 75 89 151
3 148 198 199
3 199 200 148
3 200 149 148
3 201 69 79
3 201 79 202
3 79 74 203
3 79 203 202
3 203 204 202
3 202 205 201
3 198 206 77
3 206 204 203
3 206 203 77
3 203 74 77
3 159 158 204
3 204 206 159
3 206 198 148
3 206 148 159
3 156 155 205
3 205 202 156
3 202 204 156
3 204 158 156
3 207 109 43
3 207 43 208
3 43 41 208
3 40 69 201
3 201 205 209
3 201 209 40
3 209 41 40
3 205 155 168
3 168 170 41
3 41 209 168
3 209 205 168
3 166 207 208
3 166 208 167
3 208 41 167
3 41 170 167
3 210 18 211
3 18 112 211
3 211 181 210
3 111 109 207
3 207 212 111
3 212 112 111
3 172 112 212
3 172 212 176
3 212 207 166
3 212 166 176
3 181 211 171
3 211 112 172
3 211 172 171
3 19 18 210
3 19 210 182
3 210 181 182
3 181 175 182
3 182 179 14
3 14 19 182
3 48 26 213
3 213 214 215
3 213 215 48
3 215 49 48
3 47 46 216
3 47 216 217
3 216 218 217
3 217 214 213
3 213 26 47
3 213 47 217
3 218 219 220
3 220 42 214
3 214 217 220
3 217 218 220
3 221 222 223
3 221 223 215
3 223 49 215
3 214 42 221
3 214 221 215
3 224 23 103
3 102 225 226
3 102 226 103
3 226 224 103
3 101 49 227
3 227 225 102
3 102 101 227
3 223 222 228
3 225 227 228
3 227 49 223
3 227 223 228
3 229 224 226
3 229 226 230
3 226 225 230
3 231 8 22
3 22 23 224
3 224 231 22
3 229 232 231
3 231 224 229
3 21 22 8
3 233 12 234
3 12 233 235
3 233 236 237
3 233 237 235
3 238 117 235
3 117 12 235
3 235 237 238
3 113 117 238
3 238 237 239
3 238 239 113
3 239 240 114
3 239 114 113
3 240 239 241
3 239 237 241
3 242 243 244
3 243 240 244
3 31 118 243
3 118 114 243
3 114 240 243
3 243 242 31
3 32 31 245
3 31 242 245
3 245 246 247
3 247 33 32
3 247 32 245
3 242 248 245
3 248 170 246
3 248 246 245
3 249 250 251
3 251 252 249
3 252 246 249
3 246 170 249
3 253 35 37
3 37 33 247
3 247 246 252
3 247 252 37
3 252 251 253
3 252 253 37
3 59 35 253
3 253 251 254
3 253 254 59
3 254 255 59
3 255 57 59
3 251 250 256
3 256 257 258
3 258 255 254
3 258 254 256
3 254 251 256
3 259 260 261
3 261 262 259
3 262 255 258
3 262 258 259
3 258 257 259
3 263 60 63
3 63 57 255
3 255 262 63
3 262 263 63
3 90 60 263
3 263 262 264
3 263 264 90
3 264 265 266
3 264 266 90
3 266 91 90
3 261 260 267
3 267 268 265
3 265 264 267
3 264 262 261
3 264 261 267
3 269 93 270
3 93 265 270
3 265 268 270
3 269 92 93
3 93 91 266
3 266 265 93
3 146 92 269
3 146 269 152
3 145 146 152
3 271 4 147
3 147 145 271
3 272 3 4
3 4 271 273
3 273 272 4
3 274 275 7
3 272 274 7
3 275 5 7
3 7 3 272
3 86 83 276
3 276 277 86
3 277 278 279
3 277 279 86
3 6 5 275
3 275 280 6
3 280 276 6
3 276 83 6
3 281 276 280
3 282 283 284
3 282 284 277
3 284 278 277
3 277 276 281
3 281 282 277
3 285 219 218
3 285 218 286
3 287 288 285
3 287 285 286
3 216 46 80
3 80 81 289
3 289 287 286
3 289 286 80
3 286 218 216
3 286 216 80
3 87 86 279
3 279 278 87
3 278 287 289
3 278 289 87
3 289 81 87
3 284 283 290
3 290 288 287
3 287 278 290
3 278 284 290
3 42 43 221
3 43 222 221
3 220 219 40
3 42 220 40
3 40 219 69
3 109 222 43
3 291 229 230
3 230 225 292
3 292 293 230
3 293 291 230
3 222 108 228
3 108 292 228
3 292 225 228
3 104 292 108
3 108 222 109
3 293 292 104
3 293 104 17
3 291 293 232
3 232 229 291
3 15 232 17
3 232 293 17
3 8 231 232
3 232 15 8
3 233 234 236
3 294 295 236
3 236 234 294
3 234 179 294
3 237 236 241
3 236 295 241
3 295 296 241
3 296 240 241
3 294 179 180
3 180 178 297
3 180 297 294
3 297 296 295
3 297 295 294
3 177 165 298
3 165 299 298
3 298 296 297
3 297 178 177
3 297 177 298
3 299 242 244
3 244 240 296
3 296 298 244
3 298 299 244
3 248 242 299
3 299 169 248
3 169 170 248
3 169 299 165
3 250 249 168
3 249 170 168
3 168 163 250
3 250 163 300
3 250 300 256
3 300 257 256
3 163 164 300
3 164 162 301
3 164 301 300
3 301 257 300
3 153 302 303
3 153 303 161
3 303 257 301
3 303 301 161
3 301 162 161
3 257 303 259
3 303 302 260
3 303 260 259
3 302 268 260
3 268 267 260
3 268 302 153
3 268 153 270
3 153 152 269
3 153 269 270
3 271 145 304
3 304 145 152
3 151 89 152
3 305 273 271
3 271 304 305
3 89 88 152
3 88 305 152
3 305 304 152
3 305 88 272
3 305 272 273
3 272 88 274
3 88 275 274
3 282 281 306
3 282 306 283
3 275 88 280
3 88 306 280
3 306 281 280
3 283 306 88
3 283 88 307
3 88 75 307
3 288 70 285
3 70 219 285
3 283 308 290
3 308 288 290
3 307 75 73
3 73 72 307
3 72 288 308
3 72 308 307
3 308 283 307
3 69 219 70
3 70 288 72
