OFF
389 760 0
10.5352 6.29569 -20.6131
10.5922 6.57179 -20.4241
10.7592 6.66689 -20.6121
10.7612 6.28999 -20.9571
10.9982 6.69679 -20.6991
11.0212 6.28799 -21.0671
11.0362 5.81039 -21.1851
10.7572 5.84939 -21.0691
10.5132 5.8924 -20.7011
11.2342 6.6147 -20.5951
11.3922 6.48289 -20.3961
11.4762 6.18579 -20.5801
11.2742 6.22969 -20.9391
11.5232 5.76769 -20.6661
11.3072 5.78129 -21.0491
11.4942 5.36569 -20.5661
11.4242 5.10129 -20.3731
11.2712 4.99449 -20.5671
11.2942 5.34699 -20.9241
11.0392 4.96329 -20.6691
11.0432 5.34269 -21.0511
10.7972 5.05899 -20.5841
10.6252 5.2092 -20.4011
10.5552 5.4879 -20.5991
10.7822 5.41329 -20.9421
10.0812 0.414595 0.900925
10.3042 0.752995 0.899925
10.3252 0.691595 0.882925
10.1132 0.375295 0.883925
10.3062 0.664695 0.788925
10.1012 0.360395 0.789925
9.98125 -0.0291051 0.794925
9.99025 -0.0296051 0.888925
10.2282 0.664795 0.548925
10.0732 0.684495 0.0939247
9.87525 0.392295 0.0939247
10.0272 0.367095 0.548925
9.76025 0.0184949 0.0989247
9.91025 -0.0140051 0.553925
9.73825 -0.374805 0.106925
9.82225 -0.725405 0.116925
9.97225 -0.772305 0.572925
9.88725 -0.414905 0.561925
10.0442 -0.804505 0.813925
9.95925 -0.439005 0.802925
9.96725 -0.455905 0.897925
10.0552 -0.836205 0.908925
11.4292 0.475095 0.920925
11.3752 0.456695 0.825925
11.1692 0.707595 0.813925
11.2162 0.736195 0.908925
10.8892 0.830795 0.802925
10.9272 0.864395 0.897925
11.2792 0.461595 0.584925
11.1082 0.485695 0.128925
10.9072 0.726195 0.117925
11.0762 0.706895 0.572925
10.6372 0.844195 0.106925
10.8012 0.827395 0.561925
10.3432 0.832695 0.0989247
10.5022 0.815795 0.553925
10.5852 0.818995 0.793925
10.6092 0.924795 0.905925
10.6132 0.852095 0.887925
11.0152 -1.00711 0.608925
10.8492 -0.954805 0.152925
11.0482 -0.657505 0.151925
11.2182 -0.704105 0.607925
11.1662 -0.273505 0.146925
11.3372 -0.312505 0.602925
11.4352 -0.335205 0.844925
11.3132 -0.735705 0.849925
11.1062 -1.04551 0.849925
11.1902 0.130095 0.138925
11.3622 0.0988949 0.594925
11.4602 0.0856949 0.835925
10.2502 -1.06091 0.824925
10.0212 -0.970905 0.128925
10.1742 -1.02281 0.583925
10.2892 -1.09921 0.138925
10.4462 -1.15391 0.594925
10.5272 -1.19511 0.835925
10.5812 -1.09791 0.147925
10.7422 -1.15281 0.603925
10.8292 -1.19431 0.844925
9.10025 0.859095 -4.52208
9.26025 1.09379 -4.52308
9.39425 1.38269 -6.35908
9.25325 1.17159 -6.35908
9.66225 1.77409 -8.32508
9.54025 1.58739 -8.32508
9.47325 1.35049 -8.32207
9.17325 0.902795 -6.35508
9.00925 0.559695 -4.51908
9.98525 2.2748 -10.2841
10.2832 2.89179 -12.0951
10.1962 2.74489 -12.0951
9.88225 2.11049 -10.2831
10.1512 2.56069 -12.0921
9.82625 1.90289 -10.2811
10.1522 2.36979 -12.0881
10.2032 2.20309 -12.0831
9.87725 1.49699 -10.2711
9.82325 1.68689 -10.2761
9.52525 0.884195 -8.31007
9.46525 1.10289 -8.31708
9.22725 0.371695 -6.34208
9.06625 -0.0335051 -4.50408
8.99525 0.245495 -4.51208
9.16225 0.621295 -6.34908
9.94225 1.13229 -4.50308
10.1082 0.941895 -4.49408
10.1552 1.25099 -6.33308
10.0052 1.42049 -6.34108
10.3282 1.66419 -8.30307
10.1962 1.81189 -8.31007
10.0202 1.88219 -8.31708
9.80525 1.50229 -6.34908
9.71925 1.22479 -4.51208
10.5622 2.18659 -10.2641
10.7882 2.82329 -12.0781
10.6842 2.93359 -12.0831
10.4462 2.31379 -10.2701
10.5502 2.98349 -12.0891
10.2932 2.3731 -10.2761
10.4092 2.97049 -12.0931
10.1312 2.36129 -10.2811
9.83225 1.87099 -8.32207
9.47925 1.21379 -4.51908
9.59025 1.49129 -6.35508
10.0702 0.0312949 -4.47508
9.91025 -0.206905 -4.47508
9.98425 0.221995 -6.31608
10.1262 0.436095 -6.31608
10.1882 0.759995 -8.28808
10.3112 0.949095 -8.28808
10.3792 1.19079 -8.29108
10.2072 0.710895 -6.32008
10.1632 0.337895 -4.47908
10.4532 1.39789 -10.2511
10.7072 2.1266 -12.0661
10.7942 2.2748 -12.0671
10.5562 1.56409 -10.2511
10.8392 2.46179 -12.0691
10.6122 1.77519 -10.2541
10.8392 2.65529 -12.0731
10.6162 1.99489 -10.2581
10.3872 1.44309 -8.29607
10.1782 0.659295 -4.48608
10.2202 0.998495 -6.32608
9.23125 -0.227505 -4.49408
9.37625 0.199195 -6.33308
9.65725 0.734095 -8.30307
9.83125 0.658995 -8.29607
9.57525 0.111395 -6.32508
9.45225 -0.327205 -4.48608
10.3072 2.0915 -12.0781
9.99325 1.36799 -10.2641
10.4402 2.03889 -12.0731
10.1452 1.30499 -10.2581
10.5822 2.0492 -12.0691
10.3072 1.31329 -10.2541
10.0192 0.665495 -8.29108
9.69125 -0.323405 -4.47908
9.78925 0.116395 -6.31908
10.4782 3.63199 -13.6211
10.4022 3.49479 -13.6201
10.5872 4.41719 -14.8641
10.5162 4.2798 -14.8631
10.4852 4.10999 -14.8611
10.3652 3.32399 -13.6181
10.6282 5.16899 -15.8271
10.6182 5.8092 -16.5151
10.5432 5.6337 -16.5151
10.5582 5.0195 -15.8271
10.5162 5.41859 -16.5121
10.5302 4.83579 -15.8251
10.5392 5.19959 -16.5071
10.6102 5.0122 -16.5021
10.6052 4.48809 -15.8161
10.5452 4.64859 -15.8211
10.5482 3.78659 -14.8531
10.4952 3.93619 -14.8581
10.4202 2.99559 -13.6101
10.3702 3.14809 -13.6151
10.9402 3.57959 -13.6051
10.8432 3.67889 -13.6101
11.0392 4.37579 -14.8481
10.9412 4.4718 -14.8531
10.8202 4.51169 -14.8581
10.7202 3.7221 -13.6151
11.1032 5.13269 -15.8111
11.1542 5.7709 -16.4971
11.0332 5.8893 -16.5031
10.9982 5.2345 -15.8171
10.8872 5.93589 -16.5081
10.8702 5.27529 -15.8211
10.7412 5.9096 -16.5131
10.7392 5.25389 -15.8251
10.6952 4.49399 -14.8621
10.5912 3.70709 -13.6181
10.8822 2.93669 -13.5941
10.9582 3.075 -13.5951
10.9992 3.73909 -14.8381
11.0702 3.87759 -14.8381
11.1012 4.0494 -14.8401
10.9952 3.24799 -13.5971
11.0802 4.44429 -15.8001
11.1452 4.963 -16.4841
11.2202 5.1403 -16.4841
11.1502 4.5951 -15.8001
11.2472 5.35899 -16.4871
11.1782 4.7812 -15.8031
11.2252 5.58159 -16.4911
11.1632 4.97099 -15.8071
11.0912 4.22519 -14.8441
10.9902 3.4261 -13.6001
10.5182 2.8952 -13.6051
10.6452 3.68959 -14.8481
10.7672 3.64769 -14.8441
10.6412 2.8499 -13.6001
10.7302 4.89189 -16.4961
10.7102 4.38499 -15.8111
10.8762 4.84169 -16.4901
10.8382 4.34169 -15.8061
11.0232 4.86449 -16.4861
10.9692 4.36069 -15.8021
10.8912 3.6633 -14.8401
10.7692 2.86269 -13.5971
10.5742 6.25949 -16.9301
10.4892 6.042 -16.9291
10.5142 6.55449 -17.2061
10.4162 6.28729 -17.2051
10.3872 5.9592 -17.2011
10.4622 5.7755 -16.9261
10.4542 6.72889 -17.4791
10.4102 6.81719 -17.8821
10.2862 6.4592 -17.8801
10.3422 6.4121 -17.4771
10.2532 6.01859 -17.8741
10.3112 6.02259 -17.4721
10.3092 5.5677 -17.8641
10.4522 5.17889 -17.8531
10.4872 5.2818 -17.4541
10.3602 5.6245 -17.4641
10.5352 5.33649 -17.1861
10.4272 5.62429 -17.1941
10.5812 5.27079 -16.9131
10.4932 5.5038 -16.9201
11.2122 6.2109 -16.9081
11.0662 6.35829 -16.9151
11.2742 6.49069 -17.1801
11.0982 6.67349 -17.1891
10.8902 6.74609 -17.1971
10.8922 6.41639 -16.9221
11.3352 6.6484 -17.4491
11.3922 6.72189 -17.8481
11.1642 6.9704 -17.8591
11.1302 6.86689 -17.4591
10.8942 7.07059 -17.8701
10.8892 6.95439 -17.4681
10.6282 7.0203 -17.8781
10.6502 6.909 -17.4751
10.6842 6.707 -17.2031
10.7182 6.38389 -16.9271
11.2182 5.20589 -16.8911
11.3032 5.4261 -16.8921
11.2922 5.2499 -17.1591
11.3912 5.5209 -17.1611
11.4202 5.8566 -17.1651
11.3312 5.69809 -16.8961
11.3642 5.17179 -17.4231
11.4292 5.04879 -17.8191
11.5542 5.41259 -17.8211
11.4772 5.49349 -17.4251
11.5882 5.86489 -17.8271
11.5092 5.8928 -17.4301
11.5342 6.32739 -17.8371
11.4612 6.30069 -17.4391
11.3812 6.19909 -17.1721
11.3002 5.97519 -16.9011
10.7272 5.12059 -16.9061
10.7102 5.14989 -17.1771
10.9172 5.06969 -17.1691
10.9012 5.0571 -16.8991
10.6792 4.92459 -17.8411
10.6902 5.05829 -17.4431
10.9472 4.8128 -17.8311
10.9312 4.96099 -17.4341
11.2122 4.85149 -17.8231
11.1692 4.99659 -17.4271
11.1222 5.10119 -17.1621
11.0742 5.0842 -16.8941
10.4002 6.85409 -18.5491
10.2682 6.47129 -18.5471
10.4282 6.8251 -19.3091
10.2982 6.442 -19.3201
10.2632 5.97019 -19.3261
10.2342 5.99979 -18.5401
10.5022 6.71569 -19.9881
10.3832 6.36489 -20.0381
10.3532 5.9335 -20.0831
10.5432 5.11689 -19.9601
10.4062 5.49549 -20.0221
10.4742 5.07139 -19.2781
10.3232 5.4879 -19.3031
10.4462 5.10049 -18.5181
10.2942 5.5171 -18.5301
11.4422 6.74939 -18.5131
11.1992 7.0161 -18.5251
11.4662 6.7179 -19.2731
11.2252 6.9851 -19.2981
10.9402 7.0936 -19.3221
10.9132 7.12399 -18.5371
11.4442 6.61489 -19.9551
11.2272 6.85889 -20.0181
10.9702 6.95829 -20.0801
10.7132 6.91199 -20.0361
10.6592 7.0413 -19.3181
10.6312 7.07089 -18.5451
11.4832 4.95759 -18.4821
11.6152 5.34669 -18.4841
11.5062 4.92729 -19.2421
11.6392 5.3155 -19.2571
11.6762 5.79859 -19.2771
11.6512 5.83089 -18.4911
11.4812 4.98699 -19.9271
11.6042 5.33859 -19.9811
11.6402 5.7755 -20.0391
11.5842 6.2274 -19.9961
11.6172 6.29429 -19.2741
11.5932 6.3264 -18.5011
10.6872 4.82739 -18.5061
10.7152 4.79709 -19.2791
10.9992 4.67519 -19.2801
10.9722 4.7067 -18.4951
10.7632 4.86389 -20.0001
11.0232 4.75079 -20.0421
11.2752 4.79139 -19.9821
11.2782 4.7162 -19.2591
11.2532 4.7471 -18.4861
10.8302 0.524795 -0.610075
10.6342 0.757495 -0.621075
10.5202 0.599795 -1.62908
10.3322 0.821595 -1.64008
10.0782 0.930195 -1.65008
10.3702 0.871595 -0.631075
10.2552 0.731895 -2.92508
10.0762 0.939595 -2.93508
9.83625 1.04099 -2.94408
9.33725 0.900295 -2.95608
9.57525 1.02999 -2.95208
9.55125 0.781395 -1.66208
9.80325 0.918995 -1.65808
9.82225 0.716395 -0.644075
10.0842 0.860195 -0.640075
9.62925 0.433295 -0.644075
9.36625 0.510795 -1.66208
9.25925 0.164795 -1.65708
9.51725 0.0710949 -0.639075
9.16425 0.645795 -2.95608
9.06425 0.320695 -2.95108
9.12225 -0.324605 -2.93508
9.04725 -0.0208051 -2.94408
9.31925 -0.522805 -1.64008
9.24025 -0.198905 -1.65008
9.57825 -0.649305 -0.621075
9.49725 -0.309905 -0.631075
9.77225 -0.886805 -0.610075
9.50725 -0.749105 -1.62908
9.75925 -0.866805 -1.61908
10.0342 -1.01071 -0.600075
9.30025 -0.536405 -2.92508
9.53925 -0.646105 -2.91608
10.0352 -0.517705 -2.90408
9.79825 -0.643205 -2.90808
10.2832 -0.731605 -1.60708
10.0322 -0.864605 -1.61108
10.5802 -0.870105 -0.587075
10.3192 -1.00901 -0.591075
10.7742 -0.582105 -0.587075
10.4692 -0.456405 -1.60708
10.5782 -0.101405 -1.61208
10.8882 -0.210205 -0.592075
10.2092 -0.259105 -2.90408
10.3112 0.0741949 -2.90908
10.3302 0.423995 -2.91608
10.5992 0.271395 -1.61908
10.9102 0.180495 -0.600075
3 0 1 2
3 0 2 3
3 2 4 5
3 2 5 3
3 5 6 7
3 5 7 3
3 7 8 0
3 7 0 3
3 9 10 11
3 9 11 12
3 11 13 14
3 11 14 12
3 14 6 5
3 14 5 12
3 5 4 9
3 5 9 12
3 15 16 17
3 15 17 18
3 17 19 20
3 17 20 18
3 20 6 14
3 20 14 18
3 14 13 15
3 14 15 18
3 21 22 23
3 21 23 24
3 23 8 7
3 23 7 24
3 7 6 20
3 7 20 24
3 20 19 21
3 20 21 24
3 25 26 27
3 25 27 28
3 27 29 30
3 27 30 28
3 30 31 32
3 30 32 28
3 32 25 28
3 33 34 35
3 33 35 36
3 35 37 38
3 35 38 36
3 38 31 30
3 38 30 36
3 30 29 33
3 30 33 36
3 39 40 41
3 39 41 42
3 41 43 44
3 41 44 42
3 44 31 38
3 44 38 42
3 38 37 39
3 38 39 42
3 32 31 44
3 32 44 45
3 44 43 46
3 44 46 45
3 47 48 49
3 47 49 50
3 49 51 52
3 49 52 50
3 53 54 55
3 53 55 56
3 55 57 58
3 55 58 56
3 58 51 49
3 58 49 56
3 49 48 53
3 49 53 56
3 59 34 33
3 59 33 60
3 33 29 61
3 33 61 60
3 61 51 58
3 61 58 60
3 58 57 59
3 58 59 60
3 27 26 62
3 27 62 63
3 62 52 63
3 52 51 61
3 52 61 63
3 61 29 27
3 61 27 63
3 64 65 66
3 64 66 67
3 66 68 69
3 66 69 67
3 69 70 71
3 69 71 67
3 71 72 64
3 71 64 67
3 73 54 53
3 73 53 74
3 53 48 75
3 53 75 74
3 75 70 69
3 75 69 74
3 69 68 73
3 69 73 74
3 75 48 47
3 46 43 76
3 41 40 77
3 41 77 78
3 77 79 80
3 77 80 78
3 80 81 76
3 80 76 78
3 76 43 41
3 76 41 78
3 82 65 64
3 82 64 83
3 64 72 84
3 64 84 83
3 84 81 80
3 84 80 83
3 80 79 82
3 80 82 83
3 85 86 87
3 85 87 88
3 87 89 90
3 87 90 88
3 90 91 92
3 90 92 88
3 92 93 85
3 92 85 88
3 94 95 96
3 94 96 97
3 96 98 99
3 96 99 97
3 99 91 90
3 99 90 97
3 90 89 94
3 90 94 97
3 100 101 102
3 100 102 103
3 102 104 105
3 102 105 103
3 105 91 99
3 105 99 103
3 99 98 100
3 99 100 103
3 106 107 108
3 106 108 109
3 108 93 92
3 108 92 109
3 92 91 105
3 92 105 109
3 105 104 106
3 105 106 109
3 110 111 112
3 110 112 113
3 112 114 115
3 112 115 113
3 115 116 117
3 115 117 113
3 117 118 110
3 117 110 113
3 119 120 121
3 119 121 122
3 121 123 124
3 121 124 122
3 124 116 115
3 124 115 122
3 115 114 119
3 115 119 122
3 125 95 94
3 125 94 126
3 94 89 127
3 94 127 126
3 127 116 124
3 127 124 126
3 124 123 125
3 124 125 126
3 87 86 128
3 87 128 129
3 128 118 117
3 128 117 129
3 117 116 127
3 117 127 129
3 127 89 87
3 127 87 129
3 130 131 132
3 130 132 133
3 132 134 135
3 132 135 133
3 135 136 137
3 135 137 133
3 137 138 130
3 137 130 133
3 139 140 141
3 139 141 142
3 141 143 144
3 141 144 142
3 144 136 135
3 144 135 142
3 135 134 139
3 135 139 142
3 145 120 119
3 145 119 146
3 119 114 147
3 119 147 146
3 147 136 144
3 147 144 146
3 144 143 145
3 144 145 146
3 112 111 148
3 112 148 149
3 148 138 137
3 148 137 149
3 137 136 147
3 137 147 149
3 147 114 112
3 147 112 149
3 150 107 106
3 150 106 151
3 106 104 152
3 106 152 151
3 152 153 154
3 152 154 151
3 154 155 150
3 154 150 151
3 102 101 156
3 102 156 157
3 156 158 159
3 156 159 157
3 159 153 152
3 159 152 157
3 152 104 102
3 152 102 157
3 160 140 139
3 160 139 161
3 139 134 162
3 139 162 161
3 162 153 159
3 162 159 161
3 159 158 160
3 159 160 161
3 132 131 163
3 132 163 164
3 163 155 154
3 163 154 164
3 154 153 162
3 154 162 164
3 162 134 132
3 162 132 164
3 96 95 165
3 96 165 166
3 165 167 168
3 165 168 166
3 168 169 170
3 168 170 166
3 170 98 96
3 170 96 166
3 171 172 173
3 171 173 174
3 173 175 176
3 173 176 174
3 176 169 168
3 176 168 174
3 168 167 171
3 168 171 174
3 177 178 179
3 177 179 180
3 179 181 182
3 179 182 180
3 182 169 176
3 182 176 180
3 176 175 177
3 176 177 180
3 183 101 100
3 183 100 184
3 100 98 170
3 100 170 184
3 170 169 182
3 170 182 184
3 182 181 183
3 182 183 184
3 121 120 185
3 121 185 186
3 185 187 188
3 185 188 186
3 188 189 190
3 188 190 186
3 190 123 121
3 190 121 186
3 191 192 193
3 191 193 194
3 193 195 196
3 193 196 194
3 196 189 188
3 196 188 194
3 188 187 191
3 188 191 194
3 197 172 171
3 197 171 198
3 171 167 199
3 171 199 198
3 199 189 196
3 199 196 198
3 196 195 197
3 196 197 198
3 165 95 125
3 165 125 200
3 125 123 190
3 125 190 200
3 190 189 199
3 190 199 200
3 199 167 165
3 199 165 200
3 141 140 201
3 141 201 202
3 201 203 204
3 201 204 202
3 204 205 206
3 204 206 202
3 206 143 141
3 206 141 202
3 207 208 209
3 207 209 210
3 209 211 212
3 209 212 210
3 212 205 204
3 212 204 210
3 204 203 207
3 204 207 210
3 213 192 191
3 213 191 214
3 191 187 215
3 191 215 214
3 215 205 212
3 215 212 214
3 212 211 213
3 212 213 214
3 185 120 145
3 185 145 216
3 145 143 206
3 145 206 216
3 206 205 215
3 206 215 216
3 215 187 185
3 215 185 216
3 156 101 183
3 156 183 217
3 183 181 218
3 183 218 217
3 218 219 220
3 218 220 217
3 220 158 156
3 220 156 217
3 179 178 221
3 179 221 222
3 221 223 224
3 221 224 222
3 224 219 218
3 224 218 222
3 218 181 179
3 218 179 222
3 225 208 207
3 225 207 226
3 207 203 227
3 207 227 226
3 227 219 224
3 227 224 226
3 224 223 225
3 224 225 226
3 201 140 160
3 201 160 228
3 160 158 220
3 160 220 228
3 220 219 227
3 220 227 228
3 227 203 201
3 227 201 228
3 173 172 229
3 173 229 230
3 229 231 232
3 229 232 230
3 232 233 234
3 232 234 230
3 234 175 173
3 234 173 230
3 235 236 237
3 235 237 238
3 237 239 240
3 237 240 238
3 240 233 232
3 240 232 238
3 232 231 235
3 232 235 238
3 241 242 243
3 241 243 244
3 243 245 246
3 243 246 244
3 246 233 240
3 246 240 244
3 240 239 241
3 240 241 244
3 247 178 177
3 247 177 248
3 177 175 234
3 177 234 248
3 234 233 246
3 234 246 248
3 246 245 247
3 246 247 248
3 193 192 249
3 193 249 250
3 249 251 252
3 249 252 250
3 252 253 254
3 252 254 250
3 254 195 193
3 254 193 250
3 255 256 257
3 255 257 258
3 257 259 260
3 257 260 258
3 260 253 252
3 260 252 258
3 252 251 255
3 252 255 258
3 261 236 235
3 261 235 262
3 235 231 263
3 235 263 262
3 263 253 260
3 263 260 262
3 260 259 261
3 260 261 262
3 229 172 197
3 229 197 264
3 197 195 254
3 197 254 264
3 254 253 263
3 254 263 264
3 263 231 229
3 263 229 264
3 209 208 265
3 209 265 266
3 265 267 268
3 265 268 266
3 268 269 270
3 268 270 266
3 270 211 209
3 270 209 266
3 271 272 273
3 271 273 274
3 273 275 276
3 273 276 274
3 276 269 268
3 276 268 274
3 268 267 271
3 268 271 274
3 277 256 255
3 277 255 278
3 255 251 279
3 255 279 278
3 279 269 276
3 279 276 278
3 276 275 277
3 276 277 278
3 249 192 213
3 249 213 280
3 213 211 270
3 213 270 280
3 270 269 279
3 270 279 280
3 279 251 249
3 279 249 280
3 221 178 247
3 221 247 281
3 247 245 282
3 247 282 281
3 282 283 284
3 282 284 281
3 284 223 221
3 284 221 281
3 243 242 285
3 243 285 286
3 285 287 288
3 285 288 286
3 288 283 282
3 288 282 286
3 282 245 243
3 282 243 286
3 289 272 271
3 289 271 290
3 271 267 291
3 271 291 290
3 291 283 288
3 291 288 290
3 288 287 289
3 288 289 290
3 265 208 225
3 265 225 292
3 225 223 284
3 225 284 292
3 284 283 291
3 284 291 292
3 291 267 265
3 291 265 292
3 237 236 293
3 237 293 294
3 293 295 296
3 293 296 294
3 296 297 298
3 296 298 294
3 298 239 237
3 298 237 294
3 299 1 0
3 299 0 300
3 0 8 301
3 0 301 300
3 301 297 296
3 301 296 300
3 296 295 299
3 296 299 300
3 23 22 302
3 23 302 303
3 302 304 305
3 302 305 303
3 305 297 301
3 305 301 303
3 301 8 23
3 301 23 303
3 306 242 241
3 306 241 307
3 241 239 298
3 241 298 307
3 298 297 305
3 298 305 307
3 305 304 306
3 305 306 307
3 257 256 308
3 257 308 309
3 308 310 311
3 308 311 309
3 311 312 313
3 311 313 309
3 313 259 257
3 313 257 309
3 314 10 9
3 314 9 315
3 9 4 316
3 9 316 315
3 316 312 311
3 316 311 315
3 311 310 314
3 311 314 315
3 2 1 299
3 2 299 317
3 299 295 318
3 299 318 317
3 318 312 316
3 318 316 317
3 316 4 2
3 316 2 317
3 293 236 261
3 293 261 319
3 261 259 313
3 261 313 319
3 313 312 318
3 313 318 319
3 318 295 293
3 318 293 319
3 273 272 320
3 273 320 321
3 320 322 323
3 320 323 321
3 323 324 325
3 323 325 321
3 325 275 273
3 325 273 321
3 326 16 15
3 326 15 327
3 15 13 328
3 15 328 327
3 328 324 323
3 328 323 327
3 323 322 326
3 323 326 327
3 11 10 314
3 11 314 329
3 314 310 330
3 314 330 329
3 330 324 328
3 330 328 329
3 328 13 11
3 328 11 329
3 308 256 277
3 308 277 331
3 277 275 325
3 277 325 331
3 325 324 330
3 325 330 331
3 330 310 308
3 330 308 331
3 285 242 306
3 285 306 332
3 306 304 333
3 306 333 332
3 333 334 335
3 333 335 332
3 335 287 285
3 335 285 332
3 302 22 21
3 302 21 336
3 21 19 337
3 21 337 336
3 337 334 333
3 337 333 336
3 333 304 302
3 333 302 336
3 17 16 326
3 17 326 338
3 326 322 339
3 326 339 338
3 339 334 337
3 339 337 338
3 337 19 17
3 337 17 338
3 320 272 289
3 320 289 340
3 289 287 335
3 289 335 340
3 335 334 339
3 335 339 340
3 339 322 320
3 339 320 340
3 55 54 341
3 55 341 342
3 341 343 344
3 341 344 342
3 344 345 346
3 344 346 342
3 346 57 55
3 346 55 342
3 347 111 110
3 347 110 348
3 110 118 349
3 110 349 348
3 349 345 344
3 349 344 348
3 344 343 347
3 344 347 348
3 128 86 350
3 128 350 351
3 350 352 353
3 350 353 351
3 353 345 349
3 353 349 351
3 349 118 128
3 349 128 351
3 354 34 59
3 354 59 355
3 59 57 346
3 59 346 355
3 346 345 353
3 346 353 355
3 353 352 354
3 353 354 355
3 35 34 354
3 35 354 356
3 354 352 357
3 354 357 356
3 357 358 359
3 357 359 356
3 359 37 35
3 359 35 356
3 350 86 85
3 350 85 360
3 85 93 361
3 85 361 360
3 361 358 357
3 361 357 360
3 357 352 350
3 357 350 360
3 108 107 362
3 108 362 363
3 362 364 365
3 362 365 363
3 365 358 361
3 365 361 363
3 361 93 108
3 361 108 363
3 366 40 39
3 366 39 367
3 39 37 359
3 39 359 367
3 359 358 365
3 359 365 367
3 365 364 366
3 365 366 367
3 77 40 366
3 77 366 368
3 366 364 369
3 366 369 368
3 369 370 371
3 369 371 368
3 371 79 77
3 371 77 368
3 362 107 150
3 362 150 372
3 150 155 373
3 150 373 372
3 373 370 369
3 373 369 372
3 369 364 362
3 369 362 372
3 163 131 374
3 163 374 375
3 374 376 377
3 374 377 375
3 377 370 373
3 377 373 375
3 373 155 163
3 373 163 375
3 378 65 82
3 378 82 379
3 82 79 371
3 82 371 379
3 371 370 377
3 371 377 379
3 377 376 378
3 377 378 379
3 66 65 378
3 66 378 380
3 378 376 381
3 378 381 380
3 381 382 383
3 381 383 380
3 383 68 66
3 383 66 380
3 374 131 130
3 374 130 384
3 130 138 385
3 130 385 384
3 385 382 381
3 385 381 384
3 381 376 374
3 381 374 384
3 148 111 347
3 148 347 386
3 347 343 387
3 347 387 386
3 387 382 385
3 387 385 386
3 385 138 148
3 385 148 386
3 341 54 73
3 341 73 388
3 73 68 383
3 73 383 388
3 383 382 387
3 383 387 388
3 387 343 341
3 387 341 388
