OFF
387 748 0
-11.4496 20.0491 7.51446
-11.4356 20.0407 7.53646
-11.4416 20.883 7.86346
-11.4546 20.8914 7.84146
-10.6786 21.2411 7.53646
-10.6916 21.2495 7.51446
-10.4986 20.9101 7.24846
-11.0806 20.6554 7.49846
-11.0596 20.0209 7.24846
-4.39964 6.47612 -0.309537
-4.39964 6.47612 -0.279537
-4.33964 6.51542 -0.242537
-4.33964 6.51542 -0.272537
-4.22464 6.61802 -0.169537
-4.22464 6.61802 -0.196537
-3.97964 6.61802 -0.215537
-4.06564 6.51542 -0.293537
-4.11064 6.47612 -0.331537
-3.24564 6.47612 1.96646
-2.37964 6.47612 1.95846
-2.42464 6.51542 1.92046
-3.24564 6.51542 1.92746
-2.51064 6.61802 1.84346
-3.24564 6.61802 1.85046
-3.97964 6.61802 1.84346
-4.06564 6.51542 1.92046
-4.11064 6.47612 1.95846
-2.09064 6.47612 -0.309537
-2.37964 6.47612 -0.331537
-2.42464 6.51542 -0.293537
-2.15064 6.51542 -0.272537
-2.51064 6.61802 -0.215537
-2.26664 6.61802 -0.196537
-2.26664 6.61802 -0.169537
-2.15064 6.51542 -0.242537
-2.09064 6.47612 -0.279537
-3.24564 6.47612 -0.338537
-3.24564 6.51542 -0.300537
-3.24564 6.61802 -0.222537
-3.92964 7.56692 0.300463
-3.92964 7.56692 0.319463
-4.29864 9.29852 0.984463
-4.29864 9.29852 0.966463
-4.77164 11.5714 1.71346
-4.77264 11.5721 1.69546
-4.66364 11.5849 1.68246
-4.18264 9.29852 0.953463
-3.79564 7.56692 0.286463
-3.39164 7.56692 1.75846
-2.98864 7.56692 1.75346
-3.48264 9.29852 2.32446
-3.83264 9.29852 2.32946
-3.91964 11.6055 3.02246
-4.24864 11.5683 3.02746
-4.57864 11.5315 3.02246
-4.18264 9.29852 2.32446
-3.79564 7.56692 1.75346
-2.85464 7.56692 0.300463
-2.98864 7.56692 0.286463
-3.48264 9.29852 0.953463
-3.36564 9.29852 0.966463
-4.00464 11.6589 1.68246
-3.89364 11.6707 1.69546
-3.89264 11.67 1.71346
-3.36564 9.29852 0.984463
-2.85464 7.56692 0.319463
-3.39164 7.56692 0.281463
-3.83264 9.29852 0.948463
-4.33464 11.6221 1.67846
-5.01464 13.9411 2.25046
-5.01964 13.9439 2.23446
-5.52664 16.0161 2.93346
-5.53464 16.021 2.91846
-5.47064 16.1109 2.90746
-4.93364 13.9953 2.22246
-4.05764 14.0773 3.46446
-4.32464 13.9286 3.46946
-4.46364 16.2545 4.05346
-4.66864 15.9943 4.05746
-4.87764 15.7367 4.05346
-4.59464 13.7814 3.46446
-4.39664 14.2911 2.22246
-4.30464 14.3384 2.23446
-5.05664 16.6287 2.90746
-4.98164 16.7114 2.91846
-4.97464 16.7065 2.93346
-4.29964 14.3356 2.25046
-4.66664 14.1439 2.21846
-5.26564 16.371 2.90446
-6.80164 17.4048 4.10246
-6.81064 17.4105 4.08746
-8.09664 18.151 5.12746
-8.10664 18.157 5.11146
-8.04364 18.2726 5.10046
-6.75464 17.5132 4.07646
-5.70364 17.6773 5.19046
-5.88764 17.3799 5.19446
-6.90164 18.4863 6.28246
-7.11064 18.1508 6.28646
-7.32364 17.8185 6.28246
-6.07664 17.0855 5.19046
-6.38164 18.1049 4.07646
-6.31264 18.1995 4.08746
-7.62164 18.9405 5.10046
-7.54464 19.0474 5.11146
-7.53564 19.0415 5.12746
-6.30364 18.1939 4.10246
-6.57064 17.8104 4.07346
-7.83464 18.608 5.09646
-8.66764 18.2982 5.38146
-8.67864 18.3052 5.36346
-9.20764 18.426 5.60946
-9.22064 18.4341 5.58846
-9.11164 18.6274 5.57246
-8.59264 18.4596 5.34946
-7.18164 18.8221 6.73846
-7.46164 18.3723 6.74346
-7.43064 19.1387 7.16946
-7.78164 18.5744 7.17446
-8.13964 18.0143 7.16946
-7.74664 17.926 6.73846
-8.02764 19.3557 5.34946
-7.92464 19.5 5.36346
-8.40164 19.7517 5.57246
-8.27464 19.9333 5.58846
-8.26164 19.9252 5.60946
-7.91364 19.493 5.38146
-8.31264 18.9094 5.34546
-8.75964 19.1915 5.56746
-10.4106 19.1143 6.55646
-10.4246 19.1227 6.53446
-10.3076 19.3289 6.51846
-8.53664 19.8898 8.18346
-8.91164 19.2873 8.18946
-9.49064 20.2739 8.90546
-10.0666 20.0159 9.16346
-10.0516 19.3847 8.90546
-9.29364 18.6893 8.18346
-9.55064 20.5293 6.51846
-9.41464 20.7233 6.53446
-9.40164 20.7149 6.55646
-9.93264 19.9311 6.51346
-4.39964 6.47612 -0.247537
-4.33964 6.51542 -0.211537
-4.39964 6.47612 0.0344631
-4.33964 6.51542 0.0604631
-4.22464 6.61802 0.113463
-4.22464 6.61802 -0.140537
-3.92964 7.56692 0.340463
-4.29864 9.29852 1.00346
-3.92964 7.56692 0.521463
-4.29864 9.29852 1.17246
-4.75964 11.5641 1.89746
-4.77064 11.5706 1.73246
-5.01064 13.9381 2.26746
-4.96864 13.9117 2.42046
-5.44464 15.9647 3.09146
-5.51764 16.0108 2.94946
-6.79264 17.3988 4.11746
-6.70864 17.3461 4.25446
-7.99864 18.0887 5.28946
-8.08664 18.1446 5.14346
-8.65564 18.2907 5.40046
-8.55164 18.2249 5.57246
-9.07364 18.3419 5.82846
-9.19364 18.4174 5.63146
-10.3966 19.1053 6.57946
-10.2716 19.0265 6.78446
-11.2966 19.9529 7.76446
-11.4216 20.0317 7.55946
-11.4266 20.874 7.88646
-11.3016 20.7952 8.09146
-10.5396 21.1533 7.76446
-10.6646 21.2321 7.55946
-8.24864 19.9166 5.63146
-9.38664 20.7059 6.57946
-9.26164 20.6271 6.78446
-8.12864 19.841 5.82846
-7.52564 19.0351 5.14346
-7.90164 19.4855 5.40046
-7.79764 19.4197 5.57246
-7.43664 18.9791 5.28946
-4.96564 16.7012 2.94946
-6.29464 18.1878 4.11746
-6.21064 18.1351 4.25446
-4.89264 16.6551 3.09146
-3.89164 11.6693 1.73246
-4.29464 14.3326 2.26746
-4.25364 14.3062 2.42046
-3.88164 11.6627 1.89746
-2.85464 7.56692 0.340463
-3.36564 9.29852 1.00346
-3.36564 9.29852 1.17246
-2.85464 7.56692 0.521463
-2.09064 6.47612 -0.247537
-2.15064 6.51542 -0.211537
-2.26664 6.61802 -0.140537
-2.26664 6.61802 0.113463
-2.15064 6.51542 0.0604631
-2.09064 6.47612 0.0344631
-4.33964 6.51542 1.86746
-4.39964 6.47612 1.90446
-4.39964 6.47612 1.93446
-4.33964 6.51542 1.89746
-4.22464 6.61802 1.82146
-4.22464 6.61802 1.79346
-4.29864 9.29852 2.29246
-3.92964 7.56692 1.71846
-3.92964 7.56692 1.73846
-4.29864 9.29852 2.31046
-4.68964 11.5197 3.00846
-4.69064 11.5204 2.99046
-4.69164 13.7372 3.43546
-4.68764 13.7343 3.45146
-4.95264 15.6542 4.04146
-4.96064 15.6593 4.02646
-6.15564 16.9971 5.16346
-6.14664 16.9913 5.17846
-7.40064 17.7119 6.27046
-7.41064 17.718 6.25446
-7.86064 17.7894 6.70546
-7.84964 17.7822 6.72446
-8.26764 17.8332 7.15246
-8.28064 17.8415 7.13046
-9.44464 18.5045 8.14346
-9.43064 18.4958 8.16646
-10.4556 19.4222 9.14646
-10.4696 19.4309 9.12346
-10.4746 20.2732 9.45046
-10.4606 20.2646 9.47346
-9.69864 20.6227 9.14646
-9.71164 20.6313 9.12346
-7.32164 19.3324 7.15246
-7.33564 19.3407 7.13046
-8.43464 20.1051 8.14346
-8.42064 20.0964 8.16646
-6.83964 18.6023 6.27046
-6.84864 18.6085 6.25446
-7.10764 18.9842 6.70546
-7.09564 18.977 6.72446
-4.40064 16.3446 4.04146
-4.40864 16.3497 4.02646
-5.65764 17.7861 5.16346
-5.64864 17.7803 5.17846
-3.81064 11.6183 3.00846
-3.81264 11.6191 2.99046
-3.97664 14.1317 3.43546
-3.97164 14.1288 3.45146
-2.85464 7.56692 1.73846
-2.85464 7.56692 1.71846
-3.36564 9.29852 2.29246
-3.36564 9.29852 2.31046
-2.09064 6.47612 1.93446
-2.09064 6.47612 1.90446
-2.15064 6.51542 1.86746
-2.15064 6.51542 1.89746
-2.26664 6.61802 1.79346
-2.26664 6.61802 1.82146
-2.33364 6.46302 1.99446
-4.46064 6.46302 1.93846
-4.46064 6.46302 0.0104631
-4.46064 6.46302 -0.281537
-4.46064 6.46302 -0.314537
-2.33364 6.46302 -0.367537
-2.02964 6.46302 -0.345537
-2.02964 6.46302 -0.314537
-2.02964 6.46302 -0.281537
-2.02964 6.46302 0.0104631
-2.02964 6.46302 1.93846
-2.02964 6.46302 1.97046
-2.68164 6.82102 1.69046
-3.24564 6.82102 1.69646
-3.80864 6.82102 1.69046
-3.99664 6.82102 1.64846
-3.99664 6.82102 1.67246
-3.99664 6.82102 -0.0235369
-3.99664 6.82102 0.00146308
-3.99664 6.82102 0.217463
-3.99664 6.82102 -0.0465369
-3.80864 6.82102 -0.0635369
-3.24564 6.82102 -0.0685369
-2.68164 6.82102 -0.0635369
-2.49464 6.82102 -0.0465369
-2.49464 6.82102 -0.0235369
-2.49464 6.82102 0.00146308
-2.49464 6.82102 0.217463
-2.49464 6.82102 1.64846
-2.49464 6.82102 1.67246
-4.39964 6.47612 1.87446
-4.46064 6.46302 1.90746
-4.39964 6.47612 1.59446
-4.46064 6.46302 1.61946
-4.33964 6.51542 1.56846
-4.33964 6.51542 1.83846
-4.22464 6.61802 1.76746
-4.22464 6.61802 1.51546
-3.99664 6.82102 1.41146
-3.99664 6.82102 1.62546
-3.92964 7.56692 1.69946
-3.92964 7.56692 1.52046
-4.29864 9.29852 2.10646
-4.29864 9.29852 2.27446
-4.69164 11.5211 2.97346
-4.70164 11.5276 2.80946
-4.73764 13.7661 3.26746
-4.69664 13.74 3.41846
-4.96864 15.6642 4.01146
-5.04064 15.7098 3.87146
-6.24664 17.0548 5.01346
-6.16464 17.0027 5.14946
-7.41964 17.7239 6.23946
-7.50764 17.7793 6.09546
-7.97564 17.8615 6.51846
-7.87164 17.7964 6.68746
-8.29364 17.8495 7.11046
-8.41164 17.9243 6.91546
-9.58164 18.5908 7.91946
-9.45764 18.5128 8.12246
-10.4826 19.4392 9.10246
-10.6066 19.5172 8.89946
-10.6116 20.3596 9.22546
-10.4876 20.2815 9.42846
-9.72564 20.6397 9.10246
-9.84864 20.7177 8.89946
-7.34764 19.3487 7.11046
-7.46664 19.4234 6.91546
-8.57164 20.1914 7.91946
-8.44764 20.1134 8.12246
-6.85864 18.6144 6.23946
-6.94664 18.6698 6.09546
-7.22164 19.0563 6.51846
-7.11864 18.9912 6.68746
-4.41664 16.3546 4.01146
-4.48864 16.4002 3.87146
-5.74964 17.8438 5.01346
-5.66664 17.7917 5.14946
-3.81364 11.6197 2.97346
-3.82364 11.6263 2.80946
-4.02264 14.1606 3.26746
-3.98064 14.1345 3.41846
-2.85464 7.56692 1.69946
-2.85464 7.56692 1.52046
-3.36564 9.29852 2.10646
-3.36564 9.29852 2.27446
-2.26664 6.61802 1.76746
-2.26664 6.61802 1.51546
-2.49464 6.82102 1.41146
-2.49464 6.82102 1.62546
-2.09064 6.47612 1.87446
-2.09064 6.47612 1.59446
-2.15064 6.51542 1.56846
-2.15064 6.51542 1.83846
-2.02964 6.46302 1.61946
-2.02964 6.46302 1.90746
-4.39964 6.47612 0.815463
-4.46064 6.46302 0.815463
-4.33964 6.51542 0.815463
-4.22464 6.61802 0.815463
-3.99664 6.82102 0.814463
-3.92964 7.56692 1.02146
-4.29864 9.29852 1.64046
-4.73064 11.5458 2.35346
-4.85264 13.8389 2.84446
-5.24264 15.8372 3.48146
-6.47764 17.2004 4.63446
-7.75264 17.9339 5.69246
-8.26364 18.0431 6.04546
-8.74264 18.133 6.37246
-9.92664 18.8085 7.35246
-10.9516 19.7349 8.33246
-10.9566 20.5772 8.65846
-10.1936 20.9354 8.33246
-7.79764 19.6321 6.37246
-8.91664 20.4091 7.35246
-7.19164 18.8244 5.69246
-7.50964 19.2379 6.04546
-4.69064 16.5276 3.48146
-5.97964 17.9894 4.63446
-3.85264 11.6445 2.35346
-4.13764 14.2334 2.84446
-2.85464 7.56692 1.02146
-3.36564 9.29852 1.64046
-2.26664 6.61802 0.815463
-2.49464 6.82102 0.814463
-2.09064 6.47612 0.815463
-2.15064 6.51542 0.815463
-2.02964 6.46302 0.815463
3 0 1 2
3 0 2 3
3 2 4 5
3 2 5 3
3 5 6 7
3 5 7 3
3 7 8 0
3 7 0 3
3 9 10 11
3 9 11 12
3 11 13 14
3 11 14 12
3 14 15 16
3 14 16 12
3 16 17 9
3 16 9 12
3 18 19 20
3 18 20 21
3 20 22 23
3 20 23 21
3 23 24 25
3 23 25 21
3 25 26 18
3 25 18 21
3 27 28 29
3 27 29 30
3 29 31 32
3 29 32 30
3 32 33 34
3 32 34 30
3 34 35 27
3 34 27 30
3 36 17 16
3 36 16 37
3 16 15 38
3 16 38 37
3 38 31 29
3 38 29 37
3 29 28 36
3 29 36 37
3 39 40 41
3 39 41 42
3 41 43 44
3 41 44 42
3 44 45 46
3 44 46 42
3 46 47 39
3 46 39 42
3 48 49 50
3 48 50 51
3 50 52 53
3 50 53 51
3 53 54 55
3 53 55 51
3 55 56 48
3 55 48 51
3 57 58 59
3 57 59 60
3 59 61 62
3 59 62 60
3 62 63 64
3 62 64 60
3 64 65 57
3 64 57 60
3 66 47 46
3 66 46 67
3 46 45 68
3 46 68 67
3 68 61 59
3 68 59 67
3 59 58 66
3 59 66 67
3 44 43 69
3 44 69 70
3 69 71 72
3 69 72 70
3 72 73 74
3 72 74 70
3 74 45 44
3 74 44 70
3 53 52 75
3 53 75 76
3 75 77 78
3 75 78 76
3 78 79 80
3 78 80 76
3 80 54 53
3 80 53 76
3 62 61 81
3 62 81 82
3 81 83 84
3 81 84 82
3 84 85 86
3 84 86 82
3 86 63 62
3 86 62 82
3 68 45 74
3 68 74 87
3 74 73 88
3 74 88 87
3 88 83 81
3 88 81 87
3 81 61 68
3 81 68 87
3 72 71 89
3 72 89 90
3 89 91 92
3 89 92 90
3 92 93 94
3 92 94 90
3 94 73 72
3 94 72 90
3 78 77 95
3 78 95 96
3 95 97 98
3 95 98 96
3 98 99 100
3 98 100 96
3 100 79 78
3 100 78 96
3 84 83 101
3 84 101 102
3 101 103 104
3 101 104 102
3 104 105 106
3 104 106 102
3 106 85 84
3 106 84 102
3 88 73 94
3 88 94 107
3 94 93 108
3 94 108 107
3 108 103 101
3 108 101 107
3 101 83 88
3 101 88 107
3 92 91 109
3 92 109 110
3 109 111 112
3 109 112 110
3 112 113 114
3 112 114 110
3 114 93 92
3 114 92 110
3 98 97 115
3 98 115 116
3 115 117 118
3 115 118 116
3 118 119 120
3 118 120 116
3 120 99 98
3 120 98 116
3 104 103 121
3 104 121 122
3 121 123 124
3 121 124 122
3 124 125 126
3 124 126 122
3 126 105 104
3 126 104 122
3 108 93 114
3 108 114 127
3 114 113 128
3 114 128 127
3 128 123 121
3 128 121 127
3 121 103 108
3 121 108 127
3 112 111 129
3 112 129 130
3 129 1 0
3 129 0 130
3 0 8 131
3 0 131 130
3 131 113 112
3 131 112 130
3 118 117 132
3 118 132 133
3 132 134 135
3 132 135 133
3 135 136 137
3 135 137 133
3 137 119 118
3 137 118 133
3 124 123 138
3 124 138 139
3 138 6 5
3 138 5 139
3 5 4 140
3 5 140 139
3 140 125 124
3 140 124 139
3 128 113 131
3 128 131 141
3 131 8 7
3 131 7 141
3 7 6 138
3 7 138 141
3 138 123 128
3 138 128 141
3 11 10 142
3 11 142 143
3 142 144 145
3 142 145 143
3 145 146 147
3 145 147 143
3 147 13 11
3 147 11 143
3 41 40 148
3 41 148 149
3 148 150 151
3 148 151 149
3 151 152 153
3 151 153 149
3 153 43 41
3 153 41 149
3 69 43 153
3 69 153 154
3 153 152 155
3 153 155 154
3 155 156 157
3 155 157 154
3 157 71 69
3 157 69 154
3 89 71 157
3 89 157 158
3 157 156 159
3 157 159 158
3 159 160 161
3 159 161 158
3 161 91 89
3 161 89 158
3 109 91 161
3 109 161 162
3 161 160 163
3 161 163 162
3 163 164 165
3 163 165 162
3 165 111 109
3 165 109 162
3 129 111 165
3 129 165 166
3 165 164 167
3 165 167 166
3 167 168 169
3 167 169 166
3 169 1 129
3 169 129 166
3 2 1 169
3 2 169 170
3 169 168 171
3 169 171 170
3 171 172 173
3 171 173 170
3 173 4 2
3 173 2 170
3 174 125 140
3 174 140 175
3 140 4 173
3 140 173 175
3 173 172 176
3 173 176 175
3 176 177 174
3 176 174 175
3 178 105 126
3 178 126 179
3 126 125 174
3 126 174 179
3 174 177 180
3 174 180 179
3 180 181 178
3 180 178 179
3 182 85 106
3 182 106 183
3 106 105 178
3 106 178 183
3 178 181 184
3 178 184 183
3 184 185 182
3 184 182 183
3 186 63 86
3 186 86 187
3 86 85 182
3 86 182 187
3 182 185 188
3 182 188 187
3 188 189 186
3 188 186 187
3 190 65 64
3 190 64 191
3 64 63 186
3 64 186 191
3 186 189 192
3 186 192 191
3 192 193 190
3 192 190 191
3 194 35 34
3 194 34 195
3 34 33 196
3 34 196 195
3 196 197 198
3 196 198 195
3 198 199 194
3 198 194 195
3 200 201 202
3 200 202 203
3 202 26 25
3 202 25 203
3 25 24 204
3 25 204 203
3 204 205 200
3 204 200 203
3 206 207 208
3 206 208 209
3 208 56 55
3 208 55 209
3 55 54 210
3 55 210 209
3 210 211 206
3 210 206 209
3 212 211 210
3 212 210 213
3 210 54 80
3 210 80 213
3 80 79 214
3 80 214 213
3 214 215 212
3 214 212 213
3 216 215 214
3 216 214 217
3 214 79 100
3 214 100 217
3 100 99 218
3 100 218 217
3 218 219 216
3 218 216 217
3 220 219 218
3 220 218 221
3 218 99 120
3 218 120 221
3 120 119 222
3 120 222 221
3 222 223 220
3 222 220 221
3 224 223 222
3 224 222 225
3 222 119 137
3 222 137 225
3 137 136 226
3 137 226 225
3 226 227 224
3 226 224 225
3 228 227 226
3 228 226 229
3 226 136 135
3 226 135 229
3 135 134 230
3 135 230 229
3 230 231 228
3 230 228 229
3 232 233 234
3 232 234 235
3 234 231 230
3 234 230 235
3 230 134 132
3 230 132 235
3 132 117 232
3 132 232 235
3 236 237 238
3 236 238 239
3 238 233 232
3 238 232 239
3 232 117 115
3 232 115 239
3 115 97 236
3 115 236 239
3 240 241 242
3 240 242 243
3 242 237 236
3 242 236 243
3 236 97 95
3 236 95 243
3 95 77 240
3 95 240 243
3 244 245 246
3 244 246 247
3 246 241 240
3 246 240 247
3 240 77 75
3 240 75 247
3 75 52 244
3 75 244 247
3 248 249 250
3 248 250 251
3 250 245 244
3 250 244 251
3 244 52 50
3 244 50 251
3 50 49 248
3 50 248 251
3 252 253 254
3 252 254 255
3 254 256 257
3 254 257 255
3 257 22 20
3 257 20 255
3 20 19 252
3 20 252 255
3 258 19 18
3 202 201 259
3 260 144 142
3 260 142 261
3 142 10 262
3 142 262 261
3 262 10 9
3 36 28 263
3 263 28 27
3 263 27 264
3 27 35 265
3 27 265 264
3 265 35 194
3 265 194 266
3 194 199 267
3 194 267 266
3 268 253 252
3 268 252 269
3 252 19 258
3 252 258 269
3 23 22 270
3 23 270 271
3 270 49 48
3 270 48 271
3 48 56 272
3 48 272 271
3 272 24 23
3 272 23 271
3 273 205 204
3 273 204 274
3 204 24 272
3 204 272 274
3 272 56 208
3 272 208 274
3 208 207 273
3 208 273 274
3 275 13 147
3 275 147 276
3 147 146 277
3 147 277 276
3 277 150 148
3 277 148 276
3 148 40 275
3 148 275 276
3 14 13 275
3 14 275 278
3 275 40 39
3 275 39 278
3 39 47 279
3 39 279 278
3 279 15 14
3 279 14 278
3 38 15 279
3 38 279 280
3 279 47 66
3 279 66 280
3 66 58 281
3 66 281 280
3 281 31 38
3 281 38 280
3 32 31 281
3 32 281 282
3 281 58 57
3 281 57 282
3 57 65 283
3 57 283 282
3 283 33 32
3 283 32 282
3 196 33 283
3 196 283 284
3 283 65 190
3 283 190 284
3 190 193 285
3 190 285 284
3 285 197 196
3 285 196 284
3 257 256 286
3 257 286 287
3 286 249 248
3 286 248 287
3 248 49 270
3 248 270 287
3 270 22 257
3 270 257 287
3 259 201 288
3 259 288 289
3 288 290 291
3 288 291 289
3 292 290 288
3 292 288 293
3 288 201 200
3 288 200 293
3 200 205 294
3 200 294 293
3 294 295 292
3 294 292 293
3 296 295 294
3 296 294 297
3 294 205 273
3 294 273 297
3 273 207 298
3 273 298 297
3 298 299 296
3 298 296 297
3 300 299 298
3 300 298 301
3 298 207 206
3 298 206 301
3 206 211 302
3 206 302 301
3 302 303 300
3 302 300 301
3 304 303 302
3 304 302 305
3 302 211 212
3 302 212 305
3 212 215 306
3 212 306 305
3 306 307 304
3 306 304 305
3 308 307 306
3 308 306 309
3 306 215 216
3 306 216 309
3 216 219 310
3 216 310 309
3 310 311 308
3 310 308 309
3 312 311 310
3 312 310 313
3 310 219 220
3 310 220 313
3 220 223 314
3 220 314 313
3 314 315 312
3 314 312 313
3 316 315 314
3 316 314 317
3 314 223 224
3 314 224 317
3 224 227 318
3 224 318 317
3 318 319 316
3 318 316 317
3 320 319 318
3 320 318 321
3 318 227 228
3 318 228 321
3 228 231 322
3 228 322 321
3 322 323 320
3 322 320 321
3 324 325 326
3 324 326 327
3 326 323 322
3 326 322 327
3 322 231 234
3 322 234 327
3 234 233 324
3 234 324 327
3 328 329 330
3 328 330 331
3 330 325 324
3 330 324 331
3 324 233 238
3 324 238 331
3 238 237 328
3 238 328 331
3 332 333 334
3 332 334 335
3 334 329 328
3 334 328 335
3 328 237 242
3 328 242 335
3 242 241 332
3 242 332 335
3 336 337 338
3 336 338 339
3 338 333 332
3 338 332 339
3 332 241 246
3 332 246 339
3 246 245 336
3 246 336 339
3 340 341 342
3 340 342 343
3 342 337 336
3 342 336 343
3 336 245 250
3 336 250 343
3 250 249 340
3 250 340 343
3 344 345 346
3 344 346 347
3 346 341 340
3 346 340 347
3 340 249 286
3 340 286 347
3 286 256 344
3 286 344 347
3 348 349 350
3 348 350 351
3 350 345 344
3 350 344 351
3 344 256 254
3 344 254 351
3 254 253 348
3 254 348 351
3 352 349 348
3 352 348 353
3 348 253 268
3 348 268 353
3 291 290 354
3 291 354 355
3 354 144 260
3 354 260 355
3 145 144 354
3 145 354 356
3 354 290 292
3 354 292 356
3 292 295 357
3 292 357 356
3 357 146 145
3 357 145 356
3 277 146 357
3 277 357 358
3 357 295 296
3 357 296 358
3 296 299 359
3 296 359 358
3 359 150 277
3 359 277 358
3 151 150 359
3 151 359 360
3 359 299 300
3 359 300 360
3 300 303 361
3 300 361 360
3 361 152 151
3 361 151 360
3 155 152 361
3 155 361 362
3 361 303 304
3 361 304 362
3 304 307 363
3 304 363 362
3 363 156 155
3 363 155 362
3 159 156 363
3 159 363 364
3 363 307 308
3 363 308 364
3 308 311 365
3 308 365 364
3 365 160 159
3 365 159 364
3 163 160 365
3 163 365 366
3 365 311 312
3 365 312 366
3 312 315 367
3 312 367 366
3 367 164 163
3 367 163 366
3 167 164 367
3 167 367 368
3 367 315 316
3 367 316 368
3 316 319 369
3 316 369 368
3 369 168 167
3 369 167 368
3 171 168 369
3 171 369 370
3 369 319 320
3 369 320 370
3 320 323 371
3 320 371 370
3 371 172 171
3 371 171 370
3 372 177 176
3 372 176 373
3 176 172 371
3 176 371 373
3 371 323 326
3 371 326 373
3 326 325 372
3 326 372 373
3 374 181 180
3 374 180 375
3 180 177 372
3 180 372 375
3 372 325 330
3 372 330 375
3 330 329 374
3 330 374 375
3 376 185 184
3 376 184 377
3 184 181 374
3 184 374 377
3 374 329 334
3 374 334 377
3 334 333 376
3 334 376 377
3 378 189 188
3 378 188 379
3 188 185 376
3 188 376 379
3 376 333 338
3 376 338 379
3 338 337 378
3 338 378 379
3 380 193 192
3 380 192 381
3 192 189 378
3 192 378 381
3 378 337 342
3 378 342 381
3 342 341 380
3 342 380 381
3 382 197 285
3 382 285 383
3 285 193 380
3 285 380 383
3 380 341 346
3 380 346 383
3 346 345 382
3 346 382 383
3 384 199 198
3 384 198 385
3 198 197 382
3 198 382 385
3 382 345 350
3 382 350 385
3 350 349 384
3 350 384 385
3 267 199 384
3 267 384 386
3 384 349 352
3 384 352 386
