OFF
295 572 0
7.97041 -13.0756 1.86703
7.97041 -13.0774 3.15833
7.32141 -13.0968 2.97463
7.32141 -13.0961 1.75973
6.54241 -13.1039 3.67493
6.54241 -13.1029 1.63083
6.54241 -13.0994 0.462034
7.29641 -13.0926 0.496534
7.92441 -13.0722 0.524634
5.76441 -13.0968 2.53383
5.11541 -13.0774 2.35013
5.11541 -13.0756 1.39463
5.76441 -13.0961 1.50203
5.16141 -13.0722 0.468734
5.78941 -13.0926 0.462234
5.29941 -13.0643 -0.331966
5.48541 -13.0542 -0.856866
5.91541 -13.0643 -1.17957
5.86541 -13.083 -0.465466
6.54241 -13.0693 -1.43027
6.54241 -13.0893 -0.595066
7.17041 -13.0643 -1.42817
7.60041 -13.0542 -1.23867
7.78641 -13.0643 -0.580666
7.22041 -13.083 -0.585966
5.91541 -11.6755 5.11603
5.48541 -11.69 4.91643
5.29941 -11.9203 5.02313
5.86541 -11.9959 5.33873
5.16141 -12.2236 5.10613
5.78941 -12.2992 5.44673
6.54241 -12.3216 5.61403
6.54241 -12.0097 5.50483
6.54241 -11.6703 5.28753
5.11541 -12.5201 5.13383
5.11541 -12.9311 5.13383
5.76441 -12.5769 5.48273
6.54241 -12.9541 5.65043
6.54241 -12.5959 5.65043
7.32141 -12.9484 5.66393
7.97041 -12.5201 5.55033
7.32141 -12.5769 5.66393
7.92441 -12.2236 5.52343
7.29641 -12.2992 5.63143
7.78641 -11.9203 5.44263
7.60041 -11.69 5.32813
7.17041 -11.6755 5.34983
7.22041 -11.9959 5.53393
8.35241 -10.1836 1.92713
8.10941 -10.2651 3.35093
8.43541 -10.9596 3.34963
8.49541 -10.8421 1.98553
8.57341 -11.567 3.34393
8.58841 -11.4808 1.97723
8.53641 -11.4429 0.465634
8.48341 -10.8041 0.474434
8.38841 -10.153 0.473234
8.61941 -12.1031 3.34203
8.61941 -12.7876 1.97443
8.61941 -12.0462 1.97443
8.55441 -12.0178 0.462734
8.35941 -12.7761 -0.935766
7.97041 -12.0083 -1.96347
8.35941 -12.0083 -0.935666
7.96141 -11.4303 -1.94777
8.34741 -11.4303 -0.926766
7.93241 -10.7914 -1.90047
7.87541 -10.1429 -1.80607
8.23941 -10.1429 -0.846566
8.31141 -10.7914 -0.900066
7.26941 -10.1429 -2.17917
7.30041 -10.7914 -2.28957
7.31641 -11.4303 -2.34477
6.54241 -11.4303 -2.25257
6.54241 -10.7914 -2.19927
6.54241 -10.1429 -2.09247
7.32141 -12.7761 -2.36317
7.32141 -12.0083 -2.36317
6.54241 -12.7761 -2.27037
6.54241 -12.0083 -2.27037
5.76441 -12.0083 -1.82067
5.11541 -12.7761 -1.14977
5.11541 -12.0083 -1.14977
5.12441 -11.4303 -1.13947
5.76941 -11.4303 -1.80587
5.15341 -10.7914 -1.10847
5.21041 -10.1429 -1.04637
5.81641 -10.1429 -1.67277
5.78441 -10.7914 -1.76147
4.65041 -10.9596 2.21363
4.97641 -10.2651 2.29733
4.73341 -10.1836 1.29393
4.59041 -10.8421 1.31263
4.69741 -10.153 0.441534
4.60241 -10.8041 0.438234
4.54941 -11.4429 0.429434
4.49741 -11.4808 1.29363
4.51241 -11.567 2.17823
4.84641 -10.1429 -0.340166
4.77441 -10.7914 -0.371966
4.73841 -11.4303 -0.387966
4.72641 -12.7761 -0.393266
4.72641 -12.0083 -0.393266
4.53141 -12.779 0.426534
4.53141 -12.0178 0.426534
4.46641 -12.7876 1.28723
4.46641 -12.1979 3.04183
4.46641 -12.1031 2.16643
4.46641 -12.0462 1.28723
5.73441 -10.0664 2.93743
5.06541 -10.7794 3.24853
5.73041 -10.5538 3.56053
5.14841 -11.1678 4.00473
5.78141 -10.9815 4.21263
6.54241 -10.9258 4.45253
6.54241 -10.4924 3.89483
6.54241 -10.0146 3.34743
5.29941 -11.4795 4.57803
5.86541 -11.3464 4.73593
6.54241 -11.3137 4.92673
7.78641 -11.4795 5.15553
7.22041 -11.3464 5.05763
7.93741 -11.1678 4.79163
7.30441 -10.9815 4.64683
8.02041 -10.7794 4.22643
7.35141 -10.0664 3.53903
7.35541 -10.5538 4.10683
4.53141 -12.3115 3.86223
4.59241 -11.9113 3.87323
4.52241 -11.7244 3.05723
4.72641 -12.9024 4.57663
4.72641 -12.4253 4.57663
4.78341 -12.0859 4.56893
4.95641 -11.7483 4.54583
4.77541 -11.5039 3.90613
4.69241 -11.2106 3.10343
7.97041 -13.0805 4.11013
7.32141 -13.0981 3.91233
7.92441 -13.0828 4.76253
7.29641 -13.098 4.59813
6.54241 -13.1031 4.39753
7.78641 -13.0827 5.15553
7.17041 -13.0871 5.34983
7.22041 -13.0949 5.05763
6.54241 -13.0905 5.28753
6.54241 -13.0992 4.92673
5.91541 -13.0871 5.11603
5.29941 -13.0827 4.57803
5.86541 -13.0949 4.73593
5.16141 -13.0828 4.00253
5.78941 -13.098 4.18193
5.11541 -13.0805 3.23973
5.76441 -13.0981 3.43753
8.39341 -11.2106 4.28293
8.31041 -11.5039 4.88303
8.49341 -11.9113 4.93163
8.56241 -11.7244 4.30173
8.12941 -11.7483 5.24763
8.30241 -12.0859 5.31453
8.35941 -12.9024 5.33683
8.35941 -12.4253 5.33683
8.55441 -12.868 4.94773
8.55441 -12.3116 4.94783
8.61941 -12.8335 4.30803
8.61941 -12.1978 4.30803
8.61941 -12.8048 3.34203
8.49141 -12.9952 4.92823
8.55441 -12.9791 4.28823
8.55441 -12.9655 3.32363
7.97041 -12.9311 5.55033
7.92441 -13.0242 5.52343
8.30241 -13.011 5.31453
7.78641 -13.0676 5.44263
8.12941 -13.0629 5.24763
8.30241 -13.0577 4.86953
8.35941 -13.045 3.26853
8.35941 -13.0511 4.22883
8.55441 -12.9574 1.96373
8.49141 -12.953 0.473434
8.55441 -12.779 0.462734
8.35941 -13.0414 1.93153
8.30241 -13.0382 0.505534
7.78641 -13.0307 -1.59767
8.12941 -13.0334 -0.721566
7.92441 -12.9499 -1.87207
8.30241 -12.9506 -0.882166
7.97041 -12.7761 -1.96347
7.29641 -12.9506 -2.26507
6.54241 -12.9513 -2.18607
7.22041 -13.0334 -1.97057
6.54241 -13.0362 -1.93337
5.29941 -13.0307 -1.01007
5.86541 -13.0334 -1.57887
5.16141 -12.9499 -1.11487
5.78941 -12.9506 -1.76027
5.76441 -12.7761 -1.82067
4.46641 -12.8048 2.16643
4.59441 -12.953 0.433234
4.53141 -12.9574 1.29803
4.53141 -12.9655 2.18483
4.78341 -12.9506 -0.377366
4.95641 -13.0334 -0.329766
4.78341 -13.0382 0.453134
4.72641 -13.045 2.23993
4.72641 -13.0414 1.33023
4.46641 -12.8335 3.04183
4.53141 -12.9791 3.06163
4.59441 -12.9952 3.87433
4.53141 -12.868 3.86223
4.72641 -13.0511 3.12093
4.78341 -13.0577 3.91053
5.29941 -13.0676 5.02313
4.95641 -13.0629 4.54583
5.16141 -13.0242 5.10613
4.78341 -13.011 4.56893
5.76441 -12.9484 5.48273
5.78941 -13.0327 5.44673
6.54241 -13.0358 5.61403
5.86541 -13.0727 5.33873
6.54241 -13.0753 5.50483
7.22041 -13.0727 5.53393
7.29641 -13.0327 5.63143
7.36141 -7.83393 1.76533
7.37741 -7.91253 1.79163
7.58041 -7.83463 1.17243
7.71041 -7.98913 0.406134
7.66041 -7.83733 0.406134
7.55241 -8.54043 2.08203
7.63241 -7.98913 1.21053
7.82741 -8.54033 -0.542866
7.39841 -7.98913 -1.01457
7.60141 -7.89983 -0.375366
7.58541 -7.83513 -0.363966
7.36141 -7.83393 -0.953166
6.98641 -7.83493 -1.17107
6.54241 -7.98913 -1.19847
6.54241 -7.83393 -1.12917
6.09941 -7.83633 -0.862666
5.68741 -7.98913 -0.526666
5.72441 -7.83393 -0.486366
5.50741 -7.83633 -0.049366
5.50741 -7.83633 0.861634
5.68741 -7.98913 1.33893
5.72441 -7.83353 1.29853
6.09941 -7.83633 1.67493
6.54241 -7.98913 2.01073
6.54241 -7.83393 1.94133
7.09341 -8.54043 2.36463
6.99641 -7.89973 2.01873
6.98941 -7.83513 1.99543
7.82841 -8.54043 1.35513
7.68741 -9.00044 2.33643
7.98641 -8.99989 1.50243
8.07841 -8.99569 0.416134
7.91941 -8.54043 0.406134
7.86241 -9.56073 2.72013
8.17241 -9.55854 1.72963
8.24441 -9.54175 0.446134
7.78041 -9.53615 -1.64857
8.11841 -9.53615 -0.757366
7.66641 -8.99429 -1.45937
7.97341 -8.99429 -0.650266
7.55241 -8.54043 -1.26977
7.09341 -8.54043 -1.55247
7.15641 -8.99429 -1.77407
6.54241 -8.99429 -1.70097
6.54241 -8.54043 -1.48687
7.21841 -9.53615 -1.99507
6.54241 -9.53615 -1.91467
5.30541 -9.53615 -0.942966
5.86741 -9.53615 -1.52477
5.41941 -8.99429 -0.818766
5.92941 -8.99429 -1.34697
5.53341 -8.54043 -0.694266
5.99241 -8.54043 -1.16877
5.25741 -8.54043 -0.159266
5.11241 -8.99429 -0.223166
5.00741 -8.99569 0.411634
5.16641 -8.54043 0.406134
5.43241 -7.84003 0.406034
4.96741 -9.53615 -0.286966
4.84141 -9.54175 0.428034
5.22341 -9.56073 1.90583
4.91341 -9.55854 1.18683
5.39841 -9.00044 1.66863
5.10041 -8.99433 1.05453
5.53341 -8.54043 1.50653
5.99241 -8.54043 1.98103
5.91641 -8.99088 2.20033
6.54241 -8.98357 2.55753
6.54241 -8.54043 2.29903
5.81341 -9.5225 2.50163
6.54241 -9.49328 2.90433
7.27241 -9.5225 3.04443
7.16941 -8.99088 2.64553
3 0 1 2
3 0 2 3
3 2 4 5
3 2 5 3
3 5 6 7
3 5 7 3
3 7 8 0
3 7 0 3
3 9 10 11
3 9 11 12
3 11 13 14
3 11 14 12
3 14 6 5
3 14 5 12
3 5 4 9
3 5 9 12
3 15 16 17
3 15 17 18
3 17 19 20
3 17 20 18
3 20 6 14
3 20 14 18
3 14 13 15
3 14 15 18
3 21 22 23
3 21 23 24
3 23 8 7
3 23 7 24
3 7 6 20
3 7 20 24
3 20 19 21
3 20 21 24
3 25 26 27
3 25 27 28
3 27 29 30
3 27 30 28
3 30 31 32
3 30 32 28
3 32 33 25
3 32 25 28
3 34 35 36
3 36 37 38
3 38 31 30
3 38 30 36
3 30 29 34
3 30 34 36
3 39 40 41
3 40 42 43
3 40 43 41
3 43 31 38
3 43 38 41
3 38 37 39
3 38 39 41
3 44 45 46
3 44 46 47
3 46 33 32
3 46 32 47
3 32 31 43
3 32 43 47
3 43 42 44
3 43 44 47
3 48 49 50
3 48 50 51
3 50 52 53
3 50 53 51
3 53 54 55
3 53 55 51
3 55 56 48
3 55 48 51
3 57 58 59
3 58 60 59
3 60 54 53
3 60 53 59
3 53 52 57
3 53 57 59
3 61 62 63
3 62 64 65
3 62 65 63
3 65 54 60
3 65 60 63
3 60 61 63
3 66 67 68
3 66 68 69
3 68 56 55
3 68 55 69
3 55 54 65
3 55 65 69
3 65 64 66
3 65 66 69
3 70 67 66
3 70 66 71
3 66 64 72
3 66 72 71
3 72 73 74
3 72 74 71
3 74 75 70
3 74 70 71
3 62 76 77
3 76 78 79
3 76 79 77
3 79 73 72
3 79 72 77
3 72 64 62
3 72 62 77
3 80 81 82
3 82 83 84
3 82 84 80
3 84 73 79
3 84 79 80
3 79 78 80
3 85 86 87
3 85 87 88
3 87 75 74
3 87 74 88
3 74 73 84
3 74 84 88
3 84 83 85
3 84 85 88
3 89 90 91
3 89 91 92
3 91 93 94
3 91 94 92
3 94 95 96
3 94 96 92
3 96 97 89
3 96 89 92
3 98 86 85
3 98 85 99
3 85 83 100
3 85 100 99
3 100 95 94
3 100 94 99
3 94 93 98
3 94 98 99
3 82 81 101
3 82 101 102
3 101 103 104
3 101 104 102
3 104 95 100
3 104 100 102
3 100 83 82
3 100 82 102
3 105 106 107
3 105 107 108
3 107 97 96
3 107 96 108
3 96 95 104
3 96 104 108
3 104 103 105
3 104 105 108
3 109 90 110
3 109 110 111
3 110 112 113
3 110 113 111
3 113 114 115
3 113 115 111
3 115 116 109
3 115 109 111
3 117 26 25
3 117 25 118
3 25 33 119
3 25 119 118
3 119 114 113
3 119 113 118
3 113 112 117
3 113 117 118
3 46 45 120
3 46 120 121
3 120 122 123
3 120 123 121
3 123 114 119
3 123 119 121
3 119 33 46
3 119 46 121
3 124 49 125
3 124 125 126
3 125 116 115
3 125 115 126
3 115 114 123
3 115 123 126
3 123 122 124
3 123 124 126
3 127 128 129
3 127 129 106
3 129 97 107
3 129 107 106
3 130 35 34
3 130 34 131
3 34 29 132
3 34 132 131
3 132 128 127
3 132 127 131
3 127 130 131
3 27 26 117
3 27 117 133
3 117 112 134
3 117 134 133
3 134 128 132
3 134 132 133
3 132 29 27
3 132 27 133
3 110 90 89
3 110 89 135
3 89 97 129
3 89 129 135
3 129 128 134
3 129 134 135
3 134 112 110
3 134 110 135
3 2 1 136
3 2 136 137
3 136 138 139
3 136 139 137
3 139 140 4
3 139 4 137
3 4 2 137
3 141 142 143
3 142 144 145
3 142 145 143
3 145 140 139
3 145 139 143
3 139 138 141
3 139 141 143
3 146 147 148
3 147 149 150
3 147 150 148
3 150 140 145
3 150 145 148
3 145 144 146
3 145 146 148
3 151 10 9
3 151 9 152
3 9 4 152
3 4 140 150
3 4 150 152
3 150 149 151
3 150 151 152
3 50 49 124
3 50 124 153
3 124 122 154
3 124 154 153
3 154 155 156
3 154 156 153
3 156 52 50
3 156 50 153
3 120 45 44
3 120 44 157
3 44 42 158
3 44 158 157
3 158 155 154
3 158 154 157
3 154 122 120
3 154 120 157
3 40 159 160
3 159 161 162
3 159 162 160
3 162 155 158
3 162 158 160
3 158 42 40
3 158 40 160
3 163 57 164
3 57 52 156
3 57 156 164
3 156 155 162
3 156 162 164
3 162 161 163
3 162 163 164
3 165 57 163
3 161 166 167
3 161 167 163
3 167 168 165
3 167 165 163
3 159 40 169
3 169 170 171
3 169 171 159
3 171 166 161
3 171 161 159
3 172 141 173
3 141 138 174
3 141 174 173
3 174 166 171
3 174 171 173
3 171 170 172
3 171 172 173
3 136 1 175
3 136 175 176
3 175 168 167
3 175 167 176
3 167 166 174
3 167 174 176
3 174 138 136
3 174 136 176
3 58 57 165
3 165 168 177
3 165 177 58
3 177 178 179
3 177 179 58
3 179 60 58
3 175 1 0
3 175 0 180
3 0 8 181
3 0 181 180
3 181 178 177
3 181 177 180
3 177 168 175
3 177 175 180
3 23 22 182
3 23 182 183
3 182 184 185
3 182 185 183
3 185 178 181
3 185 181 183
3 181 8 23
3 181 23 183
3 186 62 61
3 61 60 179
3 179 178 185
3 179 185 61
3 185 184 186
3 185 186 61
3 76 62 186
3 186 184 187
3 186 187 76
3 187 188 78
3 187 78 76
3 182 22 21
3 182 21 189
3 21 19 190
3 21 190 189
3 190 188 187
3 190 187 189
3 187 184 182
3 187 182 189
3 17 16 191
3 17 191 192
3 191 193 194
3 191 194 192
3 194 188 190
3 194 190 192
3 190 19 17
3 190 17 192
3 81 80 195
3 80 78 195
3 78 188 194
3 78 194 195
3 194 193 81
3 194 81 195
3 196 106 105
3 103 197 198
3 103 198 105
3 198 199 196
3 198 196 105
3 81 193 200
3 81 200 101
3 200 197 103
3 200 103 101
3 191 16 15
3 191 15 201
3 15 13 202
3 15 202 201
3 202 197 200
3 202 200 201
3 200 193 191
3 200 191 201
3 11 10 203
3 11 203 204
3 203 199 198
3 203 198 204
3 198 197 202
3 198 202 204
3 202 13 11
3 202 11 204
3 106 196 205
3 196 199 206
3 196 206 205
3 206 207 208
3 206 208 205
3 208 127 106
3 208 106 205
3 203 10 151
3 203 151 209
3 151 149 210
3 151 210 209
3 210 207 206
3 210 206 209
3 206 199 203
3 206 203 209
3 147 211 212
3 211 213 214
3 211 214 212
3 214 207 210
3 214 210 212
3 210 149 147
3 210 147 212
3 130 127 208
3 208 207 214
3 208 214 130
3 214 213 35
3 214 35 130
3 36 35 215
3 35 213 216
3 35 216 215
3 216 217 37
3 216 37 215
3 37 36 215
3 211 147 146
3 211 146 218
3 146 144 219
3 146 219 218
3 219 217 216
3 219 216 218
3 216 213 211
3 216 211 218
3 142 141 172
3 142 172 220
3 172 170 221
3 172 221 220
3 221 217 219
3 221 219 220
3 219 144 142
3 219 142 220
3 169 40 39
3 37 217 221
3 37 221 39
3 221 170 169
3 221 169 39
3 222 223 224
3 224 225 226
3 223 227 228
3 225 224 228
3 224 223 228
3 229 230 231
3 225 229 231
3 226 225 231
3 226 231 232
3 231 230 233
3 231 233 232
3 233 230 234
3 234 235 236
3 236 235 237
3 237 238 239
3 239 238 240
3 241 242 243
3 243 242 244
3 244 245 246
3 247 227 223
3 247 223 248
3 245 247 248
3 246 245 248
3 246 248 249
3 248 223 222
3 248 222 249
3 228 227 250
3 227 251 252
3 227 252 250
3 252 253 254
3 252 254 250
3 254 225 228
3 254 228 250
3 255 49 48
3 255 48 256
3 48 56 257
3 48 257 256
3 257 253 252
3 257 252 256
3 252 251 255
3 252 255 256
3 68 67 258
3 68 258 259
3 258 260 261
3 258 261 259
3 261 253 257
3 261 257 259
3 257 56 68
3 257 68 259
3 262 230 229
3 229 225 254
3 254 253 261
3 254 261 229
3 261 260 262
3 261 262 229
3 234 230 262
3 234 262 263
3 262 260 264
3 262 264 263
3 264 265 266
3 264 266 263
3 266 235 234
3 266 234 263
3 258 67 70
3 258 70 267
3 70 75 268
3 70 268 267
3 268 265 264
3 268 264 267
3 264 260 258
3 264 258 267
3 87 86 269
3 87 269 270
3 269 271 272
3 269 272 270
3 272 265 268
3 272 268 270
3 268 75 87
3 268 87 270
3 273 238 237
3 273 237 274
3 237 235 266
3 237 266 274
3 266 265 272
3 266 272 274
3 272 271 273
3 272 273 274
3 240 238 273
3 240 273 275
3 273 271 276
3 273 276 275
3 276 277 278
3 276 278 275
3 278 279 240
3 278 240 275
3 269 86 98
3 269 98 280
3 98 93 281
3 98 281 280
3 281 277 276
3 281 276 280
3 276 271 269
3 276 269 280
3 91 90 282
3 91 282 283
3 282 284 285
3 282 285 283
3 285 277 281
3 285 281 283
3 281 93 91
3 281 91 283
3 286 242 241
3 286 241 285
3 241 279 278
3 241 278 285
3 278 277 285
3 285 284 286
3 244 242 286
3 244 286 287
3 286 284 288
3 286 288 287
3 288 289 290
3 288 290 287
3 290 245 244
3 290 244 287
3 282 90 109
3 282 109 291
3 109 116 292
3 109 292 291
3 292 289 288
3 292 288 291
3 288 284 282
3 288 282 291
3 125 49 255
3 125 255 293
3 255 251 294
3 255 294 293
3 294 289 292
3 294 292 293
3 292 116 125
3 292 125 293
3 247 245 290
3 290 289 294
3 290 294 247
3 294 251 227
3 294 227 247
