OFF
310 606 0
0.782596 -5.67845 -21.9068
0.789596 -5.71505 -21.3642
0.863596 -6.06455 -21.8196
0.803596 -6.00025 -22.1716
0.813596 -6.40605 -21.8679
0.735596 -6.36825 -22.2429
0.548596 -6.30175 -22.4286
0.640596 -5.90935 -22.3475
0.638596 -5.56695 -22.059
0.656596 -6.72025 -21.7807
0.394596 -7.00175 -21.2849
0.364596 -6.98755 -21.8278
0.571596 -6.71405 -22.1297
0.180596 -6.98275 -21.9718
0.387596 -6.68135 -22.3014
-0.0264044 -6.86585 -21.9698
-0.374404 -6.76405 -21.566
-0.111404 -6.46995 -22.0652
0.154596 -6.57765 -22.2845
-0.00340443 -6.12755 -22.1763
0.290596 -6.21665 -22.4106
0.108596 -5.79585 -22.1098
0.0485956 -5.43835 -21.6583
0.405596 -5.53835 -22.0546
0.391596 -5.85445 -22.3293
-3.5064 -8.99065 0.448135
-3.2904 -8.33365 -1.05557
-3.7644 -8.84385 0.334235
-3.7754 -8.14455 -1.23707
-4.0334 -8.79155 0.237135
-4.2904 -8.85825 0.199435
-4.1994 -8.34275 -1.30967
-4.4714 -9.02085 0.198435
-3.2114 -10.1342 0.832935
-3.0464 -9.32205 -0.417065
-3.1424 -9.82195 0.761835
-3.1594 -9.38195 0.308535
-3.3134 -9.25395 0.557435
-4.1694 -10.1996 0.604035
-3.9904 -9.45555 -0.962065
-3.7494 -9.59875 -0.860365
-3.8954 -10.357 0.729035
-3.6244 -10.3799 0.788835
-3.2524 -9.57115 -0.739165
-3.3644 -10.2638 0.744235
-4.5454 -9.26845 0.242335
-4.2704 -8.89935 -1.18667
-4.5114 -9.60675 0.355635
-4.2724 -9.55405 -0.342665
-4.3754 -9.94375 0.485635
-2.6524 -6.25725 -4.74107
-2.4834 -6.38905 -4.66497
-1.9334 -5.30935 -6.29237
-2.0734 -5.18595 -6.35677
-1.2754 -4.21595 -8.03936
-1.3864 -4.10285 -8.09197
-1.5354 -4.04405 -8.15167
-2.2504 -5.12775 -6.42457
-2.8554 -6.20125 -4.81567
-0.572404 -3.32845 -9.83237
-0.00540443 -2.85035 -11.6641
-0.0754044 -2.75775 -11.6994
-0.660404 -3.22635 -9.87487
-0.180404 -2.70395 -11.744
-0.783404 -3.16955 -9.92627
-0.299404 -2.69415 -11.7905
-0.415404 -2.73475 -11.831
-1.0524 -3.21375 -10.022
-0.921404 -3.16315 -9.97836
-1.8434 -4.11095 -8.25356
-1.6964 -4.04455 -8.20907
-2.5964 -5.22505 -6.52707
-3.2354 -6.33095 -4.91397
-3.0624 -6.22395 -4.87777
-2.4344 -5.13865 -6.48537
-2.3764 -7.07405 -4.51197
-2.4744 -7.27195 -4.50537
-1.9944 -6.08575 -6.19747
-1.8924 -5.91645 -6.19017
-1.3934 -4.88055 -8.00057
-1.2894 -4.74035 -7.98237
-1.2324 -4.56315 -7.98397
-1.8464 -5.70755 -6.20657
-2.3464 -6.83475 -4.54567
-0.720404 -3.89345 -9.82917
-0.166404 -3.34245 -11.678
-0.0744044 -3.24435 -11.653
-0.622404 -3.77805 -9.80547
-0.0114044 -3.11485 -11.6421
-0.560404 -3.62845 -9.79827
0.0135956 -2.97645 -11.6454
-0.541404 -3.47055 -9.80707
-1.2264 -4.37885 -8.00317
-2.3814 -6.59395 -4.59827
-1.8594 -5.49425 -6.24137
-3.0554 -7.37295 -4.66087
-3.2324 -7.24005 -4.74027
-2.6644 -6.02235 -6.42317
-2.5184 -6.14695 -6.35587
-1.9664 -4.79115 -8.20997
-1.8514 -4.90555 -8.15497
-1.6994 -4.96095 -8.09537
-2.3374 -6.20055 -6.28897
-2.8474 -7.42305 -4.58837
-1.2054 -3.79045 -10.0164
-0.581404 -3.23555 -11.8436
-0.508404 -3.32895 -11.8069
-1.1154 -3.89355 -9.97196
-0.402404 -3.38105 -11.762
-0.989404 -3.94795 -9.92027
-0.282404 -3.38675 -11.7167
-0.850404 -3.94895 -9.87007
-1.5384 -4.95335 -8.04107
-2.6424 -7.38885 -4.53367
-2.1534 -6.18035 -6.23327
-3.3414 -6.52795 -4.91117
-2.7054 -5.39325 -6.53757
-1.9504 -4.24985 -8.27447
-2.0114 -4.43055 -8.27297
-2.7554 -5.60685 -6.52077
-3.3764 -6.77335 -4.87597
-0.510404 -2.83195 -11.8575
-1.1544 -3.32815 -10.0477
-0.574404 -2.96315 -11.8689
-1.2184 -3.48005 -10.0553
-0.600404 -3.10565 -11.8643
-1.2374 -3.64335 -10.0445
-2.0184 -4.62195 -8.25037
-3.3394 -7.02545 -4.81557
-2.7424 -5.82935 -6.48037
0.246596 -2.98525 -13.5274
0.185596 -2.89805 -13.5595
0.260596 -3.53385 -15.2864
0.201596 -3.44595 -15.3187
0.110596 -3.39555 -15.3583
0.0915956 -2.84705 -13.6001
0.113596 -4.29645 -16.8051
-0.0634044 -5.01065 -17.9653
-0.134404 -4.89565 -18.0073
0.0515956 -4.19985 -16.8407
-0.243404 -4.83215 -18.0547
-0.0454044 -4.14585 -16.8824
-0.371404 -4.82575 -18.0999
-0.499404 -4.88375 -18.1347
-0.270404 -4.18615 -16.957
-0.158404 -4.13925 -16.9237
-0.102404 -3.42735 -15.4332
0.00359557 -3.38745 -15.3989
-0.124404 -2.87465 -13.6796
-0.0174044 -2.83735 -13.6426
0.0825956 -3.44545 -13.5416
0.170596 -3.35435 -13.5184
0.0935956 -4.00555 -15.2899
0.180596 -3.91135 -15.2699
0.242596 -3.78705 -15.2626
0.231596 -3.23335 -13.508
-0.0644044 -4.82575 -16.7926
-0.264404 -5.64845 -17.9332
-0.159404 -5.51855 -17.9188
0.0285956 -4.71875 -16.7757
-0.0854044 -5.34985 -17.9204
0.0935956 -4.57895 -16.7726
-0.0504044 -5.17125 -17.9361
0.125596 -4.43055 -16.7824
0.272596 -3.65435 -15.2679
0.259596 -3.10375 -13.5106
-0.293404 -3.34215 -13.6928
-0.230404 -3.43005 -13.6597
-0.273404 -3.90605 -15.4354
-0.212404 -3.99465 -15.402
-0.120404 -4.04365 -15.3622
-0.135404 -3.47955 -13.6188
-0.453404 -4.72345 -16.9425
-0.707404 -5.53265 -18.0993
-0.634404 -5.64835 -18.0558
-0.389404 -4.82065 -16.9058
-0.522404 -5.70945 -18.0086
-0.291404 -4.87305 -16.864
-0.392404 -5.71085 -17.9654
-0.177404 -4.87595 -16.8241
-0.0124044 -4.04845 -15.3228
-0.0254044 -3.48595 -13.5773
-0.214404 -2.96515 -13.7041
-0.191404 -3.52095 -15.4543
-0.254404 -3.64665 -15.4619
-0.277404 -3.08755 -13.7149
-0.607404 -5.01305 -18.1507
-0.365404 -4.29255 -16.9752
-0.684404 -5.18425 -18.1492
-0.433404 -4.43405 -16.9784
-0.721404 -5.36775 -18.1312
-0.465404 -4.58615 -16.9671
-0.284404 -3.78255 -15.4555
-0.306404 -3.22055 -13.7112
-0.139404 -5.41385 -18.6489
-0.287404 -5.20555 -18.7265
-0.105404 -5.61565 -19.1182
-0.216404 -5.41695 -19.1528
-0.479404 -5.28235 -19.2478
0.326596 -5.56565 -19.9341
0.0455956 -5.32455 -19.6902
-0.149404 -5.18495 -19.7786
-0.382404 -5.16395 -19.8608
-0.617404 -5.27955 -19.9206
-0.759404 -5.39165 -19.3785
-0.606404 -5.20265 -18.8257
-0.377404 -6.21635 -18.5954
-0.275404 -6.22965 -18.7844
-0.365404 -6.77205 -19.1754
-0.149404 -6.16965 -19.0088
-0.133404 -5.73235 -18.5855
-0.203404 -6.90175 -19.5096
-0.0224044 -6.63345 -19.4762
0.269596 -6.31985 -19.8263
0.302596 -5.91005 -19.7743
-0.0944044 -5.86655 -19.0367
-1.0274 -6.38955 -19.1874
-0.932404 -6.57855 -19.1417
-0.785404 -6.86655 -19.2606
-0.611404 -6.27715 -18.617
-0.940404 -6.85555 -19.5283
-0.678404 -7.03055 -19.6342
-1.0744 -6.60875 -19.567
-0.438404 -7.03315 -19.5598
-0.584404 -6.86955 -19.1985
-0.786404 -5.41575 -18.8653
-0.919404 -5.62335 -19.5495
-1.0424 -5.92105 -19.521
-0.879404 -5.63185 -18.859
-0.754404 -5.54035 -20.1686
-0.876404 -5.91645 -20.2619
-1.0534 -6.15215 -19.2572
-1.0904 -6.27735 -19.6849
0.278596 -5.31015 -20.2263
0.634596 -5.61745 -20.7573
0.512596 -5.35595 -20.8515
0.313596 -5.20685 -20.9541
0.0735956 -5.16025 -20.3196
0.683596 -5.47125 -21.4392
0.515596 -5.33755 -21.5642
0.276596 -5.31585 -21.6006
-0.190404 -5.30605 -21.0839
0.0645956 -5.18325 -21.0304
-0.423404 -5.26015 -20.4709
-0.172404 -5.13705 -20.407
-0.00140443 -6.99685 -20.0404
0.205596 -6.70635 -20.024
0.211596 -7.04115 -20.6629
0.424596 -6.75145 -20.6558
0.579596 -6.37635 -20.6792
0.590596 -6.74445 -21.2654
0.747596 -6.40525 -21.3178
0.805596 -6.03965 -21.3091
0.653596 -5.97795 -20.7065
-0.866404 -6.73245 -20.3556
-0.726404 -6.99635 -20.2647
-0.647404 -6.77755 -20.9748
-0.507404 -7.04235 -20.8962
-0.287404 -7.18215 -20.8156
-0.507404 -7.13525 -20.1723
-0.260404 -7.00985 -21.4858
-0.0514044 -7.14045 -21.446
0.164596 -7.13855 -21.3326
-0.0374044 -7.18325 -20.727
-0.252404 -7.13765 -20.0937
-0.407404 -5.59595 -21.1183
-0.569404 -5.98395 -21.1156
-0.158404 -5.69395 -21.6815
-0.296404 -6.04875 -21.713
-0.391404 -6.42535 -21.6296
-0.658404 -6.40125 -21.0579
-0.885404 -6.35525 -20.4301
-4.2824 -8.59505 -1.26897
-3.9884 -7.86595 -2.27417
-4.0794 -8.10475 -2.24427
-4.0814 -8.39495 -2.17507
-3.6834 -7.20335 -3.48597
-3.7824 -7.42375 -3.46917
-3.8004 -7.69445 -3.41617
-3.6054 -8.20055 -3.24537
-3.7394 -7.96955 -3.33677
-3.8394 -8.93025 -1.97417
-3.9984 -8.68735 -2.07907
-4.1684 -9.20435 -1.07757
-3.6144 -9.07155 -1.87777
-3.3664 -9.11285 -1.80057
-3.4884 -9.63635 -0.782665
-3.4024 -8.33875 -3.15637
-3.1714 -8.38435 -3.08067
-2.7794 -8.20215 -3.00977
-2.9514 -8.33775 -3.02907
-3.0214 -9.15705 -1.23967
-3.1364 -9.05565 -1.75317
-2.8834 -8.66565 -1.77697
-2.8884 -8.38395 -1.84237
-3.0284 -8.86165 -0.858965
-2.6904 -7.98095 -3.03067
-2.6774 -7.71755 -3.08107
-2.8624 -7.23555 -3.23097
-2.7354 -7.45555 -3.15017
-3.1154 -7.87505 -2.01847
-2.9674 -8.10595 -1.92587
-3.1244 -8.57225 -0.953765
-3.5204 -8.19115 -1.15387
-3.3304 -7.73455 -2.11137
-3.5724 -7.68515 -2.19307
-3.0554 -7.09835 -3.31657
-3.2814 -7.04555 -3.39547
-3.5034 -7.07885 -3.45677
-3.8054 -7.72745 -2.25227
3 0 1 2
3 0 2 3
3 2 4 5
3 2 5 3
3 5 6 7
3 5 7 3
3 7 8 0
3 7 0 3
3 9 10 11
3 9 11 12
3 11 13 14
3 11 14 12
3 14 6 5
3 14 5 12
3 5 4 9
3 5 9 12
3 15 16 17
3 15 17 18
3 17 19 20
3 17 20 18
3 20 6 14
3 20 14 18
3 14 13 15
3 14 15 18
3 21 22 23
3 21 23 24
3 23 8 7
3 23 7 24
3 7 6 20
3 7 20 24
3 20 19 21
3 20 21 24
3 25 26 27
3 27 28 29
3 30 31 32
3 29 28 30
3 33 34 35
3 34 36 35
3 37 26 25
3 35 36 37
3 38 39 40
3 38 40 41
3 40 42 41
3 43 33 44
3 42 43 44
3 33 42 44
3 32 31 45
3 45 46 47
3 48 39 38
3 38 49 48
3 49 47 48
3 47 46 48
3 50 51 52
3 50 52 53
3 52 54 55
3 52 55 53
3 55 56 57
3 55 57 53
3 57 58 50
3 57 50 53
3 59 60 61
3 59 61 62
3 61 63 64
3 61 64 62
3 64 56 55
3 64 55 62
3 55 54 59
3 55 59 62
3 65 66 67
3 65 67 68
3 67 69 70
3 67 70 68
3 70 56 64
3 70 64 68
3 64 63 65
3 64 65 68
3 71 72 73
3 71 73 74
3 73 58 57
3 73 57 74
3 57 56 70
3 57 70 74
3 70 69 71
3 70 71 74
3 75 76 77
3 75 77 78
3 77 79 80
3 77 80 78
3 80 81 82
3 80 82 78
3 82 83 75
3 82 75 78
3 84 85 86
3 84 86 87
3 86 88 89
3 86 89 87
3 89 81 80
3 89 80 87
3 80 79 84
3 80 84 87
3 90 60 59
3 90 59 91
3 59 54 92
3 59 92 91
3 92 81 89
3 92 89 91
3 89 88 90
3 89 90 91
3 52 51 93
3 52 93 94
3 93 83 82
3 93 82 94
3 82 81 92
3 82 92 94
3 92 54 52
3 92 52 94
3 95 96 97
3 95 97 98
3 97 99 100
3 97 100 98
3 100 101 102
3 100 102 98
3 102 103 95
3 102 95 98
3 104 105 106
3 104 106 107
3 106 108 109
3 106 109 107
3 109 101 100
3 109 100 107
3 100 99 104
3 100 104 107
3 110 85 84
3 110 84 111
3 84 79 112
3 84 112 111
3 112 101 109
3 112 109 111
3 109 108 110
3 109 110 111
3 77 76 113
3 77 113 114
3 113 103 102
3 113 102 114
3 102 101 112
3 102 112 114
3 112 79 77
3 112 77 114
3 115 72 71
3 115 71 116
3 71 69 117
3 71 117 116
3 117 118 119
3 117 119 116
3 119 120 115
3 119 115 116
3 67 66 121
3 67 121 122
3 121 123 124
3 121 124 122
3 124 118 117
3 124 117 122
3 117 69 67
3 117 67 122
3 125 105 104
3 125 104 126
3 104 99 127
3 104 127 126
3 127 118 124
3 127 124 126
3 124 123 125
3 124 125 126
3 97 96 128
3 97 128 129
3 128 120 119
3 128 119 129
3 119 118 127
3 119 127 129
3 127 99 97
3 127 97 129
3 61 60 130
3 61 130 131
3 130 132 133
3 130 133 131
3 133 134 135
3 133 135 131
3 135 63 61
3 135 61 131
3 136 137 138
3 136 138 139
3 138 140 141
3 138 141 139
3 141 134 133
3 141 133 139
3 133 132 136
3 133 136 139
3 142 143 144
3 142 144 145
3 144 146 147
3 144 147 145
3 147 134 141
3 147 141 145
3 141 140 142
3 141 142 145
3 148 66 65
3 148 65 149
3 65 63 135
3 65 135 149
3 135 134 147
3 135 147 149
3 147 146 148
3 147 148 149
3 86 85 150
3 86 150 151
3 150 152 153
3 150 153 151
3 153 154 155
3 153 155 151
3 155 88 86
3 155 86 151
3 156 157 158
3 156 158 159
3 158 160 161
3 158 161 159
3 161 154 153
3 161 153 159
3 153 152 156
3 153 156 159
3 162 137 136
3 162 136 163
3 136 132 164
3 136 164 163
3 164 154 161
3 164 161 163
3 161 160 162
3 161 162 163
3 130 60 90
3 130 90 165
3 90 88 155
3 90 155 165
3 155 154 164
3 155 164 165
3 164 132 130
3 164 130 165
3 106 105 166
3 106 166 167
3 166 168 169
3 166 169 167
3 169 170 171
3 169 171 167
3 171 108 106
3 171 106 167
3 172 173 174
3 172 174 175
3 174 176 177
3 174 177 175
3 177 170 169
3 177 169 175
3 169 168 172
3 169 172 175
3 178 157 156
3 178 156 179
3 156 152 180
3 156 180 179
3 180 170 177
3 180 177 179
3 177 176 178
3 177 178 179
3 150 85 110
3 150 110 181
3 110 108 171
3 110 171 181
3 171 170 180
3 171 180 181
3 180 152 150
3 180 150 181
3 121 66 148
3 121 148 182
3 148 146 183
3 148 183 182
3 183 184 185
3 183 185 182
3 185 123 121
3 185 121 182
3 144 143 186
3 144 186 187
3 186 188 189
3 186 189 187
3 189 184 183
3 189 183 187
3 183 146 144
3 183 144 187
3 190 173 172
3 190 172 191
3 172 168 192
3 172 192 191
3 192 184 189
3 192 189 191
3 189 188 190
3 189 190 191
3 166 105 125
3 166 125 193
3 125 123 185
3 125 185 193
3 185 184 192
3 185 192 193
3 192 168 166
3 192 166 193
3 138 137 194
3 138 194 195
3 194 196 197
3 194 197 195
3 197 198 195
3 195 140 138
3 196 199 200
3 196 200 197
3 200 201 198
3 200 198 197
3 202 203 204
3 202 204 198
3 198 201 202
3 205 143 142
3 142 140 195
3 142 195 205
3 195 198 205
3 198 204 205
3 158 157 206
3 158 206 207
3 206 208 207
3 207 209 210
3 210 160 158
3 210 158 207
3 208 211 212
3 212 213 209
3 209 207 212
3 207 208 212
3 214 199 196
3 214 196 215
3 209 213 214
3 209 214 215
3 194 137 162
3 194 162 210
3 162 160 210
3 210 209 215
3 215 196 194
3 215 194 210
3 174 173 216
3 174 216 217
3 217 218 219
3 219 176 174
3 219 174 217
3 220 221 218
3 218 217 220
3 217 216 222
3 217 222 220
3 223 211 208
3 223 208 224
3 218 221 223
3 218 223 224
3 206 157 178
3 206 178 219
3 178 176 219
3 219 218 224
3 224 208 206
3 224 206 219
3 186 143 205
3 186 205 225
3 205 204 226
3 205 226 225
3 226 227 228
3 226 228 225
3 228 188 186
3 228 186 225
3 204 203 229
3 204 229 226
3 229 230 227
3 229 227 226
3 222 216 231
3 222 231 232
3 231 227 232
3 227 230 232
3 216 173 190
3 216 190 231
3 190 188 228
3 190 228 231
3 228 227 231
3 200 199 233
3 199 234 235
3 199 235 233
3 235 236 237
3 235 237 233
3 237 201 200
3 237 200 233
3 1 0 238
3 0 8 239
3 0 239 238
3 239 236 235
3 239 235 238
3 235 234 1
3 235 1 238
3 23 22 240
3 22 241 242
3 22 242 240
3 242 236 239
3 242 239 240
3 239 8 23
3 239 23 240
3 243 203 202
3 243 202 244
3 202 201 237
3 202 237 244
3 237 236 242
3 237 242 244
3 242 241 243
3 242 243 244
3 212 211 245
3 212 245 246
3 245 247 248
3 245 248 246
3 248 249 213
3 248 213 246
3 213 212 246
3 10 9 250
3 9 4 251
3 9 251 250
3 251 249 248
3 251 248 250
3 248 247 10
3 248 10 250
3 2 1 252
3 1 234 253
3 1 253 252
3 253 249 251
3 253 251 252
3 251 4 2
3 251 2 252
3 213 249 253
3 213 253 214
3 253 234 199
3 253 199 214
3 220 222 254
3 220 254 255
3 254 256 257
3 254 257 255
3 257 258 259
3 257 259 255
3 259 221 220
3 259 220 255
3 16 15 260
3 15 13 261
3 15 261 260
3 261 258 257
3 261 257 260
3 257 256 16
3 257 16 260
3 11 10 262
3 10 247 263
3 10 263 262
3 263 258 261
3 263 261 262
3 261 13 11
3 261 11 262
3 245 211 223
3 245 223 264
3 223 221 259
3 223 259 264
3 259 258 263
3 259 263 264
3 263 247 245
3 263 245 264
3 229 203 243
3 243 241 265
3 243 265 229
3 265 266 230
3 265 230 229
3 22 21 267
3 21 19 268
3 21 268 267
3 268 266 265
3 268 265 267
3 265 241 22
3 265 22 267
3 17 16 269
3 16 256 270
3 16 270 269
3 270 266 268
3 270 268 269
3 268 19 17
3 268 17 269
3 254 222 232
3 254 232 271
3 232 230 271
3 230 266 270
3 230 270 271
3 270 256 254
3 270 254 271
3 45 31 272
3 31 273 274
3 31 274 272
3 274 275 46
3 274 46 272
3 46 45 272
3 276 72 115
3 276 115 277
3 115 120 278
3 115 278 277
3 278 275 274
3 278 274 277
3 274 273 276
3 274 276 277
3 128 96 279
3 128 279 280
3 279 281 282
3 279 282 280
3 282 275 278
3 282 278 280
3 278 120 128
3 278 128 280
3 39 48 283
3 48 46 283
3 46 275 282
3 46 282 283
3 282 281 39
3 282 39 283
3 39 281 284
3 39 284 40
3 284 285 286
3 284 286 40
3 286 42 40
3 279 96 95
3 279 95 287
3 95 103 288
3 95 288 287
3 288 285 284
3 288 284 287
3 284 281 279
3 284 279 287
3 113 76 289
3 113 289 290
3 289 291 292
3 289 292 290
3 292 285 288
3 292 288 290
3 288 103 113
3 288 113 290
3 291 33 43
3 43 42 286
3 286 285 292
3 286 292 43
3 292 291 43
3 34 33 291
3 291 293 34
3 293 294 295
3 293 295 34
3 295 36 34
3 289 76 75
3 289 75 296
3 75 83 297
3 75 297 296
3 297 294 293
3 297 293 296
3 293 291 289
3 293 289 296
3 93 51 298
3 93 298 299
3 298 300 301
3 298 301 299
3 301 294 297
3 301 297 299
3 297 83 93
3 297 93 299
3 26 37 302
3 37 36 295
3 37 295 302
3 295 294 301
3 295 301 302
3 301 300 26
3 301 26 302
3 27 26 303
3 26 300 304
3 26 304 303
3 304 305 28
3 304 28 303
3 28 27 303
3 298 51 50
3 298 50 306
3 50 58 307
3 50 307 306
3 307 305 304
3 307 304 306
3 304 300 298
3 304 298 306
3 73 72 276
3 73 276 308
3 276 273 309
3 276 309 308
3 309 305 307
3 309 307 308
3 307 58 73
3 307 73 308
3 31 30 309
3 30 28 309
3 28 305 309
3 309 273 31
3 27 30 25
3 29 30 27
