OFF
426 825 0
-17.7195 6.56535 5.38502
-17.7275 6.86215 4.29802
-18.0665 6.13055 4.63502
-17.4955 7.58225 2.80902
-18.3795 5.63495 3.70102
-18.5555 5.23795 3.89102
-18.2445 5.73685 4.81402
-17.8955 6.18375 5.56002
-18.3035 5.90325 2.40802
-18.8235 4.74565 1.95302
-18.6395 5.14965 2.75202
-18.9835 4.36885 2.19202
-18.8075 4.76125 2.96602
-19.0035 4.29065 2.43302
-18.9885 4.24135 2.44702
-18.8285 4.63215 3.20602
-18.8465 4.64265 3.13102
-18.6075 5.04455 4.01702
-18.6145 5.08235 3.98702
-18.3065 5.52535 4.90102
-17.9635 6.01025 5.63602
-18.3095 5.57155 4.88702
-10.5165 4.33915 4.18202
-10.6465 4.06495 4.34502
-10.5215 4.04355 4.38902
-10.3975 4.31925 4.22402
-10.3625 4.36355 4.32502
-10.5645 4.97855 3.91502
-12.0415 5.58945 4.04602
-11.3725 4.68145 4.23702
-10.8115 4.45065 4.18902
-10.9425 4.17655 4.35302
-10.9825 4.10915 4.58002
-10.5755 3.94445 4.52402
-10.6925 3.97465 4.45502
-10.9865 4.08545 4.46402
-7.41949 8.53085 -2.58398
-7.75649 8.71655 -2.45698
-7.32849 9.00055 -1.68498
-7.18349 8.91675 -1.75098
-7.07549 9.43625 -0.689979
-6.91349 9.37635 -0.706979
-9.96549 9.68225 -2.15698
-8.10449 9.34505 -1.56798
-9.46749 10.4757 -0.380979
-7.47349 9.60615 -0.639979
-7.27049 10.0097 0.361021
-9.08849 11.1455 1.47602
-7.17949 10.3106 1.23102
-6.78049 10.1631 1.21302
-6.86749 9.85225 0.330021
-6.57449 10.153 1.28402
-6.38249 10.285 1.52402
-6.60249 9.84465 0.400021
-6.67549 9.82405 0.370021
-10.8155 0.73895 1.50902
-10.9555 0.84155 1.58502
-11.0475 0.64425 1.09202
-10.8915 0.54605 1.02502
-11.0295 0.69385 0.778021
-10.8725 0.62085 0.751021
-11.4335 0.85895 0.814021
-11.4485 0.81555 1.13702
-11.3545 1.01725 1.63602
-12.0555 1.52985 0.590021
-13.0015 2.78905 0.318021
-10.9625 1.95905 0.144021
-10.8755 1.05165 0.495021
-10.7225 0.98945 0.478021
-10.4045 1.73005 0.0910211
-10.1485 2.20355 4.46002
-9.92049 2.82845 5.50002
-10.0535 2.77565 5.20902
-10.1965 2.22395 4.40502
-10.2395 2.81145 5.11102
-10.3735 2.27215 4.34202
-10.5715 1.72145 3.38002
-10.4145 1.65305 3.37802
-10.9725 1.88505 3.40602
-10.7755 2.42725 4.34702
-10.6355 2.95905 5.10302
-10.7815 1.22265 2.40402
-11.1815 1.39445 2.44802
-10.6365 1.13145 2.35102
-9.84049 4.15755 5.41002
-10.0655 3.69185 5.64402
-9.87749 3.55505 5.66902
-9.70549 3.92325 5.49802
-9.72049 3.23575 5.76502
-9.59349 3.72215 5.55902
-9.70049 4.96135 4.98102
-10.3275 4.06465 5.37502
-10.2135 3.89705 5.54202
-9.99749 3.27845 5.64602
-9.85649 3.10275 5.74402
-7.26649 10.4302 1.81802
-7.47049 10.4156 2.16602
-7.12549 10.2675 2.12902
-6.89249 10.2836 1.79302
-7.40649 10.1713 2.27902
-7.25549 10.0889 2.26802
-6.96449 10.1818 2.20102
-6.98849 10.2153 2.13102
-7.51449 9.96795 2.26302
-6.65949 10.2792 1.92102
-6.71549 10.2563 1.83702
-17.5815 6.28315 6.04002
-17.5695 6.41365 5.99402
-17.2245 6.50285 6.15502
-17.2265 6.60545 6.12102
-16.9335 6.70375 6.05502
-16.5065 7.16395 5.66702
-15.7975 8.64955 4.96802
-16.2235 8.72095 5.13502
-17.0175 7.05685 5.91202
-16.7275 6.67885 5.89102
-17.0385 7.54365 5.47002
-17.3595 6.86805 5.78402
-10.0535 3.23975 5.56702
-10.1555 3.61265 5.62202
-10.2215 3.27615 5.50702
-10.5745 4.14795 5.39902
-10.3855 3.94035 5.56502
-12.3545 4.87625 5.54102
-11.3295 4.32445 5.63902
-10.6315 3.79285 5.64802
-10.5965 3.41795 5.51102
-9.94549 5.10345 4.64402
-10.4205 4.10835 5.16602
-10.2715 4.52435 4.70502
-10.4865 4.08815 4.92302
-10.0745 4.97165 4.21902
-10.3895 4.30575 4.57202
-8.25249 9.89095 2.03802
-7.84649 9.68935 1.96802
-7.70249 9.82935 2.15902
-8.13949 10.0227 2.21002
-8.32349 9.77505 1.84802
-13.4825 11.8977 2.30502
-8.15849 9.59225 1.66002
-7.98849 9.44925 1.57502
-16.2665 7.39355 5.32002
-16.6115 6.64855 5.66602
-16.5635 6.58305 5.41402
-16.3635 7.03505 5.22202
-16.5705 6.40985 5.00202
-16.5235 6.50755 4.89002
-16.3715 6.93655 5.00902
-16.3895 6.84545 4.83802
-10.7115 4.16445 4.95702
-10.9605 4.17785 4.75902
-16.1105 6.37835 5.39802
-10.8665 4.28355 5.20202
-9.52249 3.60385 5.60102
-9.80449 2.94525 5.82302
-6.35449 10.275 2.00402
-6.63849 9.89875 2.26202
-6.49149 9.93815 2.21502
-6.71549 10.1684 2.14802
-6.87649 9.83805 2.34802
-7.16449 9.75495 2.43902
-6.35149 10.3677 1.85402
-7.73149 9.08215 2.80102
-8.14449 8.89335 2.65202
-7.94749 9.43655 2.12902
-8.65749 7.93535 2.91602
-7.95849 9.46705 1.87102
-8.13149 9.11435 1.83702
-8.32749 8.67935 2.27602
-8.17049 9.07055 1.73702
-8.16249 9.36945 1.57502
-8.29149 9.09235 1.69902
-8.10349 9.49615 1.57102
-8.39549 9.61425 1.59002
-8.45649 9.48695 1.59302
-9.14149 9.44865 1.78202
-8.82649 8.69235 1.98502
-8.58549 9.20875 1.71602
-14.0545 11.9124 2.91802
-13.9215 12.1733 2.76502
-13.8355 12.4929 2.90902
-14.1665 11.8097 3.23502
-13.8445 12.7213 3.04202
-14.0605 12.2914 3.25102
-14.1105 11.6953 2.54802
-13.9835 11.9227 2.33302
-14.0845 11.7864 2.71902
-13.9155 12.0612 2.33502
-13.8495 12.294 2.70102
-14.7135 12.955 2.42202
-14.7805 12.2965 3.25702
-14.4665 12.9572 2.94802
-14.2755 12.8006 3.22502
-14.0685 13.2201 3.02602
-14.2605 13.3809 2.74802
-14.5395 13.3152 2.25402
-14.4195 11.9688 3.58402
-13.9185 13.0094 3.09302
-13.9625 13.251 2.98402
-14.1795 13.4433 2.70402
-14.4105 13.4637 2.16602
-14.4655 13.4483 2.18802
-15.3455 12.0085 1.92302
-15.0135 12.724 1.59302
-14.8375 13.0956 1.42002
-15.1495 12.7379 0.447021
-15.3275 12.3559 0.615021
-14.7325 13.2462 1.33802
-14.7625 13.2331 1.35202
-15.0335 12.9076 0.405021
-15.0675 12.8877 0.403021
-15.2855 12.5582 -0.422979
-15.4835 12.2057 -1.19098
-15.5245 12.1986 -1.17598
-15.3305 12.5189 -0.473979
-15.6455 11.9831 -1.27998
-15.4315 12.3378 -0.499979
-15.8335 11.574 -1.16098
-15.9435 11.2049 -0.0169789
-15.6145 11.9419 -0.353979
-8.01149 7.73205 -2.99598
-7.82749 8.14425 -3.11698
-7.67249 8.06965 -3.15098
-7.85949 7.66675 -3.01798
-7.83249 7.65125 -3.02798
-9.17749 8.23575 -2.84698
-10.2435 9.19325 -2.79898
-8.22649 8.31935 -3.06098
-8.72249 7.17945 -2.56698
-8.09749 8.57065 -2.89298
-7.70149 8.39105 -2.96098
-7.55049 8.29615 -3.03598
-7.64949 8.00675 -3.21598
-11.9235 12.3854 1.84002
-13.8495 13.2284 2.08802
-13.2885 13.0635 2.58402
-11.7535 12.2857 2.70502
-10.4445 11.8194 2.22202
-12.7765 12.5133 2.94602
-11.8035 11.8328 2.79002
-10.5555 11.5447 2.67002
-9.51249 10.8361 2.50802
-9.19349 11.1677 2.38202
-13.3625 12.2913 2.84802
-13.3925 12.1207 2.66402
-13.4365 11.992 2.46902
-10.2945 9.32215 2.15402
-11.1395 10.3103 2.01902
-9.92149 10.1202 1.77002
-13.5145 11.8308 2.21202
-13.5735 11.7004 2.21102
-12.0965 11.0613 2.03202
-13.1435 11.175 2.25802
-12.4735 10.2573 2.40402
-13.3865 5.50995 4.40802
-14.2345 6.49645 4.24102
-12.4205 4.78285 4.47502
-15.4065 6.34145 4.58002
-16.1055 6.29545 4.78202
-14.6155 5.68375 4.65702
-16.1465 6.22665 5.00302
-16.1535 6.20355 4.88902
-16.1405 6.44665 5.63002
-16.2425 6.46995 5.85302
-14.6695 5.82485 5.72602
-16.1225 6.29495 5.18102
-12.5685 3.74415 5.24902
-12.3745 4.50415 5.78302
-13.8125 4.72765 5.75602
-15.4385 4.91025 5.46602
-13.5675 5.24005 5.81602
-15.8135 6.15895 5.99302
-14.9635 5.56135 5.98302
-17.0465 6.04555 6.00402
-17.3895 5.70335 5.61402
-14.2395 3.83035 4.60702
-15.9915 3.91265 3.78402
-12.9935 2.70105 3.55802
-17.7235 5.24255 4.87002
-18.0285 4.73675 3.93902
-17.5025 3.94335 2.92702
-16.4195 3.05555 2.02202
-14.7235 2.82235 2.71502
-13.3935 1.83755 1.79102
-15.0035 2.24525 1.40902
-16.5075 2.90155 1.20802
-13.4755 1.68095 0.972021
-18.5775 3.68315 1.68402
-18.5665 3.73115 1.36902
-16.0275 4.02145 0.578021
-14.8365 2.65365 0.814021
-17.6255 3.78145 1.04002
-10.7435 8.04575 -2.31998
-11.9275 9.42295 -2.49698
-13.7435 9.33205 -1.95298
-13.2375 10.4909 -2.40898
-15.5255 8.66125 -1.23298
-14.6855 10.6144 -2.14398
-15.2705 11.3729 -2.14298
-15.1365 11.6277 -1.96998
-14.9825 11.864 -1.49798
-12.9525 10.9809 -1.76498
-11.6065 10.0943 -2.43398
-11.2195 10.7016 -1.16098
-12.4265 11.767 0.0040211
-14.7355 12.2337 -0.699979
-14.4385 12.6453 0.267021
-14.1285 13.0073 1.24902
-10.6905 11.5037 0.802021
-16.9005 6.35475 6.13402
-17.4225 6.20305 6.03202
-17.7825 5.86785 5.64302
-16.8275 6.57675 6.07302
-17.9345 5.94325 5.65102
-18.1275 5.41135 4.90002
-18.4365 4.91135 3.97702
-18.2845 5.48875 4.90802
-18.5895 5.00075 4.00902
-18.8235 4.56825 3.15002
-18.8745 4.08225 2.26702
-18.6905 4.44575 3.04802
-18.4755 3.88405 2.18002
-18.2855 4.25945 2.98702
-18.9755 3.88855 1.78702
-18.9635 3.93895 1.48002
-19.0825 4.06505 2.01102
-19.0695 4.12305 1.72602
-18.5835 5.25425 1.12602
-18.9125 4.49425 1.47102
-18.8085 4.30695 1.21902
-18.0845 4.85965 0.756021
-18.4115 4.09955 1.10402
-15.7825 10.207 -1.70198
-15.4625 10.9503 -2.04398
-15.8505 11.1653 -1.90998
-15.6595 11.5868 -2.00998
-16.2655 10.6004 -1.30798
-15.9435 11.3438 -1.64798
-15.7525 11.7614 -1.75298
-15.6215 11.9992 -1.60598
-15.3745 12.0659 -1.38598
-15.5245 11.837 -1.84298
-15.1355 12.424 -0.613979
-14.8435 12.8244 0.330021
-15.2695 12.5294 -0.495979
-15.0005 12.8993 0.378021
-14.6935 13.2445 1.32702
-14.2405 13.3974 2.14002
-14.5305 13.1809 1.30202
-14.0125 13.3785 2.67902
-13.9535 10.8932 2.57502
-13.7075 11.4187 2.32502
-13.8705 11.839 2.26402
-14.0025 11.5567 2.37802
-13.8085 11.9671 2.26402
-14.1105 11.6337 2.44302
-15.7245 7.11315 4.37302
-15.9755 6.57585 4.62802
-16.2745 6.70885 4.67202
-16.4055 6.42885 4.82402
-16.3845 6.78405 4.73302
-16.4565 6.33025 4.93902
-16.4125 6.50075 5.40402
-16.8485 8.41665 4.52802
-15.9065 9.92605 4.36102
-15.0595 11.1588 3.99402
-15.5725 11.1286 3.27002
-15.4255 9.86425 4.57302
-14.7595 10.8258 3.94202
-16.5335 9.44185 3.10802
-16.2005 10.4347 1.49902
-16.6885 9.62225 -0.269979
-17.1205 8.56065 1.19302
-17.9575 6.72415 1.05202
-16.7735 5.76125 0.119021
-17.9515 6.29465 0.313021
-16.9305 7.53995 -0.475979
-17.4215 7.93405 -0.0939789
-16.6955 9.20475 -1.01498
-11.2215 3.47285 -0.403979
-13.9935 4.61495 -0.143979
-11.8705 5.42395 -1.00398
-14.8825 6.68345 -0.689979
-12.7585 7.48805 -1.54898
-10.0005 6.31895 -1.86298
-10.0465 2.98845 -0.514979
-8.83049 5.82305 -1.99698
-9.28449 4.34125 -1.27598
-9.83949 4.57575 -1.21398
-7.48349 8.13445 3.20502
-8.00049 6.78495 3.90202
-8.73749 5.51225 4.60502
-8.28549 6.89365 3.91702
-9.06549 5.77935 4.55002
-7.92949 8.15505 3.28902
-8.39949 8.10885 3.24502
-8.71349 7.02685 3.88902
-9.41349 5.98065 4.36602
-9.04249 7.00305 3.64602
-9.61649 5.90815 3.97902
-8.76949 7.75635 2.54902
-9.71649 5.73995 3.60502
-9.19849 6.83005 3.24502
-9.27949 6.70525 2.97602
-9.87249 5.71625 3.46302
-8.92749 7.73355 2.40902
-9.77949 8.08595 2.48402
-9.69349 6.84005 2.94802
-10.7265 6.06255 3.52602
-11.1665 7.46045 3.09802
-12.7355 6.90075 3.71602
-11.7815 8.93815 2.70302
-13.7905 9.79335 2.92202
-13.3515 8.38155 3.32002
-14.7505 7.74185 3.90802
-14.8365 9.00785 3.47202
-15.6165 8.11335 4.00802
-14.6525 10.1708 3.03402
-14.7625 10.3089 3.20302
-15.7295 8.25055 4.17502
-15.2425 9.21945 3.58402
-15.6945 8.44815 4.55502
-14.7145 10.5182 3.57702
-15.2135 9.60945 4.27502
-15.2235 9.37205 3.86002
-9.93749 2.57095 5.27502
3 0 1 2
3 1 3 4
3 1 4 2
3 4 5 6
3 4 6 2
3 6 7 0
3 6 0 2
3 8 9 10
3 9 11 12
3 9 12 10
3 12 5 4
3 12 4 10
3 4 3 8
3 4 8 10
3 13 14 15
3 13 15 16
3 15 17 18
3 15 18 16
3 18 5 12
3 18 12 16
3 12 11 13
3 12 13 16
3 19 20 21
3 20 7 6
3 20 6 21
3 6 5 18
3 6 18 21
3 18 17 19
3 18 19 21
3 22 23 24
3 22 24 25
3 24 26 25
3 27 28 29
3 27 29 30
3 29 31 30
3 31 23 22
3 31 22 30
3 22 27 30
3 32 33 34
3 32 34 35
3 34 23 31
3 34 31 35
3 24 23 34
3 24 34 33
3 36 37 38
3 36 38 39
3 38 40 41
3 38 41 39
3 37 42 43
3 43 44 45
3 45 40 38
3 45 38 43
3 38 37 43
3 46 47 48
3 48 49 50
3 48 50 46
3 50 40 45
3 50 45 46
3 45 44 46
3 51 52 53
3 51 53 54
3 53 41 54
3 41 40 50
3 41 50 54
3 50 49 51
3 50 51 54
3 55 56 57
3 55 57 58
3 57 59 60
3 57 60 58
3 61 59 57
3 61 57 62
3 57 56 63
3 57 63 62
3 64 65 66
3 66 67 64
3 67 59 61
3 67 61 64
3 60 59 67
3 60 67 68
3 67 69 68
3 70 71 72
3 70 72 73
3 72 74 75
3 72 75 73
3 75 76 77
3 75 77 73
3 77 70 73
3 78 76 75
3 78 75 79
3 75 74 80
3 75 80 79
3 63 56 81
3 63 81 82
3 81 76 78
3 81 78 82
3 77 76 81
3 77 81 83
3 81 56 55
3 81 55 83
3 84 85 86
3 84 86 87
3 86 88 89
3 86 89 87
3 90 91 92
3 92 85 84
3 84 90 92
3 93 71 94
3 94 88 86
3 86 85 94
3 85 93 94
3 48 47 95
3 96 97 98
3 96 98 95
3 98 49 48
3 98 48 95
3 99 97 96
3 100 101 102
3 102 97 99
3 102 99 100
3 99 103 100
3 104 52 51
3 104 51 105
3 51 49 98
3 51 98 105
3 98 97 102
3 98 102 105
3 102 101 104
3 102 104 105
3 20 106 107
3 106 108 109
3 106 109 107
3 107 7 20
3 109 108 110
3 111 112 110
3 110 113 114
3 114 109 110
3 110 115 111
3 116 0 117
3 0 7 107
3 0 107 117
3 107 109 114
3 107 114 117
3 114 113 116
3 114 116 117
3 72 71 93
3 72 93 118
3 93 85 119
3 93 119 118
3 119 120 118
3 120 74 72
3 120 72 118
3 91 121 122
3 91 122 92
3 122 119 92
3 119 85 92
3 121 123 124
3 121 124 122
3 124 125 122
3 125 119 122
3 80 74 120
3 80 120 126
3 120 119 125
3 120 125 126
3 91 127 128
3 127 129 128
3 129 130 128
3 131 26 132
3 26 24 132
3 132 130 129
3 129 131 132
3 132 24 33
3 132 33 130
3 133 134 135
3 133 135 136
3 135 103 136
3 137 138 139
3 139 134 137
3 134 133 137
3 134 139 140
3 141 112 111
3 111 115 142
3 111 142 141
3 142 143 144
3 142 144 141
3 145 146 143
3 144 143 147
3 143 146 148
3 143 148 147
3 130 149 128
3 128 121 91
3 33 149 130
3 150 151 149
3 149 33 150
3 33 32 150
3 152 123 121
3 121 128 152
3 128 149 152
3 149 151 152
3 89 88 153
3 94 71 154
3 88 94 154
3 155 156 157
3 156 155 158
3 156 158 159
3 158 101 160
3 158 160 159
3 161 52 104
3 104 101 161
3 101 158 161
3 158 155 161
3 103 162 100
3 162 160 100
3 160 101 100
3 163 103 135
3 164 165 163
3 164 163 135
3 134 164 135
3 140 166 134
3 166 164 134
3 167 168 166
3 168 165 164
3 168 164 166
3 166 140 167
3 167 140 169
3 140 170 171
3 140 171 169
3 140 139 172
3 172 170 140
3 139 138 173
3 174 170 172
3 174 172 173
3 172 139 173
3 175 176 177
3 176 171 177
3 171 170 174
3 171 174 177
3 174 175 177
3 178 179 180
3 178 180 181
3 180 182 183
3 180 183 181
3 184 185 179
3 184 179 186
3 179 178 186
3 179 185 187
3 179 187 188
3 180 179 188
3 189 190 191
3 190 192 191
3 192 193 194
3 192 194 191
3 194 195 189
3 194 189 191
3 196 183 197
3 183 182 197
3 197 193 192
3 192 196 197
3 197 198 193
3 199 200 201
3 199 201 194
3 201 195 194
3 193 198 199
3 193 199 194
3 202 189 203
3 189 195 204
3 189 204 203
3 204 205 206
3 204 206 203
3 206 202 203
3 201 200 207
3 201 207 208
3 207 209 210
3 207 210 208
3 210 205 204
3 210 204 208
3 204 195 201
3 204 201 208
3 211 212 213
3 211 213 214
3 213 215 216
3 213 216 214
3 216 205 210
3 216 210 214
3 210 209 211
3 210 211 214
3 217 218 219
3 218 206 219
3 206 205 216
3 206 216 219
3 216 215 217
3 216 217 219
3 220 221 222
3 220 222 223
3 222 224 223
3 225 226 227
3 227 221 220
3 227 220 225
3 220 228 225
3 229 42 37
3 37 230 229
3 230 221 227
3 230 227 229
3 227 226 229
3 222 221 230
3 222 230 231
3 230 37 36
3 230 36 231
3 224 222 232
3 232 222 231
3 233 234 235
3 235 198 236
3 236 237 235
3 237 233 235
3 238 182 239
3 239 240 238
3 240 236 238
3 236 198 238
3 241 103 99
3 241 99 240
3 99 96 242
3 99 242 240
3 242 236 240
3 240 239 241
3 95 47 237
3 47 233 237
3 237 236 242
3 242 96 95
3 242 95 237
3 136 103 241
3 136 241 243
3 241 239 243
3 133 136 243
3 239 182 243
3 243 244 133
3 245 138 137
3 133 244 245
3 133 245 137
3 246 175 247
3 175 174 248
3 175 248 247
3 248 174 173
3 249 250 251
3 251 248 173
3 251 173 249
3 173 138 249
3 252 253 247
3 253 246 247
3 247 248 251
3 251 250 252
3 251 252 247
3 29 28 254
3 28 255 254
3 256 31 29
3 256 29 254
3 257 258 259
3 259 256 254
3 259 254 257
3 254 255 257
3 260 32 261
3 261 256 259
3 259 258 261
3 35 31 256
3 256 261 35
3 261 32 35
3 262 263 264
3 262 264 152
3 151 262 152
3 152 264 123
3 150 32 265
3 151 150 265
3 265 32 260
3 266 80 126
3 126 125 267
3 267 268 126
3 268 269 266
3 268 266 126
3 123 264 270
3 123 270 124
3 270 267 124
3 267 125 124
3 264 263 271
3 272 267 270
3 272 270 271
3 270 264 271
3 273 274 269
3 273 269 268
3 268 267 272
3 272 273 268
3 79 80 266
3 266 269 275
3 266 275 79
3 275 276 277
3 275 277 79
3 277 78 79
3 269 274 278
3 278 279 276
3 276 275 278
3 275 269 278
3 280 281 282
3 281 283 282
3 276 279 280
3 276 280 282
3 283 63 82
3 82 78 277
3 277 276 282
3 277 282 82
3 282 283 82
3 62 63 283
3 62 283 284
3 284 285 286
3 286 61 62
3 286 62 284
3 287 288 285
3 285 284 287
3 284 283 281
3 284 281 287
3 289 290 291
3 290 285 291
3 285 288 291
3 65 64 290
3 64 61 286
3 64 286 290
3 286 285 290
3 290 289 65
3 225 228 292
3 225 292 293
3 292 294 293
3 293 295 226
3 226 225 293
3 294 296 297
3 297 298 295
3 295 293 297
3 293 294 297
3 299 300 301
3 301 302 299
3 302 295 299
3 295 298 299
3 42 229 302
3 229 226 302
3 226 295 302
3 302 301 42
3 43 42 303
3 42 301 303
3 303 304 44
3 44 43 303
3 301 300 305
3 305 306 304
3 304 303 305
3 303 301 305
3 307 234 233
3 307 233 308
3 304 306 307
3 304 307 308
3 44 304 308
3 44 308 46
3 308 233 47
3 308 47 46
3 273 272 309
3 309 310 273
3 310 311 274
3 310 274 273
3 271 263 312
3 263 115 312
3 309 272 271
3 309 271 312
3 115 110 312
3 110 108 312
3 108 309 312
3 106 20 313
3 313 311 310
3 313 310 106
3 310 309 108
3 310 108 106
3 274 311 314
3 274 314 278
3 314 315 279
3 314 279 278
3 313 20 19
3 313 19 316
3 19 17 317
3 19 317 316
3 317 315 314
3 317 314 316
3 314 311 313
3 314 313 316
3 15 14 318
3 14 319 320
3 14 320 318
3 320 315 317
3 320 317 318
3 317 17 15
3 317 15 318
3 321 281 280
3 321 280 322
3 280 279 322
3 279 315 320
3 279 320 322
3 320 319 321
3 320 321 322
3 287 281 321
3 321 319 323
3 321 323 287
3 323 324 288
3 323 288 287
3 14 13 325
3 13 11 326
3 13 326 325
3 326 324 323
3 326 323 325
3 323 319 14
3 323 14 325
3 9 327 328
3 327 329 328
3 329 324 326
3 329 326 328
3 326 11 9
3 326 9 328
3 330 289 291
3 330 291 331
3 291 288 331
3 288 324 329
3 288 329 331
3 329 330 331
3 297 296 332
3 297 332 333
3 332 334 333
3 334 335 298
3 334 298 333
3 298 297 333
3 336 217 337
3 217 215 338
3 217 338 337
3 338 335 334
3 338 334 337
3 334 336 337
3 213 212 339
3 212 340 341
3 212 341 339
3 341 335 338
3 341 338 339
3 338 215 213
3 338 213 339
3 298 335 341
3 298 341 299
3 341 340 300
3 341 300 299
3 300 340 342
3 300 342 305
3 342 343 306
3 342 306 305
3 212 211 344
3 211 209 345
3 211 345 344
3 345 343 342
3 345 342 344
3 342 340 212
3 342 212 344
3 207 200 346
3 200 347 348
3 200 348 346
3 348 343 345
3 348 345 346
3 345 209 207
3 345 207 346
3 306 343 348
3 306 348 307
3 348 347 234
3 348 234 307
3 234 347 349
3 234 349 235
3 349 198 235
3 198 349 199
3 349 347 200
3 349 200 199
3 198 197 238
3 197 182 238
3 182 180 243
3 180 188 244
3 180 244 243
3 244 188 245
3 188 187 138
3 188 138 245
3 350 252 351
3 252 250 351
3 250 352 353
3 250 353 351
3 353 350 351
3 138 187 354
3 138 354 249
3 354 352 250
3 354 250 249
3 185 352 354
3 185 354 187
3 353 352 185
3 353 185 355
3 185 184 355
3 257 255 356
3 257 356 357
3 356 358 357
3 358 359 258
3 358 258 357
3 258 257 357
3 148 146 360
3 146 359 358
3 146 358 360
3 361 359 146
3 361 146 145
3 258 359 361
3 258 361 261
3 361 260 261
3 151 362 142
3 151 142 262
3 142 115 263
3 142 263 262
3 260 361 362
3 260 362 265
3 362 151 265
3 362 361 145
3 362 145 143
3 142 362 143
3 363 0 116
3 363 116 364
3 116 113 364
3 113 365 364
3 364 366 363
3 110 112 367
3 112 368 367
3 367 365 113
3 113 110 367
3 368 183 196
3 196 192 365
3 365 367 196
3 367 368 196
3 190 189 366
3 366 364 190
3 364 365 190
3 365 192 190
3 1 0 363
3 363 366 369
3 363 369 1
3 369 3 1
3 366 189 202
3 366 202 369
3 202 206 370
3 202 370 369
3 370 3 369
3 218 217 371
3 218 371 372
3 371 373 372
3 372 3 370
3 370 206 218
3 370 218 372
3 373 9 8
3 3 372 8
3 372 373 8
3 374 289 330
3 330 329 375
3 375 376 330
3 376 374 330
3 327 9 373
3 373 377 327
3 377 375 327
3 375 329 327
3 371 217 336
3 371 336 377
3 336 334 378
3 336 378 377
3 378 375 377
3 377 373 371
3 296 374 376
3 296 376 332
3 376 375 378
3 376 378 332
3 378 334 332
3 379 65 380
3 65 289 380
3 381 379 380
3 289 374 380
3 374 382 380
3 382 381 380
3 296 294 382
3 294 383 382
3 383 381 382
3 382 374 296
3 292 228 384
3 292 384 383
3 384 379 381
3 384 381 383
3 383 294 292
3 69 67 385
3 385 386 387
3 385 387 69
3 66 65 379
3 379 388 66
3 388 386 385
3 388 385 66
3 385 67 66
3 384 228 388
3 228 220 386
3 228 386 388
3 388 379 384
3 223 224 387
3 386 220 223
3 386 223 387
3 157 156 389
3 157 389 390
3 389 391 390
3 391 89 153
3 390 391 153
3 87 89 391
3 391 392 87
3 392 393 87
3 393 84 87
3 389 156 159
3 389 159 392
3 159 160 394
3 159 394 392
3 394 393 392
3 392 391 389
3 162 103 395
3 162 395 396
3 395 397 396
3 396 393 394
3 394 160 162
3 394 162 396
3 397 91 90
3 90 84 393
3 393 396 90
3 396 397 90
3 127 91 397
3 397 398 127
3 398 399 127
3 399 129 127
3 395 103 163
3 165 399 398
3 165 398 163
3 398 397 395
3 398 395 163
3 168 167 400
3 400 401 402
3 400 402 168
3 402 399 165
3 402 165 168
3 401 26 131
3 131 129 399
3 399 402 131
3 402 401 131
3 25 26 401
3 401 403 25
3 403 404 25
3 404 22 25
3 400 167 169
3 169 171 405
3 405 404 403
3 405 403 169
3 403 401 400
3 403 400 169
3 176 175 406
3 406 407 176
3 407 404 405
3 407 405 176
3 405 171 176
3 408 28 27
3 27 22 404
3 404 407 27
3 407 406 408
3 407 408 27
3 408 406 409
3 409 410 408
3 410 255 28
3 410 28 408
3 406 175 246
3 406 246 411
3 411 410 409
3 409 406 411
3 253 252 412
3 253 412 413
3 413 410 411
3 411 246 253
3 411 253 413
3 255 410 414
3 410 413 414
3 413 412 414
3 356 255 414
3 414 412 415
3 414 415 356
3 415 416 356
3 416 358 356
3 412 252 350
3 412 350 415
3 350 353 417
3 350 417 415
3 417 416 415
3 355 184 418
3 418 419 420
3 418 420 355
3 420 416 417
3 420 417 355
3 417 353 355
3 419 148 360
3 419 360 420
3 360 358 416
3 360 416 420
3 141 144 421
3 421 422 423
3 421 423 141
3 423 368 112
3 423 112 141
3 147 148 419
3 419 424 147
3 424 422 421
3 424 421 147
3 421 144 147
3 418 184 186
3 186 178 422
3 422 424 186
3 424 419 418
3 424 418 186
3 181 183 368
3 368 423 181
3 423 422 181
3 422 178 181
3 154 71 425
3 425 71 70
