OFF
580 1142 0
8.09605 -12.6772 -2.33411
8.10005 -12.6887 -2.12861
8.22705 -12.8453 -2.14699
8.26505 -12.9048 -2.45148
8.27805 -13.0485 -2.12464
8.31705 -13.1276 -2.4465
8.20605 -13.1689 -2.67385
8.16304 -12.9291 -2.66754
7.99505 -12.6844 -2.53006
8.19405 -13.2259 -2.05198
8.04605 -13.33 -1.96843
8.03205 -13.4288 -2.14572
8.23005 -13.3142 -2.34882
7.92705 -13.4881 -2.32775
8.12505 -13.3673 -2.55724
7.73405 -13.461 -2.43151
7.54305 -13.3847 -2.45022
7.60305 -13.2929 -2.61863
7.90805 -13.3509 -2.65761
7.64405 -13.124 -2.73317
7.97105 -13.1688 -2.77827
7.63605 -12.9188 -2.71364
7.59805 -12.7534 -2.61039
7.79805 -12.7159 -2.6199
7.94305 -12.9447 -2.76026
-3.51595 -4.3132 4.54853
-3.54395 -4.4377 4.79235
-3.53795 -4.4404 4.79083
-3.50995 -4.3164 4.54777
-3.52895 -4.4431 4.79011
-3.50095 -4.3192 4.54743
-3.49095 -4.2855 4.26149
-3.49995 -4.2826 4.26139
-3.50495 -4.2793 4.26126
-3.51695 -4.446 4.78993
-3.49995 -4.4496 4.79004
-3.47195 -4.3258 4.54748
-3.48895 -4.3222 4.54738
-3.46095 -4.2921 4.26169
-3.47895 -4.2885 4.26159
-3.46995 -4.3455 3.97996
-3.49695 -4.4831 3.74958
-3.51395 -4.4795 3.74947
-3.48695 -4.3419 3.97985
-3.52595 -4.4766 3.74911
-3.49995 -4.3389 3.97961
-3.53495 -4.474 3.74821
-3.54095 -4.4713 3.74648
-3.51395 -4.333 3.97806
-3.50795 -4.3361 3.97907
-3.69995 -5.189 4.96964
-3.74595 -5.4129 4.83722
-3.73995 -5.4126 4.83556
-3.69395 -5.1894 4.96757
-3.73095 -5.4138 4.83477
-3.68495 -5.1909 4.96658
-3.62995 -4.9245 5.00171
-3.63895 -4.9226 5.00276
-3.64495 -4.9213 5.00494
-3.71795 -5.4162 4.83457
-3.70095 -5.4198 4.83468
-3.65495 -5.197 4.96641
-3.67195 -5.1934 4.9663
-3.60095 -4.9307 5.00153
-3.61795 -4.9271 5.00142
-3.54595 -4.6664 4.94206
-3.56295 -4.6628 4.94196
-3.57595 -4.66 4.94222
-3.58995 -4.6556 4.94516
-3.58395 -4.6577 4.94317
-3.77295 -5.5514 4.03516
-3.74495 -5.423 3.79135
-3.73895 -5.4227 3.79294
-3.76695 -5.5507 4.036
-3.72995 -5.4238 3.79377
-3.75795 -5.5516 4.03645
-3.76695 -5.5931 4.32239
-3.77595 -5.5923 4.32238
-3.78295 -5.5931 4.32244
-3.71695 -5.4262 3.79411
-3.69995 -5.4298 3.79422
-3.72795 -5.5575 4.03677
-3.74495 -5.5539 4.03666
-3.73695 -5.5991 4.32256
-3.75395 -5.5955 4.32245
-3.72795 -5.5535 4.6043
-3.74495 -5.5499 4.60419
-3.75795 -5.5475 4.60427
-3.77395 -5.5473 4.60564
-3.76695 -5.5466 4.6047
-3.58695 -4.6913 3.61406
-3.58095 -4.6933 3.6162
-3.57195 -4.6955 3.61731
-3.62795 -4.9541 3.58217
-3.63695 -4.9523 3.581
-3.64295 -4.9512 3.57876
-3.54295 -4.7019 3.61784
-3.55995 -4.6983 3.61774
-3.59795 -4.9604 3.58272
-3.61495 -4.9568 3.58262
-3.65395 -5.2169 3.64219
-3.67095 -5.2133 3.64208
-3.68295 -5.2108 3.64167
-3.69895 -5.209 3.63853
-3.69195 -5.2093 3.6406
0.276045 -5.6223 4.67837
0.250045 -5.7359 4.90099
1.10905 -6.4131 4.99378
1.13205 -6.3096 4.79109
1.95005 -7.189 5.05651
1.96905 -7.0983 4.8783
1.97405 -7.0739 4.66858
1.14105 -6.2814 4.55228
0.285045 -5.5913 4.41606
2.78405 -7.97 5.02435
3.62205 -8.6622 4.83246
3.62005 -8.598 4.70308
2.79505 -7.8928 4.87172
3.60805 -8.5844 4.55318
2.79405 -7.8734 4.6929
3.58705 -8.619 4.40741
3.56105 -8.6993 4.29039
2.76105 -7.9988 4.3748
2.78205 -7.9094 4.51742
1.94605 -7.2156 4.29336
1.96705 -7.1138 4.46204
1.11105 -6.441 4.12434
0.253045 -5.7666 3.94604
0.278045 -5.6404 4.15749
1.13405 -6.3261 4.31685
0.107045 -6.4219 5.06286
0.0660453 -6.6264 4.94195
0.941045 -7.2238 5.03108
0.979045 -7.0376 5.14116
1.80405 -7.9038 5.09146
1.83805 -7.7394 5.18759
1.87805 -7.5432 5.21274
1.02405 -6.8151 5.1705
0.158045 -6.1775 5.0951
2.66505 -8.5882 5.06107
3.53405 -9.1989 4.87783
3.56205 -9.0731 4.94145
2.69505 -8.4452 5.1413
3.58905 -8.925 4.95372
2.72905 -8.2752 5.16081
3.61005 -8.7796 4.9167
2.76005 -8.1072 5.12127
1.91705 -7.3485 5.16852
0.208045 -5.9349 5.04052
1.07005 -6.5943 5.12081
0.0410453 -6.7528 4.20963
0.0660453 -6.6356 3.98701
0.941045 -7.2322 4.16164
0.918045 -7.3389 4.36433
1.79805 -7.913 4.3283
1.77905 -8.0067 4.50651
1.77405 -8.0368 4.71623
0.910045 -7.3736 4.60314
0.0320453 -6.7909 4.47193
2.64105 -8.602 4.41147
3.47205 -9.223 4.33565
3.47405 -9.2894 4.46505
2.63005 -8.6817 4.56411
3.48705 -9.3073 4.61498
2.63105 -8.7061 4.74294
3.50805 -9.277 4.7608
2.64305 -8.6751 4.91843
1.78305 -8.0027 4.92278
0.0410453 -6.7491 4.73051
0.918045 -7.3355 4.83856
0.211045 -5.9675 3.82513
1.07305 -6.6239 4.01426
1.91205 -7.377 4.19723
1.87105 -7.5676 4.17207
1.02705 -6.8399 3.98492
0.160045 -6.2048 3.7929
3.53305 -8.8229 4.22675
2.73005 -8.1393 4.29455
3.50505 -8.9668 4.21445
2.69605 -8.3043 4.27503
3.48405 -9.1078 4.25144
2.66505 -8.4674 4.31455
1.83105 -7.7564 4.21629
0.109045 -6.4402 3.84748
0.980045 -7.0543 4.03461
4.47405 -9.1718 4.416
4.45405 -9.1183 4.30411
5.27305 -9.5643 3.83142
5.23105 -9.5191 3.73204
5.17805 -9.519 3.62301
4.42305 -9.1116 4.17736
5.94805 -9.9051 3.13514
6.43405 -10.2598 2.38362
6.35705 -10.2232 2.29758
5.88705 -9.8656 3.04411
6.26805 -10.2315 2.20906
5.81405 -9.8709 2.94771
6.18105 -10.2793 2.13183
6.10905 -10.3614 2.07969
5.68005 -9.9968 2.79966
5.74005 -9.9163 2.86115
5.07505 -9.6382 3.44599
5.12305 -9.5601 3.52182
4.35105 -9.2258 3.96184
4.38705 -9.1484 4.05639
4.42005 -9.6577 4.47972
4.44905 -9.541 4.52719
5.25105 -10.0223 3.91792
5.28305 -9.9092 3.95085
5.29805 -9.7809 3.94477
4.47005 -9.406 4.53046
5.95305 -10.3505 3.24365
6.45305 -10.7001 2.50811
6.49305 -10.5872 2.52131
5.98805 -10.2379 3.26477
6.50305 -10.4624 2.50116
6.00005 -10.1122 3.25042
6.48205 -10.3464 2.45337
5.98605 -9.9943 3.20556
5.29505 -9.6587 3.90365
4.47905 -9.2753 4.49242
4.29505 -9.6999 4.02535
4.31605 -9.7554 4.13729
5.05205 -10.0851 3.53219
5.09405 -10.1322 3.63162
5.14705 -10.136 3.74075
4.34805 -9.766 4.2641
5.68205 -10.4313 2.90777
6.12605 -10.791 2.20374
6.20305 -10.8293 2.28985
5.74405 -10.4726 2.99887
6.29305 -10.8246 2.37852
5.81805 -10.4709 3.0954
6.38105 -10.7804 2.4559
5.89105 -10.4292 3.1821
5.20205 -10.0986 3.84204
4.38405 -9.7331 4.38513
4.32105 -9.3405 3.91434
5.04305 -9.7495 3.41301
5.02705 -9.8741 3.41898
4.30105 -9.4716 3.911
6.06905 -10.4725 2.06642
5.64405 -10.1076 2.77847
6.05905 -10.5937 2.08642
5.63205 -10.2297 2.79269
6.07805 -10.7062 2.13406
5.64405 -10.344 2.83742
5.03005 -9.9926 3.46001
4.29105 -9.5983 3.94897
6.66005 -10.6937 1.63329
6.57805 -10.6572 1.54968
6.70505 -11.1488 0.932405
6.62205 -11.1096 0.847955
6.52305 -11.1143 0.761755
6.48105 -10.6649 1.46463
6.64705 -11.567 0.329205
6.56405 -11.8901 -0.128065
6.47905 -11.8383 -0.226855
6.56405 -11.5226 0.239935
6.37305 -11.8344 -0.330124
6.46405 -11.5231 0.147725
6.26505 -11.8747 -0.421665
6.17205 -11.9555 -0.485234
6.27705 -11.6421 0.0121155
6.36205 -11.5643 0.0669855
6.34405 -11.2368 0.637595
6.42505 -11.1583 0.687176
6.30905 -10.7924 1.3429
6.38705 -10.7117 1.39132
6.67905 -11.1287 1.76252
6.72305 -11.0174 1.77278
6.71405 -11.5858 1.06043
6.76105 -11.4755 1.07157
6.77505 -11.3523 1.05005
6.73305 -10.8942 1.75074
6.63905 -12.0205 0.455426
6.53805 -12.3824 0.00107549
6.59705 -12.2628 0.0204455
6.69105 -11.9083 0.469995
6.62205 -12.1255 0.00145549
6.71105 -11.7811 0.449985
6.61205 -11.9935 -0.0500145
6.69605 -11.6602 0.401135
6.75605 -11.2365 1.00172
6.71205 -10.7795 1.70227
6.32705 -11.2167 1.47172
6.40905 -11.255 1.55539
6.35005 -11.6631 0.765305
6.43405 -11.704 0.849805
6.53305 -11.7029 0.936116
6.50605 -11.2509 1.64057
6.26705 -12.0846 0.138135
6.14405 -12.4359 -0.356194
6.23005 -12.4897 -0.257395
6.35005 -12.1308 0.227435
6.33605 -12.4976 -0.154085
6.45105 -12.134 0.319705
6.44505 -12.4613 -0.0625145
6.55305 -12.0965 0.400515
6.63205 -11.6625 1.01081
6.60205 -11.2076 1.71403
6.26505 -10.9019 1.33256
6.29605 -11.3453 0.626405
6.28105 -11.465 0.647825
6.25405 -11.0215 1.35447
6.11205 -12.0732 -0.504624
6.22405 -11.7525 -0.00249451
6.08705 -12.2065 -0.485665
6.20405 -11.876 0.0174455
6.09705 -12.3344 -0.434234
6.21805 -11.9932 0.0662355
6.30005 -11.5771 0.696046
6.27505 -11.1327 1.4028
6.53405 -12.06 -0.391165
6.43905 -11.9987 -0.504855
6.57305 -12.1298 -0.542925
6.46605 -12.0582 -0.674134
6.33105 -12.0486 -0.812575
6.32105 -11.9915 -0.624485
6.69705 -12.1525 -0.666205
6.92205 -12.181 -0.843825
6.79005 -12.0918 -1.00675
6.57605 -12.0712 -0.814754
6.62305 -12.0794 -1.17879
6.42405 -12.0599 -0.971605
6.45005 -12.1387 -1.33276
6.30005 -12.2648 -1.4415
6.12905 -12.2289 -1.21113
6.26605 -12.114 -1.11199
6.07005 -12.1988 -1.02372
6.19105 -12.0968 -0.936395
6.09405 -12.1244 -0.806145
6.19905 -12.0347 -0.731205
6.49305 -12.6208 -0.249045
6.56205 -12.4859 -0.224755
6.52005 -12.7741 -0.382045
6.60105 -12.6198 -0.353045
6.63805 -12.4409 -0.375065
6.59405 -12.33 -0.244655
6.63605 -12.881 -0.485035
6.85505 -12.9801 -0.645135
6.95605 -12.7889 -0.608784
6.72705 -12.7068 -0.451905
7.00205 -12.567 -0.635814
6.76905 -12.5045 -0.476544
6.99205 -12.3519 -0.717175
6.76005 -12.3083 -0.550725
6.62905 -12.2675 -0.440805
6.58505 -12.1792 -0.302275
6.05105 -12.6715 -0.664055
6.14605 -12.7351 -0.550364
6.01605 -12.8274 -0.862855
6.12305 -12.9016 -0.731645
6.25805 -12.9165 -0.593194
6.26405 -12.7468 -0.430715
6.06605 -12.9397 -1.02996
6.23105 -13.0444 -1.2428
6.36405 -13.1368 -1.07987
6.18705 -13.024 -0.881415
6.53105 -13.1558 -0.907835
6.34005 -13.0412 -0.724564
6.70405 -13.1029 -0.753875
6.49805 -12.9931 -0.584185
6.39805 -12.8735 -0.469385
6.38705 -12.7083 -0.323985
6.02405 -12.257 -0.830435
5.98905 -12.3505 -1.05272
5.95105 -12.5242 -1.0307
5.99205 -12.4084 -0.810555
6.19905 -12.4527 -1.47784
6.03705 -12.4002 -1.24426
6.15205 -12.6681 -1.45081
5.99405 -12.5966 -1.21962
6.16105 -12.8768 -1.36946
6.00305 -12.7869 -1.14544
5.95905 -12.6924 -0.964975
6.00105 -12.5545 -0.752945
7.26505 -12.2683 -1.15865
7.12605 -12.1745 -1.3302
7.63405 -12.398 -1.53184
7.50205 -12.3067 -1.70842
7.33405 -12.2955 -1.89443
6.95105 -12.1614 -1.51135
7.93405 -12.5533 -1.88456
7.83305 -12.476 -2.06474
7.70105 -12.4716 -2.25318
7.34305 -12.6312 -2.45121
7.51205 -12.5194 -2.37353
6.98305 -12.4852 -2.15603
7.14705 -12.3554 -2.04882
6.61005 -12.3566 -1.78797
6.76905 -12.2239 -1.67347
7.19505 -13.1097 -0.949435
7.30105 -12.9085 -0.911165
7.56405 -13.2321 -1.32432
7.67505 -13.0347 -1.29252
7.73005 -12.8052 -1.32692
7.35005 -12.6749 -0.939624
7.87005 -13.3093 -1.69618
7.99105 -13.1366 -1.68633
8.06105 -12.9354 -1.73669
8.02605 -12.7237 -1.78899
7.71305 -12.5786 -1.40568
7.33905 -12.4483 -1.02528
6.53805 -13.1775 -1.57875
6.67705 -13.2748 -1.40719
6.91205 -13.2997 -1.94852
7.05705 -13.3986 -1.78458
7.23705 -13.4205 -1.61124
6.85305 -13.2947 -1.22605
7.27805 -13.3719 -2.26283
7.42905 -13.4688 -2.13327
7.61305 -13.4954 -1.99545
7.75205 -13.4356 -1.82448
7.41205 -13.3629 -1.44419
7.03605 -13.2391 -1.06392
6.50405 -12.5545 -1.82623
6.88405 -12.6837 -2.20049
6.84105 -12.9108 -2.17874
6.45405 -12.7813 -1.79778
7.27205 -12.8184 -2.51167
7.25205 -13.0316 -2.51193
7.23705 -13.2211 -2.40902
6.84505 -13.1267 -2.08732
6.46505 -13.001 -1.71211
-2.80295 -4.4666 4.55168
-2.83095 -4.5904 4.79423
-2.23995 -4.715 4.79795
-2.21195 -4.5912 4.55539
-1.48695 -4.9232 4.81142
-1.45895 -4.8004 4.57086
-1.44895 -4.767 4.28741
-2.20195 -4.5574 4.2696
-2.79295 -4.4329 4.26589
-0.635955 -5.2514 4.84298
-0.608955 -5.1317 4.6084
-0.598955 -5.0991 4.33201
-0.632955 -5.2838 3.83673
-0.606955 -5.1507 4.05953
-1.48395 -4.9564 3.77951
-1.45795 -4.8199 4.008
-2.23695 -4.7484 3.75749
-2.82795 -4.6239 3.75378
-2.80195 -4.4863 3.98416
-2.20995 -4.6108 3.98787
-2.87395 -4.8427 3.62204
-2.28295 -4.9673 3.62575
-1.52995 -5.1735 3.64885
-1.58495 -5.4298 3.61403
-2.33795 -5.2258 3.59063
-2.92995 -5.1012 3.58692
-0.677955 -5.4954 3.70932
-0.730955 -5.7454 3.67536
-0.829955 -6.1994 3.8799
-0.784955 -5.9935 3.73287
-1.68595 -5.8954 3.82378
-1.63995 -5.6842 3.673
-2.43995 -5.6952 3.80213
-3.03195 -5.5706 3.79841
-2.98495 -5.3577 3.64639
-2.39395 -5.4823 3.6501
-3.05995 -5.6983 4.04097
-2.46795 -5.8229 4.04468
-1.71395 -6.0221 4.06434
-1.72295 -6.0632 4.34778
-2.47795 -5.8645 4.33047
-3.06895 -5.7399 4.32676
-0.856955 -6.3229 4.11448
-0.865955 -6.3631 4.39087
-0.830955 -6.1897 4.88615
-0.856955 -6.319 4.66334
-1.68695 -5.8854 4.85569
-1.71395 -6.018 4.6272
-2.44095 -5.6852 4.84259
-3.03295 -5.5606 4.83887
-3.05995 -5.6943 4.60849
-2.46895 -5.8189 4.6122
-2.98695 -5.3378 4.97061
-2.39595 -5.4624 4.97432
-1.64195 -5.6645 4.98634
-1.58695 -5.4004 5.02117
-2.34095 -5.1961 5.00944
-2.93195 -5.0715 5.00573
-0.786955 -5.9743 5.01356
-0.733955 -5.7167 5.04752
-0.680955 -5.4611 4.99001
-1.53295 -5.1382 4.96219
-2.87795 -4.8072 4.94626
-2.28595 -4.9318 4.94997
-3.47395 -4.4878 3.74972
-3.51995 -4.7066 3.61798
-3.39195 -4.5051 3.75024
-3.43795 -4.7239 3.6185
-3.49395 -4.9824 3.58338
-3.57595 -4.9651 3.58286
-3.19495 -4.5466 3.75147
-3.24095 -4.7654 3.61974
-3.29695 -5.0239 3.58462
-3.39795 -5.4934 3.79611
-3.35195 -5.2804 3.64408
-3.59595 -5.4518 3.79487
-3.54895 -5.2389 3.64285
-3.67795 -5.4345 3.79436
-3.63095 -5.2216 3.64233
-3.70595 -5.5622 4.03691
-3.62295 -5.5795 4.03743
-3.63295 -5.6211 4.32322
-3.71495 -5.6038 4.3227
-3.42595 -5.6211 4.03867
-3.43595 -5.6626 4.32446
-3.39895 -5.4833 4.83657
-3.42695 -5.617 4.60619
-3.59595 -5.4418 4.83533
-3.62395 -5.5755 4.60495
-3.67895 -5.4245 4.83482
-3.70595 -5.5582 4.60444
-3.63295 -5.2017 4.96655
-3.55095 -5.219 4.96707
-3.49595 -4.9527 5.00219
-3.57795 -4.9354 5.00167
-3.35395 -5.2605 4.96831
-3.29895 -4.9943 5.00343
-3.19795 -4.5131 4.79193
-3.24395 -4.7299 4.94396
-3.39495 -4.4716 4.79069
-3.44095 -4.6884 4.94272
-3.47695 -4.4543 4.79018
-3.52395 -4.6711 4.9422
-3.44895 -4.3305 4.54762
-3.36695 -4.3478 4.54814
-3.35695 -4.3141 4.26235
-3.43895 -4.2968 4.26183
-3.16995 -4.3893 4.54938
-3.15995 -4.3556 4.26359
-3.16795 -4.409 3.98185
-3.36495 -4.3675 3.98062
-3.44795 -4.3502 3.9801
-3.58595 -4.6638 3.53633
-3.54095 -4.4457 3.71681
-3.58995 -4.6776 3.57719
-3.54395 -4.461 3.73523
-3.59095 -4.6855 3.60009
-3.64795 -4.9507 3.56406
-3.64795 -4.9516 3.53997
-3.54395 -4.4683 3.74364
-3.58995 -4.6894 3.61053
-3.64595 -4.9506 3.57505
-3.74895 -5.4249 3.78874
-3.70195 -5.2097 3.63513
-3.75295 -5.4322 3.78102
-3.70495 -5.2138 3.62506
-3.78095 -5.5632 4.02985
-3.79095 -5.6059 4.32304
-3.79595 -5.6284 4.32406
-3.77695 -5.5539 4.03381
-3.78695 -5.5959 4.32258
-3.74995 -5.4147 4.84002
-3.77795 -5.5498 4.60724
-3.75295 -5.4219 4.8484
-3.78195 -5.5591 4.61206
-3.75695 -5.4384 4.86681
-3.70695 -5.1934 4.98354
-3.65095 -4.9202 5.01957
-3.65095 -4.9201 5.04365
-3.70395 -5.1896 4.97312
-3.64895 -4.9206 5.0086
-3.54695 -4.4344 4.79491
-3.59295 -4.6535 4.94852
-3.54695 -4.4266 4.80261
-3.59395 -4.6491 4.95856
-3.54395 -4.4102 4.8195
-3.51795 -4.2996 4.55377
-3.50795 -4.265 4.26059
-3.50395 -4.2433 4.25956
-3.51795 -4.3094 4.54984
-3.50795 -4.2753 4.26108
-3.51695 -4.3292 3.97641
-3.51595 -4.3198 3.97157
-3.50495 -4.2644 3.94205
-3.51295 -4.2998 3.96097
3 0 1 2
3 0 2 3
3 2 4 5
3 2 5 3
3 5 6 7
3 5 7 3
3 7 8 0
3 7 0 3
3 9 10 11
3 9 11 12
3 11 13 14
3 11 14 12
3 14 6 5
3 14 5 12
3 5 4 9
3 5 9 12
3 15 16 17
3 15 17 18
3 17 19 20
3 17 20 18
3 20 6 14
3 20 14 18
3 14 13 15
3 14 15 18
3 21 22 23
3 21 23 24
3 23 8 7
3 23 7 24
3 7 6 20
3 7 20 24
3 20 19 21
3 20 21 24
3 25 26 27
3 25 27 28
3 27 29 30
3 27 30 28
3 30 31 32
3 30 32 28
3 32 33 25
3 32 25 28
3 34 35 36
3 34 36 37
3 36 38 39
3 36 39 37
3 39 31 30
3 39 30 37
3 30 29 34
3 30 34 37
3 40 41 42
3 40 42 43
3 42 44 45
3 42 45 43
3 45 31 39
3 45 39 43
3 39 38 40
3 39 40 43
3 46 47 48
3 46 48 49
3 48 33 32
3 48 32 49
3 32 31 45
3 32 45 49
3 45 44 46
3 45 46 49
3 50 51 52
3 50 52 53
3 52 54 55
3 52 55 53
3 55 56 57
3 55 57 53
3 57 58 50
3 57 50 53
3 59 60 61
3 59 61 62
3 61 63 64
3 61 64 62
3 64 56 55
3 64 55 62
3 55 54 59
3 55 59 62
3 65 35 34
3 65 34 66
3 34 29 67
3 34 67 66
3 67 56 64
3 67 64 66
3 64 63 65
3 64 65 66
3 27 26 68
3 27 68 69
3 68 58 57
3 68 57 69
3 57 56 67
3 57 67 69
3 67 29 27
3 67 27 69
3 70 71 72
3 70 72 73
3 72 74 75
3 72 75 73
3 75 76 77
3 75 77 73
3 77 78 70
3 77 70 73
3 79 80 81
3 79 81 82
3 81 83 84
3 81 84 82
3 84 76 75
3 84 75 82
3 75 74 79
3 75 79 82
3 85 60 59
3 85 59 86
3 59 54 87
3 59 87 86
3 87 76 84
3 87 84 86
3 84 83 85
3 84 85 86
3 52 51 88
3 52 88 89
3 88 78 77
3 88 77 89
3 77 76 87
3 77 87 89
3 87 54 52
3 87 52 89
3 90 47 46
3 90 46 91
3 46 44 92
3 46 92 91
3 92 93 94
3 92 94 91
3 94 95 90
3 94 90 91
3 42 41 96
3 42 96 97
3 96 98 99
3 96 99 97
3 99 93 92
3 99 92 97
3 92 44 42
3 92 42 97
3 100 80 79
3 100 79 101
3 79 74 102
3 79 102 101
3 102 93 99
3 102 99 101
3 99 98 100
3 99 100 101
3 72 71 103
3 72 103 104
3 103 95 94
3 103 94 104
3 94 93 102
3 94 102 104
3 102 74 72
3 102 72 104
3 105 106 107
3 105 107 108
3 107 109 110
3 107 110 108
3 110 111 112
3 110 112 108
3 112 113 105
3 112 105 108
3 114 115 116
3 114 116 117
3 116 118 119
3 116 119 117
3 119 111 110
3 119 110 117
3 110 109 114
3 110 114 117
3 120 121 122
3 120 122 123
3 122 124 125
3 122 125 123
3 125 111 119
3 125 119 123
3 119 118 120
3 119 120 123
3 126 127 128
3 126 128 129
3 128 113 112
3 128 112 129
3 112 111 125
3 112 125 129
3 125 124 126
3 125 126 129
3 130 131 132
3 130 132 133
3 132 134 135
3 132 135 133
3 135 136 137
3 135 137 133
3 137 138 130
3 137 130 133
3 139 140 141
3 139 141 142
3 141 143 144
3 141 144 142
3 144 136 135
3 144 135 142
3 135 134 139
3 135 139 142
3 145 115 114
3 145 114 146
3 114 109 147
3 114 147 146
3 147 136 144
3 147 144 146
3 144 143 145
3 144 145 146
3 107 106 148
3 107 148 149
3 148 138 137
3 148 137 149
3 137 136 147
3 137 147 149
3 147 109 107
3 147 107 149
3 150 151 152
3 150 152 153
3 152 154 155
3 152 155 153
3 155 156 157
3 155 157 153
3 157 158 150
3 157 150 153
3 159 160 161
3 159 161 162
3 161 163 164
3 161 164 162
3 164 156 155
3 164 155 162
3 155 154 159
3 155 159 162
3 165 140 139
3 165 139 166
3 139 134 167
3 139 167 166
3 167 156 164
3 167 164 166
3 164 163 165
3 164 165 166
3 132 131 168
3 132 168 169
3 168 158 157
3 168 157 169
3 157 156 167
3 157 167 169
3 167 134 132
3 167 132 169
3 170 127 126
3 170 126 171
3 126 124 172
3 126 172 171
3 172 173 174
3 172 174 171
3 174 175 170
3 174 170 171
3 122 121 176
3 122 176 177
3 176 178 179
3 176 179 177
3 179 173 172
3 179 172 177
3 172 124 122
3 172 122 177
3 180 160 159
3 180 159 181
3 159 154 182
3 159 182 181
3 182 173 179
3 182 179 181
3 179 178 180
3 179 180 181
3 152 151 183
3 152 183 184
3 183 175 174
3 183 174 184
3 174 173 182
3 174 182 184
3 182 154 152
3 182 152 184
3 116 115 185
3 116 185 186
3 185 187 188
3 185 188 186
3 188 189 190
3 188 190 186
3 190 118 116
3 190 116 186
3 191 192 193
3 191 193 194
3 193 195 196
3 193 196 194
3 196 189 188
3 196 188 194
3 188 187 191
3 188 191 194
3 197 198 199
3 197 199 200
3 199 201 202
3 199 202 200
3 202 189 196
3 202 196 200
3 196 195 197
3 196 197 200
3 203 121 120
3 203 120 204
3 120 118 190
3 120 190 204
3 190 189 202
3 190 202 204
3 202 201 203
3 202 203 204
3 141 140 205
3 141 205 206
3 205 207 208
3 205 208 206
3 208 209 210
3 208 210 206
3 210 143 141
3 210 141 206
3 211 212 213
3 211 213 214
3 213 215 216
3 213 216 214
3 216 209 208
3 216 208 214
3 208 207 211
3 208 211 214
3 217 192 191
3 217 191 218
3 191 187 219
3 191 219 218
3 219 209 216
3 219 216 218
3 216 215 217
3 216 217 218
3 185 115 145
3 185 145 220
3 145 143 210
3 145 210 220
3 210 209 219
3 210 219 220
3 219 187 185
3 219 185 220
3 161 160 221
3 161 221 222
3 221 223 224
3 221 224 222
3 224 225 226
3 224 226 222
3 226 163 161
3 226 161 222
3 227 228 229
3 227 229 230
3 229 231 232
3 229 232 230
3 232 225 224
3 232 224 230
3 224 223 227
3 224 227 230
3 233 212 211
3 233 211 234
3 211 207 235
3 211 235 234
3 235 225 232
3 235 232 234
3 232 231 233
3 232 233 234
3 205 140 165
3 205 165 236
3 165 163 226
3 165 226 236
3 226 225 235
3 226 235 236
3 235 207 205
3 235 205 236
3 176 121 203
3 176 203 237
3 203 201 238
3 203 238 237
3 238 239 240
3 238 240 237
3 240 178 176
3 240 176 237
3 199 198 241
3 199 241 242
3 241 243 244
3 241 244 242
3 244 239 238
3 244 238 242
3 238 201 199
3 238 199 242
3 245 228 227
3 245 227 246
3 227 223 247
3 227 247 246
3 247 239 244
3 247 244 246
3 244 243 245
3 244 245 246
3 221 160 180
3 221 180 248
3 180 178 240
3 180 240 248
3 240 239 247
3 240 247 248
3 247 223 221
3 247 221 248
3 193 192 249
3 193 249 250
3 249 251 252
3 249 252 250
3 252 253 254
3 252 254 250
3 254 195 193
3 254 193 250
3 255 256 257
3 255 257 258
3 257 259 260
3 257 260 258
3 260 253 252
3 260 252 258
3 252 251 255
3 252 255 258
3 261 262 263
3 261 263 264
3 263 265 266
3 263 266 264
3 266 253 260
3 266 260 264
3 260 259 261
3 260 261 264
3 267 198 197
3 267 197 268
3 197 195 254
3 197 254 268
3 254 253 266
3 254 266 268
3 266 265 267
3 266 267 268
3 213 212 269
3 213 269 270
3 269 271 272
3 269 272 270
3 272 273 274
3 272 274 270
3 274 215 213
3 274 213 270
3 275 276 277
3 275 277 278
3 277 279 280
3 277 280 278
3 280 273 272
3 280 272 278
3 272 271 275
3 272 275 278
3 281 256 255
3 281 255 282
3 255 251 283
3 255 283 282
3 283 273 280
3 283 280 282
3 280 279 281
3 280 281 282
3 249 192 217
3 249 217 284
3 217 215 274
3 217 274 284
3 274 273 283
3 274 283 284
3 283 251 249
3 283 249 284
3 229 228 285
3 229 285 286
3 285 287 288
3 285 288 286
3 288 289 290
3 288 290 286
3 290 231 229
3 290 229 286
3 291 292 293
3 291 293 294
3 293 295 296
3 293 296 294
3 296 289 288
3 296 288 294
3 288 287 291
3 288 291 294
3 297 276 275
3 297 275 298
3 275 271 299
3 275 299 298
3 299 289 296
3 299 296 298
3 296 295 297
3 296 297 298
3 269 212 233
3 269 233 300
3 233 231 290
3 233 290 300
3 290 289 299
3 290 299 300
3 299 271 269
3 299 269 300
3 241 198 267
3 241 267 301
3 267 265 302
3 267 302 301
3 302 303 304
3 302 304 301
3 304 243 241
3 304 241 301
3 263 262 305
3 263 305 306
3 305 307 308
3 305 308 306
3 308 303 302
3 308 302 306
3 302 265 263
3 302 263 306
3 309 292 291
3 309 291 310
3 291 287 311
3 291 311 310
3 311 303 308
3 311 308 310
3 308 307 309
3 308 309 310
3 285 228 245
3 285 245 312
3 245 243 304
3 245 304 312
3 304 303 311
3 304 311 312
3 311 287 285
3 311 285 312
3 257 256 313
3 257 313 314
3 313 315 316
3 313 316 314
3 316 317 318
3 316 318 314
3 318 259 257
3 318 257 314
3 319 320 321
3 319 321 322
3 321 323 324
3 321 324 322
3 324 317 316
3 324 316 322
3 316 315 319
3 316 319 322
3 325 326 327
3 325 327 328
3 327 329 330
3 327 330 328
3 330 317 324
3 330 324 328
3 324 323 325
3 324 325 328
3 331 262 261
3 331 261 332
3 261 259 318
3 261 318 332
3 318 317 330
3 318 330 332
3 330 329 331
3 330 331 332
3 277 276 333
3 277 333 334
3 333 335 336
3 333 336 334
3 336 337 338
3 336 338 334
3 338 279 277
3 338 277 334
3 339 340 341
3 339 341 342
3 341 343 344
3 341 344 342
3 344 337 336
3 344 336 342
3 336 335 339
3 336 339 342
3 345 320 319
3 345 319 346
3 319 315 347
3 319 347 346
3 347 337 344
3 347 344 346
3 344 343 345
3 344 345 346
3 313 256 281
3 313 281 348
3 281 279 338
3 281 338 348
3 338 337 347
3 338 347 348
3 347 315 313
3 347 313 348
3 293 292 349
3 293 349 350
3 349 351 352
3 349 352 350
3 352 353 354
3 352 354 350
3 354 295 293
3 354 293 350
3 355 356 357
3 355 357 358
3 357 359 360
3 357 360 358
3 360 353 352
3 360 352 358
3 352 351 355
3 352 355 358
3 361 340 339
3 361 339 362
3 339 335 363
3 339 363 362
3 363 353 360
3 363 360 362
3 360 359 361
3 360 361 362
3 333 276 297
3 333 297 364
3 297 295 354
3 297 354 364
3 354 353 363
3 354 363 364
3 363 335 333
3 363 333 364
3 305 262 331
3 305 331 365
3 331 329 366
3 331 366 365
3 366 367 368
3 366 368 365
3 368 307 305
3 368 305 365
3 327 326 369
3 327 369 370
3 369 371 372
3 369 372 370
3 372 367 366
3 372 366 370
3 366 329 327
3 366 327 370
3 373 356 355
3 373 355 374
3 355 351 375
3 355 375 374
3 375 367 372
3 375 372 374
3 372 371 373
3 372 373 374
3 349 292 309
3 349 309 376
3 309 307 368
3 309 368 376
3 368 367 375
3 368 375 376
3 375 351 349
3 375 349 376
3 321 320 377
3 321 377 378
3 377 379 380
3 377 380 378
3 380 381 382
3 380 382 378
3 382 323 321
3 382 321 378
3 383 1 0
3 383 0 384
3 0 8 385
3 0 385 384
3 385 381 380
3 385 380 384
3 380 379 383
3 380 383 384
3 23 22 386
3 23 386 387
3 386 388 389
3 386 389 387
3 389 381 385
3 389 385 387
3 385 8 23
3 385 23 387
3 390 326 325
3 390 325 391
3 325 323 382
3 325 382 391
3 382 381 389
3 382 389 391
3 389 388 390
3 389 390 391
3 341 340 392
3 341 392 393
3 392 394 395
3 392 395 393
3 395 396 397
3 395 397 393
3 397 343 341
3 397 341 393
3 398 10 9
3 398 9 399
3 9 4 400
3 9 400 399
3 400 396 395
3 400 395 399
3 395 394 398
3 395 398 399
3 2 1 383
3 2 383 401
3 383 379 402
3 383 402 401
3 402 396 400
3 402 400 401
3 400 4 2
3 400 2 401
3 377 320 345
3 377 345 403
3 345 343 397
3 345 397 403
3 397 396 402
3 397 402 403
3 402 379 377
3 402 377 403
3 357 356 404
3 357 404 405
3 404 406 407
3 404 407 405
3 407 408 409
3 407 409 405
3 409 359 357
3 409 357 405
3 410 16 15
3 410 15 411
3 15 13 412
3 15 412 411
3 412 408 407
3 412 407 411
3 407 406 410
3 407 410 411
3 11 10 398
3 11 398 413
3 398 394 414
3 398 414 413
3 414 408 412
3 414 412 413
3 412 13 11
3 412 11 413
3 392 340 361
3 392 361 415
3 361 359 409
3 361 409 415
3 409 408 414
3 409 414 415
3 414 394 392
3 414 392 415
3 369 326 390
3 369 390 416
3 390 388 417
3 390 417 416
3 417 418 419
3 417 419 416
3 419 371 369
3 419 369 416
3 386 22 21
3 386 21 420
3 21 19 421
3 21 421 420
3 421 418 417
3 421 417 420
3 417 388 386
3 417 386 420
3 17 16 410
3 17 410 422
3 410 406 423
3 410 423 422
3 423 418 421
3 423 421 422
3 421 19 17
3 421 17 422
3 404 356 373
3 404 373 424
3 373 371 419
3 373 419 424
3 419 418 423
3 419 423 424
3 423 406 404
3 423 404 424
3 425 426 427
3 425 427 428
3 427 429 430
3 427 430 428
3 430 431 432
3 430 432 428
3 432 433 425
3 432 425 428
3 434 106 105
3 434 105 435
3 105 113 436
3 105 436 435
3 436 431 430
3 436 430 435
3 430 429 434
3 430 434 435
3 128 127 437
3 128 437 438
3 437 439 440
3 437 440 438
3 440 431 436
3 440 436 438
3 436 113 128
3 436 128 438
3 441 442 443
3 441 443 444
3 443 433 432
3 443 432 444
3 432 431 440
3 432 440 444
3 440 439 441
3 440 441 444
3 445 442 441
3 445 441 446
3 441 439 447
3 441 447 446
3 447 448 449
3 447 449 446
3 449 450 445
3 449 445 446
3 437 127 170
3 437 170 451
3 170 175 452
3 170 452 451
3 452 448 447
3 452 447 451
3 447 439 437
3 447 437 451
3 183 151 453
3 183 453 454
3 453 455 456
3 453 456 454
3 456 448 452
3 456 452 454
3 452 175 183
3 452 183 454
3 457 458 459
3 457 459 460
3 459 450 449
3 459 449 460
3 449 448 456
3 449 456 460
3 456 455 457
3 456 457 460
3 461 458 457
3 461 457 462
3 457 455 463
3 457 463 462
3 463 464 465
3 463 465 462
3 465 466 461
3 465 461 462
3 453 151 150
3 453 150 467
3 150 158 468
3 150 468 467
3 468 464 463
3 468 463 467
3 463 455 453
3 463 453 467
3 168 131 469
3 168 469 470
3 469 471 472
3 469 472 470
3 472 464 468
3 472 468 470
3 468 158 168
3 468 168 470
3 473 474 475
3 473 475 476
3 475 466 465
3 475 465 476
3 465 464 472
3 465 472 476
3 472 471 473
3 472 473 476
3 477 474 473
3 477 473 478
3 473 471 479
3 473 479 478
3 479 480 481
3 479 481 478
3 481 482 477
3 481 477 478
3 469 131 130
3 469 130 483
3 130 138 484
3 130 484 483
3 484 480 479
3 484 479 483
3 479 471 469
3 479 469 483
3 148 106 434
3 148 434 485
3 434 429 486
3 434 486 485
3 486 480 484
3 486 484 485
3 484 138 148
3 484 148 485
3 427 426 487
3 427 487 488
3 487 482 481
3 487 481 488
3 481 480 486
3 481 486 488
3 486 429 427
3 486 427 488
3 96 41 489
3 96 489 490
3 489 491 492
3 489 492 490
3 492 493 494
3 492 494 490
3 494 98 96
3 494 96 490
3 495 442 445
3 495 445 496
3 445 450 497
3 445 497 496
3 497 493 492
3 497 492 496
3 492 491 495
3 492 495 496
3 459 458 498
3 459 498 499
3 498 500 501
3 498 501 499
3 501 493 497
3 501 497 499
3 497 450 459
3 497 459 499
3 502 80 100
3 502 100 503
3 100 98 494
3 100 494 503
3 494 493 501
3 494 501 503
3 501 500 502
3 501 502 503
3 81 80 502
3 81 502 504
3 502 500 505
3 502 505 504
3 505 506 507
3 505 507 504
3 507 83 81
3 507 81 504
3 498 458 461
3 498 461 508
3 461 466 509
3 461 509 508
3 509 506 505
3 509 505 508
3 505 500 498
3 505 498 508
3 475 474 510
3 475 510 511
3 510 512 513
3 510 513 511
3 513 506 509
3 513 509 511
3 509 466 475
3 509 475 511
3 514 60 85
3 514 85 515
3 85 83 507
3 85 507 515
3 507 506 513
3 507 513 515
3 513 512 514
3 513 514 515
3 61 60 514
3 61 514 516
3 514 512 517
3 514 517 516
3 517 518 519
3 517 519 516
3 519 63 61
3 519 61 516
3 510 474 477
3 510 477 520
3 477 482 521
3 477 521 520
3 521 518 517
3 521 517 520
3 517 512 510
3 517 510 520
3 487 426 522
3 487 522 523
3 522 524 525
3 522 525 523
3 525 518 521
3 525 521 523
3 521 482 487
3 521 487 523
3 526 35 65
3 526 65 527
3 65 63 519
3 65 519 527
3 519 518 525
3 519 525 527
3 525 524 526
3 525 526 527
3 36 35 526
3 36 526 528
3 526 524 529
3 526 529 528
3 529 530 531
3 529 531 528
3 531 38 36
3 531 36 528
3 522 426 425
3 522 425 532
3 425 433 533
3 425 533 532
3 533 530 529
3 533 529 532
3 529 524 522
3 529 522 532
3 443 442 495
3 443 495 534
3 495 491 535
3 495 535 534
3 535 530 533
3 535 533 534
3 533 433 443
3 533 443 534
3 489 41 40
3 489 40 536
3 40 38 531
3 40 531 536
3 531 530 535
3 531 535 536
3 535 491 489
3 535 489 536
3 537 538 539
3 538 540 541
3 538 541 539
3 541 542 543
3 541 543 539
3 543 537 539
3 544 47 90
3 544 90 545
3 90 95 546
3 90 546 545
3 546 542 541
3 546 541 545
3 541 540 544
3 541 544 545
3 103 71 547
3 103 547 548
3 547 549 550
3 547 550 548
3 550 542 546
3 550 546 548
3 546 95 103
3 546 103 548
3 543 542 550
3 551 552 553
3 547 71 70
3 547 70 554
3 70 78 555
3 70 555 554
3 555 552 551
3 555 551 554
3 551 549 547
3 551 547 554
3 88 51 556
3 88 556 557
3 556 558 559
3 556 559 557
3 559 552 555
3 559 555 557
3 555 78 88
3 555 88 557
3 553 552 559
3 559 558 560
3 560 558 561
3 561 562 563
3 556 51 50
3 556 50 564
3 50 58 565
3 50 565 564
3 565 562 561
3 565 561 564
3 561 558 556
3 561 556 564
3 68 26 566
3 68 566 567
3 566 568 569
3 566 569 567
3 569 562 565
3 569 565 567
3 565 58 68
3 565 68 567
3 563 562 569
3 569 568 570
3 570 568 571
3 571 572 573
3 566 26 25
3 566 25 574
3 25 33 575
3 25 575 574
3 575 572 571
3 575 571 574
3 571 568 566
3 571 566 574
3 48 47 544
3 48 544 576
3 544 540 577
3 544 577 576
3 577 572 575
3 577 575 576
3 575 33 48
3 575 48 576
3 538 578 579
3 578 573 579
3 573 572 577
3 573 577 579
3 577 540 538
3 577 538 579
