OFF
161 312 0
-0.484265 -14.0232 -6.73622
-0.219265 -14.3041 -6.65322
-0.310265 -14.4345 -6.88422
-0.691265 -14.311 -6.94022
-0.898265 -13.9176 -6.65922
-0.293265 -14.6344 -6.15122
-0.363265 -14.8069 -6.54622
-0.559265 -14.7382 -6.80422
-0.704265 -14.8716 -6.44722
-1.11226 -14.7591 -6.33122
-1.22926 -14.5034 -6.51222
-0.936265 -14.4708 -6.81322
-1.52226 -14.203 -6.10722
-1.19226 -14.0776 -6.54622
-2.43626 -3.88579 3.82068
-3.26426 -4.59729 3.67598
-2.93726 -3.81229 3.71238
-1.99926 -4.56429 4.38838
-3.01926 -5.31849 4.26048
-2.72626 -4.8619 4.10498
-2.43826 -4.9961 4.69738
-4.70726 -5.8482 3.09818
-4.53026 -5.87959 3.13498
-5.18026 -6.68759 2.68758
-5.67326 -7.60499 2.17078
-5.86926 -7.62 2.13028
-5.55926 -6.81539 2.64488
-4.63726 -5.5188 3.26838
-6.13126 -8.5815 1.49428
-6.29426 -9.56069 0.749981
-6.43126 -9.56989 0.735581
-6.37226 -8.63309 1.50408
-6.61126 -9.663 0.791881
-6.48126 -8.729 1.57238
-6.16626 -7.83829 2.24508
-6.05326 -7.6727 2.19168
-5.66426 -6.85089 2.78748
-5.24326 -6.1829 3.22778
-4.90826 -5.7313 3.25278
-4.25626 -6.36839 3.50678
-4.90226 -7.16579 3.04318
-4.87726 -6.9486 2.91748
-5.44226 -7.9634 2.38968
-5.52226 -7.7015 2.24608
-4.33726 -6.02469 3.26088
-5.91226 -8.9826 1.68528
-6.12626 -9.94069 0.862381
-6.10426 -9.80809 0.820181
-5.89826 -8.7781 1.61198
-6.17626 -9.6406 0.778381
-5.99626 -8.64709 1.54108
-4.99826 -6.77609 2.78158
-4.57126 -6.35679 3.78308
-4.69226 -6.2158 3.79388
-5.52626 -7.27789 3.03318
-5.29926 -7.29879 3.10758
-5.88926 -8.18849 2.42768
-5.41926 -7.67879 2.83188
-4.29926 -6.2664 3.85898
-6.34226 -9.0541 1.69158
-6.54126 -9.96189 0.879081
-6.30926 -9.9938 0.918581
-6.12426 -9.1186 1.68808
-5.54826 -8.10149 2.44938
-4.40226 -6.5235 3.61578
-4.99826 -7.25039 3.09338
-5.70526 -7.0662 2.88348
-6.09226 -8.0472 2.36728
-5.15026 -6.43509 3.44668
-6.63726 -9.7901 0.833781
-6.48826 -8.8898 1.62228
-6.18526 -10.4829 -0.104819
-5.87826 -11.3294 -0.984119
-6.09026 -11.4189 -0.951919
-6.40526 -10.5286 -0.083419
-4.63726 -12.6611 -2.57722
-4.89426 -12.7472 -2.53622
-5.50426 -12.1176 -1.80522
-5.32426 -12.0717 -1.83222
-5.59026 -12.2494 -1.77322
-6.50126 -10.6628 -0.043719
-6.01326 -10.8379 -0.035819
-6.01826 -10.6676 -0.071719
-5.66926 -11.6906 -0.934219
-5.66126 -11.5333 -0.965819
-5.11126 -12.3911 -1.79422
-4.48926 -13.04 -2.52222
-4.46926 -12.8607 -2.55722
-5.17826 -12.1733 -1.82722
-5.75426 -11.3964 -0.983819
-6.32226 -10.9096 0.00458105
-6.16426 -10.9401 -0.017719
-6.00326 -11.7308 -0.891919
-5.83226 -11.7586 -0.892919
-5.49526 -12.4548 -1.74422
-4.56926 -13.1873 -2.60922
-5.26926 -12.5007 -1.75922
-6.12026 -11.5941 -0.911819
-6.44526 -10.8241 -0.00441895
-4.90626 -12.9719 -2.49322
-3.21326 -13.3427 -3.58222
-3.53226 -13.4918 -3.52322
-4.20626 -13.1794 -3.10622
-3.95226 -13.0771 -3.14922
-1.84926 -13.6368 -4.25522
-2.89726 -13.7325 -3.81422
-3.73826 -13.3977 -3.11222
-3.00826 -13.6777 -3.54222
-3.80526 -13.1794 -3.14522
-1.51126 -13.5936 -4.35722
-2.37126 -13.726 -3.86822
-1.27326 -14.0325 -4.26722
-4.12226 -13.4607 -3.06222
-3.23426 -13.8117 -3.55022
-2.28026 -14.0079 -3.91122
-2.02826 -13.8723 -4.20622
-1.40826 -13.5634 -5.09222
-1.49126 -13.6538 -5.46522
-1.67526 -13.7959 -5.43822
-1.78726 -13.9803 -5.37222
-1.10926 -14.2331 -4.47622
-0.782265 -14.1083 -5.03422
-1.22326 -13.7266 -4.55222
-1.80226 -14.1871 -4.12322
-1.46826 -14.5611 -4.93222
-1.38426 -14.3987 -4.45722
-1.79226 -14.1864 -5.34522
-1.77126 -14.3497 -4.84422
-0.993265 -13.6139 -5.60822
-1.08126 -13.6561 -6.01222
-0.756265 -13.7474 -6.22522
-1.26926 -13.8305 -6.24022
-0.516265 -14.4356 -5.49822
-0.333265 -14.2836 -5.97022
-0.612265 -13.9661 -5.57822
-0.389265 -14.0112 -6.28322
-0.751265 -13.7606 -5.66922
-0.933265 -14.7506 -5.42222
-1.15026 -14.8002 -5.79822
-0.631265 -14.8773 -6.10822
-0.601265 -14.6199 -5.52222
-1.48326 -14.5249 -5.95022
-1.46026 -14.6218 -5.54622
-3.89026 -4.84839 3.50418
-3.85626 -4.5898 3.59008
-3.92626 -5.26519 3.44048
-4.79026 -5.52439 3.52468
-4.23726 -4.83019 3.74688
-4.13126 -4.74579 3.62938
-3.51926 -4.05459 3.85838
-3.64826 -4.45659 4.16958
-4.31226 -5.10889 3.93338
-4.70026 -5.8004 3.79488
-4.03926 -5.41299 4.23228
-3.43226 -5.5273 4.36678
-3.67426 -5.51449 4.35588
-3.71226 -5.86569 3.92488
-3.52426 -5.68899 4.19108
-3.26426 -4.94169 3.76928
-3.15326 -5.2695 4.04068
-3.67926 -5.60369 3.72388
3 0 1 2
3 2 3 0
3 3 4 0
3 1 5 6
3 1 6 2
3 6 7 2
3 7 3 2
3 8 9 7
3 9 10 11
3 9 11 7
3 11 3 7
3 7 6 8
3 10 12 13
3 10 13 11
3 13 4 3
3 13 3 11
3 14 15 16
3 14 17 15
3 17 18 19
3 20 18 17
3 21 22 23
3 23 24 25
3 25 26 23
3 26 27 21
3 26 21 23
3 28 29 30
3 30 31 28
3 31 25 28
3 25 24 28
3 32 33 31
3 33 34 35
3 33 35 31
3 35 25 31
3 31 30 32
3 36 37 38
3 36 38 26
3 38 27 26
3 26 25 35
3 35 34 36
3 35 36 26
3 39 40 41
3 40 42 41
3 42 43 41
3 41 44 39
3 45 46 47
3 45 47 48
3 47 49 48
3 48 43 42
3 42 45 48
3 49 29 28
3 49 28 50
3 28 24 43
3 28 43 50
3 43 48 50
3 48 49 50
3 23 22 44
3 23 44 51
3 44 41 51
3 41 43 51
3 43 24 23
3 43 23 51
3 52 53 54
3 52 54 55
3 54 56 55
3 56 57 55
3 57 58 52
3 57 52 55
3 59 60 61
3 59 61 62
3 62 57 56
3 56 59 62
3 45 42 63
3 63 57 62
3 63 62 45
3 62 61 46
3 62 46 45
3 40 39 64
3 40 64 65
3 64 58 57
3 64 57 65
3 57 63 65
3 63 42 40
3 63 40 65
3 37 36 66
3 36 34 66
3 34 67 66
3 66 68 37
3 33 32 69
3 33 69 70
3 69 60 70
3 70 67 34
3 34 33 70
3 59 56 67
3 67 70 59
3 70 60 59
3 54 53 68
3 68 66 54
3 66 67 54
3 67 56 54
3 30 29 71
3 72 73 74
3 72 74 71
3 74 30 71
3 75 76 77
3 75 77 78
3 77 73 72
3 77 72 78
3 76 79 77
3 79 73 77
3 80 32 74
3 32 30 74
3 73 80 74
3 47 46 81
3 47 81 82
3 81 83 84
3 81 84 82
3 82 49 47
3 85 86 87
3 87 88 85
3 88 84 85
3 84 83 85
3 75 78 88
3 78 72 89
3 78 89 88
3 89 84 88
3 88 87 75
3 71 29 49
3 49 82 71
3 82 84 89
3 82 89 71
3 89 72 71
3 61 60 90
3 61 90 91
3 90 92 93
3 90 93 91
3 94 95 96
3 95 86 96
3 93 92 94
3 93 94 96
3 83 93 96
3 83 96 85
3 96 86 85
3 46 61 91
3 46 91 81
3 91 93 83
3 91 83 81
3 69 32 80
3 80 73 97
3 97 98 80
3 98 60 69
3 98 69 80
3 79 76 99
3 99 94 79
3 94 97 79
3 97 73 79
3 99 95 94
3 92 97 94
3 90 60 98
3 98 97 92
3 92 90 98
3 100 101 102
3 100 102 103
3 102 76 75
3 102 75 103
3 104 101 100
3 105 101 104
3 87 86 106
3 107 108 106
3 108 87 106
3 109 104 110
3 104 100 110
3 100 107 110
3 110 111 109
3 103 75 108
3 75 87 108
3 108 107 100
3 100 103 108
3 112 113 95
3 113 107 95
3 114 107 113
3 110 107 114
3 86 95 106
3 95 107 106
3 99 76 102
3 101 112 102
3 112 99 102
3 115 114 113
3 113 101 105
3 105 115 113
3 112 95 99
3 112 101 113
3 109 116 104
3 116 117 104
3 118 119 115
3 104 117 118
3 104 118 115
3 115 105 104
3 120 121 111
3 121 122 111
3 109 111 122
3 123 124 125
3 125 111 123
3 111 125 120
3 111 110 114
3 114 123 111
3 115 119 126
3 126 127 115
3 127 124 123
3 123 115 127
3 123 114 115
3 116 109 128
3 128 129 116
3 129 117 116
3 130 0 4
3 130 4 129
3 4 131 129
3 131 117 129
3 129 128 130
3 13 12 131
3 12 119 118
3 12 118 131
3 118 117 131
3 131 4 13
3 121 120 132
3 132 133 121
3 133 134 121
3 134 122 121
3 5 1 133
3 1 135 133
3 135 134 133
3 133 132 5
3 0 130 135
3 130 128 136
3 130 136 135
3 136 134 135
3 135 1 0
3 128 109 122
3 128 122 136
3 122 134 136
3 125 124 137
3 124 138 137
3 138 9 8
3 138 8 139
3 8 6 139
3 137 138 139
3 5 132 140
3 140 137 139
3 140 139 5
3 139 6 5
3 132 120 140
3 120 125 137
3 120 137 140
3 126 141 127
3 10 141 12
3 141 126 12
3 126 119 12
3 138 142 9
3 142 141 9
3 141 10 9
3 127 141 142
3 142 138 124
3 142 124 127
3 16 15 143
3 144 16 143
3 145 22 21
3 145 21 143
3 21 27 143
3 27 144 143
3 143 15 145
3 38 37 146
3 146 147 148
3 146 148 38
3 148 144 27
3 148 27 38
3 147 149 148
3 149 16 144
3 149 144 148
3 150 149 147
3 150 147 151
3 37 68 152
3 37 152 146
3 152 151 146
3 151 147 146
3 68 53 152
3 53 153 152
3 153 151 152
3 153 150 151
3 154 20 155
3 58 154 155
3 58 155 52
3 155 153 53
3 155 53 52
3 64 39 156
3 64 156 157
3 156 18 157
3 157 154 58
3 58 64 157
3 18 20 157
3 20 154 157
3 15 17 19
3 19 158 15
3 18 159 19
3 159 158 19
3 156 39 160
3 39 44 160
3 160 158 159
3 159 18 156
3 159 156 160
3 44 22 145
3 145 15 158
3 158 160 145
3 160 44 145
