OFF
203 387 0
10.7323 -6.3662 7.30177
10.7323 -6.3662 6.07137
11.1608 -4.0098 5.18507
11.1608 -4.0098 6.12747
10.7323 -1.6534 4.29887
10.7323 -1.6534 4.95307
10.697 -1.6613 5.13737
11.1137 -3.953 6.28367
10.697 -6.2447 7.42987
5.29681 -5.7587 5.29127
5.29681 -5.7587 4.55407
5.30861 -5.755 4.55267
5.30861 -5.755 5.28937
5.62151 -5.755 4.55267
5.62151 -5.755 5.28937
5.62151 -5.3187 5.08207
5.30861 -5.3187 5.08207
5.29541 -5.4745 5.16327
5.30861 -2.7009 0.807565
5.62151 -2.7009 0.807565
5.62151 -4.0098 0.141465
5.30861 -4.0098 0.141465
5.62151 -5.3187 -0.488835
5.30861 -5.3187 -0.488835
5.30861 -2.7009 3.77317
5.62151 -2.7009 3.77317
5.62151 -2.2646 3.54997
5.30861 -2.2646 3.54997
5.62151 -2.2646 3.23987
5.30861 -2.2646 3.23987
5.29681 -4.0054 4.43027
5.30861 -4.0098 4.43027
5.62151 -4.0098 4.43027
7.43221 -5.9296 5.58987
7.43221 -5.9296 4.77937
7.73331 -6.4533 5.45977
7.73331 -6.4533 6.49127
8.16171 -6.9771 6.14007
8.16171 -6.9771 7.39277
8.03011 -6.4874 7.35507
7.73331 -5.8425 6.20097
7.43221 -5.4496 5.36177
7.43221 -4.0098 -0.0731346
7.43221 -2.57 0.659765
7.73331 -2.1772 0.216065
7.73331 -4.0098 -0.716735
8.16171 -1.7843 -0.227535
8.16171 -4.0098 -1.36033
8.16171 -6.2353 -2.43183
7.73331 -5.8425 -1.59913
7.43221 -5.4496 -0.766335
7.43221 -2.09 3.67637
7.43221 -2.57 3.92197
7.73331 -2.1772 4.36837
7.73331 -1.5663 4.05577
8.03011 -1.4595 4.83927
8.16171 -1.0425 4.43517
8.16171 -1.0425 3.90797
7.73331 -1.5663 3.62167
7.43221 -2.09 3.33527
7.43221 -4.0098 4.64477
7.73331 -4.0098 5.28837
7.78041 -3.953 6.07387
9.44701 -7.1517 6.36687
9.44701 -7.1517 7.69317
9.44701 -7.0086 7.81197
9.44701 -1.6534 -0.375435
9.44701 -4.0098 -1.57483
10.3991 -2.2643 -0.660635
10.7323 -4.0098 -1.54243
10.3991 -5.7553 -2.37383
9.44701 -6.3662 -2.70943
9.44701 -0.8975 4.75527
9.44701 -0.8679 4.56167
9.44701 -0.8679 4.00337
8.66811 -3.8126 6.48477
8.86611 -4.8733 7.03177
9.44701 -5.2408 7.19997
9.44701 -3.8183 6.46727
10.028 -4.8733 7.03177
10.226 -3.8126 6.48477
10.028 -2.7432 5.96497
9.44701 -2.3845 5.76947
8.86611 -2.7432 5.96497
8.30301 -5.8801 7.76457
7.92171 -3.7827 6.71417
8.41571 -5.5108 8.06307
8.07191 -3.62 7.11607
8.41571 -1.7292 6.16907
8.30301 -1.6853 5.66367
10.5911 -5.8801 7.76457
9.44701 -6.5792 8.11477
10.4784 -5.5108 8.06307
9.44701 -6.141 8.37866
10.5911 -1.6853 5.66367
10.9724 -3.7827 6.71417
10.4784 -1.7292 6.16907
10.8221 -3.62 7.11607
9.44701 -0.9861 5.31357
9.44701 -1.0989 5.85347
8.47121 -5.3752 8.08257
8.14592 -3.5862 7.18657
8.50851 -5.3494 7.91647
8.19571 -3.6288 7.05467
8.50851 -1.9081 6.19297
8.47121 -1.7972 6.29057
10.4229 -5.3752 8.08257
9.44701 -5.9716 8.38127
10.3856 -5.3494 7.91647
9.44701 -5.9229 8.20367
10.4229 -1.7972 6.29057
10.7481 -3.5862 7.18657
10.3856 -1.9081 6.19297
10.6984 -3.6288 7.05467
9.44701 -1.2008 5.99197
9.44701 -1.3346 5.90567
10.5458 -3.7593 6.65017
10.2711 -2.2484 5.89347
10.2392 -2.3434 5.80977
10.5032 -3.7957 6.53717
10.2392 -5.248 7.26457
10.2711 -5.2702 7.40687
9.44701 -5.7738 7.65907
9.44701 -5.7321 7.50697
8.65491 -5.248 7.26457
8.62291 -5.2702 7.40687
8.34821 -3.7593 6.65017
8.39081 -3.7957 6.53717
8.65491 -2.3434 5.80977
8.62291 -2.2484 5.89347
9.44701 -1.7448 5.64117
9.44701 -1.8593 5.56737
10.3275 -2.0809 6.04087
10.6209 -3.695 6.84927
10.3275 -5.3092 7.65767
9.44701 -5.8472 7.92707
8.56661 -5.3092 7.65767
8.27311 -3.695 6.84927
8.56661 -2.0809 6.04087
9.44701 -1.5429 5.77137
5.62151 -5.755 -0.631335
5.30861 -5.755 -0.631335
5.62151 -5.755 0.170165
5.30861 -5.755 0.170165
7.73331 -6.4533 -0.676435
7.43221 -5.9296 -0.0415346
7.43221 -5.9296 -0.923235
7.73331 -6.4533 -1.79873
8.16171 -6.9771 -2.67423
8.16171 -6.9771 -1.31143
9.44701 -7.1517 -1.52303
9.44701 -7.1517 -2.96603
10.7323 -6.3662 -2.58583
10.7323 -6.3662 -1.24733
11.1608 -4.0098 -0.420135
11.1608 -4.0098 -1.44533
10.7323 -1.6534 -0.304735
10.7323 -1.6534 0.407065
8.16171 -1.0425 0.198265
8.16171 -1.0425 0.771865
9.44701 -0.8679 0.682765
9.44701 -0.8679 0.0754654
7.43221 -2.09 0.935265
7.43221 -2.09 1.30637
7.73331 -1.5663 1.03907
7.73331 -1.5663 0.566765
5.30861 -2.2646 1.39537
5.62151 -2.2646 1.39537
5.62151 -2.2646 1.05807
5.30861 -2.2646 1.05807
5.29681 -5.7587 2.37227
5.30861 -5.755 2.37217
5.62151 -5.755 2.37217
7.43221 -5.9296 2.38087
7.73331 -6.4533 2.40677
8.16171 -6.9771 2.43267
9.44701 -7.1517 2.44127
10.7323 -6.3662 2.43007
11.1608 -4.0098 2.39627
10.7323 -1.6534 2.36257
8.16171 -1.0425 2.34767
9.44701 -0.8679 2.35127
7.43221 -2.09 2.32587
7.73331 -1.5663 2.33677
5.62151 -2.2646 2.32217
5.30861 -2.2646 2.32217
5.29291 -5.7636 5.30797
6.52881 -2.7009 3.77317
6.52881 -2.2646 3.54997
6.52881 -2.2646 3.23987
6.52881 -2.2646 2.32217
6.52881 -2.2646 1.39537
6.52881 -2.2646 1.05807
6.52881 -2.7009 0.807565
6.52881 -4.0098 0.141465
6.52881 -5.3187 -0.488835
6.52881 -5.755 0.170165
6.52881 -5.755 -0.631335
6.52881 -5.755 4.55267
6.52881 -5.755 2.37217
6.52881 -5.755 5.28937
6.52881 -5.3187 5.08207
6.52881 -4.0098 4.43027
3 0 1 2
3 0 2 3
3 2 4 5
3 2 5 3
3 5 6 7
3 5 7 3
3 7 8 0
3 7 0 3
3 9 10 11
3 9 11 12
3 11 13 14
3 11 14 12
3 14 15 16
3 14 16 12
3 16 17 9
3 16 9 12
3 18 19 20
3 18 20 21
3 20 22 23
3 20 23 21
3 24 25 26
3 24 26 27
3 26 28 29
3 26 29 27
3 30 17 16
3 30 16 31
3 16 15 32
3 16 32 31
3 32 25 24
3 32 24 31
3 24 30 31
3 33 34 35
3 33 35 36
3 35 37 38
3 35 38 36
3 38 39 40
3 38 40 36
3 40 41 33
3 40 33 36
3 42 43 44
3 42 44 45
3 44 46 47
3 44 47 45
3 47 48 49
3 47 49 45
3 49 50 42
3 49 42 45
3 51 52 53
3 51 53 54
3 53 55 56
3 53 56 54
3 56 57 58
3 56 58 54
3 58 59 51
3 58 51 54
3 60 41 40
3 60 40 61
3 40 39 62
3 40 62 61
3 62 55 53
3 62 53 61
3 53 52 60
3 53 60 61
3 38 37 63
3 38 63 64
3 63 1 0
3 63 0 64
3 0 8 65
3 0 65 64
3 65 39 38
3 65 38 64
3 47 46 66
3 47 66 67
3 66 68 69
3 66 69 67
3 69 70 71
3 69 71 67
3 71 48 47
3 71 47 67
3 56 55 72
3 56 72 73
3 72 6 5
3 72 5 73
3 5 4 74
3 5 74 73
3 74 57 56
3 74 56 73
3 75 76 77
3 75 77 78
3 77 79 80
3 77 80 78
3 80 81 82
3 80 82 78
3 82 83 75
3 82 75 78
3 62 39 84
3 62 84 85
3 84 86 87
3 84 87 85
3 87 88 89
3 87 89 85
3 89 55 62
3 89 62 85
3 65 8 90
3 65 90 91
3 90 92 93
3 90 93 91
3 93 86 84
3 93 84 91
3 84 39 65
3 84 65 91
3 7 6 94
3 7 94 95
3 94 96 97
3 94 97 95
3 97 92 90
3 97 90 95
3 90 8 7
3 90 7 95
3 72 55 89
3 72 89 98
3 89 88 99
3 89 99 98
3 99 96 94
3 99 94 98
3 94 6 72
3 94 72 98
3 87 86 100
3 87 100 101
3 100 102 103
3 100 103 101
3 103 104 105
3 103 105 101
3 105 88 87
3 105 87 101
3 93 92 106
3 93 106 107
3 106 108 109
3 106 109 107
3 109 102 100
3 109 100 107
3 100 86 93
3 100 93 107
3 97 96 110
3 97 110 111
3 110 112 113
3 110 113 111
3 113 108 106
3 113 106 111
3 106 92 97
3 106 97 111
3 99 88 105
3 99 105 114
3 105 104 115
3 105 115 114
3 115 112 110
3 115 110 114
3 110 96 99
3 110 99 114
3 116 117 118
3 116 118 119
3 118 81 80
3 118 80 119
3 80 79 120
3 80 120 119
3 120 121 116
3 120 116 119
3 122 121 120
3 122 120 123
3 120 79 77
3 120 77 123
3 77 76 124
3 77 124 123
3 124 125 122
3 124 122 123
3 126 125 124
3 126 124 127
3 124 76 75
3 124 75 127
3 75 83 128
3 75 128 127
3 128 129 126
3 128 126 127
3 130 129 128
3 130 128 131
3 128 83 82
3 128 82 131
3 82 81 118
3 82 118 131
3 118 117 130
3 118 130 131
3 113 112 132
3 113 132 133
3 132 117 116
3 132 116 133
3 116 121 134
3 116 134 133
3 134 108 113
3 134 113 133
3 109 108 134
3 109 134 135
3 134 121 122
3 134 122 135
3 122 125 136
3 122 136 135
3 136 102 109
3 136 109 135
3 103 102 136
3 103 136 137
3 136 125 126
3 136 126 137
3 126 129 138
3 126 138 137
3 138 104 103
3 138 103 137
3 115 104 138
3 115 138 139
3 138 129 130
3 138 130 139
3 130 117 132
3 130 132 139
3 132 112 115
3 132 115 139
3 23 22 140
3 23 140 141
3 140 142 143
3 140 143 141
3 144 145 146
3 144 146 147
3 146 50 49
3 146 49 147
3 49 48 148
3 49 148 147
3 148 149 144
3 148 144 147
3 150 149 148
3 150 148 151
3 148 48 71
3 148 71 151
3 71 70 152
3 71 152 151
3 152 153 150
3 152 150 151
3 154 153 152
3 154 152 155
3 152 70 69
3 152 69 155
3 69 68 156
3 69 156 155
3 156 157 154
3 156 154 155
3 158 159 160
3 158 160 161
3 160 157 156
3 160 156 161
3 156 68 66
3 156 66 161
3 66 46 158
3 66 158 161
3 162 163 164
3 162 164 165
3 164 159 158
3 164 158 165
3 158 46 44
3 158 44 165
3 44 43 162
3 44 162 165
3 166 167 168
3 166 168 169
3 168 19 18
3 168 18 169
3 11 10 170
3 11 170 171
3 170 143 171
3 143 142 172
3 143 172 171
3 172 13 11
3 172 11 171
3 35 34 173
3 35 173 174
3 173 145 144
3 173 144 174
3 144 149 175
3 144 175 174
3 175 37 35
3 175 35 174
3 63 37 175
3 63 175 176
3 175 149 150
3 175 150 176
3 150 153 177
3 150 177 176
3 177 1 63
3 177 63 176
3 2 1 177
3 2 177 178
3 177 153 154
3 177 154 178
3 154 157 179
3 154 179 178
3 179 4 2
3 179 2 178
3 180 57 74
3 180 74 181
3 74 4 179
3 74 179 181
3 179 157 160
3 179 160 181
3 160 159 180
3 160 180 181
3 182 59 58
3 182 58 183
3 58 57 180
3 58 180 183
3 180 159 164
3 180 164 183
3 164 163 182
3 164 182 183
3 29 28 184
3 29 184 185
3 184 167 166
3 184 166 185
3 9 17 186
3 26 25 187
3 26 187 188
3 187 52 51
3 187 51 188
3 51 59 189
3 51 189 188
3 189 28 26
3 189 26 188
3 184 28 189
3 184 189 190
3 189 59 182
3 189 182 190
3 182 163 191
3 182 191 190
3 191 167 184
3 191 184 190
3 168 167 191
3 168 191 192
3 191 163 162
3 191 162 192
3 162 43 193
3 162 193 192
3 193 19 168
3 193 168 192
3 20 19 193
3 20 193 194
3 193 43 42
3 193 42 194
3 42 50 195
3 42 195 194
3 195 22 20
3 195 20 194
3 196 142 140
3 196 140 197
3 140 22 195
3 140 195 197
3 195 50 146
3 195 146 197
3 146 145 196
3 146 196 197
3 198 13 172
3 198 172 199
3 172 142 196
3 172 196 199
3 196 145 173
3 196 173 199
3 173 34 198
3 173 198 199
3 14 13 198
3 14 198 200
3 198 34 33
3 198 33 200
3 33 41 201
3 33 201 200
3 201 15 14
3 201 14 200
3 32 15 201
3 32 201 202
3 201 41 60
3 201 60 202
3 60 52 187
3 60 187 202
3 187 25 32
3 187 32 202
