OFF
238 463 0
-17.4172 -2.01391 2.03857
-17.5362 -2.68061 1.97257
-17.6152 -3.08941 1.97757
-17.3222 -1.50021 2.06657
-17.1672 -0.659913 2.07457
-17.2512 -1.28421 2.00757
-17.6672 -3.47501 1.89557
-9.77015 -5.47031 1.60757
-9.36215 -5.56981 1.57257
-9.36115 -5.60261 1.65157
-9.76215 -5.47801 1.67057
-9.20515 -5.65311 1.55657
-9.22815 -5.70571 1.63257
-9.53015 -2.05221 5.36157
-9.65115 -2.04761 5.30857
-9.89815 -3.39911 5.17057
-10.0562 -4.92011 5.06857
-9.49715 -1.95611 5.47257
-10.7382 -2.71401 5.21857
-10.2162 -3.34091 5.15857
-10.0012 -2.10331 5.28057
-10.9262 -3.74091 5.11857
-12.0102 -3.95201 5.10257
-10.3942 -4.30451 5.06157
-10.0422 -4.93281 5.20157
-8.43515 -1.60481 2.04757
-8.44215 -1.62591 2.00257
-9.03715 -1.54851 2.01857
-9.03515 -1.53841 2.03757
-8.61715 -1.57981 2.08857
-9.03515 -1.53161 2.08957
-9.10615 -4.27421 1.71457
-8.82315 -3.59311 1.78157
-8.84515 -2.85521 1.86757
-9.62515 -4.77521 1.66457
-11.7162 -4.29791 1.72557
-10.3112 -4.02371 1.74657
-9.38815 -3.48931 1.80057
-9.15215 -2.20081 1.93657
-8.63515 -1.69381 1.99057
-10.0612 -2.66101 1.88557
-8.53915 -2.14851 1.92457
-8.48415 -1.73331 1.98157
-8.42715 -1.60601 6.66057
-8.45215 -1.64471 6.62657
-9.16215 -5.58821 6.21757
-8.90815 -4.08311 6.36657
-8.44515 -1.60591 6.61357
-16.4862 -0.659613 6.63157
-16.8042 -0.625713 6.64657
-9.06015 -1.54141 6.62657
-17.1262 -0.599513 6.65457
-17.3202 -2.93561 6.52757
-16.8032 -0.762513 6.65057
-17.6622 -3.46911 6.49157
-17.1552 -0.612113 6.62857
-9.20415 -5.60491 6.19157
-9.41415 -5.55801 6.19157
-9.22815 -5.70571 6.12257
-9.36115 -5.60261 6.09557
-9.76815 -5.47261 6.19057
-9.74515 -3.35821 5.51157
-9.97415 -4.62921 5.70657
-9.70815 -3.18091 5.74557
-9.95115 -1.87531 5.87157
-9.63015 -1.92071 5.82157
-9.95015 -1.87411 6.09257
-9.95215 -1.88671 5.47857
-9.63015 -1.93861 5.39057
-9.95115 -1.87911 5.65557
-9.48115 -1.93991 6.41557
-16.1992 -1.04891 6.45357
-16.6282 -3.37761 6.30957
-16.5522 -2.98221 5.78557
-16.2302 -1.22571 5.89457
-16.6162 -3.36401 5.55157
-16.6022 -3.37911 5.36857
-16.2422 -1.33431 5.67257
-10.4962 -4.83121 5.68457
-10.0312 -4.94111 6.11057
-10.4952 -4.82911 5.35957
-10.4942 -4.82551 5.18257
-9.51215 -2.09461 5.77757
-9.96715 -1.95661 5.31257
-9.95215 -1.89931 5.37157
-16.1902 -1.11791 5.53057
-16.1562 -1.06421 5.44557
-17.1272 -0.593913 2.11457
-17.0982 -0.601313 2.03557
-17.1482 -0.604013 2.11457
-17.1952 -0.801813 2.10457
-9.89215 -1.73421 1.97757
-11.1832 -1.38521 2.00257
-9.05215 -1.64341 1.99457
-9.03915 -1.56531 2.00757
-10.4932 -4.81951 5.07657
-10.1732 -4.88661 5.01757
-9.20815 -5.72241 6.18457
-9.75415 -5.44431 1.58857
-9.75815 -5.46201 1.59157
-17.6832 -3.45391 1.95357
-17.6292 -3.48621 1.95057
-17.6832 -3.47361 6.45457
-17.4642 -3.52981 1.94457
-17.0422 -3.63641 1.90157
-17.0422 -3.63701 1.92957
-17.0412 -3.63461 1.87857
-17.6202 -3.47931 1.87257
-17.0402 -3.63101 1.86057
-14.0972 -4.35131 1.74157
-17.4442 -3.51491 1.86057
-14.9132 -4.04311 1.78057
-16.6392 -3.72601 1.83557
-16.0492 -2.83091 1.88557
-16.9382 -3.10611 1.87857
-16.7592 -2.13471 1.93757
-17.3472 -2.92571 1.89657
-17.0912 -1.53721 1.97757
-14.6312 -2.52571 1.89857
-16.9332 -0.685813 2.02557
-16.5812 -1.16141 1.99657
-14.4372 -1.46141 1.97957
-15.8482 -1.73591 1.95957
-15.7132 -0.991113 2.00857
-14.3542 -1.00101 2.01457
-16.4952 -0.681413 2.03157
-16.4942 -0.668713 2.04257
-16.4932 -0.661013 2.06057
-16.9252 -0.606413 2.11457
-16.4922 -0.657213 2.08457
-17.0952 -0.590213 2.11457
-16.4922 -0.655913 2.11357
-16.9252 -0.606413 6.55857
-14.1012 -1.09221 6.64057
-16.0872 -1.06341 5.96257
-15.6892 -1.11391 5.90157
-15.6892 -1.11291 6.12257
-15.6902 -1.11691 5.68557
-15.6912 -1.12301 5.50857
-15.7022 -1.18111 5.34557
-16.1322 -1.10991 5.38557
-16.0542 -1.24641 5.34257
-15.7332 -1.29071 5.32157
-15.6772 -1.13531 5.40057
-16.1822 -1.22941 5.39557
-15.1992 -1.97601 5.27557
-15.9032 -2.29511 5.25557
-16.5782 -3.37981 5.26057
-16.0472 -3.07171 5.20457
-14.4152 -3.42751 5.16357
-15.3582 -2.84371 5.21457
-16.1292 -3.49601 5.74457
-16.1282 -3.49451 5.52857
-13.3742 -4.49431 1.72157
-9.72815 -5.32631 1.60457
-11.8122 -4.81051 1.67557
-10.4822 -4.94551 1.65157
-16.1862 -3.57171 1.83557
-16.4482 -3.40371 5.20357
-16.1172 -3.47351 5.17757
-13.2572 -3.93411 5.11157
-10.4852 -4.80281 5.00957
-12.3772 -1.49611 6.59957
-9.33615 -1.89021 6.58757
-9.35615 -1.82781 6.60457
-9.15515 -1.77711 6.61557
-10.1342 -1.57971 6.62557
-8.90315 -2.06461 6.58857
-9.14415 -2.47491 6.54757
-9.39215 -2.93811 6.49457
-9.28015 -4.11951 6.37257
-9.92015 -5.04041 6.26157
-9.52115 -4.52591 6.33157
-9.80715 -5.14901 6.26257
-9.49015 -5.24831 6.24957
-11.9922 -4.66711 6.32757
-12.1412 -4.55961 6.33557
-12.0642 -4.72181 6.32057
-14.6932 -4.00641 6.41557
-16.9052 -3.41261 6.48757
-15.9482 -3.76171 6.45157
-16.8472 -2.11931 6.57357
-16.7682 -3.39371 6.47257
-16.3232 -0.980913 6.62057
-16.4412 -0.916313 6.63757
-16.5822 -0.846113 6.64657
-8.44315 -1.59251 4.44657
-9.03515 -1.53161 6.53457
-8.46315 -1.59531 6.53257
-9.76215 -5.47801 6.11457
-17.0422 -3.63701 6.37457
-17.6592 -3.47481 6.39557
-17.4642 -2.27051 6.46757
-16.4902 -0.657413 6.61257
-16.4922 -0.655913 6.55757
-17.1272 -0.593913 6.55857
-8.61715 -1.57981 6.53257
-9.03715 -1.53241 6.57657
-9.76415 -5.47661 6.15757
-17.4642 -3.52981 6.38857
-17.6742 -3.39801 6.40657
-17.6152 -3.08941 6.42157
-17.2442 -1.06871 6.53457
-17.1952 -0.801813 6.54857
-17.1672 -0.660113 6.55657
-12.8142 -1.50591 5.49357
-12.8472 -1.70121 5.30057
-14.1092 -1.76471 5.29157
-11.6752 -2.12991 5.26957
-12.8142 -1.51741 5.38657
-12.9642 -2.34561 5.24757
-14.2622 -2.59691 5.22757
-11.8422 -3.04181 5.18657
-13.1382 -3.29311 5.16657
-12.0832 -4.34221 5.06557
-13.3122 -4.16401 6.20857
-13.3162 -4.21911 6.36457
-13.3292 -4.25971 1.74357
-14.8272 -3.58781 1.81657
-13.1752 -3.42831 1.81657
-11.4952 -3.10191 1.84057
-11.2762 -1.90361 1.95357
-12.9492 -2.19921 1.92257
-12.7972 -1.36331 1.99357
-9.98715 -4.97831 6.24157
-9.42115 -1.91751 6.55957
-10.0192 -4.95101 6.19557
-9.46415 -1.93221 6.50657
-9.61215 -2.66951 6.34657
-9.95015 -1.87411 6.42057
-16.2502 -1.01961 6.59157
-12.8112 -1.48911 6.52257
-12.8082 -1.47301 6.57357
-15.6892 -1.11291 6.45057
-16.2122 -1.03951 6.54057
-16.6852 -3.38461 6.44757
-16.6422 -3.37971 6.39657
-13.3082 -4.18731 6.34257
3 0 1 2
3 3 1 0
3 4 5 6
3 6 1 3
3 3 4 6
3 7 8 9
3 9 10 7
3 9 8 11
3 9 11 12
3 13 14 15
3 15 16 13
3 16 17 13
3 18 19 20
3 19 15 20
3 15 14 20
3 21 22 23
3 21 23 19
3 23 15 19
3 16 24 17
3 25 26 27
3 25 27 28
3 29 25 30
3 11 31 32
3 31 33 32
3 34 35 36
3 34 36 37
3 37 33 31
3 31 34 37
3 38 39 33
3 33 37 38
3 37 40 38
3 41 32 42
3 32 33 42
3 33 39 42
3 43 44 45
3 44 46 45
3 47 48 49
3 49 50 47
3 50 44 47
3 44 50 51
3 52 53 51
3 51 54 52
3 51 55 54
3 56 57 58
3 57 59 58
3 60 59 57
3 17 24 61
3 61 62 63
3 64 65 66
3 67 68 65
3 67 65 69
3 65 64 69
3 17 70 65
3 65 68 17
3 71 72 73
3 74 71 73
3 75 76 77
3 77 74 73
3 73 75 77
3 78 79 24
3 78 24 80
3 24 81 80
3 43 47 44
3 63 70 82
3 82 70 17
3 17 61 82
3 61 63 82
3 68 14 13
3 68 13 17
3 83 14 68
3 83 68 84
3 68 67 84
3 14 83 20
3 77 76 85
3 85 74 77
3 71 74 85
3 71 85 86
3 87 88 89
3 88 4 89
3 4 3 90
3 4 88 5
3 91 92 93
3 91 93 38
3 93 39 38
3 27 26 94
3 26 39 93
3 26 93 94
3 93 92 94
3 26 41 42
3 42 39 26
3 76 75 72
3 75 73 72
3 81 24 16
3 81 16 95
3 16 96 95
3 79 62 24
3 56 58 97
3 98 8 99
3 8 7 99
3 100 6 101
3 102 60 57
3 54 102 57
3 103 6 104
3 103 104 105
3 101 6 103
3 104 6 106
3 6 107 108
3 6 108 106
3 109 110 111
3 108 107 112
3 107 110 112
3 113 114 115
3 114 116 115
3 116 117 115
3 115 118 113
3 107 6 5
3 107 117 116
3 88 119 117
3 117 107 88
3 107 5 88
3 120 121 122
3 122 118 115
3 122 115 120
3 115 117 120
3 117 119 120
3 123 121 120
3 119 124 123
3 119 123 120
3 125 124 119
3 119 88 125
3 88 126 125
3 126 88 127
3 88 128 129
3 88 129 127
3 128 88 130
3 88 87 130
3 129 128 131
3 51 50 49
3 48 132 49
3 132 55 51
3 51 49 132
3 53 133 51
3 134 135 136
3 134 71 86
3 135 134 86
3 135 86 137
3 86 138 137
3 139 140 141
3 139 141 142
3 138 86 143
3 86 140 139
3 86 139 143
3 86 85 140
3 85 76 144
3 141 140 144
3 140 85 144
3 145 142 146
3 142 141 146
3 76 147 144
3 147 141 144
3 148 149 150
3 150 146 148
3 146 141 148
3 76 72 151
3 76 151 152
3 46 97 45
3 8 31 11
3 98 153 154
3 153 155 154
3 8 98 154
3 156 35 34
3 34 31 8
3 8 154 34
3 154 155 156
3 154 156 34
3 157 116 114
3 110 116 157
3 110 157 111
3 107 116 110
3 2 6 100
3 1 6 2
3 55 102 54
3 148 141 158
3 158 159 148
3 159 160 149
3 159 149 148
3 158 141 147
3 16 15 96
3 22 161 23
3 161 96 23
3 96 15 23
3 62 61 24
3 162 163 164
3 164 163 165
3 166 165 167
3 165 168 167
3 163 169 165
3 169 168 165
3 168 170 167
3 169 163 171
3 172 168 169
3 172 169 173
3 169 171 173
3 170 168 172
3 170 172 174
3 174 172 173
3 173 175 174
3 175 173 176
3 173 171 176
3 175 177 174
3 52 178 179
3 54 180 52
3 180 178 52
3 179 181 52
3 179 182 183
3 179 183 184
3 181 179 184
3 181 53 52
3 185 181 184
3 53 181 185
3 185 133 53
3 186 25 29
3 29 30 187
3 30 131 187
3 188 186 29
3 10 9 189
3 190 103 105
3 191 100 101
3 192 0 2
3 132 193 194
3 195 55 132
3 195 132 130
3 132 48 193
3 196 43 188
3 197 196 187
3 197 48 47
3 47 196 197
3 196 47 43
3 59 60 198
3 59 198 189
3 102 199 190
3 199 102 101
3 102 191 101
3 102 200 191
3 200 102 201
3 201 102 55
3 201 55 192
3 192 55 202
3 202 55 203
3 203 55 204
3 195 89 55
3 89 204 55
3 135 66 136
3 137 138 205
3 205 69 137
3 69 135 137
3 205 67 69
3 69 64 135
3 135 64 66
3 83 206 20
3 206 207 208
3 206 208 20
3 84 67 205
3 84 205 209
3 83 84 209
3 205 138 143
3 139 83 209
3 139 209 143
3 209 205 143
3 207 206 142
3 206 83 139
3 206 139 142
3 18 20 208
3 208 207 210
3 208 210 18
3 210 211 212
3 210 212 18
3 212 19 18
3 207 142 145
3 145 146 211
3 211 210 145
3 210 207 145
3 150 149 213
3 149 22 213
3 211 146 150
3 211 150 213
3 21 19 212
3 212 211 213
3 212 213 21
3 213 22 21
3 160 214 22
3 214 161 22
3 160 22 149
3 158 96 161
3 214 160 159
3 158 161 159
3 161 214 159
3 147 76 81
3 81 95 147
3 95 158 147
3 95 96 158
3 215 78 151
3 81 152 80
3 152 151 80
3 151 78 80
3 81 76 152
3 175 178 177
3 176 171 216
3 176 178 175
3 216 182 179
3 178 176 179
3 176 216 179
3 177 178 180
3 177 54 56
3 56 54 57
3 189 198 190
3 198 60 102
3 198 102 190
3 189 105 10
3 105 189 190
3 105 104 10
3 7 10 104
3 104 106 7
3 106 108 7
3 109 153 98
3 7 108 112
3 7 112 99
3 112 109 99
3 109 98 99
3 112 110 109
3 155 111 217
3 155 217 156
3 217 218 35
3 217 35 156
3 153 111 155
3 153 109 111
3 157 114 218
3 218 217 157
3 217 111 157
3 35 218 219
3 35 219 36
3 219 220 36
3 220 37 36
3 218 114 113
3 218 113 219
3 113 118 219
3 118 220 219
3 121 221 222
3 121 222 122
3 222 220 118
3 222 118 122
3 221 38 40
3 40 37 220
3 220 222 40
3 222 221 40
3 91 38 221
3 221 223 91
3 223 92 91
3 121 123 223
3 123 124 223
3 124 92 223
3 223 221 121
3 125 126 27
3 125 27 94
3 94 92 124
3 124 125 94
3 129 25 28
3 27 126 127
3 129 28 127
3 28 27 127
3 30 25 129
3 129 131 30
3 197 187 194
3 194 193 197
3 48 197 193
3 133 185 165
3 133 165 166
3 184 183 162
3 162 164 184
3 164 185 184
3 165 185 164
3 46 44 170
3 44 167 170
3 46 170 97
3 97 170 174
3 56 97 174
3 177 56 174
3 54 177 180
3 133 166 51
3 44 51 166
3 44 166 167
3 224 171 225
3 226 224 225
3 171 163 225
3 227 226 225
3 228 226 227
3 63 62 79
3 226 228 79
3 228 63 79
3 70 63 228
3 228 227 70
3 225 163 162
3 66 65 70
3 66 70 229
3 70 227 229
3 162 183 230
3 231 232 230
3 232 162 230
3 136 66 229
3 136 229 233
3 229 231 233
3 229 227 231
3 162 232 225
3 232 231 225
3 231 227 225
3 233 231 234
3 234 71 233
3 71 134 136
3 71 136 233
3 234 231 230
3 183 182 235
3 236 72 71
3 234 236 71
3 183 235 230
3 235 236 234
3 235 234 230
3 151 72 215
3 72 236 215
3 235 182 216
3 235 216 237
3 236 235 237
3 216 171 224
3 226 236 237
3 226 237 224
3 237 216 224
3 215 236 226
3 226 79 215
3 79 78 215
3 200 100 191
3 131 128 132
3 132 194 131
3 132 128 130
3 188 43 186
3 59 9 12
3 59 12 58
3 189 9 59
3 190 199 103
3 103 199 101
3 200 2 100
3 2 200 201
3 192 2 201
3 192 202 3
3 0 192 3
3 3 202 90
3 90 202 203
3 203 4 90
3 204 4 203
3 195 87 89
3 89 4 204
3 130 87 195
3 131 194 187
3 188 29 196
3 196 29 187
