OFF
849 1678 0
-0.999746 -10.4614 -1.60338
-1.25752 -10.1328 -2.30838
-0.535796 -9.79184 -2.24238
-0.481536 -10.1084 -1.62338
0.106824 -9.71224 -2.18238
0.106694 -10.0169 -1.55438
0.106714 -10.1165 -0.80738
-0.441756 -10.2116 -0.86938
-0.929716 -10.5651 -0.85838
0.750924 -9.85064 -2.08038
1.47646 -10.301 -1.85538
1.21791 -10.6552 -0.98838
0.696174 -10.1793 -1.39538
1.14813 -10.7518 -0.18138
0.656454 -10.2836 -0.60838
1.21791 -10.6547 0.54662
1.47646 -10.3002 1.10862
0.750924 -9.85034 0.68362
0.696174 -10.1792 0.12462
0.106824 -9.71634 0.52162
0.106694 -10.0196 -0.0743799
-0.535796 -9.80824 0.49862
-1.25752 -10.1868 0.58162
-0.999746 -10.4949 -0.11538
-0.481536 -10.1193 -0.11738
-0.731666 0.464462 -1.50638
-0.731146 0.345462 -1.51738
-0.959476 0.256362 -0.92038
-0.960146 0.373962 -0.90938
-1.03559 0.149562 -0.20338
-1.03631 0.265362 -0.19238
-0.730966 -0.00733761 -1.54938
-0.730966 -0.710338 -1.61538
-0.959256 -0.786638 -1.01738
-0.959256 -0.0920376 -0.95238
-1.03535 -0.878238 -0.30038
-1.03535 -0.193838 -0.23638
-0.959256 -0.969738 0.41662
-0.730966 -1.04604 1.01462
-0.730966 -0.380338 1.07762
-0.959256 -0.295538 0.48062
-0.731146 -0.0463376 1.10962
-0.959476 0.0427624 0.51262
-0.960146 0.156762 0.52362
-0.731666 0.0662624 1.12062
0.563594 0.520762 -1.86638
0.944864 0.466362 -1.50838
0.943814 0.464462 -1.50638
0.563024 0.518762 -1.86438
0.943294 0.345462 -1.51738
0.562734 0.398862 -1.87538
0.106074 0.416662 -1.99438
0.106074 0.536862 -1.98438
0.106074 0.538862 -1.98638
0.943124 -0.00733761 -1.54938
0.943124 -0.710338 -1.61538
0.562644 -0.664538 -1.97438
0.562644 0.0435624 -1.90838
0.106074 -0.649338 -2.09338
0.106074 0.0604624 -2.02738
-0.350496 -0.664538 -1.97438
-0.350496 0.0435624 -1.90838
-0.350596 0.398862 -1.87538
-0.351446 0.520762 -1.86638
-0.350876 0.518762 -1.86438
0.943814 0.0662624 1.12062
0.943294 -0.0463376 1.10962
1.17163 0.0427624 0.51262
1.17229 0.156762 0.52362
1.24774 0.149562 -0.20338
1.24845 0.265362 -0.19238
0.943124 -0.380338 1.07762
0.943124 -1.04604 1.01462
1.1714 -0.969738 0.41662
1.1714 -0.295538 0.48062
1.2475 -0.878238 -0.30038
1.2475 -0.193838 -0.23638
1.1714 -0.786638 -1.01738
1.1714 -0.0920376 -0.95238
1.17163 0.256362 -0.92038
1.17229 0.373962 -0.90938
-0.350596 -0.0997376 1.46762
-0.350876 0.0119624 1.47962
0.106074 -0.117538 1.58662
0.106074 -0.00613761 1.59862
-0.350496 -1.09184 1.37362
-0.350496 -0.431138 1.43562
0.106074 -1.10704 1.49262
0.106074 -0.448138 1.55462
0.562644 -1.09184 1.37362
0.562644 -0.431138 1.43562
0.562734 -0.0997376 1.46762
0.563024 0.0119624 1.47962
-2.90493 -8.19194 -1.45938
-2.85857 -8.26744 -1.85938
-3.08595 -8.54384 -2.03338
-3.27072 -8.56404 -1.50638
-3.35405 -8.99574 -2.14838
-3.59314 -9.03024 -1.56938
-3.67015 -9.03874 -0.87438
-3.32152 -8.55264 -0.87638
-2.92572 -8.15584 -0.87638
-3.58835 -9.57554 -2.15438
-3.74592 -10.2537 -2.07938
-4.02434 -10.2847 -1.52438
-3.85784 -9.60894 -1.56938
-4.11714 -10.3105 -0.85738
-3.94767 -9.62624 -0.86838
-4.02434 -10.3274 -0.19038
-3.74592 -10.3321 0.36462
-3.58835 -9.60684 0.41662
-3.85784 -9.62604 -0.16738
-3.35405 -9.00354 0.39962
-3.59314 -9.03454 -0.17938
-3.08595 -8.54384 0.28062
-2.85857 -8.26734 0.10762
-2.90493 -8.19194 -0.29338
-3.27072 -8.56404 -0.24638
0.693794 -6.43784 -2.56338
1.3108 -6.66594 -2.31938
1.34156 -7.76174 -2.63438
0.722744 -7.60064 -2.69438
1.38097 -8.62214 -2.67938
0.738284 -8.51674 -2.70438
0.107714 -8.47094 -2.72538
0.107934 -7.55034 -2.72838
0.107764 -6.37544 -2.63038
1.42412 -9.42274 -2.46938
0.756324 -9.28154 -2.50838
0.107244 -9.19424 -2.55838
-1.20054 -9.34644 -2.62738
-0.539476 -9.24404 -2.59238
-1.15199 -8.57984 -2.71938
-0.519586 -8.49844 -2.72538
-1.1086 -7.72704 -2.63438
-1.07832 -6.63204 -2.31938
-0.474866 -6.42654 -2.56338
-0.503146 -7.58824 -2.69438
3.25576 -8.42304 -0.29338
3.19399 -8.47284 0.10762
3.41132 -8.73254 0.28062
3.61043 -8.77664 -0.24638
3.65626 -9.17014 0.47662
3.90573 -9.22034 -0.10538
3.9866 -9.23324 -0.80238
3.66767 -8.77604 -0.87638
3.28444 -8.40014 -0.87638
3.85795 -9.76834 0.72462
3.9832 -10.5383 1.13462
4.26369 -10.5572 0.55462
4.13353 -9.80574 0.13062
4.35719 -10.5638 -0.14138
4.22539 -9.81834 -0.58238
4.26369 -10.5579 -0.83738
3.9832 -10.5395 -1.41738
3.85795 -9.76884 -1.88938
4.13353 -9.80604 -1.29538
3.65626 -9.17024 -2.08238
3.90573 -9.22044 -1.50038
3.41132 -8.73254 -2.03338
3.19399 -8.47284 -1.85938
3.25576 -8.42304 -1.45938
3.61043 -8.77664 -1.50638
-0.474866 -6.49834 1.00162
-1.07832 -6.67484 0.71262
-1.1086 -7.74454 0.93362
-0.503146 -7.61504 1.01162
-1.15199 -8.58974 0.98162
-0.519586 -8.50784 0.99162
0.107714 -8.47954 1.00462
0.107934 -7.58184 1.05362
0.107764 -6.45664 1.07962
-1.20054 -9.36854 0.88362
-0.539476 -9.25504 0.84462
0.107244 -9.19694 0.85362
1.42412 -9.42244 1.07162
0.756324 -9.28144 0.94362
1.38097 -8.62644 1.02862
0.738284 -8.52344 1.01662
1.34156 -7.77924 0.93362
1.3108 -6.70874 0.71262
0.693794 -6.50964 1.00162
0.722744 -7.62744 1.01162
-1.29349 -6.22994 -1.56938
-1.6495 -7.39214 -2.24238
-1.65775 -7.05784 -1.60838
-2.14272 -7.81114 -2.17038
-2.09241 -7.55664 -1.57938
-2.08415 -7.47564 -0.86638
-1.67819 -6.95604 -0.83738
-1.34926 -6.13504 -0.77538
-2.56984 -8.09014 -2.03338
-2.51015 -7.89544 -1.50638
-2.50663 -7.83624 -0.87638
-2.56984 -8.09014 0.28062
-2.51015 -7.89544 -0.24638
-2.14272 -7.81434 0.43162
-2.09241 -7.55874 -0.15638
-1.6495 -7.40514 0.54162
-1.29349 -6.25654 0.00762011
-1.65775 -7.06654 -0.0743799
-2.01042 -10.161 -2.52238
-1.89262 -9.41704 -2.67838
-2.68561 -10.1893 -2.55138
-2.55807 -9.47204 -2.66538
-2.41086 -8.81874 -2.66938
-1.79784 -8.69564 -2.72238
-3.28189 -10.2211 -2.41238
-3.1392 -9.52734 -2.50438
-2.94478 -8.92204 -2.49738
-2.73486 -8.43764 -2.35138
-2.26064 -8.24844 -2.51938
-1.70649 -7.97934 -2.59538
-1.46416 -20.1634 -6.14538
-1.67298 -20.3507 -5.62538
-2.15153 -20.4487 -5.40438
-2.09398 -20.2081 -6.09138
-2.8499 -20.4971 -5.29538
-2.8499 -20.2387 -6.03338
-2.8499 -19.9088 -6.91238
-2.03718 -19.9014 -6.90938
-1.36097 -19.8792 -6.90138
-3.54827 -20.4487 -5.40438
-4.02681 -20.3507 -5.62538
-4.23563 -20.1634 -6.14538
-3.60581 -20.2081 -6.09138
-4.33882 -19.8792 -6.90138
-3.66261 -19.9014 -6.90938
-4.23563 -19.5838 -7.65138
-4.02681 -19.374 -8.16338
-3.54827 -19.2986 -8.39238
-3.60581 -19.5807 -7.72138
-2.8499 -19.2613 -8.50638
-2.8499 -19.5641 -7.78538
-2.15153 -19.2986 -8.39238
-1.67298 -19.374 -8.16338
-1.46416 -19.5838 -7.65138
-2.09398 -19.5807 -7.72138
-1.70649 -7.98804 0.87062
-2.26064 -8.25064 0.77362
-2.41086 -8.82964 0.92262
-1.79784 -8.70624 0.97962
-2.73486 -8.43764 0.59862
-2.94478 -8.93204 0.74862
-3.28189 -10.3209 0.69762
-3.1392 -9.56724 0.76762
-2.68561 -10.2939 0.83562
-2.55807 -9.51324 0.92662
-2.01042 -10.2516 0.80362
-1.89262 -9.45084 0.93862
1.53523 -6.30584 0.00762011
1.91757 -7.49834 0.54162
1.93351 -7.17254 -0.0743799
2.44455 -7.96384 0.43162
2.40501 -7.72624 -0.15638
2.40095 -7.65004 -0.86638
1.95725 -7.06764 -0.83738
1.59376 -6.18894 -0.77538
2.89522 -8.27884 0.28062
2.84986 -8.10804 -0.24638
2.85278 -8.05954 -0.87638
2.89522 -8.27884 -2.03338
2.84986 -8.10804 -1.50638
2.44455 -7.96054 -2.17038
2.40501 -7.72404 -1.57938
1.91757 -7.48534 -2.24238
1.53523 -6.27934 -1.56938
1.93351 -7.16384 -1.60838
2.23498 -10.3985 1.50462
2.12702 -9.53424 1.19662
2.91506 -10.4612 1.60362
2.80515 -9.62584 1.22862
2.67836 -8.93544 0.99762
2.04461 -8.77554 1.04362
3.51573 -10.5071 1.48262
3.39864 -9.70614 1.08062
3.23135 -9.07104 0.82662
3.04297 -8.59764 0.59862
2.54692 -8.37424 0.77362
1.9647 -8.06484 0.87062
1.67106 -22.604 2.98062
1.8798 -22.6032 2.42462
2.36068 -22.6084 2.18362
2.3038 -22.6115 2.91462
3.06204 -22.6109 2.06462
3.06204 -22.6142 2.84862
3.06204 -22.6116 3.79062
2.24716 -22.609 3.79062
1.568 -22.6014 3.79062
3.7634 -22.6084 2.18362
4.24428 -22.6032 2.42462
4.45302 -22.604 2.98062
3.82028 -22.6115 2.91462
4.55608 -22.6014 3.79062
3.87691 -22.609 3.79062
4.45302 -22.5951 4.60062
4.24428 -22.5881 5.15662
3.7634 -22.5907 5.39762
3.82028 -22.6018 4.66662
3.06204 -22.5919 5.51662
3.06204 -22.6039 4.73162
2.36068 -22.5907 5.39762
1.8798 -22.5881 5.15662
1.67106 -22.5951 4.60062
2.3038 -22.6018 4.66662
1.9647 -8.05614 -2.59538
2.54692 -8.37204 -2.51938
2.67836 -8.93504 -2.60838
2.04461 -8.77354 -2.66938
3.04297 -8.59764 -2.35138
3.23135 -9.07124 -2.43238
3.51573 -10.5085 -1.76538
3.39864 -9.70664 -2.24538
2.91506 -10.4628 -1.92638
2.80515 -9.62644 -2.41938
2.23498 -10.3998 -1.94638
2.12702 -9.53474 -2.46638
-1.65829 -11.1265 0.35362
-1.37916 -11.1628 -0.17938
-1.89398 -11.9947 0.19162
-1.64473 -11.9556 -0.26438
-1.5646 -11.9003 -0.81738
-1.29793 -11.1731 -0.83938
-2.04181 -12.7847 0.0656201
-2.1269 -13.4226 -0.0273799
-1.92971 -13.3253 -0.37438
-1.82143 -12.7058 -0.32738
-1.86399 -13.2085 -0.79138
-1.74797 -12.6112 -0.79938
-1.92971 -13.0917 -1.20738
-2.1269 -12.9944 -1.55438
-2.04181 -12.4377 -1.66538
-1.82143 -12.5166 -1.27238
-1.89398 -11.7456 -1.82738
-1.64473 -11.82 -1.37138
-1.65829 -10.9789 -2.03438
-1.37916 -11.0834 -1.50038
-3.78383 -11.1579 0.27762
-3.33661 -11.1705 0.58262
-3.7414 -12.0025 0.17262
-3.3305 -12.0346 0.44262
-2.83163 -12.0427 0.53662
-2.77683 -11.1643 0.69662
-3.65798 -12.7847 0.0656201
-3.5729 -13.4226 -0.0273799
-3.24426 -13.481 0.18062
-3.29067 -12.832 0.30162
-2.8499 -13.5005 0.25062
-2.8499 -12.8477 0.38062
-2.45553 -13.481 0.18062
-2.40912 -12.832 0.30162
-2.3212 -12.0266 0.45562
-2.17079 -11.1383 0.63262
-3.78383 -11.001 -1.95538
-4.05215 -11.0419 -1.44738
-3.7414 -11.7512 -1.80738
-3.98794 -11.8096 -1.35738
-4.07012 -11.8786 -0.81738
-4.14159 -11.0865 -0.83838
-3.65798 -12.4377 -1.66538
-3.5729 -12.9944 -1.55438
-3.77008 -13.0917 -1.20738
-3.87837 -12.5166 -1.27238
-3.83581 -13.2085 -0.79138
-3.95183 -12.6112 -0.79938
-3.77008 -13.3253 -0.37438
-3.87837 -12.7058 -0.32738
-3.98794 -11.9467 -0.27738
-4.05215 -11.1275 -0.22938
-2.17079 -10.9449 -2.31238
-2.3212 -11.7082 -2.09138
-2.83163 -11.7003 -2.17138
-2.77683 -10.952 -2.37438
-2.45553 -12.936 -1.76338
-2.40912 -12.3904 -1.90138
-2.8499 -12.9165 -1.83238
-2.8499 -12.3747 -1.98038
-3.24426 -12.936 -1.76338
-3.29067 -12.3904 -1.90138
-3.3305 -11.7147 -2.07838
-3.33661 -10.9709 -2.25938
1.88059 -11.4287 -0.78138
1.60291 -11.5037 -0.17538
2.12101 -12.4947 0.27462
1.8755 -12.5127 0.81562
1.79667 -12.5259 1.46862
1.52239 -11.5597 0.56662
2.27471 -13.4712 1.25562
2.36584 -14.2542 2.03962
2.17597 -14.2527 2.51762
2.05999 -13.47 1.75562
2.11268 -14.251 3.09162
1.98841 -13.4686 2.35662
2.17597 -14.2493 3.66562
2.36584 -14.2479 4.14362
2.27471 -13.4661 3.45762
2.05999 -13.4673 2.95762
2.12101 -12.491 2.63562
1.8755 -12.5107 2.10762
1.88059 -11.4265 1.80962
1.60291 -11.5025 1.25562
3.99886 -11.4936 -0.63038
3.55352 -11.4815 -0.96438
3.94191 -12.5109 0.31262
3.53709 -12.5083 -0.00437989
3.04549 -12.5033 -0.11638
2.99583 -11.461 -1.10138
3.84936 -13.4712 1.25562
3.75823 -14.2542 2.03962
3.44178 -14.255 1.75262
3.49149 -13.4719 0.95462
3.06204 -14.2553 1.65762
3.06204 -13.4721 0.85462
2.6823 -14.255 1.75262
2.63259 -13.4719 0.95462
2.54223 -12.4952 -0.0293799
2.39154 -11.4289 -1.06538
3.99886 -11.4913 1.81762
4.26606 -11.4993 1.26062
3.94191 -12.5072 2.63762
4.1848 -12.5099 2.10862
4.26576 -12.5116 1.47462
4.35512 -11.5024 0.59362
3.84936 -13.4661 3.45762
3.75823 -14.2479 4.14362
3.9481 -14.2493 3.66562
4.06409 -13.4673 2.95762
4.0114 -14.251 3.09162
4.13567 -13.4686 2.35662
3.9481 -14.2527 2.51762
4.06409 -13.47 1.75562
4.1848 -12.5119 0.84062
4.26606 -11.5005 -0.0743799
2.39154 -11.4261 2.14562
2.54223 -12.4905 2.95262
3.04549 -12.4983 3.05962
2.99583 -11.4578 2.26062
2.6823 -14.2471 4.42962
2.63259 -13.4654 3.75862
3.06204 -14.2468 4.52562
3.06204 -13.4652 3.85862
3.44178 -14.2471 4.42962
3.49149 -13.4654 3.75862
3.53709 -12.5036 2.95462
3.55352 -11.4785 2.15162
-2.17431 -13.8349 -0.0893799
-1.99005 -13.7258 -0.41138
-2.17994 -14.1677 -0.20638
-1.99722 -14.0492 -0.52338
-1.93632 -13.907 -0.90438
-1.92863 -13.5948 -0.79638
-2.1397 -14.5672 -0.46038
-2.04949 -15.1796 -0.93538
-1.8312 -15.0323 -1.31838
-1.94601 -14.4374 -0.79738
-1.75844 -14.8557 -1.77738
-1.88145 -14.2817 -1.20138
-1.8312 -14.679 -2.23638
-2.04949 -14.5318 -2.61838
-2.1397 -13.9961 -1.94338
-1.94601 -14.1259 -1.60638
-2.17994 -13.6462 -1.60238
-1.99722 -13.7647 -1.28538
-2.17431 -13.3548 -1.50338
-1.99005 -13.4639 -1.18238
-3.52549 -13.8349 -0.0893799
-3.2184 -13.9004 0.10262
-3.51985 -14.1677 -0.20638
-3.21533 -14.2388 -0.0153799
-2.8499 -14.2625 0.0476201
-2.8499 -13.9222 0.16762
-3.56009 -14.5672 -0.46038
-3.6503 -15.1796 -0.93538
-3.28648 -15.2679 -0.70638
-3.23728 -14.645 -0.25738
-2.8499 -15.2974 -0.62938
-2.8499 -14.671 -0.19038
-2.41331 -15.2679 -0.70638
-2.46252 -14.645 -0.25738
-2.48447 -14.2388 -0.0153799
-2.48139 -13.9004 0.10262
-3.52549 -13.3548 -1.50338
-3.70974 -13.4639 -1.18238
-3.51985 -13.6462 -1.60238
-3.70257 -13.7647 -1.28538
-3.76347 -13.907 -0.90438
-3.77116 -13.5948 -0.79638
-3.56009 -13.9961 -1.94338
-3.6503 -14.5318 -2.61838
-3.86859 -14.679 -2.23638
-3.75378 -14.1259 -1.60638
-3.94135 -14.8557 -1.77738
-3.81834 -14.2817 -1.20138
-3.86859 -15.0323 -1.31838
-3.75378 -14.4374 -0.79738
-3.70257 -14.0492 -0.52338
-3.70974 -13.7258 -0.41138
-2.48139 -13.2893 -1.69638
-2.48447 -13.5751 -1.79238
-2.8499 -13.5514 -1.85638
-2.8499 -13.2675 -1.76038
-2.41331 -14.4434 -2.84838
-2.46252 -13.9183 -2.14538
-2.8499 -14.414 -2.92438
-2.8499 -13.8923 -2.21338
-3.28648 -14.4434 -2.84838
-3.23728 -13.9183 -2.14538
-3.21533 -13.5751 -1.79238
-3.2184 -13.2893 -1.69638
2.41856 -14.7397 2.50862
2.24307 -14.7381 2.97362
2.42763 -15.115 2.72662
2.25461 -15.1133 3.19262
2.19694 -15.1112 3.75262
2.18457 -14.7362 3.53262
2.38783 -15.5675 2.76062
2.29392 -16.2844 2.67762
2.08443 -16.2823 3.19762
2.20395 -15.5656 3.24462
2.0146 -16.2797 3.82062
2.14266 -15.5633 3.82462
2.08443 -16.2771 4.44462
2.29392 -16.2749 4.96462
2.38783 -15.5592 4.88762
2.20395 -15.5611 4.40462
2.42763 -15.1075 4.77862
2.25461 -15.1092 4.31162
2.41856 -14.7327 4.55662
2.24307 -14.7343 4.09162
3.70552 -14.7397 2.50862
3.41302 -14.7406 2.22862
3.69645 -15.115 2.72662
3.40808 -15.116 2.44662
3.06204 -15.1164 2.35362
3.06204 -14.7409 2.13562
3.73625 -15.5675 2.76062
3.83016 -16.2844 2.67762
3.48101 -16.2857 2.36562
3.42979 -15.5686 2.47062
3.06204 -16.2862 2.26162
3.06204 -15.569 2.37462
2.64306 -16.2857 2.36562
2.69429 -15.5686 2.47062
2.716 -15.116 2.44662
2.71105 -14.7406 2.22862
3.70552 -14.7327 4.55662
3.88101 -14.7343 4.09162
3.69645 -15.1075 4.77862
3.86947 -15.1092 4.31162
3.92714 -15.1112 3.75262
3.93951 -14.7362 3.53262
3.73625 -15.5592 4.88762
3.83016 -16.2749 4.96462
4.03965 -16.2771 4.44462
3.92013 -15.5611 4.40462
4.10948 -16.2797 3.82062
3.98142 -15.5633 3.82462
4.03965 -16.2823 3.19762
3.92013 -15.5656 3.24462
3.86947 -15.1133 3.19262
3.88101 -14.7381 2.97362
2.71105 -14.7318 4.83562
2.716 -15.1064 5.05762
3.06204 -15.1061 5.15162
3.06204 -14.7314 4.92962
2.64306 -16.2736 5.27662
2.69429 -15.558 5.17762
3.06204 -16.2732 5.38062
3.06204 -15.5577 5.27462
3.48101 -16.2736 5.27662
3.42979 -15.558 5.17762
3.40808 -15.1064 5.05762
3.41303 -14.7318 4.83562
2.27711 -21.3794 5.97262
1.62299 -21.3818 5.50562
1.53047 -22.0865 5.58062
2.22663 -22.0839 6.06862
1.53463 -22.4479 5.56062
2.2291 -22.4455 6.04362
3.06204 -22.4449 6.20562
3.06204 -22.083 6.23162
3.06204 -21.3785 6.12762
1.67229 -22.5779 5.39662
2.30478 -22.5765 5.83862
3.06204 -22.5767 5.98762
4.45179 -22.5779 5.39662
3.8193 -22.5765 5.83862
4.58945 -22.4479 5.56062
3.89497 -22.4455 6.04362
4.59361 -22.0865 5.58062
4.50108 -21.3818 5.50562
3.84697 -21.3794 5.97262
3.89744 -22.0839 6.06862
4.89355 -21.386 4.72862
5.01132 -22.091 4.76862
5.007 -22.4526 4.75562
5.14654 -22.4581 3.79062
5.15055 -22.0963 3.79262
5.02437 -21.391 3.79562
4.83475 -22.5829 4.66562
4.96384 -22.5888 3.79062
4.45179 -22.5955 2.18462
4.83475 -22.5926 2.91562
4.58945 -22.4673 2.02162
5.007 -22.4631 2.82562
4.59361 -22.106 2.00462
4.50108 -21.4001 2.08562
4.89355 -21.3959 2.86362
5.01132 -22.1016 2.81762
3.84697 -21.4026 1.61962
3.89744 -22.1087 1.51662
3.89497 -22.4702 1.53762
3.06204 -22.4714 1.37662
3.06204 -22.1095 1.35362
3.06204 -21.4034 1.46462
3.8193 -22.599 1.74262
3.06204 -22.6009 1.59362
1.67229 -22.5955 2.18462
2.30478 -22.599 1.74262
1.53463 -22.4673 2.02162
2.2291 -22.4702 1.53762
1.53047 -22.106 2.00462
1.62299 -21.4001 2.08562
2.27711 -21.4026 1.61962
2.22663 -22.1087 1.51662
1.23053 -21.3959 2.86362
1.11276 -22.1016 2.81762
1.11708 -22.4631 2.82562
0.977534 -22.4581 3.79062
0.973524 -22.0963 3.79262
1.0997 -21.391 3.79562
1.28933 -22.5926 2.91562
1.16024 -22.5888 3.79062
1.28933 -22.5829 4.66562
1.11708 -22.4526 4.75562
1.23053 -21.386 4.72862
1.11276 -22.091 4.76862
2.14068 -17.4416 5.08862
2.55948 -17.4401 5.43562
1.9579 -18.8328 5.23562
2.45978 -18.8309 5.62562
3.06204 -18.8303 5.75462
3.06204 -17.4395 5.55162
1.77541 -20.2217 5.38262
2.36024 -20.2195 5.81462
3.06204 -20.2188 5.95762
4.34867 -20.2217 5.38262
3.76384 -20.2195 5.81462
4.16617 -18.8328 5.23562
3.66429 -18.8309 5.62562
3.9834 -17.4416 5.08862
3.5646 -17.4401 5.43562
4.23468 -17.4443 4.50962
4.4673 -18.8359 4.58662
4.56768 -18.8397 3.80862
4.31844 -17.4474 3.81562
4.69957 -20.2254 4.66462
4.81653 -20.2299 3.80162
4.34867 -20.238 2.22062
4.69957 -20.2343 2.93962
4.16617 -18.8467 2.38162
4.4673 -18.8435 3.02962
3.9834 -17.4532 2.54262
4.23468 -17.4505 3.12062
3.5646 -17.4547 2.19562
3.66429 -18.8486 1.99162
3.06204 -18.8492 1.86262
3.06204 -17.4552 2.07962
3.76384 -20.2402 1.78962
3.06204 -20.2409 1.64562
1.77541 -20.238 2.22062
2.36024 -20.2402 1.78962
1.9579 -18.8467 2.38162
2.45978 -18.8486 1.99162
2.14068 -17.4532 2.54262
2.55948 -17.4547 2.19562
1.88939 -17.4505 3.12062
1.65677 -18.8435 3.02962
1.5564 -18.8397 3.80862
1.80563 -17.4474 3.81562
1.42451 -20.2343 2.93962
1.30754 -20.2299 3.80162
1.42451 -20.2254 4.66462
1.65677 -18.8359 4.58662
1.88939 -17.4443 4.50962
-1.90521 -16.1511 -1.71738
-1.64757 -15.9759 -2.17238
-1.73395 -17.3016 -2.65138
-1.4296 -17.0934 -3.19238
-1.32815 -16.8435 -3.84238
-1.56169 -15.7658 -2.71838
-1.5628 -18.4513 -3.58638
-1.41886 -19.42 -4.36738
-1.02857 -19.1509 -5.06638
-1.21177 -18.21 -4.21338
-0.898476 -18.8278 -5.90538
-1.09476 -17.9203 -4.96538
-1.02857 -18.5048 -6.74438
-1.41886 -18.2356 -7.44438
-1.5628 -17.3894 -6.34538
-1.21177 -17.6307 -5.71738
-1.73395 -16.3854 -5.03238
-1.4296 -16.5936 -4.49138
-1.90521 -15.3805 -3.71938
-1.64757 -15.5556 -3.26438
-2.33461 -15.2754 -3.99238
-2.2412 -16.2604 -5.35738
-2.8499 -16.2188 -5.46538
-2.8499 -15.2404 -4.08338
-2.06933 -18.0741 -7.86338
-2.14784 -17.2446 -6.72138
-2.8499 -18.0203 -8.00338
-2.8499 -17.1963 -6.84638
-3.63047 -18.0741 -7.86338
-4.28094 -18.2356 -7.44438
-4.137 -17.3894 -6.34538
-3.55195 -17.2446 -6.72138
-3.96585 -16.3854 -5.03238
-3.4586 -16.2604 -5.35738
-3.79458 -15.3805 -3.71938
-3.36518 -15.2754 -3.99238
-4.05223 -15.5556 -3.26438
-4.2702 -16.5936 -4.49138
-4.37165 -16.8435 -3.84238
-4.1381 -15.7658 -2.71838
-4.67122 -18.5048 -6.74438
-4.48802 -17.6307 -5.71738
-4.80132 -18.8278 -5.90538
-4.60503 -17.9203 -4.96538
-4.67122 -19.1509 -5.06638
-4.28094 -19.42 -4.36738
-4.137 -18.4513 -3.58638
-4.48802 -18.21 -4.21338
-3.96585 -17.3016 -2.65138
-4.2702 -17.0934 -3.19238
-3.79458 -16.1511 -1.71738
-4.05223 -15.9759 -2.17238
-3.36518 -16.2561 -1.44438
-3.4586 -17.4266 -2.32738
-2.8499 -17.4682 -2.21838
-2.8499 -16.2912 -1.35338
-3.63047 -19.5815 -3.94738
-3.55195 -18.5961 -3.20938
-2.8499 -19.6354 -3.80738
-2.8499 -18.6444 -3.08438
-2.06933 -19.5815 -3.94738
-2.14784 -18.5961 -3.20938
-2.2412 -17.4266 -2.32738
-2.33461 -16.2561 -1.44438
-1.32921 -20.0278 -4.84138
-0.914476 -19.7413 -5.58638
-1.33263 -20.337 -5.14038
-0.917716 -20.0516 -5.88438
-0.778996 -19.7091 -6.77638
-0.776236 -19.3975 -6.47938
-1.46788 -20.4098 -5.39438
-1.08651 -20.1518 -6.07338
-0.957746 -19.8424 -6.88638
-1.46788 -19.2628 -8.37438
-1.08651 -19.5269 -7.69738
-1.33263 -19.0782 -8.41138
-0.917716 -19.3651 -7.66738
-1.32921 -18.7672 -8.11738
-0.914476 -19.0537 -7.37238
-2.02043 -18.5953 -8.56338
-2.02252 -18.9068 -8.85838
-2.8499 -18.85 -9.00838
-2.8499 -18.538 -8.71238
-2.09696 -19.1076 -8.78638
-2.8499 -19.0572 -8.92638
-4.23191 -19.2628 -8.37438
-3.60283 -19.1076 -8.78638
-4.36716 -19.0782 -8.41138
-3.67727 -18.9068 -8.85838
-4.37058 -18.7672 -8.11738
-3.67936 -18.5953 -8.56338
-4.78531 -19.0537 -7.37238
-4.78208 -19.3651 -7.66738
-4.92079 -19.7091 -6.77638
-4.92356 -19.3975 -6.47938
-4.61329 -19.5269 -7.69738
-4.74205 -19.8424 -6.88638
-4.23191 -20.4098 -5.39438
-4.61329 -20.1518 -6.07338
-4.36716 -20.337 -5.14038
-4.78208 -20.0516 -5.88438
-4.37058 -20.0278 -4.84138
-4.78531 -19.7413 -5.58638
-3.67936 -20.1998 -4.39538
-3.67727 -20.5099 -4.69338
-2.8499 -20.5682 -4.54438
-2.8499 -20.2571 -4.24638
-3.60283 -20.5711 -4.98438
-2.8499 -20.6276 -4.84638
-2.09696 -20.5711 -4.98438
-2.02252 -20.5099 -4.69338
-2.02043 -20.1998 -4.39538
0.946604 0.467762 -1.51038
0.564544 0.522262 -1.87038
0.106074 0.540462 -1.98938
0.569544 0.525562 -1.88838
0.943124 -2.15384 0.91062
1.1714 -2.09164 0.31162
0.974564 -3.55194 0.79862
1.20606 -3.48794 0.19362
1.28126 -3.41854 -0.53638
1.2475 -2.01704 -0.40738
1.0689 -5.08894 0.71362
1.31004 -4.98514 0.0946201
1.38256 -4.89094 -0.66638
1.0689 -4.97194 -2.06338
1.31004 -4.92224 -1.43638
0.974564 -3.35484 -1.87438
1.20606 -3.38064 -1.26838
0.943124 -1.88024 -1.72438
1.1714 -1.94244 -1.12538
0.562644 -1.84294 -2.08338
0.580864 -3.32224 -2.22838
0.106324 -3.30374 -2.34138
0.106074 -1.83054 -2.20338
0.635544 -4.93274 -2.39838
0.107054 -4.88934 -2.49238
-0.849106 -4.95914 -2.06338
-0.419466 -4.92614 -2.39838
-0.760506 -3.35164 -1.87438
-0.367736 -3.32054 -2.22838
-0.730966 -1.88024 -1.72438
-0.350496 -1.84294 -2.08338
-0.959256 -1.94244 -1.12538
-0.991176 -3.37604 -1.26838
-1.066 -3.41334 -0.53638
-1.03535 -2.01704 -0.40738
-1.08695 -4.90394 -1.43638
-1.15792 -4.87004 -0.66638
-0.849106 -5.07614 0.71362
-1.08695 -4.96694 0.0946201
-0.760506 -3.54874 0.79862
-0.991176 -3.48334 0.19362
-0.730966 -2.15384 0.91062
-0.959256 -2.09164 0.31162
-0.350496 -2.19114 1.26962
-0.367736 -3.57254 1.15362
0.106324 -3.57434 1.26962
0.106074 -2.20354 1.38962
-0.419466 -5.07954 1.05662
0.107054 -5.05644 1.15862
0.635544 -5.08614 1.05662
0.580864 -3.57414 1.15362
0.562644 -2.19114 1.26962
3 0 1 2
3 0 2 3
3 2 4 5
3 2 5 3
3 5 6 7
3 5 7 3
3 7 8 0
3 7 0 3
3 9 10 11
3 9 11 12
3 11 13 14
3 11 14 12
3 14 6 5
3 14 5 12
3 5 4 9
3 5 9 12
3 15 16 17
3 15 17 18
3 17 19 20
3 17 20 18
3 20 6 14
3 20 14 18
3 14 13 15
3 14 15 18
3 21 22 23
3 21 23 24
3 23 8 7
3 23 7 24
3 7 6 20
3 7 20 24
3 20 19 21
3 20 21 24
3 25 26 27
3 25 27 28
3 27 29 30
3 27 30 28
3 31 32 33
3 31 33 34
3 33 35 36
3 33 36 34
3 36 29 27
3 36 27 34
3 27 26 31
3 27 31 34
3 37 38 39
3 37 39 40
3 39 41 42
3 39 42 40
3 42 29 36
3 42 36 40
3 36 35 37
3 36 37 40
3 30 29 42
3 30 42 43
3 42 41 44
3 42 44 43
3 45 46 47
3 45 47 48
3 47 49 50
3 47 50 48
3 50 51 52
3 50 52 48
3 52 53 45
3 52 45 48
3 54 55 56
3 54 56 57
3 56 58 59
3 56 59 57
3 59 51 50
3 59 50 57
3 50 49 54
3 50 54 57
3 60 32 31
3 60 31 61
3 31 26 62
3 31 62 61
3 62 51 59
3 62 59 61
3 59 58 60
3 59 60 61
3 25 63 64
3 63 53 52
3 63 52 64
3 52 51 62
3 52 62 64
3 62 26 25
3 62 25 64
3 65 66 67
3 65 67 68
3 67 69 70
3 67 70 68
3 71 72 73
3 71 73 74
3 73 75 76
3 73 76 74
3 76 69 67
3 76 67 74
3 67 66 71
3 67 71 74
3 77 55 54
3 77 54 78
3 54 49 79
3 54 79 78
3 79 69 76
3 79 76 78
3 76 75 77
3 76 77 78
3 70 69 79
3 70 79 80
3 79 49 47
3 79 47 80
3 44 41 81
3 44 81 82
3 81 83 84
3 81 84 82
3 39 38 85
3 39 85 86
3 85 87 88
3 85 88 86
3 88 83 81
3 88 81 86
3 81 41 39
3 81 39 86
3 89 72 71
3 89 71 90
3 71 66 91
3 71 91 90
3 91 83 88
3 91 88 90
3 88 87 89
3 88 89 90
3 84 83 91
3 84 91 92
3 91 66 65
3 91 65 92
3 93 94 95
3 93 95 96
3 95 97 98
3 95 98 96
3 98 99 100
3 98 100 96
3 100 101 93
3 100 93 96
3 102 103 104
3 102 104 105
3 104 106 107
3 104 107 105
3 107 99 98
3 107 98 105
3 98 97 102
3 98 102 105
3 108 109 110
3 108 110 111
3 110 112 113
3 110 113 111
3 113 99 107
3 113 107 111
3 107 106 108
3 107 108 111
3 114 115 116
3 114 116 117
3 116 101 100
3 116 100 117
3 100 99 113
3 100 113 117
3 113 112 114
3 113 114 117
3 118 119 120
3 118 120 121
3 120 122 123
3 120 123 121
3 123 124 125
3 123 125 121
3 125 126 118
3 125 118 121
3 127 10 9
3 127 9 128
3 9 4 129
3 9 129 128
3 129 124 123
3 129 123 128
3 123 122 127
3 123 127 128
3 2 1 130
3 2 130 131
3 130 132 133
3 130 133 131
3 133 124 129
3 133 129 131
3 129 4 2
3 129 2 131
3 134 135 136
3 134 136 137
3 136 126 125
3 136 125 137
3 125 124 133
3 125 133 137
3 133 132 134
3 133 134 137
3 138 139 140
3 138 140 141
3 140 142 143
3 140 143 141
3 143 144 145
3 143 145 141
3 145 146 138
3 145 138 141
3 147 148 149
3 147 149 150
3 149 151 152
3 149 152 150
3 152 144 143
3 152 143 150
3 143 142 147
3 143 147 150
3 153 154 155
3 153 155 156
3 155 157 158
3 155 158 156
3 158 144 152
3 158 152 156
3 152 151 153
3 152 153 156
3 159 160 161
3 159 161 162
3 161 146 145
3 161 145 162
3 145 144 158
3 145 158 162
3 158 157 159
3 158 159 162
3 163 164 165
3 163 165 166
3 165 167 168
3 165 168 166
3 168 169 170
3 168 170 166
3 170 171 163
3 170 163 166
3 172 22 21
3 172 21 173
3 21 19 174
3 21 174 173
3 174 169 168
3 174 168 173
3 168 167 172
3 168 172 173
3 17 16 175
3 17 175 176
3 175 177 178
3 175 178 176
3 178 169 174
3 178 174 176
3 174 19 17
3 174 17 176
3 179 180 181
3 179 181 182
3 181 171 170
3 181 170 182
3 170 169 178
3 170 178 182
3 178 177 179
3 178 179 182
3 183 135 184
3 183 184 185
3 184 186 187
3 184 187 185
3 187 188 189
3 187 189 185
3 189 190 183
3 189 183 185
3 191 94 93
3 191 93 192
3 93 101 193
3 93 193 192
3 193 188 187
3 193 187 192
3 187 186 191
3 187 191 192
3 116 115 194
3 116 194 195
3 194 196 197
3 194 197 195
3 197 188 193
3 197 193 195
3 193 101 116
3 193 116 195
3 198 164 199
3 198 199 200
3 199 190 189
3 199 189 200
3 189 188 197
3 189 197 200
3 197 196 198
3 197 198 200
3 130 1 201
3 130 201 202
3 201 203 204
3 201 204 202
3 204 205 206
3 204 206 202
3 206 132 130
3 206 130 202
3 207 103 102
3 207 102 208
3 102 97 209
3 102 209 208
3 209 205 204
3 209 204 208
3 204 203 207
3 204 207 208
3 95 94 191
3 95 191 210
3 191 186 211
3 191 211 210
3 211 205 209
3 211 209 210
3 209 97 95
3 209 95 210
3 184 135 134
3 184 134 212
3 134 132 206
3 134 206 212
3 206 205 211
3 206 211 212
3 211 186 184
3 211 184 212
3 213 214 215
3 213 215 216
3 215 217 218
3 215 218 216
3 218 219 220
3 218 220 216
3 220 221 213
3 220 213 216
3 222 223 224
3 222 224 225
3 224 226 227
3 224 227 225
3 227 219 218
3 227 218 225
3 218 217 222
3 218 222 225
3 228 229 230
3 228 230 231
3 230 232 233
3 230 233 231
3 233 219 227
3 233 227 231
3 227 226 228
3 227 228 231
3 234 235 236
3 234 236 237
3 236 221 220
3 236 220 237
3 220 219 233
3 220 233 237
3 233 232 234
3 233 234 237
3 165 164 198
3 165 198 238
3 198 196 239
3 198 239 238
3 239 240 241
3 239 241 238
3 241 167 165
3 241 165 238
3 194 115 114
3 194 114 242
3 114 112 243
3 114 243 242
3 243 240 239
3 243 239 242
3 239 196 194
3 239 194 242
3 110 109 244
3 110 244 245
3 244 246 247
3 244 247 245
3 247 240 243
3 247 243 245
3 243 112 110
3 243 110 245
3 248 22 172
3 248 172 249
3 172 167 241
3 172 241 249
3 241 240 247
3 241 247 249
3 247 246 248
3 247 248 249
3 250 180 251
3 250 251 252
3 251 253 254
3 251 254 252
3 254 255 256
3 254 256 252
3 256 257 250
3 256 250 252
3 258 139 138
3 258 138 259
3 138 146 260
3 138 260 259
3 260 255 254
3 260 254 259
3 254 253 258
3 254 258 259
3 161 160 261
3 161 261 262
3 261 263 264
3 261 264 262
3 264 255 260
3 264 260 262
3 260 146 161
3 260 161 262
3 265 119 266
3 265 266 267
3 266 257 256
3 266 256 267
3 256 255 264
3 256 264 267
3 264 263 265
3 264 265 267
3 175 16 268
3 175 268 269
3 268 270 271
3 268 271 269
3 271 272 273
3 271 273 269
3 273 177 175
3 273 175 269
3 274 148 147
3 274 147 275
3 147 142 276
3 147 276 275
3 276 272 271
3 276 271 275
3 271 270 274
3 271 274 275
3 140 139 258
3 140 258 277
3 258 253 278
3 258 278 277
3 278 272 276
3 278 276 277
3 276 142 140
3 276 140 277
3 251 180 179
3 251 179 279
3 179 177 273
3 179 273 279
3 273 272 278
3 273 278 279
3 278 253 251
3 278 251 279
3 280 281 282
3 280 282 283
3 282 284 285
3 282 285 283
3 285 286 287
3 285 287 283
3 287 288 280
3 287 280 283
3 289 290 291
3 289 291 292
3 291 293 294
3 291 294 292
3 294 286 285
3 294 285 292
3 285 284 289
3 285 289 292
3 295 296 297
3 295 297 298
3 297 299 300
3 297 300 298
3 300 286 294
3 300 294 298
3 294 293 295
3 294 295 298
3 301 302 303
3 301 303 304
3 303 288 287
3 303 287 304
3 287 286 300
3 287 300 304
3 300 299 301
3 300 301 304
3 120 119 265
3 120 265 305
3 265 263 306
3 265 306 305
3 306 307 308
3 306 308 305
3 308 122 120
3 308 120 305
3 261 160 159
3 261 159 309
3 159 157 310
3 159 310 309
3 310 307 306
3 310 306 309
3 306 263 261
3 306 261 309
3 155 154 311
3 155 311 312
3 311 313 314
3 311 314 312
3 314 307 310
3 314 310 312
3 310 157 155
3 310 155 312
3 315 10 127
3 315 127 316
3 127 122 308
3 127 308 316
3 308 307 314
3 308 314 316
3 314 313 315
3 314 315 316
3 23 22 317
3 23 317 318
3 317 319 320
3 317 320 318
3 320 321 322
3 320 322 318
3 322 8 23
3 322 23 318
3 323 324 325
3 323 325 326
3 325 327 328
3 325 328 326
3 328 321 320
3 328 320 326
3 320 319 323
3 320 323 326
3 329 330 331
3 329 331 332
3 331 333 334
3 331 334 332
3 334 321 328
3 334 328 332
3 328 327 329
3 328 329 332
3 335 1 0
3 335 0 336
3 0 8 322
3 0 322 336
3 322 321 334
3 322 334 336
3 334 333 335
3 334 335 336
3 244 109 337
3 244 337 338
3 337 339 340
3 337 340 338
3 340 341 342
3 340 342 338
3 342 246 244
3 342 244 338
3 343 344 345
3 343 345 346
3 345 347 348
3 345 348 346
3 348 341 340
3 348 340 346
3 340 339 343
3 340 343 346
3 349 324 323
3 349 323 350
3 323 319 351
3 323 351 350
3 351 341 348
3 351 348 350
3 348 347 349
3 348 349 350
3 317 22 248
3 317 248 352
3 248 246 342
3 248 342 352
3 342 341 351
3 342 351 352
3 351 319 317
3 351 317 352
3 104 103 353
3 104 353 354
3 353 355 356
3 353 356 354
3 356 357 358
3 356 358 354
3 358 106 104
3 358 104 354
3 359 360 361
3 359 361 362
3 361 363 364
3 361 364 362
3 364 357 356
3 364 356 362
3 356 355 359
3 356 359 362
3 365 344 343
3 365 343 366
3 343 339 367
3 343 367 366
3 367 357 364
3 367 364 366
3 364 363 365
3 364 365 366
3 337 109 108
3 337 108 368
3 108 106 358
3 108 358 368
3 358 357 367
3 358 367 368
3 367 339 337
3 367 337 368
3 201 1 335
3 201 335 369
3 335 333 370
3 335 370 369
3 370 371 372
3 370 372 369
3 372 203 201
3 372 201 369
3 331 330 373
3 331 373 374
3 373 375 376
3 373 376 374
3 376 371 370
3 376 370 374
3 370 333 331
3 370 331 374
3 377 360 359
3 377 359 378
3 359 355 379
3 359 379 378
3 379 371 376
3 379 376 378
3 376 375 377
3 376 377 378
3 353 103 207
3 353 207 380
3 207 203 372
3 207 372 380
3 372 371 379
3 372 379 380
3 379 355 353
3 379 353 380
3 11 10 381
3 11 381 382
3 381 383 384
3 381 384 382
3 384 385 386
3 384 386 382
3 386 13 11
3 386 11 382
3 387 388 389
3 387 389 390
3 389 391 392
3 389 392 390
3 392 385 384
3 392 384 390
3 384 383 387
3 384 387 390
3 393 394 395
3 393 395 396
3 395 397 398
3 395 398 396
3 398 385 392
3 398 392 396
3 392 391 393
3 392 393 396
3 399 16 15
3 399 15 400
3 15 13 386
3 15 386 400
3 386 385 398
3 386 398 400
3 398 397 399
3 398 399 400
3 311 154 401
3 311 401 402
3 401 403 404
3 401 404 402
3 404 405 406
3 404 406 402
3 406 313 311
3 406 311 402
3 407 408 409
3 407 409 410
3 409 411 412
3 409 412 410
3 412 405 404
3 412 404 410
3 404 403 407
3 404 407 410
3 413 388 387
3 413 387 414
3 387 383 415
3 387 415 414
3 415 405 412
3 415 412 414
3 412 411 413
3 412 413 414
3 381 10 315
3 381 315 416
3 315 313 406
3 315 406 416
3 406 405 415
3 406 415 416
3 415 383 381
3 415 381 416
3 149 148 417
3 149 417 418
3 417 419 420
3 417 420 418
3 420 421 422
3 420 422 418
3 422 151 149
3 422 149 418
3 423 424 425
3 423 425 426
3 425 427 428
3 425 428 426
3 428 421 420
3 428 420 426
3 420 419 423
3 420 423 426
3 429 408 407
3 429 407 430
3 407 403 431
3 407 431 430
3 431 421 428
3 431 428 430
3 428 427 429
3 428 429 430
3 401 154 153
3 401 153 432
3 153 151 422
3 153 422 432
3 422 421 431
3 422 431 432
3 431 403 401
3 431 401 432
3 268 16 399
3 268 399 433
3 399 397 434
3 399 434 433
3 434 435 436
3 434 436 433
3 436 270 268
3 436 268 433
3 395 394 437
3 395 437 438
3 437 439 440
3 437 440 438
3 440 435 434
3 440 434 438
3 434 397 395
3 434 395 438
3 441 424 423
3 441 423 442
3 423 419 443
3 423 443 442
3 443 435 440
3 443 440 442
3 440 439 441
3 440 441 442
3 417 148 274
3 417 274 444
3 274 270 436
3 274 436 444
3 436 435 443
3 436 443 444
3 443 419 417
3 443 417 444
3 325 324 445
3 325 445 446
3 445 447 448
3 445 448 446
3 448 449 450
3 448 450 446
3 450 327 325
3 450 325 446
3 451 452 453
3 451 453 454
3 453 455 456
3 453 456 454
3 456 449 448
3 456 448 454
3 448 447 451
3 448 451 454
3 457 458 459
3 457 459 460
3 459 461 462
3 459 462 460
3 462 449 456
3 462 456 460
3 456 455 457
3 456 457 460
3 463 330 329
3 463 329 464
3 329 327 450
3 329 450 464
3 450 449 462
3 450 462 464
3 462 461 463
3 462 463 464
3 345 344 465
3 345 465 466
3 465 467 468
3 465 468 466
3 468 469 470
3 468 470 466
3 470 347 345
3 470 345 466
3 471 472 473
3 471 473 474
3 473 475 476
3 473 476 474
3 476 469 468
3 476 468 474
3 468 467 471
3 468 471 474
3 477 452 451
3 477 451 478
3 451 447 479
3 451 479 478
3 479 469 476
3 479 476 478
3 476 475 477
3 476 477 478
3 445 324 349
3 445 349 480
3 349 347 470
3 349 470 480
3 470 469 479
3 470 479 480
3 479 447 445
3 479 445 480
3 361 360 481
3 361 481 482
3 481 483 484
3 481 484 482
3 484 485 486
3 484 486 482
3 486 363 361
3 486 361 482
3 487 488 489
3 487 489 490
3 489 491 492
3 489 492 490
3 492 485 484
3 492 484 490
3 484 483 487
3 484 487 490
3 493 472 471
3 493 471 494
3 471 467 495
3 471 495 494
3 495 485 492
3 495 492 494
3 492 491 493
3 492 493 494
3 465 344 365
3 465 365 496
3 365 363 486
3 365 486 496
3 486 485 495
3 486 495 496
3 495 467 465
3 495 465 496
3 373 330 463
3 373 463 497
3 463 461 498
3 463 498 497
3 498 499 500
3 498 500 497
3 500 375 373
3 500 373 497
3 459 458 501
3 459 501 502
3 501 503 504
3 501 504 502
3 504 499 498
3 504 498 502
3 498 461 459
3 498 459 502
3 505 488 487
3 505 487 506
3 487 483 507
3 487 507 506
3 507 499 504
3 507 504 506
3 504 503 505
3 504 505 506
3 481 360 377
3 481 377 508
3 377 375 500
3 377 500 508
3 500 499 507
3 500 507 508
3 507 483 481
3 507 481 508
3 389 388 509
3 389 509 510
3 509 511 512
3 509 512 510
3 512 513 514
3 512 514 510
3 514 391 389
3 514 389 510
3 515 516 517
3 515 517 518
3 517 519 520
3 517 520 518
3 520 513 512
3 520 512 518
3 512 511 515
3 512 515 518
3 521 522 523
3 521 523 524
3 523 525 526
3 523 526 524
3 526 513 520
3 526 520 524
3 520 519 521
3 520 521 524
3 527 394 393
3 527 393 528
3 393 391 514
3 393 514 528
3 514 513 526
3 514 526 528
3 526 525 527
3 526 527 528
3 409 408 529
3 409 529 530
3 529 531 532
3 529 532 530
3 532 533 534
3 532 534 530
3 534 411 409
3 534 409 530
3 535 536 537
3 535 537 538
3 537 539 540
3 537 540 538
3 540 533 532
3 540 532 538
3 532 531 535
3 532 535 538
3 541 516 515
3 541 515 542
3 515 511 543
3 515 543 542
3 543 533 540
3 543 540 542
3 540 539 541
3 540 541 542
3 509 388 413
3 509 413 544
3 413 411 534
3 413 534 544
3 534 533 543
3 534 543 544
3 543 511 509
3 543 509 544
3 425 424 545
3 425 545 546
3 545 547 548
3 545 548 546
3 548 549 550
3 548 550 546
3 550 427 425
3 550 425 546
3 551 552 553
3 551 553 554
3 553 555 556
3 553 556 554
3 556 549 548
3 556 548 554
3 548 547 551
3 548 551 554
3 557 536 535
3 557 535 558
3 535 531 559
3 535 559 558
3 559 549 556
3 559 556 558
3 556 555 557
3 556 557 558
3 529 408 429
3 529 429 560
3 429 427 550
3 429 550 560
3 550 549 559
3 550 559 560
3 559 531 529
3 559 529 560
3 437 394 527
3 437 527 561
3 527 525 562
3 527 562 561
3 562 563 564
3 562 564 561
3 564 439 437
3 564 437 561
3 523 522 565
3 523 565 566
3 565 567 568
3 565 568 566
3 568 563 562
3 568 562 566
3 562 525 523
3 562 523 566
3 569 552 551
3 569 551 570
3 551 547 571
3 551 571 570
3 571 563 568
3 571 568 570
3 568 567 569
3 568 569 570
3 545 424 441
3 545 441 572
3 441 439 564
3 441 564 572
3 564 563 571
3 564 571 572
3 571 547 545
3 571 545 572
3 573 574 575
3 573 575 576
3 575 577 578
3 575 578 576
3 578 579 580
3 578 580 576
3 580 581 573
3 580 573 576
3 582 302 301
3 582 301 583
3 301 299 584
3 301 584 583
3 584 579 578
3 584 578 583
3 578 577 582
3 578 582 583
3 297 296 585
3 297 585 586
3 585 587 588
3 585 588 586
3 588 579 584
3 588 584 586
3 584 299 297
3 584 297 586
3 589 590 591
3 589 591 592
3 591 581 580
3 591 580 592
3 580 579 588
3 580 588 592
3 588 587 589
3 588 589 592
3 593 590 589
3 593 589 594
3 589 587 595
3 589 595 594
3 595 596 597
3 595 597 594
3 597 598 593
3 597 593 594
3 585 296 295
3 585 295 599
3 295 293 600
3 295 600 599
3 600 596 595
3 600 595 599
3 595 587 585
3 595 585 599
3 291 290 601
3 291 601 602
3 601 603 604
3 601 604 602
3 604 596 600
3 604 600 602
3 600 293 291
3 600 291 602
3 605 606 607
3 605 607 608
3 607 598 597
3 607 597 608
3 597 596 604
3 597 604 608
3 604 603 605
3 604 605 608
3 609 606 605
3 609 605 610
3 605 603 611
3 605 611 610
3 611 612 613
3 611 613 610
3 613 614 609
3 613 609 610
3 601 290 289
3 601 289 615
3 289 284 616
3 289 616 615
3 616 612 611
3 616 611 615
3 611 603 601
3 611 601 615
3 282 281 617
3 282 617 618
3 617 619 620
3 617 620 618
3 620 612 616
3 620 616 618
3 616 284 282
3 616 282 618
3 621 622 623
3 621 623 624
3 623 614 613
3 623 613 624
3 613 612 620
3 613 620 624
3 620 619 621
3 620 621 624
3 625 622 621
3 625 621 626
3 621 619 627
3 621 627 626
3 627 628 629
3 627 629 626
3 629 630 625
3 629 625 626
3 617 281 280
3 617 280 631
3 280 288 632
3 280 632 631
3 632 628 627
3 632 627 631
3 627 619 617
3 627 617 631
3 303 302 582
3 303 582 633
3 582 577 634
3 582 634 633
3 634 628 632
3 634 632 633
3 632 288 303
3 632 303 633
3 575 574 635
3 575 635 636
3 635 630 629
3 635 629 636
3 629 628 634
3 629 634 636
3 634 577 575
3 634 575 636
3 565 522 637
3 565 637 638
3 637 639 640
3 637 640 638
3 640 641 642
3 640 642 638
3 642 567 565
3 642 565 638
3 643 574 573
3 643 573 644
3 573 581 645
3 573 645 644
3 645 641 640
3 645 640 644
3 640 639 643
3 640 643 644
3 591 590 646
3 591 646 647
3 646 648 649
3 646 649 647
3 649 641 645
3 649 645 647
3 645 581 591
3 645 591 647
3 650 552 569
3 650 569 651
3 569 567 642
3 569 642 651
3 642 641 649
3 642 649 651
3 649 648 650
3 649 650 651
3 553 552 650
3 553 650 652
3 650 648 653
3 650 653 652
3 653 654 655
3 653 655 652
3 655 555 553
3 655 553 652
3 646 590 593
3 646 593 656
3 593 598 657
3 593 657 656
3 657 654 653
3 657 653 656
3 653 648 646
3 653 646 656
3 607 606 658
3 607 658 659
3 658 660 661
3 658 661 659
3 661 654 657
3 661 657 659
3 657 598 607
3 657 607 659
3 662 536 557
3 662 557 663
3 557 555 655
3 557 655 663
3 655 654 661
3 655 661 663
3 661 660 662
3 661 662 663
3 537 536 662
3 537 662 664
3 662 660 665
3 662 665 664
3 665 666 667
3 665 667 664
3 667 539 537
3 667 537 664
3 658 606 609
3 658 609 668
3 609 614 669
3 609 669 668
3 669 666 665
3 669 665 668
3 665 660 658
3 665 658 668
3 623 622 670
3 623 670 671
3 670 672 673
3 670 673 671
3 673 666 669
3 673 669 671
3 669 614 623
3 669 623 671
3 674 516 541
3 674 541 675
3 541 539 667
3 541 667 675
3 667 666 673
3 667 673 675
3 673 672 674
3 673 674 675
3 517 516 674
3 517 674 676
3 674 672 677
3 674 677 676
3 677 678 679
3 677 679 676
3 679 519 517
3 679 517 676
3 670 622 625
3 670 625 680
3 625 630 681
3 625 681 680
3 681 678 677
3 681 677 680
3 677 672 670
3 677 670 680
3 635 574 643
3 635 643 682
3 643 639 683
3 643 683 682
3 683 678 681
3 683 681 682
3 681 630 635
3 681 635 682
3 637 522 521
3 637 521 684
3 521 519 679
3 521 679 684
3 679 678 683
3 679 683 684
3 683 639 637
3 683 637 684
3 453 452 685
3 453 685 686
3 685 687 688
3 685 688 686
3 688 689 690
3 688 690 686
3 690 455 453
3 690 453 686
3 691 692 693
3 691 693 694
3 693 695 696
3 693 696 694
3 696 689 688
3 696 688 694
3 688 687 691
3 688 691 694
3 697 698 699
3 697 699 700
3 699 701 702
3 699 702 700
3 702 689 696
3 702 696 700
3 696 695 697
3 696 697 700
3 703 458 457
3 703 457 704
3 457 455 690
3 457 690 704
3 690 689 702
3 690 702 704
3 702 701 703
3 702 703 704
3 501 458 703
3 501 703 705
3 703 701 706
3 703 706 705
3 706 707 708
3 706 708 705
3 708 503 501
3 708 501 705
3 699 698 709
3 699 709 710
3 709 711 712
3 709 712 710
3 712 707 706
3 712 706 710
3 706 701 699
3 706 699 710
3 713 714 715
3 713 715 716
3 715 717 718
3 715 718 716
3 718 707 712
3 718 712 716
3 712 711 713
3 712 713 716
3 719 488 505
3 719 505 720
3 505 503 708
3 505 708 720
3 708 707 718
3 708 718 720
3 718 717 719
3 718 719 720
3 489 488 719
3 489 719 721
3 719 717 722
3 719 722 721
3 722 723 724
3 722 724 721
3 724 491 489
3 724 489 721
3 715 714 725
3 715 725 726
3 725 727 728
3 725 728 726
3 728 723 722
3 728 722 726
3 722 717 715
3 722 715 726
3 729 730 731
3 729 731 732
3 731 733 734
3 731 734 732
3 734 723 728
3 734 728 732
3 728 727 729
3 728 729 732
3 735 472 493
3 735 493 736
3 493 491 724
3 493 724 736
3 724 723 734
3 724 734 736
3 734 733 735
3 734 735 736
3 473 472 735
3 473 735 737
3 735 733 738
3 735 738 737
3 738 739 740
3 738 740 737
3 740 475 473
3 740 473 737
3 731 730 741
3 731 741 742
3 741 743 744
3 741 744 742
3 744 739 738
3 744 738 742
3 738 733 731
3 738 731 742
3 745 692 691
3 745 691 746
3 691 687 747
3 691 747 746
3 747 739 744
3 747 744 746
3 744 743 745
3 744 745 746
3 685 452 477
3 685 477 748
3 477 475 740
3 477 740 748
3 740 739 747
3 740 747 748
3 747 687 685
3 747 685 748
3 693 692 749
3 693 749 750
3 749 751 752
3 749 752 750
3 752 753 754
3 752 754 750
3 754 695 693
3 754 693 750
3 755 214 213
3 755 213 756
3 213 221 757
3 213 757 756
3 757 753 752
3 757 752 756
3 752 751 755
3 752 755 756
3 236 235 758
3 236 758 759
3 758 760 761
3 758 761 759
3 761 753 757
3 761 757 759
3 757 221 236
3 757 236 759
3 762 698 697
3 762 697 763
3 697 695 754
3 697 754 763
3 754 753 761
3 754 761 763
3 761 760 762
3 761 762 763
3 709 698 762
3 709 762 764
3 762 760 765
3 762 765 764
3 765 766 767
3 765 767 764
3 767 711 709
3 767 709 764
3 758 235 234
3 758 234 768
3 234 232 769
3 234 769 768
3 769 766 765
3 769 765 768
3 765 760 758
3 765 758 768
3 230 229 770
3 230 770 771
3 770 772 773
3 770 773 771
3 773 766 769
3 773 769 771
3 769 232 230
3 769 230 771
3 774 714 713
3 774 713 775
3 713 711 767
3 713 767 775
3 767 766 773
3 767 773 775
3 773 772 774
3 773 774 775
3 725 714 774
3 725 774 776
3 774 772 777
3 774 777 776
3 777 778 779
3 777 779 776
3 779 727 725
3 779 725 776
3 770 229 228
3 770 228 780
3 228 226 781
3 228 781 780
3 781 778 777
3 781 777 780
3 777 772 770
3 777 770 780
3 224 223 782
3 224 782 783
3 782 784 785
3 782 785 783
3 785 778 781
3 785 781 783
3 781 226 224
3 781 224 783
3 786 730 729
3 786 729 787
3 729 727 779
3 729 779 787
3 779 778 785
3 779 785 787
3 785 784 786
3 785 786 787
3 741 730 786
3 741 786 788
3 786 784 789
3 786 789 788
3 789 790 791
3 789 791 788
3 791 743 741
3 791 741 788
3 782 223 222
3 782 222 792
3 222 217 793
3 222 793 792
3 793 790 789
3 793 789 792
3 789 784 782
3 789 782 792
3 215 214 755
3 215 755 794
3 755 751 795
3 755 795 794
3 795 790 793
3 795 793 794
3 793 217 215
3 793 215 794
3 749 692 745
3 749 745 796
3 745 743 791
3 745 791 796
3 791 790 795
3 791 795 796
3 795 751 749
3 795 749 796
3 797 46 45
3 797 45 798
3 45 53 799
3 45 799 798
3 799 800 798
3 800 797 798
3 799 53 63
3 73 72 801
3 73 801 802
3 801 803 804
3 801 804 802
3 804 805 806
3 804 806 802
3 806 75 73
3 806 73 802
3 807 180 250
3 807 250 808
3 250 257 809
3 250 809 808
3 809 805 804
3 809 804 808
3 804 803 807
3 804 807 808
3 266 119 810
3 266 810 811
3 810 812 813
3 810 813 811
3 813 805 809
3 813 809 811
3 809 257 266
3 809 266 811
3 814 55 77
3 814 77 815
3 77 75 806
3 77 806 815
3 806 805 813
3 806 813 815
3 813 812 814
3 813 814 815
3 56 55 814
3 56 814 816
3 814 812 817
3 814 817 816
3 817 818 819
3 817 819 816
3 819 58 56
3 819 56 816
3 810 119 118
3 810 118 820
3 118 126 821
3 118 821 820
3 821 818 817
3 821 817 820
3 817 812 810
3 817 810 820
3 136 135 822
3 136 822 823
3 822 824 825
3 822 825 823
3 825 818 821
3 825 821 823
3 821 126 136
3 821 136 823
3 826 32 60
3 826 60 827
3 60 58 819
3 60 819 827
3 819 818 825
3 819 825 827
3 825 824 826
3 825 826 827
3 33 32 826
3 33 826 828
3 826 824 829
3 826 829 828
3 829 830 831
3 829 831 828
3 831 35 33
3 831 33 828
3 822 135 183
3 822 183 832
3 183 190 833
3 183 833 832
3 833 830 829
3 833 829 832
3 829 824 822
3 829 822 832
3 199 164 834
3 199 834 835
3 834 836 837
3 834 837 835
3 837 830 833
3 837 833 835
3 833 190 199
3 833 199 835
3 838 38 37
3 838 37 839
3 37 35 831
3 37 831 839
3 831 830 837
3 831 837 839
3 837 836 838
3 837 838 839
3 85 38 838
3 85 838 840
3 838 836 841
3 838 841 840
3 841 842 843
3 841 843 840
3 843 87 85
3 843 85 840
3 834 164 163
3 834 163 844
3 163 171 845
3 163 845 844
3 845 842 841
3 845 841 844
3 841 836 834
3 841 834 844
3 181 180 807
3 181 807 846
3 807 803 847
3 807 847 846
3 847 842 845
3 847 845 846
3 845 171 181
3 845 181 846
3 801 72 89
3 801 89 848
3 89 87 843
3 89 843 848
3 843 842 847
3 843 847 848
3 847 803 801
3 847 801 848
