OFF
310 598 0
-5.32364 14.1943 -22.4075
-6.03364 14.2219 -21.8495
-6.03364 14.2512 -21.8505
-5.32364 14.2237 -22.4085
-5.84964 14.2894 -21.4165
-5.32364 14.2739 -21.8515
-4.79764 14.2894 -21.4165
-4.61364 14.2512 -21.8505
-4.61364 14.2219 -21.8495
-3.24564 6.47352 -5.01354
-4.12164 6.47352 -5.00354
-4.07464 6.50482 -4.96354
-3.24564 6.50482 -4.97454
-3.99264 6.60212 -4.89054
-3.24564 6.60212 -4.89954
-2.49764 6.60212 -4.89054
-2.41564 6.50482 -4.96354
-2.36864 6.47352 -5.00354
-4.41364 6.47352 -2.69954
-4.12164 6.47352 -2.67354
-4.07464 6.50482 -2.71254
-4.35164 6.50482 -2.73754
-3.99264 6.60212 -2.78654
-4.24264 6.60212 -2.80954
-4.24264 6.60212 -2.83954
-4.35164 6.50482 -2.76954
-4.41364 6.47352 -2.73254
-3.24564 6.47352 -2.66554
-2.36864 6.47352 -2.67354
-2.41564 6.50482 -2.71254
-3.24564 6.50482 -2.70454
-2.49764 6.60212 -2.78654
-3.24564 6.60212 -2.77954
-2.07664 6.47352 -2.69954
-2.07664 6.47352 -2.73254
-2.13864 6.50482 -2.76954
-2.13864 6.50482 -2.73754
-2.24864 6.60212 -2.83954
-2.24864 6.60212 -2.80954
-3.76164 7.71762 -4.91054
-4.16764 7.71832 -4.90454
-5.66164 9.91452 -5.82354
-5.31164 9.91192 -5.82854
-6.95464 12.0727 -7.53254
-6.60464 12.068 -7.53554
-6.25464 12.0727 -7.53254
-4.96164 9.91452 -5.82354
-3.35664 7.71832 -4.90454
-4.30264 7.85902 -3.50954
-4.16764 7.86062 -3.49354
-5.66164 10.4838 -4.73654
-5.77864 10.4775 -4.74854
-6.95464 13.0995 -6.77554
-7.07164 13.0883 -6.78454
-7.07164 13.0737 -6.79454
-5.77864 10.4695 -4.76354
-4.30264 7.85702 -3.52954
-3.76164 7.86112 -3.48854
-3.35664 7.86062 -3.49354
-4.96164 10.4838 -4.73654
-5.31164 10.4858 -4.73254
-6.25464 13.0995 -6.77554
-6.60464 13.1033 -6.77354
-3.22164 7.85902 -3.50954
-3.22164 7.85702 -3.52954
-4.84564 10.4695 -4.76354
-4.84564 10.4775 -4.74854
-6.13864 13.0737 -6.79454
-6.13864 13.0883 -6.78454
-6.70064 12.8666 -10.0745
-6.35064 12.8609 -10.0755
-5.93064 12.9206 -12.8965
-5.58064 12.9145 -12.8965
-5.23064 12.9206 -12.8965
-6.00164 12.8666 -10.0745
-6.70064 14.1276 -9.71454
-6.81764 14.1138 -9.71854
-5.93064 14.2735 -12.8575
-6.04664 14.2587 -12.8585
-6.04664 14.2395 -12.8585
-6.81764 14.0959 -9.72354
-6.00164 14.1276 -9.71454
-6.35064 14.1322 -9.71254
-5.23064 14.2735 -12.8575
-5.58064 14.2784 -12.8575
-5.88464 14.0959 -9.72354
-5.88464 14.1138 -9.71854
-5.11364 14.2395 -12.8585
-5.11364 14.2587 -12.8585
-5.67364 12.8593 -15.4455
-5.32364 12.853 -15.4455
-5.71864 12.7272 -17.2525
-5.32364 12.7206 -17.2515
-4.92864 12.7272 -17.2525
-4.97364 12.8593 -15.4455
-5.67364 14.2428 -15.5135
-5.79064 14.2276 -15.5125
-5.71864 14.1964 -17.3245
-5.84964 14.1803 -17.3235
-5.84964 14.1595 -17.3225
-5.79064 14.208 -15.5115
-4.97364 14.2428 -15.5135
-5.32364 14.2478 -15.5135
-4.92864 14.1964 -17.3245
-5.32364 14.2017 -17.3245
-4.85764 14.208 -15.5115
-4.85764 14.2276 -15.5125
-4.79764 14.1595 -17.3225
-4.79764 14.1803 -17.3235
-5.85364 12.5691 -17.8485
-5.32364 12.5613 -17.8485
-5.98864 12.4131 -18.4005
-5.32364 12.4041 -18.4005
-4.65864 12.4131 -18.4005
-4.79364 12.5691 -17.8485
-5.85364 14.2953 -17.9345
-6.02964 14.2764 -17.9335
-5.98864 14.3963 -18.4985
-6.20964 14.3746 -18.4975
-6.20964 14.3465 -18.4965
-6.02964 14.2519 -17.9315
-4.79364 14.2953 -17.9345
-5.32364 14.3016 -17.9345
-4.65864 14.3963 -18.4985
-5.32364 14.4036 -18.4995
-4.61764 14.2519 -17.9315
-4.61764 14.2764 -17.9335
-4.43764 14.3465 -18.4965
-4.43764 14.3746 -18.4975
-6.03364 12.2876 -20.0745
-5.32364 12.2783 -20.0735
-5.84964 12.2337 -21.3155
-5.32364 12.205 -21.7495
-4.79764 12.2337 -21.3155
-4.61364 12.2876 -20.0745
-6.03364 14.3565 -20.1765
-6.26964 14.3339 -20.1755
-6.26964 14.3046 -20.1735
-4.61364 14.3565 -20.1765
-5.32364 14.3641 -20.1765
-4.37764 14.3046 -20.1735
-4.37764 14.3339 -20.1755
-2.07664 6.47352 -2.76354
-2.13864 6.50482 -2.79954
-2.07664 6.47352 -3.05254
-2.13864 6.50482 -3.07954
-2.24864 6.60212 -3.12954
-2.24864 6.60212 -2.86754
-3.22164 7.85512 -3.54754
-4.84564 10.4618 -4.77854
-3.22164 7.83742 -3.72354
-4.84564 10.3911 -4.91354
-6.13864 12.9323 -6.89854
-6.13864 13.06 -6.80454
-5.88464 14.079 -9.72754
-5.88464 13.9222 -9.77254
-5.11364 14.0532 -12.8645
-5.11364 14.2214 -12.8595
-4.85764 14.1895 -15.5115
-4.85764 14.0175 -15.5025
-4.79764 13.9571 -17.3125
-4.79764 14.1398 -17.3215
-4.61764 14.2288 -17.9305
-4.61764 14.0142 -17.9205
-4.43764 14.0734 -18.4825
-4.43764 14.32 -18.4955
-4.37764 14.2769 -20.1725
-4.37764 14.0196 -20.1595
-4.61364 13.937 -21.8355
-4.61364 14.1942 -21.8475
-5.32364 13.9094 -22.3935
-6.03364 13.937 -21.8355
-6.03364 14.1942 -21.8475
-5.32364 14.1666 -22.4065
-6.20964 14.32 -18.4955
-6.26964 14.2769 -20.1725
-6.26964 14.0196 -20.1595
-6.20964 14.0734 -18.4825
-5.84964 14.1398 -17.3215
-6.02964 14.2288 -17.9305
-6.02964 14.0142 -17.9205
-5.84964 13.9571 -17.3125
-6.04664 14.2214 -12.8595
-5.79064 14.1895 -15.5115
-5.79064 14.0175 -15.5025
-6.04664 14.0532 -12.8645
-7.07164 13.06 -6.80454
-6.81764 14.079 -9.72754
-6.81764 13.9222 -9.77254
-7.07164 12.9323 -6.89854
-4.30264 7.85512 -3.54754
-5.77864 10.4618 -4.77854
-5.77864 10.3911 -4.91354
-4.30264 7.83742 -3.72354
-4.41364 6.47352 -2.76354
-4.35164 6.50482 -2.79954
-4.24264 6.60212 -2.86754
-4.24264 6.60212 -3.12954
-4.35164 6.50482 -3.07954
-4.41364 6.47352 -3.05254
-2.67264 6.81032 -2.94554
-3.24564 6.81032 -2.93854
-3.81764 6.81032 -2.94554
-4.00864 6.81032 -2.96554
-4.00864 6.81032 -2.99054
-4.00864 6.81032 -3.01454
-4.00864 6.81032 -3.23654
-3.81764 6.81032 -4.73154
-3.24564 6.81032 -4.73954
-2.67264 6.81032 -4.73154
-2.48264 6.81032 -2.99054
-2.48264 6.81032 -3.01454
-2.48264 6.81032 -3.23654
-2.48264 6.81032 -2.96554
-4.19164 6.46302 -5.05754
-2.07664 6.47352 -3.86154
-2.13864 6.50482 -3.86054
-2.07664 6.47352 -4.67254
-2.13864 6.50482 -4.64454
-2.24864 6.60212 -4.59154
-2.24864 6.60212 -3.85954
-2.48264 6.81032 -3.85654
-2.48264 6.81032 -4.47854
-3.22164 7.73842 -4.70454
-3.22164 7.78802 -4.21354
-4.84564 10.1935 -5.29054
-4.84564 9.99522 -5.66954
-6.13864 12.2183 -7.42454
-6.13864 12.5759 -7.16154
-5.88464 13.4846 -9.89754
-5.88464 13.0453 -10.0235
-5.11364 13.1124 -12.8915
-5.11364 13.5837 -12.8775
-4.85764 13.5373 -15.4785
-4.85764 13.0554 -15.4555
-4.79764 12.9355 -17.2625
-4.79764 13.4473 -17.2875
-4.61764 13.4151 -17.8905
-4.61764 12.8138 -17.8605
-4.43764 12.6943 -18.4145
-4.43764 13.3851 -18.4485
-4.37764 13.3016 -20.1245
-4.37764 12.5809 -20.0885
-4.61364 12.4983 -21.7635
-4.61364 13.219 -21.7995
-5.32364 12.4707 -22.3225
-6.03364 12.4983 -21.7645
-6.03364 13.219 -21.7995
-5.32364 13.1914 -22.3585
-6.20964 13.3851 -18.4485
-6.26964 13.3016 -20.1245
-6.26964 12.5809 -20.0885
-6.20964 12.6943 -18.4145
-5.84964 13.4473 -17.2875
-6.02964 13.4151 -17.8905
-6.02964 12.8138 -17.8605
-5.84964 12.9355 -17.2625
-6.04664 13.5837 -12.8775
-5.79064 13.5373 -15.4785
-5.79064 13.0554 -15.4555
-6.04664 13.1124 -12.8915
-7.07164 12.576 -7.16154
-6.81764 13.4846 -9.89754
-6.81764 13.0453 -10.0235
-7.07164 12.2183 -7.42454
-4.30264 7.78802 -4.21354
-5.77864 10.1935 -5.29054
-5.77864 9.99522 -5.66954
-4.30264 7.73842 -4.70454
-4.24264 6.60212 -3.85954
-4.00864 6.81032 -3.85654
-4.00864 6.81032 -4.47854
-4.24264 6.60212 -4.59154
-4.41364 6.47352 -3.86154
-4.35164 6.50482 -3.86054
-4.35164 6.50482 -4.64454
-4.41364 6.47352 -4.67254
-4.50764 6.46302 -4.71154
-2.07664 6.47352 -4.97154
-2.13864 6.50482 -4.93354
-2.24864 6.60212 -4.86154
-2.48264 6.81032 -4.70754
-3.22164 7.72022 -4.88554
-4.84564 9.92222 -5.80854
-6.13864 12.0866 -7.52154
-5.88464 12.8837 -10.0695
-5.11364 12.939 -12.8965
-4.85764 12.8781 -15.4465
-4.79764 12.7472 -17.2535
-4.61764 12.5925 -17.8505
-4.43764 12.44 -18.4025
-4.37764 12.3157 -20.0755
-4.61364 12.2331 -21.7505
-6.03364 12.2331 -21.7505
-5.32364 12.2055 -22.3095
-6.20964 12.44 -18.4025
-6.26964 12.3157 -20.0755
-5.84964 12.7472 -17.2535
-6.02964 12.5925 -17.8505
-6.04664 12.939 -12.8965
-5.79064 12.8781 -15.4465
-7.07164 12.0866 -7.52154
-6.81764 12.8837 -10.0695
-4.30264 7.72022 -4.88554
-5.77864 9.92222 -5.80854
-4.24264 6.60212 -4.86154
-4.00864 6.81032 -4.70754
-4.41364 6.47352 -4.97154
-4.35164 6.50482 -4.93354
-4.50764 6.46302 -5.02454
3 0 1 2
3 0 2 3
3 2 4 5
3 2 5 3
3 5 6 7
3 5 7 3
3 7 8 0
3 7 0 3
3 9 10 11
3 9 11 12
3 11 13 14
3 11 14 12
3 14 15 16
3 14 16 12
3 16 17 9
3 16 9 12
3 18 19 20
3 18 20 21
3 20 22 23
3 20 23 21
3 23 24 25
3 23 25 21
3 25 26 18
3 25 18 21
3 27 28 29
3 27 29 30
3 29 31 32
3 29 32 30
3 32 22 20
3 32 20 30
3 20 19 27
3 20 27 30
3 33 34 35
3 33 35 36
3 35 37 38
3 35 38 36
3 38 31 29
3 38 29 36
3 29 28 33
3 29 33 36
3 39 40 41
3 39 41 42
3 41 43 44
3 41 44 42
3 44 45 46
3 44 46 42
3 46 47 39
3 46 39 42
3 48 49 50
3 48 50 51
3 50 52 53
3 50 53 51
3 53 54 55
3 53 55 51
3 55 56 48
3 55 48 51
3 57 58 59
3 57 59 60
3 59 61 62
3 59 62 60
3 62 52 50
3 62 50 60
3 50 49 57
3 50 57 60
3 63 64 65
3 63 65 66
3 65 67 68
3 65 68 66
3 68 61 59
3 68 59 66
3 59 58 63
3 59 63 66
3 44 43 69
3 44 69 70
3 69 71 72
3 69 72 70
3 72 73 74
3 72 74 70
3 74 45 44
3 74 44 70
3 53 52 75
3 53 75 76
3 75 77 78
3 75 78 76
3 78 79 80
3 78 80 76
3 80 54 53
3 80 53 76
3 62 61 81
3 62 81 82
3 81 83 84
3 81 84 82
3 84 77 75
3 84 75 82
3 75 52 62
3 75 62 82
3 68 67 85
3 68 85 86
3 85 87 88
3 85 88 86
3 88 83 81
3 88 81 86
3 81 61 68
3 81 68 86
3 72 71 89
3 72 89 90
3 89 91 92
3 89 92 90
3 92 93 94
3 92 94 90
3 94 73 72
3 94 72 90
3 78 77 95
3 78 95 96
3 95 97 98
3 95 98 96
3 98 99 100
3 98 100 96
3 100 79 78
3 100 78 96
3 84 83 101
3 84 101 102
3 101 103 104
3 101 104 102
3 104 97 95
3 104 95 102
3 95 77 84
3 95 84 102
3 88 87 105
3 88 105 106
3 105 107 108
3 105 108 106
3 108 103 101
3 108 101 106
3 101 83 88
3 101 88 106
3 92 91 109
3 92 109 110
3 109 111 112
3 109 112 110
3 112 113 114
3 112 114 110
3 114 93 92
3 114 92 110
3 98 97 115
3 98 115 116
3 115 117 118
3 115 118 116
3 118 119 120
3 118 120 116
3 120 99 98
3 120 98 116
3 104 103 121
3 104 121 122
3 121 123 124
3 121 124 122
3 124 117 115
3 124 115 122
3 115 97 104
3 115 104 122
3 108 107 125
3 108 125 126
3 125 127 128
3 125 128 126
3 128 123 121
3 128 121 126
3 121 103 108
3 121 108 126
3 112 111 129
3 112 129 130
3 129 131 132
3 129 132 130
3 132 133 134
3 132 134 130
3 134 113 112
3 134 112 130
3 118 117 135
3 118 135 136
3 135 4 2
3 135 2 136
3 2 1 137
3 2 137 136
3 137 119 118
3 137 118 136
3 124 123 138
3 124 138 139
3 138 6 5
3 138 5 139
3 5 4 135
3 5 135 139
3 135 117 124
3 135 124 139
3 128 127 140
3 128 140 141
3 140 8 7
3 140 7 141
3 7 6 138
3 7 138 141
3 138 123 128
3 138 128 141
3 35 34 142
3 35 142 143
3 142 144 145
3 142 145 143
3 145 146 147
3 145 147 143
3 147 37 35
3 147 35 143
3 65 64 148
3 65 148 149
3 148 150 151
3 148 151 149
3 151 152 153
3 151 153 149
3 153 67 65
3 153 65 149
3 85 67 153
3 85 153 154
3 153 152 155
3 153 155 154
3 155 156 157
3 155 157 154
3 157 87 85
3 157 85 154
3 105 87 157
3 105 157 158
3 157 156 159
3 157 159 158
3 159 160 161
3 159 161 158
3 161 107 105
3 161 105 158
3 125 107 161
3 125 161 162
3 161 160 163
3 161 163 162
3 163 164 165
3 163 165 162
3 165 127 125
3 165 125 162
3 140 127 165
3 140 165 166
3 165 164 167
3 165 167 166
3 167 168 169
3 167 169 166
3 169 8 140
3 169 140 166
3 170 171 172
3 170 172 173
3 172 1 0
3 172 0 173
3 0 8 169
3 0 169 173
3 169 168 170
3 169 170 173
3 174 119 137
3 174 137 175
3 137 1 172
3 137 172 175
3 172 171 176
3 172 176 175
3 176 177 174
3 176 174 175
3 178 99 120
3 178 120 179
3 120 119 174
3 120 174 179
3 174 177 180
3 174 180 179
3 180 181 178
3 180 178 179
3 182 79 100
3 182 100 183
3 100 99 178
3 100 178 183
3 178 181 184
3 178 184 183
3 184 185 182
3 184 182 183
3 186 54 80
3 186 80 187
3 80 79 182
3 80 182 187
3 182 185 188
3 182 188 187
3 188 189 186
3 188 186 187
3 190 56 55
3 190 55 191
3 55 54 186
3 55 186 191
3 186 189 192
3 186 192 191
3 192 193 190
3 192 190 191
3 194 26 25
3 194 25 195
3 25 24 196
3 25 196 195
3 196 197 198
3 196 198 195
3 198 199 194
3 198 194 195
3 32 31 200
3 32 200 201
3 200 58 57
3 200 57 201
3 57 49 202
3 57 202 201
3 202 22 32
3 202 32 201
3 23 22 202
3 23 202 203
3 202 49 48
3 202 48 203
3 48 56 204
3 48 204 203
3 204 24 23
3 204 23 203
3 196 24 204
3 196 204 205
3 204 56 190
3 204 190 205
3 190 193 206
3 190 206 205
3 206 197 196
3 206 196 205
3 14 13 207
3 14 207 208
3 207 40 39
3 207 39 208
3 39 47 209
3 39 209 208
3 209 15 14
3 209 14 208
3 210 37 147
3 210 147 211
3 147 146 212
3 147 212 211
3 212 150 148
3 212 148 211
3 148 64 210
3 148 210 211
3 38 37 210
3 38 210 213
3 210 64 63
3 210 63 213
3 63 58 200
3 63 200 213
3 200 31 38
3 200 38 213
3 214 10 9
3 145 144 215
3 145 215 216
3 215 217 218
3 215 218 216
3 218 219 220
3 218 220 216
3 220 146 145
3 220 145 216
3 212 146 220
3 212 220 221
3 220 219 222
3 220 222 221
3 222 223 224
3 222 224 221
3 224 150 212
3 224 212 221
3 151 150 224
3 151 224 225
3 224 223 226
3 224 226 225
3 226 227 228
3 226 228 225
3 228 152 151
3 228 151 225
3 155 152 228
3 155 228 229
3 228 227 230
3 228 230 229
3 230 231 232
3 230 232 229
3 232 156 155
3 232 155 229
3 159 156 232
3 159 232 233
3 232 231 234
3 232 234 233
3 234 235 236
3 234 236 233
3 236 160 159
3 236 159 233
3 163 160 236
3 163 236 237
3 236 235 238
3 236 238 237
3 238 239 240
3 238 240 237
3 240 164 163
3 240 163 237
3 167 164 240
3 167 240 241
3 240 239 242
3 240 242 241
3 242 243 244
3 242 244 241
3 244 168 167
3 244 167 241
3 245 246 247
3 245 247 248
3 247 171 170
3 247 170 248
3 170 168 244
3 170 244 248
3 244 243 245
3 244 245 248
3 249 177 176
3 249 176 250
3 176 171 247
3 176 247 250
3 247 246 251
3 247 251 250
3 251 252 249
3 251 249 250
3 253 181 180
3 253 180 254
3 180 177 249
3 180 249 254
3 249 252 255
3 249 255 254
3 255 256 253
3 255 253 254
3 257 185 184
3 257 184 258
3 184 181 253
3 184 253 258
3 253 256 259
3 253 259 258
3 259 260 257
3 259 257 258
3 261 189 188
3 261 188 262
3 188 185 257
3 188 257 262
3 257 260 263
3 257 263 262
3 263 264 261
3 263 261 262
3 265 193 192
3 265 192 266
3 192 189 261
3 192 261 266
3 261 264 267
3 261 267 266
3 267 268 265
3 267 265 266
3 269 197 206
3 269 206 270
3 206 193 265
3 206 265 270
3 265 268 271
3 265 271 270
3 271 272 269
3 271 269 270
3 273 199 198
3 273 198 274
3 198 197 269
3 198 269 274
3 269 272 275
3 269 275 274
3 275 276 273
3 275 273 274
3 273 276 277
3 218 217 278
3 218 278 279
3 278 17 16
3 278 16 279
3 16 15 280
3 16 280 279
3 280 219 218
3 280 218 279
3 222 219 280
3 222 280 281
3 280 15 209
3 280 209 281
3 209 47 282
3 209 282 281
3 282 223 222
3 282 222 281
3 226 223 282
3 226 282 283
3 282 47 46
3 282 46 283
3 46 45 284
3 46 284 283
3 284 227 226
3 284 226 283
3 230 227 284
3 230 284 285
3 284 45 74
3 284 74 285
3 74 73 286
3 74 286 285
3 286 231 230
3 286 230 285
3 234 231 286
3 234 286 287
3 286 73 94
3 286 94 287
3 94 93 288
3 94 288 287
3 288 235 234
3 288 234 287
3 238 235 288
3 238 288 289
3 288 93 114
3 288 114 289
3 114 113 290
3 114 290 289
3 290 239 238
3 290 238 289
3 242 239 290
3 242 290 291
3 290 113 134
3 290 134 291
3 134 133 292
3 134 292 291
3 292 243 242
3 292 242 291
3 132 131 293
3 132 293 294
3 293 246 245
3 293 245 294
3 245 243 292
3 245 292 294
3 292 133 132
3 292 132 294
3 295 252 251
3 295 251 296
3 251 246 293
3 251 293 296
3 293 131 129
3 293 129 296
3 129 111 295
3 129 295 296
3 297 256 255
3 297 255 298
3 255 252 295
3 255 295 298
3 295 111 109
3 295 109 298
3 109 91 297
3 109 297 298
3 299 260 259
3 299 259 300
3 259 256 297
3 259 297 300
3 297 91 89
3 297 89 300
3 89 71 299
3 89 299 300
3 301 264 263
3 301 263 302
3 263 260 299
3 263 299 302
3 299 71 69
3 299 69 302
3 69 43 301
3 69 301 302
3 303 268 267
3 303 267 304
3 267 264 301
3 267 301 304
3 301 43 41
3 301 41 304
3 41 40 303
3 41 303 304
3 305 272 271
3 305 271 306
3 271 268 303
3 271 303 306
3 303 40 207
3 303 207 306
3 207 13 305
3 207 305 306
3 307 276 275
3 307 275 308
3 275 272 305
3 275 305 308
3 305 13 11
3 305 11 308
3 11 10 307
3 11 307 308
3 277 276 307
3 277 307 309
3 307 10 214
3 307 214 309
