OFF
306 595 0
-9.55725 1.37598 -20.8049
-9.47625 0.981778 -21.0059
-9.69225 1.08998 -21.2699
-9.55725 0.672378 -21.2389
-9.79625 0.761778 -21.5349
-10.0382 0.900778 -21.5789
-9.91025 1.24288 -21.2989
-9.76125 1.55328 -20.8059
-9.66925 0.421478 -21.2699
-9.93725 0.271378 -21.3269
-9.89725 0.480678 -21.5589
-10.1702 0.358278 -21.3769
-10.1302 0.587478 -21.6129
-10.3452 0.560778 -21.1859
-10.4292 0.955678 -21.0039
-10.3142 0.769178 -21.4149
-10.3742 1.24308 -20.9509
-10.2442 1.06998 -21.3789
-10.2352 1.51348 -20.7329
-10.0462 1.84048 -20.0439
-9.95325 1.65658 -20.6659
-10.1082 1.37718 -21.1219
-6.56325 -5.02552 -0.895871
-6.37025 -4.08002 -2.09787
-6.63025 -4.76542 -0.882871
-6.78825 -4.54332 -0.866871
-6.71925 -3.70912 -2.04887
-7.24025 -4.31162 -0.839871
-7.00025 -4.37322 -0.853871
-7.17625 -5.74072 -0.901871
-6.66625 -4.93112 -2.16287
-6.94025 -5.67032 -0.908871
-6.74525 -5.50652 -0.906871
-7.63425 -5.52262 -0.885871
-7.79825 -5.29602 -0.878871
-7.47125 -4.56682 -2.11487
-7.86625 -5.03382 -0.863871
-7.40325 -5.63482 -0.969871
-5.58725 -2.16442 -4.93087
-5.53125 -2.36892 -4.97687
-5.10425 -1.32272 -6.21587
-5.15525 -1.14012 -6.16487
-4.74325 -0.196522 -7.54187
-4.78825 -0.0375222 -7.48787
-4.88925 0.103378 -7.43687
-5.26725 -0.977922 -6.11587
-5.71225 -1.98272 -4.88687
-4.60425 0.877478 -8.91887
-4.81925 1.71968 -10.3889
-4.85925 1.83928 -10.3339
-4.64625 1.01448 -8.86387
-4.93925 1.94268 -10.2859
-4.73525 1.13488 -8.81287
-5.04625 2.01538 -10.2509
-5.16225 2.04268 -10.2359
-4.98625 1.25718 -8.75787
-4.85425 1.22158 -8.77587
-5.17625 0.250278 -7.37787
-5.02425 0.206178 -7.39787
-5.59425 -0.807322 -6.05887
-6.07425 -1.79182 -4.83287
-5.88225 -1.84952 -4.85187
-5.42125 -0.859022 -6.07787
-5.83925 -2.87052 -5.07087
-6.02625 -2.91862 -5.07587
-5.54825 -1.81082 -6.33187
-5.38125 -1.76882 -6.32587
-5.13025 -0.623022 -7.67087
-4.98325 -0.586222 -7.66287
-4.85825 -0.489722 -7.63587
-5.23725 -1.65852 -6.30087
-5.68025 -2.74582 -5.05087
-4.93425 0.502178 -9.05587
-5.10025 1.37878 -10.5309
-4.98925 1.41248 -10.5189
-4.80725 0.536178 -9.04587
-4.89725 1.49098 -10.4869
-4.70025 0.621578 -9.01587
-4.83625 1.59848 -10.4419
-4.62725 0.740878 -8.97187
-4.77225 -0.353522 -7.59287
-5.57025 -2.57072 -5.01787
-5.13925 -1.50262 -6.26287
-6.51825 -2.55042 -4.98887
-6.57525 -2.34272 -4.94387
-6.04225 -1.29602 -6.18487
-5.99125 -1.48082 -6.23487
-5.56625 -0.176222 -7.51487
-5.52025 -0.336722 -7.56887
-5.41925 -0.478322 -7.61787
-5.87625 -1.64402 -6.28087
-6.39125 -2.73332 -5.02987
-5.31825 0.882178 -8.89987
-5.44425 1.70208 -10.3819
-5.40425 1.58188 -10.4359
-5.27625 0.744178 -8.95487
-5.32325 1.47808 -10.4829
-5.18625 0.623278 -9.00387
-5.21625 1.40548 -10.5169
-5.06725 0.536878 -9.03887
-5.28225 -0.580422 -7.65387
-6.21825 -2.86452 -5.05987
-5.72125 -1.76162 -6.31487
-6.26225 -1.83662 -4.83887
-5.76325 -0.846822 -6.06587
-5.32425 0.215078 -7.38687
-5.45025 0.119478 -7.41687
-5.90725 -0.956022 -6.09287
-6.42425 -1.95972 -4.86287
-5.27325 2.00968 -10.2479
-5.11425 1.22428 -8.76787
-5.36625 1.93168 -10.2809
-5.22225 1.13958 -8.79987
-5.42725 1.82398 -10.3279
-5.29525 1.01968 -8.84587
-5.53725 -0.0176222 -7.46187
-6.53625 -2.13712 -4.89987
-6.00725 -1.11342 -6.13487
-5.52025 2.15058 -11.9939
-5.56025 2.26018 -11.9409
-6.47925 2.23468 -13.6259
-6.52225 2.34298 -13.5719
-6.60125 2.43208 -13.5259
-5.63725 2.35288 -11.8939
-7.46925 2.03668 -15.1759
-8.28925 1.74868 -16.4369
-8.34725 1.88588 -16.3689
-7.51825 2.15368 -15.1169
-8.44625 1.99278 -16.3139
-7.60425 2.24718 -15.0689
-8.56825 2.05548 -16.2809
-8.69525 2.05978 -16.2759
-7.82225 2.31348 -15.0309
-7.71025 2.30468 -15.0379
-6.80625 2.50388 -13.4859
-6.70025 2.48978 -13.4949
-5.84425 2.43588 -11.8499
-5.73725 2.41578 -11.8619
-5.76725 1.82058 -12.1439
-5.66625 1.85688 -12.1289
-6.70925 1.88708 -13.7899
-6.61225 1.92958 -13.7709
-6.53525 2.01228 -13.7329
-5.58525 1.93398 -12.0949
-7.70025 1.63748 -15.3639
-8.54125 1.25828 -16.6669
-8.42925 1.32758 -16.6359
-7.59925 1.69068 -15.3409
-8.34225 1.44738 -16.5809
-7.52025 1.78708 -15.2959
-8.29125 1.59518 -16.5109
-7.47325 1.90838 -15.2379
-6.48725 2.11918 -13.6829
-5.53225 2.03688 -12.0479
-6.09125 2.10638 -12.0019
-6.05125 1.99628 -12.0549
-7.03625 2.15688 -13.6519
-6.99325 2.04798 -13.7059
-6.91425 1.95848 -13.7509
-5.97425 1.90328 -12.1009
-8.05325 1.91508 -15.2229
-8.94725 1.57058 -16.5099
-8.88925 1.43258 -16.5769
-8.00525 1.79748 -15.2809
-8.79025 1.32488 -16.6299
-7.91925 1.70348 -15.3279
-8.66825 1.26208 -16.6629
-7.81225 1.64598 -15.3579
-6.81425 1.90078 -13.7809
-5.87425 1.84038 -12.1319
-5.94425 2.40018 -11.8649
-6.90325 2.46198 -13.5049
-6.98025 2.37968 -13.5439
-6.02725 2.32348 -11.8999
-8.80725 1.99138 -16.3079
-7.92325 2.26098 -15.0549
-8.89525 1.87248 -16.3649
-8.00225 2.16508 -15.1009
-8.94525 1.72468 -16.4359
-8.04925 2.04378 -15.1599
-7.02825 2.27268 -13.5959
-6.07925 2.22048 -11.9479
-8.72025 1.50188 -17.2259
-8.86225 1.81768 -17.0709
-8.96325 1.45188 -17.7519
-9.04025 1.67488 -17.6049
-9.27625 1.90758 -17.4669
-8.96525 1.45818 -18.3079
-9.07625 1.73878 -18.1679
-9.26225 1.94858 -18.0599
-9.48825 2.06148 -17.9999
-9.71925 2.05038 -18.0009
-9.59525 1.94058 -17.5339
-9.16025 1.95848 -16.9829
-9.03425 0.935778 -17.4959
-8.90125 1.02758 -17.4559
-9.36625 0.534478 -18.3139
-9.11925 0.798578 -17.9639
-9.03025 0.952078 -17.9649
-8.79925 1.18198 -17.3849
-9.40425 0.376578 -18.8069
-9.20425 0.540778 -18.7249
-9.04825 0.811478 -18.6139
-8.96225 1.13288 -18.4639
-8.95325 1.20498 -17.8359
-9.85925 1.14788 -17.7879
-9.78425 0.936578 -17.8989
-9.76325 0.629678 -18.2559
-9.25025 0.974078 -17.4479
-10.0002 0.731878 -18.4179
-9.86225 0.477578 -18.7529
-10.0912 1.01618 -18.2359
-9.63625 0.363978 -18.8089
-9.57525 0.531778 -18.3079
-9.56425 1.80048 -17.3229
-9.78225 1.61018 -17.5589
-9.89825 1.87978 -17.9489
-10.0182 1.62598 -17.9789
-9.85525 1.37888 -17.6749
-10.1112 1.31338 -18.1439
-9.02325 1.43798 -18.9149
-9.14525 1.73768 -18.7649
-9.13525 1.38898 -19.6219
-9.26225 1.68708 -19.4839
-9.46725 1.90478 -19.3829
-9.34525 1.95938 -18.6509
-9.29025 1.31048 -20.2749
-9.41525 1.57888 -20.1879
-9.61025 1.77168 -20.1349
-9.82425 1.87398 -20.0319
-9.95125 1.99568 -19.3049
-9.70725 2.01768 -19.3099
-9.83325 2.05848 -18.5919
-9.58725 2.07568 -18.5879
-9.47925 0.262878 -19.4589
-9.26525 0.446278 -19.3799
-9.57625 0.196878 -20.1769
-9.36625 0.384578 -20.1059
-9.21025 0.681378 -19.9829
-9.10425 0.739378 -19.2469
-9.68225 0.211678 -20.7889
-9.49625 0.382878 -20.7609
-9.36225 0.652378 -20.6849
-9.28325 0.981578 -20.4819
-9.12525 1.03498 -19.8049
-9.01625 1.08758 -19.0839
-10.2902 0.889978 -19.1559
-10.1682 0.586378 -19.2989
-10.3942 0.810278 -19.8789
-10.2702 0.505578 -20.0349
-10.0692 0.281478 -20.1539
-9.96725 0.361278 -19.4059
-10.4332 0.758778 -20.5229
-10.3232 0.475778 -20.7049
-10.1432 0.268378 -20.8509
-9.91425 0.176978 -20.8489
-9.82425 0.170578 -20.1969
-9.72525 0.243978 -19.4639
-10.0472 1.87928 -18.6779
-10.1662 1.80908 -19.4069
-10.3262 1.51318 -19.5639
-10.2092 1.58998 -18.8199
-10.2412 1.67228 -20.1269
-10.3912 1.39418 -20.3099
-10.4562 1.07728 -20.4169
-10.4072 1.16318 -19.7219
-10.2972 1.24238 -18.9869
-7.45425 -4.32792 -0.923871
-6.81825 -3.35682 -2.52787
-6.95525 -3.24432 -2.79687
-7.25025 -3.62082 -2.43087
-7.67725 -4.53572 -0.844871
-6.45325 -2.57952 -3.73587
-6.65625 -2.62922 -3.73987
-6.83125 -2.76422 -3.75987
-6.99425 -3.18232 -3.82887
-6.95225 -2.95812 -3.79187
-7.31225 -3.83422 -2.86787
-7.26725 -3.59572 -2.83787
-7.53925 -4.31822 -2.09187
-7.82425 -4.77852 -0.858871
-7.24625 -4.07322 -2.89787
-7.10125 -4.28202 -2.92487
-7.31925 -4.78322 -2.13587
-6.93325 -3.40782 -3.86687
-6.79525 -3.60572 -3.89987
-6.40125 -3.80372 -3.93887
-6.60925 -3.74672 -3.92587
-6.68425 -4.48822 -2.95687
-6.95225 -4.53722 -2.78587
-6.88625 -4.99452 -2.16087
-6.47225 -4.42892 -2.95587
-6.38525 -4.52992 -2.55087
-6.20025 -3.74962 -3.93687
-6.02825 -3.61292 -3.92187
-5.86825 -3.20292 -3.86187
-6.03825 -3.75072 -3.41087
-6.21325 -4.08502 -2.51187
-6.61825 -5.29572 -0.905871
-6.18625 -3.61262 -2.86787
-6.32825 -3.40542 -2.83587
-6.51825 -3.86532 -2.07187
-5.92725 -2.98132 -3.82187
-6.06225 -2.78492 -3.78387
-6.24625 -2.64122 -3.75287
-6.52225 -3.25422 -2.80887
3 0 1 2
3 1 3 4
3 1 4 2
3 4 5 6
3 4 6 2
3 6 7 0
3 6 0 2
3 8 9 10
3 9 11 12
3 9 12 10
3 12 5 4
3 12 4 10
3 4 3 8
3 4 8 10
3 13 14 15
3 14 16 17
3 14 17 15
3 17 5 12
3 17 12 15
3 12 11 13
3 12 13 15
3 18 19 20
3 18 20 21
3 20 7 6
3 20 6 21
3 6 5 17
3 6 17 21
3 17 16 18
3 17 18 21
3 22 23 24
3 23 25 24
3 26 27 28
3 25 26 28
3 29 30 31
3 30 32 31
3 33 34 35
3 34 36 35
3 29 33 37
3 38 39 40
3 38 40 41
3 40 42 43
3 40 43 41
3 43 44 45
3 43 45 41
3 45 46 38
3 45 38 41
3 47 48 49
3 47 49 50
3 49 51 52
3 49 52 50
3 52 44 43
3 52 43 50
3 43 42 47
3 43 47 50
3 53 54 55
3 53 55 56
3 55 57 58
3 55 58 56
3 58 44 52
3 58 52 56
3 52 51 53
3 52 53 56
3 59 60 61
3 59 61 62
3 61 46 45
3 61 45 62
3 45 44 58
3 45 58 62
3 58 57 59
3 58 59 62
3 63 64 65
3 63 65 66
3 65 67 68
3 65 68 66
3 68 69 70
3 68 70 66
3 70 71 63
3 70 63 66
3 72 73 74
3 72 74 75
3 74 76 77
3 74 77 75
3 77 69 68
3 77 68 75
3 68 67 72
3 68 72 75
3 78 48 47
3 78 47 79
3 47 42 80
3 47 80 79
3 80 69 77
3 80 77 79
3 77 76 78
3 77 78 79
3 40 39 81
3 40 81 82
3 81 71 70
3 81 70 82
3 70 69 80
3 70 80 82
3 80 42 40
3 80 40 82
3 83 84 85
3 83 85 86
3 85 87 88
3 85 88 86
3 88 89 90
3 88 90 86
3 90 91 83
3 90 83 86
3 92 93 94
3 92 94 95
3 94 96 97
3 94 97 95
3 97 89 88
3 97 88 95
3 88 87 92
3 88 92 95
3 98 73 72
3 98 72 99
3 72 67 100
3 72 100 99
3 100 89 97
3 100 97 99
3 97 96 98
3 97 98 99
3 65 64 101
3 65 101 102
3 101 91 90
3 101 90 102
3 90 89 100
3 90 100 102
3 100 67 65
3 100 65 102
3 103 60 59
3 103 59 104
3 59 57 105
3 59 105 104
3 105 106 107
3 105 107 104
3 107 108 103
3 107 103 104
3 55 54 109
3 55 109 110
3 109 111 112
3 109 112 110
3 112 106 105
3 112 105 110
3 105 57 55
3 105 55 110
3 113 93 92
3 113 92 114
3 92 87 115
3 92 115 114
3 115 106 112
3 115 112 114
3 112 111 113
3 112 113 114
3 85 84 116
3 85 116 117
3 116 108 107
3 116 107 117
3 107 106 115
3 107 115 117
3 115 87 85
3 115 85 117
3 49 48 118
3 49 118 119
3 118 120 121
3 118 121 119
3 121 122 123
3 121 123 119
3 123 51 49
3 123 49 119
3 124 125 126
3 124 126 127
3 126 128 129
3 126 129 127
3 129 122 121
3 129 121 127
3 121 120 124
3 121 124 127
3 130 131 132
3 130 132 133
3 132 134 135
3 132 135 133
3 135 122 129
3 135 129 133
3 129 128 130
3 129 130 133
3 136 54 53
3 136 53 137
3 53 51 123
3 53 123 137
3 123 122 135
3 123 135 137
3 135 134 136
3 135 136 137
3 74 73 138
3 74 138 139
3 138 140 141
3 138 141 139
3 141 142 143
3 141 143 139
3 143 76 74
3 143 74 139
3 144 145 146
3 144 146 147
3 146 148 149
3 146 149 147
3 149 142 141
3 149 141 147
3 141 140 144
3 141 144 147
3 150 125 124
3 150 124 151
3 124 120 152
3 124 152 151
3 152 142 149
3 152 149 151
3 149 148 150
3 149 150 151
3 118 48 78
3 118 78 153
3 78 76 143
3 78 143 153
3 143 142 152
3 143 152 153
3 152 120 118
3 152 118 153
3 94 93 154
3 94 154 155
3 154 156 157
3 154 157 155
3 157 158 159
3 157 159 155
3 159 96 94
3 159 94 155
3 160 161 162
3 160 162 163
3 162 164 165
3 162 165 163
3 165 158 157
3 165 157 163
3 157 156 160
3 157 160 163
3 166 145 144
3 166 144 167
3 144 140 168
3 144 168 167
3 168 158 165
3 168 165 167
3 165 164 166
3 165 166 167
3 138 73 98
3 138 98 169
3 98 96 159
3 98 159 169
3 159 158 168
3 159 168 169
3 168 140 138
3 168 138 169
3 109 54 136
3 109 136 170
3 136 134 171
3 136 171 170
3 171 172 173
3 171 173 170
3 173 111 109
3 173 109 170
3 132 131 174
3 132 174 175
3 174 176 177
3 174 177 175
3 177 172 171
3 177 171 175
3 171 134 132
3 171 132 175
3 178 161 160
3 178 160 179
3 160 156 180
3 160 180 179
3 180 172 177
3 180 177 179
3 177 176 178
3 177 178 179
3 154 93 113
3 154 113 181
3 113 111 173
3 113 173 181
3 173 172 180
3 173 180 181
3 180 156 154
3 180 154 181
3 126 125 182
3 126 182 183
3 182 184 185
3 182 185 183
3 185 186 183
3 183 128 126
3 184 187 188
3 184 188 185
3 188 189 186
3 188 186 185
3 190 191 192
3 190 192 186
3 186 189 190
3 193 131 130
3 130 128 183
3 130 183 193
3 183 186 193
3 186 192 193
3 146 145 194
3 146 194 195
3 194 196 197
3 194 197 195
3 197 198 199
3 197 199 195
3 199 148 146
3 199 146 195
3 196 200 201
3 201 202 198
3 198 197 201
3 197 196 201
3 203 187 184
3 203 184 204
3 198 202 203
3 198 203 204
3 182 125 150
3 150 148 199
3 150 199 182
3 199 198 204
3 199 204 182
3 204 184 182
3 162 161 205
3 162 205 206
3 206 207 208
3 208 164 162
3 208 162 206
3 209 210 207
3 207 206 209
3 206 205 211
3 206 211 209
3 212 200 196
3 212 196 213
3 207 210 212
3 207 212 213
3 194 145 166
3 194 166 208
3 166 164 208
3 208 207 213
3 213 196 194
3 213 194 208
3 174 131 193
3 174 193 214
3 193 192 214
3 215 176 174
3 215 174 214
3 192 191 216
3 217 215 214
3 217 214 216
3 214 192 216
3 211 205 218
3 211 218 219
3 218 215 217
3 218 217 219
3 205 161 178
3 205 178 218
3 178 176 215
3 178 215 218
3 188 187 220
3 188 220 221
3 220 222 223
3 220 223 221
3 223 224 225
3 223 225 221
3 225 189 188
3 225 188 221
3 226 0 227
3 0 7 228
3 0 228 227
3 228 224 223
3 228 223 227
3 223 222 226
3 223 226 227
3 20 19 229
3 19 230 231
3 19 231 229
3 231 224 228
3 231 228 229
3 228 7 20
3 228 20 229
3 232 191 190
3 232 190 233
3 190 189 225
3 190 225 233
3 225 224 231
3 225 231 233
3 231 230 232
3 231 232 233
3 201 200 234
3 201 234 235
3 234 236 237
3 234 237 235
3 237 238 239
3 237 239 235
3 239 202 201
3 239 201 235
3 240 9 8
3 240 8 241
3 8 3 242
3 8 242 241
3 242 238 237
3 242 237 241
3 237 236 240
3 237 240 241
3 1 0 226
3 1 226 243
3 226 222 244
3 226 244 243
3 244 238 242
3 244 242 243
3 242 3 1
3 242 1 243
3 220 187 203
3 220 203 245
3 203 202 239
3 203 239 245
3 239 238 244
3 239 244 245
3 244 222 220
3 244 220 245
3 209 211 246
3 209 246 247
3 246 248 249
3 246 249 247
3 249 250 251
3 249 251 247
3 251 210 209
3 251 209 247
3 252 13 253
3 13 11 254
3 13 254 253
3 254 250 249
3 254 249 253
3 249 248 252
3 249 252 253
3 9 240 255
3 240 236 256
3 240 256 255
3 256 250 254
3 256 254 255
3 254 11 9
3 254 9 255
3 234 200 212
3 234 212 257
3 212 210 251
3 212 251 257
3 251 250 256
3 251 256 257
3 256 236 234
3 256 234 257
3 216 191 232
3 216 232 258
3 232 230 259
3 232 259 258
3 259 260 261
3 259 261 258
3 261 217 216
3 261 216 258
3 19 18 262
3 18 16 263
3 18 263 262
3 263 260 259
3 263 259 262
3 259 230 19
3 259 19 262
3 14 13 252
3 14 252 264
3 252 248 265
3 252 265 264
3 265 260 263
3 265 263 264
3 263 16 14
3 263 14 264
3 246 211 219
3 246 219 266
3 219 217 261
3 219 261 266
3 261 260 265
3 261 265 266
3 265 248 246
3 265 246 266
3 267 27 268
3 267 268 269
3 270 271 267
3 270 267 269
3 272 60 103
3 272 103 273
3 103 108 274
3 103 274 273
3 274 270 269
3 274 269 273
3 269 268 272
3 269 272 273
3 116 84 275
3 116 275 276
3 275 277 278
3 275 278 276
3 278 270 274
3 278 274 276
3 274 108 116
3 274 116 276
3 279 36 280
3 280 271 270
3 270 278 280
3 278 277 279
3 278 279 280
3 35 36 279
3 279 277 281
3 279 281 35
3 281 282 283
3 281 283 35
3 283 33 35
3 275 84 83
3 275 83 284
3 83 91 285
3 83 285 284
3 285 282 281
3 285 281 284
3 281 277 275
3 281 275 284
3 101 64 286
3 101 286 287
3 286 288 289
3 286 289 287
3 289 282 285
3 289 285 287
3 285 91 101
3 285 101 287
3 290 29 37
3 290 37 289
3 37 33 283
3 37 283 289
3 283 282 289
3 289 288 290
3 30 29 290
3 290 288 291
3 290 291 30
3 291 292 30
3 292 32 30
3 286 64 63
3 286 63 293
3 63 71 294
3 63 294 293
3 294 292 291
3 294 291 293
3 291 288 286
3 291 286 293
3 81 39 295
3 81 295 296
3 295 297 296
3 296 292 294
3 294 71 81
3 294 81 296
3 297 22 298
3 298 32 292
3 292 296 298
3 296 297 298
3 23 22 297
3 297 299 23
3 299 300 301
3 299 301 23
3 301 25 23
3 295 39 38
3 295 38 302
3 38 46 303
3 38 303 302
3 303 300 299
3 303 299 302
3 299 297 295
3 299 295 302
3 61 60 272
3 61 272 304
3 272 268 305
3 272 305 304
3 305 300 303
3 305 303 304
3 303 46 61
3 303 61 304
3 268 27 26
3 26 25 301
3 301 300 305
3 301 305 26
3 305 268 26
