OFF
354 694 0
2.45393 -4.07612 -24.1738
2.63393 -4.22499 -24.3896
2.62893 -4.14072 -24.4314
2.69193 -4.26157 -24.5149
2.68793 -4.17527 -24.5606
2.55293 -4.22875 -24.2519
2.41793 -4.2143 -24.1536
2.62093 -4.27765 -24.4201
2.63693 -4.28156 -24.5557
2.63593 -4.19899 -24.6033
-2.44107 3.79855 -11.1177
-2.93207 3.23155 -12.3842
-2.94407 3.23275 -12.3837
-3.48007 2.63615 -13.7434
-3.48407 2.63895 -13.7434
-3.53007 2.62295 -13.743
-2.51807 3.77225 -11.1125
-3.95507 2.00305 -15.1253
-4.22807 1.31835 -16.4588
-4.48507 1.22395 -16.4604
-4.14907 1.93235 -15.1264
-3.70107 2.56035 -13.7413
-3.07407 3.18625 -12.3783
-2.78707 3.67475 -11.0895
-2.17407 2.46175 -11.211
-2.66507 2.20745 -12.4043
-2.66807 2.23865 -12.4017
-3.22607 1.82915 -13.7266
-3.24507 1.89295 -13.7279
-2.19207 2.55855 -11.2042
-3.72607 1.32725 -15.0993
-4.02607 0.722152 -16.4361
-4.09207 0.916552 -16.4439
-3.76607 1.44475 -15.1041
-3.30807 2.09265 -13.7321
-2.70707 2.38735 -12.3991
-2.25807 2.89075 -11.1812
-2.25907 2.44535 -11.2029
-2.56707 2.42945 -11.1733
-2.81307 2.19665 -12.3946
-3.58707 1.79655 -13.7217
-3.25207 1.82465 -13.7275
-3.96807 1.30435 -15.1006
-2.17707 2.45225 -11.2107
-3.43107 2.46735 -11.0859
-3.45907 2.71755 -11.0699
-3.62807 2.27735 -12.3553
-4.02407 1.96835 -13.7233
-3.96807 1.81595 -13.7185
-3.59907 2.16155 -12.3584
-4.58507 0.749352 -16.4422
-4.32407 1.27285 -15.1005
-4.36207 1.36215 -15.1065
-3.94807 1.76675 -13.715
-4.55307 0.674052 -16.4384
-3.58807 2.14315 -12.355
-3.42107 2.38755 -11.0938
-3.77507 -1.02995 -19.6665
-4.30107 -0.331648 -18.7494
-3.84807 -0.165648 -18.7477
-3.33007 -0.866948 -19.6644
-2.68307 -1.47355 -20.4031
-4.42807 0.484152 -17.6742
-4.17007 0.578652 -17.6728
-3.67107 -0.689048 -18.7273
-3.15607 -1.38175 -19.6443
-3.20707 -1.22975 -19.6504
-2.50807 -1.98915 -20.3835
-4.01707 0.126652 -17.6558
-3.98507 0.0315517 -17.6521
-4.22707 0.00885175 -17.653
-4.13507 -0.731648 -18.7293
-4.52007 0.110352 -17.6601
-4.23207 -0.496248 -18.7414
-4.46907 -0.0132483 -17.6544
-3.61207 -1.42385 -19.6464
-3.02907 -1.87255 -20.3935
-2.96307 -2.03125 -20.3859
-0.61007 -2.50389 -21.5771
-1.71407 -2.44097 -21.3261
-1.26007 -2.27563 -21.3248
-1.97107 -1.93805 -20.9454
-0.42907 -3.04896 -21.5539
-1.08307 -2.79895 -21.3046
-1.79607 -2.45376 -20.9259
-1.54707 -2.84094 -21.306
-0.42307 -3.27539 -21.7092
0.10293 -3.22717 -21.7071
-2.25307 -2.49494 -20.927
-1.08607 -2.67533 -21.5772
-0.61207 -2.82072 -21.7321
-0.91407 -3.09317 -21.5557
0.22493 -2.68322 -21.824
0.75493 -2.57437 -22.3249
-0.18507 -2.91842 -22.3283
-0.21607 -2.92461 -22.0651
0.42893 -2.67582 -21.9154
0.58093 -2.63316 -22.0621
1.12293 -3.66313 -22.2831
0.93293 -3.09853 -22.3047
0.89393 -3.55517 -22.0272
0.45393 -3.35727 -21.7978
-0.14307 -3.41217 -21.8004
1.02493 -2.52976 -22.7599
1.00793 -2.52856 -22.7601
1.32593 -2.48833 -23.2646
1.31993 -2.48358 -23.2649
1.27493 -2.50096 -23.28
1.94593 -2.42376 -24.3267
1.81593 -2.45026 -24.2224
1.59893 -2.45585 -23.761
1.47493 -2.50677 -23.8039
0.44493 -2.80479 -23.2833
0.52393 -2.70489 -22.7621
1.44993 -3.8015 -22.7109
1.41193 -3.67217 -22.7158
1.81693 -3.93764 -23.2088
1.70993 -3.58949 -23.239
1.81593 -3.94902 -23.2084
2.15993 -4.05732 -23.6989
1.98593 -3.46339 -23.764
1.40293 -3.80803 -22.711
0.58693 -4.06907 -23.2277
1.77193 -3.96048 -23.2231
2.09793 -4.10849 -23.7399
0.88493 -4.31529 -24.1461
0.71393 -4.19292 -23.7303
0.54393 -3.77158 -23.7685
0.40093 -3.77012 -23.2454
0.98793 -4.40706 -24.3618
0.71293 -4.211 -23.6785
0.51693 -4.0599 -23.2139
0.32693 -3.90473 -22.7153
0.15993 -3.75032 -22.2854
0.26393 -3.76414 -22.7224
-5.37907 2.25115 -7.28092
-5.31207 2.46655 -7.23042
-5.20107 2.35895 -7.44752
-4.93407 2.35395 -7.79862
-5.45307 2.23415 -7.20432
-4.88707 2.52275 -7.76152
-5.08307 2.72915 -7.36382
-1.82107 2.32305 -8.20612
-1.82607 2.25615 -8.07282
-1.83407 2.29635 -8.20902
-1.89507 2.29115 -8.19672
-2.21907 2.28865 -8.12593
-2.79607 2.34215 -8.26022
-2.21507 2.43465 -8.79663
-2.95507 2.25375 -7.82212
-1.80407 2.60575 -8.41922
-1.78807 2.92755 -8.79313
-1.82407 2.89385 -8.08383
-1.82007 2.39455 -8.19123
-1.97307 5.60915 -7.61442
-1.84407 5.85815 -7.28412
-1.89807 5.22705 -8.35413
-2.23207 5.11135 -8.28622
-2.27207 5.60065 -7.37292
-1.96407 4.81815 -9.09322
-2.08707 4.77665 -9.07352
-1.93607 5.21595 -8.34612
-2.16307 4.32385 -10.0153
-2.13607 4.33185 -10.019
-2.36307 4.25265 -9.98852
-2.51907 4.62205 -8.99832
-3.99707 2.49035 -9.07512
-3.97907 2.61405 -9.05322
-3.59907 2.52265 -9.99022
-3.59907 2.48515 -9.99473
-4.48007 2.41495 -8.34602
-4.47507 2.46575 -8.33622
-4.40307 2.77345 -8.27152
-3.90907 3.03565 -8.98292
-3.59107 2.71735 -9.96632
-1.90407 2.54145 -10.2374
-1.78507 2.53655 -9.46742
-1.79207 2.52295 -9.46663
-1.88407 2.51725 -9.45072
-1.93507 2.53755 -10.2335
-1.77107 2.45915 -8.88182
-1.79807 2.44185 -8.88282
-2.48507 2.50505 -9.34462
-2.17607 2.52875 -10.1991
-1.93707 2.85225 -10.2002
-1.84007 3.26965 -9.34723
-1.79507 2.70455 -9.43902
-1.90307 2.57675 -10.2392
-1.77107 2.52415 -8.86952
-5.62207 2.09985 -7.14552
-5.06707 3.71915 -6.76792
-5.53907 2.17685 -7.15992
-3.52307 2.28545 -7.83942
-4.25607 2.25225 -7.53192
-4.42107 2.23065 -7.43312
-3.94607 2.33615 -8.01542
-4.82607 2.28215 -7.55292
-2.74907 2.50985 -10.1171
-3.13007 2.42495 -8.61432
-4.04507 2.41515 -8.43202
-3.29707 2.48915 -9.20092
-3.32207 2.49105 -10.0352
-3.02507 2.40585 -11.1292
-3.12607 2.17465 -12.379
-3.44007 2.15265 -12.3634
-6.98296e-05 -3.52356 -21.8879
0.69293 -3.46008 -21.885
0.0769302 -3.62978 -22.0302
0.40293 -3.89976 -22.7149
0.83793 -4.22443 -23.7448
1.17393 -4.42627 -24.5643
1.06893 -4.42542 -24.4329
1.15993 -4.36116 -24.6101
1.99393 -3.8712 -24.6217
0.23793 -2.95756 -23.7919
-0.24907 -2.92432 -21.918
-0.35607 -2.89647 -21.8263
-2.41707 -2.10096 -20.9467
-3.36307 3.08095 -12.3664
-3.95607 2.46725 -13.7387
-4.44407 1.82435 -15.1276
-3.65207 2.97565 -12.3545
-3.18707 3.53005 -11.0555
-2.61907 5.28345 -7.64492
-2.93507 4.86115 -8.14452
-2.83507 4.08285 -9.92492
-3.16107 4.39255 -8.88682
-3.30807 3.91295 -9.86142
-3.63807 4.61095 -8.00282
-3.48707 4.97555 -7.45452
-4.55407 4.97925 -6.52862
-1.81107 5.94855 -7.17672
-1.83107 5.91515 -7.20182
-3.97707 5.10465 -6.78432
-3.12707 5.29745 -7.17732
-3.98207 4.99435 -6.98172
-4.53507 4.95995 -6.56362
-1.78107 5.98795 -7.16022
-4.57507 4.99895 -6.50032
-4.55407 4.73055 -6.70882
-4.42007 4.78495 -6.90002
-4.53607 4.42565 -6.98092
-3.99407 4.43905 -7.94342
-4.29007 4.53745 -7.32632
-3.98507 4.49195 -7.91982
-3.52607 3.33115 -11.0307
-3.49907 3.08425 -11.0464
-3.54907 3.60945 -9.85662
-3.80707 3.65385 -8.87992
-3.73907 4.07155 -8.80933
-3.54007 3.79775 -9.83432
-4.06607 4.14885 -7.99972
-3.71707 4.19425 -8.78562
-3.53307 3.40415 -11.0238
-3.53707 3.83105 -9.82712
-3.76107 2.79615 -12.3499
-3.78907 2.90555 -12.3488
-4.16007 2.34195 -13.7351
-4.10507 2.19155 -13.7303
-4.17407 2.38325 -13.7364
-3.79207 2.92075 -12.3491
-4.53907 1.78825 -15.1296
-4.74307 1.12935 -16.4614
-4.69707 1.02075 -16.4559
-4.50407 1.70435 -15.1237
-4.64207 0.404752 -17.6757
-3.12807 -1.63695 -20.4052
-3.70807 -1.19175 -19.658
-0.0780698 -2.92697 -22.7645
-0.0470698 -3.01514 -22.7602
0.0579302 -2.95146 -23.2697
0.11393 -3.07934 -23.2802
0.0599302 -2.94487 -23.2699
0.37593 -2.99684 -24.3352
0.30093 -3.04164 -24.0147
0.59993 -3.60636 -24.2127
2.07793 -2.57383 -24.6677
1.33893 -3.33461 -24.6507
0.63293 -3.07565 -24.6727
2.02193 -2.48242 -24.6265
0.59093 -2.99921 -24.6343
1.99393 -2.43284 -24.4924
0.47793 -2.98727 -24.5041
2.01093 -2.7665 -24.2243
2.06293 -2.47251 -24.4923
2.07893 -2.45617 -24.5848
2.13493 -2.54559 -24.6232
1.41293 -2.70818 -23.273
1.16493 -2.9435 -22.7439
1.62393 -2.47124 -23.7601
1.73293 -2.71538 -23.7928
-4.17907 1.17585 -16.4539
-4.11707 0.423252 -17.6672
-3.28907 -0.989748 -19.6596
-2.42107 3.70325 -11.1257
-2.35607 3.37605 -11.1481
-2.88807 3.06885 -12.3871
-3.40007 2.38535 -13.7382
-3.46207 2.58255 -13.7423
-2.92707 3.21295 -12.3846
-3.91707 1.89255 -15.1214
-2.09307 4.04115 -10.0555
-2.12607 4.30675 -10.0182
-1.94907 4.65555 -9.12202
-1.90507 4.09775 -9.21272
-1.88607 5.16665 -8.36812
-1.86907 4.77565 -8.44242
-1.86207 5.32015 -7.85772
-1.84807 5.18195 -7.59082
-1.85307 5.66595 -7.48632
-5.15007 2.28265 -7.48162
-5.49507 2.21015 -7.17732
-5.21007 2.28615 -7.46732
-3.36307 2.38855 -11.0967
-3.89707 2.47785 -9.09462
-3.56307 2.48375 -10.0006
-4.43007 2.41205 -8.35502
-3.99107 2.47895 -9.07762
0.97593 -4.3482 -24.1593
1.07793 -4.40997 -24.561
0.97593 -4.32777 -24.4379
0.40893 -2.96507 -24.228
0.49593 -3.02587 -24.5911
0.53693 -3.09944 -24.629
0.44593 -3.04914 -24.4995
-3.45707 3.43255 -11.0326
-4.12707 2.40465 -13.737
-3.77407 2.93105 -12.3494
-4.17307 2.38705 -13.7365
-3.59407 4.23805 -8.81162
-3.93507 4.50495 -7.94322
-4.41107 4.89485 -6.78372
-5.09307 3.12235 -7.07932
-4.77107 4.08325 -6.85792
-4.80907 3.57945 -7.17192
-4.46107 3.96145 -7.45082
-4.71407 3.10635 -7.63552
-4.99107 3.61165 -6.87902
-3.57007 3.16465 -9.91113
-4.23307 3.46105 -8.13772
-3.69507 2.53695 -12.3527
-4.43407 1.53365 -15.1151
-3.79307 -0.330448 -18.7416
-2.79807 2.72895 -12.3931
-3.84207 1.66915 -15.1128
-2.01507 3.44805 -10.128
-1.84507 4.54415 -8.01832
-1.85007 4.35575 -8.52212
-1.82107 3.39205 -8.25663
-1.82907 3.85385 -8.61732
-1.83607 4.04065 -7.83672
-1.83707 4.72765 -7.53082
-1.83107 3.43095 -7.81562
-1.82607 4.09705 -7.60382
3 0 1 2
3 1 3 4
3 1 4 2
3 5 6 7
3 7 3 1
3 7 1 5
3 1 0 5
3 8 3 7
3 4 3 8
3 4 8 9
3 10 11 12
3 11 13 14
3 11 14 12
3 14 15 12
3 12 16 10
3 17 15 14
3 14 13 17
3 18 19 20
3 20 21 15
3 15 17 20
3 17 18 20
3 22 23 16
3 16 12 22
3 12 15 22
3 15 21 22
3 24 25 26
3 25 27 26
3 27 28 26
3 26 29 24
3 30 28 27
3 31 32 33
3 33 34 28
3 28 30 33
3 30 31 33
3 35 36 29
3 29 26 35
3 26 28 35
3 28 34 35
3 37 38 39
3 39 40 41
3 41 25 39
3 25 37 39
3 31 30 42
3 30 41 42
3 41 40 42
3 27 41 30
3 25 24 43
3 43 37 25
3 25 41 27
3 44 45 46
3 46 47 48
3 48 49 46
3 49 44 46
3 50 51 52
3 51 48 52
3 48 47 52
3 53 48 51
3 51 50 54
3 55 56 49
3 56 44 49
3 49 48 53
3 53 55 49
3 57 58 59
3 59 60 57
3 60 61 57
3 62 19 18
3 18 63 62
3 63 59 62
3 59 58 62
3 64 65 66
3 65 67 66
3 68 32 31
3 31 69 68
3 69 64 68
3 70 71 64
3 64 69 70
3 69 31 70
3 64 71 65
3 72 73 71
3 71 74 72
3 74 50 72
3 75 76 77
3 71 73 75
3 54 50 74
3 78 79 80
3 80 79 81
3 82 80 83
3 83 80 84
3 84 85 83
3 82 86 87
3 83 85 82
3 77 76 88
3 89 90 86
3 86 91 89
3 91 85 89
3 92 90 78
3 93 94 95
3 96 97 95
3 97 93 95
3 98 99 100
3 87 86 101
3 86 90 102
3 93 103 104
3 103 105 106
3 103 106 104
3 106 107 104
3 108 109 110
3 110 107 106
3 106 105 110
3 111 112 107
3 107 110 111
3 110 109 111
3 113 94 93
3 93 104 113
3 104 107 113
3 107 112 113
3 98 114 115
3 114 116 115
3 116 117 115
3 115 99 98
3 118 5 119
3 5 0 119
3 119 117 116
3 116 118 119
3 117 119 120
3 119 0 120
3 121 122 123
3 123 122 124
3 118 123 124
3 124 6 5
3 124 5 118
3 98 121 114
3 121 123 118
3 121 118 114
3 118 116 114
3 125 126 127
3 126 128 127
3 129 130 126
3 130 131 126
3 131 128 126
3 126 125 129
3 132 133 134
3 134 128 131
3 131 132 134
3 135 136 137
3 135 137 138
3 139 136 135
3 140 137 141
3 137 136 141
3 142 143 144
3 143 145 144
3 146 147 148
3 148 145 146
3 145 143 146
3 143 149 146
3 150 151 152
3 143 153 152
3 153 150 152
3 153 143 142
3 154 155 156
3 154 157 158
3 155 154 158
3 159 160 161
3 159 161 156
3 161 154 156
3 10 16 162
3 10 162 163
3 162 160 159
3 162 159 163
3 16 23 164
3 164 165 160
3 160 162 164
3 162 16 164
3 154 161 157
3 161 160 157
3 160 165 157
3 166 167 168
3 166 168 169
3 168 44 56
3 168 56 169
3 170 138 171
3 138 137 171
3 171 167 166
3 166 170 171
3 140 141 172
3 172 173 167
3 167 171 172
3 171 137 140
3 171 140 172
3 174 45 44
3 44 168 174
3 168 167 174
3 167 173 174
3 43 24 175
3 175 176 177
3 177 178 179
3 177 179 175
3 179 37 43
3 179 43 175
3 180 142 144
3 180 144 181
3 144 145 181
3 181 178 177
3 177 176 180
3 177 180 181
3 148 182 178
3 178 181 148
3 181 145 148
3 183 38 37
3 37 179 183
3 179 178 183
3 178 182 183
3 29 36 184
3 184 185 186
3 186 187 184
3 187 29 184
3 150 153 188
3 150 188 151
3 188 186 151
3 186 185 151
3 176 186 188
3 176 188 180
3 188 153 142
3 188 142 180
3 175 24 187
3 24 29 187
3 187 186 176
3 176 175 187
3 189 190 191
3 147 146 192
3 146 149 192
3 149 193 192
3 194 193 149
3 194 135 193
3 195 147 192
3 195 192 196
3 192 193 196
3 193 135 196
3 38 183 197
3 183 182 197
3 147 198 148
3 198 182 148
3 195 199 198
3 199 200 198
3 200 182 198
3 198 147 195
3 201 202 197
3 202 38 197
3 197 182 200
3 200 201 197
3 39 38 203
3 40 39 203
3 202 204 203
3 204 40 203
3 203 38 202
3 67 65 75
3 65 71 75
3 84 67 88
3 85 84 88
3 86 82 91
3 82 85 91
3 86 102 101
3 102 205 206
3 102 206 101
3 206 205 207
3 206 207 100
3 207 98 100
3 121 98 208
3 122 121 208
3 122 209 124
3 209 6 124
3 210 8 7
3 210 7 211
3 7 6 211
3 212 213 9
3 9 8 210
3 210 212 9
3 109 214 111
3 214 112 111
3 96 215 216
3 96 216 92
3 216 90 92
3 95 215 96
3 78 90 89
3 79 78 89
3 217 61 81
3 79 217 81
3 23 22 218
3 22 21 218
3 21 219 218
3 20 219 21
3 19 220 20
3 220 219 20
3 221 222 218
3 222 23 218
3 219 221 218
3 223 157 224
3 157 165 224
3 164 23 225
3 165 164 225
3 226 165 225
3 226 225 227
3 225 23 222
3 225 222 227
3 228 229 224
3 224 165 226
3 226 228 224
3 230 231 232
3 155 233 232
3 158 157 223
3 158 223 234
3 223 224 234
3 234 233 155
3 155 158 234
3 233 234 235
3 234 224 229
3 234 229 235
3 230 232 236
3 232 233 236
3 237 231 230
3 230 238 237
3 239 240 241
3 240 242 243
3 240 243 241
3 240 239 236
3 244 242 240
3 245 246 247
3 247 248 249
3 249 250 247
3 250 245 247
3 251 241 243
3 243 242 251
3 242 249 251
3 249 248 251
3 252 249 242
3 252 242 244
3 253 245 250
3 253 250 254
3 250 249 252
3 250 252 254
3 255 246 245
3 245 256 255
3 256 257 255
3 257 258 255
3 259 257 256
3 259 256 260
3 256 245 253
3 256 253 260
3 261 257 259
3 262 263 264
3 264 258 257
3 257 261 264
3 261 262 264
3 265 263 262
3 58 73 265
3 266 76 267
3 267 73 58
3 58 57 267
3 57 266 267
3 217 76 266
3 79 85 217
3 89 85 79
3 94 268 269
3 268 270 269
3 270 271 269
3 272 273 274
3 274 271 270
3 270 272 274
3 274 275 127
3 271 274 127
3 276 277 278
3 278 279 276
3 280 279 278
3 109 281 282
3 281 279 280
3 281 280 282
3 108 283 284
3 284 285 281
3 284 281 108
3 281 109 108
3 286 285 284
3 279 285 286
3 279 286 276
3 281 285 279
3 287 103 288
3 103 99 288
3 283 289 290
3 289 287 290
3 108 110 289
3 110 105 289
3 105 287 289
3 289 283 108
3 93 99 103
3 103 287 105
3 101 206 96
3 96 92 101
3 92 87 101
3 96 206 97
3 97 99 93
3 78 87 92
3 87 78 82
3 78 80 82
3 18 291 292
3 59 63 292
3 63 18 292
3 61 60 293
3 60 59 293
3 294 295 296
3 296 297 298
3 298 299 296
3 299 294 296
3 300 291 18
3 298 297 300
3 13 298 300
3 13 300 17
3 300 18 17
3 10 294 299
3 10 299 11
3 299 298 13
3 299 13 11
3 301 295 294
3 294 302 301
3 302 303 301
3 303 304 301
3 10 163 302
3 163 159 302
3 159 303 302
3 302 294 10
3 305 303 159
3 159 156 305
3 306 304 303
3 303 305 306
3 305 307 306
3 308 306 307
3 307 305 309
3 307 309 308
3 309 155 308
3 305 156 309
3 156 155 309
3 135 310 196
3 311 139 194
3 139 135 194
3 138 170 312
3 310 135 312
3 135 138 312
3 313 202 201
3 201 200 314
3 314 315 201
3 315 313 201
3 199 195 196
3 196 310 316
3 196 316 199
3 316 314 199
3 314 200 199
3 170 166 317
3 317 314 316
3 317 316 170
3 316 310 312
3 316 312 170
3 56 313 315
3 56 315 169
3 315 314 317
3 315 317 169
3 317 166 169
3 204 202 313
3 313 55 204
3 55 53 204
3 53 40 204
3 55 313 56
3 54 31 42
3 42 40 53
3 53 51 42
3 51 54 42
3 70 31 54
3 54 74 70
3 74 71 70
3 77 67 75
3 88 67 77
3 133 98 207
3 208 98 133
3 132 131 122
3 122 208 132
3 208 133 132
3 129 318 209
3 129 209 130
3 209 122 130
3 122 131 130
3 318 6 209
3 210 319 212
3 211 6 318
3 211 319 210
3 129 319 211
3 211 318 129
3 319 129 320
3 129 125 320
3 321 109 282
3 280 322 282
3 323 322 280
3 323 280 278
3 324 275 274
3 324 322 323
3 273 321 282
3 282 322 324
3 282 324 273
3 324 274 273
3 112 268 113
3 268 94 113
3 214 109 321
3 273 272 214
3 272 112 214
3 214 321 273
3 268 112 272
3 272 270 268
3 266 61 217
3 262 19 62
3 58 265 62
3 265 262 62
3 57 61 266
3 325 222 221
3 221 219 326
3 326 327 221
3 327 325 221
3 220 19 262
3 262 261 220
3 261 326 220
3 326 219 220
3 261 259 328
3 328 326 261
3 260 253 327
3 253 325 327
3 327 326 328
3 328 259 260
3 328 260 327
3 235 229 228
3 228 226 329
3 329 330 228
3 330 331 235
3 330 235 228
3 227 222 325
3 325 254 227
3 254 329 227
3 329 226 227
3 252 329 254
3 254 325 253
3 244 331 330
3 330 329 252
3 330 252 244
3 331 233 235
3 244 240 331
3 236 233 331
3 331 240 236
3 230 311 191
3 230 191 238
3 191 190 238
3 141 136 332
3 332 333 334
3 332 334 141
3 334 335 336
3 334 336 141
3 139 311 337
3 337 333 332
3 332 136 139
3 332 139 337
3 236 239 333
3 333 337 236
3 337 311 230
3 337 230 236
3 241 335 334
3 333 239 241
3 333 241 334
3 45 174 338
3 174 173 338
3 173 248 338
3 338 246 45
3 172 141 336
3 172 336 339
3 336 335 339
3 339 248 173
3 173 172 339
3 335 241 251
3 335 251 339
3 251 248 339
3 247 246 338
3 248 247 338
3 46 45 340
3 45 246 340
3 47 46 340
3 246 255 340
3 255 258 340
3 258 47 340
3 264 263 341
3 341 47 258
3 258 264 341
3 50 52 341
3 52 47 341
3 341 263 50
3 50 263 72
3 263 265 72
3 265 73 72
3 76 75 267
3 75 73 267
3 88 76 217
3 85 88 217
3 102 215 205
3 90 216 102
3 216 215 102
3 95 94 207
3 215 95 207
3 205 215 207
3 207 94 133
3 133 94 134
3 94 269 134
3 269 271 128
3 269 128 134
3 128 271 127
3 275 125 127
3 277 212 278
3 212 323 278
3 212 319 323
3 320 125 275
3 323 319 320
3 275 324 320
3 324 323 320
3 213 277 276
3 277 213 212
3 284 283 2
3 286 284 2
3 4 286 2
3 2 283 0
3 213 276 9
3 9 286 4
3 276 286 9
3 99 115 288
3 115 117 288
3 0 283 120
3 283 290 120
3 290 287 120
3 287 117 120
3 288 117 287
3 99 97 100
3 97 206 100
3 80 81 84
3 81 61 67
3 81 67 84
3 32 68 292
3 68 64 292
3 67 61 66
3 293 59 342
3 342 64 66
3 342 66 293
3 66 61 293
3 291 32 292
3 292 64 342
3 342 59 292
3 36 35 343
3 35 34 343
3 33 32 344
3 34 33 344
3 291 300 344
3 300 297 344
3 297 34 344
3 344 32 291
3 296 295 343
3 295 36 343
3 343 34 297
3 297 296 343
3 36 345 184
3 345 185 184
3 295 301 345
3 301 304 345
3 304 185 345
3 345 36 295
3 306 346 347
3 346 348 349
3 346 349 347
3 349 185 304
3 349 304 347
3 304 306 347
3 348 151 349
3 151 185 349
3 152 151 348
3 152 348 350
3 350 351 352
3 352 143 152
3 352 152 350
3 346 306 308
3 308 155 351
3 351 350 308
3 350 348 346
3 350 346 308
3 231 353 232
3 353 351 232
3 351 155 232
3 352 351 353
