OFF
394 770 0
10.5206 1.91076 -20.1892
10.6216 2.04696 -20.0262
10.7976 2.02036 -20.2142
10.7376 1.80906 -20.5222
11.0366 1.98316 -20.2982
10.9916 1.75496 -20.6272
10.9336 1.55866 -20.7062
10.6646 1.62736 -20.5982
10.4366 1.74446 -20.2442
11.2566 1.94826 -20.1882
11.3966 1.92486 -19.9822
11.4316 1.76826 -20.1382
11.2336 1.73206 -20.4952
11.4146 1.59176 -20.1902
11.1986 1.54486 -20.5692
11.3276 1.46636 -20.0622
11.2206 1.41346 -19.8532
11.0506 1.35666 -20.0372
11.1216 1.41476 -20.4142
10.8146 1.35306 -20.1372
10.8716 1.41736 -20.5402
10.5906 1.42956 -20.0622
10.4456 1.53666 -19.8952
10.4166 1.60966 -20.1122
10.6256 1.49206 -20.4412
9.62264 0.827058 1.58676
9.87264 1.09016 1.56176
9.65064 0.786558 1.57476
9.85064 1.05926 1.47076
9.63564 0.767858 1.48276
9.50164 0.388158 1.50276
9.51264 0.390858 1.59476
9.77164 1.04906 1.23176
9.61564 1.04926 0.776765
9.40764 0.773158 0.787765
9.56064 0.765258 1.24276
9.27964 0.413358 0.806765
9.42964 0.395558 1.26276
9.24364 0.0315577 0.829765
9.31464 -0.310542 0.852765
9.46464 -0.348242 1.30876
9.39264 0.00325774 1.28576
9.53764 -0.375442 1.54976
9.46464 -0.0146423 1.52576
9.47364 -0.0289423 1.61976
9.54864 -0.405042 1.64476
10.9646 0.825458 1.60976
10.9096 0.805458 1.51676
10.7116 1.05896 1.49576
10.7606 1.08966 1.58876
10.4366 1.19336 1.47976
10.4776 1.22986 1.57176
10.8116 0.801658 1.27676
10.6396 0.807658 0.820765
10.4486 1.04816 0.800765
10.6176 1.04856 1.25576
10.1826 1.17586 0.784765
10.3476 1.17956 1.24076
9.88964 1.17986 0.776765
10.0496 1.18346 1.23076
10.1336 1.19726 1.47076
10.1646 1.23396 1.56176
10.6416 -0.671542 1.68576
10.5956 -0.630742 1.58976
10.8116 -0.339042 1.57876
10.8636 -0.367542 1.67476
10.9446 0.0410577 1.56076
11.0016 0.0286577 1.65576
10.5046 -0.597042 1.34876
10.3386 -0.553542 0.891765
10.5466 -0.277242 0.881765
10.7156 -0.313042 1.33776
10.6756 0.0830577 0.863765
10.8466 0.0571577 1.31976
10.7106 0.465358 0.842765
10.8836 0.449958 1.29876
10.9826 0.444358 1.53976
11.0406 0.449058 1.63376
9.73564 -0.629142 1.56976
9.75364 -0.669642 1.66476
10.0096 -0.764042 1.58376
10.0366 -0.810342 1.67976
9.50664 -0.551342 0.871765
9.65864 -0.595342 1.32776
9.77164 -0.679442 0.885765
9.92864 -0.726842 1.34176
10.0646 -0.683942 0.892765
10.2266 -0.731242 1.34976
10.3126 -0.768542 1.59076
10.3486 -0.815042 1.68676
8.63764 0.904758 -3.84024
8.80564 1.10456 -3.85024
8.94864 1.15926 -5.69724
8.79764 0.988758 -5.68724
9.23364 1.24356 -7.68124
9.10264 1.10326 -7.67124
9.02264 0.919258 -7.65724
8.70664 0.765458 -5.67224
8.53364 0.643558 -3.82324
9.58564 1.36546 -9.66424
9.93164 1.53276 -11.5102
9.83364 1.44406 -11.5012
9.47264 1.25336 -9.65524
9.77564 1.32716 -11.4872
9.40464 1.10606 -9.64124
9.76164 1.20216 -11.4722
9.79964 1.08926 -11.4562
9.43164 0.807158 -9.60924
9.38864 0.948858 -9.62524
9.05164 0.546658 -7.62224
9.00264 0.723158 -7.63924
8.73764 0.314158 -5.63524
8.56764 0.116258 -3.78324
8.50764 0.365758 -3.80324
8.68264 0.527858 -5.65324
9.48764 1.09906 -3.83124
9.64564 0.922958 -3.81424
9.70064 1.00176 -5.66424
9.55864 1.15286 -5.68024
9.89164 1.11136 -7.65224
9.76664 1.23646 -7.66624
9.59564 1.30426 -7.67624
9.36264 1.23426 -5.69224
9.26864 1.19356 -3.84424
10.1556 1.25696 -9.63824
10.4296 1.44396 -11.4872
10.3346 1.52466 -11.4992
10.0466 1.35786 -9.65124
10.2046 1.56896 -11.5082
9.89864 1.41276 -9.66124
10.0626 1.57306 -11.5122
9.73664 1.41696 -9.66524
9.40764 1.30856 -7.68224
9.02964 1.19816 -3.85124
9.14864 1.23876 -5.69824
9.57564 0.133558 -3.76024
9.40664 -0.0664423 -3.75024
9.48964 0.155858 -5.60424
9.64064 0.326558 -5.61424
9.70964 0.413758 -7.59524
9.84064 0.554258 -7.60424
9.92064 0.738458 -7.61824
9.73264 0.550158 -5.62924
9.67864 0.395058 -3.77624
10.0016 0.698258 -9.58524
10.2976 1.00006 -11.4352
10.3956 1.08876 -11.4442
10.1136 0.810358 -9.59424
10.4546 1.20576 -11.4572
10.1816 0.957858 -9.60723
10.4676 1.33096 -11.4722
10.1976 1.11516 -9.62324
9.94064 0.934758 -7.63524
9.70564 0.673258 -3.79524
9.75564 0.788058 -5.64624
8.72564 -0.0601423 -3.76724
8.87964 0.162958 -5.61924
9.17664 0.421458 -7.60824
9.34764 0.353458 -7.59824
9.07564 0.0813577 -5.60824
8.94364 -0.154942 -3.75524
9.89464 1.00846 -11.4442
9.53964 0.706258 -9.59624
10.0246 0.963958 -11.4362
9.68864 0.651158 -9.58724
10.1666 0.959858 -11.4322
9.85064 0.646758 -9.58324
9.53564 0.348858 -7.59424
9.18364 -0.159842 -3.74924
9.29064 0.0765577 -5.60324
10.1966 1.75336 -13.0822
10.1076 1.68026 -13.0722
10.3886 2.00046 -14.3772
10.3026 1.93526 -14.3672
10.2516 1.84876 -14.3512
10.0556 1.58366 -13.0582
10.5146 2.24716 -15.3942
10.5816 2.46676 -16.1292
10.4816 2.39386 -16.1132
10.4246 2.18206 -15.3812
10.4226 2.29666 -16.0902
10.3716 2.09536 -15.3632
10.4116 2.19206 -16.0662
10.4536 2.09676 -16.0422
10.3986 1.91736 -15.3242
10.3616 2.00216 -15.3432
10.2756 1.67156 -14.3182
10.2416 1.75586 -14.3342
10.0786 1.38646 -13.0272
10.0436 1.48016 -13.0432
10.6516 1.67746 -13.0602
10.5646 1.74476 -13.0732
10.8316 1.93026 -14.3562
10.7466 1.99106 -14.3692
10.6306 2.02516 -14.3772
10.4456 1.78216 -13.0812
10.9796 2.17516 -15.3702
11.1056 2.38486 -16.1002
11.0036 2.45396 -16.1182
10.8896 2.23656 -15.3852
10.8666 2.49316 -16.1302
10.7676 2.27116 -15.3942
10.7186 2.49856 -16.1342
10.6356 2.27576 -15.3982
10.5046 2.02936 -14.3802
10.3166 1.78616 -13.0842
10.5336 1.31016 -13.0072
10.6226 1.38326 -13.0162
10.7196 1.60106 -14.2972
10.8056 1.66626 -14.3072
10.8556 1.75286 -14.3222
10.6756 1.47996 -13.0302
10.8636 1.84486 -15.3012
10.9766 2.01416 -16.0152
11.0776 2.08726 -16.0312
10.9536 1.91006 -15.3132
11.1356 2.18456 -16.0532
11.0066 1.99686 -15.3312
11.1476 2.28946 -16.0772
11.0166 2.09026 -15.3512
10.8666 1.84586 -14.3392
10.6866 1.58366 -13.0452
10.1666 1.31906 -13.0152
10.3616 1.61066 -14.3052
10.4776 1.57646 -14.2962
10.2846 1.28156 -13.0072
10.5546 2.02746 -16.0242
10.4886 1.85586 -15.3092
10.6916 1.98816 -16.0132
10.6096 1.82116 -15.3002
10.8406 1.98246 -16.0102
10.7416 1.81636 -15.2962
10.6036 1.57216 -14.2932
10.4146 1.27746 -13.0042
10.5986 2.63226 -16.5802
10.4796 2.54366 -16.5592
10.5816 2.73556 -16.8812
10.4416 2.62786 -16.8552
10.3606 2.48426 -16.8202
10.4106 2.42566 -16.5312
10.5486 2.76846 -17.1662
10.5176 2.72286 -17.5692
10.3376 2.58386 -17.5352
10.3866 2.64256 -17.1362
10.2336 2.39806 -17.4892
10.2936 2.47446 -17.0942
10.2156 2.19766 -17.4372
10.2946 2.01456 -17.3892
10.3476 2.12776 -17.0042
10.2766 2.29316 -17.0472
10.4056 2.18826 -16.7442
10.3456 2.32946 -16.7802
10.4486 2.18246 -16.4692
10.3986 2.29846 -16.4992
11.2186 2.53206 -16.5452
11.0976 2.61626 -16.5672
11.3176 2.61316 -16.8382
11.1746 2.71576 -16.8662
10.9816 2.77396 -16.8842
10.9356 2.66406 -16.5822
11.4006 2.62446 -17.1152
11.4656 2.56236 -17.5122
11.2806 2.69566 -17.5492
11.2346 2.74476 -17.1482
11.0316 2.77156 -17.5722
11.0116 2.81316 -17.1702
10.7636 2.78306 -17.5802
10.7706 2.82316 -17.1762
10.7736 2.78236 -16.8902
10.7596 2.67086 -16.5872
11.0686 2.08126 -16.4362
11.1866 2.16996 -16.4562
11.1416 2.06446 -16.7032
11.2816 2.17236 -16.7282
11.3636 2.31646 -16.7632
11.2566 2.28836 -16.4842
11.1986 1.98186 -16.9562
11.2426 1.85186 -17.3362
11.4226 1.99116 -17.3692
11.3606 2.10806 -16.9862
11.5266 2.17776 -17.4142
11.4546 2.27686 -17.0272
11.5446 2.37896 -17.4642
11.4706 2.45876 -17.0722
11.3776 2.47176 -16.8012
11.2686 2.41596 -16.5152
10.5686 2.09816 -16.4472
10.5486 2.08546 -16.7162
10.7416 2.02666 -16.6992
10.7316 2.05006 -16.4332
10.4796 1.88086 -17.3532
10.5136 2.00716 -16.9712
10.7286 1.80426 -17.3302
10.7366 1.93816 -16.9512
10.9976 1.79196 -17.3242
10.9776 1.92746 -16.9452
10.9506 2.01776 -16.6942
10.9066 2.04286 -16.4292
10.5046 2.59056 -18.2232
10.3136 2.44796 -18.1892
10.5176 2.40686 -18.9612
10.3276 2.26786 -18.9412
10.2196 2.08216 -18.9072
10.2046 2.25716 -18.1412
10.5626 2.20696 -19.6132
10.3906 2.07616 -19.6352
10.2926 1.90366 -19.6442
10.3546 1.59316 -19.4552
10.2766 1.74076 -19.5482
10.2866 1.70926 -18.7822
10.2026 1.88736 -18.8432
10.2706 1.86246 -18.0372
10.1866 2.05096 -18.0872
11.5106 2.42316 -18.1632
11.3146 2.56076 -18.2022
11.5196 2.24386 -18.9022
11.3236 2.37296 -18.9522
11.0606 2.44596 -18.9892
11.0506 2.63946 -18.2272
11.4736 2.06156 -19.5612
11.2956 2.16536 -19.6442
11.0576 2.22036 -19.7152
10.7986 2.24456 -19.6722
10.7766 2.46176 -18.9842
10.7656 2.65186 -18.2352
11.2776 1.69256 -17.9822
11.4676 1.83556 -18.0152
11.2886 1.54406 -18.7272
11.4786 1.67776 -18.7722
11.5876 1.85856 -18.8302
11.5776 2.02726 -18.0622
11.2656 1.44596 -19.4062
11.4386 1.55436 -19.4852
11.5386 1.70486 -19.5752
11.5526 1.89096 -19.5692
11.6036 2.05986 -18.8672
11.5956 2.23416 -18.1142
10.4676 1.72446 -18.0002
10.4836 1.57416 -18.7582
10.7466 1.49476 -18.7482
10.7316 1.64486 -17.9762
10.5336 1.46646 -19.4732
10.7736 1.38816 -19.5042
11.0306 1.38596 -19.4472
11.0296 1.48386 -18.7282
11.0166 1.63166 -17.9702
10.3616 0.817358 0.0817646
10.1746 1.04746 0.0617646
10.0516 0.836158 -0.938235
9.87164 1.05196 -0.957235
9.62264 1.16696 -0.972235
9.91564 1.16976 0.0467646
9.78764 0.869558 -2.23824
9.61664 1.06736 -2.25624
9.38164 1.17306 -2.27024
8.87964 1.07176 -2.27724
9.12164 1.17756 -2.27824
9.09164 1.05516 -0.980235
9.34764 1.17136 -0.980235
9.36364 1.04946 0.0387646
9.62964 1.17396 0.0377646
9.16064 0.785858 0.0497646
8.89764 0.808558 -0.969235
8.77764 0.486858 -0.951235
9.03564 0.442158 0.0687646
8.69664 0.846458 -2.26624
8.58464 0.552358 -2.24924
8.61864 -0.0408423 -2.20724
8.55464 0.239758 -2.22824
8.81264 -0.161342 -0.907235
8.74564 0.145158 -0.929235
9.07164 -0.249742 0.113765
9.00164 0.0772577 0.0907646
9.25864 -0.480042 0.132765
8.99364 -0.377342 -0.889235
9.24264 -0.492742 -0.876235
9.51664 -0.602842 0.145765
8.78964 -0.238742 -2.18924
9.02564 -0.344842 -2.17724
9.52664 -0.244142 -2.17224
9.28464 -0.349742 -2.17024
9.77264 -0.381542 -0.870235
9.51664 -0.497442 -0.869235
10.0696 -0.483242 0.151765
9.80264 -0.607442 0.152765
10.2716 -0.219342 0.141765
9.96764 -0.134742 -0.880235
10.0866 0.187358 -0.897235
10.3966 0.124758 0.123765
9.70964 -0.0186423 -2.18224
9.82264 0.275858 -2.19824
9.85264 0.588858 -2.21824
10.1196 0.529558 -0.917235
10.4306 0.490158 0.103765
3 0 1 2
3 0 2 3
3 2 4 5
3 2 5 3
3 5 6 7
3 5 7 3
3 7 8 0
3 7 0 3
3 9 10 11
3 9 11 12
3 11 13 14
3 11 14 12
3 14 6 5
3 14 5 12
3 5 4 9
3 5 9 12
3 15 16 17
3 15 17 18
3 17 19 20
3 17 20 18
3 20 6 14
3 20 14 18
3 14 13 15
3 14 15 18
3 21 22 23
3 21 23 24
3 23 8 7
3 23 7 24
3 7 6 20
3 7 20 24
3 20 19 21
3 20 21 24
3 25 26 27
3 26 28 29
3 26 29 27
3 29 30 31
3 29 31 27
3 31 25 27
3 32 33 34
3 32 34 35
3 34 36 37
3 34 37 35
3 37 30 29
3 37 29 35
3 29 28 32
3 29 32 35
3 38 39 40
3 38 40 41
3 40 42 43
3 40 43 41
3 43 30 37
3 43 37 41
3 37 36 38
3 37 38 41
3 31 30 43
3 31 43 44
3 43 42 45
3 43 45 44
3 46 47 48
3 46 48 49
3 48 50 51
3 48 51 49
3 52 53 54
3 52 54 55
3 54 56 57
3 54 57 55
3 57 50 48
3 57 48 55
3 48 47 52
3 48 52 55
3 58 33 32
3 58 32 59
3 32 28 60
3 32 60 59
3 60 50 57
3 60 57 59
3 57 56 58
3 57 58 59
3 51 50 60
3 51 60 61
3 60 28 26
3 60 26 61
3 62 63 64
3 62 64 65
3 64 66 67
3 64 67 65
3 68 69 70
3 68 70 71
3 70 72 73
3 70 73 71
3 73 66 64
3 73 64 71
3 64 63 68
3 64 68 71
3 74 53 52
3 74 52 75
3 52 47 76
3 52 76 75
3 76 66 73
3 76 73 75
3 73 72 74
3 73 74 75
3 67 66 76
3 67 76 77
3 76 47 46
3 76 46 77
3 45 42 78
3 45 78 79
3 78 80 81
3 78 81 79
3 40 39 82
3 40 82 83
3 82 84 85
3 82 85 83
3 85 80 78
3 85 78 83
3 78 42 40
3 78 40 83
3 86 69 68
3 86 68 87
3 68 63 88
3 68 88 87
3 88 80 85
3 88 85 87
3 85 84 86
3 85 86 87
3 81 80 88
3 81 88 89
3 88 63 62
3 88 62 89
3 90 91 92
3 90 92 93
3 92 94 95
3 92 95 93
3 95 96 97
3 95 97 93
3 97 98 90
3 97 90 93
3 99 100 101
3 99 101 102
3 101 103 104
3 101 104 102
3 104 96 95
3 104 95 102
3 95 94 99
3 95 99 102
3 105 106 107
3 105 107 108
3 107 109 110
3 107 110 108
3 110 96 104
3 110 104 108
3 104 103 105
3 104 105 108
3 111 112 113
3 111 113 114
3 113 98 97
3 113 97 114
3 97 96 110
3 97 110 114
3 110 109 111
3 110 111 114
3 115 116 117
3 115 117 118
3 117 119 120
3 117 120 118
3 120 121 122
3 120 122 118
3 122 123 115
3 122 115 118
3 124 125 126
3 124 126 127
3 126 128 129
3 126 129 127
3 129 121 120
3 129 120 127
3 120 119 124
3 120 124 127
3 130 100 99
3 130 99 131
3 99 94 132
3 99 132 131
3 132 121 129
3 132 129 131
3 129 128 130
3 129 130 131
3 92 91 133
3 92 133 134
3 133 123 122
3 133 122 134
3 122 121 132
3 122 132 134
3 132 94 92
3 132 92 134
3 135 136 137
3 135 137 138
3 137 139 140
3 137 140 138
3 140 141 142
3 140 142 138
3 142 143 135
3 142 135 138
3 144 145 146
3 144 146 147
3 146 148 149
3 146 149 147
3 149 141 140
3 149 140 147
3 140 139 144
3 140 144 147
3 150 125 124
3 150 124 151
3 124 119 152
3 124 152 151
3 152 141 149
3 152 149 151
3 149 148 150
3 149 150 151
3 117 116 153
3 117 153 154
3 153 143 142
3 153 142 154
3 142 141 152
3 142 152 154
3 152 119 117
3 152 117 154
3 155 112 111
3 155 111 156
3 111 109 157
3 111 157 156
3 157 158 159
3 157 159 156
3 159 160 155
3 159 155 156
3 107 106 161
3 107 161 162
3 161 163 164
3 161 164 162
3 164 158 157
3 164 157 162
3 157 109 107
3 157 107 162
3 165 145 144
3 165 144 166
3 144 139 167
3 144 167 166
3 167 158 164
3 167 164 166
3 164 163 165
3 164 165 166
3 137 136 168
3 137 168 169
3 168 160 159
3 168 159 169
3 159 158 167
3 159 167 169
3 167 139 137
3 167 137 169
3 101 100 170
3 101 170 171
3 170 172 173
3 170 173 171
3 173 174 175
3 173 175 171
3 175 103 101
3 175 101 171
3 176 177 178
3 176 178 179
3 178 180 181
3 178 181 179
3 181 174 173
3 181 173 179
3 173 172 176
3 173 176 179
3 182 183 184
3 182 184 185
3 184 186 187
3 184 187 185
3 187 174 181
3 187 181 185
3 181 180 182
3 181 182 185
3 188 106 105
3 188 105 189
3 105 103 175
3 105 175 189
3 175 174 187
3 175 187 189
3 187 186 188
3 187 188 189
3 126 125 190
3 126 190 191
3 190 192 193
3 190 193 191
3 193 194 195
3 193 195 191
3 195 128 126
3 195 126 191
3 196 197 198
3 196 198 199
3 198 200 201
3 198 201 199
3 201 194 193
3 201 193 199
3 193 192 196
3 193 196 199
3 202 177 176
3 202 176 203
3 176 172 204
3 176 204 203
3 204 194 201
3 204 201 203
3 201 200 202
3 201 202 203
3 170 100 130
3 170 130 205
3 130 128 195
3 130 195 205
3 195 194 204
3 195 204 205
3 204 172 170
3 204 170 205
3 146 145 206
3 146 206 207
3 206 208 209
3 206 209 207
3 209 210 211
3 209 211 207
3 211 148 146
3 211 146 207
3 212 213 214
3 212 214 215
3 214 216 217
3 214 217 215
3 217 210 209
3 217 209 215
3 209 208 212
3 209 212 215
3 218 197 196
3 218 196 219
3 196 192 220
3 196 220 219
3 220 210 217
3 220 217 219
3 217 216 218
3 217 218 219
3 190 125 150
3 190 150 221
3 150 148 211
3 150 211 221
3 211 210 220
3 211 220 221
3 220 192 190
3 220 190 221
3 161 106 188
3 161 188 222
3 188 186 223
3 188 223 222
3 223 224 225
3 223 225 222
3 225 163 161
3 225 161 222
3 184 183 226
3 184 226 227
3 226 228 229
3 226 229 227
3 229 224 223
3 229 223 227
3 223 186 184
3 223 184 227
3 230 213 212
3 230 212 231
3 212 208 232
3 212 232 231
3 232 224 229
3 232 229 231
3 229 228 230
3 229 230 231
3 206 145 165
3 206 165 233
3 165 163 225
3 165 225 233
3 225 224 232
3 225 232 233
3 232 208 206
3 232 206 233
3 178 177 234
3 178 234 235
3 234 236 237
3 234 237 235
3 237 238 239
3 237 239 235
3 239 180 178
3 239 178 235
3 240 241 242
3 240 242 243
3 242 244 245
3 242 245 243
3 245 238 237
3 245 237 243
3 237 236 240
3 237 240 243
3 246 247 248
3 246 248 249
3 248 250 251
3 248 251 249
3 251 238 245
3 251 245 249
3 245 244 246
3 245 246 249
3 252 183 182
3 252 182 253
3 182 180 239
3 182 239 253
3 239 238 251
3 239 251 253
3 251 250 252
3 251 252 253
3 198 197 254
3 198 254 255
3 254 256 257
3 254 257 255
3 257 258 259
3 257 259 255
3 259 200 198
3 259 198 255
3 260 261 262
3 260 262 263
3 262 264 265
3 262 265 263
3 265 258 257
3 265 257 263
3 257 256 260
3 257 260 263
3 266 241 240
3 266 240 267
3 240 236 268
3 240 268 267
3 268 258 265
3 268 265 267
3 265 264 266
3 265 266 267
3 234 177 202
3 234 202 269
3 202 200 259
3 202 259 269
3 259 258 268
3 259 268 269
3 268 236 234
3 268 234 269
3 214 213 270
3 214 270 271
3 270 272 273
3 270 273 271
3 273 274 275
3 273 275 271
3 275 216 214
3 275 214 271
3 276 277 278
3 276 278 279
3 278 280 281
3 278 281 279
3 281 274 273
3 281 273 279
3 273 272 276
3 273 276 279
3 282 261 260
3 282 260 283
3 260 256 284
3 260 284 283
3 284 274 281
3 284 281 283
3 281 280 282
3 281 282 283
3 254 197 218
3 254 218 285
3 218 216 275
3 218 275 285
3 275 274 284
3 275 284 285
3 284 256 254
3 284 254 285
3 226 183 252
3 226 252 286
3 252 250 287
3 252 287 286
3 287 288 289
3 287 289 286
3 289 228 226
3 289 226 286
3 248 247 290
3 248 290 291
3 290 292 293
3 290 293 291
3 293 288 287
3 293 287 291
3 287 250 248
3 287 248 291
3 294 277 276
3 294 276 295
3 276 272 296
3 276 296 295
3 296 288 293
3 296 293 295
3 293 292 294
3 293 294 295
3 270 213 230
3 270 230 297
3 230 228 289
3 230 289 297
3 289 288 296
3 289 296 297
3 296 272 270
3 296 270 297
3 242 241 298
3 242 298 299
3 298 300 301
3 298 301 299
3 301 302 303
3 301 303 299
3 303 244 242
3 303 242 299
3 304 1 0
3 304 0 305
3 0 8 306
3 0 306 305
3 306 302 301
3 306 301 305
3 301 300 304
3 301 304 305
3 23 22 307
3 23 307 308
3 307 309 310
3 307 310 308
3 310 302 306
3 310 306 308
3 306 8 23
3 306 23 308
3 311 247 246
3 311 246 312
3 246 244 303
3 246 303 312
3 303 302 310
3 303 310 312
3 310 309 311
3 310 311 312
3 262 261 313
3 262 313 314
3 313 315 316
3 313 316 314
3 316 317 318
3 316 318 314
3 318 264 262
3 318 262 314
3 319 10 9
3 319 9 320
3 9 4 321
3 9 321 320
3 321 317 316
3 321 316 320
3 316 315 319
3 316 319 320
3 2 1 304
3 2 304 322
3 304 300 323
3 304 323 322
3 323 317 321
3 323 321 322
3 321 4 2
3 321 2 322
3 298 241 266
3 298 266 324
3 266 264 318
3 266 318 324
3 318 317 323
3 318 323 324
3 323 300 298
3 323 298 324
3 278 277 325
3 278 325 326
3 325 327 328
3 325 328 326
3 328 329 330
3 328 330 326
3 330 280 278
3 330 278 326
3 331 16 15
3 331 15 332
3 15 13 333
3 15 333 332
3 333 329 328
3 333 328 332
3 328 327 331
3 328 331 332
3 11 10 319
3 11 319 334
3 319 315 335
3 319 335 334
3 335 329 333
3 335 333 334
3 333 13 11
3 333 11 334
3 313 261 282
3 313 282 336
3 282 280 330
3 282 330 336
3 330 329 335
3 330 335 336
3 335 315 313
3 335 313 336
3 290 247 311
3 290 311 337
3 311 309 338
3 311 338 337
3 338 339 340
3 338 340 337
3 340 292 290
3 340 290 337
3 307 22 21
3 307 21 341
3 21 19 342
3 21 342 341
3 342 339 338
3 342 338 341
3 338 309 307
3 338 307 341
3 17 16 331
3 17 331 343
3 331 327 344
3 331 344 343
3 344 339 342
3 344 342 343
3 342 19 17
3 342 17 343
3 325 277 294
3 325 294 345
3 294 292 340
3 294 340 345
3 340 339 344
3 340 344 345
3 344 327 325
3 344 325 345
3 54 53 346
3 54 346 347
3 346 348 349
3 346 349 347
3 349 350 351
3 349 351 347
3 351 56 54
3 351 54 347
3 352 116 115
3 352 115 353
3 115 123 354
3 115 354 353
3 354 350 349
3 354 349 353
3 349 348 352
3 349 352 353
3 133 91 355
3 133 355 356
3 355 357 358
3 355 358 356
3 358 350 354
3 358 354 356
3 354 123 133
3 354 133 356
3 359 33 58
3 359 58 360
3 58 56 351
3 58 351 360
3 351 350 358
3 351 358 360
3 358 357 359
3 358 359 360
3 34 33 359
3 34 359 361
3 359 357 362
3 359 362 361
3 362 363 364
3 362 364 361
3 364 36 34
3 364 34 361
3 355 91 90
3 355 90 365
3 90 98 366
3 90 366 365
3 366 363 362
3 366 362 365
3 362 357 355
3 362 355 365
3 113 112 367
3 113 367 368
3 367 369 370
3 367 370 368
3 370 363 366
3 370 366 368
3 366 98 113
3 366 113 368
3 371 39 38
3 371 38 372
3 38 36 364
3 38 364 372
3 364 363 370
3 364 370 372
3 370 369 371
3 370 371 372
3 82 39 371
3 82 371 373
3 371 369 374
3 371 374 373
3 374 375 376
3 374 376 373
3 376 84 82
3 376 82 373
3 367 112 155
3 367 155 377
3 155 160 378
3 155 378 377
3 378 375 374
3 378 374 377
3 374 369 367
3 374 367 377
3 168 136 379
3 168 379 380
3 379 381 382
3 379 382 380
3 382 375 378
3 382 378 380
3 378 160 168
3 378 168 380
3 383 69 86
3 383 86 384
3 86 84 376
3 86 376 384
3 376 375 382
3 376 382 384
3 382 381 383
3 382 383 384
3 70 69 383
3 70 383 385
3 383 381 386
3 383 386 385
3 386 387 388
3 386 388 385
3 388 72 70
3 388 70 385
3 379 136 135
3 379 135 389
3 135 143 390
3 135 390 389
3 390 387 386
3 390 386 389
3 386 381 379
3 386 379 389
3 153 116 352
3 153 352 391
3 352 348 392
3 352 392 391
3 392 387 390
3 392 390 391
3 390 143 153
3 390 153 391
3 346 53 74
3 346 74 393
3 74 72 388
3 74 388 393
3 388 387 392
3 388 392 393
3 392 348 346
3 392 346 393
