OFF
411 804 0
-18.5387 -0.358507 2.03166
-18.4217 -0.293367 3.86066
-19.1527 0.315773 3.64266
-19.2897 0.270943 1.87066
-19.4217 0.931103 3.36166
-19.5677 0.904653 1.65666
-19.5577 0.847533 -0.361341
-19.2827 0.220463 -0.193341
-18.5437 -0.402747 -0.0653407
-19.2187 1.4853 3.06666
-18.5357 1.91105 2.80466
-18.6617 1.91062 1.22166
-19.3617 1.47406 1.42866
-18.6687 1.84159 -0.584341
-19.3557 1.41123 -0.478341
-18.4647 1.67424 -2.22334
-18.1347 1.46307 -3.29334
-18.4837 1.12889 -3.73934
-19.0927 1.27728 -2.27634
-18.6377 0.614903 -3.94234
-19.2827 0.753523 -2.32234
-18.4297 0.0635631 -3.67234
-18.0447 -0.345407 -3.15934
-18.3537 -0.396777 -1.94334
-19.0287 0.175113 -2.11534
-8.7077 -1.77482 0.381659
-8.6867 -1.5232 1.01266
-8.71669 -1.50854 0.987659
-8.73769 -1.75631 0.366659
-8.80269 -1.4917 0.977659
-8.82269 -1.73689 0.361659
-8.8447 -1.81337 -0.446341
-8.7597 -1.83374 -0.447341
-8.98469 -1.46498 0.979659
-9.30569 -1.42067 0.989659
-9.32469 -1.66052 0.374659
-9.00469 -1.70786 0.364659
-9.34569 -1.7353 -0.431341
-9.02569 -1.78357 -0.441341
-9.36569 -1.64565 -1.27134
-9.3827 -1.39222 -1.98834
-9.06269 -1.43621 -1.99834
-9.04669 -1.6928 -1.28134
-8.88169 -1.46293 -2.00734
-8.86569 -1.72182 -1.28834
-8.7977 -1.48021 -2.02034
-8.76869 -1.49589 -2.04334
-8.75169 -1.76057 -1.30834
-8.78069 -1.74149 -1.29634
-8.6587 -0.0692669 0.952659
-8.66669 0.364543 0.443659
-8.69769 0.352733 0.425659
-8.68969 -0.0751869 0.927659
-8.78269 0.351373 0.419659
-8.77569 -0.0724569 0.917659
-8.77769 -0.576347 1.20866
-8.6917 -0.584007 1.22066
-8.96569 0.361153 0.422659
-9.28769 0.382743 0.431659
-9.27969 -0.0320369 0.928659
-8.9577 -0.0588369 0.918659
-9.28169 -0.525097 1.21866
-8.95969 -0.558097 1.20866
-9.2907 -1.01508 1.25466
-8.96869 -1.05427 1.24466
-8.78669 -1.07714 1.24466
-8.67069 -1.0983 1.28566
-8.70169 -1.08979 1.25666
-8.73669 0.652433 -1.66934
-8.7597 0.402603 -2.23734
-8.78969 0.391593 -2.21434
-8.7667 0.637613 -1.65434
-8.87469 0.390593 -2.19934
-8.85269 0.634033 -1.64434
-8.82669 0.707033 -0.958341
-8.74069 0.711533 -0.962341
-8.71069 0.727783 -0.966341
-9.05769 0.400393 -2.19034
-9.38169 0.421773 -2.18034
-9.35969 0.659873 -1.62634
-9.0357 0.641523 -1.63634
-9.3327 0.731113 -0.942341
-9.0097 0.713743 -0.952341
-9.30769 0.637943 -0.223341
-8.98469 0.619483 -0.233341
-8.80169 0.612013 -0.238341
-8.68569 0.631023 -0.229341
-8.71569 0.615773 -0.236341
-8.77769 -1.06028 -2.49034
-8.80669 -1.05053 -2.46134
-8.8917 -1.03735 -2.44434
-8.89369 -0.529977 -2.61334
-8.8097 -0.538197 -2.63134
-9.39369 -0.975667 -2.42434
-9.0737 -1.01448 -2.43434
-9.39769 -0.479077 -2.59234
-9.0757 -0.511727 -2.60234
-9.39369 0.0144331 -2.50634
-9.07169 -0.0120569 -2.51634
-8.88869 -0.0257069 -2.52734
-8.77469 -0.0240869 -2.57334
-8.80369 -0.0289069 -2.54434
-11.4847 -1.47006 0.667659
-11.4627 -1.20611 1.45566
-11.7517 -1.25099 1.86266
-11.7787 -1.55662 0.901659
-11.9757 -1.33111 2.41866
-12.0327 -1.67734 1.22666
-12.0887 -1.81426 -0.306341
-11.8117 -1.67507 -0.337341
-11.5097 -1.56394 -0.355341
-12.2627 -1.42073 3.11766
-12.8307 -1.49306 4.05866
-13.0887 -1.806 2.00466
-12.3937 -1.78583 1.64966
-13.2317 -1.91642 -0.189341
-12.5017 -1.91827 -0.248341
-13.3207 -1.83112 -2.28134
-13.3737 -1.50952 -3.96034
-12.6177 -1.52911 -3.59534
-12.5727 -1.84108 -2.09434
-12.1737 -1.44914 -3.14334
-12.1357 -1.74213 -1.85634
-11.8757 -1.33007 -2.68734
-11.5597 -1.23235 -2.30834
-11.5357 -1.48547 -1.41334
-11.8457 -1.60125 -1.61434
-11.4437 0.253793 1.43966
-11.4577 0.680843 0.830659
-11.7537 0.851653 1.17066
-11.7347 0.382133 1.89366
-11.9877 1.06733 1.61866
-11.9327 0.535753 2.46166
-11.9057 -0.117237 2.91666
-11.7287 -0.187537 2.29266
-11.4407 -0.259497 1.78466
-12.2877 1.32553 2.15466
-12.8787 1.65333 2.82966
-12.3517 0.848063 3.67766
-12.1347 0.714743 3.08766
-12.2037 0.0173831 4.16166
-12.0507 -0.0469069 3.57666
-12.3297 -0.786457 4.35066
-12.1207 -0.799907 3.67366
-11.9267 -0.775297 2.94166
-11.4477 -0.774357 1.80866
-11.7347 -0.763267 2.30466
-11.5527 0.933533 -1.76034
-11.5787 0.672573 -2.47034
-11.8947 0.797313 -2.81934
-11.8647 1.09882 -1.95134
-12.1947 0.942433 -3.24034
-12.1597 1.29183 -2.18434
-12.1107 1.43136 -0.903341
-11.8267 1.20903 -0.899341
-11.5197 1.02142 -0.891341
-12.6447 1.09936 -3.65634
-13.4127 1.25954 -3.99034
-13.3717 1.67955 -2.58934
-12.6057 1.4922 -2.41134
-13.2877 1.88099 -0.872341
-12.5357 1.66517 -0.889341
-13.1437 1.88278 0.966659
-12.4257 1.62597 0.731659
-12.0497 1.3612 0.430659
-11.4857 0.936953 0.0126593
-11.7867 1.12696 0.190659
-11.5777 -0.802307 -2.84134
-11.8967 -0.856417 -3.31634
-12.1997 -0.923507 -3.88934
-12.2127 -0.275927 -4.12934
-11.9087 -0.278507 -3.52934
-11.5887 -0.283017 -3.03234
-13.4107 -0.911067 -4.91834
-12.6497 -0.957187 -4.45734
-13.4307 -0.164347 -5.20734
-12.6657 -0.247217 -4.72434
-13.4327 0.602053 -4.88134
-12.6637 0.478933 -4.44234
-12.2117 0.382953 -3.90034
-11.5897 0.237833 -2.90134
-11.9087 0.305463 -3.35434
-14.2777 -1.49482 4.02466
-14.3427 -1.66176 2.12666
-15.7917 -1.24487 4.00766
-15.8557 -1.36188 2.12366
-15.9247 -1.40896 -0.128341
-14.4617 -1.73807 -0.158341
-17.2377 -0.828987 3.96766
-17.3237 -0.915117 2.10366
-17.3547 -0.954867 -0.0703407
-17.2427 -0.671787 -3.70534
-17.2797 -0.901007 -2.09434
-15.9967 -1.03558 -4.09634
-15.9597 -1.32226 -2.31834
-14.6027 -1.32992 -4.15434
-14.5447 -1.64524 -2.36834
-14.1167 0.526433 3.40266
-14.3787 0.867853 3.32966
-14.9807 1.04736 3.20966
-14.9067 0.634123 3.27666
-15.8547 1.19659 3.16866
-15.8487 0.777563 3.24366
-15.8387 0.292963 3.45566
-14.8287 0.161613 3.47166
-13.9827 0.0682131 3.58666
-16.7237 1.23553 3.26366
-17.3177 1.19157 3.42066
-17.5697 0.947683 3.50966
-16.7867 0.867743 3.33566
-17.6857 0.572633 3.70166
-16.8467 0.438083 3.53466
-17.5447 0.172093 3.95666
-17.2767 -0.123047 4.17366
-16.6807 -0.348837 4.14966
-16.7647 0.0015031 3.81866
-15.8137 -0.555757 4.11966
-15.8267 -0.177867 3.76266
-14.9467 -0.631707 4.09566
-14.3517 -0.592147 4.08266
-14.1017 -0.343857 3.84966
-14.8877 -0.278027 3.75966
-14.6677 1.4144 -4.16634
-14.6267 1.8335 -2.67134
-16.0847 1.51986 -4.11834
-16.0717 1.9118 -2.62134
-16.0457 2.1265 -0.832341
-14.5517 2.04936 -0.867341
-17.3387 1.53185 -3.77934
-17.4037 1.87223 -2.40534
-17.4917 2.06863 -0.720341
-17.3637 2.14103 2.62366
-17.4597 2.14577 1.07366
-15.9057 2.18077 2.54666
-15.9757 2.19982 0.998659
-14.3637 2.03581 2.59766
-14.4327 2.09311 1.00866
-14.6477 -0.738737 -5.17034
-16.0697 -0.482717 -5.11234
-16.1277 0.209643 -5.41834
-14.6757 0.000733103 -5.47334
-17.3867 -0.185497 -4.64234
-17.5167 0.423993 -4.94134
-17.4387 1.02277 -4.63934
-16.1177 0.914823 -5.06934
-14.6837 0.760973 -5.11934
-13.2417 1.54352 3.74166
-12.5947 0.864683 4.13966
-13.4707 1.45026 4.13266
-12.8287 0.822933 4.41966
-12.6137 0.105103 4.76066
-12.4027 0.0695431 4.55766
-13.6327 1.36578 4.22266
-13.7417 1.28828 4.10666
-13.1597 0.735253 4.33366
-13.0187 0.781153 4.46266
-12.9577 0.111613 4.62066
-12.8047 0.119543 4.76566
-13.1357 -0.463187 4.92066
-13.6957 -0.869667 5.18266
-13.5827 -0.922687 5.35866
-12.9937 -0.491057 5.08166
-13.4187 -1.03251 5.33066
-12.8027 -0.562757 5.07466
-13.1897 -1.20878 4.98066
-12.5697 -0.684317 4.82466
-18.3807 1.87261 3.77066
-17.2607 2.09182 3.57666
-18.2177 1.80781 4.24666
-17.1597 2.01308 4.05266
-15.8707 2.02865 3.96266
-15.8777 2.11837 3.49266
-18.0667 1.7292 4.35966
-17.9467 1.64929 4.23666
-16.9997 1.82678 4.05966
-17.0697 1.91975 4.17366
-15.8557 1.82908 3.97566
-15.8617 1.92765 4.08466
-14.7047 1.65123 3.98866
-14.6487 1.74547 4.09966
-14.5627 1.84661 3.98466
-14.4377 1.94851 3.53666
-18.2777 -0.236637 4.93666
-18.9757 0.344193 4.69266
-18.1237 -0.192237 5.42666
-18.7827 0.356933 5.17866
-19.0237 0.915893 4.86366
-19.2307 0.933133 4.38166
-17.9807 -0.164067 5.49666
-17.8687 -0.156057 5.31366
-18.4567 0.338203 5.08666
-18.6017 0.354693 5.25666
-18.6687 0.844303 4.79866
-18.8267 0.884563 4.95366
-18.5007 1.30156 4.49866
-18.6507 1.36344 4.63766
-18.8367 1.4208 4.53466
-19.0347 1.46449 4.05666
-14.3547 -1.31572 5.06966
-14.4837 -1.15604 5.49766
-15.7707 -1.00919 5.57366
-15.7707 -1.1218 5.09466
-14.6367 -0.988397 5.35966
-14.5747 -1.04737 5.54566
-15.7707 -0.873167 5.44366
-15.7697 -0.923537 5.63466
-16.9107 -0.577787 5.43066
-16.9707 -0.609627 5.62066
-17.0517 -0.667757 5.55466
-17.1437 -0.743707 5.06066
-13.8107 1.21592 3.87566
-13.2477 0.681143 4.09566
-13.9117 1.1272 3.61866
-13.3757 0.617633 3.82266
-13.1917 0.0475431 4.08266
-13.0537 0.0800331 4.37366
-14.1187 1.00059 3.42066
-13.6367 0.543493 3.58866
-13.4687 0.0368931 3.80566
-14.0867 -0.742917 4.30666
-13.6207 -0.420207 4.07066
-13.8757 -0.842427 4.60866
-13.3577 -0.474237 4.36266
-13.7697 -0.863797 4.91666
-13.2277 -0.473067 4.66366
-17.8767 1.5806 4.00166
-16.9607 1.74912 3.83166
-17.7797 1.49179 3.73866
-16.9077 1.64846 3.57066
-15.8547 1.6405 3.48866
-15.8537 1.74666 3.74966
-17.5777 1.35148 3.52766
-16.7967 1.48652 3.36166
-15.8557 1.47069 3.27266
-14.9107 1.30918 3.30366
-14.7967 1.46746 3.50566
-14.7417 1.57002 3.76266
-17.8057 -0.172107 5.04266
-18.3737 0.308173 4.82366
-17.7167 -0.185177 4.72866
-18.2577 0.274203 4.51566
-18.4517 0.745313 4.24566
-18.5777 0.800283 4.54566
-17.5257 -0.168197 4.41366
-18.0117 0.245913 4.20766
-18.1867 0.672233 3.95166
-18.0417 1.0604 3.72466
-18.2927 1.17096 3.97466
-18.4137 1.24437 4.25566
-14.6797 -0.977807 5.08766
-14.7437 -0.951737 4.76666
-15.7877 -0.847647 4.83966
-15.7777 -0.866357 5.16966
-14.8647 -0.846327 4.43366
-15.7997 -0.761567 4.48466
-16.7377 -0.519777 4.49266
-16.8367 -0.575627 4.83266
-16.8797 -0.580707 5.15666
-9.80769 -1.35106 1.00466
-9.8257 -1.58619 0.390659
-10.3967 -1.27771 1.06366
-10.4147 -1.51173 0.431659
-10.4347 -1.58586 -0.396341
-9.84669 -1.65949 -0.415341
-10.9797 -1.2222 1.20066
-10.9987 -1.46406 0.517659
-11.0197 -1.54411 -0.375341
-11.0617 -1.21644 -2.09134
-11.0417 -1.46175 -1.30334
-10.4727 -1.2556 -1.99334
-10.4547 -1.50038 -1.25834
-9.8827 -1.3231 -1.97234
-9.86569 -1.57159 -1.25534
-9.89469 -0.914637 -2.40834
-10.4857 -0.851817 -2.43834
-10.4937 -0.369797 -2.60934
-9.90069 -0.427717 -2.57634
-11.0777 -0.807567 -2.56534
-11.0867 -0.317507 -2.74334
-11.0767 0.576803 -2.27134
-11.0877 0.171393 -2.63934
-10.4827 0.505843 -2.18234
-10.4927 0.109673 -2.51934
-9.88669 0.455543 -2.16434
-9.89869 0.0561831 -2.49134
-9.86469 0.688883 -1.61134
-10.4607 0.737923 -1.61234
-10.4327 0.808173 -0.910341
-9.8377 0.758603 -0.926341
-11.0537 0.816353 -1.65434
-11.0237 0.891793 -0.896341
-10.9697 0.557213 0.616659
-10.9937 0.804833 -0.104341
-10.3827 0.472103 0.498659
-10.4047 0.718823 -0.173341
-9.79169 0.416843 0.447659
-9.8117 0.667123 -0.208341
-9.78269 0.0101731 0.944659
-10.3737 0.0702631 1.00666
-10.3737 -0.407877 1.30266
-9.7837 -0.473167 1.23466
-10.9587 0.150653 1.15866
-10.9577 -0.334797 1.47066
-10.9647 -0.819097 1.50166
-10.3827 -0.883477 1.33766
-9.7927 -0.953477 1.27066
-8.74369 0.422833 -2.27634
-8.6937 0.756323 -0.972341
-8.64869 0.386143 0.472659
-8.6677 0.658013 -0.216341
-8.6607 0.701643 -0.195341
3 0 1 2
3 0 2 3
3 2 4 5
3 2 5 3
3 5 6 7
3 5 7 3
3 7 8 0
3 7 0 3
3 9 10 11
3 9 11 12
3 11 13 14
3 11 14 12
3 14 6 5
3 14 5 12
3 5 4 9
3 5 9 12
3 15 16 17
3 15 17 18
3 17 19 20
3 17 20 18
3 20 6 14
3 20 14 18
3 14 13 15
3 14 15 18
3 21 22 23
3 21 23 24
3 23 8 7
3 23 7 24
3 7 6 20
3 7 20 24
3 20 19 21
3 20 21 24
3 25 26 27
3 25 27 28
3 27 29 30
3 27 30 28
3 30 31 32
3 30 32 28
3 32 25 28
3 33 34 35
3 33 35 36
3 35 37 38
3 35 38 36
3 38 31 30
3 38 30 36
3 30 29 33
3 30 33 36
3 39 40 41
3 39 41 42
3 41 43 44
3 41 44 42
3 44 31 38
3 44 38 42
3 38 37 39
3 38 39 42
3 45 46 47
3 45 47 48
3 47 32 48
3 32 31 44
3 32 44 48
3 44 43 45
3 44 45 48
3 49 50 51
3 49 51 52
3 51 53 54
3 51 54 52
3 54 55 56
3 54 56 52
3 56 49 52
3 57 58 59
3 57 59 60
3 59 61 62
3 59 62 60
3 62 55 54
3 62 54 60
3 54 53 57
3 54 57 60
3 63 34 33
3 63 33 64
3 33 29 65
3 33 65 64
3 65 55 62
3 65 62 64
3 62 61 63
3 62 63 64
3 27 26 66
3 27 66 67
3 66 56 67
3 56 55 65
3 56 65 67
3 65 29 27
3 65 27 67
3 68 69 70
3 68 70 71
3 70 72 73
3 70 73 71
3 73 74 75
3 73 75 71
3 75 76 68
3 75 68 71
3 77 78 79
3 77 79 80
3 79 81 82
3 79 82 80
3 82 74 73
3 82 73 80
3 73 72 77
3 73 77 80
3 83 58 57
3 83 57 84
3 57 53 85
3 57 85 84
3 85 74 82
3 85 82 84
3 82 81 83
3 82 83 84
3 51 50 86
3 51 86 87
3 86 76 75
3 86 75 87
3 75 74 85
3 75 85 87
3 85 53 51
3 85 51 87
3 88 46 45
3 88 45 89
3 45 43 90
3 45 90 89
3 90 91 92
3 90 92 89
3 92 88 89
3 41 40 93
3 41 93 94
3 93 95 96
3 93 96 94
3 96 91 90
3 96 90 94
3 90 43 41
3 90 41 94
3 97 78 77
3 97 77 98
3 77 72 99
3 77 99 98
3 99 91 96
3 99 96 98
3 96 95 97
3 96 97 98
3 70 69 100
3 70 100 101
3 100 92 101
3 92 91 99
3 92 99 101
3 99 72 70
3 99 70 101
3 102 103 104
3 102 104 105
3 104 106 107
3 104 107 105
3 107 108 109
3 107 109 105
3 109 110 102
3 109 102 105
3 111 112 113
3 111 113 114
3 113 115 116
3 113 116 114
3 116 108 107
3 116 107 114
3 107 106 111
3 107 111 114
3 117 118 119
3 117 119 120
3 119 121 122
3 119 122 120
3 122 108 116
3 122 116 120
3 116 115 117
3 116 117 120
3 123 124 125
3 123 125 126
3 125 110 109
3 125 109 126
3 109 108 122
3 109 122 126
3 122 121 123
3 122 123 126
3 127 128 129
3 127 129 130
3 129 131 132
3 129 132 130
3 132 133 134
3 132 134 130
3 134 135 127
3 134 127 130
3 136 137 138
3 136 138 139
3 138 140 141
3 138 141 139
3 141 133 132
3 141 132 139
3 132 131 136
3 132 136 139
3 142 112 111
3 142 111 143
3 111 106 144
3 111 144 143
3 144 133 141
3 144 141 143
3 141 140 142
3 141 142 143
3 104 103 145
3 104 145 146
3 145 135 134
3 145 134 146
3 134 133 144
3 134 144 146
3 144 106 104
3 144 104 146
3 147 148 149
3 147 149 150
3 149 151 152
3 149 152 150
3 152 153 154
3 152 154 150
3 154 155 147
3 154 147 150
3 156 157 158
3 156 158 159
3 158 160 161
3 158 161 159
3 161 153 152
3 161 152 159
3 152 151 156
3 152 156 159
3 162 137 136
3 162 136 163
3 136 131 164
3 136 164 163
3 164 153 161
3 164 161 163
3 161 160 162
3 161 162 163
3 129 128 165
3 129 165 166
3 165 155 154
3 165 154 166
3 154 153 164
3 154 164 166
3 164 131 129
3 164 129 166
3 167 124 123
3 167 123 168
3 123 121 169
3 123 169 168
3 169 170 171
3 169 171 168
3 171 172 167
3 171 167 168
3 119 118 173
3 119 173 174
3 173 175 176
3 173 176 174
3 176 170 169
3 176 169 174
3 169 121 119
3 169 119 174
3 177 157 156
3 177 156 178
3 156 151 179
3 156 179 178
3 179 170 176
3 179 176 178
3 176 175 177
3 176 177 178
3 149 148 180
3 149 180 181
3 180 172 171
3 180 171 181
3 171 170 179
3 171 179 181
3 179 151 149
3 179 149 181
3 113 112 182
3 113 182 183
3 182 184 185
3 182 185 183
3 185 186 187
3 185 187 183
3 187 115 113
3 187 113 183
3 188 1 0
3 188 0 189
3 0 8 190
3 0 190 189
3 190 186 185
3 190 185 189
3 185 184 188
3 185 188 189
3 23 22 191
3 23 191 192
3 191 193 194
3 191 194 192
3 194 186 190
3 194 190 192
3 190 8 23
3 190 23 192
3 195 118 117
3 195 117 196
3 117 115 187
3 117 187 196
3 187 186 194
3 187 194 196
3 194 193 195
3 194 195 196
3 197 198 199
3 197 199 200
3 199 201 202
3 199 202 200
3 202 203 204
3 202 204 200
3 204 205 197
3 204 197 200
3 206 207 208
3 206 208 209
3 208 210 211
3 208 211 209
3 211 203 202
3 211 202 209
3 202 201 206
3 202 206 209
3 212 213 214
3 212 214 215
3 214 216 217
3 214 217 215
3 217 203 211
3 217 211 215
3 211 210 212
3 211 212 215
3 218 219 220
3 218 220 221
3 220 205 204
3 220 204 221
3 204 203 217
3 204 217 221
3 217 216 218
3 217 218 221
3 158 157 222
3 158 222 223
3 222 224 225
3 222 225 223
3 225 226 227
3 225 227 223
3 227 160 158
3 227 158 223
3 228 16 15
3 228 15 229
3 15 13 230
3 15 230 229
3 230 226 225
3 230 225 229
3 225 224 228
3 225 228 229
3 11 10 231
3 11 231 232
3 231 233 234
3 231 234 232
3 234 226 230
3 234 230 232
3 230 13 11
3 230 11 232
3 235 137 162
3 235 162 236
3 162 160 227
3 162 227 236
3 227 226 234
3 227 234 236
3 234 233 235
3 234 235 236
3 173 118 195
3 173 195 237
3 195 193 238
3 195 238 237
3 238 239 240
3 238 240 237
3 240 175 173
3 240 173 237
3 191 22 21
3 191 21 241
3 21 19 242
3 21 242 241
3 242 239 238
3 242 238 241
3 238 193 191
3 238 191 241
3 17 16 228
3 17 228 243
3 228 224 244
3 228 244 243
3 244 239 242
3 244 242 243
3 242 19 17
3 242 17 243
3 222 157 177
3 222 177 245
3 177 175 240
3 177 240 245
3 240 239 244
3 240 244 245
3 244 224 222
3 244 222 245
3 138 137 246
3 138 246 247
3 246 248 249
3 246 249 247
3 249 250 251
3 249 251 247
3 251 140 138
3 251 138 247
3 252 253 254
3 252 254 255
3 254 256 257
3 254 257 255
3 257 250 249
3 257 249 255
3 249 248 252
3 249 252 255
3 258 259 260
3 258 260 261
3 260 262 263
3 260 263 261
3 263 250 257
3 263 257 261
3 257 256 258
3 257 258 261
3 264 112 142
3 264 142 265
3 142 140 251
3 142 251 265
3 251 250 263
3 251 263 265
3 263 262 264
3 263 264 265
3 231 10 266
3 231 266 267
3 266 268 269
3 266 269 267
3 269 270 271
3 269 271 267
3 271 233 231
3 271 231 267
3 272 273 274
3 272 274 275
3 274 276 277
3 274 277 275
3 277 270 269
3 277 269 275
3 269 268 272
3 269 272 275
3 278 253 252
3 278 252 279
3 252 248 280
3 252 280 279
3 280 270 277
3 280 277 279
3 277 276 278
3 277 278 279
3 246 137 235
3 246 235 281
3 235 233 271
3 235 271 281
3 271 270 280
3 271 280 281
3 280 248 246
3 280 246 281
3 2 1 282
3 2 282 283
3 282 284 285
3 282 285 283
3 285 286 287
3 285 287 283
3 287 4 2
3 287 2 283
3 288 289 290
3 288 290 291
3 290 292 293
3 290 293 291
3 293 286 285
3 293 285 291
3 285 284 288
3 285 288 291
3 294 273 272
3 294 272 295
3 272 268 296
3 272 296 295
3 296 286 293
3 296 293 295
3 293 292 294
3 293 294 295
3 266 10 9
3 266 9 297
3 9 4 287
3 9 287 297
3 287 286 296
3 287 296 297
3 296 268 266
3 296 266 297
3 182 112 264
3 182 264 298
3 264 262 299
3 264 299 298
3 299 300 301
3 299 301 298
3 301 184 182
3 301 182 298
3 260 259 302
3 260 302 303
3 302 304 305
3 302 305 303
3 305 300 299
3 305 299 303
3 299 262 260
3 299 260 303
3 306 289 288
3 306 288 307
3 288 284 308
3 288 308 307
3 308 300 305
3 308 305 307
3 305 304 306
3 305 306 307
3 282 1 188
3 282 188 309
3 188 184 301
3 188 301 309
3 301 300 308
3 301 308 309
3 308 284 282
3 308 282 309
3 254 253 310
3 254 310 311
3 310 312 313
3 310 313 311
3 313 314 315
3 313 315 311
3 315 256 254
3 315 254 311
3 316 198 197
3 316 197 317
3 197 205 318
3 197 318 317
3 318 314 313
3 318 313 317
3 313 312 316
3 313 316 317
3 220 219 319
3 220 319 320
3 319 321 322
3 319 322 320
3 322 314 318
3 322 318 320
3 318 205 220
3 318 220 320
3 323 259 258
3 323 258 324
3 258 256 315
3 258 315 324
3 315 314 322
3 315 322 324
3 322 321 323
3 322 323 324
3 274 273 325
3 274 325 326
3 325 327 328
3 325 328 326
3 328 329 330
3 328 330 326
3 330 276 274
3 330 274 326
3 331 207 206
3 331 206 332
3 206 201 333
3 206 333 332
3 333 329 328
3 333 328 332
3 328 327 331
3 328 331 332
3 199 198 316
3 199 316 334
3 316 312 335
3 316 335 334
3 335 329 333
3 335 333 334
3 333 201 199
3 333 199 334
3 310 253 278
3 310 278 336
3 278 276 330
3 278 330 336
3 330 329 335
3 330 335 336
3 335 312 310
3 335 310 336
3 290 289 337
3 290 337 338
3 337 339 340
3 337 340 338
3 340 341 342
3 340 342 338
3 342 292 290
3 342 290 338
3 343 213 212
3 343 212 344
3 212 210 345
3 212 345 344
3 345 341 340
3 345 340 344
3 340 339 343
3 340 343 344
3 208 207 331
3 208 331 346
3 331 327 347
3 331 347 346
3 347 341 345
3 347 345 346
3 345 210 208
3 345 208 346
3 325 273 294
3 325 294 348
3 294 292 342
3 294 342 348
3 342 341 347
3 342 347 348
3 347 327 325
3 347 325 348
3 302 259 323
3 302 323 349
3 323 321 350
3 323 350 349
3 350 351 352
3 350 352 349
3 352 304 302
3 352 302 349
3 319 219 218
3 319 218 353
3 218 216 354
3 218 354 353
3 354 351 350
3 354 350 353
3 350 321 319
3 350 319 353
3 214 213 343
3 214 343 355
3 343 339 356
3 343 356 355
3 356 351 354
3 356 354 355
3 354 216 214
3 354 214 355
3 337 289 306
3 337 306 357
3 306 304 352
3 306 352 357
3 352 351 356
3 352 356 357
3 356 339 337
3 356 337 357
3 35 34 358
3 35 358 359
3 358 360 361
3 358 361 359
3 361 362 363
3 361 363 359
3 363 37 35
3 363 35 359
3 364 103 102
3 364 102 365
3 102 110 366
3 102 366 365
3 366 362 361
3 366 361 365
3 361 360 364
3 361 364 365
3 125 124 367
3 125 367 368
3 367 369 370
3 367 370 368
3 370 362 366
3 370 366 368
3 366 110 125
3 366 125 368
3 371 40 39
3 371 39 372
3 39 37 363
3 39 363 372
3 363 362 370
3 363 370 372
3 370 369 371
3 370 371 372
3 93 40 371
3 93 371 373
3 371 369 374
3 371 374 373
3 374 375 376
3 374 376 373
3 376 95 93
3 376 93 373
3 367 124 167
3 367 167 377
3 167 172 378
3 167 378 377
3 378 375 374
3 378 374 377
3 374 369 367
3 374 367 377
3 180 148 379
3 180 379 380
3 379 381 382
3 379 382 380
3 382 375 378
3 382 378 380
3 378 172 180
3 378 180 380
3 383 78 97
3 383 97 384
3 97 95 376
3 97 376 384
3 376 375 382
3 376 382 384
3 382 381 383
3 382 383 384
3 79 78 383
3 79 383 385
3 383 381 386
3 383 386 385
3 386 387 388
3 386 388 385
3 388 81 79
3 388 79 385
3 379 148 147
3 379 147 389
3 147 155 390
3 147 390 389
3 390 387 386
3 390 386 389
3 386 381 379
3 386 379 389
3 165 128 391
3 165 391 392
3 391 393 394
3 391 394 392
3 394 387 390
3 394 390 392
3 390 155 165
3 390 165 392
3 395 58 83
3 395 83 396
3 83 81 388
3 83 388 396
3 388 387 394
3 388 394 396
3 394 393 395
3 394 395 396
3 59 58 395
3 59 395 397
3 395 393 398
3 395 398 397
3 398 399 400
3 398 400 397
3 400 61 59
3 400 59 397
3 391 128 127
3 391 127 401
3 127 135 402
3 127 402 401
3 402 399 398
3 402 398 401
3 398 393 391
3 398 391 401
3 145 103 364
3 145 364 403
3 364 360 404
3 364 404 403
3 404 399 402
3 404 402 403
3 402 135 145
3 402 145 403
3 358 34 63
3 358 63 405
3 63 61 400
3 63 400 405
3 400 399 404
3 400 404 405
3 404 360 358
3 404 358 405
3 100 69 406
3 406 69 68
3 68 76 407
3 86 50 408
3 86 408 409
3 408 410 409
3 410 407 409
3 407 76 86
3 407 86 409
3 408 50 49
