OFF
426 834 0
3.23705 20.1552 6.02791
4.01905 19.4678 6.01224
4.10305 19.5379 5.16878
3.29405 20.2457 5.1849
4.07905 19.5299 4.20283
3.28105 20.2268 4.20225
2.24705 20.5854 4.19112
2.24405 20.6092 5.19028
2.22105 20.5077 6.03313
3.87705 19.39 3.33104
3.57705 19.1746 2.76291
3.01105 19.5546 2.52818
3.15305 20.026 3.27976
2.13805 19.839 2.41233
2.21705 20.3547 3.21889
1.21905 19.8472 2.52818
0.558045 19.6677 2.76291
0.334045 19.9688 3.33104
1.22305 20.3413 3.27976
0.174045 20.1678 4.20283
1.15205 20.5747 4.20225
0.140045 20.1852 5.16878
0.184045 20.0943 6.01224
1.14505 20.4969 6.02791
1.13205 20.5988 5.1849
0.794045 11.6312 4.98342
1.17505 11.575 4.77439
1.18005 11.6075 4.76984
0.802045 11.6633 4.97762
1.20405 11.6909 4.76756
0.827045 11.7465 4.97472
0.378045 11.8179 5.04378
0.351045 11.7348 5.04688
0.341045 11.7032 5.0531
1.25805 11.8644 4.7668
1.35305 12.167 4.7668
0.977045 12.2226 4.97376
0.881045 11.92 4.97376
0.528045 12.2939 5.04274
0.433045 11.9912 5.04274
0.0820453 12.3689 4.97376
-0.289955 12.4355 4.7668
-0.385955 12.1329 4.7668
-0.0139547 12.0662 4.97376
-0.440955 11.9596 4.76756
-0.0689547 11.8929 4.97472
-0.469955 11.877 4.76984
-0.484955 11.8462 4.77439
-0.109955 11.7789 4.98342
-0.0969547 11.8101 4.97762
1.42705 11.5679 3.58991
1.20505 11.6141 3.24153
1.21005 11.6463 3.24608
1.43105 11.6003 3.59239
1.23405 11.7296 3.24836
1.45405 11.6838 3.59364
1.52005 11.661 4.00796
1.49705 11.5775 4.00796
1.49405 11.5449 4.00796
1.28805 11.9031 3.24912
1.38305 12.2058 3.24912
1.60305 12.16 3.59405
1.50705 11.8573 3.59405
1.66905 12.1372 4.00796
1.57405 11.8346 4.00796
1.58505 12.1391 4.42188
1.49005 11.8364 4.42188
1.43605 11.6629 4.42229
1.40905 11.5468 4.42602
1.41305 11.5794 4.42353
-0.0949547 11.8325 3.0325
-0.478955 11.8893 3.24153
-0.463955 11.9198 3.24608
-0.0819547 11.8634 3.0383
-0.434955 12.0023 3.24836
-0.0539547 11.946 3.0412
0.402045 11.8734 2.97215
0.376045 11.7905 2.96904
0.366045 11.7592 2.96283
-0.379955 12.1755 3.24912
-0.283955 12.4782 3.24912
0.0970453 12.4219 3.04217
0.00104533 12.1193 3.04217
0.553045 12.3494 2.97318
0.457045 12.0467 2.97318
1.00805 12.2731 3.04217
0.912045 11.9704 3.04217
0.858045 11.797 3.0412
0.826045 11.6821 3.0325
0.833045 11.7139 3.0383
-0.710955 11.8931 4.42602
-0.694955 11.9237 4.42353
-0.664955 12.0061 4.42229
-0.739955 12.0302 4.00796
-0.768955 11.9478 4.00796
-0.785955 11.9174 4.00796
-0.513955 12.482 4.42188
-0.608955 12.1793 4.42188
-0.587955 12.506 4.00796
-0.683955 12.2034 4.00796
-0.511955 12.5055 3.59405
-0.607955 12.2028 3.59405
-0.662955 12.0297 3.59364
-0.708955 11.9169 3.58991
-0.692955 11.9473 3.59239
1.71005 14.2192 5.19259
2.17305 14.151 4.93874
2.43905 14.3859 5.11068
1.89205 14.4667 5.41143
2.73405 14.5376 5.34675
2.07205 14.6115 5.69379
1.28005 14.724 5.80311
1.24005 14.5703 5.51167
1.16105 14.3066 5.27721
3.07005 14.7179 5.64228
3.50005 15.1076 6.03581
2.40505 14.8917 6.31907
2.26905 14.7412 6.01568
1.31405 14.9643 6.39268
1.30005 14.8417 6.11472
0.257045 15.2425 6.31907
-0.708955 15.7952 6.03581
-0.410955 15.2866 5.64228
0.349045 15.0548 6.01568
-0.150955 15.0089 5.34675
0.495045 14.8692 5.69379
0.0510453 14.7761 5.11068
0.157045 14.4803 4.93874
0.613045 14.3985 5.19259
0.591045 14.6792 5.41142
2.47905 14.1423 3.50027
2.21005 14.1985 3.07718
2.48305 14.4422 2.90524
2.80205 14.3756 3.40648
2.76605 14.64 2.70165
3.14505 14.561 3.29667
3.26305 14.5175 4.01525
2.89805 14.3426 4.00796
2.56005 14.1144 4.00796
3.05205 14.9378 2.50353
3.33305 15.4816 2.34801
3.82105 15.3798 3.11497
3.49105 14.8464 3.19234
4.00005 15.3021 4.06262
3.63705 14.784 4.0371
3.90505 15.225 5.06484
3.51105 14.7367 4.91825
3.12805 14.508 4.74292
2.45705 14.1167 4.51566
2.77605 14.3453 4.60945
0.631045 14.4636 2.82333
0.164045 14.5326 3.07718
0.0590453 14.838 2.90524
0.613045 14.7563 2.6045
-0.109955 15.1099 2.70165
0.546045 15.0129 2.34463
1.33405 14.8877 2.22563
1.27605 14.6509 2.50425
1.19105 14.3746 2.73872
-0.277955 15.4819 2.50353
-0.374955 16.0874 2.34801
0.472045 15.9623 1.88783
0.482045 15.3695 2.09024
1.48605 15.8009 1.73444
1.39405 15.2246 1.95248
2.49705 15.6313 1.88783
2.30205 15.0723 2.09024
2.11805 14.7562 2.34463
1.74905 14.2811 2.82333
1.93705 14.54 2.6045
-0.117955 14.5373 4.51566
-0.273955 14.8436 4.60945
-0.525955 15.1049 4.74292
-0.639955 15.1551 4.01525
-0.381955 14.8785 4.00796
-0.208955 14.5668 4.00796
-1.03895 16.0327 5.06484
-0.812955 15.4431 4.91825
-1.08895 16.1335 4.06262
-0.903955 15.5259 4.0371
-0.881955 16.1481 3.11497
-0.732955 15.5364 3.19234
-0.503955 15.1571 3.29667
-0.114955 14.5661 3.50027
-0.271955 14.8777 3.40648
2.10105 16.6417 6.02893
2.47505 16.7237 6.07451
2.66905 17.0697 6.0435
2.20505 17.1186 5.96629
2.81905 17.588 6.03818
2.32905 17.6681 5.95649
1.76505 17.7602 5.92913
1.66905 17.17 5.93953
1.58505 16.6569 6.00647
2.84105 18.1273 6.0739
2.76805 18.5168 6.12605
2.44005 18.7136 6.08848
2.38605 18.2285 5.9982
1.94605 18.8634 6.06989
1.86205 18.3503 5.97346
1.42905 18.8787 6.08848
1.05505 18.7966 6.12605
0.862045 18.4507 6.0739
1.32605 18.4018 5.9982
0.711045 17.9324 6.03818
1.20205 17.8523 5.95649
0.689045 17.393 6.0435
0.762045 17.0036 6.07451
1.09105 16.8068 6.02893
1.14405 17.2918 5.96629
3.60105 16.4172 2.27221
4.11905 16.3092 3.08607
3.76805 17.5052 2.31174
4.28805 17.4159 3.12257
4.51805 17.3736 4.108
4.32805 16.2322 4.08089
3.74505 18.506 2.50218
4.23105 18.4814 3.24144
4.46305 18.5259 4.16003
4.39405 18.4741 5.98613
4.49005 18.515 5.14192
4.41105 17.3227 5.9678
4.52805 17.3377 5.11835
4.12105 16.1621 5.97545
4.28805 16.1666 5.1121
-0.333955 17.06 2.27221
0.565045 16.9273 1.7839
-0.147955 18.1448 2.31174
0.750045 18.0312 1.82514
1.82405 17.8794 1.66291
1.64105 16.7561 1.62113
0.190045 19.0868 2.50218
1.01505 19.0409 2.05828
1.99905 18.9605 1.91016
2.95505 18.724 2.05828
2.88805 17.6819 1.82515
2.71405 16.5761 1.7839
-0.963955 16.9929 5.97545
-1.10695 17.048 5.1121
-0.868955 18.1853 5.9678
-0.962955 18.2348 5.11835
-0.926955 18.2632 4.108
-1.10895 17.1205 4.08089
-0.486955 19.2715 5.98613
-0.552955 19.3389 5.14192
-0.508955 19.3382 4.16003
-0.289955 19.22 3.24144
-0.680955 18.2277 3.12257
-0.870955 17.1244 3.08607
3.33005 15.4425 6.48893
2.40005 15.099 6.54595
3.19005 15.6726 6.67019
2.33305 15.3236 6.67422
1.36805 15.3245 6.68011
1.33805 15.1329 6.58316
3.06905 15.8577 6.69467
2.96305 16.0122 6.6116
2.23905 15.7071 6.59974
2.28105 15.5256 6.68177
1.42905 15.6984 6.59579
1.39905 15.5161 6.67747
0.663045 15.9645 6.59974
0.0740453 16.4842 6.6116
-0.0759547 16.3714 6.69467
0.566045 15.8058 6.68177
-0.247955 16.2342 6.67019
0.453045 15.6306 6.67422
-0.449955 16.06 6.48893
0.321045 15.4386 6.54595
3.90005 19.3737 6.51654
4.25605 18.4281 6.49169
3.75805 19.2645 6.75209
4.09005 18.3796 6.72883
4.08905 17.3781 6.70309
4.26005 17.3426 6.47054
3.60605 19.149 6.78928
3.45705 19.0362 6.69852
3.73905 18.2846 6.67876
3.91305 18.3309 6.76778
3.73505 17.4384 6.65506
3.90905 17.4099 6.74198
3.46905 16.6351 6.63135
3.62005 16.5356 6.71617
3.78205 16.4167 6.68168
3.95105 16.2688 6.46671
0.260045 19.9685 6.51654
1.17205 20.352 6.53145
0.356045 19.8204 6.75209
1.20805 20.1795 6.76604
2.16305 20.1897 6.77069
2.19305 20.3627 6.53642
0.462045 19.6627 6.78928
0.568045 19.5082 6.69852
1.29205 19.8133 6.71037
1.25005 19.9948 6.80218
2.10205 19.822 6.71433
2.13205 20.0043 6.80648
2.86805 19.5558 6.71037
2.96505 19.7146 6.80218
3.06405 19.8762 6.76604
3.15805 20.0276 6.53145
-0.775955 17.041 6.46671
-0.571955 17.128 6.68168
-0.556955 18.1371 6.70309
-0.727955 18.1574 6.47054
-0.207955 17.2358 6.63135
-0.381955 17.1894 6.71617
-0.203955 18.082 6.65506
-0.378955 18.1104 6.74198
0.0620453 18.8853 6.67876
-0.0889547 18.9847 6.76778
-0.239955 19.0871 6.72883
-0.377955 19.1851 6.49169
2.86805 16.1509 6.47018
2.20105 15.87 6.45927
2.76105 16.3061 6.30865
2.16005 16.054 6.29603
1.48605 16.0481 6.28996
1.45505 15.8619 6.45563
2.62205 16.5103 6.16525
2.10605 16.2991 6.14571
1.52605 16.298 6.13176
0.556045 16.8478 6.16525
0.977045 16.4836 6.14571
0.358045 16.6987 6.30865
0.848045 16.2683 6.29603
0.208045 16.5854 6.47018
0.750045 16.107 6.45927
3.32305 18.935 6.55021
3.58205 18.243 6.53202
3.17205 18.8216 6.38096
3.40505 18.197 6.36172
3.40105 17.493 6.33917
3.57905 17.4639 6.51019
2.97505 18.6726 6.2274
3.17005 18.1377 6.20205
3.16205 17.532 6.17379
2.97705 16.9554 6.16806
3.18105 16.8242 6.32226
3.33405 16.7244 6.48837
0.663045 19.3695 6.55021
1.32905 19.6504 6.56112
0.769045 19.2143 6.38096
1.37105 19.4663 6.38796
2.04505 19.4723 6.38839
2.07505 19.6584 6.56476
0.909045 19.01 6.2274
1.42405 19.2213 6.2244
2.00405 19.2224 6.21582
2.55405 19.0368 6.2244
2.68205 19.2521 6.38796
2.78005 19.4134 6.56112
-0.0509547 17.2774 6.48837
0.126045 17.3233 6.32226
0.130045 18.0274 6.33917
-0.0479547 18.0565 6.51019
0.361045 17.3827 6.16806
0.368045 17.9884 6.17379
0.554045 18.5649 6.20205
0.350045 18.6962 6.36172
0.197045 18.796 6.53202
-0.140955 12.9064 4.7668
-0.364955 12.9529 4.42188
0.0140453 13.4607 4.784
-0.214955 13.5082 4.43125
-0.290955 13.5328 4.00796
-0.438955 12.9769 4.00796
0.129045 14.0136 4.83558
-0.114955 14.0642 4.45939
-0.195955 14.0905 4.00796
0.135045 14.0601 3.18034
-0.112955 14.0899 3.55654
0.0200453 13.5043 3.23193
-0.212955 13.5322 3.58467
-0.134955 12.949 3.24912
-0.362955 12.9763 3.59405
0.245045 12.8928 3.04217
0.409045 13.4468 3.02028
0.876045 13.3725 2.94973
0.702045 12.8202 2.97318
0.551045 13.9987 2.95463
1.04805 13.9196 2.87939
1.95405 13.763 3.18034
1.54405 13.8364 2.95463
1.72505 13.2257 3.23193
1.34105 13.2946 3.02028
1.53205 12.6766 3.24912
1.15605 12.744 3.04217
1.75205 12.6308 3.59405
1.95005 13.1789 3.58467
2.01805 13.1556 4.00796
1.81805 12.6081 4.00796
2.19405 13.713 3.55654
2.26605 13.6882 4.00796
1.92105 13.7208 4.83558
2.17405 13.6903 4.45939
1.69505 13.1861 4.78399
1.93205 13.1575 4.43125
1.50205 12.6379 4.7668
1.73405 12.6099 4.42188
1.12505 12.6935 4.97376
1.30905 13.243 4.99564
0.851045 13.3158 5.06619
0.677045 12.7648 5.04274
1.51005 13.7814 5.06129
1.02105 13.8591 5.13653
0.534045 13.9409 5.06129
0.394045 13.3925 4.99564
0.230045 12.8397 4.97376
-0.760955 11.8708 4.44203
-0.838955 11.896 4.00796
-0.910955 11.904 4.00796
-0.499955 11.8284 4.78199
-0.727955 11.8758 4.43016
-0.803955 11.9003 4.00796
-0.493955 11.8719 3.23393
-0.725955 11.8998 3.58577
-0.759955 11.8955 3.57389
1.20705 11.594 3.23393
1.43105 11.5473 3.58577
1.49905 11.5241 4.00796
1.52805 11.5093 4.00796
1.45905 11.5331 3.57389
1.17705 11.5546 4.78199
1.41305 11.526 4.43016
1.44005 11.5112 4.44203
3 0 1 2
3 0 2 3
3 2 4 5
3 2 5 3
3 5 6 7
3 5 7 3
3 7 8 0
3 7 0 3
3 9 10 11
3 9 11 12
3 11 13 14
3 11 14 12
3 14 6 5
3 14 5 12
3 5 4 9
3 5 9 12
3 15 16 17
3 15 17 18
3 17 19 20
3 17 20 18
3 20 6 14
3 20 14 18
3 14 13 15
3 14 15 18
3 21 22 23
3 21 23 24
3 23 8 7
3 23 7 24
3 7 6 20
3 7 20 24
3 20 19 21
3 20 21 24
3 25 26 27
3 25 27 28
3 27 29 30
3 27 30 28
3 30 31 32
3 30 32 28
3 32 33 25
3 32 25 28
3 34 35 36
3 34 36 37
3 36 38 39
3 36 39 37
3 39 31 30
3 39 30 37
3 30 29 34
3 30 34 37
3 40 41 42
3 40 42 43
3 42 44 45
3 42 45 43
3 45 31 39
3 45 39 43
3 39 38 40
3 39 40 43
3 46 47 48
3 46 48 49
3 48 33 32
3 48 32 49
3 32 31 45
3 32 45 49
3 45 44 46
3 45 46 49
3 50 51 52
3 50 52 53
3 52 54 55
3 52 55 53
3 55 56 57
3 55 57 53
3 57 58 50
3 57 50 53
3 59 60 61
3 59 61 62
3 61 63 64
3 61 64 62
3 64 56 55
3 64 55 62
3 55 54 59
3 55 59 62
3 65 35 34
3 65 34 66
3 34 29 67
3 34 67 66
3 67 56 64
3 67 64 66
3 64 63 65
3 64 65 66
3 27 26 68
3 27 68 69
3 68 58 57
3 68 57 69
3 57 56 67
3 57 67 69
3 67 29 27
3 67 27 69
3 70 71 72
3 70 72 73
3 72 74 75
3 72 75 73
3 75 76 77
3 75 77 73
3 77 78 70
3 77 70 73
3 79 80 81
3 79 81 82
3 81 83 84
3 81 84 82
3 84 76 75
3 84 75 82
3 75 74 79
3 75 79 82
3 85 60 59
3 85 59 86
3 59 54 87
3 59 87 86
3 87 76 84
3 87 84 86
3 84 83 85
3 84 85 86
3 52 51 88
3 52 88 89
3 88 78 77
3 88 77 89
3 77 76 87
3 77 87 89
3 87 54 52
3 87 52 89
3 90 47 46
3 90 46 91
3 46 44 92
3 46 92 91
3 92 93 94
3 92 94 91
3 94 95 90
3 94 90 91
3 42 41 96
3 42 96 97
3 96 98 99
3 96 99 97
3 99 93 92
3 99 92 97
3 92 44 42
3 92 42 97
3 100 80 79
3 100 79 101
3 79 74 102
3 79 102 101
3 102 93 99
3 102 99 101
3 99 98 100
3 99 100 101
3 72 71 103
3 72 103 104
3 103 95 94
3 103 94 104
3 94 93 102
3 94 102 104
3 102 74 72
3 102 72 104
3 105 106 107
3 105 107 108
3 107 109 110
3 107 110 108
3 110 111 112
3 110 112 108
3 112 113 105
3 112 105 108
3 114 115 116
3 114 116 117
3 116 118 119
3 116 119 117
3 119 111 110
3 119 110 117
3 110 109 114
3 110 114 117
3 120 121 122
3 120 122 123
3 122 124 125
3 122 125 123
3 125 111 119
3 125 119 123
3 119 118 120
3 119 120 123
3 126 127 128
3 126 128 129
3 128 113 112
3 128 112 129
3 112 111 125
3 112 125 129
3 125 124 126
3 125 126 129
3 130 131 132
3 130 132 133
3 132 134 135
3 132 135 133
3 135 136 137
3 135 137 133
3 137 138 130
3 137 130 133
3 139 140 141
3 139 141 142
3 141 143 144
3 141 144 142
3 144 136 135
3 144 135 142
3 135 134 139
3 135 139 142
3 145 115 114
3 145 114 146
3 114 109 147
3 114 147 146
3 147 136 144
3 147 144 146
3 144 143 145
3 144 145 146
3 107 106 148
3 107 148 149
3 148 138 137
3 148 137 149
3 137 136 147
3 137 147 149
3 147 109 107
3 147 107 149
3 150 151 152
3 150 152 153
3 152 154 155
3 152 155 153
3 155 156 157
3 155 157 153
3 157 158 150
3 157 150 153
3 159 160 161
3 159 161 162
3 161 163 164
3 161 164 162
3 164 156 155
3 164 155 162
3 155 154 159
3 155 159 162
3 165 140 139
3 165 139 166
3 139 134 167
3 139 167 166
3 167 156 164
3 167 164 166
3 164 163 165
3 164 165 166
3 132 131 168
3 132 168 169
3 168 158 157
3 168 157 169
3 157 156 167
3 157 167 169
3 167 134 132
3 167 132 169
3 170 127 126
3 170 126 171
3 126 124 172
3 126 172 171
3 172 173 174
3 172 174 171
3 174 175 170
3 174 170 171
3 122 121 176
3 122 176 177
3 176 178 179
3 176 179 177
3 179 173 172
3 179 172 177
3 172 124 122
3 172 122 177
3 180 160 159
3 180 159 181
3 159 154 182
3 159 182 181
3 182 173 179
3 182 179 181
3 179 178 180
3 179 180 181
3 152 151 183
3 152 183 184
3 183 175 174
3 183 174 184
3 174 173 182
3 174 182 184
3 182 154 152
3 182 152 184
3 185 186 187
3 185 187 188
3 187 189 190
3 187 190 188
3 190 191 192
3 190 192 188
3 192 193 185
3 192 185 188
3 194 195 196
3 194 196 197
3 196 198 199
3 196 199 197
3 199 191 190
3 199 190 197
3 190 189 194
3 190 194 197
3 200 201 202
3 200 202 203
3 202 204 205
3 202 205 203
3 205 191 199
3 205 199 203
3 199 198 200
3 199 200 203
3 206 207 208
3 206 208 209
3 208 193 192
3 208 192 209
3 192 191 205
3 192 205 209
3 205 204 206
3 205 206 209
3 141 140 210
3 141 210 211
3 210 212 213
3 210 213 211
3 213 214 215
3 213 215 211
3 215 143 141
3 215 141 211
3 216 10 9
3 216 9 217
3 9 4 218
3 9 218 217
3 218 214 213
3 218 213 217
3 213 212 216
3 213 216 217
3 2 1 219
3 2 219 220
3 219 221 222
3 219 222 220
3 222 214 218
3 222 218 220
3 218 4 2
3 218 2 220
3 223 115 145
3 223 145 224
3 145 143 215
3 145 215 224
3 215 214 222
3 215 222 224
3 222 221 223
3 222 223 224
3 161 160 225
3 161 225 226
3 225 227 228
3 225 228 226
3 228 229 230
3 228 230 226
3 230 163 161
3 230 161 226
3 231 16 15
3 231 15 232
3 15 13 233
3 15 233 232
3 233 229 228
3 233 228 232
3 228 227 231
3 228 231 232
3 11 10 216
3 11 216 234
3 216 212 235
3 216 235 234
3 235 229 233
3 235 233 234
3 233 13 11
3 233 11 234
3 210 140 165
3 210 165 236
3 165 163 230
3 165 230 236
3 230 229 235
3 230 235 236
3 235 212 210
3 235 210 236
3 176 121 237
3 176 237 238
3 237 239 240
3 237 240 238
3 240 241 242
3 240 242 238
3 242 178 176
3 242 176 238
3 243 22 21
3 243 21 244
3 21 19 245
3 21 245 244
3 245 241 240
3 245 240 244
3 240 239 243
3 240 243 244
3 17 16 231
3 17 231 246
3 231 227 247
3 231 247 246
3 247 241 245
3 247 245 246
3 245 19 17
3 245 17 246
3 225 160 180
3 225 180 248
3 180 178 242
3 180 242 248
3 242 241 247
3 242 247 248
3 247 227 225
3 247 225 248
3 116 115 249
3 116 249 250
3 249 251 252
3 249 252 250
3 252 253 254
3 252 254 250
3 254 118 116
3 254 116 250
3 255 256 257
3 255 257 258
3 257 259 260
3 257 260 258
3 260 253 252
3 260 252 258
3 252 251 255
3 252 255 258
3 261 262 263
3 261 263 264
3 263 265 266
3 263 266 264
3 266 253 260
3 266 260 264
3 260 259 261
3 260 261 264
3 267 121 120
3 267 120 268
3 120 118 254
3 120 254 268
3 254 253 266
3 254 266 268
3 266 265 267
3 266 267 268
3 219 1 269
3 219 269 270
3 269 271 272
3 269 272 270
3 272 273 274
3 272 274 270
3 274 221 219
3 274 219 270
3 275 276 277
3 275 277 278
3 277 279 280
3 277 280 278
3 280 273 272
3 280 272 278
3 272 271 275
3 272 275 278
3 281 256 255
3 281 255 282
3 255 251 283
3 255 283 282
3 283 273 280
3 283 280 282
3 280 279 281
3 280 281 282
3 249 115 223
3 249 223 284
3 223 221 274
3 223 274 284
3 274 273 283
3 274 283 284
3 283 251 249
3 283 249 284
3 23 22 285
3 23 285 286
3 285 287 288
3 285 288 286
3 288 289 290
3 288 290 286
3 290 8 23
3 290 23 286
3 291 292 293
3 291 293 294
3 293 295 296
3 293 296 294
3 296 289 288
3 296 288 294
3 288 287 291
3 288 291 294
3 297 276 275
3 297 275 298
3 275 271 299
3 275 299 298
3 299 289 296
3 299 296 298
3 296 295 297
3 296 297 298
3 269 1 0
3 269 0 300
3 0 8 290
3 0 290 300
3 290 289 299
3 290 299 300
3 299 271 269
3 299 269 300
3 237 121 267
3 237 267 301
3 267 265 302
3 267 302 301
3 302 303 304
3 302 304 301
3 304 239 237
3 304 237 301
3 263 262 305
3 263 305 306
3 305 307 308
3 305 308 306
3 308 303 302
3 308 302 306
3 302 265 263
3 302 263 306
3 309 292 291
3 309 291 310
3 291 287 311
3 291 311 310
3 311 303 308
3 311 308 310
3 308 307 309
3 308 309 310
3 285 22 243
3 285 243 312
3 243 239 304
3 243 304 312
3 304 303 311
3 304 311 312
3 311 287 285
3 311 285 312
3 257 256 313
3 257 313 314
3 313 315 316
3 313 316 314
3 316 317 318
3 316 318 314
3 318 259 257
3 318 257 314
3 319 186 185
3 319 185 320
3 185 193 321
3 185 321 320
3 321 317 316
3 321 316 320
3 316 315 319
3 316 319 320
3 208 207 322
3 208 322 323
3 322 324 325
3 322 325 323
3 325 317 321
3 325 321 323
3 321 193 208
3 321 208 323
3 326 262 261
3 326 261 327
3 261 259 318
3 261 318 327
3 318 317 325
3 318 325 327
3 325 324 326
3 325 326 327
3 277 276 328
3 277 328 329
3 328 330 331
3 328 331 329
3 331 332 333
3 331 333 329
3 333 279 277
3 333 277 329
3 334 195 194
3 334 194 335
3 194 189 336
3 194 336 335
3 336 332 331
3 336 331 335
3 331 330 334
3 331 334 335
3 187 186 319
3 187 319 337
3 319 315 338
3 319 338 337
3 338 332 336
3 338 336 337
3 336 189 187
3 336 187 337
3 313 256 281
3 313 281 339
3 281 279 333
3 281 333 339
3 333 332 338
3 333 338 339
3 338 315 313
3 338 313 339
3 293 292 340
3 293 340 341
3 340 342 343
3 340 343 341
3 343 344 345
3 343 345 341
3 345 295 293
3 345 293 341
3 346 201 200
3 346 200 347
3 200 198 348
3 200 348 347
3 348 344 343
3 348 343 347
3 343 342 346
3 343 346 347
3 196 195 334
3 196 334 349
3 334 330 350
3 334 350 349
3 350 344 348
3 350 348 349
3 348 198 196
3 348 196 349
3 328 276 297
3 328 297 351
3 297 295 345
3 297 345 351
3 345 344 350
3 345 350 351
3 350 330 328
3 350 328 351
3 305 262 326
3 305 326 352
3 326 324 353
3 326 353 352
3 353 354 355
3 353 355 352
3 355 307 305
3 355 305 352
3 322 207 206
3 322 206 356
3 206 204 357
3 206 357 356
3 357 354 353
3 357 353 356
3 353 324 322
3 353 322 356
3 202 201 346
3 202 346 358
3 346 342 359
3 346 359 358
3 359 354 357
3 359 357 358
3 357 204 202
3 357 202 358
3 340 292 309
3 340 309 360
3 309 307 355
3 309 355 360
3 355 354 359
3 355 359 360
3 359 342 340
3 359 340 360
3 96 41 361
3 96 361 362
3 361 363 364
3 361 364 362
3 364 365 366
3 364 366 362
3 366 98 96
3 366 96 362
3 367 127 170
3 367 170 368
3 170 175 369
3 170 369 368
3 369 365 364
3 369 364 368
3 364 363 367
3 364 367 368
3 183 151 370
3 183 370 371
3 370 372 373
3 370 373 371
3 373 365 369
3 373 369 371
3 369 175 183
3 369 183 371
3 374 80 100
3 374 100 375
3 100 98 366
3 100 366 375
3 366 365 373
3 366 373 375
3 373 372 374
3 373 374 375
3 81 80 374
3 81 374 376
3 374 372 377
3 374 377 376
3 377 378 379
3 377 379 376
3 379 83 81
3 379 81 376
3 370 151 150
3 370 150 380
3 150 158 381
3 150 381 380
3 381 378 377
3 381 377 380
3 377 372 370
3 377 370 380
3 168 131 382
3 168 382 383
3 382 384 385
3 382 385 383
3 385 378 381
3 385 381 383
3 381 158 168
3 381 168 383
3 386 60 85
3 386 85 387
3 85 83 379
3 85 379 387
3 379 378 385
3 379 385 387
3 385 384 386
3 385 386 387
3 61 60 386
3 61 386 388
3 386 384 389
3 386 389 388
3 389 390 391
3 389 391 388
3 391 63 61
3 391 61 388
3 382 131 130
3 382 130 392
3 130 138 393
3 130 393 392
3 393 390 389
3 393 389 392
3 389 384 382
3 389 382 392
3 148 106 394
3 148 394 395
3 394 396 397
3 394 397 395
3 397 390 393
3 397 393 395
3 393 138 148
3 393 148 395
3 398 35 65
3 398 65 399
3 65 63 391
3 65 391 399
3 391 390 397
3 391 397 399
3 397 396 398
3 397 398 399
3 36 35 398
3 36 398 400
3 398 396 401
3 398 401 400
3 401 402 403
3 401 403 400
3 403 38 36
3 403 36 400
3 394 106 105
3 394 105 404
3 105 113 405
3 105 405 404
3 405 402 401
3 405 401 404
3 401 396 394
3 401 394 404
3 128 127 367
3 128 367 406
3 367 363 407
3 367 407 406
3 407 402 405
3 407 405 406
3 405 113 128
3 405 128 406
3 361 41 40
3 361 40 408
3 40 38 403
3 40 403 408
3 403 402 407
3 403 407 408
3 407 363 361
3 407 361 408
3 409 410 411
3 412 47 90
3 412 90 413
3 90 95 414
3 90 414 413
3 414 410 409
3 414 409 413
3 409 412 413
3 103 71 415
3 103 415 416
3 415 417 416
3 417 410 414
3 417 414 416
3 414 95 103
3 414 103 416
3 411 410 417
3 415 71 70
3 88 51 418
3 418 51 50
3 418 50 419
3 50 58 420
3 50 420 419
3 420 421 422
3 420 422 419
3 422 418 419
3 68 26 423
3 68 423 424
3 423 425 424
3 425 421 420
3 425 420 424
3 420 58 68
3 420 68 424
3 423 26 25
3 48 47 412
