OFF
478 926 0
-19.1041 3.41715 4.52008
-18.8501 4.19005 4.52008
-19.0371 4.16475 3.60408
-19.3001 3.36775 3.60408
-19.1651 4.15615 2.49988
-19.4331 3.34435 2.49988
-19.5721 2.90845 2.50858
-19.4371 2.93945 3.60388
-19.2371 3.00165 4.51988
-19.2421 4.15615 1.39288
-19.2741 4.15645 0.468775
-19.5451 3.33245 0.468775
-19.5121 3.33615 1.39288
-19.6831 2.89235 0.533975
-19.6511 2.89725 1.42858
-19.7211 2.71615 0.729575
-19.6811 2.67575 1.60628
-19.6921 2.71875 1.53568
-19.6091 2.68055 2.55158
-19.6181 2.72785 2.53488
-19.4761 2.71275 3.60188
-19.2751 2.78175 4.51798
-19.2831 2.82835 4.51928
-19.4841 2.76075 3.60318
-11.4141 1.78885 3.76228
-11.5181 1.47365 3.78128
-11.3941 1.43215 3.83418
-11.2951 1.74875 3.81358
-11.2771 1.74375 3.92958
-13.6601 2.52885 3.88008
-11.8311 1.57655 3.78148
-11.7281 1.89235 3.76198
-11.8771 1.44805 3.84018
-12.9801 1.77835 4.02428
-11.8851 1.41715 3.95718
-11.5711 1.31615 3.95188
-11.5611 1.34535 3.83828
-11.4381 1.28125 3.98718
-11.4431 1.31035 3.88318
-7.99807 8.44155 0.748675
-8.04907 8.47625 -0.371225
-8.08307 8.47175 -0.172725
-8.03507 8.44305 0.784875
-8.24907 8.52025 -0.0856248
-8.20207 8.49225 0.845875
-8.17007 8.43605 1.97348
-7.99707 8.38625 1.96998
-7.95307 8.38485 1.97248
-8.60007 8.57535 1.99738
-8.63107 8.63175 0.889075
-8.67907 8.65955 -0.0337248
-8.70707 8.37275 4.03658
-8.27707 8.23765 4.04958
-8.18307 8.35195 3.10748
-8.61307 8.48895 3.10768
-8.08107 8.19215 4.15478
-7.94907 8.19995 4.46358
-7.92907 8.30845 3.22368
-7.99307 8.30455 3.17418
-10.9571 -0.246248 -0.173725
-11.1181 -0.184648 -0.0859248
-11.1381 -0.141048 -0.631625
-10.9751 -0.199348 -0.695625
-11.0941 0.0421517 -0.896225
-10.9251 -0.0151483 -0.924025
-11.5461 -0.0409483 -0.0337248
-12.3871 0.272452 -0.537225
-11.5661 0.00165175 -0.587425
-11.5231 0.183652 -0.864325
-10.9531 0.486652 -0.984425
-11.3821 0.627452 -0.956625
-10.7891 0.432752 -0.999325
-10.7551 -0.256648 3.22368
-10.7061 -0.162948 4.46358
-10.8071 -0.0780483 4.15478
-10.8011 -0.212948 3.17428
-10.9921 0.00165175 4.04958
-10.9811 -0.137748 3.10748
-11.0161 -0.200348 1.97348
-10.8491 -0.264548 1.96978
-11.4441 -0.0562483 1.99738
-11.4081 0.00845175 3.10768
-11.4171 0.148252 4.03668
-12.3201 0.204352 0.939275
-11.4981 -0.0664483 0.889075
-11.0701 -0.210148 0.845675
-10.9081 -0.271848 0.784275
-10.8241 1.06635 4.92808
-10.9481 0.692152 4.92298
-10.7891 0.412552 4.91598
-10.6591 0.814452 4.93698
-10.6541 0.180252 4.89988
-10.5201 0.604452 4.93138
-10.7061 2.17425 4.88208
-10.5881 3.15285 4.77628
-11.1791 1.36165 4.77638
-11.1051 0.967552 4.88228
-11.0021 0.531952 4.90738
-11.1791 0.779052 4.88268
-11.3091 1.00595 4.77708
-10.8651 0.177652 4.76488
-10.7031 -0.0264483 4.80618
-9.14407 8.05765 4.86888
-8.76807 7.93295 4.85238
-8.49207 8.09095 4.60128
-8.89307 8.21985 4.59978
-9.61307 7.77655 4.80658
-9.13007 7.61215 4.77698
-9.04807 7.78675 4.89268
-8.88907 7.72295 4.88278
-8.59507 7.83635 4.90748
-8.62207 7.88225 4.86288
-8.27807 8.02505 4.76488
-8.31707 8.04295 4.66868
-19.0001 2.89705 5.06048
-19.0071 2.94145 5.06168
-18.7031 3.06425 5.30538
-18.6591 3.23345 5.30608
-18.9641 3.10675 5.06228
-18.3761 3.13635 5.32278
-18.1671 3.33195 5.19768
-18.3861 3.28685 5.32588
-18.2531 3.71265 5.32638
-17.9411 5.42505 5.30628
-18.5401 3.60745 5.30628
-18.0191 3.80055 5.19798
-18.5941 4.24015 5.06248
-18.8371 3.50295 5.06248
-10.9091 0.179152 4.66868
-11.0591 0.489052 4.86288
-11.2071 0.530952 4.85238
-11.0781 0.242052 4.60128
-11.3441 0.815552 4.89268
-11.5811 0.651752 4.86868
-11.6951 0.927452 4.91398
-11.7951 1.15715 4.80658
-11.4781 0.376052 4.59978
-11.0071 2.25605 4.58788
-11.3131 1.33185 4.58798
-11.1501 2.01355 4.35708
-11.3931 1.28745 4.36198
-11.3721 1.42645 4.13188
-11.2671 1.74025 4.12418
-11.4351 1.26555 4.14818
-11.3821 1.15705 4.58878
-9.80907 7.66205 4.38578
-9.49407 7.55625 4.36838
-9.34907 7.56805 4.59268
-9.74307 7.70135 4.61718
-9.83607 7.63345 3.95718
-9.38907 7.48255 3.95688
-9.52007 7.53935 4.14088
-9.83207 7.64415 4.15238
-9.35907 7.49805 4.33988
-9.28107 7.50365 4.58768
-17.6801 4.45545 4.99588
-17.8791 3.85335 4.99588
-18.0081 3.44505 4.99548
-17.9081 3.56095 4.75978
-17.8061 3.87885 4.75808
-17.2961 5.42525 4.75808
-18.0031 3.33655 4.99328
-17.9451 3.42045 4.76498
-17.9171 3.37245 4.74668
-17.9011 3.41205 4.38168
-17.8761 3.56985 4.52958
-17.8601 3.56535 4.33968
-17.7751 3.88505 4.52218
-17.7591 3.87975 4.32588
-11.4451 1.23555 4.36678
-11.5671 1.26595 4.36838
-11.5321 1.19225 4.59748
-11.5761 1.29845 4.14088
-12.4931 1.59775 4.18928
-11.8911 1.39895 4.15238
-11.8841 1.36695 4.38578
-11.8551 1.29495 4.61718
-7.84207 8.20875 4.76118
-8.02107 8.10915 4.80618
-7.88107 8.16315 4.84998
-8.09907 7.93475 4.89988
-7.95207 7.99315 4.91318
-7.86607 8.00505 4.96698
-7.79307 8.17115 4.96128
-8.09207 7.58515 4.93428
-8.68007 5.54295 4.97218
-8.00407 7.59645 4.97218
-8.23707 7.53425 4.93138
-8.34607 7.82655 4.91598
-8.47407 7.44545 4.93698
-8.64107 7.69425 4.92298
-8.75707 7.33735 4.92808
-9.22307 7.29645 4.77638
-8.93207 7.56375 4.88228
-9.04007 7.22845 4.88208
-9.41607 7.08275 4.58788
-9.39007 7.35865 4.35908
-9.48807 7.05605 4.35708
-9.42007 7.34905 4.13188
-9.51707 7.04865 4.12418
-9.52807 7.05215 3.92958
-9.44807 7.35815 3.83098
-9.54607 7.05805 3.81358
-9.56607 7.39775 3.78128
-9.66507 7.09665 3.76228
-9.52907 7.51175 3.83828
-9.41307 7.47115 3.88318
-9.88007 7.50185 3.78148
-9.84207 7.61565 3.84008
-9.97907 7.20075 3.76198
-16.1711 9.40985 5.19798
-16.5351 8.30355 5.19798
-16.0901 9.28215 4.99588
-16.0471 9.21735 4.75808
-15.9441 9.51855 4.75978
-15.9861 9.58865 4.99578
-16.0631 9.72655 5.19778
-16.0091 9.18815 4.32588
-15.9091 9.48705 4.33968
-15.9241 9.49255 4.52958
-16.0251 9.19345 4.52218
-15.8851 9.64785 4.74148
-15.8591 9.61125 4.38238
-16.0001 9.87585 5.19708
-15.9351 9.71095 4.99518
-16.8071 10.3867 4.52008
-17.0571 9.63005 4.52008
-16.8841 9.42835 5.06248
-16.6471 10.1499 5.06248
-16.4721 9.88235 5.30628
-16.3511 10.2367 5.30608
-16.5191 10.5252 5.06228
-16.6741 10.7802 4.51988
-16.3061 9.62285 5.32638
-16.1351 10.1173 5.32598
-16.2471 10.3889 5.30308
-16.2971 10.3688 5.30548
-16.4351 10.6808 5.06048
-16.5851 10.9434 4.51798
-16.6141 10.9269 4.51928
-16.4621 10.6651 5.06168
-17.1891 9.77405 3.60408
-16.9321 10.5542 3.60408
-16.7941 10.9599 3.60388
-16.8801 11.0772 2.50858
-17.0201 10.6646 2.49988
-17.7101 8.57165 2.49988
-16.7031 11.1283 3.60188
-16.7321 11.1113 3.60318
-16.7871 11.2455 2.55158
-16.8171 11.2295 2.53488
-16.8371 11.3051 1.60628
-16.8431 11.3342 0.727475
-16.8851 11.322 0.729575
-16.8661 11.2932 1.53568
-16.9531 11.1779 0.533975
-16.9331 11.1449 1.42858
-17.0971 10.7625 0.468775
-17.3621 9.95595 0.468775
-17.3401 9.92725 1.39288
-17.0751 10.73 1.39288
-8.49307 7.95195 -0.984025
-8.34907 8.37095 -0.895825
-8.18007 8.31565 -0.922325
-8.32907 7.89685 -0.997825
-8.30107 7.88495 -1.00702
-9.74307 8.36455 -0.906325
-8.77807 8.51225 -0.864325
-8.92207 8.09375 -0.956625
-8.28307 8.52005 -0.631325
-8.71207 8.66025 -0.587425
-8.09107 8.46235 -0.782225
-8.11807 8.46895 -0.694225
-8.13707 8.29615 -0.990625
-8.07407 8.45565 -0.901225
-7.83707 8.26915 4.15128
-7.87407 8.32525 3.17158
-7.91307 8.39085 1.96688
-13.0851 9.81595 4.30448
-15.9501 10.7599 4.47958
-14.4441 10.0493 4.93918
-12.4101 9.13435 5.06858
-12.3501 9.35925 4.81118
-15.5761 9.93835 5.29188
-15.4781 9.70935 5.16518
-12.5381 8.74055 4.98538
-11.8211 8.70105 5.06228
-10.7761 9.05485 4.16328
-13.1761 8.83285 4.82708
-15.3911 9.50145 4.72708
-15.4191 9.57195 4.96418
-15.3831 9.47325 4.49178
-15.3861 9.46255 4.29658
-12.3091 8.44845 4.10848
-12.6001 8.55605 4.32158
-15.4301 9.33035 4.12078
-13.3361 8.30715 3.96718
-11.9771 5.81365 3.84698
-15.3911 9.44465 4.17938
-15.5291 9.02985 4.10128
-14.0101 2.29465 3.91458
-17.2781 3.72145 4.10128
-17.3821 3.40595 4.12078
-15.0741 4.69965 3.99748
-17.4261 3.27685 4.17948
-17.4351 3.24625 4.29658
-14.0521 2.16525 3.97328
-15.9661 2.53175 5.06158
-14.6841 2.22765 4.79018
-17.5311 3.16555 4.96418
-17.4651 3.20635 4.72708
-13.4811 1.89355 4.48348
-14.6581 2.31095 4.32158
-17.4411 3.22805 4.49178
-13.4871 0.830152 4.16328
-14.9351 1.51535 4.81118
-14.7761 1.94275 5.10238
-17.8741 2.96385 5.29188
-16.8301 2.38145 5.18958
-17.0291 2.20535 4.93918
-18.6611 2.53525 4.47958
-16.5671 1.84525 4.35158
-15.1161 1.23055 3.33448
-14.4001 0.917852 2.17818
-18.0261 2.18945 3.51238
-16.6981 1.75165 3.43118
-17.4731 1.93075 2.36608
-18.2281 2.15145 1.30058
-16.9251 1.73185 0.295175
-14.4661 0.911752 1.07058
-13.7111 0.672652 0.0986752
-15.3371 1.24445 -0.356925
-14.4911 1.16185 -0.682825
-19.0861 2.67595 -0.401925
-19.1281 2.49365 -0.125025
-18.9461 3.12015 -0.494125
-15.3541 3.96425 -0.676925
-15.1531 1.87015 -0.726025
-12.7931 3.62955 -0.824225
-10.9431 9.22575 -0.731925
-12.2921 9.20445 -0.750525
-17.1891 8.45175 -0.494125
-16.4851 10.5865 -0.494125
-16.3421 11.0049 -0.401825
-14.7671 10.6556 -0.217225
-16.2421 11.1523 0.428675
-14.0581 10.4324 0.295175
-11.6811 9.63845 -0.405925
-10.8441 9.37315 0.0985752
-10.7971 9.34535 1.02148
-12.4021 9.87455 1.11968
-10.7561 9.28605 2.12928
-16.1951 11.1245 1.35158
-14.0111 10.4046 1.21798
-13.9571 10.3408 2.32498
-15.2311 10.67 3.51238
-12.3221 9.71105 3.33448
-10.7431 9.19065 3.23788
-18.4121 2.66125 5.02378
-18.1371 2.81255 5.26958
-18.5201 2.94245 5.29308
-18.8161 2.79865 5.04858
-19.0831 2.67885 4.50548
-17.9061 3.17215 5.18038
-18.1351 3.26075 5.19448
-18.6691 3.00355 5.30238
-19.2481 2.74645 4.51588
-18.9741 2.86335 5.05848
-18.8461 2.45955 3.56248
-19.2791 2.60695 3.58908
-19.4151 2.57505 2.49388
-18.9771 2.42605 2.45798
-19.4491 2.67645 3.59968
-19.5841 2.64475 2.53148
-19.7001 2.66465 0.727475
-19.6611 2.64315 1.53258
-19.5451 2.59975 0.520975
-19.4991 2.57515 1.41438
-19.1101 2.45175 0.428675
-19.0611 2.42615 1.35158
-19.5651 2.64115 -0.0160248
-19.5231 2.82215 -0.285125
-19.7201 2.70265 0.240575
-19.6811 2.88075 -0.00522476
-19.2701 4.14895 -0.0871248
-19.5421 3.32255 -0.0871248
-19.3821 3.26645 -0.374825
-16.9231 10.7281 -0.374825
-16.7791 11.1462 -0.285125
-17.3531 9.96545 -0.0871248
-17.0861 10.7744 -0.0871248
-16.9431 11.1911 -0.00522476
-16.8751 11.336 0.240575
-16.6801 11.2925 0.520975
-16.7131 11.2935 -0.0160248
-16.2761 11.153 -0.125025
-16.6351 11.2659 1.41438
-16.5721 11.1999 2.49388
-16.1321 11.0577 2.45798
-16.8041 11.311 1.53258
-16.7481 11.2491 2.53148
-16.5461 10.946 4.51588
-16.6631 11.131 3.59968
-16.3751 10.8972 4.50548
-16.4871 11.081 3.58908
-16.0511 10.9401 3.56248
-15.8271 10.5052 5.02378
-16.2331 10.6366 5.04858
-16.0811 10.3418 5.29308
-15.6971 10.2175 5.26958
-16.3971 10.6832 5.05848
-15.8331 9.70495 4.98918
-15.7171 9.60715 4.74888
-15.7161 9.55715 4.22068
-15.7071 9.57825 4.51918
-15.7541 9.43705 4.15968
-15.8531 9.13675 4.14068
-15.8831 9.47895 4.22448
-15.8431 9.59025 4.27628
-15.9841 9.17765 4.20718
-17.6031 3.82835 4.14068
-17.7061 3.51305 4.15968
-17.8351 3.55625 4.22448
-17.7321 3.87235 4.20718
-17.7571 3.35475 4.33008
-17.7481 3.38425 4.21658
-17.8731 3.42945 4.27628
-17.7901 3.31685 4.74888
-17.8611 3.27795 4.98448
-17.7631 3.33735 4.51918
-18.4391 5.43595 4.52008
-18.2031 5.42835 5.06248
-17.2821 7.42325 5.30628
-17.7371 6.84045 5.06248
-17.4841 5.42545 5.19798
-17.4821 6.05245 5.32638
-17.4641 8.39405 4.52008
-17.2731 8.24945 5.06248
-18.1111 6.97615 3.60408
-18.2221 7.01995 2.49988
-18.7341 5.46475 2.49988
-17.7971 8.63815 0.468775
-17.7721 8.61605 1.39288
-18.8361 5.48465 0.468775
-18.2881 7.04865 1.39288
-16.3321 5.97515 -0.586425
-17.7101 6.86905 -0.494125
-18.6701 5.42715 -0.374825
-18.1481 7.01255 -0.374825
-18.3091 7.06425 -0.0871248
-17.7891 8.64385 -0.0871248
-17.6261 8.59455 -0.374825
-10.8381 5.04195 -0.906325
-10.2411 2.64895 -0.984325
-9.55407 4.18065 -0.998525
-10.0471 2.58555 -1.00962
-10.1471 4.37635 -0.956625
-9.19607 5.81765 -0.984125
-9.00407 5.75215 -1.00802
-9.25807 4.04675 4.93428
-9.78707 4.21365 4.92808
-9.80307 5.53365 4.77628
-10.0101 4.28585 4.88208
-10.1171 4.95525 4.58788
-9.99107 5.52975 4.35708
-10.7381 3.26385 4.35708
-10.2131 4.97185 3.92958
-10.3881 4.40565 4.12418
-10.7701 3.28145 3.92958
-10.6031 3.85125 3.81358
-10.3501 5.01695 3.76228
-16.5091 7.67045 4.32588
-16.8541 6.53645 4.20718
-17.2521 5.41745 4.32588
-16.7361 7.12525 4.75808
-16.9811 6.57925 4.99588
-16.8961 6.55045 4.52218
-16.6011 7.73005 4.99588
3 0 1 2
3 0 2 3
3 2 4 5
3 2 5 3
3 5 6 7
3 5 7 3
3 7 8 0
3 7 0 3
3 9 10 11
3 9 11 12
3 11 13 14
3 11 14 12
3 14 6 5
3 14 5 12
3 5 4 9
3 5 9 12
3 15 16 17
3 16 18 19
3 16 19 17
3 19 6 14
3 19 14 17
3 14 13 15
3 14 15 17
3 20 21 22
3 20 22 23
3 22 8 7
3 22 7 23
3 7 6 19
3 7 19 23
3 19 18 20
3 19 20 23
3 24 25 26
3 24 26 27
3 26 28 27
3 29 30 31
3 30 25 24
3 30 24 31
3 32 33 34
3 34 35 36
3 34 36 32
3 36 25 30
3 36 30 32
3 37 26 38
3 26 25 36
3 26 36 38
3 36 35 37
3 36 37 38
3 39 40 41
3 39 41 42
3 41 43 44
3 41 44 42
3 44 45 46
3 44 46 42
3 46 47 39
3 46 39 42
3 48 45 44
3 48 44 49
3 44 43 50
3 44 50 49
3 51 52 53
3 51 53 54
3 53 45 48
3 53 48 54
3 55 56 57
3 55 57 58
3 57 47 46
3 57 46 58
3 46 45 53
3 46 53 58
3 53 52 55
3 53 55 58
3 59 60 61
3 59 61 62
3 61 63 64
3 61 64 62
3 65 66 67
3 66 68 67
3 68 63 61
3 68 61 67
3 61 60 65
3 61 65 67
3 69 63 68
3 69 68 70
3 64 63 69
3 64 69 71
3 72 73 74
3 72 74 75
3 74 76 77
3 74 77 75
3 77 78 79
3 77 79 75
3 79 72 75
3 80 78 77
3 80 77 81
3 77 76 82
3 77 82 81
3 83 65 84
3 65 60 85
3 65 85 84
3 85 78 80
3 85 80 84
3 80 83 84
3 79 78 85
3 79 85 86
3 85 60 59
3 85 59 86
3 87 88 89
3 87 89 90
3 89 91 92
3 89 92 90
3 93 94 95
3 95 96 93
3 96 88 87
3 96 87 93
3 97 88 96
3 97 96 98
3 96 95 99
3 96 99 98
3 100 73 101
3 101 91 89
3 89 88 97
3 89 97 101
3 97 100 101
3 102 103 104
3 102 104 105
3 104 52 51
3 104 51 105
3 106 107 108
3 108 103 102
3 109 110 111
3 111 103 108
3 111 108 109
3 108 107 109
3 112 56 55
3 112 55 113
3 55 52 104
3 55 104 113
3 104 103 111
3 104 111 113
3 111 110 112
3 111 112 113
3 22 21 114
3 22 114 115
3 114 116 115
3 116 117 118
3 116 118 115
3 118 8 22
3 118 22 115
3 119 120 121
3 121 117 116
3 116 119 121
3 122 123 124
3 124 117 121
3 124 121 122
3 121 120 125
3 121 125 122
3 126 1 0
3 126 0 127
3 0 8 118
3 0 118 127
3 118 117 124
3 118 124 127
3 124 123 126
3 124 126 127
3 74 73 100
3 74 100 128
3 100 97 129
3 100 129 128
3 129 130 131
3 129 131 128
3 131 76 74
3 131 74 128
3 99 132 98
3 132 130 129
3 132 129 98
3 129 97 98
3 133 130 132
3 133 132 134
3 132 99 135
3 132 135 134
3 82 76 131
3 82 131 136
3 131 130 133
3 131 133 136
3 95 94 137
3 95 137 138
3 137 139 138
3 139 140 138
3 28 26 141
3 28 141 142
3 141 140 139
3 141 139 142
3 140 141 143
3 141 26 37
3 141 37 143
3 99 95 138
3 99 138 144
3 138 140 144
3 145 146 147
3 145 147 148
3 147 107 106
3 147 106 148
3 149 150 151
3 149 151 152
3 151 146 145
3 151 145 152
3 153 146 151
3 151 150 153
3 154 107 147
3 147 146 153
3 153 154 147
3 155 125 156
3 125 120 157
3 125 157 156
3 157 158 159
3 157 159 156
3 159 160 155
3 159 155 156
3 120 161 157
3 161 162 157
3 162 158 157
3 163 164 165
3 164 166 165
3 165 158 162
3 162 163 165
3 167 160 159
3 159 158 165
3 159 165 167
3 165 166 168
3 165 168 167
3 144 140 169
3 169 170 171
3 169 171 144
3 171 99 144
3 37 35 172
3 37 172 143
3 172 170 169
3 172 169 143
3 169 140 143
3 34 33 173
3 34 173 174
3 173 175 174
3 175 170 172
3 175 172 174
3 172 35 34
3 172 34 174
3 135 99 171
3 135 171 176
3 171 170 175
3 171 175 176
3 177 56 178
3 177 178 179
3 178 180 181
3 178 181 179
3 181 182 183
3 181 183 179
3 183 177 179
3 184 185 186
3 186 182 181
3 186 181 184
3 181 180 187
3 181 187 184
3 187 180 188
3 187 188 189
3 188 190 191
3 188 191 189
3 178 56 112
3 112 110 178
3 110 190 188
3 110 188 178
3 188 180 178
3 107 192 193
3 107 193 109
3 193 190 110
3 193 110 109
3 191 190 193
3 191 193 194
3 193 192 194
3 192 154 195
3 154 196 197
3 154 197 195
3 153 196 154
3 154 192 107
3 150 198 153
3 198 196 153
3 197 196 198
3 197 198 199
3 198 150 200
3 198 200 199
3 200 150 201
3 200 201 202
3 201 203 204
3 201 204 202
3 150 205 206
3 205 203 201
3 205 201 206
3 201 150 206
3 207 203 205
3 207 205 208
3 205 150 149
3 205 149 208
3 204 203 207
3 204 207 209
3 210 211 212
3 213 214 215
3 213 215 212
3 215 216 210
3 215 210 212
3 217 218 219
3 217 219 220
3 219 214 213
3 219 213 220
3 221 214 219
3 219 218 222
3 219 222 221
3 223 216 215
3 223 215 224
3 215 214 221
3 215 221 224
3 225 226 227
3 225 227 228
3 227 229 228
3 229 230 231
3 229 231 228
3 231 232 225
3 231 225 228
3 233 211 210
3 210 216 234
3 210 234 233
3 234 230 229
3 234 229 233
3 234 235 236
3 236 230 234
3 234 216 223
3 237 238 239
3 237 239 240
3 239 232 231
3 239 231 240
3 231 230 236
3 231 236 240
3 236 235 237
3 236 237 240
3 241 226 225
3 241 225 242
3 225 232 243
3 225 243 242
3 243 244 245
3 243 245 242
3 245 246 241
3 245 241 242
3 239 238 247
3 239 247 248
3 247 249 250
3 247 250 248
3 250 244 243
3 250 243 248
3 243 232 239
3 243 239 248
3 251 252 253
3 251 253 254
3 253 255 256
3 253 256 254
3 256 244 250
3 256 250 254
3 250 249 251
3 250 251 254
3 257 258 259
3 257 259 260
3 259 246 245
3 259 245 260
3 245 244 256
3 245 256 260
3 256 255 257
3 256 257 260
3 261 262 263
3 261 263 264
3 263 265 264
3 266 267 268
3 267 262 261
3 267 261 268
3 50 43 269
3 50 269 270
3 269 262 267
3 269 267 270
3 41 40 271
3 41 271 272
3 271 263 272
3 263 262 269
3 263 269 272
3 269 43 41
3 269 41 272
3 265 263 273
3 273 263 271
3 273 271 274
3 57 56 275
3 57 275 276
3 277 47 57
3 277 57 276
3 39 47 277
3 275 56 177
3 278 279 280
3 281 282 280
3 282 278 280
3 283 284 285
3 285 286 283
3 286 281 283
3 285 106 108
3 285 108 286
3 108 102 281
3 108 281 286
3 105 51 287
3 287 278 282
3 287 282 105
3 282 281 105
3 281 102 105
3 148 106 285
3 285 288 148
3 288 289 145
3 288 145 148
3 285 284 290
3 285 290 288
3 290 289 288
3 291 292 293
3 293 294 291
3 294 289 291
3 293 149 152
3 293 152 294
3 152 145 294
3 145 289 294
3 207 295 296
3 207 296 209
3 296 297 209
3 208 149 293
3 293 298 208
3 298 295 207
3 298 207 208
3 293 292 298
3 295 299 296
3 300 30 29
3 301 302 300
3 300 29 301
3 29 303 301
3 304 305 306
3 305 33 306
3 300 302 304
3 300 304 306
3 33 32 306
3 32 30 300
3 32 300 306
3 307 135 308
3 307 308 309
3 308 310 309
3 135 176 308
3 176 175 311
3 176 311 308
3 311 310 308
3 33 312 173
3 312 310 311
3 312 311 173
3 311 175 173
3 310 312 313
3 312 33 305
3 312 305 313
3 314 82 136
3 314 136 315
3 136 133 315
3 134 135 316
3 133 134 316
3 307 317 316
3 317 318 316
3 318 133 316
3 316 135 307
3 319 320 321
3 321 314 315
3 321 315 319
3 315 133 318
3 315 318 319
3 81 82 314
3 314 322 81
3 322 323 81
3 323 80 81
3 321 320 324
3 321 324 325
3 324 326 325
3 326 323 322
3 326 322 325
3 322 314 321
3 322 321 325
3 327 328 329
3 328 330 329
3 329 323 326
3 326 327 329
3 330 65 83
3 330 83 329
3 83 80 323
3 83 323 329
3 66 65 330
3 66 330 331
3 332 68 66
3 332 66 331
3 333 332 331
3 333 331 334
3 331 330 328
3 331 328 334
3 335 336 337
3 337 332 333
3 333 335 337
3 70 68 332
3 332 337 70
3 337 338 70
3 339 267 266
3 339 266 340
3 340 341 342
3 342 343 340
3 343 339 340
3 344 345 346
3 346 347 344
3 347 339 343
3 347 343 344
3 348 50 270
3 348 270 347
3 270 267 339
3 270 339 347
3 347 346 348
3 49 50 348
3 49 348 349
3 348 346 350
3 348 350 349
3 350 351 349
3 351 48 49
3 351 49 349
3 346 345 352
3 346 352 353
3 352 354 353
3 354 351 350
3 354 350 353
3 350 346 353
3 355 279 278
3 355 278 356
3 356 351 354
3 354 355 356
3 287 51 54
3 287 54 357
3 54 48 351
3 54 351 357
3 351 356 357
3 356 278 287
3 356 287 357
3 320 319 358
3 319 318 359
3 319 359 358
3 359 360 361
3 359 361 358
3 361 362 320
3 361 320 358
3 317 307 363
3 363 119 317
3 119 360 359
3 119 359 317
3 359 318 317
3 364 120 119
3 119 116 365
3 365 360 119
3 119 363 364
3 114 21 366
3 114 366 367
3 366 362 361
3 366 361 367
3 361 360 365
3 361 365 367
3 365 116 114
3 365 114 367
3 324 320 368
3 320 362 369
3 320 369 368
3 369 370 371
3 369 371 368
3 371 326 324
3 371 324 368
3 366 21 20
3 366 20 372
3 20 18 373
3 20 373 372
3 373 370 369
3 373 369 372
3 369 362 366
3 369 366 372
3 16 15 374
3 16 374 375
3 374 376 377
3 374 377 375
3 377 370 373
3 377 373 375
3 373 18 16
3 373 16 375
3 378 328 327
3 378 327 379
3 327 326 371
3 327 371 379
3 371 370 377
3 371 377 379
3 377 376 378
3 377 378 379
3 334 328 378
3 378 376 380
3 378 380 334
3 380 381 333
3 380 333 334
3 374 15 382
3 15 13 383
3 15 383 382
3 383 381 380
3 383 380 382
3 380 376 374
3 380 374 382
3 11 10 384
3 11 384 385
3 384 386 385
3 386 381 383
3 386 383 385
3 383 13 11
3 383 11 385
3 333 381 386
3 333 386 335
3 387 388 343
3 387 343 342
3 389 258 257
3 389 257 390
3 257 255 391
3 257 391 390
3 391 388 387
3 391 387 390
3 387 389 390
3 253 252 392
3 252 393 394
3 252 394 392
3 394 388 391
3 394 391 392
3 391 255 253
3 391 253 392
3 345 344 395
3 344 343 395
3 343 388 394
3 343 394 395
3 394 393 345
3 394 345 395
3 345 393 396
3 345 396 352
3 396 397 398
3 396 398 352
3 398 354 352
3 252 251 399
3 251 249 400
3 251 400 399
3 400 397 396
3 400 396 399
3 396 393 252
3 396 252 399
3 247 238 401
3 247 401 402
3 401 403 404
3 401 404 402
3 404 397 400
3 404 400 402
3 400 249 247
3 400 247 402
3 279 355 405
3 355 354 398
3 355 398 405
3 398 397 404
3 398 404 405
3 404 403 279
3 404 279 405
3 280 279 406
3 279 403 407
3 279 407 406
3 407 408 409
3 407 409 406
3 409 281 280
3 409 280 406
3 401 238 237
3 401 237 410
3 237 235 410
3 235 408 407
3 235 407 410
3 407 403 401
3 407 401 410
3 234 408 235
3 283 281 409
3 409 408 234
3 409 234 283
3 234 223 284
3 234 284 283
3 284 223 411
3 284 411 290
3 411 412 289
3 411 289 290
3 223 224 411
3 224 221 411
3 221 412 411
3 222 413 414
3 222 414 221
3 414 412 221
3 289 412 414
3 289 414 291
3 414 413 292
3 414 292 291
3 295 415 416
3 295 416 299
3 292 413 298
3 413 415 295
3 413 295 298
3 222 218 417
3 222 417 418
3 417 415 413
3 417 413 418
3 413 222 418
3 416 415 417
3 416 417 419
3 417 218 217
3 417 217 419
3 420 421 302
3 420 302 301
3 168 166 422
3 168 422 423
3 422 421 420
3 422 420 423
3 164 424 425
3 164 425 426
3 425 421 422
3 425 422 426
3 422 166 164
3 422 164 426
3 302 421 425
3 302 425 304
3 425 424 305
3 425 305 304
3 363 307 309
3 310 427 428
3 310 428 309
3 428 363 309
3 305 424 429
3 305 429 313
3 429 427 310
3 429 310 313
3 163 427 429
3 429 424 164
3 429 164 163
3 161 120 364
3 364 363 428
3 364 428 161
3 428 427 163
3 428 163 161
3 163 162 161
3 430 1 126
3 430 126 431
3 126 123 431
3 123 432 433
3 123 433 431
3 433 430 431
3 122 125 434
3 122 434 435
3 435 432 123
3 123 122 435
3 233 229 432
3 432 435 233
3 435 434 211
3 435 211 233
3 227 226 436
3 227 436 437
3 436 430 433
3 436 433 437
3 433 432 437
3 432 229 227
3 432 227 437
3 2 1 430
3 430 438 2
3 438 439 440
3 438 440 2
3 440 4 2
3 436 226 241
3 436 241 438
3 241 246 438
3 246 439 438
3 438 430 436
3 259 258 441
3 259 441 442
3 441 443 444
3 441 444 442
3 444 439 246
3 444 246 442
3 246 259 442
3 443 10 9
3 9 4 440
3 440 439 444
3 440 444 9
3 444 443 9
3 445 335 446
3 335 386 447
3 335 447 446
3 447 448 446
3 384 10 443
3 384 443 449
3 449 448 447
3 447 386 384
3 447 384 449
3 441 258 389
3 441 389 450
3 389 387 451
3 389 451 450
3 451 448 449
3 451 449 450
3 449 443 441
3 449 441 450
3 341 445 446
3 446 448 451
3 446 451 341
3 451 387 342
3 451 342 341
3 452 70 338
3 338 337 336
3 336 445 338
3 336 335 445
3 340 452 341
3 452 445 341
3 340 266 452
3 338 445 452
3 71 69 453
3 453 454 71
3 454 455 71
3 70 452 456
3 453 69 70
3 453 70 456
3 452 266 268
3 452 268 456
3 268 261 457
3 268 457 456
3 457 453 456
3 264 265 458
3 458 455 454
3 458 454 264
3 454 453 457
3 454 457 264
3 457 261 264
3 184 187 459
3 187 92 459
3 185 184 459
3 92 189 90
3 189 460 90
3 460 87 90
3 189 191 460
3 189 92 187
3 194 192 461
3 194 461 462
3 460 191 194
3 460 194 462
3 93 87 460
3 460 462 93
3 462 461 94
3 462 94 93
3 94 461 463
3 94 463 137
3 463 464 465
3 463 465 137
3 465 139 137
3 461 192 195
3 461 195 463
3 195 197 464
3 195 464 463
3 199 200 466
3 466 467 199
3 467 464 199
3 464 197 199
3 468 28 142
3 142 139 465
3 465 464 467
3 465 467 142
3 467 466 468
3 467 468 142
3 27 28 468
3 27 468 469
3 468 466 469
3 470 24 27
3 470 27 469
3 466 200 202
3 202 204 470
3 470 469 202
3 469 466 202
3 297 31 209
3 31 470 209
3 470 204 209
3 297 29 31
3 31 24 470
3 303 29 297
3 303 297 296
3 416 420 301
3 416 301 299
3 301 303 296
3 301 296 299
3 419 217 471
3 419 471 472
3 471 473 472
3 472 420 416
3 416 419 472
3 473 168 423
3 473 423 472
3 423 420 472
3 434 125 155
3 160 474 475
3 160 475 155
3 475 434 155
3 167 168 473
3 473 476 167
3 476 474 160
3 476 160 167
3 471 217 220
3 220 213 474
3 474 476 220
3 476 473 471
3 476 471 220
3 212 211 477
3 211 434 475
3 211 475 477
3 475 474 477
3 474 213 212
3 474 212 477
