OFF
239 456 0
3.8636 7.98205 8.97933
3.8616 7.37485 8.72363
4.2286 7.31425 8.25414
4.2306 7.94295 8.51543
4.6396 7.29145 7.64103
4.6436 7.92735 7.90203
4.4346 8.71325 8.09233
4.0206 8.71835 8.70583
3.6576 8.72815 9.16463
5.0126 7.31285 6.99833
5.2696 7.38415 6.43923
5.2776 7.98045 6.67813
5.0196 7.93905 7.25223
5.0886 8.71635 6.84893
4.8176 8.71305 7.43613
4.7476 9.48155 6.93603
4.2636 10.1251 6.88183
3.9456 10.1982 7.47993
4.4576 9.51955 7.53313
3.5376 10.2216 8.14213
4.0636 9.53255 8.19433
3.1216 10.2032 8.75593
2.7786 10.1508 9.21023
3.2926 9.50255 9.26233
3.6476 9.52555 8.80793
-0.937404 7.45565 5.36483
-0.548404 7.92925 6.08003
-1.2194 7.79495 5.37313
-0.817404 8.12985 5.88023
-0.645404 8.42775 5.97233
-1.3344 8.17945 5.11973
-0.199404 7.58195 4.10163
0.585596 7.51775 5.00983
-0.0974044 7.19875 4.41013
-0.577404 8.56655 5.75213
-0.489404 8.59755 5.42203
-1.0314 8.30835 4.52973
-0.720404 8.16585 4.22263
-0.302404 8.56045 5.14413
-0.0954044 7.89365 6.31513
0.101596 7.55235 6.09923
0.788596 7.70205 6.21993
0.420596 8.03275 6.38163
0.622596 7.87925 6.43643
0.251596 8.48535 6.43243
0.198596 8.75775 6.28043
0.103596 8.52595 6.25473
-0.386404 8.26345 6.24083
0.579596 7.40735 5.28883
1.0636 7.61265 5.35883
0.924596 7.54665 5.88033
0.513596 7.38995 5.61573
1.3186 7.51155 5.58833
1.4156 7.69625 5.25203
1.1026 7.50105 6.03163
0.302596 7.42585 5.88733
0.423596 8.30555 5.02393
0.114596 8.48885 5.07323
0.616596 8.56985 5.29163
0.968596 8.40385 5.15143
0.960596 7.98815 5.10863
0.449596 8.00235 4.85213
1.1226 9.12715 5.10283
1.3146 8.02695 5.08203
0.612596 7.75505 4.93233
0.170596 8.72205 5.89143
0.266596 8.87605 6.02373
0.501596 8.85235 5.58773
0.341596 8.67625 5.47823
1.3476 7.22695 6.94393
0.839596 7.70695 7.11663
0.410596 8.21055 6.65943
1.6966 7.03105 7.40553
0.970596 7.65075 7.42623
0.451596 8.31415 7.38553
0.154596 9.09385 7.49043
0.122596 9.88515 7.55723
0.0575956 9.46485 7.01183
0.148596 8.87675 7.12123
2.5866 7.25035 5.01993
2.0996 7.17195 5.44413
1.8666 7.10025 5.88163
3.2986 7.06865 4.98903
3.0946 6.82605 5.62443
2.5546 6.97965 5.47993
2.7366 6.76205 6.26873
2.2546 6.90755 6.03393
2.2726 6.81585 6.87873
1.8436 6.97255 6.56383
1.5336 7.16855 6.30883
1.6676 8.89495 4.80113
1.9956 8.32455 4.70503
1.3926 9.53565 5.07333
1.8096 9.93665 5.11693
2.0656 9.15975 4.73693
2.4146 8.41155 4.61743
2.8306 7.71175 4.68563
2.3376 7.74435 4.77563
0.220596 9.41355 6.34393
0.465596 9.47175 5.90123
0.462596 10.1694 7.05983
0.246596 9.78615 6.65183
0.878596 10.261 6.45263
0.588596 9.88425 6.12383
1.3286 10.1988 5.79233
0.986596 9.81605 5.55913
0.788596 9.41995 5.47243
3.9946 6.88445 5.41723
3.7086 6.75215 5.94683
4.5756 6.88875 5.80703
4.2936 6.78455 6.33873
3.9116 6.74935 6.97533
3.3286 6.70255 6.60263
5.0186 7.03775 6.14833
4.7496 6.94975 6.69153
4.3726 6.92215 7.32683
3.6036 7.01715 8.41473
3.9636 6.94735 7.93943
3.1326 6.85785 8.07393
3.4936 6.77805 7.59133
2.4946 6.84595 7.72263
2.8766 6.74265 7.22943
0.720596 10.3841 8.04433
1.0036 10.5107 7.55883
1.4156 10.5981 8.53553
1.7166 10.6907 8.06244
2.1326 10.731 7.44343
1.4316 10.5779 6.93183
2.1276 10.5181 8.94603
2.4506 10.5899 8.48444
2.8646 10.6167 7.86933
3.6446 10.4958 6.62913
3.2896 10.5886 7.21293
2.9736 10.5894 6.22123
2.5746 10.6969 6.78723
2.3306 10.4012 5.70133
1.8896 10.5297 6.25773
1.6716 7.21175 7.71253
1.0626 7.71015 7.59073
1.7146 7.38525 7.81753
1.1596 7.81225 7.66463
0.741596 8.42975 7.64823
0.575596 8.37935 7.58533
1.8426 7.79955 7.74113
1.3856 7.97135 7.65783
1.1936 8.48555 7.64873
0.833596 9.01595 7.74833
1.0496 9.34505 7.89143
0.538596 9.67295 8.00703
0.483596 9.07665 7.75063
0.296596 9.78745 7.89013
0.287596 9.11725 7.66953
3.6186 7.46645 8.93563
3.3686 7.12375 8.63783
3.4366 7.60185 8.95873
3.2116 7.27125 8.68283
2.7986 7.14715 8.37543
2.9216 6.97595 8.31063
3.2496 7.86895 8.70623
3.0626 7.58385 8.48234
2.6366 7.59935 8.14443
2.2996 7.16125 8.07763
2.3236 6.98615 7.97733
2.5926 10.0718 9.39353
3.0806 9.46765 9.44613
2.5066 9.95775 9.37123
2.9716 9.42355 9.43674
3.2736 8.76265 9.34783
3.4276 8.74265 9.35633
2.5286 9.70615 9.02384
2.9086 9.34865 9.21813
3.0446 8.94925 8.99403
3.2166 8.33315 8.81923
3.4556 8.12285 9.19304
3.6226 8.04085 9.18063
0.698596 10.2538 8.29423
0.827596 10.12 8.37083
1.3656 10.3021 8.78593
1.3176 10.4753 8.75403
1.0636 9.92915 8.30593
1.6646 9.91025 8.52993
2.0196 10.0744 8.97083
1.9486 10.2807 9.14783
1.9776 10.4112 9.14163
1.3526 9.56165 8.13913
2.1886 9.72325 8.73983
2.3696 9.80945 5.01323
2.4096 9.18345 4.74693
2.8436 9.63155 5.02843
2.7356 9.13745 4.80403
3.0276 8.60225 4.75363
2.6986 8.47845 4.63553
3.6956 8.59375 5.15823
4.0006 7.65695 5.00573
3.3506 7.99065 4.75313
3.7566 7.55835 4.87623
3.6056 7.32655 4.87153
3.1076 7.82405 4.68543
4.4096 9.99405 6.46023
3.8526 10.3287 6.23173
4.4346 9.82875 6.17933
3.9516 10.1187 5.98073
3.4496 10.188 5.68333
3.2586 10.4092 5.87283
3.7306 9.97115 5.70363
4.4936 9.56575 6.03733
3.0076 10.0289 5.33393
2.7086 10.2271 5.42753
5.3306 7.51125 6.07683
5.3376 8.05415 6.29173
5.2096 7.70735 5.79893
5.2586 8.14435 6.05003
5.1026 8.72645 6.17663
5.1636 8.72185 6.44233
4.4796 8.71415 5.69843
5.0486 8.50615 5.98043
4.8226 9.32635 6.23213
4.8506 9.41345 6.51443
4.1666 7.09245 5.16873
4.2436 7.33245 5.10283
4.6976 7.28475 5.37093
4.6956 7.06675 5.50583
4.6276 7.50925 5.33873
5.0506 7.38975 5.63123
5.0996 7.19425 5.81173
-0.491404 7.96705 4.11283
-0.368404 7.11515 4.91863
-0.728404 7.26585 5.26823
-0.338404 7.68665 6.05543
4.5746 8.27615 5.57443
4.1476 9.19045 5.65693
4.3446 8.96585 5.68713
3.7936 9.32365 5.47843
3.5496 9.15175 5.25843
3.6386 9.27945 5.35983
3.5616 8.94695 5.18303
3.9746 8.27795 5.19813
4.4386 8.12515 5.42963
4.1996 8.15815 5.27913
3 0 1 2
3 0 2 3
3 2 4 5
3 2 5 3
3 5 6 7
3 5 7 3
3 7 8 0
3 7 0 3
3 9 10 11
3 9 11 12
3 11 13 14
3 11 14 12
3 14 6 5
3 14 5 12
3 5 4 9
3 5 9 12
3 15 16 17
3 15 17 18
3 17 19 20
3 17 20 18
3 20 6 14
3 20 14 18
3 14 13 15
3 14 15 18
3 21 22 23
3 21 23 24
3 23 8 7
3 23 7 24
3 7 6 20
3 7 20 24
3 20 19 21
3 20 21 24
3 25 26 27
3 28 29 30
3 30 27 28
3 27 26 28
3 31 32 33
3 30 29 34
3 35 36 30
3 35 30 34
3 37 36 38
3 36 35 38
3 39 40 41
3 41 42 39
3 41 43 42
3 44 45 46
3 42 44 46
3 46 29 47
3 39 42 46
3 39 46 47
3 48 32 49
3 50 51 48
3 50 48 49
3 50 49 52
3 49 53 52
3 54 41 50
3 50 52 54
3 41 40 55
3 55 51 50
3 50 41 55
3 56 57 58
3 58 59 56
3 59 60 56
3 60 61 56
3 58 62 59
3 63 60 59
3 53 49 60
3 53 60 63
3 49 32 64
3 49 64 60
3 64 61 60
3 34 29 46
3 34 46 65
3 65 35 34
3 46 45 66
3 46 66 65
3 66 67 65
3 67 62 58
3 58 68 67
3 68 65 67
3 58 57 38
3 58 38 68
3 38 35 65
3 38 65 68
3 41 69 70
3 41 70 43
3 70 71 43
3 71 42 43
3 69 72 73
3 69 73 70
3 73 74 70
3 74 71 70
3 75 76 77
3 75 77 78
3 78 71 74
3 74 75 78
3 44 42 71
3 71 78 44
3 78 77 45
3 78 45 44
3 53 79 80
3 53 80 52
3 80 81 52
3 79 82 83
3 79 83 84
3 83 85 86
3 83 86 84
3 86 81 80
3 86 80 84
3 80 79 84
3 87 72 69
3 87 69 88
3 69 89 88
3 89 81 86
3 89 86 88
3 86 85 87
3 86 87 88
3 52 81 89
3 52 89 54
3 89 69 41
3 89 41 54
3 62 90 59
3 90 91 59
3 91 63 59
3 92 93 94
3 92 94 90
3 94 95 91
3 94 91 90
3 90 62 92
3 96 82 79
3 96 79 97
3 91 95 96
3 91 96 97
3 91 97 63
3 97 79 53
3 97 53 63
3 45 77 98
3 45 98 66
3 98 99 66
3 99 67 66
3 77 76 100
3 77 100 101
3 100 102 103
3 100 103 101
3 103 99 98
3 103 98 101
3 98 77 101
3 104 93 92
3 104 92 105
3 92 62 106
3 92 106 105
3 106 99 103
3 106 103 105
3 103 102 104
3 103 104 105
3 62 67 106
3 67 99 106
3 83 82 107
3 83 107 108
3 107 109 110
3 107 110 108
3 110 111 112
3 110 112 108
3 112 85 83
3 112 83 108
3 113 10 9
3 113 9 114
3 9 4 115
3 9 115 114
3 115 111 110
3 115 110 114
3 110 109 113
3 110 113 114
3 2 1 116
3 2 116 117
3 116 118 119
3 116 119 117
3 119 111 115
3 119 115 117
3 115 4 2
3 115 2 117
3 120 72 87
3 120 87 121
3 87 85 112
3 87 112 121
3 112 111 119
3 112 119 121
3 119 118 120
3 119 120 121
3 100 76 122
3 100 122 123
3 122 124 125
3 122 125 123
3 125 126 127
3 125 127 123
3 127 102 100
3 127 100 123
3 128 22 21
3 128 21 129
3 21 19 130
3 21 130 129
3 130 126 125
3 130 125 129
3 125 124 128
3 125 128 129
3 17 16 131
3 17 131 132
3 131 133 134
3 131 134 132
3 134 126 130
3 134 130 132
3 130 19 17
3 130 17 132
3 135 93 104
3 135 104 136
3 104 102 127
3 104 127 136
3 127 126 134
3 127 134 136
3 134 133 135
3 134 135 136
3 73 72 137
3 73 137 138
3 137 139 140
3 137 140 138
3 140 141 142
3 140 142 138
3 142 74 73
3 142 73 138
3 139 143 144
3 144 145 141
3 141 140 144
3 140 139 144
3 146 147 148
3 148 149 146
3 149 141 146
3 141 145 146
3 150 76 75
3 150 75 151
3 75 74 142
3 75 142 151
3 142 141 149
3 142 149 151
3 149 148 150
3 149 150 151
3 116 1 152
3 116 152 153
3 152 154 155
3 152 155 153
3 155 156 157
3 155 157 153
3 157 118 116
3 157 116 153
3 154 158 159
3 154 159 155
3 159 160 156
3 159 156 155
3 161 143 139
3 156 160 161
3 137 72 120
3 137 120 162
3 120 118 157
3 120 157 162
3 157 156 161
3 157 161 162
3 161 139 137
3 161 137 162
3 23 22 163
3 23 163 164
3 163 165 166
3 163 166 164
3 166 167 168
3 166 168 164
3 168 8 23
3 168 23 164
3 165 169 170
3 170 171 167
3 167 166 170
3 166 165 170
3 172 158 154
3 172 154 173
3 167 171 172
3 167 172 173
3 152 1 0
3 152 0 174
3 0 8 168
3 0 168 174
3 168 167 173
3 168 173 174
3 173 154 152
3 173 152 174
3 122 76 150
3 122 150 175
3 150 148 176
3 150 176 175
3 176 177 178
3 176 178 175
3 178 124 122
3 178 122 175
3 148 147 179
3 179 180 177
3 177 176 179
3 176 148 179
3 181 169 165
3 165 182 181
3 182 177 181
3 177 180 181
3 163 22 128
3 163 128 183
3 128 124 178
3 128 178 183
3 178 177 182
3 178 182 183
3 182 165 163
3 182 163 183
3 145 144 143
3 160 184 143
3 147 145 143
3 147 143 184
3 146 145 147
3 158 172 160
3 158 160 159
3 143 161 160
3 170 169 171
3 169 185 171
3 171 185 172
3 184 160 172
3 172 185 184
3 179 147 184
3 180 179 184
3 185 180 184
3 169 181 185
3 181 180 185
3 94 93 186
3 94 186 187
3 186 188 189
3 186 189 187
3 189 190 191
3 189 191 187
3 191 95 94
3 191 94 187
3 189 188 190
3 192 193 194
3 193 195 194
3 190 192 194
3 196 82 96
3 196 96 197
3 96 95 191
3 96 191 197
3 191 190 194
3 191 194 197
3 194 195 196
3 194 196 197
3 131 16 198
3 131 198 199
3 198 200 201
3 198 201 199
3 201 202 203
3 201 203 199
3 203 133 131
3 203 131 199
3 204 202 201
3 201 200 205
3 201 205 204
3 206 202 204
3 206 204 188
3 186 93 135
3 186 135 207
3 135 133 203
3 135 203 207
3 203 202 206
3 203 206 207
3 206 188 186
3 206 186 207
3 11 10 208
3 11 208 209
3 208 210 211
3 208 211 209
3 211 212 213
3 211 213 209
3 213 13 11
3 213 11 209
3 210 214 215
3 215 212 211
3 211 210 215
3 205 200 216
3 216 212 215
3 216 215 205
3 198 16 15
3 198 15 217
3 15 13 213
3 15 213 217
3 213 212 216
3 213 216 217
3 216 200 198
3 216 198 217
3 107 82 196
3 107 196 218
3 196 195 219
3 196 219 218
3 219 220 221
3 219 221 218
3 221 109 107
3 221 107 218
3 222 220 219
3 222 219 193
3 219 195 193
3 223 220 222
3 223 222 210
3 208 10 113
3 208 113 224
3 113 109 221
3 113 221 224
3 221 220 223
3 221 223 224
3 223 210 208
3 223 208 224
3 38 57 37
3 37 57 56
3 37 56 225
3 56 61 225
3 61 31 225
3 32 31 64
3 31 61 64
3 33 32 48
3 48 51 226
3 226 33 48
3 40 227 55
3 227 226 55
3 226 51 55
3 25 227 228
3 26 25 228
3 40 39 228
3 39 26 228
3 228 227 40
3 29 28 47
3 28 26 47
3 26 39 47
3 214 210 222
3 214 222 229
3 230 205 231
3 205 214 231
3 205 215 214
3 205 230 204
3 232 204 230
3 233 190 204
3 233 204 234
3 204 232 234
3 190 188 204
3 192 190 235
3 190 233 235
3 236 193 192
3 237 222 193
3 237 193 238
3 193 236 238
3 229 222 237
