OFF
483 925 0
-9.84711 7.39172 6.89051
-9.26841 7.18652 6.89051
-9.24981 7.38552 6.70451
-9.84651 7.59712 6.70451
-9.24981 7.38552 5.61951
-9.84651 7.59712 5.61951
-10.4456 6.10882 5.61951
-10.4456 6.10882 6.70451
-10.4281 5.94822 6.89051
-4.05671 -3.59958 3.88151
-4.05671 -3.59958 3.48851
-4.05591 -3.60708 3.49151
-4.05591 -3.60708 3.88551
-4.05591 2.83022 3.89151
-4.05671 2.82272 3.88751
-4.05671 2.80932 3.88951
-4.05591 2.81682 3.89351
-4.05671 2.00032 3.88951
-4.05591 2.00592 3.89351
-4.05671 2.82722 3.88151
-9.56951 -5.70468 6.31351
-9.53831 -5.70508 5.32451
-8.76141 -4.98208 4.79351
-8.88611 -4.98058 5.60951
-7.53911 -4.22358 4.20151
-7.72631 -4.22128 4.82651
-7.72491 -4.21748 4.83651
-8.88421 -4.97588 5.62251
-9.56721 -5.69908 6.32851
-5.18261 5.19342 6.33351
-5.73631 3.81772 6.33351
-5.66331 3.02562 5.62651
-5.19781 4.18222 5.62651
-5.40121 2.25432 4.83951
-5.06531 3.18982 4.83951
-5.05971 3.20532 4.83651
-5.19011 4.20142 5.62251
-5.17341 5.21622 6.32851
-5.17041 5.22382 6.31351
-5.18751 4.20772 5.60951
-5.05791 3.21052 4.82651
-5.13231 3.25892 4.20151
-5.23711 4.24002 4.79351
-5.18281 5.23182 5.32451
-5.28091 5.25772 -1.77349
-5.27241 5.28062 -1.73949
-5.58611 4.45932 -1.03749
-5.59091 4.43962 -1.06649
-5.65381 3.59222 -0.257494
-5.65501 3.57592 -0.278494
-5.72751 2.58942 -0.278494
-5.88091 3.24902 -1.06649
-5.79071 3.87362 -1.77349
-10.47 -5.82588 6.68151
-10.2508 -5.78698 6.81651
-12.1738 -4.95988 6.89051
-12.2455 -5.13778 6.70451
-13.8787 -4.26678 6.89051
-14.0033 -4.42318 6.70451
-14.0033 -4.42318 5.61951
-12.2455 -5.13778 5.61951
-10.47 -5.82588 5.60151
-8.60441 3.90752 6.59751
-9.29791 4.18892 6.60351
-9.54481 4.27092 6.59751
-8.61241 3.88772 6.59051
-9.86281 3.48082 6.59751
-8.92971 3.09942 6.59051
-7.99261 2.72802 6.59751
-7.67451 3.51802 6.59751
-7.90941 3.62992 6.60351
-5.72981 5.94992 6.68151
-5.72981 5.94992 5.60151
-7.48631 6.68522 5.61951
-7.48631 6.68522 6.70451
-7.55791 6.50722 6.89051
-5.59911 5.76922 6.81651
-6.22751 5.34282 7.40151
-6.63351 4.83302 7.85651
-6.18271 4.62922 7.85651
-5.72011 5.11342 7.40151
-6.65081 3.46622 7.85651
-6.24711 3.80442 7.40151
-5.87681 4.09502 6.87151
-5.29821 5.53252 6.87151
-9.32401 6.58932 7.40151
-7.77291 5.97332 7.40151
-9.38451 5.94042 7.85651
-8.00641 5.39312 7.85651
-9.84881 6.77542 7.40151
-10.3758 5.46642 7.40151
-10.3189 4.94272 7.85651
-9.85071 6.10572 7.85651
-10.4085 -5.04378 7.40151
-11.9589 -4.42588 7.40151
-10.3479 -4.39468 7.85651
-11.7254 -3.84578 7.85651
-13.099 -3.28728 7.85651
-13.505 -3.79738 7.40151
-6.85511 4.55472 7.87351
-7.03371 4.33042 7.59351
-6.63871 4.15182 7.59351
-6.43521 4.36492 7.87351
-7.04891 3.13292 7.59351
-6.87131 3.28162 7.87351
-9.41751 5.58622 7.87351
-8.13391 5.07642 7.87351
-9.44411 5.30072 7.59351
-8.23661 4.82122 7.59351
-9.85181 5.74012 7.87351
-10.2878 4.65692 7.87351
-10.2628 4.42662 7.59351
-9.85261 5.44552 7.59351
-10.3149 -4.04038 7.87351
-11.5979 -3.52898 7.87351
-10.2883 -3.75478 7.59351
-11.4951 -3.27378 7.59351
-12.6987 -2.78448 7.59351
-12.8773 -3.00888 7.87351
-5.88911 4.58302 -2.16649
-6.40601 4.81642 -2.16649
-5.76361 5.91012 -2.16649
-5.18981 5.65072 -2.16649
-5.52481 5.86002 -2.12749
-5.16561 5.66682 -2.14349
-5.76141 4.18662 -2.14349
-5.78541 4.17092 -2.16649
-6.42061 3.26272 -2.16649
-12.2449 -5.13648 -2.12949
-14.0004 -4.42278 -2.12949
-13.9918 -4.42148 -2.16649
-12.2433 -5.13238 -2.16649
-13.777 -4.38998 -2.16649
-12.2021 -5.03018 -2.16649
-10.623 -5.65958 -2.16649
-10.4899 -5.83118 -2.16649
-10.2639 -5.91298 -2.12749
-9.84961 7.58042 -2.12949
-9.25381 7.36912 -2.12949
-9.26551 7.31982 -2.16649
-9.85911 7.53022 -2.16649
-9.56001 6.08602 -2.16649
-10.0945 6.27582 -2.16649
-10.626 4.95552 -2.16649
-10.4547 6.05052 -2.16649
-10.4479 6.09432 -2.12949
-7.49251 6.66972 -2.12949
-7.51131 6.62312 -2.16649
-7.98011 5.45852 -2.16649
-10.7264 -1.36408 -2.16649
-10.1693 -1.59078 -2.16649
-10.9495 -2.91908 -2.16649
-11.2957 -2.77848 -2.16649
-11.6428 -2.63998 -2.16649
-11.2852 -1.14158 -2.16649
-11.8372 -2.78908 -2.16649
-11.6292 -1.45928 -2.16649
-11.4738 -1.07308 -2.16649
-11.7597 -2.59658 -2.16649
-11.9612 -4.43148 -2.16649
-12.5185 -4.20538 -2.16649
-12.2576 -4.16708 -2.16649
-11.9112 -4.30738 -2.16649
-11.5642 -4.44618 -2.16649
-11.4026 -4.65458 -2.16649
-9.98591 -1.67208 -2.16649
-10.8352 -2.96878 -2.16649
-10.1413 -2.05818 -2.16649
-10.9127 -3.16118 -2.16649
-5.15781 5.62562 6.62751
-5.16751 5.60132 6.63251
-5.75701 4.13682 6.63251
-9.83531 -5.99468 6.62751
-9.83771 -6.00068 6.61151
-9.83771 -6.00068 5.54851
-5.15781 5.62562 -2.03549
-5.16751 5.60132 -2.07249
-5.75701 4.13682 -2.07249
-5.15451 5.63362 5.54851
-5.15451 5.63362 6.61151
-9.48531 4.85802 7.16051
-8.39591 4.42542 7.16051
-9.52251 4.45952 6.76951
-8.53941 4.06912 6.76951
-7.56001 3.66952 6.76951
-7.31061 3.98262 7.16051
-7.23841 3.52412 6.76951
-6.95431 3.82152 7.16051
-7.57241 2.69452 6.76951
-7.32441 2.90222 7.16051
-10.2469 -3.31198 7.16051
-11.3358 -2.87798 7.16051
-10.2098 -2.91328 6.76951
-11.1924 -2.52168 6.76951
-12.1723 -2.12328 6.76951
-12.4217 -2.43658 7.16051
-9.85391 4.98872 7.16051
-10.224 4.06942 7.16051
-10.189 3.74782 6.76951
-9.85511 4.57742 6.76951
-9.53671 4.30642 6.61951
-8.59451 3.93222 6.61951
-7.65571 3.54922 6.61951
-7.34751 3.40992 6.61951
-7.66761 2.61472 6.61951
-10.1955 -2.76018 6.61951
-11.1373 -2.38488 6.61951
-10.4347 -2.64358 6.60351
-11.1278 -2.36128 6.59751
-11.8232 -2.08458 6.60351
-12.0765 -2.00298 6.61951
-9.85551 4.41942 6.61951
-10.1756 3.62432 6.61951
-9.31171 -5.68518 -1.77349
-8.80411 -4.30708 -1.77349
-7.59471 -3.78788 -1.06649
-7.88341 -4.97328 -1.06649
-6.15601 -3.24118 -0.278494
-6.22811 -4.22338 -0.278494
-6.22901 -4.23538 -0.257494
-7.88701 -4.98778 -1.03749
-9.31791 -5.70208 -1.73949
-9.24121 -4.51868 -2.07249
-9.82821 -5.97688 -2.07249
-9.83531 -5.99468 -2.03549
-9.87611 -6.03538 -2.14349
-9.28291 -4.56168 -2.14349
-9.30591 -4.57468 -2.16649
-9.89891 -6.04808 -2.16649
-10.0908 -5.85508 -2.16649
-9.56161 -4.54058 -2.16649
-11.3706 -4.29868 -2.16649
-11.06 -4.34028 -2.16649
-11.2147 -4.72468 -2.16649
-11.4477 -4.49038 -2.16649
-12.7026 -4.12578 -2.16649
-12.5478 -3.74138 -2.16649
-12.295 -3.92658 -2.16649
-12.3722 -4.11818 -2.16649
-14.5791 -4.16878 -2.12949
-13.9835 -2.68908 -2.12949
-13.9751 -2.69518 -2.16649
-14.5682 -4.16848 -2.16649
-13.767 -2.84768 -2.16649
-14.2962 -4.16228 -2.16649
-14.4407 -4.02008 6.89051
-14.5827 -4.16888 6.70451
-13.8622 -2.58288 6.89051
-13.9862 -2.68708 6.70451
-13.9862 -2.68708 5.61951
-14.5827 -4.16888 5.61951
-13.49 -2.27028 7.40151
-14.0147 -3.57358 7.40151
-13.5518 -3.08858 7.85651
-13.0857 -1.93068 7.85651
-12.8649 -1.74518 7.87351
-13.299 -2.82378 7.87351
-13.0954 -2.61038 7.59351
-12.687 -1.59578 7.59351
-12.4111 -1.36408 7.16051
-12.7796 -2.27938 7.16051
-12.4953 -1.98148 6.76951
-12.1628 -1.15548 6.76951
-12.0674 -1.07538 6.61951
-12.3861 -1.86708 6.61951
-12.0591 -1.97518 6.59751
-11.7424 -1.18858 6.59751
-10.1888 -2.72808 6.59751
-9.87221 -1.94148 6.59751
-10.8053 -1.55998 6.59051
-11.1212 -2.34488 6.59051
-9.87861 -3.03478 6.76951
-9.54611 -2.20878 6.76951
-9.55941 -2.08498 6.61951
-9.87811 -2.87668 6.61951
-9.88151 -3.90408 7.59351
-9.47311 -2.88948 7.59351
-9.51151 -2.53128 7.16051
-9.88001 -3.44658 7.16051
-9.88371 -4.56508 7.85651
-9.41761 -3.40718 7.85651
-9.44841 -3.12048 7.87351
-9.88251 -4.19898 7.87351
-9.87291 -5.83228 6.87151
-9.29681 -4.40098 6.87151
-9.36131 -3.93228 7.40151
-9.88601 -5.23558 7.40151
-9.56051 -5.68228 6.33351
-9.00911 -4.31268 6.33351
-9.24121 -4.51868 6.63251
-9.82821 -5.97688 6.63251
-8.87851 -4.96168 5.62651
-7.72081 -4.20608 4.83951
-7.38641 -3.27458 4.83951
-8.41501 -3.81018 5.62651
-5.72981 5.94992 -1.99449
-7.48631 6.68522 -2.01749
-9.24981 7.38552 -2.01749
-9.24981 7.38552 -0.836494
-7.48631 6.68522 -0.836494
-5.72981 5.94992 -0.820494
-9.84651 7.59712 -2.01749
-10.4456 6.10882 -2.01749
-10.4456 6.10882 -0.836494
-9.84651 7.59712 -0.836494
-14.0033 -4.42318 -2.01749
-14.0033 -4.42318 -0.836494
-14.5827 -4.16888 -0.836494
-14.5827 -4.16888 -2.01749
-13.9862 -2.68708 -0.836494
-13.9862 -2.68708 -2.01749
-10.47 -5.82588 -1.99449
-10.47 -5.82588 -0.820494
-12.2455 -5.13778 -0.836494
-12.2455 -5.13778 -2.01749
-9.32001 -5.70778 -1.63749
-9.35121 -5.70738 -0.561494
-9.83771 -6.00068 -0.770494
-9.83771 -6.00068 -1.92649
-7.88811 -4.99268 -0.953494
-6.22931 -4.23948 -0.193494
-6.41641 -4.23718 0.486506
-8.01291 -4.99118 -0.0654944
-5.26961 5.28832 -1.63749
-5.25721 5.28022 -0.561494
-5.53491 4.43362 -0.0654944
-5.58451 4.46582 -0.953494
-5.57901 3.54932 0.486506
-5.65341 3.59772 -0.193494
-5.15451 5.63362 -0.770494
-5.15451 5.63362 -1.92649
-10.4121 2.51632 -2.16649
-10.7757 2.64622 -2.16649
-11.1214 1.78732 -2.16649
-13.1649 -3.28908 -2.16649
-13.5091 -4.14428 -2.16649
-13.1554 -4.29878 -2.16649
-12.0831 -4.73448 -2.16649
-11.008 -5.16318 -2.16649
-10.3017 -4.44158 -2.16649
-10.6459 -5.29678 -2.16649
-8.26471 1.65192 -2.16649
-7.91251 1.49362 -2.16649
-8.25821 0.634721 -2.16649
-9.33651 2.08882 -2.16649
-5.22001 5.25602 2.39651
-5.38601 4.33682 2.37551
-5.35571 3.40412 2.35351
-5.15451 5.63362 2.40451
-5.72981 5.94992 2.40651
-7.48631 6.68522 2.40751
-9.24981 7.38552 2.40751
-9.84651 7.59712 2.40751
-10.4456 6.10882 2.40751
-14.0033 -4.42318 2.40751
-14.5827 -4.16888 2.40751
-13.9862 -2.68708 2.40751
-10.47 -5.82588 2.40651
-12.2455 -5.13778 2.40751
-9.44471 -5.70618 2.39651
-9.83771 -6.00068 2.40451
-8.38711 -4.98658 2.37551
-6.97781 -4.23038 2.35351
-4.05671 -3.59958 2.32651
-6.39401 -0.51078 4.83951
-7.03951 -0.393079 5.62651
-7.37311 -0.248479 6.33351
-4.05671 -0.390879 3.88951
-7.29781 -0.217779 -1.77349
-6.73801 -0.270279 -1.06649
-5.94181 -0.326579 -0.278494
-7.52261 -0.188579 -2.14349
-7.49951 -0.191979 -2.07249
-7.54611 -0.202979 -2.16649
-7.99151 -0.639879 -2.16649
-9.28021 -1.90408 -2.16649
-10.6008 -3.19948 -2.16649
-11.1417 -3.73008 -2.16649
-12.0886 -2.60058 -2.16649
-12.0662 -3.35798 -2.16649
-12.1969 1.05292 -2.16649
-12.1434 -0.75148 -2.16649
-12.2161 1.70152 -2.12949
-12.2154 1.67662 -2.16649
-12.2163 1.70982 -0.836494
-12.2163 1.70982 -2.01749
-12.2163 1.70982 5.61951
-12.2163 1.70982 2.40751
-12.2163 1.70982 6.70451
-12.1456 1.68162 6.89051
-11.9333 1.59712 7.40151
-11.7026 1.50522 7.85651
-11.5767 1.45512 7.87351
-11.4752 1.41462 7.59351
-11.3178 1.35202 7.16051
-11.1761 1.29552 6.76951
-11.1217 1.27392 6.61951
-10.8028 1.14552 6.59751
-9.86771 0.769121 6.59051
-8.93261 0.392721 6.59751
-8.55951 0.242221 6.76951
-8.61371 0.264321 6.61951
-8.26131 0.120921 7.59351
-8.41821 0.184821 7.16051
-8.16011 0.0798205 7.87351
-8.03461 0.0287205 7.85651
-7.80461 -0.0648795 7.40151
-7.58721 -0.154079 6.87151
-7.49951 -0.191979 6.63251
-4.05901 2.82042 3.88651
-4.20441 2.82862 3.98951
-4.20511 2.81502 3.99151
-4.05901 2.80712 3.88851
-4.24901 1.99862 3.99151
-4.05901 1.99862 3.88851
-4.05901 2.82492 3.48751
-4.21661 2.84112 3.56551
-4.20411 2.83312 3.98351
-4.05901 2.82492 3.88051
-4.05671 2.82722 3.48851
-4.05901 2.82492 1.15251
-4.29101 2.88952 1.08051
-4.25381 2.86532 2.32951
-4.05901 2.82492 2.32651
-4.05671 2.82722 2.32651
-4.30341 2.89762 0.626506
-4.05901 2.82492 0.725506
-4.05901 2.82042 0.685506
-4.30341 2.89302 0.582506
-4.05901 1.99862 0.671506
-4.30341 2.05442 0.568506
-4.30341 2.87942 0.568506
-4.05901 2.80712 0.671506
-4.30341 -0.384079 0.568506
-4.05901 -0.390879 0.671506
-4.05901 -2.77928 0.671506
-4.30341 -2.82138 0.568506
-4.05901 -3.59398 0.685506
-4.30341 -3.65278 0.582506
-4.30341 -3.64268 0.568506
-4.05901 -3.58418 0.671506
-4.30341 -3.65618 0.626506
-4.05901 -3.59728 0.725506
-4.05901 -3.59728 1.15251
-4.33461 -3.65578 1.08051
-4.42811 -3.65468 2.32951
-4.05901 -3.59728 2.32651
-4.05901 -3.59728 3.48751
-4.52171 -3.65348 3.56551
-4.05901 -3.59398 3.88651
-4.55271 -3.64978 3.98951
-4.55291 -3.65308 3.98351
-4.05901 -3.59728 3.88051
-4.05901 -2.77928 3.88851
-4.50851 -2.82688 3.99151
-4.55221 -3.63988 3.99151
-4.05901 -3.58418 3.88851
-4.37881 -0.414779 3.99151
-4.05901 -0.390879 3.88851
-4.81311 1.99792 4.30151
-4.63751 2.83842 4.30151
-4.63461 2.85232 4.29951
-4.63361 2.85692 4.29151
-4.68321 2.88922 3.79851
-4.83211 2.98602 2.33851
-4.98101 3.08282 0.863506
-5.03061 3.11502 0.326506
-5.03061 3.11022 0.275506
-5.03061 3.09572 0.258506
-5.03061 2.22122 0.258506
-5.03061 -0.363579 0.258506
-5.03061 -2.94718 0.258506
-5.03061 -3.81778 0.258506
-5.03061 -3.82848 0.275506
-5.03061 -3.83208 0.326506
-5.15541 -3.83058 0.863506
-5.52961 -3.82598 2.33851
-5.90381 -3.82148 3.79851
-6.02861 -3.81998 4.29151
-6.02791 -3.81658 4.29951
-6.02571 -3.80628 4.30151
-5.85091 -2.96948 4.30151
-5.33211 -0.486379 4.30151
3 0 1 2
3 0 2 3
3 2 4 5
3 2 5 3
3 5 6 7
3 5 7 3
3 7 8 0
3 7 0 3
3 9 10 11
3 9 11 12
3 13 14 15
3 13 15 16
3 15 17 18
3 15 18 16
3 19 14 13
3 20 21 22
3 20 22 23
3 22 24 25
3 22 25 23
3 25 26 27
3 25 27 23
3 27 28 20
3 27 20 23
3 29 30 31
3 29 31 32
3 31 33 34
3 31 34 32
3 34 35 36
3 34 36 32
3 36 37 29
3 36 29 32
3 38 37 36
3 38 36 39
3 36 35 40
3 36 40 39
3 40 41 42
3 40 42 39
3 42 43 38
3 42 38 39
3 44 45 46
3 44 46 47
3 46 48 49
3 46 49 47
3 49 50 51
3 49 51 47
3 51 52 44
3 51 44 47
3 53 54 55
3 53 55 56
3 55 57 58
3 55 58 56
3 58 59 60
3 58 60 56
3 60 61 53
3 60 53 56
3 62 63 64
3 62 64 65
3 64 66 67
3 64 67 65
3 67 68 69
3 67 69 65
3 69 70 62
3 69 62 65
3 71 72 73
3 71 73 74
3 73 4 2
3 73 2 74
3 2 1 75
3 2 75 74
3 75 76 71
3 75 71 74
3 77 78 79
3 77 79 80
3 79 81 82
3 79 82 80
3 82 83 84
3 82 84 80
3 84 76 77
3 84 77 80
3 75 1 85
3 75 85 86
3 85 87 88
3 85 88 86
3 88 78 77
3 88 77 86
3 77 76 75
3 77 75 86
3 85 1 0
3 85 0 89
3 0 8 90
3 0 90 89
3 90 91 92
3 90 92 89
3 92 87 85
3 92 85 89
3 55 54 93
3 55 93 94
3 93 95 96
3 93 96 94
3 96 97 98
3 96 98 94
3 98 57 55
3 98 55 94
3 99 100 101
3 99 101 102
3 101 103 104
3 101 104 102
3 104 81 79
3 104 79 102
3 79 78 99
3 79 99 102
3 88 87 105
3 88 105 106
3 105 107 108
3 105 108 106
3 108 100 99
3 108 99 106
3 99 78 88
3 99 88 106
3 105 87 92
3 105 92 109
3 92 91 110
3 92 110 109
3 110 111 112
3 110 112 109
3 112 107 105
3 112 105 109
3 96 95 113
3 96 113 114
3 113 115 116
3 113 116 114
3 116 117 118
3 116 118 114
3 118 97 96
3 118 96 114
3 119 120 121
3 119 121 122
3 121 123 124
3 121 124 122
3 124 125 126
3 124 126 122
3 126 127 119
3 126 119 122
3 128 129 130
3 128 130 131
3 130 132 133
3 130 133 131
3 133 134 135
3 133 135 131
3 135 136 128
3 135 128 131
3 137 138 139
3 137 139 140
3 139 141 142
3 139 142 140
3 142 143 144
3 142 144 140
3 144 145 137
3 144 137 140
3 146 123 121
3 146 121 147
3 121 120 148
3 121 148 147
3 148 141 139
3 148 139 147
3 139 138 146
3 139 146 147
3 149 150 151
3 149 151 152
3 153 154 149
3 153 149 152
3 155 156 157
3 155 157 158
3 157 154 153
3 157 153 158
3 159 160 161
3 159 161 162
3 163 164 159
3 163 159 162
3 151 150 165
3 151 165 166
3 165 167 168
3 165 168 166
3 169 76 84
3 169 84 170
3 84 83 171
3 84 171 170
3 171 30 29
3 171 29 170
3 29 37 169
3 29 169 170
3 20 28 172
3 20 172 173
3 172 54 53
3 172 53 173
3 53 61 174
3 53 174 173
3 174 21 20
3 174 20 173
3 175 45 44
3 175 44 176
3 44 52 177
3 44 177 176
3 177 125 124
3 177 124 176
3 124 123 175
3 124 175 176
3 38 43 178
3 38 178 179
3 178 72 71
3 178 71 179
3 71 76 169
3 71 169 179
3 169 37 38
3 169 38 179
3 108 107 180
3 108 180 181
3 180 182 183
3 180 183 181
3 183 184 185
3 183 185 181
3 185 100 108
3 185 108 181
3 185 184 186
3 185 186 187
3 186 188 189
3 186 189 187
3 189 103 101
3 189 101 187
3 101 100 185
3 101 185 187
3 116 115 190
3 116 190 191
3 190 192 193
3 190 193 191
3 193 194 195
3 193 195 191
3 195 117 116
3 195 116 191
3 180 107 112
3 180 112 196
3 112 111 197
3 112 197 196
3 197 198 199
3 197 199 196
3 199 182 180
3 199 180 196
3 183 182 200
3 183 200 201
3 200 63 62
3 200 62 201
3 62 70 202
3 62 202 201
3 202 184 183
3 202 183 201
3 202 70 69
3 202 69 203
3 69 68 204
3 69 204 203
3 204 188 186
3 204 186 203
3 186 184 202
3 186 202 203
3 193 192 205
3 193 205 206
3 205 207 208
3 205 208 206
3 208 209 210
3 208 210 206
3 210 194 193
3 210 193 206
3 200 182 199
3 200 199 211
3 199 198 212
3 199 212 211
3 212 66 64
3 212 64 211
3 64 63 200
3 64 200 211
3 213 214 215
3 213 215 216
3 215 217 218
3 215 218 216
3 218 219 220
3 218 220 216
3 220 221 213
3 220 213 216
3 222 214 213
3 222 213 223
3 213 221 224
3 213 224 223
3 224 136 225
3 224 225 223
3 225 226 222
3 225 222 223
3 227 226 225
3 227 225 228
3 225 136 135
3 225 135 228
3 135 134 229
3 135 229 228
3 229 230 227
3 229 227 228
3 231 232 233
3 231 233 234
3 233 164 163
3 233 163 234
3 235 236 237
3 235 237 238
3 161 160 235
3 161 235 238
3 239 240 241
3 239 241 242
3 241 243 244
3 241 244 242
3 244 132 130
3 244 130 242
3 130 129 239
3 130 239 242
3 58 57 245
3 58 245 246
3 245 247 248
3 245 248 246
3 248 249 250
3 248 250 246
3 250 59 58
3 250 58 246
3 251 247 245
3 251 245 252
3 245 57 98
3 245 98 252
3 98 97 253
3 98 253 252
3 253 254 251
3 253 251 252
3 255 254 253
3 255 253 256
3 253 97 118
3 253 118 256
3 118 117 257
3 118 257 256
3 257 258 255
3 257 255 256
3 259 258 257
3 259 257 260
3 257 117 195
3 257 195 260
3 195 194 261
3 195 261 260
3 261 262 259
3 261 259 260
3 263 262 261
3 263 261 264
3 261 194 210
3 261 210 264
3 210 209 265
3 210 265 264
3 265 266 263
3 265 263 264
3 267 268 269
3 267 269 270
3 269 266 265
3 269 265 270
3 265 209 208
3 265 208 270
3 208 207 267
3 208 267 270
3 271 272 273
3 271 273 274
3 273 268 267
3 273 267 274
3 267 207 205
3 267 205 274
3 205 192 271
3 205 271 274
3 275 276 277
3 275 277 278
3 277 272 271
3 277 271 278
3 271 192 190
3 271 190 278
3 190 115 275
3 190 275 278
3 279 280 281
3 279 281 282
3 281 276 275
3 281 275 282
3 275 115 113
3 275 113 282
3 113 95 279
3 113 279 282
3 283 284 285
3 283 285 286
3 285 280 279
3 285 279 286
3 279 95 93
3 279 93 286
3 93 54 283
3 93 283 286
3 287 288 289
3 287 289 290
3 289 284 283
3 289 283 290
3 283 54 172
3 283 172 290
3 172 28 287
3 172 287 290
3 287 28 27
3 287 27 291
3 27 26 292
3 27 292 291
3 292 293 294
3 292 294 291
3 294 288 287
3 294 287 291
3 295 123 146
3 295 146 296
3 146 138 297
3 146 297 296
3 297 298 299
3 297 299 296
3 299 300 295
3 299 295 296
3 297 138 137
3 297 137 301
3 137 145 302
3 137 302 301
3 302 303 304
3 302 304 301
3 304 298 297
3 304 297 301
3 305 306 307
3 305 307 308
3 307 309 310
3 307 310 308
3 310 240 239
3 310 239 308
3 239 129 305
3 239 305 308
3 311 312 313
3 311 313 314
3 313 306 305
3 313 305 314
3 305 129 128
3 305 128 314
3 128 136 311
3 128 311 314
3 315 316 317
3 315 317 318
3 317 312 311
3 317 311 318
3 311 136 224
3 311 224 318
3 224 221 315
3 224 315 318
3 315 221 220
3 315 220 319
3 220 219 320
3 220 320 319
3 320 321 322
3 320 322 319
3 322 316 315
3 322 315 319
3 323 324 325
3 323 325 326
3 325 327 328
3 325 328 326
3 328 48 46
3 328 46 326
3 46 45 323
3 46 323 326
3 329 324 323
3 329 323 330
3 323 45 175
3 323 175 330
3 175 123 295
3 175 295 330
3 295 300 329
3 295 329 330
3 331 154 157
3 331 157 332
3 157 156 333
3 157 333 332
3 333 143 142
3 333 142 332
3 142 141 331
3 142 331 332
3 244 243 334
3 244 334 335
3 334 236 235
3 334 235 335
3 235 160 336
3 235 336 335
3 336 132 244
3 336 244 335
3 133 132 336
3 133 336 337
3 336 160 159
3 336 159 337
3 159 164 338
3 159 338 337
3 338 134 133
3 338 133 337
3 339 230 229
3 339 229 340
3 229 134 338
3 229 338 340
3 338 164 233
3 338 233 340
3 233 232 339
3 233 339 340
3 165 150 341
3 165 341 342
3 341 120 119
3 341 119 342
3 119 127 343
3 119 343 342
3 343 167 165
3 343 165 342
3 148 120 341
3 148 341 344
3 341 150 149
3 341 149 344
3 149 154 331
3 149 331 344
3 331 141 148
3 331 148 344
3 345 43 42
3 345 42 346
3 42 41 347
3 42 347 346
3 347 327 325
3 347 325 346
3 325 324 345
3 325 345 346
3 178 43 345
3 178 345 348
3 345 324 329
3 345 329 348
3 329 300 349
3 329 349 348
3 349 72 178
3 349 178 348
3 73 72 349
3 73 349 350
3 349 300 299
3 349 299 350
3 299 298 351
3 299 351 350
3 351 4 73
3 351 73 350
3 351 298 304
3 351 304 352
3 304 303 353
3 304 353 352
3 353 6 5
3 353 5 352
3 5 4 351
3 5 351 352
3 354 59 250
3 354 250 355
3 250 249 356
3 250 356 355
3 356 309 307
3 356 307 355
3 307 306 354
3 307 354 355
3 357 61 60
3 357 60 358
3 60 59 354
3 60 354 358
3 354 306 313
3 354 313 358
3 313 312 357
3 313 357 358
3 359 21 174
3 359 174 360
3 174 61 357
3 174 357 360
3 357 312 317
3 357 317 360
3 317 316 359
3 317 359 360
3 359 316 322
3 359 322 361
3 322 321 362
3 322 362 361
3 362 24 22
3 362 22 361
3 22 21 359
3 22 359 361
3 11 10 363
3 364 33 31
3 364 31 365
3 31 30 366
3 31 366 365
3 366 288 294
3 366 294 365
3 294 293 364
3 294 364 365
3 18 17 367
3 368 52 51
3 368 51 369
3 51 50 370
3 51 370 369
3 370 217 215
3 370 215 369
3 215 214 368
3 215 368 369
3 371 125 177
3 371 177 372
3 177 52 368
3 177 368 372
3 368 214 222
3 368 222 372
3 222 226 371
3 222 371 372
3 126 125 371
3 126 371 373
3 371 226 227
3 371 227 373
3 227 230 374
3 227 374 373
3 374 127 126
3 374 126 373
3 343 127 374
3 343 374 375
3 374 230 339
3 374 339 375
3 339 232 376
3 339 376 375
3 376 167 343
3 376 343 375
3 168 167 376
3 168 376 377
3 376 232 231
3 376 231 377
3 378 156 155
3 378 155 379
3 237 236 378
3 237 378 379
3 380 143 333
3 380 333 381
3 333 156 378
3 333 378 381
3 378 236 334
3 378 334 381
3 334 243 380
3 334 380 381
3 382 145 144
3 382 144 383
3 144 143 380
3 144 380 383
3 380 243 241
3 380 241 383
3 241 240 382
3 241 382 383
3 384 303 302
3 384 302 385
3 302 145 382
3 302 382 385
3 382 240 310
3 382 310 385
3 310 309 384
3 310 384 385
3 386 6 353
3 386 353 387
3 353 303 384
3 353 384 387
3 384 309 356
3 384 356 387
3 356 249 386
3 356 386 387
3 7 6 386
3 7 386 388
3 386 249 248
3 386 248 388
3 248 247 389
3 248 389 388
3 389 8 7
3 389 7 388
3 90 8 389
3 90 389 390
3 389 247 251
3 389 251 390
3 251 254 391
3 251 391 390
3 391 91 90
3 391 90 390
3 110 91 391
3 110 391 392
3 391 254 255
3 391 255 392
3 255 258 393
3 255 393 392
3 393 111 110
3 393 110 392
3 197 111 393
3 197 393 394
3 393 258 259
3 393 259 394
3 259 262 395
3 259 395 394
3 395 198 197
3 395 197 394
3 212 198 395
3 212 395 396
3 395 262 263
3 395 263 396
3 263 266 397
3 263 397 396
3 397 66 212
3 397 212 396
3 67 66 397
3 67 397 398
3 397 266 269
3 397 269 398
3 269 268 399
3 269 399 398
3 399 68 67
3 399 67 398
3 400 188 204
3 400 204 401
3 204 68 399
3 204 399 401
3 399 268 273
3 399 273 401
3 273 272 400
3 273 400 401
3 402 103 189
3 402 189 403
3 189 188 400
3 189 400 403
3 400 272 277
3 400 277 403
3 277 276 402
3 277 402 403
3 104 103 402
3 104 402 404
3 402 276 281
3 402 281 404
3 281 280 405
3 281 405 404
3 405 81 104
3 405 104 404
3 82 81 405
3 82 405 406
3 405 280 285
3 405 285 406
3 285 284 407
3 285 407 406
3 407 83 82
3 407 82 406
3 366 30 171
3 366 171 408
3 171 83 407
3 171 407 408
3 407 284 289
3 407 289 408
3 289 288 366
3 289 366 408
3 409 410 411
3 409 411 412
3 411 413 414
3 411 414 412
3 414 17 15
3 414 15 412
3 15 14 409
3 15 409 412
3 415 416 417
3 415 417 418
3 417 410 409
3 417 409 418
3 409 14 19
3 409 19 418
3 19 419 415
3 19 415 418
3 420 421 422
3 420 422 423
3 422 416 415
3 422 415 423
3 415 419 424
3 415 424 423
3 424 420 423
3 425 421 420
3 425 420 426
3 427 428 425
3 427 425 426
3 429 430 431
3 429 431 432
3 431 428 427
3 431 427 432
3 433 430 429
3 433 429 434
3 435 436 433
3 435 433 434
3 437 438 439
3 437 439 440
3 439 436 435
3 439 435 440
3 441 438 437
3 441 437 442
3 443 444 441
3 443 441 442
3 445 444 443
3 445 443 446
3 443 363 446
3 363 10 447
3 363 447 446
3 447 448 445
3 447 445 446
3 449 450 451
3 449 451 452
3 451 448 447
3 451 447 452
3 447 10 9
3 447 9 452
3 9 449 452
3 453 454 455
3 453 455 456
3 455 450 449
3 455 449 456
3 414 413 457
3 414 457 458
3 457 454 453
3 457 453 458
3 453 367 458
3 367 17 414
3 367 414 458
3 34 33 459
3 34 459 460
3 459 413 411
3 459 411 460
3 411 410 461
3 411 461 460
3 461 35 34
3 461 34 460
3 40 35 461
3 40 461 462
3 461 410 417
3 461 417 462
3 417 416 463
3 417 463 462
3 463 41 40
3 463 40 462
3 347 41 463
3 347 463 464
3 463 416 422
3 463 422 464
3 422 421 465
3 422 465 464
3 465 327 347
3 465 347 464
3 328 327 465
3 328 465 466
3 465 421 425
3 465 425 466
3 425 428 467
3 425 467 466
3 467 48 328
3 467 328 466
3 49 48 467
3 49 467 468
3 467 428 431
3 467 431 468
3 431 430 469
3 431 469 468
3 469 50 49
3 469 49 468
3 370 50 469
3 370 469 470
3 469 430 433
3 469 433 470
3 433 436 471
3 433 471 470
3 471 217 370
3 471 370 470
3 218 217 471
3 218 471 472
3 471 436 439
3 471 439 472
3 439 438 473
3 439 473 472
3 473 219 218
3 473 218 472
3 320 219 473
3 320 473 474
3 473 438 441
3 473 441 474
3 441 444 475
3 441 475 474
3 475 321 320
3 475 320 474
3 362 321 475
3 362 475 476
3 475 444 445
3 475 445 476
3 445 448 477
3 445 477 476
3 477 24 362
3 477 362 476
3 25 24 477
3 25 477 478
3 477 448 451
3 477 451 478
3 451 450 479
3 451 479 478
3 479 26 25
3 479 25 478
3 292 26 479
3 292 479 480
3 479 450 455
3 479 455 480
3 455 454 481
3 455 481 480
3 481 293 292
3 481 292 480
3 459 33 364
3 459 364 482
3 364 293 481
3 364 481 482
3 481 454 457
3 481 457 482
3 457 413 459
3 457 459 482
