OFF
666 1298 0
3.22257 -6.67832 2.24215
2.58197 -6.6734 2.24695
2.58197 -6.6734 1.92995
3.22257 -6.67832 1.92455
2.58197 -6.6734 1.65685
3.22257 -6.67832 1.65105
3.99127 -6.67996 1.64915
3.99127 -6.67996 1.92275
3.99127 -6.67996 2.24055
2.58197 -6.6734 1.27205
2.58197 -6.6734 0.620246
3.22257 -6.67832 0.614446
3.22257 -6.67832 1.26625
3.99127 -6.67996 0.612446
3.99127 -6.67996 1.26425
4.75997 -6.67832 0.614446
5.40057 -6.6734 0.620246
5.40057 -6.6734 1.27205
4.75997 -6.67832 1.26625
5.40057 -6.6734 1.65685
4.75997 -6.67832 1.65105
5.40057 -6.6734 1.92995
5.40057 -6.6734 2.24695
4.75997 -6.67832 2.24215
4.75997 -6.67832 1.92455
2.19767 -3.69236 3.69185
2.58197 -3.69236 3.70305
2.58197 -3.53736 3.70305
2.19767 -3.53736 3.69185
2.58087 -3.45406 3.70585
2.19617 -3.45406 3.69465
2.00387 -3.45406 3.57425
2.00547 -3.53736 3.57155
2.00547 -3.69236 3.57155
2.57757 -3.41966 3.71425
2.18347 -3.41146 3.71975
2.19197 -3.41966 3.70295
1.98977 -3.41146 3.59845
1.99917 -3.41966 3.58235
1.92517 -3.41146 3.26205
1.92517 -3.41146 2.60515
1.93487 -3.41966 2.59365
1.93487 -3.41966 3.24755
1.93977 -3.45406 2.58795
1.93977 -3.45406 3.24025
1.94137 -3.53736 2.58595
1.94137 -3.69236 2.58595
1.94137 -3.69236 3.23775
1.94137 -3.53736 3.23775
5.40507 -3.41966 -3.36115
5.40167 -3.45406 -3.35285
4.76057 -3.45406 -3.37065
4.76237 -3.41966 -3.37895
3.99127 -3.45406 -3.37655
3.99127 -3.41966 -3.38495
5.40057 -3.53736 -3.35005
5.40057 -3.69236 -3.35005
4.75997 -3.69236 -3.36785
4.75997 -3.53736 -3.36785
3.99127 -3.69236 -3.37375
3.99127 -3.53736 -3.37375
3.22257 -3.69236 -3.36785
2.58197 -3.69236 -3.35005
2.58197 -3.53736 -3.35005
3.22257 -3.53736 -3.36785
2.58087 -3.45406 -3.35285
3.22197 -3.45406 -3.37065
3.22017 -3.41966 -3.37895
2.57757 -3.41966 -3.36115
5.79907 -3.41146 3.71975
5.40507 -3.41966 3.71425
5.79057 -3.41966 3.70295
5.40167 -3.45406 3.70585
5.78637 -3.45406 3.69465
5.97867 -3.45406 3.57425
5.98337 -3.41966 3.58235
5.99277 -3.41146 3.59845
5.40057 -3.53736 3.70305
5.40057 -3.69236 3.70305
5.78487 -3.69236 3.69185
5.78487 -3.53736 3.69185
5.97707 -3.69236 3.57155
5.97707 -3.53736 3.57155
6.04117 -3.69236 3.23775
6.04117 -3.69236 2.58595
6.04117 -3.53736 2.58595
6.04117 -3.53736 3.23775
6.04277 -3.45406 2.58795
6.04277 -3.45406 3.24025
6.04767 -3.41966 2.59365
6.05737 -3.41146 2.60515
6.05737 -3.41146 3.26205
6.04767 -3.41966 3.24755
3.22197 -3.45406 3.71265
3.22017 -3.41966 3.72105
3.99127 -3.45406 3.71495
3.99127 -3.41966 3.72335
3.22257 -3.69236 3.70985
3.22257 -3.53736 3.70985
3.99127 -3.69236 3.71215
3.99127 -3.53736 3.71215
4.75997 -3.69236 3.70985
4.75997 -3.53736 3.70985
4.76057 -3.45406 3.71265
4.76237 -3.41966 3.72105
1.94137 -6.38621 2.24665
1.94137 -6.38621 2.52585
1.94137 -6.13022 2.77455
1.94137 -6.13022 2.52895
1.98017 -5.80489 3.07275
1.96187 -5.80189 2.86605
1.94657 -5.80197 2.64705
1.94137 -6.13022 2.29155
1.94137 -6.38621 1.99245
2.09637 -5.43803 3.37575
2.38007 -5.02657 3.64025
2.09637 -5.02788 3.47945
2.02337 -5.42602 3.20565
1.98017 -5.02839 3.29425
1.96187 -5.42636 3.00165
1.94137 -5.02856 2.93885
1.94137 -5.02856 2.28705
1.94137 -5.42647 1.98825
1.94137 -5.42647 2.63995
1.94137 -5.802 1.62855
1.94137 -5.802 2.28035
1.94137 -6.13022 1.26695
1.94137 -6.38621 0.962146
1.94137 -6.38621 1.61395
1.94137 -6.13022 1.91875
4.75997 -5.02856 -3.66675
5.40057 -5.02856 -3.64895
5.40057 -5.42647 -3.94785
4.75997 -5.42647 -3.96555
5.40057 -5.802 -4.30745
4.75997 -5.802 -4.32525
3.99127 -5.802 -4.33115
3.99127 -5.42647 -3.97155
3.99127 -5.02856 -3.67265
5.40057 -6.13022 -4.66905
5.40057 -6.38621 -4.97385
4.75997 -6.38621 -4.99165
4.75997 -6.13022 -4.68685
3.99127 -6.38621 -4.99755
3.99127 -6.13022 -4.69275
3.22257 -6.38621 -4.99165
2.58197 -6.38621 -4.97385
2.58197 -6.13022 -4.66905
3.22257 -6.13022 -4.68685
2.58197 -5.802 -4.30745
3.22257 -5.802 -4.32525
2.58197 -5.42647 -3.94785
2.58197 -5.02856 -3.64895
3.22257 -5.02856 -3.66675
3.22257 -5.42647 -3.96555
5.88617 -5.02788 3.47945
5.60247 -5.02657 3.64025
5.88617 -5.43803 3.37575
5.95917 -5.42602 3.20565
6.00237 -5.80489 3.07275
6.02067 -5.80189 2.86605
6.03607 -5.80197 2.64705
6.02067 -5.42636 3.00165
6.00237 -5.02839 3.29425
6.04117 -6.13022 2.77455
6.04117 -6.38621 2.52585
6.04117 -6.38621 2.24665
6.04117 -6.13022 2.52895
6.04117 -6.38621 1.99245
6.04117 -6.13022 2.29155
6.04117 -6.38621 1.61395
6.04117 -6.38621 0.962146
6.04117 -6.13022 1.26695
6.04117 -6.13022 1.91875
6.04117 -5.802 1.62855
6.04117 -5.802 2.28035
6.04117 -5.42647 1.98825
6.04117 -5.02856 2.28705
6.04117 -5.02856 2.93885
6.04117 -5.42647 2.63995
3.37207 -5.34444 4.49695
2.94737 -5.41651 4.42225
2.76347 -5.58295 4.46835
3.32217 -5.56343 4.61155
2.62737 -5.84112 4.49605
3.24747 -5.83624 4.68755
3.99127 -5.83136 4.75135
3.99127 -5.5439 4.65915
3.99127 -5.30887 4.53085
2.58197 -6.13022 4.50395
2.58197 -6.38621 4.50225
3.22257 -6.38621 4.77015
3.22257 -6.13022 4.73825
3.99127 -6.38621 4.85945
3.99127 -6.13022 4.81635
4.75997 -6.38621 4.77015
5.40057 -6.38621 4.50225
5.40057 -6.13022 4.50395
4.75997 -6.13022 4.73825
5.35517 -5.84112 4.49605
4.73507 -5.83624 4.68755
5.21907 -5.58295 4.46835
5.03517 -5.41651 4.42225
4.61047 -5.34444 4.49695
4.66037 -5.56343 4.61155
3.15337 -4.86468 3.78825
2.51277 -5.18696 3.82955
3.17647 -5.02431 3.94035
2.61007 -5.2695 4.05875
3.23597 -5.12039 4.13645
3.99127 -5.07163 4.16425
3.99127 -4.97432 3.97495
3.99127 -4.82108 3.82505
2.76347 -5.34444 4.27745
3.32217 -5.21193 4.33025
3.99127 -5.1673 4.35765
5.21907 -5.34444 4.27745
4.66037 -5.21193 4.33025
5.37247 -5.2695 4.05875
4.74657 -5.12039 4.13645
5.46977 -5.18696 3.82955
4.82917 -4.86468 3.78825
4.80607 -5.02431 3.94035
1.94137 -6.38621 2.97925
1.94137 -6.13022 3.17175
2.00547 -6.38621 3.51855
2.00547 -6.13022 3.64375
2.06487 -5.82583 3.79145
1.99397 -5.81412 3.40235
2.19767 -6.38621 4.05555
2.19767 -6.13022 4.11345
2.25457 -5.83624 4.17665
2.42537 -5.56343 4.22885
2.24307 -5.52179 3.93675
2.15147 -5.47497 3.63595
5.40057 -6.6734 2.76325
4.75997 -6.67832 2.75955
5.35517 -6.67281 3.34825
4.73507 -6.67759 3.35575
3.99127 -6.67919 3.36485
3.99127 -6.67996 2.75835
5.21907 -6.67107 3.87125
5.03517 -6.66872 4.20875
4.61047 -6.67107 4.35445
4.66037 -6.6754 3.90965
3.99127 -6.67223 4.42645
3.99127 -6.67686 3.94895
3.37207 -6.67107 4.35445
2.94737 -6.66872 4.20875
2.76347 -6.67107 3.87125
3.32217 -6.6754 3.90965
2.62737 -6.67281 3.34825
3.24747 -6.67759 3.35575
2.58197 -6.6734 2.76325
3.22257 -6.67832 2.75955
5.83107 -5.47497 3.63595
5.73947 -5.52179 3.93675
5.91767 -5.82583 3.79145
5.98857 -5.81412 3.40235
5.55717 -5.56343 4.22885
5.72797 -5.83624 4.17665
5.78487 -6.38621 4.05555
5.78487 -6.13022 4.11345
5.97707 -6.38621 3.51855
5.97707 -6.13022 3.64375
6.04117 -6.38621 2.97925
6.04117 -6.13022 3.17175
2.58197 -6.54506 4.50115
3.22257 -6.54506 4.78995
2.62737 -6.62975 4.46435
3.24747 -6.62991 4.75515
3.99127 -6.63007 4.85235
3.99127 -6.54506 4.88625
2.76347 -6.66327 4.35535
3.32217 -6.66391 4.62315
3.99127 -6.66455 4.71335
5.21907 -6.66327 4.35535
4.66037 -6.66391 4.62315
5.35517 -6.62975 4.46435
4.73507 -6.62991 4.75515
5.40057 -6.54506 4.50115
4.75997 -6.54506 4.78995
6.04117 -6.54506 2.37155
6.04117 -6.54506 2.85975
5.97707 -6.54506 3.44085
5.91477 -6.63015 3.39425
5.97707 -6.63023 2.79575
5.97707 -6.63023 2.28885
5.78487 -6.54506 4.01975
5.72797 -6.62991 3.98055
5.55717 -6.66391 3.91295
5.72797 -6.66487 3.36225
5.78487 -6.66519 2.25495
5.78487 -6.66519 2.76945
5.78487 -6.66519 1.93895
5.78487 -6.66519 1.66645
5.97707 -6.63023 1.70725
5.97707 -6.63023 1.97755
5.78487 -6.66519 0.630046
5.78487 -6.66519 1.28185
5.97707 -6.63023 0.671646
5.97707 -6.63023 1.32345
6.04117 -6.54506 0.773046
6.04117 -6.54506 1.42485
6.04117 -6.54506 1.80675
6.04117 -6.54506 2.07145
5.40057 -6.54506 -5.16295
4.75997 -6.54506 -5.18075
5.35517 -6.62975 -5.26165
4.73507 -6.62991 -5.27915
3.99127 -6.63007 -5.28505
3.99127 -6.54506 -5.18665
5.21907 -6.66327 -5.29535
5.03517 -6.66872 -5.29325
4.61047 -6.67107 -5.30455
4.66037 -6.66391 -5.31165
3.99127 -6.67223 -5.31015
3.99127 -6.66455 -5.31775
3.37207 -6.67107 -5.30455
2.94737 -6.66872 -5.29325
2.76347 -6.66327 -5.29535
3.32217 -6.66391 -5.31165
2.62737 -6.62975 -5.26165
3.24747 -6.62991 -5.27915
2.58197 -6.54506 -5.16295
3.22257 -6.54506 -5.18075
2.19767 -6.66519 2.25495
2.19767 -6.66519 1.93895
2.00547 -6.63023 2.28885
2.00547 -6.63023 1.97755
2.00547 -6.63023 1.70725
2.19767 -6.66519 1.66645
1.94137 -6.54506 2.37155
1.94137 -6.54506 2.07145
1.94137 -6.54506 1.80675
1.94137 -6.54506 0.773046
1.94137 -6.54506 1.42485
2.00547 -6.63023 0.671646
2.00547 -6.63023 1.32345
2.19767 -6.66519 0.630046
2.19767 -6.66519 1.28185
1.94137 -6.54506 2.85975
2.00547 -6.63023 2.79575
2.06777 -6.63015 3.39425
2.00547 -6.54506 3.44085
2.19767 -6.66519 2.76945
2.25457 -6.66487 3.36225
2.42537 -6.66391 3.91295
2.25457 -6.62991 3.98055
2.19767 -6.54506 4.01975
2.58197 -3.94206 3.70305
3.22257 -3.94206 3.70985
2.56467 -4.26003 3.69635
3.21107 -4.25067 3.71405
3.99127 -4.24445 3.72155
3.99127 -3.94206 3.71215
2.51277 -4.61994 3.67615
3.17647 -4.5825 3.72645
3.99127 -4.55762 3.74995
5.46977 -4.61994 3.67615
4.80607 -4.5825 3.72645
5.41787 -4.26003 3.69635
4.77147 -4.25067 3.71405
5.40057 -3.94206 3.70305
4.75997 -3.94206 3.70985
5.83107 -4.63272 3.61915
5.98857 -4.63306 3.46375
5.97997 -4.26331 3.54465
5.79647 -4.26322 3.67365
6.04117 -4.63317 2.46645
6.04117 -4.63317 3.11825
6.04117 -4.26334 2.55615
6.04117 -4.26334 3.20795
6.04117 -3.94206 2.58595
6.04117 -3.94206 3.23775
5.97707 -3.94206 3.57155
5.78487 -3.94206 3.69185
5.40057 -3.94206 -3.35005
4.75997 -3.94206 -3.36785
5.40057 -4.26334 -3.37995
4.75997 -4.26334 -3.39765
3.99127 -4.26334 -3.40365
3.99127 -3.94206 -3.37375
5.40057 -4.63317 -3.46955
4.75997 -4.63317 -3.48735
3.99127 -4.63317 -3.49325
2.58197 -4.63317 -3.46955
3.22257 -4.63317 -3.48735
2.58197 -4.26334 -3.37995
3.22257 -4.26334 -3.39765
2.58197 -3.94206 -3.35005
3.22257 -3.94206 -3.36785
2.15147 -4.63272 3.61915
2.18607 -4.26322 3.67365
2.00257 -4.26331 3.54465
1.99397 -4.63306 3.46375
2.19767 -3.94206 3.69185
2.00547 -3.94206 3.57155
1.94137 -3.94206 2.58595
1.94137 -3.94206 3.23775
1.94137 -4.26334 2.55615
1.94137 -4.26334 3.20795
1.94137 -4.63317 2.46645
1.94137 -4.63317 3.11825
6.00847 -3.40656 3.62545
1.97407 -3.40656 3.62545
1.94137 -3.69236 1.51165
1.94137 -3.53736 1.51165
1.93977 -3.45406 1.51275
1.93977 -3.45406 0.224346
1.94137 -3.53736 0.224246
1.94137 -3.69236 0.224246
1.92517 -3.41146 1.52235
1.93487 -3.41966 1.51595
1.92517 -3.41146 0.224746
1.93487 -3.41966 0.224446
1.92517 -3.41146 -1.07655
1.92517 -3.41146 -2.17045
1.93487 -3.41966 -2.15945
1.93487 -3.41966 -1.07075
1.93977 -3.45406 -2.15395
1.93977 -3.45406 -1.06775
1.94137 -3.53736 -2.15215
1.94137 -3.69236 -2.15215
1.94137 -3.69236 -1.06685
1.94137 -3.53736 -1.06685
1.94137 -5.02856 1.21275
1.94137 -4.63317 1.39215
1.94137 -4.26334 1.48175
1.94137 -4.26334 0.194346
1.94137 -4.63317 0.104746
1.94137 -5.02856 -0.0746542
1.94137 -3.94206 1.51165
1.94137 -3.94206 0.224246
1.94137 -3.94206 -2.15215
1.94137 -3.94206 -1.06685
1.94137 -4.26334 -2.18205
1.94137 -4.26334 -1.09675
1.94137 -4.63317 -2.27175
1.94137 -5.02856 -2.45105
1.94137 -5.02856 -1.36575
1.94137 -4.63317 -1.18635
1.94137 -6.38621 -0.112154
1.94137 -6.13022 0.192646
1.94137 -5.802 0.554246
1.94137 -5.802 -0.733154
1.94137 -6.13022 -1.09475
1.94137 -6.38621 -1.39955
1.94137 -5.42647 0.913846
1.94137 -5.42647 -0.373554
1.94137 -5.42647 -2.74995
1.94137 -5.42647 -1.66465
1.94137 -5.802 -3.10955
1.94137 -5.802 -2.02425
1.94137 -6.13022 -3.47125
1.94137 -6.38621 -3.77595
1.94137 -6.38621 -2.69065
1.94137 -6.13022 -2.38585
2.58197 -6.6734 -0.454054
2.19767 -6.66519 -0.444254
2.00547 -6.63023 -0.402654
2.00547 -6.63023 -1.69005
2.19767 -6.66519 -1.73165
2.58197 -6.6734 -1.74145
1.94137 -6.54506 -0.301254
1.94137 -6.54506 -1.58865
1.94137 -6.54506 -3.96505
1.94137 -6.54506 -2.87975
2.00547 -6.63023 -4.06645
2.00547 -6.63023 -2.98115
2.19767 -6.66519 -4.10805
2.58197 -6.6734 -4.11785
2.58197 -6.6734 -3.03255
2.19767 -6.66519 -3.02275
3.22257 -6.67832 -0.459854
3.22257 -6.67832 -1.74735
3.99127 -6.67996 -1.74925
3.99127 -6.67996 -0.461854
3.22257 -6.67832 -4.12375
3.22257 -6.67832 -3.03835
3.99127 -6.67996 -4.12565
3.99127 -6.67996 -3.04035
4.75997 -6.67832 -4.12375
5.40057 -6.6734 -4.11785
5.40057 -6.6734 -3.03255
4.75997 -6.67832 -3.03835
5.40057 -6.6734 -1.74145
4.75997 -6.67832 -1.74735
5.40057 -6.6734 -0.454054
4.75997 -6.67832 -0.459854
5.78487 -6.66519 -0.444254
5.78487 -6.66519 -1.73165
5.97707 -6.63023 -1.69005
5.97707 -6.63023 -0.402654
5.78487 -6.66519 -4.10805
5.78487 -6.66519 -3.02275
5.97707 -6.63023 -4.06645
5.97707 -6.63023 -2.98115
6.04117 -6.54506 -3.96505
6.04117 -6.38621 -3.77595
6.04117 -6.38621 -2.69065
6.04117 -6.54506 -2.87975
6.04117 -6.38621 -1.39955
6.04117 -6.54506 -1.58865
6.04117 -6.38621 -0.112154
6.04117 -6.54506 -0.301254
6.04117 -5.02856 1.21275
6.04117 -5.42647 0.913846
6.04117 -5.802 0.554246
6.04117 -5.802 -0.733154
6.04117 -5.42647 -0.373554
6.04117 -5.02856 -0.0746542
6.04117 -6.13022 0.192646
6.04117 -6.13022 -1.09475
6.04117 -6.13022 -3.47125
6.04117 -6.13022 -2.38585
6.04117 -5.802 -3.10955
6.04117 -5.802 -2.02425
6.04117 -5.42647 -2.74995
6.04117 -5.02856 -2.45105
6.04117 -5.02856 -1.36575
6.04117 -5.42647 -1.66465
6.04117 -4.63317 1.39215
6.04117 -4.63317 0.104746
6.04117 -4.26334 0.194346
6.04117 -4.26334 1.48175
6.04117 -4.63317 -2.27175
6.04117 -4.63317 -1.18635
6.04117 -4.26334 -2.18205
6.04117 -4.26334 -1.09675
6.04117 -3.94206 -2.15215
6.04117 -3.69236 -2.15215
6.04117 -3.69236 -1.06685
6.04117 -3.94206 -1.06685
6.04117 -3.69236 0.224246
6.04117 -3.94206 0.224246
6.04117 -3.69236 1.51165
6.04117 -3.94206 1.51165
6.05737 -3.41146 1.52235
6.04767 -3.41966 1.51595
6.04277 -3.45406 1.51275
6.04277 -3.45406 0.224346
6.04767 -3.41966 0.224446
6.05737 -3.41146 0.224746
6.04117 -3.53736 1.51165
6.04117 -3.53736 0.224246
6.04117 -3.53736 -2.15215
6.04117 -3.53736 -1.06685
6.04277 -3.45406 -2.15395
6.04277 -3.45406 -1.06775
6.04767 -3.41966 -2.15945
6.05737 -3.41146 -2.17045
6.05737 -3.41146 -1.07655
6.04767 -3.41966 -1.07075
1.97407 -3.40656 -3.23105
1.98977 -3.41146 -3.20455
1.92517 -3.41146 -2.84595
2.18347 -3.41146 -3.34795
1.94137 -3.69236 -2.82225
1.94137 -3.53736 -2.82225
1.93977 -3.45406 -2.82465
2.00387 -3.45406 -3.18075
2.00547 -3.53736 -3.17815
2.00547 -3.69236 -3.17815
1.93487 -3.41966 -2.83175
1.99917 -3.41966 -3.18865
2.19197 -3.41966 -3.33145
2.19617 -3.45406 -3.32315
2.19767 -3.69236 -3.32045
2.19767 -3.53736 -3.32045
1.94137 -5.02856 -3.12115
1.94137 -4.63317 -2.94185
1.94137 -4.26334 -2.85215
2.00547 -4.26334 -3.20805
2.00547 -4.63317 -3.29765
2.00547 -5.02856 -3.47705
1.94137 -3.94206 -2.82225
2.00547 -3.94206 -3.17815
2.19767 -3.94206 -3.32045
2.19767 -4.26334 -3.35035
2.19767 -5.02856 -3.61935
2.19767 -4.63317 -3.43995
1.94137 -6.38621 -4.44615
1.94137 -6.13022 -4.14135
1.94137 -5.802 -3.77975
2.00547 -5.802 -4.13555
2.00547 -6.13022 -4.49715
2.00547 -6.38621 -4.80195
1.94137 -5.42647 -3.42005
2.00547 -5.42647 -3.77595
2.19767 -5.42647 -3.91825
2.19767 -5.802 -4.27785
2.19767 -6.38621 -4.94425
2.19767 -6.13022 -4.63945
2.58197 -6.6734 -4.78805
2.19767 -6.66519 -4.77825
2.00547 -6.63023 -4.73665
2.06777 -6.63015 -5.09205
2.25457 -6.66487 -5.13255
2.62737 -6.67282 -5.14145
1.94137 -6.54506 -4.63525
2.00547 -6.54506 -4.99105
2.19767 -6.54506 -5.13335
2.25457 -6.62991 -5.23325
2.76347 -6.67107 -5.27645
2.42537 -6.66391 -5.27025
3.22257 -6.67832 -4.79385
3.24747 -6.67759 -5.14765
3.99127 -6.67919 -5.15015
3.99127 -6.67996 -4.79585
3.32217 -6.6754 -5.28395
3.99127 -6.67686 -5.28795
5.21907 -6.67107 -5.27645
4.66037 -6.6754 -5.28395
5.35517 -6.67281 -5.14145
4.73507 -6.67759 -5.14765
5.40057 -6.6734 -4.78805
4.75997 -6.67832 -4.79385
5.78487 -6.66519 -4.77825
5.72797 -6.66487 -5.13255
5.91477 -6.63015 -5.09205
5.97707 -6.63023 -4.73665
5.55717 -6.66391 -5.27025
5.72797 -6.62991 -5.23325
5.78487 -6.38621 -4.94425
5.78487 -6.54506 -5.13335
5.97707 -6.38621 -4.80195
5.97707 -6.54506 -4.99105
6.04117 -6.38621 -4.44615
6.04117 -6.54506 -4.63525
6.04117 -5.02856 -3.12115
6.04117 -5.42647 -3.42005
6.04117 -5.802 -3.77975
5.97707 -5.802 -4.13555
5.97707 -5.42647 -3.77595
5.97707 -5.02856 -3.47705
6.04117 -6.13022 -4.14135
5.97707 -6.13022 -4.49715
5.78487 -6.13022 -4.63945
5.78487 -5.802 -4.27785
5.78487 -5.02856 -3.61935
5.78487 -5.42647 -3.91825
6.04117 -4.63317 -2.94185
5.97707 -4.63317 -3.29765
5.97707 -4.26334 -3.20805
6.04117 -4.26334 -2.85215
5.78487 -4.63317 -3.43995
5.78487 -4.26334 -3.35035
5.78487 -3.69236 -3.32045
5.78487 -3.94206 -3.32045
5.97707 -3.69236 -3.17815
5.97707 -3.94206 -3.17815
6.04117 -3.69236 -2.82225
6.04117 -3.94206 -2.82225
6.05737 -3.41146 -2.84595
6.04767 -3.41966 -2.83175
6.04277 -3.45406 -2.82465
5.97867 -3.45406 -3.18075
5.98337 -3.41966 -3.18865
5.99277 -3.41146 -3.20455
6.04117 -3.53736 -2.82225
5.97707 -3.53736 -3.17815
5.78487 -3.53736 -3.32045
5.78637 -3.45406 -3.32315
5.79907 -3.41146 -3.34795
5.79057 -3.41966 -3.33145
3 0 1 2
3 0 2 3
3 2 4 5
3 2 5 3
3 5 6 7
3 5 7 3
3 7 8 0
3 7 0 3
3 9 10 11
3 9 11 12
3 11 13 14
3 11 14 12
3 14 6 5
3 14 5 12
3 5 4 9
3 5 9 12
3 15 16 17
3 15 17 18
3 17 19 20
3 17 20 18
3 20 6 14
3 20 14 18
3 14 13 15
3 14 15 18
3 21 22 23
3 21 23 24
3 23 8 7
3 23 7 24
3 7 6 20
3 7 20 24
3 20 19 21
3 20 21 24
3 25 26 27
3 25 27 28
3 27 29 30
3 27 30 28
3 30 31 32
3 30 32 28
3 32 33 25
3 32 25 28
3 34 35 36
3 35 37 38
3 35 38 36
3 38 31 30
3 38 30 36
3 30 29 34
3 30 34 36
3 39 40 41
3 39 41 42
3 41 43 44
3 41 44 42
3 44 31 38
3 44 38 42
3 38 37 39
3 38 39 42
3 45 46 47
3 45 47 48
3 47 33 32
3 47 32 48
3 32 31 44
3 32 44 48
3 44 43 45
3 44 45 48
3 49 50 51
3 49 51 52
3 51 53 54
3 51 54 52
3 55 56 57
3 55 57 58
3 57 59 60
3 57 60 58
3 60 53 51
3 60 51 58
3 51 50 55
3 51 55 58
3 61 62 63
3 61 63 64
3 63 65 66
3 63 66 64
3 66 53 60
3 66 60 64
3 60 59 61
3 60 61 64
3 54 53 66
3 54 66 67
3 66 65 68
3 66 68 67
3 69 70 71
3 70 72 73
3 70 73 71
3 73 74 75
3 73 75 71
3 75 76 69
3 75 69 71
3 77 78 79
3 77 79 80
3 79 81 82
3 79 82 80
3 82 74 73
3 82 73 80
3 73 72 77
3 73 77 80
3 83 84 85
3 83 85 86
3 85 87 88
3 85 88 86
3 88 74 82
3 88 82 86
3 82 81 83
3 82 83 86
3 89 90 91
3 89 91 92
3 91 76 75
3 91 75 92
3 75 74 88
3 75 88 92
3 88 87 89
3 88 89 92
3 34 29 93
3 34 93 94
3 93 95 96
3 93 96 94
3 27 26 97
3 27 97 98
3 97 99 100
3 97 100 98
3 100 95 93
3 100 93 98
3 93 29 27
3 93 27 98
3 101 78 77
3 101 77 102
3 77 72 103
3 77 103 102
3 103 95 100
3 103 100 102
3 100 99 101
3 100 101 102
3 96 95 103
3 96 103 104
3 103 72 70
3 103 70 104
3 105 106 107
3 105 107 108
3 107 109 110
3 107 110 108
3 110 111 112
3 110 112 108
3 112 113 105
3 112 105 108
3 114 115 116
3 114 116 117
3 116 118 119
3 116 119 117
3 119 111 110
3 119 110 117
3 110 109 114
3 110 114 117
3 120 121 122
3 120 122 123
3 122 124 125
3 122 125 123
3 125 111 119
3 125 119 123
3 119 118 120
3 119 120 123
3 126 127 128
3 126 128 129
3 128 113 112
3 128 112 129
3 112 111 125
3 112 125 129
3 125 124 126
3 125 126 129
3 130 131 132
3 130 132 133
3 132 134 135
3 132 135 133
3 135 136 137
3 135 137 133
3 137 138 130
3 137 130 133
3 139 140 141
3 139 141 142
3 141 143 144
3 141 144 142
3 144 136 135
3 144 135 142
3 135 134 139
3 135 139 142
3 145 146 147
3 145 147 148
3 147 149 150
3 147 150 148
3 150 136 144
3 150 144 148
3 144 143 145
3 144 145 148
3 151 152 153
3 151 153 154
3 153 138 137
3 153 137 154
3 137 136 150
3 137 150 154
3 150 149 151
3 150 151 154
3 155 156 157
3 155 157 158
3 157 159 160
3 157 160 158
3 160 161 162
3 160 162 158
3 162 163 155
3 162 155 158
3 164 165 166
3 164 166 167
3 166 168 169
3 166 169 167
3 169 161 160
3 169 160 167
3 160 159 164
3 160 164 167
3 170 171 172
3 170 172 173
3 172 174 175
3 172 175 173
3 175 161 169
3 175 169 173
3 169 168 170
3 169 170 173
3 176 177 178
3 176 178 179
3 178 163 162
3 178 162 179
3 162 161 175
3 162 175 179
3 175 174 176
3 175 176 179
3 180 181 182
3 180 182 183
3 182 184 185
3 182 185 183
3 185 186 187
3 185 187 183
3 187 188 180
3 187 180 183
3 189 190 191
3 189 191 192
3 191 193 194
3 191 194 192
3 194 186 185
3 194 185 192
3 185 184 189
3 185 189 192
3 195 196 197
3 195 197 198
3 197 199 200
3 197 200 198
3 200 186 194
3 200 194 198
3 194 193 195
3 194 195 198
3 201 202 203
3 201 203 204
3 203 188 187
3 203 187 204
3 187 186 200
3 187 200 204
3 200 199 201
3 200 201 204
3 205 115 206
3 205 206 207
3 206 208 209
3 206 209 207
3 209 210 211
3 209 211 207
3 211 212 205
3 211 205 207
3 213 181 180
3 213 180 214
3 180 188 215
3 180 215 214
3 215 210 209
3 215 209 214
3 209 208 213
3 209 213 214
3 203 202 216
3 203 216 217
3 216 218 219
3 216 219 217
3 219 210 215
3 219 215 217
3 215 188 203
3 215 203 217
3 220 156 221
3 220 221 222
3 221 212 211
3 221 211 222
3 211 210 219
3 211 219 222
3 219 218 220
3 219 220 222
3 107 106 223
3 107 223 224
3 223 225 226
3 223 226 224
3 226 227 228
3 226 228 224
3 228 109 107
3 228 107 224
3 229 190 189
3 229 189 230
3 189 184 231
3 189 231 230
3 231 227 226
3 231 226 230
3 226 225 229
3 226 229 230
3 182 181 213
3 182 213 232
3 213 208 233
3 213 233 232
3 233 227 231
3 233 231 232
3 231 184 182
3 231 182 232
3 206 115 114
3 206 114 234
3 114 109 228
3 114 228 234
3 228 227 233
3 228 233 234
3 233 208 206
3 233 206 234
3 23 22 235
3 23 235 236
3 235 237 238
3 235 238 236
3 238 239 240
3 238 240 236
3 240 8 23
3 240 23 236
3 241 242 243
3 241 243 244
3 243 245 246
3 243 246 244
3 246 239 238
3 246 238 244
3 238 237 241
3 238 241 244
3 247 248 249
3 247 249 250
3 249 251 252
3 249 252 250
3 252 239 246
3 252 246 250
3 246 245 247
3 246 247 250
3 253 1 0
3 253 0 254
3 0 8 240
3 0 240 254
3 240 239 252
3 240 252 254
3 252 251 253
3 252 253 254
3 157 156 220
3 157 220 255
3 220 218 256
3 220 256 255
3 256 257 258
3 256 258 255
3 258 159 157
3 258 157 255
3 216 202 201
3 216 201 259
3 201 199 260
3 201 260 259
3 260 257 256
3 260 256 259
3 256 218 216
3 256 216 259
3 197 196 261
3 197 261 262
3 261 263 264
3 261 264 262
3 264 257 260
3 264 260 262
3 260 199 197
3 260 197 262
3 265 165 164
3 265 164 266
3 164 159 258
3 164 258 266
3 258 257 264
3 258 264 266
3 264 263 265
3 264 265 266
3 191 190 267
3 191 267 268
3 267 269 270
3 267 270 268
3 270 271 272
3 270 272 268
3 272 193 191
3 272 191 268
3 273 248 247
3 273 247 274
3 247 245 275
3 247 275 274
3 275 271 270
3 275 270 274
3 270 269 273
3 270 273 274
3 243 242 276
3 243 276 277
3 276 278 279
3 276 279 277
3 279 271 275
3 279 275 277
3 275 245 243
3 275 243 277
3 280 196 195
3 280 195 281
3 195 193 272
3 195 272 281
3 272 271 279
3 272 279 281
3 279 278 280
3 279 280 281
3 282 165 265
3 282 265 283
3 265 263 284
3 265 284 283
3 284 285 286
3 284 286 283
3 286 287 282
3 286 282 283
3 261 196 280
3 261 280 288
3 280 278 289
3 280 289 288
3 289 285 284
3 289 284 288
3 284 263 261
3 284 261 288
3 276 242 241
3 276 241 290
3 241 237 291
3 241 291 290
3 291 285 289
3 291 289 290
3 289 278 276
3 289 276 290
3 235 22 292
3 235 292 293
3 292 287 286
3 292 286 293
3 286 285 291
3 286 291 293
3 291 237 235
3 291 235 293
3 292 22 21
3 292 21 294
3 21 19 295
3 21 295 294
3 295 296 297
3 295 297 294
3 297 287 292
3 297 292 294
3 17 16 298
3 17 298 299
3 298 300 301
3 298 301 299
3 301 296 295
3 301 295 299
3 295 19 17
3 295 17 299
3 302 171 170
3 302 170 303
3 170 168 304
3 170 304 303
3 304 296 301
3 304 301 303
3 301 300 302
3 301 302 303
3 166 165 282
3 166 282 305
3 282 287 297
3 282 297 305
3 297 296 304
3 297 304 305
3 304 168 166
3 304 166 305
3 141 140 306
3 141 306 307
3 306 308 309
3 306 309 307
3 309 310 311
3 309 311 307
3 311 143 141
3 311 141 307
3 312 313 314
3 312 314 315
3 314 316 317
3 314 317 315
3 317 310 309
3 317 309 315
3 309 308 312
3 309 312 315
3 318 319 320
3 318 320 321
3 320 322 323
3 320 323 321
3 323 310 317
3 323 317 321
3 317 316 318
3 317 318 321
3 324 146 145
3 324 145 325
3 145 143 311
3 145 311 325
3 311 310 323
3 311 323 325
3 323 322 324
3 323 324 325
3 2 1 326
3 2 326 327
3 326 328 329
3 326 329 327
3 329 330 331
3 329 331 327
3 331 4 2
3 331 2 327
3 332 106 105
3 332 105 333
3 105 113 334
3 105 334 333
3 334 330 329
3 334 329 333
3 329 328 332
3 329 332 333
3 128 127 335
3 128 335 336
3 335 337 338
3 335 338 336
3 338 330 334
3 338 334 336
3 334 113 128
3 334 128 336
3 339 10 9
3 339 9 340
3 9 4 331
3 9 331 340
3 331 330 338
3 331 338 340
3 338 337 339
3 338 339 340
3 223 106 332
3 223 332 341
3 332 328 342
3 332 342 341
3 342 343 344
3 342 344 341
3 344 225 223
3 344 223 341
3 326 1 253
3 326 253 345
3 253 251 346
3 253 346 345
3 346 343 342
3 346 342 345
3 342 328 326
3 342 326 345
3 249 248 273
3 249 273 347
3 273 269 348
3 273 348 347
3 348 343 346
3 348 346 347
3 346 251 249
3 346 249 347
3 267 190 229
3 267 229 349
3 229 225 344
3 229 344 349
3 344 343 348
3 344 348 349
3 348 269 267
3 348 267 349
3 97 26 350
3 97 350 351
3 350 352 353
3 350 353 351
3 353 354 355
3 353 355 351
3 355 99 97
3 355 97 351
3 356 115 205
3 356 205 357
3 205 212 358
3 205 358 357
3 358 354 353
3 358 353 357
3 353 352 356
3 353 356 357
3 221 156 359
3 221 359 360
3 359 361 362
3 359 362 360
3 362 354 358
3 362 358 360
3 358 212 221
3 358 221 360
3 363 78 101
3 363 101 364
3 101 99 355
3 101 355 364
3 355 354 362
3 355 362 364
3 362 361 363
3 362 363 364
3 359 156 155
3 359 155 365
3 155 163 366
3 155 366 365
3 366 367 368
3 366 368 365
3 368 361 359
3 368 359 365
3 178 177 369
3 178 369 370
3 369 371 372
3 369 372 370
3 372 367 366
3 372 366 370
3 366 163 178
3 366 178 370
3 373 84 83
3 373 83 374
3 83 81 375
3 83 375 374
3 375 367 372
3 375 372 374
3 372 371 373
3 372 373 374
3 79 78 363
3 79 363 376
3 363 361 368
3 363 368 376
3 368 367 375
3 368 375 376
3 375 81 79
3 375 79 376
3 57 56 377
3 57 377 378
3 377 379 380
3 377 380 378
3 380 381 382
3 380 382 378
3 382 59 57
3 382 57 378
3 383 131 130
3 383 130 384
3 130 138 385
3 130 385 384
3 385 381 380
3 385 380 384
3 380 379 383
3 380 383 384
3 153 152 386
3 153 386 387
3 386 388 389
3 386 389 387
3 389 381 385
3 389 385 387
3 385 138 153
3 385 153 387
3 390 62 61
3 390 61 391
3 61 59 382
3 61 382 391
3 382 381 389
3 382 389 391
3 389 388 390
3 389 390 391
3 116 115 356
3 116 356 392
3 356 352 393
3 356 393 392
3 393 394 395
3 393 395 392
3 395 118 116
3 395 116 392
3 350 26 25
3 350 25 396
3 25 33 397
3 25 397 396
3 397 394 393
3 397 393 396
3 393 352 350
3 393 350 396
3 47 46 398
3 47 398 399
3 398 400 401
3 398 401 399
3 401 394 397
3 401 397 399
3 397 33 47
3 397 47 399
3 402 121 120
3 402 120 403
3 120 118 395
3 120 395 403
3 395 394 401
3 395 401 403
3 401 400 402
3 401 402 403
3 69 76 404
3 404 76 91
3 405 37 35
3 39 37 405
3 406 46 45
3 406 45 407
3 45 43 408
3 45 408 407
3 408 409 410
3 408 410 407
3 410 411 406
3 410 406 407
3 41 40 412
3 41 412 413
3 412 414 415
3 412 415 413
3 415 409 408
3 415 408 413
3 408 43 41
3 408 41 413
3 416 417 418
3 416 418 419
3 418 420 421
3 418 421 419
3 421 409 415
3 421 415 419
3 415 414 416
3 415 416 419
3 422 423 424
3 422 424 425
3 424 411 410
3 424 410 425
3 410 409 421
3 410 421 425
3 421 420 422
3 421 422 425
3 426 121 402
3 426 402 427
3 402 400 428
3 402 428 427
3 428 429 430
3 428 430 427
3 430 431 426
3 430 426 427
3 398 46 406
3 398 406 432
3 406 411 433
3 406 433 432
3 433 429 428
3 433 428 432
3 428 400 398
3 428 398 432
3 424 423 434
3 424 434 435
3 434 436 437
3 434 437 435
3 437 429 433
3 437 433 435
3 433 411 424
3 433 424 435
3 438 439 440
3 438 440 441
3 440 431 430
3 440 430 441
3 430 429 437
3 430 437 441
3 437 436 438
3 437 438 441
3 442 127 126
3 442 126 443
3 126 124 444
3 126 444 443
3 444 445 446
3 444 446 443
3 446 447 442
3 446 442 443
3 122 121 426
3 122 426 448
3 426 431 449
3 426 449 448
3 449 445 444
3 449 444 448
3 444 124 122
3 444 122 448
3 440 439 450
3 440 450 451
3 450 452 453
3 450 453 451
3 453 445 449
3 453 449 451
3 449 431 440
3 449 440 451
3 454 455 456
3 454 456 457
3 456 447 446
3 456 446 457
3 446 445 453
3 446 453 457
3 453 452 454
3 453 454 457
3 458 10 339
3 458 339 459
3 339 337 460
3 339 460 459
3 460 461 462
3 460 462 459
3 462 463 458
3 462 458 459
3 335 127 442
3 335 442 464
3 442 447 465
3 442 465 464
3 465 461 460
3 465 460 464
3 460 337 335
3 460 335 464
3 456 455 466
3 456 466 467
3 466 468 469
3 466 469 467
3 469 461 465
3 469 465 467
3 465 447 456
3 465 456 467
3 470 471 472
3 470 472 473
3 472 463 462
3 472 462 473
3 462 461 469
3 462 469 473
3 469 468 470
3 469 470 473
3 11 10 458
3 11 458 474
3 458 463 475
3 458 475 474
3 475 476 477
3 475 477 474
3 477 13 11
3 477 11 474
3 472 471 478
3 472 478 479
3 478 480 481
3 478 481 479
3 481 476 475
3 481 475 479
3 475 463 472
3 475 472 479
3 482 483 484
3 482 484 485
3 484 486 487
3 484 487 485
3 487 476 481
3 487 481 485
3 481 480 482
3 481 482 485
3 488 16 15
3 488 15 489
3 15 13 477
3 15 477 489
3 477 476 487
3 477 487 489
3 487 486 488
3 487 488 489
3 298 16 488
3 298 488 490
3 488 486 491
3 488 491 490
3 491 492 493
3 491 493 490
3 493 300 298
3 493 298 490
3 484 483 494
3 484 494 495
3 494 496 497
3 494 497 495
3 497 492 491
3 497 491 495
3 491 486 484
3 491 484 495
3 498 499 500
3 498 500 501
3 500 502 503
3 500 503 501
3 503 492 497
3 503 497 501
3 497 496 498
3 497 498 501
3 504 171 302
3 504 302 505
3 302 300 493
3 302 493 505
3 493 492 503
3 493 503 505
3 503 502 504
3 503 504 505
3 506 177 176
3 506 176 507
3 176 174 508
3 176 508 507
3 508 509 510
3 508 510 507
3 510 511 506
3 510 506 507
3 172 171 504
3 172 504 512
3 504 502 513
3 504 513 512
3 513 509 508
3 513 508 512
3 508 174 172
3 508 172 512
3 500 499 514
3 500 514 515
3 514 516 517
3 514 517 515
3 517 509 513
3 517 513 515
3 513 502 500
3 513 500 515
3 518 519 520
3 518 520 521
3 520 511 510
3 520 510 521
3 510 509 517
3 510 517 521
3 517 516 518
3 517 518 521
3 369 177 506
3 369 506 522
3 506 511 523
3 506 523 522
3 523 524 525
3 523 525 522
3 525 371 369
3 525 369 522
3 520 519 526
3 520 526 527
3 526 528 529
3 526 529 527
3 529 524 523
3 529 523 527
3 523 511 520
3 523 520 527
3 530 531 532
3 530 532 533
3 532 534 535
3 532 535 533
3 535 524 529
3 535 529 533
3 529 528 530
3 529 530 533
3 536 84 373
3 536 373 537
3 373 371 525
3 373 525 537
3 525 524 535
3 525 535 537
3 535 534 536
3 535 536 537
3 538 90 89
3 538 89 539
3 89 87 540
3 89 540 539
3 540 541 542
3 540 542 539
3 542 543 538
3 542 538 539
3 85 84 536
3 85 536 544
3 536 534 545
3 536 545 544
3 545 541 540
3 545 540 544
3 540 87 85
3 540 85 544
3 532 531 546
3 532 546 547
3 546 548 549
3 546 549 547
3 549 541 545
3 549 545 547
3 545 534 532
3 545 532 547
3 550 551 552
3 550 552 553
3 552 543 542
3 552 542 553
3 542 541 549
3 542 549 553
3 549 548 550
3 549 550 553
3 554 555 556
3 557 555 554
3 558 423 422
3 558 422 559
3 422 420 560
3 422 560 559
3 560 561 562
3 560 562 559
3 562 563 558
3 562 558 559
3 418 417 556
3 418 556 564
3 556 555 565
3 556 565 564
3 565 561 560
3 565 560 564
3 560 420 418
3 560 418 564
3 557 68 566
3 68 65 567
3 68 567 566
3 567 561 565
3 567 565 566
3 565 555 557
3 565 557 566
3 63 62 568
3 63 568 569
3 568 563 562
3 568 562 569
3 562 561 567
3 562 567 569
3 567 65 63
3 567 63 569
3 570 439 438
3 570 438 571
3 438 436 572
3 438 572 571
3 572 573 574
3 572 574 571
3 574 575 570
3 574 570 571
3 434 423 558
3 434 558 576
3 558 563 577
3 558 577 576
3 577 573 572
3 577 572 576
3 572 436 434
3 572 434 576
3 568 62 390
3 568 390 578
3 390 388 579
3 390 579 578
3 579 573 577
3 579 577 578
3 577 563 568
3 577 568 578
3 386 152 580
3 386 580 581
3 580 575 574
3 580 574 581
3 574 573 579
3 574 579 581
3 579 388 386
3 579 386 581
3 582 455 454
3 582 454 583
3 454 452 584
3 454 584 583
3 584 585 586
3 584 586 583
3 586 587 582
3 586 582 583
3 450 439 570
3 450 570 588
3 570 575 589
3 570 589 588
3 589 585 584
3 589 584 588
3 584 452 450
3 584 450 588
3 580 152 151
3 580 151 590
3 151 149 591
3 151 591 590
3 591 585 589
3 591 589 590
3 589 575 580
3 589 580 590
3 147 146 592
3 147 592 593
3 592 587 586
3 592 586 593
3 586 585 591
3 586 591 593
3 591 149 147
3 591 147 593
3 594 471 470
3 594 470 595
3 470 468 596
3 470 596 595
3 596 597 598
3 596 598 595
3 598 599 594
3 598 594 595
3 466 455 582
3 466 582 600
3 582 587 601
3 582 601 600
3 601 597 596
3 601 596 600
3 596 468 466
3 596 466 600
3 592 146 324
3 592 324 602
3 324 322 603
3 324 603 602
3 603 597 601
3 603 601 602
3 601 587 592
3 601 592 602
3 320 319 604
3 320 604 605
3 604 599 598
3 604 598 605
3 598 597 603
3 598 603 605
3 603 322 320
3 603 320 605
3 478 471 594
3 478 594 606
3 594 599 607
3 594 607 606
3 607 608 609
3 607 609 606
3 609 480 478
3 609 478 606
3 604 319 318
3 604 318 610
3 318 316 611
3 318 611 610
3 611 608 607
3 611 607 610
3 607 599 604
3 607 604 610
3 314 313 612
3 314 612 613
3 612 614 615
3 612 615 613
3 615 608 611
3 615 611 613
3 611 316 314
3 611 314 613
3 616 483 482
3 616 482 617
3 482 480 609
3 482 609 617
3 609 608 615
3 609 615 617
3 615 614 616
3 615 616 617
3 494 483 616
3 494 616 618
3 616 614 619
3 616 619 618
3 619 620 621
3 619 621 618
3 621 496 494
3 621 494 618
3 612 313 312
3 612 312 622
3 312 308 623
3 312 623 622
3 623 620 619
3 623 619 622
3 619 614 612
3 619 612 622
3 306 140 624
3 306 624 625
3 624 626 627
3 624 627 625
3 627 620 623
3 627 623 625
3 623 308 306
3 623 306 625
3 628 499 498
3 628 498 629
3 498 496 621
3 498 621 629
3 621 620 627
3 621 627 629
3 627 626 628
3 627 628 629
3 630 519 518
3 630 518 631
3 518 516 632
3 518 632 631
3 632 633 634
3 632 634 631
3 634 635 630
3 634 630 631
3 514 499 628
3 514 628 636
3 628 626 637
3 628 637 636
3 637 633 632
3 637 632 636
3 632 516 514
3 632 514 636
3 624 140 139
3 624 139 638
3 139 134 639
3 139 639 638
3 639 633 637
3 639 637 638
3 637 626 624
3 637 624 638
3 132 131 640
3 132 640 641
3 640 635 634
3 640 634 641
3 634 633 639
3 634 639 641
3 639 134 132
3 639 132 641
3 526 519 630
3 526 630 642
3 630 635 643
3 630 643 642
3 643 644 645
3 643 645 642
3 645 528 526
3 645 526 642
3 640 131 383
3 640 383 646
3 383 379 647
3 383 647 646
3 647 644 643
3 647 643 646
3 643 635 640
3 643 640 646
3 377 56 648
3 377 648 649
3 648 650 651
3 648 651 649
3 651 644 647
3 651 647 649
3 647 379 377
3 647 377 649
3 652 531 530
3 652 530 653
3 530 528 645
3 530 645 653
3 645 644 651
3 645 651 653
3 651 650 652
3 651 652 653
3 654 551 550
3 654 550 655
3 550 548 656
3 550 656 655
3 656 657 658
3 656 658 655
3 658 659 654
3 658 654 655
3 546 531 652
3 546 652 660
3 652 650 661
3 652 661 660
3 661 657 656
3 661 656 660
3 656 548 546
3 656 546 660
3 648 56 55
3 648 55 662
3 55 50 663
3 55 663 662
3 663 657 661
3 663 661 662
3 661 650 648
3 661 648 662
3 49 664 665
3 664 659 658
3 664 658 665
3 658 657 663
3 658 663 665
3 663 50 49
3 663 49 665
