OFF
393 768 0
-17.8021 -5.37815 -8.65595
-17.8971 -5.26395 -8.49885
-17.9331 -5.20315 -8.52955
-17.8031 -5.33045 -8.76735
-17.9341 -5.05615 -8.51415
-17.7921 -5.17685 -8.76455
-17.6121 -5.21835 -8.91745
-17.6381 -5.38365 -8.91395
-17.6501 -5.43535 -8.78805
-17.8821 -4.84935 -8.43725
-17.8121 -4.66745 -8.34325
-17.7021 -4.67665 -8.47295
-17.7481 -4.94815 -8.66765
-17.5421 -4.68195 -8.59155
-17.5791 -4.97285 -8.80675
-17.3841 -4.67905 -8.63795
-17.2771 -4.67145 -8.62135
-17.2541 -4.85405 -8.76435
-17.4061 -4.95065 -8.84585
-17.2591 -5.06115 -8.86545
-17.4241 -5.17965 -8.95615
-17.3041 -5.20785 -8.85665
-17.3631 -5.26795 -8.77695
-17.4851 -5.38055 -8.82085
-17.4601 -5.33295 -8.94555
-9.04212 -0.995345 0.746351
-9.12112 -0.964045 0.716051
-9.12112 -1.11155 0.477951
-9.04212 -1.15145 0.494451
-9.12112 -1.16075 0.192251
-9.04212 -1.20345 0.192251
-9.30812 -0.942145 0.694851
-9.65312 -0.917645 0.671151
-9.65312 -1.05255 0.453451
-9.30812 -1.08375 0.466451
-9.65312 -1.09755 0.192251
-9.30812 -1.13095 0.192251
-9.65312 -1.05255 -0.0689488
-9.65312 -0.917645 -0.286649
-9.30812 -0.942145 -0.310449
-9.30812 -1.08375 -0.0819488
-9.12112 -0.964045 -0.331549
-9.12112 -1.11155 -0.0934488
-9.04212 -1.15145 -0.110049
-9.04212 -0.995345 -0.361849
-9.04212 0.149155 0.746351
-9.12112 0.117955 0.716051
-9.12112 -0.127945 0.858951
-9.04212 -0.110945 0.897451
-9.12112 -0.423045 0.906551
-9.04212 -0.423045 0.947851
-9.30812 0.0960545 0.694851
-9.65312 0.0715545 0.671151
-9.65312 -0.153245 0.801751
-9.30812 -0.139945 0.831951
-9.65312 -0.423045 0.845351
-9.30812 -0.423045 0.877651
-9.65312 -0.692845 0.801751
-9.30812 -0.706245 0.831951
-9.12112 -0.718145 0.858951
-9.04212 -0.735245 0.897451
-9.04212 0.149155 -0.361849
-9.12112 0.117955 -0.331549
-9.12112 0.265455 -0.0934488
-9.04212 0.305255 -0.110049
-9.12112 0.314655 0.192251
-9.04212 0.357255 0.192251
-9.30812 0.0960545 -0.310449
-9.65312 0.0715545 -0.286649
-9.65312 0.206455 -0.0689488
-9.30812 0.237655 -0.0819488
-9.65312 0.251355 0.192251
-9.30812 0.284855 0.192251
-9.65312 0.206455 0.453451
-9.30812 0.237655 0.466451
-9.12112 0.265455 0.477951
-9.04212 0.305255 0.494451
-9.12112 -0.718145 -0.474449
-9.04212 -0.735245 -0.513049
-9.12112 -0.423045 -0.522049
-9.04212 -0.423045 -0.563349
-9.65312 -0.692845 -0.417349
-9.30812 -0.706245 -0.447549
-9.65312 -0.423045 -0.460849
-9.30812 -0.423045 -0.493249
-9.65312 -0.153245 -0.417349
-9.30812 -0.139945 -0.447549
-9.12112 -0.127945 -0.474449
-9.04212 -0.110945 -0.513049
-12.7261 -0.761445 -0.279749
-12.7441 -0.672045 -0.143249
-13.7581 -0.573945 -0.814849
-13.7231 -0.658045 -0.935049
-14.7581 -0.533845 -1.65775
-14.7021 -0.615645 -1.76515
-14.6301 -0.643245 -1.88475
-13.6771 -0.686345 -1.07345
-12.7041 -0.791345 -0.440649
-15.6731 -0.624345 -2.59845
-16.4281 -0.918145 -3.56345
-16.3381 -0.997745 -3.65225
-15.5971 -0.705145 -2.69575
-16.2221 -1.02485 -3.74385
-15.5001 -0.732645 -2.79975
-16.0991 -0.999445 -3.82375
-15.9901 -0.921345 -3.87785
-15.3061 -0.627145 -2.96225
-15.3971 -0.706645 -2.89415
-14.4871 -0.535845 -2.08295
-14.5541 -0.616745 -1.99715
-13.5871 -0.575245 -1.31395
-12.6581 -0.672745 -0.728949
-12.6801 -0.761845 -0.599249
-13.6291 -0.658745 -1.20735
-12.7451 -0.166345 -0.0441488
-12.7301 -0.0177455 -0.118349
-13.7301 0.0404545 -0.765049
-13.7601 -0.0990455 -0.708349
-14.7151 0.0622545 -1.57885
-14.7621 -0.0729455 -1.53875
-14.7861 -0.235445 -1.54095
-13.7751 -0.266545 -0.699249
-12.7531 -0.344845 -0.0243488
-15.6141 -0.0364455 -2.49175
-16.3581 -0.339945 -3.43595
-16.4341 -0.470945 -3.42205
-15.6771 -0.169745 -2.46635
-16.4731 -0.628446 -3.44255
-15.7101 -0.329945 -2.47895
-16.4721 -0.786245 -3.49155
-15.7091 -0.490345 -2.52465
-14.7851 -0.398145 -1.58185
-12.7521 -0.523245 -0.0577488
-13.7751 -0.434145 -0.735549
-12.6621 0.0709545 -0.567549
-12.6451 -0.0184455 -0.704049
-13.5591 0.0391545 -1.26415
-13.5951 0.123255 -1.14395
-14.4441 0.0602545 -2.00405
-14.4991 0.141955 -1.89665
-14.5711 0.169655 -1.77705
-13.6401 0.151455 -1.00555
-12.6851 0.100855 -0.406649
-15.2471 -0.0392455 -2.85545
-15.9201 -0.343245 -3.75035
-16.0101 -0.263645 -3.66145
-15.3221 0.0415545 -2.75825
-16.1261 -0.236445 -3.56995
-15.4201 0.0690545 -2.65415
-16.2491 -0.261845 -3.48995
-15.5231 0.0430545 -2.55985
-14.6471 0.143055 -1.66465
-12.7091 0.0713545 -0.248049
-13.6881 0.123955 -0.871749
-12.6441 -0.524145 -0.803149
-13.5571 -0.435845 -1.37065
-14.4401 -0.400645 -2.12305
-14.4161 -0.238245 -2.12085
-13.5421 -0.268245 -1.37975
-12.6361 -0.345645 -0.822949
-15.9141 -0.790446 -3.89175
-15.2421 -0.493845 -2.98755
-15.8751 -0.632945 -3.87125
-15.2101 -0.333645 -2.97495
-15.8761 -0.475045 -3.82215
-15.2101 -0.173245 -2.92935
-14.4161 -0.0755455 -2.07995
-12.6361 -0.167245 -0.789549
-13.5421 -0.100645 -1.34355
-16.9521 -1.48775 -4.47915
-16.8561 -1.56425 -4.56055
-17.2941 -2.20565 -5.30475
-17.1981 -2.27885 -5.38055
-17.0741 -2.30395 -5.45555
-16.7331 -1.59045 -4.64225
-17.5051 -2.94425 -5.99925
-17.6331 -3.57585 -6.52195
-17.5361 -3.64815 -6.59615
-17.4101 -3.01555 -6.07245
-17.4121 -3.67295 -6.66905
-17.2871 -3.03995 -6.14425
-17.2801 -3.65005 -6.72945
-17.1631 -3.57935 -6.76645
-17.0421 -2.94765 -6.24025
-17.1571 -3.01735 -6.20385
-16.8271 -2.20915 -5.55675
-16.9431 -2.28075 -5.51805
-16.4861 -1.49125 -4.75605
-16.6021 -1.56615 -4.71155
-16.8781 -0.932445 -4.34365
-16.9581 -1.05815 -4.33665
-17.2201 -1.67465 -5.16855
-17.3001 -1.79495 -5.16515
-17.3421 -1.93955 -5.19085
-17.0001 -1.20945 -4.36105
-17.4311 -2.42745 -5.86445
-17.5581 -3.05145 -6.38515
-17.6391 -3.17015 -6.38285
-17.5111 -2.54445 -5.86225
-17.6811 -3.31305 -6.40905
-17.5521 -2.68525 -5.88805
-17.6801 -3.45625 -6.45745
-17.5511 -2.82635 -5.93575
-17.3411 -2.08455 -5.23945
-16.9991 -1.36105 -4.41065
-16.4121 -0.935945 -4.62045
-16.5081 -0.859445 -4.53905
-16.7521 -1.67815 -5.42065
-16.8481 -1.60495 -5.34475
-16.9721 -1.57985 -5.26985
-16.6311 -0.833245 -4.45745
-16.9681 -2.43085 -6.10545
-17.0881 -3.05495 -6.62965
-17.1851 -2.98265 -6.55545
-17.0631 -2.35965 -6.03225
-17.3091 -2.95785 -6.48255
-17.1861 -2.33525 -5.96045
-17.4411 -2.98075 -6.42205
-17.3151 -2.35775 -5.90085
-17.1031 -1.60305 -5.20725
-16.7621 -0.857545 -4.38805
-16.4061 -1.36555 -4.76295
-16.7461 -2.08895 -5.56025
-16.7041 -1.94435 -5.53455
-16.3651 -1.21425 -4.73855
-17.0821 -3.46065 -6.76865
-16.9621 -2.83075 -6.24245
-17.0401 -3.31785 -6.74245
-16.9201 -2.68995 -6.21665
-17.0411 -3.17465 -6.69405
-16.9211 -2.54885 -6.16895
-16.7051 -1.79935 -5.48595
-16.3651 -1.06265 -4.68905
-17.7291 -3.97295 -6.83175
-17.6251 -4.05085 -6.91175
-17.8001 -4.21245 -7.01285
-17.6841 -4.29875 -7.10135
-17.5361 -4.32835 -7.18835
-17.4901 -4.07765 -6.99035
-17.8531 -4.37155 -7.14915
-17.8951 -4.52705 -7.32485
-17.7571 -4.63025 -7.43075
-17.7251 -4.46685 -7.24705
-17.5791 -4.66555 -7.53475
-17.5611 -4.49955 -7.34315
-17.3911 -4.63295 -7.62105
-17.2241 -4.53205 -7.67375
-17.2331 -4.37615 -7.47155
-17.3871 -4.46935 -7.42285
-17.2391 -4.21665 -7.30455
-17.3791 -4.30105 -7.26055
-17.2221 -3.97675 -7.09535
-17.3481 -4.05295 -7.05555
-17.6481 -3.40755 -6.68425
-17.7351 -3.53555 -6.68185
-17.7101 -3.58675 -6.84965
-17.8071 -3.72845 -6.84695
-17.8571 -3.89885 -6.87815
-17.7811 -3.68955 -6.71005
-17.7541 -3.68015 -6.96885
-17.7881 -3.77875 -7.12965
-17.9041 -3.94815 -7.12645
-17.8611 -3.83665 -6.96585
-17.9631 -4.15195 -7.16375
-17.9161 -4.02495 -7.00035
-17.9621 -4.35625 -7.23285
-17.9151 -4.21375 -7.06425
-17.8561 -4.06975 -6.93595
-17.7801 -3.84395 -6.76225
-17.1411 -3.41135 -6.94785
-17.2451 -3.33335 -6.86785
-17.1491 -3.59095 -7.14135
-17.2651 -3.50465 -7.05285
-17.4131 -3.47505 -6.96585
-17.3801 -3.30665 -6.78925
-17.1341 -3.68475 -7.29115
-17.1171 -3.78375 -7.47855
-17.2551 -3.68055 -7.37265
-17.2611 -3.58945 -7.19335
-17.4331 -3.64515 -7.26865
-17.4261 -3.55675 -7.09725
-17.6211 -3.67785 -7.18235
-17.5991 -3.58695 -7.01755
-17.5701 -3.50235 -6.89365
-17.5221 -3.33135 -6.72405
-17.1351 -3.84875 -7.09775
-17.1421 -4.07505 -7.30725
-17.0921 -3.90455 -7.27605
-17.0901 -3.69475 -7.06955
-17.1081 -4.36265 -7.67695
-17.1261 -4.21965 -7.47445
-17.0491 -4.15885 -7.63955
-17.0711 -4.03125 -7.43995
-17.0501 -3.95445 -7.57045
-17.0721 -3.84255 -7.37615
-17.0931 -3.73375 -7.21825
-17.0911 -3.54035 -7.01735
-17.9341 -4.75615 -7.62375
-17.7901 -4.86405 -7.73455
-17.9531 -4.99385 -7.97005
-17.8111 -5.10495 -8.08545
-17.6281 -5.14575 -8.19895
-17.6041 -4.90095 -7.84335
-17.9381 -5.17555 -8.28745
-17.8101 -5.28965 -8.41065
-17.6451 -5.33995 -8.53175
-17.3091 -5.18015 -8.61455
-17.4681 -5.29215 -8.58885
-17.2601 -4.99905 -8.33075
-17.4331 -5.10775 -8.28225
-17.2331 -4.76135 -7.98865
-17.4071 -4.86685 -7.93355
-17.8221 -3.97365 -7.41975
-17.9431 -4.15075 -7.41635
-17.8431 -4.22025 -7.76825
-17.9631 -4.39955 -7.77075
-18.0251 -4.61435 -7.81515
-18.0051 -4.36395 -7.45545
-17.8371 -4.47395 -8.10455
-17.9481 -4.64945 -8.12465
-18.0061 -4.85685 -8.18285
-18.0031 -5.03175 -8.22435
-18.0231 -4.82145 -7.88075
-18.0041 -4.57755 -7.52765
-17.1211 -3.97885 -7.78455
-17.2651 -3.87105 -7.67375
-17.1491 -4.22545 -8.12895
-17.2921 -4.12265 -8.02525
-17.4771 -4.09005 -7.92355
-17.4511 -3.83405 -7.56505
-17.2091 -4.47865 -8.43165
-17.3391 -4.39755 -8.35555
-17.5081 -4.38025 -8.28145
-17.6821 -4.39495 -8.17725
-17.6701 -4.11985 -7.82855
-17.6471 -3.86815 -7.47475
-17.1121 -4.58425 -7.99195
-17.1411 -4.82805 -8.34005
-17.0791 -4.62145 -8.30735
-17.0491 -4.37105 -7.95295
-17.2011 -5.03775 -8.64155
-17.1461 -4.86325 -8.63035
-17.1471 -4.65545 -8.54185
-17.0801 -4.40615 -8.23005
-17.0501 -4.15745 -7.88065
-10.2071 0.0322545 0.633051
-10.2071 -0.174745 0.753351
-10.9301 -0.00614548 0.525551
-10.9311 -0.192145 0.632351
-10.9321 -0.415245 0.667451
-10.2071 -0.423045 0.793351
-11.7841 -0.0280455 0.293451
-11.7901 -0.193345 0.384651
-11.7931 -0.391745 0.413051
-11.7891 -0.755545 0.283551
-11.7931 -0.590145 0.379251
-10.9311 -0.824345 0.523051
-10.9321 -0.638345 0.631051
-10.2071 -0.878345 0.633051
-10.2071 -0.671445 0.753351
-10.2071 -1.00255 0.432751
-10.9291 -0.935845 0.343751
-10.9271 -0.973045 0.128951
-10.2071 -1.04395 0.192251
-11.7821 -0.854746 0.126451
-11.7731 -0.887945 -0.0609488
-11.7551 -0.755745 -0.401749
-11.7641 -0.854945 -0.247349
-10.9231 -0.824345 -0.264249
-10.9251 -0.935945 -0.0856488
-10.2071 -0.878345 -0.248649
-10.2071 -1.00255 -0.0482488
-10.2071 -0.671445 -0.368849
-10.9211 -0.638445 -0.371049
-10.9201 -0.415345 -0.406249
-10.2071 -0.423045 -0.408949
-11.7491 -0.590545 -0.492849
-11.7461 -0.392145 -0.521349
-11.7501 -0.0283455 -0.391749
-11.7461 -0.193745 -0.487449
-10.9211 -0.00624548 -0.261749
-10.9201 -0.192245 -0.369749
-10.2071 0.0322545 -0.248649
-10.2071 -0.174745 -0.368849
-10.2071 0.156455 -0.0482488
-10.9231 0.105355 -0.0825488
-10.9251 0.142555 0.132351
-10.2071 0.197755 0.192251
-11.7571 0.0709545 -0.234649
-11.7661 0.104055 -0.0473488
-11.7751 0.0710545 0.139051
-10.9281 0.105355 0.346951
-10.2071 0.156455 0.432751
3 0 1 2
3 0 2 3
3 2 4 5
3 2 5 3
3 5 6 7
3 5 7 3
3 7 8 0
3 7 0 3
3 9 10 11
3 9 11 12
3 11 13 14
3 11 14 12
3 14 6 5
3 14 5 12
3 5 4 9
3 5 9 12
3 15 16 17
3 15 17 18
3 17 19 20
3 17 20 18
3 20 6 14
3 20 14 18
3 14 13 15
3 14 15 18
3 21 22 23
3 21 23 24
3 23 8 7
3 23 7 24
3 7 6 20
3 7 20 24
3 20 19 21
3 20 21 24
3 25 26 27
3 25 27 28
3 27 29 30
3 27 30 28
3 31 32 33
3 31 33 34
3 33 35 36
3 33 36 34
3 36 29 27
3 36 27 34
3 27 26 31
3 27 31 34
3 37 38 39
3 37 39 40
3 39 41 42
3 39 42 40
3 42 29 36
3 42 36 40
3 36 35 37
3 36 37 40
3 30 29 42
3 30 42 43
3 42 41 44
3 42 44 43
3 45 46 47
3 45 47 48
3 47 49 50
3 47 50 48
3 51 52 53
3 51 53 54
3 53 55 56
3 53 56 54
3 56 49 47
3 56 47 54
3 47 46 51
3 47 51 54
3 57 32 31
3 57 31 58
3 31 26 59
3 31 59 58
3 59 49 56
3 59 56 58
3 56 55 57
3 56 57 58
3 50 49 59
3 50 59 60
3 59 26 25
3 59 25 60
3 61 62 63
3 61 63 64
3 63 65 66
3 63 66 64
3 67 68 69
3 67 69 70
3 69 71 72
3 69 72 70
3 72 65 63
3 72 63 70
3 63 62 67
3 63 67 70
3 73 52 51
3 73 51 74
3 51 46 75
3 51 75 74
3 75 65 72
3 75 72 74
3 72 71 73
3 72 73 74
3 66 65 75
3 66 75 76
3 75 46 45
3 75 45 76
3 44 41 77
3 44 77 78
3 77 79 80
3 77 80 78
3 39 38 81
3 39 81 82
3 81 83 84
3 81 84 82
3 84 79 77
3 84 77 82
3 77 41 39
3 77 39 82
3 85 68 67
3 85 67 86
3 67 62 87
3 67 87 86
3 87 79 84
3 87 84 86
3 84 83 85
3 84 85 86
3 80 79 87
3 80 87 88
3 87 62 61
3 87 61 88
3 89 90 91
3 89 91 92
3 91 93 94
3 91 94 92
3 94 95 96
3 94 96 92
3 96 97 89
3 96 89 92
3 98 99 100
3 98 100 101
3 100 102 103
3 100 103 101
3 103 95 94
3 103 94 101
3 94 93 98
3 94 98 101
3 104 105 106
3 104 106 107
3 106 108 109
3 106 109 107
3 109 95 103
3 109 103 107
3 103 102 104
3 103 104 107
3 110 111 112
3 110 112 113
3 112 97 96
3 112 96 113
3 96 95 109
3 96 109 113
3 109 108 110
3 109 110 113
3 114 115 116
3 114 116 117
3 116 118 119
3 116 119 117
3 119 120 121
3 119 121 117
3 121 122 114
3 121 114 117
3 123 124 125
3 123 125 126
3 125 127 128
3 125 128 126
3 128 120 119
3 128 119 126
3 119 118 123
3 119 123 126
3 129 99 98
3 129 98 130
3 98 93 131
3 98 131 130
3 131 120 128
3 131 128 130
3 128 127 129
3 128 129 130
3 91 90 132
3 91 132 133
3 132 122 121
3 132 121 133
3 121 120 131
3 121 131 133
3 131 93 91
3 131 91 133
3 134 135 136
3 134 136 137
3 136 138 139
3 136 139 137
3 139 140 141
3 139 141 137
3 141 142 134
3 141 134 137
3 143 144 145
3 143 145 146
3 145 147 148
3 145 148 146
3 148 140 139
3 148 139 146
3 139 138 143
3 139 143 146
3 149 124 123
3 149 123 150
3 123 118 151
3 123 151 150
3 151 140 148
3 151 148 150
3 148 147 149
3 148 149 150
3 116 115 152
3 116 152 153
3 152 142 141
3 152 141 153
3 141 140 151
3 141 151 153
3 151 118 116
3 151 116 153
3 154 111 110
3 154 110 155
3 110 108 156
3 110 156 155
3 156 157 158
3 156 158 155
3 158 159 154
3 158 154 155
3 106 105 160
3 106 160 161
3 160 162 163
3 160 163 161
3 163 157 156
3 163 156 161
3 156 108 106
3 156 106 161
3 164 144 143
3 164 143 165
3 143 138 166
3 143 166 165
3 166 157 163
3 166 163 165
3 163 162 164
3 163 164 165
3 136 135 167
3 136 167 168
3 167 159 158
3 167 158 168
3 158 157 166
3 158 166 168
3 166 138 136
3 166 136 168
3 100 99 169
3 100 169 170
3 169 171 172
3 169 172 170
3 172 173 174
3 172 174 170
3 174 102 100
3 174 100 170
3 175 176 177
3 175 177 178
3 177 179 180
3 177 180 178
3 180 173 172
3 180 172 178
3 172 171 175
3 172 175 178
3 181 182 183
3 181 183 184
3 183 185 186
3 183 186 184
3 186 173 180
3 186 180 184
3 180 179 181
3 180 181 184
3 187 105 104
3 187 104 188
3 104 102 174
3 104 174 188
3 174 173 186
3 174 186 188
3 186 185 187
3 186 187 188
3 125 124 189
3 125 189 190
3 189 191 192
3 189 192 190
3 192 193 194
3 192 194 190
3 194 127 125
3 194 125 190
3 195 196 197
3 195 197 198
3 197 199 200
3 197 200 198
3 200 193 192
3 200 192 198
3 192 191 195
3 192 195 198
3 201 176 175
3 201 175 202
3 175 171 203
3 175 203 202
3 203 193 200
3 203 200 202
3 200 199 201
3 200 201 202
3 169 99 129
3 169 129 204
3 129 127 194
3 129 194 204
3 194 193 203
3 194 203 204
3 203 171 169
3 203 169 204
3 145 144 205
3 145 205 206
3 205 207 208
3 205 208 206
3 208 209 210
3 208 210 206
3 210 147 145
3 210 145 206
3 211 212 213
3 211 213 214
3 213 215 216
3 213 216 214
3 216 209 208
3 216 208 214
3 208 207 211
3 208 211 214
3 217 196 195
3 217 195 218
3 195 191 219
3 195 219 218
3 219 209 216
3 219 216 218
3 216 215 217
3 216 217 218
3 189 124 149
3 189 149 220
3 149 147 210
3 149 210 220
3 210 209 219
3 210 219 220
3 219 191 189
3 219 189 220
3 160 105 187
3 160 187 221
3 187 185 222
3 187 222 221
3 222 223 224
3 222 224 221
3 224 162 160
3 224 160 221
3 183 182 225
3 183 225 226
3 225 227 228
3 225 228 226
3 228 223 222
3 228 222 226
3 222 185 183
3 222 183 226
3 229 212 211
3 229 211 230
3 211 207 231
3 211 231 230
3 231 223 228
3 231 228 230
3 228 227 229
3 228 229 230
3 205 144 164
3 205 164 232
3 164 162 224
3 164 224 232
3 224 223 231
3 224 231 232
3 231 207 205
3 231 205 232
3 177 176 233
3 177 233 234
3 233 235 236
3 233 236 234
3 236 237 238
3 236 238 234
3 238 179 177
3 238 177 234
3 239 240 241
3 239 241 242
3 241 243 244
3 241 244 242
3 244 237 236
3 244 236 242
3 236 235 239
3 236 239 242
3 245 246 247
3 245 247 248
3 247 249 250
3 247 250 248
3 250 237 244
3 250 244 248
3 244 243 245
3 244 245 248
3 251 182 181
3 251 181 252
3 181 179 238
3 181 238 252
3 238 237 250
3 238 250 252
3 250 249 251
3 250 251 252
3 197 196 253
3 197 253 254
3 253 255 256
3 253 256 254
3 256 257 258
3 256 258 254
3 258 199 197
3 258 197 254
3 259 260 261
3 259 261 262
3 261 263 264
3 261 264 262
3 264 257 256
3 264 256 262
3 256 255 259
3 256 259 262
3 265 240 239
3 265 239 266
3 239 235 267
3 239 267 266
3 267 257 264
3 267 264 266
3 264 263 265
3 264 265 266
3 233 176 201
3 233 201 268
3 201 199 258
3 201 258 268
3 258 257 267
3 258 267 268
3 267 235 233
3 267 233 268
3 213 212 269
3 213 269 270
3 269 271 272
3 269 272 270
3 272 273 274
3 272 274 270
3 274 215 213
3 274 213 270
3 275 276 277
3 275 277 278
3 277 279 280
3 277 280 278
3 280 273 272
3 280 272 278
3 272 271 275
3 272 275 278
3 281 260 259
3 281 259 282
3 259 255 283
3 259 283 282
3 283 273 280
3 283 280 282
3 280 279 281
3 280 281 282
3 253 196 217
3 253 217 284
3 217 215 274
3 217 274 284
3 274 273 283
3 274 283 284
3 283 255 253
3 283 253 284
3 225 182 251
3 225 251 285
3 251 249 286
3 251 286 285
3 286 287 288
3 286 288 285
3 288 227 225
3 288 225 285
3 247 246 289
3 247 289 290
3 289 291 292
3 289 292 290
3 292 287 286
3 292 286 290
3 286 249 247
3 286 247 290
3 293 276 275
3 293 275 294
3 275 271 295
3 275 295 294
3 295 287 292
3 295 292 294
3 292 291 293
3 292 293 294
3 269 212 229
3 269 229 296
3 229 227 288
3 229 288 296
3 288 287 295
3 288 295 296
3 295 271 269
3 295 269 296
3 241 240 297
3 241 297 298
3 297 299 300
3 297 300 298
3 300 301 302
3 300 302 298
3 302 243 241
3 302 241 298
3 303 1 0
3 303 0 304
3 0 8 305
3 0 305 304
3 305 301 300
3 305 300 304
3 300 299 303
3 300 303 304
3 23 22 306
3 23 306 307
3 306 308 309
3 306 309 307
3 309 301 305
3 309 305 307
3 305 8 23
3 305 23 307
3 310 246 245
3 310 245 311
3 245 243 302
3 245 302 311
3 302 301 309
3 302 309 311
3 309 308 310
3 309 310 311
3 261 260 312
3 261 312 313
3 312 314 315
3 312 315 313
3 315 316 317
3 315 317 313
3 317 263 261
3 317 261 313
3 318 10 9
3 318 9 319
3 9 4 320
3 9 320 319
3 320 316 315
3 320 315 319
3 315 314 318
3 315 318 319
3 2 1 303
3 2 303 321
3 303 299 322
3 303 322 321
3 322 316 320
3 322 320 321
3 320 4 2
3 320 2 321
3 297 240 265
3 297 265 323
3 265 263 317
3 265 317 323
3 317 316 322
3 317 322 323
3 322 299 297
3 322 297 323
3 277 276 324
3 277 324 325
3 324 326 327
3 324 327 325
3 327 328 329
3 327 329 325
3 329 279 277
3 329 277 325
3 330 16 15
3 330 15 331
3 15 13 332
3 15 332 331
3 332 328 327
3 332 327 331
3 327 326 330
3 327 330 331
3 11 10 318
3 11 318 333
3 318 314 334
3 318 334 333
3 334 328 332
3 334 332 333
3 332 13 11
3 332 11 333
3 312 260 281
3 312 281 335
3 281 279 329
3 281 329 335
3 329 328 334
3 329 334 335
3 334 314 312
3 334 312 335
3 289 246 310
3 289 310 336
3 310 308 337
3 310 337 336
3 337 338 339
3 337 339 336
3 339 291 289
3 339 289 336
3 306 22 21
3 306 21 340
3 21 19 341
3 21 341 340
3 341 338 337
3 341 337 340
3 337 308 306
3 337 306 340
3 17 16 330
3 17 330 342
3 330 326 343
3 330 343 342
3 343 338 341
3 343 341 342
3 341 19 17
3 341 17 342
3 324 276 293
3 324 293 344
3 293 291 339
3 293 339 344
3 339 338 343
3 339 343 344
3 343 326 324
3 343 324 344
3 53 52 345
3 53 345 346
3 345 347 348
3 345 348 346
3 348 349 350
3 348 350 346
3 350 55 53
3 350 53 346
3 351 115 114
3 351 114 352
3 114 122 353
3 114 353 352
3 353 349 348
3 353 348 352
3 348 347 351
3 348 351 352
3 132 90 354
3 132 354 355
3 354 356 357
3 354 357 355
3 357 349 353
3 357 353 355
3 353 122 132
3 353 132 355
3 358 32 57
3 358 57 359
3 57 55 350
3 57 350 359
3 350 349 357
3 350 357 359
3 357 356 358
3 357 358 359
3 33 32 358
3 33 358 360
3 358 356 361
3 358 361 360
3 361 362 363
3 361 363 360
3 363 35 33
3 363 33 360
3 354 90 89
3 354 89 364
3 89 97 365
3 89 365 364
3 365 362 361
3 365 361 364
3 361 356 354
3 361 354 364
3 112 111 366
3 112 366 367
3 366 368 369
3 366 369 367
3 369 362 365
3 369 365 367
3 365 97 112
3 365 112 367
3 370 38 37
3 370 37 371
3 37 35 363
3 37 363 371
3 363 362 369
3 363 369 371
3 369 368 370
3 369 370 371
3 81 38 370
3 81 370 372
3 370 368 373
3 370 373 372
3 373 374 375
3 373 375 372
3 375 83 81
3 375 81 372
3 366 111 154
3 366 154 376
3 154 159 377
3 154 377 376
3 377 374 373
3 377 373 376
3 373 368 366
3 373 366 376
3 167 135 378
3 167 378 379
3 378 380 381
3 378 381 379
3 381 374 377
3 381 377 379
3 377 159 167
3 377 167 379
3 382 68 85
3 382 85 383
3 85 83 375
3 85 375 383
3 375 374 381
3 375 381 383
3 381 380 382
3 381 382 383
3 69 68 382
3 69 382 384
3 382 380 385
3 382 385 384
3 385 386 387
3 385 387 384
3 387 71 69
3 387 69 384
3 378 135 134
3 378 134 388
3 134 142 389
3 134 389 388
3 389 386 385
3 389 385 388
3 385 380 378
3 385 378 388
3 152 115 351
3 152 351 390
3 351 347 391
3 351 391 390
3 391 386 389
3 391 389 390
3 389 142 152
3 389 152 390
3 345 52 73
3 345 73 392
3 73 71 387
3 73 387 392
3 387 386 391
3 387 391 392
3 391 347 345
3 391 345 392
