OFF
431 844 0
16.9016 -1.96874 10.4354
16.1376 -3.04089 10.3024
17.4486 -3.75295 9.12137
18.1916 -2.61714 9.30136
18.8636 -4.4266 7.65237
19.5756 -3.29087 7.85437
19.9816 -1.92528 7.65737
18.6296 -1.26718 9.06937
17.3746 -0.710947 10.1564
19.9986 -4.79474 6.16337
20.6086 -4.82237 5.03437
21.2946 -4.17468 4.79237
20.6876 -3.78255 6.31237
21.7096 -3.06528 4.52637
21.0976 -2.55719 6.10237
21.5366 -1.79963 4.33837
21.0316 -0.839706 4.25337
20.5756 -0.159906 5.15937
21.0076 -1.24893 5.75837
19.6356 0.574394 6.39237
19.9986 -0.549356 7.16437
18.4146 1.13894 7.63337
17.2506 1.51072 8.66137
17.5076 0.519774 9.53936
18.7186 0.0628735 8.49037
9.85163 -2.76131 1.56937
9.79363 -3.39793 1.46237
9.83863 -3.3962 1.44037
9.89663 -2.76735 1.54537
9.94363 -3.39445 1.46637
9.99763 -2.76962 1.57037
10.0756 -2.11202 1.35237
9.97563 -2.1061 1.32537
9.93163 -2.09225 1.34737
10.1486 -3.38663 1.57237
10.4986 -3.36673 1.78937
10.5246 -2.7444 1.88737
10.1936 -2.76351 1.67437
10.6026 -2.08579 1.67837
10.2716 -2.10643 1.45937
10.7156 -1.48929 1.23437
10.8466 -1.0533 0.629365
10.4696 -1.08195 0.381365
10.3686 -1.51329 1.00337
10.2516 -1.08966 0.257365
10.1646 -1.51943 0.889365
10.1446 -1.07944 0.219365
10.1026 -1.05429 0.227365
10.0196 -1.49012 0.874365
10.0626 -1.51071 0.857365
9.81563 -4.34368 -0.676635
9.87863 -4.19321 -1.47863
9.92263 -4.17876 -1.46163
9.86063 -4.32828 -0.669635
10.0576 -4.16713 -1.40263
9.98863 -4.31714 -0.619635
9.94363 -4.2103 0.220365
9.82463 -4.21928 0.179365
9.77863 -4.23242 0.184365
10.3566 -4.14668 -1.25163
10.8916 -4.10573 -0.959635
10.7576 -4.26423 -0.209635
10.2656 -4.29941 -0.481635
10.6336 -4.167 0.595365
10.1946 -4.19602 0.345365
10.5416 -3.85438 1.31037
10.1526 -3.87795 1.08037
9.92663 -3.8887 0.966365
9.76963 -3.90273 0.949365
9.81563 -3.89438 0.934365
10.1396 -2.38773 -2.52463
10.1996 -1.73142 -2.35863
10.2416 -1.74571 -2.33263
10.1816 -2.39394 -2.49563
10.3756 -1.74735 -2.26463
10.3196 -2.39134 -2.42563
10.2376 -3.08728 -2.32363
10.0986 -3.09395 -2.39263
10.0556 -3.09617 -2.42163
10.6756 -1.72835 -2.10063
11.2166 -1.68072 -1.78363
11.1946 -2.32164 -1.93763
10.6316 -2.37042 -2.25863
11.1236 -3.01744 -1.84063
10.5536 -3.06537 -2.15863
11.0186 -3.65114 -1.50863
10.4566 -3.6964 -1.81663
10.1456 -3.7182 -1.97663
9.96363 -3.73768 -2.06663
10.0066 -3.7281 -2.04163
10.1676 -0.884116 -0.515635
10.2086 -0.910536 -0.513635
10.3216 -0.920487 -0.467635
10.3706 -0.988997 -1.19163
10.2496 -0.980766 -1.24663
10.2086 -0.955997 -1.25763
10.9766 -0.876197 -0.0646348
10.5606 -0.910276 -0.331635
11.0926 -0.936237 -0.757635
10.6306 -0.975776 -1.04463
11.1776 -1.21166 -1.35963
10.6726 -1.25597 -1.66463
10.3896 -1.27226 -1.82263
10.2216 -1.24631 -1.90463
10.2616 -1.26691 -1.88463
12.3316 -2.51323 3.77837
12.4936 -3.24111 3.65937
12.5096 -3.2659 4.17137
12.2746 -2.42737 4.32937
12.3216 -3.32041 4.74837
12.0086 -2.34517 4.91637
12.0966 -1.32452 4.68337
12.3546 -1.54549 4.14237
12.4106 -1.73813 3.59737
12.0496 -3.39833 5.47937
11.8056 -3.49068 6.59637
11.3416 -2.17092 6.20537
11.6526 -2.27941 5.57837
11.4836 -0.897087 5.72437
11.7666 -1.09711 5.22537
12.0266 0.322344 5.22637
13.0876 1.41669 4.74337
13.0826 0.766144 3.96537
12.2586 0.000243515 4.70337
13.1856 0.253444 3.46137
12.5086 -0.402216 4.18137
13.2416 -0.174776 3.03837
13.1196 -0.511186 2.61137
12.6876 -1.03204 3.18537
12.6946 -0.751027 3.68737
14.2146 -4.26279 1.66837
14.7996 -4.06501 0.942365
15.5446 -4.30786 1.00737
14.7886 -4.50838 1.84037
16.1836 -4.63972 0.969365
15.2516 -4.83787 1.94637
14.1676 -4.63506 3.03637
13.9246 -4.36349 2.75737
13.5556 -4.16119 2.45937
16.8356 -5.00393 1.01037
17.6206 -5.34384 1.31237
16.4006 -5.52173 2.56837
15.7436 -5.19455 2.13837
14.9106 -5.19937 4.01537
14.4316 -4.92843 3.42037
13.3376 -4.51187 5.43137
13.0886 -4.30551 4.64737
13.1166 -4.10647 4.04637
12.9416 -3.80553 3.17137
13.1126 -3.93031 3.59137
15.3786 -1.95495 0.0703652
15.1746 -1.20547 0.248365
15.9366 -1.05623 0.285365
16.2286 -1.92152 0.0583652
16.5926 -0.908536 0.197365
16.9726 -1.91763 -0.0916348
17.0366 -2.99736 -0.0546348
16.2616 -2.8569 0.108365
15.3836 -2.77326 0.133365
17.2606 -0.767967 0.180365
18.0586 -0.640086 0.431365
18.5846 -1.9426 0.0253652
17.7216 -1.92932 -0.171635
18.6976 -3.31815 0.0383652
17.8126 -3.16198 -0.147635
18.3806 -4.5306 0.468365
17.5216 -4.25663 0.247365
16.7756 -3.96547 0.300365
15.1896 -3.52256 0.428365
16.0356 -3.70486 0.427365
13.6626 -0.291806 1.94537
13.9406 0.0524835 2.27437
14.0706 0.474164 2.57337
15.0236 0.319164 1.64837
14.6916 -0.0388965 1.49337
14.2376 -0.350196 1.27137
14.5776 1.41187 3.54237
14.1906 0.954104 2.96537
15.9326 1.0373 2.34637
15.3776 0.693244 1.88537
17.1336 0.353264 1.25737
16.4406 0.112724 0.912365
15.9036 -0.152336 0.817365
14.7676 -0.662646 0.677365
15.3906 -0.418576 0.797365
13.0416 -1.86853 7.04637
13.0306 -2.3107 7.48637
13.4446 -2.51445 7.95837
13.6796 -1.93028 7.54837
14.0636 -2.57191 8.60237
14.3696 -1.93907 8.21537
14.6536 -1.12284 7.82937
13.8936 -1.17605 7.13837
13.1916 -1.17242 6.62637
14.6986 -2.38417 9.20137
15.1446 -2.0911 9.58137
15.5286 -1.61036 9.51037
15.0346 -1.7896 8.89037
15.8606 -0.895316 9.27137
15.3486 -1.02498 8.58037
15.9606 -0.165866 8.89537
15.8746 0.344084 8.54537
15.5586 0.480054 7.98337
15.5026 -0.228796 8.22637
14.9886 0.504174 7.29537
14.8736 -0.261956 7.50337
14.3066 0.350064 6.74237
13.7636 0.124924 6.45437
13.4776 -0.423746 6.43437
14.1496 -0.369326 6.88537
18.6586 -5.60277 2.05437
17.3626 -5.76268 3.38837
19.6646 -5.64377 3.06137
18.3926 -5.7868 4.40537
16.8736 -5.41645 5.96937
15.7956 -5.40365 4.92837
20.3506 -5.32985 4.15937
19.2526 -5.46349 5.42937
17.9296 -5.11295 6.95137
15.1346 -3.71469 9.68336
16.4436 -4.44054 8.45837
14.0076 -4.0126 8.75137
15.3086 -4.73965 7.50237
12.8706 -3.9571 7.68337
14.1756 -4.71 6.43837
19.1066 -0.530456 1.14537
19.6706 -1.94351 0.707365
20.1146 -0.505446 2.15737
20.6956 -1.9463 1.73437
20.8366 -3.46015 1.75737
19.7956 -3.43322 0.713365
20.7946 -0.631406 3.30137
21.3756 -1.96521 2.97137
21.5486 -3.35189 3.05337
21.1616 -4.54971 3.40837
20.4856 -4.78043 2.18937
19.4636 -4.73963 1.16237
14.3736 1.989 5.49137
15.5106 1.76707 4.39837
15.5496 2.1902 6.49037
16.6546 1.909 5.43837
17.9386 1.3898 4.22337
16.8676 1.30528 3.17337
16.5536 2.0492 7.59637
17.6746 1.72697 6.56637
18.9056 1.18347 5.35337
19.9586 0.407754 4.18037
19.1436 0.595784 3.05737
18.1186 0.545954 2.02837
11.4816 -2.93 7.43737
11.2086 -1.9605 6.68937
11.4386 -2.61708 7.80637
11.2286 -1.7574 7.00737
11.3916 -0.685636 6.42537
11.3666 -0.758296 6.13437
11.5586 -2.46074 7.92037
11.7716 -2.42723 7.86537
11.5986 -1.67883 7.12237
11.3766 -1.67086 7.13637
11.7486 -0.743706 6.58537
11.5346 -0.683976 6.56937
12.1716 0.219864 6.31937
12.8216 1.05359 6.39237
12.6666 1.21263 6.36437
11.9816 0.332864 6.28837
12.6146 1.34111 6.15137
11.8716 0.406054 6.10237
12.7196 1.42049 5.67837
11.8926 0.430084 5.72037
15.3176 -2.55754 10.9334
14.3446 -3.20383 10.3554
14.8866 -2.26631 11.1474
13.9606 -2.8778 10.6084
12.9756 -3.15048 9.76836
13.2786 -3.49154 9.46636
14.7456 -2.13061 11.0774
14.7936 -2.11385 10.8604
13.9646 -2.65963 10.3814
13.8706 -2.70645 10.5734
13.0926 -2.90332 9.63136
12.9516 -2.96347 9.78236
12.3156 -2.83063 8.74736
12.1326 -2.88659 8.85037
12.0786 -3.07251 8.78036
12.2486 -3.4203 8.42837
16.4806 1.6667 9.25237
16.7036 0.753363 10.1174
16.0356 1.65949 9.50337
16.2346 0.814004 10.3334
16.0756 -0.241446 10.9344
16.5496 -0.384646 10.7374
15.8436 1.54172 9.51237
15.8336 1.36598 9.37737
16.0086 0.617754 10.1214
16.0266 0.752014 10.2974
15.8616 -0.317036 10.6624
15.8726 -0.234516 10.8684
15.4416 -1.28028 10.9314
15.4286 -1.25101 11.1524
15.6086 -1.32787 11.2304
16.0696 -1.55305 11.0354
13.7816 2.0287 6.23937
13.5616 1.943 6.68437
14.5526 2.2039 7.53037
14.8826 2.2704 7.16537
13.6496 1.59921 6.86937
13.5396 1.7883 6.86737
14.5176 1.8426 7.61537
14.4556 2.045 7.65437
15.2916 1.76954 8.49637
15.2716 1.9677 8.58436
15.4256 2.1161 8.51937
15.8286 2.1611 8.21837
12.0076 -2.48276 7.73137
11.8406 -1.75925 7.01337
12.2966 -2.52865 7.58637
12.1396 -1.84254 6.89837
12.2796 -0.984986 6.40037
11.9846 -0.855177 6.49337
12.6666 -2.46621 7.49737
12.5346 -1.85913 6.86937
12.6676 -1.09973 6.41337
13.5306 0.398504 6.28437
13.0056 -0.298026 6.20937
13.2626 0.672984 6.23037
12.6666 -0.0965165 6.16037
13.0226 0.882533 6.30737
12.3946 0.0764235 6.23737
14.9306 -2.17943 10.6284
14.1286 -2.70717 10.1644
15.0776 -2.23991 10.3424
14.3176 -2.74529 9.89837
13.5176 -2.97252 9.20537
13.2856 -2.94288 9.43937
15.1546 -2.20785 9.96337
14.4836 -2.67018 9.55737
13.7786 -2.88263 8.92937
13.1276 -2.81101 8.21337
12.7996 -2.90281 8.39537
12.5336 -2.87269 8.58436
15.9366 1.1849 9.19437
16.1056 0.461554 9.91436
16.0346 0.960844 8.97836
16.1996 0.270284 9.66137
16.0686 -0.591567 10.1554
15.9636 -0.442196 10.4364
16.0126 0.656184 8.74337
16.1726 0.0308235 9.34737
16.0676 -0.746727 9.78137
15.7056 -1.52983 10.0124
15.6776 -1.47515 10.4054
15.5576 -1.37348 10.6964
13.8236 1.41012 6.76837
14.0276 1.17362 6.66637
14.8306 1.39596 7.35037
14.6636 1.6455 7.49037
14.2276 0.842333 6.66437
14.9566 1.03616 7.26537
15.5786 0.982704 8.00337
15.5386 1.33055 8.16436
15.4116 1.57499 8.34337
9.76363 -3.40567 1.50237
9.90463 -2.07402 1.38737
10.0786 -1.01722 0.244365
9.99463 -1.46065 0.904365
10.1446 -0.844936 -0.514635
10.1866 -0.919556 -1.27363
10.1806 -0.862836 -1.29763
10.1376 -0.783706 -0.511635
10.1776 -1.71248 -2.40063
10.1996 -1.21683 -1.93463
10.1936 -1.17153 -1.98363
10.1166 -2.38225 -2.57163
10.0306 -3.10474 -2.46663
10.0206 -3.12192 -2.53863
10.1086 -2.37637 -2.64563
9.85063 -4.22213 -1.50563
9.93763 -3.7585 -2.10463
9.83463 -4.27276 -1.54663
9.92363 -3.79581 -2.16663
9.78663 -4.37421 -0.685635
9.74863 -4.25919 0.194365
9.76863 -4.42747 -0.698635
11.0336 -3.32868 2.14737
11.0296 -2.7077 2.24137
11.6296 -3.28604 2.60637
11.5826 -2.65552 2.69737
11.6616 -1.98076 2.50737
11.1076 -2.04653 2.04037
12.1586 -3.25233 3.12337
12.0586 -2.58999 3.22237
12.1376 -1.88059 3.03937
12.6916 -0.748446 2.09437
12.3606 -1.2311 2.64037
12.0846 -0.905347 1.54837
11.8376 -1.36347 2.10137
11.4276 -1.0007 1.03937
11.2476 -1.44445 1.61737
11.6256 -0.814546 0.378365
12.3756 -0.708086 0.915365
12.6686 -0.751916 0.283365
11.8156 -0.865466 -0.280635
13.0976 -0.539586 1.46537
13.5196 -0.584017 0.834365
14.1856 -1.35069 -0.109635
13.9016 -0.861216 0.283365
13.1066 -1.48373 -0.655635
12.9256 -1.01706 -0.266635
12.0726 -1.59646 -1.25763
11.9736 -1.13295 -0.854635
12.0866 -2.23548 -1.40563
13.1716 -2.13216 -0.800635
13.1306 -2.84272 -0.715635
12.0286 -2.93271 -1.31363
14.3146 -2.0319 -0.261635
14.2936 -2.77905 -0.187635
13.8276 -3.96783 0.595365
14.1296 -3.4663 0.102365
12.7616 -3.97185 0.0823652
12.9906 -3.49582 -0.416635
11.7386 -4.03264 -0.474635
11.9086 -3.57086 -0.998635
11.5306 -4.20075 0.240365
12.4536 -4.1512 0.769365
12.1226 -4.07156 1.50737
11.3206 -4.11376 1.00837
13.3926 -4.15781 1.27837
12.9116 -4.07563 2.01737
12.4716 -3.76067 2.67737
11.8286 -3.77061 2.16437
11.1426 -3.81022 1.69037
3 0 1 2
3 0 2 3
3 2 4 5
3 2 5 3
3 5 6 7
3 5 7 3
3 7 8 0
3 7 0 3
3 9 10 11
3 9 11 12
3 11 13 14
3 11 14 12
3 14 6 5
3 14 5 12
3 5 4 9
3 5 9 12
3 15 16 17
3 15 17 18
3 17 19 20
3 17 20 18
3 20 6 14
3 20 14 18
3 14 13 15
3 14 15 18
3 21 22 23
3 21 23 24
3 23 8 7
3 23 7 24
3 7 6 20
3 7 20 24
3 20 19 21
3 20 21 24
3 25 26 27
3 25 27 28
3 27 29 30
3 27 30 28
3 30 31 32
3 30 32 28
3 32 33 25
3 32 25 28
3 34 35 36
3 34 36 37
3 36 38 39
3 36 39 37
3 39 31 30
3 39 30 37
3 30 29 34
3 30 34 37
3 40 41 42
3 40 42 43
3 42 44 45
3 42 45 43
3 45 31 39
3 45 39 43
3 39 38 40
3 39 40 43
3 46 47 48
3 46 48 49
3 48 33 32
3 48 32 49
3 32 31 45
3 32 45 49
3 45 44 46
3 45 46 49
3 50 51 52
3 50 52 53
3 52 54 55
3 52 55 53
3 55 56 57
3 55 57 53
3 57 58 50
3 57 50 53
3 59 60 61
3 59 61 62
3 61 63 64
3 61 64 62
3 64 56 55
3 64 55 62
3 55 54 59
3 55 59 62
3 65 35 34
3 65 34 66
3 34 29 67
3 34 67 66
3 67 56 64
3 67 64 66
3 64 63 65
3 64 65 66
3 27 26 68
3 27 68 69
3 68 58 57
3 68 57 69
3 57 56 67
3 57 67 69
3 67 29 27
3 67 27 69
3 70 71 72
3 70 72 73
3 72 74 75
3 72 75 73
3 75 76 77
3 75 77 73
3 77 78 70
3 77 70 73
3 79 80 81
3 79 81 82
3 81 83 84
3 81 84 82
3 84 76 75
3 84 75 82
3 75 74 79
3 75 79 82
3 85 60 59
3 85 59 86
3 59 54 87
3 59 87 86
3 87 76 84
3 87 84 86
3 84 83 85
3 84 85 86
3 52 51 88
3 52 88 89
3 88 78 77
3 88 77 89
3 77 76 87
3 77 87 89
3 87 54 52
3 87 52 89
3 90 47 46
3 90 46 91
3 46 44 92
3 46 92 91
3 92 93 94
3 92 94 91
3 94 95 90
3 94 90 91
3 42 41 96
3 42 96 97
3 96 98 99
3 96 99 97
3 99 93 92
3 99 92 97
3 92 44 42
3 92 42 97
3 100 80 79
3 100 79 101
3 79 74 102
3 79 102 101
3 102 93 99
3 102 99 101
3 99 98 100
3 99 100 101
3 72 71 103
3 72 103 104
3 103 95 94
3 103 94 104
3 94 93 102
3 94 102 104
3 102 74 72
3 102 72 104
3 105 106 107
3 105 107 108
3 107 109 110
3 107 110 108
3 110 111 112
3 110 112 108
3 112 113 105
3 112 105 108
3 114 115 116
3 114 116 117
3 116 118 119
3 116 119 117
3 119 111 110
3 119 110 117
3 110 109 114
3 110 114 117
3 120 121 122
3 120 122 123
3 122 124 125
3 122 125 123
3 125 111 119
3 125 119 123
3 119 118 120
3 119 120 123
3 126 127 128
3 126 128 129
3 128 113 112
3 128 112 129
3 112 111 125
3 112 125 129
3 125 124 126
3 125 126 129
3 130 131 132
3 130 132 133
3 132 134 135
3 132 135 133
3 135 136 137
3 135 137 133
3 137 138 130
3 137 130 133
3 139 140 141
3 139 141 142
3 141 143 144
3 141 144 142
3 144 136 135
3 144 135 142
3 135 134 139
3 135 139 142
3 145 115 114
3 145 114 146
3 114 109 147
3 114 147 146
3 147 136 144
3 147 144 146
3 144 143 145
3 144 145 146
3 107 106 148
3 107 148 149
3 148 138 137
3 148 137 149
3 137 136 147
3 137 147 149
3 147 109 107
3 147 107 149
3 150 151 152
3 150 152 153
3 152 154 155
3 152 155 153
3 155 156 157
3 155 157 153
3 157 158 150
3 157 150 153
3 159 160 161
3 159 161 162
3 161 163 164
3 161 164 162
3 164 156 155
3 164 155 162
3 155 154 159
3 155 159 162
3 165 140 139
3 165 139 166
3 139 134 167
3 139 167 166
3 167 156 164
3 167 164 166
3 164 163 165
3 164 165 166
3 132 131 168
3 132 168 169
3 168 158 157
3 168 157 169
3 157 156 167
3 157 167 169
3 167 134 132
3 167 132 169
3 170 127 126
3 170 126 171
3 126 124 172
3 126 172 171
3 172 173 174
3 172 174 171
3 174 175 170
3 174 170 171
3 122 121 176
3 122 176 177
3 176 178 179
3 176 179 177
3 179 173 172
3 179 172 177
3 172 124 122
3 172 122 177
3 180 160 159
3 180 159 181
3 159 154 182
3 159 182 181
3 182 173 179
3 182 179 181
3 179 178 180
3 179 180 181
3 152 151 183
3 152 183 184
3 183 175 174
3 183 174 184
3 174 173 182
3 174 182 184
3 182 154 152
3 182 152 184
3 185 186 187
3 185 187 188
3 187 189 190
3 187 190 188
3 190 191 192
3 190 192 188
3 192 193 185
3 192 185 188
3 194 195 196
3 194 196 197
3 196 198 199
3 196 199 197
3 199 191 190
3 199 190 197
3 190 189 194
3 190 194 197
3 200 201 202
3 200 202 203
3 202 204 205
3 202 205 203
3 205 191 199
3 205 199 203
3 199 198 200
3 199 200 203
3 206 207 208
3 206 208 209
3 208 193 192
3 208 192 209
3 192 191 205
3 192 205 209
3 205 204 206
3 205 206 209
3 141 140 210
3 141 210 211
3 210 212 213
3 210 213 211
3 213 214 215
3 213 215 211
3 215 143 141
3 215 141 211
3 216 10 9
3 216 9 217
3 9 4 218
3 9 218 217
3 218 214 213
3 218 213 217
3 213 212 216
3 213 216 217
3 2 1 219
3 2 219 220
3 219 221 222
3 219 222 220
3 222 214 218
3 222 218 220
3 218 4 2
3 218 2 220
3 223 115 145
3 223 145 224
3 145 143 215
3 145 215 224
3 215 214 222
3 215 222 224
3 222 221 223
3 222 223 224
3 161 160 225
3 161 225 226
3 225 227 228
3 225 228 226
3 228 229 230
3 228 230 226
3 230 163 161
3 230 161 226
3 231 16 15
3 231 15 232
3 15 13 233
3 15 233 232
3 233 229 228
3 233 228 232
3 228 227 231
3 228 231 232
3 11 10 216
3 11 216 234
3 216 212 235
3 216 235 234
3 235 229 233
3 235 233 234
3 233 13 11
3 233 11 234
3 210 140 165
3 210 165 236
3 165 163 230
3 165 230 236
3 230 229 235
3 230 235 236
3 235 212 210
3 235 210 236
3 176 121 237
3 176 237 238
3 237 239 240
3 237 240 238
3 240 241 242
3 240 242 238
3 242 178 176
3 242 176 238
3 243 22 21
3 243 21 244
3 21 19 245
3 21 245 244
3 245 241 240
3 245 240 244
3 240 239 243
3 240 243 244
3 17 16 231
3 17 231 246
3 231 227 247
3 231 247 246
3 247 241 245
3 247 245 246
3 245 19 17
3 245 17 246
3 225 160 180
3 225 180 248
3 180 178 242
3 180 242 248
3 242 241 247
3 242 247 248
3 247 227 225
3 247 225 248
3 116 115 249
3 116 249 250
3 249 251 252
3 249 252 250
3 252 253 254
3 252 254 250
3 254 118 116
3 254 116 250
3 255 256 257
3 255 257 258
3 257 259 260
3 257 260 258
3 260 253 252
3 260 252 258
3 252 251 255
3 252 255 258
3 261 262 263
3 261 263 264
3 263 265 266
3 263 266 264
3 266 253 260
3 266 260 264
3 260 259 261
3 260 261 264
3 267 121 120
3 267 120 268
3 120 118 254
3 120 254 268
3 254 253 266
3 254 266 268
3 266 265 267
3 266 267 268
3 219 1 269
3 219 269 270
3 269 271 272
3 269 272 270
3 272 273 274
3 272 274 270
3 274 221 219
3 274 219 270
3 275 276 277
3 275 277 278
3 277 279 280
3 277 280 278
3 280 273 272
3 280 272 278
3 272 271 275
3 272 275 278
3 281 256 255
3 281 255 282
3 255 251 283
3 255 283 282
3 283 273 280
3 283 280 282
3 280 279 281
3 280 281 282
3 249 115 223
3 249 223 284
3 223 221 274
3 223 274 284
3 274 273 283
3 274 283 284
3 283 251 249
3 283 249 284
3 23 22 285
3 23 285 286
3 285 287 288
3 285 288 286
3 288 289 290
3 288 290 286
3 290 8 23
3 290 23 286
3 291 292 293
3 291 293 294
3 293 295 296
3 293 296 294
3 296 289 288
3 296 288 294
3 288 287 291
3 288 291 294
3 297 276 275
3 297 275 298
3 275 271 299
3 275 299 298
3 299 289 296
3 299 296 298
3 296 295 297
3 296 297 298
3 269 1 0
3 269 0 300
3 0 8 290
3 0 290 300
3 290 289 299
3 290 299 300
3 299 271 269
3 299 269 300
3 237 121 267
3 237 267 301
3 267 265 302
3 267 302 301
3 302 303 304
3 302 304 301
3 304 239 237
3 304 237 301
3 263 262 305
3 263 305 306
3 305 307 308
3 305 308 306
3 308 303 302
3 308 302 306
3 302 265 263
3 302 263 306
3 309 292 291
3 309 291 310
3 291 287 311
3 291 311 310
3 311 303 308
3 311 308 310
3 308 307 309
3 308 309 310
3 285 22 243
3 285 243 312
3 243 239 304
3 243 304 312
3 304 303 311
3 304 311 312
3 311 287 285
3 311 285 312
3 257 256 313
3 257 313 314
3 313 315 316
3 313 316 314
3 316 317 318
3 316 318 314
3 318 259 257
3 318 257 314
3 319 186 185
3 319 185 320
3 185 193 321
3 185 321 320
3 321 317 316
3 321 316 320
3 316 315 319
3 316 319 320
3 208 207 322
3 208 322 323
3 322 324 325
3 322 325 323
3 325 317 321
3 325 321 323
3 321 193 208
3 321 208 323
3 326 262 261
3 326 261 327
3 261 259 318
3 261 318 327
3 318 317 325
3 318 325 327
3 325 324 326
3 325 326 327
3 277 276 328
3 277 328 329
3 328 330 331
3 328 331 329
3 331 332 333
3 331 333 329
3 333 279 277
3 333 277 329
3 334 195 194
3 334 194 335
3 194 189 336
3 194 336 335
3 336 332 331
3 336 331 335
3 331 330 334
3 331 334 335
3 187 186 319
3 187 319 337
3 319 315 338
3 319 338 337
3 338 332 336
3 338 336 337
3 336 189 187
3 336 187 337
3 313 256 281
3 313 281 339
3 281 279 333
3 281 333 339
3 333 332 338
3 333 338 339
3 338 315 313
3 338 313 339
3 293 292 340
3 293 340 341
3 340 342 343
3 340 343 341
3 343 344 345
3 343 345 341
3 345 295 293
3 345 293 341
3 346 201 200
3 346 200 347
3 200 198 348
3 200 348 347
3 348 344 343
3 348 343 347
3 343 342 346
3 343 346 347
3 196 195 334
3 196 334 349
3 334 330 350
3 334 350 349
3 350 344 348
3 350 348 349
3 348 198 196
3 348 196 349
3 328 276 297
3 328 297 351
3 297 295 345
3 297 345 351
3 345 344 350
3 345 350 351
3 350 330 328
3 350 328 351
3 305 262 326
3 305 326 352
3 326 324 353
3 326 353 352
3 353 354 355
3 353 355 352
3 355 307 305
3 355 305 352
3 322 207 206
3 322 206 356
3 206 204 357
3 206 357 356
3 357 354 353
3 357 353 356
3 353 324 322
3 353 322 356
3 202 201 346
3 202 346 358
3 346 342 359
3 346 359 358
3 359 354 357
3 359 357 358
3 357 204 202
3 357 202 358
3 340 292 309
3 340 309 360
3 309 307 355
3 309 355 360
3 355 354 359
3 355 359 360
3 359 342 340
3 359 340 360
3 361 26 25
3 25 33 362
3 48 47 363
3 48 363 364
3 362 33 48
3 362 48 364
3 363 47 90
3 363 90 365
3 90 95 366
3 90 366 365
3 366 367 368
3 366 368 365
3 368 363 365
3 103 71 369
3 103 369 370
3 369 371 370
3 371 367 366
3 371 366 370
3 366 95 103
3 366 103 370
3 369 71 70
3 369 70 372
3 70 78 373
3 70 373 372
3 373 374 375
3 373 375 372
3 375 369 372
3 88 51 376
3 88 376 377
3 376 378 379
3 376 379 377
3 379 374 373
3 379 373 377
3 373 78 88
3 373 88 377
3 376 51 50
3 376 50 380
3 50 58 381
3 50 381 380
3 381 382 380
3 382 378 376
3 382 376 380
3 68 26 361
3 381 58 68
3 36 35 383
3 36 383 384
3 383 385 386
3 383 386 384
3 386 387 388
3 386 388 384
3 388 38 36
3 388 36 384
3 389 106 105
3 389 105 390
3 105 113 391
3 105 391 390
3 391 387 386
3 391 386 390
3 386 385 389
3 386 389 390
3 128 127 392
3 128 392 393
3 392 394 395
3 392 395 393
3 395 387 391
3 395 391 393
3 391 113 128
3 391 128 393
3 396 41 40
3 396 40 397
3 40 38 388
3 40 388 397
3 388 387 395
3 388 395 397
3 395 394 396
3 395 396 397
3 96 41 396
3 96 396 398
3 396 394 399
3 396 399 398
3 399 400 401
3 399 401 398
3 401 98 96
3 401 96 398
3 392 127 170
3 392 170 402
3 170 175 403
3 170 403 402
3 403 400 399
3 403 399 402
3 399 394 392
3 399 392 402
3 183 151 404
3 183 404 405
3 404 406 407
3 404 407 405
3 407 400 403
3 407 403 405
3 403 175 183
3 403 183 405
3 408 80 100
3 408 100 409
3 100 98 401
3 100 401 409
3 401 400 407
3 401 407 409
3 407 406 408
3 407 408 409
3 81 80 408
3 81 408 410
3 408 406 411
3 408 411 410
3 411 412 413
3 411 413 410
3 413 83 81
3 413 81 410
3 404 151 150
3 404 150 414
3 150 158 415
3 150 415 414
3 415 412 411
3 415 411 414
3 411 406 404
3 411 404 414
3 168 131 416
3 168 416 417
3 416 418 419
3 416 419 417
3 419 412 415
3 419 415 417
3 415 158 168
3 415 168 417
3 420 60 85
3 420 85 421
3 85 83 413
3 85 413 421
3 413 412 419
3 413 419 421
3 419 418 420
3 419 420 421
3 61 60 420
3 61 420 422
3 420 418 423
3 420 423 422
3 423 424 425
3 423 425 422
3 425 63 61
3 425 61 422
3 416 131 130
3 416 130 426
3 130 138 427
3 130 427 426
3 427 424 423
3 427 423 426
3 423 418 416
3 423 416 426
3 148 106 389
3 148 389 428
3 389 385 429
3 389 429 428
3 429 424 427
3 429 427 428
3 427 138 148
3 427 148 428
3 383 35 65
3 383 65 430
3 65 63 425
3 65 425 430
3 425 424 429
3 425 429 430
3 429 385 383
3 429 383 430
