OFF
340 662 0
10.9423 4.82762 -19.5887
11.0463 5.00572 -19.4001
11.2263 5.04292 -19.5876
11.1633 4.78812 -19.933
11.4663 5.02442 -19.6746
11.4183 4.74622 -20.043
11.3523 4.42302 -20.1605
11.0833 4.49182 -20.0444
10.8513 4.55782 -19.6771
11.6833 4.93132 -19.5711
11.8173 4.81742 -19.3723
11.8483 4.60622 -19.556
11.6573 4.66752 -19.9152
11.8243 4.32012 -19.642
11.6143 4.36222 -20.0252
11.7283 4.05632 -19.5419
11.6133 3.89042 -19.3485
11.4443 3.84092 -19.5431
11.5273 4.07332 -19.8999
11.2093 3.85352 -19.6445
11.2783 4.10782 -20.0266
10.9873 3.95262 -19.5596
10.8433 4.07862 -19.3763
10.8223 4.27772 -19.5746
11.0333 4.19402 -19.9178
10.0963 0.971316 1.92608
10.0533 0.944916 1.74768
9.88933 0.741316 1.90938
9.58933 1.01452 0.379876
9.78833 0.751116 1.57348
9.27333 0.567116 0.384776
9.76633 0.465416 1.89978
9.63533 0.202916 1.58668
9.32033 0.0501158 0.403576
9.76933 -0.0686842 1.77028
9.73033 0.173416 1.92318
9.79833 -0.108184 1.95218
11.2023 0.757116 1.96438
11.1013 0.744116 1.77798
10.9073 0.926116 1.78248
10.9913 0.953416 1.94938
10.6903 1.03772 1.91888
10.5893 0.823316 0.412476
10.5673 1.03542 1.58648
10.2693 1.04412 1.57778
10.3883 1.04492 1.92368
11.1023 -0.0912842 1.98028
11.1353 0.204116 1.74808
11.2543 0.178216 1.98428
10.9623 -0.0507842 1.63238
10.6373 0.306416 0.431176
10.8943 -0.303684 1.98578
10.7563 -0.251984 1.63288
10.6643 0.578216 0.420176
11.1933 0.484516 1.81938
11.3043 0.484716 1.98848
10.0163 -0.280284 1.94558
9.91233 -0.234984 1.60848
10.1833 -0.335084 1.61938
10.2953 -0.385584 1.95298
10.5893 -0.386184 1.93018
10.4813 -0.343784 1.62808
8.88233 1.15262 -3.49832
9.04933 1.31482 -3.49872
9.20033 1.50862 -5.33472
9.05233 1.36332 -5.33432
9.49633 1.76472 -7.30122
9.36633 1.63762 -7.30092
9.28833 1.47012 -7.29772
8.96233 1.17192 -5.33072
8.78233 0.938916 -3.49432
9.86333 2.09192 -9.25952
10.2243 2.49922 -11.0708
10.1263 2.40322 -11.0705
9.75033 1.98202 -9.25922
10.0673 2.27682 -11.0681
9.68233 1.83722 -9.25652
10.0533 2.14172 -11.0642
10.0903 2.01982 -11.0593
9.70933 1.54292 -9.24632
9.66633 1.68262 -9.25202
9.31933 1.12982 -7.28602
9.26933 1.29132 -7.29262
8.99733 0.782816 -5.31732
8.82233 0.504516 -3.47932
8.75933 0.710616 -3.48772
8.94133 0.967416 -5.32482
9.72933 1.30112 -3.47902
9.88933 1.15412 -3.46982
9.95433 1.36472 -5.30882
9.81033 1.49642 -5.31712
10.1553 1.63882 -7.27852
10.0303 1.75402 -7.28582
9.85833 1.81722 -7.29262
9.61433 1.56862 -5.32492
9.51033 1.38182 -3.48782
10.4323 1.98302 -9.23992
10.7223 2.40412 -11.0536
10.6273 2.49112 -11.0591
10.3243 2.08262 -9.24612
10.4973 2.53892 -11.0643
10.1753 2.13732 -9.25212
10.3563 2.54302 -11.0684
10.0133 2.14202 -9.25682
9.67033 1.82272 -7.29812
9.27133 1.38882 -3.49482
9.39933 1.57492 -5.33122
9.82933 0.506116 -3.45082
9.66333 0.343816 -3.45042
9.75133 0.638816 -5.29142
9.89933 0.784216 -5.29182
9.97833 1.00382 -7.26332
10.1083 1.13102 -7.26372
10.1863 1.29842 -7.26682
9.98933 0.975616 -5.29542
9.92933 0.719716 -3.45482
10.2793 1.43402 -9.22672
10.5883 1.92472 -11.0422
10.6863 2.02072 -11.0424
10.3913 1.54402 -9.22702
10.7453 2.14712 -11.0448
10.4593 1.68872 -9.22972
10.7593 2.28222 -11.0487
10.4753 1.84342 -9.23422
10.2053 1.47732 -7.27202
9.95333 0.948016 -3.46142
10.0103 1.18012 -5.30132
8.98233 0.357516 -3.47012
9.14133 0.651116 -5.30912
9.44433 1.01462 -7.27882
9.61633 0.951416 -7.27192
9.33733 0.578916 -5.30122
9.20133 0.276916 -3.46132
10.1853 1.93282 -11.0538
9.81733 1.44332 -9.24012
10.3153 1.88512 -11.0486
9.96633 1.38872 -9.23412
10.4563 1.88092 -11.0445
10.1283 1.38392 -9.22942
9.80433 0.945916 -7.26642
9.44133 0.269916 -3.45432
9.55233 0.572616 -5.29492
10.5083 2.99562 -12.5963
10.4183 2.90792 -12.5961
10.7183 3.52722 -13.8394
10.6313 3.44112 -13.8391
10.5783 3.32772 -13.837
10.3643 2.79252 -12.5939
10.8623 4.04052 -14.8032
10.9443 4.48172 -15.4909
10.8413 4.37342 -15.4904
10.7703 3.94792 -14.8028
10.7803 4.23072 -15.4876
10.7153 3.82602 -14.8005
10.7653 4.07812 -15.4831
10.8043 3.94032 -15.4776
10.7373 3.57802 -14.792
10.7023 3.69572 -14.7967
10.5993 3.09722 -13.8291
10.5663 3.20662 -13.8335
10.3853 2.55792 -12.5858
10.3513 2.66922 -12.5904
10.9623 2.90872 -12.5807
10.8753 2.98822 -12.5857
11.1613 3.44182 -13.8241
11.0763 3.51992 -13.829
10.9613 3.56272 -13.8337
10.7573 3.03172 -12.5904
11.3263 3.94842 -14.7871
11.4663 4.37342 -15.4727
11.3663 4.47182 -15.4787
11.2373 4.03242 -14.7923
11.2303 4.52602 -15.4842
11.1173 4.07852 -14.7972
11.0823 4.53092 -15.4886
10.9843 4.08262 -14.8011
10.8353 3.56642 -13.8373
10.6283 3.03552 -12.5942
10.8403 2.47102 -12.5702
10.9293 2.55872 -12.5705
11.0413 3.01182 -13.8138
11.1293 3.09792 -13.8141
11.1813 3.21132 -13.8162
10.9833 2.67412 -12.5726
11.4193 3.92342 -15.4387
11.4913 4.08302 -15.4627
11.3483 3.70042 -14.7786
11.3183 3.82592 -15.4583
11.5053 4.23562 -15.4672
11.3613 3.83072 -14.7824
11.1943 3.33252 -13.8197
10.9963 2.79742 -12.5762
10.4723 2.47842 -12.5809
10.6833 3.01922 -13.8242
10.7993 2.97632 -13.8196
10.5903 2.43492 -12.5761
10.9093 3.83212 -15.4576
11.0473 3.78722 -15.4699
10.9253 2.97262 -13.8159
11.1903 3.78592 -15.4711
10.7203 2.43112 -12.5723
10.9713 4.79722 -15.9058
10.8323 4.79602 -16.0993
10.9613 5.00822 -16.1823
10.6723 4.68422 -16.4355
10.7763 4.48532 -15.9014
10.9353 5.13632 -16.4547
10.9103 5.20292 -16.8575
10.7253 4.97932 -16.8556
10.7683 4.93902 -16.4531
10.6143 4.68422 -16.8493
10.5893 4.36842 -16.84
10.6603 4.08292 -16.8288
10.7473 4.18532 -16.189
10.6453 4.39982 -16.4394
10.7503 4.35352 -15.9946
10.8063 4.12432 -15.889
11.6783 4.83752 -16.1406
11.5533 4.99812 -16.1747
11.3633 5.07962 -16.1825
11.7833 4.93622 -16.4243
11.8543 4.97572 -16.8235
11.6743 5.18012 -16.8351
11.6203 5.11652 -16.4346
11.4283 5.29292 -16.8457
11.3993 5.21602 -16.4441
11.1593 5.30402 -16.8536
11.1583 5.22562 -16.4512
11.1583 5.08912 -16.19
11.4243 3.98892 -15.8672
11.5843 4.17052 -15.965
11.5233 4.00622 -16.1601
11.8233 4.41362 -16.3945
11.6183 4.30082 -15.8717
11.6043 3.85572 -16.7948
11.7903 4.07932 -16.7967
11.7243 4.14512 -16.4007
11.9013 4.37442 -16.803
11.9263 4.69022 -16.8123
11.8473 4.68432 -16.4144
11.7013 4.58812 -16.0375
10.9243 4.00172 -15.8818
10.9023 4.02782 -16.1453
11.0953 3.94162 -16.134
11.0853 3.93432 -15.8751
10.8413 3.87852 -16.8172
11.0873 3.76572 -16.8066
11.3563 3.75462 -16.7987
11.3103 3.93422 -16.1293
11.2613 3.92792 -15.8699
10.9083 5.22922 -17.525
10.7113 4.98992 -17.5229
10.9313 5.20452 -18.2846
10.7353 4.96502 -18.2954
10.6183 4.64902 -18.3016
10.5933 4.67402 -17.5162
10.9843 5.11802 -18.9636
10.8063 4.89872 -19.0134
10.7003 4.61032 -19.0591
10.7443 4.02762 -18.9356
10.6763 4.30462 -18.9982
10.6683 4.00642 -18.2538
10.5923 4.31162 -18.2787
10.6433 4.03032 -17.4942
10.5673 4.33602 -17.5061
11.9103 4.98592 -17.4888
11.7183 5.20462 -17.5012
11.9283 4.96122 -18.2486
11.7383 5.17992 -18.2739
11.4783 5.30052 -18.298
11.4573 5.32552 -17.5125
11.8903 4.89662 -18.9308
11.7183 5.09542 -18.9939
11.4843 5.20462 -19.0558
11.2243 5.21612 -19.0117
11.1943 5.31252 -18.2935
11.1723 5.33742 -17.5209
11.6453 3.78702 -17.4581
11.8413 4.02622 -17.4602
11.6643 3.76322 -18.2178
11.8613 4.00192 -18.2328
11.9793 4.31702 -18.2525
11.9593 4.34222 -17.4669
11.6503 3.80622 -18.9028
11.8313 4.02222 -18.9565
11.9403 4.30732 -19.0143
11.9623 4.61632 -18.9717
12.0053 4.65522 -18.2496
11.9863 4.68022 -17.4769
10.8353 3.81152 -17.4818
10.8593 3.78702 -18.2544
11.1193 3.66562 -18.2561
11.0963 3.69062 -17.4706
10.9193 3.82552 -18.976
11.1563 3.71302 -19.0176
11.4133 3.70482 -18.9582
11.4023 3.65432 -18.2347
11.3813 3.67882 -17.4621
10.4003 0.998216 0.403276
10.2843 0.893416 -0.604824
10.1013 1.06172 -0.615424
9.85033 1.15402 -0.625424
10.1393 1.09422 0.392876
10.0253 1.00032 -1.90072
9.85233 1.15942 -1.91062
9.61533 1.24672 -1.92012
9.11533 1.17432 -1.93202
9.35533 1.25432 -1.92772
9.32233 1.07742 -0.638024
9.57633 1.16202 -0.633524
9.85433 1.10262 0.384476
9.39233 0.821416 0.380376
9.13233 0.891716 -0.637424
9.01733 0.647116 -0.632924
8.93533 0.998716 -1.93152
8.82733 0.767516 -1.92722
8.87033 0.297516 -1.91102
8.80233 0.520516 -1.92002
9.06233 0.149916 -0.615724
8.99033 0.385816 -0.625324
9.24533 0.295416 0.392976
9.51033 -0.124784 0.413976
9.24633 -0.0183842 -0.605224
9.49633 -0.110684 -0.595124
9.77133 -0.220784 0.424376
9.04333 0.138416 -1.90102
9.28033 0.0511158 -1.89152
9.78033 0.123616 -1.87962
9.54033 0.0435158 -1.88392
10.0253 -0.0339842 -0.582624
9.77133 -0.118684 -0.587124
10.3203 -0.141084 0.437376
10.0563 -0.229084 0.432676
10.5183 0.0520158 0.436876
10.2153 0.151716 -0.583124
10.3293 0.396216 -0.587724
9.96033 0.299116 -1.88012
10.0683 0.530316 -1.88452
10.0933 0.777416 -1.89162
10.3563 0.657516 -0.595324
3 0 1 2
3 0 2 3
3 2 4 5
3 2 5 3
3 5 6 7
3 5 7 3
3 7 8 0
3 7 0 3
3 9 10 11
3 9 11 12
3 11 13 14
3 11 14 12
3 14 6 5
3 14 5 12
3 5 4 9
3 5 9 12
3 15 16 17
3 15 17 18
3 17 19 20
3 17 20 18
3 20 6 14
3 20 14 18
3 14 13 15
3 14 15 18
3 21 22 23
3 21 23 24
3 23 8 7
3 23 7 24
3 7 6 20
3 7 20 24
3 20 19 21
3 20 21 24
3 25 26 27
3 26 28 29
3 29 30 31
3 31 27 29
3 27 26 29
3 32 33 34
3 34 35 32
3 35 31 32
3 31 30 32
3 35 34 36
3 37 38 39
3 37 39 40
3 39 41 40
3 38 42 39
3 43 41 39
3 44 28 26
3 26 45 44
3 45 41 43
3 45 43 44
3 45 26 25
3 46 47 48
3 49 50 47
3 47 46 49
3 46 51 52
3 46 52 49
3 53 42 38
3 53 38 54
3 47 50 53
3 47 53 54
3 48 47 54
3 48 54 55
3 54 38 37
3 54 37 55
3 36 34 56
3 34 33 57
3 58 59 56
3 58 56 57
3 56 34 57
3 52 51 60
3 52 60 61
3 60 59 58
3 60 58 61
3 62 63 64
3 62 64 65
3 64 66 67
3 64 67 65
3 67 68 69
3 67 69 65
3 69 70 62
3 69 62 65
3 71 72 73
3 71 73 74
3 73 75 76
3 73 76 74
3 76 68 67
3 76 67 74
3 67 66 71
3 67 71 74
3 77 78 79
3 77 79 80
3 79 81 82
3 79 82 80
3 82 68 76
3 82 76 80
3 76 75 77
3 76 77 80
3 83 84 85
3 83 85 86
3 85 70 69
3 85 69 86
3 69 68 82
3 69 82 86
3 82 81 83
3 82 83 86
3 87 88 89
3 87 89 90
3 89 91 92
3 89 92 90
3 92 93 94
3 92 94 90
3 94 95 87
3 94 87 90
3 96 97 98
3 96 98 99
3 98 100 101
3 98 101 99
3 101 93 92
3 101 92 99
3 92 91 96
3 92 96 99
3 102 72 71
3 102 71 103
3 71 66 104
3 71 104 103
3 104 93 101
3 104 101 103
3 101 100 102
3 101 102 103
3 64 63 105
3 64 105 106
3 105 95 94
3 105 94 106
3 94 93 104
3 94 104 106
3 104 66 64
3 104 64 106
3 107 108 109
3 107 109 110
3 109 111 112
3 109 112 110
3 112 113 114
3 112 114 110
3 114 115 107
3 114 107 110
3 116 117 118
3 116 118 119
3 118 120 121
3 118 121 119
3 121 113 112
3 121 112 119
3 112 111 116
3 112 116 119
3 122 97 96
3 122 96 123
3 96 91 124
3 96 124 123
3 124 113 121
3 124 121 123
3 121 120 122
3 121 122 123
3 89 88 125
3 89 125 126
3 125 115 114
3 125 114 126
3 114 113 124
3 114 124 126
3 124 91 89
3 124 89 126
3 127 84 83
3 127 83 128
3 83 81 129
3 83 129 128
3 129 130 131
3 129 131 128
3 131 132 127
3 131 127 128
3 79 78 133
3 79 133 134
3 133 135 136
3 133 136 134
3 136 130 129
3 136 129 134
3 129 81 79
3 129 79 134
3 137 117 116
3 137 116 138
3 116 111 139
3 116 139 138
3 139 130 136
3 139 136 138
3 136 135 137
3 136 137 138
3 109 108 140
3 109 140 141
3 140 132 131
3 140 131 141
3 131 130 139
3 131 139 141
3 139 111 109
3 139 109 141
3 73 72 142
3 73 142 143
3 142 144 145
3 142 145 143
3 145 146 147
3 145 147 143
3 147 75 73
3 147 73 143
3 148 149 150
3 148 150 151
3 150 152 153
3 150 153 151
3 153 146 145
3 153 145 151
3 145 144 148
3 145 148 151
3 154 155 156
3 154 156 157
3 156 158 159
3 156 159 157
3 159 146 153
3 159 153 157
3 153 152 154
3 153 154 157
3 160 78 77
3 160 77 161
3 77 75 147
3 77 147 161
3 147 146 159
3 147 159 161
3 159 158 160
3 159 160 161
3 98 97 162
3 98 162 163
3 162 164 165
3 162 165 163
3 165 166 167
3 165 167 163
3 167 100 98
3 167 98 163
3 168 169 170
3 168 170 171
3 170 172 173
3 170 173 171
3 173 166 165
3 173 165 171
3 165 164 168
3 165 168 171
3 174 149 148
3 174 148 175
3 148 144 176
3 148 176 175
3 176 166 173
3 176 173 175
3 173 172 174
3 173 174 175
3 142 72 102
3 142 102 177
3 102 100 167
3 102 167 177
3 167 166 176
3 167 176 177
3 176 144 142
3 176 142 177
3 118 117 178
3 118 178 179
3 178 180 181
3 178 181 179
3 181 182 183
3 181 183 179
3 183 120 118
3 183 118 179
3 184 185 186
3 186 182 181
3 186 181 184
3 181 180 187
3 181 187 184
3 188 169 168
3 188 168 189
3 168 164 190
3 168 190 189
3 190 182 186
3 190 186 189
3 186 185 188
3 186 188 189
3 162 97 122
3 162 122 191
3 122 120 183
3 122 183 191
3 183 182 190
3 183 190 191
3 190 164 162
3 190 162 191
3 133 78 160
3 133 160 192
3 160 158 193
3 160 193 192
3 193 194 195
3 193 195 192
3 195 135 133
3 195 133 192
3 156 155 196
3 197 194 193
3 197 193 196
3 193 158 156
3 193 156 196
3 187 180 198
3 187 198 199
3 198 194 197
3 198 197 199
3 178 117 137
3 178 137 200
3 137 135 195
3 137 195 200
3 195 194 198
3 195 198 200
3 198 180 178
3 198 178 200
3 150 149 201
3 150 201 202
3 201 203 202
3 202 204 205
3 205 152 150
3 205 150 202
3 206 207 208
3 206 208 209
3 208 210 204
3 208 204 209
3 204 202 209
3 202 203 206
3 202 206 209
3 211 212 213
3 211 213 214
3 213 215 214
3 215 204 214
3 204 210 211
3 204 211 214
3 216 155 154
3 216 154 215
3 154 152 205
3 154 205 215
3 205 204 215
3 215 213 216
3 170 169 217
3 170 217 218
3 219 172 170
3 219 170 218
3 220 221 222
3 220 222 223
3 222 224 225
3 222 225 223
3 225 219 218
3 225 218 223
3 218 217 220
3 218 220 223
3 226 207 206
3 226 206 227
3 206 203 228
3 206 228 227
3 228 219 225
3 228 225 227
3 225 224 226
3 225 226 227
3 201 149 174
3 201 174 228
3 174 172 219
3 174 219 228
3 228 203 201
3 184 187 229
3 184 229 230
3 229 231 230
3 230 232 233
3 233 185 184
3 233 184 230
3 231 234 235
3 231 235 236
3 235 237 232
3 235 232 236
3 232 230 236
3 230 231 236
3 238 221 220
3 238 220 239
3 220 217 240
3 220 240 239
3 240 232 239
3 232 237 238
3 232 238 239
3 217 169 188
3 217 188 240
3 188 185 233
3 188 233 240
3 233 232 240
3 196 155 216
3 196 216 241
3 216 213 242
3 216 242 241
3 242 243 244
3 242 244 241
3 244 197 196
3 244 196 241
3 213 212 245
3 213 245 242
3 245 246 243
3 245 243 242
3 247 234 231
3 247 231 248
3 243 246 247
3 243 247 248
3 229 187 199
3 229 199 249
3 199 197 244
3 199 244 249
3 244 243 248
3 244 248 249
3 248 231 229
3 248 229 249
3 208 207 250
3 208 250 251
3 250 252 253
3 250 253 251
3 253 254 255
3 253 255 251
3 255 210 208
3 255 208 251
3 256 1 0
3 256 0 257
3 0 8 258
3 0 258 257
3 258 254 253
3 258 253 257
3 253 252 256
3 253 256 257
3 23 22 259
3 23 259 260
3 259 261 262
3 259 262 260
3 262 254 258
3 262 258 260
3 258 8 23
3 258 23 260
3 263 212 211
3 263 211 264
3 211 210 255
3 211 255 264
3 255 254 262
3 255 262 264
3 262 261 263
3 262 263 264
3 222 221 265
3 222 265 266
3 265 267 268
3 265 268 266
3 268 269 270
3 268 270 266
3 270 224 222
3 270 222 266
3 271 10 9
3 271 9 272
3 9 4 273
3 9 273 272
3 273 269 268
3 273 268 272
3 268 267 271
3 268 271 272
3 2 1 256
3 2 256 274
3 256 252 275
3 256 275 274
3 275 269 273
3 275 273 274
3 273 4 2
3 273 2 274
3 250 207 226
3 250 226 276
3 226 224 270
3 226 270 276
3 270 269 275
3 270 275 276
3 275 252 250
3 275 250 276
3 235 234 277
3 235 277 278
3 277 279 280
3 277 280 278
3 280 281 282
3 280 282 278
3 282 237 235
3 282 235 278
3 283 16 15
3 283 15 284
3 15 13 285
3 15 285 284
3 285 281 280
3 285 280 284
3 280 279 283
3 280 283 284
3 11 10 271
3 11 271 286
3 271 267 287
3 271 287 286
3 287 281 285
3 287 285 286
3 285 13 11
3 285 11 286
3 265 221 238
3 265 238 288
3 238 237 282
3 238 282 288
3 282 281 287
3 282 287 288
3 287 267 265
3 287 265 288
3 245 212 263
3 245 263 289
3 263 261 290
3 263 290 289
3 290 291 292
3 290 292 289
3 292 246 245
3 292 245 289
3 259 22 21
3 259 21 293
3 21 19 294
3 21 294 293
3 294 291 290
3 294 290 293
3 290 261 259
3 290 259 293
3 17 16 283
3 17 283 295
3 283 279 296
3 283 296 295
3 296 291 294
3 296 294 295
3 294 19 17
3 294 17 295
3 277 234 247
3 277 247 297
3 247 246 292
3 247 292 297
3 292 291 296
3 292 296 297
3 296 279 277
3 296 277 297
3 39 42 298
3 42 299 300
3 42 300 298
3 300 301 302
3 300 302 298
3 302 43 39
3 302 39 298
3 303 88 87
3 303 87 304
3 87 95 305
3 87 305 304
3 305 301 300
3 305 300 304
3 300 299 303
3 300 303 304
3 105 63 306
3 105 306 307
3 306 308 309
3 306 309 307
3 309 301 305
3 309 305 307
3 305 95 105
3 305 105 307
3 28 44 310
3 44 43 302
3 44 302 310
3 302 301 309
3 302 309 310
3 309 308 28
3 309 28 310
3 29 28 311
3 28 308 312
3 28 312 311
3 312 313 30
3 312 30 311
3 30 29 311
3 306 63 62
3 306 62 314
3 62 70 315
3 62 315 314
3 315 313 312
3 315 312 314
3 312 308 306
3 312 306 314
3 85 84 316
3 85 316 317
3 316 318 319
3 316 319 317
3 319 313 315
3 319 315 317
3 315 70 85
3 315 85 317
3 33 32 320
3 32 30 320
3 30 313 319
3 30 319 320
3 319 318 33
3 319 33 320
3 57 33 321
3 33 318 322
3 33 322 321
3 322 323 324
3 322 324 321
3 324 58 57
3 324 57 321
3 316 84 127
3 316 127 325
3 127 132 326
3 127 326 325
3 326 323 322
3 326 322 325
3 322 318 316
3 322 316 325
3 140 108 327
3 140 327 328
3 327 329 330
3 327 330 328
3 330 323 326
3 330 326 328
3 326 132 140
3 326 140 328
3 331 52 61
3 331 61 332
3 61 58 324
3 61 324 332
3 324 323 330
3 324 330 332
3 330 329 331
3 330 331 332
3 49 52 331
3 49 331 333
3 331 329 334
3 331 334 333
3 334 335 50
3 334 50 333
3 50 49 333
3 327 108 107
3 327 107 336
3 107 115 337
3 107 337 336
3 337 335 334
3 337 334 336
3 334 329 327
3 334 327 336
3 125 88 303
3 125 303 338
3 303 299 339
3 303 339 338
3 339 335 337
3 339 337 338
3 337 115 125
3 337 125 338
3 50 335 339
3 50 339 53
3 339 299 42
3 339 42 53
