OFF
261 504 0
-8.95886 -7.04118 -25.5537
-8.47126 -7.27129 -25.2797
-8.21606 -7.23979 -25.5547
-8.92856 -6.92428 -25.9087
-8.31046 -7.60419 -25.5877
-9.02896 -7.31209 -25.9437
-9.79906 -7.21888 -25.5877
-9.70466 -6.85438 -25.5547
-9.49696 -7.00578 -25.2797
-10.8738 -1.98029 -1.60374
-10.823 -1.84749 -1.49374
-10.7184 -1.87729 -1.49374
-10.7743 -2.00849 -1.60374
-10.7579 -2.02989 -1.44874
-10.8103 -2.14759 -1.56274
-10.909 -2.48039 -2.76074
-10.8743 -2.34719 -2.80074
-10.9695 -2.32019 -2.80074
-11.4522 -2.97739 -1.14274
-11.7676 -2.89499 -1.14274
-11.7597 -2.92799 -1.28374
-11.4597 -3.00629 -1.28374
-11.8211 -3.22809 -2.48574
-11.5332 -3.30309 -2.48574
-11.2451 -3.37689 -2.48674
-11.1593 -3.08339 -1.28374
-11.1364 -3.05839 -1.14274
-11.4742 -1.82489 -1.60374
-11.5447 -2.17129 -2.79974
-11.6412 -2.14869 -2.79974
-11.5748 -1.80129 -1.60374
-11.676 -2.28189 -2.75974
-11.6108 -1.94029 -1.56274
-11.5995 -1.81199 -1.44874
-11.56 -1.65939 -1.49374
-11.4542 -1.68409 -1.49374
-11.1383 -1.76499 -1.49474
-11.1738 -1.90189 -1.60374
-11.257 -2.24499 -2.80074
-9.36626 -3.35669 -14.5547
-10.9129 -4.27009 -11.8907
-10.8534 -4.28649 -11.8927
-9.30916 -3.37249 -14.5557
-10.8768 -4.36409 -11.8637
-9.33036 -3.44399 -14.5267
-7.99586 -3.25279 -17.6357
-7.97416 -3.17499 -17.6587
-8.03516 -3.15789 -17.6577
-11.2797 -4.83928 -11.6497
-11.4624 -4.79529 -11.6427
-9.87586 -3.83459 -14.3117
-9.70276 -3.87719 -14.3187
-8.56706 -3.67619 -17.4647
-8.38406 -3.72289 -17.4687
-8.20116 -3.77049 -17.4737
-9.52966 -3.92049 -14.3247
-11.0968 -4.88358 -11.6577
-9.71146 -3.26948 -14.5427
-8.40336 -3.06339 -17.6477
-8.46496 -3.04899 -17.6457
-9.76936 -3.25619 -14.5407
-8.48516 -3.12719 -17.6227
-9.78956 -3.32829 -14.5117
-11.3563 -4.24389 -11.8467
-11.3326 -4.16569 -11.8767
-11.2723 -4.17949 -11.8797
-11.0925 -4.22439 -11.8857
-9.53876 -3.31269 -14.5487
-8.21916 -3.11019 -17.6527
-8.10726 -5.04769 -20.1637
-8.03086 -5.06968 -20.1647
-8.05936 -5.17719 -20.1597
-8.61296 -7.42559 -21.9217
-8.57536 -7.28039 -21.9087
-8.67276 -7.25209 -21.9077
-8.79396 -5.77748 -20.1177
-8.56206 -5.83769 -20.1197
-9.56806 -8.24856 -22.0077
-9.27016 -8.32623 -22.0087
-8.97206 -8.40298 -22.0087
-8.33026 -5.89798 -20.1227
-8.56846 -4.92678 -20.1567
-9.26126 -7.09659 -21.9027
-9.35996 -7.07309 -21.9027
-8.64576 -4.90848 -20.1547
-9.39876 -7.21848 -21.9157
-8.67406 -5.01619 -20.1497
-8.33766 -4.98669 -20.1597
-8.96676 -7.17358 -21.9057
-8.82176 -7.99698 -22.7247
-8.70356 -8.03098 -22.7257
-8.74876 -8.20602 -22.7447
-8.60326 -8.15827 -23.3647
-8.54686 -7.94039 -23.3447
-8.69676 -7.89769 -23.3437
-9.90146 -9.19921 -22.8717
-9.54176 -9.29307 -22.8717
-10.051 -9.39151 -23.5047
-9.59786 -9.50973 -23.5057
-9.14436 -9.62617 -23.5047
-9.18176 -9.3855 -22.8717
-9.53586 -7.80989 -22.7227
-9.60196 -7.66279 -23.3437
-9.75376 -7.62729 -23.3437
-9.65566 -7.78159 -22.7227
-9.81036 -7.84519 -23.3637
-9.70186 -7.95669 -22.7417
-9.17856 -7.90248 -22.7237
-9.14906 -7.77909 -23.3437
-8.44016 -7.56968 -24.4937
-8.23666 -7.62758 -24.4937
-8.31286 -7.92199 -24.5207
-10.2736 -9.58751 -24.7037
-9.65946 -9.74775 -24.7037
-10.2075 -9.75051 -25.5267
-9.70736 -9.9327 -25.8147
-9.18176 -10.016 -25.5267
-9.04486 -9.90559 -24.7037
-9.66886 -7.25159 -24.4937
-9.87496 -7.20349 -24.4937
-9.95116 -7.49789 -24.5207
-9.05406 -7.40899 -24.4927
-10.6965 -1.54939 -1.53474
-11.058 -1.45469 -1.53474
-11.4201 -1.36209 -1.53474
-11.5415 -1.33409 -1.53374
-11.5916 -1.52749 -1.47774
-11.8173 -2.89649 -1.08974
-11.4557 -2.99089 -1.08874
-11.0937 -3.08379 -1.08974
-10.6268 -1.77719 -1.47774
-10.5767 -1.58379 -1.53374
-11.2309 -3.23929 -6.02274
-11.4805 -3.17419 -6.02074
-11.4669 -4.16489 -9.30974
-11.6762 -4.11049 -9.30674
-11.8858 -4.05729 -9.30274
-11.7305 -3.11029 -6.01874
-11.956 -4.04088 -9.30174
-11.8143 -3.09069 -6.01774
-11.9836 -4.13729 -9.26674
-11.8456 -3.20639 -5.98074
-11.9791 -4.02818 -5.72074
-11.7278 -4.09309 -5.72174
-12.1047 -4.82129 -9.02674
-11.8926 -4.87519 -9.02974
-11.6801 -4.92839 -9.03474
-11.4763 -4.15708 -5.72474
-11.1481 -3.26269 -6.02274
-11.179 -3.37839 -5.98474
-11.4244 -4.28068 -9.27674
-11.3976 -4.18439 -9.31074
-12.0689 -5.10058 -10.4407
-11.8764 -5.14789 -10.4467
-11.6836 -5.19498 -10.4527
-11.487 -4.52398 -10.7047
-11.4244 -4.54139 -10.7057
-11.4492 -4.62609 -10.6747
-11.6759 -4.47539 -10.6997
-11.8651 -4.42789 -10.6947
-11.9285 -4.41329 -10.6927
-11.954 -4.49838 -10.6607
-11.0308 -3.08379 -1.14374
-10.9725 -3.11269 -1.08974
-10.9914 -2.93189 -1.18774
-10.9227 -2.92009 -1.14574
-11.023 -2.96919 -1.32474
-11.0588 -3.10759 -1.28474
-11.1486 -3.40009 -2.48774
-11.1141 -3.26749 -2.52674
-11.3614 -4.06199 -5.76374
-11.3921 -4.17719 -5.72574
-11.6091 -4.94509 -9.03674
-11.5826 -4.84939 -9.07174
-11.5955 -5.12629 -10.4887
-11.6196 -5.21019 -10.4567
-11.0367 -4.89828 -11.6607
-11.0146 -4.82208 -11.6907
-9.45456 -3.86609 -14.3567
-9.47356 -3.93569 -14.3277
-8.14216 -3.78719 -17.4747
-8.12296 -3.71169 -17.4977
-8.22716 -5.81219 -20.1277
-8.25406 -5.91798 -20.1227
-8.87266 -8.42727 -22.0087
-8.83556 -8.28312 -21.9967
-9.01626 -9.24026 -22.8537
-9.06126 -9.41446 -22.8717
-8.99256 -9.66263 -23.5047
-8.93646 -9.44576 -23.4847
-8.76326 -9.66189 -24.6767
-8.83906 -9.955 -24.7037
-8.96196 -10.121 -25.8147
-8.86796 -9.75815 -25.7817
-9.62226 -9.60402 -26.1497
-9.72226 -9.99014 -26.1847
-10.4506 -9.73567 -25.8147
-10.3567 -9.3728 -25.7817
-10.2014 -9.34972 -23.5047
-10.145 -9.1328 -23.4847
-10.4016 -9.23779 -24.6767
-10.4774 -9.5309 -24.7037
-9.66676 -8.22146 -22.0077
-9.62796 -8.07718 -21.9937
-9.97476 -8.99164 -22.8527
-10.0208 -9.16599 -22.8717
-8.62666 -3.66229 -17.4627
-8.60516 -3.58749 -17.4847
-8.84126 -5.65239 -20.1207
-8.87016 -5.75788 -20.1167
-11.5218 -4.78138 -11.6407
-11.4968 -4.70529 -11.6707
-9.91016 -3.75299 -14.3387
-9.93196 -3.82199 -14.3097
-12.1748 -4.80259 -9.02574
-12.1468 -4.70698 -9.06074
-12.1056 -5.00099 -10.4717
-12.132 -5.08478 -10.4397
-11.9166 -3.20169 -2.48574
-11.8819 -3.06919 -2.52574
-12.0309 -3.89029 -5.75874
-12.0623 -4.00538 -5.72074
-11.8723 -2.86589 -1.14374
-11.833 -2.71399 -1.18774
-11.8235 -2.76199 -1.32474
-11.8594 -2.90039 -1.28474
-11.8874 -2.67039 -1.14574
-11.9373 -2.86288 -1.08974
-10.8747 -2.48099 -1.31874
-10.7748 -2.34879 -1.31174
-10.9167 -2.55849 -1.44374
-11.0115 -2.87399 -2.64374
-11.2702 -3.72029 -5.87474
-11.5035 -4.56508 -9.17474
-10.9459 -4.59329 -11.7777
-11.5225 -4.87629 -10.5817
-8.05986 -3.48259 -17.5667
-9.39286 -3.65539 -14.4417
-8.72436 -7.85449 -21.9587
-8.14356 -5.49499 -20.1437
-8.76986 -8.80218 -23.4247
-8.88256 -8.72326 -22.7987
-8.58926 -8.68144 -25.6847
-8.53806 -8.79214 -24.5987
-10.0779 -8.29609 -25.6847
-9.32576 -8.45833 -26.0467
-9.97766 -8.48913 -23.4247
-10.1764 -8.36804 -24.5987
-9.51336 -7.64798 -21.9547
-9.83836 -8.47431 -22.7967
-8.54496 -3.35789 -17.5537
-8.75756 -5.33469 -20.1357
-11.4263 -4.47499 -11.7587
-9.84966 -3.54109 -14.4247
-12.0651 -4.42229 -9.16374
-12.0297 -4.74989 -10.5657
-11.779 -2.67559 -2.64274
-11.9383 -3.54839 -5.86974
-11.7163 -2.26309 -1.31874
-11.7172 -2.35129 -1.44374
-11.7395 -2.09909 -1.31174
3 0 1 2
3 0 2 3
3 2 4 5
3 2 5 3
3 5 6 7
3 5 7 3
3 7 8 0
3 7 0 3
3 9 10 11
3 9 11 12
3 11 13 14
3 11 14 12
3 14 15 16
3 14 16 12
3 16 17 9
3 16 9 12
3 18 19 20
3 18 20 21
3 20 22 23
3 20 23 21
3 23 24 25
3 23 25 21
3 25 26 18
3 25 18 21
3 27 28 29
3 27 29 30
3 29 31 32
3 29 32 30
3 32 33 34
3 32 34 30
3 34 35 27
3 34 27 30
3 36 10 9
3 36 9 37
3 9 17 38
3 9 38 37
3 38 28 27
3 38 27 37
3 27 35 36
3 27 36 37
3 39 40 41
3 39 41 42
3 41 43 44
3 41 44 42
3 44 45 46
3 44 46 42
3 46 47 39
3 46 39 42
3 48 49 50
3 48 50 51
3 50 52 53
3 50 53 51
3 53 54 55
3 53 55 51
3 55 56 48
3 55 48 51
3 57 58 59
3 57 59 60
3 59 61 62
3 59 62 60
3 62 63 64
3 62 64 60
3 64 65 57
3 64 57 60
3 66 40 39
3 66 39 67
3 39 47 68
3 39 68 67
3 68 58 57
3 68 57 67
3 57 65 66
3 57 66 67
3 69 47 46
3 69 46 70
3 46 45 71
3 46 71 70
3 71 72 73
3 71 73 70
3 73 74 69
3 73 69 70
3 53 52 75
3 53 75 76
3 75 77 78
3 75 78 76
3 78 79 80
3 78 80 76
3 80 54 53
3 80 53 76
3 81 82 83
3 81 83 84
3 83 85 86
3 83 86 84
3 86 61 59
3 86 59 84
3 59 58 81
3 59 81 84
3 68 47 69
3 68 69 87
3 69 74 88
3 69 88 87
3 88 82 81
3 88 81 87
3 81 58 68
3 81 68 87
3 89 74 73
3 89 73 90
3 73 72 91
3 73 91 90
3 91 92 93
3 91 93 90
3 93 94 89
3 93 89 90
3 78 77 95
3 78 95 96
3 95 97 98
3 95 98 96
3 98 99 100
3 98 100 96
3 100 79 78
3 100 78 96
3 101 102 103
3 101 103 104
3 103 105 106
3 103 106 104
3 106 85 83
3 106 83 104
3 83 82 101
3 83 101 104
3 88 74 89
3 88 89 107
3 89 94 108
3 89 108 107
3 108 102 101
3 108 101 107
3 101 82 88
3 101 88 107
3 109 94 93
3 109 93 110
3 93 92 111
3 93 111 110
3 111 4 2
3 111 2 110
3 2 1 109
3 2 109 110
3 98 97 112
3 98 112 113
3 112 114 115
3 112 115 113
3 115 116 117
3 115 117 113
3 117 99 98
3 117 98 113
3 118 8 7
3 118 7 119
3 7 6 120
3 7 120 119
3 120 105 103
3 120 103 119
3 103 102 118
3 103 118 119
3 108 94 109
3 108 109 121
3 109 1 0
3 109 0 121
3 0 8 118
3 0 118 121
3 118 102 108
3 118 108 121
3 122 10 36
3 122 36 123
3 36 35 124
3 36 124 123
3 124 35 34
3 124 34 125
3 34 33 126
3 34 126 125
3 127 19 18
3 127 18 128
3 18 26 129
3 18 129 128
3 130 13 11
3 130 11 131
3 11 10 122
3 11 122 131
3 38 17 132
3 38 132 133
3 132 134 135
3 132 135 133
3 135 136 137
3 135 137 133
3 137 28 38
3 137 38 133
3 137 136 138
3 137 138 139
3 138 140 141
3 138 141 139
3 141 31 29
3 141 29 139
3 29 28 137
3 29 137 139
3 23 22 142
3 23 142 143
3 142 144 145
3 142 145 143
3 145 146 147
3 145 147 143
3 147 24 23
3 147 23 143
3 132 17 16
3 132 16 148
3 16 15 149
3 16 149 148
3 149 150 151
3 149 151 148
3 151 134 132
3 151 132 148
3 145 144 152
3 145 152 153
3 152 49 48
3 152 48 153
3 48 56 154
3 48 154 153
3 154 146 145
3 154 145 153
3 155 134 151
3 155 151 156
3 151 150 157
3 151 157 156
3 157 43 41
3 157 41 156
3 41 40 155
3 41 155 156
3 135 134 155
3 135 155 158
3 155 40 66
3 155 66 158
3 66 65 159
3 66 159 158
3 159 136 135
3 159 135 158
3 159 65 64
3 159 64 160
3 64 63 161
3 64 161 160
3 161 140 138
3 161 138 160
3 138 136 159
3 138 159 160
3 129 26 162
3 129 162 163
3 162 164 165
3 162 165 163
3 166 164 162
3 166 162 167
3 162 26 25
3 162 25 167
3 25 24 168
3 25 168 167
3 168 169 166
3 168 166 167
3 170 169 168
3 170 168 171
3 168 24 147
3 168 147 171
3 147 146 172
3 147 172 171
3 172 173 170
3 172 170 171
3 174 173 172
3 174 172 175
3 172 146 154
3 172 154 175
3 154 56 176
3 154 176 175
3 176 177 174
3 176 174 175
3 178 177 176
3 178 176 179
3 176 56 55
3 176 55 179
3 55 54 180
3 55 180 179
3 180 181 178
3 180 178 179
3 182 181 180
3 182 180 183
3 180 54 80
3 180 80 183
3 80 79 184
3 80 184 183
3 184 185 182
3 184 182 183
3 186 185 184
3 186 184 187
3 184 79 100
3 184 100 187
3 100 99 188
3 100 188 187
3 188 189 186
3 188 186 187
3 190 189 188
3 190 188 191
3 188 99 117
3 188 117 191
3 117 116 192
3 117 192 191
3 192 193 190
3 192 190 191
3 194 193 192
3 194 192 195
3 192 116 115
3 192 115 195
3 115 114 196
3 115 196 195
3 196 197 194
3 196 194 195
3 198 199 200
3 198 200 201
3 200 197 196
3 200 196 201
3 196 114 112
3 196 112 201
3 112 97 198
3 112 198 201
3 202 203 204
3 202 204 205
3 204 199 198
3 204 198 205
3 198 97 95
3 198 95 205
3 95 77 202
3 95 202 205
3 206 207 208
3 206 208 209
3 208 203 202
3 208 202 209
3 202 77 75
3 202 75 209
3 75 52 206
3 75 206 209
3 210 211 212
3 210 212 213
3 212 207 206
3 212 206 213
3 206 52 50
3 206 50 213
3 50 49 210
3 50 210 213
3 214 215 216
3 214 216 217
3 216 211 210
3 216 210 217
3 210 49 152
3 210 152 217
3 152 144 214
3 152 214 217
3 218 219 220
3 218 220 221
3 220 215 214
3 220 214 221
3 214 144 142
3 214 142 221
3 142 22 218
3 142 218 221
3 222 223 224
3 222 224 225
3 224 219 218
3 224 218 225
3 218 22 20
3 218 20 225
3 20 19 222
3 20 222 225
3 226 223 222
3 226 222 227
3 222 19 127
3 222 127 227
3 228 13 130
3 228 130 229
3 165 164 228
3 165 228 229
3 14 13 228
3 14 228 230
3 228 164 166
3 228 166 230
3 166 169 231
3 166 231 230
3 231 15 14
3 231 14 230
3 149 15 231
3 149 231 232
3 231 169 170
3 231 170 232
3 170 173 233
3 170 233 232
3 233 150 149
3 233 149 232
3 234 43 157
3 234 157 235
3 157 150 233
3 157 233 235
3 233 173 174
3 233 174 235
3 174 177 234
3 174 234 235
3 236 45 44
3 236 44 237
3 44 43 234
3 44 234 237
3 234 177 178
3 234 178 237
3 178 181 236
3 178 236 237
3 238 72 71
3 238 71 239
3 71 45 236
3 71 236 239
3 236 181 182
3 236 182 239
3 182 185 238
3 182 238 239
3 240 92 91
3 240 91 241
3 91 72 238
3 91 238 241
3 238 185 186
3 238 186 241
3 186 189 240
3 186 240 241
3 242 4 111
3 242 111 243
3 111 92 240
3 111 240 243
3 240 189 190
3 240 190 243
3 190 193 242
3 190 242 243
3 244 6 5
3 244 5 245
3 5 4 242
3 5 242 245
3 242 193 194
3 242 194 245
3 194 197 244
3 194 244 245
3 246 105 120
3 246 120 247
3 120 6 244
3 120 244 247
3 244 197 200
3 244 200 247
3 200 199 246
3 200 246 247
3 248 85 106
3 248 106 249
3 106 105 246
3 106 246 249
3 246 199 204
3 246 204 249
3 204 203 248
3 204 248 249
3 250 61 86
3 250 86 251
3 86 85 248
3 86 248 251
3 248 203 208
3 248 208 251
3 208 207 250
3 208 250 251
3 252 63 62
3 252 62 253
3 62 61 250
3 62 250 253
3 250 207 212
3 250 212 253
3 212 211 252
3 212 252 253
3 254 140 161
3 254 161 255
3 161 63 252
3 161 252 255
3 252 211 216
3 252 216 255
3 216 215 254
3 216 254 255
3 256 31 141
3 256 141 257
3 141 140 254
3 141 254 257
3 254 215 220
3 254 220 257
3 220 219 256
3 220 256 257
3 258 33 32
3 258 32 259
3 32 31 256
3 32 256 259
3 256 219 224
3 256 224 259
3 224 223 258
3 224 258 259
3 126 33 258
3 126 258 260
3 258 223 226
3 258 226 260
