OFF
390 762 0
-6.16254 -3.93791 -24.9488
-6.05254 -4.05991 -24.754
-6.06054 -4.24981 -24.9374
-6.23654 -4.16351 -25.2903
-6.12754 -4.49281 -25.021
-6.32454 -4.41961 -25.3971
-6.55654 -4.31861 -25.5238
-6.44454 -4.05131 -25.4104
-6.34854 -3.81721 -25.0455
-6.24954 -4.70141 -24.9162
-6.36954 -4.82121 -24.7182
-6.53654 -4.83331 -24.9067
-6.44054 -4.65141 -25.2674
-6.74954 -4.77881 -25.0004
-6.66354 -4.57551 -25.3858
-6.93254 -4.65031 -24.9086
-7.03754 -4.51271 -24.7214
-7.03454 -4.33851 -24.9199
-6.86854 -4.45361 -25.2694
-6.97054 -4.10321 -25.0249
-6.78454 -4.20721 -25.3992
-6.84654 -3.88691 -24.9411
-6.71954 -3.75141 -24.7572
-6.55854 -3.75491 -24.9507
-6.66454 -3.96571 -25.2923
-4.14854 -7.22851 0.321745
-4.14654 -7.20181 0.225845
-4.29554 -7.01081 0.220145
-4.30054 -7.03331 0.315845
-4.52654 -6.88031 0.218045
-4.53454 -6.90001 0.313745
-4.12154 -7.12451 -0.0159549
-4.06554 -6.97571 -0.472655
-4.21054 -6.79031 -0.478155
-4.26854 -6.93621 -0.0215549
-4.43454 -6.66371 -0.480155
-4.49554 -6.80761 -0.0236549
-4.69654 -6.61081 -0.478655
-4.95754 -6.64671 -0.473455
-5.02654 -6.79041 -0.0167549
-4.76154 -6.75391 -0.0220549
-5.06354 -6.86281 0.225045
-4.79654 -6.82591 0.219745
-5.08254 -6.88211 0.320745
-5.09254 -6.86621 0.339345
-4.81154 -6.82711 0.333745
-4.80954 -6.84431 0.315345
-4.35954 -7.89411 0.257345
-4.19854 -7.68151 0.246345
-4.20054 -7.71871 0.342545
-4.55154 -7.94871 0.0240451
-4.48954 -7.78711 -0.433255
-4.27254 -7.64761 -0.442155
-4.33054 -7.80701 0.0150451
-4.11554 -7.44121 -0.452855
-4.17154 -7.59741 0.00414513
-4.58354 -8.03791 0.266445
-4.04054 -7.20501 -0.463555
-4.09554 -7.35741 -0.00675487
-4.12154 -7.43811 0.235245
-4.10354 -7.47591 0.350345
-4.12254 -7.46991 0.331245
-5.45654 -7.61461 0.0231451
-5.38154 -7.45821 -0.434155
-5.23654 -7.64361 -0.428555
-5.30954 -7.80291 0.0288451
-5.01254 -7.77021 -0.426555
-5.08254 -7.93151 0.0308451
-5.12154 -8.02051 0.273345
-5.35154 -7.89001 0.271245
-5.50054 -7.69901 0.265545
-4.75054 -7.82301 -0.428155
-4.81654 -7.98521 0.0292451
-4.85154 -8.07491 0.271745
-5.32754 -7.01871 0.348945
-5.31054 -7.02911 0.330045
-5.28854 -7.00661 0.234145
-5.44854 -7.21931 0.245145
-5.47354 -7.24631 0.341345
-5.17554 -6.78631 -0.464655
-5.24754 -6.93211 -0.00775487
-5.33154 -6.99261 -0.453955
-5.40654 -7.14171 0.00304513
-5.40654 -7.22891 -0.443155
-5.48254 -7.38171 0.0140451
-5.52654 -7.46271 0.256245
-3.52954 -5.04941 -5.11035
-3.41054 -5.20121 -5.10575
-3.09154 -4.33561 -6.94995
-3.19754 -4.19961 -6.95405
-2.81354 -3.44341 -8.98355
-2.90654 -3.32451 -8.98705
-3.04954 -3.24321 -8.98835
-3.36154 -4.10671 -6.95555
-3.71254 -4.94571 -5.11195
-2.68854 -2.69241 -11.1244
-2.82954 -2.25011 -13.2908
-2.89954 -2.16031 -13.2934
-2.76954 -2.58951 -11.1275
-3.00854 -2.09901 -13.2944
-2.89354 -2.51931 -11.1286
-3.13554 -2.07341 -13.2937
-3.26154 -2.09071 -13.2912
-3.18354 -2.50991 -11.1249
-3.03854 -2.49001 -11.1278
-3.38554 -3.23231 -8.98405
-3.21854 -3.20931 -8.98736
-3.74554 -4.09431 -6.95055
-4.14054 -4.93181 -5.10645
-3.92754 -4.90241 -5.11065
-3.55454 -4.06791 -6.95435
-3.57954 -5.75141 -5.08075
-3.75754 -5.86571 -5.07355
-3.40254 -4.93081 -6.92115
-3.24254 -4.82851 -6.92765
-3.08554 -3.96411 -8.95825
-2.94554 -3.87461 -8.96395
-2.84554 -3.74221 -8.97075
-3.12854 -4.67711 -6.93545
-3.45154 -5.58241 -5.08955
-2.92354 -3.14261 -11.1026
-3.03454 -2.64331 -13.2717
-2.92954 -2.57571 -13.276
-2.80354 -3.06521 -11.1075
-2.85354 -2.47571 -13.2812
-2.71654 -2.95071 -11.1134
-2.81754 -2.36121 -13.2864
-2.67454 -2.81961 -11.1194
-2.79754 -3.59061 -8.97765
-3.39054 -5.38891 -5.09835
-3.07354 -4.50381 -6.94336
-4.36954 -5.74811 -5.06965
-4.48754 -5.59631 -5.07425
-4.05654 -4.68951 -6.92175
-3.95054 -4.82551 -6.91765
-3.65754 -3.75301 -8.95875
-3.56454 -3.87201 -8.95525
-3.42154 -3.95331 -8.95395
-3.78654 -4.91841 -6.91615
-4.18554 -5.85181 -5.06805
-3.41854 -2.96011 -11.1031
-3.46654 -2.48391 -13.2721
-3.39654 -2.57381 -13.2694
-3.33854 -3.06301 -11.1
-3.28854 -2.63511 -13.2684
-3.21354 -3.13321 -11.0989
-3.16154 -2.66071 -13.2692
-3.06854 -3.16251 -11.0997
-3.25254 -3.98721 -8.95496
-3.97154 -5.89511 -5.06936
-3.59354 -4.95721 -6.91736
-4.31854 -5.04611 -5.09915
-3.90554 -4.19671 -6.94415
-3.52554 -3.32191 -8.97835
-3.62554 -3.45431 -8.97145
-4.01954 -4.34801 -6.93625
-4.44654 -5.21511 -5.09046
-3.36654 -2.15841 -13.2869
-3.30454 -2.58731 -11.12
-3.44254 -2.25841 -13.2817
-3.39054 -2.70181 -11.1141
-3.47854 -2.37281 -13.2765
-3.43254 -2.83291 -11.1081
-3.67354 -3.60591 -8.96455
-4.50854 -5.40851 -5.08166
-4.07454 -4.52131 -6.92835
-3.34854 -2.28431 -15.4006
-3.41254 -2.20231 -15.403
-4.07654 -2.62591 -17.3417
-4.13854 -2.54531 -17.3441
-4.23454 -2.49031 -17.345
-3.51154 -2.14631 -15.4039
-4.84554 -3.10561 -19.0018
-5.48654 -3.55431 -20.2688
-5.56054 -3.45281 -20.2719
-4.91054 -3.01891 -19.0044
-5.67354 -3.38351 -20.2731
-5.01154 -2.95971 -19.0054
-5.80754 -3.35461 -20.2724
-5.93954 -3.37431 -20.2697
-5.24754 -2.95181 -19.0024
-5.13054 -2.93501 -19.0047
-4.46054 -2.48291 -17.3421
-4.34754 -2.46731 -17.3443
-3.74254 -2.13881 -15.4009
-3.62754 -2.12291 -15.4032
-3.53554 -2.64331 -15.3832
-3.43954 -2.58161 -15.3871
-4.25854 -2.97851 -17.3246
-4.16554 -2.91791 -17.3284
-4.09754 -2.82821 -17.3331
-3.37054 -2.49031 -15.3918
-5.03654 -3.48491 -18.9835
-5.70254 -3.99851 -20.2475
-5.59154 -3.92211 -20.2522
-4.93854 -3.41971 -18.9876
-5.51254 -3.80921 -20.258
-4.86754 -3.32321 -18.9926
-5.47454 -3.67981 -20.2638
-4.83354 -3.21281 -18.9976
-4.06554 -2.72551 -17.3377
-3.33754 -2.38581 -15.3966
-3.92954 -2.49781 -15.3835
-3.86554 -2.57981 -15.3811
-4.64254 -2.83551 -17.325
-4.58054 -2.91611 -17.3226
-4.48354 -2.97111 -17.3217
-3.76654 -2.63581 -15.3802
-5.43954 -3.33111 -18.9841
-6.15454 -3.81851 -20.2484
-6.08154 -3.92001 -20.2453
-5.37354 -3.41781 -18.9815
-5.96754 -3.98931 -20.2441
-5.27254 -3.47701 -18.9805
-5.83454 -4.01821 -20.2448
-5.15454 -3.50171 -18.9811
-4.37054 -2.99411 -17.3224
-3.65054 -2.65921 -15.3809
-3.83854 -2.20051 -15.397
-4.55354 -2.54351 -17.3382
-4.62154 -2.63321 -17.3336
-3.90754 -2.29181 -15.3923
-6.04954 -3.45071 -20.265
-5.34654 -3.01701 -18.9983
-6.12954 -3.56361 -20.2593
-5.41654 -3.11351 -18.9933
-6.16754 -3.69301 -20.2534
-5.45054 -3.22391 -18.9883
-4.65354 -2.73591 -17.3289
-3.94154 -2.39631 -15.3875
-5.83254 -3.80301 -21.0304
-5.91954 -3.67681 -21.0343
-5.96354 -3.90761 -21.4792
-6.06654 -3.75181 -21.4842
-6.22654 -3.64541 -21.4862
-6.05454 -3.59071 -21.0359
-5.96054 -3.92401 -21.808
-5.90454 -3.90831 -22.2094
-6.03754 -3.69811 -22.2162
-6.07954 -3.73861 -21.8139
-6.24354 -3.55471 -22.2191
-6.26454 -3.61201 -21.8165
-6.48454 -3.49481 -22.2182
-6.72354 -3.53551 -22.2131
-6.69554 -3.59511 -21.8111
-6.48054 -3.55921 -21.8156
-6.59854 -3.63121 -21.4815
-6.41354 -3.60101 -21.4854
-6.36854 -3.57921 -21.0319
-6.21154 -3.55471 -21.0352
-6.08754 -4.35531 -21.0041
-5.95654 -4.26031 -21.0098
-6.26554 -4.58951 -21.447
-6.11054 -4.47221 -21.454
-5.99954 -4.29881 -21.4627
-5.86254 -4.11991 -21.0169
-6.31054 -4.73561 -21.7698
-6.29454 -4.82791 -22.1662
-6.09354 -4.66981 -22.1755
-6.13054 -4.59601 -21.778
-5.95054 -4.43591 -22.1871
-6.00154 -4.38961 -21.7883
-5.88154 -4.16811 -22.1991
-5.93954 -4.15331 -21.7989
-5.94554 -4.10031 -21.4716
-5.81754 -3.95911 -21.0242
-6.62254 -4.13141 -21.0056
-6.53654 -4.25761 -21.0017
-6.90154 -4.31311 -21.4492
-6.79754 -4.46901 -21.4443
-6.63854 -4.57531 -21.4422
-6.40154 -4.34381 -21.0001
-7.04554 -4.40671 -21.7728
-7.11254 -4.45521 -22.1698
-6.97954 -4.66531 -22.1631
-6.92654 -4.59211 -21.7669
-6.77454 -4.80881 -22.1601
-6.74154 -4.71871 -21.7643
-6.53354 -4.86861 -22.1611
-6.52554 -4.77161 -21.7652
-6.45154 -4.61971 -21.4431
-6.24354 -4.37971 -21.0009
-6.49954 -3.67421 -21.0262
-6.75454 -3.74851 -21.4745
-6.86554 -3.92191 -21.4658
-6.59254 -3.81461 -21.0191
-6.92354 -3.69371 -22.2037
-6.87554 -3.73471 -21.8028
-7.06654 -3.92761 -22.1921
-7.00454 -3.94111 -21.7925
-7.13554 -4.19541 -22.1801
-7.06654 -4.17741 -21.7819
-6.91954 -4.12051 -21.4569
-6.63854 -3.97541 -21.0118
-5.87754 -3.91631 -22.8761
-6.01854 -3.69131 -22.8833
-5.89154 -3.94761 -23.6357
-6.03154 -3.72311 -23.6559
-6.24854 -3.57001 -23.672
-6.23654 -3.53781 -22.8865
-5.95854 -4.00191 -24.3158
-6.08754 -3.79821 -24.3742
-6.28454 -3.66001 -24.4289
-6.74454 -3.63911 -24.3195
-6.51554 -3.60051 -24.3762
-6.75554 -3.54891 -23.6397
-6.50254 -3.50561 -23.6581
-6.74554 -3.51731 -22.8801
-6.49254 -3.47371 -22.8855
-6.29054 -4.90081 -22.8298
-6.07854 -4.73151 -22.8398
-6.30254 -4.93151 -23.5895
-6.09054 -4.76291 -23.6124
-5.93954 -4.51331 -23.6377
-5.92654 -4.48111 -22.8523
-6.33254 -4.89731 -24.2737
-6.14054 -4.74571 -24.3345
-6.00254 -4.52071 -24.3976
-5.93654 -4.25781 -24.3574
-5.86654 -4.22631 -23.6376
-5.85254 -4.19441 -22.8651
-7.15854 -4.50181 -22.8338
-7.01754 -4.72671 -22.8266
-7.16654 -4.53281 -23.5935
-7.02654 -4.75841 -23.5992
-6.80954 -4.91261 -23.6089
-6.79954 -4.88031 -22.8234
-7.11854 -4.53451 -24.2774
-6.99154 -4.74241 -24.3225
-6.79554 -4.88491 -24.3713
-6.56354 -4.94021 -24.3205
-6.55554 -4.97581 -23.597
-6.54454 -4.94441 -22.8244
-6.95854 -3.68661 -22.8702
-6.96754 -3.71861 -23.6427
-7.11954 -3.96921 -23.6432
-7.11054 -3.93701 -22.8577
-6.93854 -3.79501 -24.3622
-7.07754 -4.02421 -24.4026
-7.14254 -4.28291 -24.3393
-7.19154 -4.25521 -23.6175
-7.18354 -4.22371 -22.8449
-4.84554 -6.41381 -1.21385
-5.05754 -6.54981 -1.20525
-4.67954 -6.06681 -2.23495
-4.88354 -6.19761 -2.22665
-5.02954 -6.39101 -2.21665
-5.20954 -6.75091 -1.19485
-4.44754 -5.58111 -3.53355
-4.64154 -5.70471 -3.52565
-4.77954 -5.88761 -3.51625
-4.82354 -6.30011 -3.49865
-4.84554 -6.09691 -3.50665
-5.07654 -6.82741 -2.19805
-5.10054 -6.61251 -2.20655
-5.25854 -7.20461 -1.17555
-5.28254 -6.98111 -1.18435
-5.11754 -7.38531 -1.17015
-4.94054 -7.00121 -2.19285
-4.73154 -7.11981 -2.19095
-4.89954 -7.50871 -1.16815
-4.69554 -6.46441 -3.49375
-4.49754 -6.57661 -3.49195
-4.03354 -6.59161 -3.49795
-4.26454 -6.62341 -3.49335
-4.24154 -7.13571 -2.19735
-4.48554 -7.16931 -2.19245
-4.38954 -7.52521 -1.17475
-4.64354 -7.56021 -1.16975
-4.17754 -7.38921 -1.18335
-4.03754 -7.00491 -2.20555
-3.89054 -6.81151 -2.21565
-4.02554 -7.18811 -1.19375
-3.84054 -6.46791 -3.50575
-3.70254 -6.28511 -3.51525
-3.65854 -5.87261 -3.53275
-3.63554 -6.07571 -3.52475
-3.84354 -6.37511 -2.23415
-3.82054 -6.59001 -2.22565
-3.97654 -6.73441 -1.21305
-3.95254 -6.95781 -1.20425
-4.11754 -6.55371 -1.21845
-3.97954 -6.20141 -2.23935
-4.18954 -6.08271 -2.24125
-4.33554 -6.43031 -1.22045
-3.78654 -5.70831 -3.53775
-3.98454 -5.59611 -3.53945
-4.21754 -5.54931 -3.53805
-4.43554 -6.03321 -2.23975
-4.59154 -6.37881 -1.21895
3 0 1 2
3 0 2 3
3 2 4 5
3 2 5 3
3 5 6 7
3 5 7 3
3 7 8 0
3 7 0 3
3 9 10 11
3 9 11 12
3 11 13 14
3 11 14 12
3 14 6 5
3 14 5 12
3 5 4 9
3 5 9 12
3 15 16 17
3 15 17 18
3 17 19 20
3 17 20 18
3 20 6 14
3 20 14 18
3 14 13 15
3 14 15 18
3 21 22 23
3 21 23 24
3 23 8 7
3 23 7 24
3 7 6 20
3 7 20 24
3 20 19 21
3 20 21 24
3 25 26 27
3 25 27 28
3 27 29 30
3 27 30 28
3 31 32 33
3 31 33 34
3 33 35 36
3 33 36 34
3 36 29 27
3 36 27 34
3 27 26 31
3 27 31 34
3 37 38 39
3 37 39 40
3 39 41 42
3 39 42 40
3 42 29 36
3 42 36 40
3 36 35 37
3 36 37 40
3 43 44 45
3 43 45 46
3 45 30 46
3 30 29 42
3 30 42 46
3 42 41 43
3 42 43 46
3 47 48 49
3 50 51 52
3 50 52 53
3 52 54 55
3 52 55 53
3 55 48 47
3 55 47 53
3 47 56 50
3 47 50 53
3 57 32 31
3 57 31 58
3 31 26 59
3 31 59 58
3 59 48 55
3 59 55 58
3 55 54 57
3 55 57 58
3 25 60 61
3 60 49 61
3 49 48 59
3 49 59 61
3 59 26 25
3 59 25 61
3 62 63 64
3 62 64 65
3 64 66 67
3 64 67 65
3 67 68 69
3 67 69 65
3 69 70 62
3 69 62 65
3 71 51 50
3 71 50 72
3 50 56 73
3 50 73 72
3 73 68 67
3 73 67 72
3 67 66 71
3 67 71 72
3 74 44 43
3 74 43 75
3 43 41 76
3 43 76 75
3 76 77 78
3 76 78 75
3 78 74 75
3 39 38 79
3 39 79 80
3 79 81 82
3 79 82 80
3 82 77 76
3 82 76 80
3 76 41 39
3 76 39 80
3 83 63 62
3 83 62 84
3 62 70 85
3 62 85 84
3 85 77 82
3 85 82 84
3 82 81 83
3 82 83 84
3 78 77 85
3 86 87 88
3 86 88 89
3 88 90 91
3 88 91 89
3 91 92 93
3 91 93 89
3 93 94 86
3 93 86 89
3 95 96 97
3 95 97 98
3 97 99 100
3 97 100 98
3 100 92 91
3 100 91 98
3 91 90 95
3 91 95 98
3 101 102 103
3 101 103 104
3 103 105 106
3 103 106 104
3 106 92 100
3 106 100 104
3 100 99 101
3 100 101 104
3 107 108 109
3 107 109 110
3 109 94 93
3 109 93 110
3 93 92 106
3 93 106 110
3 106 105 107
3 106 107 110
3 111 112 113
3 111 113 114
3 113 115 116
3 113 116 114
3 116 117 118
3 116 118 114
3 118 119 111
3 118 111 114
3 120 121 122
3 120 122 123
3 122 124 125
3 122 125 123
3 125 117 116
3 125 116 123
3 116 115 120
3 116 120 123
3 126 96 95
3 126 95 127
3 95 90 128
3 95 128 127
3 128 117 125
3 128 125 127
3 125 124 126
3 125 126 127
3 88 87 129
3 88 129 130
3 129 119 118
3 129 118 130
3 118 117 128
3 118 128 130
3 128 90 88
3 128 88 130
3 131 132 133
3 131 133 134
3 133 135 136
3 133 136 134
3 136 137 138
3 136 138 134
3 138 139 131
3 138 131 134
3 140 141 142
3 140 142 143
3 142 144 145
3 142 145 143
3 145 137 136
3 145 136 143
3 136 135 140
3 136 140 143
3 146 121 120
3 146 120 147
3 120 115 148
3 120 148 147
3 148 137 145
3 148 145 147
3 145 144 146
3 145 146 147
3 113 112 149
3 113 149 150
3 149 139 138
3 149 138 150
3 138 137 148
3 138 148 150
3 148 115 113
3 148 113 150
3 151 108 107
3 151 107 152
3 107 105 153
3 107 153 152
3 153 154 155
3 153 155 152
3 155 156 151
3 155 151 152
3 103 102 157
3 103 157 158
3 157 159 160
3 157 160 158
3 160 154 153
3 160 153 158
3 153 105 103
3 153 103 158
3 161 141 140
3 161 140 162
3 140 135 163
3 140 163 162
3 163 154 160
3 163 160 162
3 160 159 161
3 160 161 162
3 133 132 164
3 133 164 165
3 164 156 155
3 164 155 165
3 155 154 163
3 155 163 165
3 163 135 133
3 163 133 165
3 97 96 166
3 97 166 167
3 166 168 169
3 166 169 167
3 169 170 171
3 169 171 167
3 171 99 97
3 171 97 167
3 172 173 174
3 172 174 175
3 174 176 177
3 174 177 175
3 177 170 169
3 177 169 175
3 169 168 172
3 169 172 175
3 178 179 180
3 178 180 181
3 180 182 183
3 180 183 181
3 183 170 177
3 183 177 181
3 177 176 178
3 177 178 181
3 184 102 101
3 184 101 185
3 101 99 171
3 101 171 185
3 171 170 183
3 171 183 185
3 183 182 184
3 183 184 185
3 122 121 186
3 122 186 187
3 186 188 189
3 186 189 187
3 189 190 191
3 189 191 187
3 191 124 122
3 191 122 187
3 192 193 194
3 192 194 195
3 194 196 197
3 194 197 195
3 197 190 189
3 197 189 195
3 189 188 192
3 189 192 195
3 198 173 172
3 198 172 199
3 172 168 200
3 172 200 199
3 200 190 197
3 200 197 199
3 197 196 198
3 197 198 199
3 166 96 126
3 166 126 201
3 126 124 191
3 126 191 201
3 191 190 200
3 191 200 201
3 200 168 166
3 200 166 201
3 142 141 202
3 142 202 203
3 202 204 205
3 202 205 203
3 205 206 207
3 205 207 203
3 207 144 142
3 207 142 203
3 208 209 210
3 208 210 211
3 210 212 213
3 210 213 211
3 213 206 205
3 213 205 211
3 205 204 208
3 205 208 211
3 214 193 192
3 214 192 215
3 192 188 216
3 192 216 215
3 216 206 213
3 216 213 215
3 213 212 214
3 213 214 215
3 186 121 146
3 186 146 217
3 146 144 207
3 146 207 217
3 207 206 216
3 207 216 217
3 216 188 186
3 216 186 217
3 157 102 184
3 157 184 218
3 184 182 219
3 184 219 218
3 219 220 221
3 219 221 218
3 221 159 157
3 221 157 218
3 180 179 222
3 180 222 223
3 222 224 225
3 222 225 223
3 225 220 219
3 225 219 223
3 219 182 180
3 219 180 223
3 226 209 208
3 226 208 227
3 208 204 228
3 208 228 227
3 228 220 225
3 228 225 227
3 225 224 226
3 225 226 227
3 202 141 161
3 202 161 229
3 161 159 221
3 161 221 229
3 221 220 228
3 221 228 229
3 228 204 202
3 228 202 229
3 174 173 230
3 174 230 231
3 230 232 233
3 230 233 231
3 233 234 235
3 233 235 231
3 235 176 174
3 235 174 231
3 236 237 238
3 236 238 239
3 238 240 241
3 238 241 239
3 241 234 233
3 241 233 239
3 233 232 236
3 233 236 239
3 242 243 244
3 242 244 245
3 244 246 247
3 244 247 245
3 247 234 241
3 247 241 245
3 241 240 242
3 241 242 245
3 248 179 178
3 248 178 249
3 178 176 235
3 178 235 249
3 235 234 247
3 235 247 249
3 247 246 248
3 247 248 249
3 194 193 250
3 194 250 251
3 250 252 253
3 250 253 251
3 253 254 255
3 253 255 251
3 255 196 194
3 255 194 251
3 256 257 258
3 256 258 259
3 258 260 261
3 258 261 259
3 261 254 253
3 261 253 259
3 253 252 256
3 253 256 259
3 262 237 236
3 262 236 263
3 236 232 264
3 236 264 263
3 264 254 261
3 264 261 263
3 261 260 262
3 261 262 263
3 230 173 198
3 230 198 265
3 198 196 255
3 198 255 265
3 255 254 264
3 255 264 265
3 264 232 230
3 264 230 265
3 210 209 266
3 210 266 267
3 266 268 269
3 266 269 267
3 269 270 271
3 269 271 267
3 271 212 210
3 271 210 267
3 272 273 274
3 272 274 275
3 274 276 277
3 274 277 275
3 277 270 269
3 277 269 275
3 269 268 272
3 269 272 275
3 278 257 256
3 278 256 279
3 256 252 280
3 256 280 279
3 280 270 277
3 280 277 279
3 277 276 278
3 277 278 279
3 250 193 214
3 250 214 281
3 214 212 271
3 214 271 281
3 271 270 280
3 271 280 281
3 280 252 250
3 280 250 281
3 222 179 248
3 222 248 282
3 248 246 283
3 248 283 282
3 283 284 285
3 283 285 282
3 285 224 222
3 285 222 282
3 244 243 286
3 244 286 287
3 286 288 289
3 286 289 287
3 289 284 283
3 289 283 287
3 283 246 244
3 283 244 287
3 290 273 272
3 290 272 291
3 272 268 292
3 272 292 291
3 292 284 289
3 292 289 291
3 289 288 290
3 289 290 291
3 266 209 226
3 266 226 293
3 226 224 285
3 226 285 293
3 285 284 292
3 285 292 293
3 292 268 266
3 292 266 293
3 238 237 294
3 238 294 295
3 294 296 297
3 294 297 295
3 297 298 299
3 297 299 295
3 299 240 238
3 299 238 295
3 300 1 0
3 300 0 301
3 0 8 302
3 0 302 301
3 302 298 297
3 302 297 301
3 297 296 300
3 297 300 301
3 23 22 303
3 23 303 304
3 303 305 306
3 303 306 304
3 306 298 302
3 306 302 304
3 302 8 23
3 302 23 304
3 307 243 242
3 307 242 308
3 242 240 299
3 242 299 308
3 299 298 306
3 299 306 308
3 306 305 307
3 306 307 308
3 258 257 309
3 258 309 310
3 309 311 312
3 309 312 310
3 312 313 314
3 312 314 310
3 314 260 258
3 314 258 310
3 315 10 9
3 315 9 316
3 9 4 317
3 9 317 316
3 317 313 312
3 317 312 316
3 312 311 315
3 312 315 316
3 2 1 300
3 2 300 318
3 300 296 319
3 300 319 318
3 319 313 317
3 319 317 318
3 317 4 2
3 317 2 318
3 294 237 262
3 294 262 320
3 262 260 314
3 262 314 320
3 314 313 319
3 314 319 320
3 319 296 294
3 319 294 320
3 274 273 321
3 274 321 322
3 321 323 324
3 321 324 322
3 324 325 326
3 324 326 322
3 326 276 274
3 326 274 322
3 327 16 15
3 327 15 328
3 15 13 329
3 15 329 328
3 329 325 324
3 329 324 328
3 324 323 327
3 324 327 328
3 11 10 315
3 11 315 330
3 315 311 331
3 315 331 330
3 331 325 329
3 331 329 330
3 329 13 11
3 329 11 330
3 309 257 278
3 309 278 332
3 278 276 326
3 278 326 332
3 326 325 331
3 326 331 332
3 331 311 309
3 331 309 332
3 286 243 307
3 286 307 333
3 307 305 334
3 307 334 333
3 334 335 336
3 334 336 333
3 336 288 286
3 336 286 333
3 303 22 21
3 303 21 337
3 21 19 338
3 21 338 337
3 338 335 334
3 338 334 337
3 334 305 303
3 334 303 337
3 17 16 327
3 17 327 339
3 327 323 340
3 327 340 339
3 340 335 338
3 340 338 339
3 338 19 17
3 338 17 339
3 321 273 290
3 321 290 341
3 290 288 336
3 290 336 341
3 336 335 340
3 336 340 341
3 340 323 321
3 340 321 341
3 79 38 342
3 79 342 343
3 342 344 345
3 342 345 343
3 345 346 347
3 345 347 343
3 347 81 79
3 347 79 343
3 348 108 151
3 348 151 349
3 151 156 350
3 151 350 349
3 350 346 345
3 350 345 349
3 345 344 348
3 345 348 349
3 164 132 351
3 164 351 352
3 351 353 354
3 351 354 352
3 354 346 350
3 354 350 352
3 350 156 164
3 350 164 352
3 355 63 83
3 355 83 356
3 83 81 347
3 83 347 356
3 347 346 354
3 347 354 356
3 354 353 355
3 354 355 356
3 64 63 355
3 64 355 357
3 355 353 358
3 355 358 357
3 358 359 360
3 358 360 357
3 360 66 64
3 360 64 357
3 351 132 131
3 351 131 361
3 131 139 362
3 131 362 361
3 362 359 358
3 362 358 361
3 358 353 351
3 358 351 361
3 149 112 363
3 149 363 364
3 363 365 366
3 363 366 364
3 366 359 362
3 366 362 364
3 362 139 149
3 362 149 364
3 367 51 71
3 367 71 368
3 71 66 360
3 71 360 368
3 360 359 366
3 360 366 368
3 366 365 367
3 366 367 368
3 52 51 367
3 52 367 369
3 367 365 370
3 367 370 369
3 370 371 372
3 370 372 369
3 372 54 52
3 372 52 369
3 363 112 111
3 363 111 373
3 111 119 374
3 111 374 373
3 374 371 370
3 374 370 373
3 370 365 363
3 370 363 373
3 129 87 375
3 129 375 376
3 375 377 378
3 375 378 376
3 378 371 374
3 378 374 376
3 374 119 129
3 374 129 376
3 379 32 57
3 379 57 380
3 57 54 372
3 57 372 380
3 372 371 378
3 372 378 380
3 378 377 379
3 378 379 380
3 33 32 379
3 33 379 381
3 379 377 382
3 379 382 381
3 382 383 384
3 382 384 381
3 384 35 33
3 384 33 381
3 375 87 86
3 375 86 385
3 86 94 386
3 86 386 385
3 386 383 382
3 386 382 385
3 382 377 375
3 382 375 385
3 109 108 348
3 109 348 387
3 348 344 388
3 348 388 387
3 388 383 386
3 388 386 387
3 386 94 109
3 386 109 387
3 342 38 37
3 342 37 389
3 37 35 384
3 37 384 389
3 384 383 388
3 384 388 389
3 388 344 342
3 388 342 389
