OFF
434 834 0
9.07517 2.56504 3.22265
9.23007 1.84544 3.53685
9.30147 1.83404 3.54225
9.14777 2.58024 3.22165
9.33717 1.82824 3.43475
9.18407 2.58774 3.12155
8.69147 3.23494 2.74575
8.65997 3.21494 2.83695
8.59687 3.17494 2.84565
9.34907 1.82634 3.11685
9.34907 1.82634 2.49075
9.19617 2.59024 2.26735
9.19617 2.59024 2.83325
8.70197 3.24164 1.99925
8.70197 3.24164 2.49295
7.96887 3.73884 1.73115
7.09907 4.04024 1.50775
7.09907 4.04024 1.86895
7.96887 3.73884 2.15255
7.09557 4.02854 2.05665
7.96137 3.72894 2.36995
7.08497 3.99344 2.13155
7.06397 3.92324 2.15425
7.89367 3.63944 2.46855
7.93877 3.69914 2.45215
7.62577 -0.351157 3.78165
6.71817 -0.719057 3.65295
7.04897 -1.01056 3.79565
7.71397 -0.486657 3.82675
7.18717 -1.13356 3.73345
7.80087 -0.560557 3.73995
8.48257 0.174943 3.71465
8.44447 0.212743 3.82175
8.38977 0.285243 3.80215
7.23327 -1.17456 3.40325
7.23327 -1.17456 2.71635
7.82987 -0.585157 2.71505
7.82987 -0.585157 3.40155
8.49517 0.162343 2.69205
8.49517 0.162343 3.37235
9.05857 0.991543 2.62475
9.05857 0.991543 3.28705
9.04897 0.997543 3.62275
8.96307 1.05154 3.72535
9.02037 1.01554 3.73455
4.98107 2.14254 -2.12255
4.46917 2.89644 -1.78635
5.06737 3.14124 -1.78535
5.57897 2.45114 -2.12135
5.78607 3.39314 -1.80655
6.29277 2.79694 -2.13165
6.89817 2.07794 -2.51275
6.19287 1.62304 -2.51565
5.59527 1.23784 -2.51695
6.50717 3.55994 -1.87165
7.04997 3.59954 -1.95935
7.56047 3.34304 -2.17895
6.99967 3.09294 -2.16415
8.13947 2.87874 -2.49355
7.58017 2.51794 -2.50625
8.54917 2.30514 -2.80185
8.71667 1.82744 -3.00855
8.46747 1.35594 -3.10915
8.06787 1.88294 -2.84035
7.96387 0.732743 -3.18415
7.48037 1.34394 -2.88525
7.31827 0.104843 -3.20995
6.72137 -0.420657 -3.21165
6.20947 0.333243 -2.90245
6.80677 0.794943 -2.90095
6.20617 3.99094 1.96555
6.19937 4.05884 1.93915
6.19597 4.09284 1.86875
5.33097 3.99204 1.77725
5.35057 3.94234 1.85265
5.39297 3.86184 1.88925
6.19487 4.10424 1.37375
6.19487 4.10424 1.69885
5.32437 4.00854 1.30675
5.32437 4.00854 1.61385
4.55587 3.83134 1.28475
3.95737 3.65034 1.28535
3.95737 3.65034 1.58655
4.55587 3.83134 1.58585
3.97927 3.59364 1.76275
4.56867 3.79624 1.75355
4.04497 3.42354 1.88385
4.20217 3.01904 2.04595
4.69687 3.55574 1.91175
4.60727 3.69094 1.84955
6.74607 0.863543 2.12225
7.10147 0.633543 2.34165
7.47047 0.699443 2.35885
7.11997 1.05264 2.04195
7.89117 0.942043 2.36775
7.54607 1.30044 2.02815
7.11567 1.75664 1.71335
6.69037 1.49424 1.74855
6.32177 1.29764 1.85505
8.19197 1.31794 2.35995
8.31777 1.65394 2.34345
8.17667 1.94384 2.12435
7.89947 1.63234 2.04305
7.85807 2.29814 1.85735
7.52807 2.03974 1.74985
7.42407 2.59894 1.64385
7.04897 2.78074 1.53345
6.69967 2.76304 1.40725
7.08627 2.42874 1.52395
6.28857 2.65364 1.34465
6.67237 2.23364 1.47025
5.97817 2.44194 1.40615
5.83267 2.21694 1.53155
5.99347 1.81604 1.64175
6.30677 1.99314 1.52275
4.57457 2.86394 2.14765
4.58017 1.99274 2.43725
4.77597 2.00274 2.46415
5.17077 0.962943 2.85475
5.30317 1.04694 2.85365
5.45117 1.13334 2.83415
4.99167 1.99184 2.48195
4.82137 2.78214 2.19065
5.88287 0.0117432 3.27005
6.77747 -0.287857 3.55635
5.99227 0.195943 3.24195
6.83297 -0.0285568 3.47715
6.09257 0.392543 3.18605
6.88877 0.136843 3.37825
6.94437 0.221043 3.23705
6.29107 0.589643 2.97585
6.19537 0.523043 3.10475
5.71937 1.23484 2.66265
5.59377 1.20094 2.77685
5.31097 1.98614 2.34975
5.14757 2.67314 2.08915
5.00797 2.72504 2.17595
5.16947 1.99374 2.44895
9.11107 1.86454 3.51635
8.86767 1.11144 3.69765
8.97157 1.88204 3.46825
8.75657 1.17784 3.64075
8.26367 0.528743 3.69965
8.32727 0.402143 3.76465
8.83907 1.88854 3.37995
8.74057 1.87484 3.23915
8.57737 1.26044 3.39525
8.65227 1.23334 3.54355
8.16917 0.690543 3.44685
8.20587 0.630643 3.59775
7.59767 0.299443 3.39405
7.58847 0.218843 3.54265
7.58957 0.0717432 3.64675
7.59317 -0.141657 3.72405
7.02887 3.80624 2.18535
7.81847 3.54004 2.48795
6.99017 3.66044 2.20115
7.73167 3.41524 2.48925
8.36907 3.02264 2.83485
8.49177 3.10814 2.85095
6.95827 3.50364 2.17765
6.94377 3.35384 2.09125
7.59707 3.14734 2.35245
7.65167 3.27954 2.45115
8.16877 2.82654 2.66555
8.25327 2.92614 2.77915
8.57717 2.39964 2.97855
8.67757 2.45764 3.10695
8.81247 2.50424 3.18045
8.95417 2.53994 3.21395
6.21757 3.87754 2.00365
5.46777 3.75294 1.93675
5.55667 3.62714 1.96855
6.23467 3.73614 2.02805
4.86267 3.43114 1.97825
5.04757 3.31824 2.02115
5.31077 3.12534 1.93305
5.19477 3.21804 2.01235
5.71897 3.37084 1.88145
5.64117 3.49644 1.95825
6.29047 3.43764 1.93425
6.25857 3.58374 2.01335
6.99967 0.236543 3.03085
6.37047 0.594643 2.77705
7.04817 0.272743 2.78845
6.45077 0.610043 2.54265
5.92387 1.19864 2.24875
5.81667 1.22024 2.47285
7.08337 0.419143 2.53855
6.54957 0.707843 2.30675
6.07927 1.21174 2.03235
5.59107 2.36434 1.58585
5.73637 1.81054 1.78755
5.38207 2.50964 1.72475
5.54217 1.88484 1.96255
5.25327 2.60694 1.91555
5.41787 1.94654 2.16875
8.70337 1.83164 3.03325
8.55437 1.24174 3.18475
8.65277 1.77024 2.79085
8.51637 1.21244 2.93205
8.15557 0.694143 2.97625
8.16907 0.691543 3.23485
8.51397 1.70214 2.54075
8.39657 1.20794 2.65665
8.07867 0.758743 2.68555
7.61697 0.465943 2.65545
7.64127 0.340843 2.93075
7.62507 0.312743 3.18355
6.95697 3.22894 1.91795
7.58617 3.03304 2.17175
6.98667 3.10164 1.72705
7.58537 2.91324 1.96555
8.11357 2.62434 2.25205
8.13997 2.73184 2.47595
7.02167 2.94454 1.58805
7.56087 2.76454 1.79035
8.03647 2.48634 2.03525
8.37407 2.13024 2.30955
8.49397 2.24214 2.54565
8.53877 2.32984 2.78005
5.40227 3.03474 1.76405
5.51977 2.91444 1.57615
5.88187 3.12884 1.52455
5.78757 3.26044 1.71395
5.71377 2.73294 1.44045
6.03707 2.93924 1.38205
6.49337 3.00634 1.44165
6.39487 3.18234 1.57745
6.33157 3.31494 1.76525
3.99057 2.78424 2.10185
3.73897 3.25924 1.90955
3.63257 3.47254 1.77015
3.46217 3.41454 1.77625
3.60427 3.17674 1.92685
3.89817 2.68914 2.12685
3.59717 3.54364 1.28625
3.59717 3.54364 1.58785
3.41477 3.49384 1.28795
3.41477 3.49384 1.58995
3.34987 3.48374 1.29065
3.34217 3.49604 1.29485
3.34217 3.49604 1.59865
3.34987 3.48374 1.59345
3.39387 3.41354 1.78735
3.40137 3.40154 1.78135
3.54887 3.16614 1.94265
3.86447 2.66224 2.13905
3.55577 3.15514 1.93615
3.86447 2.66224 -1.79575
3.92797 2.68084 -1.79105
4.44107 1.86784 -2.12795
4.37897 1.84064 -2.13355
5.05687 0.892143 -2.52335
4.99647 0.854843 -2.52995
4.10947 2.75094 -1.78805
4.62177 1.95824 -2.12445
5.23657 1.00704 -2.51935
6.36377 -0.736857 -3.21455
5.85137 0.0558432 -2.90515
6.18587 -0.896457 -3.21965
5.67267 -0.0834568 -2.90975
5.61387 -0.130957 -2.91725
6.12837 -0.952557 -3.22795
6.12837 -0.952557 3.58215
6.44177 -1.45286 3.78115
6.43707 -1.44546 3.76785
6.59667 -1.70026 3.75255
6.59147 -1.69186 3.73935
6.64767 -1.63286 3.73195
6.49347 -1.40286 3.76415
6.17927 -0.928357 3.58145
6.64837 -1.78276 3.43085
6.64837 -1.78276 2.73805
6.64297 -1.77406 2.72865
6.64297 -1.77406 3.41885
6.69907 -1.70946 2.72235
6.69907 -1.70946 3.41095
6.87607 -1.52946 2.71855
6.87607 -1.52946 3.40605
6.82447 -1.46886 3.73045
6.33747 -0.864357 3.59925
6.66977 -1.28696 3.77415
5.64807 -0.117757 3.25735
5.61387 -0.130957 3.25975
5.01647 0.865943 2.86085
4.99637 0.854843 2.86745
5.75297 -0.0815568 3.26795
5.07487 0.902343 2.85695
4.46167 1.92804 2.44295
4.40107 1.86024 2.46115
4.37897 1.84064 2.47165
6.64837 -1.78276 1.59625
6.64297 -1.77406 1.59095
6.64837 -1.78276 0.227846
6.64297 -1.77406 0.227646
6.69907 -1.70946 0.227446
6.69907 -1.70946 1.58745
6.64837 -1.78276 -1.14445
6.64837 -1.78276 -2.29795
6.64297 -1.77406 -2.28895
6.64297 -1.77406 -1.13955
6.69907 -1.70946 -2.28295
6.69907 -1.70946 -1.13645
6.87607 -1.52946 -2.27925
7.23327 -1.17456 -2.27715
7.23327 -1.17456 -1.13335
6.87607 -1.52946 -1.13445
7.23327 -1.17456 0.227346
6.87607 -1.52946 0.227346
7.23327 -1.17456 1.58415
6.87607 -1.52946 1.58535
7.82987 -0.585157 1.58345
7.82987 -0.585157 0.227346
8.49517 0.162343 0.226746
8.49517 0.162343 1.57065
7.82987 -0.585157 -2.27585
7.82987 -0.585157 -1.13265
8.49517 0.162343 -2.25385
8.49517 0.162343 -1.12095
9.05857 0.991543 -2.18935
9.34907 1.82634 -2.06075
9.34907 1.82634 -1.01825
9.05857 0.991543 -1.08665
9.34907 1.82634 0.222046
9.05857 0.991543 0.225146
9.34907 1.82634 1.45875
9.05857 0.991543 1.53325
9.19617 2.59024 1.33455
9.19617 2.59024 0.216746
8.70197 3.24164 0.210446
8.70197 3.24164 1.18555
9.19617 2.59024 -1.84655
9.19617 2.59024 -0.904254
8.70197 3.24164 -1.58945
8.70197 3.24164 -0.767454
7.96887 3.73884 -1.33235
7.09907 4.04024 -1.11805
7.09907 4.04024 -0.516654
7.96887 3.73884 -0.630654
7.09907 4.04024 0.198846
7.96887 3.73884 0.204146
7.09907 4.04024 0.912346
7.96887 3.73884 1.03655
6.19487 4.10424 0.837846
6.19487 4.10424 0.195746
5.32437 4.00854 0.194146
5.32437 4.00854 0.800646
6.19487 4.10424 -0.989554
6.19487 4.10424 -0.448254
5.32437 4.00854 -0.925354
5.32437 4.00854 -0.414054
4.55587 3.83134 -0.904254
3.95737 3.65034 -0.904754
3.95737 3.65034 -0.403154
4.55587 3.83134 -0.402854
3.95737 3.65034 0.193646
4.55587 3.83134 0.193646
3.95737 3.65034 0.788746
4.55587 3.83134 0.788446
3.34217 3.49604 0.794046
3.34987 3.48374 0.791746
3.41477 3.49384 0.790246
3.41477 3.49384 0.193746
3.34987 3.48374 0.193746
3.59717 3.54364 0.789246
3.59717 3.54364 0.193646
3.59717 3.54364 -0.905654
3.59717 3.54364 -0.403554
3.41477 3.49384 -0.907354
3.41477 3.49384 -0.404454
3.34987 3.48374 -0.405854
3.34987 3.48374 -0.909954
7.09907 4.04024 -1.48945
6.19487 4.10424 -1.32385
7.09297 3.98644 -1.70895
6.21707 4.04594 -1.52975
5.36827 3.94604 -1.44045
5.32437 4.00854 -1.24105
7.07467 3.82474 -1.85465
6.28377 3.87104 -1.68625
5.50007 3.75854 -1.60255
4.16207 3.34884 -1.57595
4.76047 3.55524 -1.57505
4.00857 3.57494 -1.41175
4.60697 3.76234 -1.41095
3.95737 3.65034 -1.21455
4.55587 3.83134 -1.21385
3.59717 3.54364 -1.21575
3.64837 3.46434 -1.41315
3.46607 3.41254 -1.41555
3.41477 3.49384 -1.21785
3.80207 3.22654 -1.57745
3.62007 3.16864 -1.58005
3.40137 3.40154 -1.41945
3.55577 3.15514 -1.58435
3.34987 3.48374 -1.22115
6.64837 -1.78276 -3.01025
6.64297 -1.77406 -2.99865
6.59667 -1.70026 -3.35535
6.59147 -1.69186 -3.34245
6.64777 -1.62816 -3.33385
6.69907 -1.70946 -2.99085
6.44177 -1.45286 -3.40745
6.43707 -1.44546 -3.39435
6.49377 -1.38426 -3.38565
7.02847 -0.873057 -3.37725
6.67117 -1.21246 -3.38025
7.18207 -1.09916 -3.32565
6.82487 -1.45026 -3.32865
7.23327 -1.17456 -2.98345
6.87607 -1.52946 -2.98615
7.82987 -0.585157 -2.98175
7.77867 -0.516157 -3.32385
8.43967 0.217343 -3.29265
8.49517 0.162343 -2.95335
7.62527 -0.309157 -3.37535
8.27307 0.382343 -3.34475
9.03497 1.82344 -3.08345
8.78377 1.10484 -3.25535
9.27057 1.82564 -3.02145
8.98987 1.01994 -3.20155
9.34907 1.82634 -2.70455
9.05857 0.991543 -2.87025
9.19617 2.59024 -2.42845
9.12317 2.56864 -2.72345
8.64557 3.20524 -2.36605
8.70197 3.24164 -2.09705
8.90417 2.50364 -2.80545
8.47627 3.09604 -2.47255
7.83597 3.55144 -2.13615
7.93567 3.69204 -2.00785
7.96887 3.73884 -1.76565
6.60417 -1.71216 -3.37375
3 0 1 2
3 0 2 3
3 2 4 5
3 2 5 3
3 5 6 7
3 5 7 3
3 7 8 0
3 7 0 3
3 9 10 11
3 9 11 12
3 11 13 14
3 11 14 12
3 14 6 5
3 14 5 12
3 5 4 9
3 5 9 12
3 15 16 17
3 15 17 18
3 17 19 20
3 17 20 18
3 20 6 14
3 20 14 18
3 14 13 15
3 14 15 18
3 21 22 23
3 21 23 24
3 23 8 7
3 23 7 24
3 7 6 20
3 7 20 24
3 20 19 21
3 20 21 24
3 25 26 27
3 25 27 28
3 27 29 30
3 27 30 28
3 30 31 32
3 30 32 28
3 32 33 25
3 32 25 28
3 34 35 36
3 34 36 37
3 36 38 39
3 36 39 37
3 39 31 30
3 39 30 37
3 30 29 34
3 30 34 37
3 40 10 9
3 40 9 41
3 9 4 42
3 9 42 41
3 42 31 39
3 42 39 41
3 39 38 40
3 39 40 41
3 2 1 43
3 2 43 44
3 43 33 32
3 43 32 44
3 32 31 42
3 32 42 44
3 42 4 2
3 42 2 44
3 45 46 47
3 45 47 48
3 47 49 50
3 47 50 48
3 50 51 52
3 50 52 48
3 52 53 45
3 52 45 48
3 54 55 56
3 54 56 57
3 56 58 59
3 56 59 57
3 59 51 50
3 59 50 57
3 50 49 54
3 50 54 57
3 60 61 62
3 60 62 63
3 62 64 65
3 62 65 63
3 65 51 59
3 65 59 63
3 59 58 60
3 59 60 63
3 66 67 68
3 66 68 69
3 68 53 52
3 68 52 69
3 52 51 65
3 52 65 69
3 65 64 66
3 65 66 69
3 70 22 21
3 70 21 71
3 21 19 72
3 21 72 71
3 72 73 74
3 72 74 71
3 74 75 70
3 74 70 71
3 17 16 76
3 17 76 77
3 76 78 79
3 76 79 77
3 79 73 72
3 79 72 77
3 72 19 17
3 72 17 77
3 80 81 82
3 80 82 83
3 82 84 85
3 82 85 83
3 85 73 79
3 85 79 83
3 79 78 80
3 79 80 83
3 86 87 88
3 86 88 89
3 88 75 74
3 88 74 89
3 74 73 85
3 74 85 89
3 85 84 86
3 85 86 89
3 90 91 92
3 90 92 93
3 92 94 95
3 92 95 93
3 95 96 97
3 95 97 93
3 97 98 90
3 97 90 93
3 99 100 101
3 99 101 102
3 101 103 104
3 101 104 102
3 104 96 95
3 104 95 102
3 95 94 99
3 95 99 102
3 105 106 107
3 105 107 108
3 107 109 110
3 107 110 108
3 110 96 104
3 110 104 108
3 104 103 105
3 104 105 108
3 111 112 113
3 111 113 114
3 113 98 97
3 113 97 114
3 97 96 110
3 97 110 114
3 110 109 111
3 110 111 114
3 115 87 116
3 115 116 117
3 116 118 119
3 116 119 117
3 119 120 121
3 119 121 117
3 121 122 115
3 121 115 117
3 123 26 124
3 123 124 125
3 124 126 127
3 124 127 125
3 127 120 119
3 127 119 125
3 119 118 123
3 119 123 125
3 128 129 130
3 128 130 131
3 130 132 133
3 130 133 131
3 133 120 127
3 133 127 131
3 127 126 128
3 127 128 131
3 134 135 136
3 134 136 137
3 136 122 121
3 136 121 137
3 121 120 133
3 121 133 137
3 133 132 134
3 133 134 137
3 43 1 138
3 43 138 139
3 138 140 141
3 138 141 139
3 141 142 143
3 141 143 139
3 143 33 43
3 143 43 139
3 144 145 146
3 144 146 147
3 146 148 149
3 146 149 147
3 149 142 141
3 149 141 147
3 141 140 144
3 141 144 147
3 150 129 128
3 150 128 151
3 128 126 152
3 128 152 151
3 152 142 149
3 152 149 151
3 149 148 150
3 149 150 151
3 124 26 25
3 124 25 153
3 25 33 143
3 25 143 153
3 143 142 152
3 143 152 153
3 152 126 124
3 152 124 153
3 23 22 154
3 23 154 155
3 154 156 157
3 154 157 155
3 157 158 159
3 157 159 155
3 159 8 23
3 159 23 155
3 160 161 162
3 160 162 163
3 162 164 165
3 162 165 163
3 165 158 157
3 165 157 163
3 157 156 160
3 157 160 163
3 166 145 144
3 166 144 167
3 144 140 168
3 144 168 167
3 168 158 165
3 168 165 167
3 165 164 166
3 165 166 167
3 138 1 0
3 138 0 169
3 0 8 159
3 0 159 169
3 159 158 168
3 159 168 169
3 168 140 138
3 168 138 169
3 154 22 70
3 154 70 170
3 70 75 171
3 70 171 170
3 171 172 173
3 171 173 170
3 173 156 154
3 173 154 170
3 88 87 115
3 88 115 174
3 115 122 175
3 115 175 174
3 175 172 171
3 175 171 174
3 171 75 88
3 171 88 174
3 136 135 176
3 136 176 177
3 176 178 179
3 176 179 177
3 179 172 175
3 179 175 177
3 175 122 136
3 175 136 177
3 180 161 160
3 180 160 181
3 160 156 173
3 160 173 181
3 173 172 179
3 173 179 181
3 179 178 180
3 179 180 181
3 130 129 182
3 130 182 183
3 182 184 185
3 182 185 183
3 185 186 187
3 185 187 183
3 187 132 130
3 187 130 183
3 188 91 90
3 188 90 189
3 90 98 190
3 90 190 189
3 190 186 185
3 190 185 189
3 185 184 188
3 185 188 189
3 113 112 191
3 113 191 192
3 191 193 194
3 191 194 192
3 194 186 190
3 194 190 192
3 190 98 113
3 190 113 192
3 195 135 134
3 195 134 196
3 134 132 187
3 134 187 196
3 187 186 194
3 187 194 196
3 194 193 195
3 194 195 196
3 146 145 197
3 146 197 198
3 197 199 200
3 197 200 198
3 200 201 202
3 200 202 198
3 202 148 146
3 202 146 198
3 203 100 99
3 203 99 204
3 99 94 205
3 99 205 204
3 205 201 200
3 205 200 204
3 200 199 203
3 200 203 204
3 92 91 188
3 92 188 206
3 188 184 207
3 188 207 206
3 207 201 205
3 207 205 206
3 205 94 92
3 205 92 206
3 182 129 150
3 182 150 208
3 150 148 202
3 150 202 208
3 202 201 207
3 202 207 208
3 207 184 182
3 207 182 208
3 162 161 209
3 162 209 210
3 209 211 212
3 209 212 210
3 212 213 214
3 212 214 210
3 214 164 162
3 214 162 210
3 215 106 105
3 215 105 216
3 105 103 217
3 105 217 216
3 217 213 212
3 217 212 216
3 212 211 215
3 212 215 216
3 101 100 203
3 101 203 218
3 203 199 219
3 203 219 218
3 219 213 217
3 219 217 218
3 217 103 101
3 217 101 218
3 197 145 166
3 197 166 220
3 166 164 214
3 166 214 220
3 214 213 219
3 214 219 220
3 219 199 197
3 219 197 220
3 176 135 195
3 176 195 221
3 195 193 222
3 195 222 221
3 222 223 224
3 222 224 221
3 224 178 176
3 224 176 221
3 191 112 111
3 191 111 225
3 111 109 226
3 111 226 225
3 226 223 222
3 226 222 225
3 222 193 191
3 222 191 225
3 107 106 215
3 107 215 227
3 215 211 228
3 215 228 227
3 228 223 226
3 228 226 227
3 226 109 107
3 226 107 227
3 209 161 180
3 209 180 229
3 180 178 224
3 180 224 229
3 224 223 228
3 224 228 229
3 228 211 209
3 228 209 229
3 230 87 86
3 230 86 231
3 86 84 232
3 86 232 231
3 232 233 234
3 232 234 231
3 234 235 230
3 234 230 231
3 82 81 236
3 82 236 237
3 236 238 239
3 236 239 237
3 239 233 232
3 239 232 237
3 232 84 82
3 232 82 237
3 240 241 242
3 240 242 243
3 242 244 245
3 242 245 243
3 245 233 239
3 245 239 243
3 239 238 240
3 239 240 243
3 246 247 248
3 247 235 234
3 247 234 248
3 234 233 245
3 234 245 248
3 245 244 246
3 245 246 248
3 249 250 251
3 249 251 252
3 251 253 254
3 251 254 252
3 255 46 45
3 255 45 256
3 45 53 257
3 45 257 256
3 257 253 251
3 257 251 256
3 251 250 255
3 251 255 256
3 68 67 258
3 68 258 259
3 258 260 261
3 258 261 259
3 261 253 257
3 261 257 259
3 257 53 68
3 257 68 259
3 254 253 261
3 254 261 262
3 261 260 263
3 261 263 262
3 264 265 266
3 265 267 268
3 265 268 266
3 268 269 270
3 268 270 266
3 270 271 264
3 270 264 266
3 272 273 274
3 272 274 275
3 274 276 277
3 274 277 275
3 277 269 268
3 277 268 275
3 268 267 272
3 268 272 275
3 278 35 34
3 278 34 279
3 34 29 280
3 34 280 279
3 280 269 277
3 280 277 279
3 277 276 278
3 277 278 279
3 27 26 281
3 27 281 282
3 281 271 270
3 281 270 282
3 270 269 280
3 270 280 282
3 280 29 27
3 280 27 282
3 264 271 283
3 264 283 284
3 283 285 286
3 283 286 284
3 281 26 123
3 281 123 287
3 123 118 288
3 123 288 287
3 288 285 283
3 288 283 287
3 283 271 281
3 283 281 287
3 116 87 230
3 116 230 289
3 230 235 290
3 230 290 289
3 290 285 288
3 290 288 289
3 288 118 116
3 288 116 289
3 286 285 290
3 286 290 291
3 290 235 247
3 290 247 291
3 274 273 292
3 274 292 293
3 292 294 295
3 292 295 293
3 295 296 297
3 295 297 293
3 297 276 274
3 297 274 293
3 298 299 300
3 298 300 301
3 300 302 303
3 300 303 301
3 303 296 295
3 303 295 301
3 295 294 298
3 295 298 301
3 304 305 306
3 304 306 307
3 306 308 309
3 306 309 307
3 309 296 303
3 309 303 307
3 303 302 304
3 303 304 307
3 310 35 278
3 310 278 311
3 278 276 297
3 278 297 311
3 297 296 309
3 297 309 311
3 309 308 310
3 309 310 311
3 36 35 310
3 36 310 312
3 310 308 313
3 310 313 312
3 313 314 315
3 313 315 312
3 315 38 36
3 315 36 312
3 306 305 316
3 306 316 317
3 316 318 319
3 316 319 317
3 319 314 313
3 319 313 317
3 313 308 306
3 313 306 317
3 320 321 322
3 320 322 323
3 322 324 325
3 322 325 323
3 325 314 319
3 325 319 323
3 319 318 320
3 319 320 323
3 326 10 40
3 326 40 327
3 40 38 315
3 40 315 327
3 315 314 325
3 315 325 327
3 325 324 326
3 325 326 327
3 11 10 326
3 11 326 328
3 326 324 329
3 326 329 328
3 329 330 331
3 329 331 328
3 331 13 11
3 331 11 328
3 322 321 332
3 322 332 333
3 332 334 335
3 332 335 333
3 335 330 329
3 335 329 333
3 329 324 322
3 329 322 333
3 336 337 338
3 336 338 339
3 338 340 341
3 338 341 339
3 341 330 335
3 341 335 339
3 335 334 336
3 335 336 339
3 342 16 15
3 342 15 343
3 15 13 331
3 15 331 343
3 331 330 341
3 331 341 343
3 341 340 342
3 341 342 343
3 76 16 342
3 76 342 344
3 342 340 345
3 342 345 344
3 345 346 347
3 345 347 344
3 347 78 76
3 347 76 344
3 338 337 348
3 338 348 349
3 348 350 351
3 348 351 349
3 351 346 345
3 351 345 349
3 345 340 338
3 345 338 349
3 352 353 354
3 352 354 355
3 354 356 357
3 354 357 355
3 357 346 351
3 357 351 355
3 351 350 352
3 351 352 355
3 358 81 80
3 358 80 359
3 80 78 347
3 80 347 359
3 347 346 357
3 347 357 359
3 357 356 358
3 357 358 359
3 360 241 240
3 360 240 361
3 240 238 362
3 240 362 361
3 362 363 364
3 362 364 361
3 364 360 361
3 236 81 358
3 236 358 365
3 358 356 366
3 358 366 365
3 366 363 362
3 366 362 365
3 362 238 236
3 362 236 365
3 354 353 367
3 354 367 368
3 367 369 370
3 367 370 368
3 370 363 366
3 370 366 368
3 366 356 354
3 366 354 368
3 364 363 370
3 364 370 371
3 370 369 372
3 370 372 371
3 348 337 373
3 348 373 374
3 373 375 376
3 373 376 374
3 376 377 378
3 376 378 374
3 378 350 348
3 378 348 374
3 379 55 54
3 379 54 380
3 54 49 381
3 54 381 380
3 381 377 376
3 381 376 380
3 376 375 379
3 376 379 380
3 47 46 382
3 47 382 383
3 382 384 385
3 382 385 383
3 385 377 381
3 385 381 383
3 381 49 47
3 381 47 383
3 386 353 352
3 386 352 387
3 352 350 378
3 352 378 387
3 378 377 385
3 378 385 387
3 385 384 386
3 385 386 387
3 367 353 386
3 367 386 388
3 386 384 389
3 386 389 388
3 389 390 391
3 389 391 388
3 391 369 367
3 391 367 388
3 382 46 255
3 382 255 392
3 255 250 393
3 255 393 392
3 393 390 389
3 393 389 392
3 389 384 382
3 389 382 392
3 394 390 393
3 394 393 395
3 393 250 249
3 393 249 395
3 372 369 391
3 372 391 396
3 391 390 394
3 391 394 396
3 300 299 397
3 300 397 398
3 397 399 400
3 397 400 398
3 400 401 402
3 400 402 398
3 402 302 300
3 402 300 398
3 403 263 404
3 263 260 405
3 263 405 404
3 405 401 400
3 405 400 404
3 400 399 403
3 400 403 404
3 258 67 406
3 258 406 407
3 406 408 409
3 406 409 407
3 409 401 405
3 409 405 407
3 405 260 258
3 405 258 407
3 410 305 304
3 410 304 411
3 304 302 402
3 304 402 411
3 402 401 409
3 402 409 411
3 409 408 410
3 409 410 411
3 316 305 410
3 316 410 412
3 410 408 413
3 410 413 412
3 413 414 415
3 413 415 412
3 415 318 316
3 415 316 412
3 406 67 66
3 406 66 416
3 66 64 417
3 66 417 416
3 417 414 413
3 417 413 416
3 413 408 406
3 413 406 416
3 62 61 418
3 62 418 419
3 418 420 421
3 418 421 419
3 421 414 417
3 421 417 419
3 417 64 62
3 417 62 419
3 422 321 320
3 422 320 423
3 320 318 415
3 320 415 423
3 415 414 421
3 415 421 423
3 421 420 422
3 421 422 423
3 332 321 422
3 332 422 424
3 422 420 425
3 422 425 424
3 425 426 427
3 425 427 424
3 427 334 332
3 427 332 424
3 418 61 60
3 418 60 428
3 60 58 429
3 60 429 428
3 429 426 425
3 429 425 428
3 425 420 418
3 425 418 428
3 56 55 379
3 56 379 430
3 379 375 431
3 379 431 430
3 431 426 429
3 431 429 430
3 429 58 56
3 429 56 430
3 373 337 336
3 373 336 432
3 336 334 427
3 336 427 432
3 427 426 431
3 427 431 432
3 431 375 373
3 431 373 432
3 433 399 397
3 403 399 433
