OFF
1239 2445 0
5.4005 7.93329 4.42219
6.6625 7.61799 4.32219
6.3205 8.40959 4.33019
5.6825 9.12529 4.20619
5.0105 8.45639 4.36219
6.7895 8.94789 4.15719
7.3045 9.58489 3.85919
6.7115 9.74239 3.91319
5.5845 9.96049 3.92619
4.4215 9.99649 3.90519
4.9465 9.24159 4.17819
3.7525 9.37229 4.06519
3.9655 8.74979 4.23819
4.1555 8.18709 4.34319
7.1655 10.5756 3.44319
7.8945 10.7759 3.02819
6.7615 11.4215 2.99319
6.1375 11.3456 3.17919
6.2215 10.5067 3.64019
5.6335 11.9777 2.79019
5.1295 11.7353 3.01619
4.5565 11.4327 3.22119
5.5795 10.8645 3.51419
4.4515 10.9221 3.49819
3.7075 12.4006 2.47519
2.4605 12.5176 2.10619
2.7825 11.9804 2.69919
3.4085 11.4084 3.16319
4.0865 12.003 2.83119
2.6985 11.0025 3.28419
1.9885 11.2888 2.95719
3.7215 10.3259 3.72519
4.6115 12.2698 2.61719
1.9375 9.81489 3.58619
1.2285 9.35959 3.39919
2.3465 8.91229 3.90319
2.9595 9.11379 4.01419
2.8695 10.027 3.72819
3.1545 8.53349 4.14719
1.9345 10.5043 3.33319
9.2425 7.83469 -5.66881
8.5205 7.81859 -6.44681
8.7295 8.40249 -5.96481
7.8165 8.15319 -6.88181
8.0035 8.85099 -6.35481
8.2035 9.46959 -5.68181
8.9945 8.92299 -5.31081
9.6015 8.28429 -4.94481
6.9525 8.50589 -7.24781
5.9885 8.84469 -7.49781
6.1425 9.62149 -6.93881
7.1235 9.26329 -6.69481
6.2595 10.3472 -6.20881
7.2795 9.95169 -5.98881
6.3565 11.031 -5.35381
6.4795 11.7244 -4.34981
7.6335 11.1633 -4.26381
7.4195 10.5736 -5.19581
8.4235 10.0895 -4.83381
9.4045 9.90799 -3.86781
10.2075 9.35049 -3.16381
9.9115 8.76619 -4.13081
9.2455 9.43479 -4.55581
3.1485 9.54079 -7.35881
2.3685 10.0479 -6.82781
3.1745 10.1831 -6.90781
2.1375 10.6615 -6.20081
3.0725 10.8189 -6.28681
4.1005 10.7965 -6.33981
4.1025 10.1017 -7.01681
4.0085 9.37359 -7.52781
1.9475 11.2575 -5.43881
1.7975 11.8319 -4.55181
2.8445 12.0291 -4.61181
2.9545 11.4429 -5.50881
3.9875 12.0565 -4.60481
4.0555 11.4531 -5.52381
5.1825 11.9503 -4.52781
5.2125 11.32 -5.46781
5.1805 10.634 -6.31881
4.9815 9.13779 -7.58281
5.1135 9.90769 -7.03681
1.6305 13.1727 -1.64681
1.6385 13.465 -0.811808
2.6865 13.7558 -0.591808
2.6995 13.3784 -1.69681
3.8465 13.7007 -0.828808
3.8425 13.4196 -1.67081
3.8555 13.0495 -2.62381
2.7225 13.0039 -2.64281
1.6485 12.7976 -2.59081
5.0475 13.5911 -0.719808
6.3435 13.3362 -0.522808
5.9845 13.1659 -1.50981
4.9915 13.3336 -1.58081
5.9155 12.8435 -2.45381
4.9635 12.9776 -2.55181
6.0565 12.3881 -3.39181
5.0635 12.5096 -3.54481
3.9115 12.5919 -3.61981
1.7005 12.348 -3.58081
2.7685 12.5518 -3.63581
9.0755 7.02439 -6.09181
8.4395 7.11669 -6.68181
9.1185 6.28889 -6.04881
8.3835 6.34269 -6.72481
7.5205 6.53519 -7.28281
7.6685 7.36689 -7.18281
9.0445 5.51049 -5.90981
8.8415 4.75909 -5.67281
8.0335 4.77809 -6.39581
8.2555 5.54289 -6.62681
7.0825 4.91109 -6.97781
7.3315 5.70099 -7.20981
6.0345 5.14359 -7.40781
4.9345 5.46139 -7.67881
5.2385 6.28289 -7.91681
6.3135 5.95689 -7.64481
5.5235 7.14249 -7.97481
6.5545 6.81409 -7.70781
5.7775 8.00739 -7.83881
6.7655 7.67659 -7.57981
7.5815 3.19459 -4.52381
7.3345 2.94149 -3.65281
6.5995 2.89519 -4.43081
6.8945 3.15719 -5.06081
5.7555 2.87119 -4.71881
6.0325 3.17389 -5.46481
6.3855 3.62589 -6.09181
7.2985 3.56109 -5.58581
8.0595 3.57429 -4.93681
4.7935 2.97419 -4.98281
3.7915 3.21609 -5.19281
4.0405 3.55519 -6.01581
5.0585 3.30199 -5.78881
4.3225 4.06449 -6.71381
5.3745 3.79009 -6.46881
4.6255 4.71089 -7.27381
5.7105 4.41269 -7.01281
6.7515 4.21209 -6.60081
8.4965 4.10479 -5.33381
7.6965 4.10949 -6.03981
1.2285 4.62569 -5.34581
0.503502 5.15309 -4.90881
0.673502 5.41769 -5.69981
1.3405 4.94249 -6.00581
0.645502 5.95649 -6.19781
1.4155 5.44949 -6.58581
2.3045 4.93489 -6.78481
2.1315 4.42689 -6.12881
1.9485 4.09679 -5.36681
0.729502 6.59779 -6.65381
0.936502 7.29479 -7.01581
1.7845 6.78179 -7.45781
1.5575 6.07859 -7.08281
2.7645 6.29529 -7.71081
2.5095 5.57219 -7.32081
3.8295 5.85029 -7.78281
3.5445 5.10689 -7.37981
3.2865 4.45969 -6.82381
2.8235 3.60859 -5.31881
3.0485 3.94739 -6.13081
2.1655 9.23919 -7.26481
2.8835 8.89729 -7.62581
3.7675 8.61749 -7.84481
3.4395 7.84329 -7.97581
2.5005 8.22869 -7.72381
1.7035 8.66579 -7.30781
4.7555 8.32099 -7.92181
4.4665 7.48339 -8.06181
4.1475 6.65109 -8.01281
3.0895 7.06079 -7.93081
1.2775 8.00089 -7.22881
2.1165 7.51099 -7.66981
6.5325 2.77299 -3.65981
7.5135 2.97039 -2.76481
6.5825 2.78079 -2.76781
5.5615 2.73209 -2.88381
5.6155 2.73269 -3.84881
7.6445 3.10699 -1.79781
7.7275 3.34669 -0.760808
6.6805 3.14649 -0.724808
6.6395 2.90909 -1.77381
5.5395 3.06019 -0.776808
5.5405 2.84289 -1.85081
4.3465 3.01159 -0.893808
3.0165 2.85689 -1.15081
3.2345 3.04929 -2.24881
4.3835 2.86789 -1.99981
3.4095 3.05539 -3.26281
4.4865 2.81739 -3.05681
3.5885 3.08019 -4.25981
4.6135 2.83279 -4.06181
7.6845 4.49319 2.23119
7.6205 4.88589 3.02119
6.5545 4.68199 3.07019
6.6075 4.28859 2.28019
5.3945 4.62279 3.08719
5.4655 4.20199 2.29919
4.4745 3.66129 1.36819
6.6535 3.87539 1.35219
7.7335 4.07929 1.30419
4.1875 4.65379 3.12519
2.8695 4.74339 3.31819
3.4575 3.91159 2.45619
4.3365 4.14899 2.34419
3.6225 3.37959 1.45819
3.5345 3.00069 0.309192
4.4175 3.27579 0.259192
5.5445 3.37889 0.312192
7.7525 3.68399 0.290192
6.6815 3.48159 0.333192
0.980502 4.56729 -4.60881
1.7165 3.99299 -4.51581
1.4465 4.00749 -3.67981
0.626502 4.64669 -3.85081
0.00150233 5.34839 -4.06881
2.6035 3.48209 -4.40481
2.3855 3.46459 -3.47781
1.8885 3.33769 -2.15081
2.1605 3.45249 -2.62281
0.856502 3.94139 -2.60181
1.1525 4.03219 -2.96781
-0.192498 4.67079 -2.75081
-1.4035 5.71789 -2.38981
-0.524498 5.54209 -3.27181
0.198502 4.74319 -3.12881
8.0325 3.22899 -3.80081
8.6125 3.64409 -4.13181
8.9965 3.78099 -3.20581
8.3205 3.30749 -2.93081
9.4625 4.86829 -4.81481
9.1015 4.19819 -4.48581
9.9155 5.08419 -3.85581
9.5355 4.37979 -3.52881
10.2225 5.38539 -2.82781
10.4055 5.75019 -1.76281
9.9905 4.96849 -1.43381
9.8235 4.63979 -2.50081
9.3965 4.28749 -1.13981
9.2505 3.99589 -2.19581
8.6375 3.73689 -0.907808
8.5195 3.47709 -1.94981
9.5775 7.18849 -5.42281
9.9755 7.52619 -4.65581
10.1395 6.70449 -4.40281
9.6975 6.42569 -5.27081
10.5405 8.39859 -2.80181
10.3015 7.95459 -3.77381
10.6685 7.49569 -2.44981
10.4615 7.07669 -3.45481
10.6275 6.60269 -2.10281
10.4355 6.20899 -3.14281
10.1185 5.87479 -4.14181
9.6605 5.63159 -5.07281
10.4105 10.3139 -0.151808
10.0725 10.9442 0.616192
10.4465 10.0006 0.983192
10.6015 9.60439 0.188192
10.5915 9.09939 1.34819
10.7045 8.73949 0.543192
10.7745 8.33039 -0.391808
10.6995 9.16549 -0.739808
10.5365 9.86519 -1.03081
10.5145 8.31179 1.97719
10.3275 7.35059 2.07119
10.4235 6.98549 1.27119
10.6515 7.85239 0.912192
10.4835 6.57829 0.333192
10.7125 7.44969 -0.025808
10.4845 6.15719 -0.693808
10.7125 7.02469 -1.04681
10.7685 7.91469 -1.40981
10.4945 9.53519 -2.01381
10.6755 8.78289 -1.76281
8.5155 5.41439 3.12919
8.6175 4.90009 2.09119
8.6695 4.48639 1.16219
9.4485 5.06179 0.943192
9.3935 5.47439 1.87419
9.3105 5.85719 2.66819
8.6815 4.08599 0.146192
9.4565 4.65449 -0.077808
10.0615 5.35599 -0.363808
10.0575 5.77069 0.662192
9.8765 6.67579 2.64219
9.9995 6.18119 1.59619
-1.6395 7.47609 0.727192
-1.5465 7.54849 1.96219
-1.4335 8.40099 1.34319
-1.5185 8.12099 0.461192
-1.4065 9.26319 0.890192
-1.4585 8.94269 0.056192
-1.4495 8.56049 -0.908808
-1.5145 7.75959 -0.565808
-1.6225 7.14509 -0.300808
-1.3045 10.1429 0.492192
-1.0695 11.0003 0.137192
-1.1085 10.6804 -0.686808
-1.3445 9.81459 -0.328808
-1.1015 10.2931 -1.63381
-1.3365 9.42579 -1.27381
-1.0305 9.85249 -2.65081
-0.876498 9.37269 -3.68081
-1.1005 8.53579 -3.32181
-1.2605 8.99389 -2.28981
-1.1985 7.66059 -2.95181
-1.3735 8.11709 -1.92781
-1.2385 6.75849 -2.61381
-1.5765 6.63069 -1.30181
-1.4415 7.26109 -1.60281
0.730502 13.1523 -0.409808
0.702502 12.7651 -1.50581
0.715502 12.3876 -2.45081
-0.0624977 11.8097 -2.23581
-0.0714977 12.1906 -1.28981
-0.0444977 12.4942 -0.458808
0.888502 11.4285 -4.42481
0.773502 11.9391 -3.44481
0.131502 10.8582 -4.23581
0.000502327 11.3621 -3.23781
-0.461498 10.1599 -3.98681
-0.605498 10.6543 -2.96981
-0.672498 11.0996 -1.95881
-0.629498 11.8911 0.076192
-0.679498 11.484 -1.01181
1.6735 9.72209 -6.76481
1.1035 9.18099 -6.72981
0.662502 9.73979 -6.01181
1.3335 10.2846 -6.12081
0.265502 7.81969 -6.37781
0.622502 8.52979 -6.60781
-0.247498 8.34709 -5.58381
0.129502 9.07859 -5.83881
-0.622498 8.86779 -4.67181
-0.224498 9.62829 -4.95381
0.345502 10.3081 -5.16981
1.0735 10.8652 -5.32881
0.131502 5.77629 -5.14881
-0.351498 6.07859 -4.41481
-0.486498 6.82909 -4.82381
0.0205023 6.40899 -5.59481
-0.841498 6.38519 -3.56081
-0.897498 7.23879 -3.92981
-0.835498 8.06879 -4.31581
-0.452498 7.59119 -5.22981
0.0645023 7.10139 -6.02281
7.5295 5.32229 3.80419
6.5045 5.01639 3.67319
6.4575 5.38789 4.23719
5.3635 5.00629 3.71619
7.3955 5.78569 4.43119
6.3695 5.70859 4.56819
5.3445 5.58609 4.46119
4.1985 5.82779 4.44319
3.1215 6.06969 4.26919
4.1745 5.41229 4.02119
3.0165 5.68719 3.87019
2.9595 5.34859 3.58819
4.1535 5.07059 3.65219
7.2365 6.12219 4.61019
7.0755 6.26999 4.28019
6.2115 6.09059 4.42119
5.2415 6.07649 4.33319
5.2655 5.97679 4.57219
6.3085 5.90669 4.64419
4.2405 6.20019 4.30819
3.2525 6.45489 4.10519
3.1865 6.37209 4.33419
4.2145 6.02279 4.52419
3.1355 6.24049 4.36019
5.2875 5.83209 4.60619
0.679502 7.86399 3.48319
0.160502 8.48659 3.10619
-0.147498 8.49049 3.35619
0.431502 7.78959 3.64719
1.2955 7.24939 3.89819
1.4605 7.29599 3.65419
-0.373498 8.35809 3.18519
0.282502 7.65469 3.53619
1.1245 7.07499 3.88019
2.0505 6.51459 4.07919
2.1405 6.68719 4.17219
2.2885 6.82609 3.97719
-0.906498 7.84789 2.39419
-0.387498 6.98869 2.72219
-0.174498 7.14949 2.83419
0.661502 6.36189 3.12419
0.813502 6.52489 3.22119
0.0415023 7.34009 3.09719
-0.630498 8.06389 2.73819
1.7115 5.66069 3.36019
1.8405 5.86709 3.44919
1.9165 6.13049 3.67019
9.8825 11.1043 1.27219
10.2955 10.2552 1.60619
9.6425 11.3046 1.98119
10.1085 10.4485 2.23319
10.4305 9.41829 2.15719
9.4335 11.3932 2.35619
9.8915 10.6045 2.61819
10.1645 9.73799 2.86019
10.0595 8.97329 3.31419
9.9365 8.10399 3.53819
10.2755 8.76759 2.93619
10.1805 7.73719 2.87519
9.2155 11.3516 2.43519
8.9995 11.2007 2.26119
9.4135 10.5459 2.64719
9.5275 9.77329 2.88319
9.8545 9.86229 3.11819
9.7095 10.6383 2.76019
9.5675 9.06119 3.28019
9.3235 8.32289 3.48919
9.6365 8.31399 3.76519
9.8715 9.06159 3.43219
7.8755 6.60149 4.26219
8.0755 6.44929 4.47519
8.7325 6.98539 4.29619
8.4765 7.07869 3.98619
8.2005 6.27069 4.39319
8.9795 6.69919 4.09919
9.4635 7.44369 3.94019
9.2955 7.58319 4.03819
9.0235 7.66899 3.85019
9.1845 6.27449 3.45919
8.3465 5.96649 4.05219
9.6585 7.18359 3.58319
1.6725 13.7239 0.052192
2.7265 14.0154 0.458192
3.8125 13.9438 0.025192
1.7645 13.8541 0.827192
2.7815 14.0308 0.926192
3.8325 14.0635 0.813192
4.9465 13.9103 1.05119
6.0255 13.6201 1.29719
6.1035 13.6179 0.861192
4.9485 13.8997 0.597192
6.2105 13.4884 0.139192
5.0315 13.7634 -0.057808
1.9075 13.7524 1.20119
2.0835 13.4171 1.08719
2.9425 13.6645 1.10719
3.9205 13.6025 1.07119
3.8805 13.875 1.18519
2.8375 13.95 1.12419
4.9135 13.5549 1.22019
5.8995 13.2262 1.29819
5.9595 13.4797 1.42319
4.9295 13.8336 1.24519
3.8575 13.9992 1.10419
8.4745 11.8913 2.04619
8.7115 12.0669 2.12219
7.8505 12.6025 1.85919
7.6995 12.3912 1.71319
8.8595 12.0826 1.95819
8.0875 12.7 1.56919
7.9625 12.6833 1.80119
7.1135 13.2274 1.35019
7.0035 13.169 1.59719
6.8655 12.929 1.55219
9.2695 11.7865 0.556192
8.3095 12.5256 0.693192
9.0105 12.0194 1.59519
7.3265 13.0835 0.575192
-1.2395 8.65559 1.94819
-1.0215 8.86919 2.36119
-1.2975 9.53659 1.55819
-1.0075 9.93279 2.40619
-0.769498 9.11879 2.85019
-0.909498 10.7661 2.18019
-0.776498 11.538 1.71819
-1.1005 10.6517 1.75119
-0.977498 11.3104 0.980192
-1.2335 10.3937 1.13419
-0.260498 9.20939 2.88219
-0.368498 9.91379 2.48419
-0.711498 10.017 2.69119
-0.565498 9.21879 3.00819
-0.413498 10.6941 2.24819
-0.164498 11.3642 1.87819
-0.491498 11.5635 2.04419
-0.726498 10.796 2.33619
1.2785 13.1537 1.26619
1.0705 13.4075 1.29319
0.412502 12.8894 1.51519
0.682502 12.6085 1.38119
0.953502 13.4695 1.10019
0.183502 12.9415 1.15819
-0.308498 12.2964 1.55319
-0.149498 12.274 1.73119
0.130502 12.0862 1.67819
0.0255023 12.7735 0.397192
0.833502 13.4334 0.637192
-0.477498 12.2171 1.10619
6.1145 6.10619 3.69519
5.2175 6.08949 3.64819
4.2855 6.20799 3.59019
3.3615 6.44229 3.43519
6.9295 6.28069 3.64519
0.469502 8.35149 2.54819
0.980502 7.75199 2.82419
1.6835 7.23959 3.06019
2.4735 6.78879 3.28219
9.0875 10.2413 2.04919
9.2295 8.86329 2.63619
9.0295 8.19869 2.90519
9.2205 9.55409 2.33919
8.7265 10.8871 1.75819
7.6595 6.58039 3.54819
8.2385 7.03599 3.37019
8.7255 7.57119 3.16519
3.0805 13.1358 0.619192
4.9095 13.0341 0.725192
5.8305 12.7792 0.859192
3.9815 13.131 0.647192
2.2665 12.9579 0.662192
8.2155 11.49 1.49119
7.5125 11.999 1.24719
6.7215 12.4532 1.03219
0.108502 9.00059 2.26619
-0.0334977 10.3787 1.67819
0.166502 11.0398 1.40119
-0.0244977 9.68449 1.96719
1.5365 12.6617 0.767192
0.957502 12.2026 0.936192
0.470502 11.6708 1.14919
5.9755 6.61709 4.09919
6.6825 6.87239 4.13719
5.1345 6.73879 4.16919
4.2955 6.80699 4.07819
3.4695 7.07519 3.99619
5.2455 7.47019 4.40519
5.8125 7.14859 4.33219
3.6495 7.77569 4.25619
4.3475 7.52539 4.33919
2.2075 8.44409 3.88919
1.6125 8.49499 3.61819
0.846502 8.74329 3.14619
1.2555 8.13009 3.29719
1.9485 7.76009 3.62819
2.9475 7.97399 4.10219
2.6585 7.33189 3.80019
8.6445 10.4382 2.65919
8.3055 11.0339 2.43319
8.7335 9.84359 2.98019
8.7545 9.20369 3.21719
8.6605 8.54109 3.39019
8.0515 9.77409 3.52019
7.6825 9.12649 3.88819
8.2125 8.84709 3.71019
7.2385 8.13099 4.18919
7.8475 7.57179 3.91019
7.3505 7.11929 4.01819
8.2995 8.03639 3.69519
7.6455 8.53789 4.02419
3.1835 13.0722 1.27319
2.4695 12.9046 1.44219
4.0155 13.0585 1.45919
4.8565 12.9659 1.49219
5.6795 12.7409 1.67619
3.8735 12.7152 2.14019
3.3195 12.8726 1.82619
5.4675 12.4349 2.34819
4.7725 12.6517 2.18619
6.9125 11.741 2.65619
7.5205 11.5263 2.53919
7.9035 11.5592 2.07519
7.2015 12.0373 1.99919
6.1725 12.203 2.42419
6.4935 12.4412 1.77019
0.509502 9.31209 2.85719
0.416502 9.95369 2.64819
0.397502 10.5692 2.35319
0.497502 11.1577 2.00419
1.1175 10.0934 3.14919
1.4315 11.1301 2.82619
1.0855 10.6407 2.91019
0.919502 11.1849 2.47219
1.8805 12.0505 2.34819
1.3035 12.2255 1.71819
1.8045 12.6309 1.49819
0.853502 11.7365 1.87519
1.4745 11.6392 2.50119
9.8365 11.2307 0.039192
9.6055 11.3949 -0.442808
9.0175 11.9011 -0.214808
9.3475 11.4122 -0.962808
7.0005 13.0101 -0.809808
7.8755 12.5993 -0.539808
7.2195 12.7609 -1.40981
9.9855 10.0383 -2.84281
10.2225 10.1904 -2.08881
9.7375 10.5098 -2.60981
10.0465 10.7124 -1.44881
10.3345 10.3396 -1.22781
10.1315 10.8404 -0.512808
7.1245 11.8275 -3.71681
7.7985 11.648 -3.35981
8.6645 10.8378 -3.64181
8.6715 11.2457 -2.78081
9.3175 10.6181 -3.12381
6.6555 12.9617 -1.53981
7.1525 12.4934 -2.30281
6.5775 12.7028 -2.35881
7.7115 12.3277 -1.69481
8.0055 11.7325 -2.76881
6.8715 12.2857 -3.08881
7.8875 12.3374 -1.31881
7.7595 12.0283 -2.46781
9.4055 10.9085 -2.26181
9.0555 11.0426 -2.60781
9.5705 11.0578 -1.54481
8.6625 11.9578 -0.827808
8.1895 12.2239 -1.03281
-2.4825 1.61649 6.82319
-1.2205 1.30139 6.72319
-1.5625 2.09289 6.73219
-1.9395 2.76239 6.61219
-2.8725 2.13949 6.76319
-0.769498 2.77889 6.46119
-1.1715 3.42569 6.31519
-2.2985 3.64379 6.32719
-3.7755 4.12889 6.10519
-3.8425 3.55159 6.33019
-2.9365 2.92489 6.57919
-4.1305 3.05579 6.46619
-3.9175 2.43309 6.64019
-3.7275 1.87029 6.74419
-0.717498 4.25889 5.84419
0.0115023 4.45909 5.43019
-1.1225 5.10489 5.39419
-1.7455 5.02869 5.58019
-1.6625 4.18969 6.04219
-1.9335 5.52409 5.24619
-2.9355 5.88079 5.07519
-2.7535 5.41859 5.41719
-2.5465 4.86579 5.75519
-2.8385 4.41549 5.99919
-0.525498 3.50759 6.14719
-4.1765 6.08379 4.87619
-5.4225 6.20079 4.50719
-5.1015 5.66369 5.10019
-4.4745 5.09149 5.56419
-3.7965 5.68629 5.23219
-5.5725 5.15309 5.33919
-6.0855 4.48319 5.55819
-5.2905 4.41469 5.79619
-3.7415 5.00889 5.67119
-5.9455 3.49779 5.98719
-6.6545 3.04299 5.80019
-5.5365 2.59539 6.30419
-4.9235 2.79709 6.41519
-5.0135 3.71019 6.12919
-4.7285 2.21669 6.54919
1.3195 1.45289 -3.31781
0.635502 1.49019 -4.04081
0.841502 2.06559 -3.55581
-0.0694977 1.82619 -4.47581
0.116502 2.51459 -3.94481
0.335502 3.10949 -3.33881
1.1465 2.55959 -2.95581
1.7645 1.92819 -2.57081
-0.932498 2.17969 -4.84281
-1.8965 2.51949 -5.09281
-1.7445 3.28789 -4.53081
-0.763498 2.92779 -4.28581
-1.6275 4.02379 -3.84381
-0.601498 3.61179 -3.63581
-1.5235 4.75879 -3.12881
-0.434498 4.24319 -3.02181
0.583502 3.60939 -2.80781
2.2285 2.36519 -1.86881
1.5225 3.01189 -2.37481
-4.7355 3.22059 -4.95681
-5.5135 3.71689 -4.43381
-4.7105 3.85989 -4.50481
-5.7525 4.35719 -3.80981
-4.8155 4.49569 -3.91181
-3.7865 4.45669 -3.97681
-3.7835 3.77479 -4.61181
-3.8755 3.05179 -5.12481
-5.9625 5.00419 -3.08481
-6.1505 5.74349 -2.20181
-5.0075 5.66839 -2.57281
-4.9465 5.12669 -3.22181
-3.8935 5.60409 -2.66281
-3.8325 5.08599 -3.29381
-2.7355 5.57959 -2.57981
-2.6735 5.00149 -3.24181
-2.7065 4.30239 -3.95581
-2.9035 2.81409 -5.17881
-2.7725 3.57719 -4.62981
1.1905 0.69819 -3.68681
0.554502 0.79379 -4.27881
1.2335 -0.0335098 -3.64481
0.500502 0.0230902 -4.32281
-0.362498 0.21689 -4.88181
-0.215498 1.04569 -4.77981
1.1605 -0.80941 -3.50681
0.958502 -1.55921 -3.27081
0.150502 -1.53921 -3.99481
0.372502 -0.77511 -4.22481
-0.800498 -1.40591 -4.57581
-0.551498 -0.61611 -4.80881
-1.8485 -1.17321 -5.00681
-2.9485 -0.85531 -5.27781
-2.6445 -0.0339098 -5.51581
-1.5705 -0.35991 -5.24381
-2.3595 0.82489 -5.57281
-1.3285 0.49639 -5.30581
-2.1055 1.68729 -5.43681
-1.1185 1.35609 -5.17781
-0.301498 -3.12331 -2.12181
-0.550498 -3.37651 -1.26581
-1.2845 -3.42491 -2.02781
-0.989498 -3.16101 -2.65881
-2.1295 -3.45071 -2.31481
-1.8505 -3.14491 -3.06281
-1.4975 -2.69141 -3.69081
-0.584498 -2.75611 -3.18481
0.176502 -2.74291 -2.53581
-3.0905 -3.34941 -2.57881
-4.0935 -3.10911 -2.78781
-3.8435 -2.76491 -3.61281
-2.8255 -3.01751 -3.38681
-3.5605 -2.25311 -4.31281
-2.5085 -2.52731 -4.06781
-3.2575 -1.60581 -4.87181
-2.1725 -1.90411 -4.61181
-1.1325 -2.10471 -4.19881
0.613502 -2.21261 -2.93281
-0.186498 -2.20751 -3.63881
-6.6565 -1.70271 -2.93981
-7.4275 -1.17361 -2.41781
-7.2115 -0.90851 -3.29481
-6.5445 -1.38041 -3.60281
-7.2385 -0.36591 -3.79481
-6.4675 -0.87011 -4.18381
-5.5785 -1.38331 -4.38381
-5.7525 -1.89431 -3.72581
-5.9365 -2.23021 -2.96181
-7.1545 0.27789 -4.25181
-6.9475 0.97649 -4.61381
-6.0985 0.46439 -5.05581
-6.3255 -0.23941 -4.68081
-5.1185 -0.0216098 -5.30981
-5.3735 -0.74491 -4.91981
-4.0535 -0.46651 -5.38081
-4.3385 -1.20991 -4.97881
-4.5965 -1.85801 -4.42181
-5.0625 -2.71751 -2.91381
-4.8355 -2.37311 -3.72781
-5.7175 2.92129 -4.86381
-4.9995 2.57909 -5.22381
-4.1165 2.29869 -5.44281
-4.4435 1.52599 -5.57481
-5.3825 1.91149 -5.32281
-6.1795 2.34859 -4.90581
-3.1285 2.00149 -5.51881
-3.4165 1.16599 -5.66081
-3.7355 0.33439 -5.61181
-4.7935 0.74389 -5.52881
-6.6055 1.68359 -4.82781
-5.7665 1.19399 -5.26781
-1.3525 -3.55021 -1.25581
-0.360498 -3.37411 -0.360808
-1.2945 -3.57231 -0.386808
-2.3175 -3.61771 -0.516808
-2.2695 -3.59411 -1.44381
-0.197498 -3.30741 0.609192
-0.0464977 -3.19831 1.74419
-1.1745 -3.46111 1.34419
-1.2105 -3.52681 0.537192
-2.3165 -3.56401 0.396192
-3.4375 -3.33491 1.17219
-4.6815 -2.95091 1.42619
-4.5905 -3.13191 0.240192
-3.4585 -3.43101 0.324192
-4.4635 -3.24521 -0.832808
-3.3895 -3.50931 -0.669808
-4.2985 -3.25341 -1.85181
-3.2735 -3.49771 -1.65481
-7.8655 0.59769 4.61119
-8.5535 1.23019 4.01319
-8.5885 0.86739 3.20719
-7.8995 0.0982902 3.55519
-8.5825 0.46409 2.27419
-7.8895 -0.30921 2.62319
-7.0465 -0.99071 2.94019
-7.0435 -0.58121 3.87919
-7.0015 -0.20541 4.68419
-8.5155 0.0505902 1.26919
-8.3705 -0.34301 0.248192
-7.6965 -1.10111 0.579192
-7.8275 -0.71991 1.61319
-6.8345 -1.78751 0.875192
-6.9725 -1.40751 1.92419
-5.8415 -2.39621 1.14719
-5.1905 -2.44071 2.46319
-6.0325 -2.00231 2.20219
-5.0615 -2.13511 3.53619
-6.1495 -1.56441 3.21719
-5.2505 -1.60681 4.38119
-4.8145 -1.28781 5.32519
-5.9945 -0.78751 4.99619
-6.0995 -1.15791 4.17719
-6.9075 -1.76951 -2.19881
-6.1715 -2.34341 -2.10581
-6.4205 -2.28021 -1.17081
-7.2105 -1.65171 -1.36581
-7.8165 -0.96451 -1.62581
-5.2835 -2.85331 -1.99581
-5.4885 -2.82341 -0.996808
-5.6675 -2.67051 0.066192
-6.6455 -2.08671 -0.166808
-8.1305 -0.68621 -0.733808
-7.4825 -1.42031 -0.426808
0.149502 -3.08921 -1.39981
0.729502 -2.67341 -1.72981
1.1155 -2.54001 -0.802808
0.443502 -3.02421 -0.523808
1.5785 -1.45151 -2.41281
1.2175 -2.11981 -2.08381
2.0315 -1.23731 -1.45281
1.6515 -1.93891 -1.12781
2.3395 -0.93751 -0.423808
2.5235 -0.57301 0.641192
2.1075 -1.35081 0.968192
1.9395 -1.67941 -0.097808
1.5325 -2.05071 1.27019
1.3745 -2.33511 0.211192
0.829502 -2.66301 1.52919
0.662502 -2.89401 0.474192
1.6905 0.85669 -3.01481
2.1205 1.18119 -2.26481
2.2615 0.37059 -1.99981
1.8125 0.0985902 -2.86581
2.9035 2.00439 -0.496808
2.5455 1.58399 -1.43781
2.8485 1.14619 -0.067808
2.6085 0.73379 -1.06481
2.7465 0.27319 0.304192
2.5515 -0.11991 -0.736808
2.2335 -0.45151 -1.73681
1.7755 -0.69151 -2.66881
2.8315 3.71199 3.47719
3.0695 3.27159 2.67219
2.7945 2.79109 3.77219
2.9265 2.41639 2.96719
2.9995 1.99029 2.02119
3.1975 2.78279 1.69519
2.6885 1.89189 4.11819
2.4545 1.03449 4.47219
2.5485 0.66759 3.67219
2.7845 1.53339 3.31419
2.6055 0.25829 2.73619
2.8405 1.12639 2.37819
2.6045 -0.16481 1.71019
2.8355 0.69749 1.35819
2.9765 1.56589 0.985192
3.1315 2.38219 0.593192
0.725502 -1.07271 5.34719
-0.179498 -1.55601 5.59819
0.296502 -1.91681 4.70419
0.896502 -1.45661 4.54319
0.455502 -2.31811 3.77619
1.0115 -1.86841 3.59419
1.6225 -1.26481 3.35219
1.5515 -0.85251 4.28819
1.4445 -0.47081 5.08519
0.372502 -2.74401 2.80319
0.967502 -2.29591 2.58019
1.6155 -1.67911 2.33219
2.1795 -0.96291 2.03819
2.1765 -0.54741 3.06319
2.0295 0.23929 4.79419
2.1195 -0.13601 3.99819
-8.9695 2.17769 3.89919
-9.0275 1.71329 2.83419
-9.1875 2.94329 3.26619
-9.2305 2.60089 2.45119
-9.2275 2.20449 1.51219
-9.0235 1.31349 1.89819
-9.1505 3.93109 3.15119
-8.9435 4.68419 2.53919
-8.9835 4.36249 1.71519
-9.2115 3.49559 2.07419
-8.9785 3.97309 0.768192
-9.2075 3.10249 1.13019
-8.9105 3.53049 -0.246808
-8.7585 3.04959 -1.27681
-8.9825 2.20629 -0.915808
-9.1385 2.66659 0.116192
-9.0005 1.34019 -0.523808
-9.1575 1.77669 0.502192
-8.8015 0.48059 -0.127808
-8.9545 0.89369 0.892192
-7.2045 6.81619 1.72619
-6.2705 7.34319 1.58219
-6.6625 6.94369 0.690192
-7.3115 6.50339 0.887192
-6.7515 6.56169 -0.226808
-7.3585 6.10949 -0.065808
-7.9925 5.50229 0.161192
-7.9875 5.88749 1.10919
-7.9375 6.19519 1.94119
-6.6115 6.17129 -1.17881
-7.0515 5.19139 -2.04881
-7.2495 5.68349 -1.06681
-7.7665 4.56069 -1.84081
-7.9175 5.06019 -0.842808
-8.3445 3.84059 -1.58481
-8.4875 4.33539 -0.567808
-8.5535 4.78159 0.442192
-8.5135 5.56739 2.48619
-8.5595 5.16679 1.38919
-6.2105 3.40389 -4.36281
-6.7805 2.86349 -4.32881
-7.2215 3.42539 -3.61081
-6.5545 3.97909 -3.72281
-7.6185 1.49979 -3.97581
-7.2605 2.21179 -4.20581
-8.1315 2.02549 -3.18081
-7.7535 2.75989 -3.43681
-8.5055 2.54499 -2.26781
-8.1075 3.30909 -2.55181
-7.5425 4.00339 -2.77281
-6.8275 4.59909 -2.94281
-7.7555 -0.55561 -2.74181
-8.1935 -0.24481 -1.99481
-8.3605 0.50059 -2.41381
-7.8655 0.0818902 -3.18981
-8.5445 0.10089 -1.10681
-8.7365 0.91739 -1.50981
-8.7195 1.73999 -1.90881
-8.3375 1.26489 -2.82381
-7.8195 0.77839 -3.61881
-1.3175 -1.53701 5.91019
-0.294498 -1.12671 6.11519
-0.445498 -0.64311 6.70619
-1.4445 -0.87451 6.71219
-2.5035 -1.13451 6.38319
-2.3825 -1.71841 5.63619
-0.564498 -0.34411 6.97719
-1.5095 -0.60721 6.96919
-2.5645 -0.70461 6.87919
-3.6745 -0.48671 6.84319
-4.7585 -0.13411 6.74419
-4.8025 -0.44301 6.44419
-3.6865 -0.80571 6.51419
-4.8275 -0.88721 5.85919
-3.5385 -1.67501 5.41719
-0.687498 -0.14511 6.95719
-0.807498 -0.0468098 6.68119
-1.6715 -0.22611 6.82219
-2.6415 -0.24031 6.73419
-2.6175 -0.33991 6.97319
-1.5745 -0.40981 7.04619
-3.6425 -0.11651 6.70919
-4.6305 0.13809 6.50619
-4.6965 0.0554902 6.73519
-3.6675 -0.29341 6.92519
-2.5925 -0.48401 7.00719
-7.2035 1.54709 5.88319
-7.7225 2.16979 5.50719
-8.0285 2.17189 5.75819
-7.4485 1.47329 6.04819
-6.5875 0.93279 6.29919
-6.4225 0.97919 6.05519
-8.2895 1.97189 5.50719
-7.5875 1.34099 5.93719
-6.8265 0.63459 6.12719
-6.6975 0.83189 6.31019
-5.8195 0.20089 6.47919
-5.7405 0.37119 6.57319
-5.5945 0.50939 6.37719
-8.4705 1.61269 4.82619
-6.9645 0.21769 5.45719
-7.7345 1.09219 5.56519
-5.9415 -0.45751 5.59019
-5.9265 -0.0732098 6.13519
2.2275 4.83979 3.77819
2.5685 3.96709 4.06419
1.9345 4.93309 4.15119
2.3275 4.11159 4.48919
2.6345 3.07839 4.42119
2.2875 3.40369 5.27919
2.0445 4.28219 4.98919
1.6495 5.04349 4.65519
2.1815 2.65749 5.71419
2.0565 1.78539 5.93919
2.4005 2.43559 5.34619
2.3055 1.41979 5.27419
2.5755 2.17529 4.73919
1.4095 5.06749 4.85619
1.1155 4.88379 4.66219
1.5315 4.22959 5.04919
1.6445 3.45659 5.28419
1.9725 3.54109 5.52119
1.8285 4.32129 5.16119
1.6845 2.74449 5.68219
1.4405 2.00619 5.89019
1.7525 1.99449 6.16819
1.9895 2.74419 5.83419
-0.00749767 0.28469 6.66319
0.192502 0.13269 6.87719
0.848502 0.66869 6.69719
0.593502 0.76199 6.38719
0.318502 -0.0459098 6.79419
1.0995 0.39139 6.50319
1.5815 1.12719 6.34119
1.4125 1.26619 6.43919
1.1405 1.35229 6.25119
0.599502 -0.72911 5.92919
1.3285 -0.0397098 5.83819
0.487502 -0.33091 6.46119
1.9275 0.54679 5.40619
1.7785 0.87199 5.98419
-5.1435 7.57569 1.86819
-6.2285 7.42929 2.27619
-6.1445 7.52449 3.04019
-5.1465 7.71469 2.95019
-4.0485 7.74979 3.20919
-3.9625 7.66469 2.26719
-6.0505 7.51359 3.46619
-5.0975 7.71509 3.32619
-2.9265 7.59579 3.45119
-1.8655 7.32579 3.66919
-2.8355 7.59179 2.74419
-1.7135 7.31239 3.02719
-1.6395 7.34939 2.61019
-2.8595 7.56959 2.03919
-5.9325 7.36349 3.60219
-5.7995 7.10039 3.48819
-4.9405 7.34779 3.50819
-3.9625 7.28579 3.47319
-4.0025 7.55839 3.58619
-5.0455 7.63339 3.52519
-2.9695 7.23849 3.62219
-1.9835 6.90939 3.69919
-1.9235 7.16309 3.82419
-2.9515 7.51739 3.64619
-4.0225 7.68309 3.50419
0.591502 5.57529 4.44819
0.831502 5.75059 4.52319
-0.0324977 6.28589 4.26019
-0.183498 6.07439 4.11419
0.989502 5.76889 4.35819
0.143502 6.39939 4.13119
-0.777498 6.90899 3.81519
-0.877498 6.85299 3.99819
-1.0175 6.61299 3.95419
1.4915 5.62569 3.53919
0.503502 6.31569 3.29719
1.2625 5.67849 3.84119
-0.542498 6.88889 2.99619
-8.8035 2.62199 4.87919
-9.0925 3.28999 4.09519
-8.6195 2.81909 5.27619
-8.8865 3.58289 4.80519
-8.7875 4.45039 4.58119
-8.6565 5.22009 4.12119
-8.9775 4.31389 4.15819
-8.8525 4.99459 3.38319
-8.1435 2.89239 5.28219
-8.2515 3.59699 4.88619
-8.5935 3.69559 5.09419
-8.4465 2.90189 5.41019
-8.2965 4.37719 4.64919
-8.0475 5.04749 4.27919
-8.3755 5.24409 4.44719
-8.6095 4.47869 4.73719
-6.6045 6.83689 3.66719
-6.8125 7.09079 3.69419
-7.4705 6.57259 3.91619
-7.2005 6.29169 3.78219
-6.9285 7.15299 3.50119
-7.7015 6.62139 3.56619
-8.1915 5.97989 3.95419
-8.0325 5.95709 4.13219
-7.7525 5.76939 4.07919
-7.1305 6.99879 2.38719
-7.8755 6.44259 2.78819
-7.0655 7.11129 3.05719
-8.3605 5.89769 3.51219
-1.7685 -0.21061 6.09719
-2.6665 -0.22731 6.04919
-3.5975 -0.10881 5.99119
-4.5215 0.12549 5.83619
-0.953498 -0.0360098 6.04619
-7.4135 2.03469 4.94919
-6.9025 1.43529 5.22519
-6.2005 0.92279 5.46119
-5.4095 0.47209 5.68319
1.2035 3.92459 4.45019
1.3465 2.54649 5.03719
1.1465 1.88189 5.30719
1.3375 3.23729 4.74019
0.843502 4.57029 4.16019
-0.224498 0.26359 5.94919
0.354502 0.71919 5.77119
0.842502 1.25439 5.56719
-4.8025 6.81909 3.02019
-2.9735 6.71729 3.12619
-2.0525 6.46249 3.26019
-3.9015 6.81419 3.04819
-5.6165 6.64109 3.06319
0.331502 5.17319 3.89219
-0.370498 5.68219 3.64819
-1.1615 6.13649 3.43319
-7.7745 2.68389 4.66719
-7.9165 4.06199 4.07919
-7.7165 4.72299 3.80219
-7.9075 3.36759 4.36819
-6.3465 6.34489 3.16819
-6.9255 5.88579 3.33719
-7.4125 5.35409 3.55019
-1.9075 0.30039 6.50019
-1.2005 0.55569 6.53919
-2.7485 0.42209 6.57019
-3.5875 0.49029 6.47919
-4.4135 0.75839 6.39719
-2.6375 1.15329 6.80619
-2.0705 0.83189 6.73319
-4.2335 1.45879 6.65819
-3.5355 1.20849 6.74119
-5.6755 2.12729 6.29019
-6.2705 2.17829 6.01919
-7.0365 2.42649 5.54819
-6.6275 1.81339 5.69919
-5.9345 1.44329 6.02919
-4.9355 1.65719 6.50319
-5.2245 1.01489 6.20119
0.761502 4.12139 5.06119
0.422502 4.71709 4.83419
0.850502 3.52689 5.38119
0.871502 2.88689 5.61819
0.777502 2.22439 5.79119
0.119502 3.77149 5.78819
-0.201498 2.80969 6.28919
0.151502 3.21949 6.01619
0.329502 2.53039 6.11219
-0.644498 1.81429 6.59019
-0.0354977 1.25509 6.31119
-0.532498 0.80259 6.42019
0.416502 1.71969 6.09619
-0.237498 2.22119 6.42519
-4.6995 6.75539 3.67519
-5.4135 6.58789 3.84419
-3.8675 6.74179 3.86019
-3.0265 6.64919 3.89419
-2.2035 6.42419 4.07719
-4.0095 6.39829 4.54119
-4.5635 6.55579 4.22719
-2.4155 6.11809 4.75019
-3.1105 6.33499 4.58719
-0.970498 5.42429 5.05719
-0.362498 5.20949 4.94019
0.0205023 5.24249 4.47619
-0.681498 5.72049 4.40119
-1.7105 5.88619 4.82519
-1.3895 6.12439 4.17219
-7.3735 2.99549 5.25819
-7.4665 3.63699 5.04919
-7.4855 4.25249 4.75419
-7.3855 4.84089 4.40519
-6.7655 3.77649 5.55019
-6.4515 4.81339 5.22719
-6.7985 4.32399 5.31119
-6.9645 4.86819 4.87319
-6.0025 5.73379 4.74919
-6.5805 5.90879 4.11919
-6.0785 6.31409 3.89919
-7.0305 5.41979 4.27619
-6.4085 5.32239 4.90319
-0.585498 -1.89731 5.36419
-0.105498 -2.20131 4.71119
-0.870498 -2.09161 5.18619
-0.410498 -2.40621 4.59419
-0.269498 -2.71591 3.95219
0.0675023 -2.57361 3.88319
-0.456498 -3.26421 2.29719
-0.0324977 -2.95451 3.02419
-0.355498 -3.02251 3.26219
-0.745498 -3.27141 2.63419
-4.1055 -1.75921 5.06019
-2.2585 -1.95461 5.22919
-1.5065 -1.89381 5.48119
-3.9895 -3.03931 2.26419
-4.6255 -2.65921 2.72619
-4.1765 -2.75541 3.00319
-4.3145 -2.42691 3.69119
-4.4115 -2.02201 4.44719
-1.3815 -3.38521 2.24819
-2.2105 -3.40481 1.97319
-3.0695 -3.26751 2.13619
-5.7575 7.39029 1.13619
-6.1675 7.13759 0.488192
-5.1035 7.41069 0.992192
-5.7225 7.14829 0.163192
-6.1995 6.84849 -0.328808
-6.0145 6.54679 -1.10781
-5.3145 6.51009 -1.37781
-5.0955 6.87109 -0.438808
-5.6915 6.20999 -1.76781
-2.2715 7.34009 1.37019
-3.8965 7.54679 1.70719
-3.2275 7.35629 1.30819
-2.1865 6.07519 -1.69481
-1.8855 6.43109 -1.01181
-2.2955 6.46809 -0.730808
-2.2955 6.84509 0.217192
-1.8645 6.83869 -0.166808
-1.9335 7.13479 0.694192
-4.7635 6.27979 -1.76981
-3.9575 5.98039 -2.14281
-2.9895 6.02149 -1.93081
-3.2885 7.04129 0.477192
-3.6445 7.14259 0.631192
-4.0635 7.19229 0.665192
-4.4815 7.20629 0.575192
-4.8255 7.15809 0.375192
-5.0305 7.06349 0.061192
-4.7995 6.64909 -0.937808
-4.1105 6.50669 -1.13581
-3.2385 6.53179 -0.835808
-3.5895 6.49369 -1.03881
-3.0395 6.63639 -0.524808
-2.9845 6.82629 -0.027808
-1.2635 -2.15161 5.03319
-0.691498 -2.70851 4.02619
-0.796498 -3.01551 3.39519
-1.0995 -3.22771 2.91019
-1.6305 -3.27991 2.59019
-2.6825 -3.21561 2.50819
-3.4495 -2.94921 2.93119
-3.6945 -2.35611 4.21719
-3.2665 -2.03531 4.87519
3 0 1 2
3 2 3 4
3 4 0 2
3 5 6 7
3 7 8 3
3 7 3 5
3 3 2 5
3 8 9 10
3 9 11 10
3 3 8 10
3 12 13 4
3 13 0 4
3 4 3 10
3 10 11 12
3 10 12 4
3 14 15 16
3 16 17 14
3 17 18 14
3 19 20 17
3 20 21 22
3 20 22 17
3 22 18 17
3 17 16 19
3 23 9 8
3 23 8 22
3 8 18 22
3 22 21 23
3 6 14 7
3 14 18 7
3 18 8 7
3 24 25 26
3 26 27 28
3 28 24 26
3 27 26 29
3 26 30 29
3 31 9 23
3 21 27 23
3 27 29 31
3 27 31 23
3 20 19 32
3 20 32 28
3 32 24 28
3 28 27 21
3 21 20 28
3 33 34 35
3 35 36 33
3 36 37 33
3 38 13 12
3 38 12 36
3 12 11 36
3 11 37 36
3 36 35 38
3 31 29 37
3 37 11 31
3 11 9 31
3 29 30 39
3 33 37 39
3 37 29 39
3 40 41 42
3 41 43 44
3 41 44 42
3 44 45 46
3 44 46 42
3 46 47 40
3 46 40 42
3 48 49 50
3 48 50 51
3 50 52 53
3 50 53 51
3 53 45 44
3 53 44 51
3 44 43 48
3 44 48 51
3 54 55 56
3 54 56 57
3 56 58 57
3 58 45 53
3 58 53 57
3 53 52 54
3 53 54 57
3 59 60 61
3 59 61 62
3 61 47 46
3 61 46 62
3 46 45 58
3 46 58 62
3 58 59 62
3 63 64 65
3 64 66 67
3 64 67 65
3 67 68 69
3 67 69 65
3 69 70 63
3 69 63 65
3 71 72 73
3 71 73 74
3 73 75 76
3 73 76 74
3 76 68 67
3 76 67 74
3 67 66 71
3 67 71 74
3 77 55 54
3 77 54 78
3 54 52 79
3 54 79 78
3 79 68 76
3 79 76 78
3 76 75 77
3 76 77 78
3 50 49 80
3 50 80 81
3 80 70 69
3 80 69 81
3 69 68 79
3 69 79 81
3 79 52 50
3 79 50 81
3 82 83 84
3 82 84 85
3 84 86 87
3 84 87 85
3 87 88 89
3 87 89 85
3 89 90 82
3 89 82 85
3 91 92 93
3 91 93 94
3 93 95 96
3 93 96 94
3 96 88 87
3 96 87 94
3 87 86 91
3 87 91 94
3 97 55 77
3 97 77 98
3 77 75 99
3 77 99 98
3 99 88 96
3 99 96 98
3 96 95 97
3 96 97 98
3 73 72 100
3 73 100 101
3 100 90 89
3 100 89 101
3 89 88 99
3 89 99 101
3 99 75 73
3 99 73 101
3 41 40 102
3 41 102 103
3 102 104 105
3 102 105 103
3 105 106 107
3 105 107 103
3 107 43 41
3 107 41 103
3 108 109 110
3 108 110 111
3 110 112 113
3 110 113 111
3 113 106 105
3 113 105 111
3 105 104 108
3 105 108 111
3 114 115 116
3 114 116 117
3 116 118 119
3 116 119 117
3 119 106 113
3 119 113 117
3 113 112 114
3 113 114 117
3 120 49 48
3 120 48 121
3 48 43 107
3 48 107 121
3 107 106 119
3 107 119 121
3 119 118 120
3 119 120 121
3 122 123 124
3 122 124 125
3 124 126 127
3 124 127 125
3 127 128 129
3 127 129 125
3 129 130 122
3 129 122 125
3 131 132 133
3 131 133 134
3 133 135 136
3 133 136 134
3 136 128 127
3 136 127 134
3 127 126 131
3 127 131 134
3 137 115 114
3 137 114 138
3 114 112 139
3 114 139 138
3 139 128 136
3 139 136 138
3 136 135 137
3 136 137 138
3 110 109 140
3 110 140 141
3 140 130 129
3 140 129 141
3 129 128 139
3 129 139 141
3 139 112 110
3 139 110 141
3 142 143 144
3 142 144 145
3 144 146 147
3 144 147 145
3 147 148 149
3 147 149 145
3 149 150 142
3 149 142 145
3 151 152 153
3 151 153 154
3 153 155 156
3 153 156 154
3 156 148 147
3 156 147 154
3 147 146 151
3 147 151 154
3 157 115 137
3 157 137 158
3 137 135 159
3 137 159 158
3 159 148 156
3 159 156 158
3 156 155 157
3 156 157 158
3 133 132 160
3 133 160 161
3 160 150 149
3 160 149 161
3 149 148 159
3 149 159 161
3 159 135 133
3 159 133 161
3 162 64 63
3 162 63 163
3 63 70 164
3 63 164 163
3 164 165 166
3 164 166 163
3 166 167 162
3 166 162 163
3 80 49 120
3 80 120 168
3 120 118 169
3 120 169 168
3 169 165 164
3 169 164 168
3 164 70 80
3 164 80 168
3 116 115 157
3 116 157 170
3 157 155 171
3 157 171 170
3 171 165 169
3 171 169 170
3 169 118 116
3 169 116 170
3 153 152 172
3 153 172 173
3 172 167 166
3 172 166 173
3 166 165 171
3 166 171 173
3 171 155 153
3 171 153 173
3 124 123 174
3 123 175 176
3 123 176 174
3 176 177 178
3 176 178 174
3 178 126 124
3 178 124 174
3 179 180 181
3 179 181 182
3 181 183 184
3 181 184 182
3 184 177 176
3 184 176 182
3 176 175 179
3 176 179 182
3 185 186 187
3 185 187 188
3 187 189 190
3 187 190 188
3 190 177 184
3 190 184 188
3 184 183 185
3 184 185 188
3 191 132 131
3 191 131 192
3 131 126 178
3 131 178 192
3 178 177 190
3 178 190 192
3 190 189 191
3 190 191 192
3 193 194 195
3 193 195 196
3 195 197 198
3 195 198 196
3 198 199 200
3 198 200 196
3 200 201 193
3 200 193 196
3 202 203 204
3 202 204 205
3 204 206 199
3 204 199 205
3 199 198 205
3 198 197 202
3 198 202 205
3 207 186 185
3 207 185 208
3 185 183 209
3 185 209 208
3 209 199 208
3 199 206 207
3 199 207 208
3 181 180 210
3 181 210 211
3 210 201 200
3 210 200 211
3 200 199 209
3 200 209 211
3 209 183 181
3 209 181 211
3 143 142 212
3 142 150 213
3 142 213 212
3 213 214 215
3 213 215 212
3 215 216 143
3 215 143 212
3 160 132 191
3 160 191 217
3 191 189 218
3 191 218 217
3 218 214 213
3 218 213 217
3 213 150 160
3 213 160 217
3 187 186 219
3 187 219 220
3 219 221 222
3 219 222 220
3 222 214 218
3 222 218 220
3 218 189 187
3 218 187 220
3 223 224 225
3 223 225 226
3 225 216 215
3 225 215 226
3 215 214 222
3 215 222 226
3 222 221 223
3 222 223 226
3 123 122 227
3 122 130 228
3 122 228 227
3 228 229 230
3 228 230 227
3 230 175 123
3 230 123 227
3 140 109 231
3 140 231 232
3 231 233 234
3 231 234 232
3 234 229 228
3 234 228 232
3 228 130 140
3 228 140 232
3 235 236 237
3 235 237 238
3 237 239 240
3 237 240 238
3 240 229 234
3 240 234 238
3 234 233 235
3 234 235 238
3 241 180 179
3 241 179 242
3 179 175 230
3 179 230 242
3 230 229 240
3 230 240 242
3 240 239 241
3 240 241 242
3 102 40 243
3 40 47 244
3 40 244 243
3 244 245 246
3 244 246 243
3 246 104 102
3 246 102 243
3 61 60 247
3 61 247 248
3 247 249 250
3 247 250 248
3 250 245 244
3 250 244 248
3 244 47 61
3 244 61 248
3 251 236 235
3 251 235 252
3 235 233 253
3 235 253 252
3 253 245 250
3 253 250 252
3 250 249 251
3 250 251 252
3 231 109 108
3 231 108 254
3 108 104 246
3 108 246 254
3 246 245 253
3 246 253 254
3 253 233 231
3 253 231 254
3 255 256 257
3 255 257 258
3 257 259 260
3 257 260 258
3 260 261 262
3 260 262 258
3 262 263 255
3 262 255 258
3 264 265 266
3 264 266 267
3 266 268 269
3 266 269 267
3 269 261 260
3 269 260 267
3 260 259 264
3 260 264 267
3 270 236 251
3 270 251 271
3 251 249 272
3 251 272 271
3 272 261 269
3 272 269 271
3 269 268 270
3 269 270 271
3 247 60 273
3 247 273 274
3 273 263 262
3 273 262 274
3 262 261 272
3 262 272 274
3 272 249 247
3 272 247 274
3 275 194 193
3 275 193 276
3 193 201 277
3 193 277 276
3 277 278 279
3 277 279 276
3 279 280 275
3 279 275 276
3 210 180 241
3 210 241 281
3 241 239 282
3 241 282 281
3 282 278 277
3 282 277 281
3 277 201 210
3 277 210 281
3 237 236 270
3 237 270 283
3 270 268 284
3 270 284 283
3 284 278 282
3 284 282 283
3 282 239 237
3 282 237 283
3 266 265 285
3 266 285 286
3 285 280 279
3 285 279 286
3 279 278 284
3 279 284 286
3 284 268 266
3 284 266 286
3 287 288 289
3 287 289 290
3 289 291 292
3 289 292 290
3 292 293 294
3 292 294 290
3 294 295 287
3 294 287 290
3 296 297 298
3 296 298 299
3 298 300 301
3 298 301 299
3 301 293 292
3 301 292 299
3 292 291 296
3 292 296 299
3 302 303 304
3 302 304 305
3 304 306 307
3 304 307 305
3 307 293 301
3 307 301 305
3 301 300 302
3 301 302 305
3 308 224 309
3 308 309 310
3 309 295 294
3 309 294 310
3 294 293 307
3 294 307 310
3 307 306 308
3 307 308 310
3 311 83 82
3 311 82 312
3 82 90 313
3 82 313 312
3 313 314 315
3 313 315 312
3 315 316 311
3 315 311 312
3 100 72 317
3 100 317 318
3 317 319 320
3 317 320 318
3 320 314 313
3 320 313 318
3 313 90 100
3 313 100 318
3 321 303 302
3 321 302 322
3 302 300 323
3 302 323 322
3 323 314 320
3 323 320 322
3 320 319 321
3 320 321 322
3 298 297 324
3 298 324 325
3 324 316 315
3 324 315 325
3 315 314 323
3 315 323 325
3 323 300 298
3 323 298 325
3 64 162 326
3 162 167 327
3 162 327 326
3 327 328 329
3 327 329 326
3 329 66 64
3 329 64 326
3 172 152 330
3 172 330 331
3 330 332 333
3 330 333 331
3 333 328 327
3 333 327 331
3 327 167 172
3 327 172 331
3 334 303 321
3 334 321 335
3 321 319 336
3 321 336 335
3 336 328 333
3 336 333 335
3 333 332 334
3 333 334 335
3 317 72 71
3 317 71 337
3 71 66 329
3 71 329 337
3 329 328 336
3 329 336 337
3 336 319 317
3 336 317 337
3 144 143 338
3 143 216 339
3 143 339 338
3 339 340 341
3 339 341 338
3 341 146 144
3 341 144 338
3 225 224 308
3 225 308 342
3 308 306 343
3 308 343 342
3 343 340 339
3 343 339 342
3 339 216 225
3 339 225 342
3 304 303 334
3 304 334 344
3 334 332 345
3 334 345 344
3 345 340 343
3 345 343 344
3 343 306 304
3 343 304 344
3 330 152 151
3 330 151 346
3 151 146 341
3 151 341 346
3 341 340 345
3 341 345 346
3 345 332 330
3 345 330 346
3 195 194 347
3 195 347 348
3 347 349 348
3 349 350 348
3 350 197 195
3 350 195 348
3 351 352 349
3 352 353 349
3 353 350 349
3 349 347 351
3 354 355 356
3 355 357 356
3 356 350 353
3 353 354 356
3 358 203 202
3 358 202 359
3 202 197 350
3 202 350 359
3 350 356 359
3 356 357 358
3 356 358 359
3 360 361 362
3 362 363 364
3 364 365 362
3 365 360 362
3 366 367 368
3 368 369 366
3 369 364 366
3 364 363 366
3 370 355 354
3 370 354 369
3 354 353 371
3 354 371 369
3 371 364 369
3 369 368 370
3 352 351 360
3 352 360 365
3 365 364 371
3 371 353 352
3 371 352 365
3 372 373 374
3 374 375 372
3 375 376 372
3 376 377 372
3 374 378 379
3 374 379 375
3 379 380 375
3 380 376 375
3 381 355 370
3 381 370 382
3 370 368 382
3 382 376 380
3 380 381 382
3 368 367 383
3 383 377 376
3 376 382 383
3 382 368 383
3 384 288 385
3 384 385 386
3 385 387 388
3 385 388 386
3 388 389 386
3 389 390 384
3 389 384 386
3 391 203 358
3 391 358 392
3 358 357 393
3 358 393 392
3 393 388 392
3 388 387 391
3 388 391 392
3 355 381 393
3 381 380 393
3 380 388 393
3 393 357 355
3 379 378 389
3 378 390 389
3 389 388 380
3 380 379 389
3 257 256 394
3 257 394 395
3 394 396 397
3 394 397 395
3 397 398 395
3 398 259 257
3 398 257 395
3 396 399 400
3 396 400 397
3 400 401 397
3 401 398 397
3 402 403 404
3 403 405 404
3 404 398 401
3 401 402 404
3 405 265 264
3 264 259 398
3 398 404 264
3 404 405 264
3 406 407 408
3 408 409 410
3 410 411 408
3 411 406 408
3 412 413 414
3 414 415 412
3 415 410 412
3 410 409 412
3 414 403 402
3 414 402 415
3 402 401 410
3 402 410 415
3 400 399 411
3 399 406 411
3 410 401 400
3 410 400 411
3 416 361 360
3 360 417 416
3 417 418 416
3 418 419 416
3 360 351 420
3 360 420 417
3 420 421 418
3 420 418 417
3 422 403 414
3 422 414 423
3 418 421 422
3 418 422 423
3 414 413 424
3 424 419 418
3 418 423 424
3 423 414 424
3 347 194 275
3 275 280 425
3 425 426 275
3 426 347 275
3 285 265 405
3 405 427 285
3 427 425 285
3 425 280 285
3 403 422 427
3 422 421 427
3 421 425 427
3 427 405 403
3 420 351 426
3 351 347 426
3 426 425 421
3 421 420 426
3 84 83 428
3 428 429 84
3 429 430 84
3 430 86 84
3 431 432 429
3 432 433 429
3 433 430 429
3 429 428 431
3 434 435 436
3 434 436 437
3 437 430 433
3 433 434 437
3 438 92 91
3 438 91 439
3 91 86 430
3 91 430 439
3 430 437 439
3 437 436 438
3 437 438 439
3 440 441 442
3 442 443 444
3 444 445 442
3 445 440 442
3 446 447 448
3 448 449 446
3 449 444 446
3 444 443 446
3 435 434 449
3 434 433 450
3 434 450 449
3 450 444 449
3 449 448 435
3 432 431 440
3 432 440 445
3 445 444 450
3 450 433 432
3 450 432 445
3 451 407 406
3 406 452 451
3 452 453 451
3 453 454 451
3 399 455 452
3 455 456 457
3 455 457 452
3 457 453 452
3 452 406 399
3 458 435 459
3 435 448 459
3 459 453 457
3 457 456 458
3 457 458 459
3 448 447 460
3 460 454 453
3 453 459 460
3 459 448 460
3 394 256 461
3 462 463 461
3 463 396 394
3 463 394 461
3 464 92 438
3 438 436 464
3 436 435 458
3 456 462 464
3 456 464 458
3 464 436 458
3 455 399 396
3 455 396 463
3 463 462 456
3 456 455 463
3 289 288 384
3 289 384 465
3 384 390 466
3 384 466 465
3 466 467 465
3 467 291 289
3 467 289 465
3 468 467 466
3 468 466 469
3 466 390 378
3 466 378 469
3 470 471 472
3 471 473 472
3 472 467 468
3 468 470 472
3 473 297 296
3 473 296 474
3 296 291 467
3 296 467 474
3 467 472 474
3 472 473 474
3 374 373 475
3 475 476 477
3 477 478 475
3 478 374 475
3 479 480 481
3 481 482 479
3 482 477 479
3 477 476 479
3 481 471 470
3 481 470 482
3 470 468 477
3 470 477 482
3 469 378 374
3 469 374 478
3 477 468 469
3 477 469 478
3 483 441 440
3 440 484 483
3 484 485 483
3 485 486 483
3 440 431 487
3 440 487 484
3 487 488 485
3 487 485 484
3 489 471 481
3 489 481 490
3 485 488 489
3 485 489 490
3 481 480 491
3 491 486 485
3 485 490 491
3 490 481 491
3 428 83 311
3 311 316 492
3 492 493 311
3 493 428 311
3 324 297 473
3 473 494 324
3 494 492 324
3 492 316 324
3 471 489 494
3 489 488 494
3 488 492 494
3 494 473 471
3 487 431 493
3 431 428 493
3 493 492 488
3 488 487 493
3 361 495 362
3 495 496 362
3 496 363 362
3 497 498 366
3 498 367 366
3 366 363 496
3 496 497 366
3 495 361 499
3 500 373 501
3 501 377 502
3 502 377 503
3 498 503 383
3 503 377 383
3 383 367 498
3 501 373 372
3 377 501 372
3 407 504 408
3 504 409 408
3 505 413 412
3 409 505 412
3 506 413 505
3 505 409 507
3 504 407 508
3 507 409 504
3 499 361 509
3 509 419 510
3 511 413 506
3 510 419 511
3 413 511 424
3 511 419 424
3 509 361 416
3 419 509 416
3 441 512 442
3 512 443 442
3 513 447 446
3 443 513 446
3 514 447 513
3 513 443 515
3 512 441 516
3 515 443 512
3 508 407 517
3 517 454 518
3 519 447 514
3 518 454 519
3 447 519 460
3 519 454 460
3 517 407 451
3 454 517 451
3 373 520 475
3 520 476 475
3 521 480 479
3 476 521 479
3 522 480 521
3 521 476 523
3 520 373 500
3 523 476 520
3 516 441 524
3 524 486 525
3 526 480 522
3 525 486 526
3 480 526 491
3 526 486 491
3 524 441 483
3 486 524 483
3 495 499 527
3 499 528 527
3 527 529 496
3 496 495 527
3 498 497 530
3 497 496 530
3 496 529 530
3 530 531 498
3 1 0 532
3 533 1 532
3 13 534 535
3 532 0 13
3 532 13 535
3 529 532 535
3 529 535 530
3 535 534 531
3 535 531 530
3 527 528 533
3 528 1 533
3 533 532 529
3 529 527 533
3 35 34 536
3 34 537 536
3 538 539 537
3 539 540 537
3 540 536 537
3 537 34 538
3 531 534 541
3 531 541 542
3 541 536 540
3 541 540 542
3 534 13 38
3 534 38 541
3 38 35 536
3 38 536 541
3 500 501 539
3 501 502 539
3 502 540 539
3 539 538 500
3 503 498 542
3 498 531 542
3 542 540 502
3 502 503 542
3 504 508 543
3 508 544 543
3 543 545 507
3 507 504 543
3 506 505 546
3 505 507 546
3 507 545 546
3 546 547 506
3 14 548 15
3 6 549 548
3 549 550 548
3 548 14 6
3 550 547 546
3 545 548 546
3 548 550 546
3 544 15 543
3 15 548 545
3 15 545 543
3 551 2 1
3 552 551 1
3 552 1 553
3 1 528 553
3 554 547 550
3 550 555 554
3 555 551 552
3 555 552 554
3 549 6 5
3 549 5 555
3 5 2 551
3 5 551 555
3 555 550 549
3 499 509 553
3 509 510 553
3 510 552 553
3 553 528 499
3 511 506 554
3 506 547 554
3 554 552 510
3 510 511 554
3 512 516 556
3 516 557 556
3 556 558 515
3 515 512 556
3 514 513 559
3 513 515 559
3 515 558 559
3 559 560 514
3 25 24 561
3 562 25 561
3 32 19 563
3 32 563 564
3 561 24 32
3 561 32 564
3 558 561 564
3 558 564 559
3 564 563 560
3 564 560 559
3 556 557 562
3 557 25 562
3 562 561 558
3 558 556 562
3 16 15 565
3 15 566 565
3 544 567 566
3 567 568 566
3 568 565 566
3 566 15 544
3 560 563 569
3 560 569 570
3 569 565 568
3 569 568 570
3 563 19 569
3 19 16 565
3 19 565 569
3 508 517 567
3 517 518 567
3 518 568 567
3 567 544 508
3 519 514 570
3 514 560 570
3 570 568 518
3 518 519 570
3 520 500 571
3 500 538 571
3 571 572 523
3 523 520 571
3 522 521 573
3 521 523 573
3 523 572 573
3 573 574 522
3 33 575 34
3 39 30 576
3 39 576 577
3 576 578 577
3 575 33 39
3 575 39 577
3 578 574 573
3 572 575 577
3 572 577 573
3 577 578 573
3 538 34 571
3 34 575 572
3 34 572 571
3 579 26 25
3 580 579 25
3 580 25 581
3 25 557 581
3 582 574 578
3 578 583 582
3 583 579 580
3 583 580 582
3 576 30 583
3 30 26 579
3 30 579 583
3 583 578 576
3 516 524 581
3 524 525 581
3 525 580 581
3 581 557 516
3 526 522 582
3 522 574 582
3 582 580 525
3 525 526 582
3 461 256 584
3 584 585 586
3 584 586 461
3 586 462 461
3 585 587 586
3 588 92 464
3 588 464 589
3 464 462 589
3 462 586 589
3 589 590 588
3 273 60 591
3 273 591 592
3 591 593 592
3 592 594 595
3 595 263 273
3 595 273 592
3 592 593 594
3 596 594 585
3 584 256 255
3 584 255 596
3 255 263 595
3 255 595 596
3 595 594 596
3 596 585 584
3 56 55 597
3 597 598 56
3 598 599 56
3 599 58 56
3 598 600 601
3 601 599 598
3 591 60 59
3 591 59 601
3 59 58 599
3 59 599 601
3 601 593 591
3 93 92 588
3 93 588 602
3 588 590 602
3 590 603 604
3 590 604 602
3 604 95 93
3 604 93 602
3 590 605 603
3 603 606 598
3 598 607 603
3 597 55 97
3 597 97 607
3 97 95 604
3 97 604 607
3 604 603 607
3 607 598 597
3 590 608 605
3 605 609 603
3 609 606 603
3 600 598 606
3 610 593 601
3 600 611 601
3 611 610 601
3 594 593 610
3 610 612 594
3 594 612 587
3 594 587 585
3 586 587 613
3 608 590 589
3 608 589 614
3 589 586 613
3 589 613 614
3 615 616 617
3 617 618 619
3 619 615 617
3 620 621 618
3 621 622 618
3 617 620 618
3 622 623 624
3 622 624 625
3 624 626 625
3 618 622 625
3 627 628 619
3 628 615 619
3 619 618 625
3 625 626 627
3 625 627 619
3 629 630 631
3 631 632 629
3 632 633 629
3 634 635 636
3 634 636 632
3 636 637 632
3 637 633 632
3 632 631 634
3 638 623 622
3 622 633 638
3 633 637 638
3 621 620 639
3 639 629 621
3 629 633 621
3 633 622 621
3 640 641 642
3 642 643 644
3 644 640 642
3 645 646 647
3 647 643 645
3 643 642 645
3 623 638 648
3 638 637 648
3 643 647 623
3 643 623 648
3 636 635 644
3 635 640 644
3 644 643 648
3 648 637 636
3 648 636 644
3 649 650 651
3 651 652 649
3 652 653 649
3 654 628 627
3 654 627 652
3 627 626 652
3 626 653 652
3 652 651 654
3 623 647 653
3 623 653 624
3 653 626 624
3 646 649 647
3 649 653 647
3 655 656 657
3 656 658 659
3 656 659 657
3 659 660 661
3 659 661 657
3 661 662 655
3 661 655 657
3 663 664 665
3 663 665 666
3 665 667 668
3 665 668 666
3 668 660 659
3 668 659 666
3 659 658 663
3 659 663 666
3 669 224 223
3 669 223 670
3 223 221 671
3 223 671 670
3 671 660 668
3 671 668 670
3 668 667 669
3 668 669 670
3 219 186 672
3 219 672 673
3 672 662 661
3 672 661 673
3 661 660 671
3 661 671 673
3 671 221 219
3 671 219 673
3 674 675 676
3 675 677 678
3 675 678 676
3 678 679 680
3 678 680 676
3 680 681 674
3 680 674 676
3 682 683 684
3 682 684 685
3 684 686 687
3 684 687 685
3 687 679 678
3 687 678 685
3 678 677 682
3 678 682 685
3 688 224 669
3 688 669 689
3 669 667 690
3 669 690 689
3 690 679 687
3 690 687 689
3 687 686 688
3 687 688 689
3 665 664 691
3 665 691 692
3 691 681 680
3 691 680 692
3 680 679 690
3 680 690 692
3 690 667 665
3 690 665 692
3 656 655 693
3 656 693 694
3 693 695 696
3 693 696 694
3 696 697 698
3 696 698 694
3 698 658 656
3 698 656 694
3 699 700 701
3 699 701 702
3 701 703 704
3 701 704 702
3 704 697 696
3 704 696 702
3 696 695 699
3 696 699 702
3 705 706 707
3 705 707 708
3 707 709 710
3 707 710 708
3 710 697 704
3 710 704 708
3 704 703 705
3 704 705 708
3 711 664 663
3 711 663 712
3 663 658 698
3 663 698 712
3 698 697 710
3 698 710 712
3 710 709 711
3 710 711 712
3 713 714 715
3 713 715 716
3 715 717 718
3 715 718 716
3 718 719 720
3 718 720 716
3 720 721 713
3 720 713 716
3 722 723 724
3 722 724 725
3 724 726 727
3 724 727 725
3 727 719 718
3 727 718 725
3 718 717 722
3 718 722 725
3 728 706 705
3 728 705 729
3 705 703 730
3 705 730 729
3 730 719 727
3 730 727 729
3 727 726 728
3 727 728 729
3 701 700 731
3 701 731 732
3 731 721 720
3 731 720 732
3 720 719 730
3 720 730 732
3 730 703 701
3 730 701 732
3 733 734 735
3 733 735 736
3 735 737 738
3 735 738 736
3 738 739 740
3 738 740 736
3 740 741 733
3 740 733 736
3 742 743 744
3 742 744 745
3 744 746 747
3 744 747 745
3 747 739 738
3 747 738 745
3 738 737 742
3 738 742 745
3 748 706 728
3 748 728 749
3 728 726 750
3 728 750 749
3 750 739 747
3 750 747 749
3 747 746 748
3 747 748 749
3 724 723 751
3 724 751 752
3 751 741 740
3 751 740 752
3 740 739 750
3 740 750 752
3 750 726 724
3 750 724 752
3 753 675 674
3 753 674 754
3 674 681 755
3 674 755 754
3 755 756 757
3 755 757 754
3 757 758 753
3 757 753 754
3 691 664 711
3 691 711 759
3 711 709 760
3 711 760 759
3 760 756 755
3 760 755 759
3 755 681 691
3 755 691 759
3 707 706 748
3 707 748 761
3 748 746 762
3 748 762 761
3 762 756 760
3 762 760 761
3 760 709 707
3 760 707 761
3 744 743 763
3 744 763 764
3 763 758 757
3 763 757 764
3 757 756 762
3 757 762 764
3 762 746 744
3 762 744 764
3 715 714 765
3 714 766 767
3 714 767 765
3 767 768 769
3 767 769 765
3 769 717 715
3 769 715 765
3 770 771 772
3 770 772 773
3 772 774 773
3 774 768 767
3 774 767 773
3 767 766 770
3 767 770 773
3 775 776 777
3 775 777 778
3 777 779 780
3 777 780 778
3 780 768 774
3 780 774 778
3 774 775 778
3 781 723 722
3 781 722 782
3 722 717 769
3 722 769 782
3 769 768 780
3 769 780 782
3 780 779 781
3 780 781 782
3 783 784 785
3 783 785 786
3 785 787 788
3 785 788 786
3 788 789 790
3 788 790 786
3 790 791 783
3 790 783 786
3 792 793 794
3 792 794 795
3 794 796 797
3 794 797 795
3 797 789 788
3 797 788 795
3 788 787 792
3 788 792 795
3 798 776 799
3 798 799 800
3 799 801 802
3 799 802 800
3 802 789 797
3 802 797 800
3 797 796 798
3 797 798 800
3 803 804 805
3 803 805 806
3 805 791 790
3 805 790 806
3 790 789 802
3 790 802 806
3 802 801 803
3 802 803 806
3 734 733 807
3 733 741 808
3 733 808 807
3 808 809 810
3 808 810 807
3 810 811 734
3 810 734 807
3 751 723 781
3 751 781 812
3 781 779 813
3 781 813 812
3 813 809 808
3 813 808 812
3 808 741 751
3 808 751 812
3 777 776 798
3 777 798 814
3 798 796 815
3 798 815 814
3 815 809 813
3 815 813 814
3 813 779 777
3 813 777 814
3 794 793 816
3 794 816 817
3 816 811 810
3 816 810 817
3 810 809 815
3 810 815 817
3 815 796 794
3 815 794 817
3 714 713 818
3 713 721 819
3 713 819 818
3 819 820 821
3 819 821 818
3 821 766 714
3 821 714 818
3 731 700 822
3 731 822 823
3 822 824 825
3 822 825 823
3 825 820 819
3 825 819 823
3 819 721 731
3 819 731 823
3 826 827 828
3 826 828 829
3 828 830 831
3 828 831 829
3 831 820 825
3 831 825 829
3 825 824 826
3 825 826 829
3 832 771 770
3 832 770 833
3 770 766 821
3 770 821 833
3 821 820 831
3 821 831 833
3 831 830 832
3 831 832 833
3 693 655 834
3 655 662 835
3 655 835 834
3 835 836 837
3 835 837 834
3 837 695 693
3 837 693 834
3 672 186 838
3 672 838 839
3 838 840 841
3 838 841 839
3 841 836 835
3 841 835 839
3 835 662 672
3 835 672 839
3 842 827 826
3 842 826 843
3 826 824 844
3 826 844 843
3 844 836 841
3 844 841 843
3 841 840 842
3 841 842 843
3 822 700 699
3 822 699 845
3 699 695 837
3 699 837 845
3 837 836 844
3 837 844 845
3 844 824 822
3 844 822 845
3 204 203 846
3 204 846 847
3 846 848 849
3 846 849 847
3 849 850 851
3 849 851 847
3 851 206 204
3 851 204 847
3 852 853 854
3 852 854 855
3 854 856 857
3 854 857 855
3 857 850 849
3 857 849 855
3 849 848 852
3 849 852 855
3 858 827 842
3 858 842 859
3 842 840 860
3 842 860 859
3 860 850 857
3 860 857 859
3 857 856 858
3 857 858 859
3 838 186 207
3 838 207 861
3 207 206 851
3 207 851 861
3 851 850 860
3 851 860 861
3 860 840 838
3 860 838 861
3 862 863 864
3 862 864 865
3 864 866 867
3 864 867 865
3 867 868 869
3 867 869 865
3 869 870 862
3 869 862 865
3 871 771 832
3 871 832 872
3 832 830 873
3 832 873 872
3 873 868 867
3 873 867 872
3 867 866 871
3 867 871 872
3 828 827 858
3 828 858 874
3 858 856 875
3 858 875 874
3 875 868 873
3 875 873 874
3 873 830 828
3 873 828 874
3 854 853 876
3 854 876 877
3 876 870 869
3 876 869 877
3 869 868 875
3 869 875 877
3 875 856 854
3 875 854 877
3 785 784 878
3 785 878 879
3 878 880 881
3 878 881 879
3 881 882 883
3 881 883 879
3 883 787 785
3 883 785 879
3 884 885 886
3 884 886 887
3 886 888 889
3 886 889 887
3 889 882 881
3 889 881 887
3 881 880 884
3 881 884 887
3 890 891 892
3 890 892 893
3 892 894 895
3 892 895 893
3 895 882 889
3 895 889 893
3 889 888 890
3 889 890 893
3 896 793 792
3 896 792 897
3 792 787 883
3 792 883 897
3 883 882 895
3 883 895 897
3 895 894 896
3 895 896 897
3 898 899 900
3 898 900 901
3 900 902 903
3 900 903 901
3 903 904 905
3 903 905 901
3 905 906 898
3 905 898 901
3 907 683 908
3 907 908 909
3 908 910 911
3 908 911 909
3 911 904 903
3 911 903 909
3 903 902 907
3 903 907 909
3 912 891 890
3 912 890 913
3 890 888 914
3 890 914 913
3 914 904 911
3 914 911 913
3 911 910 912
3 911 912 913
3 886 885 915
3 886 915 916
3 915 906 905
3 915 905 916
3 905 904 914
3 905 914 916
3 914 888 886
3 914 886 916
3 675 753 917
3 753 758 918
3 753 918 917
3 918 919 920
3 918 920 917
3 920 677 675
3 920 675 917
3 763 743 921
3 763 921 922
3 921 923 924
3 921 924 922
3 924 919 918
3 924 918 922
3 918 758 763
3 918 763 922
3 925 891 912
3 925 912 926
3 912 910 927
3 912 927 926
3 927 919 924
3 927 924 926
3 924 923 925
3 924 925 926
3 908 683 682
3 908 682 928
3 682 677 920
3 682 920 928
3 920 919 927
3 920 927 928
3 927 910 908
3 927 908 928
3 735 734 929
3 734 811 930
3 734 930 929
3 930 931 932
3 930 932 929
3 932 737 735
3 932 735 929
3 816 793 896
3 816 896 933
3 896 894 934
3 896 934 933
3 934 931 930
3 934 930 933
3 930 811 816
3 930 816 933
3 892 891 925
3 892 925 935
3 925 923 936
3 925 936 935
3 936 931 934
3 936 934 935
3 934 894 892
3 934 892 935
3 921 743 742
3 921 742 937
3 742 737 932
3 742 932 937
3 932 931 936
3 932 936 937
3 936 923 921
3 936 921 937
3 938 863 939
3 939 940 941
3 939 941 938
3 941 942 938
3 942 943 938
3 940 944 945
3 940 945 941
3 945 946 941
3 946 942 941
3 947 948 949
3 947 949 950
3 950 942 946
3 946 947 950
3 951 804 952
3 951 952 950
3 952 943 942
3 952 942 950
3 950 949 951
3 953 954 955
3 955 956 957
3 957 958 955
3 958 953 955
3 959 960 961
3 961 962 959
3 962 957 959
3 957 956 959
3 948 947 962
3 947 946 963
3 947 963 962
3 963 957 962
3 962 961 948
3 945 944 958
3 944 953 958
3 958 957 963
3 963 946 945
3 963 945 958
3 964 965 966
3 966 967 964
3 967 968 964
3 968 969 964
3 966 970 971
3 966 971 967
3 971 972 973
3 971 973 967
3 973 968 967
3 974 948 975
3 948 961 975
3 975 968 973
3 973 972 974
3 973 974 975
3 961 960 976
3 976 969 968
3 968 975 976
3 975 961 976
3 977 784 783
3 783 791 978
3 978 979 783
3 979 977 783
3 805 804 951
3 805 951 980
3 951 949 981
3 951 981 980
3 981 978 980
3 978 791 805
3 978 805 980
3 949 948 974
3 949 974 981
3 974 972 981
3 972 978 981
3 971 970 979
3 970 977 979
3 979 978 972
3 972 971 979
3 846 203 982
3 846 982 983
3 982 984 985
3 982 985 983
3 985 986 983
3 986 848 846
3 986 846 983
3 987 986 985
3 987 985 988
3 985 984 989
3 985 989 988
3 990 991 992
3 991 993 992
3 992 986 987
3 987 990 992
3 993 853 852
3 993 852 994
3 852 848 986
3 852 986 994
3 986 992 994
3 992 993 994
3 995 996 997
3 997 998 999
3 999 1000 997
3 1000 995 997
3 1001 1002 1003
3 1003 1004 1001
3 1004 999 1001
3 999 998 1001
3 1003 991 990
3 1003 990 1004
3 990 987 999
3 990 999 1004
3 988 989 995
3 988 995 1000
3 999 987 988
3 999 988 1000
3 1005 954 953
3 953 1006 1005
3 1006 1007 1005
3 1007 1008 1005
3 944 1009 1006
3 1009 1010 1007
3 1009 1007 1006
3 1006 953 944
3 1011 991 1003
3 1011 1003 1012
3 1007 1010 1011
3 1007 1011 1012
3 1003 1002 1013
3 1013 1008 1007
3 1007 1012 1013
3 1012 1003 1013
3 939 863 862
3 939 862 1014
3 862 870 1015
3 862 1015 1014
3 1015 1016 1014
3 1016 940 939
3 1016 939 1014
3 876 853 993
3 876 993 1017
3 993 1018 1017
3 1018 1015 1017
3 1015 870 876
3 1015 876 1017
3 991 1011 1018
3 1011 1010 1018
3 1010 1015 1018
3 1018 993 991
3 1009 944 940
3 1009 940 1016
3 1016 1015 1010
3 1010 1009 1016
3 1019 899 1020
3 1020 1021 1022
3 1020 1022 1019
3 1022 1023 1024
3 1022 1024 1019
3 1021 1025 1026
3 1021 1026 1022
3 1026 1023 1022
3 1027 1028 1029
3 1028 1030 1029
3 1023 1027 1029
3 1031 288 1032
3 1031 1032 1029
3 1032 1024 1029
3 1024 1023 1029
3 1029 1030 1031
3 1033 1034 1035
3 1035 1036 1037
3 1037 1038 1035
3 1038 1033 1035
3 1039 1040 1041
3 1041 1042 1039
3 1042 1037 1039
3 1037 1036 1039
3 1028 1027 1042
3 1027 1023 1043
3 1027 1043 1042
3 1043 1037 1042
3 1042 1041 1028
3 1026 1025 1038
3 1025 1033 1038
3 1038 1037 1043
3 1043 1023 1026
3 1043 1026 1038
3 1044 996 995
3 995 1045 1044
3 1045 1046 1044
3 1046 1047 1044
3 995 989 1048
3 995 1048 1045
3 1048 1049 1045
3 1049 1046 1045
3 1050 1028 1051
3 1028 1041 1051
3 1051 1046 1049
3 1049 1050 1051
3 1041 1040 1052
3 1052 1047 1046
3 1046 1051 1052
3 1051 1041 1052
3 982 203 391
3 982 391 1053
3 391 387 1054
3 391 1054 1053
3 1054 1055 1053
3 1055 984 982
3 1055 982 1053
3 385 288 1031
3 385 1031 1056
3 1031 1030 1056
3 1054 387 385
3 1054 385 1056
3 1028 1050 1056
3 1050 1049 1056
3 1049 1054 1056
3 1056 1030 1028
3 1048 989 1055
3 989 984 1055
3 1055 1054 1049
3 1049 1048 1055
3 878 784 977
3 977 1057 878
3 1057 1058 878
3 1058 880 878
3 970 1059 1057
3 1059 1060 1057
3 1060 1058 1057
3 1057 977 970
3 1061 1062 1063
3 1062 1064 1063
3 1063 1058 1060
3 1060 1061 1063
3 1064 885 884
3 884 880 1058
3 1058 1063 884
3 1063 1064 884
3 966 965 1065
3 1065 1066 1067
3 1067 1068 1065
3 1068 966 1065
3 1069 1070 1071
3 1071 1072 1069
3 1072 1067 1069
3 1067 1066 1069
3 1071 1062 1061
3 1071 1061 1072
3 1061 1060 1067
3 1061 1067 1072
3 1059 970 966
3 1059 966 1068
3 1067 1060 1059
3 1067 1059 1068
3 1073 1034 1033
3 1033 1074 1073
3 1074 1075 1073
3 1075 1076 1073
3 1025 1077 1074
3 1077 1078 1075
3 1077 1075 1074
3 1074 1033 1025
3 1079 1062 1071
3 1079 1071 1080
3 1075 1078 1079
3 1075 1079 1080
3 1071 1070 1081
3 1081 1076 1075
3 1075 1080 1081
3 1080 1071 1081
3 1020 899 898
3 1020 898 1082
3 898 906 1083
3 898 1083 1082
3 1083 1084 1082
3 1084 1021 1020
3 1084 1020 1082
3 915 885 1064
3 1064 1085 915
3 1085 1083 915
3 1083 906 915
3 1062 1079 1085
3 1079 1078 1085
3 1078 1083 1085
3 1085 1064 1062
3 1077 1025 1021
3 1077 1021 1084
3 1084 1083 1078
3 1078 1077 1084
3 954 1086 955
3 1086 1087 955
3 1087 956 955
3 1088 1089 959
3 1089 960 959
3 959 956 1087
3 1087 1088 959
3 1086 954 1090
3 1091 965 1092
3 1092 969 1093
3 1093 969 1094
3 1089 1094 976
3 1094 969 976
3 976 960 1089
3 1092 965 964
3 969 1092 964
3 996 1095 997
3 1095 998 997
3 1096 1002 1001
3 998 1096 1001
3 1097 1002 1096
3 1096 998 1098
3 1095 996 1099
3 1098 998 1095
3 1090 954 1100
3 1100 1008 1101
3 1102 1002 1097
3 1101 1008 1102
3 1002 1102 1013
3 1102 1008 1013
3 1100 954 1005
3 1008 1100 1005
3 1034 1103 1035
3 1103 1036 1035
3 1104 1040 1039
3 1036 1104 1039
3 1105 1040 1104
3 1104 1036 1106
3 1103 1034 1107
3 1106 1036 1103
3 1099 996 1108
3 1108 1047 1109
3 1110 1040 1105
3 1109 1047 1110
3 1040 1110 1052
3 1110 1047 1052
3 1108 996 1044
3 1047 1108 1044
3 965 1111 1065
3 1111 1066 1065
3 1112 1070 1069
3 1066 1112 1069
3 1113 1070 1112
3 1112 1066 1114
3 1111 965 1091
3 1114 1066 1111
3 1107 1034 1115
3 1115 1076 1116
3 1117 1070 1113
3 1116 1076 1117
3 1070 1117 1081
3 1117 1076 1081
3 1115 1034 1073
3 1076 1115 1073
3 1086 1090 1118
3 1090 1119 1118
3 1118 1120 1087
3 1087 1086 1118
3 1089 1088 1121
3 1088 1087 1121
3 1087 1120 1121
3 1121 1122 1089
3 616 615 1123
3 1124 616 1123
3 628 1125 1126
3 1123 615 628
3 1123 628 1126
3 1120 1123 1126
3 1120 1126 1121
3 1126 1125 1122
3 1126 1122 1121
3 1118 1119 1124
3 1119 616 1124
3 1124 1123 1120
3 1120 1118 1124
3 651 650 1127
3 650 1128 1127
3 1129 1130 1128
3 1130 1131 1128
3 1131 1127 1128
3 1128 650 1129
3 1122 1125 1132
3 1122 1132 1133
3 1132 1127 1131
3 1132 1131 1133
3 1125 628 654
3 1125 654 1132
3 654 651 1127
3 654 1127 1132
3 1091 1092 1130
3 1092 1093 1130
3 1093 1131 1130
3 1130 1129 1091
3 1094 1089 1133
3 1089 1122 1133
3 1133 1131 1093
3 1093 1094 1133
3 1095 1099 1134
3 1099 1135 1134
3 1134 1136 1098
3 1098 1095 1134
3 1097 1096 1137
3 1096 1098 1137
3 1098 1136 1137
3 1137 1138 1097
3 629 1139 630
3 639 620 1140
3 639 1140 1141
3 1140 1142 1141
3 1139 629 639
3 1139 639 1141
3 1142 1138 1137
3 1136 1139 1141
3 1136 1141 1137
3 1141 1142 1137
3 1135 630 1134
3 630 1139 1136
3 630 1136 1134
3 1143 617 616
3 1144 1143 616
3 1144 616 1145
3 616 1119 1145
3 1146 1138 1142
3 1142 1147 1146
3 1147 1143 1144
3 1147 1144 1146
3 1140 620 1147
3 620 617 1143
3 620 1143 1147
3 1147 1142 1140
3 1090 1100 1145
3 1100 1101 1145
3 1101 1144 1145
3 1145 1119 1090
3 1102 1097 1146
3 1097 1138 1146
3 1146 1144 1101
3 1101 1102 1146
3 1103 1107 1148
3 1107 1149 1148
3 1148 1150 1106
3 1106 1103 1148
3 1105 1104 1151
3 1104 1106 1151
3 1106 1150 1151
3 1151 1152 1105
3 641 640 1153
3 1154 641 1153
3 635 1155 1156
3 1153 640 635
3 1153 635 1156
3 1150 1153 1156
3 1150 1156 1151
3 1156 1155 1152
3 1156 1152 1151
3 1148 1149 1154
3 1149 641 1154
3 1154 1153 1150
3 1150 1148 1154
3 631 630 1157
3 630 1158 1157
3 1135 1159 1158
3 1159 1160 1158
3 1160 1157 1158
3 1158 630 1135
3 1152 1155 1161
3 1152 1161 1162
3 1161 1157 1160
3 1161 1160 1162
3 1155 635 634
3 1155 634 1161
3 634 631 1157
3 634 1157 1161
3 1099 1108 1159
3 1108 1109 1159
3 1109 1160 1159
3 1159 1135 1099
3 1110 1105 1162
3 1105 1152 1162
3 1162 1160 1109
3 1109 1110 1162
3 1111 1091 1163
3 1091 1129 1163
3 1163 1164 1114
3 1114 1111 1163
3 1113 1112 1165
3 1112 1114 1165
3 1114 1164 1165
3 1165 1166 1113
3 649 1167 650
3 646 1168 1169
3 1168 1170 1169
3 1167 649 646
3 1167 646 1169
3 1170 1166 1165
3 1164 1167 1169
3 1164 1169 1165
3 1169 1170 1165
3 1129 650 1163
3 650 1167 1164
3 650 1164 1163
3 1171 642 641
3 1172 1171 641
3 1172 641 1173
3 641 1149 1173
3 1174 1166 1170
3 1170 1175 1174
3 1175 1171 1172
3 1175 1172 1174
3 1168 646 645
3 1168 645 1175
3 645 642 1171
3 645 1171 1175
3 1175 1170 1168
3 1107 1115 1173
3 1115 1116 1173
3 1116 1172 1173
3 1173 1149 1107
3 1117 1113 1174
3 1113 1166 1174
3 1174 1172 1116
3 1116 1117 1174
3 864 863 1176
3 864 1176 1177
3 1176 1178 1179
3 1176 1179 1177
3 1179 1180 1181
3 1179 1181 1177
3 1181 866 864
3 1181 864 1177
3 1182 771 871
3 1182 871 1183
3 871 866 1181
3 871 1181 1183
3 1181 1180 1184
3 1181 1184 1183
3 1184 1185 1182
3 1184 1182 1183
3 952 804 1186
3 952 1187 943
3 943 1187 1188
3 1176 863 938
3 943 1188 938
3 1188 1178 1176
3 1188 1176 938
3 799 776 1189
3 799 1189 1190
3 1189 1191 1190
3 1191 1192 801
3 1191 801 1190
3 801 799 1190
3 1186 804 803
3 1186 803 1193
3 803 801 1193
3 801 1192 1193
3 772 771 1182
3 1182 1185 1194
3 1182 1194 772
3 1194 1195 772
3 1195 774 772
3 1189 776 775
3 775 774 1195
3 1195 1196 775
3 1196 1189 775
3 900 899 1197
3 900 1197 1198
3 1197 1199 1200
3 1197 1200 1198
3 1200 1201 1198
3 1201 902 900
3 1201 900 1198
3 1202 1201 1200
3 1202 1200 1203
3 1200 1204 1203
3 1205 683 907
3 1205 907 1202
3 907 902 1201
3 907 1201 1202
3 1202 1203 1205
3 1032 288 1206
3 1032 1206 1207
3 1206 1208 1207
3 1207 1024 1032
3 1199 1207 1208
3 1197 899 1019
3 1197 1019 1199
3 1019 1024 1207
3 1019 1207 1199
3 309 224 1209
3 309 1209 1210
3 1209 1211 1210
3 1211 1212 1213
3 1211 1213 1210
3 1213 295 309
3 1213 309 1210
3 1208 1206 1212
3 1206 288 287
3 1206 287 1214
3 287 295 1213
3 287 1213 1214
3 1213 1212 1214
3 1212 1206 1214
3 684 683 1205
3 684 1205 1215
3 1205 1203 1215
3 1216 686 684
3 1216 684 1215
3 1211 1209 1217
3 1217 1216 1215
3 1209 224 688
3 1209 688 1217
3 688 686 1216
3 688 1216 1217
3 1218 1219 1208
3 1219 1220 1208
3 1220 1199 1208
3 1220 1221 1199
3 1221 1222 1199
3 1200 1199 1222
3 1222 1223 1200
3 1223 1204 1200
3 1204 1224 1203
3 1215 1203 1224
3 1224 1225 1215
3 1226 1211 1217
3 1217 1215 1225
3 1225 1227 1217
3 1227 1226 1217
3 1226 1228 1211
3 1228 1212 1211
3 1229 1212 1228
3 1218 1208 1212
3 1229 1218 1212
3 1179 1178 1230
3 1230 1231 1179
3 1231 1180 1179
3 1232 1180 1231
3 1233 1185 1184
3 1180 1232 1184
3 1232 1233 1184
3 1194 1185 1233
3 1194 1233 1234
3 1235 1195 1194
3 1235 1194 1234
3 1236 1189 1196
3 1196 1195 1235
3 1235 1236 1196
3 1191 1189 1236
3 1236 1192 1191
3 1237 1192 1236
3 1238 1186 1193
3 1192 1237 1193
3 1237 1238 1193
3 952 1186 1238
3 1238 1187 952
3 1230 1178 1188
