sdf_197_seg_1_comp_0.sdf
sdf_197_seg_1_comp_1.sdf
sdf_197_seg_1_comp_2.sdf
sdf_197_seg_2_comp_0.sdf
sdf_197_seg_3_comp_0.sdf
sdf_197_seg_4_comp_0.sdf
sdf_197_seg_4_comp_1.sdf
sdf_197_seg_4_comp_2.sdf
