OFF
389 746 0
16.5715 0.25657 -0.777156
15.8875 0.29797 -1.42916
16.2935 1.16857 -1.71316
17.3985 1.52027 -0.856156
16.3715 2.30147 -1.91716
17.5185 2.73927 -0.978156
18.0695 2.93327 0.165844
17.9655 1.62137 0.209844
17.0705 0.22957 0.231844
15.9895 3.38267 -1.96916
15.3305 4.20247 -1.93316
16.3015 4.60347 -1.07016
17.0825 3.82727 -1.03516
16.6985 4.79217 0.00784414
17.5705 4.04177 0.114844
16.5975 4.82397 1.16584
15.9245 4.72837 2.32984
17.3395 4.00917 2.33884
17.5765 4.09247 1.31984
18.0245 2.92797 2.33684
18.1735 2.97917 1.34384
17.9975 1.62877 2.33784
17.1285 0.24327 2.33984
17.2035 0.22747 1.35484
18.1065 1.64697 1.35284
8.01548 -4.00303 -0.993156
7.97949 -3.39683 -1.98316
10.1015 -2.56883 -1.98116
10.1735 -3.16623 -0.995156
12.4955 -1.56103 -1.91416
12.6445 -2.11613 -0.960156
12.7615 -2.36103 0.197844
10.1865 -3.43333 0.206844
7.99349 -4.25473 0.219844
14.5855 -0.51813 -1.70816
14.8825 -0.96533 -0.850156
15.1955 -1.11903 0.216844
15.2845 -1.09653 2.34384
15.2955 -1.14753 1.35984
12.8445 -2.29423 2.37584
12.7995 -2.39653 1.38284
10.1835 -3.25363 2.46284
7.57649 -3.83763 2.67684
7.87849 -4.20183 1.48584
10.1325 -3.43793 1.44284
7.67949 0.11107 -2.70716
7.47149 1.27777 -2.24916
9.57149 1.93327 -2.60616
9.62449 0.86507 -2.79516
11.7065 2.73307 -2.65916
11.9395 1.75287 -2.77916
12.1865 0.57777 -2.75216
9.82049 -0.36613 -2.82616
7.82449 -1.15583 -2.80716
13.7125 3.53427 -2.44916
14.1685 2.64167 -2.52716
14.4825 1.52397 -2.47916
14.5375 0.39117 -2.22816
12.3575 -0.59493 -2.48716
7.92049 -2.38643 -2.57716
9.98149 -1.57313 -2.57416
10.3295 -1.00733 2.46684
10.8875 -1.30923 2.51484
11.8615 -1.13353 2.46684
11.5265 -0.57493 2.37884
13.2025 -0.69623 2.44284
12.9425 -0.0574303 2.34884
12.6345 0.69927 2.31784
11.1395 0.0909697 2.34884
9.87749 -0.42263 2.44284
14.4675 -0.0733303 2.46684
15.2875 0.48097 2.51484
15.4765 1.08717 2.46684
14.3175 0.56077 2.37884
15.3915 1.82117 2.44284
14.1295 1.30757 2.34884
14.9395 2.40587 2.46684
14.3815 2.70777 2.51484
13.4075 2.53197 2.46684
13.7425 1.97347 2.37884
12.0665 2.09477 2.44284
12.3265 1.45587 2.34884
10.8015 1.47187 2.46684
9.98149 0.91757 2.51484
9.79249 0.31137 2.46684
10.9515 0.83777 2.37884
6.69649 -2.96193 3.11884
8.41648 -3.22833 3.10384
7.24549 -2.68033 3.21884
9.01548 -2.83433 3.25784
7.80649 -2.36913 3.28784
7.27149 -1.43733 3.30384
6.81249 -1.59933 3.28184
6.39649 -1.74913 3.23784
9.48549 -2.54403 3.26184
9.83249 -2.33423 3.15784
8.66549 -1.94073 3.15784
8.28549 -2.12543 3.26284
8.05849 -1.14953 3.15884
7.69849 -1.28243 3.26284
8.05249 -0.11443 3.15784
8.69049 1.01087 3.15784
8.47649 1.01567 3.26184
7.75349 -0.18033 3.26284
8.17749 1.03897 3.26084
7.37749 -0.24183 3.28684
7.75949 1.10057 3.11584
7.08949 1.27327 2.62884
6.49149 -0.34373 3.11084
6.92849 -0.27493 3.21384
17.0025 0.26957 2.92984
15.2675 -1.01143 2.93284
16.8465 0.30147 3.20784
15.2425 -0.90743 3.20984
13.1495 -1.93013 3.21784
12.9805 -2.12563 2.95484
16.6805 0.33437 3.25584
16.5215 0.36337 3.15484
15.1715 -0.70313 3.15584
15.2105 -0.79963 3.25684
13.3975 -1.59103 3.15584
13.2925 -1.74693 3.25884
11.5135 -2.17623 3.15684
11.2685 -2.37313 3.26084
10.9345 -2.63023 3.23384
10.5125 -2.95403 3.01384
15.7485 4.32497 2.96184
17.1005 3.82137 2.93584
15.5575 4.04737 3.21584
16.8625 3.60317 3.20884
17.5675 2.71357 3.20684
17.8135 2.83047 2.92984
15.3835 3.83777 3.25584
15.2365 3.68037 3.15484
16.4275 3.29157 3.15384
16.6315 3.42847 3.25484
17.0825 2.50977 3.15384
17.3145 2.60427 3.25484
17.1365 1.48397 3.15384
17.3555 1.52097 3.25484
17.5925 1.56077 3.20684
17.8165 1.59837 2.92784
9.38649 2.51697 2.70384
9.47149 2.33487 3.08784
9.72548 2.22647 3.25284
11.6875 3.20627 3.24784
11.6355 3.35687 3.07584
11.5815 3.49947 2.70084
10.0175 2.07267 3.15684
9.89749 2.14027 3.26084
11.7435 2.95127 3.15584
11.7205 3.06877 3.25884
13.5795 3.52697 3.15584
13.6485 3.67627 3.25684
13.7325 3.86417 3.23184
13.7555 4.27007 2.60484
13.8275 4.09517 3.02084
10.0635 -2.18173 2.98884
8.92749 -1.80683 2.98884
10.2755 -1.99463 2.79684
9.19948 -1.64343 2.79384
8.60649 -0.93833 2.79084
8.31349 -1.05373 2.98884
10.5645 -1.68083 2.62584
9.61049 -1.37023 2.61284
9.08049 -0.74683 2.59984
9.49049 0.95797 2.62584
9.02449 0.0691697 2.61284
9.08249 0.99027 2.79684
8.55049 -0.0151303 2.79384
8.85449 1.00517 2.98884
8.27149 -0.0678303 2.98884
16.3925 0.38367 2.98684
15.1245 -0.63293 2.98784
16.1805 0.40577 2.79684
15.0025 -0.54643 2.79384
13.4465 -1.33683 2.78984
13.4525 -1.47753 2.98784
15.7775 0.44057 2.62584
14.7395 -0.40113 2.61284
13.3665 -1.09953 2.59984
11.8955 -1.55833 2.61284
11.7805 -1.85603 2.79384
11.6685 -2.03283 2.98784
15.1255 3.55937 2.98684
16.2705 3.18627 2.98684
14.9735 3.38797 2.79684
16.0515 3.03717 2.79284
16.6495 2.33297 2.78984
16.9045 2.43687 2.98684
14.7045 3.07937 2.62584
15.6585 2.76877 2.61284
16.1885 2.14537 2.59984
16.2445 1.32937 2.61284
16.7105 1.41077 2.79284
16.9655 1.45477 2.98684
10.1125 2.01987 2.98784
10.2585 1.94207 2.79384
11.8105 2.73147 2.78984
11.7655 2.86067 2.98784
10.5295 1.79967 2.61284
11.9025 2.49807 2.59984
13.3735 2.95687 2.61284
13.4705 3.24977 2.79384
13.5295 3.41227 2.98784
6.76149 1.49327 1.27984
8.28249 2.18547 1.67184
7.61249 1.96087 0.844844
9.15449 2.68597 0.920844
8.56748 2.45377 0.299844
8.39749 2.39307 -0.459156
7.49149 1.95257 -0.193156
6.70849 1.56067 0.0238441
9.85249 3.03627 0.287844
10.3705 3.26987 -0.200156
10.0795 3.14877 -0.532156
9.41049 2.85157 -0.168156
9.98248 3.10837 -0.931156
9.26348 2.79007 -0.716156
10.0795 3.14877 -1.33116
10.3705 3.26987 -1.66416
9.85249 3.03627 -1.72316
9.41049 2.85157 -1.26516
9.18749 2.67557 -1.82116
8.58849 2.45417 -1.20716
8.41349 2.14417 -1.97716
6.88349 1.49567 -1.16716
7.69449 1.96247 -1.18916
14.7755 4.78007 1.56884
13.3375 4.28987 1.96684
13.8545 4.62517 0.888844
12.7955 4.20927 1.23884
11.5085 3.68817 1.35284
11.5415 3.61347 2.08184
13.0905 4.39057 0.281844
12.5085 4.15777 -0.203156
12.0225 3.95597 -0.00315586
12.3545 4.08277 0.556844
11.4395 3.71387 0.0648441
11.4715 3.71347 0.649844
10.8565 3.47167 -0.00115586
10.5885 3.34407 0.560844
10.2145 3.13887 1.25984
9.72449 2.82407 2.03384
14.5775 4.55147 -1.87416
15.3825 4.88707 -1.12916
13.8055 4.56797 -1.80216
14.4265 4.82787 -1.20116
14.6415 4.92217 -0.471156
15.6855 5.02987 -0.208156
13.0905 4.39057 -1.72916
12.5085 4.15777 -1.66716
12.7995 4.27887 -1.33516
13.5315 4.57527 -1.27316
12.8965 4.31927 -0.935156
13.6795 4.63687 -0.725156
12.7995 4.27887 -0.536156
13.5315 4.57527 -0.176156
14.4605 4.85867 0.271844
15.5205 5.01047 0.767844
9.84149 2.65107 -2.38916
10.2435 3.09567 -2.17516
11.5175 3.61507 -2.28416
11.5815 3.32107 -2.48316
10.8565 3.47167 -1.86416
10.5885 3.34407 -1.99816
11.4395 3.71387 -1.93116
11.4715 3.71347 -2.09116
12.0225 3.95597 -1.86616
12.3545 4.08277 -2.00216
12.7705 4.13477 -2.16116
13.2355 3.99197 -2.31816
10.9155 3.56577 -0.987156
11.0175 3.60707 -0.811156
11.0225 3.66077 -0.830156
10.9265 3.62207 -1.00216
10.8955 3.60917 -1.20816
10.8815 3.55197 -1.20016
11.0225 3.66077 -1.58616
11.0175 3.60707 -1.58916
10.9155 3.56577 -1.41216
10.9265 3.62207 -1.41416
11.1865 3.67597 -0.705156
11.1865 3.67597 -1.69516
12.1345 4.00817 -0.514156
11.8095 3.87447 -0.362156
11.9185 3.92687 -0.693156
11.6865 3.83217 -0.568156
11.4085 3.71867 -0.527156
11.4205 3.71407 -0.311156
11.8115 3.89907 -0.778156
11.7615 3.91007 -0.811156
11.5925 3.84127 -0.705156
11.6245 3.82317 -0.667156
11.4005 3.73197 -0.630156
10.9895 3.56487 -0.778156
11.1765 3.64087 -0.667156
10.8995 3.51037 -0.692156
11.1315 3.60507 -0.568156
10.7065 3.41997 -0.513156
11.0315 3.55367 -0.362156
10.5115 3.33977 -0.766156
10.7605 3.45357 -0.900156
10.7145 3.43467 -1.14816
10.4475 3.31307 -1.06916
10.8775 3.51927 -0.963156
10.8405 3.50407 -1.18616
10.9895 3.56487 -1.59316
10.8775 3.51927 -1.40816
10.8995 3.51037 -1.60416
10.7605 3.45357 -1.39716
10.7065 3.41997 -1.62616
10.5115 3.33977 -1.37316
11.0315 3.55367 -1.77816
11.1315 3.60507 -1.72816
11.4095 3.71867 -1.76916
11.4205 3.71407 -1.82916
11.1765 3.64087 -1.70416
11.4005 3.73197 -1.74116
11.8115 3.89907 -1.59316
11.9185 3.92687 -1.60416
11.6865 3.83217 -1.72816
11.6245 3.82317 -1.70416
12.1345 4.00817 -1.62716
11.8095 3.87447 -1.77816
12.3285 4.08837 -1.37416
12.0575 3.98367 -1.39716
12.1035 4.00257 -1.14816
12.3935 4.11507 -1.07116
11.8635 3.95137 -1.41216
11.9235 3.94467 -1.40816
11.8975 3.96517 -1.20016
11.9605 3.95987 -1.18616
11.8635 3.95137 -0.987156
11.9235 3.94467 -0.963156
12.0575 3.98367 -0.900156
12.3285 4.08837 -0.767156
5.85849 0.32277 2.41784
5.95649 0.38507 2.42184
5.95149 0.99087 1.40484
5.85849 0.94797 1.40884
5.94749 1.18087 0.182844
5.85849 1.15637 0.198844
6.24949 0.61267 2.47084
6.23049 1.17127 1.41384
6.21149 1.30947 0.137844
6.45349 0.64857 -2.09016
6.31149 1.17287 -1.09616
6.00749 0.39407 -2.02916
5.97249 0.99127 -1.02816
5.85849 0.94797 -1.01216
5.85849 0.32277 -2.02116
6.03449 -0.63903 -2.61916
5.85849 -0.71933 -2.62616
6.05349 -1.88713 -2.80816
5.85849 -1.96973 -2.82816
6.56249 -0.37633 -2.64716
6.63849 -1.63933 -2.80116
6.70749 -3.90043 -1.99116
6.68349 -2.87823 -2.58716
6.07049 -4.16163 -2.00416
6.06449 -3.12913 -2.60416
5.85849 -3.22023 -2.62616
5.85849 -4.26223 -2.02116
6.07449 -4.78113 -1.00316
5.85849 -4.88743 -1.01216
6.06949 -4.99423 0.202844
5.85849 -5.09583 0.198844
6.72149 -4.51383 -0.996156
6.70149 -4.74443 0.213844
6.47249 -4.09103 2.48884
6.61949 -4.61853 1.45984
6.01249 -4.20933 2.42584
6.04949 -4.80733 1.41684
5.85849 -4.88743 1.40884
5.85849 -4.26223 2.41784
5.85849 -3.23213 3.05084
5.85849 -3.22023 3.02384
5.95649 -3.18893 3.01784
5.91849 -1.94413 3.20884
5.85849 -1.96973 3.22584
5.85849 -1.96973 3.25384
6.25149 -3.11713 3.05084
6.09749 -1.86733 3.21384
6.15149 -0.51213 3.04584
5.93149 -0.67303 3.01684
5.85849 -0.70743 3.05084
5.85849 -0.71933 3.02384
5.85849 -1.96973 3.28684
3 0 1 2
3 0 2 3
3 2 4 5
3 2 5 3
3 5 6 7
3 5 7 3
3 7 8 0
3 7 0 3
3 9 10 11
3 9 11 12
3 11 13 14
3 11 14 12
3 14 6 5
3 14 5 12
3 5 4 9
3 5 9 12
3 15 16 17
3 15 17 18
3 17 19 20
3 17 20 18
3 20 6 14
3 20 14 18
3 14 13 15
3 14 15 18
3 21 22 23
3 21 23 24
3 23 8 7
3 23 7 24
3 7 6 20
3 7 20 24
3 20 19 21
3 20 21 24
3 25 26 27
3 25 27 28
3 27 29 30
3 27 30 28
3 30 31 32
3 30 32 28
3 32 33 25
3 32 25 28
3 34 1 0
3 34 0 35
3 0 8 36
3 0 36 35
3 36 31 30
3 36 30 35
3 30 29 34
3 30 34 35
3 23 22 37
3 23 37 38
3 37 39 40
3 37 40 38
3 40 31 36
3 40 36 38
3 36 8 23
3 36 23 38
3 41 42 43
3 41 43 44
3 43 33 32
3 43 32 44
3 32 31 40
3 32 40 44
3 40 39 41
3 40 41 44
3 45 46 47
3 45 47 48
3 47 49 50
3 47 50 48
3 50 51 52
3 50 52 48
3 52 53 45
3 52 45 48
3 54 10 9
3 54 9 55
3 9 4 56
3 9 56 55
3 56 51 50
3 56 50 55
3 50 49 54
3 50 54 55
3 2 1 34
3 2 34 57
3 34 29 58
3 34 58 57
3 58 51 56
3 58 56 57
3 56 4 2
3 56 2 57
3 27 26 59
3 27 59 60
3 59 53 52
3 59 52 60
3 52 51 58
3 52 58 60
3 58 29 27
3 58 27 60
3 61 62 63
3 61 63 64
3 63 65 66
3 63 66 64
3 66 67 68
3 66 68 64
3 68 69 61
3 68 61 64
3 70 71 72
3 70 72 73
3 72 74 75
3 72 75 73
3 75 67 66
3 75 66 73
3 66 65 70
3 66 70 73
3 76 77 78
3 76 78 79
3 78 80 81
3 78 81 79
3 81 67 75
3 81 75 79
3 75 74 76
3 75 76 79
3 82 83 84
3 82 84 85
3 84 69 68
3 84 68 85
3 68 67 81
3 68 81 85
3 81 80 82
3 81 82 85
3 86 42 87
3 86 87 88
3 87 89 90
3 87 90 88
3 90 91 92
3 90 92 88
3 92 93 86
3 92 86 88
3 94 95 96
3 94 96 97
3 96 98 99
3 96 99 97
3 99 91 90
3 99 90 97
3 90 89 94
3 90 94 97
3 100 101 102
3 100 102 103
3 102 104 105
3 102 105 103
3 105 91 99
3 105 99 103
3 99 98 100
3 99 100 103
3 106 107 108
3 106 108 109
3 108 93 92
3 108 92 109
3 92 91 105
3 92 105 109
3 105 104 106
3 105 106 109
3 37 22 110
3 37 110 111
3 110 112 113
3 110 113 111
3 113 114 115
3 113 115 111
3 115 39 37
3 115 37 111
3 116 117 118
3 116 118 119
3 118 120 121
3 118 121 119
3 121 114 113
3 121 113 119
3 113 112 116
3 113 116 119
3 122 95 94
3 122 94 123
3 94 89 124
3 94 124 123
3 124 114 121
3 124 121 123
3 121 120 122
3 121 122 123
3 87 42 41
3 87 41 125
3 41 39 115
3 41 115 125
3 115 114 124
3 115 124 125
3 124 89 87
3 124 87 125
3 17 16 126
3 17 126 127
3 126 128 129
3 126 129 127
3 129 130 131
3 129 131 127
3 131 19 17
3 131 17 127
3 132 133 134
3 132 134 135
3 134 136 137
3 134 137 135
3 137 130 129
3 137 129 135
3 129 128 132
3 129 132 135
3 138 117 116
3 138 116 139
3 116 112 140
3 116 140 139
3 140 130 137
3 140 137 139
3 137 136 138
3 137 138 139
3 110 22 21
3 110 21 141
3 21 19 131
3 21 131 141
3 131 130 140
3 131 140 141
3 140 112 110
3 140 110 141
3 142 107 106
3 142 106 143
3 106 104 144
3 106 144 143
3 144 145 146
3 144 146 143
3 146 147 142
3 146 142 143
3 102 101 148
3 102 148 149
3 148 150 151
3 148 151 149
3 151 145 144
3 151 144 149
3 144 104 102
3 144 102 149
3 152 133 132
3 152 132 153
3 132 128 154
3 132 154 153
3 154 145 151
3 154 151 153
3 151 150 152
3 151 152 153
3 126 16 155
3 126 155 156
3 155 147 146
3 155 146 156
3 146 145 154
3 146 154 156
3 154 128 126
3 154 126 156
3 96 95 157
3 96 157 158
3 157 159 160
3 157 160 158
3 160 161 162
3 160 162 158
3 162 98 96
3 162 96 158
3 163 62 61
3 163 61 164
3 61 69 165
3 61 165 164
3 165 161 160
3 165 160 164
3 160 159 163
3 160 163 164
3 84 83 166
3 84 166 167
3 166 168 169
3 166 169 167
3 169 161 165
3 169 165 167
3 165 69 84
3 165 84 167
3 170 101 100
3 170 100 171
3 100 98 162
3 100 162 171
3 162 161 169
3 162 169 171
3 169 168 170
3 169 170 171
3 118 117 172
3 118 172 173
3 172 174 175
3 172 175 173
3 175 176 177
3 175 177 173
3 177 120 118
3 177 118 173
3 178 71 70
3 178 70 179
3 70 65 180
3 70 180 179
3 180 176 175
3 180 175 179
3 175 174 178
3 175 178 179
3 63 62 163
3 63 163 181
3 163 159 182
3 163 182 181
3 182 176 180
3 182 180 181
3 180 65 63
3 180 63 181
3 157 95 122
3 157 122 183
3 122 120 177
3 122 177 183
3 177 176 182
3 177 182 183
3 182 159 157
3 182 157 183
3 134 133 184
3 134 184 185
3 184 186 187
3 184 187 185
3 187 188 189
3 187 189 185
3 189 136 134
3 189 134 185
3 190 77 76
3 190 76 191
3 76 74 192
3 76 192 191
3 192 188 187
3 192 187 191
3 187 186 190
3 187 190 191
3 72 71 178
3 72 178 193
3 178 174 194
3 178 194 193
3 194 188 192
3 194 192 193
3 192 74 72
3 192 72 193
3 172 117 138
3 172 138 195
3 138 136 189
3 138 189 195
3 189 188 194
3 189 194 195
3 194 174 172
3 194 172 195
3 148 101 170
3 148 170 196
3 170 168 197
3 170 197 196
3 197 198 199
3 197 199 196
3 199 150 148
3 199 148 196
3 166 83 82
3 166 82 200
3 82 80 201
3 82 201 200
3 201 198 197
3 201 197 200
3 197 168 166
3 197 166 200
3 78 77 190
3 78 190 202
3 190 186 203
3 190 203 202
3 203 198 201
3 203 201 202
3 201 80 78
3 201 78 202
3 184 133 152
3 184 152 204
3 152 150 199
3 152 199 204
3 199 198 203
3 199 203 204
3 203 186 184
3 203 184 204
3 205 107 206
3 205 206 207
3 206 208 209
3 206 209 207
3 209 210 211
3 209 211 207
3 211 212 205
3 211 205 207
3 213 214 215
3 213 215 216
3 215 217 218
3 215 218 216
3 218 210 209
3 218 209 216
3 209 208 213
3 209 213 216
3 219 220 221
3 219 221 222
3 221 223 224
3 221 224 222
3 224 210 218
3 224 218 222
3 218 217 219
3 218 219 222
3 225 46 226
3 225 226 227
3 226 212 211
3 226 211 227
3 211 210 224
3 211 224 227
3 224 223 225
3 224 225 227
3 155 16 228
3 155 228 229
3 228 230 231
3 228 231 229
3 231 232 233
3 231 233 229
3 233 147 155
3 233 155 229
3 234 235 236
3 234 236 237
3 236 238 239
3 236 239 237
3 239 232 231
3 239 231 237
3 231 230 234
3 231 234 237
3 240 214 213
3 240 213 241
3 213 208 242
3 213 242 241
3 242 232 239
3 242 239 241
3 239 238 240
3 239 240 241
3 206 107 142
3 206 142 243
3 142 147 233
3 142 233 243
3 233 232 242
3 233 242 243
3 242 208 206
3 242 206 243
3 11 10 244
3 11 244 245
3 244 246 247
3 244 247 245
3 247 248 249
3 247 249 245
3 249 13 11
3 249 11 245
3 250 251 252
3 250 252 253
3 252 254 255
3 252 255 253
3 255 248 247
3 255 247 253
3 247 246 250
3 247 250 253
3 256 235 234
3 256 234 257
3 234 230 258
3 234 258 257
3 258 248 255
3 258 255 257
3 255 254 256
3 255 256 257
3 228 16 15
3 228 15 259
3 15 13 249
3 15 249 259
3 249 248 258
3 249 258 259
3 258 230 228
3 258 228 259
3 47 46 225
3 47 225 260
3 225 223 261
3 225 261 260
3 261 262 263
3 261 263 260
3 263 49 47
3 263 47 260
3 221 220 264
3 221 264 265
3 264 266 267
3 264 267 265
3 267 262 261
3 267 261 265
3 261 223 221
3 261 221 265
3 268 251 250
3 268 250 269
3 250 246 270
3 250 270 269
3 270 262 267
3 270 267 269
3 267 266 268
3 267 268 269
3 244 10 54
3 244 54 271
3 54 49 263
3 54 263 271
3 263 262 270
3 263 270 271
3 270 246 244
3 270 244 271
3 272 273 274
3 272 274 275
3 276 277 272
3 276 272 275
3 278 279 280
3 278 280 281
3 280 277 276
3 280 276 281
3 274 273 282
3 283 279 278
3 236 235 284
3 236 284 285
3 284 286 287
3 284 287 285
3 287 288 289
3 287 289 285
3 289 238 236
3 289 236 285
3 290 291 292
3 290 292 293
3 292 294 293
3 294 288 287
3 294 287 293
3 287 286 290
3 287 290 293
3 282 273 295
3 282 295 296
3 295 297 298
3 295 298 296
3 298 288 294
3 298 294 296
3 294 282 296
3 299 214 240
3 299 240 300
3 240 238 289
3 240 289 300
3 289 288 298
3 289 298 300
3 298 297 299
3 298 299 300
3 215 214 299
3 215 299 301
3 299 297 302
3 299 302 301
3 302 303 304
3 302 304 301
3 304 217 215
3 304 215 301
3 295 273 272
3 295 272 305
3 272 277 306
3 272 306 305
3 306 303 302
3 306 302 305
3 302 297 295
3 302 295 305
3 280 279 307
3 280 307 308
3 307 309 310
3 307 310 308
3 310 303 306
3 310 306 308
3 306 277 280
3 306 280 308
3 311 220 219
3 311 219 312
3 219 217 304
3 219 304 312
3 304 303 310
3 304 310 312
3 310 309 311
3 310 311 312
3 264 220 311
3 264 311 313
3 311 309 314
3 311 314 313
3 314 315 316
3 314 316 313
3 316 266 264
3 316 264 313
3 307 279 283
3 307 283 317
3 283 318 317
3 318 315 314
3 318 314 317
3 314 309 307
3 314 307 317
3 319 320 321
3 319 321 322
3 321 315 318
3 321 318 322
3 323 251 268
3 323 268 324
3 268 266 316
3 268 316 324
3 316 315 321
3 316 321 324
3 321 320 323
3 321 323 324
3 252 251 323
3 252 323 325
3 323 320 326
3 323 326 325
3 326 327 328
3 326 328 325
3 328 254 252
3 328 252 325
3 319 329 330
3 329 331 332
3 329 332 330
3 332 327 326
3 332 326 330
3 326 320 319
3 326 319 330
3 333 291 290
3 333 290 334
3 290 286 335
3 290 335 334
3 335 327 332
3 335 332 334
3 332 331 333
3 332 333 334
3 284 235 256
3 284 256 336
3 256 254 328
3 256 328 336
3 328 327 335
3 328 335 336
3 335 286 284
3 335 284 336
3 337 338 339
3 337 339 340
3 339 341 342
3 339 342 340
3 343 107 205
3 343 205 344
3 205 212 345
3 205 345 344
3 345 341 339
3 345 339 344
3 339 338 343
3 339 343 344
3 226 46 346
3 226 346 347
3 346 348 349
3 346 349 347
3 349 341 345
3 349 345 347
3 345 212 226
3 345 226 347
3 342 341 349
3 342 349 350
3 349 348 351
3 349 351 350
3 351 348 352
3 351 352 353
3 352 354 355
3 352 355 353
3 346 46 45
3 346 45 356
3 45 53 357
3 45 357 356
3 357 354 352
3 357 352 356
3 352 348 346
3 352 346 356
3 59 26 358
3 59 358 359
3 358 360 361
3 358 361 359
3 361 354 357
3 361 357 359
3 357 53 59
3 357 59 359
3 355 354 361
3 355 361 362
3 361 360 363
3 361 363 362
3 363 360 364
3 363 364 365
3 364 366 367
3 364 367 365
3 358 26 25
3 358 25 368
3 25 33 369
3 25 369 368
3 369 366 364
3 369 364 368
3 364 360 358
3 364 358 368
3 43 42 370
3 43 370 371
3 370 372 373
3 370 373 371
3 373 366 369
3 373 369 371
3 369 33 43
3 369 43 371
3 367 366 373
3 367 373 374
3 373 372 375
3 373 375 374
3 376 375 377
3 375 372 378
3 375 378 377
3 378 379 380
3 378 380 377
3 380 381 376
3 380 376 377
3 370 42 86
3 370 86 382
3 86 93 383
3 86 383 382
3 383 379 378
3 383 378 382
3 378 372 370
3 378 370 382
3 108 107 343
3 108 343 384
3 343 338 385
3 343 385 384
3 385 379 383
3 385 383 384
3 383 93 108
3 383 108 384
3 337 386 387
3 386 381 380
3 386 380 387
3 380 379 385
3 380 385 387
3 385 338 337
3 385 337 387
3 376 381 388
3 388 381 386
