OFF
956 1870 0
-3.92689 11.438 -0.394665
-3.2432 11.0369 -0.394665
-3.2432 11.0369 -0.607505
-3.92689 11.438 -0.607505
-3.2432 11.0369 -0.805195
-3.92689 11.438 -0.805195
-4.74729 11.5717 -0.805195
-4.74729 11.5717 -0.607505
-4.74729 11.5717 -0.394665
-3.2432 11.0369 -0.980815
-3.2432 11.0369 -1.12747
-3.92689 11.438 -1.12747
-3.92689 11.438 -0.980815
-4.74729 11.5717 -1.12747
-4.74729 11.5717 -0.980815
-5.5677 11.438 -1.12747
-6.2514 11.0369 -1.12747
-6.2514 11.0369 -0.980815
-5.5677 11.438 -0.980815
-6.2514 11.0369 -0.805195
-5.5677 11.438 -0.805195
-6.2514 11.0369 -0.607505
-6.2514 11.0369 -0.394665
-5.5677 11.438 -0.394665
-5.5677 11.438 -0.607505
-3.95659 11.3702 0.750395
-3.2976 10.9836 0.750395
-3.265 11.0156 0.707485
-3.9388 11.4109 0.707485
-3.24859 11.0316 0.641405
-3.9298 11.4312 0.641405
-4.74729 11.5644 0.641405
-4.74729 11.5426 0.707485
-4.74729 11.499 0.750395
-3.2432 11.0369 0.546125
-3.2432 11.0369 0.415655
-3.92689 11.438 0.415655
-3.92689 11.438 0.546125
-4.74729 11.5717 0.415655
-4.74729 11.5717 0.546125
-5.5677 11.438 0.415655
-6.2514 11.0369 0.415655
-6.2514 11.0369 0.546125
-5.5677 11.438 0.546125
-6.246 11.0316 0.641405
-5.5648 11.4312 0.641405
-6.22969 11.0156 0.707485
-6.19699 10.9836 0.750395
-5.53799 11.3702 0.750395
-5.55589 11.4109 0.707485
-3.9265 4.5761 -0.351705
-3.92479 4.5747 -0.351715
-3.92479 4.5747 -0.431475
-3.9265 4.5761 -0.431455
-3.92479 4.5747 -0.505555
-3.9265 4.5761 -0.505525
-3.9274 4.6221 -0.505505
-3.9274 4.6221 -0.431445
-3.9274 4.6221 -0.351705
-3.92479 4.5747 -0.571365
-3.92479 4.5747 -0.626335
-3.9265 4.5761 -0.626285
-3.9265 4.5761 -0.571325
-3.9274 4.6221 -0.626255
-3.9274 4.6221 -0.571305
-3.9277 4.7571 -0.626245
-3.9277 5.0252 -0.626245
-3.9277 5.0252 -0.571295
-3.9277 4.7571 -0.571295
-3.9277 5.0252 -0.505505
-3.9277 4.7571 -0.505505
-3.9277 5.0252 -0.431445
-3.9277 5.0252 -0.351705
-3.9277 4.7571 -0.351705
-3.9277 4.7571 -0.431445
-5.311 4.5761 -0.731985
-5.31089 4.6221 -0.731955
-5.0547 4.6221 -0.739965
-5.0547 4.5761 -0.740005
-4.74719 4.6221 -0.742635
-4.74699 4.5761 -0.742675
-5.31079 4.7571 -0.731945
-5.31079 5.0252 -0.731945
-5.0547 5.0252 -0.739955
-5.0547 4.7571 -0.739955
-4.74729 5.0252 -0.742625
-4.74729 4.7571 -0.742625
-4.4399 5.0252 -0.739955
-4.18379 5.0252 -0.731945
-4.18379 4.7571 -0.731945
-4.4399 4.7571 -0.739955
-4.1836 4.6221 -0.731955
-4.4398 4.6221 -0.739965
-4.43929 4.5761 -0.740005
-4.1829 4.5761 -0.731985
-5.5674 4.5761 -0.626285
-5.56819 4.5747 -0.626335
-5.56819 4.5747 -0.571365
-5.5674 4.5761 -0.571325
-5.56819 4.5747 -0.505555
-5.5674 4.5761 -0.505525
-5.56709 4.6221 -0.505505
-5.56709 4.6221 -0.571305
-5.56709 4.6221 -0.626255
-5.56819 4.5747 -0.431475
-5.56819 4.5747 -0.351715
-5.5674 4.5761 -0.351705
-5.5674 4.5761 -0.431455
-5.56709 4.6221 -0.351705
-5.56709 4.6221 -0.431445
-5.567 4.7571 -0.351705
-5.567 5.0252 -0.351705
-5.567 5.0252 -0.431445
-5.567 4.7571 -0.431445
-5.567 5.0252 -0.505505
-5.567 4.7571 -0.505505
-5.567 5.0252 -0.571295
-5.567 5.0252 -0.626245
-5.567 4.7571 -0.626245
-5.567 4.7571 -0.571295
-4.4384 4.5747 0.0870354
-4.18159 4.5747 0.0773854
-4.1829 4.5761 0.0773154
-4.43929 4.5761 0.0869654
-4.1836 4.6221 0.0772854
-4.4398 4.6221 0.0869254
-4.74719 4.6221 0.0901454
-4.74699 4.5761 0.0901754
-4.74649 4.5747 0.0902554
-4.18379 4.7571 0.0772754
-4.18379 5.0252 0.0772754
-4.4399 5.0252 0.0869154
-4.4399 4.7571 0.0869154
-4.74729 5.0252 0.0901354
-4.74729 4.7571 0.0901354
-5.0547 5.0252 0.0869154
-5.31079 5.0252 0.0772754
-5.31079 4.7571 0.0772754
-5.0547 4.7571 0.0869154
-5.31089 4.6221 0.0772854
-5.0547 4.6221 0.0869254
-5.311 4.5761 0.0773154
-5.3114 4.5747 0.0773854
-5.05459 4.5747 0.0870354
-5.0547 4.5761 0.0869654
-4.0301 5.0252 0.0611954
-4.0301 4.7571 0.0611954
-4.02989 4.6221 0.0612054
-3.953 4.6221 0.0364554
-3.95329 4.7571 0.0364354
-3.95329 5.0252 0.0364354
-4.0276 4.5747 0.0613054
-4.0291 4.5761 0.0612454
-3.9505 4.5747 0.0365454
-3.95219 4.5761 0.0364854
-3.92479 4.5747 0.000835377
-3.92479 4.5747 -0.0480546
-3.9265 4.5761 -0.0480946
-3.9265 4.5761 0.000785377
-3.9274 4.6221 -0.0481246
-3.9274 4.6221 0.000755377
-3.9277 4.7571 -0.0481346
-3.9277 5.0252 -0.0481346
-3.9277 5.0252 0.000745377
-3.9277 4.7571 0.000745377
-5.5674 4.5761 -0.0480946
-5.56819 4.5747 -0.0480546
-5.56819 4.5747 0.000835377
-5.5674 4.5761 0.000785377
-5.54249 4.5747 0.0365454
-5.54179 4.5761 0.0364854
-5.54149 4.6221 0.0364554
-5.56709 4.6221 0.000755377
-5.56709 4.6221 -0.0481246
-5.4655 4.5747 0.0613054
-5.46489 4.5761 0.0612454
-5.46459 4.6221 0.0612054
-5.4645 5.0252 0.0611954
-5.4645 4.7571 0.0611954
-5.5413 5.0252 0.0364354
-5.5413 4.7571 0.0364354
-5.567 5.0252 0.000745377
-5.567 5.0252 -0.0481346
-5.567 4.7571 -0.0481346
-5.567 4.7571 0.000745377
-3.7139 6.9828 -0.635285
-3.7139 6.9828 -0.704565
-3.50009 7.2495 -0.782885
-3.50009 7.2495 -0.699275
-3.24359 7.4498 -0.876865
-3.24359 7.4498 -0.776055
-3.24359 7.4498 -0.655345
-3.50009 7.2495 -0.599155
-3.7139 6.9828 -0.552335
-2.98699 7.6947 -0.970845
-2.7732 8.0958 -1.04916
-2.7732 8.0958 -0.916825
-2.98699 7.6947 -0.852835
-2.7732 8.0958 -0.758365
-2.98699 7.6947 -0.711535
-2.7732 8.0958 -0.579995
-2.7732 8.0958 -0.387955
-2.98699 7.6947 -0.381245
-2.98699 7.6947 -0.552495
-3.24359 7.4498 -0.373185
-3.24359 7.4498 -0.519475
-3.50009 7.2495 -0.365135
-3.7139 6.9828 -0.358415
-3.7139 6.9828 -0.458955
-3.50009 7.2495 -0.486465
-5.1348 6.9828 -0.847925
-5.4578 6.9828 -0.837825
-5.60479 7.2495 -0.943715
-5.21499 7.2495 -0.955905
-5.7811 7.4498 -1.07077
-5.31119 7.4498 -1.08547
-4.74729 7.4498 -1.09037
-4.74729 7.2495 -0.959965
-4.74729 6.9828 -0.851295
-5.9575 7.6947 -1.19783
-6.1045 8.0958 -1.30371
-5.4876 8.0958 -1.32301
-5.40739 7.6947 -1.21504
-4.74729 8.0958 -1.32945
-4.74729 7.6947 -1.22077
-4.007 8.0958 -1.32301
-3.39009 8.0958 -1.30371
-3.5371 7.6947 -1.19783
-4.08719 7.6947 -1.21504
-3.7135 7.4498 -1.07077
-4.18339 7.4498 -1.08547
-3.88989 7.2495 -0.943715
-4.0368 6.9828 -0.837825
-4.3598 6.9828 -0.847925
-4.27959 7.2495 -0.955905
-5.78069 6.9828 -0.458955
-5.78069 6.9828 -0.358415
-5.99449 7.2495 -0.365135
-5.99449 7.2495 -0.486465
-6.251 7.4498 -0.373185
-6.251 7.4498 -0.519475
-6.251 7.4498 -0.655345
-5.99449 7.2495 -0.599155
-5.78069 6.9828 -0.552335
-6.5076 7.6947 -0.381245
-6.7214 8.0958 -0.387955
-6.7214 8.0958 -0.579995
-6.5076 7.6947 -0.552495
-6.7214 8.0958 -0.758365
-6.5076 7.6947 -0.711535
-6.7214 8.0958 -0.916825
-6.7214 8.0958 -1.04916
-6.5076 7.6947 -0.970845
-6.5076 7.6947 -0.852835
-6.251 7.4498 -0.876865
-6.251 7.4498 -0.776055
-5.99449 7.2495 -0.782885
-5.78069 6.9828 -0.704565
-5.78069 6.9828 -0.635285
-5.99449 7.2495 -0.699275
-4.3598 6.9828 0.194605
-4.0368 6.9828 0.182445
-3.88989 7.2495 0.287625
-4.27959 7.2495 0.302305
-3.6935 7.4271 0.417855
-4.17009 7.41 0.434205
-4.74729 7.4003 0.438765
-4.74729 7.2495 0.307195
-4.74729 6.9828 0.198665
-3.4574 7.6042 0.556125
-3.16639 7.9218 0.691855
-3.93919 7.6506 0.686675
-4.034 7.5359 0.571485
-4.74729 7.5777 0.685305
-4.74729 7.4971 0.573025
-5.5554 7.6506 0.686675
-6.3282 7.9218 0.691855
-6.0372 7.6042 0.556125
-5.4606 7.5359 0.571485
-5.8011 7.4271 0.417855
-5.32449 7.41 0.434205
-5.60479 7.2495 0.287625
-5.4578 6.9828 0.182445
-5.1348 6.9828 0.194605
-5.21499 7.2495 0.302305
-3.7139 6.9828 0.0859654
-3.7139 6.9828 0.0243354
-3.50009 7.2495 0.0968054
-3.50009 7.2495 0.171175
-3.24359 7.4498 0.183765
-3.24359 7.4498 0.273435
-3.28719 7.4472 0.339595
-3.53909 7.2495 0.225495
-3.7462 6.9828 0.130965
-2.98699 7.6947 0.270725
-2.7732 8.0958 0.343185
-2.7732 8.0958 0.460915
-2.98699 7.6947 0.375695
-2.80739 8.0805 0.550895
-3.0287 7.6846 0.455035
-2.91 8.0348 0.622585
-3.15389 7.6541 0.516245
-3.4182 7.4396 0.387025
-3.8431 6.9828 0.162185
-3.65599 7.2495 0.263165
-5.6516 6.9828 0.162185
-5.83859 7.2495 0.263165
-6.0764 7.4396 0.387025
-6.2074 7.4472 0.339595
-5.95549 7.2495 0.225495
-5.74839 6.9828 0.130965
-6.5846 8.0348 0.622585
-6.34069 7.6541 0.516245
-6.68719 8.0805 0.550895
-6.4659 7.6846 0.455035
-6.7214 8.0958 0.460915
-6.7214 8.0958 0.343185
-6.5076 7.6947 0.270725
-6.5076 7.6947 0.375695
-6.251 7.4498 0.183765
-6.251 7.4498 0.273435
-5.99449 7.2495 0.0968054
-5.78069 6.9828 0.0243354
-5.78069 6.9828 0.0859654
-5.99449 7.2495 0.171175
-2.64499 8.7642 -1.09615
-2.64499 8.7642 -0.955215
-2.64919 9.5664 -1.11964
-2.64919 9.5664 -0.974415
-2.64919 9.5664 -0.800505
-2.64499 8.7642 -0.786455
-2.8329 10.3685 -1.12747
-2.8329 10.3685 -0.980815
-2.8329 10.3685 -0.805195
-2.8329 10.3685 -0.394665
-2.8329 10.3685 -0.607505
-2.64919 9.5664 -0.393995
-2.64919 9.5664 -0.604755
-2.64499 8.7642 -0.391985
-2.64499 8.7642 -0.596505
-6.1927 8.7642 -1.36725
-5.5357 8.7642 -1.3878
-6.18829 9.5274 -1.39649
-5.53309 9.5404 -1.41702
-4.74729 9.5534 -1.42388
-4.74729 8.7642 -1.39465
-6.05769 10.2125 -1.3995
-5.8615 10.6557 -1.38927
-5.4082 10.8475 -1.3995
-5.46139 10.2645 -1.41831
-4.74729 10.9422 -1.40455
-4.74729 10.3165 -1.42465
-4.08639 10.8475 -1.3995
-3.6331 10.6557 -1.38927
-3.43689 10.2125 -1.3995
-4.0332 10.2645 -1.41831
-3.30629 9.5274 -1.39649
-3.96149 9.5404 -1.41702
-3.302 8.7642 -1.36725
-3.95889 8.7642 -1.3878
-6.8496 8.7642 -0.391985
-6.8496 8.7642 -0.596505
-6.8454 9.5664 -0.393995
-6.8454 9.5664 -0.604755
-6.8454 9.5664 -0.800505
-6.8496 8.7642 -0.786455
-6.6617 10.3685 -0.394665
-6.6617 10.3685 -0.607505
-6.6617 10.3685 -0.805195
-6.6617 10.3685 -1.12747
-6.6617 10.3685 -0.980815
-6.8454 9.5664 -1.11964
-6.8454 9.5664 -0.974415
-6.8496 8.7642 -1.09615
-6.8496 8.7642 -0.955215
-4.3745 8.8532 1.95352
-4.115 8.9481 1.88843
-4.0179 9.2019 1.95352
-4.35719 9.1849 2.07319
-3.9711 9.5664 1.98564
-4.33289 9.5664 2.1135
-4.74729 9.5664 2.15634
-4.74729 9.1612 2.1135
-4.74729 8.8075 1.98564
-4.0179 9.9308 1.95352
-4.115 10.1846 1.88843
-4.3745 10.2795 1.95352
-4.35719 9.9478 2.07319
-4.74729 10.3252 1.98564
-4.74729 9.9715 2.1135
-5.12009 10.2795 1.95352
-5.37959 10.1846 1.88843
-5.4767 9.9308 1.95352
-5.13739 9.9478 2.07319
-5.5235 9.5664 1.98564
-5.1617 9.5664 2.1135
-5.4767 9.2019 1.95352
-5.37959 8.9481 1.88843
-5.12009 8.8532 1.95352
-5.13739 9.1849 2.07319
-2.64499 8.7642 0.386675
-2.64499 8.7642 0.512045
-2.64919 9.5664 0.408415
-2.64919 9.5664 0.537605
-2.6605 9.5631 0.632615
-2.6672 8.7541 0.606275
-2.8329 10.3685 0.415655
-2.8329 10.3685 0.546125
-2.8399 10.3656 0.641405
-2.9023 10.3394 0.750395
-2.86069 10.3569 0.707485
-2.7523 9.5467 0.745265
-2.6942 9.5533 0.700065
-2.82929 8.7148 0.729875
-2.7337 8.7235 0.677815
-6.6653 8.7148 0.729875
-6.76089 8.7235 0.677815
-6.74239 9.5467 0.745265
-6.8004 9.5533 0.700065
-6.8342 9.5631 0.632615
-6.82739 8.7541 0.606275
-6.5923 10.3394 0.750395
-6.63389 10.3569 0.707485
-6.6547 10.3656 0.641405
-6.6617 10.3685 0.415655
-6.6617 10.3685 0.546125
-6.8454 9.5664 0.408415
-6.8454 9.5664 0.537605
-6.8496 8.7642 0.386675
-6.8496 8.7642 0.512045
-3.3027 8.1239 0.757095
-3.95329 7.778 0.752365
-3.40659 8.2481 0.784255
-4.01449 7.9005 0.783075
-4.74729 7.7889 0.782715
-4.74729 7.6802 0.750965
-3.4888 8.336 0.793305
-3.5522 8.398 0.793305
-4.0955 8.0793 0.793305
-4.06089 8.0004 0.793305
-4.74729 7.9731 0.793305
-4.74729 7.8886 0.793305
-5.3992 8.0793 0.793305
-5.9424 8.398 0.793305
-6.0058 8.336 0.793305
-5.43369 8.0004 0.793305
-6.088 8.2481 0.784255
-5.48009 7.9005 0.783075
-6.192 8.1239 0.757095
-5.5413 7.778 0.752365
-3.35209 10.9304 0.776145
-2.9716 10.3104 0.776145
-3.41899 10.865 0.789015
-3.05669 10.2747 0.789015
-2.9339 9.5631 0.788355
-2.8366 9.5533 0.773525
-3.4888 10.7967 0.793305
-3.5522 10.7347 0.793305
-3.22629 10.2037 0.793305
-3.1456 10.2375 0.793305
-3.1177 9.5664 0.793305
-3.03119 9.5664 0.793305
-3.22629 8.9291 0.793305
-3.1456 8.8953 0.793305
-3.0485 8.8449 0.786395
-2.9386 8.77 0.765665
-6.1425 10.9304 0.776145
-5.5083 11.3024 0.776145
-6.07559 10.865 0.789015
-5.4718 11.2192 0.789015
-4.74729 11.3372 0.789015
-4.74729 11.4264 0.776145
-6.0058 10.7967 0.793305
-5.9424 10.7347 0.793305
-5.3992 11.0534 0.793305
-5.43369 11.1323 0.793305
-4.74729 11.1596 0.793305
-4.74729 11.2441 0.793305
-4.0955 11.0534 0.793305
-4.06089 11.1323 0.793305
-4.0228 11.2192 0.789015
-3.98629 11.3024 0.776145
-6.55599 8.77 0.765665
-6.44609 8.8449 0.786395
-6.5607 9.5631 0.788355
-6.65809 9.5533 0.773525
-6.26829 8.9291 0.793305
-6.349 8.8952 0.793305
-6.37689 9.5664 0.793305
-6.4634 9.5664 0.793305
-6.26829 10.2037 0.793305
-6.349 10.2375 0.793305
-6.43789 10.2747 0.789015
-6.52299 10.3104 0.776145
-4.187 8.2882 1.02006
-3.72009 8.5621 1.02006
-3.7771 8.6178 1.24681
-4.21809 8.3591 1.24681
-3.8603 8.6992 1.50569
-4.2632 8.464 1.51009
-4.74729 8.3862 1.5145
-4.74729 8.2728 1.24681
-4.74729 8.1969 1.02006
-3.983 8.8191 1.73811
-4.3293 8.6208 1.75574
-4.74729 8.5568 1.77338
-5.51159 8.8191 1.73811
-5.16539 8.6208 1.75574
-5.63429 8.6992 1.50569
-5.23139 8.464 1.51009
-5.7176 8.6178 1.24681
-5.7745 8.5621 1.02006
-5.30759 8.2882 1.02006
-5.27649 8.3591 1.24681
-3.44 10.1141 1.02006
-3.72009 10.5706 1.02006
-3.7771 10.5149 1.24681
-3.51239 10.0838 1.24681
-3.8603 10.4336 1.50569
-3.6198 10.0397 1.51009
-3.54019 9.5664 1.5145
-3.4242 9.5664 1.24681
-3.3466 9.5664 1.02006
-3.983 10.3136 1.73811
-3.78019 9.9751 1.75574
-3.71469 9.5664 1.77338
-3.78019 9.1576 1.75574
-3.6198 9.0931 1.51009
-3.44 9.0186 1.02006
-3.51239 9.0489 1.24681
-5.30759 10.8445 1.02006
-5.7745 10.5706 1.02006
-5.7176 10.5149 1.24681
-5.27649 10.7737 1.24681
-5.63429 10.4336 1.50569
-5.23139 10.6687 1.51009
-4.74729 10.7465 1.5145
-4.74729 10.8599 1.24681
-4.74729 10.9358 1.02006
-5.51159 10.3136 1.73811
-5.16539 10.5119 1.75574
-4.74729 10.5759 1.77338
-4.3293 10.5119 1.75574
-4.2632 10.6687 1.51009
-4.187 10.8445 1.02006
-4.21809 10.7737 1.24681
-6.05459 9.0186 1.02006
-5.98219 9.0489 1.24681
-5.87479 9.0931 1.51009
-5.95439 9.5664 1.5145
-6.07039 9.5664 1.24681
-6.14799 9.5664 1.02006
-5.7144 9.1576 1.75574
-5.77989 9.5664 1.77338
-5.7144 9.9751 1.75574
-5.87479 10.0397 1.51009
-6.05459 10.1141 1.02006
-5.98219 10.0838 1.24681
-3.92479 4.5747 -0.268855
-3.9265 4.5761 -0.268865
-3.9274 4.6221 -0.268875
-3.9274 4.6221 -0.187575
-3.9265 4.5761 -0.187565
-3.92479 4.5747 -0.187535
-3.9277 5.0252 -0.268875
-3.9277 4.7571 -0.268875
-3.9277 5.0252 -0.187575
-3.9277 4.7571 -0.187575
-3.9277 5.0252 -0.112455
-3.9277 4.7571 -0.112455
-3.9274 4.6221 -0.112445
-3.92479 4.5747 -0.112395
-3.9265 4.5761 -0.112425
-3.7139 6.9828 -0.0567646
-3.50009 7.2495 -0.00106462
-3.7139 6.9828 -0.151475
-3.50009 7.2495 -0.115385
-3.24359 7.4498 -0.0720646
-3.24359 7.4498 0.0657654
-3.7139 6.9828 -0.253985
-3.50009 7.2495 -0.239085
-3.24359 7.4498 -0.221215
-2.7732 8.0958 -0.188455
-2.98699 7.6947 -0.203345
-2.7732 8.0958 0.00734538
-2.98699 7.6947 -0.0287546
-2.7732 8.0958 0.188285
-2.98699 7.6947 0.132585
-2.64499 8.7642 0.221695
-2.64499 8.7642 0.0290054
-2.64919 9.5664 0.0398354
-2.64919 9.5664 0.238405
-2.64499 8.7642 -0.179515
-2.64919 9.5664 -0.175045
-3.2432 11.0369 -0.173565
-2.8329 10.3685 -0.173565
-3.2432 11.0369 0.0434454
-2.8329 10.3685 0.0434454
-3.2432 11.0369 0.243975
-2.8329 10.3685 0.243975
-3.92689 11.438 0.243975
-3.92689 11.438 0.0434454
-4.74729 11.5717 0.0434454
-4.74729 11.5717 0.243975
-3.92689 11.438 -0.173565
-4.74729 11.5717 -0.173565
-6.2514 11.0369 -0.173565
-5.5677 11.438 -0.173565
-6.2514 11.0369 0.0434454
-5.5677 11.438 0.0434454
-6.2514 11.0369 0.243975
-5.5677 11.438 0.243975
-6.7214 8.0958 0.188285
-6.8496 8.7642 0.221695
-6.8454 9.5664 0.238405
-6.8454 9.5664 0.0398354
-6.8496 8.7642 0.0290054
-6.7214 8.0958 0.00734538
-6.6617 10.3685 0.243975
-6.6617 10.3685 0.0434454
-6.6617 10.3685 -0.173565
-6.8454 9.5664 -0.175045
-6.7214 8.0958 -0.188455
-6.8496 8.7642 -0.179515
-5.78069 6.9828 -0.0567646
-5.99449 7.2495 -0.00106462
-6.251 7.4498 0.0657654
-6.251 7.4498 -0.0720646
-5.99449 7.2495 -0.115385
-5.78069 6.9828 -0.151475
-6.5076 7.6947 0.132585
-6.5076 7.6947 -0.0287546
-6.5076 7.6947 -0.203345
-6.251 7.4498 -0.221215
-5.78069 6.9828 -0.253985
-5.99449 7.2495 -0.239085
-5.56819 4.5747 -0.268855
-5.5674 4.5761 -0.268865
-5.56819 4.5747 -0.187535
-5.5674 4.5761 -0.187565
-5.56709 4.6221 -0.187575
-5.56709 4.6221 -0.268875
-5.56819 4.5747 -0.112395
-5.5674 4.5761 -0.112425
-5.56709 4.6221 -0.112445
-5.567 5.0252 -0.112455
-5.567 4.7571 -0.112455
-5.567 5.0252 -0.187575
-5.567 4.7571 -0.187575
-5.567 5.0252 -0.268875
-5.567 4.7571 -0.268875
-4.0276 4.5747 -0.718695
-4.0291 4.5761 -0.718635
-4.02989 4.6221 -0.718595
-3.953 4.6221 -0.697875
-3.95219 4.5761 -0.697915
-3.9505 4.5747 -0.697975
-4.0301 5.0252 -0.718585
-4.0301 4.7571 -0.718585
-3.95329 5.0252 -0.697865
-3.95329 4.7571 -0.697865
-3.9277 5.0252 -0.667765
-3.9277 4.7571 -0.667765
-3.9274 4.6221 -0.667775
-3.92479 4.5747 -0.667855
-3.9265 4.5761 -0.667805
-3.7139 6.9828 -0.756905
-3.50009 7.2495 -0.846055
-3.7462 6.9828 -0.794865
-3.53909 7.2495 -0.891865
-3.2906 7.4498 -1.00826
-3.24359 7.4498 -0.953025
-3.8431 6.9828 -0.820985
-3.65599 7.2495 -0.923395
-3.43149 7.4498 -1.04627
-3.01999 8.0958 -1.27155
-3.20709 7.6947 -1.16915
-2.83489 8.0958 -1.22165
-3.042 7.6947 -1.12465
-2.7732 8.0958 -1.14914
-2.98699 7.6947 -1.06
-2.64499 8.7642 -1.20263
-2.7107 8.7642 -1.27985
-2.71499 9.5599 -1.3086
-2.64919 9.5664 -1.22937
-2.90779 8.7642 -1.33299
-2.9124 9.5404 -1.36233
-3.43689 10.8475 -1.36564
-3.07599 10.2645 -1.36841
-3.29159 10.9896 -1.31657
-2.8937 10.3425 -1.31726
-3.2432 11.0369 -1.23829
-2.8329 10.3685 -1.23829
-3.92689 11.438 -1.23829
-3.9535 11.3786 -1.31726
-4.74729 11.5085 -1.31796
-4.74729 11.5717 -1.23829
-4.0332 11.2003 -1.36841
-4.74729 11.3191 -1.37118
-6.05769 10.8475 -1.36564
-5.46139 11.2003 -1.36841
-6.20299 10.9896 -1.31657
-5.54119 11.3786 -1.31726
-6.2514 11.0369 -1.23829
-5.5677 11.438 -1.23829
-6.7214 8.0958 -1.14914
-6.8496 8.7642 -1.20263
-6.8454 9.5664 -1.22938
-6.77959 9.5599 -1.3086
-6.7839 8.7642 -1.27985
-6.6597 8.0958 -1.22165
-6.6617 10.3685 -1.23829
-6.60089 10.3425 -1.31726
-6.41859 10.2645 -1.36841
-6.58219 9.5404 -1.36233
-6.4746 8.0958 -1.27155
-6.58679 8.7642 -1.33299
-5.78069 6.9828 -0.756905
-5.99449 7.2495 -0.846055
-6.251 7.4498 -0.953025
-6.20409 7.4498 -1.00826
-5.95549 7.2495 -0.891865
-5.74839 6.9828 -0.794865
-6.5076 7.6947 -1.06
-6.4526 7.6947 -1.12465
-6.28759 7.6947 -1.16915
-6.0631 7.4498 -1.04627
-5.6516 6.9828 -0.820985
-5.83859 7.2495 -0.923395
-5.4655 4.5747 -0.718695
-5.46489 4.5761 -0.718635
-5.54249 4.5747 -0.697975
-5.54179 4.5761 -0.697915
-5.54149 4.6221 -0.697875
-5.46459 4.6221 -0.718595
-5.56819 4.5747 -0.667855
-5.5674 4.5761 -0.667805
-5.56709 4.6221 -0.667775
-5.567 5.0252 -0.667765
-5.567 4.7571 -0.667765
-5.5413 5.0252 -0.697865
-5.5413 4.7571 -0.697865
-5.4645 5.0252 -0.718585
-5.4645 4.7571 -0.718585
-3.5998 10.6882 0.793305
-3.28679 10.1783 0.793305
-3.63879 10.6501 0.815985
-3.33649 10.1575 0.815985
-3.23569 9.5664 0.815985
-3.1825 9.5664 0.793305
-3.6765 10.6133 0.884005
-3.38439 10.1374 0.884005
-3.2871 9.5664 0.884005
-3.6765 8.5194 0.884005
-3.38439 8.9953 0.884005
-3.63879 8.4826 0.815985
-3.33649 8.9752 0.815985
-3.5998 8.4445 0.793305
-3.28679 8.9544 0.793305
-4.1214 8.1385 0.793305
-4.14269 8.187 0.815985
-4.74729 8.0885 0.815985
-4.74729 8.0365 0.793305
-4.1632 8.2339 0.884005
-4.74729 8.1387 0.884005
-5.8181 8.5194 0.884005
-5.3314 8.2339 0.884005
-5.85579 8.4826 0.815985
-5.35199 8.187 0.815985
-5.89479 8.4445 0.793305
-5.3732 8.1385 0.793305
-6.2078 8.9544 0.793305
-6.1582 8.9752 0.815985
-6.25889 9.5664 0.815985
-6.3121 9.5664 0.793305
-6.1102 8.9953 0.884005
-6.2075 9.5664 0.884005
-5.8181 10.6133 0.884005
-6.1102 10.1374 0.884005
-5.85579 10.6501 0.815985
-6.1582 10.1575 0.815985
-5.89479 10.6882 0.793305
-6.2078 10.1783 0.793305
-5.3732 10.9942 0.793305
-5.35199 10.9457 0.815985
-4.74729 11.0442 0.815985
-4.74729 11.0962 0.793305
-5.3314 10.8988 0.884005
-4.74729 10.994 0.884005
-4.1632 10.8988 0.884005
-4.14269 10.9457 0.815985
-4.1214 10.9942 0.793305
-4.18379 5.4706 0.0772754
-4.4399 5.4706 0.0869154
-4.1691 6.0046 0.0877954
-4.43189 6.0046 0.0976854
-4.74729 6.0046 0.100985
-4.74729 5.4706 0.0901354
-4.125 6.5382 0.119345
-4.4079 6.5382 0.129995
-4.74729 6.5382 0.133545
-5.3696 6.5382 0.119345
-5.0867 6.5382 0.129995
-5.32549 6.0046 0.0877954
-5.0627 6.0046 0.0976854
-5.31079 5.4706 0.0772754
-5.0547 5.4706 0.0869154
-5.567 5.4706 -0.0481346
-5.567 5.4706 0.000745377
-5.5413 5.4706 0.0364354
-5.562 6.0046 0.0458954
-5.58829 6.0046 0.00926538
-5.58829 6.0046 -0.0408846
-5.4645 5.4706 0.0611954
-5.48319 6.0046 0.0712954
-5.5393 6.5382 0.101595
-5.6242 6.5382 0.0742554
-5.65249 6.5382 -0.0191446
-5.65249 6.5382 0.0348354
-5.567 5.4706 -0.351705
-5.567 5.4706 -0.268875
-5.567 5.4706 -0.187575
-5.58829 6.0046 -0.183965
-5.58829 6.0046 -0.267385
-5.58829 6.0046 -0.352375
-5.567 5.4706 -0.112455
-5.58829 6.0046 -0.106885
-5.65249 6.5382 -0.0901746
-5.65249 6.5382 -0.173135
-5.65249 6.5382 -0.354395
-5.65249 6.5382 -0.262915
-5.567 5.4706 -0.626245
-5.567 5.4706 -0.571295
-5.567 5.4706 -0.505505
-5.58829 6.0046 -0.510185
-5.58829 6.0046 -0.577695
-5.58829 6.0046 -0.634075
-5.567 5.4706 -0.431445
-5.58829 6.0046 -0.434195
-5.65249 6.5382 -0.442445
-5.65249 6.5382 -0.524235
-5.65249 6.5382 -0.657575
-5.65249 6.5382 -0.596895
-5.31079 5.4706 -0.731945
-5.4645 5.4706 -0.718585
-5.5413 5.4706 -0.697865
-5.562 6.0046 -0.707565
-5.48319 6.0046 -0.728825
-5.32549 6.0046 -0.742535
-5.567 5.4706 -0.667765
-5.58829 6.0046 -0.676675
-5.65249 6.5382 -0.703425
-5.6242 6.5382 -0.736665
-5.3696 6.5382 -0.774295
-5.5393 6.5382 -0.759545
-5.0547 5.4706 -0.739955
-5.0627 6.0046 -0.750755
-4.74729 6.0046 -0.753495
-4.74729 5.4706 -0.742625
-5.0867 6.5382 -0.783145
-4.74729 6.5382 -0.786095
-4.125 6.5382 -0.774295
-4.4079 6.5382 -0.783145
-4.1691 6.0046 -0.742535
-4.43189 6.0046 -0.750755
-4.18379 5.4706 -0.731945
-4.4399 5.4706 -0.739955
-4.0301 5.4706 -0.718585
-4.01139 6.0046 -0.728825
-3.9326 6.0046 -0.707565
-3.95329 5.4706 -0.697865
-3.9553 6.5382 -0.759545
-3.87039 6.5382 -0.736665
-3.8422 6.5382 -0.657575
-3.8422 6.5382 -0.703425
-3.9063 6.0046 -0.634075
-3.9063 6.0046 -0.676675
-3.9277 5.4706 -0.626245
-3.9277 5.4706 -0.667765
-3.9277 5.4706 -0.351705
-3.9277 5.4706 -0.431445
-3.9277 5.4706 -0.505505
-3.9063 6.0046 -0.510185
-3.9063 6.0046 -0.434195
-3.9063 6.0046 -0.352375
-3.9277 5.4706 -0.571295
-3.9063 6.0046 -0.577695
-3.8422 6.5382 -0.596895
-3.8422 6.5382 -0.524235
-3.8422 6.5382 -0.354395
-3.8422 6.5382 -0.442445
-3.9277 5.4706 -0.268875
-3.9063 6.0046 -0.267385
-3.9063 6.0046 -0.183965
-3.9277 5.4706 -0.187575
-3.8422 6.5382 -0.262915
-3.8422 6.5382 -0.173135
-3.8422 6.5382 -0.0191446
-3.8422 6.5382 -0.0901746
-3.9063 6.0046 -0.0408846
-3.9063 6.0046 -0.106885
-3.9277 5.4706 -0.0481346
-3.9277 5.4706 -0.112455
-4.0301 5.4706 0.0611954
-3.95329 5.4706 0.0364354
-3.9326 6.0046 0.0458954
-4.01139 6.0046 0.0712954
-3.9277 5.4706 0.000745377
-3.9063 6.0046 0.00926538
-3.8422 6.5382 0.0348354
-3.87039 6.5382 0.0742554
-3.9553 6.5382 0.101595
-3.94779 4.5739 0.0366454
-4.1794 4.5739 0.0774954
-4.02499 4.5739 0.0614154
-4.1316 4.5735 0.0799754
-3.96889 4.5735 0.0637854
-3.99349 4.5733 0.0871154
-4.40279 4.5735 0.0896854
-4.4368 4.5739 0.0871554
-4.7457 4.5739 0.0903654
-5.312 4.5739 0.0774954
-5.05459 4.5739 0.0871554
-5.32489 4.5735 0.0799754
-5.0537 4.5735 0.0896854
-5.36239 4.5733 0.0871154
-5.4877 4.5735 0.0637854
-5.549 4.5733 0.0706554
-5.56899 4.5735 0.0388654
-5.64229 4.5733 0.0452854
-5.46639 4.5739 0.0614154
-5.54369 4.5739 0.0366454
-5.5694 4.5739 -0.0479746
-5.5694 4.5739 0.000935377
-5.5961 4.5735 -0.0462746
-5.5961 4.5735 0.00293538
-5.5694 4.5739 -0.112335
-5.5694 4.5739 -0.187495
-5.5961 4.5735 -0.186655
-5.5961 4.5735 -0.111025
-5.5694 4.5739 -0.351725
-5.5694 4.5739 -0.268845
-5.5961 4.5735 -0.351875
-5.5961 4.5735 -0.268495
-5.5694 4.5739 -0.431505
-5.5694 4.5739 -0.505605
-5.5961 4.5735 -0.506705
-5.5961 4.5735 -0.432155
-5.5694 4.5739 -0.626415
-5.5694 4.5739 -0.571435
-5.5961 4.5735 -0.628255
-5.5961 4.5735 -0.572945
-5.5694 4.5739 -0.667955
-5.54369 4.5739 -0.698075
-5.5961 4.5735 -0.670055
-3.94779 4.5739 -0.698075
3 0 1 2
3 0 2 3
3 2 4 5
3 2 5 3
3 5 6 7
3 5 7 3
3 7 8 0
3 7 0 3
3 9 10 11
3 9 11 12
3 11 13 14
3 11 14 12
3 14 6 5
3 14 5 12
3 5 4 9
3 5 9 12
3 15 16 17
3 15 17 18
3 17 19 20
3 17 20 18
3 20 6 14
3 20 14 18
3 14 13 15
3 14 15 18
3 21 22 23
3 21 23 24
3 23 8 7
3 23 7 24
3 7 6 20
3 7 20 24
3 20 19 21
3 20 21 24
3 25 26 27
3 25 27 28
3 27 29 30
3 27 30 28
3 30 31 32
3 30 32 28
3 32 33 25
3 32 25 28
3 34 35 36
3 34 36 37
3 36 38 39
3 36 39 37
3 39 31 30
3 39 30 37
3 30 29 34
3 30 34 37
3 40 41 42
3 40 42 43
3 42 44 45
3 42 45 43
3 45 31 39
3 45 39 43
3 39 38 40
3 39 40 43
3 46 47 48
3 46 48 49
3 48 33 32
3 48 32 49
3 32 31 45
3 32 45 49
3 45 44 46
3 45 46 49
3 50 51 52
3 50 52 53
3 52 54 55
3 52 55 53
3 55 56 57
3 55 57 53
3 57 58 50
3 57 50 53
3 59 60 61
3 59 61 62
3 61 63 64
3 61 64 62
3 64 56 55
3 64 55 62
3 55 54 59
3 55 59 62
3 65 66 67
3 65 67 68
3 67 69 70
3 67 70 68
3 70 56 64
3 70 64 68
3 64 63 65
3 64 65 68
3 71 72 73
3 71 73 74
3 73 58 57
3 73 57 74
3 57 56 70
3 57 70 74
3 70 69 71
3 70 71 74
3 75 76 77
3 75 77 78
3 77 79 80
3 77 80 78
3 81 82 83
3 81 83 84
3 83 85 86
3 83 86 84
3 86 79 77
3 86 77 84
3 77 76 81
3 77 81 84
3 87 88 89
3 87 89 90
3 89 91 92
3 89 92 90
3 92 79 86
3 92 86 90
3 86 85 87
3 86 87 90
3 80 79 92
3 80 92 93
3 92 91 94
3 92 94 93
3 95 96 97
3 95 97 98
3 97 99 100
3 97 100 98
3 100 101 102
3 100 102 98
3 102 103 95
3 102 95 98
3 104 105 106
3 104 106 107
3 106 108 109
3 106 109 107
3 109 101 100
3 109 100 107
3 100 99 104
3 100 104 107
3 110 111 112
3 110 112 113
3 112 114 115
3 112 115 113
3 115 101 109
3 115 109 113
3 109 108 110
3 109 110 113
3 116 117 118
3 116 118 119
3 118 103 102
3 118 102 119
3 102 101 115
3 102 115 119
3 115 114 116
3 115 116 119
3 120 121 122
3 120 122 123
3 122 124 125
3 122 125 123
3 125 126 127
3 125 127 123
3 127 128 120
3 127 120 123
3 129 130 131
3 129 131 132
3 131 133 134
3 131 134 132
3 134 126 125
3 134 125 132
3 125 124 129
3 125 129 132
3 135 136 137
3 135 137 138
3 137 139 140
3 137 140 138
3 140 126 134
3 140 134 138
3 134 133 135
3 134 135 138
3 141 142 143
3 141 143 144
3 143 128 127
3 143 127 144
3 127 126 140
3 127 140 144
3 140 139 141
3 140 141 144
3 145 130 129
3 145 129 146
3 129 124 147
3 129 147 146
3 147 148 149
3 147 149 146
3 149 150 145
3 149 145 146
3 122 121 151
3 122 151 152
3 151 153 154
3 151 154 152
3 154 148 147
3 154 147 152
3 147 124 122
3 147 122 152
3 155 156 157
3 155 157 158
3 157 159 160
3 157 160 158
3 160 148 154
3 160 154 158
3 154 153 155
3 154 155 158
3 161 162 163
3 161 163 164
3 163 150 149
3 163 149 164
3 149 148 160
3 149 160 164
3 160 159 161
3 160 161 164
3 165 166 167
3 165 167 168
3 167 169 170
3 167 170 168
3 170 171 172
3 170 172 168
3 172 173 165
3 172 165 168
3 174 142 141
3 174 141 175
3 141 139 176
3 141 176 175
3 176 171 170
3 176 170 175
3 170 169 174
3 170 174 175
3 137 136 177
3 137 177 178
3 177 179 180
3 177 180 178
3 180 171 176
3 180 176 178
3 176 139 137
3 176 137 178
3 181 182 183
3 181 183 184
3 183 173 172
3 183 172 184
3 172 171 180
3 172 180 184
3 180 179 181
3 180 181 184
3 185 186 187
3 185 187 188
3 187 189 190
3 187 190 188
3 190 191 192
3 190 192 188
3 192 193 185
3 192 185 188
3 194 195 196
3 194 196 197
3 196 198 199
3 196 199 197
3 199 191 190
3 199 190 197
3 190 189 194
3 190 194 197
3 200 201 202
3 200 202 203
3 202 204 205
3 202 205 203
3 205 191 199
3 205 199 203
3 199 198 200
3 199 200 203
3 206 207 208
3 206 208 209
3 208 193 192
3 208 192 209
3 192 191 205
3 192 205 209
3 205 204 206
3 205 206 209
3 210 211 212
3 210 212 213
3 212 214 215
3 212 215 213
3 215 216 217
3 215 217 213
3 217 218 210
3 217 210 213
3 219 220 221
3 219 221 222
3 221 223 224
3 221 224 222
3 224 216 215
3 224 215 222
3 215 214 219
3 215 219 222
3 225 226 227
3 225 227 228
3 227 229 230
3 227 230 228
3 230 216 224
3 230 224 228
3 224 223 225
3 224 225 228
3 231 232 233
3 231 233 234
3 233 218 217
3 233 217 234
3 217 216 230
3 217 230 234
3 230 229 231
3 230 231 234
3 235 236 237
3 235 237 238
3 237 239 240
3 237 240 238
3 240 241 242
3 240 242 238
3 242 243 235
3 242 235 238
3 244 245 246
3 244 246 247
3 246 248 249
3 246 249 247
3 249 241 240
3 249 240 247
3 240 239 244
3 240 244 247
3 250 251 252
3 250 252 253
3 252 254 255
3 252 255 253
3 255 241 249
3 255 249 253
3 249 248 250
3 249 250 253
3 256 257 258
3 256 258 259
3 258 243 242
3 258 242 259
3 242 241 255
3 242 255 259
3 255 254 256
3 255 256 259
3 260 261 262
3 260 262 263
3 262 264 265
3 262 265 263
3 265 266 267
3 265 267 263
3 267 268 260
3 267 260 263
3 269 270 271
3 269 271 272
3 271 273 274
3 271 274 272
3 274 266 265
3 274 265 272
3 265 264 269
3 265 269 272
3 275 276 277
3 275 277 278
3 277 279 280
3 277 280 278
3 280 266 274
3 280 274 278
3 274 273 275
3 274 275 278
3 281 282 283
3 281 283 284
3 283 268 267
3 283 267 284
3 267 266 280
3 267 280 284
3 280 279 281
3 280 281 284
3 285 286 287
3 285 287 288
3 287 289 290
3 287 290 288
3 290 291 292
3 290 292 288
3 292 293 285
3 292 285 288
3 294 295 296
3 294 296 297
3 296 298 299
3 296 299 297
3 299 291 290
3 299 290 297
3 290 289 294
3 290 294 297
3 300 270 269
3 300 269 301
3 269 264 302
3 269 302 301
3 302 291 299
3 302 299 301
3 299 298 300
3 299 300 301
3 262 261 303
3 262 303 304
3 303 293 292
3 303 292 304
3 292 291 302
3 292 302 304
3 302 264 262
3 302 262 304
3 305 282 281
3 305 281 306
3 281 279 307
3 281 307 306
3 307 308 309
3 307 309 306
3 309 310 305
3 309 305 306
3 277 276 311
3 277 311 312
3 311 313 314
3 311 314 312
3 314 308 307
3 314 307 312
3 307 279 277
3 307 277 312
3 315 316 317
3 315 317 318
3 317 319 320
3 317 320 318
3 320 308 314
3 320 314 318
3 314 313 315
3 314 315 318
3 321 322 323
3 321 323 324
3 323 310 309
3 323 309 324
3 309 308 320
3 309 320 324
3 320 319 321
3 320 321 324
3 196 195 325
3 196 325 326
3 325 327 328
3 325 328 326
3 328 329 330
3 328 330 326
3 330 198 196
3 330 196 326
3 331 10 9
3 331 9 332
3 9 4 333
3 9 333 332
3 333 329 328
3 333 328 332
3 328 327 331
3 328 331 332
3 2 1 334
3 2 334 335
3 334 336 337
3 334 337 335
3 337 329 333
3 337 333 335
3 333 4 2
3 333 2 335
3 338 201 200
3 338 200 339
3 200 198 330
3 200 330 339
3 330 329 337
3 330 337 339
3 337 336 338
3 337 338 339
3 221 220 340
3 221 340 341
3 340 342 343
3 340 343 341
3 343 344 345
3 343 345 341
3 345 223 221
3 345 221 341
3 346 347 348
3 346 348 349
3 348 350 351
3 348 351 349
3 351 344 343
3 351 343 349
3 343 342 346
3 343 346 349
3 352 353 354
3 352 354 355
3 354 356 357
3 354 357 355
3 357 344 351
3 357 351 355
3 351 350 352
3 351 352 355
3 358 226 225
3 358 225 359
3 225 223 345
3 225 345 359
3 345 344 357
3 345 357 359
3 357 356 358
3 357 358 359
3 246 245 360
3 246 360 361
3 360 362 363
3 360 363 361
3 363 364 365
3 363 365 361
3 365 248 246
3 365 246 361
3 366 22 21
3 366 21 367
3 21 19 368
3 21 368 367
3 368 364 363
3 368 363 367
3 363 362 366
3 363 366 367
3 17 16 369
3 17 369 370
3 369 371 372
3 369 372 370
3 372 364 368
3 372 368 370
3 368 19 17
3 368 17 370
3 373 251 250
3 373 250 374
3 250 248 365
3 250 365 374
3 365 364 372
3 365 372 374
3 372 371 373
3 372 373 374
3 375 376 377
3 375 377 378
3 377 379 380
3 377 380 378
3 380 381 382
3 380 382 378
3 382 383 375
3 382 375 378
3 384 385 386
3 384 386 387
3 386 388 389
3 386 389 387
3 389 381 380
3 389 380 387
3 380 379 384
3 380 384 387
3 390 391 392
3 390 392 393
3 392 394 395
3 392 395 393
3 395 381 389
3 395 389 393
3 389 388 390
3 389 390 393
3 396 397 398
3 396 398 399
3 398 383 382
3 398 382 399
3 382 381 395
3 382 395 399
3 395 394 396
3 395 396 399
3 296 295 400
3 296 400 401
3 400 402 403
3 400 403 401
3 403 404 405
3 403 405 401
3 405 298 296
3 405 296 401
3 406 35 34
3 406 34 407
3 34 29 408
3 34 408 407
3 408 404 403
3 408 403 407
3 403 402 406
3 403 406 407
3 27 26 409
3 27 409 410
3 409 411 412
3 409 412 410
3 412 404 408
3 412 408 410
3 408 29 27
3 408 27 410
3 413 270 300
3 413 300 414
3 300 298 405
3 300 405 414
3 405 404 412
3 405 412 414
3 412 411 413
3 412 413 414
3 311 276 415
3 311 415 416
3 415 417 418
3 415 418 416
3 418 419 420
3 418 420 416
3 420 313 311
3 420 311 416
3 421 47 46
3 421 46 422
3 46 44 423
3 46 423 422
3 423 419 418
3 423 418 422
3 418 417 421
3 418 421 422
3 42 41 424
3 42 424 425
3 424 426 427
3 424 427 425
3 427 419 423
3 427 423 425
3 423 44 42
3 423 42 425
3 428 316 315
3 428 315 429
3 315 313 420
3 315 420 429
3 420 419 427
3 420 427 429
3 427 426 428
3 427 428 429
3 271 270 430
3 271 430 431
3 430 432 433
3 430 433 431
3 433 434 435
3 433 435 431
3 435 273 271
3 435 271 431
3 436 437 438
3 436 438 439
3 438 440 441
3 438 441 439
3 441 434 433
3 441 433 439
3 433 432 436
3 433 436 439
3 442 443 444
3 442 444 445
3 444 446 447
3 444 447 445
3 447 434 441
3 447 441 445
3 441 440 442
3 441 442 445
3 448 276 275
3 448 275 449
3 275 273 435
3 275 435 449
3 435 434 447
3 435 447 449
3 447 446 448
3 447 448 449
3 409 26 450
3 409 450 451
3 450 452 453
3 450 453 451
3 453 454 455
3 453 455 451
3 455 411 409
3 455 409 451
3 456 457 458
3 456 458 459
3 458 460 461
3 458 461 459
3 461 454 453
3 461 453 459
3 453 452 456
3 453 456 459
3 462 437 436
3 462 436 463
3 436 432 464
3 436 464 463
3 464 454 461
3 464 461 463
3 461 460 462
3 461 462 463
3 430 270 413
3 430 413 465
3 413 411 455
3 413 455 465
3 455 454 464
3 455 464 465
3 464 432 430
3 464 430 465
3 48 47 466
3 48 466 467
3 466 468 469
3 466 469 467
3 469 470 471
3 469 471 467
3 471 33 48
3 471 48 467
3 472 473 474
3 472 474 475
3 474 476 477
3 474 477 475
3 477 470 469
3 477 469 475
3 469 468 472
3 469 472 475
3 478 457 456
3 478 456 479
3 456 452 480
3 456 480 479
3 480 470 477
3 480 477 479
3 477 476 478
3 477 478 479
3 450 26 25
3 450 25 481
3 25 33 471
3 25 471 481
3 471 470 480
3 471 480 481
3 480 452 450
3 480 450 481
3 415 276 448
3 415 448 482
3 448 446 483
3 448 483 482
3 483 484 485
3 483 485 482
3 485 417 415
3 485 415 482
3 444 443 486
3 444 486 487
3 486 488 489
3 486 489 487
3 489 484 483
3 489 483 487
3 483 446 444
3 483 444 487
3 490 473 472
3 490 472 491
3 472 468 492
3 472 492 491
3 492 484 489
3 492 489 491
3 489 488 490
3 489 490 491
3 466 47 421
3 466 421 493
3 421 417 485
3 421 485 493
3 485 484 492
3 485 492 493
3 492 468 466
3 492 466 493
3 494 495 496
3 494 496 497
3 496 498 499
3 496 499 497
3 499 500 501
3 499 501 497
3 501 502 494
3 501 494 497
3 503 376 375
3 503 375 504
3 375 383 505
3 375 505 504
3 505 500 499
3 505 499 504
3 499 498 503
3 499 503 504
3 398 397 506
3 398 506 507
3 506 508 509
3 506 509 507
3 509 500 505
3 509 505 507
3 505 383 398
3 505 398 507
3 510 511 512
3 510 512 513
3 512 502 501
3 512 501 513
3 501 500 509
3 501 509 513
3 509 508 510
3 509 510 513
3 514 515 516
3 514 516 517
3 516 518 519
3 516 519 517
3 519 520 521
3 519 521 517
3 521 522 514
3 521 514 517
3 523 385 384
3 523 384 524
3 384 379 525
3 384 525 524
3 525 520 519
3 525 519 524
3 519 518 523
3 519 523 524
3 377 376 503
3 377 503 526
3 503 498 527
3 503 527 526
3 527 520 525
3 527 525 526
3 525 379 377
3 525 377 526
3 496 495 528
3 496 528 529
3 528 522 521
3 528 521 529
3 521 520 527
3 521 527 529
3 527 498 496
3 527 496 529
3 530 531 532
3 530 532 533
3 532 534 535
3 532 535 533
3 535 536 537
3 535 537 533
3 537 538 530
3 537 530 533
3 539 391 390
3 539 390 540
3 390 388 541
3 390 541 540
3 541 536 535
3 541 535 540
3 535 534 539
3 535 539 540
3 386 385 523
3 386 523 542
3 523 518 543
3 523 543 542
3 543 536 541
3 543 541 542
3 541 388 386
3 541 386 542
3 516 515 544
3 516 544 545
3 544 538 537
3 544 537 545
3 537 536 543
3 537 543 545
3 543 518 516
3 543 516 545
3 546 511 510
3 546 510 547
3 510 508 548
3 510 548 547
3 548 549 550
3 548 550 547
3 550 551 546
3 550 546 547
3 506 397 396
3 506 396 552
3 396 394 553
3 396 553 552
3 553 549 548
3 553 548 552
3 548 508 506
3 548 506 552
3 392 391 539
3 392 539 554
3 539 534 555
3 539 555 554
3 555 549 553
3 555 553 554
3 553 394 392
3 553 392 554
3 532 531 556
3 532 556 557
3 556 551 550
3 556 550 557
3 550 549 555
3 550 555 557
3 555 534 532
3 555 532 557
3 558 51 50
3 558 50 559
3 50 58 560
3 50 560 559
3 560 561 562
3 560 562 559
3 562 563 558
3 562 558 559
3 73 72 564
3 73 564 565
3 564 566 567
3 564 567 565
3 567 561 560
3 567 560 565
3 560 58 73
3 560 73 565
3 568 162 161
3 568 161 569
3 161 159 570
3 161 570 569
3 570 561 567
3 570 567 569
3 567 566 568
3 567 568 569
3 157 156 571
3 157 571 572
3 571 563 562
3 571 562 572
3 562 561 570
3 562 570 572
3 570 159 157
3 570 157 572
3 287 286 573
3 287 573 574
3 573 575 576
3 573 576 574
3 576 577 578
3 576 578 574
3 578 289 287
3 578 287 574
3 579 207 206
3 579 206 580
3 206 204 581
3 206 581 580
3 581 577 576
3 581 576 580
3 576 575 579
3 576 579 580
3 202 201 582
3 202 582 583
3 582 584 585
3 582 585 583
3 585 577 581
3 585 581 583
3 581 204 202
3 581 202 583
3 586 295 294
3 586 294 587
3 294 289 578
3 294 578 587
3 578 577 585
3 578 585 587
3 585 584 586
3 585 586 587
3 400 295 586
3 400 586 588
3 586 584 589
3 586 589 588
3 589 590 591
3 589 591 588
3 591 402 400
3 591 400 588
3 582 201 338
3 582 338 592
3 338 336 593
3 338 593 592
3 593 590 589
3 593 589 592
3 589 584 582
3 589 582 592
3 334 1 594
3 334 594 595
3 594 596 597
3 594 597 595
3 597 590 593
3 597 593 595
3 593 336 334
3 593 334 595
3 598 35 406
3 598 406 599
3 406 402 591
3 406 591 599
3 591 590 597
3 591 597 599
3 597 596 598
3 597 598 599
3 36 35 598
3 36 598 600
3 598 596 601
3 598 601 600
3 601 602 603
3 601 603 600
3 603 38 36
3 603 36 600
3 594 1 0
3 594 0 604
3 0 8 605
3 0 605 604
3 605 602 601
3 605 601 604
3 601 596 594
3 601 594 604
3 23 22 606
3 23 606 607
3 606 608 609
3 606 609 607
3 609 602 605
3 609 605 607
3 605 8 23
3 605 23 607
3 610 41 40
3 610 40 611
3 40 38 603
3 40 603 611
3 603 602 609
3 603 609 611
3 609 608 610
3 609 610 611
3 612 316 428
3 612 428 613
3 428 426 614
3 428 614 613
3 614 615 616
3 614 616 613
3 616 617 612
3 616 612 613
3 424 41 610
3 424 610 618
3 610 608 619
3 610 619 618
3 619 615 614
3 619 614 618
3 614 426 424
3 614 424 618
3 606 22 366
3 606 366 620
3 366 362 621
3 366 621 620
3 621 615 619
3 621 619 620
3 619 608 606
3 619 606 620
3 360 245 622
3 360 622 623
3 622 617 616
3 622 616 623
3 616 615 621
3 616 621 623
3 621 362 360
3 621 360 623
3 624 322 321
3 624 321 625
3 321 319 626
3 321 626 625
3 626 627 628
3 626 628 625
3 628 629 624
3 628 624 625
3 317 316 612
3 317 612 630
3 612 617 631
3 612 631 630
3 631 627 626
3 631 626 630
3 626 319 317
3 626 317 630
3 622 245 244
3 622 244 632
3 244 239 633
3 244 633 632
3 633 627 631
3 633 631 632
3 631 617 622
3 631 622 632
3 237 236 634
3 237 634 635
3 634 629 628
3 634 628 635
3 628 627 633
3 628 633 635
3 633 239 237
3 633 237 635
3 106 105 636
3 106 636 637
3 636 638 639
3 636 639 637
3 639 640 641
3 639 641 637
3 641 108 106
3 641 106 637
3 642 166 165
3 642 165 643
3 165 173 644
3 165 644 643
3 644 640 639
3 644 639 643
3 639 638 642
3 639 642 643
3 183 182 645
3 183 645 646
3 645 647 648
3 645 648 646
3 648 640 644
3 648 644 646
3 644 173 183
3 644 183 646
3 649 111 110
3 649 110 650
3 110 108 641
3 110 641 650
3 641 640 648
3 641 648 650
3 648 647 649
3 648 649 650
3 651 94 652
3 94 91 653
3 94 653 652
3 653 654 655
3 653 655 652
3 655 656 651
3 655 651 652
3 89 88 657
3 89 657 658
3 657 659 660
3 657 660 658
3 660 654 653
3 660 653 658
3 653 91 89
3 653 89 658
3 661 66 65
3 661 65 662
3 65 63 663
3 65 663 662
3 663 654 660
3 663 660 662
3 660 659 661
3 660 661 662
3 61 60 664
3 61 664 665
3 664 656 655
3 664 655 665
3 655 654 663
3 655 663 665
3 663 63 61
3 663 61 665
3 187 186 666
3 187 666 667
3 666 668 669
3 666 669 667
3 669 670 671
3 669 671 667
3 671 189 187
3 671 187 667
3 672 232 231
3 672 231 673
3 231 229 674
3 231 674 673
3 674 670 669
3 674 669 673
3 669 668 672
3 669 672 673
3 227 226 675
3 227 675 676
3 675 677 678
3 675 678 676
3 678 670 674
3 678 674 676
3 674 229 227
3 674 227 676
3 679 195 194
3 679 194 680
3 194 189 671
3 194 671 680
3 671 670 678
3 671 678 680
3 678 677 679
3 678 679 680
3 325 195 679
3 325 679 681
3 679 677 682
3 679 682 681
3 682 683 684
3 682 684 681
3 684 327 325
3 684 325 681
3 675 226 358
3 675 358 685
3 358 356 686
3 358 686 685
3 686 683 682
3 686 682 685
3 682 677 675
3 682 675 685
3 354 353 687
3 354 687 688
3 687 689 690
3 687 690 688
3 690 683 686
3 690 686 688
3 686 356 354
3 686 354 688
3 691 10 331
3 691 331 692
3 331 327 684
3 331 684 692
3 684 683 690
3 684 690 692
3 690 689 691
3 690 691 692
3 11 10 691
3 11 691 693
3 691 689 694
3 691 694 693
3 694 695 696
3 694 696 693
3 696 13 11
3 696 11 693
3 687 353 352
3 687 352 697
3 352 350 698
3 352 698 697
3 698 695 694
3 698 694 697
3 694 689 687
3 694 687 697
3 348 347 699
3 348 699 700
3 699 701 702
3 699 702 700
3 702 695 698
3 702 698 700
3 698 350 348
3 698 348 700
3 703 16 15
3 703 15 704
3 15 13 696
3 15 696 704
3 696 695 702
3 696 702 704
3 702 701 703
3 702 703 704
3 705 251 373
3 705 373 706
3 373 371 707
3 373 707 706
3 707 708 709
3 707 709 706
3 709 710 705
3 709 705 706
3 369 16 703
3 369 703 711
3 703 701 712
3 703 712 711
3 712 708 707
3 712 707 711
3 707 371 369
3 707 369 711
3 699 347 346
3 699 346 713
3 346 342 714
3 346 714 713
3 714 708 712
3 714 712 713
3 712 701 699
3 712 699 713
3 340 220 715
3 340 715 716
3 715 710 709
3 715 709 716
3 709 708 714
3 709 714 716
3 714 342 340
3 714 340 716
3 717 257 256
3 717 256 718
3 256 254 719
3 256 719 718
3 719 720 721
3 719 721 718
3 721 722 717
3 721 717 718
3 252 251 705
3 252 705 723
3 705 710 724
3 705 724 723
3 724 720 719
3 724 719 723
3 719 254 252
3 719 252 723
3 715 220 219
3 715 219 725
3 219 214 726
3 219 726 725
3 726 720 724
3 726 724 725
3 724 710 715
3 724 715 725
3 212 211 727
3 212 727 728
3 727 722 721
3 727 721 728
3 721 720 726
3 721 726 728
3 726 214 212
3 726 212 728
3 75 729 730
3 729 731 732
3 729 732 730
3 732 733 734
3 732 734 730
3 734 76 75
3 734 75 730
3 735 96 95
3 735 95 736
3 95 103 737
3 95 737 736
3 737 733 732
3 737 732 736
3 732 731 735
3 732 735 736
3 118 117 738
3 118 738 739
3 738 740 741
3 738 741 739
3 741 733 737
3 741 737 739
3 737 103 118
3 737 118 739
3 742 82 81
3 742 81 743
3 81 76 734
3 81 734 743
3 734 733 741
3 734 741 743
3 741 740 742
3 741 742 743
3 458 457 744
3 458 744 745
3 744 746 747
3 744 747 745
3 747 748 749
3 747 749 745
3 749 460 458
3 749 458 745
3 750 515 514
3 750 514 751
3 514 522 752
3 514 752 751
3 752 748 747
3 752 747 751
3 747 746 750
3 747 750 751
3 528 495 753
3 528 753 754
3 753 755 756
3 753 756 754
3 756 748 752
3 756 752 754
3 752 522 528
3 752 528 754
3 757 437 462
3 757 462 758
3 462 460 749
3 462 749 758
3 749 748 756
3 749 756 758
3 756 755 757
3 756 757 758
3 438 437 757
3 438 757 759
3 757 755 760
3 757 760 759
3 760 761 762
3 760 762 759
3 762 440 438
3 762 438 759
3 753 495 494
3 753 494 763
3 494 502 764
3 494 764 763
3 764 761 760
3 764 760 763
3 760 755 753
3 760 753 763
3 512 511 765
3 512 765 766
3 765 767 768
3 765 768 766
3 768 761 764
3 768 764 766
3 764 502 512
3 764 512 766
3 769 443 442
3 769 442 770
3 442 440 762
3 442 762 770
3 762 761 768
3 762 768 770
3 768 767 769
3 768 769 770
3 486 443 769
3 486 769 771
3 769 767 772
3 769 772 771
3 772 773 774
3 772 774 771
3 774 488 486
3 774 486 771
3 765 511 546
3 765 546 775
3 546 551 776
3 546 776 775
3 776 773 772
3 776 772 775
3 772 767 765
3 772 765 775
3 556 531 777
3 556 777 778
3 777 779 780
3 777 780 778
3 780 773 776
3 780 776 778
3 776 551 556
3 776 556 778
3 781 473 490
3 781 490 782
3 490 488 774
3 490 774 782
3 774 773 780
3 774 780 782
3 780 779 781
3 780 781 782
3 474 473 781
3 474 781 783
3 781 779 784
3 781 784 783
3 784 785 786
3 784 786 783
3 786 476 474
3 786 474 783
3 777 531 530
3 777 530 787
3 530 538 788
3 530 788 787
3 788 785 784
3 788 784 787
3 784 779 777
3 784 777 787
3 544 515 750
3 544 750 789
3 750 746 790
3 750 790 789
3 790 785 788
3 790 788 789
3 788 538 544
3 788 544 789
3 744 457 478
3 744 478 791
3 478 476 786
3 478 786 791
3 786 785 790
3 786 790 791
3 790 746 744
3 790 744 791
3 131 130 792
3 131 792 793
3 792 794 795
3 792 795 793
3 795 796 797
3 795 797 793
3 797 133 131
3 797 131 793
3 798 261 260
3 798 260 799
3 260 268 800
3 260 800 799
3 800 796 795
3 800 795 799
3 795 794 798
3 795 798 799
3 283 282 801
3 283 801 802
3 801 803 804
3 801 804 802
3 804 796 800
3 804 800 802
3 800 268 283
3 800 283 802
3 805 136 135
3 805 135 806
3 135 133 797
3 135 797 806
3 797 796 804
3 797 804 806
3 804 803 805
3 804 805 806
3 807 182 181
3 807 181 808
3 181 179 809
3 181 809 808
3 809 810 811
3 809 811 808
3 811 812 807
3 811 807 808
3 177 136 805
3 177 805 813
3 805 803 814
3 805 814 813
3 814 810 809
3 814 809 813
3 809 179 177
3 809 177 813
3 801 282 305
3 801 305 815
3 305 310 816
3 305 816 815
3 816 810 814
3 816 814 815
3 814 803 801
3 814 801 815
3 323 322 817
3 323 817 818
3 817 812 811
3 817 811 818
3 811 810 816
3 811 816 818
3 816 310 323
3 816 323 818
3 819 111 649
3 819 649 820
3 649 647 821
3 649 821 820
3 821 822 823
3 821 823 820
3 823 824 819
3 823 819 820
3 645 182 807
3 645 807 825
3 807 812 826
3 807 826 825
3 826 822 821
3 826 821 825
3 821 647 645
3 821 645 825
3 817 322 624
3 817 624 827
3 624 629 828
3 624 828 827
3 828 822 826
3 828 826 827
3 826 812 817
3 826 817 827
3 634 236 829
3 634 829 830
3 829 824 823
3 829 823 830
3 823 822 828
3 823 828 830
3 828 629 634
3 828 634 830
3 831 117 116
3 831 116 832
3 116 114 833
3 116 833 832
3 833 834 835
3 833 835 832
3 835 836 831
3 835 831 832
3 112 111 819
3 112 819 837
3 819 824 838
3 819 838 837
3 838 834 833
3 838 833 837
3 833 114 112
3 833 112 837
3 829 236 235
3 829 235 839
3 235 243 840
3 235 840 839
3 840 834 838
3 840 838 839
3 838 824 829
3 838 829 839
3 258 257 841
3 258 841 842
3 841 836 835
3 841 835 842
3 835 834 840
3 835 840 842
3 840 243 258
3 840 258 842
3 843 82 742
3 843 742 844
3 742 740 845
3 742 845 844
3 845 846 847
3 845 847 844
3 847 848 843
3 847 843 844
3 738 117 831
3 738 831 849
3 831 836 850
3 831 850 849
3 850 846 845
3 850 845 849
3 845 740 738
3 845 738 849
3 841 257 717
3 841 717 851
3 717 722 852
3 717 852 851
3 852 846 850
3 852 850 851
3 850 836 841
3 850 841 851
3 727 211 853
3 727 853 854
3 853 848 847
3 853 847 854
3 847 846 852
3 847 852 854
3 852 722 727
3 852 727 854
3 83 82 843
3 83 843 855
3 843 848 856
3 843 856 855
3 856 857 858
3 856 858 855
3 858 85 83
3 858 83 855
3 853 211 210
3 853 210 859
3 210 218 860
3 210 860 859
3 860 857 856
3 860 856 859
3 856 848 853
3 856 853 859
3 233 232 861
3 233 861 862
3 861 863 864
3 861 864 862
3 864 857 860
3 864 860 862
3 860 218 233
3 860 233 862
3 865 88 87
3 865 87 866
3 87 85 858
3 87 858 866
3 858 857 864
3 858 864 866
3 864 863 865
3 864 865 866
3 657 88 865
3 657 865 867
3 865 863 868
3 865 868 867
3 868 869 870
3 868 870 867
3 870 659 657
3 870 657 867
3 861 232 672
3 861 672 871
3 672 668 872
3 672 872 871
3 872 869 868
3 872 868 871
3 868 863 861
3 868 861 871
3 666 186 873
3 666 873 874
3 873 875 876
3 873 876 874
3 876 869 872
3 876 872 874
3 872 668 666
3 872 666 874
3 877 66 661
3 877 661 878
3 661 659 870
3 661 870 878
3 870 869 876
3 870 876 878
3 876 875 877
3 876 877 878
3 879 72 71
3 879 71 880
3 71 69 881
3 71 881 880
3 881 882 883
3 881 883 880
3 883 884 879
3 883 879 880
3 67 66 877
3 67 877 885
3 877 875 886
3 877 886 885
3 886 882 881
3 886 881 885
3 881 69 67
3 881 67 885
3 873 186 185
3 873 185 887
3 185 193 888
3 185 888 887
3 888 882 886
3 888 886 887
3 886 875 873
3 886 873 887
3 208 207 889
3 208 889 890
3 889 884 883
3 889 883 890
3 883 882 888
3 883 888 890
3 888 193 208
3 888 208 890
3 564 72 879
3 564 879 891
3 879 884 892
3 879 892 891
3 892 893 894
3 892 894 891
3 894 566 564
3 894 564 891
3 889 207 579
3 889 579 895
3 579 575 896
3 579 896 895
3 896 893 892
3 896 892 895
3 892 884 889
3 892 889 895
3 573 286 897
3 573 897 898
3 897 899 900
3 897 900 898
3 900 893 896
3 900 896 898
3 896 575 573
3 896 573 898
3 901 162 568
3 901 568 902
3 568 566 894
3 568 894 902
3 894 893 900
3 894 900 902
3 900 899 901
3 900 901 902
3 792 130 145
3 792 145 903
3 145 150 904
3 145 904 903
3 904 905 906
3 904 906 903
3 906 794 792
3 906 792 903
3 163 162 901
3 163 901 907
3 901 899 908
3 901 908 907
3 908 905 904
3 908 904 907
3 904 150 163
3 904 163 907
3 897 286 285
3 897 285 909
3 285 293 910
3 285 910 909
3 910 905 908
3 910 908 909
3 908 899 897
3 908 897 909
3 303 261 798
3 303 798 911
3 798 794 906
3 798 906 911
3 906 905 910
3 906 910 911
3 910 293 303
3 910 303 911
3 155 153 912
3 151 121 913
3 151 913 914
3 913 915 916
3 913 916 914
3 916 912 914
3 912 153 151
3 912 151 914
3 916 915 917
3 917 915 918
3 913 121 120
3 913 120 919
3 120 128 920
3 120 920 919
3 920 918 919
3 918 915 913
3 918 913 919
3 143 142 921
3 143 921 922
3 921 923 924
3 921 924 922
3 924 920 922
3 920 128 143
3 920 143 922
3 924 923 925
3 925 923 926
3 925 926 927
3 926 928 929
3 926 929 927
3 921 142 174
3 921 174 930
3 174 169 931
3 174 931 930
3 931 928 926
3 931 926 930
3 926 923 921
3 926 921 930
3 167 166 932
3 167 932 933
3 932 934 935
3 932 935 933
3 935 928 931
3 935 931 933
3 931 169 167
3 931 167 933
3 929 928 935
3 932 166 642
3 932 642 936
3 642 638 937
3 642 937 936
3 937 938 939
3 937 939 936
3 939 934 932
3 939 932 936
3 636 105 940
3 636 940 941
3 940 942 943
3 940 943 941
3 943 938 937
3 943 937 941
3 937 638 636
3 937 636 941
3 940 105 104
3 940 104 944
3 104 99 945
3 104 945 944
3 945 946 947
3 945 947 944
3 947 942 940
3 947 940 944
3 97 96 948
3 97 948 949
3 948 950 951
3 948 951 949
3 951 946 945
3 951 945 949
3 945 99 97
3 945 97 949
3 948 96 735
3 948 735 952
3 735 731 953
3 735 953 952
3 953 954 952
3 954 950 948
3 954 948 952
3 953 731 729
3 651 656 955
3 955 656 664
