OFF
1170 2260 0
-1.48935 0.324001 4.48498
-2.34481 -0.465399 4.46768
-0.556154 -0.505599 4.47108
0.632426 2.3591 4.50128
-0.424524 3.4989 4.50348
-1.86135 2.3063 4.49988
-0.556584 1.306 4.49518
-2.35264 0.778601 4.48688
-2.23877 3.3103 4.50038
0.366146 6.6335 4.48488
-0.155334 7.5577 4.47098
-1.61869 6.9849 4.47758
-1.86842 4.9983 4.49718
-0.292064 5.7092 4.49548
-2.68553 6.4511 4.47248
-2.69408 4.6871 4.49178
-0.028164 4.6216 4.50148
-4.06554 4.7792 4.44038
-3.96189 3.63 4.46258
-3.47482 4.2748 4.47798
-3.33776 5.8788 4.46398
-3.82919 2.6113 4.47018
-3.12713 3.0623 4.49068
-3.29232 -0.768499 4.44358
-3.08253 0.395001 4.47428
-3.5786 0.865401 4.46718
-3.01216 1.6651 4.48778
-3.96189 1.9396 4.46258
-4.88804 7.0913 -2.77952
-5.26284 6.9293 -2.26252
-4.93373 7.6653 -2.29152
-5.41737 7.2163 -1.65302
-5.02816 8.0663 -1.68452
-4.57407 8.7744 -1.76132
-4.51446 8.2721 -2.42752
-4.47799 7.5797 -2.98582
-5.55839 7.4537 -0.965317
-5.71501 7.6468 -0.137417
-5.19585 8.6073 -0.187117
-5.12867 8.3723 -0.969317
-4.6555 9.399 -0.215717
-4.62204 9.1487 -1.01442
-4.06978 10.1251 -0.235817
-3.33851 10.891 -0.233117
-3.56544 10.3075 -1.13292
-4.07999 9.819 -1.05982
-3.61388 9.8027 -1.92562
-4.08549 9.3627 -1.84742
-3.54067 9.2815 -2.67232
-3.30187 8.6512 -3.39692
-3.96451 8.0859 -3.18542
-4.02574 8.822 -2.57272
-5.5625 8.0885 2.14548
-5.62942 7.6362 2.84308
-5.11674 8.6361 2.82298
-5.14472 8.7888 2.17108
-4.57605 9.4401 2.81448
-4.63062 9.5243 2.16418
-4.66503 9.5635 1.41228
-5.15793 8.8756 1.41938
-5.5631 8.218 1.43138
-3.98684 10.1411 2.82058
-3.30465 10.7801 2.83698
-3.5808 10.7071 2.13618
-4.08134 10.1849 2.16768
-3.66473 10.7109 1.41418
-4.14365 10.1987 1.41068
-3.6078 10.7635 0.645983
-4.1154 10.2152 0.598583
-4.67158 9.5295 0.606083
-5.60936 8.1048 0.683483
-5.19029 8.7951 0.621183
-1.12444 8.7157 -3.88832
-0.388764 8.7578 -3.88832
-0.387754 7.7947 -4.09192
-1.15262 7.7557 -4.09192
-0.387254 6.5427 -4.30172
-1.16671 6.5076 -4.30172
-1.935 6.4146 -4.28162
-1.91083 7.6712 -4.06032
-1.85373 8.6437 -3.84472
-0.387084 5.0981 -4.46772
0.379846 3.5407 -4.53982
-1.17141 3.5314 -4.53972
-1.17141 5.0675 -4.46772
-1.94448 3.4646 -4.52292
-1.94387 4.9833 -4.45112
-2.6901 3.3672 -4.47272
-3.39211 3.2496 -4.37212
-3.38602 4.6836 -4.30262
-2.68767 4.8528 -4.40162
-3.3697 6.0778 -4.11232
-2.67605 6.2762 -4.22162
-3.3451 7.3893 -3.81972
-2.56561 8.5957 -3.71372
-2.65093 7.5739 -3.96552
-0.387084 -0.808699 -3.89142
-0.387084 -1.9644 -3.38722
-1.17141 -1.9729 -3.38722
-1.17141 -0.820799 -3.89142
-1.94082 -1.9754 -3.37482
-1.94143 -0.836899 -3.87702
-1.94265 0.491401 -4.23582
-1.17141 0.523301 -4.25162
-0.387084 0.539601 -4.25162
-2.67549 -1.9493 -3.33742
-3.35558 -1.8717 -3.26282
-3.36167 -0.800299 -3.74762
-2.67793 -0.836799 -3.83392
-3.37384 0.449301 -4.09432
-2.6828 0.461101 -4.18872
-3.38602 1.8187 -4.30262
-2.68767 1.8828 -4.40162
-1.94387 1.9463 -4.45112
-0.387084 2.0163 -4.46772
-1.17141 1.9953 -4.46772
-4.88804 -1.2355 -2.77952
-5.26577 -1.2692 -2.25592
-5.27318 -0.381399 -2.77952
-4.93373 -0.434099 -3.13782
-5.39982 0.525001 -2.96162
-5.01601 0.542901 -3.38662
-4.54752 0.511301 -3.70512
-4.50138 -0.578499 -3.40102
-4.47717 -1.5043 -2.97402
-5.48819 1.5986 -3.08862
-5.5228 2.7648 -3.13842
-5.10757 2.8715 -3.60382
-5.08009 1.6669 -3.54632
-4.60876 2.9934 -3.95382
-4.58911 1.7201 -3.89072
-4.0343 3.1222 -4.20452
-4.02213 1.7675 -4.13752
-3.99777 0.473001 -3.93712
-3.96124 -1.7198 -3.13842
-3.97342 -0.707399 -3.60382
-5.27318 6.0392 -2.77952
-4.93373 6.2664 -3.13782
-4.49941 6.6355 -3.40892
-4.54703 5.5108 -3.70712
-5.01601 5.2472 -3.38662
-5.39982 5.0678 -2.96162
-3.96557 7.0432 -3.63522
-3.99581 5.8051 -3.94492
-4.02213 4.4831 -4.13752
-4.58911 4.2768 -3.89072
-5.48819 3.9487 -3.08862
-5.08009 4.0902 -3.54632
-0.387084 -2.8633 -2.73902
-1.17141 -2.8689 -2.73902
-0.386464 -3.5506 -1.99542
-1.17095 -3.5499 -2.00892
-1.94304 -3.5306 -2.01532
-1.94143 -2.8612 -2.72912
-0.384604 -4.0714 -1.20522
-0.379654 -4.4944 -0.282717
-1.18396 -4.3981 -0.627817
-1.16958 -4.0567 -1.25912
-1.94527 -4.0212 -1.30792
-2.68482 -4.3152 -0.626817
-3.43554 -4.2507 -0.270717
-3.40133 -3.8408 -1.13762
-2.69662 -3.9701 -1.24332
-3.37767 -3.3484 -1.91882
-2.68503 -3.4753 -1.98102
-3.36167 -2.7066 -2.64022
-2.67793 -2.8153 -2.69942
-5.08436 -2.9177 2.80718
-5.52001 -2.1663 2.80718
-5.57863 -2.2201 2.15898
-5.1379 -2.9803 2.15898
-5.61395 -2.2393 1.41228
-5.17119 -3.003 1.41138
-4.67985 -3.5805 1.41098
-4.63836 -3.5569 2.16518
-4.57408 -3.4906 2.81658
-5.61939 -2.2046 0.612883
-5.58841 -2.0967 -0.193717
-5.15716 -2.8403 -0.202517
-5.17927 -2.9637 0.609383
-4.65036 -3.4136 -0.222317
-4.6797 -3.544 0.601383
-4.08789 -3.8602 -0.246817
-3.71119 -4.3004 0.608483
-4.15892 -3.9842 0.591483
-4.19232 -4.0014 1.41228
-3.68336 -4.2734 2.19018
-3.36417 -4.2597 2.91628
-4.01136 -3.9208 2.84478
-4.11911 -3.9835 2.18398
-4.93373 -1.833 -2.29152
-4.50138 -2.2211 -2.41962
-4.55131 -2.7609 -1.76042
-5.02097 -2.2752 -1.68702
-5.40638 -1.621 -1.65222
-3.97342 -2.5104 -2.54142
-4.00165 -3.1144 -1.84142
-4.03764 -3.5673 -1.06722
-4.60427 -3.1555 -1.01872
-5.51443 -1.8964 -0.961817
-5.09992 -2.6109 -0.979317
4.34971 -1.266 -2.26262
4.35957 -0.381399 -2.77952
4.59653 -0.527399 -2.29152
4.47998 0.525001 -2.96162
4.7611 0.414901 -2.40972
4.97379 0.256101 -1.77952
4.77605 -0.770299 -1.70292
4.49658 -1.6333 -1.65312
4.564 1.5986 -3.08862
4.59691 2.7648 -3.13842
4.90471 2.6816 -2.54142
4.86667 1.5059 -2.50192
5.14263 2.6081 -1.84112
5.09864 1.3962 -1.82832
5.3278 2.5305 -1.06582
5.48682 2.4042 -0.184117
5.3895 1.1052 -0.459117
5.27455 1.2768 -1.11002
5.24448 -0.0468993 -0.515417
5.13344 0.0920007 -1.11912
5.05197 -1.1409 -0.425717
4.77867 -2.2252 -0.137817
4.63039 -1.9457 -0.965417
4.92651 -1.008 -1.04312
4.35957 6.0392 -2.77952
4.35136 6.9245 -2.26262
4.59653 6.0572 -2.29152
4.4917 7.2307 -1.65342
4.77199 6.2118 -1.68472
4.97171 5.0686 -1.75192
4.76109 5.0259 -2.40972
4.47998 5.0678 -2.96162
4.61087 7.5114 -0.966617
4.71492 7.8345 -0.142217
5.01176 6.5188 -0.189117
4.91024 6.3945 -0.970317
5.22397 5.2162 -0.211917
5.12513 5.143 -1.00882
5.38167 3.8705 -0.218617
5.27115 3.8371 -1.03632
5.09779 3.8498 -1.80992
4.564 3.9487 -3.08862
4.86667 3.8778 -2.50192
4.82674 7.5171 2.13528
4.62656 7.8148 2.83638
4.93496 6.5125 2.82038
5.03044 6.4819 2.16728
5.15108 5.208 2.81348
5.2258 5.2446 2.16248
5.27006 5.2639 1.41108
5.08893 6.4478 1.41508
4.89867 7.4504 1.42048
5.30505 3.8547 2.81888
5.3965 2.3807 2.83308
5.47392 2.8502 2.12878
5.37609 3.9715 2.16488
5.51491 2.9779 1.40918
5.41651 4.0528 1.40978
5.52474 2.8595 0.653283
5.42425 3.9807 0.605983
5.27086 5.2555 0.607083
4.87444 7.5406 0.674383
5.07701 6.4983 0.617783
-5.85885 -1.2001 2.80718
-5.92142 -1.2427 2.15898
-6.1089 -0.0667993 2.81008
-6.17532 -0.122399 2.16038
-6.21371 -0.150099 1.41008
-5.95835 -1.2572 1.41138
-6.27819 1.1861 2.81878
-6.3737 2.6161 2.83268
-6.4519 2.1374 2.12808
-6.34937 1.0661 2.16458
-6.49271 2.011 1.40838
-6.38931 0.988901 1.40948
-6.50124 2.1425 0.652483
-6.45985 2.6336 -0.184617
-6.34939 1.2228 -0.218817
-6.3955 1.0762 0.605783
-6.17454 -0.0164993 -0.215317
-6.21711 -0.109299 0.604983
-5.92421 -1.1392 -0.202517
-5.96187 -1.228 0.609383
-5.5224 6.0572 -2.29152
-5.69548 5.0259 -2.40972
-5.91924 5.0692 -1.77952
-5.71128 6.2024 -1.70292
-5.84653 2.6816 -2.54142
-5.80652 3.8778 -2.50192
-6.09687 2.6255 -1.84112
-6.05057 3.8614 -1.82832
-6.29191 2.6001 -1.06592
-6.35703 3.9898 -0.459417
-6.23579 3.8836 -1.11012
-6.20437 5.2215 -0.515517
-6.08731 5.1454 -1.11912
-6.00201 6.4186 -0.425517
-5.86973 6.3567 -1.04302
-5.5224 -0.527399 -2.29152
-5.70325 -0.761999 -1.68702
-5.91617 0.261101 -1.75252
-5.69548 0.414901 -2.40972
-5.83759 -0.974899 -0.979317
-6.07504 0.112201 -1.01112
-6.23241 1.3234 -1.03642
-6.04972 1.4078 -1.80992
-5.80652 1.5059 -2.50192
-1.16268 -4.4187 3.21008
-0.382694 -4.4572 2.98138
-0.389594 -4.3272 3.42228
-1.17372 -4.2283 3.66708
0.346806 -4.1976 3.72498
-1.84067 -4.2276 3.63078
0.299916 -4.0659 3.95858
0.301086 -3.9284 4.13688
-1.56853 -3.9199 4.13708
-1.69143 -4.0516 3.95908
-2.47468 -3.8288 4.13688
-3.16669 -3.752 4.05008
-2.56085 -4.0496 3.81888
-3.29662 -4.057 3.45178
-2.56159 -4.4424 3.01468
-1.52325 -3.6514 4.29168
0.577356 -3.6272 4.29998
-1.39124 -3.5276 4.30358
-2.96041 -3.3053 4.30358
-3.04995 -3.5141 4.26368
-2.41474 -3.6389 4.27308
-1.53659 -3.7865 4.24198
-4.72803 -1.8861 4.30408
-5.0341 -1.7201 4.26368
-4.6265 -2.3824 4.27308
-4.17099 -2.908 4.26368
-3.83206 -2.8821 4.30438
-5.15988 -1.8356 4.13688
-4.75544 -2.5332 4.13688
-4.33212 -3.1342 4.03338
-3.75696 -3.4897 4.07168
-3.62632 -3.2522 4.27308
-5.44463 -2.097 3.31138
-5.01552 -2.8372 3.31138
-4.50588 -3.3985 3.31768
-4.43291 -3.2902 3.69088
-4.9352 -2.7433 3.68928
-5.35669 -2.0163 3.68928
-3.93056 -3.8133 3.33648
-3.86268 -3.6842 3.69558
-5.26038 -1.9278 3.95848
-4.84723 -2.6405 3.95848
4.5234 7.6057 3.34288
4.83593 6.4516 3.32028
4.42283 7.4739 3.69718
4.73332 6.3533 3.69148
4.95504 5.1172 3.69038
5.05888 5.1647 3.31568
4.32164 7.3684 3.95848
4.22014 7.2761 4.13688
4.51922 6.1989 4.13688
4.62716 6.2719 3.95848
4.73285 5.0173 4.13688
4.84539 5.0677 3.95848
4.86103 3.7746 4.13688
4.90375 2.5143 4.13688
5.01998 2.5143 3.95848
4.97633 3.8004 3.95848
5.13781 2.5039 3.69688
5.09127 3.8181 3.69128
5.25884 2.4728 3.34198
5.20548 3.8199 3.31958
3.93255 7.0146 4.30358
3.94409 6.404 4.28578
4.31368 5.4333 4.30358
4.51245 4.9185 4.29168
4.30783 6.056 4.29168
4.09156 7.1648 4.26378
4.55439 3.108 4.30358
4.67615 2.5143 4.29168
4.63522 3.7242 4.29168
4.38665 3.0899 4.27978
4.78753 2.5143 4.24198
4.74572 3.7488 4.24198
4.62031 4.9668 4.24198
4.41128 6.1259 4.24198
3.79183 -1.8873 4.30408
4.0931 -1.7201 4.26368
4.30783 -0.795699 4.29168
4.21338 -0.731799 4.30358
4.51245 0.213101 4.29168
4.47416 0.804901 4.30358
4.11797 -0.123599 4.26808
4.22014 -1.8356 4.13688
4.51922 -0.938599 4.13688
4.41128 -0.865599 4.24198
4.73285 0.114301 4.13688
4.62031 0.164701 4.24198
4.86103 1.2797 4.13688
4.74572 1.3055 4.24198
4.63522 1.3301 4.29168
4.54219 -2.1279 3.34488
4.68881 -2.2449 2.84258
4.95307 -1.1806 3.06148
4.84522 -1.1658 3.39468
5.17453 -0.0919993 2.99528
5.05698 -0.0403993 3.42568
4.95456 0.0126007 3.71788
4.73565 -1.0866 3.71008
4.42753 -2.024 3.69768
5.3098 1.0353 2.97558
5.2021 1.1792 3.39278
5.09043 1.2224 3.70958
4.97633 1.254 3.95848
4.84539 0.0638007 3.95848
4.32164 -1.9278 3.95848
4.62716 -1.0116 3.95848
-5.4806 7.552 3.34498
-5.04006 8.5192 3.32158
-5.36568 7.4604 3.69768
-4.94133 8.4181 3.69188
-4.43368 9.2275 3.69048
-4.509 9.3392 3.31618
-5.26038 7.3684 3.95848
-5.15988 7.2761 4.13688
-4.75544 8.2055 4.13688
-4.84723 8.3128 3.95848
-4.27291 8.9927 4.13688
-4.35431 9.1113 3.95848
-3.72409 9.6432 4.13688
-3.15439 10.246 4.04358
-3.79367 9.7699 3.95848
-3.23049 10.4332 3.69718
-3.85967 9.8993 3.69148
-3.27677 10.5845 3.34308
-3.9185 10.0345 3.32038
-4.87512 7.0146 4.30358
-4.89492 6.404 4.28578
-4.15843 8.0592 4.27828
-4.57568 7.9954 4.29168
-4.04228 8.6567 4.30358
-4.16592 8.8512 4.26378
-5.03251 7.1647 4.26378
-3.25349 9.5443 4.30438
-3.04116 10.0039 4.26378
-3.62766 9.4637 4.27318
-4.66365 8.0982 4.24198
-0.736083 10.6247 4.30458
-0.400574 10.8709 4.26358
-1.0841 10.7982 4.27308
-1.75406 10.6625 4.26368
-2.03827 10.3191 4.30438
-1.37396 10.2801 4.27318
-0.386784 11.1294 4.04198
-1.10152 10.9913 4.13688
-1.80282 10.9132 4.05128
-2.47468 10.5569 4.13688
-2.41654 10.3658 4.27318
-0.410274 11.4612 3.34318
-0.451084 11.6217 2.83728
-1.18798 11.4604 3.20688
-1.90005 11.2689 3.30768
-1.85298 11.101 3.71768
-1.10885 11.2131 3.82498
-0.398514 11.3191 3.69718
-2.5629 11.061 3.20888
-2.53784 10.7752 3.82708
-5.77839 -1.1454 3.31138
-5.68452 -1.0815 3.68928
-5.91984 0.0168007 3.68978
-6.0214 -0.0235993 3.31348
-5.47444 -0.938599 4.13688
-5.58171 -1.0116 3.95848
-5.69913 0.114301 4.13688
-5.81124 0.0638007 3.95848
-5.83394 1.2797 4.13688
-5.87888 2.5143 4.13688
-5.99486 2.5143 3.95848
-5.94896 1.254 3.95848
-6.11272 2.5218 3.69688
-6.06379 1.2343 3.69128
-6.23433 2.5445 3.34188
-6.17827 1.2269 3.31948
-5.17049 -0.731799 4.30358
-5.08127 -0.123599 4.26808
-5.45453 0.744301 4.30398
-5.47957 0.213101 4.29168
-5.26436 -0.795699 4.29168
-5.33438 3.084 4.27198
-5.54442 3.0848 4.30398
-5.65174 2.5143 4.29168
-5.6087 1.3301 4.29168
-5.76289 2.5143 4.24198
-5.71892 1.3055 4.24198
-5.58701 0.164701 4.24198
-5.36716 -0.865599 4.24198
-5.27598 5.4333 4.30358
-5.26436 6.056 4.29168
-5.47957 4.9185 4.29168
-5.47444 6.1989 4.13688
-5.36716 6.1259 4.24198
-5.69913 5.0173 4.13688
-5.58701 4.9668 4.24198
-5.83394 3.7746 4.13688
-5.71892 3.7488 4.24198
-5.6087 3.7242 4.29168
-5.93223 6.43 2.97218
-5.79956 6.4151 3.39478
-6.10927 5.2129 3.11588
-6.02248 5.1674 3.42578
-5.92011 5.1178 3.71788
-5.68981 6.3442 3.71008
-6.28306 4.0047 2.97508
-6.1749 3.8676 3.39268
-6.06295 3.83 3.70958
-5.94896 3.8004 3.95848
-5.81124 5.0677 3.95848
-5.58171 6.2719 3.95848
-1.48441 -3.238 4.26038
-2.62152 -3.0946 4.26028
-1.40919 -3.0925 4.18138
-2.56738 -2.9835 4.19248
0.610136 -3.241 4.26008
-3.67068 -2.6401 4.25988
-4.04993 -2.1086 4.18158
-4.31997 -2.0236 4.26498
-4.69401 -1.4074 4.26818
-3.31469 -2.6599 4.18138
4.19597 4.777 4.26618
3.7049 6.8086 4.24648
3.88488 5.7856 4.19228
4.18343 3.6416 4.19228
4.24516 2.5273 4.20528
3.44574 -1.6385 4.17948
3.5952 -1.7071 4.26858
3.88148 -0.469699 4.17988
4.09505 0.413601 4.20528
4.29757 1.4063 4.25928
-4.64978 6.8087 4.24658
-4.2171 7.5864 4.19298
-3.37441 9.0082 4.25858
-2.56804 9.7089 4.25778
-3.59399 8.5918 4.18358
-2.27358 9.7703 4.18328
-0.661605 10.2252 4.19548
-5.29126 1.4017 4.26578
-5.21097 2.5292 4.19638
-5.06366 0.412301 4.20598
-4.81982 -0.551099 4.18078
-5.17327 3.6406 4.19508
-5.16429 4.777 4.26618
-4.84401 5.7855 4.19228
-3.88167 -1.8923 4.21008
-2.84715 -2.58 4.21208
1.35119 -3.0476 4.18008
-1.13843 -2.8237 4.21048
3.69264 -0.313699 4.21578
4.06209 2.8368 4.20138
3.9434 1.0473 4.21238
4.09875 0.959801 4.18558
3.32941 7.4663 4.18118
4.01631 4.9527 4.18688
3.82019 5.255 4.20198
0.220256 10.3494 4.27778
2.3816 9.5464 4.30438
1.21761 10.3266 4.30408
1.15393 10.0703 4.27348
2.20978 9.2861 4.24808
0.904596 10.0299 4.18688
3.24016 8.0599 4.27828
2.69318 8.5937 4.18358
3.35558 8.2791 4.30358
0.361606 11.5183 2.82068
0.337366 11.4006 3.32048
0.331546 11.2654 3.69158
1.04853 11.1015 3.69038
1.07794 11.228 3.31598
1.10407 11.3406 2.81408
0.291246 10.9528 4.17988
0.318196 11.1287 3.95848
0.998276 10.9265 4.03458
1.64551 10.5569 4.13688
2.29208 10.256 4.04408
1.69157 10.6921 3.95848
2.39464 10.4273 3.69728
1.74082 10.8258 3.69158
2.46925 10.5607 3.34338
2.57857 10.7015 2.83808
1.82858 11.0829 2.82108
1.79646 10.9565 3.32058
0.259436 10.6977 4.29898
0.937676 10.6625 4.26368
2.18777 10.0038 4.26378
1.58255 10.3658 4.27318
3.65304 7.9954 4.29168
3.26658 8.8512 4.26378
3.8356 8.2055 4.13688
3.74238 8.0982 4.24198
3.37574 8.9927 4.13688
2.85069 9.6432 4.13688
2.75078 9.4637 4.27318
4.15656 8.713 3.05698
4.10809 8.5523 3.39308
3.65147 9.3695 3.30968
3.53992 9.2276 3.71778
4.02025 8.4264 3.70968
3.13289 10.0498 3.21788
2.95493 9.8559 3.82748
3.45906 9.1113 3.95848
3.92882 8.3128 3.95848
-0.181694 11.7112 2.13668
0.430226 11.6023 2.16788
1.12527 11.4318 2.16348
1.13228 11.4969 1.44708
0.473786 11.6605 1.44998
-0.110384 11.7662 1.44648
2.38863 10.9602 2.13798
1.80729 11.2038 2.16828
2.34517 11.0561 1.42158
1.7833 11.2854 1.43288
2.40119 11.0365 0.669083
2.58965 10.8319 -0.232417
1.77636 11.2828 0.051683
1.80735 11.2941 0.685383
1.06069 11.5479 0.163983
1.11585 11.5307 0.747583
0.337706 11.7242 0.181983
-0.451054 11.8151 0.135483
-0.183514 11.801 0.773383
0.422876 11.7013 0.755283
3.99339 7.0913 -2.77952
4.03683 7.6653 -2.29152
3.60224 7.5797 -2.98582
3.63704 8.2721 -2.42752
3.69486 8.7773 -1.78882
4.12392 8.0766 -1.70302
3.1102 8.0859 -3.18542
2.47101 8.6512 -3.39692
2.70113 9.2815 -2.67232
3.16893 8.822 -2.57272
2.77779 9.7987 -1.93022
3.23075 9.3607 -1.86572
2.74959 10.2912 -1.15102
3.26367 10.0969 -0.473217
3.23901 9.8108 -1.13292
3.78291 9.4249 -0.518117
3.74353 9.1602 -1.12442
4.25755 8.707 -0.427217
4.21139 8.4135 -1.04352
0.342296 8.7157 -3.88832
0.372306 7.7557 -4.09192
1.05995 8.6437 -3.84472
1.11821 7.6712 -4.06032
1.14298 6.4146 -4.28162
0.387306 6.5076 -4.30172
1.75541 8.5957 -3.71372
2.51358 7.3893 -3.81972
1.8406 7.5739 -3.96552
2.53755 6.0778 -4.11232
1.86577 6.2762 -4.22162
2.55326 4.6836 -4.30262
2.55905 3.2496 -4.37212
1.87956 3.3672 -4.47272
1.87725 4.8528 -4.40162
1.15259 3.4646 -4.52292
1.15201 4.9833 -4.45112
0.392316 5.0675 -4.46772
4.03683 6.2664 -3.13782
4.11506 5.2472 -3.38662
3.66794 5.5108 -3.70712
3.62262 6.6355 -3.40892
4.20212 2.8715 -3.60382
4.17599 4.0902 -3.54632
3.72665 2.9934 -3.95382
3.70797 4.2768 -3.89072
3.17685 3.1222 -4.20452
3.16528 4.4831 -4.13752
3.14019 5.8051 -3.94492
3.11122 7.0432 -3.63522
3.99339 -1.2355 -2.77952
4.03683 -0.434099 -3.13782
3.60153 -1.5043 -2.97402
3.62455 -0.578499 -3.40102
3.66842 0.511301 -3.70512
4.11506 0.542901 -3.38662
3.10739 -1.7198 -3.13842
2.52432 -1.8717 -3.26282
2.5301 -0.800299 -3.74762
3.11897 -0.707399 -3.60382
2.54168 0.449301 -4.09432
3.14212 0.473001 -3.93712
2.55326 1.8187 -4.30262
3.16528 1.7675 -4.13752
3.70797 1.7201 -3.89072
4.17599 1.6669 -3.54632
0.392316 -1.9729 -3.38722
0.392316 -0.820799 -3.89142
0.392316 0.523301 -4.25162
1.15086 0.491401 -4.23582
1.1497 -0.836899 -3.87702
1.14912 -1.9754 -3.37482
0.392316 1.9953 -4.46772
1.15201 1.9463 -4.45112
1.87725 1.8828 -4.40162
1.87262 0.461101 -4.18872
1.86567 -1.9493 -3.33742
1.86799 -0.836799 -3.83392
0.392316 -2.8689 -2.73902
1.1497 -2.8612 -2.72912
1.15158 -3.5307 -2.01522
0.392736 -3.55 -2.00872
2.5301 -2.7066 -2.64022
1.86799 -2.8153 -2.69942
2.54559 -3.3485 -1.91872
1.875 -3.4754 -1.98092
2.56889 -3.8411 -1.13722
2.60335 -4.2518 -0.269717
1.87634 -4.3165 -0.625017
1.88679 -3.9706 -1.24272
1.15462 -4.0214 -1.30742
0.411406 -4.3991 -0.626417
0.394006 -4.057 -1.25862
4.03683 -1.833 -2.29152
4.1265 -2.2834 -1.68452
3.67367 -2.7629 -1.75982
3.62455 -2.2211 -2.41962
4.2849 -2.9189 -0.187217
4.22174 -2.6437 -0.969417
3.77468 -3.4334 -0.218417
3.72896 -3.1637 -1.01622
3.22857 -3.8605 -0.246417
3.18048 -3.5675 -1.06692
3.14592 -3.1145 -1.84142
3.11897 -2.5104 -2.54142
4.62827 -2.6347 2.14468
4.20074 -2.978 2.82278
4.23071 -3.1183 2.17078
3.69162 -3.5057 2.82038
3.75038 -3.5916 2.16808
3.78776 -3.6279 1.41288
4.24573 -3.1924 1.41898
4.63104 -2.7455 1.43048
3.14691 -3.9212 2.84448
2.5271 -4.2608 2.91518
2.83912 -4.2743 2.18978
3.25397 -3.984 2.18378
3.32498 -4.0034 1.41198
2.76607 -4.381 0.657583
3.29612 -3.9847 0.591683
3.79507 -3.5817 0.604283
4.67678 -2.6411 0.682683
4.27834 -3.1139 0.620883
0.393226 -4.4124 3.23678
1.03921 -4.2282 3.62958
1.72909 -4.4667 2.97648
2.45456 -4.0575 3.45098
1.73693 -4.0488 3.82008
2.31773 -3.752 4.05008
1.64551 -3.8288 4.13688
0.997556 -3.9732 4.06218
4.12327 -2.8579 3.32148
4.02404 -2.7485 3.69178
3.541 -3.2915 3.69148
3.62017 -3.4037 3.32018
3.8356 -2.5332 4.13688
3.92882 -2.6405 3.95848
3.43124 -3.1347 4.03688
2.99419 -3.6843 3.69548
2.8847 -3.4896 4.07168
3.06462 -3.8135 3.33628
2.93786 -2.8825 4.30438
3.27143 -2.908 4.26368
3.70465 -2.3825 4.27308
1.78377 -3.1316 4.27518
1.77563 -3.3882 4.30408
2.19612 -3.5141 4.26368
2.74952 -3.2522 4.27308
0.823206 -3.7779 4.24208
1.58082 -3.6389 4.27308
2.77196 -2.641 4.25988
2.68562 -2.5293 4.18478
2.12828 -2.5084 4.20598
1.09048 -2.7638 4.21378
2.95884 -1.8932 4.21008
1.46912 -0.465399 4.46768
1.23778 0.316701 4.48278
1.36231 1.7471 4.49548
1.36412 3.84 4.49938
2.47357 0.457101 4.46658
3.0182 1.9396 4.46258
2.63695 1.6131 4.47558
3.0182 3.63 4.46258
2.74352 3.319 4.47638
2.21608 3.54 4.48978
2.11078 1.6651 4.48778
2.43661 -0.461299 4.45008
2.53859 4.7074 4.47558
3.11829 4.7792 4.44038
2.42406 5.8788 4.46398
1.68561 5.2229 4.48958
1.63364 6.7495 4.47008
-4.12182 6.8246 4.33418
-4.09317 6.2384 4.39038
-3.82713 7.0544 4.37938
-3.42982 7.6002 4.39158
-3.34193 8.2094 4.33438
-2.3116 9.1251 4.35318
-3.03435 8.2429 4.38068
-3.67714 6.6586 4.42268
-3.14635 7.4418 4.42498
-2.7054 7.4374 4.44838
-2.28075 8.4281 4.41798
-0.659082 9.0275 4.42238
-1.75644 8.0154 4.45188
-0.556534 8.2651 4.45268
-0.098314 9.7073 4.35318
-1.19368 9.6354 4.35108
-1.51672 9.0118 4.40708
2.89585 7.0544 4.37938
3.14803 6.2384 4.39038
3.28255 6.4401 4.33688
3.00331 7.2702 4.31848
2.45721 8.0535 4.35948
0.529796 8.8575 4.41908
1.016 9.3905 4.35038
0.899046 8.0154 4.45188
1.81868 7.4374 4.44838
1.41022 8.4281 4.41798
1.95108 8.72 4.34868
2.75024 6.6586 4.42268
2.27012 7.6085 4.41498
3.71583 0.930201 4.35538
3.36166 -0.441799 4.37558
3.2984 -0.951099 4.32848
3.83129 1.557 4.31868
3.86575 2.5596 4.31868
3.67552 2.5833 4.38648
3.52914 0.776201 4.39158
3.3412 5.3755 4.39588
3.52914 4.4929 4.39158
3.72788 4.606 4.31868
3.55552 5.5816 4.31868
3.83129 3.5873 4.31868
3.67738 3.5518 4.38038
3.3654 2.6674 4.43698
3.50025 3.5344 4.41518
2.87203 -0.612599 4.42118
3.22094 0.608301 4.42788
3.50025 1.7259 4.41518
1.99485 -2.2348 4.36378
1.53033 -1.7613 4.41778
0.836606 -2.4202 4.37118
0.917206 -2.6252 4.32278
-1.70876 -2.6359 4.32208
2.78821 -1.6582 4.36498
2.03233 -1.1581 4.43718
-0.422864 -1.6925 4.43098
0.899046 -1.1675 4.45188
-1.49991 -1.1801 4.45238
0.399386 -2.0699 4.40708
-1.71993 -2.3907 4.37478
-3.7524 -1.7265 4.33678
-2.88418 -2.2341 4.36388
-3.83046 -1.1999 4.39508
-4.24584 -0.949499 4.32938
-2.53951 -1.9155 4.40588
-2.38043 -1.3475 4.43968
-1.51672 -2.0633 4.40708
-3.80512 -0.612599 4.42118
-4.4941 4.4929 4.39158
-4.69779 4.606 4.31868
-4.80655 3.5873 4.31868
-4.64919 3.5518 4.38038
-4.84279 2.5596 4.31868
-4.62726 2.5865 4.39268
-4.29674 5.3755 4.39588
-4.51651 5.5816 4.31868
-4.37559 -0.0820993 4.37938
-4.4941 0.776201 4.39158
-4.61048 0.214001 4.33548
-4.80655 1.557 4.31868
-4.64919 1.6211 4.38038
-4.17258 0.608301 4.42788
-4.3252 2.6674 4.43698
-4.46543 1.7259 4.41518
-4.46543 3.5344 4.41518
-4.49035 6.8973 4.18688
-4.98317 4.9558 4.18688
-5.07054 0.959801 4.18558
-5.03815 2.0467 4.19778
-4.74825 -0.0595993 4.20378
-4.50704 6.3039 4.20988
-4.94755 4.1767 4.19998
-2.98196 8.9775 4.19448
-3.88183 7.8001 4.20598
-1.62053 9.8026 4.20758
-0.125084 9.9951 4.20168
2.09877 8.979 4.19448
1.04091 9.6952 4.19898
2.95227 7.7969 4.21038
-0.900427 11.6794 2.46898
-1.41418 11.5639 2.65768
-1.92504 11.4215 2.76388
-1.79989 11.5633 2.09658
-1.45769 11.6833 1.84018
-2.89565 11.1465 2.42048
-2.40001 11.2993 2.63068
-2.39554 11.4319 1.87018
-0.893377 11.8014 0.423083
-0.717551 11.8255 0.843483
-0.723257 11.7694 1.93368
-0.538444 11.8034 1.44168
-1.46016 11.7195 1.03068
-1.31558 11.7364 1.56698
-2.48919 11.3311 -0.258417
-2.98276 11.2017 0.301283
-2.56986 11.4027 0.435983
-1.90181 11.5788 0.033583
-2.50548 11.4561 1.08378
-2.21455 11.5353 0.899683
-1.82827 11.6262 0.765683
-1.23027 11.7283 -0.068617
-3.2129 11.0275 2.02448
-2.95666 11.2344 1.66838
-3.29917 11.03 1.42308
-2.58417 11.4032 1.56508
-2.95381 11.2631 0.984783
-3.23483 11.0857 0.795683
4.93233 -1.8034 2.51538
5.0974 -0.981299 2.62988
5.07785 -1.4234 2.26228
5.24467 -0.171799 2.55698
5.18767 -0.979999 1.87518
5.3511 0.565501 2.47618
5.41618 0.567601 1.77648
5.49331 1.3909 1.99508
5.43985 1.6246 2.48958
5.01343 -1.82 0.319283
4.92121 -2.2232 0.830683
5.15217 -1.4413 0.691683
5.05539 -1.8674 0.994883
5.01838 -1.9746 1.46128
4.87661 -2.335 1.44638
5.19457 -1.1766 1.23428
5.04839 -1.794 1.82188
4.87636 -2.2113 2.04268
5.52567 1.6401 0.279683
5.43859 0.838501 0.012383
5.52062 1.1987 0.555483
5.44567 0.578401 0.341783
5.26817 -0.721499 0.375683
5.31133 -0.130299 -0.055317
5.15654 -1.0694 0.035383
5.51194 2.0679 2.00878
5.54779 1.6669 1.40068
5.55188 2.2027 1.40708
5.5505 1.4458 1.01148
5.55995 2.0774 0.787683
-5.88326 7.0806 2.51678
-6.03373 6.6381 2.26988
-6.09986 6.0684 2.50168
-6.21169 5.2796 2.55778
-6.17142 5.2511 2.82198
-6.12359 6.3305 1.89038
-6.21077 5.7143 1.99348
-6.26875 5.3053 1.99898
-6.32326 4.4859 2.47588
-6.36691 4.5309 1.92908
-6.42048 3.8254 2.24688
-6.41695 3.3724 2.48858
-5.96246 7.1086 0.320483
-5.86661 7.5515 0.832383
-6.10515 6.652 0.649083
-6.02036 7.0822 1.02638
-5.99281 7.1168 1.70828
-5.82126 7.6736 1.44828
-6.13774 6.4235 1.47108
-5.8228 7.5339 2.04448
-6.50131 3.3712 0.278483
-6.40911 4.2256 0.011683
-6.49649 3.8112 0.553983
-6.41717 4.4773 0.341083
-6.30962 5.2819 0.283683
-6.27508 5.2647 -0.055417
-6.19011 6.0821 0.369583
-6.11241 6.286 0.036083
-6.49122 2.9057 2.00738
-6.50979 3.4275 1.65008
-6.53148 2.7674 1.40538
-6.42715 4.2302 1.56848
-6.52934 3.5253 1.00858
-6.44571 4.2791 1.01318
-6.53847 2.9039 0.786083
4.45856 8.4444 2.49868
4.07842 9.0946 2.58178
4.30992 8.8431 2.24158
3.75245 9.5245 2.71128
4.13896 9.1905 1.85818
3.64472 9.843 1.98178
3.47115 10.0867 1.85458
3.34074 10.1111 2.48918
2.96352 10.4907 2.50318
4.53557 8.4956 0.307483
4.69492 8.2134 0.813083
4.3791 8.8965 0.618783
4.53093 8.6463 0.989783
4.54982 8.5882 1.43688
4.72485 8.1175 1.42568
4.18152 9.2203 0.997283
4.29383 9.0415 1.29008
4.2443 9.066 1.65528
4.4965 8.6138 1.85988
4.65147 8.1839 2.02248
3.00466 10.5871 0.282383
3.37472 10.1435 0.014183
3.25345 10.3877 0.618583
3.62284 9.9315 0.356883
3.81289 9.5759 -0.053517
3.4961 10.1178 1.03088
3.74385 9.7929 0.784483
4.1515 9.2157 0.392583
4.2207 8.9882 0.031483
2.78163 10.7431 2.02828
3.04992 10.5777 1.68538
2.73618 10.8386 1.42708
3.38162 10.2583 1.31168
3.07413 10.5862 0.993383
2.80117 10.8027 0.799183
5.31599 -0.00429927 2.04598
5.29591 -0.633199 0.868583
5.18897 -1.185 1.65848
5.46341 0.608501 0.920083
5.4225 0.228801 0.799483
5.35 -0.248099 0.805183
5.48284 0.857501 1.32428
5.49108 0.793401 1.08428
-6.23987 6.1089 1.84788
-6.21397 6.1016 1.03068
-6.2054 6.3304 1.67828
-6.36804 5.0215 0.813183
-6.27497 5.7523 0.898983
-6.45544 4.1518 1.34318
4.03297 9.4207 1.95868
-0.376544 -4.5316 2.19568
-0.849368 -4.5198 2.65198
-0.603224 -4.5722 2.06708
-0.488864 -4.5865 1.43618
-0.268874 -4.5831 1.43578
-1.26249 -5.0917 2.08618
-0.730153 -4.5913 0.074083
-0.375134 -4.5777 0.633583
-0.587814 -4.6237 0.790083
-0.896151 -4.6681 0.285483
-3.01451 -4.5058 2.62008
-1.93596 -4.4797 3.07888
-1.84124 -5.0793 2.32158
-1.35593 -4.5246 2.91488
-3.10981 -4.559 0.147683
-3.54711 -4.4641 1.43578
-3.27609 -4.5538 2.07288
-1.38303 -4.6755 -0.047517
-1.98224 -4.6228 -0.238417
-2.52909 -4.6742 -0.041817
-0.038074 -4.5031 2.73468
0.133306 -4.5527 2.58528
0.586626 -4.5319 2.90358
1.14252 -4.495 3.04968
2.19437 -4.5117 2.61478
-0.026164 -4.5938 0.076683
-0.159304 -4.6276 0.790883
0.147676 -4.6739 0.291983
-0.151424 -4.5693 2.06978
2.23771 -4.6149 0.218383
1.72912 -4.6824 -0.030617
1.19227 -4.6278 -0.231017
0.616866 -4.68 -0.041217
2.4347 -4.5725 2.06308
2.62038 -4.5359 1.41948
1.18273 -5.0845 2.31708
0.622536 -5.0989 2.08278
0.860296 -5.0567 2.29328
1.50045 -5.0567 2.29328
1.75661 -5.0849 2.09268
1.97848 -5.1196 1.43868
1.93711 -5.0825 1.80498
1.9517 -5.1183 1.07198
1.78102 -5.1542 0.784683
1.52701 -5.1455 0.583483
0.875736 -5.1471 0.583983
0.635286 -5.1792 0.795483
0.437476 -5.1183 1.07198
0.419156 -5.1311 1.43868
0.454726 -5.1018 1.79698
-1.05305 -5.1281 1.43868
-1.07542 -5.0756 1.80788
-1.07714 -5.1133 1.06928
-1.26883 -5.1625 0.791283
-1.5282 -5.1408 0.577083
-1.86409 -5.1731 0.543083
-2.44777 -5.1625 0.791283
-2.20167 -5.1408 0.577083
-2.64159 -5.1136 1.06928
-2.66411 -5.1255 1.43868
-2.62779 -5.0742 1.80808
-2.42713 -5.1087 2.08498
-2.17695 -5.0483 2.30058
-1.51492 -5.0482 2.30058
-2.86647 9.2917 -3.23052
-2.37339 9.1916 -3.54662
-2.55937 9.5588 -3.14012
-2.14813 9.4787 -3.44232
-1.61765 9.5098 -3.59042
-1.74606 9.2229 -3.69252
-1.84398 9.5639 -3.46242
-2.3223 9.6478 -3.08782
-0.593814 9.7186 -3.57822
-0.392474 9.6246 -3.63982
-1.02069 9.5798 -3.63982
-0.390444 9.3356 -3.74112
-1.07748 9.2918 -3.74112
-2.87984 10.9756 -0.685217
-3.14128 10.5384 -1.26132
-2.74072 10.773 -1.16222
-2.85205 9.8832 -2.51092
-3.21066 10.0661 -1.97852
-2.60925 10.2412 -2.01872
-2.45446 10.8623 -1.13742
-2.54689 9.9143 -2.55772
-3.13231 9.6169 -2.67132
-0.362204 11.7729 -0.477317
-1.57496 11.5879 -0.466917
-1.09797 11.6753 -0.551417
-2.15029 11.3367 -0.576117
0.292276 9.2918 -3.74112
0.192936 9.6492 -3.61382
0.819676 9.5098 -3.59042
0.950446 9.2229 -3.69252
1.03831 9.5639 -3.46182
1.50284 9.6478 -3.08782
1.73962 9.5588 -3.14012
1.33879 9.4787 -3.44232
2.04394 9.2917 -3.23052
1.56384 9.1916 -3.54662
2.08073 10.9575 -0.666617
1.58725 11.3044 -0.341917
1.74881 11.0101 -0.862217
1.34464 11.3329 -0.557817
0.914636 11.5701 -0.257217
0.851936 11.5297 -0.520017
1.63823 10.8639 -1.13442
0.214756 11.7115 -0.530317
2.30227 9.6169 -2.67132
1.97268 9.8218 -2.62832
2.03572 10.4959 -1.54102
2.38217 10.0633 -1.97852
1.78264 10.2412 -2.01872
1.72177 9.9143 -2.55772
2.32702 10.527 -1.26122
1.10346 11.0481 -0.990217
0.799016 11.3878 -0.709717
-1.87824 11.1261 -0.905017
-2.09989 10.6554 -1.45652
-2.1715 10.2605 -1.99372
-1.94314 9.6415 -3.04742
-2.1245 9.9277 -2.52462
-1.28013 9.6256 -3.45562
-0.281204 9.7222 -3.48762
0.475296 9.6253 -3.45532
1.12187 9.6414 -3.04752
1.34847 10.2108 -2.06182
1.27431 10.6555 -1.45622
1.21559 -5.2095 0.563083
3 0 1 2
3 3 4 5
3 6 3 5
3 7 6 5
3 5 4 8
3 1 0 7
3 0 6 7
3 9 10 11
3 11 12 13
3 13 9 11
3 14 15 12
3 14 12 11
3 15 8 12
3 8 4 12
3 13 12 16
3 12 4 16
3 17 18 19
3 17 19 20
3 18 21 19
3 21 22 19
3 22 8 15
3 19 22 15
3 20 19 15
3 20 15 14
3 23 24 25
3 1 7 24
3 7 26 24
3 26 25 24
3 24 23 1
3 5 8 22
3 5 22 26
3 26 7 5
3 27 25 21
3 25 26 21
3 26 22 21
3 28 29 30
3 29 31 32
3 29 32 30
3 32 33 34
3 32 34 30
3 34 35 28
3 34 28 30
3 36 37 38
3 36 38 39
3 38 40 41
3 38 41 39
3 41 33 32
3 41 32 39
3 32 31 36
3 32 36 39
3 42 43 44
3 42 44 45
3 44 46 47
3 44 47 45
3 47 33 41
3 47 41 45
3 41 40 42
3 41 42 45
3 48 49 50
3 48 50 51
3 50 35 34
3 50 34 51
3 34 33 47
3 34 47 51
3 47 46 48
3 47 48 51
3 52 53 54
3 52 54 55
3 54 56 57
3 54 57 55
3 57 58 59
3 57 59 55
3 59 60 52
3 59 52 55
3 61 62 63
3 61 63 64
3 63 65 66
3 63 66 64
3 66 58 57
3 66 57 64
3 57 56 61
3 57 61 64
3 67 43 42
3 67 42 68
3 42 40 69
3 42 69 68
3 69 58 66
3 69 66 68
3 66 65 67
3 66 67 68
3 38 37 70
3 38 70 71
3 70 60 59
3 70 59 71
3 59 58 69
3 59 69 71
3 69 40 38
3 69 38 71
3 72 73 74
3 72 74 75
3 74 76 77
3 74 77 75
3 77 78 79
3 77 79 75
3 79 80 72
3 79 72 75
3 81 82 83
3 81 83 84
3 83 85 86
3 83 86 84
3 86 78 77
3 86 77 84
3 77 76 81
3 77 81 84
3 87 88 89
3 87 89 90
3 89 91 92
3 89 92 90
3 92 78 86
3 92 86 90
3 86 85 87
3 86 87 90
3 93 49 94
3 93 94 95
3 94 80 79
3 94 79 95
3 79 78 92
3 79 92 95
3 92 91 93
3 92 93 95
3 96 97 98
3 96 98 99
3 98 100 101
3 98 101 99
3 101 102 103
3 101 103 99
3 103 104 96
3 103 96 99
3 105 106 107
3 105 107 108
3 107 109 110
3 107 110 108
3 110 102 101
3 110 101 108
3 101 100 105
3 101 105 108
3 111 88 87
3 111 87 112
3 87 85 113
3 87 113 112
3 113 102 110
3 113 110 112
3 110 109 111
3 110 111 112
3 83 82 114
3 83 114 115
3 114 104 103
3 114 103 115
3 103 102 113
3 103 113 115
3 113 85 83
3 113 83 115
3 116 117 118
3 116 118 119
3 118 120 121
3 118 121 119
3 121 122 123
3 121 123 119
3 123 124 116
3 123 116 119
3 125 126 127
3 125 127 128
3 127 129 130
3 127 130 128
3 130 122 121
3 130 121 128
3 121 120 125
3 121 125 128
3 131 88 111
3 131 111 132
3 111 109 133
3 111 133 132
3 133 122 130
3 133 130 132
3 130 129 131
3 130 131 132
3 107 106 134
3 107 134 135
3 134 124 123
3 134 123 135
3 123 122 133
3 123 133 135
3 133 109 107
3 133 107 135
3 136 29 28
3 136 28 137
3 28 35 138
3 28 138 137
3 138 139 140
3 138 140 137
3 140 141 136
3 140 136 137
3 50 49 93
3 50 93 142
3 93 91 143
3 93 143 142
3 143 139 138
3 143 138 142
3 138 35 50
3 138 50 142
3 89 88 131
3 89 131 144
3 131 129 145
3 131 145 144
3 145 139 143
3 145 143 144
3 143 91 89
3 143 89 144
3 127 126 146
3 127 146 147
3 146 141 140
3 146 140 147
3 140 139 145
3 140 145 147
3 145 129 127
3 145 127 147
3 98 97 148
3 98 148 149
3 148 150 151
3 148 151 149
3 151 152 153
3 151 153 149
3 153 100 98
3 153 98 149
3 154 155 156
3 154 156 157
3 156 158 157
3 158 152 151
3 158 151 157
3 151 150 154
3 151 154 157
3 159 160 161
3 159 161 162
3 161 163 164
3 161 164 162
3 164 152 158
3 164 158 162
3 158 159 162
3 165 106 105
3 165 105 166
3 105 100 153
3 105 153 166
3 153 152 164
3 153 164 166
3 164 163 165
3 164 165 166
3 167 168 169
3 167 169 170
3 169 171 172
3 169 172 170
3 172 173 174
3 172 174 170
3 174 175 167
3 174 167 170
3 176 177 178
3 176 178 179
3 178 180 181
3 178 181 179
3 181 173 172
3 181 172 179
3 172 171 176
3 172 176 179
3 182 160 183
3 182 183 184
3 183 185 184
3 185 173 181
3 185 181 184
3 181 180 182
3 181 182 184
3 186 187 188
3 186 188 189
3 188 175 174
3 188 174 189
3 174 173 185
3 174 185 189
3 185 186 189
3 117 116 190
3 116 124 191
3 116 191 190
3 191 192 193
3 191 193 190
3 193 194 117
3 193 117 190
3 134 106 165
3 134 165 195
3 165 163 196
3 165 196 195
3 196 192 191
3 196 191 195
3 191 124 134
3 191 134 195
3 161 160 182
3 161 182 197
3 182 180 198
3 182 198 197
3 198 192 196
3 198 196 197
3 196 163 161
3 196 161 197
3 178 177 199
3 178 199 200
3 199 194 193
3 199 193 200
3 193 192 198
3 193 198 200
3 198 180 178
3 198 178 200
3 201 202 203
3 202 204 205
3 202 205 203
3 205 206 207
3 205 207 203
3 207 208 201
3 207 201 203
3 209 210 211
3 209 211 212
3 211 213 214
3 211 214 212
3 214 206 205
3 214 205 212
3 205 204 209
3 205 209 212
3 215 216 217
3 215 217 218
3 217 219 220
3 217 220 218
3 220 206 214
3 220 214 218
3 214 213 215
3 214 215 218
3 221 222 223
3 221 223 224
3 223 208 207
3 223 207 224
3 207 206 220
3 207 220 224
3 220 219 221
3 220 221 224
3 225 226 227
3 226 228 229
3 226 229 227
3 229 230 231
3 229 231 227
3 231 232 225
3 231 225 227
3 233 234 235
3 233 235 236
3 235 237 238
3 235 238 236
3 238 230 229
3 238 229 236
3 229 228 233
3 229 233 236
3 239 216 215
3 239 215 240
3 215 213 241
3 215 241 240
3 241 230 238
3 241 238 240
3 238 237 239
3 238 239 240
3 211 210 242
3 211 242 243
3 242 232 231
3 242 231 243
3 231 230 241
3 231 241 243
3 241 213 211
3 241 211 243
3 244 245 246
3 244 246 247
3 246 248 249
3 246 249 247
3 249 250 251
3 249 251 247
3 251 252 244
3 251 244 247
3 253 254 255
3 253 255 256
3 255 257 258
3 255 258 256
3 258 250 249
3 258 249 256
3 249 248 253
3 249 253 256
3 259 216 239
3 259 239 260
3 239 237 261
3 239 261 260
3 261 250 258
3 261 258 260
3 258 257 259
3 258 259 260
3 235 234 262
3 235 262 263
3 262 252 251
3 262 251 263
3 251 250 261
3 251 261 263
3 261 237 235
3 261 235 263
3 169 168 264
3 169 264 265
3 264 266 267
3 264 267 265
3 267 268 269
3 267 269 265
3 269 171 169
3 269 169 265
3 270 271 272
3 270 272 273
3 272 274 275
3 272 275 273
3 275 268 267
3 275 267 273
3 267 266 270
3 267 270 273
3 276 277 278
3 276 278 279
3 278 280 281
3 278 281 279
3 281 268 275
3 281 275 279
3 275 274 276
3 275 276 279
3 282 177 176
3 282 176 283
3 176 171 269
3 176 269 283
3 269 268 281
3 269 281 283
3 281 280 282
3 281 282 283
3 29 136 284
3 136 141 285
3 136 285 284
3 285 286 287
3 285 287 284
3 287 31 29
3 287 29 284
3 146 126 288
3 146 288 289
3 288 290 291
3 288 291 289
3 291 286 285
3 291 285 289
3 285 141 146
3 285 146 289
3 292 277 293
3 292 293 294
3 293 295 296
3 293 296 294
3 296 286 291
3 296 291 294
3 291 290 292
3 291 292 294
3 297 37 36
3 297 36 298
3 36 31 287
3 36 287 298
3 287 286 296
3 287 296 298
3 296 295 297
3 296 297 298
3 118 117 299
3 117 194 300
3 117 300 299
3 300 301 302
3 300 302 299
3 302 120 118
3 302 118 299
3 199 177 282
3 199 282 303
3 282 280 304
3 282 304 303
3 304 301 300
3 304 300 303
3 300 194 199
3 300 199 303
3 278 277 292
3 278 292 305
3 292 290 306
3 292 306 305
3 306 301 304
3 306 304 305
3 304 280 278
3 304 278 305
3 288 126 125
3 288 125 307
3 125 120 302
3 125 302 307
3 302 301 306
3 302 306 307
3 306 290 288
3 306 288 307
3 308 309 310
3 308 310 311
3 310 312 311
3 313 308 311
3 314 315 316
3 314 316 317
3 317 313 311
3 311 312 314
3 311 314 317
3 318 319 320
3 319 321 320
3 320 313 317
3 317 316 318
3 317 318 320
3 321 187 322
3 321 322 320
3 322 313 320
3 323 324 325
3 326 327 328
3 328 323 325
3 328 325 326
3 327 319 318
3 327 318 328
3 318 316 329
3 318 329 328
3 329 323 328
3 316 315 329
3 329 324 323
3 330 331 332
3 332 333 334
3 332 334 330
3 331 335 336
3 331 336 332
3 336 337 333
3 336 333 332
3 338 319 327
3 338 327 339
3 333 337 338
3 333 338 339
3 334 333 339
3 339 327 326
3 339 326 334
3 340 168 167
3 340 167 341
3 167 175 342
3 167 342 341
3 342 343 344
3 342 344 341
3 344 345 340
3 344 340 341
3 188 187 321
3 188 321 346
3 321 347 346
3 347 343 342
3 347 342 346
3 342 175 188
3 342 188 346
3 337 343 347
3 337 347 338
3 347 321 319
3 347 319 338
3 336 335 348
3 336 348 349
3 348 345 344
3 348 344 349
3 344 343 337
3 344 337 349
3 337 336 349
3 246 245 350
3 246 350 351
3 350 352 353
3 350 353 351
3 353 354 355
3 353 355 351
3 355 248 246
3 355 246 351
3 356 357 358
3 356 358 359
3 358 360 361
3 358 361 359
3 361 354 353
3 361 353 359
3 353 352 356
3 353 356 359
3 362 363 364
3 362 364 365
3 364 366 367
3 364 367 365
3 367 354 361
3 367 361 365
3 361 360 362
3 361 362 365
3 368 254 253
3 368 253 369
3 253 248 355
3 253 355 369
3 355 354 367
3 355 367 369
3 367 366 368
3 367 368 369
3 370 371 372
3 372 373 374
3 374 375 370
3 374 370 372
3 376 377 378
3 378 373 372
3 378 372 376
3 372 379 376
3 380 363 362
3 380 362 381
3 362 360 382
3 362 382 381
3 382 373 378
3 382 378 381
3 378 377 380
3 378 380 381
3 358 357 375
3 358 375 383
3 375 374 383
3 374 373 382
3 374 382 383
3 382 360 358
3 382 358 383
3 384 385 386
3 384 386 387
3 386 388 389
3 386 389 387
3 389 390 387
3 385 391 392
3 385 392 393
3 392 394 395
3 392 395 393
3 395 388 386
3 395 386 393
3 386 385 393
3 396 363 380
3 396 380 397
3 380 377 398
3 380 398 397
3 398 388 395
3 398 395 397
3 395 394 396
3 395 396 397
3 376 379 389
3 389 388 398
3 398 377 376
3 398 376 389
3 399 400 401
3 399 401 402
3 401 403 404
3 401 404 402
3 404 405 406
3 404 406 402
3 406 407 399
3 406 399 402
3 408 254 368
3 408 368 409
3 368 366 410
3 368 410 409
3 410 405 404
3 410 404 409
3 404 403 408
3 404 408 409
3 364 363 396
3 364 396 411
3 396 394 412
3 396 412 411
3 412 405 410
3 412 410 411
3 410 366 364
3 410 364 411
3 392 391 413
3 392 413 414
3 413 407 406
3 413 406 414
3 406 405 412
3 406 412 414
3 412 394 392
3 412 392 414
3 54 53 415
3 54 415 416
3 415 417 418
3 415 418 416
3 418 419 420
3 418 420 416
3 420 56 54
3 420 54 416
3 421 422 423
3 421 423 424
3 423 425 426
3 423 426 424
3 426 419 418
3 426 418 424
3 418 417 421
3 418 421 424
3 427 428 429
3 428 430 431
3 428 431 429
3 431 419 426
3 431 426 429
3 426 425 427
3 426 427 429
3 432 62 61
3 432 61 433
3 61 56 420
3 61 420 433
3 420 419 431
3 420 431 433
3 431 430 432
3 431 432 433
3 434 435 436
3 434 436 437
3 436 438 437
3 438 439 437
3 437 440 434
3 441 442 443
3 443 439 438
3 443 438 441
3 442 428 427
3 442 427 443
3 427 425 439
3 427 439 443
3 423 422 440
3 423 440 444
3 440 437 444
3 437 439 444
3 439 425 423
3 439 423 444
3 445 446 447
3 447 448 449
3 447 449 445
3 449 450 445
3 446 451 452
3 446 452 447
3 452 453 448
3 452 448 447
3 454 428 442
3 454 442 455
3 448 453 454
3 448 454 455
3 449 448 455
3 455 442 441
3 455 441 449
3 456 457 458
3 459 460 461
3 459 461 458
3 461 462 456
3 461 456 458
3 463 62 432
3 432 430 464
3 432 464 463
3 464 460 459
3 464 459 463
3 428 454 464
3 454 453 464
3 453 460 464
3 464 430 428
3 452 451 461
3 451 462 461
3 461 460 453
3 453 452 461
3 264 168 340
3 264 340 465
3 340 345 466
3 340 466 465
3 466 467 468
3 466 468 465
3 468 266 264
3 468 264 465
3 348 335 469
3 348 469 470
3 469 471 472
3 469 472 470
3 472 467 466
3 472 466 470
3 466 345 348
3 466 348 470
3 473 474 475
3 473 475 476
3 475 477 478
3 475 478 476
3 478 467 472
3 478 472 476
3 472 471 473
3 472 473 476
3 479 271 270
3 479 270 480
3 270 266 468
3 270 468 480
3 468 467 478
3 468 478 480
3 478 477 479
3 478 479 480
3 481 482 483
3 483 484 485
3 483 485 481
3 485 331 330
3 485 330 481
3 483 486 487
3 487 488 489
3 487 489 483
3 489 484 483
3 490 474 473
3 490 473 491
3 473 471 492
3 473 492 491
3 492 484 489
3 492 489 491
3 489 488 490
3 489 490 491
3 469 335 331
3 469 331 493
3 331 485 493
3 485 484 492
3 485 492 493
3 492 471 469
3 492 469 493
3 435 434 494
3 434 440 495
3 434 495 494
3 495 496 494
3 440 422 497
3 440 497 498
3 497 499 500
3 497 500 498
3 500 496 495
3 500 495 498
3 495 440 498
3 501 474 490
3 501 490 502
3 490 488 503
3 490 503 502
3 503 496 500
3 503 500 502
3 500 499 501
3 500 501 502
3 494 496 503
3 494 503 487
3 503 488 487
3 415 53 504
3 415 504 505
3 504 506 507
3 504 507 505
3 507 508 509
3 507 509 505
3 509 417 415
3 509 415 505
3 510 271 479
3 510 479 511
3 479 477 512
3 479 512 511
3 512 508 507
3 512 507 511
3 507 506 510
3 507 510 511
3 475 474 501
3 475 501 513
3 501 499 514
3 501 514 513
3 514 508 512
3 514 512 513
3 512 477 475
3 512 475 513
3 497 422 421
3 497 421 515
3 421 417 509
3 421 509 515
3 509 508 514
3 509 514 515
3 514 499 497
3 514 497 515
3 325 516 517
3 325 517 326
3 516 518 519
3 516 519 517
3 520 518 516
3 521 522 523
3 522 524 523
3 517 519 525
3 517 525 521
3 525 522 521
3 524 330 523
3 330 334 523
3 334 521 523
3 326 517 521
3 326 521 334
3 371 526 372
3 527 528 371
3 528 526 371
3 529 530 379
3 526 529 379
3 372 526 379
3 531 532 533
3 534 533 390
3 533 532 390
3 532 384 387
3 390 532 387
3 379 535 389
3 535 390 389
3 379 530 535
3 535 534 390
3 435 536 436
3 536 537 436
3 438 436 538
3 438 538 441
3 538 539 441
3 540 436 537
3 541 539 538
3 541 538 540
3 538 436 540
3 450 541 542
3 541 450 539
3 450 542 445
3 441 539 449
3 539 450 449
3 481 330 524
3 524 482 481
3 543 544 486
3 482 545 543
3 486 483 543
3 483 482 543
3 524 546 482
3 546 545 482
3 486 544 547
3 548 486 547
3 494 548 435
3 486 548 494
3 494 487 486
3 549 536 435
3 548 549 435
3 550 546 522
3 551 550 525
3 550 522 525
3 546 524 522
3 518 525 519
3 518 552 553
3 551 525 518
3 553 551 518
3 554 531 533
3 555 556 557
3 556 533 557
3 530 557 535
3 557 534 535
3 557 530 555
3 533 534 557
3 528 527 558
3 559 526 528
3 558 559 528
3 555 530 529
3 559 555 529
3 529 526 559
3 555 559 560
3 558 560 559
3 445 542 561
3 562 563 564
3 564 565 562
3 566 564 561
3 561 542 566
3 566 565 564
3 558 567 568
3 568 567 565
3 567 527 371
3 565 567 569
3 565 569 562
3 558 527 567
3 570 457 456
3 570 456 571
3 456 462 572
3 456 572 571
3 572 573 574
3 572 574 571
3 574 575 570
3 574 570 571
3 451 576 577
3 576 578 577
3 578 573 572
3 578 572 577
3 572 462 451
3 572 451 577
3 579 580 581
3 580 582 583
3 580 583 581
3 583 573 578
3 583 578 581
3 578 579 581
3 584 585 586
3 584 586 587
3 586 575 574
3 586 574 587
3 574 573 583
3 574 583 587
3 583 582 584
3 583 584 587
3 445 561 588
3 561 564 563
3 561 563 588
3 563 589 588
3 588 446 445
3 562 590 591
3 562 591 563
3 591 589 563
3 590 580 579
3 590 579 591
3 579 578 589
3 579 589 591
3 576 451 446
3 446 588 576
3 588 589 576
3 589 578 576
3 567 371 370
3 567 370 569
3 370 375 592
3 370 592 569
3 592 593 569
3 375 357 594
3 375 594 595
3 594 596 593
3 594 593 595
3 593 592 595
3 592 375 595
3 597 580 590
3 597 590 598
3 593 596 597
3 593 597 598
3 569 593 598
3 569 598 562
3 598 590 562
3 350 245 599
3 350 599 600
3 599 601 600
3 601 602 603
3 601 603 600
3 603 352 350
3 603 350 600
3 604 585 584
3 584 582 605
3 584 605 604
3 605 602 601
3 605 601 604
3 580 597 605
3 597 596 606
3 597 606 605
3 606 602 605
3 605 582 580
3 594 357 356
3 594 356 607
3 356 352 603
3 356 603 607
3 603 602 606
3 603 606 607
3 606 596 594
3 606 594 607
3 608 457 570
3 608 570 609
3 570 575 610
3 570 610 609
3 610 611 612
3 610 612 609
3 612 613 608
3 612 608 609
3 586 585 614
3 586 614 615
3 614 616 617
3 614 617 615
3 617 611 610
3 617 610 615
3 610 575 586
3 610 586 615
3 618 619 620
3 618 620 621
3 620 622 623
3 620 623 621
3 623 611 617
3 623 617 621
3 617 616 618
3 617 618 621
3 624 625 626
3 624 626 627
3 626 613 612
3 626 612 627
3 612 611 623
3 612 623 627
3 623 622 624
3 623 624 627
3 226 628 629
3 628 630 631
3 628 631 629
3 631 632 633
3 631 633 629
3 633 228 226
3 633 226 629
3 634 635 636
3 634 636 637
3 636 638 639
3 636 639 637
3 639 632 631
3 639 631 637
3 631 630 634
3 631 634 637
3 640 619 641
3 640 641 642
3 641 643 644
3 641 644 642
3 644 632 639
3 644 639 642
3 639 638 640
3 639 640 642
3 645 234 233
3 645 233 646
3 233 228 633
3 233 633 646
3 633 632 644
3 633 644 646
3 644 643 645
3 644 645 646
3 74 73 647
3 74 647 648
3 647 649 650
3 647 650 648
3 650 651 652
3 650 652 648
3 652 76 74
3 652 74 648
3 653 635 654
3 653 654 655
3 654 656 657
3 654 657 655
3 657 651 650
3 657 650 655
3 650 649 653
3 650 653 655
3 658 659 660
3 658 660 661
3 660 662 663
3 660 663 661
3 663 651 657
3 663 657 661
3 657 656 658
3 657 658 661
3 82 81 664
3 81 76 652
3 81 652 664
3 652 651 663
3 652 663 664
3 663 662 82
3 663 82 664
3 628 226 225
3 628 225 665
3 225 232 666
3 225 666 665
3 666 667 668
3 666 668 665
3 668 630 628
3 668 628 665
3 242 210 669
3 242 669 670
3 669 671 672
3 669 672 670
3 672 667 666
3 672 666 670
3 666 232 242
3 666 242 670
3 673 659 658
3 673 658 674
3 658 656 675
3 658 675 674
3 675 667 672
3 675 672 674
3 672 671 673
3 672 673 674
3 654 635 634
3 654 634 676
3 634 630 668
3 634 668 676
3 668 667 675
3 668 675 676
3 675 656 654
3 675 654 676
3 202 201 677
3 202 677 678
3 677 679 680
3 677 680 678
3 680 681 682
3 680 682 678
3 682 204 202
3 682 202 678
3 683 684 685
3 683 685 686
3 685 687 688
3 685 688 686
3 688 681 680
3 688 680 686
3 680 679 683
3 680 683 686
3 689 659 673
3 689 673 690
3 673 671 691
3 673 691 690
3 691 681 688
3 691 688 690
3 688 687 689
3 688 689 690
3 669 210 209
3 669 209 692
3 209 204 682
3 209 682 692
3 682 681 691
3 682 691 692
3 691 671 669
3 691 669 692
3 693 97 96
3 693 96 694
3 96 104 695
3 96 695 694
3 695 696 697
3 695 697 694
3 697 698 693
3 697 693 694
3 114 82 699
3 82 662 700
3 82 700 699
3 700 696 695
3 700 695 699
3 695 104 114
3 695 114 699
3 660 659 689
3 660 689 701
3 689 687 702
3 689 702 701
3 702 696 700
3 702 700 701
3 700 662 660
3 700 660 701
3 685 684 703
3 685 703 704
3 703 698 697
3 703 697 704
3 697 696 702
3 697 702 704
3 702 687 685
3 702 685 704
3 148 97 693
3 148 693 705
3 693 698 706
3 693 706 705
3 706 707 708
3 706 708 705
3 708 150 148
3 708 148 705
3 703 684 709
3 703 709 710
3 709 711 712
3 709 712 710
3 712 707 706
3 712 706 710
3 706 698 703
3 706 703 710
3 713 714 715
3 713 715 716
3 715 717 716
3 717 707 712
3 717 712 716
3 712 711 713
3 712 713 716
3 718 155 154
3 718 154 719
3 154 150 708
3 154 708 719
3 708 707 717
3 708 717 719
3 717 718 719
3 677 201 720
3 201 208 721
3 201 721 720
3 721 722 723
3 721 723 720
3 723 679 677
3 723 677 720
3 223 222 724
3 223 724 725
3 724 726 727
3 724 727 725
3 727 722 721
3 727 721 725
3 721 208 223
3 721 223 725
3 728 714 713
3 728 713 729
3 713 711 730
3 713 730 729
3 730 722 727
3 730 727 729
3 727 726 728
3 727 728 729
3 709 684 683
3 709 683 731
3 683 679 723
3 683 723 731
3 723 722 730
3 723 730 731
3 730 711 709
3 730 709 731
3 732 400 733
3 732 733 734
3 733 735 736
3 733 736 734
3 736 737 738
3 736 738 734
3 738 739 732
3 738 732 734
3 740 741 742
3 740 742 743
3 742 744 743
3 744 737 736
3 744 736 743
3 736 735 740
3 736 740 743
3 745 714 728
3 745 728 746
3 728 726 747
3 728 747 746
3 747 737 744
3 747 744 746
3 744 745 746
3 724 222 748
3 724 748 749
3 748 739 738
3 748 738 749
3 738 737 747
3 738 747 749
3 747 726 724
3 747 724 749
3 310 309 750
3 751 312 750
3 312 310 750
3 752 741 753
3 752 753 754
3 751 752 754
3 755 756 754
3 756 757 754
3 757 751 754
3 754 753 755
3 312 751 757
3 312 757 314
3 757 315 314
3 733 400 399
3 733 399 758
3 399 407 759
3 399 759 758
3 759 760 761
3 759 761 758
3 761 735 733
3 761 733 758
3 413 391 762
3 413 762 763
3 762 764 763
3 764 760 759
3 764 759 763
3 759 407 413
3 759 413 763
3 755 753 765
3 755 765 766
3 765 760 764
3 765 764 766
3 753 741 740
3 753 740 767
3 740 735 761
3 740 761 767
3 761 760 765
3 761 765 767
3 765 753 767
3 768 769 770
3 768 770 384
3 770 385 384
3 768 771 772
3 772 773 774
3 772 774 768
3 774 769 768
3 773 755 766
3 773 766 774
3 766 764 769
3 766 769 774
3 762 391 385
3 762 385 770
3 769 764 762
3 769 762 770
3 324 772 325
3 329 315 775
3 315 757 775
3 324 329 775
3 756 755 773
3 756 773 776
3 776 324 775
3 775 757 756
3 775 756 776
3 324 776 772
3 776 773 772
3 772 520 325
3 520 516 325
3 771 520 772
3 532 777 768
3 768 384 532
3 777 771 768
3 778 552 771
3 778 771 777
3 531 778 777
3 531 777 532
3 552 518 520
3 552 520 771
3 779 780 552
3 781 778 531
3 779 778 781
3 778 779 552
3 2 782 783
3 2 783 0
3 783 6 0
3 784 6 783
3 785 4 3
3 785 3 784
3 3 6 784
3 786 787 788
3 787 789 790
3 787 790 788
3 790 791 792
3 790 792 788
3 791 785 784
3 791 784 792
3 783 782 786
3 782 793 786
3 786 788 792
3 792 784 783
3 792 783 786
3 794 789 795
3 794 795 796
3 797 794 796
3 797 796 798
3 791 794 797
3 797 785 791
3 789 794 790
3 794 791 790
3 797 13 16
3 797 16 785
3 16 4 785
3 798 10 9
3 9 13 797
3 797 798 9
3 799 800 801
3 801 802 803
3 803 799 801
3 804 803 805
3 803 802 805
3 806 17 20
3 20 807 806
3 808 809 807
3 807 20 14
3 807 14 808
3 809 804 805
3 809 805 807
3 805 802 807
3 801 800 806
3 806 807 802
3 802 801 806
3 810 811 812
3 811 11 10
3 811 10 812
3 810 813 814
3 810 814 815
3 809 810 815
3 815 804 809
3 808 14 11
3 808 11 811
3 811 810 809
3 809 808 811
3 804 815 814
3 816 817 818
3 818 819 816
3 819 820 816
3 813 821 822
3 10 823 812
3 823 821 812
3 821 810 812
3 798 824 823
3 824 825 823
3 825 821 823
3 823 10 798
3 825 826 822
3 822 821 825
3 821 813 810
3 796 795 827
3 827 828 824
3 824 796 827
3 817 816 827
3 816 820 828
3 816 828 827
3 820 826 825
3 820 825 828
3 798 796 824
3 828 825 824
3 829 830 554
3 830 831 554
3 832 833 834
3 832 834 829
3 829 835 830
3 818 817 836
3 837 838 839
3 837 839 836
3 839 818 836
3 834 833 840
3 834 840 841
3 840 838 837
3 840 837 841
3 836 827 795
3 842 843 789
3 843 795 789
3 834 841 843
3 841 837 843
3 837 795 843
3 843 842 834
3 817 827 836
3 836 795 837
3 786 844 845
3 845 787 786
3 830 835 845
3 845 844 830
3 829 834 846
3 834 842 846
3 846 845 835
3 835 829 846
3 842 789 787
3 845 846 787
3 846 842 787
3 847 848 849
3 850 847 849
3 849 851 850
3 831 830 852
3 779 852 847
3 844 786 793
3 793 853 844
3 793 782 853
3 852 853 847
3 853 848 847
3 852 830 844
3 844 853 852
3 854 855 856
3 855 782 2
3 855 2 856
3 857 858 849
3 848 854 857
3 857 849 848
3 853 782 855
3 855 854 848
3 848 853 855
3 859 551 860
3 860 861 859
3 862 859 861
3 851 849 858
3 858 863 860
3 860 851 858
3 2 1 856
3 864 854 856
3 856 1 864
3 858 865 863
3 865 854 864
3 865 864 863
3 858 857 865
3 857 854 865
3 23 25 866
3 861 23 866
3 863 864 23
3 863 23 860
3 23 861 860
3 864 1 23
3 867 868 869
3 867 869 870
3 869 871 872
3 869 872 870
3 873 800 799
3 799 874 873
3 874 868 867
3 874 867 873
3 862 861 875
3 875 876 877
3 877 862 875
3 872 871 878
3 872 878 879
3 878 877 879
3 877 876 879
3 866 25 880
3 25 27 880
3 27 21 881
3 881 882 27
3 882 880 27
3 872 879 882
3 879 876 882
3 876 880 882
3 882 881 872
3 875 861 880
3 861 866 880
3 876 875 880
3 806 873 17
3 867 17 873
3 873 806 800
3 870 872 883
3 872 881 883
3 883 17 867
3 867 870 883
3 881 21 18
3 17 883 18
3 883 881 18
3 884 536 549
3 549 548 885
3 885 548 547
3 544 885 547
3 885 884 549
3 886 545 546
3 545 886 543
3 886 544 543
3 887 544 886
3 888 887 886
3 888 886 546
3 889 884 885
3 890 889 885
3 887 890 544
3 890 885 544
3 537 536 884
3 884 540 537
3 891 541 540
3 891 540 892
3 889 892 884
3 892 540 884
3 541 893 542
3 893 894 542
3 541 891 893
3 568 565 895
3 895 565 566
3 895 566 896
3 566 542 894
3 894 896 566
3 558 568 897
3 897 568 895
3 799 803 892
3 892 889 799
3 803 804 891
3 891 892 803
3 814 813 894
3 894 893 814
3 804 814 893
3 893 891 804
3 799 889 874
3 889 890 874
3 890 868 874
3 890 887 869
3 887 871 869
3 869 868 890
3 888 546 862
3 888 877 887
3 862 877 888
3 887 877 878
3 878 871 887
3 862 550 859
3 551 859 550
3 862 546 550
3 851 860 551
3 551 553 851
3 850 851 553
3 780 850 553
3 779 847 850
3 780 779 850
3 552 780 553
3 781 531 831
3 781 831 852
3 781 852 779
3 556 829 554
3 556 555 832
3 555 833 832
3 832 829 556
3 831 531 554
3 554 533 556
3 560 558 818
3 555 560 840
3 560 838 840
3 840 833 555
3 560 818 839
3 839 838 560
3 818 897 819
3 897 820 819
3 826 820 897
3 897 895 826
3 818 558 897
3 813 822 896
3 896 894 813
3 822 826 895
3 895 896 822
3 458 457 898
3 458 898 899
3 900 459 458
3 900 458 899
3 901 900 899
3 899 898 902
3 899 902 901
3 903 904 905
3 904 900 901
3 904 901 905
3 903 62 463
3 903 463 904
3 463 459 900
3 463 900 904
3 626 625 906
3 626 906 907
3 907 908 909
3 909 613 626
3 909 626 907
3 910 911 907
3 911 908 907
3 907 906 910
3 902 898 908
3 911 902 908
3 898 457 608
3 898 608 908
3 608 613 909
3 608 909 908
3 912 43 913
3 912 913 914
3 915 912 914
3 914 916 917
3 918 915 914
3 918 914 917
3 910 906 919
3 910 919 918
3 919 915 918
3 906 625 919
3 63 62 903
3 63 903 920
3 903 921 920
3 921 922 920
3 922 65 63
3 922 63 920
3 903 905 923
3 903 923 921
3 916 914 924
3 921 923 916
3 921 916 924
3 913 43 67
3 913 67 925
3 67 65 922
3 67 922 925
3 922 921 924
3 922 924 925
3 924 914 913
3 924 913 925
3 401 400 926
3 401 926 927
3 926 928 927
3 927 929 403
3 403 401 927
3 928 930 929
3 927 928 929
3 931 932 933
3 934 254 408
3 403 929 931
3 403 931 408
3 931 933 934
3 931 934 408
3 748 222 935
3 748 935 936
3 935 937 938
3 935 938 936
3 938 939 940
3 938 940 936
3 940 739 748
3 940 748 936
3 937 941 942
3 942 939 938
3 942 938 937
3 942 930 928
3 926 400 732
3 926 732 943
3 732 739 940
3 732 940 943
3 940 939 942
3 940 942 943
3 942 928 926
3 942 926 943
3 217 216 944
3 217 944 945
3 944 946 947
3 944 947 945
3 947 948 949
3 947 949 945
3 949 219 217
3 949 217 945
3 935 222 221
3 935 221 950
3 221 219 949
3 221 949 950
3 949 948 950
3 948 937 935
3 948 935 950
3 255 254 934
3 255 934 951
3 934 933 951
3 933 952 953
3 933 953 951
3 953 257 255
3 953 255 951
3 954 952 933
3 944 216 259
3 944 259 955
3 259 257 953
3 259 953 955
3 953 952 954
3 953 954 955
3 954 946 944
3 954 944 955
3 504 53 956
3 956 957 958
3 956 958 504
3 958 959 960
3 958 960 504
3 960 506 504
3 957 961 962
3 957 962 958
3 962 963 959
3 962 959 958
3 964 965 966
3 959 963 964
3 967 271 510
3 510 506 960
3 960 959 964
3 960 964 510
3 964 966 967
3 964 967 510
3 70 37 968
3 70 968 969
3 968 970 971
3 968 971 969
3 971 972 973
3 971 973 969
3 973 60 70
3 973 70 969
3 970 974 971
3 974 972 971
3 961 957 972
3 972 974 961
3 956 53 52
3 956 52 975
3 52 60 973
3 52 973 975
3 973 972 975
3 972 957 956
3 972 956 975
3 293 277 976
3 293 976 977
3 976 978 979
3 976 979 977
3 979 980 981
3 979 981 977
3 981 295 293
3 981 293 977
3 970 982 980
3 968 37 297
3 968 297 983
3 297 295 981
3 297 981 983
3 981 980 982
3 981 982 983
3 982 970 968
3 982 968 983
3 272 271 967
3 272 967 984
3 967 966 985
3 967 985 984
3 985 986 984
3 986 274 272
3 986 272 984
3 966 965 987
3 966 987 985
3 987 988 985
3 989 978 988
3 976 277 276
3 976 276 990
3 276 274 986
3 276 986 990
3 986 985 988
3 986 988 990
3 988 978 976
3 988 976 990
3 599 245 991
3 599 991 992
3 991 993 992
3 994 601 599
3 994 599 992
3 993 995 992
3 995 996 994
3 995 994 992
3 996 997 998
3 994 996 998
3 999 585 604
3 999 604 998
3 604 601 994
3 604 994 998
3 262 234 1000
3 262 1000 1001
3 1000 1002 1003
3 1000 1003 1001
3 1003 1004 1005
3 1003 1005 1001
3 1005 252 262
3 1005 262 1001
3 1002 1006 1007
3 1002 1007 1003
3 1007 1004 1003
3 1008 995 993
3 1008 993 1009
3 1004 1007 1008
3 1004 1008 1009
3 991 245 244
3 991 244 1010
3 244 252 1005
3 244 1005 1010
3 1005 1004 1009
3 1005 1009 1010
3 1009 993 991
3 1009 991 1010
3 641 619 1011
3 641 1011 1012
3 1011 1013 1014
3 1011 1014 1012
3 1014 1015 1012
3 1015 643 641
3 1015 641 1012
3 1013 1016 1017
3 1013 1017 1014
3 1006 1002 1018
3 1014 1017 1006
3 1014 1006 1018
3 1000 234 645
3 1000 645 1019
3 645 643 1015
3 645 1015 1019
3 1015 1014 1018
3 1015 1018 1019
3 1018 1002 1000
3 1018 1000 1019
3 614 585 999
3 614 999 1020
3 999 998 1021
3 999 1021 1020
3 1021 1022 1020
3 1022 616 614
3 1022 614 1020
3 998 997 1021
3 997 1023 1021
3 1016 1013 1024
3 1021 1023 1016
3 1021 1016 1024
3 1011 619 618
3 1011 618 1025
3 618 616 1022
3 618 1022 1025
3 1022 1021 1024
3 1022 1024 1025
3 1024 1013 1011
3 1024 1011 1025
3 1026 929 930
3 932 931 1026
3 931 929 1026
3 937 1027 941
3 930 942 1028
3 942 941 1028
3 947 946 1029
3 947 1029 1030
3 1031 948 947
3 1031 947 1030
3 1027 937 948
3 948 1031 1027
3 1032 954 933
3 1032 933 932
3 1029 946 954
3 1029 954 1033
3 954 1032 1033
3 961 1034 962
3 964 963 965
3 974 970 1035
3 974 1036 961
3 1036 1034 961
3 979 978 989
3 979 989 1037
3 1037 980 979
3 1035 970 980
3 1035 980 1038
3 980 1037 1038
3 1039 988 987
3 989 988 1039
3 1040 996 995
3 1041 309 1042
3 1042 1043 1041
3 1043 1044 1041
3 1044 1045 1041
3 1042 1046 1043
3 1047 155 1048
3 1047 1048 1049
3 1048 1045 1044
3 1048 1044 1049
3 1049 1050 1047
3 322 187 1051
3 1052 313 322
3 322 1053 1052
3 1054 1046 1042
3 1052 1053 1054
3 1042 309 308
3 308 313 1052
3 1052 1054 308
3 1054 1042 308
3 183 160 1055
3 1056 185 183
3 1051 187 186
3 186 185 1056
3 1056 1057 186
3 1057 1051 186
3 156 155 1047
3 1047 1050 1058
3 1047 1058 156
3 1058 1059 156
3 1059 158 156
3 1055 160 159
3 159 158 1059
3 1059 1060 159
3 1060 1055 159
3 750 309 1061
3 1061 1062 1063
3 1061 1063 750
3 1063 1064 750
3 1064 751 750
3 1065 741 752
3 752 751 1064
3 1048 155 1066
3 1048 1066 1067
3 1066 1068 1067
3 1045 1048 1067
3 1061 309 1041
3 1061 1041 1069
3 1041 1045 1069
3 1069 1062 1061
3 715 714 1070
3 1070 1071 715
3 1071 1072 715
3 1072 717 715
3 1066 155 718
3 718 717 1072
3 1072 1073 718
3 1073 1068 1066
3 1073 1066 718
3 742 741 1065
3 1065 1074 742
3 1074 1075 742
3 1075 744 742
3 1070 714 745
3 745 744 1075
3 1063 1076 1064
3 1077 1078 1063
3 1078 1076 1063
3 1063 1062 1077
3 1079 1080 752
3 1076 1079 752
3 1064 1076 752
3 752 1080 1065
3 1065 1080 1074
3 1074 1081 1075
3 1080 1082 1074
3 1082 1081 1074
3 1070 745 1083
3 745 1075 1083
3 1075 1081 1083
3 1083 1084 1070
3 1070 1084 1071
3 1072 1071 1085
3 1071 1084 1085
3 1086 1087 1068
3 1086 1068 1073
3 1072 1086 1073
3 1067 1068 1088
3 1088 1089 1045
3 1045 1067 1088
3 1068 1087 1088
3 1090 1077 1069
3 1077 1062 1069
3 1089 1090 1069
3 1045 1089 1069
3 1043 1091 1044
3 1091 1043 1092
3 1043 1046 1092
3 1050 1049 1093
3 1049 1044 1093
3 1044 1091 1093
3 1093 1094 1050
3 1050 1094 1058
3 1095 1096 1059
3 1059 1058 1095
3 1058 1094 1095
3 1097 1060 1098
3 1060 1059 1098
3 1059 1096 1098
3 1060 1097 1055
3 1055 1097 1099
3 1055 1099 183
3 1099 1056 183
3 1099 1100 1056
3 1101 1102 1051
3 1056 1100 1101
3 1051 1057 1101
3 1057 1056 1101
3 322 1051 1103
3 1053 322 1103
3 1051 1102 1103
3 1046 1054 1104
3 1054 1053 1104
3 94 49 1105
3 94 1105 1106
3 1105 1107 1108
3 1105 1108 1106
3 1108 1109 1110
3 1108 1110 1106
3 1110 80 94
3 1110 94 1106
3 1111 1109 1108
3 1108 1107 1112
3 1108 1112 1111
3 1113 1114 1115
3 1115 1109 1111
3 1115 1111 1113
3 1116 73 72
3 1116 72 1117
3 72 80 1110
3 72 1110 1117
3 1110 1109 1115
3 1110 1115 1117
3 1115 1114 1116
3 1115 1116 1117
3 44 43 1118
3 44 1118 1119
3 1118 1120 1119
3 1120 1121 1122
3 1120 1122 1119
3 1122 46 44
3 1122 44 1119
3 1123 1121 1120
3 1123 1120 1124
3 1112 1107 1121
3 1112 1121 1125
3 1121 1123 1125
3 1105 49 48
3 1105 48 1126
3 48 46 1122
3 48 1122 1126
3 1122 1121 1126
3 1121 1107 1105
3 1121 1105 1126
3 919 625 1127
3 1128 915 919
3 1128 919 1129
3 919 1127 1129
3 1124 1120 1130
3 1124 1130 1128
3 1118 43 912
3 912 915 1128
3 1128 1130 912
3 1130 1120 1118
3 1130 1118 912
3 647 73 1116
3 647 1116 1131
3 1116 1114 1132
3 1116 1132 1131
3 1132 1133 1134
3 1132 1134 1131
3 1134 649 647
3 1134 647 1131
3 1135 1133 1132
3 1132 1114 1113
3 1136 1137 1138
3 1136 1138 1135
3 1138 1133 1135
3 1139 635 653
3 1139 653 1140
3 653 649 1134
3 653 1134 1140
3 1134 1133 1138
3 1134 1138 1140
3 1138 1137 1139
3 1138 1139 1140
3 620 619 1141
3 620 1141 1142
3 1141 1143 1144
3 1141 1144 1142
3 1144 1145 1142
3 1145 622 620
3 1145 620 1142
3 1146 1145 1144
3 1144 1143 1147
3 1144 1147 1146
3 1148 1145 1146
3 1127 625 624
3 624 622 1145
3 1145 1148 624
3 1148 1127 624
3 636 635 1139
3 636 1139 1149
3 1139 1137 1150
3 1139 1150 1149
3 1150 1151 1152
3 1150 1152 1149
3 1152 638 636
3 1152 636 1149
3 1153 1151 1150
3 1153 1150 1154
3 1150 1137 1136
3 1150 1136 1154
3 1147 1143 1151
3 1151 1153 1147
3 1141 619 640
3 1141 640 1155
3 640 638 1152
3 640 1152 1155
3 1152 1151 1155
3 1151 1143 1141
3 1151 1141 1155
3 1146 1147 1156
3 1156 1157 1146
3 1157 1148 1146
3 1158 1124 1128
3 1129 1158 1128
3 1158 1159 1124
3 1159 1160 1124
3 1160 1123 1124
3 1161 1112 1125
3 1125 1123 1160
3 1160 1162 1125
3 1162 1161 1125
3 1111 1112 1161
3 1161 1163 1111
3 1113 1111 1163
3 1163 1164 1113
3 1132 1113 1164
3 1164 1165 1132
3 1165 1135 1132
3 1166 1136 1135
3 1165 1166 1135
3 1154 1136 1166
3 1166 1167 1154
3 1167 1153 1154
3 1147 1153 1167
3 1167 1168 1147
3 1168 1156 1147
3 1169 1072 1085
3 1086 1072 1169
