OFF
1698 3328 0
0.261328 -3.90778 8.43798
0.946328 -3.51298 8.35158
0.707328 -3.16878 8.43648
0.347328 -2.75508 8.51728
-0.0196724 -3.26778 8.52508
0.135328 -2.11948 8.55938
-0.279672 -2.73378 8.57358
0.780328 -2.57528 8.45948
-0.243672 -1.96278 8.58968
-0.642672 -1.79588 8.60878
-1.07867 -2.22018 8.61498
-0.610672 -3.55088 8.54678
0.187328 0.195416 8.45008
-0.567672 0.317216 8.50678
-0.358672 -0.198184 8.53718
0.143328 -0.329984 8.50588
0.307328 -0.796784 8.51728
0.662328 -0.437784 8.44028
-0.670672 0.881116 8.42738
-1.26167 0.611216 8.47908
-0.392672 -1.26708 8.59238
-0.00867241 -1.27168 8.56848
-0.164672 -0.765984 8.56158
-0.810672 -0.731384 8.59138
-1.06067 -0.288484 8.56908
-2.33467 -0.0985842 8.47788
-2.64067 -0.640284 8.47928
-2.08767 -0.656784 8.54398
-1.94067 0.776616 8.41618
-2.73867 0.234316 8.38558
-2.68767 -1.30548 8.50068
-2.68067 -2.16758 8.50378
-2.15867 -2.12448 8.56538
-2.22567 -1.15748 8.55268
-1.17167 -1.29138 8.61298
-1.72067 -1.81788 8.59858
-1.46467 -0.762384 8.58598
-1.83567 -0.310884 8.54128
-1.57367 0.190416 8.51708
-2.41067 -3.52858 8.46288
-2.97567 -3.58998 8.35088
-2.09767 -4.07268 8.44378
-1.66267 -3.50738 8.53888
-2.49967 -2.96248 8.49778
-2.75867 -3.17058 8.44028
-1.48567 -3.94388 8.50418
-1.70367 -2.34118 8.59238
-2.03967 -2.99318 8.54398
-2.30767 -2.66058 8.53688
1.02733 2.11612 -1.23222
1.11933 1.78892 -1.48442
0.716328 1.96752 -1.65762
0.723328 2.27632 -1.32862
0.754328 2.54572 -0.963024
0.407328 2.70232 -1.03962
0.441328 2.95622 -0.628424
0.802328 2.78262 -0.567124
-0.352672 2.60362 -1.56672
-0.348672 2.24912 -1.93852
-0.737672 2.29122 -1.98492
-0.743672 2.65102 -1.60782
-0.743672 2.96842 -1.19272
-1.14567 2.98112 -1.20492
-1.14867 3.26232 -0.752724
-0.738672 3.24842 -0.745524
-0.334672 3.19132 -0.720524
-0.314672 3.43412 -0.259924
0.0913276 3.32792 -0.234824
0.0603276 3.09322 -0.680524
0.0383276 2.82662 -1.10602
0.387328 2.41322 -1.42312
0.0273276 2.52332 -1.50382
-0.687672 3.91362 0.728476
-1.12767 3.93362 0.766176
-1.10367 4.11962 1.32418
-0.606672 4.16562 1.47638
-0.205672 4.00102 1.15458
0.357328 4.10032 1.81948
0.171328 3.71712 0.677176
0.615328 3.63362 0.896676
0.535328 3.37972 0.246376
0.127328 3.53572 0.223376
-0.289672 3.64932 0.216276
-0.728672 3.49612 -0.272224
-0.713672 3.71652 0.221276
1.42633 3.20562 0.999676
1.50333 3.52812 1.78748
1.92133 3.20022 1.77418
1.86733 3.01252 1.32668
1.70633 2.75032 0.609176
2.23133 2.66252 1.39398
1.96533 2.32612 0.396476
1.30533 2.94892 0.337276
1.17133 2.64172 -0.362024
0.893328 3.05832 7.64039e-05
0.996328 3.36032 0.725276
1.07733 3.59052 1.33598
-3.28267 2.02762 -1.23222
-3.35367 1.70022 -1.48912
-3.58467 1.96132 -0.951924
-3.80067 1.66972 -0.973124
-4.02967 1.93932 -0.279124
-3.71067 2.19862 -0.456824
-3.41167 2.46862 -0.496924
-3.49467 2.65042 -0.0689236
-3.14667 2.89712 -0.109524
-3.08267 2.69712 -0.551924
-3.02667 2.46672 -0.959224
-2.68767 2.63772 -1.03532
-2.65667 2.35072 -1.42312
-2.98667 2.20012 -1.32862
-4.02467 2.64502 0.899976
-4.34317 2.28162 0.888176
-4.47657 2.39562 1.40268
-4.13267 2.76832 1.42278
-3.74267 3.08252 1.40678
-3.79867 3.19352 1.94208
-3.38167 3.45582 1.92468
-3.33667 3.35062 1.38828
-3.27967 3.22292 0.866576
-2.87267 3.44822 0.842176
-2.82467 3.28952 0.331876
-3.21467 3.07202 0.365276
-3.58167 2.81292 0.394476
-3.81267 2.36032 -0.0412236
-3.91767 2.50902 0.411576
-2.03467 3.93572 1.35068
-2.06267 4.05262 1.90738
-1.59267 4.19452 1.92158
-1.57067 4.05912 1.34978
-1.57267 3.88722 0.788376
-1.14167 3.73292 0.234776
-1.57167 3.69432 0.252876
-1.99767 3.60482 0.275276
-1.97967 3.39522 -0.230424
-2.38467 3.26972 -0.195624
-2.41767 3.46852 0.301776
-2.44967 3.63702 0.821576
-2.91667 3.57922 1.37098
-2.48267 3.77502 1.35808
-1.54667 2.95172 -1.19112
-1.13967 2.66242 -1.62282
-1.53567 2.63472 -1.60782
-1.92467 2.57132 -1.56672
-1.91367 2.21702 -1.93852
-2.28667 2.13112 -1.86612
-2.30067 2.47552 -1.50382
-2.32367 2.77742 -1.10212
-2.72867 2.88692 -0.611324
-2.35267 3.04072 -0.664824
-1.96067 3.15612 -0.708724
-1.56567 3.47672 -0.256424
-1.55667 3.23072 -0.739224
-4.17267 3.11112 5.09638
-4.51427 2.89852 5.09118
-4.57357 2.70662 5.56578
-4.19467 2.99862 5.56398
-3.80567 3.27672 5.56128
-3.79567 3.19572 5.97868
-3.37067 3.43162 6.15188
-3.39967 3.52692 5.55668
-3.40967 3.58282 5.09988
-2.99667 3.79692 5.09748
-3.00967 3.83142 4.60698
-3.41467 3.62422 4.60908
-3.80167 3.40512 4.61088
-3.80267 3.42922 4.09768
-4.15967 3.21082 4.10448
-2.10967 4.10742 5.56038
-2.02167 4.02162 6.19718
-1.59567 4.17792 5.98878
-1.66867 4.24302 5.56228
-1.75167 4.29062 5.09508
-1.20567 4.44492 5.08948
-1.44967 4.43612 4.59708
-1.80367 4.32302 4.60718
-2.19067 4.18302 4.60978
-2.20467 4.19902 4.09498
-2.60667 4.03412 4.09138
-2.59667 4.01842 4.60848
-2.57567 3.98712 5.09958
-2.97967 3.74902 5.55388
-2.54767 3.94262 5.55628
-1.75267 4.32262 3.04298
-1.21067 4.48912 3.11128
-1.26367 4.39792 2.56298
-1.66767 4.27792 2.48798
-2.10967 4.13102 2.46528
-2.51567 3.88232 1.90558
-2.54967 3.95872 2.45838
-2.57867 4.00732 3.01068
-3.00267 3.81422 3.01168
-3.01367 3.84282 3.55678
-2.59867 4.03142 3.55688
-2.19167 4.19872 3.56358
-1.82067 4.34012 4.10128
-1.80367 4.34162 3.58028
-3.81867 3.29322 2.48558
-4.20667 2.89032 1.96538
-4.21367 3.02222 2.51298
-4.18967 3.13402 3.05658
-4.53947 2.92922 3.10098
-4.51707 2.97272 3.60948
-3.88167 3.37612 3.57918
-3.41767 3.64412 4.09288
-3.42067 3.63552 3.55998
-3.41867 3.60002 3.01678
-2.98267 3.76142 2.46158
-3.40667 3.53962 2.46958
1.03933 1.51472 -1.78922
1.35833 1.19912 -1.73582
1.58633 1.19492 -1.48682
1.73533 0.680016 -1.65762
1.46533 0.692616 -1.94332
1.16333 0.730316 -2.18792
1.23533 0.280416 -2.33972
0.890328 0.316216 -2.56192
0.832328 0.782516 -2.39342
0.778328 1.21612 -2.18792
0.434328 1.29122 -2.33972
0.402328 1.70772 -2.07652
0.737328 1.61262 -1.94332
1.68933 -0.711484 -2.26682
1.99433 -0.710584 -1.93852
2.04333 -1.22088 -1.98492
1.73333 -1.22468 -2.31812
1.39333 -1.22528 -2.60722
1.41533 -1.75358 -2.62652
1.04533 -1.76118 -2.87252
1.02533 -1.22388 -2.85222
0.990328 -0.693884 -2.79282
0.604328 -0.680784 -2.99042
0.566328 -0.152884 -2.88722
0.944328 -0.178284 -2.69552
1.29933 -0.200584 -2.46162
1.55233 0.255416 -2.07652
1.62833 -0.215384 -2.18532
-0.194672 -1.21958 -3.32102
-0.178672 -1.78628 -3.34322
-0.611672 -1.79518 -3.41062
-0.625672 -1.22208 -3.38822
-0.641672 -0.654884 -3.32102
-1.07167 -0.658684 -3.34322
-1.08367 -0.100884 -3.23102
-0.659672 -0.0996842 -3.20922
-0.240672 -0.110184 -3.14442
-0.267672 0.420616 -2.99042
0.134328 0.391916 -2.88722
0.169328 -0.129084 -3.03692
0.201328 -0.668384 -3.14442
0.635328 -1.22168 -3.05292
0.227328 -1.21988 -3.20922
-0.713672 1.43552 -2.60732
-1.11467 1.44162 -2.62652
-1.12467 1.89222 -2.33622
-0.727672 1.88412 -2.31812
-0.336672 1.84782 -2.26682
0.0273276 2.17862 -1.86612
0.0423276 1.78762 -2.18532
0.0673276 1.35582 -2.46162
0.476328 0.838816 -2.56192
0.0993276 0.888716 -2.69552
-0.293672 0.927816 -2.79272
-0.678672 0.437716 -3.05292
-0.696672 0.951416 -2.85222
1.17333 -5.03448 -1.78922
1.26033 -5.30828 -1.48562
0.869328 -5.50028 -1.65762
0.876328 -5.14478 -1.94332
0.901328 -4.74688 -2.18792
0.560328 -4.83598 -2.33972
0.583328 -4.38228 -2.56192
0.936328 -4.31148 -2.39342
1.26533 -4.24568 -2.18792
1.31833 -3.79328 -2.33972
1.63433 -3.75528 -2.07652
1.56633 -4.19568 -1.94332
-0.187672 -5.42378 -2.26682
-0.183672 -5.82528 -1.93852
-0.569672 -5.88328 -1.98492
-0.576672 -5.47608 -2.31812
-0.580672 -5.02738 -2.60722
-0.981672 -5.04988 -2.62652
-0.991672 -4.56358 -2.87252
-0.583672 -4.54298 -2.85222
-0.182672 -4.50278 -2.79282
-0.176672 -3.99498 -2.99042
0.223328 -3.94988 -2.88722
0.208328 -4.44768 -2.69552
0.196328 -4.91568 -2.46162
0.545328 -5.25358 -2.07652
0.188328 -5.34808 -2.18532
-0.594672 -2.93568 -3.32102
-1.02467 -2.94958 -3.34322
-1.03667 -2.37988 -3.41062
-0.601672 -2.36838 -3.38822
-0.171672 -2.35318 -3.32102
0.244328 -1.77758 -3.23102
0.250328 -2.33558 -3.20922
0.246328 -2.88768 -3.14442
0.649328 -2.85868 -2.99042
0.632328 -3.38778 -2.88722
0.237328 -3.42778 -3.03692
-0.171672 -3.46348 -3.14442
-0.586672 -4.02898 -3.05292
-0.590672 -3.49118 -3.20922
1.41533 -2.28238 -2.60732
1.75733 -1.74658 -2.33622
1.75533 -2.26898 -2.31812
1.73233 -2.78348 -2.26682
2.03633 -2.77188 -1.93852
1.98733 -3.26698 -1.86612
1.69033 -3.28178 -2.18532
1.36333 -3.30998 -2.46162
0.975328 -3.84318 -2.56192
1.00933 -3.34688 -2.69552
1.03433 -2.82978 -2.79272
0.657328 -2.31698 -3.05292
1.04733 -2.29878 -2.85222
-3.13567 -5.12298 -1.78922
-3.20867 -5.40098 -1.48742
-3.45467 -4.80938 -1.73592
-3.68067 -4.80558 -1.48662
-3.83267 -4.28828 -1.65762
-3.56267 -4.30088 -1.94332
-3.25967 -4.33858 -2.18792
-3.33167 -3.88868 -2.33972
-2.98667 -3.92448 -2.56192
-2.92867 -4.39078 -2.39342
-2.87567 -4.82448 -2.18792
-2.53167 -4.89948 -2.33972
-2.49867 -5.31608 -2.07652
-2.83367 -5.22098 -1.94332
-3.78667 -2.89678 -2.26682
-4.09167 -2.89768 -1.93852
-4.13967 -2.38748 -1.98492
-3.83067 -2.38368 -2.31812
-3.48967 -2.38298 -2.60722
-3.51167 -1.85468 -2.62652
-3.14267 -1.84708 -2.87252
-3.12267 -2.38438 -2.85222
-3.08767 -2.91438 -2.79282
-2.70167 -2.92748 -2.99042
-2.66267 -3.45538 -2.88722
-3.04067 -3.43008 -2.69552
-3.39667 -3.40768 -2.46162
-3.64867 -3.86368 -2.07652
-3.72467 -3.39288 -2.18532
-1.90267 -2.38868 -3.32102
-1.91767 -1.82198 -3.34322
-1.48567 -1.81308 -3.41062
-1.47167 -2.38618 -3.38822
-1.45467 -2.95338 -3.32102
-1.01367 -3.50748 -3.23102
-1.43667 -3.50858 -3.20922
-1.85667 -3.49808 -3.14442
-1.82967 -4.02898 -2.99042
-2.23167 -4.00028 -2.88722
-2.26667 -3.47918 -3.03692
-2.29767 -2.93988 -3.14442
-2.73167 -2.38658 -3.05292
-2.32367 -2.38838 -3.20922
-1.38367 -5.04378 -2.60732
-0.972672 -5.50048 -2.33622
-1.36967 -5.49238 -2.31812
-1.75967 -5.45608 -2.26682
-1.74767 -5.85738 -1.93852
-2.12367 -5.78688 -1.86612
-2.13867 -5.39588 -2.18532
-2.16367 -4.96408 -2.46162
-2.57367 -4.44708 -2.56192
-2.19567 -4.49708 -2.69552
-1.80267 -4.53608 -2.79272
-1.41867 -4.04598 -3.05292
-1.39967 -4.55978 -2.85222
-3.59167 0.984216 -1.78922
-3.80367 1.08182 -1.48812
-3.35567 1.40082 -1.73652
-2.96667 1.89192 -1.65762
-2.97267 1.53652 -1.94332
-2.99767 1.13862 -2.18792
-2.65667 1.22772 -2.33972
-2.68067 0.774016 -2.56192
-3.03367 0.703216 -2.39342
-3.36267 0.637416 -2.18792
-3.41567 0.184916 -2.33972
-3.73067 0.147016 -2.07652
-3.66267 0.587416 -1.94332
-1.90967 1.81552 -2.26682
-1.52667 2.27502 -1.98492
-1.52067 1.86782 -2.31812
-1.51567 1.41912 -2.60722
-1.10467 0.955216 -2.87252
-1.51267 0.934716 -2.85222
-1.91467 0.894516 -2.79282
-1.91967 0.386716 -2.99042
-2.32067 0.341616 -2.88722
-2.30567 0.839416 -2.69552
-2.29267 1.30732 -2.46162
-2.64167 1.64532 -2.07652
-2.28567 1.73982 -2.18532
-1.50167 -0.672584 -3.32102
-1.06067 -1.22838 -3.41062
-1.49467 -1.23988 -3.38822
-1.92567 -1.25508 -3.32102
-2.34067 -1.83068 -3.23102
-2.34667 -1.27268 -3.20922
-2.34367 -0.720584 -3.14442
-2.74667 -0.749584 -2.99042
-2.72867 -0.220484 -2.88722
-2.33367 -0.180484 -3.03692
-1.92467 -0.144784 -3.14442
-1.50967 0.420716 -3.05292
-1.50667 -0.117084 -3.20922
-3.51167 -1.32588 -2.60732
-3.85367 -1.86168 -2.33622
-3.85167 -1.33928 -2.31812
-3.82867 -0.824784 -2.26682
-4.13367 -0.836384 -1.93852
-4.08467 -0.341384 -1.86612
-3.78767 -0.326484 -2.18532
-3.45967 -0.298284 -2.46162
-3.07267 0.234916 -2.56192
-3.10567 -0.261384 -2.69552
-3.13067 -0.778484 -2.79272
-2.75467 -1.29128 -3.05292
-3.14467 -1.30948 -2.85222
1.18633 -5.63588 -1.23222
1.49333 -5.56658 -0.949224
1.70433 -5.28328 -0.968424
1.91733 -5.57078 -0.273424
1.60633 -5.81388 -0.466524
1.30833 -6.08328 -0.513324
1.41733 -6.36918 0.0998764
1.05833 -6.57898 -0.0358236
0.981328 -6.31048 -0.574324
0.929328 -6.07628 -0.964824
0.589328 -6.24678 -1.04212
0.559328 -5.95898 -1.42312
0.889328 -5.80848 -1.32862
1.86433 -6.31618 0.810476
2.17733 -5.95198 0.866276
2.26333 -6.11118 1.36798
1.55333 -6.76788 1.10448
1.59233 -6.96528 1.51578
1.19033 -7.18148 1.42248
1.13933 -6.87618 0.664376
0.756328 -7.16078 0.789776
0.711328 -6.91298 0.195476
-0.0746724 -7.44948 0.708876
-0.0576724 -7.68238 1.25118
-0.492672 -7.73948 1.24528
-0.504672 -7.45358 0.501476
-0.931672 -7.56108 0.686076
-0.935672 -7.30998 0.0835764
-0.513672 -7.27798 0.0912764
-0.0966724 -7.20028 0.113276
-0.115672 -6.99718 -0.311424
0.284328 -6.87868 -0.272324
0.313328 -7.07828 0.148376
-0.549672 -6.55878 -1.19922
-0.950672 -6.58778 -1.21252
-0.956672 -6.27068 -1.62282
-0.560672 -6.24298 -1.60782
-0.171672 -6.17958 -1.56672
0.189328 -5.73938 -1.86612
0.203328 -6.08388 -1.50382
0.226328 -6.38568 -1.10982
0.628328 -6.49818 -0.638624
0.254328 -6.64928 -0.695524
-0.135672 -6.76178 -0.741124
-0.524672 -7.07268 -0.337224
-0.537672 -6.83408 -0.771524
-3.12367 -5.72438 -1.23222
-2.81267 -5.57578 -1.65762
-2.82067 -5.88458 -1.32862
-2.84867 -6.15378 -0.964824
-2.50267 -6.31028 -1.04212
-2.53167 -6.56308 -0.638624
-2.89167 -6.38998 -0.574324
-3.22767 -6.17638 -0.513324
-3.32767 -6.47168 0.112576
-3.65067 -6.15968 0.0861764
-3.53667 -5.91938 -0.466524
-1.74467 -6.21188 -1.56672
-1.35867 -5.89948 -1.98492
-1.35367 -6.25928 -1.60782
-1.35167 -6.57518 -1.19922
-0.944672 -6.86438 -0.782924
-1.35267 -6.85088 -0.771524
-1.75667 -6.79508 -0.741124
-1.76767 -7.03108 -0.311424
-2.17267 -6.92908 -0.272324
-2.15167 -6.69858 -0.695524
-2.13367 -6.43418 -1.10982
-2.48467 -6.02148 -1.42312
-2.12367 -6.13158 -1.50382
-1.79267 -7.48478 0.708876
-1.80167 -7.71818 1.25118
-2.23067 -7.59338 1.29018
-2.21167 -7.30368 0.553176
-2.63367 -7.23038 0.789776
-2.59767 -6.98088 0.195476
-2.19367 -7.12968 0.148376
-1.77967 -7.23488 0.113276
-1.35567 -7.08968 -0.337224
-1.35967 -7.29528 0.0912764
-3.44767 -6.86998 1.10298
-3.47867 -7.06928 1.51578
-3.89167 -6.76838 1.73198
-3.77467 -6.43188 0.810476
-4.10267 -6.08088 0.866276
-4.01367 -5.92438 0.396476
1.95133 -4.58318 -1.23222
1.70433 -4.70018 -1.48482
1.83533 -4.17198 -1.65762
2.06933 -4.18538 -1.32862
2.27333 -4.22748 -0.959324
2.38833 -3.77278 -1.03542
2.57933 -3.81608 -0.611624
2.45033 -4.29038 -0.552624
2.29033 -4.73248 -0.498224
2.43133 -4.83278 -0.0721236
2.22433 -5.26298 -0.0459236
2.09833 -5.13728 -0.458724
2.30533 -2.77178 -1.56672
2.06433 -2.26008 -1.98492
2.33733 -2.25708 -1.60782
2.57833 -2.25768 -1.19102
2.58333 -1.72838 -1.20472
2.79733 -1.72018 -0.752024
2.79033 -2.25978 -0.738624
2.75133 -2.79358 -0.708324
2.93433 -2.80958 -0.229624
2.85533 -3.34748 -0.195424
2.68033 -3.31478 -0.664824
2.47933 -3.28768 -1.10212
2.16933 -3.74428 -1.42312
2.24933 -3.27028 -1.50382
3.29533 -2.25438 0.792876
3.31433 -1.66798 0.772376
3.46033 -1.62998 1.33408
3.42933 -2.24478 1.35658
3.35133 -2.85938 1.35438
3.46633 -2.89618 1.90398
3.34033 -3.49218 1.90368
3.24533 -3.45428 1.35868
3.13833 -3.41728 0.822076
3.01133 -3.97938 0.839976
2.88833 -3.92408 0.330476
3.00833 -3.38168 0.302076
3.09533 -2.82468 0.276976
2.97833 -2.26108 -0.255124
3.14633 -2.25958 0.255576
2.76533 -5.13058 1.39258
2.87333 -5.21848 1.91908
2.62733 -5.77628 1.93028
2.53833 -5.64898 1.39898
2.44433 -5.52108 0.884176
2.08333 -5.79928 0.396476
2.33933 -5.39168 0.402176
2.55733 -4.93758 0.388076
2.60433 -4.36578 -0.111324
2.73933 -4.44558 0.361676
2.85533 -4.52278 0.860776
3.11233 -4.03088 1.36808
2.95433 -4.59038 1.38088
1.88633 1.58302 -0.690224
1.55633 1.77852 -0.978524
1.78533 2.08852 -0.242824
2.22233 1.29702 -0.385124
2.51333 0.912016 -0.145224
2.35233 0.826216 -0.566224
2.17233 0.754116 -0.962724
2.30633 0.304716 -1.03932
2.08733 0.266416 -1.42312
1.96933 0.703016 -1.32862
2.30333 1.99962 0.611776
2.65633 2.34212 1.83328
2.73933 1.69012 1.23008
2.89133 1.76442 1.63528
3.05733 1.23582 1.57648
2.80033 1.09252 0.734176
3.09133 0.636116 1.12358
2.82433 0.494016 0.251976
2.66133 1.00412 0.293776
2.46633 1.48612 0.340876
2.10233 1.79142 -0.0571236
3.34133 -0.459684 1.17008
3.47433 -0.371184 1.59518
3.56033 -0.970284 1.77898
3.28333 -1.09118 0.736476
3.15833 -1.69278 0.238376
3.12933 -1.13078 0.225876
3.06233 -0.576684 0.221576
2.89533 -0.617284 -0.257324
2.79833 -0.0880842 -0.231924
2.95933 -0.0339842 0.229076
2.55633 -1.19988 -1.19252
2.34133 -1.73458 -1.62282
2.31533 -1.21268 -1.60782
2.26333 -0.699684 -1.56672
1.92533 -0.217984 -1.86612
2.18633 -0.203884 -1.50382
2.41633 -0.175784 -1.10582
2.49933 0.358616 -0.627324
2.61833 -0.136284 -0.679424
2.70933 -0.652084 -0.719424
2.95933 -1.15918 -0.269924
2.77033 -1.18218 -0.744624
-4.73587 -5.81728 5.10918
-4.56697 -6.24738 5.11198
-4.41647 -6.33738 5.59578
-4.64827 -5.85298 5.58358
-4.86897 -5.35488 5.57218
-4.80717 -5.34698 5.99128
-4.99517 -4.79558 6.15838
-5.06747 -4.82958 5.56248
-5.11037 -4.84018 5.10368
-5.28177 -4.30588 5.09948
-5.30847 -4.32208 4.60748
-5.14227 -4.84568 4.61018
-4.96817 -5.34308 4.61318
-4.98687 -5.34308 4.09458
-4.81407 -5.79568 4.09958
-4.79157 -5.79778 4.61308
-5.53937 -3.15568 5.56158
-5.49337 -3.09708 5.97908
-5.60487 -2.48638 5.99098
-5.65787 -2.58758 5.56398
-5.69607 -2.70188 5.09588
-5.81597 -2.23528 5.09118
-5.83707 -2.29308 4.60228
-5.59917 -3.26548 4.60958
-5.67347 -3.04018 4.09688
-5.47317 -3.80198 4.09048
-5.46107 -3.78878 4.60848
-5.43667 -3.75998 5.10048
-5.24487 -4.28348 5.55688
-5.40197 -3.72328 5.55788
-5.72057 -2.70238 3.03938
-5.84947 -2.23478 3.08288
-5.80367 -2.01738 2.51228
-5.68457 -2.58638 2.48378
-5.55747 -3.15548 2.46248
-5.49587 -3.09118 1.90448
-5.35527 -3.68008 1.90248
-5.41427 -3.72478 2.45538
-5.45207 -3.76398 3.00818
-5.29497 -4.31318 3.00778
-5.31707 -4.32698 3.55418
-5.47087 -3.79168 3.55518
-4.88187 -5.37208 2.46978
-4.80607 -5.35138 1.92538
-4.56607 -5.88028 1.93618
-4.66687 -5.88048 2.48528
-4.75377 -5.84168 3.03468
-4.59117 -6.28238 3.06658
-4.62587 -6.24878 3.58858
-4.80217 -5.81188 3.57318
-4.97757 -5.35368 3.56098
-5.15767 -4.84898 4.09108
-5.15087 -4.85318 3.55538
-5.12357 -4.85198 3.00978
-5.25447 -4.28808 2.45678
-5.07737 -4.83928 2.46088
-4.04867 0.974916 -1.23222
-3.93167 0.563716 -1.65762
-4.16667 0.577016 -1.32862
-4.37167 0.618716 -0.963224
-4.48667 0.164616 -1.03982
-4.68117 0.208416 -0.629224
-4.55307 0.680216 -0.568124
-4.40257 -0.836484 -1.56672
-4.16067 -1.34818 -1.98492
-4.43407 -1.35118 -1.60782
-4.67547 -1.34868 -1.19282
-4.68047 -1.87778 -1.20502
-4.89497 -1.87958 -0.753124
-4.88937 -1.34088 -0.745924
-4.85087 -0.808884 -0.721024
-5.03817 -0.784284 -0.261324
-4.96227 -0.252484 -0.236424
-4.78087 -0.290184 -0.681124
-4.57687 -0.319784 -1.10622
-4.26667 0.136016 -1.42312
-4.34597 -0.337984 -1.50382
-5.40857 -1.28358 0.724476
-5.41627 -1.86048 0.763076
-5.56637 -1.83818 1.31928
-5.49297 -0.665484 1.14678
-5.63217 -0.592884 1.56028
-5.52357 -0.0517842 1.51888
-5.27097 -0.162284 0.671476
-5.01077 0.318916 0.242376
-5.12517 -0.210084 0.220076
-5.20647 -0.754684 0.213576
-5.08007 -1.32798 -0.273324
-5.25177 -1.31038 0.219076
-4.95997 1.46282 1.20488
-5.11107 1.52272 1.59728
-4.88737 2.03562 1.79418
-4.60737 1.86052 0.838376
-4.21767 2.15742 0.408976
-4.47307 1.75482 0.379076
-4.68807 1.30912 0.333576
-4.45297 1.15392 -0.362424
-4.71617 0.752816 -0.150124
-4.86617 0.827816 0.284176
-5.00557 0.897816 0.717276
-5.28147 0.430616 1.09638
-3.93167 -4.70388 -1.23222
-3.87967 -5.10528 -0.946624
-3.65467 -5.39058 -0.973024
-3.86167 -5.69698 -0.254924
-4.05567 -5.26358 -0.458724
-4.26467 -4.86708 -0.498224
-4.40117 -4.97308 -0.0722236
-4.59307 -4.51378 -0.111524
-4.44217 -4.43188 -0.552724
-4.26767 -4.36178 -0.959424
-4.40177 -3.91218 -1.03542
-4.18467 -3.87468 -1.42312
-4.06567 -4.31128 -1.32862
-4.38617 -5.66128 0.884176
-4.18267 -6.24348 1.36798
-4.47597 -5.79298 1.39898
-4.72307 -5.28458 1.39248
-5.01377 -4.80858 1.91548
-4.93437 -4.75368 1.38018
-4.83827 -4.68158 0.860276
-5.01597 -4.14648 0.838676
-4.89567 -4.08528 0.329676
-4.72477 -4.59928 0.361276
-4.52257 -5.08298 0.387976
-4.17667 -5.39428 -0.0459236
-4.28667 -5.52758 0.402176
-5.40427 -3.05068 1.34828
-5.61767 -2.48178 1.91738
-5.50927 -2.44608 1.34638
-5.37287 -2.44318 0.786076
-5.25797 -1.87278 0.232976
-5.22217 -2.43748 0.251576
-5.14767 -2.99838 0.274176
-4.98687 -2.97438 -0.231024
-4.88607 -3.50778 -0.196324
-5.03777 -3.54968 0.300376
-5.16667 -3.59238 0.819476
-5.11557 -4.20318 1.36638
-5.27257 -3.63588 1.35538
-4.65347 -2.40638 -1.19122
-4.43817 -1.87368 -1.62282
-4.41267 -2.39558 -1.60782
-4.36007 -2.90858 -1.56672
-4.02167 -3.39028 -1.86612
-4.28267 -3.40438 -1.50382
-4.51207 -3.43128 -1.10222
-4.59057 -3.96348 -0.611824
-4.71197 -3.46708 -0.665124
-4.80437 -2.94958 -0.708924
-5.05427 -2.42898 -0.257124
-4.86597 -2.41808 -0.739524
1.57133 -6.80418 6.59758
1.57233 -6.92468 6.41788
1.96433 -6.60778 6.24488
1.72533 -6.01648 7.70048
2.11233 -5.79968 7.37748
2.01033 -5.66598 7.69298
1.05533 -6.57988 7.70408
0.676328 -6.77678 7.73098
0.752328 -7.02558 7.25608
1.15833 -6.85368 7.13498
-0.118672 -7.02138 7.78598
-0.527672 -7.09238 7.78138
-0.510672 -7.26078 7.54448
-0.0626724 -7.55138 6.74628
-0.0646724 -7.63868 6.59818
0.372328 -7.49748 6.56508
0.778328 -7.26258 6.70658
0.333328 -7.11278 7.44568
1.02533 -5.98678 7.92978
0.211328 -6.55388 7.94778
0.992328 -6.19008 7.94248
1.51933 -5.88468 7.91888
1.88133 -5.34288 7.94058
-0.750672 -6.66828 7.92828
-1.54867 -6.75468 7.94528
-0.728672 -6.81628 7.94188
-0.719672 -6.95518 7.90328
-0.938672 -7.15138 7.75658
0.147328 -6.74458 7.91838
1.33233 -6.19528 7.85158
1.41233 -6.34248 7.66038
1.92533 -5.56018 7.84968
0.812328 -6.47238 7.90338
-2.93267 -6.09198 7.93248
-2.86667 -5.90758 7.86178
-3.44467 -5.40078 7.86328
-3.53367 -5.56418 7.93248
-3.72967 -5.57648 7.94128
-2.99467 -6.23098 7.93798
-2.07367 -6.47648 7.92038
-3.39767 -6.06958 7.90368
-3.91367 -5.73838 7.78348
-3.64767 -6.12568 7.70048
-1.52367 -6.93208 7.90328
-2.24767 -6.60288 7.94258
-2.14967 -6.88468 7.84958
-2.71567 -6.54518 7.90348
-2.56867 -6.84208 7.73188
-3.46367 -6.90758 6.59758
-3.46067 -7.02798 6.41788
-3.08667 -7.20948 6.48658
-2.65367 -7.33288 6.70678
-2.63267 -7.09208 7.26338
-3.00567 -6.80918 7.43688
-1.80167 -7.58718 6.74618
-1.79667 -7.67428 6.59818
-1.36267 -7.71288 6.59818
-1.36867 -7.49288 7.10628
-0.929672 -7.66328 6.75068
-0.933672 -7.39828 7.34928
-1.36167 -7.27888 7.54338
-1.62767 -7.09948 7.76408
-2.19867 -7.11018 7.54148
-1.79667 -7.32178 7.34748
-4.04267 -5.92788 7.37278
-3.79667 -6.40228 7.04748
2.73633 1.72662 6.55948
2.85933 1.73652 6.33808
2.61933 2.29122 6.20628
2.42933 2.13422 6.74808
2.23133 2.66522 6.45108
1.95733 2.32642 7.35858
2.64633 0.952216 7.49718
2.99733 1.25412 6.40548
2.39533 1.39582 7.61378
2.47933 0.850816 7.82698
2.73633 0.428116 7.66418
2.90033 0.526516 7.23198
2.18833 1.85982 7.52528
3.36233 -0.450684 6.52998
3.44433 -0.375184 6.31958
3.32033 0.160316 6.36028
3.09933 0.646216 6.63738
2.17633 0.907516 7.94278
2.38033 0.0109158 7.92248
2.48433 0.00731579 7.94278
2.00833 1.53812 7.92288
1.63033 1.97062 7.94138
2.56033 -0.994184 7.91618
2.60333 -1.97438 7.91598
2.74233 -1.47708 7.94318
2.56333 0.0733158 7.93408
2.78533 -0.525884 7.88738
2.94833 -0.627884 7.69948
2.80233 -0.116484 7.77948
2.61733 0.358916 7.84948
2.80533 -1.46568 7.92368
2.25833 1.28212 7.85088
2.07533 1.74732 7.78078
1.76833 2.06922 7.85108
2.04733 -4.74598 7.93248
2.08033 -4.23928 7.85348
1.70233 -4.98238 7.85118
1.58833 -5.45908 7.93248
2.28633 -4.38118 7.94278
2.29833 -4.68008 7.91898
2.52733 -3.99118 7.92368
2.58433 -4.31548 7.82698
2.70133 -3.81438 7.85118
2.83433 -2.91938 7.88788
3.00133 -2.81978 7.68458
2.95233 -2.26068 7.82688
2.91533 -1.55068 7.86398
2.79933 -2.24388 7.92848
2.86733 -3.33308 7.77988
2.51933 -2.82228 7.91078
2.37633 -3.90048 7.93248
2.66433 -3.08358 7.94338
2.51533 -5.59158 6.68098
2.22033 -5.98668 6.83358
2.28033 -6.12788 6.42198
2.79733 -5.15478 6.35278
2.86833 -5.20848 6.01458
3.04133 -4.64898 6.00318
2.94233 -4.57998 6.65268
3.12733 -4.04108 6.48998
3.02333 -3.98548 7.03528
2.84633 -4.50258 7.14188
3.38533 -2.87348 6.33698
3.45733 -2.89968 5.99758
3.53233 -2.23568 6.00998
3.38133 -2.26678 6.66248
3.48133 -1.62858 6.38158
3.32233 -1.69008 6.94238
3.09533 -2.28438 7.57498
3.16133 -1.72548 7.43238
3.04433 -1.72128 7.69218
2.97933 -3.37698 7.56878
2.92333 -3.93188 7.41238
3.12433 -3.42358 7.12788
3.11433 -2.85468 7.41668
3.27233 -2.85658 6.88988
3.21333 -2.28238 7.25328
2.44133 -4.79798 7.78178
2.19433 -5.19798 7.82628
2.31233 -5.31808 7.57478
2.42633 -5.45898 7.15738
2.58633 -4.92098 7.41948
2.70733 -5.06608 6.88658
2.71533 -4.40038 7.57758
2.81133 -3.87278 7.69018
-3.73967 3.12172 6.41848
-4.19667 2.88272 5.99098
-4.11767 2.74632 6.57638
-4.49277 2.41912 6.39338
-4.33347 2.30552 6.94698
-3.64867 2.98642 6.99918
-3.23667 3.18342 7.23578
-3.30467 3.32192 6.74478
-2.92467 3.59852 6.48818
-3.85467 2.47132 7.57508
-4.21067 2.18662 7.38378
-4.10567 2.05922 7.69378
-3.49667 2.71672 7.69008
-3.12267 2.90932 7.78058
-3.17767 3.04452 7.57108
-2.82967 3.33292 7.41728
-3.56667 2.85052 7.41498
-3.93867 2.59912 7.24318
-1.98567 3.44162 7.74898
-1.56867 3.48362 7.78198
-1.58867 3.63452 7.57108
-1.16067 3.77522 7.36598
-1.60467 3.79412 7.23668
-2.02067 3.63272 7.41768
-2.03067 3.83742 6.88788
-2.45167 3.57842 7.23428
-2.41167 3.43092 7.57088
-2.78067 3.18952 7.69068
-1.58667 3.99962 6.66698
-1.13867 3.99542 6.81818
-1.10667 4.14502 6.39118
-1.57867 4.09262 6.35478
-2.48667 3.72712 6.75288
-2.87667 3.47452 7.01218
-1.68267 3.15412 7.94358
-2.93767 2.45502 7.91738
-2.05667 2.75762 7.87938
-1.73367 3.29972 7.90348
-0.930672 3.35582 7.90338
-1.16067 3.54782 7.75178
-3.50767 2.46712 7.88738
-3.77967 2.35172 7.78188
-4.02167 1.95002 7.85148
-3.87967 1.85752 7.94138
-3.05867 2.72252 7.92418
-2.71767 3.01142 7.88388
1.43633 1.95592 7.93248
0.811328 2.66172 7.94248
1.35333 2.37512 7.91878
1.51133 2.46162 7.78018
-0.551672 3.23702 7.93398
0.164328 2.99082 7.94248
0.325328 3.11332 7.88818
-0.0206724 2.89042 7.92778
-1.27267 3.14882 7.94208
0.995328 3.37952 6.99928
0.700328 3.85392 6.31658
0.518328 3.45622 7.33678
1.29733 3.01002 7.31108
1.59333 2.62182 7.51168
1.83833 2.96972 6.62158
-0.624672 4.11292 6.46898
-0.709672 3.88832 7.06968
-0.734672 3.67952 7.52708
-0.317672 3.57332 7.60128
-0.548672 3.45592 7.81208
0.0663276 3.33702 7.78078
0.103328 3.50552 7.53478
-0.291672 3.78572 7.18318
1.18433 2.75312 7.78618
1.85733 2.19352 7.67128
0.889328 3.14512 7.54058
0.474328 3.25022 7.69958
-4.75467 -5.31018 6.35288
-4.55927 -5.86518 6.01328
-4.46157 -5.77618 6.59228
-4.19967 -6.26218 6.42148
-4.12467 -6.07468 6.95728
-4.66737 -5.21638 6.89108
-4.80847 -4.63168 7.23668
-4.89847 -4.72108 6.78798
-5.12957 -4.21358 6.49128
-4.26267 -5.45408 7.57168
-4.41237 -4.94228 7.77988
-4.57577 -4.46098 7.82668
-4.70507 -4.55568 7.56968
-4.92667 -4.09258 7.41958
-4.55157 -5.06688 7.41978
-4.35567 -5.56118 7.24528
-5.04977 -2.98448 7.69078
-5.05717 -2.42998 7.78128
-5.17017 -2.45398 7.57268
-5.25997 -1.89948 7.42668
-5.28777 -2.45908 7.25438
-5.16407 -3.02598 7.41968
-5.32517 -3.03638 6.88588
-5.11797 -3.59628 7.23618
-5.00777 -3.54258 7.56868
-4.82017 -4.02918 7.68918
-5.45787 -2.45988 6.66828
-5.58577 -1.83988 6.39428
-5.53447 -2.45598 6.35658
-5.43707 -3.06688 6.34208
-5.33447 -3.67198 6.15338
-5.22837 -3.62358 6.78468
-5.02717 -4.15188 7.03588
-4.02067 -4.87058 7.93248
-4.10467 -4.28288 7.85138
-4.47087 -3.69048 7.92798
-4.74077 -3.15358 7.93798
-4.27367 -4.51568 7.94278
-4.10267 -5.14778 7.92338
-4.69767 -2.62358 7.93248
-4.84107 -1.46718 7.94518
-4.95837 -2.16838 7.90148
-5.04707 -1.88618 7.82688
-4.88227 -3.08078 7.88758
-4.89787 -3.49088 7.78138
-4.71267 -3.96578 7.85128
-4.53197 -4.13608 7.92368
-4.87417 -2.40128 7.92848
-4.11567 1.12432 7.92418
-3.68567 1.85082 7.93248
-4.38247 0.772816 7.94278
-4.23667 1.41332 7.92308
-4.54227 0.609416 7.92848
-4.57877 -0.175084 7.92868
-4.37877 0.267916 7.89398
-4.31437 1.61532 7.78298
-4.47897 1.14392 7.85098
-4.57527 1.22712 7.69698
-4.68177 0.705816 7.82668
-4.79847 0.205316 7.85118
-4.80377 -0.209284 7.91818
-4.96107 -0.960784 7.88778
-5.11227 -0.786684 7.66038
-5.07947 -1.34348 7.78128
-4.79307 -0.607284 7.93798
-4.96387 -0.276584 7.78128
-4.72817 -1.13508 7.93248
-4.60767 -1.64418 7.87108
-4.51227 -0.708384 7.84918
-4.97847 1.48282 6.55028
-5.08407 1.50132 6.35008
-5.23377 0.990016 6.39368
-5.51297 -0.660384 6.55058
-5.60047 -0.600184 6.35008
-5.65917 -1.20158 6.19518
-5.49017 -1.27488 6.73168
-5.42157 -1.87738 6.94698
-5.13647 -0.240684 7.44658
-5.28457 0.447716 6.65958
-5.49397 -0.0619842 6.39048
-5.24767 -1.35248 7.45698
-5.13567 -1.88798 7.69588
-4.42227 1.72832 7.53558
1.22033 -5.58848 7.86138
1.51733 -4.80228 7.63728
1.07933 -5.32878 7.63668
0.519328 -5.75198 7.63668
0.611328 -6.02338 7.84988
0.751328 -5.47318 7.65178
0.167328 -5.81188 7.65148
-3.21967 -5.08308 7.65208
-3.49967 -4.89228 7.63748
-3.03167 -5.41138 7.63668
-2.09967 -5.85748 7.65188
-2.45267 -5.81288 7.63668
-1.63967 -6.11428 7.63758
-1.31067 -6.42468 7.83018
1.79433 0.565616 7.63338
2.08733 -0.183784 7.67238
1.95633 0.733416 7.82978
2.32733 -0.559684 7.81588
2.21133 0.390016 7.89948
1.79133 0.333216 7.65038
1.99533 -0.253984 7.63438
2.24633 -1.74978 7.63058
2.23633 -1.06878 7.65248
2.17233 -2.17148 7.65008
2.16733 -1.28638 7.64778
2.11233 -2.83588 7.65208
1.93633 -3.80568 7.61118
2.24233 -2.45988 7.63588
2.46033 -1.72868 7.82588
1.80533 -4.25198 7.63538
2.32833 -3.38938 7.84958
-2.85667 2.28662 7.82128
-3.58667 1.68992 7.86158
-2.10067 2.38542 7.63258
-1.33967 2.52312 7.62328
-1.16767 2.83322 7.83458
1.12233 1.47592 7.65178
1.38833 1.30252 7.63708
1.05133 1.69022 7.63598
-0.451672 2.49582 7.63208
-0.644672 2.41342 7.65668
-0.000672414 2.25052 7.65188
0.474328 2.14992 7.63768
1.07133 2.07232 7.86468
0.852328 2.45952 7.92968
0.444328 2.49022 7.85608
1.56433 1.47342 7.84328
-3.86267 -4.72368 7.82818
-4.28567 -2.70238 7.63178
-4.52897 -2.56858 7.84428
-4.36407 -3.50788 7.84898
-4.22767 -3.19858 7.66078
-3.97967 -4.02998 7.64968
-3.74367 -4.33428 7.63618
-4.23167 -2.50938 7.65368
-4.26267 -1.40768 7.66548
-4.33407 -1.42278 7.62908
-3.82867 0.777616 7.62858
-3.35367 1.38302 7.65158
-3.40767 1.47142 7.63668
-2.63067 1.76452 7.90098
-2.69767 1.24152 8.15188
-2.36367 1.57922 8.10738
-2.26067 2.19882 7.65698
-2.04267 2.00832 7.93698
-2.42367 0.835716 8.33628
-1.94767 1.34182 8.27978
-1.29767 1.16522 8.37628
-1.77567 1.78912 8.12838
-1.11867 1.60442 8.25338
-3.21467 1.12532 7.96998
-3.01067 0.674916 8.21948
0.564328 1.10892 8.19318
0.784328 0.718816 8.23898
1.12233 0.840516 8.05528
-0.517672 1.76822 8.16138
-1.20667 1.87872 8.13278
-0.707672 1.34462 8.32358
0.599328 1.93542 7.65198
0.251328 1.93302 7.86478
-1.47367 2.42142 7.65948
-0.816672 2.20522 7.91488
-0.210672 2.04572 7.93708
-3.28567 -4.66248 7.91328
-3.78467 -3.64018 7.92818
-4.09267 -3.35818 7.63408
-3.59067 -4.17548 7.89428
-3.33967 -4.25288 8.05698
-4.09167 -1.70348 7.91898
-3.93067 -3.07118 7.93708
-3.11467 -2.66198 8.39938
-2.84367 -2.64968 8.45948
-3.08767 -2.01098 8.42988
-3.45067 -2.04728 8.33028
-3.62667 -2.75888 8.20508
-3.33467 -3.02978 8.29778
-3.72367 -2.05008 8.20218
-3.85567 -1.70048 8.12408
-3.90267 -2.44698 8.05788
-3.62567 -3.32308 8.12828
-2.85767 -4.76518 8.11008
-3.11967 -3.87868 8.26188
-3.47267 0.505716 8.05038
-3.85267 -0.0731842 7.92988
-3.68667 -0.385784 8.12618
-3.75367 -1.29308 8.18078
-2.99667 -1.35408 8.44778
-3.23467 -1.10688 8.37788
-2.93967 -0.730584 8.43158
-2.99267 -0.152984 8.37578
-3.41467 -0.498984 8.26978
-3.55867 -0.978284 8.25088
-0.797672 -4.72728 8.38618
-1.25367 -5.05378 8.30288
-0.604672 -5.11458 8.27068
-0.137672 -4.87008 8.30018
0.234328 -4.61738 8.31338
-0.469672 -4.33388 8.44698
0.874328 -4.67168 8.11888
0.768328 -5.15308 7.92408
1.11433 -4.81178 7.92298
-2.17967 -4.68788 8.31438
-2.65567 -4.46628 8.26758
-2.52267 -5.16948 8.05028
-1.87067 -5.29658 8.15738
-1.40867 -5.52168 8.09858
-0.890672 -5.48718 8.13268
-1.09467 -4.33788 8.46358
-1.69067 -4.69728 8.36808
-2.69467 -5.54438 7.65198
-2.02467 -5.62338 7.92478
-2.75967 -5.26878 7.87848
-1.13067 -6.05028 7.65688
-0.793672 -5.79568 7.92728
-1.41767 -5.77808 7.92678
-0.200672 -5.71198 7.89888
-0.260672 -5.39578 8.12168
0.374328 -5.47158 7.89228
0.820328 0.0970158 8.35408
1.10133 -0.580384 8.34388
1.35133 -1.23738 8.30738
1.16933 -1.75858 8.38558
1.39233 -1.75408 8.31098
1.52233 -1.04288 8.22938
1.70233 -1.38078 8.15298
1.87933 -0.732184 7.93448
1.62033 -0.420684 8.09118
1.34633 0.00851579 8.17168
1.34133 -4.15258 8.05818
1.75433 -3.53288 7.93218
1.58833 -3.21828 8.12788
1.77533 -2.32448 8.10028
1.54933 -2.45588 8.23048
1.81133 -4.01358 7.65188
1.53133 0.896816 7.65278
1.11433 1.17152 7.89638
1.38933 0.668416 7.95298
1.96133 -1.33518 7.93078
1.96133 -1.89538 7.96218
1.46333 3.53702 6.13468
1.47133 3.30662 6.55898
1.89433 3.15792 6.23288
1.71333 3.53262 5.80198
1.07733 3.98152 5.69868
0.960328 4.33332 5.03868
1.23133 4.22502 4.98198
0.460328 4.27642 5.57798
0.693328 4.44782 4.98168
0.475328 4.54872 4.82318
-0.0886724 4.13612 6.22338
-0.232672 4.32812 5.80038
2.39333 3.25532 3.26858
2.57733 3.06162 3.18918
2.50233 2.98552 2.61118
2.08733 3.64532 3.72358
1.61533 4.11782 3.86578
1.65433 4.08632 4.19758
2.38833 3.30522 4.15748
1.45933 4.13702 4.81518
1.88233 3.52732 5.50528
2.09533 3.41892 5.26868
2.12033 3.18792 5.78678
2.35933 3.21362 5.00368
2.54433 3.01752 5.06258
2.57333 3.04872 4.60078
2.07833 3.61672 4.48858
1.60433 4.09002 4.53418
-0.313672 4.38192 2.22298
-0.726672 4.42862 2.33428
-0.243672 4.59612 3.03288
0.120328 4.54872 2.97408
0.707328 4.51652 3.41848
0.981328 4.40462 3.36138
0.597328 4.32852 2.65938
0.986328 4.20422 2.74348
1.48233 4.18732 3.58128
1.91933 3.62422 2.78168
1.64233 3.81332 2.70868
1.43833 3.81462 2.35338
1.12233 3.94972 2.24498
1.81633 3.50492 2.24618
2.16533 3.25742 2.38698
-1.26467 4.35042 5.52848
-0.824672 4.45002 5.40948
-0.639672 4.38652 5.69748
-0.215672 4.53872 5.14898
0.335328 4.61942 4.53488
0.290328 4.65262 4.19928
-0.401672 4.64102 4.57148
-0.133672 4.66872 3.57438
-1.44967 4.45762 3.61028
-1.00567 4.57772 3.67838
-1.16367 4.53982 4.12148
-0.460672 4.67402 3.99488
-0.696672 4.61122 3.33968
-4.85847 2.00802 6.19518
-4.63287 2.51472 6.04028
-5.10137 2.09562 5.62528
-5.30827 1.38672 5.97608
-5.39447 1.80292 5.35118
-5.53097 1.22422 5.66388
-5.54457 0.509616 6.07388
-5.59677 1.57942 5.14988
-5.88027 -1.13948 5.62528
-5.71787 -1.80298 6.04028
-5.73587 -0.392584 5.97608
-5.85757 -0.170584 5.66388
-6.03537 -0.626284 5.25048
-5.15877 2.15242 2.58218
-5.03017 2.52762 3.28558
-4.60157 2.73882 2.54608
-4.66367 2.54852 1.99118
-5.45747 1.86132 2.94028
-5.35857 2.18622 3.49118
-5.31467 2.27702 4.15378
-4.98097 2.62272 4.13608
-4.49457 3.01622 4.11788
-5.65507 1.63182 3.18288
-5.94167 1.34572 3.86798
-5.57517 1.90762 3.62958
-5.91827 1.39542 4.18808
-5.53757 1.98752 4.16608
-5.92307 1.32712 4.50818
-5.54407 1.87652 4.70258
-5.32447 2.15152 4.81078
-4.99847 2.49312 4.96398
-4.50437 2.95732 4.60458
-5.94927 -1.12908 2.56408
-5.81467 -0.368284 2.18318
-5.69507 -1.19638 1.75098
-5.75797 -1.79988 1.94158
-6.10557 -0.611684 3.05918
-5.94647 -0.139384 2.61558
-5.62137 0.550116 2.07788
-5.41497 0.489316 1.47758
-5.61297 1.28452 2.61858
-5.37927 1.44182 2.19518
-5.26307 1.00602 1.53738
-5.97587 -1.55108 4.96398
-5.76697 -2.01908 5.56578
-6.08477 -1.09048 4.81078
-6.16497 -1.03718 4.15958
-6.02147 -1.67218 4.13308
-5.85817 -2.35088 4.11338
-6.29007 -0.259584 4.50828
-6.31217 -0.256184 3.86798
-6.12567 -1.08488 3.48818
-6.01537 -1.54758 3.27358
-5.85377 -2.29278 3.59808
-6.24297 -0.0929842 4.77658
-6.31587 -0.316884 4.18838
-6.28307 -0.0842842 3.60028
-6.22817 0.206016 3.44248
-6.14327 0.552916 3.38638
-5.98997 1.18272 3.60028
-6.06647 0.898516 3.43958
-5.95537 1.15122 4.77658
-6.01837 0.864116 4.93568
-6.09317 0.525416 4.98908
-6.17897 0.188116 4.93658
0.474328 4.60332 3.58478
0.336328 4.65222 3.86398
2.61033 -5.74998 6.04708
2.35333 -6.29148 6.07958
2.64533 -6.09928 5.11198
2.98133 -5.20838 5.12808
2.73733 -6.06338 4.11068
3.04633 -5.19268 4.10148
3.33633 -4.15498 4.09738
3.29533 -4.13308 5.11328
3.21433 -4.08958 5.99188
2.67033 -6.13328 3.06658
2.38133 -6.33398 1.94148
3.00033 -5.22868 3.01388
3.31233 -4.14148 3.01008
3.04433 -4.65328 1.91128
3.21433 -4.08808 1.90338
3.55633 -2.23278 1.93338
3.64533 -1.56948 1.96278
3.74733 -1.98078 3.09718
3.56233 -3.00628 3.01808
3.75933 -2.08988 4.11568
3.57733 -3.07488 4.10218
3.71433 -1.98108 5.08128
3.60633 -1.57168 6.02248
3.53933 -3.00398 5.11838
3.33633 -3.49468 5.99468
3.79033 1.24562 4.80838
3.42733 1.77802 5.04058
3.33633 1.46512 5.56148
2.89933 2.31382 5.59568
3.63033 0.862816 5.35478
3.84333 0.939716 4.85908
2.37933 2.84482 6.07488
3.09733 1.62762 5.92338
3.35133 0.762116 6.00568
3.72333 -0.832584 5.57668
3.61433 0.0279158 5.73468
3.52533 -0.973384 6.17098
3.82733 -0.206284 5.15548
3.88933 0.667416 4.81988
3.78933 -0.826284 2.62198
3.86333 -1.22258 3.30698
3.89233 -0.202784 3.17248
3.92833 -0.678884 3.54418
3.93433 -0.780484 4.16088
3.87233 -1.33778 4.13788
3.96333 -0.380084 4.17678
3.96033 -0.297184 3.70558
3.89033 -0.679984 4.77038
3.97233 0.273816 4.46888
3.82633 -1.22408 4.94008
2.96733 2.36722 2.65438
3.16833 1.68162 2.27188
2.42733 2.90952 2.03328
3.41333 1.51242 2.74008
3.70733 0.886916 2.99878
3.42533 0.796216 2.15938
3.22233 0.707116 1.51768
3.47933 1.81242 3.31288
3.79533 1.46022 3.71678
3.84133 1.22332 3.58558
3.93733 0.645516 3.58358
3.74733 0.189016 2.73658
3.63733 -0.0965842 2.25778
3.34833 0.168016 1.55638
2.85633 2.65222 4.95438
2.46133 2.93112 5.56878
3.15133 2.30772 4.77398
3.26433 2.27152 4.17008
2.88333 2.74392 4.14758
2.60133 3.08002 4.13908
3.74433 1.60162 4.45598
3.76633 1.60182 3.93968
2.95233 2.61542 3.35638
2.58933 3.07082 3.66408
2.00933 -6.84118 5.73248
2.33433 -6.67548 5.01468
1.75333 -7.17948 5.53368
2.06133 -7.05588 4.89898
2.17433 -7.03428 4.12928
2.44233 -6.64248 4.12108
1.94633 -7.34348 4.13208
1.60433 -7.55138 2.85618
1.80933 -7.27428 2.70908
2.09433 -7.10678 3.35418
1.87033 -7.40838 3.43618
2.06033 -6.92358 2.44608
2.36533 -6.72058 3.20548
-0.496672 -7.69518 6.59818
-0.928672 -7.75158 6.59818
-0.928672 -7.86708 6.34438
-0.0986724 -7.75868 6.34438
-0.929672 -7.98918 6.14188
-0.146672 -7.88808 6.14188
0.592328 -7.67618 6.08238
0.698328 -7.50938 6.28848
0.775328 -7.35618 6.55308
1.43233 -7.16138 6.12078
1.17433 -7.14038 6.48548
1.24433 -7.41318 5.90388
1.98733 -6.64958 1.72858
1.48333 -7.26508 2.02108
1.30333 -7.53758 2.32968
0.639328 -7.81888 2.14418
0.736328 -7.62448 1.82538
0.788328 -7.39778 1.32908
0.536328 -8.00428 2.33418
1.14433 -7.76948 2.50818
-0.927672 -8.29178 2.27618
-0.926672 -8.14508 2.07958
-0.118672 -8.04078 2.08078
-0.169672 -8.19778 2.27618
-0.926672 -7.99198 1.74908
-0.927672 -7.79658 1.23938
-0.0766724 -7.88078 1.75388
0.365328 -7.54008 1.29018
-3.31667 -7.25888 6.12078
-3.86367 -6.72768 6.24868
-4.26567 -6.42738 6.07958
-3.90667 -6.96268 5.73248
-3.64567 -7.28958 5.53368
-3.12767 -7.50228 5.90388
-2.46367 -7.73848 6.08238
-2.56967 -7.57648 6.28848
-2.64767 -7.42648 6.55308
-3.44467 -7.55988 5.40798
-1.76267 -7.79278 6.34438
-2.22267 -7.55038 6.57558
-1.71667 -7.92008 6.14188
-4.29367 -6.47098 1.94148
-3.95367 -7.04698 2.44608
-4.26667 -6.85668 3.20548
-4.44217 -6.37668 2.50398
-3.69767 -7.38648 2.70908
-3.98967 -7.23078 3.35418
-4.07267 -7.16158 4.12928
-4.34687 -6.78178 4.12108
-4.66057 -6.21518 4.11068
-3.84767 -7.45878 4.13208
-3.76867 -7.52058 3.43618
-3.49567 -7.65288 2.85618
-3.95967 -7.17858 4.89898
-3.73867 -7.47078 4.82798
-4.23867 -6.81038 5.01468
-4.61377 -6.23128 4.61138
-1.77967 -7.91568 1.75388
-1.36467 -7.75738 1.24528
-1.73767 -8.07378 2.08078
-2.50567 -7.88298 2.14418
-2.60267 -7.69298 1.82538
-2.65967 -7.46848 1.32918
-2.40567 -8.06288 2.33418
-1.69067 -8.22798 2.27618
-3.18067 -7.62888 2.32968
-3.02467 -7.85238 2.50818
-3.36367 -7.36458 2.02108
-3.06967 -7.26888 1.42248
3.76333 1.45622 4.68048
3.74833 1.64632 4.19918
3.89133 0.932416 3.53988
3.97433 0.404016 3.71598
3.99233 0.261216 3.93558
3.98633 0.220116 4.20078
3.93733 0.418416 4.68478
0.766328 -4.22028 8.28298
0.708328 -1.93258 8.48948
-1.13067 -3.02718 8.58758
0.241328 0.722616 8.36788
-0.113672 0.646816 8.42608
0.984328 -1.43248 8.42898
0.569328 -1.23868 8.50068
1.01833 -0.946284 8.39938
-1.79067 -1.29708 8.58918
1.33133 2.05722 -0.960424
1.07333 2.35502 -0.888724
0.384328 2.08352 -1.77122
0.485328 3.18022 -0.197224
1.50033 2.42402 -0.234324
-1.13267 2.30112 -2.00162
-0.346672 2.91612 -1.15842
-1.14767 3.51122 -0.271224
-1.05667 4.31282 1.96058
-0.253672 3.83792 0.692876
-3.33867 2.26272 -0.885924
-2.77567 3.10272 -0.154524
-2.63967 2.02142 -1.77122
-3.66667 2.95672 0.888076
-2.95367 3.68342 1.91258
-2.01567 3.78492 0.803876
-1.94067 2.88292 -1.15552
-3.80467 3.35192 5.10138
-2.95867 3.69222 5.96758
-3.01567 3.84822 4.09068
-1.05967 4.27342 6.00398
-2.15667 4.15212 5.10058
-1.46967 4.45472 4.11018
-2.50967 3.85622 6.15148
-2.15867 4.17752 3.01918
-3.81767 3.37122 3.03028
1.09433 1.14352 -2.00492
1.83733 0.248416 -1.77122
0.522328 0.355816 -2.74412
2.06733 -1.74018 -2.00162
1.35333 -0.705084 -2.55162
0.654328 -1.76918 -3.07402
-1.04867 -1.80418 -3.43312
-0.215672 -0.658984 -3.25472
-1.09467 0.439116 -3.07402
-0.317672 1.40542 -2.55162
1.47933 -4.70778 -1.73562
1.21433 -4.66138 -2.00492
0.543328 -5.62968 -1.77122
0.609328 -3.89778 -2.74412
1.91933 -3.73648 -1.77122
-0.963672 -5.90938 -2.00162
-0.186672 -4.98098 -2.55162
-1.00267 -4.04738 -3.07402
-0.169672 -2.91418 -3.25472
1.39633 -2.80378 -2.55162
-3.19167 -4.75188 -2.00492
-3.93467 -3.85668 -1.77122
-2.61867 -3.96408 -2.74412
-2.48167 -5.69178 -1.77122
-4.16367 -1.86808 -2.00162
-3.45067 -2.90328 -2.55162
-2.75067 -1.83908 -3.07402
-1.88067 -2.94938 -3.25472
-1.77967 -5.01368 -2.55162
-3.31067 1.05312 -2.00492
-2.70567 0.289516 -2.74412
-4.01567 0.128216 -1.77122
-1.91067 1.37272 -2.55162
-1.92767 -0.694084 -3.25472
-3.49367 -0.804484 -2.55162
1.24033 -5.87258 -0.890024
1.72833 -6.04568 0.0777764
0.670328 -6.71858 -0.222724
-0.939672 -7.10398 -0.346824
0.337328 -7.25138 0.553176
-0.155672 -6.49058 -1.16362
-3.43267 -5.66528 -0.952824
-3.16767 -5.96298 -0.890024
-2.56467 -6.78498 -0.222724
-2.95767 -6.65758 -0.0437236
-1.74867 -6.52328 -1.16362
-1.36267 -7.47118 0.501476
-3.02767 -6.96168 0.664376
1.91633 -4.98678 -0.943724
2.13233 -4.64608 -0.886224
2.74533 -3.86848 -0.155224
2.54233 -2.77998 -1.15542
2.98833 -1.70878 -0.269424
3.23433 -2.84078 0.806476
2.66833 -5.03928 0.877776
1.78933 1.20602 -1.21212
2.01433 1.16652 -0.888524
2.67033 0.423316 -0.194424
3.21033 -0.525684 0.702376
3.10233 0.0270158 0.687476
2.50033 -0.679884 -1.15812
-4.92697 -5.34868 5.10848
-5.20127 -4.25698 5.97118
-5.32137 -4.32978 4.08948
-5.57477 -3.21958 5.10118
-5.59417 -3.22148 3.01678
-5.19487 -4.25158 1.90748
-5.61107 -3.26708 3.56188
-4.94187 -5.36628 3.01758
-4.00767 1.38122 -0.952524
-4.23067 1.03682 -0.888924
-4.85437 0.261716 -0.199224
-4.28467 1.59912 -0.223224
-4.64037 -0.826784 -1.15852
-5.08607 -1.87818 -0.272024
-5.35757 -0.716284 0.688076
-4.10967 -4.77418 -0.886224
-4.75407 -4.02308 -0.155624
-4.62967 -5.18928 0.877676
-5.28677 -3.02328 0.802076
-4.59657 -2.92678 -1.15552
1.87933 -6.27788 7.07268
1.51133 -6.54908 7.21288
-0.0736724 -7.28798 7.34398
-0.496672 -7.47498 7.10628
0.276328 -6.89518 7.78088
-0.233672 -6.38108 7.85508
-3.30267 -6.40208 7.72908
-2.92567 -6.59698 7.78278
-3.41167 -6.64518 7.22258
-2.22967 -7.32128 7.09928
3.16833 -1.15688 7.34408
2.98333 -1.17458 7.75158
3.11233 -0.606884 7.32768
2.95833 -0.0650842 7.47138
3.36533 -1.07758 6.72138
1.89333 1.25162 7.92418
2.34333 0.750816 7.92848
3.22933 -3.45468 6.64708
-2.35767 3.22742 7.84918
-2.44367 2.94142 7.94258
-1.12967 2.98922 7.90588
0.808328 2.93392 7.84918
-0.242672 2.73412 7.84338
1.08633 3.63082 6.39648
0.161328 3.72532 7.04678
0.342328 4.03772 6.20338
-4.17267 -5.35618 7.78118
-4.96547 0.291916 7.57998
-4.60607 1.88262 6.95328
-4.86387 0.837316 7.44858
-4.71207 1.35112 7.33468
-5.28607 -0.741984 7.22368
-0.235672 -6.07998 7.63888
-0.959672 -6.14728 7.62988
1.37133 -4.85748 7.65148
-0.471672 -6.00138 7.65688
-1.61767 -5.99228 7.65318
-2.19467 -6.21238 7.83128
-2.91867 1.94372 7.63718
-2.84567 1.86142 7.65648
-3.73667 0.767116 7.66408
-4.05167 0.108216 7.60888
-3.97267 0.994516 7.82268
-4.15567 -0.199584 7.62078
-4.25867 0.166416 7.79188
-1.57967 2.15172 7.92638
-0.0826724 1.28692 8.28148
0.778328 1.49952 7.92318
0.303328 1.65682 8.04628
-4.06267 -2.49588 7.89838
-3.40467 0.0455158 8.19758
-3.96167 -1.26268 8.02808
-4.02367 -0.802784 7.92068
-3.60767 0.660216 7.88078
0.293328 -5.19658 8.09658
1.68033 0.0575158 7.92578
1.21933 -3.76488 8.21758
1.28633 -2.93488 8.29778
1.92533 -2.77358 7.92688
1.05133 -2.57648 8.39928
1.52333 -4.22468 7.89028
2.05033 3.58752 3.08088
0.252328 4.38792 2.54388
0.768328 4.03062 2.02978
1.25733 4.28762 3.41838
-0.693672 4.55952 4.93018
-1.00667 4.55112 4.58898
-0.827672 4.51522 2.77148
3 0 1 2
3 0 3 4
3 3 5 6
3 3 2 7
3 8 9 10
3 6 5 8
3 11 0 4
3 12 13 14
3 12 14 15
3 15 16 17
3 13 18 19
3 20 9 8
3 20 21 22
3 23 14 24
3 25 26 27
3 25 28 29
3 30 31 32
3 30 32 33
3 34 35 10
3 34 23 36
3 36 37 27
3 38 13 19
3 38 25 37
3 38 37 24
3 39 40 41
3 41 42 39
3 39 43 44
3 45 11 42
3 46 32 47
3 43 47 48
3 49 50 51
3 49 51 52
3 53 54 55
3 53 55 56
3 57 58 59
3 57 59 60
3 61 62 63
3 61 63 64
3 65 66 67
3 65 67 68
3 69 54 70
3 69 70 71
3 72 73 74
3 72 74 75
3 76 77 78
3 78 79 80
3 78 80 81
3 82 66 83
3 82 83 84
3 85 86 87
3 85 87 88
3 89 90 91
3 92 93 94
3 95 79 96
3 97 98 99
3 99 100 101
3 99 101 102
3 103 104 105
3 103 105 106
3 107 108 109
3 107 109 110
3 111 112 113
3 111 113 114
3 115 116 117
3 115 117 118
3 119 120 121
3 119 121 122
3 123 104 124
3 123 124 125
3 126 127 128
3 126 128 129
3 130 73 131
3 130 131 132
3 133 134 135
3 133 135 136
3 137 120 138
3 137 138 139
3 140 62 141
3 140 141 142
3 143 144 145
3 143 145 146
3 147 108 148
3 147 148 149
3 150 134 151
3 150 151 152
3 153 154 155
3 153 155 156
3 157 158 159
3 157 159 160
3 161 162 163
3 161 163 164
3 165 166 167
3 168 169 170
3 168 170 171
3 172 173 174
3 172 174 175
3 176 177 178
3 176 178 179
3 180 162 181
3 180 181 182
3 183 184 185
3 183 185 186
3 187 127 188
3 187 188 189
3 190 191 192
3 190 192 193
3 194 177 195
3 194 195 196
3 197 116 198
3 197 198 199
3 200 201 202
3 200 202 203
3 203 166 204
3 203 204 205
3 206 191 207
3 206 207 208
3 209 50 210
3 210 211 212
3 210 212 213
3 214 215 216
3 214 216 217
3 218 219 220
3 218 220 221
3 222 223 224
3 222 224 225
3 226 227 228
3 226 228 229
3 230 231 232
3 230 232 233
3 234 215 235
3 234 235 236
3 237 238 239
3 237 239 240
3 241 242 243
3 241 243 244
3 245 246 247
3 245 247 248
3 249 231 250
3 249 250 251
3 252 253 254
3 252 254 255
3 256 58 257
3 256 257 258
3 259 219 260
3 259 260 261
3 262 246 263
3 262 263 264
3 265 266 267
3 265 267 268
3 269 270 271
3 269 271 272
3 273 274 275
3 273 275 276
3 277 278 279
3 277 279 280
3 281 282 283
3 281 283 284
3 285 286 287
3 285 287 288
3 289 270 290
3 289 290 291
3 292 293 294
3 292 294 295
3 296 238 297
3 296 297 298
3 299 300 301
3 299 301 302
3 303 286 304
3 303 304 305
3 306 227 307
3 306 307 308
3 309 310 311
3 309 311 312
3 313 274 314
3 313 314 315
3 316 300 317
3 316 317 318
3 319 320 321
3 321 322 323
3 321 323 324
3 325 326 327
3 325 327 328
3 329 330 331
3 329 331 332
3 333 334 335
3 333 335 336
3 337 338 339
3 337 339 340
3 341 342 343
3 341 343 344
3 345 326 346
3 345 346 347
3 348 349 350
3 348 350 351
3 352 293 353
3 352 353 354
3 355 356 357
3 355 357 358
3 359 342 360
3 359 360 361
3 362 282 363
3 362 363 364
3 365 366 367
3 365 367 368
3 369 330 370
3 369 370 371
3 372 356 373
3 372 373 374
3 375 376 377
3 377 98 378
3 377 378 379
3 380 381 382
3 380 382 383
3 384 385 386
3 384 386 387
3 388 144 389
3 388 389 390
3 391 253 392
3 391 392 393
3 394 395 396
3 394 396 397
3 398 381 399
3 398 399 400
3 401 242 402
3 401 402 403
3 404 349 405
3 404 405 406
3 407 408 409
3 407 409 410
3 411 395 412
3 411 412 413
3 414 338 415
3 414 415 416
3 417 418 419
3 417 419 420
3 421 385 422
3 421 422 423
3 424 408 425
3 424 425 426
3 427 266 428
3 428 429 430
3 428 430 431
3 432 433 434
3 432 434 435
3 436 437 438
3 436 438 439
3 440 441 442
3 443 444 445
3 443 445 446
3 446 447 448
3 446 448 434
3 449 450 451
3 449 451 452
3 452 453 454
3 452 454 455
3 456 457 458
3 456 458 459
3 460 461 462
3 460 462 463
3 464 278 465
3 464 465 466
3 467 437 468
3 467 468 469
3 470 457 471
3 470 471 472
3 473 320 474
3 473 474 475
3 476 477 478
3 476 478 479
3 480 481 482
3 480 482 483
3 484 366 485
3 484 485 486
3 487 461 488
3 487 488 489
3 490 491 492
3 490 492 493
3 494 477 495
3 494 495 496
3 497 498 499
3 497 499 500
3 500 501 502
3 500 502 503
3 504 491 505
3 504 505 506
3 507 508 509
3 510 511 512
3 510 512 482
3 513 514 515
3 513 515 516
3 517 518 519
3 517 519 520
3 521 522 523
3 521 523 524
3 525 310 526
3 525 526 527
3 528 529 530
3 528 530 531
3 532 533 534
3 532 534 535
3 536 518 537
3 536 537 538
3 539 540 541
3 539 541 542
3 543 544 545
3 543 545 546
3 547 548 549
3 547 549 550
3 551 533 552
3 551 552 553
3 554 555 556
3 554 556 557
3 558 441 559
3 558 559 560
3 561 522 562
3 561 562 563
3 564 548 565
3 564 565 566
3 567 568 569
3 570 571 572
3 573 574 575
3 573 575 576
3 577 90 578
3 579 580 581
3 579 581 582
3 582 583 584
3 582 584 585
3 586 570 587
3 586 587 577
3 588 589 590
3 591 540 592
3 591 592 593
3 594 595 596
3 594 596 597
3 598 529 599
3 598 599 600
3 601 223 602
3 601 602 603
3 604 574 605
3 604 605 606
3 607 595 608
3 607 608 609
3 610 611 612
3 610 612 613
3 614 615 616
3 614 616 617
3 618 619 620
3 618 620 621
3 622 623 624
3 622 624 625
3 626 627 628
3 626 628 629
3 630 631 632
3 630 632 633
3 633 634 635
3 633 635 636
3 637 619 638
3 637 638 639
3 640 641 642
3 640 642 643
3 644 645 646
3 644 646 647
3 648 649 650
3 648 650 651
3 652 653 654
3 652 654 655
3 656 657 658
3 656 658 659
3 660 623 661
3 660 661 662
3 663 649 664
3 663 664 665
3 666 376 667
3 666 667 668
3 669 670 671
3 669 671 672
3 673 418 674
3 673 674 675
3 676 677 678
3 676 678 679
3 680 681 682
3 680 682 683
3 684 670 685
3 684 685 686
3 687 688 689
3 690 691 692
3 690 692 693
3 693 694 695
3 696 681 697
3 696 697 698
3 699 700 701
3 702 112 703
3 702 703 704
3 705 706 707
3 705 707 708
3 709 694 710
3 711 322 712
3 712 713 714
3 712 714 715
3 716 717 718
3 716 718 719
3 720 721 722
3 720 722 723
3 724 511 725
3 724 725 726
3 727 653 728
3 727 728 729
3 730 731 732
3 730 732 733
3 734 717 735
3 734 735 736
3 737 645 738
3 737 738 739
3 740 688 741
3 740 741 742
3 743 744 745
3 743 745 746
3 747 731 748
3 747 748 749
3 750 677 751
3 750 751 752
3 753 334 754
3 753 754 755
3 756 721 757
3 756 757 758
3 759 744 760
3 759 760 761
3 762 763 764
3 765 766 767
3 768 769 770
3 768 770 771
3 772 773 774
3 775 776 777
3 777 778 770
3 777 770 779
3 780 781 782
3 782 783 784
3 785 786 787
3 788 789 773
3 790 787 788
3 791 792 765
3 783 793 784
3 783 782 794
3 794 769 768
3 795 796 797
3 798 799 800
3 795 801 796
3 802 803 804
3 802 800 799
3 805 786 806
3 805 806 807
3 807 808 809
3 786 801 806
3 810 811 812
3 812 813 814
3 812 814 815
3 816 817 818
3 816 818 819
3 819 820 821
3 822 821 789
3 823 807 824
3 824 809 814
3 825 819 822
3 804 826 827
3 828 829 830
3 831 832 833
3 828 834 835
3 836 837 834
3 834 838 839
3 836 828 840
3 841 842 843
3 843 844 839
3 845 846 847
3 845 848 849
3 850 851 852
3 852 853 847
3 854 855 856
3 854 857 853
3 854 853 858
3 859 836 860
3 848 861 849
3 862 863 864
3 862 865 784
3 866 867 868
3 869 870 868
3 871 872 873
3 873 874 858
3 873 858 875
3 871 870 876
3 877 878 879
3 880 881 882
3 883 884 885
3 883 885 886
3 886 887 888
3 886 888 889
3 890 891 892
3 890 892 893
3 893 894 895
3 896 897 898
3 872 876 899
3 899 900 901
3 902 903 904
3 905 906 907
3 907 766 908
3 909 910 889
3 911 900 912
3 913 158 914
3 913 914 915
3 915 916 917
3 918 919 920
3 920 921 159
3 922 923 924
3 925 926 927
3 927 928 919
3 929 918 930
3 931 932 933
3 933 934 935
3 936 937 938
3 939 928 940
3 941 942 943
3 941 943 944
3 945 921 946
3 937 935 941
3 947 948 949
3 950 951 952
3 950 952 932
3 953 925 954
3 953 955 956
3 957 958 926
3 959 849 960
3 961 861 962
3 963 964 965
3 966 960 964
3 964 963 967
3 968 969 970
3 971 972 973
3 974 942 975
3 976 934 952
3 977 978 979
3 977 979 980
3 981 975 976
3 982 962 972
3 972 983 833
3 971 968 984
3 984 970 985
3 986 615 987
3 986 987 988
3 988 989 990
3 991 992 993
3 993 994 616
3 995 826 803
3 996 997 998
3 998 999 992
3 1000 991 1001
3 1002 1003 1004
3 1004 1005 1006
3 1007 1008 1009
3 1010 999 1011
3 1012 1013 1014
3 1015 627 1016
3 1017 994 1018
3 1008 1006 1012
3 1019 1020 1021
3 1021 1022 1023
3 1023 1024 799
3 1025 1026 1022
3 1027 1028 1003
3 1029 1002 1030
3 1029 1031 1032
3 1029 1022 1033
3 1024 803 799
3 1034 1035 956
3 1036 1037 1038
3 1036 1039 1040
3 1037 955 1041
3 1042 1043 1044
3 1044 1045 1046
3 1044 1046 1038
3 1047 1048 1049
3 1047 1050 1046
3 1046 1045 1051
3 1052 1026 1053
3 1052 1054 1039
3 1055 1056 1057
3 1058 1059 1060
3 1061 1013 1062
3 1063 1064 1065
3 1066 1005 1067
3 1048 1051 1063
3 1043 1041 1068
3 1069 864 1070
3 1069 1071 1072
3 1069 1072 1073
3 1074 1075 1072
3 1076 1077 1078
3 1079 1080 1081
3 1082 801 785
3 796 1078 797
3 1083 1084 1085
3 1086 1087 1084
3 1088 1089 1083
3 1090 1091 1089
3 1092 1090 1093
3 1094 1095 1096
3 877 851 1097
3 1096 877 1097
3 1098 1070 864
3 863 1099 1095
3 1100 948 1101
3 1102 1103 1104
3 1105 1106 1107
3 1108 1103 1109
3 1110 1111 1108
3 1112 1113 1114
3 1112 1111 1107
3 1107 1115 1112
3 1020 1019 1116
3 1116 797 1077
3 1117 1118 1119
3 1117 1119 1120
3 1120 1119 1121
3 1118 1021 1119
3 1122 1121 1077
3 1123 1124 1125
3 1123 1125 1117
3 1117 1053 1118
3 1126 1127 1128
3 1129 1130 1131
3 1132 1129 1133
3 1134 29 28
3 1134 28 1135
3 28 19 1136
3 1137 1131 1135
3 1137 1135 1138
3 1130 1139 1140
3 1141 1142 1143
3 1144 1145 1138
3 1146 1136 18
3 1147 1110 1148
3 1109 1149 1150
3 1150 1144 1151
3 1122 1076 1152
3 1122 1153 1154
3 1155 1156 1153
3 1123 1157 1124
3 1154 1153 1158
3 1159 1160 1161
3 1162 1163 1164
3 1164 40 1159
3 1165 1166 1167
3 1167 1158 1168
3 1163 1162 1165
3 1156 1169 1170
3 1171 1172 1173
3 1166 1165 1174
3 1162 1161 1175
3 1176 1175 1177
3 1176 1178 1179
3 1180 1174 1162
3 1181 1182 1183
3 1184 1185 1186
3 1187 1188 1189
3 1190 41 1191
3 1192 1193 1190
3 1194 1195 1182
3 1182 1181 1196
3 1197 1196 41
3 1198 1079 1199
3 1198 1199 1200
3 1201 1202 1203
3 1203 1194 1199
3 1200 1199 1192
3 1204 1205 1202
3 1075 1206 1204
3 1207 17 1208
3 1209 1210 1211
3 1209 1212 1208
3 1213 1214 1215
3 1215 1216 1212
3 1217 1218 1219
3 1220 1213 1221
3 1222 1095 1218
3 1223 1105 1224
3 1223 1224 1225
3 1225 1224 1143
3 1226 1227 1093
3 1228 1229 1230
3 1228 1230 1231
3 1232 1233 969
3 1234 1228 1231
3 1235 1236 1237
3 1238 1235 1239
3 1240 1241 1242
3 1243 1244 1245
3 1245 1246 1243
3 1247 1248 1249
3 1249 1248 1250
3 1251 1252 1253
3 1253 1246 1254
3 1251 1255 1249
3 76 75 1256
3 1256 1257 1258
3 1256 1258 1259
3 1260 1261 1262
3 1262 1261 1263
3 1264 1265 1266
3 1267 1268 1263
3 1269 1265 1270
3 86 96 1268
3 173 1271 1272
3 1272 1273 1274
3 1275 1276 1277
3 1278 1259 1258
3 184 1279 1280
3 1280 1281 1282
3 1283 1278 1258
3 1056 1284 1285
3 1056 1285 1286
3 1056 1286 1287
3 1286 1288 1289
3 1286 1289 1287
3 1289 1290 1287
3 1290 1064 1057
3 1290 1057 1056
3 1290 1056 1287
3 1289 1288 1291
3 1292 1293 1060
3 1292 1060 1059
3 1292 1059 1294
3 1065 1064 1290
3 1065 1290 1294
3 1065 1294 1059
3 1290 1295 1294
3 1295 1296 1292
3 1295 1292 1294
3 1297 1298 201
3 1297 201 1299
3 1297 1299 1300
3 1297 1301 1302
3 1297 1302 1298
3 1302 1303 1304
3 1302 1304 1298
3 1304 1305 202
3 1304 202 201
3 1304 201 1298
3 1306 1307 1308
3 1307 1309 1310
3 1307 1310 1308
3 1310 1303 1302
3 1310 1302 1308
3 1302 1301 1306
3 1302 1306 1308
3 1311 1291 1312
3 1291 1288 1313
3 1291 1313 1312
3 1313 1303 1310
3 1313 1310 1312
3 1310 1309 1311
3 1310 1311 1312
3 1286 1285 155
3 1286 155 154
3 1286 154 1314
3 154 1315 1305
3 154 1305 1304
3 154 1304 1314
3 1304 1303 1313
3 1304 1313 1314
3 1313 1288 1286
3 1313 1286 1314
3 1316 1317 691
3 1316 691 1318
3 1316 1318 1319
3 1316 1320 1321
3 1316 1321 1317
3 1321 1322 1317
3 1322 1323 692
3 1322 692 691
3 1322 691 1317
3 1306 1301 1324
3 1297 1300 701
3 1297 701 700
3 1297 700 1325
3 1326 1323 1322
3 1326 1322 1325
3 1326 1325 700
3 1322 1324 1325
3 1324 1301 1297
3 1324 1297 1325
3 1327 631 1328
3 1327 1328 1293
3 1327 1293 1292
3 1292 1296 1329
3 1292 1329 1327
3 1329 1330 1331
3 1329 1331 1327
3 1331 1332 632
3 1331 632 631
3 1331 631 1327
3 1296 1333 1329
3 1333 1330 1329
3 1334 1320 1335
3 1330 1334 1335
3 1316 1319 642
3 1316 642 641
3 1316 641 1336
3 641 1337 1332
3 641 1332 1331
3 641 1331 1336
3 1331 1330 1335
3 1331 1335 1336
3 1335 1320 1316
3 1335 1316 1336
3 1333 1296 1338
3 1339 1330 1333
3 1340 1320 1334
3 1334 1330 1339
3 1321 1320 1340
3 1340 1341 1321
3 1341 1342 1321
3 1342 1322 1321
3 1343 1306 1324
3 1324 1322 1342
3 1342 1344 1324
3 1344 1343 1324
3 1307 1306 1343
3 1345 1291 1311
3 1289 1291 1345
3 1289 1345 1346
3 1347 1290 1289
3 1347 1289 1346
3 1338 1296 1295
3 1295 1290 1347
3 1347 1348 1295
3 1348 1338 1295
3 1349 1259 1278
3 1276 1350 1278
3 1350 1349 1278
3 1260 1259 1349
3 884 1351 1352
3 884 1352 1353
3 884 1353 1354
3 1353 1355 1356
3 1353 1356 1354
3 1356 1357 1358
3 1356 1358 1354
3 1358 1359 885
3 1358 885 884
3 1358 884 1354
3 1360 1361 556
3 1360 556 555
3 1360 555 1362
3 1363 1362 555
3 1363 555 1364
3 1363 1364 1365
3 1363 1357 1356
3 1363 1356 1362
3 1356 1355 1360
3 1356 1360 1362
3 544 1366 1367
3 544 1367 1368
3 544 1368 1369
3 1368 1370 1371
3 1368 1371 1369
3 1371 1357 1363
3 1371 1363 1369
3 1363 1365 545
3 1363 545 544
3 1363 544 1369
3 1372 1373 892
3 1372 892 891
3 1372 891 1374
3 1374 891 1375
3 1374 1375 1359
3 1374 1359 1358
3 1358 1357 1371
3 1358 1371 1374
3 1371 1370 1372
3 1371 1372 1374
3 1376 1377 1378
3 1377 1379 1378
3 1380 1381 1376
3 1380 1376 1378
3 1379 1382 830
3 1379 830 829
3 1379 829 1383
3 835 844 1384
3 835 1384 1383
3 835 1383 829
3 1384 1380 1378
3 1384 1378 1383
3 1378 1379 1383
3 1385 1386 842
3 1385 842 1387
3 1385 1387 1373
3 1385 1388 1386
3 1386 1380 1384
3 1384 844 843
3 1384 843 842
3 1384 842 1386
3 1388 1389 1386
3 1389 1381 1380
3 1389 1380 1386
3 1368 1367 1390
3 1368 1390 1391
3 1390 1392 1393
3 1390 1393 1391
3 1393 1394 1395
3 1393 1395 1391
3 1395 1370 1368
3 1395 1368 1391
3 1396 1394 1393
3 1396 1393 1397
3 1393 1392 1397
3 1388 1398 1399
3 1398 1394 1396
3 1398 1396 1399
3 1385 1373 1372
3 1385 1372 1400
3 1372 1370 1395
3 1372 1395 1400
3 1395 1394 1398
3 1395 1398 1400
3 1398 1388 1385
3 1398 1385 1400
3 1401 1402 580
3 1401 580 578
3 1401 578 1403
3 1401 1404 1402
3 1404 1405 1406
3 1404 1406 1402
3 1406 1407 581
3 1406 581 580
3 1406 580 1402
3 1408 1409 1410
3 1405 1404 1410
3 1404 1401 1408
3 1404 1408 1410
3 1411 1392 1412
3 1405 1411 1412
3 1390 1367 590
3 1390 590 589
3 1390 589 1413
3 589 1414 1407
3 589 1407 1406
3 589 1406 1413
3 1406 1405 1412
3 1406 1412 1413
3 1412 1392 1390
3 1412 1390 1413
3 1415 1252 1416
3 1415 1416 1382
3 1415 1382 1379
3 1379 1417 1415
3 1417 1418 1419
3 1417 1419 1415
3 1419 1420 1253
3 1419 1253 1252
3 1419 1252 1415
3 1418 1417 1421
3 1417 1379 1377
3 1417 1377 1421
3 1422 1409 1408
3 1408 1401 1423
3 1408 1423 1422
3 1423 1418 1422
3 1401 1403 1242
3 1401 1242 1241
3 1401 1241 1423
3 1241 1424 1420
3 1241 1420 1419
3 1241 1419 1423
3 1419 1418 1423
3 1353 1352 1425
3 1353 1425 1426
3 1425 1427 1428
3 1425 1428 1426
3 1428 1429 1430
3 1428 1430 1426
3 1430 1355 1353
3 1430 1353 1426
3 1431 1429 1428
3 1432 1433 1434
3 1432 1434 1435
3 1434 1429 1431
3 1434 1431 1435
3 1436 1361 1360
3 1436 1360 1437
3 1360 1355 1430
3 1360 1430 1437
3 1430 1429 1434
3 1430 1434 1437
3 1434 1433 1436
3 1434 1436 1437
3 776 1438 1439
3 776 1439 1440
3 776 1440 1441
3 1440 1442 1443
3 1440 1443 1441
3 1443 1444 1445
3 1443 1445 1441
3 1445 1446 777
3 1445 777 776
3 1445 776 1441
3 1425 1352 764
3 1425 764 763
3 1425 763 1447
3 763 1448 1446
3 763 1446 1445
3 763 1445 1447
3 1445 1444 1449
3 1445 1449 1447
3 1449 1427 1425
3 1449 1425 1447
3 444 1450 1361
3 444 1361 1436
3 444 1436 1451
3 1436 1433 1452
3 1436 1452 1451
3 1452 1453 1454
3 1452 1454 1451
3 1454 1455 445
3 1454 445 444
3 1454 444 1451
3 1456 1453 1452
3 1456 1452 1457
3 1452 1433 1432
3 1452 1432 1457
3 1458 1459 1460
3 1458 1460 1461
3 1460 1453 1456
3 1460 1456 1461
3 1462 1463 451
3 1462 451 450
3 1462 450 1464
3 1464 450 1465
3 1464 1465 1455
3 1464 1455 1454
3 1454 1453 1460
3 1454 1460 1464
3 1460 1459 1462
3 1460 1462 1464
3 1466 811 1467
3 1466 1467 1468
3 1466 1468 1469
3 1469 1470 1471
3 1469 1471 1466
3 1471 1472 1473
3 1471 1473 1466
3 1473 1474 812
3 1473 812 811
3 1473 811 1466
3 1471 1470 1475
3 1440 1439 818
3 1440 818 817
3 1440 817 1476
3 1474 1473 1476
3 1474 1476 817
3 1474 817 1477
3 1473 1472 1478
3 1473 1478 1476
3 1478 1442 1440
3 1478 1440 1476
3 1479 1480 1481
3 1479 1481 657
3 1479 657 1482
3 1480 1483 1484
3 1480 1484 1481
3 1484 1485 1486
3 1484 1486 1481
3 1486 1487 658
3 1486 658 657
3 1486 657 1481
3 1488 1485 1484
3 1488 1484 1489
3 1484 1483 1490
3 1484 1490 1489
3 1475 1470 1491
3 1475 1491 1492
3 1491 1485 1488
3 1491 1488 1492
3 1469 1468 612
3 1469 612 611
3 1469 611 1493
3 611 1494 1487
3 611 1487 1486
3 611 1486 1493
3 1486 1485 1491
3 1486 1491 1493
3 1491 1470 1469
3 1491 1469 1493
3 1462 1495 498
3 1462 498 1496
3 1462 1496 1463
3 1462 1459 1497
3 1462 1497 1495
3 1497 1498 1499
3 1497 1499 1495
3 1499 1500 499
3 1499 499 498
3 1499 498 1495
3 1501 1498 1497
3 1501 1497 1502
3 1497 1459 1458
3 1497 1458 1502
3 1490 1483 1503
3 1490 1503 1504
3 1503 1498 1501
3 1503 1501 1504
3 1480 1479 509
3 1480 509 508
3 1480 508 1505
3 508 1506 1500
3 508 1500 1499
3 508 1499 1505
3 1499 1498 1503
3 1499 1503 1505
3 1503 1483 1480
3 1503 1480 1505
3 1421 1377 1507
3 1508 1418 1421
3 1422 1418 1508
3 1509 1405 1410
3 1510 1392 1411
3 1411 1405 1509
3 1397 1392 1510
3 1510 1511 1397
3 1511 1512 1397
3 1512 1396 1397
3 1513 1388 1399
3 1399 1396 1512
3 1507 1377 1376
3 1389 1388 1513
3 0 1514 1
3 2 3 0
3 3 1515 5
3 6 4 3
3 7 1515 3
3 10 6 8
3 1516 11 6
3 6 10 1516
3 11 4 6
3 1186 11 1196
3 0 11 1186
3 1517 1518 12
3 1517 12 1207
3 1518 13 12
3 1207 12 15
3 1207 15 17
3 14 13 24
3 1518 18 13
3 34 10 9
3 9 20 34
3 8 21 20
3 22 15 14
3 14 23 22
3 23 20 22
3 34 20 23
3 1515 1519 1520
3 1519 1521 1520
3 1521 17 1520
3 17 16 1520
3 15 22 16
3 22 21 16
3 21 8 5
3 5 1515 1520
3 5 1520 21
3 1520 16 21
3 1178 25 29
3 1178 1177 26
3 25 1178 26
3 27 37 25
3 1175 1161 31
3 1175 31 30
3 27 26 33
3 26 30 33
3 26 1177 30
3 1177 1175 30
3 23 24 36
3 24 37 36
3 36 1522 34
3 27 33 1522
3 1522 36 27
3 33 32 35
3 33 35 1522
3 35 34 1522
3 28 25 38
3 38 19 28
3 24 13 38
3 40 1170 41
3 42 47 39
3 47 43 39
3 44 40 39
3 1196 11 45
3 11 1516 42
3 42 41 45
3 41 1196 45
3 10 35 46
3 35 32 46
3 42 1516 47
3 1516 46 47
3 10 46 1516
3 1161 1160 31
3 44 43 1160
3 43 31 1160
3 47 32 48
3 48 31 43
3 31 48 32
3 568 50 1523
3 50 49 1523
3 49 1524 1523
3 51 1525 70
3 51 70 52
3 70 54 53
3 70 53 52
3 53 1524 49
3 53 49 52
3 55 1526 94
3 55 94 56
3 94 93 56
3 93 1524 53
3 93 53 56
3 569 568 1523
3 569 1523 1527
3 1523 1524 93
3 1523 93 1527
3 59 1528 141
3 59 141 60
3 141 62 61
3 141 61 60
3 61 1529 57
3 61 57 60
3 63 1530 83
3 63 83 64
3 83 66 65
3 83 65 64
3 65 1529 61
3 65 61 64
3 67 1526 55
3 67 55 68
3 55 54 69
3 55 69 68
3 69 1529 65
3 69 65 68
3 70 1525 257
3 70 257 71
3 257 58 57
3 257 57 71
3 57 1529 69
3 57 69 71
3 74 1531 75
3 76 1532 72
3 76 72 75
3 77 79 78
3 78 1532 76
3 80 1526 67
3 80 67 81
3 67 66 82
3 67 82 81
3 82 1532 78
3 82 78 81
3 83 1530 131
3 83 131 84
3 131 73 72
3 131 72 84
3 72 1532 82
3 72 82 84
3 87 1403 90
3 87 90 88
3 90 89 88
3 89 85 88
3 91 569 1527
3 91 1527 89
3 1527 93 92
3 1527 92 89
3 92 85 89
3 94 1526 80
3 80 79 95
3 80 95 94
3 95 85 92
3 95 92 94
3 96 86 85
3 85 95 96
3 98 100 99
3 99 1533 97
3 101 124 102
3 124 104 103
3 124 103 102
3 103 1533 99
3 103 99 102
3 105 1534 148
3 105 148 106
3 148 108 107
3 148 107 106
3 107 1533 103
3 107 103 106
3 109 1535 378
3 109 378 110
3 378 98 97
3 378 97 110
3 97 1533 107
3 97 107 110
3 113 1300 198
3 113 198 114
3 198 116 115
3 198 115 114
3 115 1536 111
3 115 111 114
3 117 1537 138
3 117 138 118
3 138 120 119
3 138 119 118
3 119 1536 115
3 119 115 118
3 121 1534 105
3 121 105 122
3 105 104 123
3 105 123 122
3 123 1536 119
3 123 119 122
3 124 101 703
3 124 703 125
3 703 112 111
3 703 111 125
3 111 1536 123
3 111 123 125
3 128 1531 74
3 128 74 129
3 74 73 130
3 74 130 129
3 130 1538 126
3 130 126 129
3 131 1530 151
3 131 151 132
3 151 134 133
3 151 133 132
3 133 1538 130
3 133 130 132
3 135 1534 121
3 135 121 136
3 121 120 137
3 121 137 136
3 137 1538 133
3 137 133 136
3 138 1537 188
3 138 188 139
3 188 127 126
3 188 126 139
3 126 1538 137
3 126 137 139
3 141 1528 389
3 141 389 142
3 389 144 143
3 389 143 142
3 143 1539 140
3 143 140 142
3 145 1535 109
3 145 109 146
3 109 108 147
3 109 147 146
3 147 1539 143
3 147 143 146
3 148 1534 135
3 148 135 149
3 135 134 150
3 135 150 149
3 150 1539 147
3 150 147 149
3 151 1530 63
3 151 63 152
3 63 62 140
3 63 140 152
3 140 1539 150
3 140 150 152
3 155 1285 914
3 155 914 156
3 914 158 157
3 914 157 156
3 157 1540 153
3 157 153 156
3 159 1541 181
3 159 181 160
3 181 162 161
3 181 161 160
3 161 1540 157
3 161 157 160
3 163 1542 204
3 163 204 164
3 204 166 165
3 204 165 164
3 165 1540 161
3 165 161 164
3 167 1305 1315
3 167 1315 165
3 1315 154 153
3 1315 153 165
3 153 1540 165
3 170 1543 1271
3 170 1271 171
3 1271 173 172
3 1271 172 171
3 172 1544 168
3 172 168 171
3 174 1545 195
3 174 195 175
3 195 177 176
3 195 176 175
3 176 1544 172
3 176 172 175
3 178 1542 163
3 178 163 179
3 163 162 180
3 163 180 179
3 180 1544 176
3 180 176 179
3 181 1541 1546
3 181 1546 182
3 1546 169 168
3 1546 168 182
3 168 1544 180
3 168 180 182
3 185 1531 128
3 185 128 186
3 128 127 187
3 128 187 186
3 187 1547 183
3 187 183 186
3 188 1537 207
3 188 207 189
3 207 191 190
3 207 190 189
3 190 1547 187
3 190 187 189
3 192 1542 178
3 192 178 193
3 178 177 194
3 178 194 193
3 194 1547 190
3 194 190 193
3 195 1545 1279
3 195 1279 196
3 1279 184 183
3 1279 183 196
3 183 1547 194
3 183 194 196
3 198 1300 1299
3 198 1299 199
3 1299 201 200
3 1299 200 199
3 200 1548 197
3 200 197 199
3 202 1305 167
3 202 167 203
3 167 166 203
3 203 1548 200
3 204 1542 192
3 204 192 205
3 192 191 206
3 192 206 205
3 206 1548 203
3 206 203 205
3 207 1537 117
3 207 117 208
3 117 116 197
3 117 197 208
3 197 1548 206
3 197 206 208
3 50 568 211
3 50 211 210
3 210 1549 209
3 212 1550 235
3 212 235 213
3 235 215 214
3 235 214 213
3 214 1549 210
3 214 210 213
3 216 1551 260
3 216 260 217
3 260 219 218
3 260 218 217
3 218 1549 214
3 218 214 217
3 220 1525 51
3 220 51 221
3 51 50 209
3 51 209 221
3 209 1549 218
3 209 218 221
3 224 1552 307
3 224 307 225
3 307 227 226
3 307 226 225
3 226 1553 222
3 226 222 225
3 228 1554 250
3 228 250 229
3 250 231 230
3 250 230 229
3 230 1553 226
3 230 226 229
3 232 1551 216
3 232 216 233
3 216 215 234
3 216 234 233
3 234 1553 230
3 234 230 233
3 235 1550 602
3 235 602 236
3 602 223 222
3 602 222 236
3 222 1553 234
3 222 234 236
3 239 1555 402
3 239 402 240
3 402 242 241
3 402 241 240
3 241 1556 237
3 241 237 240
3 243 1557 263
3 243 263 244
3 263 246 245
3 263 245 244
3 245 1556 241
3 245 241 244
3 247 1551 232
3 247 232 248
3 232 231 249
3 232 249 248
3 249 1556 245
3 249 245 248
3 250 1554 297
3 250 297 251
3 297 238 237
3 297 237 251
3 237 1556 249
3 237 249 251
3 254 1528 59
3 254 59 255
3 59 58 256
3 59 256 255
3 256 1558 252
3 256 252 255
3 257 1525 220
3 257 220 258
3 220 219 259
3 220 259 258
3 259 1558 256
3 259 256 258
3 260 1551 247
3 260 247 261
3 247 246 262
3 247 262 261
3 262 1558 259
3 262 259 261
3 263 1557 392
3 263 392 264
3 392 253 252
3 392 252 264
3 252 1558 262
3 252 262 264
3 514 429 266
3 514 266 1559
3 266 265 1559
3 265 1560 1559
3 267 1561 290
3 267 290 268
3 290 270 269
3 290 269 268
3 269 1560 265
3 269 265 268
3 271 1562 314
3 271 314 272
3 314 274 273
3 314 273 272
3 273 1560 269
3 273 269 272
3 275 1563 515
3 275 515 276
3 515 514 1559
3 515 1559 276
3 1559 1560 273
3 1559 273 276
3 279 1564 363
3 279 363 280
3 363 282 281
3 363 281 280
3 281 1565 277
3 281 277 280
3 283 1566 304
3 283 304 284
3 304 286 285
3 304 285 284
3 285 1565 281
3 285 281 284
3 287 1562 271
3 287 271 288
3 271 270 289
3 271 289 288
3 289 1565 285
3 289 285 288
3 290 1561 465
3 290 465 291
3 465 278 277
3 465 277 291
3 277 1565 289
3 277 289 291
3 294 1555 239
3 294 239 295
3 239 238 296
3 239 296 295
3 296 1567 292
3 296 292 295
3 297 1554 317
3 297 317 298
3 317 300 299
3 317 299 298
3 299 1567 296
3 299 296 298
3 301 1562 287
3 301 287 302
3 287 286 303
3 287 303 302
3 303 1567 299
3 303 299 302
3 304 1566 353
3 304 353 305
3 353 293 292
3 353 292 305
3 292 1567 303
3 292 303 305
3 307 1552 526
3 307 526 308
3 526 310 309
3 526 309 308
3 309 1568 306
3 309 306 308
3 311 1563 275
3 311 275 312
3 275 274 313
3 275 313 312
3 313 1568 309
3 313 309 312
3 314 1562 301
3 314 301 315
3 301 300 316
3 301 316 315
3 316 1568 313
3 316 313 315
3 317 1554 228
3 317 228 318
3 228 227 306
3 228 306 318
3 306 1568 316
3 306 316 318
3 320 713 322
3 320 322 321
3 321 1569 319
3 323 1570 346
3 323 346 324
3 346 326 325
3 346 325 324
3 325 1569 321
3 325 321 324
3 327 1571 370
3 327 370 328
3 370 330 329
3 370 329 328
3 329 1569 325
3 329 325 328
3 331 1572 474
3 331 474 332
3 474 320 319
3 474 319 332
3 319 1569 329
3 319 329 332
3 335 1573 415
3 335 415 336
3 415 338 337
3 415 337 336
3 337 1574 333
3 337 333 336
3 339 1575 360
3 339 360 340
3 360 342 341
3 360 341 340
3 341 1574 337
3 341 337 340
3 343 1571 327
3 343 327 344
3 327 326 345
3 327 345 344
3 345 1574 341
3 345 341 344
3 346 1570 754
3 346 754 347
3 754 334 333
3 754 333 347
3 333 1574 345
3 333 345 347
3 350 1555 294
3 350 294 351
3 294 293 352
3 294 352 351
3 352 1576 348
3 352 348 351
3 353 1566 373
3 353 373 354
3 373 356 355
3 373 355 354
3 355 1576 352
3 355 352 354
3 357 1571 343
3 357 343 358
3 343 342 359
3 343 359 358
3 359 1576 355
3 359 355 358
3 360 1575 405
3 360 405 361
3 405 349 348
3 405 348 361
3 348 1576 359
3 348 359 361
3 363 1564 485
3 363 485 364
3 485 366 365
3 485 365 364
3 365 1577 362
3 365 362 364
3 367 1572 331
3 367 331 368
3 331 330 369
3 331 369 368
3 369 1577 365
3 369 365 368
3 370 1571 357
3 370 357 371
3 357 356 372
3 357 372 371
3 372 1577 369
3 372 369 371
3 373 1566 283
3 373 283 374
3 283 282 362
3 283 362 374
3 362 1577 372
3 362 372 374
3 376 100 98
3 376 98 377
3 377 1578 375
3 378 1535 399
3 378 399 379
3 399 381 380
3 399 380 379
3 380 1578 377
3 380 377 379
3 382 1579 422
3 382 422 383
3 422 385 384
3 422 384 383
3 384 1578 380
3 384 380 383
3 386 1580 667
3 386 667 387
3 667 376 375
3 667 375 387
3 375 1578 384
3 375 384 387
3 389 1528 254
3 389 254 390
3 254 253 391
3 254 391 390
3 391 1581 388
3 391 388 390
3 392 1557 412
3 392 412 393
3 412 395 394
3 412 394 393
3 394 1581 391
3 394 391 393
3 396 1579 382
3 396 382 397
3 382 381 398
3 382 398 397
3 398 1581 394
3 398 394 397
3 399 1535 145
3 399 145 400
3 145 144 388
3 145 388 400
3 388 1581 398
3 388 398 400
3 402 1555 350
3 402 350 403
3 350 349 404
3 350 404 403
3 404 1582 401
3 404 401 403
3 405 1575 425
3 405 425 406
3 425 408 407
3 425 407 406
3 407 1582 404
3 407 404 406
3 409 1579 396
3 409 396 410
3 396 395 411
3 396 411 410
3 411 1582 407
3 411 407 410
3 412 1557 243
3 412 243 413
3 243 242 401
3 243 401 413
3 401 1582 411
3 401 411 413
3 415 1573 674
3 415 674 416
3 674 418 417
3 674 417 416
3 417 1583 414
3 417 414 416
3 419 1580 386
3 419 386 420
3 386 385 421
3 386 421 420
3 421 1583 417
3 421 417 420
3 422 1579 409
3 422 409 423
3 409 408 424
3 409 424 423
3 424 1583 421
3 424 421 423
3 425 1575 339
3 425 339 426
3 339 338 414
3 339 414 426
3 414 1583 424
3 414 424 426
3 266 429 428
3 428 1584 427
3 430 1585 431
3 1585 433 432
3 1585 432 431
3 432 1584 428
3 432 428 431
3 434 1586 468
3 434 468 435
3 468 437 436
3 468 436 435
3 436 1584 432
3 436 432 435
3 438 1561 267
3 438 267 439
3 267 266 427
3 267 427 439
3 427 1584 436
3 427 436 439
3 442 1361 1450
3 442 1450 440
3 1450 444 443
3 1450 443 440
3 445 1455 447
3 445 447 446
3 448 1586 434
3 433 443 446
3 433 446 434
3 1585 430 559
3 559 441 440
3 559 440 1585
3 440 443 433
3 440 433 1585
3 451 1463 453
3 451 453 452
3 454 1587 471
3 454 471 455
3 471 457 456
3 471 456 455
3 456 449 452
3 456 452 455
3 458 1586 448
3 458 448 459
3 448 447 1588
3 448 1588 459
3 1588 449 456
3 1588 456 459
3 447 1455 1465
3 447 1465 1588
3 1465 450 449
3 1465 449 1588
3 462 1564 279
3 462 279 463
3 279 278 464
3 279 464 463
3 464 1589 460
3 464 460 463
3 465 1561 438
3 465 438 466
3 438 437 467
3 438 467 466
3 467 1589 464
3 467 464 466
3 468 1586 458
3 468 458 469
3 458 457 470
3 458 470 469
3 470 1589 467
3 470 467 469
3 471 1587 488
3 471 488 472
3 488 461 460
3 488 460 472
3 460 1589 470
3 460 470 472
3 713 320 1590
3 320 473 1590
3 473 1591 1590
3 474 1572 495
3 474 495 475
3 495 477 476
3 495 476 475
3 476 1591 473
3 476 473 475
3 478 1592 1593
3 478 1593 479
3 1593 481 480
3 1593 480 479
3 480 1591 476
3 480 476 479
3 482 714 483
3 714 713 1590
3 714 1590 483
3 1590 1591 480
3 1590 480 483
3 485 1564 462
3 485 462 486
3 462 461 487
3 462 487 486
3 487 1594 484
3 487 484 486
3 488 1587 505
3 488 505 489
3 505 491 490
3 505 490 489
3 490 1594 487
3 490 487 489
3 492 1592 478
3 492 478 493
3 478 477 494
3 478 494 493
3 494 1594 490
3 494 490 493
3 495 1572 367
3 495 367 496
3 367 366 484
3 367 484 496
3 484 1594 494
3 484 494 496
3 453 1463 1496
3 453 1496 1595
3 1496 498 497
3 1496 497 1595
3 499 1500 501
3 499 501 500
3 502 1592 492
3 502 492 503
3 492 491 504
3 492 504 503
3 504 497 500
3 504 500 503
3 505 1587 454
3 505 454 506
3 454 453 1595
3 454 1595 506
3 1595 497 504
3 1595 504 506
3 509 1479 725
3 725 511 510
3 725 510 509
3 510 507 509
3 512 714 482
3 481 507 510
3 481 510 482
3 1593 1592 502
3 502 501 1596
3 502 1596 1593
3 1596 507 481
3 1596 481 1593
3 501 1500 1506
3 501 1506 1596
3 1506 508 507
3 1506 507 1596
3 429 514 1597
3 514 513 1597
3 513 1598 1597
3 515 1563 537
3 515 537 516
3 537 518 517
3 537 517 516
3 517 1598 513
3 517 513 516
3 519 1599 562
3 519 562 520
3 562 522 521
3 562 521 520
3 521 1598 517
3 521 517 520
3 523 430 524
3 430 429 1597
3 430 1597 524
3 1597 1598 521
3 1597 521 524
3 526 1552 599
3 526 599 527
3 599 529 528
3 599 528 527
3 528 1600 525
3 528 525 527
3 530 1601 552
3 530 552 531
3 552 533 532
3 552 532 531
3 532 1600 528
3 532 528 531
3 534 1599 519
3 534 519 535
3 519 518 536
3 519 536 535
3 536 1600 532
3 536 532 535
3 537 1563 311
3 537 311 538
3 311 310 525
3 311 525 538
3 525 1600 536
3 525 536 538
3 541 1367 1366
3 541 1366 542
3 1366 544 543
3 1366 543 542
3 543 1602 539
3 543 539 542
3 545 1365 565
3 545 565 546
3 565 548 547
3 565 547 546
3 547 1602 543
3 547 543 546
3 549 1599 534
3 549 534 550
3 534 533 551
3 534 551 550
3 551 1602 547
3 551 547 550
3 552 1601 592
3 552 592 553
3 592 540 539
3 592 539 553
3 539 1602 551
3 539 551 553
3 556 1361 442
3 556 442 557
3 442 441 558
3 442 558 557
3 558 1603 554
3 558 554 557
3 559 430 523
3 559 523 560
3 523 522 561
3 523 561 560
3 561 1603 558
3 561 558 560
3 562 1599 549
3 562 549 563
3 549 548 564
3 549 564 563
3 564 1603 561
3 564 561 563
3 565 1365 1364
3 565 1364 566
3 1364 555 554
3 1364 554 566
3 554 1603 564
3 554 564 566
3 211 568 1604
3 568 567 1604
3 567 1605 1604
3 569 587 567
3 587 570 567
3 570 1605 567
3 571 1606 605
3 571 605 572
3 605 574 573
3 605 573 572
3 573 1605 570
3 573 570 572
3 575 1550 212
3 575 212 576
3 212 211 1604
3 212 1604 576
3 1604 1605 573
3 1604 573 576
3 90 1403 578
3 578 580 579
3 579 577 578
3 581 1407 583
3 581 583 582
3 584 1606 571
3 584 571 585
3 571 570 586
3 571 586 585
3 586 579 582
3 586 582 585
3 587 569 91
3 587 91 577
3 91 90 577
3 577 579 586
3 590 1367 541
3 541 540 591
3 541 591 590
3 591 1607 588
3 591 588 590
3 592 1601 608
3 592 608 593
3 608 595 594
3 608 594 593
3 594 1607 591
3 594 591 593
3 596 1606 584
3 596 584 597
3 584 583 1608
3 584 1608 597
3 1608 1607 594
3 1608 594 597
3 583 1407 1414
3 583 1414 1608
3 1414 589 588
3 1414 588 1608
3 588 1607 1608
3 599 1552 224
3 599 224 600
3 224 223 601
3 224 601 600
3 601 1609 598
3 601 598 600
3 602 1550 575
3 602 575 603
3 575 574 604
3 575 604 603
3 604 1609 601
3 604 601 603
3 605 1606 596
3 605 596 606
3 596 595 607
3 596 607 606
3 607 1609 604
3 607 604 606
3 608 1601 530
3 608 530 609
3 530 529 598
3 530 598 609
3 598 1609 607
3 598 607 609
3 612 1468 987
3 612 987 613
3 987 615 614
3 987 614 613
3 614 1610 610
3 614 610 613
3 616 1611 638
3 616 638 617
3 638 619 618
3 638 618 617
3 618 1610 614
3 618 614 617
3 620 1612 661
3 620 661 621
3 661 623 622
3 661 622 621
3 622 1610 618
3 622 618 621
3 624 1487 1494
3 624 1494 625
3 1494 611 610
3 1494 610 625
3 610 1610 622
3 610 622 625
3 628 1293 1328
3 628 1328 629
3 1328 631 630
3 1328 630 629
3 630 1613 626
3 630 626 629
3 632 1332 634
3 632 634 633
3 633 1613 630
3 635 1612 620
3 635 620 636
3 620 619 637
3 620 637 636
3 637 1613 633
3 637 633 636
3 638 1611 1016
3 638 1016 639
3 1016 627 626
3 1016 626 639
3 626 1613 637
3 626 637 639
3 642 1319 738
3 642 738 643
3 738 645 644
3 738 644 643
3 644 1614 640
3 644 640 643
3 646 1615 664
3 646 664 647
3 664 649 648
3 664 648 647
3 648 1614 644
3 648 644 647
3 650 1612 635
3 650 635 651
3 635 634 1616
3 635 1616 651
3 1616 1614 648
3 1616 648 651
3 634 1332 1337
3 634 1337 1616
3 1337 641 640
3 1337 640 1616
3 640 1614 1616
3 654 1479 1482
3 654 1482 655
3 1482 657 656
3 1482 656 655
3 656 1617 652
3 656 652 655
3 658 1487 624
3 658 624 659
3 624 623 660
3 624 660 659
3 660 1617 656
3 660 656 659
3 661 1612 650
3 661 650 662
3 650 649 663
3 650 663 662
3 663 1617 660
3 663 660 662
3 664 1615 728
3 664 728 665
3 728 653 652
3 728 652 665
3 652 1617 663
3 652 663 665
3 100 376 1618
3 376 666 1618
3 666 1619 1618
3 667 1580 685
3 667 685 668
3 685 670 669
3 685 669 668
3 669 1619 666
3 669 666 668
3 671 1620 707
3 671 707 672
3 707 706 672
3 706 1619 669
3 706 669 672
3 101 100 1618
3 101 1618 1621
3 1618 1619 706
3 1618 706 1621
3 674 1573 751
3 674 751 675
3 751 677 676
3 751 676 675
3 676 1622 673
3 676 673 675
3 678 1623 697
3 678 697 679
3 697 681 680
3 697 680 679
3 680 1622 676
3 680 676 679
3 682 1620 671
3 682 671 683
3 671 670 684
3 671 684 683
3 684 1622 680
3 684 680 683
3 685 1580 419
3 685 419 686
3 419 418 673
3 419 673 686
3 673 1622 684
3 673 684 686
3 689 1319 1318
3 689 1318 687
3 1318 691 690
3 1318 690 687
3 690 1624 687
3 692 1323 710
3 692 710 693
3 710 694 693
3 693 1624 690
3 694 1620 682
3 694 682 695
3 682 681 696
3 682 696 695
3 696 1624 693
3 696 693 695
3 697 1623 741
3 697 741 698
3 741 688 687
3 741 687 698
3 687 1624 696
3 687 696 698
3 701 1300 113
3 113 112 702
3 113 702 701
3 702 705 699
3 702 699 701
3 703 101 1621
3 703 1621 704
3 1621 706 705
3 1621 705 704
3 705 702 704
3 707 1620 694
3 707 694 708
3 694 709 708
3 709 705 708
3 710 1323 1326
3 710 1326 709
3 1326 700 699
3 1326 699 709
3 699 705 709
3 322 713 712
3 712 1625 711
3 714 735 715
3 735 717 716
3 735 716 715
3 716 1625 712
3 716 712 715
3 718 1626 757
3 718 757 719
3 757 721 720
3 757 720 719
3 720 1625 716
3 720 716 719
3 722 1570 323
3 722 323 723
3 323 322 711
3 323 711 723
3 711 1625 720
3 711 720 723
3 725 1479 654
3 725 654 726
3 654 653 727
3 654 727 726
3 727 1627 724
3 727 724 726
3 728 1615 748
3 728 748 729
3 748 731 730
3 748 730 729
3 730 1627 727
3 730 727 729
3 732 1626 718
3 732 718 733
3 718 717 734
3 718 734 733
3 734 1627 730
3 734 730 733
3 735 714 512
3 735 512 736
3 512 511 724
3 512 724 736
3 724 1627 734
3 724 734 736
3 738 1319 689
3 738 689 739
3 689 688 740
3 689 740 739
3 740 1628 737
3 740 737 739
3 741 1623 760
3 741 760 742
3 760 744 743
3 760 743 742
3 743 1628 740
3 743 740 742
3 745 1626 732
3 745 732 746
3 732 731 747
3 732 747 746
3 747 1628 743
3 747 743 746
3 748 1615 646
3 748 646 749
3 646 645 737
3 646 737 749
3 737 1628 747
3 737 747 749
3 751 1573 335
3 751 335 752
3 335 334 753
3 335 753 752
3 753 1629 750
3 753 750 752
3 754 1570 722
3 754 722 755
3 722 721 756
3 722 756 755
3 756 1629 753
3 756 753 755
3 757 1626 745
3 757 745 758
3 745 744 759
3 745 759 758
3 759 1629 756
3 759 756 758
3 760 1623 678
3 760 678 761
3 678 677 750
3 678 750 761
3 750 1629 759
3 750 759 761
3 764 1352 882
3 882 881 1630
3 882 1630 764
3 1630 762 764
3 881 766 1630
3 1631 762 1630
3 770 778 771
3 771 762 1631
3 778 1446 1448
3 778 1448 771
3 1448 763 762
3 1448 762 771
3 1631 792 768
3 1631 768 771
3 766 765 1630
3 765 792 1631
3 765 1631 1630
3 773 789 774
3 789 821 774
3 774 1632 772
3 821 1633 774
3 1633 1632 774
3 770 769 779
3 769 1634 779
3 1634 772 779
3 772 1632 779
3 820 1439 1438
3 820 1438 1633
3 1438 776 775
3 1438 775 1633
3 777 1446 778
3 1632 775 777
3 1632 777 779
3 821 820 1633
3 1633 775 1632
3 865 864 1069
3 780 865 1069
3 1073 781 780
3 784 865 782
3 865 780 782
3 787 790 781
3 781 785 787
3 781 1073 1635
3 785 781 1635
3 772 788 773
3 769 794 790
3 769 790 1634
3 790 772 1634
3 794 781 790
3 788 772 790
3 765 767 793
3 793 783 765
3 783 791 765
3 782 781 794
3 794 791 783
3 768 792 791
3 791 794 768
3 798 795 797
3 800 795 798
3 806 801 795
3 795 800 806
3 1636 802 804
3 809 808 1637
3 808 802 1636
3 808 1636 1637
3 808 806 800
3 800 802 808
3 799 803 802
3 789 788 805
3 789 805 823
3 788 787 786
3 788 786 805
3 806 808 807
3 823 805 807
3 801 786 785
3 989 1468 1467
3 989 1467 827
3 1467 811 810
3 1467 810 827
3 812 1474 813
3 1638 810 812
3 1638 812 815
3 827 826 990
3 990 989 827
3 827 810 1638
3 818 1439 820
3 818 820 819
3 825 816 819
3 814 813 1639
3 1639 816 825
3 813 1474 1477
3 813 1477 1639
3 1477 817 816
3 1477 816 1639
3 789 823 822
3 823 825 822
3 807 809 824
3 824 825 823
3 814 1639 824
3 1639 825 824
3 819 821 822
3 803 826 804
3 1638 1636 804
3 1638 804 827
3 814 809 815
3 815 1636 1638
3 809 1637 815
3 1637 1636 815
3 830 1382 832
3 832 831 830
3 831 828 830
3 833 840 831
3 840 828 831
3 834 839 835
3 839 844 835
3 835 829 828
3 983 860 840
3 860 836 840
3 837 838 834
3 834 828 836
3 833 983 840
3 898 897 1640
3 898 1640 1641
3 1640 1642 855
3 1640 855 1641
3 897 895 1640
3 839 838 1643
3 838 856 1643
3 856 855 1643
3 855 1642 1643
3 894 1373 1387
3 894 1387 1644
3 1387 842 841
3 1387 841 1644
3 839 1643 843
3 1643 1642 843
3 1642 841 843
3 895 894 1644
3 895 1644 1640
3 1644 841 1642
3 1644 1642 1640
3 959 1115 1645
3 846 845 1087
3 845 1645 1087
3 847 853 1646
3 847 1646 845
3 1646 848 845
3 849 959 1645
3 1645 845 849
3 858 853 852
3 846 850 852
3 846 852 847
3 874 898 1641
3 1641 855 854
3 854 874 1641
3 856 838 857
3 857 854 856
3 874 854 858
3 860 983 861
3 861 848 860
3 848 859 860
3 853 857 837
3 853 837 1646
3 837 859 848
3 837 848 1646
3 857 838 837
3 837 836 859
3 864 865 862
3 784 867 866
3 866 862 784
3 868 879 866
3 879 878 866
3 878 862 866
3 878 1099 863
3 863 862 878
3 793 767 906
3 869 912 870
3 867 905 869
3 867 869 868
3 784 793 906
3 906 905 867
3 906 867 784
3 873 898 874
3 858 852 875
3 875 879 871
3 871 873 875
3 879 868 871
3 868 870 871
3 870 912 876
3 876 872 871
3 877 879 851
3 1099 878 877
3 875 852 879
3 852 851 879
3 882 1352 1351
3 882 1351 880
3 1351 884 883
3 1351 883 880
3 883 910 880
3 885 1359 887
3 885 887 886
3 886 910 883
3 910 886 889
3 908 766 881
3 881 880 908
3 880 910 908
3 892 1373 894
3 892 894 893
3 893 903 890
3 895 904 893
3 904 903 893
3 888 887 1647
3 888 1647 901
3 1647 903 901
3 887 1359 1375
3 887 1375 1647
3 1375 891 890
3 1375 890 1647
3 890 903 1647
3 898 873 896
3 873 872 896
3 872 902 896
3 876 912 899
3 912 900 899
3 899 902 872
3 900 888 901
3 901 903 902
3 902 899 901
3 904 895 897
3 897 896 904
3 896 902 904
3 906 767 907
3 767 766 907
3 907 909 905
3 908 910 909
3 909 907 908
3 889 888 900
3 900 911 889
3 911 909 889
3 912 869 911
3 869 905 911
3 905 909 911
3 914 1285 916
3 914 916 915
3 917 923 930
3 917 930 915
3 930 918 915
3 918 913 915
3 919 946 920
3 946 921 920
3 920 913 918
3 921 1541 159
3 159 158 913
3 913 920 159
3 924 954 922
3 954 925 922
3 925 929 922
3 926 940 927
3 940 928 927
3 927 929 925
3 928 946 919
3 919 918 929
3 929 927 919
3 923 922 930
3 922 929 930
3 932 952 933
3 952 934 933
3 933 936 931
3 935 937 936
3 936 933 935
3 938 946 928
3 928 939 938
3 939 936 938
3 940 1648 939
3 1648 931 939
3 931 936 939
3 943 1543 170
3 943 170 944
3 170 169 944
3 169 937 941
3 169 941 944
3 1546 1541 921
3 921 945 1546
3 945 937 169
3 945 169 1546
3 946 938 945
3 938 937 945
3 935 934 942
3 935 942 941
3 948 1035 1101
3 957 956 1649
3 956 948 1649
3 1035 948 956
3 967 949 1650
3 967 963 947
3 1649 948 947
3 949 967 947
3 931 950 932
3 1648 940 958
3 1648 950 931
3 958 1649 1648
3 1649 947 950
3 1649 950 1648
3 947 963 951
3 947 951 950
3 954 924 955
3 955 953 954
3 956 957 953
3 957 1649 958
3 958 940 926
3 926 925 953
3 953 957 926
3 1112 1115 959
3 959 1113 1112
3 849 961 960
3 960 1113 959
3 960 966 1113
3 966 1114 1113
3 861 983 962
3 982 961 962
3 1651 985 965
3 965 964 960
3 965 960 1651
3 960 961 1651
3 961 982 1651
3 849 861 961
3 952 951 978
3 963 978 951
3 965 978 963
3 965 985 979
3 978 965 979
3 1650 1652 966
3 966 967 1650
3 967 966 964
3 832 1382 1230
3 832 1230 973
3 1230 1229 973
3 1229 971 973
3 969 968 1653
3 968 971 1229
3 968 1229 1653
3 972 833 973
3 833 832 973
3 974 1543 943
3 943 942 974
3 974 981 1238
3 942 934 975
3 981 974 975
3 970 969 1654
3 969 1655 1654
3 1655 1238 1654
3 1238 981 1654
3 952 978 976
3 978 977 976
3 979 985 980
3 985 970 980
3 970 1654 980
3 1654 981 980
3 981 977 980
3 975 934 976
3 976 977 981
3 962 983 972
3 972 971 982
3 968 970 984
3 985 1651 984
3 1651 982 984
3 982 971 984
3 987 1468 989
3 987 989 988
3 988 991 986
3 990 826 1001
3 990 1001 988
3 1001 991 988
3 992 1018 993
3 1018 994 993
3 994 1611 616
3 616 615 986
3 986 991 993
3 986 993 616
3 803 1656 995
3 1656 996 995
3 996 1000 995
3 997 1011 998
3 1011 999 998
3 998 1000 996
3 999 1018 992
3 992 991 1000
3 1000 998 992
3 826 995 1001
3 995 1000 1001
3 1003 1067 1004
3 1067 1005 1004
3 1004 1007 1002
3 1005 1062 1006
3 1006 1008 1007
3 1007 1004 1006
3 1009 1018 999
3 999 1010 1009
3 1010 1007 1009
3 1011 1030 1010
3 1030 1002 1010
3 1002 1007 1010
3 1013 1293 628
3 1013 628 1014
3 628 627 1015
3 628 1015 1014
3 1015 1008 1012
3 1015 1012 1014
3 1016 1611 994
3 994 1017 1016
3 1017 1008 1015
3 1017 1015 1016
3 1018 1009 1017
3 1009 1008 1017
3 1006 1062 1012
3 1062 1013 1012
3 798 797 1019
3 1020 1119 1021
3 1022 1032 1023
3 1032 1024 1023
3 1023 1019 1021
3 799 798 1019
3 1019 1023 799
3 1053 1026 1025
3 1026 1033 1022
3 1021 1025 1022
3 1021 1118 1025
3 1028 1067 1003
3 1003 1002 1029
3 1029 1027 1003
3 1030 1011 1031
3 1031 1029 1030
3 1032 1022 1029
3 1033 1026 1027
3 1027 1029 1033
3 803 1024 1656
3 1024 996 1656
3 1032 1031 997
3 997 996 1024
3 997 1024 1032
3 1031 1011 997
3 1034 1101 1035
3 1037 1036 956
3 1036 1034 956
3 1038 1046 1050
3 1038 1050 1036
3 1050 1039 1036
3 1034 1036 1040
3 955 924 1041
3 1041 1043 1042
3 1042 1037 1041
3 1044 1657 1045
3 1037 1042 1044
3 1037 1044 1038
3 956 955 1037
3 1049 1067 1028
3 1028 1027 1047
3 1028 1047 1049
3 1027 1026 1047
3 1026 1050 1047
3 1045 1657 1051
3 1051 1048 1047
3 1047 1046 1051
3 1053 1054 1052
3 1050 1052 1039
3 1026 1052 1050
3 916 1285 1284
3 916 1284 1658
3 1284 1056 1055
3 1284 1055 1658
3 1064 1659 1057
3 1659 1055 1057
3 1064 1657 1659
3 1660 1055 1659
3 1658 923 917
3 917 916 1658
3 1658 1055 1660
3 1060 1293 1013
3 1013 1061 1060
3 1061 1058 1060
3 1062 1066 1061
3 1066 1661 1061
3 1661 1058 1061
3 1063 1657 1064
3 1063 1058 1661
3 1065 1059 1058
3 1058 1063 1065
3 1067 1049 1066
3 1049 1048 1066
3 1051 1657 1063
3 1661 1048 1063
3 1066 1062 1005
3 1066 1048 1661
3 1041 924 1068
3 924 923 1068
3 1068 1660 1043
3 923 1658 1068
3 1658 1660 1068
3 1657 1044 1659
3 1044 1043 1659
3 1043 1660 1659
3 1073 780 1069
3 1070 1071 1069
3 1662 1663 1082
3 1662 1082 1635
3 1073 1662 1635
3 1073 1072 1662
3 1082 785 1635
3 1071 1074 1072
3 1070 1664 1071
3 1664 1074 1071
3 1201 1663 1665
3 1662 1665 1663
3 1072 1075 1662
3 1075 1665 1662
3 1078 1198 1076
3 1080 1079 1198
3 1198 1078 1080
3 1666 1663 1201
3 1081 1666 1079
3 1663 1666 1081
3 796 801 1667
3 801 1082 1667
3 1082 1663 1081
3 1081 1080 1667
3 1667 1082 1081
3 1078 1077 797
3 1667 1080 796
3 1080 1078 796
3 1115 1085 1645
3 1084 1087 1085
3 1087 1645 1085
3 1106 1083 1115
3 1083 1085 1115
3 1097 1086 1091
3 1091 1086 1084
3 1097 851 850
3 850 1086 1097
3 1087 1086 846
3 1086 850 846
3 1088 1083 1223
3 1089 1084 1083
3 1106 1105 1223
3 1223 1083 1106
3 1089 1093 1090
3 1090 1097 1091
3 1089 1091 1084
3 1098 1222 1664
3 1098 1664 1070
3 1095 1222 1098
3 1096 1097 1090
3 1095 1099 1096
3 1092 1094 1096
3 1092 1096 1090
3 1099 877 1096
3 864 863 1098
3 1098 863 1095
3 1128 1668 1101
3 1668 1100 1101
3 1668 1102 1100
3 949 1102 1104
3 1100 1102 949
3 1650 949 1104
3 949 948 1100
3 1132 1102 1669
3 1668 1669 1102
3 1127 1669 1668
3 1127 1668 1128
3 1102 1149 1103
3 1149 1102 1132
3 1107 1147 1105
3 1111 1110 1147
3 1147 1107 1111
3 1103 1149 1109
3 1108 1109 1110
3 1652 1650 1104
3 1114 966 1652
3 1104 1103 1108
3 1108 1652 1104
3 1108 1111 1652
3 1111 1114 1652
3 1106 1115 1107
3 1111 1112 1114
3 1019 797 1116
3 1121 1116 1077
3 1121 1119 1020
3 1020 1116 1121
3 1053 1025 1118
3 1154 1121 1122
3 1077 1076 1122
3 1123 1117 1154
3 1121 1154 1120
3 1154 1117 1120
3 1125 1053 1117
3 1127 1126 1670
3 1670 1126 1671
3 1128 1672 1126
3 1125 1054 1053
3 1673 1054 1125
3 1673 1125 1124
3 1101 1034 1672
3 1040 1672 1034
3 1672 1040 1674
3 1674 1040 1054
3 1040 1039 1054
3 1054 1673 1674
3 1672 1128 1101
3 1674 1673 1671
3 1671 1126 1672
3 1671 1672 1674
3 1129 1669 1127
3 1129 1127 1139
3 1129 1132 1669
3 1139 1130 1129
3 1675 1145 1150
3 1129 1131 1133
3 1133 1137 1675
3 1675 1149 1132
3 1675 1132 1133
3 1150 1149 1675
3 1130 1134 1135
3 1140 29 1134
3 1138 1135 1136
3 28 1136 1135
3 1675 1137 1145
3 1133 1131 1137
3 1145 1137 1138
3 1140 1134 1130
3 1130 1135 1131
3 1141 1517 1142
3 1517 1141 1676
3 1143 1677 1141
3 1677 1678 1141
3 1141 1678 1676
3 1150 1145 1144
3 1138 1146 1144
3 1676 1678 1144
3 1678 1151 1144
3 1136 19 18
3 1518 1517 18
3 1517 1676 18
3 1676 1146 18
3 1144 1146 1676
3 1138 1136 1146
3 1677 1147 1148
3 1224 1105 1677
3 1105 1147 1677
3 1148 1110 1151
3 1110 1109 1150
3 1110 1150 1151
3 1678 1148 1151
3 1677 1143 1224
3 1678 1677 1148
3 1155 1122 1152
3 1122 1155 1153
3 1155 1152 1156
3 1167 1157 1679
3 1158 1167 1679
3 1679 1123 1154
3 1679 1154 1158
3 1157 1123 1679
3 1164 1170 40
3 1162 1159 1161
3 40 44 1160
3 40 1160 1159
3 1159 1162 1164
3 1166 1157 1167
3 1167 1163 1165
3 1158 1153 1168
3 1168 1163 1167
3 1168 1164 1163
3 1156 1152 1169
3 1169 1191 1170
3 1170 1164 1168
3 1153 1156 1168
3 1156 1170 1168
3 1140 1680 29
3 1680 1179 1178
3 1178 29 1680
3 1173 1680 1171
3 1173 1179 1680
3 1140 1139 1171
3 1171 1680 1140
3 1681 1157 1166
3 1166 1174 1681
3 1180 1179 1173
3 1173 1174 1180
3 1173 1172 1682
3 1682 1681 1174
3 1682 1174 1173
3 1176 1162 1175
3 1177 1178 1176
3 1179 1180 1176
3 1174 1165 1162
3 1162 1176 1180
3 1683 1670 1671
3 1683 1671 1172
3 1139 1127 1670
3 1139 1670 1683
3 1157 1682 1124
3 1172 1671 1682
3 1671 1673 1682
3 1673 1124 1682
3 1681 1682 1157
3 1171 1139 1683
3 1171 1683 1172
3 0 1185 1514
3 1186 1196 1181
3 1184 1181 1183
3 1185 0 1186
3 1186 1181 1184
3 1202 1205 1195
3 1684 1184 1205
3 1184 1183 1205
3 1183 1182 1195
3 1195 1205 1183
3 1514 1185 1187
3 1185 1184 1684
3 1684 1187 1185
3 1684 1188 1187
3 41 1170 1191
3 1190 1191 1169
3 1169 1192 1190
3 1203 1195 1194
3 1193 1194 1182
3 1199 1194 1193
3 1197 1182 1196
3 41 1190 1197
3 1190 1193 1197
3 1193 1182 1197
3 1152 1076 1200
3 1076 1198 1200
3 1203 1666 1201
3 1079 1666 1203
3 1079 1203 1199
3 1202 1195 1203
3 1152 1200 1169
3 1200 1192 1169
3 1199 1193 1192
3 1188 1074 1664
3 1188 1664 1189
3 1206 1075 1074
3 1074 1188 1206
3 1206 1188 1684
3 1206 1684 1205
3 1206 1205 1204
3 1204 1665 1075
3 1202 1201 1665
3 1665 1204 1202
3 1208 1216 1207
3 1142 1517 1207
3 1519 1515 1210
3 1210 1209 1519
3 1209 1521 1519
3 1211 1212 1209
3 1208 1521 1209
3 1208 17 1521
3 1227 1226 1213
3 1226 1214 1213
3 1215 1212 1213
3 1216 1208 1212
3 1212 1211 1213
3 1143 1216 1225
3 1142 1207 1216
3 1216 1143 1142
3 1215 1685 1216
3 1685 1225 1216
3 1686 1 1514
3 1686 1687 1
3 1219 1686 1217
3 1219 1687 1686
3 1686 1514 1187
3 1187 1217 1686
3 1227 1213 1220
3 1213 1211 1221
3 1221 1687 1219
3 1219 1218 1688
3 1688 1220 1219
3 1220 1221 1219
3 1515 7 1689
3 1515 1689 1210
3 7 2 1
3 7 1 1689
3 1 1687 1689
3 1221 1689 1687
3 1221 1211 1210
3 1210 1689 1221
3 1690 1222 1218
3 1189 1664 1690
3 1664 1222 1690
3 1093 1227 1092
3 1092 1688 1094
3 1688 1092 1227
3 1218 1095 1094
3 1218 1094 1688
3 1227 1220 1688
3 1217 1187 1189
3 1189 1690 1217
3 1218 1217 1690
3 1685 1089 1088
3 1088 1225 1685
3 1223 1225 1088
3 1685 1215 1214
3 1685 1214 1089
3 1214 1093 1089
3 1226 1093 1214
3 1230 1382 1250
3 1230 1250 1231
3 1250 1248 1231
3 969 1653 1232
3 1653 1228 1232
3 1653 1229 1228
3 1234 1233 1232
3 1232 1228 1234
3 1248 1247 1231
3 1247 1234 1231
3 1274 1239 1237
3 1239 1235 1237
3 969 1233 1235
3 1233 1236 1235
3 1273 1543 974
3 1273 974 1239
3 974 1238 1239
3 969 1235 1655
3 1235 1238 1655
3 1239 1274 1273
3 1242 1403 1270
3 1270 1265 1691
3 1270 1691 1242
3 1691 1240 1242
3 1691 1243 1240
3 1246 1420 1424
3 1246 1424 1243
3 1424 1241 1240
3 1424 1240 1243
3 1264 1244 1243
3 1264 1243 1691
3 1265 1264 1691
3 1255 1247 1249
3 1246 1245 1254
3 1245 1255 1254
3 1250 1382 1416
3 1250 1416 1249
3 1416 1252 1251
3 1416 1251 1249
3 1253 1420 1246
3 1254 1255 1251
3 1251 1253 1254
3 75 1531 1257
3 75 1257 1256
3 1256 1692 76
3 1692 1256 1259
3 1262 1263 1693
3 1693 77 1262
3 77 1692 1262
3 1693 79 77
3 76 1692 77
3 1692 1260 1262
3 1259 1260 1692
3 1267 1694 1264
3 1267 1264 1266
3 1263 1694 1267
3 1261 1694 1263
3 1270 1403 87
3 1270 87 1269
3 87 86 1269
3 86 1267 1269
3 96 79 1693
3 96 1693 1268
3 1268 1267 86
3 1693 1263 1268
3 1265 1269 1266
3 1269 1267 1266
3 1271 1543 1273
3 1271 1273 1272
3 1272 1695 173
3 1274 1277 1695
3 1695 1272 1274
3 1282 1281 1696
3 1282 1696 1277
3 1696 1695 1277
3 1281 1545 174
3 1281 174 1696
3 174 173 1696
3 173 1695 1696
3 1237 1275 1274
3 1276 1282 1277
3 1274 1275 1277
3 1278 1282 1276
3 1257 1531 185
3 1257 185 1697
3 185 184 1697
3 184 1283 1697
3 1279 1545 1281
3 1279 1281 1280
3 1280 1283 184
3 1282 1278 1283
3 1283 1280 1282
3 1258 1257 1697
3 1697 1283 1258
