OFF
609 1171 0
-0.116693 -4.36523 1.12082
0.0223067 -3.98753 0.505817
0.0483067 -3.96613 0.504817
-0.0886933 -4.34083 1.11482
0.130307 -3.90893 0.496817
-0.00469331 -4.27693 1.09482
0.0433067 -4.33013 1.69782
-0.0396933 -4.39503 1.72782
-0.0666933 -4.41983 1.73882
0.316307 -3.78213 0.474817
0.655307 -3.55183 0.433817
0.534307 -3.87973 0.966817
0.186307 -4.13583 1.04982
0.577307 -3.92713 1.50382
0.232307 -4.18693 1.62882
0.765307 -3.70833 1.96082
1.07831 -3.23763 2.25582
0.773307 -3.44313 2.43982
0.435307 -3.95093 2.12182
0.606307 -3.55623 2.54182
0.254307 -4.08453 2.21082
0.533307 -3.60703 2.58682
0.510307 -3.62563 2.60482
0.149307 -4.16783 2.26482
0.175307 -4.14503 2.25082
1.37131 -1.43053 -0.559183
1.86631 -0.619626 -0.495183
1.38731 -1.42913 -0.551183
1.91531 -0.622226 -0.485183
1.44531 -1.41733 -0.541183
0.936307 -2.32973 -0.366183
0.869307 -2.35813 -0.373183
0.849307 -2.36693 -0.379183
2.03231 -0.623326 -0.469183
2.24531 -0.623726 -0.441183
1.82631 -1.33203 -0.491183
1.57931 -1.38743 -0.523183
1.37331 -2.14493 -0.335183
1.09131 -2.26433 -0.355183
0.958307 -2.92923 -0.0131833
0.643307 -3.11043 -0.00818332
0.471307 -3.21003 -0.00518332
0.372307 -3.27033 -0.00918332
0.395307 -3.25453 -0.00618332
2.48131 0.124974 0.982817
2.34231 -0.252626 1.59682
2.35031 -0.260526 1.58682
2.48831 0.114174 0.977817
2.39131 -0.269526 1.55882
2.52631 0.098474 0.960817
2.47831 0.151674 0.357817
2.43931 0.168374 0.364817
2.48931 -0.284326 1.49582
2.66931 -0.309526 1.38082
2.79031 0.018274 0.846817
2.61931 0.069374 0.920817
2.74631 0.065774 0.310817
2.57231 0.120474 0.341817
2.55831 -0.153026 -0.146183
2.37031 -0.115526 -0.151183
2.26731 -0.093926 -0.155183
2.22431 -0.081726 -0.158183
0.993307 -2.80973 2.66182
1.01231 -2.79753 2.64382
1.07631 -2.76113 2.59682
1.58531 -1.84873 2.42182
1.53031 -1.86853 2.46582
1.51531 -1.87333 2.48182
1.49831 -2.52933 2.30482
1.22531 -2.67903 2.49282
1.95131 -1.71643 2.14882
1.71431 -1.80213 2.32482
2.36531 -0.932226 1.82782
2.16131 -0.956026 1.97882
2.05031 -0.968426 2.06082
1.99331 -0.969926 2.11182
2.00331 -0.972126 2.09882
2.83931 -2.28923 0.399817
2.90531 -2.10973 0.107817
3.12931 -2.04463 0.0258167
3.06031 -2.23033 0.328817
3.24431 -2.15713 -0.0541833
3.16731 -2.36723 0.287817
3.19131 -2.39863 0.634817
3.08531 -2.25723 0.632817
2.86331 -2.31523 0.693817
3.39231 -2.42153 -0.140183
3.71231 -2.81213 -0.239183
3.61131 -3.08493 0.204817
3.30231 -2.66393 0.253817
3.62231 -3.13753 0.673817
3.32031 -2.70333 0.663817
3.70231 -2.99493 1.11982
3.81831 -2.62123 1.50482
3.58831 -2.19783 1.29082
3.41531 -2.55463 1.04182
3.48631 -1.95793 1.13382
3.30031 -2.26173 0.937817
3.36931 -1.86653 1.05882
3.13731 -1.93763 1.10582
2.96631 -2.19543 0.944817
3.19131 -2.13323 0.891817
3.54731 -0.893926 -0.398183
3.77631 -0.505926 -0.371183
4.03031 -0.385526 -0.469183
3.79231 -0.786826 -0.497183
4.25631 -0.252326 -0.627183
3.99431 -0.717926 -0.655183
3.70431 -1.25133 -0.549183
3.53631 -1.24743 -0.409183
3.29931 -1.33913 -0.313183
4.54131 -0.142126 -0.836183
5.03531 -0.091926 -1.10918
4.67931 -0.866826 -1.07318
4.25531 -0.712826 -0.859183
4.30731 -1.61693 -0.894183
3.92231 -1.36433 -0.717183
3.96431 -2.29413 -0.611183
3.61631 -1.96103 -0.471183
3.43931 -1.75813 -0.341183
3.07231 -1.76863 -0.137183
3.30131 -1.69183 -0.227183
4.07531 -0.154326 0.334817
4.00831 -0.333826 0.626817
4.27031 -0.207526 0.562817
4.33831 -0.021726 0.260817
4.52131 -0.027226 0.564817
4.58931 0.173674 0.220817
4.55031 0.192674 -0.129183
4.31431 0.00517396 -0.0431833
4.05131 -0.128326 0.0408167
4.82631 0.185174 0.607817
5.38631 0.404174 0.666817
5.19931 0.537474 0.157817
4.87731 0.390874 0.204817
5.08031 0.503074 -0.298183
4.80031 0.380274 -0.215183
5.01431 0.323974 -0.724183
4.70531 0.212474 -0.592183
4.44031 0.050974 -0.432183
3.94831 -0.248126 -0.209183
4.20731 -0.118826 -0.302183
3.36731 -1.54963 1.13282
3.60631 -1.46523 1.08682
3.74031 -1.48883 1.16182
4.02631 -0.948626 1.05582
3.86331 -1.00463 0.998817
3.61531 -1.10443 1.04782
3.95031 -1.74623 1.46482
3.83831 -1.61333 1.31282
4.27831 -0.959226 1.29382
4.15631 -0.934826 1.17182
4.74331 -0.238026 1.03682
4.53631 -0.296026 0.933817
4.31031 -0.431426 0.849817
3.84231 -0.674926 0.871817
4.09831 -0.560226 0.815817
4.34431 -3.30323 -0.356183
4.23731 -3.59423 0.116817
5.15031 -3.81683 -0.474183
5.04131 -4.11423 0.00981668
5.05631 -4.20223 0.513817
4.24631 -3.66723 0.614817
5.99131 -4.27483 -0.577183
6.72731 -4.59923 -0.645183
6.62531 -4.87653 -0.194183
5.88331 -4.56753 -0.100183
6.66731 -4.94693 0.276817
5.91331 -4.65233 0.396817
6.84231 -4.85313 0.715817
7.18831 -4.60003 1.07182
6.20431 -4.42593 1.22182
6.05631 -4.58423 0.859817
5.28431 -4.00033 1.34782
5.15531 -4.13853 0.982817
4.46031 -3.40333 1.44882
4.32631 -3.56583 1.08482
5.75331 -0.642726 -1.35718
5.36931 -1.27493 -1.26218
6.56531 -1.15393 -1.50818
6.20731 -1.79073 -1.40818
5.80131 -2.53723 -1.19618
4.97831 -2.04003 -1.05918
7.42031 -1.60983 -1.58218
8.28631 -1.97073 -1.55018
7.79231 -2.67383 -1.50018
7.07731 -2.26783 -1.49418
7.35331 -3.39753 -1.31418
6.64231 -3.01233 -1.28618
6.98431 -4.07273 -1.02318
6.26231 -3.71883 -0.976183
5.42631 -3.25183 -0.880183
4.61431 -2.75063 -0.753183
5.29631 -2.13483 0.838817
5.27231 -2.42323 0.926817
5.48331 -2.67003 0.887817
5.62131 -2.36073 0.741817
5.83731 -2.93593 0.834817
6.00231 -2.61653 0.676817
6.20131 -2.24423 0.544817
5.78531 -1.99573 0.619817
5.43031 -1.77043 0.728817
6.24331 -3.11303 0.787817
6.56231 -3.17513 0.756817
6.78131 -3.00033 0.642817
6.41431 -2.82263 0.636817
7.00931 -2.69043 0.519817
6.62631 -2.48573 0.508817
7.15031 -2.32093 0.439817
7.18931 -2.02213 0.411817
6.96431 -1.78573 0.390817
6.79931 -2.11433 0.425817
6.60331 -1.52503 0.413817
6.41031 -1.86503 0.452817
6.20431 -1.34283 0.490817
5.89831 -1.27023 0.582817
5.66531 -1.45553 0.635817
6.00631 -1.65233 0.529817
4.15631 -2.58293 1.64082
4.12631 -1.79503 1.54582
4.37631 -2.54623 1.66682
4.31831 -1.80813 1.56082
4.55731 -1.09643 1.38882
4.41731 -1.01803 1.36682
4.54031 -2.51843 1.62082
4.66931 -2.49933 1.51882
4.61131 -1.86963 1.42382
4.47731 -1.83413 1.51782
4.80531 -1.26733 1.27482
4.68831 -1.17963 1.35582
5.20131 -0.783126 1.09882
5.75131 -0.507626 0.923817
5.71631 -0.354026 0.973817
5.11831 -0.653526 1.16482
5.65731 -0.176526 0.967817
5.01931 -0.511226 1.17682
5.56231 0.050374 0.889817
4.89931 -0.341226 1.12582
7.09231 -4.29773 1.25782
6.25431 -4.24013 1.41782
7.02531 -4.09093 1.31782
6.25331 -4.05633 1.48482
5.47331 -3.73593 1.60882
5.38931 -3.86483 1.54482
6.96231 -3.92983 1.30082
6.89831 -3.79813 1.22482
6.24431 -3.77463 1.37282
6.25231 -3.90423 1.46182
5.58731 -3.51093 1.47982
5.53731 -3.61773 1.57882
5.02831 -3.06613 1.53282
4.93031 -3.13443 1.63582
4.80431 -3.21073 1.67582
4.63331 -3.29263 1.62982
8.71831 -2.54063 0.523817
8.89331 -1.62423 0.207817
8.54431 -1.68253 0.497817
8.56831 -2.47533 0.645817
8.31831 -1.72573 0.616817
8.37431 -2.46513 0.734817
8.13031 -3.17783 0.917817
8.26131 -3.25663 0.864817
8.36531 -3.33603 0.769817
8.13831 -1.76543 0.653817
7.98031 -1.80643 0.629817
8.03831 -2.43623 0.724817
8.20131 -2.44983 0.757817
7.84431 -3.03843 0.873817
7.99131 -3.10423 0.919817
7.44831 -3.52263 1.04882
7.56031 -3.63043 1.10982
7.66631 -3.75903 1.12082
7.87431 -4.03933 0.962817
7.76531 -3.91703 1.07082
6.41131 0.109474 0.584817
6.39631 -0.027926 0.722817
6.42831 -0.216326 0.798817
7.21031 -0.542126 0.675817
7.26931 -0.424526 0.601817
7.30831 -0.330726 0.479817
6.40531 -0.531226 0.775817
6.42731 -0.379626 0.812817
7.06231 -0.794826 0.668817
7.14131 -0.666226 0.696817
7.62131 -1.23963 0.614817
7.74831 -1.14953 0.638817
7.88531 -1.06503 0.605817
8.13331 -0.889726 0.358817
8.04831 -0.987526 0.505817
4.78231 -2.48873 1.37582
4.72931 -1.91133 1.28882
4.91031 -2.47683 1.21382
4.86431 -1.96053 1.13282
5.02431 -1.46603 1.00882
4.90631 -1.35923 1.15282
5.08531 -2.45373 1.05182
5.04831 -2.01823 0.975817
5.18731 -1.59853 0.862817
5.84431 -1.05593 0.633817
5.46431 -1.25343 0.747817
5.80031 -0.838926 0.723817
5.34931 -1.06653 0.865817
5.77431 -0.662726 0.830817
5.27031 -0.915326 0.991817
6.82631 -3.67953 1.10682
6.22631 -3.65793 1.24182
6.74331 -3.54483 0.971817
6.20631 -3.52453 1.09082
5.66631 -3.30683 1.17682
5.62331 -3.41613 1.34082
6.64931 -3.36523 0.844817
6.19331 -3.34493 0.938817
5.73131 -3.15643 1.00482
5.33731 -2.84623 1.05182
5.20631 -2.94163 1.22282
5.11131 -3.00843 1.38882
7.81831 -1.85343 0.560817
7.87131 -2.43083 0.647817
7.63331 -1.90703 0.481817
7.67931 -2.42393 0.558817
7.51831 -2.91923 0.678817
7.69331 -2.98303 0.784817
7.40831 -1.96743 0.427817
7.44131 -2.40573 0.486817
7.29831 -2.82833 0.583817
7.02631 -3.17053 0.714817
7.19331 -3.31793 0.825817
7.33031 -3.42683 0.945817
6.37431 -0.684326 0.694817
6.33631 -0.859926 0.600817
6.87631 -1.07843 0.510817
6.97631 -0.926026 0.596817
6.29731 -1.07903 0.523817
6.75531 -1.27043 0.441817
7.15331 -1.57773 0.410817
7.33731 -1.44293 0.468817
7.48831 -1.33383 0.547817
1.19631 -3.18433 0.368817
1.09031 -3.47093 0.834817
1.82631 -2.76473 0.287817
1.73831 -3.00563 0.678817
1.76931 -3.04043 1.07382
1.12831 -3.51243 1.30382
2.43431 -2.37813 0.197817
2.35931 -2.57973 0.525817
2.38631 -2.60883 0.855817
2.69431 -2.18493 1.31782
2.50231 -2.47433 1.13682
2.13831 -2.53383 1.62582
1.90731 -2.87973 1.40982
1.56631 -2.90963 1.96182
1.29231 -3.32113 1.70382
1.93331 -2.29043 2.00482
2.44631 -2.01343 1.66282
2.77931 -1.41613 1.54782
2.32931 -1.57973 1.86882
2.95231 -1.74943 1.34882
3.23031 -1.24963 1.25282
3.67231 -0.384626 0.779817
3.48531 -0.767426 1.05482
3.30631 -0.382326 0.982817
3.08331 -0.839826 1.31182
2.95731 -0.349726 1.19682
2.69131 -0.894126 1.58782
3.06231 -0.063126 0.729817
3.39531 -0.141426 0.590817
3.36331 -0.106626 0.196817
3.02431 -0.021726 0.260817
3.74631 -0.183026 0.451817
3.72031 -0.153826 0.121817
3.41231 -0.577826 -0.340183
3.60431 -0.288426 -0.159183
2.99531 -0.613226 -0.355183
3.22531 -0.267326 -0.139183
2.58631 -0.624426 -0.396183
2.86031 -0.212926 -0.138183
2.22031 -1.24373 -0.439183
2.68731 -1.13363 -0.392183
2.35431 -1.73093 -0.277183
1.82431 -1.95433 -0.303183
3.15431 -1.01333 -0.370183
2.87531 -1.51303 -0.275183
2.62031 -1.99533 -0.0771833
2.04931 -2.30723 -0.0411833
1.46131 -2.64003 -0.0221833
0.494307 -3.64213 2.62082
0.981307 -2.81943 2.67782
1.50731 -1.87533 2.49682
2.34231 -0.241326 1.60482
1.98931 -0.964526 2.12382
2.01331 -0.924626 2.16382
2.48231 0.139474 0.984817
0.836307 -2.37303 -0.388183
0.00230669 -4.00703 0.504817
-0.0876933 -4.44293 1.74782
5.90431 0.401574 0.313817
5.55331 0.521174 0.0218167
6.21131 0.296974 0.0898167
5.88931 0.408374 -0.136183
5.73831 0.402474 -0.442183
5.40731 0.495974 -0.376183
6.42831 0.172174 -0.0761833
6.57831 0.055774 -0.194183
6.36631 0.129374 -0.332183
6.16031 0.265574 -0.251183
6.26331 0.129774 -0.518183
6.02931 0.266074 -0.487183
6.27631 0.062574 -0.719183
6.41331 -0.066626 -0.904183
6.21931 0.016874 -0.976183
6.04631 0.180874 -0.743183
5.94631 0.077874 -1.05118
5.74631 0.290074 -0.762183
5.57831 0.067274 -1.10718
5.38231 0.343874 -0.769183
8.57231 -1.14653 -0.0381833
8.03731 -0.744126 0.188817
8.29131 -0.913626 -0.185183
7.86131 -0.607326 0.0218167
7.30431 -0.260026 0.139817
7.31731 -0.277826 0.315817
8.04831 -0.771526 -0.290183
7.85431 -0.687926 -0.363183
7.58731 -0.502226 -0.227183
7.70831 -0.535826 -0.118183
7.24631 -0.293826 -0.149183
7.27631 -0.271426 -0.0191833
6.89031 -0.096626 -0.136183
6.82531 -0.021126 -0.00218332
6.71831 0.057774 0.171817
6.54931 0.119674 0.384817
8.73331 -1.81423 -1.22618
8.16331 -1.43233 -1.45218
8.56131 -1.49743 -1.19218
8.00631 -1.12063 -1.32418
8.34031 -1.21833 -1.10618
8.50331 -1.20513 -0.807183
8.75731 -1.44253 -0.821183
8.94231 -1.71313 -0.814183
7.83831 -0.926726 -1.19018
7.68931 -0.810326 -1.07218
7.90131 -0.883926 -0.934183
8.10731 -1.02013 -1.01518
8.00431 -0.884426 -0.748183
8.23831 -1.02073 -0.779183
7.99131 -0.817226 -0.547183
8.22131 -0.935426 -0.524183
8.49631 -1.10823 -0.481183
9.00231 -1.64833 -0.345183
8.78631 -1.35243 -0.405183
6.09531 -0.331126 -1.34318
6.37231 -0.227426 -1.26018
6.92431 -0.567526 -1.38118
6.79331 -0.768726 -1.48418
6.68031 -0.252326 -1.03918
6.55831 -0.218726 -1.14818
7.02131 -0.460726 -1.11718
6.99131 -0.483126 -1.24718
7.37731 -0.658026 -1.13118
7.44231 -0.733426 -1.26418
7.50131 -0.884426 -1.40918
7.52831 -1.16263 -1.53518
7.22031 -4.71213 -0.662183
7.12731 -4.96343 -0.254183
7.52531 -4.67423 -0.644183
7.44431 -4.89353 -0.287183
7.47431 -4.92923 0.0748167
7.16631 -5.01563 0.167817
7.69831 -4.54643 -0.604183
7.79531 -4.38973 -0.558183
7.73831 -4.54343 -0.308183
7.62931 -4.73183 -0.302183
7.75931 -4.56563 -0.0561833
7.65431 -4.75863 0.00181668
7.84731 -4.46303 0.157817
7.99431 -4.24243 0.295817
7.93731 -4.36873 0.426817
7.76031 -4.63493 0.259817
7.82431 -4.49203 0.589817
7.60431 -4.79473 0.388817
7.61031 -4.58353 0.791817
7.32831 -4.89543 0.549817
8.53931 -2.42983 -1.39718
8.16931 -2.97643 -1.41218
8.61431 -2.70573 -1.24518
8.32131 -3.18053 -1.27218
8.00831 -3.73073 -1.16018
7.78331 -3.62493 -1.26218
8.59731 -2.89053 -1.09818
8.54131 -3.01683 -0.968183
8.34431 -3.34893 -0.991183
8.36031 -3.29103 -1.12618
8.13231 -3.73003 -0.918183
8.10431 -3.75073 -1.03818
7.93731 -4.09773 -0.768183
7.86931 -4.19433 -0.857183
7.72831 -4.25763 -0.943183
7.45331 -4.23473 -1.00518
8.97731 -2.17873 0.0748167
9.05531 -1.97613 -0.345183
8.92531 -2.49293 -0.00718332
9.00231 -2.28573 -0.367183
8.96831 -2.26843 -0.732183
9.00031 -1.99713 -0.782183
8.83731 -2.71283 -0.0681833
8.73931 -2.86953 -0.114183
8.79631 -2.71583 -0.364183
8.90531 -2.52733 -0.370183
8.77631 -2.69363 -0.616183
8.88131 -2.50053 -0.673183
8.68831 -2.79613 -0.830183
8.77431 -2.62433 -0.932183
8.83431 -2.40503 -1.04518
8.82331 -2.12593 -1.16018
8.00931 -4.06083 0.797817
8.12431 -4.02323 0.614817
8.44431 -3.47293 0.501817
8.42431 -3.41173 0.642817
8.19031 -3.91033 0.319817
8.17431 -3.96813 0.454817
8.40331 -3.52913 0.245817
8.43131 -3.50843 0.366817
8.59731 -3.16143 0.0958167
8.66531 -3.06493 0.184817
8.72531 -2.92573 0.287817
8.75731 -2.72083 0.402817
7.97931 -4.14163 -0.329183
8.01031 -4.05633 -0.467183
8.03231 -4.03363 -0.466183
8.00331 -4.11333 -0.338183
8.01431 -4.12593 -0.210183
7.99031 -4.15443 -0.190183
8.03931 -4.09843 -0.0721833
8.20631 -3.69493 -0.653183
8.19631 -3.69193 -0.667183
8.31431 -3.48183 -0.708183
8.08931 -3.89493 -0.583183
8.10531 -3.88353 -0.575183
7.72231 -0.630926 -0.412183
7.50331 -0.479326 -0.302183
7.22531 -0.309226 -0.238183
6.68031 -0.023726 -0.275183
6.93531 -0.148126 -0.227183
6.50731 0.036374 -0.388183
6.42331 0.036674 -0.539183
6.54531 -0.123626 -0.854183
6.43431 -0.018126 -0.704183
6.53931 -0.032826 -0.737183
6.76331 -0.275326 -0.964183
6.82231 -0.253326 -0.960183
7.06131 -0.399226 -1.01518
7.04231 -0.445426 -1.02818
7.58731 -0.730826 -0.992183
7.33231 -0.606526 -1.03918
7.31031 -0.537326 -1.02518
7.76031 -0.790926 -0.879183
7.84431 -0.791326 -0.727183
7.83331 -0.736426 -0.563183
8.66231 -2.99433 -0.150183
8.70931 -2.86593 -0.359183
8.60331 -3.09153 -0.180183
8.64331 -2.98253 -0.357183
8.62831 -2.96663 -0.535183
8.69231 -2.84733 -0.570183
8.56031 -3.16533 -0.204183
8.56531 -3.13453 -0.364183
8.59531 -3.07043 -0.358183
8.58331 -3.05643 -0.513183
8.43831 -3.25513 -0.730183
8.46231 -3.19583 -0.785183
8.56631 -3.03933 -0.687183
8.49631 -3.11753 -0.864183
8.61931 -2.93303 -0.749183
8.33231 -3.39503 -0.884183
8.32231 -3.43133 -0.802183
8.17231 -3.70153 -0.750183
8.15431 -3.71353 -0.823183
8.31631 -3.45953 -0.744183
8.18531 -3.69423 -0.698183
7.97831 -4.10073 -0.476183
8.06631 -3.92073 -0.605183
7.93331 -4.16933 -0.494183
8.03431 -3.96233 -0.643183
7.87331 -4.26483 -0.521183
7.99231 -4.02083 -0.697183
7.82531 -4.39333 -0.312183
7.89331 -4.27843 -0.317183
7.90731 -4.29423 -0.138183
7.84231 -4.41193 -0.102183
7.94331 -4.19553 -0.322183
7.95531 -4.20953 -0.167183
8.10031 -4.01083 0.0498167
8.01031 -4.14653 -0.0351833
8.07431 -4.06513 0.110817
7.96931 -4.22153 0.0138167
8.03931 -4.14173 0.191817
7.91631 -4.32613 0.0768167
8.20331 -3.86423 0.211817
8.21331 -3.82963 0.127817
8.36431 -3.55943 0.0758167
8.38031 -3.54563 0.150817
8.23031 -3.79433 0.0148167
8.22231 -3.80643 0.0638167
8.34731 -3.58413 -0.0261833
8.35331 -3.57173 0.0178167
8.45531 -3.38113 -0.109183
8.47331 -3.34523 -0.0751833
8.50231 -3.29863 -0.0311833
8.54331 -3.23833 0.0248167
3 0 1 2
3 0 2 3
3 2 4 5
3 2 5 3
3 5 6 7
3 5 7 3
3 7 8 0
3 7 0 3
3 9 10 11
3 9 11 12
3 11 13 14
3 11 14 12
3 14 6 5
3 14 5 12
3 5 4 9
3 5 9 12
3 15 16 17
3 15 17 18
3 17 19 20
3 17 20 18
3 20 6 14
3 20 14 18
3 14 13 15
3 14 15 18
3 21 22 23
3 21 23 24
3 23 8 7
3 23 7 24
3 7 6 20
3 7 20 24
3 20 19 21
3 20 21 24
3 25 26 27
3 26 28 29
3 26 29 27
3 29 30 31
3 29 31 27
3 31 32 25
3 31 25 27
3 33 34 35
3 33 35 36
3 35 37 38
3 35 38 36
3 38 30 29
3 38 29 36
3 29 28 33
3 29 33 36
3 39 10 9
3 39 9 40
3 9 4 41
3 9 41 40
3 41 30 38
3 41 38 40
3 38 37 39
3 38 39 40
3 2 1 42
3 2 42 43
3 42 32 31
3 42 31 43
3 31 30 41
3 31 41 43
3 41 4 2
3 41 2 43
3 44 45 46
3 44 46 47
3 46 48 49
3 46 49 47
3 49 50 51
3 49 51 47
3 51 44 47
3 52 53 54
3 52 54 55
3 54 56 57
3 54 57 55
3 57 50 49
3 57 49 55
3 49 48 52
3 49 52 55
3 58 34 33
3 58 33 59
3 33 28 60
3 33 60 59
3 60 50 57
3 60 57 59
3 57 56 58
3 57 58 59
3 51 50 60
3 51 60 61
3 60 28 26
3 60 26 61
3 62 22 21
3 62 21 63
3 21 19 64
3 21 64 63
3 64 65 66
3 64 66 63
3 66 67 62
3 66 62 63
3 17 16 68
3 17 68 69
3 68 70 71
3 68 71 69
3 71 65 64
3 71 64 69
3 64 19 17
3 64 17 69
3 72 53 52
3 72 52 73
3 52 48 74
3 52 74 73
3 74 65 71
3 74 71 73
3 71 70 72
3 71 72 73
3 46 45 75
3 46 75 76
3 75 67 66
3 75 66 76
3 66 65 74
3 66 74 76
3 74 48 46
3 74 46 76
3 77 78 79
3 77 79 80
3 79 81 82
3 79 82 80
3 82 83 84
3 82 84 80
3 84 85 77
3 84 77 80
3 86 87 88
3 86 88 89
3 88 90 91
3 88 91 89
3 91 83 82
3 91 82 89
3 82 81 86
3 82 86 89
3 92 93 94
3 92 94 95
3 94 96 97
3 94 97 95
3 97 83 91
3 97 91 95
3 91 90 92
3 91 92 95
3 98 99 100
3 98 100 101
3 100 85 84
3 100 84 101
3 84 83 97
3 84 97 101
3 97 96 98
3 97 98 101
3 102 103 104
3 102 104 105
3 104 106 107
3 104 107 105
3 107 108 109
3 107 109 105
3 109 110 102
3 109 102 105
3 111 112 113
3 111 113 114
3 113 115 116
3 113 116 114
3 116 108 107
3 116 107 114
3 107 106 111
3 107 111 114
3 117 87 86
3 117 86 118
3 86 81 119
3 86 119 118
3 119 108 116
3 119 116 118
3 116 115 117
3 116 117 118
3 79 78 120
3 79 120 121
3 120 110 109
3 120 109 121
3 109 108 119
3 109 119 121
3 119 81 79
3 119 79 121
3 122 123 124
3 122 124 125
3 124 126 127
3 124 127 125
3 127 128 129
3 127 129 125
3 129 130 122
3 129 122 125
3 131 132 133
3 131 133 134
3 133 135 136
3 133 136 134
3 136 128 127
3 136 127 134
3 127 126 131
3 127 131 134
3 137 112 111
3 137 111 138
3 111 106 139
3 111 139 138
3 139 128 136
3 139 136 138
3 136 135 137
3 136 137 138
3 104 103 140
3 104 140 141
3 140 130 129
3 140 129 141
3 129 128 139
3 129 139 141
3 139 106 104
3 139 104 141
3 142 99 98
3 142 98 143
3 98 96 144
3 98 144 143
3 144 145 146
3 144 146 143
3 146 147 142
3 146 142 143
3 94 93 148
3 94 148 149
3 148 150 151
3 148 151 149
3 151 145 144
3 151 144 149
3 144 96 94
3 144 94 149
3 152 132 131
3 152 131 153
3 131 126 154
3 131 154 153
3 154 145 151
3 154 151 153
3 151 150 152
3 151 152 153
3 124 123 155
3 124 155 156
3 155 147 146
3 155 146 156
3 146 145 154
3 146 154 156
3 154 126 124
3 154 124 156
3 88 87 157
3 88 157 158
3 157 159 160
3 157 160 158
3 160 161 162
3 160 162 158
3 162 90 88
3 162 88 158
3 163 164 165
3 163 165 166
3 165 167 168
3 165 168 166
3 168 161 160
3 168 160 166
3 160 159 163
3 160 163 166
3 169 170 171
3 169 171 172
3 171 173 174
3 171 174 172
3 174 161 168
3 174 168 172
3 168 167 169
3 168 169 172
3 175 93 92
3 175 92 176
3 92 90 162
3 92 162 176
3 162 161 174
3 162 174 176
3 174 173 175
3 174 175 176
3 113 112 177
3 113 177 178
3 177 179 180
3 177 180 178
3 180 181 182
3 180 182 178
3 182 115 113
3 182 113 178
3 183 184 185
3 183 185 186
3 185 187 188
3 185 188 186
3 188 181 180
3 188 180 186
3 180 179 183
3 180 183 186
3 189 164 163
3 189 163 190
3 163 159 191
3 163 191 190
3 191 181 188
3 191 188 190
3 188 187 189
3 188 189 190
3 157 87 117
3 157 117 192
3 117 115 182
3 117 182 192
3 182 181 191
3 182 191 192
3 191 159 157
3 191 157 192
3 193 194 195
3 193 195 196
3 195 197 198
3 195 198 196
3 198 199 200
3 198 200 196
3 200 201 193
3 200 193 196
3 202 203 204
3 202 204 205
3 204 206 207
3 204 207 205
3 207 199 198
3 207 198 205
3 198 197 202
3 198 202 205
3 208 209 210
3 208 210 211
3 210 212 213
3 210 213 211
3 213 199 207
3 213 207 211
3 207 206 208
3 207 208 211
3 214 215 216
3 214 216 217
3 216 201 200
3 216 200 217
3 200 199 213
3 200 213 217
3 213 212 214
3 213 214 217
3 148 93 218
3 148 218 219
3 218 220 221
3 218 221 219
3 221 222 223
3 221 223 219
3 223 150 148
3 223 148 219
3 224 225 226
3 224 226 227
3 226 228 229
3 226 229 227
3 229 222 221
3 229 221 227
3 221 220 224
3 221 224 227
3 230 231 232
3 230 232 233
3 232 234 235
3 232 235 233
3 235 222 229
3 235 229 233
3 229 228 230
3 229 230 233
3 236 132 152
3 236 152 237
3 152 150 223
3 152 223 237
3 223 222 235
3 223 235 237
3 235 234 236
3 235 236 237
3 171 170 238
3 171 238 239
3 238 240 241
3 238 241 239
3 241 242 243
3 241 243 239
3 243 173 171
3 243 171 239
3 244 245 246
3 244 246 247
3 246 248 249
3 246 249 247
3 249 242 241
3 249 241 247
3 241 240 244
3 241 244 247
3 250 225 224
3 250 224 251
3 224 220 252
3 224 252 251
3 252 242 249
3 252 249 251
3 249 248 250
3 249 250 251
3 218 93 175
3 218 175 253
3 175 173 243
3 175 243 253
3 243 242 252
3 243 252 253
3 252 220 218
3 252 218 253
3 254 255 256
3 254 256 257
3 256 258 259
3 256 259 257
3 259 260 261
3 259 261 257
3 261 262 254
3 261 254 257
3 263 264 265
3 263 265 266
3 265 267 268
3 265 268 266
3 268 260 259
3 268 259 266
3 259 258 263
3 259 263 266
3 269 245 244
3 269 244 270
3 244 240 271
3 244 271 270
3 271 260 268
3 271 268 270
3 268 267 269
3 268 269 270
3 238 170 272
3 238 272 273
3 272 262 261
3 272 261 273
3 261 260 271
3 261 271 273
3 271 240 238
3 271 238 273
3 274 132 236
3 274 236 275
3 236 234 276
3 236 276 275
3 276 277 278
3 276 278 275
3 278 279 274
3 278 274 275
3 232 231 280
3 232 280 281
3 280 282 283
3 280 283 281
3 283 277 276
3 283 276 281
3 276 234 232
3 276 232 281
3 284 264 263
3 284 263 285
3 263 258 286
3 263 286 285
3 286 277 283
3 286 283 285
3 283 282 284
3 283 284 285
3 256 255 287
3 256 287 288
3 287 279 278
3 287 278 288
3 278 277 286
3 278 286 288
3 286 258 256
3 286 256 288
3 226 225 289
3 226 289 290
3 289 291 292
3 289 292 290
3 292 293 294
3 292 294 290
3 294 228 226
3 294 226 290
3 295 194 193
3 295 193 296
3 193 201 297
3 193 297 296
3 297 293 292
3 297 292 296
3 292 291 295
3 292 295 296
3 216 215 298
3 216 298 299
3 298 300 301
3 298 301 299
3 301 293 297
3 301 297 299
3 297 201 216
3 297 216 299
3 302 231 230
3 302 230 303
3 230 228 294
3 230 294 303
3 294 293 301
3 294 301 303
3 301 300 302
3 301 302 303
3 246 245 304
3 246 304 305
3 304 306 307
3 304 307 305
3 307 308 309
3 307 309 305
3 309 248 246
3 309 246 305
3 310 203 202
3 310 202 311
3 202 197 312
3 202 312 311
3 312 308 307
3 312 307 311
3 307 306 310
3 307 310 311
3 195 194 295
3 195 295 313
3 295 291 314
3 295 314 313
3 314 308 312
3 314 312 313
3 312 197 195
3 312 195 313
3 289 225 250
3 289 250 315
3 250 248 309
3 250 309 315
3 309 308 314
3 309 314 315
3 314 291 289
3 314 289 315
3 265 264 316
3 265 316 317
3 316 318 319
3 316 319 317
3 319 320 321
3 319 321 317
3 321 267 265
3 321 265 317
3 322 209 208
3 322 208 323
3 208 206 324
3 208 324 323
3 324 320 319
3 324 319 323
3 319 318 322
3 319 322 323
3 204 203 310
3 204 310 325
3 310 306 326
3 310 326 325
3 326 320 324
3 326 324 325
3 324 206 204
3 324 204 325
3 304 245 269
3 304 269 327
3 269 267 321
3 269 321 327
3 321 320 326
3 321 326 327
3 326 306 304
3 326 304 327
3 280 231 302
3 280 302 328
3 302 300 329
3 302 329 328
3 329 330 331
3 329 331 328
3 331 282 280
3 331 280 328
3 298 215 214
3 298 214 332
3 214 212 333
3 214 333 332
3 333 330 329
3 333 329 332
3 329 300 298
3 329 298 332
3 210 209 322
3 210 322 334
3 322 318 335
3 322 335 334
3 335 330 333
3 335 333 334
3 333 212 210
3 333 210 334
3 316 264 284
3 316 284 336
3 284 282 331
3 284 331 336
3 331 330 335
3 331 335 336
3 335 318 316
3 335 316 336
3 11 10 337
3 11 337 338
3 337 339 340
3 337 340 338
3 340 341 342
3 340 342 338
3 342 13 11
3 342 11 338
3 343 78 77
3 343 77 344
3 77 85 345
3 77 345 344
3 345 341 340
3 345 340 344
3 340 339 343
3 340 343 344
3 100 99 346
3 100 346 347
3 346 348 349
3 346 349 347
3 349 341 345
3 349 345 347
3 345 85 100
3 345 100 347
3 350 16 15
3 350 15 351
3 15 13 342
3 15 342 351
3 342 341 349
3 342 349 351
3 349 348 350
3 349 350 351
3 68 16 350
3 68 350 352
3 350 348 353
3 350 353 352
3 353 354 355
3 353 355 352
3 355 70 68
3 355 68 352
3 346 99 142
3 346 142 356
3 142 147 357
3 142 357 356
3 357 354 353
3 357 353 356
3 353 348 346
3 353 346 356
3 155 123 358
3 155 358 359
3 358 360 361
3 358 361 359
3 361 354 357
3 361 357 359
3 357 147 155
3 357 155 359
3 362 53 72
3 362 72 363
3 72 70 355
3 72 355 363
3 355 354 361
3 355 361 363
3 361 360 362
3 361 362 363
3 54 53 362
3 54 362 364
3 362 360 365
3 362 365 364
3 365 366 367
3 365 367 364
3 367 56 54
3 367 54 364
3 358 123 122
3 358 122 368
3 122 130 369
3 122 369 368
3 369 366 365
3 369 365 368
3 365 360 358
3 365 358 368
3 140 103 370
3 140 370 371
3 370 372 373
3 370 373 371
3 373 366 369
3 373 369 371
3 369 130 140
3 369 140 371
3 374 34 58
3 374 58 375
3 58 56 367
3 58 367 375
3 367 366 373
3 367 373 375
3 373 372 374
3 373 374 375
3 35 34 374
3 35 374 376
3 374 372 377
3 374 377 376
3 377 378 379
3 377 379 376
3 379 37 35
3 379 35 376
3 370 103 102
3 370 102 380
3 102 110 381
3 102 381 380
3 381 378 377
3 381 377 380
3 377 372 370
3 377 370 380
3 120 78 343
3 120 343 382
3 343 339 383
3 343 383 382
3 383 378 381
3 383 381 382
3 381 110 120
3 381 120 382
3 337 10 39
3 337 39 384
3 39 37 379
3 39 379 384
3 379 378 383
3 379 383 384
3 383 339 337
3 383 337 384
3 385 22 62
3 385 62 386
3 62 67 387
3 62 387 386
3 75 45 388
3 75 388 389
3 388 390 389
3 390 387 389
3 387 67 75
3 387 75 389
3 388 45 44
3 388 44 391
3 25 32 392
3 42 1 393
3 392 32 42
3 393 1 0
3 0 8 394
3 23 22 385
3 394 8 23
3 133 132 395
3 133 395 396
3 395 397 398
3 395 398 396
3 398 399 400
3 398 400 396
3 400 135 133
3 400 133 396
3 401 402 403
3 401 403 404
3 403 405 406
3 403 406 404
3 406 399 398
3 406 398 404
3 398 397 401
3 398 401 404
3 407 408 409
3 407 409 410
3 409 411 412
3 409 412 410
3 412 399 406
3 412 406 410
3 406 405 407
3 406 407 410
3 413 112 137
3 413 137 414
3 137 135 400
3 137 400 414
3 400 399 412
3 400 412 414
3 412 411 413
3 412 413 414
3 287 255 415
3 287 415 416
3 415 417 418
3 415 418 416
3 418 419 420
3 418 420 416
3 420 279 287
3 420 287 416
3 421 422 423
3 421 423 424
3 423 425 426
3 423 426 424
3 426 419 418
3 426 418 424
3 418 417 421
3 418 421 424
3 427 402 401
3 427 401 428
3 401 397 429
3 401 429 428
3 429 419 426
3 429 426 428
3 426 425 427
3 426 427 428
3 395 132 274
3 395 274 430
3 274 279 420
3 274 420 430
3 420 419 429
3 420 429 430
3 429 397 395
3 429 395 430
3 431 184 432
3 431 432 433
3 432 434 435
3 432 435 433
3 435 436 437
3 435 437 433
3 437 438 431
3 437 431 433
3 439 440 441
3 439 441 442
3 441 443 444
3 441 444 442
3 444 436 435
3 444 435 442
3 435 434 439
3 435 439 442
3 445 422 421
3 445 421 446
3 421 417 447
3 421 447 446
3 447 436 444
3 447 444 446
3 444 443 445
3 444 445 446
3 415 255 448
3 415 448 449
3 448 438 437
3 448 437 449
3 437 436 447
3 437 447 449
3 447 417 415
3 447 415 449
3 177 112 413
3 177 413 450
3 413 411 451
3 413 451 450
3 451 452 453
3 451 453 450
3 453 179 177
3 453 177 450
3 409 408 454
3 409 454 455
3 454 456 457
3 454 457 455
3 457 452 451
3 457 451 455
3 451 411 409
3 451 409 455
3 458 440 439
3 458 439 459
3 439 434 460
3 439 460 459
3 460 452 457
3 460 457 459
3 457 456 458
3 457 458 459
3 432 184 183
3 432 183 461
3 183 179 453
3 183 453 461
3 453 452 460
3 453 460 461
3 460 434 432
3 460 432 461
3 165 164 462
3 165 462 463
3 462 464 465
3 462 465 463
3 465 466 467
3 465 467 463
3 467 167 165
3 467 165 463
3 468 469 470
3 468 470 471
3 470 472 473
3 470 473 471
3 473 466 465
3 473 465 471
3 465 464 468
3 465 468 471
3 474 475 476
3 474 476 477
3 476 478 479
3 476 479 477
3 479 466 473
3 479 473 477
3 473 472 474
3 473 474 477
3 480 170 169
3 480 169 481
3 169 167 467
3 169 467 481
3 467 466 479
3 467 479 481
3 479 478 480
3 479 480 481
3 185 184 482
3 185 482 483
3 482 484 485
3 482 485 483
3 485 486 487
3 485 487 483
3 487 187 185
3 487 185 483
3 488 489 490
3 488 490 491
3 490 492 493
3 490 493 491
3 493 486 485
3 493 485 491
3 485 484 488
3 485 488 491
3 494 469 468
3 494 468 495
3 468 464 496
3 468 496 495
3 496 486 493
3 496 493 495
3 493 492 494
3 493 494 495
3 462 164 189
3 462 189 497
3 189 187 487
3 189 487 497
3 487 486 496
3 487 496 497
3 496 464 462
3 496 462 497
3 448 255 498
3 448 498 499
3 498 500 501
3 498 501 499
3 501 502 503
3 501 503 499
3 503 438 448
3 503 448 499
3 504 505 506
3 504 506 507
3 506 508 509
3 506 509 507
3 509 502 501
3 509 501 507
3 501 500 504
3 501 504 507
3 510 489 488
3 510 488 511
3 488 484 512
3 488 512 511
3 512 502 509
3 512 509 511
3 509 508 510
3 509 510 511
3 482 184 431
3 482 431 513
3 431 438 503
3 431 503 513
3 503 502 512
3 503 512 513
3 512 484 482
3 512 482 513
3 272 170 480
3 272 480 514
3 480 478 515
3 480 515 514
3 515 516 517
3 515 517 514
3 517 262 272
3 517 272 514
3 476 475 518
3 476 518 519
3 518 520 521
3 518 521 519
3 521 516 515
3 521 515 519
3 515 478 476
3 515 476 519
3 522 505 504
3 522 504 523
3 504 500 524
3 504 524 523
3 524 516 521
3 524 521 523
3 521 520 522
3 521 522 523
3 498 255 254
3 498 254 525
3 254 262 517
3 254 517 525
3 517 516 524
3 517 524 525
3 524 500 498
3 524 498 525
3 526 527 528
3 526 528 529
3 530 531 526
3 530 526 529
3 532 531 530
3 533 534 535
3 528 527 536
3 528 536 537
3 536 534 533
3 536 533 537
3 423 422 538
3 423 538 539
3 540 425 423
3 540 423 539
3 541 402 427
3 541 427 542
3 427 425 540
3 427 540 542
3 403 402 541
3 403 541 543
3 544 405 403
3 544 403 543
3 545 408 407
3 545 407 546
3 407 405 544
3 407 544 546
3 544 547 546
3 547 545 546
3 454 408 545
3 454 545 548
3 545 549 548
3 549 550 551
3 549 551 548
3 551 456 454
3 551 454 548
3 552 440 458
3 552 458 553
3 458 456 551
3 458 551 553
3 551 550 554
3 551 554 553
3 554 552 553
3 441 440 552
3 441 552 555
3 556 443 441
3 556 441 555
3 538 422 445
3 538 445 557
3 445 443 556
3 445 556 557
3 506 505 558
3 506 558 559
3 558 560 561
3 558 561 559
3 561 562 563
3 561 563 559
3 563 508 506
3 563 506 559
3 564 565 566
3 565 567 566
3 567 562 561
3 567 561 566
3 561 560 564
3 561 564 566
3 568 569 570
3 570 562 567
3 571 489 510
3 571 510 572
3 510 508 563
3 510 563 572
3 563 562 570
3 563 570 572
3 570 569 571
3 570 571 572
3 490 489 571
3 490 571 573
3 571 569 574
3 571 574 573
3 574 575 576
3 574 576 573
3 576 492 490
3 576 490 573
3 568 535 577
3 535 534 578
3 535 578 577
3 578 575 574
3 578 574 577
3 574 569 568
3 574 568 577
3 536 527 579
3 536 579 580
3 579 581 582
3 579 582 580
3 582 575 578
3 582 578 580
3 578 534 536
3 578 536 580
3 583 469 494
3 583 494 584
3 494 492 576
3 494 576 584
3 576 575 582
3 576 582 584
3 582 581 583
3 582 583 584
3 470 469 583
3 470 583 585
3 583 581 586
3 583 586 585
3 586 587 588
3 586 588 585
3 588 472 470
3 588 470 585
3 579 527 526
3 579 526 589
3 526 531 590
3 526 590 589
3 590 587 586
3 590 586 589
3 586 581 579
3 586 579 589
3 532 591 592
3 591 593 594
3 591 594 592
3 594 587 590
3 594 590 592
3 590 531 532
3 590 532 592
3 595 475 474
3 595 474 596
3 474 472 588
3 474 588 596
3 588 587 594
3 588 594 596
3 594 593 595
3 594 595 596
3 518 475 595
3 518 595 597
3 595 593 598
3 595 598 597
3 598 599 600
3 598 600 597
3 600 520 518
3 600 518 597
3 591 601 602
3 601 603 604
3 601 604 602
3 604 599 598
3 604 598 602
3 598 593 591
3 598 591 602
3 605 564 606
3 564 560 607
3 564 607 606
3 607 599 604
3 607 604 606
3 604 603 605
3 604 605 606
3 558 505 522
3 558 522 608
3 522 520 600
3 522 600 608
3 600 599 607
3 600 607 608
3 607 560 558
3 607 558 608
