OFF
227 446 0
-0.347491 -13.9428 -19.642
-0.341491 -14.0046 -19.761
-0.358491 -13.9191 -19.812
-0.451491 -13.8237 -19.498
-0.572491 -13.7668 -19.407
-0.555491 -13.6547 -19.493
-0.412491 -13.9565 -19.834
-4.05449 -0.78865 -11.05
-5.46249 -2.92305 -12.672
-4.74049 -1.81335 -11.815
-4.12449 -0.79705 -11.015
-6.53649 -5.23752 -14.331
-7.03049 -5.38711 -14.178
-6.10249 -4.05187 -13.508
-5.78749 -3.00105 -12.546
-4.99649 -1.88075 -11.72
-4.38149 -0.85925 -10.908
-4.44849 -2.75795 -11.424
-3.81049 -1.93515 -10.594
-3.79749 -2.04145 -10.561
-6.30649 -5.76993 -14.077
-6.42249 -5.50061 -14.206
-5.89449 -4.55623 -13.273
-5.26749 -3.40051 -12.431
-5.18149 -3.64504 -12.324
-5.84949 -4.66071 -13.221
-4.48949 -2.58465 -11.486
-4.17049 -2.01795 -10.451
-5.37849 -2.61615 -11.258
-5.95949 -3.47252 -12.26
-5.90049 -3.60981 -12.196
-5.34749 -2.74915 -11.215
-4.99849 -1.90265 -10.261
-6.47349 -4.60305 -13.151
-6.81949 -5.79434 -13.986
-6.43149 -4.68182 -13.112
-5.88049 -3.65382 -12.175
-4.98749 -1.97485 -10.226
-6.61249 -6.43644 -15.075
-6.19049 -8.04204 -15.501
-5.75949 -9.08851 -16.07
-5.96949 -8.63486 -16.294
-5.17849 -9.97685 -16.531
-6.39549 -6.91821 -14.838
-5.61949 -10.0025 -16.46
-6.86649 -6.93946 -14.755
-2.62849 -11.3328 -17.818
-3.19849 -11.4842 -17.644
-3.43149 -11.0288 -17.584
-4.47949 -10.8294 -17.261
-4.05249 -10.6956 -17.387
-4.72849 -10.2034 -17.117
-4.51349 -10.6571 -16.889
-3.20449 -11.5075 -17.336
-3.18449 -11.7834 -17.375
-2.52149 -11.8348 -17.481
-4.95749 -10.6795 -16.818
-4.28149 -11.1802 -17.083
-3.67349 -11.5335 -17.263
-2.18749 -11.4618 -18.357
-3.06349 -11.7461 -18.114
-2.31149 -11.3987 -18.097
-1.69449 -12.4258 -17.879
-1.90349 -12.212 -17.679
-2.09449 -12.0587 -17.574
-2.77049 -12.0941 -17.469
-2.63349 -12.4795 -17.737
-2.91049 -11.9529 -17.426
-3.06749 -11.5764 -17.752
-2.69849 -12.2546 -17.556
-1.74549 -11.8196 -19.308
-1.79349 -11.838 -19.309
-2.04849 -11.644 -18.791
-1.19749 -12.3178 -20.504
-1.41049 -12.2403 -20.229
-1.56849 -12.046 -19.811
-2.87949 -12.1773 -18.982
-1.08849 -13.1016 -18.634
-1.57549 -12.403 -18.404
-1.40749 -12.4616 -18.99
-0.784491 -13.4248 -19.081
-1.47949 -12.7493 -18.213
-1.16049 -13.1204 -18.633
-0.851491 -13.4831 -19.058
-2.83949 -12.2399 -18.349
-2.63749 -12.6919 -18.71
-1.95649 -14.035 -19.404
-2.34249 -13.1723 -18.443
-2.40249 -13.1819 -19.053
-5.59649 -0.71225 -7.70698
-6.12749 -0.38955 -6.68898
-6.17049 -0.35185 -6.75898
-6.37649 -0.32095 -6.45398
-6.02749 0.0374499 -6.87398
-5.90449 -0.33095 -7.15998
-2.96949 -0.85645 -7.77198
-3.05649 -0.87525 -7.88598
-3.04649 -1.05165 -8.59298
-3.00149 -0.69675 -8.23798
-3.04549 -0.57415 -8.71398
-2.98649 0.0741499 -8.45398
-3.33549 2.27925 -8.70598
-2.83449 2.67475 -8.74398
-3.05849 1.68625 -9.36198
-3.57049 0.17105 -10.369
-3.79349 0.11405 -10.274
-3.78349 0.88415 -9.54998
-3.26649 0.96795 -9.82898
-3.38349 1.61375 -9.19998
-5.25049 -0.98515 -8.40998
-5.22249 -0.85785 -8.46598
-4.99749 -1.41265 -9.30498
-5.51149 -0.35225 -7.78898
-5.14049 -0.45185 -8.60198
-4.98449 -1.18245 -9.36798
-3.46449 -0.99305 -8.42698
-3.81349 -1.15595 -8.89698
-3.15749 -1.24615 -9.15298
-3.64349 -1.52305 -9.70198
-3.38449 -1.55095 -9.79598
-3.41149 -1.24785 -9.88698
-3.18349 -0.50865 -9.34598
-3.94549 -0.81325 -7.82998
-4.58749 -0.64485 -7.32798
-4.64249 -0.59895 -7.15898
-5.02949 -0.65545 -7.43998
-2.95549 -0.85235 -7.71298
-6.40949 -0.32835 -6.41798
-4.18949 -1.47575 -9.53498
-4.32749 -0.87725 -8.12598
-5.19149 -0.76145 -7.82498
-4.58249 -1.06745 -8.64198
-4.73449 -1.42855 -9.36898
-4.60949 -1.99705 -10.333
-5.04249 -2.74365 -11.274
-6.63849 -8.06903 -15.427
-6.20249 -9.10864 -15.995
-3.83549 -11.1544 -17.153
-2.42549 -12.8017 -18.069
-2.07649 -13.5526 -18.873
-1.90749 -14.0328 -19.402
-1.89649 -14.1036 -19.524
-1.84249 -14.0629 -19.604
-2.75049 -12.4198 -19.462
-2.98749 -11.9382 -18.509
-2.43849 -11.3679 -17.93
-5.15149 -10.3331 -16.991
-5.39349 -9.5209 -16.756
-7.06449 -6.5701 -14.934
-6.40249 -7.57741 -15.726
-6.39449 -8.76107 -16.165
-6.83049 -7.71659 -15.599
-4.76349 -0.95165 -10.748
-6.66549 -4.2222 -13.332
-5.53749 -2.00685 -11.496
-4.04349 1.49295 -8.84498
-4.38849 0.76475 -9.24198
-4.46249 1.92695 -8.20398
-4.24249 0.0167499 -10.064
-4.69049 -0.0805501 -9.85398
-4.70349 1.37215 -8.48998
-5.18749 2.25605 -7.42498
-5.32949 2.36325 -7.24198
-5.35249 2.41575 -7.20298
-2.80449 2.77705 -8.69098
-2.78049 2.81545 -8.68698
-2.74849 2.85385 -8.69598
-5.22449 1.63735 -7.76098
-5.41849 1.07465 -7.58898
-5.40849 1.70015 -7.37198
-5.08649 -1.09965 -10.582
-5.06149 -1.32935 -10.49
-4.92449 -0.33715 -9.67498
-5.01949 0.14245 -8.80098
-4.93849 0.54355 -8.93498
-4.90749 -0.11195 -9.73498
-5.12249 0.98315 -8.21198
-5.03249 1.33895 -8.28898
-4.91249 0.67815 -8.95998
-5.08949 -1.02345 -10.602
-5.51449 -2.14385 -11.463
-6.10449 -3.13585 -12.414
-6.12249 -3.09961 -12.436
-6.62749 -4.29653 -13.295
-2.83249 -12.4661 -19.405
-2.71149 -12.7894 -20.049
-2.71249 -12.7459 -19.778
-1.17549 -12.4185 -20.602
-2.64349 -12.8717 -20.165
-1.16449 -12.5321 -20.59
-2.52149 -12.9334 -20.193
-1.10749 -12.4931 -20.569
-1.37549 -12.2811 -19.695
-1.92349 -11.7215 -18.761
-4.03149 -0.86955 -11.011
-3.96849 -1.17405 -10.892
-4.67549 -1.96235 -11.756
-5.36649 -3.13687 -12.553
-4.71549 -1.83065 -11.813
-6.06149 -4.15501 -13.464
-3.54249 -0.11835 -10.279
-3.24949 0.82795 -9.76798
-3.22349 0.28995 -9.59798
-3.05749 1.22655 -9.24198
-2.94949 1.96465 -8.98398
-2.89149 1.95705 -8.68998
-5.81249 -9.65493 -16.632
-3.87849 -11.1685 -17.451
-5.70749 0.23925 -7.33398
-5.71749 0.87075 -7.12398
-5.91549 0.77565 -6.82598
-5.62149 1.45815 -7.07798
-5.02449 -1.67005 -10.354
-4.95449 -0.75875 -9.52198
-5.31649 0.31685 -8.00098
-5.44649 -2.37945 -11.361
-6.04649 -3.27136 -12.352
-6.55049 -4.44927 -13.223
-3.87449 -1.62615 -10.715
-4.58249 -2.27275 -11.621
-5.97849 -4.35513 -13.369
-3.47749 -0.68175 -10.084
-2.96449 1.20375 -8.77098
-3.05149 0.32835 -8.97898
-2.92849 0.83445 -8.38298
-2.92449 0.30115 -8.08598
-2.87449 1.57855 -8.43198
3 0 1 2
3 3 4 0
3 0 5 3
3 2 1 6
3 7 8 9
3 9 10 7
3 11 12 13
3 13 14 8
3 15 16 10
3 10 9 15
3 9 8 15
3 8 14 15
3 17 18 19
3 20 21 22
3 22 23 24
3 24 25 22
3 25 20 22
3 18 17 26
3 17 24 26
3 24 23 26
3 19 27 17
3 28 29 30
3 30 31 28
3 31 32 28
3 33 12 34
3 34 35 33
3 35 30 33
3 30 29 33
3 36 30 35
3 37 32 31
3 31 30 36
3 38 12 11
3 39 40 41
3 40 42 41
3 43 21 20
3 40 44 42
3 34 12 45
3 46 47 48
3 48 49 50
3 50 49 51
3 42 44 52
3 53 54 55
3 56 49 57
3 57 49 58
3 59 60 61
3 62 59 63
3 55 64 46
3 55 65 64
3 63 66 62
3 64 65 63
3 67 68 65
3 69 60 66
3 65 68 69
3 70 71 72
3 72 59 70
3 73 74 75
3 73 75 70
3 75 71 70
3 75 76 71
3 72 60 59
3 71 76 72
3 62 77 78
3 77 79 78
3 77 3 80
3 3 5 80
3 80 79 77
3 78 59 62
3 62 66 81
3 77 82 83
3 83 4 3
3 83 3 77
3 62 81 77
3 81 82 77
3 66 60 84
3 85 66 84
3 86 87 88
3 87 85 88
3 66 85 87
3 89 90 91
3 92 93 91
3 91 90 92
3 94 89 91
3 94 91 93
3 95 96 97
3 98 99 100
3 100 95 98
3 98 95 97
3 101 102 103
3 7 10 104
3 10 16 105
3 105 106 107
3 107 104 105
3 104 10 105
3 101 103 108
3 103 107 108
3 107 106 108
3 109 110 111
3 111 32 37
3 89 110 109
3 94 93 112
3 112 113 110
3 110 89 112
3 89 94 112
3 32 111 114
3 111 110 114
3 110 113 114
3 115 116 117
3 117 97 115
3 97 96 115
3 118 27 19
3 19 119 118
3 119 117 118
3 117 116 118
3 120 121 117
3 117 119 120
3 119 18 120
3 98 97 99
3 97 117 99
3 117 121 99
3 19 18 119
3 122 115 96
3 122 96 123
3 96 95 124
3 96 124 123
3 123 125 122
3 124 95 126
3 124 126 92
3 126 127 92
3 90 125 123
3 124 90 123
3 116 128 118
3 128 27 118
3 122 125 129
3 122 129 115
3 129 116 115
3 125 130 129
3 130 131 129
3 131 116 129
3 132 133 128
3 133 27 128
3 128 116 131
3 131 132 128
3 17 27 134
3 24 17 134
3 134 27 133
3 34 20 25
3 43 20 34
3 43 135 39
3 39 135 136
3 44 40 136
3 40 39 136
3 52 44 56
3 137 52 56
3 54 53 58
3 53 137 58
3 55 54 67
3 65 55 67
3 69 66 63
3 65 69 63
3 66 138 81
3 138 82 81
3 138 87 82
3 82 87 139
3 82 139 83
3 139 4 83
3 4 140 0
3 140 141 0
3 141 1 0
3 6 1 141
3 6 141 142
3 75 74 143
3 76 75 143
3 144 60 72
3 76 144 72
3 46 145 47
3 145 68 47
3 61 60 68
3 145 61 68
3 146 147 51
3 49 146 51
3 12 38 148
3 38 149 148
3 41 147 150
3 149 41 150
3 150 151 149
3 149 151 148
3 15 152 16
3 12 153 13
3 153 14 13
3 154 152 15
3 14 154 15
3 101 108 155
3 108 106 155
3 106 156 155
3 155 157 101
3 105 16 158
3 16 152 158
3 158 156 106
3 106 105 158
3 152 159 158
3 159 156 158
3 157 155 160
3 155 156 160
3 157 161 102
3 102 101 157
3 162 163 164
3 163 165 164
3 102 161 162
3 102 162 164
3 165 163 166
3 167 168 169
3 167 169 162
3 170 171 172
3 172 173 174
3 174 175 172
3 175 170 172
3 176 168 167
3 167 177 176
3 177 174 176
3 174 173 176
3 178 174 177
3 179 170 175
3 175 174 178
3 180 171 170
3 170 154 180
3 154 181 180
3 182 181 154
3 154 170 179
3 153 181 182
3 181 153 183
3 153 12 183
3 60 144 84
3 144 184 84
3 184 85 84
3 185 186 184
3 187 188 73
3 189 188 187
3 188 189 190
3 189 142 190
3 74 73 185
3 73 188 185
3 191 187 73
3 187 191 189
3 73 70 192
3 70 79 192
3 70 59 193
3 193 79 70
3 147 42 51
3 11 21 38
3 38 39 149
3 41 42 147
3 149 39 41
3 194 195 196
3 196 197 8
3 8 198 196
3 198 194 196
3 199 21 11
3 11 13 199
3 13 8 199
3 8 197 199
3 7 194 198
3 198 8 7
3 200 195 194
3 194 104 200
3 104 201 200
3 201 202 200
3 107 201 104
3 104 194 7
3 103 201 107
3 203 202 201
3 201 103 203
3 103 204 203
3 204 102 205
3 103 102 204
3 90 124 92
3 37 133 132
3 132 131 109
3 109 111 132
3 111 37 132
3 130 125 90
3 90 89 130
3 89 109 130
3 109 131 130
3 134 133 37
3 37 31 134
3 31 36 134
3 36 24 134
3 25 24 36
3 36 35 25
3 35 34 25
3 34 45 43
3 45 135 43
3 57 137 56
3 58 137 57
3 87 138 66
3 86 140 139
3 86 139 87
3 140 4 139
3 86 141 140
3 88 186 86
3 143 74 185
3 185 184 76
3 76 143 185
3 76 184 144
3 206 147 146
3 47 207 48
3 207 49 48
3 150 147 206
3 179 152 154
3 154 14 182
3 182 14 153
3 160 156 178
3 178 177 160
3 177 161 160
3 159 152 179
3 179 175 159
3 175 178 159
3 178 156 159
3 160 161 157
3 177 167 161
3 161 167 162
3 208 93 209
3 93 210 209
3 92 127 163
3 163 210 92
3 210 93 92
3 163 162 210
3 162 169 211
3 162 211 210
3 169 168 209
3 168 208 209
3 209 210 211
3 211 169 209
3 212 32 114
3 113 173 213
3 113 213 114
3 213 171 212
3 213 212 114
3 112 93 208
3 208 214 112
3 214 173 113
3 214 113 112
3 168 176 214
3 176 173 214
3 214 208 168
3 172 171 213
3 173 172 213
3 28 32 212
3 212 171 215
3 212 215 28
3 215 216 29
3 215 29 28
3 171 180 215
3 180 181 216
3 180 216 215
3 12 217 183
3 217 216 183
3 216 181 183
3 12 33 217
3 33 29 217
3 29 216 217
3 12 148 45
3 148 151 45
3 151 135 45
3 206 44 136
3 206 136 150
3 136 151 150
3 136 135 151
3 206 146 56
3 146 49 56
3 56 44 206
3 207 47 58
3 47 54 58
3 49 207 58
3 47 68 67
3 67 54 47
3 60 69 68
3 184 186 88
3 85 184 88
3 142 188 190
3 141 188 142
3 86 188 141
3 188 86 185
3 86 186 185
3 6 142 189
3 192 5 73
3 73 2 191
3 2 73 0
3 73 5 0
3 191 2 6
3 191 6 189
3 5 192 80
3 192 79 80
3 193 59 78
3 79 193 78
3 64 145 46
3 63 145 64
3 59 61 63
3 61 145 63
3 42 52 51
3 52 137 51
3 137 50 51
3 55 46 53
3 53 50 137
3 46 48 53
3 48 50 53
3 39 38 43
3 38 21 43
3 218 18 26
3 218 26 219
3 26 23 219
3 23 197 219
3 219 195 218
3 21 220 22
3 220 197 23
3 220 23 22
3 21 199 220
3 199 197 220
3 195 219 196
3 219 197 196
3 120 18 218
3 218 195 221
3 218 221 120
3 221 121 120
3 195 200 221
3 200 202 221
3 202 121 221
3 203 204 222
3 203 222 223
3 222 100 223
3 223 121 202
3 202 203 223
3 121 223 99
3 223 100 99
3 224 225 100
3 225 95 100
3 222 204 205
3 205 102 226
3 226 225 224
3 226 224 205
3 224 100 222
3 224 222 205
3 126 225 226
3 126 226 164
3 226 102 164
3 126 95 225
