OFF
188 360 0
4.6065 -16.4388 -7.98909
3.9825 -16.4602 -7.97709
3.6595 -16.4515 -8.83009
3.2555 -16.4642 -7.69209
4.3025 -16.3923 -6.98709
3.8385 -16.442 -7.15209
2.6935 -16.4162 -6.72809
2.0925 -16.3923 -6.98709
1.7695 -16.4166 -7.55009
2.5895 -16.4565 -7.71009
2.3665 -16.4369 -8.73609
2.1185 -2.75588 -3.11709
2.0655 -2.80408 -2.81009
2.2345 -2.76168 -2.26409
4.6535 -2.78578 -3.40809
4.2335 -3.97508 -4.25409
4.2165 -2.78888 -3.58309
3.5915 -2.78058 -3.63209
2.3975 -2.75798 -3.39209
2.9325 -2.77428 -3.57809
3.0355 -3.97508 -4.25409
3.9755 -2.77378 -2.18909
4.3505 -3.97508 -3.01109
4.3635 -2.76228 -2.45509
4.6225 -5.13438 -3.95509
4.6635 -2.77808 -2.81409
4.7535 -4.55468 -4.06109
4.7825 -2.78788 -3.13609
2.4365 -3.10678 -2.32809
2.7275 -2.75158 -2.00209
2.8225 -3.97508 -2.51409
3.1215 -2.76748 -1.95509
3.5755 -3.97508 -2.51409
3.5415 -2.76998 -2.01009
2.2615 -3.97508 -3.75709
2.2975 -3.97508 -3.01109
2.1885 -2.96608 -2.54609
4.3265 -9.99308 -7.38409
4.6845 -9.99308 -7.11209
4.7185 -11.623 -7.73209
4.3225 -11.623 -8.01809
4.7605 -13.0995 -8.21009
4.3065 -13.0995 -8.50509
3.6945 -13.0995 -8.60309
3.7755 -11.623 -8.11409
3.8225 -9.99308 -7.47509
4.8015 -14.3542 -8.56309
4.8585 -15.9241 -8.96109
4.2735 -15.8735 -9.24809
4.2845 -14.3542 -8.86309
3.4645 -15.924 -9.36709
3.6015 -14.3542 -8.96309
2.6445 -15.8836 -9.25109
1.9925 -15.9241 -8.96209
2.3105 -14.3542 -8.56309
2.8955 -14.3542 -8.86309
2.5295 -13.0995 -8.21009
3.0585 -13.0995 -8.50509
2.7245 -11.623 -7.73209
2.8455 -9.99308 -7.11209
3.2895 -9.99308 -7.38409
3.2015 -11.623 -8.01809
4.4165 -9.99308 -5.56709
4.0845 -9.99308 -5.11309
4.1525 -11.623 -5.63109
4.5005 -11.623 -6.10909
4.2295 -13.0995 -6.04609
4.6035 -13.0995 -6.53809
4.8535 -13.0995 -7.12809
4.7495 -11.623 -6.68209
4.6675 -9.99308 -6.11209
4.3045 -14.3542 -6.36309
4.4055 -15.9241 -6.73109
4.8575 -15.9117 -7.25009
4.7075 -14.3542 -6.86309
5.1095 -15.9241 -7.84609
4.9605 -14.3542 -7.46309
5.0825 -15.3186 -8.30309
4.9245 -13.0995 -7.71809
4.7775 -9.99308 -6.65809
4.8415 -11.623 -7.25509
3.0695 -9.99308 -4.84009
2.8055 -9.99308 -5.11309
2.6935 -11.623 -5.63109
3.0005 -11.623 -5.34509
2.5145 -13.0995 -6.04609
2.8825 -13.0995 -5.75109
3.3225 -13.0995 -5.65209
3.3685 -11.623 -5.24909
3.3865 -9.99308 -4.74909
2.3125 -14.3542 -6.36309
2.0205 -15.9241 -6.73109
2.5365 -15.8445 -6.41409
2.7465 -14.3542 -6.06309
3.1745 -15.9241 -6.32509
3.2635 -14.3542 -5.96309
3.8415 -15.859 -6.41709
3.7945 -13.2899 -5.80309
3.7335 -9.99308 -4.84009
3.7635 -11.623 -5.34509
2.6065 -9.99308 -6.65809
2.4655 -11.623 -7.25509
2.2415 -13.0995 -7.71809
2.1635 -13.0995 -7.12809
2.3955 -11.623 -6.68209
2.5425 -9.99308 -6.11209
1.6265 -15.906 -8.43509
1.9905 -14.3542 -8.06309
1.5295 -15.924 -7.84609
1.9045 -14.3542 -7.46309
1.6735 -15.8684 -7.25109
2.0215 -14.3542 -6.86309
2.2645 -13.0995 -6.53809
2.6195 -9.99308 -5.56709
2.4815 -11.623 -6.10909
4.6485 -5.13438 -4.70809
4.2595 -5.13438 -4.91409
4.6525 -6.61378 -5.49709
4.2885 -6.61378 -5.72609
3.7695 -6.61378 -5.80209
3.7085 -5.13438 -4.98209
4.6635 -8.27828 -6.33309
4.3135 -8.27828 -6.58509
3.8145 -8.27828 -6.66909
2.8445 -8.27828 -6.33309
3.2855 -8.27828 -6.58509
2.7625 -6.61378 -5.49709
3.2205 -6.61378 -5.72609
2.6435 -5.13438 -4.70809
3.1265 -5.13438 -4.91409
2.3895 -5.13438 -4.36609
2.5215 -6.61378 -5.11609
2.4605 -6.61378 -4.65909
2.3275 -5.13438 -3.95509
2.6095 -8.27828 -5.91309
2.5475 -8.27828 -5.40809
2.8055 -8.27828 -4.48409
2.6245 -8.27828 -4.90409
2.7325 -6.61378 -3.82109
2.5425 -6.61378 -4.20209
2.6245 -5.13438 -3.20109
2.4185 -5.13438 -3.54309
2.9065 -5.13438 -2.99509
2.9945 -6.61378 -3.59209
3.3065 -6.61378 -3.51609
3.2425 -5.13438 -2.92709
3.0585 -8.27828 -4.23209
3.3605 -8.27828 -4.14809
4.0365 -8.27828 -4.48409
3.6935 -8.27828 -4.23209
4.0045 -6.61378 -3.82109
3.6505 -6.61378 -3.59209
3.9845 -5.13438 -3.20109
3.6095 -5.13438 -2.99509
4.3455 -5.13438 -3.54309
4.3485 -6.61378 -4.20209
4.6165 -6.61378 -4.65909
4.3695 -8.27828 -4.90409
4.6275 -8.27828 -5.40809
4.7465 -8.27828 -5.91309
4.7395 -6.61378 -5.11609
4.8145 -16.2537 -9.00909
4.2095 -16.2546 -9.30509
3.4315 -16.2554 -9.40409
4.6525 -16.3907 -8.93609
4.1045 -16.394 -9.20509
3.4055 -16.3972 -9.29609
2.0965 -16.3907 -8.93609
2.6915 -16.394 -9.20509
1.9755 -16.2537 -9.00909
2.6345 -16.2546 -9.30509
1.6095 -16.2546 -8.51709
1.5095 -16.2554 -7.92709
1.7555 -16.394 -8.49309
1.6535 -16.3972 -7.96209
1.9985 -16.2537 -6.84409
1.6485 -16.2546 -7.33709
2.5295 -16.2546 -6.54909
3.1605 -16.2554 -6.45009
3.4075 -16.3975 -6.62309
4.3945 -16.2537 -6.84409
3.8095 -16.2546 -6.54909
4.8345 -16.2546 -7.33709
5.0825 -16.2554 -7.92709
4.8785 -16.3987 -7.75509
4.9125 -16.394 -8.49309
5.0905 -16.2546 -8.51709
5.1285 -15.9241 -8.45509
3 0 1 2
3 1 3 2
3 0 4 5
3 5 6 3
3 3 1 5
3 1 0 5
3 6 7 8
3 6 8 9
3 3 6 9
3 2 3 9
3 2 9 10
3 9 8 10
3 11 12 13
3 14 15 16
3 15 17 16
3 18 19 20
3 19 17 20
3 21 22 23
3 22 24 25
3 22 25 23
3 26 14 27
3 25 24 26
3 25 26 27
3 13 28 29
3 28 30 29
3 30 31 29
3 32 21 33
3 31 32 33
3 18 34 11
3 34 12 11
3 35 28 36
3 12 35 36
3 12 36 13
3 36 28 13
3 37 38 39
3 37 39 40
3 39 41 42
3 39 42 40
3 42 43 44
3 42 44 40
3 44 45 37
3 44 37 40
3 46 47 48
3 46 48 49
3 48 50 51
3 48 51 49
3 51 43 42
3 51 42 49
3 42 41 46
3 42 46 49
3 52 53 54
3 52 54 55
3 54 56 57
3 54 57 55
3 57 43 51
3 57 51 55
3 51 50 52
3 51 52 55
3 58 59 60
3 58 60 61
3 60 45 44
3 60 44 61
3 44 43 57
3 44 57 61
3 57 56 58
3 57 58 61
3 62 63 64
3 62 64 65
3 64 66 67
3 64 67 65
3 67 68 69
3 67 69 65
3 69 70 62
3 69 62 65
3 71 72 73
3 71 73 74
3 73 75 76
3 73 76 74
3 76 68 67
3 76 67 74
3 67 66 71
3 67 71 74
3 77 47 46
3 77 46 78
3 46 41 78
3 78 68 76
3 76 75 77
3 76 77 78
3 39 38 79
3 39 79 80
3 79 70 69
3 79 69 80
3 69 68 78
3 69 78 80
3 78 41 39
3 78 39 80
3 81 82 83
3 81 83 84
3 83 85 86
3 83 86 84
3 86 87 88
3 86 88 84
3 88 89 81
3 88 81 84
3 90 91 92
3 90 92 93
3 92 94 95
3 92 95 93
3 95 87 86
3 95 86 93
3 86 85 90
3 86 90 93
3 96 72 71
3 96 71 97
3 71 66 97
3 97 87 95
3 95 94 96
3 95 96 97
3 64 63 98
3 64 98 99
3 98 89 88
3 98 88 99
3 88 87 97
3 88 97 99
3 97 66 64
3 97 64 99
3 100 59 58
3 100 58 101
3 58 56 102
3 58 102 101
3 102 103 104
3 102 104 101
3 104 105 100
3 104 100 101
3 54 53 106
3 54 106 107
3 106 108 109
3 106 109 107
3 109 103 102
3 109 102 107
3 102 56 54
3 102 54 107
3 110 91 90
3 110 90 111
3 90 85 112
3 90 112 111
3 112 103 109
3 112 109 111
3 109 108 110
3 109 110 111
3 83 82 113
3 83 113 114
3 113 105 104
3 113 104 114
3 104 103 112
3 104 112 114
3 112 85 83
3 112 83 114
3 15 14 115
3 15 115 116
3 115 117 118
3 115 118 116
3 118 119 120
3 118 120 116
3 120 17 15
3 120 15 116
3 121 38 37
3 121 37 122
3 37 45 123
3 37 123 122
3 123 119 118
3 123 118 122
3 118 117 121
3 118 121 122
3 60 59 124
3 60 124 125
3 124 126 127
3 124 127 125
3 127 119 123
3 127 123 125
3 123 45 60
3 123 60 125
3 128 18 20
3 128 20 129
3 20 17 120
3 20 120 129
3 120 119 127
3 120 127 129
3 127 126 128
3 127 128 129
3 34 18 128
3 34 128 130
3 128 126 131
3 128 131 130
3 131 132 133
3 131 133 130
3 133 12 34
3 133 34 130
3 124 59 100
3 124 100 134
3 100 105 135
3 100 135 134
3 135 132 131
3 135 131 134
3 131 126 124
3 131 124 134
3 113 82 136
3 113 136 137
3 136 138 139
3 136 139 137
3 139 132 135
3 139 135 137
3 135 105 113
3 135 113 137
3 140 28 35
3 140 35 141
3 35 12 133
3 35 133 141
3 133 132 139
3 133 139 141
3 139 138 140
3 139 140 141
3 30 28 140
3 30 140 142
3 140 138 143
3 140 143 142
3 143 144 145
3 143 145 142
3 145 31 30
3 145 30 142
3 136 82 81
3 136 81 146
3 81 89 147
3 81 147 146
3 147 144 143
3 147 143 146
3 143 138 136
3 143 136 146
3 98 63 148
3 98 148 149
3 148 150 151
3 148 151 149
3 151 144 147
3 151 147 149
3 147 89 98
3 147 98 149
3 152 21 32
3 152 32 153
3 32 31 145
3 32 145 153
3 145 144 151
3 145 151 153
3 151 150 152
3 151 152 153
3 22 21 152
3 22 152 154
3 152 150 155
3 152 155 154
3 155 156 24
3 155 24 154
3 24 22 154
3 148 63 62
3 148 62 157
3 62 70 158
3 62 158 157
3 158 156 155
3 158 155 157
3 155 150 148
3 155 148 157
3 79 38 121
3 79 121 159
3 121 117 160
3 121 160 159
3 160 156 158
3 160 158 159
3 158 70 79
3 158 79 159
3 115 14 26
3 24 156 160
3 24 160 26
3 160 117 115
3 160 115 26
3 47 161 162
3 47 162 48
3 162 163 50
3 162 50 48
3 164 2 165
3 2 166 165
3 166 163 162
3 166 162 165
3 162 161 164
3 162 164 165
3 10 167 168
3 167 169 170
3 167 170 168
3 170 163 166
3 170 166 168
3 166 2 10
3 166 10 168
3 50 163 170
3 50 170 52
3 170 169 53
3 170 53 52
3 53 169 171
3 53 171 106
3 171 172 108
3 171 108 106
3 167 10 173
3 10 8 174
3 10 174 173
3 174 172 171
3 174 171 173
3 171 169 167
3 171 167 173
3 7 175 176
3 7 176 8
3 176 172 174
3 176 174 8
3 108 172 176
3 108 176 110
3 176 175 91
3 176 91 110
3 91 175 177
3 91 177 92
3 177 178 94
3 177 94 92
3 179 178 177
3 179 177 6
3 177 175 7
3 177 7 6
3 5 4 179
3 4 180 181
3 4 181 179
3 181 178 179
3 179 6 5
3 94 178 181
3 94 181 96
3 181 180 72
3 181 72 96
3 72 180 182
3 72 182 73
3 182 183 75
3 182 75 73
3 4 0 184
3 184 183 182
3 182 180 4
3 182 4 184
3 0 2 164
3 0 164 185
3 164 161 186
3 164 186 185
3 186 183 184
3 186 184 185
3 184 0 185
3 47 77 187
3 77 75 187
3 75 183 186
3 75 186 187
3 186 161 47
3 186 47 187
