OFF
530 1028 0
12.2842 -2.32521 4.65292
11.6492 -3.4417 4.65792
11.7012 -3.5377 4.04192
12.3592 -2.37941 4.03592
11.7352 -3.55961 3.25192
12.4012 -2.38541 3.24592
12.8012 -0.841005 3.22492
12.7552 -0.855105 4.01592
12.6652 -0.855205 4.63292
11.7462 -3.49241 2.43592
11.7252 -3.32081 1.74292
12.3472 -2.21721 1.73792
12.3992 -2.33431 2.42992
12.7212 -0.768205 1.71792
12.7932 -0.812205 2.40992
12.8052 0.757995 1.68792
12.5532 2.09339 1.65192
12.6152 2.19469 2.33992
12.8802 0.791495 2.37792
12.6182 2.2121 3.15392
12.8892 0.787095 3.19292
12.5722 2.16079 3.94492
12.4862 2.05609 4.56492
12.7472 0.695995 4.60192
12.8412 0.752595 3.98392
6.42925 -0.117405 4.38792
6.37725 -0.628205 4.18392
6.73725 -0.910205 4.29892
6.81425 -0.266605 4.54092
7.07125 -1.30541 4.41992
7.15425 -0.492305 4.69292
7.27425 0.485295 4.76892
6.91325 0.501795 4.61492
6.49725 0.491495 4.45392
7.44125 -1.80901 4.55592
7.97425 -2.4768 4.74492
7.82225 -1.02971 4.94392
7.49125 -0.793005 4.83992
7.92825 0.390595 4.97692
7.61225 0.444695 4.89892
8.21725 1.76599 4.89392
8.76025 3.0462 4.64592
8.07025 2.63899 4.48292
7.83825 1.65899 4.79892
7.56825 2.26359 4.36892
7.42525 1.45779 4.66492
7.11125 1.91379 4.26892
6.63525 1.60759 4.16892
6.56925 1.09939 4.37992
7.01825 1.27029 4.52392
6.37825 -0.962405 3.00992
6.42525 -0.660405 2.66192
6.79425 -0.938905 2.47792
6.72925 -1.32311 2.89592
7.14525 -1.32531 2.22192
7.07225 -1.79861 2.72792
7.03425 -1.9432 3.33392
6.69725 -1.4432 3.39392
6.35425 -1.05491 3.42592
7.54225 -1.81371 1.91692
8.11925 -2.44231 1.54892
8.06625 -2.974 2.37092
7.48425 -2.3639 2.52492
8.03025 -3.11851 3.21292
7.44725 -2.5177 3.26492
7.99925 -2.98091 4.02692
7.42925 -2.3583 3.98692
7.03225 -1.78391 3.93192
6.35225 -0.942105 3.83992
6.69825 -1.30401 3.88992
6.63425 1.10169 2.44192
6.68725 1.61999 2.64592
7.17425 1.94259 2.44592
7.09625 1.28939 2.20492
7.64825 2.3099 2.17092
7.52525 1.49569 1.89592
7.37925 0.501695 1.81892
6.99525 0.501795 2.13092
6.56525 0.477995 2.37692
8.17625 2.6972 1.84292
8.90525 3.09139 1.45092
8.40025 1.80159 1.23892
7.97125 1.71019 1.55092
8.12125 0.424695 1.20292
7.75325 0.474695 1.48892
8.00425 -0.993505 1.28892
7.62025 -0.783705 1.59192
7.24925 -0.498605 1.92392
6.49125 -0.144805 2.45092
6.88825 -0.285705 2.22192
8.92825 3.5183 3.91292
8.21225 3.17379 3.89692
8.99925 3.66419 3.09492
8.27425 3.33899 3.16992
7.70825 2.90579 3.26592
7.66225 2.74149 3.86892
8.99725 3.5562 2.25692
8.27025 3.21019 2.43392
7.70625 2.7709 2.66392
6.71025 1.92649 2.98992
7.21125 2.32679 2.85592
6.70825 2.02439 3.40492
7.21125 2.44689 3.35192
6.68225 1.91699 3.82092
7.17725 2.3076 3.84992
9.76725 -0.709905 4.62092
9.79625 -1.18021 4.63192
10.0342 -1.42281 4.64492
10.1042 -0.839905 4.63392
10.3902 -1.62021 4.65892
10.4802 -0.999005 4.64792
10.5762 -0.297805 4.63592
10.1712 -0.175205 4.62092
9.80825 -0.0663051 4.60792
10.7642 -1.66581 4.67092
11.0392 -1.58991 4.67792
11.1952 -1.16491 4.67292
10.8632 -1.08081 4.66092
11.3302 -0.528505 4.66292
10.9782 -0.420305 4.64992
11.3742 0.134595 4.64992
11.3422 0.615595 4.63892
11.1072 0.847595 4.62692
11.0452 0.253995 4.63792
10.7482 1.02549 4.61192
10.6692 0.403595 4.62292
10.3652 1.05179 4.59992
10.0812 0.965895 4.59292
9.93425 0.550995 4.59792
10.2802 0.476295 4.60992
9.02025 -3.32851 1.63792
8.91725 -3.58381 2.35092
9.96625 -3.7821 1.69492
9.90025 -3.99381 2.39192
9.86225 -4.07681 3.21592
8.87825 -3.69771 3.20192
10.8992 -3.81101 1.72992
10.8782 -4.00451 2.42192
10.8522 -4.07711 3.23692
10.8042 -3.93261 4.64492
10.8262 -4.0471 4.02692
9.84925 -3.8906 4.63492
9.84025 -4.0293 4.01492
8.88625 -3.40881 4.65492
8.85025 -3.60591 4.02492
9.88325 3.4614 4.53292
9.91225 3.68849 3.89592
10.9292 3.41249 4.50692
10.9692 3.57959 3.88092
11.0092 3.65579 3.08092
9.97025 3.79889 3.06992
11.8382 2.95289 4.52492
11.9012 3.08679 3.90392
11.9422 3.14759 3.11192
11.9232 2.96989 1.61292
11.9512 3.11529 2.29892
11.0352 3.41999 1.56892
11.0272 3.60629 2.25892
10.0112 3.47639 1.51692
9.97925 3.72079 2.22192
8.38625 -2.31351 4.94092
8.14325 -1.06381 4.96692
8.67325 -2.15581 4.93992
8.43625 -1.00031 4.92292
8.48525 0.277495 4.90392
8.22025 0.333895 4.97092
8.90325 -2.0049 4.85192
9.09525 -1.85921 4.74092
8.90025 -0.892405 4.71392
8.68525 -0.944405 4.82092
8.93425 0.174395 4.69092
8.72225 0.224395 4.79592
9.17725 1.17949 4.67492
9.61025 1.96129 4.67092
9.47825 2.18389 4.77492
8.99425 1.32569 4.77892
9.31225 2.42759 4.85592
8.78125 1.48669 4.87692
9.09625 2.70399 4.84992
8.52725 1.67099 4.91692
11.5862 -3.287 4.95292
10.7912 -3.75181 4.93992
11.5152 -3.09011 5.01792
10.7832 -3.5235 5.00592
9.98525 -3.4719 4.98492
9.90625 -3.70021 4.92592
11.4422 -2.86781 4.94392
11.3702 -2.63681 4.82392
10.7772 -3.00061 4.81492
10.7802 -3.26681 4.93392
10.1342 -2.96061 4.79492
10.0622 -3.22001 4.91192
9.54025 -2.5644 4.76992
9.39925 -2.7814 4.88292
9.23525 -2.99781 4.96192
9.03925 -3.20651 4.92692
12.3692 1.91339 4.86392
12.6152 0.625195 4.89992
12.2332 1.74499 4.93492
12.4602 0.545695 4.96792
12.3912 -0.818205 4.99492
12.5392 -0.841905 4.92892
12.0872 1.56359 4.86792
11.9442 1.38169 4.75392
12.1292 0.381795 4.78192
12.2942 0.462695 4.89792
12.0762 -0.751005 4.80392
12.2332 -0.786905 4.92292
11.8132 -1.82211 4.81992
11.9382 -1.96911 4.93992
12.0642 -2.10921 5.01292
12.1822 -2.23151 4.94792
9.95925 3.1893 4.81192
10.0712 2.9005 4.85592
10.9072 2.93039 4.87092
10.9142 3.1891 4.80392
10.2132 2.358 4.67992
10.1522 2.62339 4.78492
10.8762 2.38409 4.69992
10.8932 2.6575 4.80692
11.4892 2.05389 4.72592
11.5792 2.2997 4.83592
11.6712 2.54259 4.89992
11.7602 2.76589 4.82692
9.26725 -1.71701 4.67492
9.09225 -0.840605 4.64992
9.43625 -1.55971 4.64192
9.28425 -0.783505 4.61992
9.31425 0.0766949 4.60192
9.12225 0.127495 4.62892
9.62225 -1.36871 4.63192
9.50225 -0.715505 4.61392
9.53225 0.0148949 4.59792
9.96725 1.23849 4.58392
9.68925 0.706695 4.58692
9.84325 1.51619 4.58592
9.50425 0.887995 4.58992
9.72825 1.74789 4.61092
9.34025 1.03959 4.61492
11.3032 -2.41381 4.74992
10.7722 -2.74371 4.74092
11.2282 -2.17031 4.70792
10.7632 -2.46001 4.70092
10.2562 -2.42981 4.68492
10.1962 -2.71001 4.72392
11.1352 -1.87771 4.68692
10.7452 -2.11311 4.68092
10.3182 -2.08191 4.66792
9.91925 -1.82901 4.65092
9.78725 -2.11911 4.66492
9.66525 -2.3539 4.70092
11.8132 1.21159 4.68592
11.9792 0.308395 4.71092
11.6742 1.03189 4.65092
11.8192 0.234595 4.67292
11.7782 -0.667705 4.69192
11.9322 -0.713205 4.73092
11.5082 0.820995 4.63892
11.6252 0.152395 4.65792
11.5872 -0.608605 4.67292
11.4192 -1.33081 4.68392
11.5742 -1.52111 4.70392
11.6982 -1.67881 4.74492
10.2662 2.10459 4.61892
10.3152 1.82689 4.59292
10.8362 1.83879 4.60792
10.8582 2.12429 4.63692
10.3622 1.48899 4.58992
10.8012 1.48819 4.60292
11.2082 1.26589 4.62092
11.3172 1.57019 4.62892
11.4072 1.82179 4.65992
9.31725 2.62879 1.07692
8.78025 1.63809 1.03092
9.59525 2.20549 0.924925
9.10925 1.35989 0.915925
8.83625 0.276895 0.924925
8.48825 0.355395 1.01992
9.81025 1.81779 0.882925
9.97525 1.48189 0.893925
9.61525 0.888095 0.896925
9.38725 1.10669 0.885925
9.40825 0.129595 0.907925
9.14625 0.199395 0.898925
9.37325 -0.671205 0.923925
9.52925 -1.39191 0.944925
9.29125 -1.62401 0.943925
9.10725 -0.759105 0.918925
8.99225 -1.88691 0.997925
8.78325 -0.862605 0.955925
8.62325 -2.16531 1.16292
8.40425 -0.980305 1.07792
12.4232 1.89279 1.23792
11.8482 2.69129 1.20292
12.2512 1.63169 1.03092
11.7432 2.33169 0.999925
11.0502 2.66689 0.970925
11.0462 3.08579 1.16492
12.0622 1.34899 0.961925
11.8822 1.08349 0.960925
11.5132 1.57909 0.938925
11.6262 1.94359 0.934925
11.0132 1.81739 0.917925
11.0352 2.22639 0.910925
10.4712 1.78829 0.902925
10.3952 2.18779 0.891925
10.2882 2.63299 0.943925
10.1372 3.08819 1.12192
11.6672 -3.02971 1.32192
12.2362 -2.02531 1.31692
11.5852 -2.66751 1.10392
12.0872 -1.78941 1.09992
12.3892 -0.639605 1.08392
12.5782 -0.708305 1.29892
11.4922 -2.28291 1.02292
11.4012 -1.92441 1.01092
11.7672 -1.30841 1.00892
11.9242 -1.54011 1.01992
11.9852 -0.505105 0.997925
12.1822 -0.569505 1.00692
12.0322 0.340495 0.980925
12.2382 0.452395 0.985925
12.4552 0.570995 1.05992
12.6532 0.678695 1.27092
9.24325 -2.9961 1.22992
9.50325 -2.62421 1.03692
10.1872 -3.03081 1.06992
10.0702 -3.44351 1.27892
9.89225 -1.90991 0.966925
9.71825 -2.25031 0.969925
10.3812 -2.1929 0.986925
10.2922 -2.59651 0.994925
10.9112 -2.20851 1.00292
10.9162 -2.62121 1.01292
10.9172 -3.06331 1.09292
10.9122 -3.47861 1.30892
9.99025 -0.0296051 0.888925
9.95125 -0.0184051 0.906925
10.0812 0.414595 0.900925
10.0552 -0.836205 0.908925
10.0202 -0.881805 0.927925
9.92725 -0.474505 0.915925
9.96725 -0.455905 0.897925
11.2462 0.800795 0.926925
11.4712 0.521095 0.939925
11.4292 0.475095 0.920925
11.2162 0.736195 0.908925
10.9272 0.864395 0.897925
10.9402 0.938095 0.914925
10.6092 0.924795 0.905925
11.4032 -0.810205 0.966925
11.1782 -1.15551 0.967925
11.1512 -1.08881 0.946925
11.3642 -0.766405 0.945925
11.1062 -1.04551 0.849925
11.3132 -0.735705 0.849925
11.4352 -0.335205 0.844925
11.4902 -0.349505 0.940925
11.5362 -0.363105 0.960925
11.5632 0.106895 0.951925
11.5162 0.0887949 0.931925
11.4602 0.0856949 0.835925
10.2442 -1.16851 0.940925
10.2672 -1.10331 0.920925
10.2502 -1.06091 0.824925
10.5272 -1.19511 0.835925
10.5532 -1.24351 0.932925
10.5472 -1.31971 0.952925
10.8752 -1.32031 0.961925
10.8642 -1.24331 0.941925
10.8292 -1.19431 0.844925
4.52725 0.636995 3.89692
4.50325 0.935495 3.75692
4.22725 0.874895 3.70492
4.26125 0.588595 3.84092
4.07725 0.842895 3.67792
4.11625 0.562895 3.81092
4.16825 0.227995 3.85592
4.30625 0.246195 3.88592
4.55925 0.279595 3.94392
4.10825 0.219895 3.84592
4.21725 -0.392605 3.66792
4.27125 -0.388005 3.67792
4.22225 -0.107105 3.81092
4.16525 -0.113305 3.80092
4.39725 -0.384105 3.70492
4.62825 -0.378705 3.75692
4.59525 -0.0784051 3.89692
4.35325 -0.0966051 3.84092
4.05825 1.01359 3.45492
4.05825 1.07319 3.18792
3.99025 1.06069 3.17992
4.49425 1.11709 3.52392
4.21225 1.04919 3.47892
4.49725 1.17979 3.24292
4.21325 1.10979 3.20792
4.51225 1.12189 2.96292
4.53725 0.941595 2.72892
4.26125 0.882595 2.70992
4.23025 1.05489 2.93592
4.11025 0.851495 2.69792
4.07525 1.01979 2.92092
4.04425 0.840595 2.69092
4.02225 0.841995 2.68492
3.98625 1.0101 2.90892
4.00825 1.00779 2.91292
4.07625 0.556995 2.55092
4.09625 0.557395 2.55792
4.15925 0.566595 2.56492
4.21525 0.223595 2.51992
4.15525 0.216295 2.51392
4.57125 0.636995 2.58892
4.30425 0.590995 2.57392
4.60725 0.270495 2.54192
4.35325 0.240095 2.52892
4.64025 -0.0953051 2.58892
4.66425 -0.398105 2.72892
4.43325 -0.400705 2.70992
4.39925 -0.110405 2.57392
4.30725 -0.403205 2.69792
4.26725 -0.119205 2.56492
4.32625 -0.569905 2.92092
4.32525 -0.621605 3.18792
4.27325 -0.624505 3.17992
4.67325 -0.575405 2.96292
4.44825 -0.571005 2.93592
4.66925 -0.629705 3.24292
4.44625 -0.623505 3.20792
4.65325 -0.563305 3.52392
4.42825 -0.560405 3.47892
4.30625 -0.560205 3.45492
4.25425 -0.563605 3.44592
11.7372 0.873995 0.959925
11.4202 1.29059 0.941925
11.6222 0.714495 0.957925
11.3462 1.06999 0.941925
10.9732 1.24349 0.926925
10.9922 1.49259 0.923925
11.5342 0.598895 0.951925
11.2892 0.909495 0.937925
10.9562 1.06159 0.923925
10.3042 0.752995 0.899925
10.2632 0.856095 0.907925
10.5942 1.04659 0.913925
10.1972 1.00759 0.908925
10.5682 1.22579 0.914925
10.1022 1.21399 0.902925
10.5282 1.47029 0.910925
9.79325 0.713895 0.904925
9.92625 0.579695 0.909925
9.76925 0.0320949 0.916925
9.61425 0.0742949 0.913925
10.0202 0.481395 0.908925
9.87925 0.00169494 0.914925
9.95625 -0.955605 0.938925
9.85325 -0.503705 0.925925
9.85625 -1.06221 0.943925
9.74125 -0.545205 0.928925
9.71525 -1.20611 0.945925
9.58325 -0.600505 0.927925
10.0272 -1.63851 0.963925
10.1292 -1.42911 0.959925
10.4962 -1.62521 0.974925
10.4482 -1.87201 0.981925
10.1992 -1.27481 0.952925
10.5282 -1.44401 0.965925
11.2152 -1.26421 0.982925
10.8862 -1.44621 0.976925
11.2642 -1.42321 0.992925
10.8962 -1.63011 0.986925
11.3262 -1.64061 1.00192
10.9042 -1.88121 0.994925
11.6392 -1.12471 0.999925
11.5382 -0.984005 0.991925
11.7002 -0.413805 0.984925
11.8262 -0.453705 0.991925
11.4602 -0.880905 0.981925
11.6052 -0.384105 0.974925
11.6352 0.138395 0.964925
11.7342 0.186095 0.972925
11.8652 0.252595 0.976925
4.94425 1.03299 3.83992
4.94525 1.22609 3.59492
5.48825 1.17329 3.94392
5.50325 1.38789 3.67792
5.51525 1.46109 3.35892
4.95225 1.29219 3.29992
6.07325 1.36279 4.05692
6.10325 1.61429 3.75792
6.12125 1.70049 3.40092
6.11725 1.36709 2.74692
6.12725 1.61889 3.04392
5.52825 1.17539 2.77492
5.52425 1.39089 3.04092
4.98025 1.03629 2.75992
4.96525 1.22959 3.00592
4.99825 0.710695 2.61292
5.52425 0.812595 2.61592
5.51625 0.376895 2.56392
5.01525 0.319395 2.56392
6.09025 0.942895 2.56892
6.05225 0.433095 2.51092
5.97125 -0.496105 2.75292
6.01025 -0.0756051 2.57292
5.48925 -0.416805 2.77692
5.50325 -0.0577051 2.61692
5.03525 -0.393805 2.75992
5.02825 -0.0710051 2.61292
5.03425 -0.582405 3.00592
5.47525 -0.626405 3.04292
5.46325 -0.689405 3.36192
5.02725 -0.639505 3.29992
5.94225 -0.741605 3.05092
5.92425 -0.815805 3.40892
5.93025 -0.464505 4.06292
5.91925 -0.722205 3.76592
5.45125 -0.388605 3.94592
5.45525 -0.609105 3.67992
4.99825 -0.370105 3.83992
5.01425 -0.567905 3.59492
4.95225 0.714595 3.98792
4.96525 0.333295 4.03692
5.46325 0.394795 4.15692
5.47525 0.819195 4.10392
4.98125 -0.0490051 3.98792
5.45425 -0.0309051 4.10492
5.95625 -0.0462051 4.24092
5.99325 0.451595 4.29892
6.03425 0.948295 4.23692
4.00525 0.847795 2.67692
3 0 1 2
3 0 2 3
3 2 4 5
3 2 5 3
3 5 6 7
3 5 7 3
3 7 8 0
3 7 0 3
3 9 10 11
3 9 11 12
3 11 13 14
3 11 14 12
3 14 6 5
3 14 5 12
3 5 4 9
3 5 9 12
3 15 16 17
3 15 17 18
3 17 19 20
3 17 20 18
3 20 6 14
3 20 14 18
3 14 13 15
3 14 15 18
3 21 22 23
3 21 23 24
3 23 8 7
3 23 7 24
3 7 6 20
3 7 20 24
3 20 19 21
3 20 21 24
3 25 26 27
3 25 27 28
3 27 29 30
3 27 30 28
3 30 31 32
3 30 32 28
3 32 33 25
3 32 25 28
3 34 35 36
3 34 36 37
3 36 38 39
3 36 39 37
3 39 31 30
3 39 30 37
3 30 29 34
3 30 34 37
3 40 41 42
3 40 42 43
3 42 44 45
3 42 45 43
3 45 31 39
3 45 39 43
3 39 38 40
3 39 40 43
3 46 47 48
3 46 48 49
3 48 33 32
3 48 32 49
3 32 31 45
3 32 45 49
3 45 44 46
3 45 46 49
3 50 51 52
3 50 52 53
3 52 54 55
3 52 55 53
3 55 56 57
3 55 57 53
3 57 58 50
3 57 50 53
3 59 60 61
3 59 61 62
3 61 63 64
3 61 64 62
3 64 56 55
3 64 55 62
3 55 54 59
3 55 59 62
3 65 35 34
3 65 34 66
3 34 29 67
3 34 67 66
3 67 56 64
3 67 64 66
3 64 63 65
3 64 65 66
3 27 26 68
3 27 68 69
3 68 58 57
3 68 57 69
3 57 56 67
3 57 67 69
3 67 29 27
3 67 27 69
3 70 71 72
3 70 72 73
3 72 74 75
3 72 75 73
3 75 76 77
3 75 77 73
3 77 78 70
3 77 70 73
3 79 80 81
3 79 81 82
3 81 83 84
3 81 84 82
3 84 76 75
3 84 75 82
3 75 74 79
3 75 79 82
3 85 60 59
3 85 59 86
3 59 54 87
3 59 87 86
3 87 76 84
3 87 84 86
3 84 83 85
3 84 85 86
3 52 51 88
3 52 88 89
3 88 78 77
3 88 77 89
3 77 76 87
3 77 87 89
3 87 54 52
3 87 52 89
3 42 41 90
3 42 90 91
3 90 92 93
3 90 93 91
3 93 94 95
3 93 95 91
3 95 44 42
3 95 42 91
3 96 80 79
3 96 79 97
3 79 74 98
3 79 98 97
3 98 94 93
3 98 93 97
3 93 92 96
3 93 96 97
3 72 71 99
3 72 99 100
3 99 101 102
3 99 102 100
3 102 94 98
3 102 98 100
3 98 74 72
3 98 72 100
3 103 47 46
3 103 46 104
3 46 44 95
3 46 95 104
3 95 94 102
3 95 102 104
3 102 101 103
3 102 103 104
3 105 106 107
3 105 107 108
3 107 109 110
3 107 110 108
3 110 111 112
3 110 112 108
3 112 113 105
3 112 105 108
3 114 115 116
3 114 116 117
3 116 118 119
3 116 119 117
3 119 111 110
3 119 110 117
3 110 109 114
3 110 114 117
3 120 121 122
3 120 122 123
3 122 124 125
3 122 125 123
3 125 111 119
3 125 119 123
3 119 118 120
3 119 120 123
3 126 127 128
3 126 128 129
3 128 113 112
3 128 112 129
3 112 111 125
3 112 125 129
3 125 124 126
3 125 126 129
3 61 60 130
3 61 130 131
3 130 132 133
3 130 133 131
3 133 134 135
3 133 135 131
3 135 63 61
3 135 61 131
3 136 10 9
3 136 9 137
3 9 4 138
3 9 138 137
3 138 134 133
3 138 133 137
3 133 132 136
3 133 136 137
3 2 1 139
3 2 139 140
3 139 141 142
3 139 142 140
3 142 134 138
3 142 138 140
3 138 4 2
3 138 2 140
3 143 35 65
3 143 65 144
3 65 63 135
3 65 135 144
3 135 134 142
3 135 142 144
3 142 141 143
3 142 143 144
3 90 41 145
3 90 145 146
3 145 147 148
3 145 148 146
3 148 149 150
3 148 150 146
3 150 92 90
3 150 90 146
3 151 22 21
3 151 21 152
3 21 19 153
3 21 153 152
3 153 149 148
3 153 148 152
3 148 147 151
3 148 151 152
3 17 16 154
3 17 154 155
3 154 156 157
3 154 157 155
3 157 149 153
3 157 153 155
3 153 19 17
3 153 17 155
3 158 80 96
3 158 96 159
3 96 92 150
3 96 150 159
3 150 149 157
3 150 157 159
3 157 156 158
3 157 158 159
3 36 35 160
3 36 160 161
3 160 162 163
3 160 163 161
3 163 164 165
3 163 165 161
3 165 38 36
3 165 36 161
3 166 167 168
3 166 168 169
3 168 170 171
3 168 171 169
3 171 164 163
3 171 163 169
3 163 162 166
3 163 166 169
3 172 173 174
3 172 174 175
3 174 176 177
3 174 177 175
3 177 164 171
3 177 171 175
3 171 170 172
3 171 172 175
3 178 41 40
3 178 40 179
3 40 38 165
3 40 165 179
3 165 164 177
3 165 177 179
3 177 176 178
3 177 178 179
3 139 1 180
3 139 180 181
3 180 182 183
3 180 183 181
3 183 184 185
3 183 185 181
3 185 141 139
3 185 139 181
3 186 187 188
3 186 188 189
3 188 190 191
3 188 191 189
3 191 184 183
3 191 183 189
3 183 182 186
3 183 186 189
3 192 167 166
3 192 166 193
3 166 162 194
3 166 194 193
3 194 184 191
3 194 191 193
3 191 190 192
3 191 192 193
3 160 35 143
3 160 143 195
3 143 141 185
3 143 185 195
3 185 184 194
3 185 194 195
3 194 162 160
3 194 160 195
3 23 22 196
3 23 196 197
3 196 198 199
3 196 199 197
3 199 200 201
3 199 201 197
3 201 8 23
3 201 23 197
3 202 203 204
3 202 204 205
3 204 206 207
3 204 207 205
3 207 200 199
3 207 199 205
3 199 198 202
3 199 202 205
3 208 187 186
3 208 186 209
3 186 182 210
3 186 210 209
3 210 200 207
3 210 207 209
3 207 206 208
3 207 208 209
3 180 1 0
3 180 0 211
3 0 8 201
3 0 201 211
3 201 200 210
3 201 210 211
3 210 182 180
3 210 180 211
3 145 41 178
3 145 178 212
3 178 176 213
3 178 213 212
3 213 214 215
3 213 215 212
3 215 147 145
3 215 145 212
3 174 173 216
3 174 216 217
3 216 218 219
3 216 219 217
3 219 214 213
3 219 213 217
3 213 176 174
3 213 174 217
3 220 203 202
3 220 202 221
3 202 198 222
3 202 222 221
3 222 214 219
3 222 219 221
3 219 218 220
3 219 220 221
3 196 22 151
3 196 151 223
3 151 147 215
3 151 215 223
3 215 214 222
3 215 222 223
3 222 198 196
3 222 196 223
3 168 167 224
3 168 224 225
3 224 226 227
3 224 227 225
3 227 228 229
3 227 229 225
3 229 170 168
3 229 168 225
3 230 106 105
3 230 105 231
3 105 113 232
3 105 232 231
3 232 228 227
3 232 227 231
3 227 226 230
3 227 230 231
3 128 127 233
3 128 233 234
3 233 235 236
3 233 236 234
3 236 228 232
3 236 232 234
3 232 113 128
3 232 128 234
3 237 173 172
3 237 172 238
3 172 170 229
3 172 229 238
3 229 228 236
3 229 236 238
3 236 235 237
3 236 237 238
3 188 187 239
3 188 239 240
3 239 241 242
3 239 242 240
3 242 243 244
3 242 244 240
3 244 190 188
3 244 188 240
3 245 115 114
3 245 114 246
3 114 109 247
3 114 247 246
3 247 243 242
3 247 242 246
3 242 241 245
3 242 245 246
3 107 106 230
3 107 230 248
3 230 226 249
3 230 249 248
3 249 243 247
3 249 247 248
3 247 109 107
3 247 107 248
3 224 167 192
3 224 192 250
3 192 190 244
3 192 244 250
3 244 243 249
3 244 249 250
3 249 226 224
3 249 224 250
3 204 203 251
3 204 251 252
3 251 253 254
3 251 254 252
3 254 255 256
3 254 256 252
3 256 206 204
3 256 204 252
3 257 121 120
3 257 120 258
3 120 118 259
3 120 259 258
3 259 255 254
3 259 254 258
3 254 253 257
3 254 257 258
3 116 115 245
3 116 245 260
3 245 241 261
3 245 261 260
3 261 255 259
3 261 259 260
3 259 118 116
3 259 116 260
3 239 187 208
3 239 208 262
3 208 206 256
3 208 256 262
3 256 255 261
3 256 261 262
3 261 241 239
3 261 239 262
3 216 173 237
3 216 237 263
3 237 235 264
3 237 264 263
3 264 265 266
3 264 266 263
3 266 218 216
3 266 216 263
3 233 127 126
3 233 126 267
3 126 124 268
3 126 268 267
3 268 265 264
3 268 264 267
3 264 235 233
3 264 233 267
3 122 121 257
3 122 257 269
3 257 253 270
3 257 270 269
3 270 265 268
3 270 268 269
3 268 124 122
3 268 122 269
3 251 203 220
3 251 220 271
3 220 218 266
3 220 266 271
3 266 265 270
3 266 270 271
3 270 253 251
3 270 251 271
3 81 80 272
3 81 272 273
3 272 274 275
3 272 275 273
3 275 276 277
3 275 277 273
3 277 83 81
3 277 81 273
3 278 279 280
3 278 280 281
3 280 282 283
3 280 283 281
3 283 276 275
3 283 275 281
3 275 274 278
3 275 278 281
3 284 285 286
3 284 286 287
3 286 288 289
3 286 289 287
3 289 276 283
3 289 283 287
3 283 282 284
3 283 284 287
3 290 60 85
3 290 85 291
3 85 83 277
3 85 277 291
3 277 276 289
3 277 289 291
3 289 288 290
3 289 290 291
3 154 16 292
3 154 292 293
3 292 294 295
3 292 295 293
3 295 296 297
3 295 297 293
3 297 156 154
3 297 154 293
3 298 299 300
3 298 300 301
3 300 302 303
3 300 303 301
3 303 296 295
3 303 295 301
3 295 294 298
3 295 298 301
3 304 279 278
3 304 278 305
3 278 274 306
3 278 306 305
3 306 296 303
3 306 303 305
3 303 302 304
3 303 304 305
3 272 80 158
3 272 158 307
3 158 156 297
3 158 297 307
3 297 296 306
3 297 306 307
3 306 274 272
3 306 272 307
3 11 10 308
3 11 308 309
3 308 310 311
3 308 311 309
3 311 312 313
3 311 313 309
3 313 13 11
3 313 11 309
3 314 315 316
3 314 316 317
3 316 318 319
3 316 319 317
3 319 312 311
3 319 311 317
3 311 310 314
3 311 314 317
3 320 299 298
3 320 298 321
3 298 294 322
3 298 322 321
3 322 312 319
3 322 319 321
3 319 318 320
3 319 320 321
3 292 16 15
3 292 15 323
3 15 13 313
3 15 313 323
3 313 312 322
3 313 322 323
3 322 294 292
3 322 292 323
3 130 60 290
3 130 290 324
3 290 288 325
3 290 325 324
3 325 326 327
3 325 327 324
3 327 132 130
3 327 130 324
3 286 285 328
3 286 328 329
3 328 330 331
3 328 331 329
3 331 326 325
3 331 325 329
3 325 288 286
3 325 286 329
3 332 315 314
3 332 314 333
3 314 310 334
3 314 334 333
3 334 326 331
3 334 331 333
3 331 330 332
3 331 332 333
3 308 10 136
3 308 136 335
3 136 132 327
3 136 327 335
3 327 326 334
3 327 334 335
3 334 310 308
3 334 308 335
3 336 337 338
3 339 340 341
3 339 341 342
3 341 337 336
3 341 336 342
3 343 344 345
3 343 345 346
3 347 348 343
3 347 343 346
3 349 348 347
3 350 351 352
3 350 352 353
3 352 354 355
3 352 355 353
3 355 356 357
3 355 357 353
3 357 358 350
3 357 350 353
3 345 344 359
3 345 359 360
3 359 358 357
3 359 357 360
3 357 356 361
3 357 361 360
3 361 345 360
3 362 340 339
3 362 339 363
3 339 364 363
3 364 365 366
3 364 366 363
3 366 367 362
3 366 362 363
3 352 351 368
3 352 368 369
3 368 367 366
3 368 366 369
3 366 365 370
3 366 370 369
3 370 354 352
3 370 352 369
3 371 372 373
3 371 373 374
3 373 375 376
3 373 376 374
3 376 377 378
3 376 378 374
3 378 379 371
3 378 371 374
3 380 377 376
3 381 382 383
3 381 383 384
3 383 377 380
3 383 380 384
3 385 386 387
3 385 387 388
3 387 379 378
3 387 378 388
3 378 377 383
3 378 383 388
3 383 382 385
3 383 385 388
3 389 390 391
3 373 372 392
3 373 392 393
3 392 394 395
3 392 395 393
3 395 390 389
3 395 389 393
3 389 375 373
3 389 373 393
3 396 397 398
3 396 398 399
3 398 400 401
3 398 401 399
3 401 390 395
3 401 395 399
3 395 394 396
3 395 396 399
3 402 403 404
3 402 404 405
3 404 391 405
3 391 390 401
3 391 401 405
3 401 400 402
3 401 402 405
3 406 403 402
3 406 402 407
3 402 400 408
3 402 408 407
3 408 409 410
3 408 410 407
3 410 406 407
3 398 397 411
3 398 411 412
3 411 413 414
3 411 414 412
3 414 409 408
3 414 408 412
3 408 400 398
3 408 398 412
3 415 416 417
3 415 417 418
3 417 419 420
3 417 420 418
3 420 409 414
3 420 414 418
3 414 413 415
3 414 415 418
3 410 409 420
3 421 422 423
3 417 416 424
3 417 424 425
3 424 426 427
3 424 427 425
3 427 422 421
3 427 421 425
3 421 419 417
3 421 417 425
3 428 386 385
3 428 385 429
3 385 382 430
3 385 430 429
3 430 422 427
3 430 427 429
3 427 426 428
3 427 428 429
3 423 422 430
3 423 430 431
3 430 382 381
3 430 381 431
3 300 299 432
3 300 432 433
3 432 434 435
3 432 435 433
3 435 436 437
3 435 437 433
3 437 302 300
3 437 300 433
3 438 344 343
3 438 343 439
3 343 348 440
3 343 440 439
3 440 436 435
3 440 435 439
3 435 434 438
3 435 438 439
3 349 441 442
3 349 442 443
3 442 444 445
3 442 445 443
3 445 436 440
3 445 440 443
3 440 348 349
3 440 349 443
3 446 279 304
3 446 304 447
3 304 302 437
3 304 437 447
3 437 436 445
3 437 445 447
3 445 444 446
3 445 446 447
3 280 279 446
3 280 446 448
3 446 444 449
3 446 449 448
3 449 450 451
3 449 451 448
3 451 282 280
3 451 280 448
3 442 441 338
3 442 338 452
3 338 337 453
3 338 453 452
3 453 450 449
3 453 449 452
3 449 444 442
3 449 442 452
3 341 340 454
3 341 454 455
3 454 456 457
3 454 457 455
3 457 450 453
3 457 453 455
3 453 337 341
3 453 341 455
3 458 285 284
3 458 284 459
3 284 282 451
3 284 451 459
3 451 450 457
3 451 457 459
3 457 456 458
3 457 458 459
3 328 285 458
3 328 458 460
3 458 456 461
3 458 461 460
3 461 462 463
3 461 463 460
3 463 330 328
3 463 328 460
3 454 340 362
3 454 362 464
3 362 367 465
3 362 465 464
3 465 462 461
3 465 461 464
3 461 456 454
3 461 454 464
3 368 351 466
3 368 466 467
3 466 468 469
3 466 469 467
3 469 462 465
3 469 465 467
3 465 367 368
3 465 368 467
3 470 315 332
3 470 332 471
3 332 330 463
3 332 463 471
3 463 462 469
3 463 469 471
3 469 468 470
3 469 470 471
3 316 315 470
3 316 470 472
3 470 468 473
3 470 473 472
3 473 474 475
3 473 475 472
3 475 318 316
3 475 316 472
3 466 351 350
3 466 350 476
3 350 358 477
3 350 477 476
3 477 474 473
3 477 473 476
3 473 468 466
3 473 466 476
3 359 344 438
3 359 438 478
3 438 434 479
3 438 479 478
3 479 474 477
3 479 477 478
3 477 358 359
3 477 359 478
3 432 299 320
3 432 320 480
3 320 318 475
3 320 475 480
3 475 474 479
3 475 479 480
3 479 434 432
3 479 432 480
3 392 372 481
3 392 481 482
3 481 483 484
3 481 484 482
3 484 485 486
3 484 486 482
3 486 394 392
3 486 392 482
3 487 47 103
3 487 103 488
3 103 101 489
3 103 489 488
3 489 485 484
3 489 484 488
3 484 483 487
3 484 487 488
3 99 71 490
3 99 490 491
3 490 492 493
3 490 493 491
3 493 485 489
3 493 489 491
3 489 101 99
3 489 99 491
3 494 397 396
3 494 396 495
3 396 394 486
3 396 486 495
3 486 485 493
3 486 493 495
3 493 492 494
3 493 494 495
3 411 397 494
3 411 494 496
3 494 492 497
3 494 497 496
3 497 498 499
3 497 499 496
3 499 413 411
3 499 411 496
3 490 71 70
3 490 70 500
3 70 78 501
3 70 501 500
3 501 498 497
3 501 497 500
3 497 492 490
3 497 490 500
3 88 51 502
3 88 502 503
3 502 504 505
3 502 505 503
3 505 498 501
3 505 501 503
3 501 78 88
3 501 88 503
3 506 416 415
3 506 415 507
3 415 413 499
3 415 499 507
3 499 498 505
3 499 505 507
3 505 504 506
3 505 506 507
3 424 416 506
3 424 506 508
3 506 504 509
3 506 509 508
3 509 510 511
3 509 511 508
3 511 426 424
3 511 424 508
3 502 51 50
3 502 50 512
3 50 58 513
3 50 513 512
3 513 510 509
3 513 509 512
3 509 504 502
3 509 502 512
3 68 26 514
3 68 514 515
3 514 516 517
3 514 517 515
3 517 510 513
3 517 513 515
3 513 58 68
3 513 68 515
3 518 386 428
3 518 428 519
3 428 426 511
3 428 511 519
3 511 510 517
3 511 517 519
3 517 516 518
3 517 518 519
3 481 372 371
3 481 371 520
3 371 379 521
3 371 521 520
3 521 522 523
3 521 523 520
3 523 483 481
3 523 481 520
3 387 386 518
3 387 518 524
3 518 516 525
3 518 525 524
3 525 522 521
3 525 521 524
3 521 379 387
3 521 387 524
3 514 26 25
3 514 25 526
3 25 33 527
3 25 527 526
3 527 522 525
3 527 525 526
3 525 516 514
3 525 514 526
3 48 47 487
3 48 487 528
3 487 483 523
3 487 523 528
3 523 522 527
3 523 527 528
3 527 33 48
3 527 48 528
3 404 403 529
3 529 403 406
