501	29260.0
502	29380.0
503	29350.0
504	29380.0
505	29340.0
506	29390.0
507	29290.0
508	29320.0
509	29390.0
510	29180.0
511	29390.0
512	29350.0
513	29400.0
514	29440.0
515	29410.0
516	29330.0
517	29200.0
518	29320.0
519	29350.0
520	29310.0
521	29280.0
522	29300.0
523	29330.0
524	29240.0
525	29370.0
526	29390.0
527	29310.0
528	29360.0
529	29360.0
530	29350.0
531	29290.0
532	29340.0
533	29250.0
534	29430.0
535	29350.0
536	29350.0
537	29360.0
538	29340.0
539	29330.0
540	29370.0
541	29440.0
542	29200.0
543	29360.0
544	29220.0
545	29300.0
546	29420.0
547	29310.0
548	29290.0
549	29380.0
550	29310.0
551	29330.0
552	29360.0
553	29290.0
554	29330.0
555	29310.0
556	29290.0
557	29380.0
558	29400.0
559	29340.0
560	29320.0
561	29290.0
562	29260.0
563	29320.0
564	29370.0
565	29460.0
566	29320.0
567	29340.0
568	29420.0
569	29350.0
570	29370.0
571	29400.0
572	29360.0
573	29400.0
574	29350.0
575	29330.0
576	29370.0
577	29290.0
578	29340.0
579	29250.0
580	29350.0
581	29330.0
582	29340.0
583	29300.0
584	29240.0
585	29420.0
586	29370.0
587	29330.0
588	29280.0
589	29290.0
590	29410.0
591	29240.0
592	29320.0
593	29300.0
594	29250.0
595	29320.0
596	29340.0
597	29360.0
598	29340.0
599	29310.0
600	29280.0
601	29290.0
602	29250.0
603	29320.0
604	29260.0
605	29360.0
606	29380.0
607	29330.0
608	29370.0
609	29370.0
610	29420.0
611	29370.0
612	29420.0
613	29310.0
614	29350.0
615	29260.0
616	29280.0
617	29240.0
618	29290.0
619	29250.0
620	29320.0
621	29360.0
622	29290.0
623	29320.0
624	29320.0
625	29230.0
626	29310.0
627	29350.0
628	29240.0
629	29240.0
630	29230.0
631	29270.0
632	29220.0
633	29200.0
634	29400.0
635	29320.0
636	29220.0
637	29220.0
638	29280.0
639	29260.0
640	29240.0
641	29320.0
642	29350.0
643	29240.0
644	29340.0
645	29270.0
646	29290.0
647	29230.0
648	29260.0
649	29270.0
650	29360.0
651	29220.0
652	29290.0
653	29330.0
654	29200.0
655	29300.0
656	29230.0
657	29240.0
658	29150.0
659	29280.0
660	29280.0
661	29230.0
662	29300.0
663	29220.0
664	29240.0
665	29250.0
666	29260.0
667	29310.0
668	29260.0
669	29320.0
670	29340.0
671	29260.0
672	29320.0
673	29280.0
674	29260.0
675	29280.0
676	29280.0
677	29260.0
678	29310.0
679	29330.0
680	29250.0
681	29280.0
682	29260.0
683	29300.0
684	29140.0
685	29200.0
686	29330.0
687	29240.0
688	29300.0
689	29290.0
690	29340.0
691	29320.0
692	29280.0
693	29310.0
694	29340.0
695	29330.0
696	29340.0
697	29150.0
698	29230.0
699	29300.0
700	29410.0
701	29440.0
702	29470.0
703	29230.0
704	29320.0
705	29300.0
706	29390.0
707	29340.0
708	29260.0
709	29310.0
710	29360.0
711	29310.0
712	29200.0
713	29250.0
714	29240.0
715	29240.0
716	29230.0
717	29250.0
718	29240.0
719	29340.0
720	29310.0
721	29300.0
722	29200.0
723	29220.0
724	29250.0
725	29230.0
726	29270.0
727	29260.0
728	29230.0
729	29270.0
730	29210.0
731	29300.0
732	29240.0
733	29300.0
734	29250.0
735	29360.0
736	29270.0
737	29250.0
738	29220.0
739	29340.0
740	29210.0
741	29270.0
742	29230.0
743	29260.0
744	29230.0
745	29370.0
746	29300.0
747	29360.0
748	29310.0
749	29240.0
750	29300.0
751	29300.0
752	29340.0
753	29210.0
754	29330.0
755	29230.0
756	29280.0
757	29350.0
758	29310.0
759	29300.0
760	29290.0
761	29300.0
762	29190.0
763	29250.0
764	29220.0
765	29250.0
766	29230.0
767	29350.0
768	29270.0
769	29240.0
770	29370.0
771	29280.0
772	29210.0
773	29320.0
774	29240.0
775	29290.0
776	29330.0
777	29360.0
778	29250.0
779	29320.0
780	29240.0
781	29290.0
782	29220.0
783	29320.0
784	29330.0
785	29290.0
786	29320.0
787	29310.0
788	29370.0
789	29220.0
790	29250.0
791	29250.0
792	29260.0
793	29300.0
794	29310.0
795	29240.0
796	29290.0
797	29230.0
798	29190.0
799	29350.0
800	29280.0
801	29310.0
802	29290.0
803	29210.0
804	29310.0
805	29160.0
806	29230.0
807	29160.0
808	29390.0
809	29260.0
810	29250.0
811	29280.0
812	29270.0
813	29180.0
814	29260.0
815	29330.0
816	29180.0
817	29300.0
818	29300.0
819	29280.0
820	29320.0
821	29260.0
822	29290.0
823	29260.0
824	29260.0
825	29310.0
826	29260.0
827	29290.0
828	29270.0
829	29370.0
830	29320.0
831	29300.0
832	29240.0
833	29260.0
834	29230.0
835	29260.0
836	29240.0
837	29210.0
838	29280.0
839	29260.0
840	29240.0
841	29250.0
842	29460.0
843	29300.0
844	29300.0
845	29220.0
846	29270.0
847	29270.0
848	29220.0
849	29220.0
850	29200.0
851	29170.0
852	29270.0
853	29240.0
854	29300.0
855	29230.0
856	29220.0
857	29260.0
858	29250.0
859	29170.0
860	29220.0
861	29220.0
862	29220.0
863	29250.0
864	29230.0
865	29180.0
866	29190.0
867	29190.0
868	29240.0
869	29260.0
870	29250.0
871	29250.0
872	29100.0
873	29090.0
874	29220.0
875	29270.0
876	29260.0
877	29170.0
878	29140.0
879	29200.0
880	29220.0
881	29100.0
882	29090.0
883	29270.0
884	29190.0
885	29150.0
886	29130.0
887	29180.0
888	29200.0
889	29190.0
890	29150.0
891	29150.0
892	29220.0
893	29170.0
894	29150.0
895	29200.0
896	29240.0
897	29170.0
898	29200.0
899	29280.0
900	29160.0
901	29240.0
902	29330.0
903	29280.0
904	29210.0
905	29240.0
906	29180.0
907	29250.0
908	29130.0
909	29200.0
910	29180.0
911	29210.0
912	29230.0
913	29240.0
914	29160.0
915	29170.0
916	29200.0
917	29190.0
918	29270.0
919	29220.0
920	29220.0
921	29250.0
922	29250.0
923	29190.0
924	29210.0
925	29290.0
926	29260.0
927	29310.0
928	29210.0
929	29240.0
930	29300.0
931	29260.0
932	29240.0
933	29180.0
934	29230.0
935	29140.0
936	29170.0
937	29290.0
938	29260.0
939	29240.0
940	29160.0
941	29220.0
942	29220.0
943	29140.0
944	29280.0
945	29180.0
946	29180.0
947	29150.0
948	29210.0
949	29200.0
950	29140.0
951	29240.0
952	29200.0
953	29130.0
954	29140.0
955	29160.0
956	29250.0
957	29120.0
958	29200.0
959	29150.0
960	29210.0
961	29180.0
962	29120.0
963	29190.0
964	29200.0
965	29130.0
966	29170.0
967	29150.0
968	29200.0
969	29150.0
970	29110.0
971	29190.0
972	29150.0
973	29210.0
974	29200.0
975	29130.0
976	29200.0
977	29240.0
978	29230.0
979	29120.0
980	29110.0
981	29230.0
982	29180.0
983	29200.0
984	29230.0
985	29050.0
986	29210.0
987	29230.0
988	29220.0
989	29220.0
990	29170.0
991	29200.0
992	29180.0
993	29240.0
994	29150.0
995	29190.0
996	29150.0
997	29200.0
998	29270.0
999	29190.0
1000	29230.0
1001	29300.0
1002	29200.0
1003	29210.0
1004	29260.0
1005	29200.0
1006	29270.0
1007	29150.0
1008	29210.0
1009	29140.0
1010	29180.0
1011	29070.0
1012	29130.0
1013	29170.0
1014	29220.0
1015	29270.0
1016	29150.0
1017	29130.0
1018	29240.0
1019	29230.0
1020	29300.0
1021	29180.0
1022	29110.0
1023	29200.0
1024	29160.0
1025	29200.0
1026	29180.0
1027	29120.0
1028	29240.0
1029	29160.0
1030	29210.0
1031	29170.0
1032	29110.0
1033	29210.0
1034	29190.0
1035	29130.0
1036	29170.0
1037	29240.0
1038	29200.0
1039	29110.0
1040	29300.0
1041	29230.0
1042	29270.0
1043	29240.0
1044	29160.0
1045	29300.0
1046	29130.0
1047	29240.0
1048	29240.0
1049	29040.0
1050	29260.0
1051	29220.0
1052	29180.0
1053	29200.0
1054	29150.0
1055	29220.0
1056	29180.0
1057	29180.0
1058	29200.0
1059	29240.0
1060	29130.0
1061	29220.0
1062	29110.0
1063	29100.0
1064	29180.0
1065	29120.0
1066	29340.0
1067	29140.0
1068	29250.0
1069	29280.0
1070	29270.0
1071	29200.0
1072	29190.0
1073	29160.0
1074	29250.0
1075	29170.0
1076	29130.0
1077	29150.0
1078	29250.0
1079	29200.0
1080	29090.0
1081	29220.0
1082	29140.0
1083	29220.0
1084	29210.0
1085	29150.0
1086	29230.0
1087	29170.0
1088	29200.0
1089	29080.0
1090	29250.0
1091	29170.0
1092	29150.0
1093	29160.0
1094	29240.0
1095	29240.0
1096	29200.0
1097	29120.0
1098	29230.0
1099	29180.0
1100	29240.0
1101	29220.0
1102	29250.0
1103	29160.0
1104	29080.0
1105	29130.0
1106	29180.0
1107	29170.0
1108	29240.0
1109	29270.0
1110	29140.0
1111	29160.0
1112	29160.0
1113	29220.0
1114	29140.0
1115	29120.0
1116	29180.0
1117	29220.0
1118	29170.0
1119	29130.0
1120	29280.0
1121	29160.0
1122	29210.0
1123	29250.0
1124	29140.0
1125	29160.0
1126	29170.0
1127	29180.0
1128	29280.0
1129	29110.0
1130	29100.0
1131	29270.0
1132	29220.0
1133	29260.0
1134	29210.0
1135	29170.0
1136	29170.0
1137	29230.0
1138	29130.0
1139	29240.0
1140	29170.0
1141	29230.0
1142	29250.0
1143	29140.0
1144	29160.0
1145	29230.0
1146	29170.0
1147	29260.0
1148	29230.0
1149	29100.0
1150	29140.0
1151	29160.0
1152	29140.0
1153	29200.0
1154	29150.0
1155	29190.0
1156	29180.0
1157	29180.0
1158	29160.0
1159	29220.0
1160	29200.0
1161	29160.0
1162	29180.0
1163	29180.0
1164	29240.0
1165	29160.0
1166	29240.0
1167	29280.0
1168	29170.0
1169	29260.0
1170	29200.0
1171	29130.0
1172	29120.0
1173	29140.0
1174	29230.0
1175	29220.0
1176	29190.0
1177	29210.0
1178	29160.0
1179	29280.0
1180	29170.0
1181	29220.0
1182	29230.0
1183	29190.0
1184	29260.0
1185	29240.0
1186	29180.0
1187	29200.0
1188	29110.0
1189	29150.0
1190	29150.0
1191	29190.0
1192	29330.0
1193	29120.0
1194	29170.0
1195	29150.0
1196	29180.0
1197	29160.0
1198	29200.0
1199	29130.0
1200	29130.0
1201	29370.0
1202	29170.0
1203	29110.0
1204	29140.0
1205	29160.0
1206	29100.0
1207	29190.0
1208	29190.0
1209	29210.0
1210	29150.0
1211	29080.0
1212	29210.0
1213	29120.0
1214	29170.0
1215	29120.0
1216	29150.0
1217	29180.0
1218	29130.0
1219	29190.0
1220	29110.0
1221	29210.0
1222	29270.0
1223	29310.0
1224	29240.0
1225	29190.0
1226	29190.0
1227	29260.0
1228	29290.0
1229	29290.0
1230	29240.0
1231	29210.0
1232	29210.0
1233	29170.0
1234	29230.0
1235	29190.0
1236	29150.0
1237	29150.0
1238	29140.0
1239	29240.0
1240	29230.0
1241	29180.0
1242	29220.0
1243	29190.0
1244	29160.0
1245	29260.0
1246	29220.0
1247	29170.0
1248	29230.0
1249	29210.0
1250	29140.0
1251	29200.0
1252	29220.0
1253	29220.0
1254	29180.0
1255	29240.0
1256	29190.0
1257	29120.0
1258	29210.0
1259	29230.0
1260	29150.0
1261	29190.0
1262	29260.0
1263	29150.0
1264	29120.0
1265	29200.0
1266	29260.0
1267	29250.0
1268	29280.0
1269	29150.0
1270	29230.0
1271	29080.0
1272	29170.0
1273	29190.0
1274	29150.0
1275	29240.0
1276	29290.0
1277	29180.0
1278	29150.0
1279	29160.0
1280	29130.0
1281	29180.0
1282	29090.0
1283	29200.0
1284	29130.0
1285	29130.0
1286	29140.0
1287	29170.0
1288	29300.0
1289	29190.0
1290	29310.0
1291	29170.0
1292	29230.0
1293	29210.0
1294	29100.0
1295	29190.0
1296	29110.0
1297	29100.0
1298	29080.0
1299	29130.0
1300	29120.0
1301	29180.0
1302	29280.0
1303	29180.0
1304	29180.0
1305	29180.0
1306	29240.0
1307	29160.0
1308	29210.0
1309	29250.0
1310	29130.0
1311	29090.0
1312	29290.0
1313	29230.0
1314	29220.0
1315	29230.0
1316	29140.0
1317	29120.0
1318	29180.0
1319	29150.0
1320	29130.0
1321	29140.0
1322	29190.0
1323	29240.0
1324	29270.0
1325	29140.0
1326	29180.0
1327	29100.0
1328	29090.0
1329	29180.0
1330	29140.0
1331	29110.0
1332	29200.0
1333	29200.0
1334	29130.0
1335	29170.0
1336	29130.0
1337	29240.0
1338	29140.0
1339	29090.0
1340	29080.0
1341	29120.0
1342	29130.0
1343	29190.0
1344	29140.0
1345	29190.0
1346	29110.0
1347	29140.0
1348	29220.0
1349	29130.0
1350	29160.0
1351	29180.0
1352	29200.0
1353	29110.0
1354	29220.0
1355	29120.0
1356	29080.0
1357	29140.0
1358	29260.0
1359	29170.0
1360	29160.0
1361	29130.0
1362	29090.0
1363	29100.0
1364	29140.0
1365	29190.0
1366	29170.0
1367	29170.0
1368	29190.0
1369	29170.0
1370	29120.0
1371	29160.0
1372	29160.0
1373	29190.0
1374	29190.0
1375	29120.0
1376	29150.0
1377	29040.0
1378	29240.0
1379	29100.0
1380	29130.0
1381	29100.0
1382	29110.0
1383	29110.0
1384	29110.0
1385	29130.0
1386	29190.0
1387	29120.0
1388	29080.0
1389	29100.0
1390	29140.0
1391	29080.0
1392	29130.0
1393	29120.0
1394	29170.0
1395	29170.0
1396	29190.0
1397	29130.0
1398	29100.0
1399	29200.0
1400	29140.0
1401	29260.0
1402	29170.0
1403	29170.0
1404	29140.0
1405	29220.0
1406	29130.0
1407	29090.0
1408	29090.0
1409	29080.0
1410	29140.0
1411	29100.0
1412	29130.0
1413	29170.0
1414	29180.0
1415	29130.0
1416	29130.0
1417	29240.0
1418	29150.0
1419	29120.0
1420	29210.0
1421	29120.0
1422	29150.0
1423	29180.0
1424	29100.0
1425	29240.0
1426	29150.0
1427	29210.0
1428	29180.0
1429	29150.0
1430	29100.0
1431	29150.0
1432	29240.0
1433	29190.0
1434	29230.0
1435	29220.0
1436	29110.0
1437	29150.0
1438	29200.0
1439	29120.0
1440	29170.0
1441	29200.0
1442	29220.0
1443	29080.0
1444	29190.0
1445	29220.0
1446	29170.0
1447	29250.0
1448	29190.0
1449	29180.0
1450	29090.0
1451	29240.0
1452	29210.0
1453	29190.0
1454	29220.0
1455	29160.0
1456	29190.0
1457	29190.0
1458	29170.0
1459	29150.0
1460	29230.0
1461	29190.0
1462	29150.0
1463	29170.0
1464	29180.0
1465	29070.0
1466	29150.0
1467	29130.0
1468	29160.0
1469	29150.0
1470	29160.0
1471	29070.0
1472	29170.0
1473	29090.0
1474	29230.0
1475	29040.0
1476	29210.0
1477	29220.0
1478	29090.0
1479	29140.0
1480	29160.0
1481	29250.0
1482	29180.0
1483	29140.0
1484	29190.0
1485	29210.0
1486	29250.0
1487	29230.0
1488	29080.0
1489	29140.0
1490	29240.0
1491	29180.0
1492	29220.0
1493	29190.0
1494	29140.0
1495	29250.0
1496	29180.0
1497	29190.0
1498	29220.0
1499	29180.0
1500	29150.0
1501	29110.0
1502	29230.0
1503	29270.0
1504	29160.0
1505	29080.0
1506	29210.0
1507	29110.0
1508	29170.0
1509	29210.0
1510	29160.0
1511	29220.0
1512	29180.0
1513	29110.0
1514	29250.0
1515	29230.0
1516	29170.0
1517	29160.0
1518	29160.0
1519	29170.0
1520	29210.0
1521	29300.0
1522	29130.0
1523	29170.0
1524	29180.0
1525	29200.0
1526	29190.0
1527	29200.0
1528	29170.0
1529	29190.0
1530	29180.0
1531	29330.0
1532	29240.0
1533	29110.0
1534	29180.0
1535	29180.0
1536	29130.0
1537	29190.0
1538	29240.0
1539	29230.0
1540	29240.0
1541	29200.0
1542	29260.0
1543	29170.0
1544	29190.0
1545	29140.0
1546	29170.0
1547	29160.0
1548	29210.0
1549	29210.0
1550	29190.0
1551	29180.0
1552	29210.0
1553	29210.0
1554	29170.0
1555	29140.0
1556	29170.0
1557	29150.0
1558	29120.0
1559	29100.0
1560	29120.0
1561	29190.0
1562	29150.0
1563	29180.0
1564	29200.0
1565	29200.0
1566	29180.0
1567	29170.0
1568	29160.0
1569	29270.0
1570	29160.0
1571	29170.0
1572	29130.0
1573	29150.0
1574	29270.0
1575	29090.0
1576	29250.0
1577	29220.0
1578	29150.0
1579	29140.0
1580	29240.0
1581	29120.0
1582	29120.0
1583	29160.0
1584	29120.0
1585	29140.0
1586	29170.0
1587	29210.0
1588	29210.0
1589	29220.0
1590	29200.0
1591	29190.0
1592	29220.0
1593	29130.0
1594	29170.0
1595	29230.0
1596	29170.0
1597	29230.0
1598	29180.0
1599	29220.0
1600	29080.0
1601	29140.0
1602	29260.0
1603	29240.0
1604	29180.0
1605	29390.0
1606	29140.0
1607	29190.0
1608	29190.0
1609	29200.0
1610	29180.0
1611	29130.0
1612	29230.0
1613	29170.0
1614	29200.0
1615	29210.0
1616	29220.0
1617	29160.0
1618	29190.0
1619	29180.0
1620	29120.0
1621	29190.0
1622	29160.0
1623	29240.0
1624	29190.0
1625	29320.0
1626	29190.0
1627	29260.0
1628	29260.0
1629	29200.0
1630	29160.0
1631	29200.0
1632	29210.0
1633	29190.0
1634	29220.0
1635	29210.0
1636	29260.0
1637	29170.0
1638	29170.0
1639	29240.0
1640	29190.0
1641	29170.0
1642	29150.0
1643	29240.0
1644	29130.0
1645	29190.0
1646	29240.0
1647	29240.0
1648	29100.0
1649	29200.0
1650	29220.0
1651	29190.0
1652	29200.0
1653	29190.0
1654	29280.0
1655	29180.0
1656	29290.0
1657	29250.0
1658	29120.0
1659	29170.0
1660	29170.0
1661	29270.0
1662	29140.0
1663	29230.0
1664	29220.0
1665	29240.0
1666	29120.0
1667	29260.0
1668	29210.0
1669	29240.0
1670	29200.0
1671	29180.0
1672	29210.0
1673	29140.0
1674	29170.0
1675	29110.0
1676	29210.0
1677	29140.0
1678	29140.0
1679	29200.0
1680	29250.0
1681	29120.0
1682	29080.0
1683	29180.0
1684	29200.0
1685	29170.0
1686	29200.0
1687	29070.0
1688	29230.0
1689	29160.0
1690	29240.0
1691	29230.0
1692	29260.0
1693	29170.0
1694	29220.0
1695	29160.0
1696	29090.0
1697	29250.0
1698	29280.0
1699	29170.0
1700	29260.0
1701	29150.0
1702	29310.0
1703	29190.0
1704	29230.0
1705	29140.0
1706	29120.0
1707	29170.0
1708	29190.0
1709	29230.0
1710	29240.0
1711	29120.0
1712	29130.0
1713	29240.0
1714	29180.0
1715	29110.0
1716	29180.0
1717	29200.0
1718	29210.0
1719	29200.0
1720	29160.0
1721	29250.0
1722	29190.0
1723	29300.0
1724	29190.0
1725	29200.0
1726	29150.0
1727	29150.0
1728	29260.0
1729	29140.0
1730	29170.0
1731	29220.0
1732	29220.0
1733	29270.0
1734	29240.0
1735	29160.0
1736	29330.0
1737	29260.0
1738	29260.0
1739	29280.0
1740	29340.0
1741	29230.0
1742	29130.0
1743	29250.0
1744	29140.0
1745	29200.0
1746	29260.0
1747	29210.0
1748	29270.0
1749	29180.0
1750	29220.0
1751	29220.0
1752	29190.0
1753	29220.0
1754	29220.0
1755	29180.0
1756	29080.0
1757	29150.0
1758	29150.0
1759	29190.0
1760	29260.0
1761	29240.0
1762	29220.0
1763	29150.0
1764	29270.0
1765	29150.0
1766	29270.0
1767	29110.0
1768	29250.0
1769	29180.0
1770	29140.0
1771	29140.0
1772	29140.0
1773	29180.0
1774	29220.0
1775	29090.0
1776	29160.0
1777	29240.0
1778	29190.0
1779	29160.0
1780	29290.0
1781	29230.0
1782	29140.0
1783	29220.0
1784	29230.0
1785	29210.0
1786	29210.0
1787	29270.0
1788	29230.0
1789	29210.0
1790	29120.0
1791	29240.0
1792	29210.0
1793	29220.0
1794	29130.0
1795	29140.0
1796	29250.0
1797	29190.0
1798	29140.0
1799	29210.0
1800	29190.0
1801	29210.0
1802	29110.0
1803	29210.0
1804	29230.0
1805	29300.0
1806	29290.0
1807	29280.0
1808	29250.0
1809	29310.0
1810	29110.0
1811	29250.0
1812	29340.0
1813	29250.0
1814	29160.0
1815	29300.0
1816	29320.0
1817	29170.0
1818	29220.0
1819	29290.0
1820	29260.0
1821	29340.0
1822	29190.0
1823	29270.0
1824	29150.0
1825	29190.0
1826	29250.0
1827	29160.0
1828	29280.0
1829	29220.0
1830	29180.0
1831	29280.0
1832	29230.0
1833	29220.0
1834	29200.0
1835	29280.0
1836	29300.0
1837	29250.0
1838	29310.0
1839	29230.0
1840	29180.0
1841	29200.0
1842	29220.0
1843	29130.0
1844	29270.0
1845	29180.0
1846	29150.0
1847	29160.0
1848	29260.0
1849	29160.0
1850	29210.0
1851	29120.0
1852	29160.0
1853	29280.0
1854	29140.0
1855	29130.0
1856	29190.0
1857	29110.0
1858	29170.0
1859	29210.0
1860	29270.0
1861	29180.0
1862	29290.0
1863	29250.0
1864	29160.0
1865	29290.0
1866	29160.0
1867	29170.0
1868	29310.0
1869	29260.0
1870	29230.0
1871	29160.0
1872	29200.0
1873	29160.0
1874	29150.0
1875	29200.0
1876	29210.0
1877	29140.0
1878	29190.0
1879	29140.0
1880	29180.0
1881	29250.0
1882	29140.0
1883	29220.0
1884	29180.0
1885	29190.0
1886	29140.0
1887	29160.0
1888	29180.0
1889	29240.0
1890	29210.0
1891	29150.0
1892	29270.0
1893	29210.0
1894	29180.0
1895	29140.0
1896	29170.0
1897	29160.0
1898	29270.0
1899	29270.0
1900	29290.0
1901	29220.0
1902	29210.0
1903	29240.0
1904	29200.0
1905	29220.0
1906	29210.0
1907	29120.0
1908	29270.0
1909	29300.0
1910	29170.0
1911	29270.0
1912	29260.0
1913	29210.0
1914	29260.0
1915	29110.0
1916	29140.0
1917	29170.0
1918	29250.0
1919	29150.0
1920	29230.0
1921	29160.0
1922	29130.0
1923	29140.0
1924	29170.0
1925	29230.0
1926	29210.0
1927	29260.0
1928	29200.0
1929	29220.0
1930	29200.0
1931	29220.0
1932	29100.0
1933	29180.0
1934	29160.0
1935	29240.0
1936	29150.0
1937	29250.0
1938	29220.0
1939	29150.0
1940	29110.0
1941	29150.0
1942	29230.0
1943	29280.0
1944	29210.0
1945	29170.0
1946	29210.0
1947	29180.0
1948	29320.0
1949	29240.0
1950	29340.0
1951	29330.0
1952	29210.0
1953	29190.0
1954	29270.0
1955	29080.0
1956	29180.0
1957	29220.0
1958	29180.0
1959	29220.0
1960	29190.0
1961	29260.0
1962	29200.0
1963	29190.0
1964	29160.0
1965	29160.0
1966	29270.0
1967	29240.0
1968	29220.0
1969	29270.0
1970	29190.0
1971	29190.0
1972	29170.0
1973	29200.0
1974	29190.0
1975	29250.0
1976	29240.0
1977	29240.0
1978	29160.0
1979	29200.0
1980	29250.0
1981	29190.0
1982	29160.0
1983	29120.0
1984	29310.0
1985	29300.0
1986	29290.0
1987	29130.0
1988	29170.0
1989	29130.0
1990	29150.0
1991	29240.0
1992	29220.0
1993	29290.0
1994	29190.0
1995	29320.0
1996	29160.0
1997	29230.0
1998	29240.0
1999	29220.0
2000	29190.0
2001	29340.0
2002	29170.0
2003	29240.0
2004	29350.0
2005	29230.0
2006	29190.0
2007	29270.0
2008	29270.0
2009	29300.0
2010	29290.0
2011	29240.0
2012	29210.0
2013	29190.0
2014	29260.0
2015	29200.0
2016	29360.0
2017	29230.0
2018	29260.0
2019	29230.0
2020	29190.0
2021	29210.0
2022	29290.0
2023	29180.0
2024	29190.0
2025	29260.0
2026	29240.0
2027	29200.0
2028	29170.0
2029	29250.0
2030	29240.0
2031	29200.0
2032	29320.0
2033	29280.0
2034	29250.0
2035	29170.0
2036	29290.0
2037	29220.0
2038	29260.0
2039	29200.0
2040	29180.0
2041	29270.0
2042	29170.0
2043	29120.0
2044	29120.0
2045	29200.0
2046	29240.0
2047	29200.0
2048	29130.0
2049	29180.0
2050	29200.0
2051	29220.0
2052	29170.0
2053	29150.0
2054	29130.0
2055	29110.0
2056	29160.0
2057	29250.0
2058	29130.0
2059	29180.0
2060	29170.0
2061	29320.0
2062	29160.0
2063	29280.0
2064	29150.0
2065	29270.0
2066	29160.0
2067	29260.0
2068	29260.0
2069	29220.0
2070	29250.0
2071	29200.0
2072	29180.0
2073	29170.0
2074	29140.0
2075	29150.0
2076	29210.0
2077	29300.0
2078	29180.0
2079	29160.0
2080	29170.0
2081	29140.0
2082	29270.0
2083	29200.0
2084	29240.0
2085	29200.0
2086	29180.0
2087	29130.0
2088	29200.0
2089	29170.0
2090	29090.0
2091	29200.0
2092	29200.0
2093	29200.0
2094	29150.0
2095	29190.0
2096	29180.0
2097	29220.0
2098	29200.0
2099	29170.0
2100	29260.0
2101	29260.0
2102	29180.0
2103	29230.0
2104	29150.0
2105	29150.0
2106	29130.0
2107	29250.0
2108	29220.0
2109	29180.0
2110	29180.0
2111	29210.0
2112	29080.0
2113	29140.0
2114	29230.0
2115	29210.0
2116	29190.0
2117	29310.0
2118	29210.0
2119	29210.0
2120	29180.0
2121	29240.0
2122	29170.0
2123	29200.0
2124	29230.0
2125	29170.0
2126	29270.0
2127	29150.0
2128	29260.0
2129	29230.0
2130	29220.0
2131	29200.0
2132	29120.0
2133	29200.0
2134	29220.0
2135	29190.0
2136	29170.0
2137	29240.0
2138	29190.0
2139	29310.0
2140	29200.0
2141	29260.0
2142	29260.0
2143	29190.0
2144	29190.0
2145	29210.0
2146	29240.0
2147	29160.0
2148	29170.0
2149	29170.0
2150	29110.0
2151	29220.0
2152	29230.0
2153	29230.0
2154	29310.0
2155	29190.0
2156	29260.0
2157	29210.0
2158	29210.0
2159	29170.0
2160	29210.0
2161	29150.0
2162	29200.0
2163	29210.0
2164	29240.0
2165	29260.0
2166	29130.0
2167	29130.0
2168	29150.0
2169	29220.0
2170	29190.0
2171	29200.0
2172	29210.0
2173	29100.0
2174	29240.0
2175	29240.0
2176	29220.0
2177	29250.0
2178	29330.0
2179	29290.0
2180	29240.0
2181	29210.0
2182	29150.0
2183	29310.0
2184	29240.0
2185	29170.0
2186	29080.0
2187	29160.0
2188	29200.0
2189	29190.0
2190	29160.0
2191	29220.0
2192	29160.0
2193	29210.0
2194	29270.0
2195	29180.0
2196	29220.0
2197	29140.0
2198	29250.0
2199	29130.0
2200	29170.0
2201	29180.0
2202	29180.0
2203	29150.0
2204	29180.0
2205	29280.0
2206	29180.0
2207	29200.0
2208	29220.0
2209	29140.0
2210	29180.0
2211	29150.0
2212	29360.0
2213	29150.0
2214	29090.0
2215	29220.0
2216	29230.0
2217	29140.0
2218	29250.0
2219	29180.0
2220	29190.0
2221	29150.0
2222	29120.0
2223	29170.0
2224	29200.0
2225	29200.0
2226	29250.0
2227	29220.0
2228	29210.0
2229	29160.0
2230	29220.0
2231	29180.0
2232	29310.0
2233	29220.0
2234	29170.0
2235	29110.0
2236	29190.0
2237	29210.0
2238	29240.0
2239	29250.0
2240	29160.0
2241	29210.0
2242	29100.0
2243	29210.0
2244	29180.0
2245	29150.0
2246	29230.0
2247	29180.0
2248	29130.0
2249	29110.0
2250	29180.0
2251	29180.0
2252	29150.0
2253	29200.0
2254	29080.0
2255	29100.0
2256	29170.0
2257	29120.0
2258	29130.0
2259	29120.0
2260	29090.0
2261	29210.0
2262	29130.0
2263	29170.0
2264	29220.0
2265	29100.0
2266	29150.0
2267	29100.0
2268	29090.0
2269	29140.0
2270	29170.0
2271	29150.0
2272	29080.0
2273	29190.0
2274	29150.0
2275	29180.0
2276	29170.0
2277	29160.0
2278	29130.0
2279	29110.0
2280	29200.0
2281	29170.0
2282	29190.0
2283	29140.0
2284	29050.0
2285	29150.0
2286	29140.0
2287	29180.0
2288	29160.0
2289	29190.0
2290	29100.0
2291	29190.0
2292	29050.0
2293	29210.0
2294	29090.0
2295	29250.0
2296	29180.0
2297	29250.0
2298	29200.0
2299	29090.0
2300	29140.0
2301	29130.0
2302	29110.0
2303	29250.0
2304	29180.0
2305	29120.0
2306	29190.0
2307	29070.0
2308	29190.0
2309	29220.0
2310	29150.0
2311	29230.0
2312	29210.0
2313	29110.0
2314	29230.0
2315	29160.0
2316	29190.0
2317	29150.0
2318	29120.0
2319	29220.0
2320	29090.0
2321	29180.0
2322	29110.0
2323	29210.0
2324	29200.0
2325	29120.0
2326	29190.0
2327	29160.0
2328	29100.0
2329	29130.0
2330	29170.0
2331	29100.0
2332	29120.0
2333	29160.0
2334	29100.0
2335	29200.0
2336	29150.0
2337	29190.0
2338	29170.0
2339	29180.0
2340	29210.0
2341	29220.0
2342	29180.0
2343	29240.0
2344	29140.0
2345	29120.0
2346	29160.0
2347	29120.0
2348	29140.0
2349	29130.0
2350	29170.0
2351	29190.0
2352	29120.0
2353	29030.0
2354	29060.0
2355	29150.0
2356	29150.0
2357	29110.0
2358	29120.0
2359	29150.0
2360	29250.0
2361	29230.0
2362	29250.0
2363	29130.0
2364	29090.0
2365	29210.0
2366	29150.0
2367	29190.0
2368	29140.0
2369	29190.0
2370	29120.0
2371	29060.0
2372	29050.0
2373	29240.0
2374	29050.0
2375	29160.0
2376	29110.0
2377	29160.0
2378	29040.0
2379	29190.0
2380	29120.0
2381	29150.0
2382	29090.0
2383	29180.0
2384	29110.0
2385	29140.0
2386	29080.0
2387	29160.0
2388	29200.0
2389	29090.0
2390	29140.0
2391	29220.0
2392	29110.0
2393	29140.0
2394	29130.0
2395	29160.0
2396	29120.0
2397	29160.0
2398	29170.0
2399	29160.0
2400	29190.0
2401	29120.0
2402	29100.0
2403	29030.0
2404	29110.0
2405	29070.0
2406	29120.0
2407	29140.0
2408	29110.0
2409	29180.0
2410	29260.0
2411	29110.0
2412	29160.0
2413	29140.0
2414	29110.0
2415	29250.0
2416	29120.0
2417	29090.0
2418	29060.0
2419	29170.0
2420	29120.0
2421	29190.0
2422	29130.0
2423	29110.0
2424	29120.0
2425	29100.0
2426	29170.0
2427	29160.0
2428	29150.0
2429	29230.0
2430	29130.0
2431	29110.0
2432	29110.0
2433	29070.0
2434	29140.0
2435	29080.0
2436	29050.0
2437	29090.0
2438	29040.0
2439	29070.0
2440	29060.0
2441	29040.0
2442	29090.0
2443	29110.0
2444	29070.0
2445	29020.0
2446	29080.0
2447	29020.0
2448	29070.0
2449	29110.0
2450	29090.0
2451	29020.0
2452	29050.0
2453	29060.0
2454	29110.0
2455	29170.0
2456	29110.0
2457	29050.0
2458	29070.0
2459	29020.0
2460	29030.0
2461	29130.0
2462	29080.0
2463	29190.0
2464	29070.0
2465	2.9E+4
2466	2.9E+4
2467	29130.0
2468	29100.0
2469	29050.0
2470	29190.0
2471	29110.0
2472	29130.0
2473	29090.0
2474	29020.0
2475	29130.0
2476	29190.0
2477	29110.0
2478	29040.0
2479	29040.0
2480	29090.0
2481	29070.0
2482	29110.0
2483	29010.0
2484	29060.0
2485	29210.0
2486	29130.0
2487	29060.0
2488	29180.0
2489	29180.0
2490	29110.0
2491	29060.0
2492	29190.0
2493	29090.0
2494	29030.0
2495	29100.0
2496	29040.0
2497	29120.0
2498	29030.0
2499	29150.0
2500	29150.0
2501	28990.0
2502	29080.0
2503	29050.0
2504	29080.0
2505	29080.0
2506	29110.0
2507	29160.0
2508	2.9E+4
2509	29020.0
2510	29100.0
2511	29090.0
2512	29150.0
2513	29140.0
2514	29130.0
2515	29060.0
2516	29110.0
2517	29200.0
2518	28970.0
2519	29090.0
2520	29170.0
2521	29080.0
2522	29050.0
2523	29060.0
2524	29170.0
2525	29060.0
2526	29030.0
2527	28980.0
2528	29060.0
2529	29200.0
2530	29040.0
2531	29050.0
2532	28990.0
2533	29050.0
2534	2.9E+4
2535	28960.0
2536	29130.0
2537	29030.0
2538	29140.0
2539	29060.0
2540	29060.0
2541	29150.0
2542	29060.0
2543	29090.0
2544	29120.0
2545	29160.0
2546	29080.0
2547	29170.0
2548	29180.0
2549	29150.0
2550	29140.0
2551	29160.0
2552	29130.0
2553	29120.0
2554	29100.0
2555	29180.0
2556	29090.0
2557	29110.0
2558	29090.0
2559	29090.0
2560	29090.0
2561	29080.0
2562	28970.0
2563	29030.0
2564	29060.0
2565	29200.0
2566	29110.0
2567	29150.0
2568	29130.0
2569	29060.0
2570	29110.0
2571	29080.0
2572	29080.0
2573	29110.0
2574	28990.0
2575	29160.0
2576	29070.0
2577	29180.0
2578	29070.0
2579	29100.0
2580	29200.0
2581	29140.0
2582	29060.0
2583	29070.0
2584	29080.0
2585	29140.0
2586	29050.0
2587	29030.0
2588	29150.0
2589	29020.0
2590	29170.0
2591	29090.0
2592	29120.0
2593	29070.0
2594	29160.0
2595	29050.0
2596	29120.0
2597	29150.0
2598	29180.0
2599	29120.0
2600	29070.0
2601	29140.0
2602	29130.0
2603	29130.0
2604	29100.0
2605	29180.0
2606	29080.0
2607	29150.0
2608	29080.0
2609	29090.0
2610	29160.0
2611	29190.0
2612	29150.0
2613	29130.0
2614	29120.0
2615	29120.0
2616	2.9E+4
2617	29190.0
2618	29210.0
2619	29100.0
2620	29210.0
2621	29230.0
2622	29130.0
2623	29150.0
2624	29140.0
2625	29040.0
2626	29210.0
2627	29130.0
2628	29230.0
2629	29190.0
2630	29240.0
2631	29070.0
2632	29120.0
2633	29170.0
2634	29180.0
2635	29100.0
2636	29130.0
2637	29210.0
2638	29110.0
2639	29060.0
2640	29090.0
2641	29110.0
2642	29190.0
2643	29220.0
2644	29100.0
2645	29150.0
2646	29160.0
2647	29090.0
2648	29080.0
2649	29150.0
2650	29150.0
2651	29160.0
2652	29110.0
2653	29120.0
2654	29090.0
2655	29140.0
2656	29130.0
2657	29200.0
2658	29120.0
2659	29120.0
2660	29150.0
2661	29240.0
2662	29170.0
2663	29050.0
2664	29140.0
2665	29170.0
2666	29110.0
2667	29110.0
2668	29060.0
2669	29130.0
2670	29150.0
2671	29100.0
2672	29150.0
2673	29160.0
2674	29100.0
2675	29130.0
2676	29080.0
2677	29120.0
2678	29050.0
2679	29090.0
2680	29110.0
2681	29090.0
2682	29220.0
2683	29100.0
2684	29100.0
2685	29210.0
2686	29140.0
2687	29070.0
2688	29210.0
2689	29150.0
2690	2.9E+4
2691	29080.0
2692	29160.0
2693	29180.0
2694	29240.0
2695	29130.0
2696	29050.0
2697	29090.0
2698	29100.0
2699	29010.0
2700	29120.0
2701	29090.0
2702	29110.0
2703	29010.0
2704	29050.0
2705	29100.0
2706	29150.0
2707	29160.0
2708	29110.0
2709	29120.0
2710	29150.0
2711	29180.0
2712	29110.0
2713	29170.0
2714	29100.0
2715	29040.0
2716	29120.0
2717	29120.0
2718	29140.0
2719	29190.0
2720	29120.0
2721	29130.0
2722	29060.0
2723	29070.0
2724	29130.0
2725	29140.0
2726	29080.0
2727	29090.0
2728	29060.0
2729	29160.0
2730	29180.0
2731	29080.0
2732	29180.0
2733	29230.0
2734	29160.0
2735	29140.0
2736	29100.0
2737	29160.0
2738	29080.0
2739	29120.0
2740	29100.0
2741	29090.0
2742	29210.0
2743	29150.0
2744	29110.0
2745	29160.0
2746	29160.0
2747	29020.0
2748	29060.0
2749	29190.0
2750	29150.0
2751	29160.0
2752	29150.0
2753	29090.0
2754	29110.0
2755	29050.0
2756	29120.0
2757	29120.0
2758	29050.0
2759	29140.0
2760	29140.0
2761	29170.0
2762	29180.0
2763	29060.0
2764	29100.0
2765	29140.0
2766	29070.0
2767	29050.0
2768	29240.0
2769	29130.0
2770	29120.0
2771	29140.0
2772	29110.0
2773	29130.0
2774	29140.0
2775	29190.0
2776	29110.0
2777	29140.0
2778	29020.0
2779	29220.0
2780	29130.0
2781	29100.0
2782	29180.0
2783	29110.0
2784	29120.0
2785	29130.0
2786	29110.0
2787	29120.0
2788	29130.0
2789	29110.0
2790	29120.0
2791	29140.0
2792	29010.0
2793	29120.0
2794	29080.0
2795	29070.0
2796	29160.0
2797	29140.0
2798	29050.0
2799	29200.0
2800	29180.0
2801	29020.0
2802	29050.0
2803	29050.0
2804	29130.0
2805	29110.0
2806	29170.0
2807	29130.0
2808	29180.0
2809	29120.0
2810	29050.0
2811	28950.0
2812	29100.0
2813	29080.0
2814	29140.0
2815	29090.0
2816	29180.0
2817	29120.0
2818	29130.0
2819	29140.0
2820	29120.0
2821	29170.0
2822	29180.0
2823	29100.0
2824	29100.0
2825	29170.0
2826	29090.0
2827	29190.0
2828	29120.0
2829	29050.0
2830	29120.0
2831	29160.0
2832	29060.0
2833	29080.0
2834	29100.0
2835	29100.0
2836	29160.0
2837	29080.0
2838	29120.0
2839	2.9E+4
2840	29180.0
2841	29120.0
2842	29220.0
2843	29020.0
2844	29160.0
2845	29130.0
2846	29080.0
2847	29130.0
2848	29150.0
2849	29090.0
2850	29140.0
2851	29040.0
2852	29180.0
2853	29140.0
2854	29090.0
2855	29050.0
2856	29170.0
2857	29160.0
2858	29100.0
2859	29130.0
2860	29110.0
2861	29180.0
2862	29210.0
2863	29070.0
2864	29160.0
2865	29140.0
2866	29040.0
2867	29110.0
2868	29230.0
2869	29040.0
2870	29140.0
2871	29130.0
2872	29140.0
2873	29170.0
2874	29230.0
2875	29070.0
2876	29170.0
2877	29220.0
2878	29050.0
2879	29230.0
2880	29220.0
2881	29170.0
2882	29140.0
2883	29130.0
2884	29050.0
2885	29080.0
2886	29180.0
2887	29170.0
2888	29100.0
2889	29120.0
2890	29100.0
2891	29100.0
2892	29030.0
2893	29200.0
2894	29110.0
2895	29110.0
2896	29160.0
2897	29160.0
2898	29120.0
2899	29110.0
2900	29060.0
2901	29100.0
2902	29120.0
2903	29090.0
2904	29110.0
2905	29100.0
2906	28940.0
2907	28970.0
2908	2.9E+4
2909	29140.0
2910	29070.0
2911	29080.0
2912	29100.0
2913	29090.0
2914	29150.0
2915	29080.0
2916	29100.0
2917	29100.0
2918	29100.0
2919	29060.0
2920	29150.0
2921	29060.0
2922	29020.0
2923	29080.0
2924	29110.0
2925	2.9E+4
2926	29200.0
2927	29080.0
2928	29120.0
2929	29090.0
2930	29030.0
2931	29140.0
2932	29040.0
2933	29180.0
2934	29020.0
2935	29060.0
2936	29100.0
2937	29050.0
2938	29100.0
2939	29110.0
2940	29040.0
2941	29050.0
2942	29170.0
2943	29140.0
2944	29140.0
2945	29060.0
2946	29140.0
2947	29060.0
2948	29030.0
2949	29140.0
2950	29020.0
2951	29210.0
2952	29150.0
2953	29160.0
2954	29140.0
2955	29230.0
2956	29090.0
2957	29110.0
2958	29020.0
2959	29150.0
2960	29300.0
2961	29160.0
2962	29230.0
2963	29090.0
2964	29260.0
2965	29070.0
2966	29190.0
2967	29030.0
2968	29130.0
2969	29110.0
2970	29080.0
2971	29220.0
2972	29080.0
2973	29040.0
2974	29190.0
2975	29080.0
2976	29200.0
2977	29130.0
2978	29120.0
2979	29040.0
2980	29130.0
2981	29090.0
2982	29140.0
2983	29070.0
2984	29110.0
2985	29130.0
2986	29040.0
2987	29120.0
2988	29150.0
2989	29170.0
2990	29150.0
2991	29140.0
2992	29080.0
2993	29130.0
2994	29130.0
2995	29120.0
2996	29110.0
2997	29060.0
2998	29160.0
2999	29130.0
3000	29090.0
3001	29070.0
3002	29050.0
3003	29070.0
3004	29190.0
3005	29110.0
3006	29080.0
3007	29070.0
3008	29140.0
3009	29100.0
3010	29070.0
3011	29090.0
3012	29150.0
3013	29080.0
3014	29150.0
3015	29030.0
3016	29130.0
3017	29140.0
3018	29130.0
3019	29070.0
3020	29180.0
3021	29140.0
3022	29130.0
3023	29230.0
3024	29120.0
3025	29240.0
3026	29010.0
3027	29110.0
3028	29130.0
3029	29080.0
3030	29040.0
3031	29090.0
3032	29160.0
3033	29080.0
3034	29040.0
3035	29120.0
3036	29050.0
3037	29010.0
3038	29100.0
3039	29120.0
3040	29020.0
3041	29140.0
3042	29110.0
3043	29070.0
3044	29100.0
3045	29100.0
3046	29040.0
3047	29070.0
3048	29100.0
3049	29210.0
3050	28990.0
3051	29010.0
3052	29010.0
3053	29040.0
3054	29100.0
3055	29090.0
3056	29190.0
3057	29050.0
3058	29060.0
3059	29140.0
3060	29170.0
3061	29110.0
3062	29100.0
3063	29020.0
3064	29140.0
3065	29110.0
3066	29100.0
3067	29070.0
3068	29170.0
3069	29050.0
3070	29080.0
3071	2.9E+4
3072	29230.0
3073	29100.0
3074	29110.0
3075	29030.0
3076	29060.0
3077	29130.0
3078	29170.0
3079	29130.0
3080	29010.0
3081	29080.0
3082	29110.0
3083	29150.0
3084	29110.0
3085	29120.0
3086	29060.0
3087	29190.0
3088	29100.0
3089	29110.0
3090	29110.0
3091	2.9E+4
3092	29100.0
3093	29140.0
3094	28980.0
3095	29040.0
3096	2.9E+4
3097	29060.0
3098	29060.0
3099	29030.0
3100	29060.0
3101	29130.0
3102	29100.0
3103	29070.0
3104	29040.0
3105	29130.0
3106	29110.0
3107	29070.0
3108	29040.0
3109	29130.0
3110	29230.0
3111	29180.0
3112	29230.0
3113	29130.0
3114	29010.0
3115	29160.0
3116	29130.0
3117	29130.0
3118	2.9E+4
3119	29110.0
3120	29070.0
3121	29080.0
3122	29070.0
3123	29110.0
3124	29090.0
3125	29080.0
3126	29180.0
3127	29030.0
3128	29020.0
3129	29150.0
3130	29140.0
3131	29140.0
3132	29030.0
3133	29050.0
3134	29190.0
3135	29160.0
3136	29070.0
3137	28970.0
3138	29070.0
3139	29160.0
3140	29180.0
3141	29020.0
3142	29150.0
3143	29040.0
3144	29060.0
3145	29080.0
3146	2.9E+4
3147	29020.0
3148	29110.0
3149	29090.0
3150	29010.0
3151	29070.0
3152	29080.0
3153	29070.0
3154	29090.0
3155	29100.0
3156	29130.0
3157	29200.0
3158	29130.0
3159	29050.0
3160	29010.0
3161	29020.0
3162	29010.0
3163	29090.0
3164	29050.0
3165	29050.0
3166	29070.0
3167	29040.0
3168	29050.0
3169	29040.0
3170	29150.0
3171	29100.0
3172	29100.0
3173	29080.0
3174	29140.0
3175	29150.0
3176	29040.0
3177	29050.0
3178	29070.0
3179	29160.0
3180	29160.0
3181	29140.0
3182	29130.0
3183	29170.0
3184	29230.0
3185	29090.0
3186	29100.0
3187	29150.0
3188	29210.0
3189	29190.0
3190	29160.0
3191	29100.0
3192	29160.0
3193	29110.0
3194	29150.0
3195	29080.0
3196	29130.0
3197	29170.0
3198	29200.0
3199	29200.0
3200	29110.0
3201	29180.0
3202	29210.0
3203	29040.0
3204	29140.0
3205	29040.0
3206	29190.0
3207	29060.0
3208	29070.0
3209	29050.0
3210	29160.0
3211	29110.0
3212	29160.0
3213	29160.0
3214	29120.0
3215	29100.0
3216	29070.0
3217	29010.0
3218	29140.0
3219	29110.0
3220	29030.0
3221	28990.0
3222	29170.0
3223	29020.0
3224	29090.0
3225	29080.0
3226	29110.0
3227	29210.0
3228	29270.0
3229	29100.0
3230	29130.0
3231	29100.0
3232	29120.0
3233	29150.0
3234	29090.0
3235	29080.0
3236	29110.0
3237	29150.0
3238	29170.0
3239	29130.0
3240	29150.0
3241	29210.0
3242	29040.0
3243	29160.0
3244	29130.0
3245	29070.0
3246	29130.0
3247	29130.0
3248	29050.0
3249	29140.0
3250	29280.0
3251	29080.0
3252	29170.0
3253	29180.0
3254	29250.0
3255	29140.0
3256	29140.0
3257	29170.0
3258	29210.0
3259	29130.0
3260	29110.0
3261	29120.0
3262	29110.0
3263	29120.0
3264	29090.0
3265	29200.0
3266	29130.0
3267	29210.0
3268	29170.0
3269	29080.0
3270	29170.0
3271	29120.0
3272	29090.0
3273	29170.0
3274	29140.0
3275	29100.0
3276	29050.0
3277	29130.0
3278	29210.0
3279	29110.0
3280	29190.0
3281	29110.0
3282	29080.0
3283	29060.0
3284	29250.0
3285	29190.0
3286	29180.0
3287	29230.0
3288	29110.0
3289	29190.0
3290	29170.0
3291	29080.0
3292	29090.0
3293	29140.0
3294	29120.0
3295	29110.0
3296	29210.0
3297	29140.0
3298	29120.0
3299	29130.0
3300	29140.0
3301	29160.0
3302	29110.0
3303	29150.0
3304	29090.0
3305	29190.0
3306	29120.0
3307	29150.0
3308	29080.0
3309	29140.0
3310	29110.0
3311	29090.0
3312	29010.0
3313	29030.0
3314	29130.0
3315	29100.0
3316	29090.0
3317	29070.0
3318	29150.0
3319	29110.0
3320	29040.0
3321	29120.0
3322	29050.0
3323	29060.0
3324	29040.0
3325	29190.0
3326	29100.0
3327	29010.0
3328	29170.0
3329	29100.0
3330	29050.0
3331	29060.0
3332	29150.0
3333	29100.0
3334	29100.0
3335	29120.0
3336	29160.0
3337	2.9E+4
3338	29130.0
3339	29020.0
3340	29150.0
3341	29190.0
3342	29070.0
3343	29070.0
3344	29100.0
3345	29130.0
3346	29100.0
3347	29060.0
3348	29120.0
3349	29130.0
3350	29090.0
3351	29060.0
3352	29040.0
3353	29090.0
3354	29220.0
3355	29140.0
3356	29130.0
3357	29140.0
3358	29170.0
3359	29150.0
3360	29130.0
3361	29090.0
3362	29150.0
3363	29130.0
3364	29120.0
3365	29120.0
3366	29160.0
3367	29090.0
3368	29040.0
3369	29010.0
3370	29090.0
3371	2.9E+4
3372	29090.0
3373	29120.0
3374	29110.0
3375	29190.0
3376	29160.0
3377	29140.0
3378	29090.0
3379	29210.0
3380	29160.0
3381	29150.0
3382	29120.0
3383	29150.0
3384	29130.0
3385	29090.0
3386	29140.0
3387	29240.0
3388	29200.0
3389	29130.0
3390	29030.0
3391	29130.0
3392	29140.0
3393	29190.0
3394	29070.0
3395	29150.0
3396	29110.0
3397	29110.0
3398	29150.0
3399	29060.0
3400	29190.0
3401	29120.0
3402	29010.0
3403	28980.0
3404	29100.0
3405	29140.0
3406	29200.0
3407	29070.0
3408	29140.0
3409	2.9E+4
3410	29040.0
3411	29060.0
3412	29010.0
3413	29060.0
3414	29050.0
3415	29120.0
3416	29030.0
3417	29100.0
3418	29170.0
3419	2.9E+4
3420	29060.0
3421	29110.0
3422	29080.0
3423	29080.0
3424	29100.0
3425	29170.0
3426	29130.0
3427	29080.0
3428	29040.0
3429	29110.0
3430	29140.0
3431	29140.0
3432	29110.0
3433	29230.0
3434	29170.0
3435	29110.0
3436	29170.0
3437	29130.0
3438	29030.0
3439	29090.0
3440	29090.0
3441	29170.0
3442	29070.0
3443	29100.0
3444	29090.0
3445	29060.0
3446	29010.0
3447	29130.0
3448	29110.0
3449	29130.0
3450	29060.0
3451	29120.0
3452	29180.0
3453	29110.0
3454	29130.0
3455	29150.0
3456	29050.0
3457	29150.0
3458	29090.0
3459	29160.0
3460	29090.0
3461	29130.0
3462	29180.0
3463	29110.0
3464	29010.0
3465	29090.0
3466	29120.0
3467	29130.0
3468	29080.0
3469	29080.0
3470	28990.0
3471	29130.0
3472	29090.0
3473	29060.0
3474	29130.0
3475	29210.0
3476	29130.0
3477	29180.0
3478	29130.0
3479	29120.0
3480	29120.0
3481	29050.0
3482	28990.0
3483	29070.0
3484	29080.0
3485	29080.0
3486	29060.0
3487	29200.0
3488	29050.0
3489	29130.0
3490	29060.0
3491	29190.0
3492	29160.0
3493	29040.0
3494	29030.0
3495	29050.0
3496	29090.0
3497	29100.0
3498	29030.0
3499	29180.0
3500	29240.0
3501	29150.0
3502	29160.0
3503	29110.0
3504	29120.0
3505	29160.0
3506	29070.0
3507	29130.0
3508	29080.0
3509	29110.0
3510	29080.0
3511	29180.0
3512	29160.0
3513	29130.0
3514	29110.0
3515	29230.0
3516	29180.0
3517	29010.0
3518	29110.0
3519	29070.0
3520	29010.0
3521	29070.0
3522	29150.0
3523	29180.0
3524	29130.0
3525	29120.0
3526	29090.0
3527	29130.0
3528	29020.0
3529	29050.0
3530	29060.0
3531	29120.0
3532	29010.0
3533	29130.0
3534	29030.0
3535	29090.0
3536	29140.0
3537	29110.0
3538	29120.0
3539	29040.0
3540	29150.0
3541	29140.0
3542	29050.0
3543	29070.0
3544	29120.0
3545	29050.0
3546	29120.0
3547	29080.0
3548	29110.0
3549	29140.0
3550	29140.0
3551	29030.0
3552	29070.0
3553	29160.0
3554	29210.0
3555	29140.0
3556	29160.0
3557	29100.0
3558	29080.0
3559	29130.0
3560	29210.0
3561	29050.0
3562	29130.0
3563	29050.0
3564	29190.0
3565	29120.0
3566	29100.0
3567	29100.0
3568	29110.0
3569	29090.0
3570	29080.0
3571	29090.0
3572	29170.0
3573	29170.0
3574	29150.0
3575	29090.0
3576	29040.0
3577	29020.0
3578	29050.0
3579	29180.0
3580	29080.0
3581	29170.0
3582	29080.0
3583	29070.0
3584	29070.0
3585	29060.0
3586	29100.0
3587	29100.0
3588	29100.0
3589	29140.0
3590	29080.0
3591	29100.0
3592	29080.0
3593	29090.0
3594	29060.0
3595	29110.0
3596	29050.0
3597	29050.0
3598	29160.0
3599	29090.0
3600	29180.0
3601	29070.0
3602	29090.0
3603	29150.0
3604	29040.0
3605	29130.0
3606	29040.0
3607	29060.0
3608	29160.0
3609	29090.0
3610	29180.0
3611	29150.0
3612	29110.0
3613	29070.0
3614	29080.0
3615	29080.0
3616	29150.0
3617	29190.0
3618	29150.0
3619	29140.0
3620	29130.0
3621	29150.0
3622	29110.0
3623	29120.0
3624	29060.0
3625	29170.0
3626	29130.0
3627	29160.0
3628	29140.0
3629	29140.0
3630	29140.0
3631	29070.0
3632	29110.0
3633	29180.0
3634	29060.0
3635	29080.0
3636	29080.0
3637	29220.0
3638	29090.0
3639	29160.0
3640	29110.0
3641	29150.0
3642	29150.0
3643	29160.0
3644	29140.0
3645	29150.0
3646	29180.0
3647	29170.0
3648	29070.0
3649	29170.0
3650	29170.0
3651	29130.0
3652	29060.0
3653	29170.0
3654	29110.0
3655	29140.0
3656	28950.0
3657	29030.0
3658	29100.0
3659	29100.0
3660	29200.0
3661	29060.0
3662	29190.0
3663	29100.0
3664	29120.0
3665	29100.0
3666	29060.0
3667	29190.0
3668	29110.0
3669	29090.0
3670	29180.0
3671	29080.0
3672	29140.0
3673	29140.0
3674	29190.0
3675	29130.0
3676	29100.0
3677	29100.0
3678	29220.0
3679	29170.0
3680	29190.0
3681	29130.0
3682	29100.0
3683	28980.0
3684	29150.0
3685	29070.0
3686	29150.0
3687	29110.0
3688	29050.0
3689	29080.0
3690	29120.0
3691	29190.0
3692	29130.0
3693	29130.0
3694	29150.0
3695	29090.0
3696	29180.0
3697	29120.0
3698	29070.0
3699	29100.0
3700	29130.0
3701	29100.0
3702	29050.0
3703	29120.0
3704	29090.0
3705	2.9E+4
3706	29140.0
3707	29120.0
3708	29040.0
3709	29110.0
3710	29050.0
3711	29080.0
3712	29030.0
3713	29070.0
3714	29130.0
3715	29070.0
3716	29060.0
3717	29140.0
3718	29110.0
3719	29060.0
3720	29070.0
3721	29130.0
3722	29120.0
3723	29010.0
3724	29200.0
3725	29090.0
3726	29010.0
3727	28960.0
3728	29080.0
3729	28990.0
3730	29070.0
3731	29010.0
3732	29050.0
3733	29050.0
3734	29100.0
3735	29050.0
3736	28990.0
3737	29060.0
3738	29100.0
3739	29050.0
3740	29090.0
3741	29090.0
3742	29170.0
3743	29110.0
3744	29060.0
3745	29150.0
3746	29100.0
3747	29170.0
3748	29200.0
3749	29140.0
3750	29220.0
3751	29090.0
3752	29180.0
3753	29170.0
3754	29100.0
3755	29140.0
3756	29080.0
3757	29220.0
3758	29130.0
3759	29130.0
3760	29070.0
3761	29100.0
3762	29200.0
3763	29090.0
3764	29170.0
3765	29130.0
3766	29150.0
3767	29090.0
3768	29050.0
3769	29150.0
3770	29110.0
3771	29200.0
3772	29040.0
3773	29070.0
3774	29130.0
3775	29120.0
3776	29080.0
3777	29070.0
3778	29110.0
3779	29030.0
3780	29030.0
3781	29140.0
3782	29070.0
3783	29250.0
3784	29120.0
3785	29150.0
3786	29090.0
3787	28990.0
3788	29120.0
3789	29160.0
3790	29080.0
3791	29090.0
3792	29110.0
3793	29130.0
3794	29190.0
3795	29060.0
3796	29090.0
3797	29090.0
3798	29220.0
3799	29170.0
3800	29080.0
3801	29160.0
3802	29080.0
3803	29070.0
3804	29210.0
3805	29100.0
3806	29140.0
3807	29120.0
3808	29100.0
3809	29110.0
3810	29150.0
3811	29150.0
3812	29060.0
3813	29050.0
3814	29030.0
3815	29130.0
3816	29020.0
3817	29030.0
3818	2.9E+4
3819	29120.0
3820	29160.0
3821	29120.0
3822	29070.0
3823	29170.0
3824	29190.0
3825	29130.0
3826	29190.0
3827	29180.0
3828	29180.0
3829	29100.0
3830	29090.0
3831	29130.0
3832	29150.0
3833	29120.0
3834	29120.0
3835	29100.0
3836	29030.0
3837	29030.0
3838	29050.0
3839	29050.0
3840	29050.0
3841	29130.0
3842	29100.0
3843	29010.0
3844	29180.0
3845	29160.0
3846	29240.0
3847	29050.0
3848	29090.0
3849	29130.0
3850	29110.0
3851	29160.0
3852	29080.0
3853	29130.0
3854	29110.0
3855	29060.0
3856	29140.0
3857	29210.0
3858	29110.0
3859	29310.0
3860	29240.0
3861	29140.0
3862	29050.0
3863	29100.0
3864	29010.0
3865	29070.0
3866	29130.0
3867	29130.0
3868	29020.0
3869	29070.0
3870	29060.0
3871	29090.0
3872	28980.0
3873	29100.0
3874	29190.0
3875	29070.0
3876	29060.0
3877	29030.0
3878	29050.0
3879	29030.0
3880	29090.0
3881	29010.0
3882	29180.0
3883	29180.0
3884	29180.0
3885	29130.0
3886	2.9E+4
3887	29160.0
3888	29180.0
3889	29040.0
3890	29100.0
3891	29110.0
3892	29160.0
3893	29070.0
3894	29070.0
3895	29100.0
3896	29080.0
3897	29160.0
3898	29030.0
3899	29070.0
3900	29130.0
3901	29110.0
3902	29130.0
3903	29180.0
3904	29160.0
3905	29200.0
3906	29160.0
3907	29170.0
3908	29120.0
3909	29160.0
3910	29070.0
3911	29110.0
3912	29110.0
3913	29080.0
3914	29060.0
3915	29010.0
3916	29170.0
3917	29190.0
3918	29130.0
3919	29140.0
3920	29110.0
3921	29220.0
3922	29150.0
3923	29170.0
3924	29050.0
3925	29150.0
3926	29040.0
3927	29060.0
3928	29130.0
3929	29120.0
3930	29200.0
3931	29180.0
3932	29030.0
3933	29130.0
3934	29060.0
3935	29140.0
3936	29130.0
3937	29230.0
3938	29130.0
3939	29090.0
3940	29090.0
3941	29140.0
3942	29180.0
3943	29060.0
3944	29030.0
3945	29130.0
3946	29110.0
3947	29090.0
3948	29060.0
3949	29190.0
3950	29110.0
3951	29140.0
3952	29140.0
3953	29180.0
3954	29170.0
3955	29170.0
3956	29130.0
3957	29220.0
3958	29130.0
3959	29160.0
3960	29120.0
3961	29080.0
3962	29130.0
3963	29170.0
3964	29230.0
3965	29260.0
3966	29140.0
3967	29230.0
3968	29120.0
3969	29270.0
3970	29140.0
3971	29080.0
3972	29270.0
3973	29120.0
3974	29140.0
3975	29090.0
3976	29080.0
3977	29160.0
3978	29120.0
3979	29110.0
3980	29100.0
3981	29160.0
3982	29080.0
3983	29180.0
3984	29230.0
3985	29090.0
3986	29040.0
3987	29100.0
3988	29070.0
3989	29030.0
3990	29160.0
3991	29090.0
3992	29110.0
3993	29100.0
3994	29110.0
3995	29190.0
3996	29120.0
3997	29070.0
3998	29170.0
3999	29080.0
4000	29160.0
