OFF
284 549 0
1.829 -10.7376 0.0169626
2.234 -10.7166 -0.430037
2.755 -10.8725 -0.575037
2.439 -10.9798 0.0839626
3.447 -11.0375 -0.514037
3.202 -11.1717 0.227963
2.875 -11.2391 1.25596
2.024 -11.0221 1.01596
1.361 -10.752 0.835963
4.052 -11.135 -0.167037
4.401 -11.1542 0.253963
4.464 -11.2699 0.840963
3.916 -11.279 0.541963
4.365 -11.3567 1.76896
3.714 -11.3636 1.53696
4.097 -11.3856 2.86096
3.778 -11.3856 3.91496
3.066 -11.3917 3.77796
3.399 -11.3917 2.68296
2.163 -11.2616 3.52996
2.509 -11.2616 2.42396
1.273 -11.0362 3.22796
0.595999 -10.7568 2.92696
0.945999 -10.7568 1.88296
1.624 -11.0362 2.13796
1.304 -6.96388 -0.684037
2.227 -7.03108 -1.33704
2.225 -7.04426 -1.31304
1.309 -6.97731 -0.667037
2.227 -7.09881 -1.27804
1.323 -7.03235 -0.640037
0.612999 -7.0102 0.317963
0.586999 -6.95499 0.303963
0.574999 -6.94148 0.296963
2.235 -7.23179 -1.21304
2.252 -7.48024 -1.09804
1.42 -7.41687 -0.497037
1.357 -7.16641 -0.589037
0.769999 -7.39575 0.400963
0.667999 -7.14461 0.347963
0.390999 -7.41687 1.43496
0.373999 -7.48024 2.44796
0.236999 -7.23179 2.49196
0.262999 -7.16641 1.42996
0.161999 -7.09881 2.51696
0.192999 -7.03235 1.42796
0.124999 -7.04426 2.53196
0.102999 -7.03108 2.54496
0.140999 -6.96388 1.43096
0.158999 -6.97731 1.42796
5.42 -7.53523 0.347963
5.389 -7.58617 0.358963
4.945 -7.47541 -0.534037
4.973 -7.42365 -0.557037
4.177 -7.34249 -1.15304
4.198 -7.28975 -1.18504
5.325 -7.71124 0.371963
5.209 -7.94495 0.392963
4.787 -7.83934 -0.433037
4.889 -7.60227 -0.497037
4.066 -7.7126 -1.00004
4.137 -7.47151 -1.09804
3.178 -7.58586 -1.24404
3.207 -7.34075 -1.36004
3.224 -7.20958 -1.42504
3.243 -7.14309 -1.48804
3.235 -7.15585 -1.46104
4.297 -7.5911 3.59596
3.386 -7.5239 4.25496
3.391 -7.53523 4.23096
4.295 -7.60219 3.57896
3.394 -7.58617 4.19196
4.286 -7.65263 3.54796
4.973 -7.67478 2.57696
4.993 -7.6245 2.59496
5.002 -7.6135 2.60196
3.395 -7.71124 4.11296
3.394 -7.94495 3.97096
4.216 -8.00832 3.36496
4.262 -7.77662 3.48296
4.845 -8.02944 2.45596
4.928 -7.79841 2.53396
5.202 -8.00832 1.41096
5.31 -7.77662 1.43996
5.37 -7.65263 1.45496
5.412 -7.5911 1.45496
5.398 -7.60219 1.45896
0.561999 -7.14309 3.46496
0.582999 -7.15585 3.44396
0.617999 -7.20957 3.41696
1.409 -7.34249 4.04796
1.383 -7.28975 4.08396
0.805999 -7.58586 3.27896
0.684999 -7.34075 3.36696
1.548 -7.7126 3.85696
1.459 -7.47151 3.97996
2.457 -7.83934 4.11196
2.412 -7.60227 4.25396
2.385 -7.47541 4.33296
2.357 -7.41189 4.39996
2.37 -7.42365 4.37296
1.717 -9.37574 0.00496258
2.285 -9.43283 -0.494037
2.211 -9.87738 -0.590037
1.633 -9.81416 -0.0500374
2.15 -10.245 -0.686037
1.553 -10.18 -0.111037
1.068 -10.153 0.694963
1.179 -9.7888 0.713963
1.282 -9.35774 0.726963
2.161 -10.533 -0.625037
1.576 -10.4794 -0.0680374
1.086 -10.4681 0.731963
0.334999 -10.4644 2.68696
0.672999 -10.4644 1.71596
0.379999 -10.1572 2.51696
0.683999 -10.1481 1.62196
0.619999 -9.83329 2.42496
0.966999 -9.4579 2.46796
1.012 -9.37988 1.56396
0.855999 -9.79702 1.58496
4.19 -9.75634 -0.183037
4.557 -9.85149 0.391963
4.612 -10.341 0.260963
4.209 -10.2357 -0.329037
4.669 -10.7459 0.149963
4.237 -10.6364 -0.464037
3.602 -10.5047 -0.835037
3.604 -10.1092 -0.692037
3.621 -9.64216 -0.549037
4.591 -11.0222 0.152963
4.172 -10.9285 -0.456037
3.565 -10.8146 -0.822037
2.859 -10.6638 -0.877037
2.869 -10.3638 -0.918037
2.953 -9.52798 -0.665037
2.903 -9.98276 -0.791037
4.066 -9.93548 2.74396
3.49 -9.91699 3.42796
3.902 -10.4543 3.56596
4.252 -10.4421 2.77896
4.111 -10.8788 3.74396
4.417 -10.8758 2.85296
4.68 -10.8624 1.88996
4.563 -10.4348 1.90996
4.442 -9.93434 1.95596
4.099 -11.2019 3.88196
4.401 -11.2019 2.89896
4.65 -11.1796 1.86496
4.732 -11.1129 0.937963
4.79 -10.8202 0.961963
4.624 -9.90859 1.13796
4.706 -10.4043 1.03896
1.138 -9.99171 4.41396
0.782999 -9.98936 4.26796
0.510999 -10.1044 4.42096
0.966999 -10.1819 4.72296
0.299999 -10.3018 4.62096
0.829999 -10.4136 4.97096
1.515 -10.5475 5.25396
1.57 -10.2804 4.96196
1.658 -10.0576 4.60496
0.294999 -10.533 4.79796
0.440999 -10.7166 4.90796
0.858999 -10.8725 5.19396
0.825999 -10.6638 5.15096
1.519 -11.0375 5.47796
1.497 -10.8146 5.43896
2.216 -11.135 5.62196
2.706 -11.1542 5.62296
2.843 -11.0222 5.61396
2.206 -10.9285 5.59396
2.878 -10.7932 5.46296
2.237 -10.6815 5.42996
2.762 -10.5304 5.17296
2.594 -10.3299 4.88396
2.199 -10.1909 4.77696
2.204 -10.4159 5.13496
1.445 -9.38768 2.98196
0.871999 -9.68882 3.08896
1.408 -9.6259 3.26796
0.777999 -9.80366 3.56796
1.319 -9.7591 3.66196
1.899 -9.81904 3.85096
2.005 -9.68593 3.51596
2.048 -9.45355 3.30796
0.744999 -9.89986 3.97696
1.242 -9.86591 4.05196
1.776 -9.92336 4.22396
2.79 -10.2827 4.68296
2.314 -10.0655 4.42796
3.005 -10.2188 4.35096
2.482 -9.97414 4.07896
3.214 -10.1228 3.93296
2.73 -9.61824 3.48296
2.638 -9.85152 3.72196
0.324999 -10.7568 3.73496
0.0689991 -10.4644 3.44996
0.190999 -10.752 4.32296
-0.0620009 -10.4681 4.02996
0.00499912 -10.1963 3.79296
0.135999 -10.1719 3.22896
0.253999 -10.7376 4.70996
0.00599912 -10.4794 4.45196
0.0419991 -10.2345 4.24296
0.316999 -10.032 4.06196
0.311999 -9.96208 3.62596
0.425999 -9.89208 3.09296
3.532 -11.3856 4.72996
2.81 -11.3917 4.61796
3.292 -11.3567 5.28696
2.591 -11.3636 5.19696
1.709 -11.2391 4.97396
1.899 -11.2616 4.37696
2.998 -11.2699 5.56796
2.368 -11.279 5.51096
1.586 -11.1717 5.33196
0.830999 -10.9798 5.03396
0.844999 -11.0221 4.65996
1.003 -11.0362 4.06296
3.64 -10.4997 4.19496
3.406 -10.5472 4.67396
3.629 -10.8905 4.97796
3.871 -10.8902 4.45396
3.138 -10.5658 5.00896
3.32 -10.8606 5.31296
3.294 -11.1129 5.50096
3.615 -11.1796 5.19796
3.86 -11.2019 4.65296
0.592999 -7.88123 2.37496
1.001 -7.98137 3.13496
0.821999 -8.37765 2.31696
1.208 -8.46283 2.99496
1.847 -8.57044 3.45396
1.69 -8.10153 3.65896
0.988999 -8.91239 2.31496
1.367 -8.9658 2.91796
1.981 -9.05141 3.31196
3.421 -9.33014 3.35096
2.702 -9.19497 3.48596
3.396 -8.79815 3.50896
2.616 -8.69253 3.64696
3.39 -8.32184 3.74296
2.53 -8.2217 3.88296
4.14 -8.38192 3.17496
4.066 -8.85635 2.97296
4.566 -8.87273 2.18796
4.709 -8.40195 2.33096
4.023 -9.39055 2.81896
4.46 -9.39859 2.05496
4.643 -9.32111 0.448963
4.685 -9.37661 1.22696
4.815 -8.79589 0.452963
4.836 -8.85287 1.30296
5.021 -8.32184 0.426963
5.026 -8.38192 1.36496
4.623 -8.2217 -0.328037
4.44 -8.70094 -0.224037
3.822 -8.587 -0.678037
3.952 -8.10153 -0.842037
4.281 -9.22863 -0.162037
3.703 -9.11765 -0.563037
2.311 -8.91418 -0.553037
3.012 -9.00667 -0.708037
2.305 -8.3781 -0.711037
3.074 -8.47305 -0.858037
2.28 -7.88123 -0.912037
3.131 -7.98137 -1.05604
1.521 -7.82115 -0.348037
1.627 -8.32113 -0.187037
1.108 -8.30256 0.582963
0.932999 -7.80112 0.485963
1.704 -8.85869 -0.0540374
1.241 -8.84188 0.672963
0.974999 -8.86543 1.51496
0.813999 -8.32281 1.46496
0.596999 -7.82115 1.44296
0.0749991 -7.02222 2.56596
3.378 -7.51764 4.28796
5.013 -7.60771 2.60896
5.43 -7.5852 1.44596
0.558999 -6.93215 0.287963
0.117999 -6.95467 1.43796
0.0729991 -6.94697 1.45296
3 0 1 2
3 0 2 3
3 2 4 5
3 2 5 3
3 5 6 7
3 5 7 3
3 7 8 0
3 7 0 3
3 9 10 11
3 9 11 12
3 11 13 14
3 11 14 12
3 14 6 5
3 14 5 12
3 5 4 9
3 5 9 12
3 15 16 17
3 15 17 18
3 17 19 20
3 17 20 18
3 20 6 14
3 20 14 18
3 14 13 15
3 14 15 18
3 21 22 23
3 21 23 24
3 23 8 7
3 23 7 24
3 7 6 20
3 7 20 24
3 20 19 21
3 20 21 24
3 25 26 27
3 25 27 28
3 27 29 30
3 27 30 28
3 30 31 32
3 30 32 28
3 32 33 25
3 32 25 28
3 34 35 36
3 34 36 37
3 36 38 39
3 36 39 37
3 39 31 30
3 39 30 37
3 30 29 34
3 30 34 37
3 40 41 42
3 40 42 43
3 42 44 45
3 42 45 43
3 45 31 39
3 45 39 43
3 39 38 40
3 39 40 43
3 46 47 48
3 46 48 49
3 48 33 32
3 48 32 49
3 32 31 45
3 32 45 49
3 45 44 46
3 45 46 49
3 50 51 52
3 50 52 53
3 52 54 55
3 52 55 53
3 56 57 58
3 56 58 59
3 58 60 61
3 58 61 59
3 61 54 52
3 61 52 59
3 52 51 56
3 52 56 59
3 62 35 34
3 62 34 63
3 34 29 64
3 34 64 63
3 64 54 61
3 64 61 63
3 61 60 62
3 61 62 63
3 27 26 65
3 27 65 66
3 65 55 66
3 55 54 64
3 55 64 66
3 64 29 27
3 64 27 66
3 67 68 69
3 67 69 70
3 69 71 72
3 69 72 70
3 72 73 74
3 72 74 70
3 74 75 67
3 74 67 70
3 76 77 78
3 76 78 79
3 78 80 81
3 78 81 79
3 81 73 72
3 81 72 79
3 72 71 76
3 72 76 79
3 82 57 56
3 82 56 83
3 56 51 84
3 56 84 83
3 84 73 81
3 84 81 83
3 81 80 82
3 81 82 83
3 50 85 86
3 85 75 74
3 85 74 86
3 74 73 84
3 74 84 86
3 84 51 50
3 84 50 86
3 87 47 46
3 87 46 88
3 46 44 89
3 46 89 88
3 89 90 91
3 89 91 88
3 91 87 88
3 42 41 92
3 42 92 93
3 92 94 95
3 92 95 93
3 95 90 89
3 95 89 93
3 89 44 42
3 89 42 93
3 96 77 76
3 96 76 97
3 76 71 98
3 76 98 97
3 98 90 95
3 98 95 97
3 95 94 96
3 95 96 97
3 69 68 99
3 69 99 100
3 99 91 100
3 91 90 98
3 91 98 100
3 98 71 69
3 98 69 100
3 101 102 103
3 101 103 104
3 103 105 106
3 103 106 104
3 106 107 108
3 106 108 104
3 108 109 101
3 108 101 104
3 110 1 0
3 110 0 111
3 0 8 112
3 0 112 111
3 112 107 106
3 112 106 111
3 106 105 110
3 106 110 111
3 23 22 113
3 23 113 114
3 113 115 116
3 113 116 114
3 116 107 112
3 116 112 114
3 112 8 23
3 112 23 114
3 117 118 119
3 117 119 120
3 119 109 108
3 119 108 120
3 108 107 116
3 108 116 120
3 116 115 117
3 116 117 120
3 121 122 123
3 121 123 124
3 123 125 126
3 123 126 124
3 126 127 128
3 126 128 124
3 128 129 121
3 128 121 124
3 130 10 9
3 130 9 131
3 9 4 132
3 9 132 131
3 132 127 126
3 132 126 131
3 126 125 130
3 126 130 131
3 2 1 110
3 2 110 133
3 110 105 134
3 110 134 133
3 134 127 132
3 134 132 133
3 132 4 2
3 132 2 133
3 103 102 135
3 103 135 136
3 135 129 128
3 135 128 136
3 128 127 134
3 128 134 136
3 134 105 103
3 134 103 136
3 137 138 139
3 137 139 140
3 139 141 142
3 139 142 140
3 142 143 144
3 142 144 140
3 144 145 137
3 144 137 140
3 146 16 15
3 146 15 147
3 15 13 148
3 15 148 147
3 148 143 142
3 148 142 147
3 142 141 146
3 142 146 147
3 11 10 130
3 11 130 149
3 130 125 150
3 130 150 149
3 150 143 148
3 150 148 149
3 148 13 11
3 148 11 149
3 123 122 151
3 123 151 152
3 151 145 144
3 151 144 152
3 144 143 150
3 144 150 152
3 150 125 123
3 150 123 152
3 153 154 155
3 153 155 156
3 155 157 158
3 155 158 156
3 158 159 160
3 158 160 156
3 160 161 153
3 160 153 156
3 162 163 164
3 162 164 165
3 164 166 167
3 164 167 165
3 167 159 158
3 167 158 165
3 158 157 162
3 158 162 165
3 168 169 170
3 168 170 171
3 170 172 173
3 170 173 171
3 173 159 167
3 173 167 171
3 167 166 168
3 167 168 171
3 174 175 176
3 174 176 177
3 176 161 160
3 176 160 177
3 160 159 173
3 160 173 177
3 173 172 174
3 173 174 177
3 178 118 179
3 178 179 180
3 179 181 182
3 179 182 180
3 182 183 184
3 182 184 180
3 184 185 178
3 184 178 180
3 186 154 153
3 186 153 187
3 153 161 188
3 153 188 187
3 188 183 182
3 188 182 187
3 182 181 186
3 182 186 187
3 176 175 189
3 176 189 190
3 189 191 192
3 189 192 190
3 192 183 188
3 192 188 190
3 188 161 176
3 188 176 190
3 193 138 194
3 193 194 195
3 194 185 184
3 194 184 195
3 184 183 192
3 184 192 195
3 192 191 193
3 192 193 195
3 113 22 196
3 113 196 197
3 196 198 199
3 196 199 197
3 199 200 201
3 199 201 197
3 201 115 113
3 201 113 197
3 202 163 162
3 202 162 203
3 162 157 204
3 162 204 203
3 204 200 199
3 204 199 203
3 199 198 202
3 199 202 203
3 155 154 186
3 155 186 205
3 186 181 206
3 186 206 205
3 206 200 204
3 206 204 205
3 204 157 155
3 204 155 205
3 179 118 117
3 179 117 207
3 117 115 201
3 117 201 207
3 201 200 206
3 201 206 207
3 206 181 179
3 206 179 207
3 17 16 208
3 17 208 209
3 208 210 211
3 208 211 209
3 211 212 213
3 211 213 209
3 213 19 17
3 213 17 209
3 214 169 168
3 214 168 215
3 168 166 216
3 168 216 215
3 216 212 211
3 216 211 215
3 211 210 214
3 211 214 215
3 164 163 202
3 164 202 217
3 202 198 218
3 202 218 217
3 218 212 216
3 218 216 217
3 216 166 164
3 216 164 217
3 196 22 21
3 196 21 219
3 21 19 213
3 21 213 219
3 213 212 218
3 213 218 219
3 218 198 196
3 218 196 219
3 139 138 193
3 139 193 220
3 193 191 221
3 193 221 220
3 221 222 223
3 221 223 220
3 223 141 139
3 223 139 220
3 189 175 174
3 189 174 224
3 174 172 225
3 174 225 224
3 225 222 221
3 225 221 224
3 221 191 189
3 221 189 224
3 170 169 214
3 170 214 226
3 214 210 227
3 214 227 226
3 227 222 225
3 227 225 226
3 225 172 170
3 225 170 226
3 208 16 146
3 208 146 228
3 146 141 223
3 146 223 228
3 223 222 227
3 223 227 228
3 227 210 208
3 227 208 228
3 92 41 229
3 92 229 230
3 229 231 232
3 229 232 230
3 232 233 234
3 232 234 230
3 234 94 92
3 234 92 230
3 235 118 178
3 235 178 236
3 178 185 237
3 178 237 236
3 237 233 232
3 237 232 236
3 232 231 235
3 232 235 236
3 194 138 238
3 194 238 239
3 238 240 241
3 238 241 239
3 241 233 237
3 241 237 239
3 237 185 194
3 237 194 239
3 242 77 96
3 242 96 243
3 96 94 234
3 96 234 243
3 234 233 241
3 234 241 243
3 241 240 242
3 241 242 243
3 78 77 242
3 78 242 244
3 242 240 245
3 242 245 244
3 245 246 247
3 245 247 244
3 247 80 78
3 247 78 244
3 238 138 137
3 238 137 248
3 137 145 249
3 137 249 248
3 249 246 245
3 249 245 248
3 245 240 238
3 245 238 248
3 151 122 250
3 151 250 251
3 250 252 253
3 250 253 251
3 253 246 249
3 253 249 251
3 249 145 151
3 249 151 251
3 254 57 82
3 254 82 255
3 82 80 247
3 82 247 255
3 247 246 253
3 247 253 255
3 253 252 254
3 253 254 255
3 58 57 254
3 58 254 256
3 254 252 257
3 254 257 256
3 257 258 259
3 257 259 256
3 259 60 58
3 259 58 256
3 250 122 121
3 250 121 260
3 121 129 261
3 121 261 260
3 261 258 257
3 261 257 260
3 257 252 250
3 257 250 260
3 135 102 262
3 135 262 263
3 262 264 265
3 262 265 263
3 265 258 261
3 265 261 263
3 261 129 135
3 261 135 263
3 266 35 62
3 266 62 267
3 62 60 259
3 62 259 267
3 259 258 265
3 259 265 267
3 265 264 266
3 265 266 267
3 36 35 266
3 36 266 268
3 266 264 269
3 266 269 268
3 269 270 271
3 269 271 268
3 271 38 36
3 271 36 268
3 262 102 101
3 262 101 272
3 101 109 273
3 101 273 272
3 273 270 269
3 273 269 272
3 269 264 262
3 269 262 272
3 119 118 235
3 119 235 274
3 235 231 275
3 235 275 274
3 275 270 273
3 275 273 274
3 273 109 119
3 273 119 274
3 229 41 40
3 229 40 276
3 40 38 271
3 40 271 276
3 271 270 275
3 271 275 276
3 275 231 229
3 275 229 276
3 277 47 87
3 99 68 278
3 278 68 67
3 67 75 279
3 279 75 85
3 279 85 280
3 25 33 281
3 48 47 277
3 48 277 282
3 277 283 282
3 283 281 282
3 281 33 48
3 281 48 282
