OFF
313 608 0
-2.87204 8.00541 -8.34523
-2.80183 8.12111 -8.16843
-2.7697 7.91661 -8.35903
-2.8611 7.66151 -8.69603
-2.75179 7.75451 -8.46153
-2.84962 7.47351 -8.83093
-2.9669 7.37761 -8.95743
-2.9705 7.57871 -8.81053
-2.97351 7.94671 -8.43363
-2.76348 7.73191 -8.38073
-2.79135 7.80991 -8.20023
-2.85971 7.63841 -8.40053
-2.85439 7.46101 -8.73533
-2.96028 7.55211 -8.50193
-2.96329 7.36301 -8.85873
-3.06176 7.63331 -8.40613
-3.13196 7.80111 -8.20953
-3.16409 7.72201 -8.39233
-3.07269 7.45591 -8.74193
-3.182 7.74421 -8.47423
-3.08417 7.46821 -8.83823
-3.17031 7.90681 -8.37063
-3.14244 8.11231 -8.17773
-3.07408 8.00031 -8.35083
-3.07941 7.65641 -8.70263
-3.60857 7.51751 -0.877528
-3.60857 7.74561 -0.898928
-3.74442 7.75401 -0.781628
-3.74442 7.52231 -0.754428
-3.90745 7.75681 -0.742528
-3.90745 7.52391 -0.713428
-3.90745 7.37821 -0.661428
-3.73601 7.37741 -0.705928
-3.59315 7.37481 -0.839328
-4.07047 7.75401 -0.781628
-4.20633 7.74561 -0.898928
-4.20633 7.51751 -0.877528
-4.07047 7.52231 -0.754428
-4.22174 7.37481 -0.839328
-4.07888 7.37741 -0.705928
-3.60857 7.48221 -1.78003
-3.60857 7.68381 -1.75863
-3.52706 7.69791 -1.56323
-3.52706 7.49021 -1.57493
-3.49988 7.71471 -1.32873
-3.49989 7.49981 -1.32873
-3.47886 7.36541 -1.32873
-3.50744 7.36031 -1.59573
-3.59315 7.35601 -1.81813
-3.52706 7.73161 -1.09433
-3.52706 7.50951 -1.08263
-3.50744 7.37051 -1.06183
-4.20633 7.48221 -1.78003
-4.20633 7.68381 -1.75863
-4.07047 7.67541 -1.87593
-4.07047 7.47731 -1.90313
-3.90745 7.67261 -1.91493
-3.90745 7.47571 -1.94413
-3.90745 7.35261 -1.99613
-4.07888 7.35341 -1.95163
-4.22174 7.35601 -1.81813
-3.74442 7.67541 -1.87593
-3.74442 7.47731 -1.90313
-3.73601 7.35341 -1.95163
-4.28784 7.73161 -1.09433
-4.28784 7.50951 -1.08263
-4.31501 7.71471 -1.32873
-4.31501 7.49981 -1.32873
-4.33603 7.36541 -1.32873
-4.30746 7.37051 -1.06183
-4.28784 7.69791 -1.56323
-4.28784 7.49021 -1.57493
-4.30746 7.36031 -1.59573
-3.74579 9.47191 -1.11403
-3.60956 9.43541 -1.18793
-3.61055 9.89861 -1.36193
-3.74715 9.94381 -1.30003
-3.59813 10.3128 -1.60683
-3.73468 10.366 -1.55683
-3.89747 10.3827 -1.54223
-3.91039 9.95821 -1.28073
-3.90892 9.48371 -1.09003
-3.5585 10.6434 -1.94243
-3.47784 10.8557 -2.38863
-3.61075 10.919 -2.36333
-3.69401 10.7029 -1.90453
-3.76847 10.9381 -2.35803
-3.85516 10.7213 -1.89463
-3.92486 10.9134 -2.37193
-4.05371 10.8455 -2.40443
-4.14732 10.6356 -1.95633
-4.01519 10.6987 -1.91213
-4.19349 10.3074 -1.61753
-4.05943 10.363 -1.56263
-4.20815 9.89531 -1.36883
-4.20724 9.43381 -1.19133
-4.07179 9.47101 -1.11593
-4.07312 9.94201 -1.30373
-3.52584 9.22671 -1.61063
-3.60669 9.16501 -1.73553
-3.6048 9.56181 -1.82743
-3.52462 9.63881 -1.72073
-3.58901 9.91371 -1.99133
-3.50989 10.0052 -1.90243
-3.48532 10.1143 -1.79713
-3.49902 9.73081 -1.59343
-3.49945 9.30051 -1.46113
-3.54613 10.1937 -2.24353
-3.463 10.3746 -2.60053
-3.38785 10.4854 -2.55023
-3.46864 10.297 -2.17313
-3.36572 10.617 -2.49173
-3.44525 10.42 -2.09043
-3.39594 10.7477 -2.43463
-3.47539 10.5422 -2.00893
-3.51487 10.2229 -1.69273
-3.5274 9.37421 -1.31193
-3.52775 9.82251 -1.46683
-4.06814 9.12691 -1.81293
-4.20437 9.16341 -1.73903
-4.20241 9.55851 -1.83433
-4.06581 9.51331 -1.89623
-4.18437 9.90831 -2.00203
-4.04782 9.85511 -2.05203
-3.88503 9.83851 -2.06653
-3.90256 9.49891 -1.91553
-3.905 9.11501 -1.83683
-4.13495 10.1859 -2.25753
-4.03886 10.3645 -2.61633
-3.90596 10.3012 -2.64163
-3.99944 10.1264 -2.29543
-3.74823 10.2821 -2.64693
-3.83829 10.1081 -2.30523
-3.59185 10.3067 -2.63303
-3.67826 10.1306 -2.28773
-3.72307 9.85811 -2.04613
-3.74213 9.12781 -1.81103
-3.73984 9.51521 -1.89253
-4.28809 9.37211 -1.31633
-4.28834 9.81831 -1.47553
-4.2726 10.216 -1.70633
-4.29718 10.1069 -1.81173
-4.31394 9.72631 -1.60283
-4.31447 9.29831 -1.46583
-4.12886 10.7348 -2.45473
-4.22481 10.5323 -2.02673
-4.15099 10.6032 -2.51323
-4.2482 10.4094 -2.10953
-4.12076 10.4724 -2.57033
-4.21806 10.2871 -2.19103
-4.26763 9.99831 -1.91603
-4.28652 9.22461 -1.61503
-4.28521 9.63461 -1.72943
-3.34237 10.9151 -2.96543
-3.47052 10.9786 -2.95343
-3.17938 10.8212 -3.65393
-3.30169 10.8825 -3.65403
-3.44656 10.9001 -3.65663
-3.62243 10.9973 -2.95243
-3.0162 10.5736 -4.43493
-2.88013 10.1716 -5.28963
-2.99153 10.2269 -5.30323
-3.13257 10.6317 -4.44423
-3.12347 10.2422 -5.30953
-3.2704 10.648 -4.44943
-3.25406 10.2184 -5.30813
-3.36143 10.156 -5.29853
-3.51897 10.5583 -4.44553
-3.40681 10.6233 -4.45003
-3.70793 10.8071 -3.66683
-3.58999 10.8748 -3.66113
-3.89671 10.9028 -2.98053
-3.77289 10.9718 -2.96163
-3.32646 10.4295 -3.07883
-3.25448 10.5415 -3.05103
-3.16341 10.3485 -3.67473
-3.09496 10.4579 -3.66823
-3.07529 10.5875 -3.66193
-3.23362 10.6746 -3.01943
-3.00073 10.1221 -4.38463
-2.86532 9.74041 -5.20483
-2.80305 9.84051 -5.22293
-2.93568 10.2268 -4.39463
-2.78521 9.95881 -5.24563
-2.91705 10.3506 -4.40783
-2.81113 10.0757 -5.26913
-2.94412 10.473 -4.42213
-3.10368 10.7157 -3.65683
-3.26316 10.8064 -2.98923
-3.8808 10.4172 -3.09393
-3.75265 10.3537 -3.10593
-3.69196 10.3344 -3.68773
-3.56965 10.2732 -3.68763
-3.42478 10.2555 -3.68503
-3.60074 10.335 -3.10693
-3.5035 10.1068 -4.39523
-3.34662 9.72481 -5.21383
-3.23521 9.66951 -5.20023
-3.38712 10.0487 -4.38593
-3.10328 9.65421 -5.19393
-3.2493 10.0323 -4.38073
-2.97269 9.67801 -5.19533
-3.11288 10.057 -4.38013
-3.28135 10.2809 -3.68053
-3.45028 10.3605 -3.09773
-3.96869 10.7907 -3.00833
-3.77638 10.6978 -3.67333
-3.79605 10.5682 -3.67963
-3.98955 10.6577 -3.03993
-3.42369 10.0559 -5.28053
-3.58402 10.4536 -4.43553
-3.44153 9.93761 -5.25783
-3.60265 10.3298 -4.42223
-3.41561 9.82071 -5.23433
-3.57558 10.2073 -4.40803
-3.76766 10.4399 -3.68473
-3.96001 10.5258 -3.07013
-2.79849 9.61501 -6.19893
-2.90691 9.66901 -6.21013
-2.76484 9.01331 -7.05413
-2.86837 9.05601 -7.07133
-2.99093 9.06141 -7.08713
-3.03531 9.68411 -6.21573
-2.77276 8.47631 -7.74683
-2.86561 8.48591 -7.79343
-2.97533 8.46151 -7.84283
-3.17336 8.46541 -7.75703
-3.08391 8.47991 -7.79883
-3.21201 9.00011 -7.06423
-3.11223 9.04891 -7.07683
-3.2669 9.60021 -6.20813
-3.16241 9.66101 -6.21513
-2.78407 9.19371 -6.13183
-2.72347 9.29141 -6.14583
-2.75108 8.60861 -7.02873
-2.6931 8.69281 -7.04543
-2.67643 8.79411 -7.06483
-2.70611 9.40701 -6.16373
-2.76043 8.11171 -7.75853
-2.70808 8.15771 -7.80393
-2.69286 8.21901 -7.85173
-2.71479 8.35631 -7.79953
-2.7006 8.91341 -7.05983
-2.73134 9.52121 -6.18243
-3.25249 9.17891 -6.14103
-3.14406 9.12481 -6.12983
-3.19825 8.59541 -7.03873
-3.09471 8.53351 -7.04683
-2.97216 8.50891 -7.05643
-3.01566 9.10971 -6.12423
-3.16104 8.10081 -7.76873
-3.06819 8.01441 -7.82333
-2.95846 7.96191 -7.87513
-2.84988 8.02041 -7.81793
-2.85086 8.54071 -7.04133
-2.88856 9.13291 -6.12483
-3.3275 9.50241 -6.19413
-3.26999 8.89671 -7.07273
-3.28665 8.77621 -7.07873
-3.34486 9.38681 -6.17623
-3.22571 8.34261 -7.81273
-3.24093 8.20441 -7.86613
-3.219 8.14401 -7.81723
-3.26249 8.67611 -7.05833
-3.31964 9.27261 -6.15753
-3.60857 8.08221 -0.930428
-3.74442 8.09591 -0.821828
-3.60867 8.49651 -0.982328
-3.74456 8.51691 -0.884328
-3.9076 8.52371 -0.851728
-3.90745 8.10051 -0.785628
-3.60896 8.95781 -1.06483
-3.74497 8.98591 -0.978628
-3.90804 8.99521 -0.950128
-4.20669 8.95711 -1.06613
-4.071 8.98561 -0.979328
-4.20642 8.49631 -0.982728
-4.07061 8.51681 -0.884528
-4.20633 8.08221 -0.930428
-4.07047 8.09591 -0.821828
-4.28784 8.05931 -1.11153
-4.28787 8.46221 -1.14623
-4.31496 8.42121 -1.34243
-4.31501 8.03181 -1.32873
-4.28794 8.90991 -1.21053
-4.3148 8.85331 -1.38353
-4.20554 8.74981 -1.70053
-4.28731 8.79681 -1.55653
-4.20613 8.34621 -1.70213
-4.28771 8.38031 -1.53863
-4.20633 7.98141 -1.72713
-4.28784 8.00431 -1.54603
-4.07047 7.96761 -1.83573
-4.07024 8.32581 -1.80013
-3.9072 8.31901 -1.83273
-3.90745 7.96311 -1.87193
-4.06954 8.72161 -1.78673
-3.90647 8.71241 -1.81513
-3.60782 8.75041 -1.69913
-3.74351 8.72201 -1.78593
-3.60838 8.34641 -1.70183
-3.74419 8.32591 -1.79993
-3.60857 7.98141 -1.72713
-3.74442 7.96761 -1.83573
-3.52706 8.00431 -1.54603
-3.52693 8.38051 -1.53823
-3.49984 8.42151 -1.34203
-3.49989 8.03181 -1.32873
-3.52657 8.79761 -1.55473
-3.49971 8.85421 -1.38173
-3.52719 8.91071 -1.20873
-3.52709 8.46241 -1.14583
-3.52706 8.05931 -1.11153
3 0 1 2
3 0 2 3
3 2 4 5
3 2 5 3
3 5 6 7
3 5 7 3
3 7 8 0
3 7 0 3
3 9 10 11
3 9 11 12
3 11 13 14
3 11 14 12
3 14 6 5
3 14 5 12
3 5 4 9
3 5 9 12
3 15 16 17
3 15 17 18
3 17 19 20
3 17 20 18
3 20 6 14
3 20 14 18
3 14 13 15
3 14 15 18
3 21 22 23
3 21 23 24
3 23 8 7
3 23 7 24
3 7 6 20
3 7 20 24
3 20 19 21
3 20 21 24
3 25 26 27
3 25 27 28
3 27 29 30
3 27 30 28
3 30 31 32
3 30 32 28
3 32 33 25
3 32 25 28
3 34 35 36
3 34 36 37
3 36 38 39
3 36 39 37
3 39 31 30
3 39 30 37
3 30 29 34
3 30 34 37
3 40 41 42
3 40 42 43
3 42 44 45
3 42 45 43
3 45 46 47
3 45 47 43
3 47 48 40
3 47 40 43
3 49 26 25
3 49 25 50
3 25 33 51
3 25 51 50
3 51 46 45
3 51 45 50
3 45 44 49
3 45 49 50
3 52 53 54
3 52 54 55
3 54 56 57
3 54 57 55
3 57 58 59
3 57 59 55
3 59 60 52
3 59 52 55
3 61 41 40
3 61 40 62
3 40 48 63
3 40 63 62
3 63 58 57
3 63 57 62
3 57 56 61
3 57 61 62
3 36 35 64
3 36 64 65
3 64 66 67
3 64 67 65
3 67 68 69
3 67 69 65
3 69 38 36
3 69 36 65
3 70 53 52
3 70 52 71
3 52 60 72
3 52 72 71
3 72 68 67
3 72 67 71
3 67 66 70
3 67 70 71
3 73 74 75
3 73 75 76
3 75 77 78
3 75 78 76
3 78 79 80
3 78 80 76
3 80 81 73
3 80 73 76
3 82 83 84
3 82 84 85
3 84 86 87
3 84 87 85
3 87 79 78
3 87 78 85
3 78 77 82
3 78 82 85
3 88 89 90
3 88 90 91
3 90 92 93
3 90 93 91
3 93 79 87
3 93 87 91
3 87 86 88
3 87 88 91
3 94 95 96
3 94 96 97
3 96 81 80
3 96 80 97
3 80 79 93
3 80 93 97
3 93 92 94
3 93 94 97
3 98 99 100
3 98 100 101
3 100 102 103
3 100 103 101
3 103 104 105
3 103 105 101
3 105 106 98
3 105 98 101
3 107 108 109
3 107 109 110
3 109 111 112
3 109 112 110
3 112 104 103
3 112 103 110
3 103 102 107
3 103 107 110
3 113 83 82
3 113 82 114
3 82 77 115
3 82 115 114
3 115 104 112
3 115 112 114
3 112 111 113
3 112 113 114
3 75 74 116
3 75 116 117
3 116 106 105
3 116 105 117
3 105 104 115
3 105 115 117
3 115 77 75
3 115 75 117
3 118 119 120
3 118 120 121
3 120 122 123
3 120 123 121
3 123 124 125
3 123 125 121
3 125 126 118
3 125 118 121
3 127 128 129
3 127 129 130
3 129 131 132
3 129 132 130
3 132 124 123
3 132 123 130
3 123 122 127
3 123 127 130
3 133 108 107
3 133 107 134
3 107 102 135
3 107 135 134
3 135 124 132
3 135 132 134
3 132 131 133
3 132 133 134
3 100 99 136
3 100 136 137
3 136 126 125
3 136 125 137
3 125 124 135
3 125 135 137
3 135 102 100
3 135 100 137
3 138 95 94
3 138 94 139
3 94 92 140
3 94 140 139
3 140 141 142
3 140 142 139
3 142 143 138
3 142 138 139
3 90 89 144
3 90 144 145
3 144 146 147
3 144 147 145
3 147 141 140
3 147 140 145
3 140 92 90
3 140 90 145
3 148 128 127
3 148 127 149
3 127 122 150
3 127 150 149
3 150 141 147
3 150 147 149
3 147 146 148
3 147 148 149
3 120 119 151
3 120 151 152
3 151 143 142
3 151 142 152
3 142 141 150
3 142 150 152
3 150 122 120
3 150 120 152
3 84 83 153
3 84 153 154
3 153 155 156
3 153 156 154
3 156 157 158
3 156 158 154
3 158 86 84
3 158 84 154
3 159 160 161
3 159 161 162
3 161 163 164
3 161 164 162
3 164 157 156
3 164 156 162
3 156 155 159
3 156 159 162
3 165 166 167
3 165 167 168
3 167 169 170
3 167 170 168
3 170 157 164
3 170 164 168
3 164 163 165
3 164 165 168
3 171 89 88
3 171 88 172
3 88 86 158
3 88 158 172
3 158 157 170
3 158 170 172
3 170 169 171
3 170 171 172
3 109 108 173
3 109 173 174
3 173 175 176
3 173 176 174
3 176 177 178
3 176 178 174
3 178 111 109
3 178 109 174
3 179 180 181
3 179 181 182
3 181 183 184
3 181 184 182
3 184 177 176
3 184 176 182
3 176 175 179
3 176 179 182
3 185 160 159
3 185 159 186
3 159 155 187
3 159 187 186
3 187 177 184
3 187 184 186
3 184 183 185
3 184 185 186
3 153 83 113
3 153 113 188
3 113 111 178
3 113 178 188
3 178 177 187
3 178 187 188
3 187 155 153
3 187 153 188
3 129 128 189
3 129 189 190
3 189 191 192
3 189 192 190
3 192 193 194
3 192 194 190
3 194 131 129
3 194 129 190
3 195 196 197
3 195 197 198
3 197 199 200
3 197 200 198
3 200 193 192
3 200 192 198
3 192 191 195
3 192 195 198
3 201 180 179
3 201 179 202
3 179 175 203
3 179 203 202
3 203 193 200
3 203 200 202
3 200 199 201
3 200 201 202
3 173 108 133
3 173 133 204
3 133 131 194
3 133 194 204
3 194 193 203
3 194 203 204
3 203 175 173
3 203 173 204
3 144 89 171
3 144 171 205
3 171 169 206
3 171 206 205
3 206 207 208
3 206 208 205
3 208 146 144
3 208 144 205
3 167 166 209
3 167 209 210
3 209 211 212
3 209 212 210
3 212 207 206
3 212 206 210
3 206 169 167
3 206 167 210
3 213 196 195
3 213 195 214
3 195 191 215
3 195 215 214
3 215 207 212
3 215 212 214
3 212 211 213
3 212 213 214
3 189 128 148
3 189 148 216
3 148 146 208
3 148 208 216
3 208 207 215
3 208 215 216
3 215 191 189
3 215 189 216
3 161 160 217
3 161 217 218
3 217 219 220
3 217 220 218
3 220 221 222
3 220 222 218
3 222 163 161
3 222 161 218
3 223 1 0
3 223 0 224
3 0 8 225
3 0 225 224
3 225 221 220
3 225 220 224
3 220 219 223
3 220 223 224
3 23 22 226
3 23 226 227
3 226 228 229
3 226 229 227
3 229 221 225
3 229 225 227
3 225 8 23
3 225 23 227
3 230 166 165
3 230 165 231
3 165 163 222
3 165 222 231
3 222 221 229
3 222 229 231
3 229 228 230
3 229 230 231
3 181 180 232
3 181 232 233
3 232 234 235
3 232 235 233
3 235 236 237
3 235 237 233
3 237 183 181
3 237 181 233
3 238 10 9
3 238 9 239
3 9 4 240
3 9 240 239
3 240 236 235
3 240 235 239
3 235 234 238
3 235 238 239
3 2 1 223
3 2 223 241
3 223 219 242
3 223 242 241
3 242 236 240
3 242 240 241
3 240 4 2
3 240 2 241
3 217 160 185
3 217 185 243
3 185 183 237
3 185 237 243
3 237 236 242
3 237 242 243
3 242 219 217
3 242 217 243
3 197 196 244
3 197 244 245
3 244 246 247
3 244 247 245
3 247 248 249
3 247 249 245
3 249 199 197
3 249 197 245
3 250 16 15
3 250 15 251
3 15 13 252
3 15 252 251
3 252 248 247
3 252 247 251
3 247 246 250
3 247 250 251
3 11 10 238
3 11 238 253
3 238 234 254
3 238 254 253
3 254 248 252
3 254 252 253
3 252 13 11
3 252 11 253
3 232 180 201
3 232 201 255
3 201 199 249
3 201 249 255
3 249 248 254
3 249 254 255
3 254 234 232
3 254 232 255
3 209 166 230
3 209 230 256
3 230 228 257
3 230 257 256
3 257 258 259
3 257 259 256
3 259 211 209
3 259 209 256
3 226 22 21
3 226 21 260
3 21 19 261
3 21 261 260
3 261 258 257
3 261 257 260
3 257 228 226
3 257 226 260
3 17 16 250
3 17 250 262
3 250 246 263
3 250 263 262
3 263 258 261
3 263 261 262
3 261 19 17
3 261 17 262
3 244 196 213
3 244 213 264
3 213 211 259
3 213 259 264
3 259 258 263
3 259 263 264
3 263 246 244
3 263 244 264
3 27 26 265
3 27 265 266
3 265 267 268
3 265 268 266
3 268 269 270
3 268 270 266
3 270 29 27
3 270 27 266
3 271 74 73
3 271 73 272
3 73 81 273
3 73 273 272
3 273 269 268
3 273 268 272
3 268 267 271
3 268 271 272
3 96 95 274
3 96 274 275
3 274 276 277
3 274 277 275
3 277 269 273
3 277 273 275
3 273 81 96
3 273 96 275
3 278 35 34
3 278 34 279
3 34 29 270
3 34 270 279
3 270 269 277
3 270 277 279
3 277 276 278
3 277 278 279
3 64 35 278
3 64 278 280
3 278 276 281
3 278 281 280
3 281 282 283
3 281 283 280
3 283 66 64
3 283 64 280
3 274 95 138
3 274 138 284
3 138 143 285
3 138 285 284
3 285 282 281
3 285 281 284
3 281 276 274
3 281 274 284
3 151 119 286
3 151 286 287
3 286 288 289
3 286 289 287
3 289 282 285
3 289 285 287
3 285 143 151
3 285 151 287
3 290 53 70
3 290 70 291
3 70 66 283
3 70 283 291
3 283 282 289
3 283 289 291
3 289 288 290
3 289 290 291
3 54 53 290
3 54 290 292
3 290 288 293
3 290 293 292
3 293 294 295
3 293 295 292
3 295 56 54
3 295 54 292
3 286 119 118
3 286 118 296
3 118 126 297
3 118 297 296
3 297 294 293
3 297 293 296
3 293 288 286
3 293 286 296
3 136 99 298
3 136 298 299
3 298 300 301
3 298 301 299
3 301 294 297
3 301 297 299
3 297 126 136
3 297 136 299
3 302 41 61
3 302 61 303
3 61 56 295
3 61 295 303
3 295 294 301
3 295 301 303
3 301 300 302
3 301 302 303
3 42 41 302
3 42 302 304
3 302 300 305
3 302 305 304
3 305 306 307
3 305 307 304
3 307 44 42
3 307 42 304
3 298 99 98
3 298 98 308
3 98 106 309
3 98 309 308
3 309 306 305
3 309 305 308
3 305 300 298
3 305 298 308
3 116 74 271
3 116 271 310
3 271 267 311
3 271 311 310
3 311 306 309
3 311 309 310
3 309 106 116
3 309 116 310
3 265 26 49
3 265 49 312
3 49 44 307
3 49 307 312
3 307 306 311
3 307 311 312
3 311 267 265
3 311 265 312
