OFF
256 496 0
13.4442 6.38524 -11.2991
13.2254 5.96334 -11.0861
13.1816 6.18954 -11.4641
13.359 6.53204 -11.5441
13.0219 6.26054 -11.5601
13.1981 6.63644 -11.6471
13.3445 7.00534 -11.5491
13.5083 6.86764 -11.4531
13.5908 6.68474 -11.2051
12.8551 6.36924 -11.4961
12.5839 6.31534 -11.1501
12.7978 6.74454 -11.3621
13.0068 6.72794 -11.5781
12.8977 7.07354 -11.2711
13.1304 7.07964 -11.4891
13.0076 7.32834 -11.0581
12.9963 7.46274 -10.5511
13.2702 7.52414 -10.8931
13.2329 7.35704 -11.2501
13.4666 7.49774 -10.9151
13.4406 7.31094 -11.2951
13.5946 7.33864 -10.8641
13.633 7.09734 -10.4941
13.652 6.96344 -10.9981
13.5841 7.15834 -11.2171
5.80647 0.25924 0.872862
5.81005 0.59814 1.01586
5.69232 -0.16596 0.797862
5.89417 0.92054 0.855862
5.85995 1.08204 0.810862
6.30617 1.24414 -0.0481379
5.8776 1.14244 0.551862
7.32611 0.12174 -2.19314
7.54063 0.41124 -2.14914
7.29204 0.28474 -1.88214
7.39332 0.60914 -1.82014
8.89936 1.12384 -3.23914
7.74778 0.80434 -2.11114
7.72177 1.39124 -1.95314
7.37465 1.23184 -1.66214
7.57499 0.99764 -1.88214
7.32451 0.88254 -1.59614
7.36645 0.39634 -2.79014
8.73816 1.08604 -3.47114
7.13882 0.0694399 -2.50014
7.00356 0.18464 -2.54514
6.93836 0.40774 -2.57214
7.29742 0.60814 -2.81814
7.24494 0.0392399 -2.36814
7.06111 1.56594 -2.14714
7.1215 1.42054 -2.38614
6.91894 1.32384 -2.16714
6.92128 1.04024 -2.40814
8.62966 2.19784 -3.09914
7.27196 1.20264 -2.65714
7.07809 0.82094 -2.65314
6.86207 0.70744 -2.43314
7.56137 1.73664 -2.06714
7.21863 1.59474 -1.78014
7.31277 1.45494 -1.70014
7.6529 1.60554 -1.98014
7.1517 1.64734 -1.99314
8.94996 1.28134 -3.09814
9.84276 1.75844 -3.91614
9.88436 1.88324 -3.78914
9.90126 2.05544 -3.66414
8.97436 1.49744 -2.96514
10.7944 2.46214 -4.70914
11.6016 3.16934 -5.57414
11.6368 3.24554 -5.47314
10.8298 2.55744 -4.59614
11.6497 3.35264 -5.36314
10.8419 2.69004 -4.47914
11.6403 3.47224 -5.26114
11.6081 3.58564 -5.18614
10.7959 2.97564 -4.30514
10.8306 2.83704 -4.37614
9.85796 2.42334 -3.49514
9.89266 2.24534 -3.55914
8.93746 1.95654 -2.80114
8.97076 1.73484 -2.85914
8.59096 1.35324 -3.54414
8.65586 1.18634 -3.53514
9.56266 1.94864 -4.14614
9.62426 1.81384 -4.15214
9.69996 1.73184 -4.10814
10.5374 2.61734 -4.86514
11.3547 3.30274 -5.66814
11.4099 3.21504 -5.70014
10.5956 2.51134 -4.88514
11.477 3.15984 -5.69214
10.6656 2.44574 -4.86114
11.5446 3.14264 -5.64814
10.7358 2.42714 -4.80014
9.77706 1.71064 -4.02614
8.82406 1.06194 -3.36814
8.57896 2.03834 -3.24114
9.57806 2.62304 -3.71914
9.53636 2.49664 -3.84714
9.51946 2.32134 -3.97414
8.55436 1.81834 -3.37614
10.5389 3.13824 -4.45614
11.3612 3.72494 -5.27514
11.3261 3.64774 -5.37614
10.5035 3.04174 -4.57014
11.3185 3.46334 -5.56614
10.4914 2.90664 -4.68914
10.5027 2.75714 -4.79414
9.52806 2.12824 -4.08114
8.55776 1.57694 -3.48414
8.87276 2.12544 -2.80914
9.79636 2.55974 -3.48814
9.72076 2.64494 -3.53014
8.79056 2.22974 -2.87014
11.5528 3.67424 -5.15314
10.7377 3.08294 -4.28514
11.4858 3.73154 -5.15914
10.6677 3.15094 -4.30714
11.4182 3.75064 -5.20114
10.5975 3.17204 -4.36614
9.64376 2.66924 -3.61014
8.70486 2.25774 -2.97114
12.112 3.81444 -6.46614
12.1668 3.93554 -6.29514
12.3968 4.37234 -7.32114
12.4568 4.45944 -7.23114
12.5017 4.65244 -7.03614
12.5273 4.81774 -8.07914
12.6282 5.15064 -8.57414
12.6083 4.92604 -7.98614
12.7926 5.56404 -8.36714
12.6661 5.07764 -7.87814
12.871 6.08564 -8.53014
12.6841 5.40544 -7.68914
12.6937 5.24614 -7.77414
12.4888 4.84764 -6.94414
12.1512 4.22534 -6.08714
12.1774 4.11314 -6.16614
11.8545 3.94834 -6.52314
11.9076 3.86124 -6.56214
12.1099 4.52414 -7.36014
12.1624 4.42414 -7.40314
12.2365 4.36124 -7.41014
11.9761 3.80614 -6.56314
12.1939 5.00044 -8.11214
12.1709 5.42944 -8.85014
12.2344 5.24984 -8.86714
12.2481 4.87794 -8.15814
12.332 5.19584 -8.97714
12.3319 4.80144 -8.16714
12.4614 5.01804 -8.59414
12.319 4.34174 -7.38214
12.0481 3.78864 -6.53014
11.8943 4.36504 -6.13914
11.8367 4.23834 -6.30614
12.2032 5.00624 -6.97714
12.143 4.91804 -7.06914
12.0929 4.71284 -7.25614
12.353 5.59664 -7.71814
12.4204 6.18934 -8.40214
12.303 5.94784 -8.38914
12.2716 5.48684 -7.81214
12.2248 5.84754 -8.60914
12.1922 5.25024 -7.94814
12.1761 5.58164 -8.67914
11.8285 4.06144 -6.44314
12.0982 4.31334 -6.04714
12.4627 4.99974 -6.97114
12.3629 5.01394 -6.89214
12.03 4.37034 -6.04414
12.7424 6.00394 -8.20714
12.6767 6.25394 -8.35714
12.5472 5.60864 -7.63214
12.5389 6.20324 -8.30114
12.4498 5.63414 -7.65814
12.2808 5.03564 -6.91814
11.9581 4.38984 -6.07514
12.6134 5.29534 -9.15914
12.7652 5.47764 -9.05814
12.8715 5.71704 -8.90614
12.892 5.43774 -10.0441
13.0648 5.64554 -9.80114
13.2465 5.99664 -9.69314
13.3084 6.32974 -9.44014
13.2118 6.56044 -9.07914
12.9366 5.98724 -8.77214
12.0794 5.68744 -9.64114
12.1653 5.44334 -9.60714
12.346 5.30784 -9.81114
12.2545 5.54024 -10.1091
12.6439 5.32934 -10.0721
12.4549 5.23324 -9.22614
12.3008 6.56304 -9.06014
12.4963 6.86314 -9.00414
12.1678 6.33384 -9.31514
12.4118 6.84354 -9.52814
12.1615 6.14414 -9.88714
12.0877 5.95794 -9.37714
12.8491 6.37874 -8.57014
12.9175 6.92884 -8.91714
13.1167 6.81194 -9.00214
12.708 6.96064 -8.92814
13.0913 5.69394 -10.6591
13.2942 5.93004 -10.5081
13.4526 6.25854 -10.3341
13.4088 6.16664 -10.9431
13.561 6.47454 -10.8091
13.6327 6.78984 -10.6171
13.5443 6.95554 -10.0011
13.5409 6.61694 -10.1491
13.3972 6.76914 -9.52614
12.2199 5.88784 -10.2631
12.3772 6.08444 -10.7311
12.4796 5.82484 -10.8131
12.6562 5.66414 -10.8321
12.4963 5.45714 -10.3481
12.6686 6.07094 -11.2201
12.8364 5.93424 -11.2621
13.0219 5.87824 -11.1841
12.8694 5.61294 -10.7731
12.6835 7.18164 -9.58814
12.8365 7.36344 -10.0631
12.6377 7.13104 -10.2321
12.4824 6.80324 -10.4251
12.3213 6.60804 -9.93814
12.8113 7.25624 -10.6931
12.6781 6.96994 -10.8931
12.5841 6.62394 -11.0231
12.3868 6.43244 -10.5961
13.4132 7.18004 -9.79014
13.2788 7.39764 -9.92714
13.124 7.20894 -9.43514
13.5483 7.34284 -10.4201
13.4028 7.51024 -10.4401
13.1982 7.54464 -10.4511
13.0201 7.40954 -9.82814
6.31676 0.79594 0.142862
6.60256 1.17994 -0.420138
6.91854 1.04404 -0.887138
5.84915 1.07414 0.322862
5.80717 0.81744 0.0348621
6.35056 0.75754 -1.33414
5.74176 0.46254 -0.180138
6.55519 0.19494 -1.94514
6.31629 0.39664 -1.47214
5.68065 0.0335399 -0.363138
5.71552 -0.30396 -0.563138
5.59233 -0.61486 -0.348138
6.31948 -0.19816 -1.48114
6.3564 -0.35786 -1.35214
5.55359 -0.79716 -0.168138
5.57368 -0.84606 0.0298621
5.5742 -0.78176 0.315862
5.64121 -0.51756 0.554862
6.57104 0.22964 -0.563138
6.60575 0.58514 -0.430138
3 0 1 2
3 0 2 3
3 2 4 5
3 2 5 3
3 5 6 7
3 5 7 3
3 7 8 0
3 7 0 3
3 9 10 11
3 9 11 12
3 11 13 14
3 11 14 12
3 14 6 5
3 14 5 12
3 5 4 9
3 5 9 12
3 15 16 17
3 15 17 18
3 17 19 20
3 17 20 18
3 20 6 14
3 20 14 18
3 14 13 15
3 14 15 18
3 21 22 23
3 21 23 24
3 23 8 7
3 23 7 24
3 7 6 20
3 7 20 24
3 20 19 21
3 20 21 24
3 25 26 27
3 28 29 26
3 28 30 29
3 29 30 31
3 32 33 34
3 33 35 34
3 32 36 33
3 37 35 33
3 38 39 40
3 40 35 37
3 35 40 41
3 40 39 41
3 42 43 44
3 44 45 42
3 45 46 47
3 45 47 42
3 48 36 32
3 44 43 48
3 49 50 51
3 50 52 51
3 49 53 50
3 54 52 50
3 47 46 55
3 55 52 54
3 52 55 56
3 55 46 56
3 57 58 59
3 57 59 60
3 59 39 38
3 59 38 60
3 61 53 49
3 61 58 57
3 33 36 62
3 36 63 64
3 36 64 62
3 64 65 66
3 64 66 62
3 66 37 33
3 66 33 62
3 67 68 69
3 67 69 70
3 69 71 72
3 69 72 70
3 72 65 64
3 72 64 70
3 64 63 67
3 64 67 70
3 73 74 75
3 73 75 76
3 75 77 78
3 75 78 76
3 78 65 72
3 78 72 76
3 72 71 73
3 72 73 76
3 79 38 40
3 79 40 80
3 40 37 66
3 40 66 80
3 66 65 78
3 66 78 80
3 78 77 79
3 78 79 80
3 42 47 81
3 42 81 82
3 81 83 84
3 81 84 82
3 84 85 43
3 84 43 82
3 43 42 82
3 86 87 88
3 86 88 89
3 88 90 91
3 88 91 89
3 91 85 84
3 91 84 89
3 84 83 86
3 84 86 89
3 92 68 67
3 92 67 93
3 67 63 94
3 67 94 93
3 94 85 91
3 94 91 93
3 91 90 92
3 91 92 93
3 36 48 95
3 48 43 95
3 43 85 94
3 43 94 95
3 94 63 36
3 94 36 95
3 50 53 96
3 53 97 98
3 53 98 96
3 98 99 100
3 98 100 96
3 100 54 50
3 100 50 96
3 101 102 103
3 101 103 104
3 103 105 106
3 103 106 104
3 106 99 98
3 106 98 104
3 98 97 101
3 98 101 104
3 105 87 86
3 105 86 107
3 86 83 108
3 86 108 107
3 108 99 106
3 108 106 107
3 106 105 107
3 81 47 55
3 81 55 109
3 55 54 100
3 55 100 109
3 100 99 108
3 100 108 109
3 108 83 81
3 108 81 109
3 60 38 79
3 60 79 110
3 79 77 111
3 79 111 110
3 111 112 113
3 111 113 110
3 113 57 60
3 113 60 110
3 75 74 114
3 75 114 115
3 114 116 117
3 114 117 115
3 117 112 111
3 117 111 115
3 111 77 75
3 111 75 115
3 118 102 101
3 118 101 119
3 101 97 120
3 101 120 119
3 120 112 117
3 120 117 119
3 117 116 118
3 117 118 119
3 53 61 121
3 61 57 113
3 61 113 121
3 113 112 120
3 113 120 121
3 120 97 53
3 120 53 121
3 69 68 122
3 69 122 123
3 122 124 125
3 122 125 123
3 125 126 123
3 123 71 69
3 127 128 129
3 128 130 131
3 128 131 129
3 131 126 125
3 131 125 129
3 125 124 127
3 125 127 129
3 130 132 133
3 130 133 134
3 133 135 126
3 133 126 134
3 126 131 134
3 131 130 134
3 136 74 73
3 136 73 137
3 73 71 123
3 73 123 137
3 123 126 137
3 126 135 136
3 126 136 137
3 88 87 138
3 88 138 139
3 138 140 141
3 138 141 139
3 141 142 143
3 141 143 139
3 143 90 88
3 143 88 139
3 144 145 146
3 144 146 147
3 146 148 149
3 146 149 147
3 149 142 141
3 149 141 147
3 141 140 144
3 141 144 147
3 150 128 127
3 127 124 151
3 127 151 150
3 151 142 149
3 151 149 150
3 149 148 150
3 122 68 92
3 122 92 152
3 92 90 143
3 92 143 152
3 143 142 151
3 143 151 152
3 151 124 122
3 151 122 152
3 103 102 153
3 103 153 154
3 153 155 156
3 153 156 154
3 156 157 154
3 154 105 103
3 158 159 160
3 158 160 161
3 160 162 163
3 160 163 161
3 163 157 156
3 163 156 161
3 156 155 158
3 156 158 161
3 164 145 144
3 164 144 163
3 144 140 157
3 144 157 163
3 163 162 164
3 138 87 105
3 138 105 165
3 105 154 165
3 154 157 165
3 157 140 138
3 157 138 165
3 114 74 136
3 114 136 166
3 136 135 167
3 136 167 166
3 167 168 169
3 167 169 166
3 169 116 114
3 169 114 166
3 133 132 170
3 133 170 167
3 170 171 172
3 170 172 167
3 172 168 167
3 167 135 133
3 173 159 158
3 173 158 174
3 158 155 175
3 158 175 174
3 175 168 172
3 175 172 174
3 172 171 173
3 172 173 174
3 153 102 118
3 153 118 176
3 118 116 169
3 118 169 176
3 169 168 175
3 169 175 176
3 175 155 153
3 175 153 176
3 128 177 178
3 179 130 128
3 179 128 178
3 177 180 181
3 177 181 178
3 181 182 179
3 181 179 178
3 183 184 185
3 184 132 185
3 179 182 183
3 179 183 185
3 132 130 185
3 130 179 185
3 145 186 187
3 145 187 146
3 187 188 148
3 187 148 146
3 186 189 187
3 189 188 187
3 190 180 177
3 190 177 191
3 188 190 191
3 177 128 150
3 177 150 191
3 150 148 191
3 148 188 191
3 160 159 192
3 159 193 192
3 192 194 162
3 162 160 192
3 193 195 192
3 195 194 192
3 196 186 197
3 194 196 197
3 162 194 197
3 162 197 164
3 197 186 145
3 197 145 164
3 170 132 198
3 198 199 171
3 171 170 198
3 199 198 200
3 198 132 184
3 198 184 200
3 171 199 201
3 171 201 173
3 201 193 159
3 201 159 173
3 180 202 203
3 180 203 181
3 203 204 182
3 203 182 181
3 1 0 205
3 0 8 206
3 0 206 205
3 206 204 203
3 206 203 205
3 203 202 1
3 203 1 205
3 23 22 207
3 22 208 209
3 22 209 207
3 209 204 206
3 209 206 207
3 206 8 23
3 206 23 207
3 210 184 183
3 182 204 209
3 182 209 183
3 209 208 210
3 209 210 183
3 189 186 211
3 211 212 213
3 211 213 189
3 213 214 215
3 213 215 189
3 215 188 189
3 10 9 216
3 9 4 217
3 9 217 216
3 217 214 213
3 217 213 216
3 213 212 10
3 213 10 216
3 2 1 218
3 1 202 219
3 1 219 218
3 219 214 217
3 219 217 218
3 217 4 2
3 217 2 218
3 190 188 215
3 215 214 219
3 215 219 190
3 219 202 180
3 219 180 190
3 195 193 220
3 220 221 222
3 220 222 195
3 222 223 224
3 222 224 195
3 224 194 195
3 16 15 225
3 15 13 226
3 15 226 225
3 226 223 222
3 226 222 225
3 222 221 16
3 222 16 225
3 11 10 227
3 10 212 228
3 10 228 227
3 228 223 226
3 228 226 227
3 226 13 11
3 226 11 227
3 211 186 196
3 196 194 224
3 224 223 228
3 224 228 196
3 228 212 211
3 228 211 196
3 200 184 210
3 200 210 229
3 210 208 229
3 229 230 231
3 231 199 200
3 231 200 229
3 22 21 232
3 21 19 233
3 21 233 232
3 233 230 229
3 233 229 232
3 229 208 22
3 229 22 232
3 17 16 234
3 16 221 235
3 16 235 234
3 235 230 233
3 235 233 234
3 233 19 17
3 233 17 234
3 220 193 201
3 220 201 235
3 201 199 231
3 201 231 235
3 231 230 235
3 235 221 220
3 28 26 236
3 28 236 237
3 236 238 237
3 237 58 30
3 30 28 237
3 238 39 59
3 58 237 59
3 237 238 59
3 61 49 239
3 239 31 61
3 31 58 61
3 30 58 31
3 239 51 240
3 51 241 240
3 241 242 240
3 239 49 51
3 51 52 241
3 56 46 243
3 56 243 244
3 241 52 56
3 241 56 244
3 245 242 241
3 241 244 245
3 244 243 246
3 244 246 245
3 247 246 248
3 246 243 248
3 249 250 247
3 249 247 248
3 243 46 45
3 45 44 249
3 249 248 45
3 248 243 45
3 249 44 48
3 251 250 249
3 249 48 251
3 48 32 252
3 48 252 251
3 252 32 34
3 252 34 253
3 34 254 253
3 254 27 253
3 34 35 254
3 41 39 238
3 238 255 41
3 255 254 41
3 254 35 41
3 236 26 25
3 25 27 254
3 254 255 25
3 255 238 236
3 255 236 25
