OFF
244 477 0
-6.06401 9.72042 -8.60617
-6.06874 10.0306 -8.45517
-5.78593 9.87852 -8.54717
-5.60283 9.42072 -8.67417
-5.57224 9.72472 -8.52117
-5.63642 9.16022 -8.59117
-5.87505 9.17762 -8.65217
-6.08142 9.43392 -8.63117
-5.51109 9.81992 -8.27617
-5.62819 10.0636 -7.81717
-5.48652 9.58942 -8.04517
-5.47951 9.24472 -8.42017
-5.52712 9.30322 -8.09917
-5.71675 9.22672 -7.89217
-5.98539 9.25312 -7.67717
-5.99401 9.06792 -7.95317
-5.75216 9.00092 -8.39717
-6.0363 9.01242 -8.20917
-6.27313 9.13902 -8.21617
-6.50184 9.38672 -8.15917
-6.29833 9.37052 -8.44717
-1.97577 11.8481 0.966833
-2.23282 11.8587 0.925833
-2.37613 11.7355 0.993833
-2.4313 11.8433 0.829833
-2.64666 11.7242 0.654833
-2.75373 11.607 0.477833
-1.79337 11.9614 0.856833
-1.62822 11.9141 0.739833
-2.07349 11.7072 -0.236167
-2.21633 12.8245 -0.173167
-1.70619 11.8135 -0.0401668
-2.76869 11.6504 0.220833
-2.69603 11.5805 0.0298332
-3.10966 13.6655 0.321833
-2.51679 13.1816 0.591833
-3.0748 13.8666 0.246833
-3.58023 14.3409 -0.0851668
-3.70158 14.2311 -0.0641667
-3.64982 13.9796 0.00983325
-2.87365 13.043 0.499833
-4.15906 14.7402 -0.508167
-4.78425 14.9948 -1.03317
-4.85113 14.8542 -0.980167
-4.25268 14.6114 -0.471167
-4.89227 14.6891 -0.972167
-4.32593 14.4591 -0.486167
-4.90479 14.5264 -1.00817
-4.88584 14.3933 -1.08617
-4.37829 14.1854 -0.648167
-4.12419 14.1705 -0.351167
-3.91958 13.8693 -0.307167
-3.53955 13.4686 -0.101167
-3.10567 12.9157 0.205833
-3.2216 13.284 0.243833
-2.32385 13.4448 0.125833
-2.15959 13.2065 0.0388332
-2.73748 13.8867 -0.282167
-2.75036 13.9328 -0.120167
-3.24898 14.359 -0.601167
-3.27554 14.4188 -0.452167
-3.35064 14.4354 -0.301167
-2.82192 13.9445 0.0378333
-2.2301 13.2427 0.385833
-3.83011 14.7609 -1.00717
-4.45505 15.0251 -1.49917
-4.51317 15.1008 -1.38417
-3.87221 14.8319 -0.873167
-4.59855 15.1199 -1.25417
-3.95217 14.8515 -0.731167
-4.69448 15.0839 -1.13117
-4.05334 14.8206 -0.602167
-3.45773 14.4092 -0.171167
-2.5149 13.4321 0.421833
-2.93559 13.9222 0.167833
-2.87882 13.417 -0.492167
-2.76507 12.9532 -0.357167
-3.21093 13.5177 -0.591167
-3.67673 13.8486 -0.809167
-3.48773 14.0007 -0.857167
-3.15493 13.9553 -0.673167
-4.07751 14.2057 -1.16417
-4.58557 14.4177 -1.57317
-4.49378 14.6237 -1.63817
-3.9792 14.3347 -1.19817
-3.89656 14.487 -1.17817
-4.44092 14.891 -1.58017
-3.55581 14.4744 -0.901167
-2.57227 13.5683 -0.293167
-3.2211 13.0604 -0.0401668
-3.8807 13.7941 -0.518167
-3.4149 13.4388 -0.444167
-3.09542 13.0685 -0.305167
-4.80929 14.2964 -1.25617
-4.34089 14.1144 -0.785167
-4.23464 14.0973 -1.00017
-4.67052 14.3295 -1.47217
-5.42872 15.0349 -1.66617
-5.47182 14.8952 -1.60217
-6.03856 14.8795 -2.38117
-6.06316 14.749 -2.30817
-6.05328 14.6009 -2.26117
-5.48425 14.7334 -1.57317
-6.55984 14.5475 -3.14617
-6.93864 14.0576 -3.93217
-6.95489 13.9064 -3.84417
-6.57358 14.4303 -3.07017
-6.53736 14.2425 -2.99117
-6.87505 13.7333 -3.73817
-6.79905 13.6501 -3.71217
-6.4233 14.0801 -2.97017
-5.95085 14.3446 -2.26917
-6.01411 14.4583 -2.24617
-5.42419 14.4477 -1.63417
-5.46779 14.5756 -1.58317
-5.09798 15.0845 -2.07917
-5.17123 15.1545 -1.98717
-5.70646 14.9505 -2.72017
-5.79194 15.0092 -2.65617
-5.88665 15.014 -2.56817
-5.26183 15.1676 -1.87617
-6.22806 14.6343 -3.39817
-6.61034 14.1474 -4.08717
-6.74615 14.1781 -4.09117
-6.32084 14.6807 -3.36217
-6.41763 14.6781 -3.30217
-6.88287 14.1347 -3.99617
-6.50258 14.6319 -3.22617
-5.97429 14.9693 -2.47217
-5.35319 15.1268 -1.76417
-5.11922 14.485 -2.06917
-5.07183 14.6268 -2.13017
-5.63866 14.3968 -2.63417
-5.61029 14.5857 -2.73017
-5.05081 14.7927 -2.15117
-6.11528 14.1068 -3.22217
-6.46313 13.7554 -3.93417
-6.09117 14.3413 -3.35417
-6.51551 14.0149 -4.06217
-6.15513 14.5334 -3.40017
-5.64652 14.8336 -2.74817
-5.05868 14.9546 -2.13417
-5.35524 14.3756 -1.72917
-5.86869 14.2828 -2.33817
-5.72624 14.285 -2.49817
-5.23919 14.3615 -1.90617
-6.70675 13.6072 -3.72417
-6.28424 14.0131 -3.05117
-6.56041 13.6114 -3.80817
-7.13998 13.3844 -4.71617
-7.16376 12.7514 -5.43917
-7.22194 12.5891 -5.41917
-7.13947 13.1412 -4.60817
-7.12359 12.1157 -6.07517
-7.03289 11.4476 -6.75117
-7.15164 11.4125 -6.66617
-7.23072 12.0476 -5.92217
-7.22783 11.3086 -6.61717
-7.28778 11.2519 -6.36817
-7.22628 11.9492 -5.63317
-7.22054 12.3932 -5.32717
-7.0356 13.0506 -4.47417
-6.78243 13.4688 -4.77017
-6.88541 13.5392 -4.77917
-6.89002 12.8276 -5.41517
-7.06387 12.8972 -5.39617
-7.01809 13.4954 -4.80817
-6.80608 12.1192 -5.91117
-6.67265 11.3411 -6.48517
-6.80147 11.8012 -6.27217
-6.79995 11.4639 -6.68017
-6.94466 12.1929 -6.03317
-6.96301 11.6733 -6.54217
-6.73086 13.0499 -4.54717
-6.69492 13.2401 -4.66817
-6.82002 12.399 -5.22417
-6.79844 12.6454 -5.34017
-6.88716 11.7417 -5.68217
-6.94547 10.8914 -6.24017
-6.80978 11.2788 -6.10517
-6.7916 11.9815 -5.76517
-6.7221 11.4654 -6.23017
-6.90201 12.9634 -4.49617
-7.09782 12.3247 -5.16317
-6.95188 12.2793 -5.17317
-7.2323 11.148 -6.22517
-7.07914 11.0703 -6.12617
-7.06219 11.6612 -5.68917
-6.86402 11.0214 -7.41217
-7.22528 10.7717 -7.26617
-7.02167 10.8768 -7.42917
-7.14624 10.3157 -7.47417
-7.33536 10.3928 -7.05617
-7.3473 10.6685 -7.05117
-7.35801 10.5791 -6.77017
-6.6434 11.2392 -6.76617
-6.59784 11.0894 -6.58117
-6.82555 11.3161 -6.92517
-6.08905 10.6793 -7.16117
-6.19474 10.853 -7.27717
-6.28092 10.8685 -7.50217
-6.4998 10.9147 -7.58117
-6.74671 10.8071 -6.40217
-6.79669 10.2264 -6.58417
-6.55222 10.2904 -6.64917
-6.22434 10.2808 -6.90217
-6.16637 10.5426 -6.95917
-7.14338 10.5141 -6.49217
-7.147 10.1912 -6.76217
-7.26316 10.2419 -6.92617
-6.95472 10.1391 -6.67717
-6.4319 10.5259 -8.02617
-6.57887 10.3264 -8.08117
-6.78486 10.1879 -7.95717
-6.36608 9.71092 -8.42317
-6.92513 9.79772 -7.68817
-6.76607 9.84052 -7.99217
-5.81575 10.3836 -7.78617
-5.7752 10.1965 -8.19417
-6.12133 10.4455 -8.09217
-6.33679 9.64222 -7.14317
-6.10903 9.74452 -7.19717
-5.71588 9.63242 -7.62617
-5.78221 10.0685 -7.47117
-6.81297 9.60882 -7.57917
-6.71745 9.58102 -7.35917
-6.3086 9.17392 -7.88517
-6.49106 9.52202 -7.28317
-1.49506 11.9025 0.359833
-1.77762 12.5534 0.206833
-1.87813 12.798 0.360833
-1.84847 12.58 0.593833
-2.08519 12.7825 0.680833
-2.17037 12.5215 0.816833
-2.46183 12.6851 0.737833
-2.8227 12.5605 0.501833
-2.86307 12.2937 0.363833
-2.93047 12.4897 0.128833
-2.74831 12.3168 -0.127167
-2.91588 12.7073 -0.176167
-2.48326 12.3367 -0.254167
-2.41774 11.6281 -0.240167
-2.3552 12.6102 -0.253167
-1.98523 12.7273 -0.0121667
3 0 1 2
3 0 2 3
3 2 4 3
3 3 5 6
3 6 7 0
3 6 0 3
3 8 9 10
3 8 10 11
3 10 12 11
3 11 5 3
3 3 4 8
3 3 8 11
3 13 14 15
3 13 15 16
3 15 17 16
3 16 5 11
3 11 12 13
3 11 13 16
3 18 19 20
3 18 20 6
3 20 7 6
3 6 5 16
3 16 17 18
3 16 18 6
3 21 22 23
3 22 24 23
3 23 24 25
3 23 25 26
3 27 21 28
3 29 30 31
3 26 32 33
3 34 35 36
3 36 37 38
3 36 38 34
3 38 39 34
3 39 40 34
3 41 42 43
3 41 43 44
3 43 45 46
3 43 46 44
3 46 39 38
3 46 38 44
3 38 37 41
3 38 41 44
3 47 48 49
3 47 49 50
3 49 51 50
3 50 39 46
3 46 45 47
3 46 47 50
3 52 53 54
3 54 40 39
3 39 50 54
3 50 51 52
3 50 52 54
3 55 56 57
3 55 57 58
3 57 59 60
3 57 60 58
3 60 61 62
3 60 62 58
3 62 63 55
3 62 55 58
3 64 65 66
3 64 66 67
3 66 68 69
3 66 69 67
3 69 61 60
3 69 60 67
3 60 59 64
3 60 64 67
3 70 42 41
3 70 41 71
3 41 37 72
3 41 72 71
3 72 61 69
3 72 69 71
3 69 68 70
3 69 70 71
3 36 35 73
3 36 73 74
3 73 63 62
3 73 62 74
3 62 61 72
3 62 72 74
3 72 37 36
3 72 36 74
3 75 76 77
3 77 78 79
3 77 79 75
3 79 80 75
3 80 30 75
3 81 82 83
3 81 83 84
3 83 85 84
3 85 80 79
3 85 79 84
3 79 78 81
3 79 81 84
3 86 65 64
3 86 64 87
3 64 59 87
3 87 80 85
3 85 83 86
3 85 86 87
3 57 56 88
3 88 30 80
3 80 87 88
3 87 59 57
3 87 57 88
3 89 53 52
3 52 51 90
3 90 91 52
3 91 92 89
3 91 89 52
3 49 48 93
3 49 93 94
3 93 95 94
3 95 90 94
3 90 51 49
3 90 49 94
3 96 82 81
3 96 81 95
3 81 78 95
3 78 90 95
3 95 93 96
3 77 76 92
3 77 92 91
3 91 90 78
3 78 77 91
3 43 42 97
3 43 97 98
3 97 99 100
3 97 100 98
3 100 101 102
3 100 102 98
3 102 45 43
3 102 43 98
3 103 104 105
3 103 105 106
3 105 107 106
3 107 101 100
3 107 100 106
3 100 99 103
3 100 103 106
3 108 109 110
3 108 110 107
3 110 111 112
3 110 112 107
3 112 101 107
3 107 105 108
3 113 48 47
3 113 47 114
3 47 45 102
3 47 102 114
3 102 101 112
3 102 112 114
3 112 111 113
3 112 113 114
3 66 65 115
3 66 115 116
3 115 117 118
3 115 118 116
3 118 119 120
3 118 120 116
3 120 68 66
3 120 66 116
3 121 122 123
3 121 123 124
3 123 125 124
3 125 119 118
3 125 118 124
3 118 117 121
3 118 121 124
3 126 104 103
3 126 103 127
3 103 99 128
3 103 128 127
3 128 119 125
3 128 125 127
3 125 123 126
3 125 126 127
3 97 42 70
3 97 70 129
3 70 68 120
3 70 120 129
3 120 119 128
3 120 128 129
3 128 99 97
3 128 97 129
3 83 82 130
3 83 130 131
3 130 132 133
3 130 133 131
3 133 134 131
3 134 83 131
3 135 136 137
3 136 138 137
3 133 132 135
3 133 135 137
3 138 122 121
3 138 121 139
3 121 117 140
3 121 140 139
3 140 133 137
3 140 137 139
3 137 138 139
3 115 65 86
3 115 86 141
3 86 83 134
3 86 134 141
3 134 133 140
3 134 140 141
3 140 117 115
3 140 115 141
3 93 48 113
3 93 113 142
3 113 111 143
3 113 143 142
3 143 144 145
3 143 145 142
3 145 93 142
3 110 109 146
3 110 146 147
3 146 148 147
3 147 144 143
3 143 111 110
3 143 110 147
3 148 136 135
3 135 132 144
3 144 147 135
3 147 148 135
3 130 82 96
3 130 96 145
3 96 93 145
3 144 132 130
3 144 130 145
3 105 104 149
3 149 150 151
3 151 152 149
3 152 105 149
3 153 154 155
3 153 155 156
3 155 157 156
3 151 150 153
3 151 153 156
3 158 159 160
3 160 151 156
3 156 157 158
3 156 158 160
3 161 109 108
3 161 108 152
3 108 105 152
3 152 151 160
3 160 159 161
3 160 161 152
3 123 122 162
3 123 162 163
3 162 164 163
3 164 165 166
3 164 166 163
3 166 123 163
3 167 168 169
3 169 170 171
3 171 165 164
3 171 164 169
3 164 167 169
3 172 154 153
3 153 150 165
3 153 165 172
3 165 171 172
3 171 170 172
3 149 104 126
3 149 126 166
3 126 123 166
3 165 150 149
3 165 149 166
3 136 173 174
3 173 175 174
3 175 176 174
3 174 138 136
3 177 178 179
3 179 180 177
3 180 176 175
3 180 175 177
3 181 168 167
3 181 167 180
3 167 164 176
3 167 176 180
3 180 179 181
3 162 122 138
3 138 174 162
3 174 176 162
3 176 164 162
3 146 109 161
3 146 161 182
3 161 159 183
3 161 183 182
3 183 184 182
3 182 148 146
3 159 158 185
3 185 186 187
3 187 184 183
3 187 183 185
3 183 159 185
3 186 178 177
3 186 177 187
3 177 175 184
3 177 184 187
3 173 136 148
3 148 182 173
3 182 184 173
3 184 175 173
3 154 188 155
3 155 189 157
3 189 155 190
3 155 188 190
3 191 192 193
3 192 194 193
3 189 191 193
3 194 158 193
3 158 157 193
3 157 189 193
3 169 168 195
3 168 196 195
3 195 197 170
3 170 169 195
3 196 198 199
3 196 199 195
3 199 200 197
3 199 197 195
3 201 188 197
3 197 200 201
3 154 172 197
3 172 170 197
3 197 188 154
3 179 178 202
3 178 203 202
3 204 205 202
3 202 203 204
3 206 198 196
3 202 205 206
3 202 206 196
3 168 181 196
3 181 179 202
3 181 202 196
3 185 158 194
3 207 186 185
3 207 185 194
3 208 207 194
3 208 194 209
3 194 192 209
3 203 207 210
3 207 208 210
3 178 186 207
3 207 203 178
3 190 188 211
3 190 211 212
3 213 189 190
3 213 190 212
3 0 7 214
3 214 213 212
3 214 212 0
3 212 211 1
3 212 1 0
3 19 215 216
3 19 216 20
3 216 213 214
3 216 214 20
3 214 7 20
3 215 192 191
3 191 189 213
3 213 216 191
3 216 215 191
3 198 9 217
3 198 217 199
3 217 218 200
3 217 200 199
3 8 4 218
3 218 217 8
3 217 9 8
3 1 211 219
3 1 219 2
3 219 218 2
3 218 4 2
3 211 188 201
3 200 218 219
3 200 219 201
3 219 211 201
3 204 203 220
3 204 220 221
3 221 222 205
3 205 204 221
3 13 12 222
3 222 221 13
3 221 220 14
3 221 14 13
3 9 223 10
3 223 222 10
3 222 12 10
3 205 222 223
3 205 223 206
3 223 9 198
3 223 198 206
3 209 192 215
3 209 215 224
3 225 208 209
3 225 209 224
3 18 17 226
3 226 225 224
3 226 224 18
3 224 215 19
3 224 19 18
3 14 220 227
3 14 227 15
3 227 225 226
3 227 226 15
3 226 17 15
3 220 203 210
3 220 210 227
3 210 208 225
3 210 225 227
3 228 229 230
3 231 28 228
3 231 228 230
3 56 55 230
3 55 63 230
3 63 231 230
3 230 229 56
3 73 35 232
3 35 233 232
3 232 231 63
3 63 73 232
3 233 21 27
3 233 27 232
3 27 28 231
3 27 231 232
3 22 21 233
3 22 233 234
3 24 22 234
3 35 34 234
3 34 40 234
3 40 24 234
3 234 233 35
3 54 53 235
3 53 236 235
3 235 24 40
3 40 54 235
3 236 26 25
3 236 25 235
3 25 24 235
3 32 26 236
3 32 236 237
3 238 33 32
3 238 32 237
3 53 89 237
3 89 92 239
3 89 239 237
3 239 238 237
3 237 236 53
3 92 76 239
3 76 240 238
3 76 238 239
3 240 241 238
3 241 33 238
3 29 241 240
3 29 240 242
3 30 29 242
3 76 75 242
3 75 30 242
3 242 240 76
3 88 56 243
3 56 229 243
3 30 88 243
3 229 228 31
3 229 31 243
3 31 30 243
