OFF
404 789 0
-4.429 12.7615 -6.79604
-4.303 12.4394 -5.79804
-2.897 12.4967 -5.98304
-3.02 12.8274 -6.98804
-1.327 12.455 -6.25704
-1.415 12.7808 -7.22404
-1.573 12.7527 -8.22804
-3.208 12.7971 -8.00704
-4.614 12.7326 -7.78504
0.0279991 12.2533 -6.61604
0.850999 11.9694 -6.94904
1.151 12.1053 -7.62804
0.0339991 12.5528 -7.48304
1.168 12.0753 -8.48604
-0.0320009 12.5333 -8.40104
0.743999 11.8153 -9.21604
0.153999 11.4849 -9.62304
-0.751001 11.6673 -9.75004
-0.371001 12.2251 -9.19304
-2.156 11.7951 -9.69604
-1.843 12.4102 -9.10304
-3.729 11.8212 -9.44804
-5.11 11.7841 -9.12604
-4.845 12.3933 -8.61304
-3.448 12.4477 -8.88104
-3.518 5.42876 -4.16904
-3.51 5.47576 -4.19504
-4.01 5.45056 -4.35504
-4.022 5.40376 -4.32904
-4.331 5.42026 -4.69104
-4.345 5.37366 -4.66704
-3.501 5.59896 -4.24504
-3.486 5.83466 -4.33404
-3.982 5.80716 -4.50104
-3.999 5.57296 -4.40604
-4.297 5.77416 -4.84004
-4.317 5.54176 -4.74304
-4.395 5.74116 -5.28804
-4.242 5.71366 -5.77904
-4.273 5.48466 -5.68404
-4.42 5.51066 -5.19104
-4.291 5.36476 -5.63504
-4.436 5.38996 -5.13904
-4.307 5.31856 -5.61704
-4.327 5.31036 -5.61504
-4.473 5.33566 -5.11004
-4.452 5.34356 -5.11804
-1.557 5.43686 -4.92104
-1.137 5.42876 -5.41004
-1.57 5.44386 -4.93004
-1.142 5.47576 -5.42304
-1.573 5.49086 -4.94704
-2.183 5.49596 -4.54704
-2.184 5.44886 -4.52604
-2.178 5.44196 -4.51104
-1.131 5.59896 -5.45604
-1.103 5.83466 -5.51904
-1.541 5.85116 -5.05104
-1.563 5.61446 -4.98304
-2.156 5.85666 -4.66304
-2.175 5.61966 -4.58804
-2.841 5.85116 -4.40604
-2.857 5.61446 -4.32304
-2.865 5.49086 -4.27804
-2.871 5.43686 -4.23604
-2.869 5.44386 -4.25404
-1.413 5.33566 -6.71904
-1.924 5.31036 -6.88104
-1.932 5.31856 -6.86704
-1.427 5.34356 -6.70604
-1.928 5.36476 -6.87304
-1.427 5.38996 -6.71204
-1.105 5.42026 -6.37204
-1.102 5.37366 -6.36504
-1.908 5.48466 -6.90604
-1.865 5.71366 -6.97404
-1.368 5.74116 -6.80604
-1.408 5.51066 -6.74204
-1.052 5.77416 -6.46304
-1.089 5.54176 -6.40204
-0.952001 5.80716 -6.01104
-0.984001 5.57296 -5.95104
-0.998001 5.45056 -5.92004
-0.994001 5.40376 -5.91104
-3.89 5.29516 -6.10304
-3.875 5.30346 -6.09904
-3.861 5.34966 -6.11304
-3.252 5.34456 -6.51704
-3.263 5.29846 -6.50604
-3.805 5.69716 -6.24804
-3.841 5.46906 -6.15904
-3.192 5.69166 -6.64004
-3.231 5.46386 -6.55804
-2.509 5.69716 -6.90004
-2.551 5.46906 -6.82504
-2.572 5.34966 -6.78904
-2.58 5.29516 -6.79404
-2.58 5.30346 -6.78104
-4.159 7.48626 -4.96204
-3.576 7.53316 -4.71804
-3.76 7.77976 -4.55104
-4.44 7.72296 -4.84204
-4.022 7.97606 -4.28004
-4.811 7.88606 -4.62704
-5.271 7.79026 -5.23904
-4.842 7.65476 -5.35004
-4.506 7.43006 -5.39304
-4.354 8.21596 -3.96004
-4.796 8.66306 -3.63904
-5.639 8.21576 -4.18404
-5.23 8.04896 -4.37004
-6.135 8.00716 -5.01204
-5.73 7.89706 -5.11104
-6.366 7.97116 -6.02604
-6.186 8.16886 -7.25204
-5.567 7.83156 -6.96204
-5.899 7.83706 -6.02304
-5.064 7.66786 -6.78704
-5.381 7.71746 -5.99604
-4.649 7.52986 -6.64704
-4.352 7.32696 -6.50404
-4.582 7.37386 -5.93404
-4.925 7.58666 -5.98204
-1.161 7.56126 -5.38804
-0.590001 7.53316 -5.90404
-0.244001 7.77976 -5.90404
-0.920001 7.81386 -5.30704
0.163999 8.00016 -5.87904
-0.637001 8.04156 -5.18604
-1.729 8.05276 -4.64504
-1.839 7.82526 -4.84304
-1.941 7.57066 -4.98404
0.585999 8.31236 -5.87104
0.974999 8.83476 -5.92004
-0.0730009 8.89416 -5.08304
-0.345001 8.36226 -5.09004
-1.51 8.90006 -4.40704
-1.623 8.36856 -4.46604
-3.124 8.83836 -3.91104
-3.056 8.32116 -4.04104
-2.926 8.03126 -4.31404
-2.791 7.56126 -4.74304
-2.839 7.81386 -4.57104
-0.792001 7.37386 -7.46904
-1.376 7.32696 -7.71704
-1.149 7.52986 -8.03804
-0.465001 7.58666 -7.74204
-0.880001 7.69666 -8.39904
-0.0790009 7.76566 -8.04304
0.393999 7.84836 -7.42604
-0.0580009 7.65476 -7.22104
-0.441001 7.43006 -7.02804
-0.577001 7.94666 -8.78004
-0.246001 8.39886 -9.16004
0.756999 8.49796 -8.67204
0.337999 8.02976 -8.35804
1.333 8.61686 -7.86804
0.872999 8.12956 -7.64204
1.425 8.73566 -6.89904
0.973999 8.22926 -6.76704
0.491999 7.93116 -6.66504
-0.362001 7.48626 -6.47904
0.0289991 7.72296 -6.57504
-3.782 7.29886 -7.02404
-3.975 7.49576 -7.25004
-4.247 7.64186 -7.49604
-3.141 7.63816 -8.05004
-3.062 7.48436 -7.72704
-3.006 7.28946 -7.43704
-4.746 8.25346 -8.17804
-4.561 7.84326 -7.78204
-3.179 8.29816 -8.82104
-3.204 7.86676 -8.41004
-1.618 8.33946 -9.17904
-1.817 7.89676 -8.77004
-1.959 7.65526 -8.37704
-2.16 7.29886 -7.68704
-2.067 7.49576 -8.01204
-5.484 9.37976 -5.27304
-5.385 9.60666 -4.97904
-5.244 10.0238 -5.04204
-5.321 9.89816 -5.53104
-5.133 10.6069 -5.27904
-5.199 10.5165 -5.82804
-5.358 10.4081 -6.46804
-5.483 9.75566 -6.10204
-5.653 9.21146 -5.77704
-5.116 11.1627 -5.66404
-5.165 11.5244 -6.02804
-5.197 11.6232 -6.50204
-5.162 11.1198 -6.19804
-5.309 11.6047 -7.09704
-5.295 11.0605 -6.81804
-5.491 11.4215 -7.59204
-5.666 11.1866 -7.86404
-5.732 10.7775 -7.82204
-5.5 10.9108 -7.37504
-5.83 10.2093 -7.59504
-5.579 10.2997 -7.09204
-5.926 9.66846 -7.19704
-5.987 9.31476 -6.80804
-5.844 9.20796 -6.35804
-5.691 9.70366 -6.70604
1.283 9.68546 -6.06604
0.144999 9.75536 -5.22804
1.401 10.637 -6.30604
0.241999 10.7307 -5.52604
-1.274 10.7875 -4.93404
-1.374 9.77426 -4.56704
1.222 11.4618 -6.63704
0.149999 11.6046 -5.97604
-1.27 11.7358 -5.49504
-4.25 11.726 -4.94504
-2.853 11.763 -5.15404
-4.292 10.7684 -4.27104
-2.894 10.7891 -4.51504
-4.452 9.71386 -3.81304
-3.027 9.73756 -4.08504
0.105999 9.17256 -9.52204
1.149 9.28906 -8.97104
0.347999 10.0755 -9.76404
1.371 10.2191 -9.18304
1.924 10.3878 -8.30604
1.729 9.42896 -8.10104
0.347999 10.9156 -9.78504
1.28 11.1039 -9.23904
1.778 11.3151 -8.44404
1.762 11.3998 -7.51804
1.948 10.5249 -7.29004
1.792 9.56886 -7.07904
-5.951 9.03786 -8.19004
-4.628 9.02606 -8.75204
-5.682 9.99166 -8.83104
-4.346 9.98626 -9.28304
-2.72 9.99596 -9.69204
-2.991 9.06016 -9.29704
-5.395 10.9453 -9.17104
-4.037 10.9594 -9.54804
-2.445 10.949 -9.85904
-0.939001 10.8992 -9.96404
-1.086 10.0134 -9.89304
-1.344 9.10256 -9.59204
-5.555 8.91286 -3.72904
-5.981 8.39076 -4.18604
-5.884 9.06796 -3.86804
-6.2 8.55406 -4.29204
-6.536 8.30746 -5.02004
-6.404 8.15256 -4.98704
-5.971 9.17616 -4.02404
-5.899 9.24666 -4.17304
-6.15 8.78296 -4.55004
-6.237 8.68606 -4.42004
-6.423 8.55516 -5.18904
-6.529 8.44626 -5.09504
-6.663 8.57426 -5.97104
-6.813 8.85156 -6.77904
-6.947 8.76196 -6.77804
-6.786 8.46786 -5.92204
-6.953 8.62936 -6.83404
-6.804 8.32336 -5.91304
-6.755 8.44676 -6.97304
-6.666 8.14556 -5.96804
-5.166 12.344 -5.70404
-5.11 11.6642 -4.86304
-5.601 12.2295 -5.67904
-5.547 11.5901 -4.87404
-5.569 10.7492 -4.25204
-5.142 10.7581 -4.20304
-5.725 12.1149 -5.70004
-5.655 12.0195 -5.74404
-5.61 11.4542 -5.03004
-5.675 11.516 -4.94204
-5.634 10.7151 -4.48304
-5.696 10.7324 -4.35904
-5.729 9.93496 -4.17404
-5.793 9.90536 -4.02804
-5.678 9.85406 -3.88604
-5.283 9.77146 -3.78004
-5.937 11.7222 -8.85404
-5.688 12.3027 -8.38704
-6.333 11.648 -8.63404
-6.1 12.1938 -8.20504
-5.891 12.4961 -7.48004
-5.468 12.6251 -7.61004
-6.42 11.5738 -8.47004
-6.319 11.512 -8.36504
-6.11 11.9944 -7.98504
-6.201 12.085 -8.07004
-5.92 12.2597 -7.34204
-6.002 12.3672 -7.39104
-5.763 12.278 -6.55504
-5.838 12.3879 -6.55904
-5.72 12.5197 -6.59204
-5.289 12.6516 -6.66804
-6.659 9.13296 -7.84404
-6.931 9.25306 -7.64904
-6.788 10.0545 -8.27404
-6.45 10.0196 -8.50204
-6.816 9.39806 -7.49604
-6.949 9.33976 -7.53904
-6.709 10.0997 -8.04704
-6.835 10.0811 -8.12604
-6.531 10.8424 -8.36204
-6.645 10.8658 -8.46204
-6.576 10.8939 -8.63004
-6.2 10.9219 -8.86504
-5.754 9.28896 -4.29304
-5.995 8.84116 -4.66104
-5.587 9.34616 -4.44704
-5.813 8.91926 -4.80204
-6.058 8.70806 -5.39204
-6.258 8.62046 -5.28004
-5.454 9.46136 -4.69504
-5.646 9.07616 -5.01704
-5.851 8.88366 -5.54904
-6.18 9.12636 -6.84404
-6.051 8.89796 -6.18804
-6.414 8.97846 -6.84604
-6.277 8.72436 -6.10904
-6.63 8.90526 -6.81304
-6.487 8.63816 -6.03504
-5.506 11.9622 -5.79004
-5.466 11.4172 -5.10504
-5.34 11.8839 -5.84904
-5.3 11.3663 -5.20204
-5.325 10.6905 -4.71104
-5.491 10.7048 -4.58204
-5.216 11.7252 -5.93604
-5.173 11.2632 -5.36004
-5.19 10.6614 -4.92504
-5.293 10.0253 -4.68404
-5.422 9.97676 -4.43804
-5.587 9.95276 -4.28904
-6.153 11.4749 -8.32304
-5.95 11.94 -7.95304
-5.962 11.4237 -8.26104
-5.763 11.866 -7.90604
-5.581 12.108 -7.31304
-5.764 12.1952 -7.33004
-5.786 11.3196 -8.09504
-5.595 11.7165 -7.77704
-5.417 11.9325 -7.24804
-5.294 11.9418 -6.60004
-5.437 12.1225 -6.59004
-5.611 12.2121 -6.57004
-6.632 9.43306 -7.50004
-6.413 9.48056 -7.49704
-6.314 10.1256 -7.99404
-6.53 10.1109 -8.02804
-6.172 9.57656 -7.42804
-6.077 10.1549 -7.87304
-5.948 10.7674 -8.11104
-6.154 10.8085 -8.26904
-6.358 10.8284 -8.32504
-2.167 5.43876 -4.49004
-2.875 5.43366 -4.20904
-3.461 6.21936 -4.48004
-3.954 6.18936 -4.65404
-3.451 6.67956 -4.62904
-3.951 6.64576 -4.81704
-4.258 6.60516 -5.17304
-4.263 6.15336 -4.99804
-3.481 7.14196 -4.72604
-4.008 7.10266 -4.93604
-4.325 7.05546 -5.31904
-4.205 6.96896 -6.32104
-4.402 7.00826 -5.80504
-4.166 6.53076 -6.12204
-4.341 6.56456 -5.63004
-4.193 6.08736 -5.93304
-4.353 6.11736 -5.44604
-3.748 6.06936 -6.39404
-3.702 6.51046 -6.58104
-3.061 6.50376 -6.95604
-3.128 6.06336 -6.77504
-3.702 6.94536 -6.79604
-3.013 6.93756 -7.17904
-1.557 6.96896 -7.45304
-2.258 6.94536 -7.41504
-1.695 6.53076 -7.24404
-2.355 6.51046 -7.19404
-1.796 6.08736 -7.08504
-2.441 6.06936 -7.02304
-1.302 6.11736 -6.90904
-1.194 6.56456 -7.05404
-0.885001 6.60516 -6.69304
-0.991001 6.15336 -6.56204
-1.029 7.00826 -7.24004
-0.709001 7.05546 -6.85004
-0.825001 7.14196 -5.83904
-0.630001 7.10266 -6.35904
-0.974001 6.67956 -5.73604
-0.800001 6.64576 -6.23104
-1.059 6.21936 -5.62104
-0.899001 6.18936 -6.11004
-1.504 6.23736 -5.16204
-1.439 6.69986 -5.28004
-2.082 6.70656 -4.91004
-2.126 6.24336 -4.78504
-1.329 7.16556 -5.36704
-2.021 7.17336 -4.99104
-2.779 7.16556 -4.76104
-2.79 6.69986 -4.67604
-2.815 6.23736 -4.54104
3 0 1 2
3 0 2 3
3 2 4 5
3 2 5 3
3 5 6 7
3 5 7 3
3 7 8 0
3 7 0 3
3 9 10 11
3 9 11 12
3 11 13 14
3 11 14 12
3 14 6 5
3 14 5 12
3 5 4 9
3 5 9 12
3 15 16 17
3 15 17 18
3 17 19 20
3 17 20 18
3 20 6 14
3 20 14 18
3 14 13 15
3 14 15 18
3 21 22 23
3 21 23 24
3 23 8 7
3 23 7 24
3 7 6 20
3 7 20 24
3 20 19 21
3 20 21 24
3 25 26 27
3 25 27 28
3 27 29 30
3 27 30 28
3 31 32 33
3 31 33 34
3 33 35 36
3 33 36 34
3 36 29 27
3 36 27 34
3 27 26 31
3 27 31 34
3 37 38 39
3 37 39 40
3 39 41 42
3 39 42 40
3 42 29 36
3 42 36 40
3 36 35 37
3 36 37 40
3 43 44 45
3 43 45 46
3 45 30 46
3 30 29 42
3 30 42 46
3 42 41 43
3 42 43 46
3 47 48 49
3 48 50 51
3 48 51 49
3 51 52 53
3 51 53 49
3 53 54 47
3 53 47 49
3 55 56 57
3 55 57 58
3 57 59 60
3 57 60 58
3 60 52 51
3 60 51 58
3 51 50 55
3 51 55 58
3 61 32 31
3 61 31 62
3 31 26 63
3 31 63 62
3 63 52 60
3 63 60 62
3 60 59 61
3 60 61 62
3 25 64 65
3 64 54 53
3 64 53 65
3 53 52 63
3 53 63 65
3 63 26 25
3 63 25 65
3 66 67 68
3 66 68 69
3 68 70 71
3 68 71 69
3 71 72 73
3 71 73 69
3 73 66 69
3 74 75 76
3 74 76 77
3 76 78 79
3 76 79 77
3 79 72 71
3 79 71 77
3 71 70 74
3 71 74 77
3 80 56 55
3 80 55 81
3 55 50 82
3 55 82 81
3 82 72 79
3 82 79 81
3 79 78 80
3 79 80 81
3 73 72 82
3 73 82 83
3 82 50 48
3 82 48 83
3 84 44 43
3 84 43 85
3 43 41 86
3 43 86 85
3 86 87 88
3 86 88 85
3 88 84 85
3 39 38 89
3 39 89 90
3 89 91 92
3 89 92 90
3 92 87 86
3 92 86 90
3 86 41 39
3 86 39 90
3 93 75 74
3 93 74 94
3 74 70 95
3 74 95 94
3 95 87 92
3 95 92 94
3 92 91 93
3 92 93 94
3 68 67 96
3 68 96 97
3 96 88 97
3 88 87 95
3 88 95 97
3 95 70 68
3 95 68 97
3 98 99 100
3 98 100 101
3 100 102 103
3 100 103 101
3 103 104 105
3 103 105 101
3 105 106 98
3 105 98 101
3 107 108 109
3 107 109 110
3 109 111 112
3 109 112 110
3 112 104 103
3 112 103 110
3 103 102 107
3 103 107 110
3 113 114 115
3 113 115 116
3 115 117 118
3 115 118 116
3 118 104 112
3 118 112 116
3 112 111 113
3 112 113 116
3 119 120 121
3 119 121 122
3 121 106 105
3 121 105 122
3 105 104 118
3 105 118 122
3 118 117 119
3 118 119 122
3 123 124 125
3 123 125 126
3 125 127 128
3 125 128 126
3 128 129 130
3 128 130 126
3 130 131 123
3 130 123 126
3 132 133 134
3 132 134 135
3 134 136 137
3 134 137 135
3 137 129 128
3 137 128 135
3 128 127 132
3 128 132 135
3 138 108 107
3 138 107 139
3 107 102 140
3 107 140 139
3 140 129 137
3 140 137 139
3 137 136 138
3 137 138 139
3 100 99 141
3 100 141 142
3 141 131 130
3 141 130 142
3 130 129 140
3 130 140 142
3 140 102 100
3 140 100 142
3 143 144 145
3 143 145 146
3 145 147 148
3 145 148 146
3 148 149 150
3 148 150 146
3 150 151 143
3 150 143 146
3 152 153 154
3 152 154 155
3 154 156 157
3 154 157 155
3 157 149 148
3 157 148 155
3 148 147 152
3 148 152 155
3 158 133 132
3 158 132 159
3 132 127 160
3 132 160 159
3 160 149 157
3 160 157 159
3 157 156 158
3 157 158 159
3 125 124 161
3 125 161 162
3 161 151 150
3 161 150 162
3 150 149 160
3 150 160 162
3 160 127 125
3 160 125 162
3 163 120 119
3 163 119 164
3 119 117 165
3 119 165 164
3 165 166 167
3 165 167 164
3 167 168 163
3 167 163 164
3 115 114 169
3 115 169 170
3 169 171 172
3 169 172 170
3 172 166 165
3 172 165 170
3 165 117 115
3 165 115 170
3 173 153 152
3 173 152 174
3 152 147 175
3 152 175 174
3 175 166 172
3 175 172 174
3 172 171 173
3 172 173 174
3 145 144 176
3 145 176 177
3 176 168 167
3 176 167 177
3 167 166 175
3 167 175 177
3 175 147 145
3 175 145 177
3 178 179 180
3 178 180 181
3 180 182 183
3 180 183 181
3 183 184 185
3 183 185 181
3 185 186 178
3 185 178 181
3 187 188 189
3 187 189 190
3 189 191 192
3 189 192 190
3 192 184 183
3 192 183 190
3 183 182 187
3 183 187 190
3 193 194 195
3 193 195 196
3 195 197 198
3 195 198 196
3 198 184 192
3 198 192 196
3 192 191 193
3 192 193 196
3 199 200 201
3 199 201 202
3 201 186 185
3 201 185 202
3 185 184 198
3 185 198 202
3 198 197 199
3 198 199 202
3 134 133 203
3 134 203 204
3 203 205 206
3 203 206 204
3 206 207 208
3 206 208 204
3 208 136 134
3 208 134 204
3 209 10 9
3 209 9 210
3 9 4 211
3 9 211 210
3 211 207 206
3 211 206 210
3 206 205 209
3 206 209 210
3 2 1 212
3 2 212 213
3 212 214 215
3 212 215 213
3 215 207 211
3 215 211 213
3 211 4 2
3 211 2 213
3 216 108 138
3 216 138 217
3 138 136 208
3 138 208 217
3 208 207 215
3 208 215 217
3 215 214 216
3 215 216 217
3 154 153 218
3 154 218 219
3 218 220 221
3 218 221 219
3 221 222 223
3 221 223 219
3 223 156 154
3 223 154 219
3 224 16 15
3 224 15 225
3 15 13 226
3 15 226 225
3 226 222 221
3 226 221 225
3 221 220 224
3 221 224 225
3 11 10 209
3 11 209 227
3 209 205 228
3 209 228 227
3 228 222 226
3 228 226 227
3 226 13 11
3 226 11 227
3 203 133 158
3 203 158 229
3 158 156 223
3 158 223 229
3 223 222 228
3 223 228 229
3 228 205 203
3 228 203 229
3 169 114 230
3 169 230 231
3 230 232 233
3 230 233 231
3 233 234 235
3 233 235 231
3 235 171 169
3 235 169 231
3 236 22 21
3 236 21 237
3 21 19 238
3 21 238 237
3 238 234 233
3 238 233 237
3 233 232 236
3 233 236 237
3 17 16 224
3 17 224 239
3 224 220 240
3 224 240 239
3 240 234 238
3 240 238 239
3 238 19 17
3 238 17 239
3 218 153 173
3 218 173 241
3 173 171 235
3 173 235 241
3 235 234 240
3 235 240 241
3 240 220 218
3 240 218 241
3 109 108 242
3 109 242 243
3 242 244 245
3 242 245 243
3 245 246 247
3 245 247 243
3 247 111 109
3 247 109 243
3 248 249 250
3 248 250 251
3 250 252 253
3 250 253 251
3 253 246 245
3 253 245 251
3 245 244 248
3 245 248 251
3 254 255 256
3 254 256 257
3 256 258 259
3 256 259 257
3 259 246 253
3 259 253 257
3 253 252 254
3 253 254 257
3 260 114 113
3 260 113 261
3 113 111 247
3 113 247 261
3 247 246 259
3 247 259 261
3 259 258 260
3 259 260 261
3 212 1 262
3 212 262 263
3 262 264 265
3 262 265 263
3 265 266 267
3 265 267 263
3 267 214 212
3 267 212 263
3 268 269 270
3 268 270 271
3 270 272 273
3 270 273 271
3 273 266 265
3 273 265 271
3 265 264 268
3 265 268 271
3 274 249 248
3 274 248 275
3 248 244 276
3 248 276 275
3 276 266 273
3 276 273 275
3 273 272 274
3 273 274 275
3 242 108 216
3 242 216 277
3 216 214 267
3 216 267 277
3 267 266 276
3 267 276 277
3 276 244 242
3 276 242 277
3 23 22 278
3 23 278 279
3 278 280 281
3 278 281 279
3 281 282 283
3 281 283 279
3 283 8 23
3 283 23 279
3 284 285 286
3 284 286 287
3 286 288 289
3 286 289 287
3 289 282 281
3 289 281 287
3 281 280 284
3 281 284 287
3 290 269 268
3 290 268 291
3 268 264 292
3 268 292 291
3 292 282 289
3 292 289 291
3 289 288 290
3 289 290 291
3 262 1 0
3 262 0 293
3 0 8 283
3 0 283 293
3 283 282 292
3 283 292 293
3 292 264 262
3 292 262 293
3 230 114 260
3 230 260 294
3 260 258 295
3 260 295 294
3 295 296 297
3 295 297 294
3 297 232 230
3 297 230 294
3 256 255 298
3 256 298 299
3 298 300 301
3 298 301 299
3 301 296 295
3 301 295 299
3 295 258 256
3 295 256 299
3 302 285 284
3 302 284 303
3 284 280 304
3 284 304 303
3 304 296 301
3 304 301 303
3 301 300 302
3 301 302 303
3 278 22 236
3 278 236 305
3 236 232 297
3 236 297 305
3 297 296 304
3 297 304 305
3 304 280 278
3 304 278 305
3 250 249 306
3 250 306 307
3 306 308 309
3 306 309 307
3 309 310 311
3 309 311 307
3 311 252 250
3 311 250 307
3 312 179 178
3 312 178 313
3 178 186 314
3 178 314 313
3 314 310 309
3 314 309 313
3 309 308 312
3 309 312 313
3 201 200 315
3 201 315 316
3 315 317 318
3 315 318 316
3 318 310 314
3 318 314 316
3 314 186 201
3 314 201 316
3 319 255 254
3 319 254 320
3 254 252 311
3 254 311 320
3 311 310 318
3 311 318 320
3 318 317 319
3 318 319 320
3 270 269 321
3 270 321 322
3 321 323 324
3 321 324 322
3 324 325 326
3 324 326 322
3 326 272 270
3 326 270 322
3 327 188 187
3 327 187 328
3 187 182 329
3 187 329 328
3 329 325 324
3 329 324 328
3 324 323 327
3 324 327 328
3 180 179 312
3 180 312 330
3 312 308 331
3 312 331 330
3 331 325 329
3 331 329 330
3 329 182 180
3 329 180 330
3 306 249 274
3 306 274 332
3 274 272 326
3 274 326 332
3 326 325 331
3 326 331 332
3 331 308 306
3 331 306 332
3 286 285 333
3 286 333 334
3 333 335 336
3 333 336 334
3 336 337 338
3 336 338 334
3 338 288 286
3 338 286 334
3 339 194 193
3 339 193 340
3 193 191 341
3 193 341 340
3 341 337 336
3 341 336 340
3 336 335 339
3 336 339 340
3 189 188 327
3 189 327 342
3 327 323 343
3 327 343 342
3 343 337 341
3 343 341 342
3 341 191 189
3 341 189 342
3 321 269 290
3 321 290 344
3 290 288 338
3 290 338 344
3 338 337 343
3 338 343 344
3 343 323 321
3 343 321 344
3 298 255 319
3 298 319 345
3 319 317 346
3 319 346 345
3 346 347 348
3 346 348 345
3 348 300 298
3 348 298 345
3 315 200 199
3 315 199 349
3 199 197 350
3 199 350 349
3 350 347 346
3 350 346 349
3 346 317 315
3 346 315 349
3 195 194 339
3 195 339 351
3 339 335 352
3 339 352 351
3 352 347 350
3 352 350 351
3 350 197 195
3 350 195 351
3 333 285 302
3 333 302 353
3 302 300 348
3 302 348 353
3 348 347 352
3 348 352 353
3 352 335 333
3 352 333 353
3 47 54 354
3 354 54 64
3 354 64 355
3 33 32 356
3 33 356 357
3 356 358 359
3 356 359 357
3 359 360 361
3 359 361 357
3 361 35 33
3 361 33 357
3 362 99 98
3 362 98 363
3 98 106 364
3 98 364 363
3 364 360 359
3 364 359 363
3 359 358 362
3 359 362 363
3 121 120 365
3 121 365 366
3 365 367 368
3 365 368 366
3 368 360 364
3 368 364 366
3 364 106 121
3 364 121 366
3 369 38 37
3 369 37 370
3 37 35 361
3 37 361 370
3 361 360 368
3 361 368 370
3 368 367 369
3 368 369 370
3 89 38 369
3 89 369 371
3 369 367 372
3 369 372 371
3 372 373 374
3 372 374 371
3 374 91 89
3 374 89 371
3 365 120 163
3 365 163 375
3 163 168 376
3 163 376 375
3 376 373 372
3 376 372 375
3 372 367 365
3 372 365 375
3 176 144 377
3 176 377 378
3 377 379 380
3 377 380 378
3 380 373 376
3 380 376 378
3 376 168 176
3 376 176 378
3 381 75 93
3 381 93 382
3 93 91 374
3 93 374 382
3 374 373 380
3 374 380 382
3 380 379 381
3 380 381 382
3 76 75 381
3 76 381 383
3 381 379 384
3 381 384 383
3 384 385 386
3 384 386 383
3 386 78 76
3 386 76 383
3 377 144 143
3 377 143 387
3 143 151 388
3 143 388 387
3 388 385 384
3 388 384 387
3 384 379 377
3 384 377 387
3 161 124 389
3 161 389 390
3 389 391 392
3 389 392 390
3 392 385 388
3 392 388 390
3 388 151 161
3 388 161 390
3 393 56 80
3 393 80 394
3 80 78 386
3 80 386 394
3 386 385 392
3 386 392 394
3 392 391 393
3 392 393 394
3 57 56 393
3 57 393 395
3 393 391 396
3 393 396 395
3 396 397 398
3 396 398 395
3 398 59 57
3 398 57 395
3 389 124 123
3 389 123 399
3 123 131 400
3 123 400 399
3 400 397 396
3 400 396 399
3 396 391 389
3 396 389 399
3 141 99 362
3 141 362 401
3 362 358 402
3 362 402 401
3 402 397 400
3 402 400 401
3 400 131 141
3 400 141 401
3 356 32 61
3 356 61 403
3 61 59 398
3 61 398 403
3 398 397 402
3 398 402 403
3 402 358 356
3 402 356 403
