OFF
553 1092 0
-1.97007 2.11065 -31.2959
-1.96107 2.00235 -31.2257
-2.05907 1.99595 -31.2919
-2.07207 2.10355 -31.364
-1.86607 2.11195 -31.0915
-1.63707 2.63555 -30.7021
-1.71207 2.05685 -30.6566
-1.86007 2.00435 -31.027
-1.66807 1.95985 -30.4842
-1.67607 1.94955 -30.4838
-1.80207 1.96035 -30.8437
-1.84607 1.93855 -30.6768
-1.89607 1.95745 -31.0254
-1.99107 1.95085 -31.086
2.22493 1.01035 -18.16
2.11593 1.33135 -18.1724
1.68493 0.595752 -19.5397
0.94093 0.450752 -20.7607
1.01693 0.223852 -20.7519
1.71693 0.500652 -19.536
0.23993 0.231152 -21.8604
-0.43507 0.377552 -22.9066
-0.33607 0.0842517 -22.8958
0.31693 0.00675175 -21.8511
1.04393 0.149652 -20.749
1.73293 0.471852 -19.5352
2.25793 0.925852 -18.1567
2.25093 0.933852 -18.1571
3.16993 2.11565 -18.1982
3.17893 2.11235 -18.1982
2.55893 1.54985 -19.5722
1.83493 1.17125 -20.7844
1.77693 1.16745 -20.7847
2.53193 1.54845 -19.5725
3.07893 2.10875 -18.1983
0.44293 1.08465 -22.9302
0.38593 1.08095 -22.9302
1.09693 1.00805 -21.8868
0.95893 0.996452 -21.8866
1.23693 1.11925 -20.7847
2.41793 1.53865 -19.5725
3.01493 1.00045 -18.1571
2.41093 0.534352 -19.535
2.41793 0.553052 -19.5356
1.69293 0.207852 -20.7491
1.70693 0.285552 -20.7519
3.02493 1.05395 -18.159
0.30293 0.139052 -22.8953
0.31693 0.215352 -22.898
0.95593 0.0612517 -21.8516
0.35093 0.447952 -22.9066
0.98093 0.226852 -21.8578
1.74193 0.522552 -20.7607
2.44193 0.710752 -19.5415
3.04393 1.18825 -18.164
2.97393 0.987952 -18.1567
2.61093 0.955352 -18.1567
2.38593 0.530152 -19.5348
1.24893 0.167652 -20.7491
-0.30907 0.0839517 -22.8952
3.00793 0.993052 -18.1568
-0.83507 0.544052 -23.9366
-1.21207 1.22185 -24.9111
-1.11007 0.920052 -24.8993
-0.79707 0.428352 -23.9322
-1.52007 2.02395 -26.3812
-1.31907 1.44285 -25.7348
-1.41407 1.72245 -25.7457
-1.45807 1.84475 -26.3742
-0.0160698 1.43195 -23.966
-0.52607 3.04625 -26.4161
-1.82607 2.93015 -26.4163
-0.47607 2.51695 -25.7721
-1.42207 1.84535 -24.935
-0.31707 1.94415 -24.935
-0.53807 1.38625 -23.967
-0.45907 0.978452 -24.8995
-0.43307 1.13855 -24.9054
-0.15707 0.485652 -23.9324
-0.62607 1.49555 -25.7332
-0.69407 1.91275 -26.3743
-0.61607 2.43555 -26.3935
-0.97307 1.46405 -25.7345
-1.58007 2.02895 -26.7562
-2.20307 3.53185 -27.0697
-1.70307 2.05375 -27.0125
-2.18907 2.29155 -27.6977
-1.85207 1.98755 -27.2762
-2.02207 2.48535 -27.2962
-2.05307 1.89565 -27.6826
-0.45007 3.95835 -27.7546
-0.62307 3.94595 -27.7543
-0.40407 3.85855 -27.3422
-0.43207 3.68995 -27.0694
-0.49407 3.42585 -26.802
-0.73607 2.01415 -27.6826
-0.71807 2.11725 -27.6862
-0.65807 2.09275 -27.2765
-0.57607 3.07055 -27.7214
-0.68807 2.10875 -26.756
-0.83907 1.99955 -27.6823
-2.73207 2.09635 -29.1856
-2.34107 1.87565 -28.363
-2.49607 2.33135 -28.3805
-3.05307 2.16365 -30.0089
-3.34507 2.32255 -30.6961
-3.20307 1.92335 -30.6566
-2.94407 1.86825 -29.971
-3.11007 1.83075 -30.4842
-2.87607 1.81805 -29.8366
-2.63207 1.83125 -29.1522
-2.32207 1.84075 -28.3616
-0.63407 4.01375 -28.4372
-0.69907 4.01895 -28.4376
-0.90407 4.05505 -29.2296
-1.02207 4.04735 -29.2528
-1.13107 4.06445 -29.9148
-1.37307 4.06675 -30.562
-1.23607 4.06475 -30.0474
-1.61207 4.05425 -30.7551
-1.36807 4.05445 -30.074
-2.02607 3.95775 -29.2562
-0.81707 4.00895 -28.4376
-0.94607 1.96395 -28.3616
-0.92907 2.00225 -28.363
-1.19507 1.96005 -29.1522
-1.18707 2.05715 -29.179
-1.43907 1.94685 -29.8366
-1.47307 1.99995 -29.971
-1.43607 2.30855 -30.0089
-1.12607 2.47045 -29.1975
-0.88007 2.32175 -28.3748
-1.31807 1.93035 -29.178
-0.97507 1.95835 -28.3615
-1.04507 1.95115 -28.3615
-1.52207 1.93615 -29.9688
-1.60407 1.92895 -29.9953
-1.20707 1.94325 -29.1516
3.82693 3.61615 -14.9129
3.79093 3.61455 -14.9131
3.97693 4.32825 -13.2118
4.02093 4.32905 -13.2111
4.17093 4.87035 -11.6111
4.21793 4.86895 -11.6107
3.57893 2.83785 -16.61
3.56893 2.84135 -16.6101
3.53793 2.83975 -16.6102
3.32293 2.82085 -16.6102
3.27693 3.57345 -14.9155
3.70393 3.60795 -14.9135
3.69093 4.31205 -13.2166
3.52693 4.85885 -11.6355
4.06093 4.86885 -11.6153
2.52893 2.98665 -11.735
2.40193 3.47915 -11.7234
2.47993 2.78755 -13.2301
2.42493 2.48575 -14.8913
2.54293 2.12405 -14.8804
2.55593 2.53765 -13.2276
2.55493 2.88565 -11.7374
2.43393 1.67795 -16.5704
2.47293 1.56045 -16.5659
2.50393 1.47175 -16.5625
2.51093 1.46235 -16.563
2.57793 2.01955 -14.8773
2.57793 2.48915 -13.2269
2.57793 2.82935 -11.738
2.56693 2.84425 -11.7383
2.56793 2.50205 -13.2272
3.99693 2.91365 -11.6409
3.61693 2.89005 -11.667
3.62493 2.56565 -13.192
3.29193 2.06595 -14.8697
3.54993 2.08805 -14.8671
3.60293 2.09335 -14.8665
3.80793 2.58045 -13.1859
4.07393 2.91945 -11.6356
3.23593 1.52485 -16.562
3.36293 1.53685 -16.562
3.38893 1.54885 -16.5628
3.38193 1.54035 -16.5621
3.63093 2.10215 -14.8665
3.62493 2.09735 -14.8664
3.83793 2.58575 -13.1842
4.11793 2.93655 -11.6335
4.10593 2.92425 -11.6334
3.84593 2.59925 -13.1849
3.63393 2.10985 -14.8667
3.63993 2.14145 -14.8676
3.85093 2.63545 -13.1854
4.12993 3.07715 -11.6312
3.39493 1.57815 -16.5635
3.42293 1.76665 -16.5704
3.67093 2.36145 -14.8744
3.65093 2.21825 -14.87
3.87893 2.88815 -13.1892
4.13993 3.26215 -11.6283
3.33893 2.57365 -7.95742
3.28793 2.70515 -8.09322
3.29193 2.64205 -8.10572
3.01793 2.89955 -8.88562
3.17793 2.92735 -8.36642
3.27793 3.14575 -8.00152
3.32993 3.58495 -7.73642
6.35493 2.57395 -7.28692
6.09493 2.62355 -7.50482
6.22793 2.62805 -7.47472
5.49593 2.85775 -8.44403
6.46093 2.54715 -7.19762
6.21093 2.54605 -7.25842
5.94693 2.89765 -7.80002
5.49493 3.25145 -8.37412
6.13293 3.02785 -7.38362
6.33493 2.76185 -7.23552
6.30893 2.64505 -7.36452
5.55693 2.92625 -8.42023
6.32093 2.95665 -7.10852
6.22393 3.29985 -7.00922
5.55293 2.86265 -8.43232
5.98493 2.73485 -7.83192
5.47793 4.95885 -6.99142
5.44493 4.96685 -6.79482
5.66293 4.89365 -6.67052
5.44793 4.97485 -7.19342
5.20593 5.05455 -7.43622
4.73193 5.19425 -8.15392
5.14493 5.06415 -7.06322
5.26193 5.03525 -6.75652
5.68293 4.90455 -6.63562
2.68093 2.95425 -10.5362
2.65993 3.01825 -10.533
2.84993 2.92945 -9.59732
2.83793 2.94865 -9.59632
2.81093 3.12915 -9.57533
3.03593 2.82125 -8.89462
2.98493 3.29925 -8.82183
2.72593 3.75325 -9.50132
2.59493 3.34775 -10.5097
4.53993 3.03695 -10.3267
5.05593 3.00635 -9.26052
5.04293 2.99195 -9.26172
4.94793 2.98565 -9.28062
4.49693 3.03155 -10.3314
5.12993 2.85055 -8.51162
4.34093 2.96735 -9.36973
4.23393 3.01875 -10.362
4.54693 3.39865 -10.3055
4.98793 3.70355 -9.18462
5.04493 3.16515 -9.24082
5.05593 3.05465 -9.25233
4.55093 3.09655 -10.3218
5.56293 2.87955 -8.42782
4.54893 3.05315 -10.3245
4.81293 5.18035 -9.03802
4.64593 5.20335 -9.05482
5.06793 5.12565 -8.10222
5.12193 5.11295 -8.09443
4.50993 5.11885 -10.2137
4.49393 5.12635 -10.2126
4.44693 5.13025 -10.2159
4.11793 5.14585 -10.2395
4.07193 5.27355 -9.11942
3.56093 2.56925 -7.90732
3.36193 2.61435 -8.09653
3.50493 2.61335 -8.06582
3.30693 2.61855 -8.10752
2.68393 2.83175 -11.7311
3.05993 2.85525 -11.7053
2.97393 2.96235 -10.5027
3.54093 2.94425 -9.49222
2.94093 2.92665 -9.58012
2.71993 2.95215 -10.5326
2.60893 2.82815 -11.7362
3.08693 2.81795 -8.88742
3.44493 2.82255 -8.82183
2.78193 2.50125 -13.2201
2.60293 2.48845 -13.2261
2.60793 2.00815 -14.8766
2.65893 2.01175 -14.8761
2.91393 2.03365 -14.8735
2.58693 2.00855 -14.8769
2.29093 0.926852 -18.1567
2.52893 1.46215 -16.562
2.61293 1.46895 -16.562
1.92293 0.488652 -19.5349
0.33793 0.00605175 -21.8517
-1.30007 1.43535 -25.7345
-1.95707 1.89935 -27.6823
-1.76607 1.99325 -27.2769
-2.29507 1.84015 -28.3615
-2.22707 1.84525 -28.3615
-2.53307 1.82155 -29.178
-2.62007 1.81665 -29.1516
-3.10307 1.82165 -30.4838
-2.89107 1.81355 -29.9688
-3.10107 1.82555 -30.6526
-2.83007 1.81905 -29.9953
-3.37007 1.97725 -31.0915
-3.41407 1.98125 -31.2959
-3.35707 1.87735 -31.2257
-3.31407 1.87415 -31.027
-3.31007 1.88385 -31.2919
-3.36307 1.98795 -31.364
-3.22407 1.84045 -31.0858
-3.27207 1.83425 -31.0254
-3.23407 1.83215 -30.8437
-2.82507 3.82905 -28.4376
-3.20307 3.85195 -29.2528
-3.68907 3.86815 -30.7551
-3.55607 3.85695 -30.0474
-3.24207 3.88655 -30.074
-3.90607 3.84725 -30.9051
-3.58007 3.84195 -29.9676
-3.29807 3.84065 -29.2296
-2.68107 3.75885 -27.7546
-2.52207 3.77585 -27.7543
-2.98307 3.81265 -28.4376
-2.00607 3.29215 -26.8046
-1.57707 3.33135 -26.8046
-2.42507 3.67765 -27.3422
-0.64007 0.989052 -22.9301
-1.10307 1.33515 -23.9672
1.95193 2.00765 -18.1983
2.25793 2.03525 -18.1983
1.53593 1.45965 -19.5725
0.75693 1.07605 -20.7847
1.42593 1.44945 -19.5725
0.0289302 0.912952 -21.8866
0.0129302 0.907752 -21.8866
0.73193 1.07265 -20.7845
1.40393 1.44645 -19.5723
1.89293 1.99755 -18.198
1.89793 2.00165 -18.1982
2.21193 4.83425 -11.6854
2.74193 4.84415 -11.6652
2.37793 4.23535 -13.2385
2.64993 3.52295 -14.9185
2.22693 3.48875 -14.9205
2.14293 3.48155 -14.9209
2.09993 4.21855 -13.2431
2.10693 4.83165 -11.6894
2.33193 2.73205 -16.6102
2.12193 2.71285 -16.6102
2.08893 2.70425 -16.61
2.09393 2.70925 -16.6101
2.10493 3.47035 -14.9209
2.11093 3.47775 -14.921
2.05793 4.21165 -13.2438
2.05893 4.82205 -11.6923
2.06693 4.82925 -11.691
2.06293 4.21495 -13.2437
3.18393 5.50665 -8.39582
3.23193 5.37635 -9.21472
2.66493 5.44575 -9.27892
2.85493 5.57215 -8.44722
3.28693 5.64635 -7.46442
3.23493 5.58855 -7.81632
2.60193 5.21445 -10.3495
2.27993 5.22855 -10.3724
2.23493 5.22845 -10.3759
2.50793 5.46245 -9.29532
2.79993 5.57175 -8.46272
3.31293 5.67615 -7.29122
3.61193 5.54505 -7.39392
3.48193 5.62745 -7.24232
3.33893 5.69805 -7.20462
5.08393 2.70525 -8.02242
4.75893 2.61805 -7.79432
4.28593 2.83655 -8.66702
4.07393 2.69705 -8.22983
3.60393 2.99065 -10.4326
3.20293 2.53335 -13.2061
2.94393 1.49875 -16.562
-0.66007 2.14715 -27.0125
-1.64607 2.41205 -25.772
3.03393 4.27365 -13.2275
2.82693 2.77635 -16.6102
4.63593 5.20895 -7.54622
3.95593 5.35075 -8.27493
3.79893 5.43565 -7.70742
3.35893 5.18025 -10.2945
4.48993 5.30165 -6.93602
4.87693 5.15795 -6.92422
4.37593 5.30515 -7.23002
4.04393 5.43825 -7.11422
3.32393 5.72025 -7.18912
4.37593 5.42855 -6.89672
5.73993 4.95425 -6.57592
5.70293 4.91845 -6.61312
3.29793 5.75235 -7.17842
3.07393 5.42275 -7.88952
2.83493 5.13075 -8.52872
3.23893 5.16475 -7.58082
3.32093 4.70545 -7.49322
3.31393 5.46025 -7.32942
3.23193 5.59185 -7.49162
2.80393 5.51815 -8.46653
3.33893 5.18255 -7.31832
2.08993 4.68695 -11.6948
2.21593 4.20085 -11.7063
2.29693 4.85765 -10.4029
2.60293 4.66775 -9.39292
2.51893 5.28375 -9.31992
2.23493 5.17715 -10.3803
2.06593 4.78325 -11.6925
2.49893 5.45185 -9.29962
2.22893 5.21865 -10.3772
2.13593 3.93255 -13.2412
2.08793 4.09175 -13.2427
2.06393 4.17485 -13.2435
2.11193 3.44325 -14.9201
2.13393 3.37255 -14.9179
2.17893 3.23705 -14.9139
2.05593 4.20655 -13.2438
1.90693 1.95045 -18.1963
2.09493 2.68005 -16.609
2.00393 1.66315 -18.1852
2.15393 2.50495 -16.6023
1.47593 1.21385 -19.5635
1.40093 1.43615 -19.5722
0.75193 1.00735 -20.7821
0.85593 0.700352 -20.7703
-0.62007 0.923752 -22.9276
0.0169302 0.889752 -21.8858
-0.54607 0.703952 -22.9192
0.16093 0.463352 -21.8694
-0.92507 0.805852 -23.9466
-1.32407 1.55465 -24.9239
-1.57607 2.20075 -25.764
-1.85107 2.82965 -26.7868
-2.65507 3.67165 -27.7509
-2.98107 3.76635 -28.4358
-2.91907 3.58045 -28.4287
-3.28907 3.74485 -29.2491
-3.04607 3.02165 -29.2246
-3.30707 3.83065 -29.2292
-3.82107 3.76015 -30.7274
-3.59707 3.80535 -30.0457
-3.69807 3.36875 -30.7364
-3.51107 3.51895 -30.0611
-3.95207 3.71395 -31.1584
-3.96307 3.81175 -31.1016
-3.98907 3.81695 -31.3003
-3.98007 3.71875 -31.3628
-3.93007 3.85325 -31.1031
-3.89507 3.82785 -31.3666
-3.83407 3.86435 -31.1636
-3.89107 3.72935 -31.4309
-1.87007 3.91045 -31.4309
-1.75807 4.05025 -31.1636
-1.83507 4.01235 -31.3666
-1.69007 4.02285 -31.3003
-1.72707 3.92115 -31.3628
-1.61407 4.06065 -31.1031
-1.36307 4.06195 -30.5618
-1.50107 4.06335 -30.9214
-1.43407 3.97395 -30.7274
-1.57007 4.02605 -31.1016
-1.52507 3.40475 -30.7305
-1.60607 3.92405 -31.1584
-0.45907 3.86835 -27.7509
-0.65007 3.87735 -28.4322
-1.01807 3.20335 -29.2246
-0.91407 3.90755 -29.2506
-0.63707 3.97635 -28.4358
-1.19907 3.92015 -30.0684
-1.17607 4.02225 -30.0457
-0.88807 4.04725 -29.2292
-0.40407 3.81685 -27.3406
0.43893 1.04095 -22.9285
-0.35907 1.64115 -24.9239
-0.32407 1.87515 -24.9326
-0.53007 2.14275 -25.7584
3.16993 2.03695 -18.1953
3.14193 1.84865 -18.1883
2.51093 1.17845 -19.5587
2.55593 1.47855 -19.5698
1.77993 0.783052 -20.7703
1.82793 1.10365 -20.7821
2.56393 1.54425 -19.5719
4.22693 4.73175 -11.6104
4.21693 4.55235 -11.6126
4.00493 4.04545 -13.2065
4.02193 4.20635 -13.2089
3.77693 3.14035 -14.8982
3.82793 3.50955 -14.9095
3.83693 3.58265 -14.9117
4.02993 4.29025 -13.2102
4.23193 4.82535 -11.6093
3.55093 2.63015 -16.6023
3.57793 2.81275 -16.609
3.83893 3.61025 -14.9126
4.23093 4.86095 -11.609
4.03093 4.32205 -13.2107
4.52093 4.78435 -10.2297
4.51793 4.97705 -10.2192
4.51493 5.07765 -10.2138
4.84793 5.02295 -9.04952
4.90393 4.49165 -9.10502
4.82793 5.16875 -9.03512
5.38993 4.99245 -7.40382
5.13593 5.10045 -8.09392
5.56193 4.88295 -6.98852
5.14693 5.05865 -8.09962
5.20893 4.74285 -8.14682
5.43493 4.83955 -7.43172
5.66293 4.55865 -7.05732
5.68493 4.73705 -6.79052
5.87093 4.17235 -6.91772
5.79593 4.51065 -6.75112
3.14793 3.65015 -8.22832
3.25893 4.15765 -7.79062
3.34293 4.14135 -7.54762
3.10393 4.70925 -8.02592
2.44593 4.10445 -10.4562
2.90893 4.21715 -8.67492
2.40193 3.04975 -13.2326
2.30793 3.36145 -13.2356
2.25093 3.01565 -14.9072
2.21393 3.67235 -13.2386
2.29393 2.09245 -16.5864
1.55993 0.965152 -19.5539
-2.66807 2.83705 -28.4
-3.28307 2.84295 -30.0351
-3.66207 2.84925 -31.1251
-3.58207 2.49495 -31.3156
-3.81907 3.22195 -31.3436
-3.62807 2.86235 -31.3976
-1.97107 3.01085 -31.3976
-1.89807 2.65085 -31.3157
-1.79707 3.40305 -31.3436
-1.73507 3.02185 -31.1251
-0.77907 3.00625 -28.4
-1.31807 3.11345 -30.0386
-0.58907 2.77675 -26.7806
-0.11007 0.794552 -23.9435
3.06993 1.35885 -18.1703
1.01493 0.455652 -21.8663
4.15793 3.55755 -11.6247
3.94193 3.46815 -13.1979
3.70193 2.59225 -14.8814
3.73993 2.86665 -14.8898
4.17893 3.90875 -11.6204
3.48693 2.19945 -16.5864
4.19893 4.25915 -11.6162
3.97593 3.78245 -13.2026
4.53393 4.09355 -10.267
5.57993 4.28475 -7.53802
5.35193 3.99885 -8.25832
5.79893 3.46015 -7.69332
5.89693 3.79515 -7.22012
6.14693 3.33395 -7.10662
6.05793 3.73555 -6.92932
3 0 1 2
3 0 2 3
3 4 5 6
3 6 7 4
3 7 1 0
3 7 0 4
3 8 9 10
3 9 11 12
3 9 12 10
3 12 1 7
3 12 7 10
3 7 6 8
3 7 8 10
3 2 1 12
3 2 12 13
3 12 11 13
3 14 15 16
3 16 17 18
3 18 19 16
3 19 14 16
3 20 21 22
3 22 23 20
3 23 18 20
3 18 17 20
3 24 18 23
3 25 26 27
3 25 27 19
3 27 14 19
3 19 18 24
3 24 25 19
3 28 29 30
3 31 32 33
3 31 33 30
3 33 34 28
3 33 28 30
3 35 36 37
3 37 32 31
3 38 39 32
3 32 37 38
3 37 36 38
3 34 33 40
3 33 32 40
3 32 39 40
3 41 42 43
3 42 44 43
3 44 45 43
3 43 46 41
3 47 48 49
3 49 45 44
3 48 50 51
3 51 52 45
3 45 49 51
3 49 48 51
3 53 54 46
3 46 43 53
3 43 45 53
3 45 52 53
3 55 56 57
3 57 58 44
3 49 59 47
3 44 58 49
3 42 41 60
3 60 55 57
3 60 57 42
3 57 44 42
3 22 21 61
3 61 62 63
3 63 64 61
3 64 22 61
3 65 66 67
3 66 63 67
3 63 62 67
3 66 65 68
3 69 36 35
3 70 71 72
3 72 73 74
3 36 69 75
3 69 74 75
3 74 73 75
3 76 77 78
3 78 48 47
3 79 77 76
3 80 81 79
3 78 50 48
3 47 59 78
3 80 79 82
3 79 76 82
3 83 84 85
3 86 87 88
3 87 85 88
3 85 84 88
3 87 86 89
3 68 65 83
3 90 91 92
3 92 84 93
3 94 71 70
3 93 84 94
3 95 96 97
3 96 98 97
3 99 81 80
3 97 100 95
3 101 102 103
3 102 86 103
3 104 105 106
3 106 107 104
3 107 101 104
3 108 109 107
3 109 110 107
3 110 101 107
3 107 106 108
3 111 89 102
3 89 86 102
3 102 101 110
3 110 111 102
3 90 112 113
3 112 114 113
3 114 115 113
3 113 91 90
3 116 117 118
3 117 119 118
3 118 115 114
3 114 116 118
3 120 121 115
3 115 118 120
3 118 119 120
3 91 113 122
3 113 115 122
3 115 121 122
3 95 123 124
3 123 125 124
3 125 126 124
3 124 96 95
3 127 8 128
3 8 6 128
3 128 126 125
3 125 127 128
3 6 5 129
3 129 130 126
3 126 128 129
3 128 6 129
3 131 98 96
3 96 124 131
3 124 126 131
3 126 130 131
3 132 133 134
3 133 100 134
3 11 135 136
3 135 132 136
3 9 8 127
3 9 127 135
3 127 125 137
3 127 137 135
3 137 132 135
3 135 11 9
3 95 100 133
3 95 133 123
3 133 132 137
3 133 137 123
3 137 125 123
3 138 139 140
3 138 140 141
3 140 142 143
3 140 143 141
3 144 29 28
3 144 28 145
3 28 34 146
3 28 146 145
3 146 139 138
3 146 138 145
3 138 144 145
3 147 148 149
3 149 139 146
3 149 146 147
3 146 34 147
3 150 151 152
3 152 142 140
3 152 140 150
3 140 139 149
3 140 149 150
3 149 148 150
3 153 154 155
3 155 156 157
3 157 158 155
3 158 159 153
3 158 153 155
3 160 15 14
3 160 14 161
3 14 162 161
3 162 157 161
3 157 156 160
3 157 160 161
3 27 26 163
3 27 163 162
3 163 164 162
3 164 157 162
3 162 14 27
3 165 166 167
3 165 167 168
3 167 159 158
3 167 158 168
3 158 157 164
3 158 164 168
3 164 165 168
3 169 170 171
3 171 172 173
3 173 174 175
3 173 175 171
3 175 176 169
3 175 169 171
3 177 56 55
3 55 178 177
3 178 174 173
3 178 173 177
3 173 172 177
3 60 41 179
3 60 179 180
3 179 181 182
3 179 182 180
3 182 174 178
3 182 178 180
3 178 55 60
3 178 60 180
3 183 184 185
3 185 176 175
3 185 175 183
3 175 174 182
3 175 182 183
3 182 181 183
3 184 183 186
3 183 181 187
3 183 187 186
3 187 188 189
3 187 189 186
3 189 190 184
3 189 184 186
3 41 46 191
3 41 191 179
3 191 188 187
3 191 187 179
3 187 181 179
3 46 54 192
3 192 193 194
3 194 188 191
3 194 191 192
3 191 46 192
3 195 196 190
3 190 189 195
3 189 188 194
3 189 194 195
3 194 193 195
3 197 198 199
3 198 200 199
3 201 200 198
3 201 198 202
3 198 197 202
3 197 203 202
3 204 205 206
3 205 207 206
3 204 208 209
3 210 211 212
3 212 213 210
3 213 214 210
3 214 215 210
3 216 217 208
3 213 216 208
3 208 204 214
3 214 213 208
3 206 218 219
3 206 219 214
3 219 215 214
3 214 204 206
3 220 221 222
3 220 222 223
3 224 225 226
3 221 220 226
3 220 224 226
3 227 228 222
3 221 227 222
3 167 166 229
3 167 229 230
3 229 231 232
3 229 232 230
3 232 233 230
3 230 159 167
3 234 199 200
3 200 233 232
3 232 231 234
3 232 234 200
3 201 202 235
3 235 236 233
3 233 200 235
3 200 201 235
3 237 154 153
3 153 159 230
3 153 230 237
3 230 233 237
3 233 236 237
3 185 184 238
3 238 239 240
3 240 241 242
3 240 242 238
3 242 176 185
3 242 185 238
3 206 207 218
3 207 241 240
3 207 240 218
3 240 239 218
3 243 244 241
3 241 207 243
3 207 205 243
3 245 170 169
3 169 176 242
3 169 242 245
3 242 241 245
3 241 244 245
3 190 196 246
3 246 247 248
3 248 249 250
3 248 250 246
3 250 190 246
3 210 215 211
3 215 249 248
3 215 248 211
3 248 247 211
3 219 218 251
3 218 239 251
3 239 249 215
3 239 215 251
3 215 219 251
3 238 184 252
3 184 190 250
3 184 250 252
3 250 249 239
3 250 239 252
3 239 238 252
3 253 254 255
3 253 255 256
3 255 220 223
3 255 223 256
3 257 143 258
3 143 142 259
3 143 259 258
3 259 254 253
3 259 253 258
3 253 257 258
3 152 151 260
3 260 261 254
3 254 259 260
3 259 142 152
3 259 152 260
3 224 220 255
3 224 255 225
3 255 254 225
3 254 261 225
3 262 197 263
3 262 263 264
3 199 234 265
3 263 197 265
3 197 199 265
3 266 267 268
3 268 269 270
3 270 271 268
3 271 272 266
3 271 266 268
3 264 263 273
3 264 273 274
3 273 270 274
3 270 269 274
3 231 270 273
3 231 273 234
3 273 263 265
3 273 265 234
3 166 272 271
3 166 271 229
3 271 270 231
3 271 231 229
3 275 267 266
3 266 272 276
3 266 276 275
3 276 277 278
3 276 278 275
3 278 279 275
3 165 164 280
3 280 277 276
3 280 276 165
3 276 272 166
3 276 166 165
3 26 281 282
3 26 282 163
3 282 277 280
3 282 280 163
3 280 164 163
3 281 56 283
3 283 279 278
3 278 277 282
3 278 282 283
3 282 281 283
3 284 56 281
3 284 281 25
3 24 58 284
3 24 284 25
3 25 281 26
3 22 59 285
3 22 285 23
3 285 24 23
3 59 49 285
3 49 58 24
3 49 24 285
3 64 59 22
3 66 68 286
3 63 66 286
3 68 80 82
3 63 286 82
3 286 68 82
3 83 80 68
3 89 287 87
3 85 87 288
3 87 287 288
3 287 289 290
3 289 291 290
3 111 110 292
3 292 291 289
3 292 289 111
3 289 287 89
3 289 89 111
3 109 108 293
3 109 293 294
3 293 295 294
3 294 291 292
3 292 110 109
3 292 109 294
3 295 11 296
3 291 294 296
3 294 295 296
3 106 105 297
3 298 299 300
3 298 300 297
3 300 106 297
3 301 299 298
3 301 298 302
3 303 11 295
3 295 304 303
3 304 299 301
3 304 301 303
3 293 108 305
3 108 106 300
3 108 300 305
3 300 299 304
3 300 304 305
3 304 295 293
3 304 293 305
3 306 121 307
3 308 309 310
3 309 307 310
3 307 121 310
3 311 312 309
3 312 313 309
3 313 307 309
3 309 308 311
3 314 315 306
3 314 306 316
3 306 307 313
3 306 313 316
3 84 317 318
3 317 71 318
3 319 315 314
3 320 36 75
3 73 321 75
3 321 320 75
3 322 323 324
3 324 39 325
3 325 326 324
3 326 322 324
3 38 36 320
3 38 320 327
3 325 39 38
3 325 38 327
3 320 328 327
3 328 329 327
3 329 325 327
3 330 331 332
3 332 322 326
3 332 326 330
3 326 325 329
3 326 329 330
3 333 334 335
3 335 336 337
3 337 338 339
3 337 339 335
3 339 340 333
3 339 333 335
3 341 323 322
3 322 342 341
3 342 338 337
3 342 337 341
3 337 336 341
3 332 331 343
3 332 343 344
3 343 345 346
3 343 346 344
3 346 338 342
3 346 342 344
3 342 322 332
3 342 332 344
3 347 348 349
3 347 349 350
3 349 340 339
3 349 339 350
3 339 338 346
3 339 346 350
3 346 345 347
3 346 347 350
3 351 352 353
3 353 354 351
3 354 355 356
3 354 356 351
3 357 334 333
3 333 340 358
3 333 358 357
3 358 353 357
3 353 352 357
3 349 348 359
3 360 353 358
3 360 358 359
3 358 340 349
3 358 349 359
3 361 362 354
3 362 355 354
3 354 353 360
3 360 361 354
3 363 351 356
3 356 355 363
3 355 364 363
3 362 364 355
3 365 364 362
3 366 205 367
3 205 204 262
3 205 262 367
3 367 368 366
3 262 204 209
3 264 274 369
3 369 368 367
3 369 367 264
3 367 262 264
3 170 245 370
3 245 244 370
3 244 269 370
3 243 205 366
3 243 366 368
3 368 269 244
3 244 243 368
3 269 368 274
3 368 369 274
3 268 267 370
3 267 170 370
3 269 268 370
3 171 170 371
3 371 279 172
3 172 171 371
3 279 371 275
3 371 170 267
3 371 267 275
3 283 56 372
3 279 283 372
3 56 177 372
3 177 172 372
3 172 279 372
3 57 56 284
3 58 57 284
3 63 76 78
3 59 64 78
3 64 63 78
3 82 76 63
3 99 85 373
3 80 83 99
3 83 85 99
3 287 100 288
3 100 97 288
3 97 373 288
3 373 85 288
3 287 290 134
3 290 291 134
3 291 132 134
3 134 100 287
3 296 132 291
3 11 136 296
3 136 132 296
3 302 2 301
3 3 2 302
3 13 11 303
3 2 13 303
3 301 2 303
3 91 122 306
3 122 121 306
3 120 119 310
3 121 120 310
3 310 119 308
3 315 91 306
3 71 94 318
3 94 84 318
3 92 91 319
3 84 92 319
3 319 91 315
3 71 374 72
3 374 73 72
3 39 324 40
3 324 323 34
3 324 34 40
3 151 150 375
3 150 148 375
3 148 336 375
3 147 34 376
3 34 323 376
3 376 336 148
3 148 147 376
3 323 341 376
3 341 336 376
3 335 334 375
3 334 151 375
3 336 335 375
3 377 225 378
3 225 261 378
3 261 352 378
3 378 379 377
3 260 151 380
3 380 352 261
3 261 260 380
3 334 357 380
3 357 352 380
3 380 151 334
3 351 379 378
3 352 351 378
3 228 227 381
3 227 221 382
3 227 382 381
3 226 225 377
3 226 377 383
3 377 379 383
3 382 221 226
3 382 226 383
3 379 351 363
3 379 363 383
3 363 364 384
3 363 384 383
3 384 382 383
3 365 385 228
3 228 381 365
3 381 382 384
3 381 384 365
3 384 364 365
3 386 387 388
3 228 385 389
3 228 389 388
3 389 386 388
3 390 391 392
3 392 393 394
3 394 395 392
3 395 396 390
3 395 390 392
3 385 365 397
3 365 394 397
3 394 393 397
3 362 394 365
3 361 396 395
3 361 395 362
3 395 394 362
3 398 399 400
3 400 401 402
3 402 403 400
3 403 404 398
3 403 398 400
3 390 396 391
3 396 402 391
3 402 401 391
3 361 360 405
3 405 402 396
3 405 396 361
3 359 348 406
3 348 404 403
3 348 403 406
3 403 402 405
3 403 405 406
3 405 360 359
3 405 359 406
3 407 399 398
3 407 398 408
3 398 404 409
3 398 409 408
3 409 410 411
3 409 411 408
3 411 412 407
3 411 407 408
3 348 347 413
3 347 345 413
3 345 410 409
3 345 409 413
3 409 404 348
3 409 348 413
3 331 414 415
3 331 415 343
3 415 410 345
3 415 345 343
3 414 416 417
3 417 412 411
3 411 410 415
3 411 415 417
3 415 414 417
3 418 416 414
3 414 419 418
3 419 420 418
3 420 421 418
3 331 330 419
3 330 329 419
3 329 420 419
3 419 414 331
3 320 422 423
3 320 423 328
3 423 420 329
3 423 329 328
3 422 424 425
3 425 421 420
3 420 423 425
3 423 422 425
3 426 424 422
3 422 321 426
3 321 73 426
3 73 427 426
3 321 422 320
3 428 427 73
3 73 374 428
3 374 71 428
3 71 317 429
3 317 84 429
3 314 430 319
3 430 431 432
3 431 433 432
3 433 434 432
3 314 316 431
3 316 313 435
3 316 435 431
3 435 433 431
3 431 430 314
3 311 436 437
3 311 437 312
3 437 433 435
3 437 435 312
3 435 313 312
3 436 438 439
3 439 434 433
3 433 437 439
3 437 436 439
3 440 438 436
3 436 441 440
3 441 442 443
3 441 443 440
3 311 308 444
3 444 442 441
3 444 441 311
3 441 436 311
3 445 442 444
3 445 444 446
3 444 308 446
3 443 442 445
3 443 445 447
3 447 445 448
3 308 119 446
3 449 450 445
3 445 446 449
3 446 119 449
3 445 450 448
3 450 451 452
3 450 452 448
3 119 453 449
3 453 451 450
3 453 450 449
3 117 454 455
3 454 456 457
3 454 457 455
3 457 451 453
3 457 453 455
3 453 119 117
3 453 117 455
3 456 458 459
3 452 451 457
3 452 457 459
3 457 456 459
3 460 98 461
3 461 462 463
3 463 464 461
3 464 460 461
3 465 458 456
3 456 466 465
3 466 463 465
3 463 462 465
3 454 117 116
3 454 116 466
3 116 114 467
3 116 467 466
3 467 463 466
3 466 456 454
3 90 460 464
3 90 464 112
3 464 463 467
3 464 467 112
3 467 114 112
3 70 81 94
3 468 98 460
3 93 468 92
3 468 460 90
3 468 90 92
3 469 50 69
3 69 470 471
3 472 81 70
3 70 72 472
3 72 471 472
3 471 470 472
3 74 471 72
3 35 469 69
3 69 471 74
3 473 474 475
3 473 475 476
3 475 477 478
3 475 478 476
3 478 479 476
3 479 473 476
3 37 50 469
3 478 477 37
3 31 478 37
3 37 469 35
3 30 29 479
3 29 473 479
3 479 478 31
3 31 30 479
3 480 481 482
3 480 482 483
3 482 484 485
3 482 485 483
3 485 486 487
3 485 487 483
3 487 488 480
3 487 480 483
3 489 474 473
3 473 490 489
3 490 486 485
3 490 485 489
3 485 484 489
3 144 138 491
3 491 486 490
3 491 490 144
3 490 473 29
3 490 29 144
3 141 143 492
3 141 492 493
3 492 488 487
3 492 487 493
3 487 486 491
3 487 491 493
3 491 138 141
3 491 141 493
3 494 481 480
3 494 480 495
3 480 488 496
3 480 496 495
3 496 497 495
3 497 498 494
3 497 494 495
3 492 143 257
3 257 253 499
3 499 497 496
3 499 496 257
3 496 488 492
3 496 492 257
3 256 500 501
3 500 502 503
3 500 503 501
3 503 497 499
3 503 499 501
3 499 253 256
3 499 256 501
3 504 498 497
3 497 503 504
3 503 502 505
3 503 505 504
3 506 504 505
3 506 505 507
3 505 502 507
3 507 508 506
3 500 256 223
3 500 223 502
3 223 222 502
3 222 507 502
3 228 509 222
3 509 508 507
3 509 507 222
3 510 202 511
3 202 203 511
3 385 397 512
3 397 393 512
3 393 203 512
3 392 391 513
3 392 513 511
3 513 510 511
3 511 203 393
3 393 392 511
3 154 237 514
3 237 236 514
3 236 401 514
3 514 399 154
3 235 202 510
3 235 510 515
3 515 401 236
3 236 235 515
3 513 391 515
3 391 401 515
3 515 510 513
3 400 399 514
3 401 400 514
3 155 154 516
3 154 399 517
3 154 517 516
3 517 518 156
3 517 156 516
3 156 155 516
3 399 407 519
3 407 412 518
3 407 518 519
3 518 517 519
3 517 399 519
3 417 416 520
3 416 15 520
3 518 412 417
3 518 417 520
3 15 160 520
3 160 156 520
3 156 518 520
3 16 15 521
3 521 421 17
3 17 16 521
3 421 521 418
3 521 15 416
3 521 416 418
3 17 421 425
3 17 425 20
3 425 424 21
3 425 21 20
3 61 21 426
3 21 424 426
3 426 427 62
3 62 61 426
3 71 67 428
3 67 427 428
3 62 427 67
3 67 71 65
3 83 65 429
3 65 71 429
3 84 83 429
3 319 430 88
3 430 86 88
3 84 319 88
3 86 522 103
3 522 434 101
3 522 101 103
3 430 432 522
3 432 434 522
3 522 86 430
3 439 438 523
3 438 105 523
3 434 439 523
3 105 104 523
3 104 101 523
3 101 434 523
3 297 105 524
3 525 298 297
3 525 297 524
3 440 443 526
3 526 525 524
3 526 524 440
3 524 105 438
3 524 438 440
3 448 527 447
3 527 525 526
3 527 526 447
3 526 443 447
3 302 298 525
3 302 525 527
3 527 448 302
3 3 302 528
3 528 529 3
3 529 0 3
3 448 452 530
3 530 529 528
3 530 528 448
3 528 302 448
3 458 5 531
3 458 531 459
3 531 529 530
3 531 530 459
3 530 452 459
3 4 0 529
3 529 531 4
3 531 5 4
3 98 131 532
3 131 130 532
3 130 462 532
3 129 5 533
3 533 462 130
3 130 129 533
3 458 465 533
3 465 462 533
3 533 5 458
3 461 98 532
3 462 461 532
3 81 99 534
3 99 373 534
3 98 468 97
3 468 93 97
3 93 373 97
3 94 81 534
3 534 373 93
3 93 94 534
3 50 78 535
3 78 77 535
3 77 470 535
3 79 81 472
3 472 470 77
3 77 79 472
3 69 50 535
3 470 69 535
3 536 54 53
3 536 53 475
3 53 52 475
3 52 477 475
3 475 474 536
3 51 50 537
3 537 477 52
3 52 51 537
3 50 37 537
3 37 477 537
3 538 196 195
3 538 195 539
3 195 193 540
3 195 540 539
3 540 541 539
3 539 542 538
3 192 54 536
3 192 536 543
3 536 474 543
3 543 541 540
3 540 193 192
3 540 192 543
3 474 489 543
3 489 484 543
3 484 541 543
3 482 481 544
3 482 544 545
3 544 542 539
3 544 539 545
3 539 541 484
3 539 484 545
3 484 482 545
3 246 196 538
3 246 538 546
3 538 542 546
3 247 246 546
3 544 481 494
3 544 494 546
3 494 498 546
3 498 247 546
3 546 542 544
3 504 547 548
3 548 247 498
3 498 504 548
3 549 211 548
3 211 247 548
3 548 547 549
3 212 211 549
3 212 549 550
3 549 547 550
3 551 213 212
3 551 212 550
3 547 504 506
3 508 551 550
3 508 550 506
3 550 547 506
3 228 217 552
3 228 552 509
3 552 551 508
3 552 508 509
3 216 213 551
3 551 552 216
3 552 217 216
3 388 217 228
