OFF
401 784 0
2.35964 -1.02124 -25.2652
2.24064 -0.985942 -25.0692
2.23764 -0.909642 -25.2492
2.42064 -0.927242 -25.6032
2.28964 -0.821242 -25.3292
2.49164 -0.837342 -25.7052
2.72864 -0.874342 -25.8332
2.63464 -0.966542 -25.7242
2.55264 -1.06444 -25.3632
2.39764 -0.754442 -25.2212
2.50964 -0.722242 -25.0222
2.67464 -0.719342 -25.2102
2.59164 -0.767042 -25.5732
2.89064 -0.744542 -25.3032
2.81964 -0.797242 -25.6922
3.08164 -0.799142 -25.2132
3.19464 -0.857442 -25.0282
3.20264 -0.910742 -25.2292
3.03064 -0.850842 -25.5772
3.15464 -0.987642 -25.3382
2.96264 -0.926442 -25.7102
3.04364 -1.06564 -25.2582
2.92564 -1.12084 -25.0772
2.76564 -1.10074 -25.2702
2.85964 -1.01094 -25.6072
2.77064 11.6715 -0.404235
2.61064 11.9387 -0.496235
2.63864 11.949 -0.512235
2.79264 11.6957 -0.425235
2.64164 11.8936 -0.586235
2.79064 11.6483 -0.502235
3.02264 11.4872 -0.450235
3.02964 11.5292 -0.371235
2.61364 11.7245 -0.777235
2.54964 11.3934 -1.14224
2.69464 11.1593 -1.06424
2.76064 11.4845 -0.695235
2.91864 11.0055 -1.01524
2.98864 11.3269 -0.644235
3.18264 10.9495 -1.00024
3.44364 11.009 -1.02524
3.52064 11.3309 -0.655235
3.25564 11.2697 -0.629235
3.56264 11.4914 -0.461235
3.29364 11.4287 -0.434235
3.30764 11.4688 -0.355235
3.58264 11.5334 -0.382235
2.83964 12.9462 -0.862235
3.08064 13.1656 -0.943235
3.08864 13.1129 -0.936235
2.85764 12.9047 -0.858235
3.08064 13.021 -0.995235
2.85464 12.8193 -0.920235
2.69364 12.5301 -0.814235
2.69264 12.6062 -0.748235
3.04464 12.8272 -1.17324
2.97364 12.4686 -1.52224
2.75564 12.2763 -1.45324
2.82264 12.6299 -1.10124
2.59864 12.0006 -1.35424
2.66364 12.3471 -0.998235
2.52364 11.6901 -1.24524
2.58764 12.0286 -0.884235
2.61564 12.2046 -0.697235
2.58364 12.2772 -0.617235
2.61264 12.27 -0.626235
3.90564 12.9974 -0.888235
4.03364 12.7009 -0.795235
3.87964 12.9536 -0.884235
4.00164 12.6221 -0.860235
3.85264 12.8668 -0.945235
3.62064 13.0268 -1.00124
3.64264 13.1189 -0.942235
3.95264 12.4367 -1.04224
3.86764 12.0871 -1.39624
3.72264 12.3207 -1.47624
3.80564 12.6761 -1.12524
3.49764 12.4736 -1.52724
3.57764 12.8327 -1.17924
3.23464 12.5286 -1.54524
3.31064 12.8889 -1.19724
3.34964 13.0842 -1.02024
3.36864 13.2343 -0.970235
3.36464 13.1781 -0.961235
3.78764 11.6937 -0.534235
3.81464 11.7422 -0.458235
3.94964 11.9839 -0.637235
3.97964 12.0419 -0.564235
3.66164 11.2018 -1.09324
3.74264 11.5287 -0.726235
3.81764 11.4785 -1.18824
3.90164 11.8125 -0.825235
3.89364 11.79 -1.29524
3.97864 12.132 -0.937235
4.02764 12.3106 -0.751235
4.05964 12.3793 -0.683235
1.45564 7.83196 -4.92524
1.33564 8.00586 -4.97324
0.515638 6.66196 -6.54224
0.623637 6.51206 -6.50524
-0.341362 5.22556 -8.32924
-0.247362 5.10096 -8.30224
-0.102362 5.01806 -8.28424
0.789638 6.41276 -6.48124
1.63964 7.71706 -4.89524
-1.01436 3.79916 -10.3012
-1.27936 2.48536 -12.4272
-1.20636 2.40586 -12.4172
-0.932362 3.69876 -10.2832
-1.09636 2.35236 -12.4102
-0.806362 3.63166 -10.2722
-0.968362 2.33106 -12.4082
-0.843362 2.34816 -12.4092
-0.516362 3.62856 -10.2722
-0.660362 3.60566 -10.2682
0.233638 5.01596 -8.28624
0.0666375 4.98656 -8.27923
1.17364 6.41166 -6.48524
2.06864 7.71696 -4.90024
1.85564 7.67426 -4.88624
0.982638 6.37546 -6.47424
1.49964 8.65816 -5.16024
1.67764 8.79926 -5.20224
0.820638 7.34376 -6.72124
0.661638 7.22286 -6.68924
-0.0783625 5.79006 -8.45724
-0.216362 5.69026 -8.43424
-0.314362 5.54586 -8.40124
0.548638 7.04826 -6.64224
1.37364 8.45496 -5.10124
-0.789362 4.25106 -10.3832
-1.08436 2.83966 -12.4702
-1.18836 2.77786 -12.4632
-0.908362 4.17156 -10.3682
-1.26136 2.68746 -12.4522
-0.992362 4.05606 -10.3472
-1.29436 2.58456 -12.4392
-1.03136 3.92516 -10.3232
-0.360362 5.38236 -8.36423
1.31364 8.22556 -5.03524
0.495638 6.85096 -6.59124
2.29064 8.68556 -5.17224
2.41064 8.51196 -5.12424
1.47764 7.09476 -6.65924
1.36964 7.24446 -6.69724
0.497638 5.58136 -8.41124
0.402638 5.70586 -8.43924
0.257638 5.78846 -8.45724
1.20364 7.34336 -6.72224
2.10564 8.80006 -5.20424
-0.290362 4.08096 -10.3522
-0.648362 2.70276 -12.4512
-0.721362 2.78216 -12.4622
-0.373362 4.18126 -10.3702
-0.831362 2.83566 -12.4692
-0.498362 4.24826 -10.3822
-0.958362 2.85686 -12.4722
-0.644362 4.27406 -10.3872
0.0886375 5.81966 -8.46424
1.89064 8.84226 -5.21524
1.01064 7.38016 -6.73124
2.24664 7.85836 -4.94124
1.33164 6.53286 -6.51624
0.371638 5.11596 -8.30924
0.470638 5.26066 -8.34124
1.44464 6.70786 -6.56124
2.37264 8.06206 -4.99824
-0.739362 2.41006 -12.4172
-0.397362 3.70816 -10.2862
-0.666362 2.50056 -12.4272
-0.313362 3.82386 -10.3062
-0.633362 2.60346 -12.4392
-0.274362 3.95496 -10.3292
0.515638 5.42436 -8.37724
2.43264 8.29206 -5.06224
1.49764 6.90546 -6.61124
-0.911362 1.38666 -14.6752
-0.844362 1.32246 -14.6712
-0.157362 0.496458 -16.8632
-0.0923625 0.441758 -16.8632
0.00663753 0.404058 -16.8622
-0.743362 1.27886 -14.6672
0.735638 -0.191842 -18.8102
1.52264 -0.684942 -20.3322
1.60164 -0.739142 -20.3362
0.805638 -0.243142 -18.8122
1.71764 -0.777442 -20.3382
0.908638 -0.279042 -18.8122
1.85264 -0.795242 -20.3382
1.98264 -0.787842 -20.3352
1.14464 -0.287342 -18.8102
1.02864 -0.295242 -18.8122
0.231638 0.397458 -16.8602
0.120638 0.387758 -16.8612
-0.512362 1.27356 -14.6662
-0.626363 1.26076 -14.6662
-0.736362 1.66876 -14.6912
-0.830362 1.62006 -14.6892
0.00963753 0.732658 -16.8612
-0.0813625 0.692458 -16.8622
-0.144362 0.632558 -16.8632
-0.896362 1.54826 -14.6852
0.908638 0.0252577 -18.7952
1.71364 -0.458942 -20.3072
1.60764 -0.496242 -20.3122
0.813638 -0.0110423 -18.7982
1.53464 -0.553242 -20.3192
0.747638 -0.0659423 -18.8022
1.50364 -0.619542 -20.3262
0.719638 -0.129442 -18.8062
-0.172362 0.563658 -16.8632
-0.925362 1.46626 -14.6802
-0.337362 1.55576 -14.6812
-0.404362 1.61986 -14.6862
0.398638 0.633558 -16.8572
0.333638 0.688258 -16.8582
0.234638 0.725958 -16.8592
-0.505362 1.66356 -14.6892
1.31764 -0.0702423 -18.7942
2.17464 -0.562042 -20.3082
2.09564 -0.507842 -20.3042
1.24764 -0.0189423 -18.7922
1.97864 -0.469442 -20.3032
1.14464 0.0169577 -18.7922
1.84464 -0.451642 -20.3042
1.02464 0.0331577 -18.7932
0.120638 0.742258 -16.8602
-0.621362 1.68156 -14.6912
-0.418362 1.32226 -14.6682
0.322638 0.437558 -16.8592
0.385638 0.497458 -16.8582
-0.352362 1.39406 -14.6722
2.08964 -0.750542 -20.3292
1.23964 -0.251042 -18.8062
2.16264 -0.693742 -20.3222
1.30564 -0.196142 -18.8022
2.19364 -0.627442 -20.3152
1.33364 -0.132642 -18.7982
0.413638 0.566358 -16.8572
-0.323362 1.47616 -14.6762
1.95664 -0.989342 -21.2472
2.05064 -1.05294 -21.2542
2.13364 -1.14604 -21.7742
2.24464 -1.22224 -21.7822
2.40964 -1.27644 -21.7872
2.18864 -1.09824 -21.2572
2.14764 -1.19584 -22.1292
2.09364 -1.17964 -22.5312
2.23864 -1.27664 -22.5422
2.27664 -1.28424 -22.1402
2.45164 -1.34594 -22.5492
2.46764 -1.34734 -22.1452
2.69464 -1.37914 -22.5492
2.93064 -1.36784 -22.5432
2.89864 -1.36654 -22.1402
2.68664 -1.37734 -22.1462
2.78164 -1.29264 -21.7832
2.59864 -1.30214 -21.7872
2.50264 -1.11134 -21.2532
2.34764 -1.11954 -21.2572
2.18064 -0.726042 -21.2112
2.05564 -0.769242 -21.2192
2.39664 -0.831742 -21.7282
2.24864 -0.883142 -21.7382
2.14664 -0.962242 -21.7502
1.96964 -0.835542 -21.2292
2.45064 -0.831842 -22.0752
2.42964 -0.782042 -22.4702
2.23864 -0.846742 -22.4832
2.27864 -0.891242 -22.0862
2.10964 -0.946542 -22.4992
2.16164 -0.982742 -22.1002
2.05564 -1.06364 -22.5162
2.11364 -1.08984 -22.1162
2.10464 -1.05464 -21.7632
1.93264 -0.912842 -21.2382
2.72664 -0.848342 -21.2152
2.63264 -0.784742 -21.2092
3.04564 -0.978842 -21.7342
2.93364 -0.902542 -21.7262
2.76864 -0.848142 -21.7222
2.49464 -0.739342 -21.2072
3.20164 -1.00314 -22.0822
3.26664 -0.970942 -22.4782
3.12164 -0.873842 -22.4672
3.07164 -0.914542 -22.0722
2.90864 -0.804342 -22.4632
2.88064 -0.851342 -22.0682
2.66564 -0.770842 -22.4632
2.66264 -0.821142 -22.0692
2.57964 -0.822342 -21.7232
2.33564 -0.717942 -21.2072
2.62764 -1.06824 -21.2452
2.93064 -1.24134 -21.7722
3.03164 -1.16244 -21.7592
2.71364 -1.00204 -21.2352
3.12164 -1.30324 -22.5302
3.06964 -1.30724 -22.1282
3.25064 -1.20364 -22.5122
3.18664 -1.21594 -22.1122
3.30464 -1.08684 -22.4942
3.23464 -1.10904 -22.0962
3.07364 -1.07014 -21.7462
2.75064 -0.924842 -21.2252
2.06864 -1.13824 -23.1972
2.22264 -1.23664 -23.2082
2.08364 -1.08364 -23.9542
2.23664 -1.17534 -23.9792
2.46264 -1.24164 -23.9982
2.44864 -1.30744 -23.2152
2.15064 -1.02794 -24.6322
2.29064 -1.10374 -24.6942
2.49564 -1.15834 -24.7512
2.95564 -1.19024 -24.6432
2.72964 -1.19244 -24.7002
2.96864 -1.26834 -23.9662
2.71964 -1.27604 -23.9852
2.95764 -1.33124 -23.2092
2.70764 -1.34184 -23.2162
2.42264 -0.738242 -23.1332
2.22064 -0.802742 -23.1462
2.43364 -0.709742 -23.8922
2.23264 -0.768742 -23.9182
2.09764 -0.861742 -23.9472
2.08364 -0.903042 -23.1632
2.46664 -0.705742 -24.5772
2.28464 -0.753842 -24.6402
2.16164 -0.831942 -24.7062
2.11164 -0.930342 -24.6702
2.04264 -0.972942 -23.9522
2.02764 -1.02104 -23.1812
3.31164 -0.932142 -23.1412
3.15764 -0.833542 -23.1302
3.31864 -0.895142 -23.9002
3.16564 -0.801742 -23.9022
2.94064 -0.733742 -23.9102
2.93064 -0.762542 -23.1252
3.27164 -0.868642 -24.5842
3.13264 -0.786542 -24.6262
2.92864 -0.725542 -24.6732
2.69464 -0.697442 -24.6222
2.68264 -0.700542 -23.8982
2.67264 -0.727842 -23.1262
3.15964 -1.26694 -23.1952
3.16964 -1.20784 -23.9662
3.30564 -1.11354 -23.9612
3.29564 -1.16684 -23.1772
3.13864 -1.13604 -24.6822
3.26364 -1.05194 -24.7182
3.31164 -0.959942 -24.6502
3.36064 -1.00424 -23.9292
3.35164 -1.04924 -23.1582
3.72964 11.5157 -1.97624
3.58764 11.7398 -2.05024
3.47864 10.7266 -2.78824
3.34164 10.9375 -2.85424
3.13164 11.0759 -2.89824
3.36864 11.8866 -2.09924
3.05864 9.72396 -3.83524
2.92864 9.91806 -3.89324
2.72964 10.0456 -3.93124
2.26564 10.0436 -3.92824
2.49664 10.0923 -3.94424
2.63964 11.0727 -2.89424
2.88464 11.1261 -2.91324
2.85764 11.8824 -2.09424
3.11164 11.9396 -2.11524
2.64464 11.6983 -2.02924
2.43564 10.9 -2.83624
2.28964 10.6519 -2.75424
2.49264 11.4342 -1.93824
2.07264 9.88526 -3.87824
1.93564 9.65746 -3.80624
1.89364 9.15476 -3.65224
1.86964 9.40046 -3.72724
2.24464 10.1048 -2.57624
2.22064 10.3722 -2.66224
2.44464 10.8523 -1.74024
2.41964 11.1366 -1.83624
2.58664 10.6278 -1.66824
2.38164 9.89346 -2.51024
2.59264 9.75436 -2.46924
2.80564 10.4801 -1.62224
2.02264 8.96036 -3.59524
2.22264 8.83216 -3.55924
2.68664 8.83316 -3.56524
2.45564 8.78476 -3.54824
3.08364 9.75636 -2.47724
2.83864 9.70336 -2.45724
3.31664 10.483 -1.63124
3.06164 10.4262 -1.60824
3.52864 10.6674 -1.69424
3.28764 9.92946 -2.53424
3.43364 10.1784 -2.61324
3.68164 10.9324 -1.78324
2.87864 8.99186 -3.61424
3.01664 9.22026 -3.68424
3.08164 9.47786 -3.76124
3.50264 10.4589 -2.70324
3.75464 11.2309 -1.88224
2.56264 11.9109 -0.480235
3 0 1 2
3 0 2 3
3 2 4 5
3 2 5 3
3 5 6 7
3 5 7 3
3 7 8 0
3 7 0 3
3 9 10 11
3 9 11 12
3 11 13 14
3 11 14 12
3 14 6 5
3 14 5 12
3 5 4 9
3 5 9 12
3 15 16 17
3 15 17 18
3 17 19 20
3 17 20 18
3 20 6 14
3 20 14 18
3 14 13 15
3 14 15 18
3 21 22 23
3 21 23 24
3 23 8 7
3 23 7 24
3 7 6 20
3 7 20 24
3 20 19 21
3 20 21 24
3 25 26 27
3 25 27 28
3 27 29 30
3 27 30 28
3 30 31 32
3 30 32 28
3 32 25 28
3 33 34 35
3 33 35 36
3 35 37 38
3 35 38 36
3 38 31 30
3 38 30 36
3 30 29 33
3 30 33 36
3 39 40 41
3 39 41 42
3 41 43 44
3 41 44 42
3 44 31 38
3 44 38 42
3 38 37 39
3 38 39 42
3 32 31 44
3 32 44 45
3 44 43 46
3 44 46 45
3 47 48 49
3 47 49 50
3 49 51 52
3 49 52 50
3 52 53 54
3 52 54 50
3 54 47 50
3 55 56 57
3 55 57 58
3 57 59 60
3 57 60 58
3 60 53 52
3 60 52 58
3 52 51 55
3 52 55 58
3 61 34 33
3 61 33 62
3 33 29 63
3 33 63 62
3 63 53 60
3 63 60 62
3 60 59 61
3 60 61 62
3 27 26 64
3 27 64 65
3 64 54 65
3 54 53 63
3 54 63 65
3 63 29 27
3 63 27 65
3 66 67 68
3 67 69 70
3 67 70 68
3 70 71 72
3 70 72 68
3 72 66 68
3 73 74 75
3 73 75 76
3 75 77 78
3 75 78 76
3 78 71 70
3 78 70 76
3 70 69 73
3 70 73 76
3 79 56 55
3 79 55 80
3 55 51 81
3 55 81 80
3 81 71 78
3 81 78 80
3 78 77 79
3 78 79 80
3 49 48 82
3 49 82 83
3 82 72 83
3 72 71 81
3 72 81 83
3 81 51 49
3 81 49 83
3 46 43 84
3 46 84 85
3 84 86 87
3 84 87 85
3 41 40 88
3 41 88 89
3 88 90 91
3 88 91 89
3 91 86 84
3 91 84 89
3 84 43 41
3 84 41 89
3 92 74 73
3 92 73 93
3 73 69 94
3 73 94 93
3 94 86 91
3 94 91 93
3 91 90 92
3 91 92 93
3 87 86 94
3 87 94 95
3 94 69 67
3 94 67 95
3 96 97 98
3 96 98 99
3 98 100 101
3 98 101 99
3 101 102 103
3 101 103 99
3 103 104 96
3 103 96 99
3 105 106 107
3 105 107 108
3 107 109 110
3 107 110 108
3 110 102 101
3 110 101 108
3 101 100 105
3 101 105 108
3 111 112 113
3 111 113 114
3 113 115 116
3 113 116 114
3 116 102 110
3 116 110 114
3 110 109 111
3 110 111 114
3 117 118 119
3 117 119 120
3 119 104 103
3 119 103 120
3 103 102 116
3 103 116 120
3 116 115 117
3 116 117 120
3 121 122 123
3 121 123 124
3 123 125 126
3 123 126 124
3 126 127 128
3 126 128 124
3 128 129 121
3 128 121 124
3 130 131 132
3 130 132 133
3 132 134 135
3 132 135 133
3 135 127 126
3 135 126 133
3 126 125 130
3 126 130 133
3 136 106 105
3 136 105 137
3 105 100 138
3 105 138 137
3 138 127 135
3 138 135 137
3 135 134 136
3 135 136 137
3 98 97 139
3 98 139 140
3 139 129 128
3 139 128 140
3 128 127 138
3 128 138 140
3 138 100 98
3 138 98 140
3 141 142 143
3 141 143 144
3 143 145 146
3 143 146 144
3 146 147 148
3 146 148 144
3 148 149 141
3 148 141 144
3 150 151 152
3 150 152 153
3 152 154 155
3 152 155 153
3 155 147 146
3 155 146 153
3 146 145 150
3 146 150 153
3 156 131 130
3 156 130 157
3 130 125 158
3 130 158 157
3 158 147 155
3 158 155 157
3 155 154 156
3 155 156 157
3 123 122 159
3 123 159 160
3 159 149 148
3 159 148 160
3 148 147 158
3 148 158 160
3 158 125 123
3 158 123 160
3 161 118 117
3 161 117 162
3 117 115 163
3 117 163 162
3 163 164 165
3 163 165 162
3 165 166 161
3 165 161 162
3 113 112 167
3 113 167 168
3 167 169 170
3 167 170 168
3 170 164 163
3 170 163 168
3 163 115 113
3 163 113 168
3 171 151 150
3 171 150 172
3 150 145 173
3 150 173 172
3 173 164 170
3 173 170 172
3 170 169 171
3 170 171 172
3 143 142 174
3 143 174 175
3 174 166 165
3 174 165 175
3 165 164 173
3 165 173 175
3 173 145 143
3 173 143 175
3 107 106 176
3 107 176 177
3 176 178 179
3 176 179 177
3 179 180 181
3 179 181 177
3 181 109 107
3 181 107 177
3 182 183 184
3 182 184 185
3 184 186 187
3 184 187 185
3 187 180 179
3 187 179 185
3 179 178 182
3 179 182 185
3 188 189 190
3 188 190 191
3 190 192 193
3 190 193 191
3 193 180 187
3 193 187 191
3 187 186 188
3 187 188 191
3 194 112 111
3 194 111 195
3 111 109 181
3 111 181 195
3 181 180 193
3 181 193 195
3 193 192 194
3 193 194 195
3 132 131 196
3 132 196 197
3 196 198 199
3 196 199 197
3 199 200 201
3 199 201 197
3 201 134 132
3 201 132 197
3 202 203 204
3 202 204 205
3 204 206 207
3 204 207 205
3 207 200 199
3 207 199 205
3 199 198 202
3 199 202 205
3 208 183 182
3 208 182 209
3 182 178 210
3 182 210 209
3 210 200 207
3 210 207 209
3 207 206 208
3 207 208 209
3 176 106 136
3 176 136 211
3 136 134 201
3 136 201 211
3 201 200 210
3 201 210 211
3 210 178 176
3 210 176 211
3 152 151 212
3 152 212 213
3 212 214 215
3 212 215 213
3 215 216 217
3 215 217 213
3 217 154 152
3 217 152 213
3 218 219 220
3 218 220 221
3 220 222 223
3 220 223 221
3 223 216 215
3 223 215 221
3 215 214 218
3 215 218 221
3 224 203 202
3 224 202 225
3 202 198 226
3 202 226 225
3 226 216 223
3 226 223 225
3 223 222 224
3 223 224 225
3 196 131 156
3 196 156 227
3 156 154 217
3 156 217 227
3 217 216 226
3 217 226 227
3 226 198 196
3 226 196 227
3 167 112 194
3 167 194 228
3 194 192 229
3 194 229 228
3 229 230 231
3 229 231 228
3 231 169 167
3 231 167 228
3 190 189 232
3 190 232 233
3 232 234 235
3 232 235 233
3 235 230 229
3 235 229 233
3 229 192 190
3 229 190 233
3 236 219 218
3 236 218 237
3 218 214 238
3 218 238 237
3 238 230 235
3 238 235 237
3 235 234 236
3 235 236 237
3 212 151 171
3 212 171 239
3 171 169 231
3 171 231 239
3 231 230 238
3 231 238 239
3 238 214 212
3 238 212 239
3 184 183 240
3 184 240 241
3 240 242 243
3 240 243 241
3 243 244 245
3 243 245 241
3 245 186 184
3 245 184 241
3 246 247 248
3 246 248 249
3 248 250 251
3 248 251 249
3 251 244 243
3 251 243 249
3 243 242 246
3 243 246 249
3 252 253 254
3 252 254 255
3 254 256 257
3 254 257 255
3 257 244 251
3 257 251 255
3 251 250 252
3 251 252 255
3 258 189 188
3 258 188 259
3 188 186 245
3 188 245 259
3 245 244 257
3 245 257 259
3 257 256 258
3 257 258 259
3 204 203 260
3 204 260 261
3 260 262 263
3 260 263 261
3 263 264 265
3 263 265 261
3 265 206 204
3 265 204 261
3 266 267 268
3 266 268 269
3 268 270 271
3 268 271 269
3 271 264 263
3 271 263 269
3 263 262 266
3 263 266 269
3 272 247 246
3 272 246 273
3 246 242 274
3 246 274 273
3 274 264 271
3 274 271 273
3 271 270 272
3 271 272 273
3 240 183 208
3 240 208 275
3 208 206 265
3 208 265 275
3 265 264 274
3 265 274 275
3 274 242 240
3 274 240 275
3 220 219 276
3 220 276 277
3 276 278 279
3 276 279 277
3 279 280 281
3 279 281 277
3 281 222 220
3 281 220 277
3 282 283 284
3 282 284 285
3 284 286 287
3 284 287 285
3 287 280 279
3 287 279 285
3 279 278 282
3 279 282 285
3 288 267 266
3 288 266 289
3 266 262 290
3 266 290 289
3 290 280 287
3 290 287 289
3 287 286 288
3 287 288 289
3 260 203 224
3 260 224 291
3 224 222 281
3 224 281 291
3 281 280 290
3 281 290 291
3 290 262 260
3 290 260 291
3 232 189 258
3 232 258 292
3 258 256 293
3 258 293 292
3 293 294 295
3 293 295 292
3 295 234 232
3 295 232 292
3 254 253 296
3 254 296 297
3 296 298 299
3 296 299 297
3 299 294 293
3 299 293 297
3 293 256 254
3 293 254 297
3 300 283 282
3 300 282 301
3 282 278 302
3 282 302 301
3 302 294 299
3 302 299 301
3 299 298 300
3 299 300 301
3 276 219 236
3 276 236 303
3 236 234 295
3 236 295 303
3 295 294 302
3 295 302 303
3 302 278 276
3 302 276 303
3 248 247 304
3 248 304 305
3 304 306 307
3 304 307 305
3 307 308 309
3 307 309 305
3 309 250 248
3 309 248 305
3 310 1 0
3 310 0 311
3 0 8 312
3 0 312 311
3 312 308 307
3 312 307 311
3 307 306 310
3 307 310 311
3 23 22 313
3 23 313 314
3 313 315 316
3 313 316 314
3 316 308 312
3 316 312 314
3 312 8 23
3 312 23 314
3 317 253 252
3 317 252 318
3 252 250 309
3 252 309 318
3 309 308 316
3 309 316 318
3 316 315 317
3 316 317 318
3 268 267 319
3 268 319 320
3 319 321 322
3 319 322 320
3 322 323 324
3 322 324 320
3 324 270 268
3 324 268 320
3 325 10 9
3 325 9 326
3 9 4 327
3 9 327 326
3 327 323 322
3 327 322 326
3 322 321 325
3 322 325 326
3 2 1 310
3 2 310 328
3 310 306 329
3 310 329 328
3 329 323 327
3 329 327 328
3 327 4 2
3 327 2 328
3 304 247 272
3 304 272 330
3 272 270 324
3 272 324 330
3 324 323 329
3 324 329 330
3 329 306 304
3 329 304 330
3 284 283 331
3 284 331 332
3 331 333 334
3 331 334 332
3 334 335 336
3 334 336 332
3 336 286 284
3 336 284 332
3 337 16 15
3 337 15 338
3 15 13 339
3 15 339 338
3 339 335 334
3 339 334 338
3 334 333 337
3 334 337 338
3 11 10 325
3 11 325 340
3 325 321 341
3 325 341 340
3 341 335 339
3 341 339 340
3 339 13 11
3 339 11 340
3 319 267 288
3 319 288 342
3 288 286 336
3 288 336 342
3 336 335 341
3 336 341 342
3 341 321 319
3 341 319 342
3 296 253 317
3 296 317 343
3 317 315 344
3 317 344 343
3 344 345 346
3 344 346 343
3 346 298 296
3 346 296 343
3 313 22 21
3 313 21 347
3 21 19 348
3 21 348 347
3 348 345 344
3 348 344 347
3 344 315 313
3 344 313 347
3 17 16 337
3 17 337 349
3 337 333 350
3 337 350 349
3 350 345 348
3 350 348 349
3 348 19 17
3 348 17 349
3 331 283 300
3 331 300 351
3 300 298 346
3 300 346 351
3 346 345 350
3 346 350 351
3 350 333 331
3 350 331 351
3 75 74 352
3 75 352 353
3 352 354 355
3 352 355 353
3 355 356 357
3 355 357 353
3 357 77 75
3 357 75 353
3 358 142 141
3 358 141 359
3 141 149 360
3 141 360 359
3 360 356 355
3 360 355 359
3 355 354 358
3 355 358 359
3 159 122 361
3 159 361 362
3 361 363 364
3 361 364 362
3 364 356 360
3 364 360 362
3 360 149 159
3 360 159 362
3 365 56 79
3 365 79 366
3 79 77 357
3 79 357 366
3 357 356 364
3 357 364 366
3 364 363 365
3 364 365 366
3 57 56 365
3 57 365 367
3 365 363 368
3 365 368 367
3 368 369 370
3 368 370 367
3 370 59 57
3 370 57 367
3 361 122 121
3 361 121 371
3 121 129 372
3 121 372 371
3 372 369 368
3 372 368 371
3 368 363 361
3 368 361 371
3 139 97 373
3 139 373 374
3 373 375 376
3 373 376 374
3 376 369 372
3 376 372 374
3 372 129 139
3 372 139 374
3 377 34 61
3 377 61 378
3 61 59 370
3 61 370 378
3 370 369 376
3 370 376 378
3 376 375 377
3 376 377 378
3 35 34 377
3 35 377 379
3 377 375 380
3 377 380 379
3 380 381 382
3 380 382 379
3 382 37 35
3 382 35 379
3 373 97 96
3 373 96 383
3 96 104 384
3 96 384 383
3 384 381 380
3 384 380 383
3 380 375 373
3 380 373 383
3 119 118 385
3 119 385 386
3 385 387 388
3 385 388 386
3 388 381 384
3 388 384 386
3 384 104 119
3 384 119 386
3 389 40 39
3 389 39 390
3 39 37 382
3 39 382 390
3 382 381 388
3 382 388 390
3 388 387 389
3 388 389 390
3 88 40 389
3 88 389 391
3 389 387 392
3 389 392 391
3 392 393 394
3 392 394 391
3 394 90 88
3 394 88 391
3 385 118 161
3 385 161 395
3 161 166 396
3 161 396 395
3 396 393 392
3 396 392 395
3 392 387 385
3 392 385 395
3 174 142 358
3 174 358 397
3 358 354 398
3 358 398 397
3 398 393 396
3 398 396 397
3 396 166 174
3 396 174 397
3 352 74 92
3 352 92 399
3 92 90 394
3 92 394 399
3 394 393 398
3 394 398 399
3 398 354 352
3 398 352 399
3 64 26 400
3 400 26 25
