OFF
277 535 0
0.986882 -10.4384 -0.629949
1.22488 -10.3712 -1.18095
1.67788 -10.4384 -1.47045
1.58888 -10.562 -0.738349
2.35388 -10.4716 -1.61725
2.35388 -10.6036 -0.823549
2.35388 -10.6699 0.262251
1.48388 -10.6244 0.279251
0.804882 -10.4882 0.293251
3.03088 -10.4384 -1.47045
3.48388 -10.3712 -1.18095
3.72188 -10.4384 -0.629949
3.11988 -10.562 -0.738349
3.90288 -10.4882 0.293251
3.22488 -10.6244 0.279251
3.96388 -10.5047 1.41845
3.96388 -10.5047 2.51995
3.25988 -10.6452 2.61595
3.25988 -10.6452 1.47085
2.35388 -10.692 2.64795
2.35388 -10.692 1.48825
1.44888 -10.6452 2.61595
0.744882 -10.5047 2.51995
0.744882 -10.5047 1.41845
1.44888 -10.6452 1.47085
0.0538816 -6.78684 -1.01475
0.556882 -6.79861 -1.99855
0.0668816 -6.79861 -1.00275
0.577882 -6.85008 -1.96855
0.0938816 -6.85008 -0.986349
-0.0681184 -6.85008 0.192251
-0.0961184 -6.79861 0.192251
-0.110118 -6.78684 0.192251
0.621882 -6.97624 -1.91325
0.702882 -7.21208 -1.81525
0.252882 -7.21208 -0.902749
0.149882 -6.97624 -0.956249
0.101882 -7.21208 0.192251
-0.00811844 -6.97624 0.192251
0.252882 -7.21208 1.28725
0.702882 -7.21208 2.19975
0.621882 -6.97624 2.29775
0.149882 -6.97624 1.34065
0.577882 -6.85008 2.35295
0.0938816 -6.85008 1.37085
0.556882 -6.79861 2.38295
0.546882 -6.78684 2.40505
0.0538816 -6.78684 1.39925
0.0668816 -6.79861 1.38715
4.14988 -6.79861 -1.99855
4.12988 -6.85008 -1.96855
3.32288 -6.85008 -2.55785
2.35388 -6.85008 -2.75425
2.35288 -6.79861 -2.79515
4.08688 -6.97624 -1.91325
4.00588 -7.21208 -1.81525
3.25488 -7.21208 -2.36275
3.29888 -6.97624 -2.48745
2.35388 -7.21208 -2.54525
2.35388 -6.97624 -2.67885
1.45388 -7.21208 -2.36275
1.40988 -6.97624 -2.48745
1.38488 -6.85008 -2.55785
4.64988 -6.78684 1.39925
4.15688 -6.78684 2.40505
4.14988 -6.79861 2.38295
4.63988 -6.79861 1.38715
4.12988 -6.85008 2.35295
4.61488 -6.85008 1.37085
4.77588 -6.85008 0.192251
4.80288 -6.79861 0.192251
4.08688 -6.97624 2.29775
4.00588 -7.21208 2.19975
4.45588 -7.21208 1.28725
4.55888 -6.97624 1.34065
4.60588 -7.21208 0.192251
4.71588 -6.97624 0.192251
4.45588 -7.21208 -0.902749
4.55888 -6.97624 -0.956249
4.61488 -6.85008 -0.986349
1.36688 -6.78684 3.00855
1.37388 -6.79861 2.98045
1.38488 -6.85008 2.94225
2.35388 -6.85008 3.13875
2.35288 -6.79861 3.17965
2.35188 -6.78684 3.20975
1.45388 -7.21208 2.74725
1.40988 -6.97624 2.87195
2.35388 -7.21208 2.92975
2.35388 -6.97624 3.06335
3.25488 -7.21208 2.74725
3.29888 -6.97624 2.87195
3.32288 -6.85008 2.94225
3.33688 -6.78684 3.00855
3.33288 -6.79861 2.98045
0.804882 -9.10113 -0.615049
1.13688 -9.10113 -1.28775
1.08188 -9.55933 -1.35475
0.734882 -9.55933 -0.651549
1.02788 -9.93866 -1.41955
0.660882 -9.94321 -0.685449
0.478882 -9.95067 0.232951
0.582882 -9.56183 0.220051
0.679882 -9.10489 0.215351
1.08188 -10.216 -1.35405
0.710882 -10.2342 -0.645249
0.511882 -10.2615 0.267551
0.444882 -10.2706 2.35985
0.444882 -10.2706 1.33115
0.451882 -9.96074 2.17745
0.432882 -9.95482 1.23285
0.667882 -9.59304 2.01435
1.03988 -9.14504 1.94555
0.747882 -9.11618 1.09185
0.591882 -9.56936 1.14735
3.01888 -9.10113 -1.69145
3.57188 -9.10113 -1.28775
3.62688 -9.55933 -1.35475
3.04888 -9.55933 -1.77665
3.67988 -9.93866 -1.41955
3.07588 -9.94321 -1.86655
2.35388 -9.94776 -2.01825
2.35388 -9.55933 -1.91725
2.35388 -9.10113 -1.82595
3.62588 -10.216 -1.35405
3.04288 -10.2342 -1.80555
2.35388 -10.2524 -1.96695
1.66488 -10.2342 -1.80555
1.63188 -9.94321 -1.86655
1.68988 -9.10113 -1.69145
1.65988 -9.55933 -1.77665
3.96088 -9.11618 1.09185
3.66888 -9.14504 1.94555
4.04088 -9.59304 2.01435
4.11688 -9.56936 1.14735
4.25688 -9.96074 2.17745
4.27588 -9.95482 1.23285
4.22988 -9.95067 0.232951
4.12488 -9.56183 0.220051
4.02888 -9.10489 0.215351
4.26288 -10.2706 2.35985
4.26288 -10.2706 1.33115
4.19688 -10.2615 0.267551
3.99788 -10.2342 -0.645249
4.04788 -9.94321 -0.685449
3.90388 -9.10113 -0.615049
3.97388 -9.55933 -0.651549
1.81788 -9.54091 3.71345
1.43988 -9.60811 3.69455
1.22288 -9.76333 3.93465
1.73388 -9.74512 4.07415
1.06388 -9.98966 4.20195
1.65088 -9.98966 4.37035
2.35388 -9.98966 4.42675
2.35388 -9.72691 4.10915
2.35388 -9.50774 3.72285
1.08188 -10.216 4.38465
1.22488 -10.3712 4.45325
1.67788 -10.4384 4.60585
1.66488 -10.2342 4.56045
2.35388 -10.4716 4.68115
2.35388 -10.2524 4.63165
3.03088 -10.4384 4.60585
3.48388 -10.3712 4.45325
3.62588 -10.216 4.38465
3.04288 -10.2342 4.56045
3.64488 -9.98966 4.20195
3.05788 -9.98966 4.37035
3.48588 -9.76333 3.93465
3.26788 -9.60811 3.69455
2.88988 -9.54091 3.71345
2.97488 -9.74512 4.07415
1.68388 -8.96399 2.24915
1.15188 -9.35891 2.55205
1.71988 -9.19475 2.53025
1.21988 -9.46224 3.03295
1.75988 -9.32007 2.93285
2.35388 -9.27329 2.91045
2.35388 -9.14291 2.55225
2.35388 -8.9155 2.33005
1.31888 -9.54091 3.42975
1.80988 -9.41734 3.33015
2.35388 -9.37572 3.31195
3.38988 -9.54091 3.42975
2.89888 -9.41734 3.33015
3.48888 -9.46224 3.03295
2.94888 -9.32007 2.93285
3.55688 -9.35891 2.55205
3.02488 -8.96399 2.24915
2.98888 -9.19475 2.53025
0.744882 -10.5047 3.37195
0.444882 -10.2706 3.16825
0.804882 -10.4882 3.97315
0.511882 -10.2615 3.76095
0.529882 -9.98562 3.50675
0.463882 -9.9735 2.93035
0.986882 -10.4384 4.32205
0.710882 -10.2342 4.14225
0.709882 -9.98966 3.92235
0.931882 -9.74512 3.65605
0.787882 -9.70164 3.24425
0.715882 -9.64405 2.70515
3.96388 -10.5047 3.37195
3.25988 -10.6452 3.49415
3.90288 -10.4882 3.97315
3.22488 -10.6244 4.11005
2.35388 -10.6699 4.15965
2.35388 -10.692 3.53495
3.72188 -10.4384 4.32205
3.11988 -10.562 4.46815
2.35388 -10.6036 4.53275
1.58888 -10.562 4.46815
1.48388 -10.6244 4.11005
1.44888 -10.6452 3.49415
3.99188 -9.64404 2.70515
3.92088 -9.70164 3.24425
4.17888 -9.98562 3.50675
4.24388 -9.9735 2.93035
3.77688 -9.74512 3.65605
3.99888 -9.98966 3.92235
3.99788 -10.2342 4.14225
4.19688 -10.2615 3.76095
4.26288 -10.2706 3.16825
0.832882 -7.59258 2.04165
1.52488 -7.59258 2.54605
0.967882 -8.06849 1.89015
1.59688 -8.05846 2.34375
2.35388 -8.05135 2.49155
2.35388 -7.59258 2.71415
1.06288 -8.59055 1.81205
1.64688 -8.55041 2.21595
2.35388 -8.52198 2.33665
3.64588 -8.59055 1.81205
3.06188 -8.55041 2.21595
3.74088 -8.06849 1.89015
3.11188 -8.05846 2.34375
3.87588 -7.59258 2.04165
3.18388 -7.59258 2.54605
4.29088 -7.59258 1.20105
4.11488 -8.07017 1.12025
4.23788 -8.06829 0.195451
4.42888 -7.59258 0.192251
3.98288 -8.59724 1.08335
4.08488 -8.58972 0.205151
3.62088 -8.58721 -1.34695
3.96588 -8.58721 -0.647249
3.73488 -8.06766 -1.48555
4.11088 -8.06766 -0.722949
3.87588 -7.59258 -1.65725
4.29088 -7.59258 -0.816549
3.18388 -7.59258 -2.16155
3.10688 -8.06766 -1.94315
2.35388 -8.06766 -2.09565
2.35388 -7.59258 -2.32975
3.04488 -8.58721 -1.76665
2.35388 -8.58721 -1.90655
1.08788 -8.58721 -1.34695
1.66388 -8.58721 -1.76665
0.973882 -8.06766 -1.48555
1.60188 -8.06766 -1.94315
0.832882 -7.59258 -1.65725
1.52488 -7.59258 -2.16155
0.417882 -7.59258 -0.816549
0.597882 -8.06766 -0.722949
0.470882 -8.06829 0.195451
0.279882 -7.59258 0.192251
0.742882 -8.58721 -0.647249
0.623882 -8.58972 0.205151
0.725882 -8.59724 1.08335
0.592882 -8.07017 1.12025
0.417882 -7.59258 1.20105
0.532882 -6.77978 2.43675
4.16588 -6.77978 2.43675
-0.127118 -6.77978 0.192251
0.0378816 -6.77978 1.41645
0.00688156 -6.77625 1.45185
-0.160118 -6.77625 0.192251
3 0 1 2
3 0 2 3
3 2 4 5
3 2 5 3
3 5 6 7
3 5 7 3
3 7 8 0
3 7 0 3
3 9 10 11
3 9 11 12
3 11 13 14
3 11 14 12
3 14 6 5
3 14 5 12
3 5 4 9
3 5 9 12
3 15 16 17
3 15 17 18
3 17 19 20
3 17 20 18
3 20 6 14
3 20 14 18
3 14 13 15
3 14 15 18
3 21 22 23
3 21 23 24
3 23 8 7
3 23 7 24
3 7 6 20
3 7 20 24
3 20 19 21
3 20 21 24
3 25 26 27
3 26 28 29
3 26 29 27
3 29 30 31
3 29 31 27
3 31 32 25
3 31 25 27
3 33 34 35
3 33 35 36
3 35 37 38
3 35 38 36
3 38 30 29
3 38 29 36
3 29 28 33
3 29 33 36
3 39 40 41
3 39 41 42
3 41 43 44
3 41 44 42
3 44 30 38
3 44 38 42
3 38 37 39
3 38 39 42
3 45 46 47
3 45 47 48
3 47 32 31
3 47 31 48
3 31 30 44
3 31 44 48
3 44 43 45
3 44 45 48
3 49 50 51
3 51 52 53
3 54 55 56
3 54 56 57
3 56 58 59
3 56 59 57
3 59 52 51
3 59 51 57
3 51 50 54
3 51 54 57
3 60 34 33
3 60 33 61
3 33 28 62
3 33 62 61
3 62 52 59
3 62 59 61
3 59 58 60
3 59 60 61
3 53 52 62
3 62 28 26
3 63 64 65
3 63 65 66
3 65 67 68
3 65 68 66
3 68 69 70
3 68 70 66
3 70 63 66
3 71 72 73
3 71 73 74
3 73 75 76
3 73 76 74
3 76 69 68
3 76 68 74
3 68 67 71
3 68 71 74
3 77 55 54
3 77 54 78
3 54 50 79
3 54 79 78
3 79 69 76
3 79 76 78
3 76 75 77
3 76 77 78
3 70 69 79
3 79 50 49
3 80 46 45
3 80 45 81
3 45 43 82
3 45 82 81
3 82 83 84
3 82 84 81
3 84 85 80
3 84 80 81
3 41 40 86
3 41 86 87
3 86 88 89
3 86 89 87
3 89 83 82
3 89 82 87
3 82 43 41
3 82 41 87
3 90 72 71
3 90 71 91
3 71 67 92
3 71 92 91
3 92 83 89
3 92 89 91
3 89 88 90
3 89 90 91
3 65 64 93
3 65 93 94
3 93 85 84
3 93 84 94
3 84 83 92
3 84 92 94
3 92 67 65
3 92 65 94
3 95 96 97
3 95 97 98
3 97 99 100
3 97 100 98
3 100 101 102
3 100 102 98
3 102 103 95
3 102 95 98
3 104 1 0
3 104 0 105
3 0 8 106
3 0 106 105
3 106 101 100
3 106 100 105
3 100 99 104
3 100 104 105
3 23 22 107
3 23 107 108
3 107 109 110
3 107 110 108
3 110 101 106
3 110 106 108
3 106 8 23
3 106 23 108
3 111 112 113
3 111 113 114
3 113 103 102
3 113 102 114
3 102 101 110
3 102 110 114
3 110 109 111
3 110 111 114
3 115 116 117
3 115 117 118
3 117 119 120
3 117 120 118
3 120 121 122
3 120 122 118
3 122 123 115
3 122 115 118
3 124 10 9
3 124 9 125
3 9 4 126
3 9 126 125
3 126 121 120
3 126 120 125
3 120 119 124
3 120 124 125
3 2 1 104
3 2 104 127
3 104 99 128
3 104 128 127
3 128 121 126
3 128 126 127
3 126 4 2
3 126 2 127
3 97 96 129
3 97 129 130
3 129 123 122
3 129 122 130
3 122 121 128
3 122 128 130
3 128 99 97
3 128 97 130
3 131 132 133
3 131 133 134
3 133 135 136
3 133 136 134
3 136 137 138
3 136 138 134
3 138 139 131
3 138 131 134
3 140 16 15
3 140 15 141
3 15 13 142
3 15 142 141
3 142 137 136
3 142 136 141
3 136 135 140
3 136 140 141
3 11 10 124
3 11 124 143
3 124 119 144
3 124 144 143
3 144 137 142
3 144 142 143
3 142 13 11
3 142 11 143
3 117 116 145
3 117 145 146
3 145 139 138
3 145 138 146
3 138 137 144
3 138 144 146
3 144 119 117
3 144 117 146
3 147 148 149
3 147 149 150
3 149 151 152
3 149 152 150
3 152 153 154
3 152 154 150
3 154 155 147
3 154 147 150
3 156 157 158
3 156 158 159
3 158 160 161
3 158 161 159
3 161 153 152
3 161 152 159
3 152 151 156
3 152 156 159
3 162 163 164
3 162 164 165
3 164 166 167
3 164 167 165
3 167 153 161
3 167 161 165
3 161 160 162
3 161 162 165
3 168 169 170
3 168 170 171
3 170 155 154
3 170 154 171
3 154 153 167
3 154 167 171
3 167 166 168
3 167 168 171
3 172 112 173
3 172 173 174
3 173 175 176
3 173 176 174
3 176 177 178
3 176 178 174
3 178 179 172
3 178 172 174
3 180 148 147
3 180 147 181
3 147 155 182
3 147 182 181
3 182 177 176
3 182 176 181
3 176 175 180
3 176 180 181
3 170 169 183
3 170 183 184
3 183 185 186
3 183 186 184
3 186 177 182
3 186 182 184
3 182 155 170
3 182 170 184
3 187 132 188
3 187 188 189
3 188 179 178
3 188 178 189
3 178 177 186
3 178 186 189
3 186 185 187
3 186 187 189
3 107 22 190
3 107 190 191
3 190 192 193
3 190 193 191
3 193 194 195
3 193 195 191
3 195 109 107
3 195 107 191
3 196 157 156
3 196 156 197
3 156 151 198
3 156 198 197
3 198 194 193
3 198 193 197
3 193 192 196
3 193 196 197
3 149 148 180
3 149 180 199
3 180 175 200
3 180 200 199
3 200 194 198
3 200 198 199
3 198 151 149
3 198 149 199
3 173 112 111
3 173 111 201
3 111 109 195
3 111 195 201
3 195 194 200
3 195 200 201
3 200 175 173
3 200 173 201
3 17 16 202
3 17 202 203
3 202 204 205
3 202 205 203
3 205 206 207
3 205 207 203
3 207 19 17
3 207 17 203
3 208 163 162
3 208 162 209
3 162 160 210
3 162 210 209
3 210 206 205
3 210 205 209
3 205 204 208
3 205 208 209
3 158 157 196
3 158 196 211
3 196 192 212
3 196 212 211
3 212 206 210
3 212 210 211
3 210 160 158
3 210 158 211
3 190 22 21
3 190 21 213
3 21 19 207
3 21 207 213
3 207 206 212
3 207 212 213
3 212 192 190
3 212 190 213
3 133 132 187
3 133 187 214
3 187 185 215
3 187 215 214
3 215 216 217
3 215 217 214
3 217 135 133
3 217 133 214
3 183 169 168
3 183 168 218
3 168 166 219
3 168 219 218
3 219 216 215
3 219 215 218
3 215 185 183
3 215 183 218
3 164 163 208
3 164 208 220
3 208 204 221
3 208 221 220
3 221 216 219
3 221 219 220
3 219 166 164
3 219 164 220
3 202 16 140
3 202 140 222
3 140 135 217
3 140 217 222
3 217 216 221
3 217 221 222
3 221 204 202
3 221 202 222
3 86 40 223
3 86 223 224
3 223 225 226
3 223 226 224
3 226 227 228
3 226 228 224
3 228 88 86
3 228 86 224
3 229 112 172
3 229 172 230
3 172 179 231
3 172 231 230
3 231 227 226
3 231 226 230
3 226 225 229
3 226 229 230
3 188 132 232
3 188 232 233
3 232 234 235
3 232 235 233
3 235 227 231
3 235 231 233
3 231 179 188
3 231 188 233
3 236 72 90
3 236 90 237
3 90 88 228
3 90 228 237
3 228 227 235
3 228 235 237
3 235 234 236
3 235 236 237
3 73 72 236
3 73 236 238
3 236 234 239
3 236 239 238
3 239 240 241
3 239 241 238
3 241 75 73
3 241 73 238
3 232 132 131
3 232 131 242
3 131 139 243
3 131 243 242
3 243 240 239
3 243 239 242
3 239 234 232
3 239 232 242
3 145 116 244
3 145 244 245
3 244 246 247
3 244 247 245
3 247 240 243
3 247 243 245
3 243 139 145
3 243 145 245
3 248 55 77
3 248 77 249
3 77 75 241
3 77 241 249
3 241 240 247
3 241 247 249
3 247 246 248
3 247 248 249
3 56 55 248
3 56 248 250
3 248 246 251
3 248 251 250
3 251 252 253
3 251 253 250
3 253 58 56
3 253 56 250
3 244 116 115
3 244 115 254
3 115 123 255
3 115 255 254
3 255 252 251
3 255 251 254
3 251 246 244
3 251 244 254
3 129 96 256
3 129 256 257
3 256 258 259
3 256 259 257
3 259 252 255
3 259 255 257
3 255 123 129
3 255 129 257
3 260 34 60
3 260 60 261
3 60 58 253
3 60 253 261
3 253 252 259
3 253 259 261
3 259 258 260
3 259 260 261
3 35 34 260
3 35 260 262
3 260 258 263
3 260 263 262
3 263 264 265
3 263 265 262
3 265 37 35
3 265 35 262
3 256 96 95
3 256 95 266
3 95 103 267
3 95 267 266
3 267 264 263
3 267 263 266
3 263 258 256
3 263 256 266
3 113 112 229
3 113 229 268
3 229 225 269
3 229 269 268
3 269 264 267
3 269 267 268
3 267 103 113
3 267 113 268
3 223 40 39
3 223 39 270
3 39 37 265
3 39 265 270
3 265 264 269
3 265 269 270
3 269 225 223
3 269 223 270
3 271 46 80
3 93 64 272
3 272 64 63
3 25 32 273
3 47 46 271
3 47 271 274
3 271 275 274
3 275 276 273
3 275 273 274
3 273 32 47
3 273 47 274
