OFF
268 507 0
-6.07525 11.8837 9.35313
-5.13625 12.0572 9.50213
-5.24725 12.328 9.33813
-6.21925 12.1451 9.17813
-5.40125 12.5914 9.05513
-6.37925 12.4007 8.88513
-7.28325 11.8737 8.42513
-7.11825 11.6285 8.73713
-6.94625 11.3878 8.93813
-5.57925 12.7832 8.69013
-5.74725 12.8458 8.28713
-6.64225 12.6586 8.11613
-6.53225 12.5897 8.51513
-7.46425 12.1634 7.67013
-7.41225 12.0678 8.05113
-8.09225 11.4536 7.04913
-8.40525 10.6347 6.35313
-8.42325 10.446 6.67513
-8.08525 11.316 7.40213
-8.32725 10.2232 7.05213
-7.97625 11.11 7.77813
-8.16225 10.0003 7.41013
-7.96325 9.82008 7.68513
-7.61825 10.6642 8.34913
-7.80925 10.8764 8.11313
-0.921246 6.30508 4.91313
-2.22025 6.68768 5.36113
-1.33725 5.94668 4.73413
-2.74425 6.35508 5.00813
-1.62425 5.76158 4.50213
-1.82125 5.75788 4.30013
-2.51025 7.27508 5.68813
-2.14025 7.40798 5.66513
-2.88225 7.92898 5.85513
-3.27025 7.67458 5.80313
-2.81225 7.06118 5.59013
-2.92525 8.22358 6.03713
-3.17625 7.92638 5.96713
-3.83525 7.39208 5.61513
-4.02125 7.18528 5.28113
-3.60625 7.30158 5.54613
-3.32225 6.74498 5.24713
-3.05125 6.84658 5.42513
-1.93825 7.71898 5.18213
-2.69825 8.06068 5.23713
-2.64525 8.17808 5.55013
-2.04625 7.76658 5.46813
-2.84825 8.47408 5.72413
-2.94525 8.54788 5.55513
-3.13725 8.49388 5.33413
-2.81625 8.41248 5.94313
-2.75725 8.09348 5.79013
-1.94525 7.55238 5.56913
-3.69725 7.25038 4.71313
-3.72725 7.89538 4.85413
-3.23325 7.30488 4.63513
-3.17025 7.68558 4.83713
-4.16225 7.60308 4.74713
-4.06625 7.92108 4.76513
-3.43825 8.44508 5.12613
-3.24025 8.15698 5.09713
-2.68125 7.76318 4.92813
-3.44725 6.68068 5.01813
-4.04625 7.17788 4.98213
-3.40125 6.64678 4.76913
-4.30025 7.19058 5.12913
-4.40525 7.25298 4.91613
-3.92225 7.20888 4.81413
-4.30925 7.41458 4.79413
-3.29025 6.70768 4.57113
-2.65325 8.94708 6.90013
-3.11025 8.36678 6.67913
-3.56225 7.68168 5.94513
-2.62625 9.47478 7.50013
-3.13425 8.59168 6.99513
-3.84725 7.90428 6.55113
-3.73425 7.80438 6.35313
-4.68425 7.36438 6.15413
-5.67125 7.05598 5.81413
-5.08225 7.02688 5.59513
-4.39725 7.33368 5.97313
-4.56525 7.12018 5.45213
-3.11225 9.29488 5.59413
-2.78525 9.35518 5.96013
-2.60825 9.23678 6.25913
-3.12725 9.79918 5.80613
-3.27925 10.5025 6.14713
-2.88925 10.5189 6.70413
-2.75725 9.87778 6.26213
-2.66325 10.3252 7.11213
-2.55025 9.72058 6.62813
-2.56325 9.98508 7.39513
-2.49325 9.41268 6.87213
-2.59125 8.98498 6.45713
-4.99925 7.70408 4.45013
-4.61925 8.13568 4.56013
-4.11425 8.56758 4.82113
-5.51625 7.78828 4.31713
-6.20325 8.03128 4.25513
-5.33225 8.51598 4.44013
-4.99125 8.28468 4.46013
-4.55725 9.11188 4.84213
-4.32225 8.84078 4.81113
-3.85725 9.76778 5.39413
-3.67425 9.39958 5.29113
-3.58025 9.01088 5.19513
-4.99425 7.03548 5.11713
-5.16825 7.13698 4.79213
-6.10325 7.13278 5.35213
-5.48825 6.99198 5.18113
-6.32225 7.33188 4.91713
-5.69425 7.14418 4.78913
-6.37725 7.61848 4.52813
-5.72725 7.40888 4.46413
-5.18325 7.36498 4.54613
-6.78325 9.58358 7.54213
-4.26025 9.46678 7.44513
-5.48425 9.98258 7.84713
-6.37325 8.98918 7.10013
-3.60625 11.3977 6.95813
-3.28625 11.2809 7.33613
-4.17225 12.1159 7.61213
-3.90025 12.0094 7.98513
-3.68625 11.7952 8.34813
-3.06125 11.0692 7.73013
-4.90525 12.6318 8.08713
-4.68325 12.55 8.47513
-4.48525 12.3461 8.83313
-4.26025 11.8136 9.29013
-4.33925 12.0791 9.11813
-3.50725 11.2502 8.82713
-3.55025 11.5147 8.63913
-2.93725 10.4645 8.21713
-2.93725 10.7512 8.02413
-6.65425 7.50818 6.05513
-6.86125 7.59498 5.67313
-7.38525 8.16728 6.48013
-7.57225 8.28578 6.13613
-7.73725 8.49608 5.73413
-7.05625 7.80678 5.24313
-7.85325 8.96288 7.04313
-8.04425 9.11218 6.73313
-8.20425 9.32668 6.35413
-8.28325 9.81198 5.68513
-8.29825 9.56958 5.97713
-7.82425 9.05638 5.08713
-7.82925 8.75968 5.35313
-7.12525 8.43858 4.60113
-7.13325 8.08898 4.84713
-2.94225 9.52258 7.69613
-3.30225 8.73478 7.15113
-3.25925 9.60328 7.76213
-3.55125 8.85588 7.22013
-4.13225 8.26688 6.79913
-3.98525 8.04948 6.68813
-3.76225 9.72438 7.69313
-3.99525 9.12768 7.25313
-4.52125 8.69658 6.91413
-5.16425 8.35818 6.65813
-5.70825 8.13658 6.53713
-5.71525 7.62408 6.35413
-4.90025 7.78018 6.46613
-5.69925 7.33408 6.15713
-4.81625 7.53318 6.32013
-5.08725 11.8429 9.51013
-4.26225 11.614 9.31413
-5.08525 11.6373 9.37813
-4.32925 11.4458 9.22013
-3.72625 10.9629 8.82313
-3.57025 11.084 8.88113
-4.55725 11.1865 8.86113
-4.10225 10.8004 8.53913
-3.85625 10.2995 8.12813
-3.29725 10.3211 8.31413
-3.08125 10.3462 8.30713
-7.76525 9.72508 7.81013
-7.43525 10.5227 8.43213
-7.52925 9.69478 7.83413
-7.26025 10.4339 8.40513
-6.64425 11.0428 8.89213
-6.79725 11.2072 8.98213
-7.10825 9.73598 7.71013
-7.03125 10.3647 8.27413
-6.39025 10.8219 8.56113
-5.90225 11.5121 9.27613
-5.84025 11.3096 9.02613
-5.97325 11.6773 9.37013
-6.53825 7.60088 6.30913
-6.46925 7.78928 6.46313
-7.07325 8.30898 6.82113
-7.22925 8.17948 6.68813
-6.35925 8.11548 6.58513
-6.60525 8.59858 6.84013
-7.07725 9.12898 7.26213
-7.46425 8.94428 7.27813
-7.66725 8.91578 7.20913
-4.99225 11.1015 8.73913
-6.72025 10.2684 8.09113
-5.85725 10.9366 8.60913
-6.31425 8.63768 4.43413
-5.53825 8.87608 4.57013
-6.32725 9.09948 4.66413
-5.66125 9.26608 4.78013
-5.04825 9.66238 5.08313
-4.80725 9.39418 4.94113
-5.07925 10.036 5.35613
-6.12925 9.46638 4.90413
-4.68825 10.9739 6.13713
-4.32225 10.7869 6.01813
-4.56525 10.1896 5.51313
-3.86425 10.7108 6.06613
-4.18925 10.0188 5.45813
-8.22925 10.7551 6.16313
-8.11625 10.0251 5.56313
-7.95625 10.8237 6.07313
-7.85625 10.2069 5.56013
-7.50125 9.66118 5.11713
-7.70125 9.36608 5.03313
-7.12925 9.77378 5.15313
-7.66525 10.7046 5.91813
-6.96625 9.26168 4.79713
-7.06825 8.85238 4.62213
-5.87625 12.7216 7.89213
-6.67125 12.5538 7.73913
-5.97025 12.4798 7.52713
-6.64425 12.3396 7.39913
-7.26125 11.9682 7.06613
-7.40025 12.1128 7.34113
-7.28125 11.6206 6.70613
-6.23725 12.1869 7.20913
-7.72825 11.4369 6.59913
-7.95525 11.4821 6.78613
-4.01225 11.4307 6.71013
-4.42725 11.3934 6.54613
-4.79325 11.9301 7.02413
-4.48225 12.073 7.29213
-5.21725 11.8811 6.93113
-5.33125 12.3178 7.37613
-5.12525 12.5323 7.71513
-2.92925 6.34258 4.80213
-1.91425 5.81458 4.11913
-1.83125 6.15168 3.89313
-1.92125 5.96898 3.96913
-1.63925 6.39108 3.91613
-1.38725 6.62208 4.02113
-0.885246 6.93858 4.36513
-1.12825 6.81988 4.17513
-0.721246 6.95298 4.55313
-0.625246 6.87228 4.73913
-1.51925 7.02168 5.37013
-0.738246 6.54138 4.94213
-0.633246 6.72898 4.86713
-1.96825 6.93448 5.46913
-2.50825 6.49418 5.20613
-6.62525 11.3685 6.47613
-6.13925 11.5056 6.58813
-6.93225 10.8901 6.06713
-6.85525 11.1288 6.26913
-6.81125 10.5125 5.74713
-6.19725 10.1691 5.45513
-6.46825 10.2487 5.52613
-5.91225 10.2159 5.49813
-5.66725 10.3493 5.60913
-5.40625 10.7871 5.97513
-5.48325 10.5545 5.77813
-5.46525 11.0367 6.18613
-5.62825 11.2575 6.37813
-5.86525 11.4261 6.52313
3 0 1 2
3 0 2 3
3 2 4 5
3 2 5 3
3 5 6 7
3 5 7 3
3 7 8 0
3 7 0 3
3 9 10 11
3 9 11 12
3 11 13 14
3 11 14 12
3 14 6 5
3 14 5 12
3 5 4 9
3 5 9 12
3 15 16 17
3 15 17 18
3 17 19 20
3 17 20 18
3 20 6 14
3 20 14 18
3 14 13 15
3 14 15 18
3 21 22 23
3 21 23 24
3 23 8 7
3 23 7 24
3 7 6 20
3 7 20 24
3 20 19 21
3 20 21 24
3 25 26 27
3 27 28 29
3 29 28 30
3 31 32 33
3 33 34 31
3 34 35 31
3 33 36 37
3 33 37 34
3 38 39 40
3 39 41 40
3 34 38 40
3 35 34 40
3 35 40 42
3 40 41 42
3 43 44 45
3 45 46 43
3 47 45 48
3 45 44 49
3 45 49 48
3 50 36 33
3 50 33 51
3 51 45 47
3 47 50 51
3 33 32 52
3 33 52 51
3 52 46 45
3 52 45 51
3 53 54 55
3 54 56 55
3 57 58 54
3 54 53 57
3 59 49 60
3 49 44 60
3 60 56 54
3 54 59 60
3 56 60 61
3 60 44 61
3 41 39 62
3 39 63 62
3 63 64 62
3 65 66 63
3 65 63 39
3 57 53 67
3 57 67 68
3 67 63 68
3 63 66 68
3 53 69 67
3 69 64 63
3 69 63 67
3 36 70 71
3 36 71 37
3 71 72 37
3 72 34 37
3 70 73 74
3 70 74 71
3 74 75 76
3 74 76 71
3 76 72 71
3 77 78 79
3 77 79 80
3 79 81 80
3 80 72 76
3 76 75 77
3 76 77 80
3 81 39 38
3 38 34 72
3 72 80 38
3 80 81 38
3 49 82 83
3 49 83 48
3 83 84 47
3 83 47 48
3 85 86 87
3 85 87 88
3 87 89 90
3 87 90 88
3 90 84 83
3 90 83 88
3 83 82 85
3 83 85 88
3 91 73 70
3 91 70 92
3 70 93 92
3 93 84 90
3 93 90 92
3 90 89 91
3 90 91 92
3 47 84 93
3 47 93 50
3 93 70 36
3 93 36 50
3 58 57 94
3 94 95 58
3 95 96 58
3 96 54 58
3 97 98 99
3 97 99 100
3 99 101 102
3 99 102 100
3 102 96 95
3 102 95 100
3 95 94 97
3 95 97 100
3 103 86 85
3 103 85 104
3 85 82 105
3 85 105 104
3 105 96 102
3 105 102 104
3 102 101 103
3 102 103 104
3 59 54 96
3 96 105 59
3 105 82 49
3 105 49 59
3 65 39 81
3 81 106 65
3 106 107 66
3 106 66 65
3 79 78 108
3 79 108 109
3 108 110 111
3 108 111 109
3 111 107 106
3 111 106 109
3 106 81 79
3 106 79 109
3 112 98 97
3 112 97 113
3 97 94 114
3 97 114 113
3 114 107 111
3 114 111 113
3 111 110 112
3 111 112 113
3 94 57 68
3 66 107 114
3 66 114 68
3 114 94 68
3 115 116 117
3 118 116 115
3 87 86 119
3 87 119 120
3 119 121 122
3 119 122 120
3 122 123 124
3 122 124 120
3 124 89 87
3 124 87 120
3 125 10 9
3 125 9 126
3 9 4 127
3 9 127 126
3 127 123 122
3 127 122 126
3 122 121 125
3 122 125 126
3 2 1 128
3 2 128 129
3 128 130 131
3 128 131 129
3 131 123 127
3 131 127 129
3 127 4 2
3 127 2 129
3 132 73 91
3 132 91 133
3 91 89 124
3 91 124 133
3 124 123 131
3 124 131 133
3 131 130 132
3 131 132 133
3 108 78 134
3 108 134 135
3 134 136 137
3 134 137 135
3 137 138 139
3 137 139 135
3 139 110 108
3 139 108 135
3 140 22 21
3 140 21 141
3 21 19 142
3 21 142 141
3 142 138 137
3 142 137 141
3 137 136 140
3 137 140 141
3 17 16 143
3 17 143 144
3 143 145 146
3 143 146 144
3 146 138 142
3 146 142 144
3 142 19 17
3 142 17 144
3 147 98 112
3 147 112 148
3 112 110 139
3 112 139 148
3 139 138 146
3 139 146 148
3 146 145 147
3 146 147 148
3 74 73 149
3 74 149 150
3 149 151 152
3 149 152 150
3 152 153 154
3 152 154 150
3 154 75 74
3 154 74 150
3 151 155 156
3 151 156 152
3 156 157 153
3 156 153 152
3 158 159 160
3 158 160 161
3 153 157 158
3 153 158 161
3 162 78 77
3 162 77 163
3 77 75 154
3 77 154 163
3 154 153 161
3 154 161 163
3 161 160 162
3 161 162 163
3 128 1 164
3 128 164 165
3 164 166 167
3 164 167 165
3 167 168 169
3 167 169 165
3 169 130 128
3 169 128 165
3 166 170 167
3 170 171 168
3 170 168 167
3 172 155 151
3 151 173 172
3 173 168 172
3 168 171 172
3 149 73 132
3 149 132 174
3 132 130 169
3 132 169 174
3 169 168 173
3 169 173 174
3 173 151 149
3 173 149 174
3 23 22 175
3 23 175 176
3 175 177 178
3 175 178 176
3 178 179 180
3 178 180 176
3 180 8 23
3 180 23 176
3 177 181 182
3 182 183 179
3 179 178 182
3 178 177 182
3 166 184 185
3 184 179 185
3 179 183 185
3 164 1 0
3 164 0 186
3 0 8 180
3 0 180 186
3 180 179 184
3 180 184 186
3 184 166 164
3 184 164 186
3 134 78 162
3 134 162 187
3 162 160 188
3 162 188 187
3 188 189 190
3 188 190 187
3 190 136 134
3 190 134 187
3 160 159 191
3 191 192 189
3 189 188 191
3 188 160 191
3 193 181 177
3 193 177 194
3 189 192 193
3 189 193 194
3 175 22 140
3 175 140 195
3 140 136 190
3 140 190 195
3 190 189 194
3 190 194 195
3 194 177 175
3 194 175 195
3 155 116 156
3 116 157 156
3 158 157 116
3 170 166 196
3 196 171 170
3 172 196 116
3 196 117 116
3 171 196 172
3 172 116 155
3 182 181 197
3 181 115 197
3 197 198 183
3 183 182 197
3 115 117 198
3 198 197 115
3 117 196 198
3 196 166 185
3 196 185 198
3 185 183 198
3 191 159 192
3 159 158 192
3 158 116 118
3 192 158 118
3 115 192 118
3 192 115 193
3 115 181 193
3 99 98 199
3 99 199 200
3 199 201 202
3 199 202 200
3 202 203 204
3 202 204 200
3 204 101 99
3 204 99 200
3 205 203 202
3 205 202 206
3 202 201 206
3 207 208 209
3 207 209 205
3 209 203 205
3 210 86 103
3 210 103 211
3 103 101 204
3 103 204 211
3 204 203 209
3 204 209 211
3 209 208 210
3 209 210 211
3 143 16 212
3 143 212 213
3 212 214 215
3 212 215 213
3 215 216 217
3 215 217 213
3 217 145 143
3 217 143 213
3 218 216 215
3 218 215 219
3 215 214 219
3 206 201 220
3 206 220 218
3 220 216 218
3 199 98 147
3 199 147 221
3 147 145 217
3 147 217 221
3 217 216 220
3 217 220 221
3 220 201 199
3 220 199 221
3 11 10 222
3 11 222 223
3 222 224 225
3 222 225 223
3 225 226 227
3 225 227 223
3 227 13 11
3 227 11 223
3 228 226 225
3 228 225 229
3 225 224 229
3 219 214 230
3 219 230 228
3 230 226 228
3 212 16 15
3 212 15 231
3 15 13 227
3 15 227 231
3 227 226 230
3 227 230 231
3 230 214 212
3 230 212 231
3 119 86 210
3 119 210 232
3 210 208 233
3 210 233 232
3 233 234 235
3 233 235 232
3 235 121 119
3 235 119 232
3 236 234 233
3 236 233 207
3 233 208 207
3 229 224 237
3 229 237 236
3 237 234 236
3 222 10 125
3 222 125 238
3 125 121 235
3 125 235 238
3 235 234 237
3 235 237 238
3 237 224 222
3 237 222 238
3 30 28 239
3 240 30 239
3 28 41 62
3 28 62 239
3 62 64 239
3 64 240 239
3 53 241 69
3 69 240 64
3 241 242 69
3 242 240 69
3 241 55 243
3 55 244 243
3 56 244 55
3 55 241 53
3 44 245 61
3 61 244 56
3 244 61 246
3 61 245 246
3 247 245 43
3 248 247 43
3 46 248 43
3 43 245 44
3 32 249 52
3 52 248 46
3 249 250 251
3 249 251 52
3 251 248 52
3 25 250 249
3 25 249 252
3 26 25 252
3 32 31 252
3 31 35 26
3 31 26 252
3 252 249 32
3 42 41 28
3 42 28 253
3 26 35 42
3 26 42 253
3 28 27 253
3 27 26 253
3 254 228 229
3 254 229 255
3 256 219 228
3 254 257 228
3 257 256 228
3 256 258 219
3 258 218 219
3 259 206 260
3 258 260 218
3 260 206 218
3 261 262 206
3 262 205 206
3 261 206 259
3 263 207 205
3 262 264 205
3 264 263 205
3 263 265 207
3 265 266 207
3 266 236 207
3 255 229 267
3 266 267 236
3 267 229 236
