OFF
200 381 0
9.67479 -14.1429 9.92151
9.14419 -14.1471 9.54451
7.66979 -14.2141 8.53551
7.67309 -14.2327 8.54451
6.19039 -14.252 7.46351
5.66489 -14.2853 7.10251
5.66489 -14.2853 5.91951
7.67309 -14.2327 7.00751
9.67479 -14.1429 8.04751
5.31409 -8.44473 6.28851
5.04269 -8.63407 6.07051
5.06979 -8.6754 6.06851
5.34109 -8.48615 6.28751
5.10149 -8.72376 6.06651
5.37269 -8.5346 6.28451
5.37269 -8.5346 5.30251
5.34109 -8.48615 5.30451
5.31409 -8.44473 5.30551
4.22849 -9.2021 5.37451
3.41419 -9.77013 4.67051
3.44199 -9.81096 4.66951
4.25589 -9.24318 5.37251
3.47449 -9.85874 4.66851
4.28799 -9.29125 5.37151
3.14279 -9.95947 4.42851
3.17069 -10.0002 3.90151
3.17069 -10.0002 4.42751
3.20339 -10.0479 3.90051
3.20339 -10.0479 4.42651
5.06979 -8.67541 -1.47949
5.10149 -8.72376 -1.47749
4.28799 -9.29125 -0.810494
8.81719 -12.4633 6.63351
8.45809 -12.4761 6.39551
8.94009 -13.1595 7.79951
9.42169 -13.1424 8.11751
9.43559 -13.8194 9.24351
10.0433 -13.7978 9.64551
10.0433 -13.7978 7.83951
9.42169 -13.1424 6.68551
8.81719 -12.4633 5.56551
7.38069 -12.5143 5.63951
6.30329 -12.5526 4.87551
6.05039 -13.2621 5.76151
7.49529 -13.2108 6.78551
5.78929 -13.9489 6.67251
7.61239 -13.8842 7.96551
5.94419 -12.5653 4.61351
5.94419 -12.5653 4.04151
5.56879 -13.2792 4.64151
5.56879 -13.2792 5.40951
5.18159 -13.9705 5.25951
5.18159 -13.9705 6.22851
7.38069 -12.5143 -1.07949
8.45809 -12.4761 -1.80349
8.94009 -13.1595 -3.19649
7.49529 -13.2108 -2.22549
9.43559 -13.8194 -4.63049
7.61239 -13.8842 -3.40449
5.78929 -13.9489 -2.08349
6.05039 -13.2621 -1.17849
6.30329 -12.5526 -0.298494
6.96279 -11.7148 5.27751
6.02389 -11.8154 4.59551
6.38489 -12.205 4.58351
7.34079 -12.1711 5.26051
8.29669 -12.1371 5.93151
7.90179 -11.6141 5.95151
8.21469 -11.5806 6.16351
8.61529 -12.1258 6.14251
8.61529 -12.1258 5.19451
8.21469 -11.5806 5.21051
6.96289 -11.7148 -0.716494
7.90179 -11.6141 -1.36349
8.29669 -12.1371 -1.34349
7.34079 -12.1711 -0.700494
6.38489 -12.205 -0.00749437
6.02389 -11.8154 -0.0204944
5.71099 -11.8489 4.36151
5.71099 -11.8489 3.85151
6.06629 -12.2163 3.84251
6.06629 -12.2163 4.35051
5.68309 -14.2284 7.04351
7.66009 -14.1582 8.44551
9.63719 -14.088 9.83251
10.2962 -14.0646 10.2675
10.2962 -14.0646 8.30851
9.63719 -14.088 -5.21449
7.66009 -14.1582 -3.88449
9.14419 -14.1471 -4.88649
7.66979 -14.2141 -3.92949
6.19039 -14.252 -2.84149
5.68309 -14.2284 -2.45249
5.02399 -14.2518 5.51151
5.02399 -14.2518 6.56151
3.49799 -9.89318 4.66751
4.31119 -9.3259 5.37051
3.87019 -10.1787 4.65651
4.70119 -9.67818 5.35651
5.53229 -9.17766 6.04851
5.12439 -8.75862 6.06551
5.39539 -8.56953 6.28351
5.80929 -9.01082 6.26551
5.80929 -9.01082 5.28851
5.39539 -8.56953 5.30151
5.12439 -8.75862 -1.47549
4.31119 -9.3259 -0.809494
5.53229 -9.17766 -1.45949
4.70119 -9.67818 -0.796494
3.87019 -10.1787 -0.0814944
3.49799 -9.89318 -0.0914944
3.22689 -10.0823 3.89951
3.22689 -10.0823 4.42651
3.59309 -10.3455 3.89251
3.59309 -10.3455 4.41651
4.94889 -10.9797 4.62651
5.83409 -10.6791 5.31751
6.71919 -10.3786 6.00051
7.01419 -10.2784 6.21551
7.01419 -10.2784 5.24951
6.71919 -10.3786 -1.41149
5.83409 -10.6791 -0.756494
4.94889 -10.9797 -0.0514944
4.65389 -11.0799 3.87251
4.65389 -11.0799 4.38951
3.59309 -10.3455 0.205506
3.22689 -10.0823 0.195506
3.59309 -10.3455 0.775506
3.22689 -10.0823 0.768506
4.65389 -11.0799 0.794506
4.65389 -11.0799 0.231506
5.71099 -11.8489 0.258506
5.71099 -11.8489 0.814506
6.06629 -12.2163 0.822506
6.06629 -12.2163 0.269506
5.94419 -12.5653 0.0145056
5.94419 -12.5653 0.636506
5.56879 -13.2792 0.0765056
5.56879 -13.2792 -0.758494
5.18159 -13.9705 -1.55449
5.18159 -13.9705 -0.500494
5.02399 -14.2518 -0.735494
5.02399 -14.2518 -1.87849
5.66489 -14.2853 -2.40349
5.66489 -14.2853 -1.11649
9.67479 -14.1429 -5.14149
9.67479 -14.1429 -3.10249
7.67309 -14.2327 -2.13249
7.67309 -14.2327 -3.80449
10.0433 -13.7978 -4.87349
10.0433 -13.7978 -2.90849
10.2962 -14.0646 -3.34649
10.2962 -14.0646 -5.47749
8.81719 -12.4633 -1.94749
8.81719 -12.4633 -0.785494
9.42169 -13.1424 -1.83149
9.42169 -13.1424 -3.38949
8.21469 -11.5806 -1.49149
8.21469 -11.5806 -0.455494
8.61529 -12.1258 -0.440494
8.61529 -12.1258 -1.47049
5.80929 -9.01082 -1.59049
5.80929 -9.01082 -0.527494
7.01419 -10.2784 -0.491494
7.01419 -10.2784 -1.54149
5.37269 -8.5346 -1.60949
5.37269 -8.5346 -0.540494
5.39539 -8.56953 -0.539494
5.39539 -8.56953 -1.60849
5.31409 -8.44473 -1.61349
5.31409 -8.44473 -0.543494
5.34109 -8.48615 -0.542494
5.34109 -8.48615 -1.61149
5.30519 -8.43093 -0.543494
5.30519 -8.43093 -1.61349
3.20339 -10.0479 2.34151
3.22689 -10.0823 2.34151
3.59309 -10.3455 2.34151
4.65389 -11.0799 2.34051
5.71099 -11.8489 2.34051
6.06629 -12.2163 2.33951
5.94419 -12.5653 2.34751
5.56879 -13.2792 2.37051
5.18159 -13.9705 2.39351
5.02399 -14.2518 2.40351
5.66489 -14.2853 2.41851
9.67479 -14.1429 2.49951
7.67309 -14.2327 2.46051
10.0433 -13.7978 2.49151
10.2962 -14.0646 2.50951
8.81719 -12.4633 2.40551
9.42169 -13.1424 2.44851
8.21469 -11.5806 2.39151
8.61529 -12.1258 2.39151
5.80929 -9.01082 2.39451
7.01419 -10.2784 2.39351
5.37269 -8.5346 2.39551
5.39539 -8.56953 2.39551
5.31409 -8.44473 2.39551
5.34109 -8.48615 2.39551
3 0 1 2
3 0 2 3
3 2 4 5
3 2 5 3
3 5 6 7
3 5 7 3
3 7 8 0
3 7 0 3
3 9 10 11
3 9 11 12
3 11 13 14
3 11 14 12
3 14 15 16
3 14 16 12
3 16 17 9
3 16 9 12
3 18 19 20
3 18 20 21
3 20 22 23
3 20 23 21
3 23 13 11
3 23 11 21
3 11 10 18
3 11 18 21
3 24 25 26
3 25 27 28
3 25 28 26
3 28 22 20
3 28 20 26
3 20 19 24
3 20 24 26
3 29 30 31
3 32 33 34
3 32 34 35
3 34 36 37
3 34 37 35
3 37 38 39
3 37 39 35
3 39 40 32
3 39 32 35
3 41 42 43
3 41 43 44
3 43 45 46
3 43 46 44
3 46 36 34
3 46 34 44
3 34 33 41
3 34 41 44
3 47 48 49
3 47 49 50
3 49 51 52
3 49 52 50
3 52 45 43
3 52 43 50
3 43 42 47
3 43 47 50
3 53 54 55
3 53 55 56
3 55 57 58
3 55 58 56
3 58 59 60
3 58 60 56
3 60 61 53
3 60 53 56
3 62 63 64
3 62 64 65
3 64 42 41
3 64 41 65
3 41 33 66
3 41 66 65
3 66 67 62
3 66 62 65
3 68 67 66
3 68 66 69
3 66 33 32
3 66 32 69
3 32 40 70
3 32 70 69
3 70 71 68
3 70 68 69
3 72 73 74
3 72 74 75
3 74 54 53
3 74 53 75
3 53 61 76
3 53 76 75
3 76 77 72
3 76 72 75
3 78 79 80
3 78 80 81
3 80 48 47
3 80 47 81
3 47 42 64
3 47 64 81
3 64 63 78
3 64 78 81
3 46 45 82
3 46 82 83
3 82 4 2
3 82 2 83
3 2 1 84
3 2 84 83
3 84 36 46
3 84 46 83
3 37 36 84
3 37 84 85
3 84 1 0
3 84 0 85
3 0 8 86
3 0 86 85
3 86 38 37
3 86 37 85
3 58 57 87
3 58 87 88
3 87 89 90
3 87 90 88
3 90 91 92
3 90 92 88
3 92 59 58
3 92 58 88
3 52 51 93
3 52 93 94
3 93 6 5
3 93 5 94
3 5 4 82
3 5 82 94
3 82 45 52
3 82 52 94
3 23 22 95
3 23 95 96
3 95 97 98
3 95 98 96
3 98 99 100
3 98 100 96
3 100 13 23
3 100 23 96
3 14 13 100
3 14 100 101
3 100 99 102
3 100 102 101
3 102 103 104
3 102 104 101
3 104 15 14
3 104 14 101
3 31 30 105
3 31 105 106
3 105 107 108
3 105 108 106
3 108 109 110
3 108 110 106
3 110 31 106
3 28 27 111
3 28 111 112
3 111 113 114
3 111 114 112
3 114 97 95
3 114 95 112
3 95 22 28
3 95 28 112
3 98 97 115
3 98 115 116
3 115 63 62
3 115 62 116
3 62 67 117
3 62 117 116
3 117 99 98
3 117 98 116
3 102 99 117
3 102 117 118
3 117 67 68
3 117 68 118
3 68 71 119
3 68 119 118
3 119 103 102
3 119 102 118
3 108 107 120
3 108 120 121
3 120 73 72
3 120 72 121
3 72 77 122
3 72 122 121
3 122 109 108
3 122 108 121
3 114 113 123
3 114 123 124
3 123 79 78
3 123 78 124
3 78 63 115
3 78 115 124
3 115 97 114
3 115 114 124
3 110 109 125
3 110 125 126
3 125 127 128
3 125 128 126
3 129 127 125
3 129 125 130
3 125 109 122
3 125 122 130
3 122 77 131
3 122 131 130
3 131 132 129
3 131 129 130
3 133 132 131
3 133 131 134
3 131 77 76
3 131 76 134
3 76 61 135
3 76 135 134
3 135 136 133
3 135 133 134
3 137 136 135
3 137 135 138
3 135 61 60
3 135 60 138
3 60 59 139
3 60 139 138
3 139 140 137
3 139 137 138
3 141 140 139
3 141 139 142
3 139 59 92
3 139 92 142
3 92 91 143
3 92 143 142
3 143 144 141
3 143 141 142
3 145 146 147
3 145 147 148
3 147 144 143
3 147 143 148
3 143 91 90
3 143 90 148
3 90 89 145
3 90 145 148
3 149 150 151
3 149 151 152
3 151 146 145
3 151 145 152
3 145 89 87
3 145 87 152
3 87 57 149
3 87 149 152
3 153 154 155
3 153 155 156
3 155 150 149
3 155 149 156
3 149 57 55
3 149 55 156
3 55 54 153
3 55 153 156
3 157 158 159
3 157 159 160
3 159 154 153
3 159 153 160
3 153 54 74
3 153 74 160
3 74 73 157
3 74 157 160
3 161 162 163
3 161 163 164
3 163 158 157
3 163 157 164
3 157 73 120
3 157 120 164
3 120 107 161
3 120 161 164
3 165 166 167
3 165 167 168
3 167 162 161
3 167 161 168
3 161 107 105
3 161 105 168
3 105 30 165
3 105 165 168
3 169 170 171
3 169 171 172
3 171 166 165
3 171 165 172
3 165 30 29
3 165 29 172
3 29 169 172
3 173 170 169
3 173 169 174
3 175 27 25
3 111 27 175
3 111 175 176
3 175 128 176
3 128 127 177
3 128 177 176
3 177 113 111
3 177 111 176
3 123 113 177
3 123 177 178
3 177 127 129
3 177 129 178
3 129 132 179
3 129 179 178
3 179 79 123
3 179 123 178
3 80 79 179
3 80 179 180
3 179 132 133
3 179 133 180
3 133 136 181
3 133 181 180
3 181 48 80
3 181 80 180
3 49 48 181
3 49 181 182
3 181 136 137
3 181 137 182
3 137 140 183
3 137 183 182
3 183 51 49
3 183 49 182
3 93 51 183
3 93 183 184
3 183 140 141
3 183 141 184
3 141 144 185
3 141 185 184
3 185 6 93
3 185 93 184
3 186 8 7
3 186 7 187
3 7 6 185
3 7 185 187
3 185 144 147
3 185 147 187
3 147 146 186
3 147 186 187
3 188 38 86
3 188 86 189
3 86 8 186
3 86 186 189
3 186 146 151
3 186 151 189
3 151 150 188
3 151 188 189
3 190 40 39
3 190 39 191
3 39 38 188
3 39 188 191
3 188 150 155
3 188 155 191
3 155 154 190
3 155 190 191
3 192 71 70
3 192 70 193
3 70 40 190
3 70 190 193
3 190 154 159
3 190 159 193
3 159 158 192
3 159 192 193
3 194 103 119
3 194 119 195
3 119 71 192
3 119 192 195
3 192 158 163
3 192 163 195
3 163 162 194
3 163 194 195
3 196 15 104
3 196 104 197
3 104 103 194
3 104 194 197
3 194 162 167
3 194 167 197
3 167 166 196
3 167 196 197
3 198 17 16
3 198 16 199
3 16 15 196
3 16 196 199
3 196 166 171
3 196 171 199
3 171 170 198
3 171 198 199
3 198 170 173
