OFF
466 914 0
-7.79937 -8.1647 -26.7495
-7.67707 -7.9424 -26.5622
-7.53777 -7.828 -26.7612
-7.64927 -8.1123 -27.1101
-7.25287 -7.7522 -26.8596
-7.36247 -8.0565 -27.2322
-7.37537 -8.4231 -27.347
-7.67137 -8.4543 -27.2183
-7.81967 -8.4818 -26.8342
-6.89077 -7.77 -26.7612
-6.59507 -7.8455 -26.5622
-6.57337 -8.0549 -26.7495
-6.98457 -8.0528 -27.1101
-6.56517 -8.3695 -26.8342
-6.98747 -8.3931 -27.2183
-6.57437 -8.6927 -26.7257
-6.58807 -8.9198 -26.5219
-6.83597 -9.0294 -26.7139
-6.95127 -8.7388 -27.0844
-7.13187 -9.0991 -26.8088
-7.29647 -8.7909 -27.2045
-7.36727 -9.077 -26.7139
-7.49247 -9.0008 -26.5219
-7.68467 -8.7921 -26.7257
-7.55977 -8.7933 -27.0844
-2.50207 -9.7046 -14.3986
-2.45097 -9.5618 -14.4037
-3.01517 -10.062 -15.7803
-3.06807 -10.2097 -15.775
-3.71827 -10.4079 -16.9937
-3.77197 -10.558 -16.9883
-3.75547 -10.7309 -16.9818
-3.05177 -10.3798 -15.7685
-2.48637 -9.8692 -14.3924
-4.45047 -10.5611 -18.0961
-5.10217 -10.4835 -19.1395
-5.15617 -10.6345 -19.1341
-4.50447 -10.712 -18.0905
-5.13967 -10.8083 -19.1276
-4.48797 -10.8859 -18.084
-5.06907 -10.9773 -19.121
-4.96107 -11.1137 -19.1154
-4.30937 -11.1912 -18.072
-4.41737 -11.0548 -18.0774
-3.57787 -11.0346 -16.9697
-3.68527 -10.8989 -16.9751
-2.87707 -10.6787 -15.7568
-2.31737 -10.1583 -14.3809
-2.41957 -10.0291 -14.3862
-2.98277 -10.5452 -15.7621
-1.95787 -9.4346 -14.4067
-1.80947 -9.5043 -14.4037
-2.35197 -10.0026 -15.7803
-2.50537 -9.9305 -15.7835
-3.04417 -10.3475 -16.9937
-3.20007 -10.2743 -16.997
-3.39157 -10.2623 -16.9981
-2.69377 -9.9188 -15.7845
-2.14007 -9.4233 -14.4079
-3.77277 -10.5004 -18.0961
-4.42447 -10.4228 -19.1395
-4.58127 -10.3492 -19.1429
-3.92957 -10.4268 -18.0993
-4.77377 -10.3373 -19.1439
-4.12207 -10.4148 -18.1003
-4.96107 -10.3832 -19.1429
-4.30937 -10.4608 -18.0993
-3.57787 -10.3081 -16.997
-2.31737 -9.4668 -14.4067
-2.87707 -9.9638 -15.7835
-1.75707 -9.9698 -14.3862
-1.83457 -10.115 -14.3809
-2.37797 -10.634 -15.7568
-2.29777 -10.4838 -15.7621
-3.07057 -10.9892 -16.9697
-2.98907 -10.8366 -16.9751
-2.94997 -10.6587 -16.9818
-2.25927 -10.3088 -15.7685
-1.71977 -9.8005 -14.3924
-3.79937 -11.1456 -18.072
-4.45107 -11.068 -19.1154
-4.36907 -10.9146 -19.121
-3.71737 -10.9921 -18.0774
-4.32977 -10.7357 -19.1276
-3.67807 -10.8133 -18.084
-4.34447 -10.5618 -19.1341
-3.69277 -10.6393 -18.0905
-2.96457 -10.4857 -16.9883
-1.73367 -9.6358 -14.3986
-2.27357 -10.1385 -15.775
-2.19547 -10.2303 -14.3779
-2.75107 -10.7532 -15.7536
-3.44977 -11.1103 -16.9664
-3.31387 -11.1272 -16.9655
-2.61727 -10.7698 -15.7524
-2.06617 -10.2464 -14.3769
-4.83227 -11.1898 -19.1122
-4.18057 -11.2674 -18.0686
-4.69567 -11.2068 -19.1112
-4.04397 -11.2843 -18.0676
-4.56427 -11.1658 -19.1122
-3.91257 -11.2434 -18.0686
-3.18317 -11.0865 -16.9664
-1.94177 -10.2076 -14.3779
-2.48867 -10.7297 -15.7536
-5.56367 -10.1369 -20.1765
-5.61757 -10.2878 -20.1709
-5.87857 -9.6297 -21.1444
-5.93357 -9.7836 -21.1388
-5.91667 -9.9608 -21.1322
-5.60107 -10.4616 -20.1644
-6.09077 -9.0704 -21.9811
-6.24407 -8.5674 -22.6243
-6.30867 -8.748 -22.6178
-6.14897 -9.2331 -21.9753
-6.28887 -8.956 -22.6101
-6.13117 -9.4206 -21.9681
-6.20447 -9.1582 -22.6021
-6.07527 -9.3214 -22.5956
-5.93857 -9.75 -21.9552
-6.05507 -9.6029 -21.9611
-5.73467 -10.2722 -21.1199
-5.84477 -10.1331 -21.1255
-5.42247 -10.767 -20.1523
-5.53047 -10.6306 -20.1579
-4.88587 -10.0762 -20.1765
-5.04267 -10.0026 -20.1798
-5.18747 -9.5678 -21.1444
-5.34737 -9.4927 -21.1478
-5.54367 -9.4805 -21.1488
-5.23517 -9.9906 -20.1807
-5.35977 -9.0049 -21.9811
-5.43317 -8.4948 -22.6243
-5.62077 -8.4067 -22.6283
-5.52887 -8.9255 -21.9846
-5.85107 -8.3924 -22.6297
-5.73657 -8.9126 -21.9858
-6.07527 -8.4474 -22.6283
-5.93857 -8.9622 -21.9846
-5.73467 -9.5274 -21.1478
-5.42247 -10.0366 -20.1798
-4.91247 -10.7213 -20.1523
-4.83047 -10.5679 -20.1579
-5.21457 -10.2256 -21.1199
-5.13097 -10.0692 -21.1255
-5.09097 -9.8868 -21.1322
-4.79117 -10.3891 -20.1644
-5.38837 -9.7008 -21.9552
-5.46497 -9.2668 -22.5956
-5.36687 -9.0832 -22.6021
-5.30007 -9.5353 -21.9611
-5.31987 -8.8692 -22.6101
-5.25767 -9.3424 -21.9681
-5.33747 -8.661 -22.6178
-5.27347 -9.1547 -21.9753
-5.10587 -9.7094 -21.1388
-4.80587 -10.2151 -20.1709
-5.29367 -10.8431 -20.1492
-5.60327 -10.3498 -21.1166
-5.46397 -10.3671 -21.1154
-5.15707 -10.8601 -20.1481
-5.92107 -9.4125 -22.5917
-5.79957 -9.8321 -21.9517
-5.75767 -9.4328 -22.5903
-5.65227 -9.8504 -21.9505
-5.60037 -9.3838 -22.5917
-5.51047 -9.8062 -21.9517
-5.32997 -10.3253 -21.1166
-5.02567 -10.8191 -20.1492
-6.38227 -8.2294 -23.0119
-6.45747 -8.4396 -23.0042
-6.52627 -8.0204 -23.2754
-6.61417 -8.2662 -23.2665
-6.58717 -8.5493 -23.2558
-6.43437 -8.6818 -22.9951
-6.69677 -7.9044 -23.5468
-6.91487 -7.8457 -23.9578
-7.02617 -8.1567 -23.9466
-6.79747 -8.1858 -23.5366
-6.99197 -8.515 -23.9331
-6.76657 -8.5099 -23.5243
-6.84657 -8.8633 -23.9195
-6.62397 -9.1445 -23.9083
-6.43367 -9.0794 -23.5019
-6.63497 -8.8251 -23.5121
-6.29637 -9.0468 -23.2362
-6.47227 -8.8246 -23.2451
-6.18567 -9.1072 -22.9783
-6.33607 -8.9172 -22.986
-5.43817 -8.1448 -23.0119
-5.65657 -8.0423 -23.0165
-5.42237 -7.9215 -23.2754
-5.67767 -7.8016 -23.2806
-5.99127 -7.7821 -23.2824
-5.92477 -8.0256 -23.018
-5.43307 -7.7912 -23.5468
-5.51787 -7.7205 -23.9578
-5.84107 -7.5688 -23.9646
-5.72537 -7.654 -23.5529
-6.23787 -7.5441 -23.9669
-6.08437 -7.6316 -23.555
-6.62397 -7.6389 -23.9646
-6.43367 -7.7174 -23.5529
-6.29637 -7.857 -23.2806
-6.18567 -8.0897 -23.0165
-5.47517 -9.0436 -22.9783
-5.36107 -8.8298 -22.986
-5.46557 -8.9724 -23.2362
-5.33207 -8.7225 -23.2451
-5.26807 -8.4312 -23.2558
-5.30627 -8.5807 -22.9951
-5.48257 -8.9942 -23.5019
-5.57267 -9.0503 -23.9083
-5.40377 -8.7341 -23.9195
-5.32977 -8.7081 -23.5121
-5.32267 -8.3655 -23.9331
-5.25647 -8.3747 -23.5243
-5.35297 -8.0069 -23.9466
-5.28377 -8.0503 -23.5366
-5.29197 -8.1478 -23.2665
-5.32667 -8.3384 -23.0042
-6.00627 -9.2132 -22.9737
-6.08657 -9.1708 -23.2309
-5.86397 -9.1984 -23.229
-5.81597 -9.2369 -22.9722
-6.35847 -9.3014 -23.9016
-6.19347 -9.2214 -23.4958
-6.07677 -9.3364 -23.8993
-5.93867 -9.253 -23.4937
-5.80597 -9.2519 -23.9016
-5.69357 -9.1766 -23.4958
-5.64997 -9.1316 -23.2309
-5.63287 -9.1798 -22.9737
-7.20127 -7.8082 -24.6406
-7.31887 -8.1371 -24.6287
-7.47017 -7.8079 -25.4181
-7.59337 -8.1349 -25.4195
-7.56477 -8.5114 -25.4186
-7.28277 -8.5159 -24.6143
-7.63577 -7.8607 -26.114
-7.76707 -8.1582 -26.1563
-7.76397 -8.5004 -26.1964
-7.38637 -9.1027 -26.0667
-7.61457 -8.8335 -26.1306
-7.17157 -9.1731 -25.3661
-7.40937 -8.8775 -25.3911
-6.89367 -9.1814 -24.5882
-7.12897 -8.8841 -24.6
-5.72437 -7.6759 -24.6406
-6.06597 -7.5155 -24.6476
-6.00967 -7.6771 -25.4181
-6.35277 -7.5171 -25.4386
-6.77197 -7.4906 -25.4541
-6.48547 -7.4894 -24.65
-6.33097 -7.7438 -26.114
-6.65397 -7.5967 -26.1735
-7.04197 -7.5709 -26.2288
-7.38167 -7.6619 -26.1735
-7.17037 -7.5904 -25.4386
-6.89367 -7.5897 -24.6476
-5.78227 -9.0818 -24.5882
-5.60367 -8.7475 -24.6
-6.06007 -9.0735 -25.3661
-5.88817 -8.7412 -25.3911
-5.80987 -8.3542 -25.4186
-5.51797 -8.3578 -24.6143
-6.35497 -9.0103 -26.0667
-6.21587 -8.7082 -26.1306
-6.16577 -8.3573 -26.1964
-6.18617 -8.0166 -26.1563
-5.83947 -7.9778 -25.4195
-5.54997 -7.9786 -24.6287
-6.61297 -9.3472 -24.5811
-6.89607 -9.3381 -25.3722
-6.60267 -9.3749 -25.3832
-6.31527 -9.3842 -24.5786
-7.14677 -9.2534 -26.1133
-6.88777 -9.2868 -26.164
-6.60137 -9.2045 -26.1133
-6.31117 -9.2857 -25.3722
-6.02887 -9.2949 -24.5811
-1.51607 -6.8408 -7.60315
-1.37877 -6.9193 -7.59955
-1.40387 -7.543 -9.32395
-1.53407 -7.4762 -9.32695
-1.42457 -8.2189 -11.0899
-1.55717 -8.1552 -11.0928
-1.71957 -8.1445 -11.0936
-1.69287 -7.4639 -9.32805
-1.68177 -6.8243 -7.60445
-1.53007 -8.8912 -12.8117
-1.67007 -8.8254 -12.8147
-1.84207 -8.8147 -12.8155
-2.13537 -8.9454 -12.8117
-2.00937 -8.8558 -12.8147
-1.99707 -8.2697 -11.09
-1.87767 -8.1837 -11.0928
-1.96437 -7.5913 -9.32425
-1.96617 -6.9671 -7.60025
-1.84277 -6.8674 -7.60355
-1.84727 -7.5032 -9.32715
-2.01887 -7.1208 -7.59455
-2.01137 -7.7253 -9.31935
-2.04327 -8.3994 -11.0852
-2.02997 -8.5491 -11.0795
-2.00067 -7.8803 -9.31345
-2.01187 -7.2996 -7.58765
-2.18367 -9.0802 -12.8069
-2.16887 -9.2355 -12.801
-2.00937 -9.5083 -12.7902
-2.10577 -9.3864 -12.795
-1.87977 -8.8123 -11.0693
-1.97087 -8.6947 -11.0739
-1.85537 -8.1538 -9.30255
-1.86297 -7.6163 -7.57485
-1.95627 -7.4744 -7.58075
-1.94457 -8.0314 -9.30755
-1.74307 -7.6965 -7.57125
-1.74547 -8.2224 -9.29955
-1.77017 -8.878 -11.0663
-1.65347 -8.8928 -11.0654
-1.62747 -8.2384 -9.29845
-1.61207 -7.716 -7.56995
-1.89427 -9.5763 -12.7873
-1.77227 -9.5915 -12.7864
-1.55377 -9.4675 -12.7902
-1.65487 -9.5548 -12.7873
-1.44487 -8.7738 -11.0691
-1.54127 -8.8578 -11.0663
-1.41707 -8.1165 -9.30225
-1.37977 -7.5779 -7.57425
-1.48577 -7.6761 -7.57095
-1.51387 -8.2027 -9.29935
-1.30977 -7.4226 -7.57995
-1.34967 -7.9806 -9.30715
-1.37577 -8.642 -11.0738
-1.34317 -8.4882 -11.0795
-1.31967 -7.822 -9.31315
-1.28197 -7.2408 -7.58675
-1.48057 -9.3304 -12.795
-1.44547 -9.1707 -12.801
-1.45857 -9.0153 -12.8069
-1.35637 -8.3385 -11.0851
-1.30287 -7.0629 -7.59375
-1.33507 -7.6672 -9.31905
-0.899669 -5.6745 -3.40845
-0.736369 -5.4511 -2.52155
-0.580969 -5.7842 -2.50735
-0.763369 -5.9625 -3.39625
-0.514569 -6.1915 -2.49075
-0.707569 -6.3153 -3.38195
-0.930269 -6.5139 -4.56555
-0.973569 -6.2253 -4.57715
-1.08737 -5.9902 -4.58705
-0.539169 -6.6046 -2.47445
-0.656569 -6.955 -2.46115
-0.837969 -6.9773 -3.35645
-0.732369 -6.6734 -3.36785
-1.04747 -7.0565 -4.54475
-0.955569 -6.8072 -4.55405
-1.24237 -7.2406 -5.96955
-1.16317 -7.0442 -5.97685
-1.13697 -6.8135 -5.98565
-1.26017 -6.4034 -6.00235
-1.16787 -6.5871 -5.99465
-1.80827 -5.7346 -3.41125
-1.75097 -5.5158 -2.52495
-1.53407 -5.2963 -2.53235
-1.61447 -5.5436 -3.41775
-1.26077 -5.2102 -2.53425
-1.36917 -5.468 -3.41935
-1.49327 -5.8243 -4.59575
-1.70627 -5.8878 -4.59435
-1.87327 -6.0451 -4.58905
-0.978969 -5.2608 -2.53055
-1.11627 -5.5106 -3.41625
-1.27377 -5.8575 -4.59325
-1.41817 -6.301 -6.00705
-1.60637 -6.2771 -6.00895
-1.93077 -6.4538 -6.00355
-1.78907 -6.329 -6.00775
-1.70327 -7.0335 -3.35915
-1.64307 -7.0172 -2.46455
-1.80317 -6.6845 -2.47875
-1.84677 -6.7461 -3.37135
-1.87887 -6.278 -2.49535
-1.91707 -6.3946 -3.38575
-1.95917 -6.5849 -4.56825
-1.89497 -6.8717 -4.55665
-1.77067 -7.1058 -4.54675
-1.86377 -5.8658 -2.51165
-1.90667 -6.0378 -3.39975
-1.95467 -6.2934 -4.57965
-1.99597 -6.649 -5.99625
-1.99437 -6.8772 -5.98745
-1.82937 -7.2835 -5.97075
-1.93557 -7.1011 -5.97845
-0.868869 -7.1741 -2.45375
-1.02457 -7.1676 -3.34995
-1.13277 -7.2593 -2.45185
-1.25547 -7.2419 -3.34835
-1.39617 -7.2745 -4.53805
-1.20407 -7.2129 -4.53945
-1.40527 -7.2079 -2.45555
-1.49387 -7.198 -3.35145
-1.59477 -7.2394 -4.54055
-1.68527 -7.3872 -5.96605
-1.52507 -7.4136 -5.96415
-1.37017 -7.3642 -5.96535
-0.425269 -6.9772 -1.48695
-0.445969 -6.9544 -1.50525
-0.312369 -6.5433 -1.52085
-0.692269 -7.2113 -1.49655
-0.678769 -7.2416 -1.47785
-0.657669 -7.2926 -1.45595
-0.995269 -7.344 -1.47575
-0.999769 -7.3107 -1.49445
-1.31707 -7.2496 -1.49885
-0.304269 -6.0616 -1.55895
-0.333869 -6.0768 -1.66585
-0.410269 -5.6177 -1.68465
-0.382669 -5.592 -1.57815
-0.583869 -5.2419 -1.70075
-0.560069 -5.2076 -1.59455
-0.460069 -6.941 -1.52475
-0.328869 -6.5375 -1.54005
-0.486969 -6.9367 -1.63245
-0.358169 -6.5422 -1.64745
-0.545969 -6.9414 -1.91555
-0.421369 -6.5627 -1.92995
-0.396969 -6.1161 -1.94765
-0.636969 -5.315 -1.98095
-0.469869 -5.6755 -1.96565
-0.773869 -7.1781 -1.90755
-0.723669 -7.1832 -1.62405
-1.01897 -7.2787 -1.62205
-1.05797 -7.2699 -1.90555
-0.701769 -7.193 -1.51615
-1.00367 -7.2906 -1.51415
-1.58577 -7.0102 -1.52885
-1.31507 -7.2307 -1.51845
-1.58877 -7.0046 -1.63645
-1.32377 -7.2201 -1.62625
-1.60637 -7.0072 -1.91935
-1.35117 -7.2139 -1.90955
-1.77667 -6.647 -1.93475
-1.76477 -6.629 -1.65255
-1.84577 -6.1703 -1.67135
-1.85567 -6.207 -1.95275
-1.84747 -6.1567 -1.56455
-1.76517 -6.6259 -1.54525
-1.69767 -5.2778 -1.59865
-1.69957 -5.311 -1.70475
-1.82597 -5.7053 -1.68975
-1.82687 -5.6811 -1.58335
-1.71597 -5.3825 -1.98475
-1.83757 -5.7609 -1.97045
-1.48497 -5.1455 -1.99285
-1.46057 -5.0643 -1.71315
-1.16057 -4.9684 -1.71515
-1.19467 -5.0532 -1.99475
-1.14817 -4.9276 -1.60935
-1.45397 -5.0256 -1.60725
-0.851169 -5.0265 -1.71095
-0.832669 -4.9872 -1.60505
-0.895269 -5.1086 -1.99075
3 0 1 2
3 0 2 3
3 2 4 5
3 2 5 3
3 5 6 7
3 5 7 3
3 7 8 0
3 7 0 3
3 9 10 11
3 9 11 12
3 11 13 14
3 11 14 12
3 14 6 5
3 14 5 12
3 5 4 9
3 5 9 12
3 15 16 17
3 15 17 18
3 17 19 20
3 17 20 18
3 20 6 14
3 20 14 18
3 14 13 15
3 14 15 18
3 21 22 23
3 21 23 24
3 23 8 7
3 23 7 24
3 7 6 20
3 7 20 24
3 20 19 21
3 20 21 24
3 25 26 27
3 25 27 28
3 27 29 30
3 27 30 28
3 30 31 32
3 30 32 28
3 32 33 25
3 32 25 28
3 34 35 36
3 34 36 37
3 36 38 39
3 36 39 37
3 39 31 30
3 39 30 37
3 30 29 34
3 30 34 37
3 40 41 42
3 40 42 43
3 42 44 45
3 42 45 43
3 45 31 39
3 45 39 43
3 39 38 40
3 39 40 43
3 46 47 48
3 46 48 49
3 48 33 32
3 48 32 49
3 32 31 45
3 32 45 49
3 45 44 46
3 45 46 49
3 50 51 52
3 50 52 53
3 52 54 55
3 52 55 53
3 55 56 57
3 55 57 53
3 57 58 50
3 57 50 53
3 59 60 61
3 59 61 62
3 61 63 64
3 61 64 62
3 64 56 55
3 64 55 62
3 55 54 59
3 55 59 62
3 65 35 34
3 65 34 66
3 34 29 67
3 34 67 66
3 67 56 64
3 67 64 66
3 64 63 65
3 64 65 66
3 27 26 68
3 27 68 69
3 68 58 57
3 68 57 69
3 57 56 67
3 57 67 69
3 67 29 27
3 67 27 69
3 70 71 72
3 70 72 73
3 72 74 75
3 72 75 73
3 75 76 77
3 75 77 73
3 77 78 70
3 77 70 73
3 79 80 81
3 79 81 82
3 81 83 84
3 81 84 82
3 84 76 75
3 84 75 82
3 75 74 79
3 75 79 82
3 85 60 59
3 85 59 86
3 59 54 87
3 59 87 86
3 87 76 84
3 87 84 86
3 84 83 85
3 84 85 86
3 52 51 88
3 52 88 89
3 88 78 77
3 88 77 89
3 77 76 87
3 77 87 89
3 87 54 52
3 87 52 89
3 90 47 46
3 90 46 91
3 46 44 92
3 46 92 91
3 92 93 94
3 92 94 91
3 94 95 90
3 94 90 91
3 42 41 96
3 42 96 97
3 96 98 99
3 96 99 97
3 99 93 92
3 99 92 97
3 92 44 42
3 92 42 97
3 100 80 79
3 100 79 101
3 79 74 102
3 79 102 101
3 102 93 99
3 102 99 101
3 99 98 100
3 99 100 101
3 72 71 103
3 72 103 104
3 103 95 94
3 103 94 104
3 94 93 102
3 94 102 104
3 102 74 72
3 102 72 104
3 36 35 105
3 36 105 106
3 105 107 108
3 105 108 106
3 108 109 110
3 108 110 106
3 110 38 36
3 110 36 106
3 111 112 113
3 111 113 114
3 113 115 116
3 113 116 114
3 116 109 108
3 116 108 114
3 108 107 111
3 108 111 114
3 117 118 119
3 117 119 120
3 119 121 122
3 119 122 120
3 122 109 116
3 122 116 120
3 116 115 117
3 116 117 120
3 123 41 40
3 123 40 124
3 40 38 110
3 40 110 124
3 110 109 122
3 110 122 124
3 122 121 123
3 122 123 124
3 61 60 125
3 61 125 126
3 125 127 128
3 125 128 126
3 128 129 130
3 128 130 126
3 130 63 61
3 130 61 126
3 131 132 133
3 131 133 134
3 133 135 136
3 133 136 134
3 136 129 128
3 136 128 134
3 128 127 131
3 128 131 134
3 137 112 111
3 137 111 138
3 111 107 139
3 111 139 138
3 139 129 136
3 139 136 138
3 136 135 137
3 136 137 138
3 105 35 65
3 105 65 140
3 65 63 130
3 65 130 140
3 130 129 139
3 130 139 140
3 139 107 105
3 139 105 140
3 81 80 141
3 81 141 142
3 141 143 144
3 141 144 142
3 144 145 146
3 144 146 142
3 146 83 81
3 146 81 142
3 147 148 149
3 147 149 150
3 149 151 152
3 149 152 150
3 152 145 144
3 152 144 150
3 144 143 147
3 144 147 150
3 153 132 131
3 153 131 154
3 131 127 155
3 131 155 154
3 155 145 152
3 155 152 154
3 152 151 153
3 152 153 154
3 125 60 85
3 125 85 156
3 85 83 146
3 85 146 156
3 146 145 155
3 146 155 156
3 155 127 125
3 155 125 156
3 96 41 123
3 96 123 157
3 123 121 158
3 123 158 157
3 158 159 160
3 158 160 157
3 160 98 96
3 160 96 157
3 119 118 161
3 119 161 162
3 161 163 164
3 161 164 162
3 164 159 158
3 164 158 162
3 158 121 119
3 158 119 162
3 165 148 147
3 165 147 166
3 147 143 167
3 147 167 166
3 167 159 164
3 167 164 166
3 164 163 165
3 164 165 166
3 141 80 100
3 141 100 168
3 100 98 160
3 100 160 168
3 160 159 167
3 160 167 168
3 167 143 141
3 167 141 168
3 113 112 169
3 113 169 170
3 169 171 172
3 169 172 170
3 172 173 174
3 172 174 170
3 174 115 113
3 174 113 170
3 175 176 177
3 175 177 178
3 177 179 180
3 177 180 178
3 180 173 172
3 180 172 178
3 172 171 175
3 172 175 178
3 181 182 183
3 181 183 184
3 183 185 186
3 183 186 184
3 186 173 180
3 186 180 184
3 180 179 181
3 180 181 184
3 187 118 117
3 187 117 188
3 117 115 174
3 117 174 188
3 174 173 186
3 174 186 188
3 186 185 187
3 186 187 188
3 133 132 189
3 133 189 190
3 189 191 192
3 189 192 190
3 192 193 194
3 192 194 190
3 194 135 133
3 194 133 190
3 195 196 197
3 195 197 198
3 197 199 200
3 197 200 198
3 200 193 192
3 200 192 198
3 192 191 195
3 192 195 198
3 201 176 175
3 201 175 202
3 175 171 203
3 175 203 202
3 203 193 200
3 203 200 202
3 200 199 201
3 200 201 202
3 169 112 137
3 169 137 204
3 137 135 194
3 137 194 204
3 194 193 203
3 194 203 204
3 203 171 169
3 203 169 204
3 149 148 205
3 149 205 206
3 205 207 208
3 205 208 206
3 208 209 210
3 208 210 206
3 210 151 149
3 210 149 206
3 211 212 213
3 211 213 214
3 213 215 216
3 213 216 214
3 216 209 208
3 216 208 214
3 208 207 211
3 208 211 214
3 217 196 195
3 217 195 218
3 195 191 219
3 195 219 218
3 219 209 216
3 219 216 218
3 216 215 217
3 216 217 218
3 189 132 153
3 189 153 220
3 153 151 210
3 153 210 220
3 210 209 219
3 210 219 220
3 219 191 189
3 219 189 220
3 161 118 187
3 161 187 221
3 187 185 222
3 187 222 221
3 222 223 224
3 222 224 221
3 224 163 161
3 224 161 221
3 183 182 225
3 183 225 226
3 225 227 228
3 225 228 226
3 228 223 222
3 228 222 226
3 222 185 183
3 222 183 226
3 229 212 211
3 229 211 230
3 211 207 231
3 211 231 230
3 231 223 228
3 231 228 230
3 228 227 229
3 228 229 230
3 205 148 165
3 205 165 232
3 165 163 224
3 165 224 232
3 224 223 231
3 224 231 232
3 231 207 205
3 231 205 232
3 177 176 233
3 177 233 234
3 233 235 236
3 233 236 234
3 236 237 238
3 236 238 234
3 238 179 177
3 238 177 234
3 239 1 0
3 239 0 240
3 0 8 241
3 0 241 240
3 241 237 236
3 241 236 240
3 236 235 239
3 236 239 240
3 23 22 242
3 23 242 243
3 242 244 245
3 242 245 243
3 245 237 241
3 245 241 243
3 241 8 23
3 241 23 243
3 246 182 181
3 246 181 247
3 181 179 238
3 181 238 247
3 238 237 245
3 238 245 247
3 245 244 246
3 245 246 247
3 197 196 248
3 197 248 249
3 248 250 251
3 248 251 249
3 251 252 253
3 251 253 249
3 253 199 197
3 253 197 249
3 254 10 9
3 254 9 255
3 9 4 256
3 9 256 255
3 256 252 251
3 256 251 255
3 251 250 254
3 251 254 255
3 2 1 239
3 2 239 257
3 239 235 258
3 239 258 257
3 258 252 256
3 258 256 257
3 256 4 2
3 256 2 257
3 233 176 201
3 233 201 259
3 201 199 253
3 201 253 259
3 253 252 258
3 253 258 259
3 258 235 233
3 258 233 259
3 213 212 260
3 213 260 261
3 260 262 263
3 260 263 261
3 263 264 265
3 263 265 261
3 265 215 213
3 265 213 261
3 266 16 15
3 266 15 267
3 15 13 268
3 15 268 267
3 268 264 263
3 268 263 267
3 263 262 266
3 263 266 267
3 11 10 254
3 11 254 269
3 254 250 270
3 254 270 269
3 270 264 268
3 270 268 269
3 268 13 11
3 268 11 269
3 248 196 217
3 248 217 271
3 217 215 265
3 217 265 271
3 265 264 270
3 265 270 271
3 270 250 248
3 270 248 271
3 225 182 246
3 225 246 272
3 246 244 273
3 246 273 272
3 273 274 275
3 273 275 272
3 275 227 225
3 275 225 272
3 242 22 21
3 242 21 276
3 21 19 277
3 21 277 276
3 277 274 273
3 277 273 276
3 273 244 242
3 273 242 276
3 17 16 266
3 17 266 278
3 266 262 279
3 266 279 278
3 279 274 277
3 279 277 278
3 277 19 17
3 277 17 278
3 260 212 229
3 260 229 280
3 229 227 275
3 229 275 280
3 275 274 279
3 275 279 280
3 279 262 260
3 279 260 280
3 281 282 283
3 281 283 284
3 283 285 286
3 283 286 284
3 286 287 288
3 286 288 284
3 288 289 281
3 288 281 284
3 290 51 50
3 290 50 291
3 50 58 292
3 50 292 291
3 292 287 286
3 292 286 291
3 286 285 290
3 286 290 291
3 68 26 293
3 68 293 294
3 293 295 296
3 293 296 294
3 296 287 292
3 296 292 294
3 292 58 68
3 292 68 294
3 297 298 299
3 297 299 300
3 299 289 288
3 299 288 300
3 288 287 296
3 288 296 300
3 296 295 297
3 296 297 300
3 301 298 297
3 301 297 302
3 297 295 303
3 297 303 302
3 303 304 305
3 303 305 302
3 305 306 301
3 305 301 302
3 293 26 25
3 293 25 307
3 25 33 308
3 25 308 307
3 308 304 303
3 308 303 307
3 303 295 293
3 303 293 307
3 48 47 309
3 48 309 310
3 309 311 312
3 309 312 310
3 312 304 308
3 312 308 310
3 308 33 48
3 308 48 310
3 313 314 315
3 313 315 316
3 315 306 305
3 315 305 316
3 305 304 312
3 305 312 316
3 312 311 313
3 312 313 316
3 317 314 313
3 317 313 318
3 313 311 319
3 313 319 318
3 319 320 321
3 319 321 318
3 321 322 317
3 321 317 318
3 309 47 90
3 309 90 323
3 90 95 324
3 90 324 323
3 324 320 319
3 324 319 323
3 319 311 309
3 319 309 323
3 103 71 325
3 103 325 326
3 325 327 328
3 325 328 326
3 328 320 324
3 328 324 326
3 324 95 103
3 324 103 326
3 329 330 331
3 329 331 332
3 331 322 321
3 331 321 332
3 321 320 328
3 321 328 332
3 328 327 329
3 328 329 332
3 333 330 329
3 333 329 334
3 329 327 335
3 329 335 334
3 335 336 337
3 335 337 334
3 337 338 333
3 337 333 334
3 325 71 70
3 325 70 339
3 70 78 340
3 70 340 339
3 340 336 335
3 340 335 339
3 335 327 325
3 335 325 339
3 88 51 290
3 88 290 341
3 290 285 342
3 290 342 341
3 342 336 340
3 342 340 341
3 340 78 88
3 340 88 341
3 283 282 343
3 283 343 344
3 343 338 337
3 343 337 344
3 337 336 342
3 337 342 344
3 342 285 283
3 342 283 344
3 345 346 347
3 345 347 348
3 347 349 350
3 347 350 348
3 350 351 352
3 350 352 348
3 352 353 345
3 352 345 348
3 354 355 356
3 354 356 357
3 356 358 359
3 356 359 357
3 359 351 350
3 359 350 357
3 350 349 354
3 350 354 357
3 360 330 333
3 360 333 361
3 333 338 362
3 333 362 361
3 362 351 359
3 362 359 361
3 359 358 360
3 359 360 361
3 343 282 363
3 343 363 364
3 363 353 352
3 363 352 364
3 352 351 362
3 352 362 364
3 362 338 343
3 362 343 364
3 365 366 367
3 365 367 368
3 367 369 370
3 367 370 368
3 370 371 372
3 370 372 368
3 372 373 365
3 372 365 368
3 374 346 345
3 374 345 375
3 345 353 376
3 345 376 375
3 376 371 370
3 376 370 375
3 370 369 374
3 370 374 375
3 363 282 281
3 363 281 377
3 281 289 378
3 281 378 377
3 378 371 376
3 378 376 377
3 376 353 363
3 376 363 377
3 299 298 379
3 299 379 380
3 379 373 372
3 379 372 380
3 372 371 378
3 372 378 380
3 378 289 299
3 378 299 380
3 381 382 383
3 381 383 384
3 383 385 386
3 383 386 384
3 386 387 388
3 386 388 384
3 388 389 381
3 388 381 384
3 390 366 365
3 390 365 391
3 365 373 392
3 365 392 391
3 392 387 386
3 392 386 391
3 386 385 390
3 386 390 391
3 379 298 301
3 379 301 393
3 301 306 394
3 301 394 393
3 394 387 392
3 394 392 393
3 392 373 379
3 392 379 393
3 315 314 395
3 315 395 396
3 395 389 388
3 395 388 396
3 388 387 394
3 388 394 396
3 394 306 315
3 394 315 396
3 356 355 397
3 356 397 398
3 397 399 400
3 397 400 398
3 400 401 402
3 400 402 398
3 402 358 356
3 402 356 398
3 403 382 381
3 403 381 404
3 381 389 405
3 381 405 404
3 405 401 400
3 405 400 404
3 400 399 403
3 400 403 404
3 395 314 317
3 395 317 406
3 317 322 407
3 317 407 406
3 407 401 405
3 407 405 406
3 405 389 395
3 405 395 406
3 331 330 360
3 331 360 408
3 360 358 402
3 360 402 408
3 402 401 407
3 402 407 408
3 407 322 331
3 407 331 408
3 409 410 411
3 412 410 409
3 412 409 413
3 409 414 413
3 414 415 413
3 415 416 412
3 415 412 413
3 417 416 415
3 418 419 420
3 418 420 421
3 420 422 423
3 420 423 421
3 411 410 424
3 411 424 425
3 424 426 427
3 424 427 425
3 427 419 418
3 427 418 425
3 418 411 425
3 428 355 354
3 428 354 429
3 354 349 430
3 354 430 429
3 430 419 427
3 430 427 429
3 427 426 428
3 427 428 429
3 347 346 431
3 347 431 432
3 431 422 420
3 431 420 432
3 420 419 430
3 420 430 432
3 430 349 347
3 430 347 432
3 397 355 428
3 397 428 433
3 428 426 434
3 428 434 433
3 434 435 436
3 434 436 433
3 436 399 397
3 436 397 433
3 424 410 412
3 424 412 437
3 412 416 438
3 412 438 437
3 438 435 434
3 438 434 437
3 434 426 424
3 434 424 437
3 417 439 440
3 439 441 442
3 439 442 440
3 442 435 438
3 442 438 440
3 438 416 417
3 438 417 440
3 443 382 403
3 443 403 444
3 403 399 436
3 403 436 444
3 436 435 442
3 436 442 444
3 442 441 443
3 442 443 444
3 383 382 443
3 383 443 445
3 443 441 446
3 443 446 445
3 446 447 448
3 446 448 445
3 448 385 383
3 448 383 445
3 449 447 446
3 449 446 450
3 446 441 439
3 446 439 450
3 451 452 453
3 451 453 454
3 453 447 449
3 453 449 454
3 455 366 390
3 455 390 456
3 390 385 448
3 390 448 456
3 448 447 453
3 448 453 456
3 453 452 455
3 453 455 456
3 367 366 455
3 367 455 457
3 455 452 458
3 455 458 457
3 458 459 460
3 458 460 457
3 460 369 367
3 460 367 457
3 461 459 458
3 461 458 462
3 458 452 451
3 458 451 462
3 423 422 463
3 423 463 464
3 463 459 461
3 463 461 464
3 431 346 374
3 431 374 465
3 374 369 460
3 374 460 465
3 460 459 463
3 460 463 465
3 463 422 431
3 463 431 465
