OFF
212 410 0
14.6925 1.35036 -10.6671
14.7395 1.78806 -10.3011
15.3335 1.61546 -10.7601
15.2755 1.31156 -10.9711
15.3015 1.02126 -10.9591
14.9115 1.02336 -10.8631
15.7845 1.64876 -10.5491
16.0715 1.59626 -10.2021
15.9565 1.31136 -10.5561
15.6825 1.09026 -10.8761
15.8745 0.988962 -10.5021
15.6925 0.936562 -9.66408
15.2335 0.723762 -10.4091
15.3195 0.802062 -10.7681
14.7635 0.838962 -10.2461
14.4415 1.11596 -9.76008
14.5175 1.12396 -10.3641
13.5895 2.75036 6.55392
12.9065 2.75566 5.33292
13.3305 2.43956 6.59492
12.4775 2.10356 5.37592
13.1315 1.98576 6.59792
13.0825 1.51216 6.60192
12.5225 1.33616 5.39392
13.1825 1.06726 6.60792
14.6155 2.69786 6.44892
14.3295 2.86906 6.54992
14.9585 2.38966 6.60292
13.8855 2.88506 6.42092
15.0755 1.31886 6.66092
14.2085 0.531662 6.60392
14.5275 0.723362 6.56192
14.7295 1.06066 6.46992
14.9225 1.49406 6.49692
14.2565 1.67536 5.42392
15.0695 1.94826 6.64192
12.8245 1.04786 5.51092
13.7855 0.598662 6.57092
13.4335 0.736962 6.59992
13.7045 0.795062 5.77992
11.9815 2.57086 2.26092
12.2035 2.74146 2.24092
12.4075 2.68046 0.78092
12.2085 2.55446 0.79992
12.8015 2.56266 -0.77608
12.6275 2.47856 -0.76108
12.5205 2.36666 -0.74108
12.0865 2.38656 0.82392
11.8445 2.34346 2.28792
13.2895 2.37276 -2.31808
13.7745 2.18766 -3.75308
13.6025 2.13276 -3.73708
13.1395 2.32236 -2.30708
13.0465 2.25546 -2.29208
13.5405 2.06386 -3.71508
13.6415 2.00236 -3.69408
13.0735 2.11746 -2.26108
13.0215 2.18316 -2.27608
12.5525 2.13556 -0.70308
12.4915 2.24576 -0.72108
12.1225 2.03996 0.86492
11.8845 1.87406 2.32792
11.8075 2.09796 2.30992
12.0535 2.20526 0.84592
13.0935 2.71386 2.26092
13.2995 2.55296 2.28692
13.3895 2.54216 0.82192
13.2045 2.66076 0.79892
13.6605 2.47156 -0.74208
13.4995 2.55036 -0.76108
13.2765 2.59446 -0.77508
12.9505 2.72726 0.78192
12.8095 2.80436 2.24092
14.0325 2.31966 -2.29108
14.4225 2.15416 -3.73008
14.3015 2.18446 -3.74308
13.9475 2.20266 -3.75508
13.7005 2.39236 -2.31608
13.0305 2.59996 -0.78008
12.4955 2.81636 2.23392
12.6695 2.73596 0.77592
13.2025 1.85406 2.34992
12.9815 1.68166 2.35492
13.1035 1.89836 0.89292
13.3025 2.02596 0.88592
13.4115 2.04186 -0.67608
13.5845 2.12726 -0.68508
13.6925 2.24056 -0.69908
13.4255 2.19556 0.87092
13.3395 2.08346 2.33792
14.2995 2.00326 -3.68308
14.0855 2.17936 -2.36108
13.8605 2.07356 -2.21008
14.0845 2.25416 -2.27408
13.7215 2.36186 -0.72008
13.3765 2.32966 2.31392
13.4585 2.37736 0.84792
12.0905 1.71146 2.33992
12.3065 1.91986 0.87792
12.7135 2.05556 -0.68908
12.9365 2.01026 -0.68008
12.5615 1.85186 0.88692
12.3755 1.61916 2.34692
13.2135 2.06976 -2.25008
14.0035 1.96826 -3.67808
13.4895 2.03556 -2.25608
13.1815 2.00426 -0.67508
12.6885 1.60626 2.35292
12.8415 1.84246 0.89292
14.1215 2.07466 -5.01308
14.5805 2.10676 -6.04208
14.3605 1.99856 -6.25508
13.9645 1.99086 -4.95608
14.6005 2.15976 -6.87008
14.7695 2.36976 -7.65308
14.5965 2.22546 -7.58608
14.4275 1.85316 -6.66608
14.3145 1.75736 -5.85508
14.1825 1.86546 -5.71508
14.5385 1.90326 -7.26708
14.7235 2.05896 -4.94508
14.9845 2.05096 -6.02608
14.4135 2.10636 -4.98208
15.2805 2.07746 -6.81308
15.5685 2.24966 -7.64008
15.2595 2.32836 -7.48908
14.9885 2.20826 -6.88008
14.9975 1.81296 -5.86208
14.7725 1.93406 -4.91908
14.8425 1.73496 -5.80308
15.0305 1.74706 -6.70008
15.1895 1.79386 -7.19808
15.2395 1.87666 -6.74608
15.5815 2.01976 -7.66908
15.0135 1.93496 -5.77908
14.6345 1.69976 -5.87208
14.6645 1.74566 -6.68608
14.3655 2.17616 -8.41908
14.6135 2.47676 -8.52508
14.3055 1.90186 -8.42908
14.3605 1.53296 -8.68208
14.5265 1.99936 -7.80908
15.5025 2.59326 -8.29808
16.0125 2.28156 -8.41708
15.7755 2.41076 -8.89508
15.4515 2.47196 -9.02508
15.0785 2.51086 -8.94408
15.0765 2.61646 -8.31608
15.4275 1.82626 -7.74908
15.6545 1.35096 -8.57908
15.8595 1.68116 -8.31608
15.9905 1.94036 -8.31008
14.9365 1.78916 -7.73608
14.6065 1.41496 -8.52208
14.9385 1.28566 -8.56408
15.3025 1.31736 -8.46708
14.7505 2.22486 -9.51508
14.4895 2.00786 -9.54908
14.3175 1.80906 -9.36708
14.4535 1.46466 -10.1941
14.2805 1.51696 -9.36208
16.0735 2.03326 -9.42008
15.8275 2.08216 -9.75608
15.5005 1.99346 -10.1861
15.1365 2.07686 -10.0501
15.9585 1.27726 -9.23308
16.1225 1.54866 -9.23108
16.0335 1.14456 -10.0521
16.1695 1.76566 -9.42608
14.6385 1.06486 -9.37408
15.0055 0.838862 -9.73808
15.3545 0.876162 -9.57008
14.2075 2.44426 5.37992
13.6325 2.71756 4.70692
13.8095 2.48186 4.56892
13.2485 2.85046 4.51892
13.6245 2.85746 5.32792
13.4735 2.52546 3.53692
13.2505 2.72606 3.50892
12.9425 2.83906 3.48792
12.2865 2.76106 3.48692
12.6035 2.85426 3.48092
12.5545 2.75916 4.51792
12.8895 2.86846 4.51092
12.6395 2.47596 5.34992
12.3005 2.50976 4.53992
12.1445 2.17726 4.56592
12.0465 2.54876 3.50892
11.8985 2.26556 3.53592
11.9425 1.68116 3.57092
11.8585 1.95986 3.55692
12.1905 1.49146 4.59392
12.1015 1.81856 4.58392
12.4325 1.70146 5.38992
12.4255 1.25406 4.59892
12.7515 1.11926 4.60192
13.1075 0.918462 5.39792
12.1645 1.47876 3.57992
12.4725 1.36396 3.58492
13.1285 1.44126 3.59492
12.8115 1.34776 3.59092
13.4445 1.20976 4.61392
13.1095 1.10026 4.60792
13.8285 1.01956 5.41292
14.0925 1.30076 5.42092
13.6985 1.46106 4.61892
13.8555 1.79566 4.61492
13.3685 1.65566 3.59492
13.5165 1.94096 3.58592
13.5565 2.24736 3.56492
13.8975 2.15526 4.59592
14.2995 2.07816 5.40592
3 0 1 2
3 0 2 3
3 3 4 5
3 5 0 3
3 6 7 8
3 6 8 9
3 8 10 9
3 9 4 3
3 3 2 6
3 3 6 9
3 10 11 12
3 10 12 13
3 13 4 9
3 9 10 13
3 14 15 16
3 14 16 5
3 16 0 5
3 5 4 13
3 13 12 14
3 13 14 5
3 17 18 19
3 19 20 21
3 22 23 24
3 21 20 22
3 25 26 27
3 28 18 17
3 28 17 26
3 29 30 31
3 31 32 29
3 32 33 29
3 32 34 33
3 33 34 35
3 29 33 35
3 24 23 36
3 37 38 36
3 38 24 36
3 31 30 39
3 30 37 39
3 40 41 42
3 40 42 43
3 42 44 45
3 42 45 43
3 45 46 47
3 45 47 43
3 47 48 40
3 47 40 43
3 49 50 51
3 49 51 52
3 51 53 52
3 53 46 45
3 53 45 52
3 45 44 49
3 45 49 52
3 54 55 56
3 54 56 57
3 56 58 59
3 56 59 57
3 59 46 53
3 59 53 57
3 53 51 54
3 53 54 57
3 60 61 62
3 60 62 63
3 62 48 47
3 62 47 63
3 47 46 59
3 47 59 63
3 59 58 60
3 59 60 63
3 64 65 66
3 64 66 67
3 66 68 69
3 66 69 67
3 69 70 71
3 69 71 67
3 71 72 64
3 71 64 67
3 73 74 75
3 75 76 77
3 77 70 69
3 77 69 75
3 69 68 73
3 69 73 75
3 76 50 49
3 76 49 78
3 49 44 78
3 78 70 77
3 77 76 78
3 42 41 79
3 42 79 80
3 79 72 71
3 79 71 80
3 71 70 78
3 71 78 80
3 78 44 42
3 78 42 80
3 81 82 83
3 81 83 84
3 83 85 86
3 83 86 84
3 86 87 88
3 86 88 84
3 88 89 81
3 88 81 84
3 90 91 92
3 91 87 86
3 91 86 92
3 86 85 92
3 93 74 73
3 73 68 94
3 73 94 93
3 94 87 91
3 94 91 93
3 66 65 95
3 66 95 96
3 95 89 88
3 95 88 96
3 88 87 94
3 88 94 96
3 94 68 66
3 94 66 96
3 97 61 60
3 97 60 98
3 60 58 99
3 60 99 98
3 99 100 101
3 99 101 98
3 101 102 97
3 101 97 98
3 56 55 103
3 55 104 105
3 55 105 103
3 105 100 99
3 105 99 103
3 99 58 56
3 99 56 103
3 104 90 92
3 104 92 105
3 92 85 106
3 92 106 105
3 106 100 105
3 83 82 107
3 83 107 108
3 107 102 101
3 107 101 108
3 101 100 106
3 101 106 108
3 106 85 83
3 106 83 108
3 51 50 109
3 109 110 111
3 111 112 109
3 112 51 109
3 113 114 115
3 115 111 113
3 111 110 113
3 116 117 118
3 118 111 116
3 111 115 119
3 111 119 116
3 117 55 54
3 117 54 118
3 54 51 112
3 54 112 118
3 112 111 118
3 75 74 120
3 121 110 122
3 121 122 120
3 122 76 75
3 122 75 120
3 123 124 125
3 123 125 126
3 126 110 121
3 121 123 126
3 114 113 126
3 113 110 126
3 126 125 114
3 109 50 76
3 109 76 122
3 110 109 122
3 127 128 129
3 128 91 90
3 128 90 129
3 130 131 132
3 131 133 132
3 127 129 130
3 127 130 132
3 123 121 134
3 134 127 132
3 134 132 123
3 132 133 124
3 132 124 123
3 120 74 93
3 120 93 134
3 93 91 128
3 93 128 134
3 128 127 134
3 134 121 120
3 135 104 55
3 135 55 117
3 116 119 136
3 119 131 136
3 136 135 117
3 117 116 136
3 130 129 135
3 135 136 130
3 136 131 130
3 129 90 104
3 129 104 135
3 114 137 115
3 137 114 138
3 139 140 141
3 141 137 139
3 119 115 141
3 115 137 141
3 125 124 142
3 143 144 142
3 144 145 142
3 142 124 143
3 146 138 147
3 138 114 147
3 142 145 146
3 142 146 147
3 114 125 142
3 114 142 147
3 131 148 133
3 148 149 150
3 151 133 150
3 133 148 150
3 124 151 143
3 133 151 124
3 119 141 152
3 152 131 119
3 141 140 153
3 141 153 152
3 153 154 152
3 155 149 148
3 155 148 152
3 152 154 155
3 131 152 148
3 138 156 157
3 158 137 138
3 158 138 157
3 0 159 1
3 159 158 157
3 159 157 1
3 157 156 1
3 15 160 16
3 160 158 159
3 160 159 16
3 159 0 16
3 140 139 160
3 139 137 158
3 139 158 160
3 160 15 140
3 144 143 161
3 161 162 144
3 162 163 145
3 162 145 144
3 6 2 163
3 163 162 6
3 162 161 7
3 162 7 6
3 2 1 164
3 1 156 164
3 163 2 164
3 156 138 146
3 145 163 164
3 145 164 146
3 164 156 146
3 150 149 165
3 149 11 165
3 166 151 150
3 166 150 165
3 11 10 167
3 167 166 165
3 165 11 167
3 7 161 168
3 168 166 167
3 168 167 7
3 167 10 8
3 167 8 7
3 161 143 168
3 143 151 166
3 143 166 168
3 140 15 169
3 140 169 153
3 169 170 154
3 169 154 153
3 14 12 170
3 170 169 14
3 169 15 14
3 12 11 171
3 170 12 171
3 154 170 171
3 154 171 155
3 171 11 149
3 171 149 155
3 25 27 172
3 25 172 173
3 172 174 173
3 173 175 176
3 176 26 25
3 176 25 173
3 177 65 64
3 177 64 178
3 64 72 179
3 64 179 178
3 179 175 173
3 179 173 178
3 173 174 177
3 173 177 178
3 79 41 180
3 79 180 181
3 180 182 183
3 180 183 181
3 183 175 179
3 183 179 181
3 179 72 79
3 179 79 181
3 18 28 183
3 28 26 176
3 28 176 183
3 176 175 183
3 183 182 18
3 19 18 184
3 18 182 185
3 18 185 184
3 185 186 20
3 185 20 184
3 20 19 184
3 180 41 40
3 180 40 187
3 40 48 188
3 40 188 187
3 188 186 185
3 188 185 187
3 185 182 180
3 185 180 187
3 62 61 189
3 62 189 190
3 189 191 192
3 189 192 190
3 192 186 188
3 192 188 190
3 188 48 62
3 188 62 190
3 23 22 193
3 22 20 193
3 20 186 192
3 20 192 193
3 192 191 23
3 192 23 193
3 23 191 194
3 23 194 36
3 194 195 196
3 194 196 36
3 196 37 36
3 189 61 97
3 189 97 197
3 97 102 198
3 97 198 197
3 198 195 194
3 198 194 197
3 194 191 189
3 194 189 197
3 107 82 199
3 107 199 200
3 199 201 202
3 199 202 200
3 202 195 198
3 202 198 200
3 198 102 107
3 198 107 200
3 203 31 39
3 39 37 196
3 196 195 202
3 196 202 39
3 202 201 203
3 202 203 39
3 32 31 203
3 32 203 204
3 203 201 205
3 203 205 204
3 205 206 34
3 205 34 204
3 34 32 204
3 199 82 81
3 199 81 207
3 81 89 208
3 81 208 207
3 208 206 205
3 208 205 207
3 205 201 199
3 205 199 207
3 95 65 177
3 95 177 209
3 177 174 210
3 177 210 209
3 210 206 208
3 210 208 209
3 208 89 95
3 208 95 209
3 172 27 35
3 172 35 211
3 35 34 211
3 34 206 210
3 34 210 211
3 210 174 172
3 210 172 211
