OFF
179 349 0
17.3783 10.1651 -0.951415
17.0173 10.0167 -1.26452
17.2713 10.5647 -1.31372
17.5023 10.4793 -0.977515
17.4623 10.7758 -1.00372
17.5403 10.809 -0.626715
17.5843 10.4908 -0.626715
17.4453 10.155 -0.481515
17.0673 10.8974 -1.27052
16.6073 10.9811 -1.26452
17.0033 11.1939 -0.771915
17.2763 11.0099 -0.977515
17.3413 11.0609 -0.626715
16.9643 11.1387 -0.302015
16.6073 10.9811 0.0110846
17.0673 10.8974 0.0171846
17.2763 11.0099 -0.275815
17.2713 10.5647 0.0603846
17.4623 10.7758 -0.249715
17.0173 10.0166 0.0110846
17.5023 10.4793 -0.275815
6.96332 2.91689 0.352685
6.76332 2.87359 0.683985
6.80132 2.98549 0.0666846
6.96332 2.91689 1.01538
6.73732 2.87519 1.30838
6.98132 3.00199 1.29588
6.76032 3.22739 -0.244015
6.73532 3.73929 0.0488846
6.86632 3.48339 -0.104315
6.96932 3.61759 0.0722846
6.97532 3.30989 -0.150815
8.10332 3.16699 0.00728464
6.73932 3.79899 1.15738
6.96932 3.61759 1.29568
6.94932 3.70279 1.01388
6.97732 3.72219 0.462985
8.18932 3.65249 0.566385
6.76032 3.22729 1.61198
8.10332 3.16699 1.36068
8.72732 3.32739 1.34968
6.96332 3.31009 1.52258
6.86632 3.48339 1.47238
10.7503 3.91359 0.402985
11.3003 4.75519 0.331285
11.3473 4.69489 0.683885
11.7753 5.69529 0.444885
11.7943 5.67629 0.762785
10.7663 3.89119 0.808485
12.1663 6.73379 0.302985
12.6233 7.60299 0.274985
12.2013 6.66879 0.601985
12.6293 7.58739 0.639585
12.1703 6.74319 0.899685
11.7563 5.75209 0.997485
11.3003 4.75569 1.03678
10.7233 3.97589 1.10158
10.6293 4.14689 0.208385
10.5573 4.26809 0.402485
11.1583 4.98889 0.331285
11.5913 5.99039 0.485885
11.6653 5.88259 0.281985
11.2293 4.87189 0.258385
12.0453 6.94429 0.303185
12.4653 7.91919 0.319085
12.5223 7.79279 0.135185
12.1043 6.83669 0.241285
12.5823 7.68329 0.153285
11.7303 5.76629 0.303385
10.6983 4.00959 0.234585
10.5423 4.29099 0.809085
10.5713 4.23979 1.03708
11.1343 5.01619 0.958885
11.6023 5.98239 0.888685
11.1163 5.04909 0.606785
12.0443 6.94259 0.900885
12.4713 7.90299 0.683385
12.0133 7.01769 0.600985
11.9543 6.51619 0.999185
11.2053 4.89759 1.11128
10.6293 4.14689 1.15958
12.5703 7.70869 0.824285
12.5133 7.82309 0.805185
13.1603 8.28269 0.0487846
13.7143 8.81339 -0.288215
13.7573 8.72249 -0.0655154
13.1783 8.25039 0.337385
14.2903 9.06589 -0.477415
14.7303 9.38339 -0.898715
14.9213 9.22359 -0.606915
14.3143 9.01899 -0.141115
14.9673 9.29319 -0.195415
14.2623 9.11429 0.126585
13.7503 8.75299 0.242985
13.1483 8.32249 0.563285
13.0223 8.56279 -0.0109154
13.5463 9.15289 -0.130615
13.6113 8.99219 -0.322515
13.1033 8.40979 -0.0754154
14.4973 9.62879 -0.808915
14.2073 9.24339 -0.619915
14.5523 9.86379 -0.737015
13.0243 8.59159 0.530985
12.9973 8.64909 0.274885
13.6013 9.08499 0.349785
13.6043 9.20009 0.159885
14.4843 9.72429 -0.00961536
14.5713 9.94979 -0.377415
13.9103 9.06569 0.304485
13.0673 8.47659 0.627485
14.8903 9.55559 0.00948464
15.5253 9.37969 -1.27132
15.6123 9.24949 -0.986515
15.6683 9.21589 -0.628615
15.6193 9.40219 0.0304846
15.6923 9.26949 -0.266615
15.0883 10.0469 -1.36842
15.0973 10.3378 -1.26662
15.2963 9.85439 -1.49592
15.5233 10.29 -1.51432
15.4183 9.59319 -1.44762
14.7943 9.95499 -0.0596154
15.0943 10.5123 -0.276415
15.0513 10.5344 -0.631815
15.1823 10.3921 0.0276846
15.0543 10.4846 -0.982615
15.4163 9.90499 0.273085
15.5533 9.63919 0.218285
15.3153 10.1852 0.217285
16.3703 9.66599 -1.34852
16.5133 9.55369 -1.02162
16.4563 9.46769 -0.626715
17.0763 9.87779 -0.977515
17.1273 9.84629 -0.626715
17.0763 9.87779 -0.275815
16.3703 9.66599 0.0951846
16.5133 9.55369 -0.231815
15.9053 10.7575 -1.34852
16.4523 10.6818 -1.51322
16.1393 10.2122 -1.61142
16.8433 10.5123 -1.50762
16.9243 10.2334 -1.44782
16.3453 9.94749 -1.54252
15.9053 10.7575 0.0951846
15.9233 10.9385 -0.231815
15.8223 10.9566 -0.626715
16.5473 11.1195 -0.275815
16.5603 11.1783 -0.626715
16.5473 11.1195 -0.977515
15.9233 10.9385 -1.02162
16.3453 9.94749 0.289085
16.1393 10.2122 0.357985
16.9243 10.2334 0.194485
16.8433 10.5123 0.254185
16.6983 10.7639 0.194485
16.0913 10.5447 0.289085
8.21032 3.59309 1.14288
8.98732 3.64239 1.05628
8.97732 3.67789 0.519685
9.83132 3.78059 1.14368
9.79332 3.86729 0.784085
9.80932 3.82419 0.324785
8.99532 3.60279 0.218285
8.20232 3.56029 0.161585
8.86832 3.47699 0.0778846
8.77332 3.33589 0.0226846
9.87032 3.66419 0.127185
9.95532 3.46439 0.224985
9.11632 3.22029 0.134885
8.30332 3.02839 0.226885
9.12932 3.09889 0.520385
8.30132 2.96859 0.814185
9.99132 3.37769 0.584185
9.97732 3.42159 1.04178
9.12232 3.13459 1.05498
8.27732 3.05929 1.20638
9.08132 3.27069 1.27668
9.93332 3.58749 1.23748
8.86832 3.47699 1.29008
3 0 1 2
3 0 2 3
3 2 4 3
3 4 5 6
3 4 6 3
3 6 7 0
3 6 0 3
3 8 9 10
3 8 10 11
3 10 12 11
3 12 5 4
3 12 4 11
3 4 2 8
3 4 8 11
3 13 14 15
3 13 15 16
3 15 17 18
3 15 18 16
3 18 5 12
3 18 12 16
3 12 10 13
3 12 13 16
3 17 19 7
3 17 7 20
3 7 6 20
3 6 5 18
3 6 18 20
3 18 17 20
3 21 22 23
3 22 24 25
3 24 26 25
3 27 28 29
3 28 30 29
3 29 31 27
3 23 27 32
3 27 31 32
3 33 34 35
3 35 36 33
3 35 37 36
3 33 36 28
3 36 30 28
3 25 26 38
3 39 40 41
3 41 38 39
3 38 26 39
3 41 40 42
3 33 38 42
3 38 41 42
3 42 34 33
3 43 44 45
3 44 46 45
3 46 47 45
3 45 48 43
3 49 50 51
3 50 52 51
3 51 47 46
3 46 49 51
3 52 53 51
3 53 54 47
3 53 47 51
3 55 56 48
3 55 48 45
3 47 54 55
3 47 55 45
3 57 58 59
3 59 60 61
3 61 62 59
3 62 57 59
3 63 64 65
3 65 66 63
3 66 61 63
3 61 60 63
3 67 50 49
3 49 46 68
3 68 61 66
3 68 66 49
3 66 65 67
3 66 67 49
3 44 43 69
3 69 57 62
3 69 62 44
3 62 61 68
3 62 68 44
3 68 46 44
3 70 71 72
3 73 60 74
3 73 74 72
3 74 70 72
3 75 76 77
3 76 64 77
3 77 60 73
3 73 75 77
3 64 63 77
3 63 60 77
3 59 58 74
3 58 70 74
3 60 59 74
3 54 78 79
3 54 79 55
3 79 80 56
3 79 56 55
3 53 52 81
3 81 78 53
3 78 54 53
3 82 76 75
3 75 73 78
3 78 81 82
3 78 82 75
3 72 71 80
3 72 80 79
3 78 73 72
3 78 72 79
3 83 84 85
3 85 86 83
3 86 52 50
3 86 50 83
3 87 88 89
3 89 90 87
3 90 85 87
3 85 84 87
3 91 92 90
3 92 93 90
3 93 85 90
3 90 89 91
3 94 52 86
3 86 85 93
3 93 94 86
3 65 64 95
3 95 96 97
3 97 98 95
3 98 65 95
3 99 88 100
3 100 97 99
3 97 96 101
3 97 101 99
3 88 87 100
3 87 84 100
3 84 97 100
3 83 50 67
3 83 67 98
3 67 65 98
3 98 97 84
3 84 83 98
3 76 102 103
3 102 104 105
3 102 105 103
3 105 96 103
3 103 64 76
3 106 107 105
3 107 96 105
3 105 104 106
3 96 107 101
3 95 64 103
3 96 95 103
3 81 52 94
3 94 93 108
3 108 109 94
3 109 81 94
3 92 91 110
3 110 108 92
3 108 93 92
3 104 108 106
3 108 110 106
3 102 76 82
3 102 82 109
3 82 81 109
3 109 108 104
3 104 102 109
3 88 111 112
3 88 112 89
3 113 89 112
3 114 91 115
3 91 89 113
3 91 113 115
3 99 101 116
3 101 117 116
3 116 118 88
3 88 99 116
3 117 119 116
3 119 118 116
3 88 118 120
3 120 111 88
3 107 106 121
3 121 122 107
3 122 123 107
3 122 121 124
3 107 123 125
3 107 125 101
3 125 117 101
3 126 110 127
3 110 91 114
3 110 114 127
3 124 121 128
3 121 110 126
3 121 126 128
3 106 110 121
3 112 111 129
3 112 129 130
3 131 113 112
3 131 112 130
3 1 0 132
3 0 7 133
3 0 133 132
3 133 131 130
3 133 130 132
3 130 129 1
3 130 1 132
3 7 19 134
3 19 135 136
3 19 136 134
3 136 131 133
3 136 133 134
3 133 7 134
3 135 114 115
3 135 115 136
3 115 113 131
3 115 131 136
3 119 117 137
3 137 138 119
3 138 139 119
3 139 118 119
3 9 8 138
3 8 2 140
3 8 140 138
3 140 139 138
3 138 137 9
3 2 1 141
3 1 129 142
3 1 142 141
3 142 139 140
3 142 140 141
3 140 2 141
3 129 111 120
3 129 120 142
3 120 118 139
3 120 139 142
3 122 124 143
3 122 143 144
3 145 123 122
3 145 122 144
3 14 13 146
3 13 10 147
3 13 147 146
3 147 145 144
3 147 144 146
3 144 143 14
3 144 14 146
3 10 9 148
3 9 137 149
3 9 149 148
3 149 145 147
3 149 147 148
3 147 10 148
3 137 117 125
3 137 125 149
3 125 123 145
3 125 145 149
3 127 114 135
3 127 135 150
3 151 126 127
3 151 127 150
3 19 17 152
3 17 153 152
3 153 151 150
3 153 150 152
3 150 135 19
3 150 19 152
3 15 14 154
3 14 143 155
3 14 155 154
3 155 151 153
3 155 153 154
3 153 17 15
3 153 15 154
3 143 124 128
3 143 128 155
3 128 126 151
3 128 151 155
3 35 34 156
3 157 158 37
3 157 37 156
3 37 35 156
3 159 71 70
3 159 70 160
3 160 158 157
3 157 159 160
3 161 162 158
3 158 160 161
3 160 70 58
3 160 58 161
3 163 30 36
3 163 36 37
3 158 162 163
3 158 163 37
3 29 30 163
3 29 163 164
3 163 162 164
3 165 31 29
3 165 29 164
3 161 58 57
3 161 57 166
3 166 165 164
3 164 162 161
3 164 161 166
3 69 43 167
3 168 165 166
3 168 166 167
3 166 57 69
3 166 69 167
3 169 23 32
3 32 31 165
3 165 168 32
3 168 169 32
3 21 23 169
3 169 168 170
3 170 171 169
3 171 22 21
3 171 21 169
3 167 43 172
3 43 48 172
3 170 168 167
3 170 167 172
3 48 56 173
3 174 170 172
3 174 172 173
3 172 48 173
3 175 26 24
3 175 24 171
3 24 22 171
3 171 170 174
3 174 175 171
3 39 26 175
3 175 174 176
3 175 176 39
3 176 40 39
3 173 56 177
3 56 80 177
3 177 40 176
3 176 174 173
3 176 173 177
3 80 71 159
3 159 157 178
3 178 40 177
3 178 177 159
3 177 80 159
3 156 34 42
3 156 42 178
3 42 40 178
3 178 157 156
