OFF
359 707 0
-1.73118 -0.790256 -20.3813
-1.68348 -0.243956 -19.8829
-1.38408 -0.540056 -20.5159
-1.45338 -0.948456 -20.7952
-1.07858 -0.549556 -20.7166
-1.13468 -0.993756 -21.0157
-1.18928 -1.35306 -21.0913
-1.53228 -1.28036 -20.8616
-1.83708 -1.09636 -20.4225
-0.759279 -0.531756 -20.7417
-0.521679 -0.812956 -20.8163
-0.815179 -0.961856 -21.0239
-0.516679 -1.15716 -20.8753
-0.840179 -1.31226 -21.0989
-0.576879 -1.41286 -20.744
-0.542979 -1.48006 -20.2106
-0.923979 -1.66306 -20.6094
-0.893279 -1.55416 -20.9535
-1.27528 -1.70386 -20.5813
-1.23778 -1.59886 -20.9448
-1.61148 -1.59836 -20.3938
-1.87088 -1.33296 -20.3108
-1.57138 -1.50686 -20.7307
-2.99658 3.86944 -3.49628
-2.78278 4.18674 -3.41378
-2.95688 4.06224 -3.52648
-2.92878 3.67364 -3.62868
-3.69868 3.79174 -4.70648
-2.48458 4.35184 -3.46078
-2.16498 4.34364 -3.60258
-2.80018 4.37094 -4.39048
-3.27128 4.30134 -4.52778
-2.04208 4.04804 -3.77448
-2.15888 3.73834 -3.85888
-2.78748 3.86564 -4.98538
-2.12478 4.19844 -3.79788
-4.23128 4.18554 -6.11508
-4.00388 4.27024 -5.75268
-4.30178 4.43724 -6.95308
-4.42718 4.30884 -6.95068
-4.39518 4.55214 -7.87708
-4.51998 4.42564 -7.86278
-4.59688 4.28304 -7.87198
-4.50428 4.16654 -6.97328
-4.30848 4.04394 -6.14898
-4.34458 4.60364 -8.84558
-4.10848 4.53534 -9.82518
-4.22868 4.41594 -9.79068
-4.46788 4.47994 -8.81998
-4.30268 4.27714 -9.77608
-4.54378 4.33834 -8.81598
-4.31728 4.13724 -9.78178
-4.25908 4.01444 -9.80788
-4.49898 4.07484 -8.86858
-4.55868 4.19714 -8.83258
-4.55158 4.02344 -7.94938
-4.61198 4.14284 -7.90188
-4.45878 3.91304 -7.07528
-4.26298 3.79654 -6.27148
-4.32368 3.90824 -6.20318
-4.51948 4.02854 -7.01638
-3.61118 4.48044 -6.24628
-3.47928 4.42594 -6.31898
-3.67518 4.53054 -7.17028
-3.80708 4.58984 -7.10268
-3.77108 4.62414 -8.09998
-3.90248 4.68894 -8.03878
-4.06478 4.69264 -7.97478
-3.96998 4.58754 -7.03808
-3.64578 4.43874 -5.81118
-3.72828 4.65424 -9.07238
-3.50768 4.56794 -10.0517
-3.63418 4.64044 -10.0034
-3.85798 4.72384 -9.01788
-3.79038 4.65454 -9.94238
-4.01828 4.73344 -8.95498
-3.95548 4.61714 -9.87938
-4.18758 4.69064 -8.89408
-4.23618 4.64414 -7.91758
-3.94628 4.41444 -6.13228
-4.14218 4.53344 -6.98518
-3.41858 3.96084 -6.49448
-3.52548 3.81614 -6.50588
-3.72128 3.91454 -7.30808
-3.61448 4.05814 -7.30788
-3.81708 4.00344 -8.17928
-3.71068 4.14524 -8.19228
-3.67058 4.31854 -8.18078
-3.57418 4.23114 -7.28008
-3.37838 4.13284 -6.45298
-3.77368 4.03394 -9.09378
-3.55188 3.95734 -10.0259
-3.44948 4.09174 -10.0618
-3.66858 4.17284 -9.11968
-3.41088 4.26044 -10.0792
-3.62898 4.34504 -9.12418
-3.43178 4.43024 -10.0764
-3.65038 4.51674 -9.10808
-3.69228 4.48944 -8.14868
-3.40008 4.29894 -6.39118
-3.59598 4.39974 -7.23178
-4.11258 3.72684 -6.34798
-4.30838 3.83844 -7.14548
-4.40178 3.94324 -8.01168
-4.20268 3.90894 -8.07808
-4.10858 3.81014 -7.21538
-3.91268 3.70374 -6.42058
-4.11488 3.92704 -9.85468
-4.35108 3.98994 -8.92278
-3.92318 3.88304 -9.91298
-4.15448 3.94994 -8.98518
-3.72268 3.89044 -9.97308
-3.94888 3.96214 -9.04548
-3.99448 3.92674 -8.13758
-3.70358 3.73194 -6.47718
-3.89938 3.83364 -7.27338
-3.64538 4.29124 -10.7822
-3.76038 4.17754 -10.7436
-3.12798 3.85194 -11.7132
-3.24178 3.67924 -11.6639
-3.83118 4.04424 -10.7233
-2.42428 3.48934 -12.6852
-1.98168 2.94534 -13.6143
-2.09118 2.83754 -13.5737
-2.58058 3.34624 -12.6272
-2.15858 2.71044 -13.5502
-2.64678 3.22154 -12.604
-2.17188 2.58084 -13.5452
-2.11888 2.46554 -13.5604
-2.60778 2.98124 -12.6141
-2.65978 3.09434 -12.5992
-3.20178 3.43384 -11.6762
-3.25508 3.54924 -11.66
-3.78948 3.78954 -10.7423
-3.84518 3.90904 -10.7225
-3.07028 4.31264 -11.0021
-3.19138 4.38464 -10.9587
-2.51388 3.93084 -11.9381
-2.62968 4.00114 -11.8981
-2.77268 4.01814 -11.8425
-3.34088 4.40094 -10.9005
-1.93598 3.46544 -12.8745
-1.43428 2.95904 -13.8258
-1.54948 3.02944 -13.7865
-2.04908 3.53454 -12.8359
-1.69188 3.04684 -13.7312
-2.18868 3.55164 -12.7816
-1.84228 3.01694 -13.6703
-2.92388 3.98764 -11.7816
-3.49888 4.36774 -10.838
-3.11268 3.72474 -10.95
-3.01458 3.85274 -10.9906
-2.55438 3.36674 -11.8745
-2.46058 3.48894 -11.9165
-2.42528 3.64414 -11.9436
-2.97768 4.01474 -11.0149
-1.97558 2.91394 -12.8075
-1.47458 2.39694 -13.7576
-1.38118 2.51844 -13.8005
-1.88398 3.03314 -12.8497
-1.34608 2.67304 -13.8289
-1.84948 3.18474 -12.8775
-1.36508 2.83004 -13.8386
-1.86808 3.33884 -12.8871
-2.44438 3.80164 -11.952
-2.99768 4.17864 -11.0198
-3.65138 3.70314 -10.7836
-3.06978 3.34974 -11.7139
-2.89428 3.30524 -11.765
-3.46798 3.65804 -10.8378
-1.98748 2.38144 -13.5973
-2.47878 2.89864 -12.6503
-1.81288 2.33654 -13.6479
-2.30748 2.85464 -12.6999
-1.63018 2.33904 -13.704
-2.12818 2.85704 -12.755
-2.71078 3.30814 -11.8212
-3.27608 3.66254 -10.8962
-1.69838 2.43944 -14.5779
-1.81678 2.32294 -14.5341
-1.57468 1.97264 -15.4884
-1.70948 1.84004 -15.4384
-1.79248 1.68354 -15.4095
-1.88968 2.18544 -14.5086
-1.56198 1.58324 -16.276
-1.63098 1.24344 -17.0268
-1.82198 1.07224 -16.8917
-1.72118 1.42644 -16.217
-1.92238 0.896744 -16.7588
-1.81918 1.24164 -16.1828
-1.94568 0.669244 -16.75
-1.85258 0.466744 -16.7767
-1.76138 0.885644 -16.1976
-1.83848 1.05324 -16.1756
-1.74348 1.38214 -15.422
-1.80878 1.52404 -15.4033
-1.84668 1.92064 -14.5197
-1.90408 2.04524 -14.5033
-1.10638 2.45424 -14.8067
-1.23098 2.53044 -14.7642
-0.900779 1.98954 -15.7488
-1.04258 2.07624 -15.7004
-1.21788 2.09774 -15.6322
-1.38488 2.54924 -14.7043
-0.765979 1.60314 -16.5836
-0.650379 1.33324 -17.2427
-0.852779 1.45694 -17.1737
-0.933579 1.70544 -16.5264
-1.10278 1.48754 -17.0765
-1.14048 1.73084 -16.4459
-1.36848 1.39914 -17.0674
-1.35918 1.68734 -16.3574
-1.40298 2.06084 -15.5573
-1.54758 2.51694 -14.6385
-1.14998 1.84644 -14.7329
-1.04898 1.97784 -14.7793
-0.950379 1.29764 -15.6648
-0.835479 1.44724 -15.7176
-0.792179 1.63744 -15.7525
-1.01098 2.14494 -14.81
-0.824579 0.785944 -16.4843
-0.721279 0.346344 -17.1229
-0.557279 0.559744 -17.1983
-0.688879 0.962544 -16.5468
-0.495579 0.831044 -17.2481
-0.637779 1.18724 -16.588
-0.528979 1.10674 -17.2652
-0.665379 1.41554 -16.6022
-0.815579 1.83074 -15.7645
-1.03158 2.31474 -14.8205
-1.70458 1.82964 -14.5596
-1.58178 1.27854 -15.4675
-1.36678 1.22334 -15.5297
-1.51578 1.78114 -14.6143
-1.62188 0.319044 -16.8415
-1.57038 0.763244 -16.2513
-1.31528 0.240244 -16.9303
-1.31648 0.698044 -16.3248
-0.994479 0.244644 -17.0288
-1.05088 0.701644 -16.4064
-1.14198 1.22634 -15.5988
-1.31828 1.78384 -14.675
-1.79058 1.09044 -17.587
-2.09938 0.788444 -17.4637
-2.29328 0.423144 -17.4049
-2.05438 0.685844 -17.0675
-1.82008 0.931944 -17.9326
-2.15068 0.606444 -17.8102
-2.35428 0.222644 -17.739
-2.39428 -0.168756 -17.724
-2.23418 -0.516856 -17.7699
-2.18028 -0.272556 -17.4339
-2.32798 0.0611442 -17.3829
-1.96918 0.161344 -17.0894
-2.08278 0.408244 -17.0568
-0.502679 1.21834 -17.6579
-0.749579 1.36914 -17.5737
-0.235179 1.12934 -18.188
-0.564779 1.33194 -18.0665
-0.967079 1.37894 -17.9191
-1.05448 1.40654 -17.4551
-0.166779 0.973244 -18.5714
-0.514879 1.18594 -18.4526
-0.944679 1.23864 -18.2855
-1.39888 1.14834 -18.1016
-1.39418 1.29674 -17.7371
-0.589079 0.0144442 -17.5117
-0.389079 0.274644 -17.6037
-0.349779 -0.467456 -17.9941
-0.0880788 -0.115456 -18.1062
0.0153212 0.316744 -18.1966
-0.313779 0.605644 -17.6644
-0.288679 -0.723856 -18.3653
-0.00667877 -0.356956 -18.495
0.0994212 0.109644 -18.5805
0.0420212 0.583744 -18.61
-0.0423788 0.767144 -18.2141
-0.354579 0.942044 -17.6853
-1.68778 -0.0188558 -17.1685
-1.80558 -0.503656 -17.5305
-1.31088 -0.639056 -17.6825
-1.31368 -0.114956 -17.2768
-1.83748 -0.770856 -17.8814
-1.31018 -0.906356 -18.0341
-0.758479 -0.898856 -18.2035
-0.793379 -0.623756 -17.8328
-0.922379 -0.109656 -17.397
-1.80968 0.607944 -18.5171
-2.13338 0.289244 -18.3973
-1.76498 0.197144 -19.2037
-2.05758 -0.0998558 -19.1065
-2.23708 -0.450356 -19.0548
-2.33268 -0.0866558 -18.3276
-1.92808 -0.483556 -19.7931
-2.07198 -0.803256 -19.7866
-1.98948 -1.32076 -19.7115
-2.10408 -1.08126 -19.7262
-2.13188 -1.10086 -19.0577
-2.27328 -0.795656 -19.0291
-2.21518 -0.810656 -18.3578
-2.37188 -0.469756 -18.3129
-0.190979 0.648344 -19.1426
-0.531779 0.856544 -19.0263
-0.283679 0.231144 -19.7742
-0.595579 0.413544 -19.6795
-0.982079 0.454244 -19.5413
-0.952579 0.908144 -18.8627
-0.425479 -0.193556 -20.3179
-0.691779 -0.0633558 -20.2737
-1.02588 -0.0492558 -20.1922
-1.37368 -0.0839558 -20.0081
-1.38918 0.381944 -19.3656
-1.39728 0.819744 -18.6826
-0.310279 -1.01336 -18.9408
-0.0341788 -0.654156 -19.0678
-0.395979 -1.28316 -19.5905
-0.146379 -0.961856 -19.7168
-0.0523788 -0.550956 -19.804
0.0697212 -0.197256 -19.1515
-0.327579 -1.21506 -20.3036
-0.250979 -0.887156 -20.4111
-0.281079 -0.507356 -20.3898
-0.100379 -0.121856 -19.8194
0.0135212 0.266944 -19.1804
-1.82668 -1.05936 -18.467
-1.77818 -1.33106 -19.169
-1.30748 -1.45556 -19.3174
-1.31038 -1.19196 -18.6165
-1.69338 -1.52526 -19.8423
-1.29708 -1.64106 -20.0056
-0.881979 -1.61466 -20.0887
-0.814879 -1.44366 -19.4576
-0.770279 -1.18466 -18.7824
-3.43098 4.19894 -4.50988
-3.64558 4.07014 -4.67828
-3.68788 3.92594 -4.65538
-3.97448 4.11154 -5.38748
-4.05168 3.97034 -5.42818
-4.00618 3.72654 -5.56298
-4.06688 3.83604 -5.48898
-3.64208 3.68454 -4.79778
-2.69248 3.59324 -3.74118
-3.57358 3.62634 -5.04108
-3.23768 3.60264 -4.87128
-3.85578 3.65984 -5.64328
-3.65588 3.63994 -5.71748
-3.26868 3.75714 -5.79828
-3.30568 3.65574 -5.47238
-2.85048 3.72264 -4.94948
-2.38828 3.62494 -3.84128
-2.75758 4.03904 -4.95628
-3.16178 3.90244 -5.78018
-3.12158 4.07394 -5.73048
-3.22248 4.36314 -5.58198
-3.14338 4.23854 -5.66058
-2.85888 4.32574 -4.79948
-2.81488 4.20414 -4.95028
-3.24928 4.39604 -5.24118
-3.09918 4.36424 -4.57318
3 0 1 2
3 0 2 3
3 2 4 5
3 2 5 3
3 5 6 7
3 5 7 3
3 7 8 0
3 7 0 3
3 9 10 11
3 10 12 13
3 10 13 11
3 13 6 5
3 13 5 11
3 5 4 9
3 5 9 11
3 14 15 16
3 14 16 17
3 16 18 19
3 16 19 17
3 19 6 13
3 19 13 17
3 13 12 14
3 13 14 17
3 20 21 22
3 21 8 7
3 21 7 22
3 7 6 19
3 7 19 22
3 19 18 20
3 19 20 22
3 23 24 25
3 26 23 27
3 28 29 30
3 24 28 31
3 32 33 34
3 29 32 35
3 36 37 38
3 36 38 39
3 38 40 41
3 38 41 39
3 41 42 43
3 41 43 39
3 43 44 36
3 43 36 39
3 45 46 47
3 45 47 48
3 47 49 50
3 47 50 48
3 50 42 41
3 50 41 48
3 41 40 45
3 41 45 48
3 51 52 53
3 51 53 54
3 53 55 56
3 53 56 54
3 56 42 50
3 56 50 54
3 50 49 51
3 50 51 54
3 57 58 59
3 57 59 60
3 59 44 43
3 59 43 60
3 43 42 56
3 43 56 60
3 56 55 57
3 56 57 60
3 61 62 63
3 61 63 64
3 63 65 66
3 63 66 64
3 66 67 68
3 66 68 64
3 68 69 61
3 68 61 64
3 70 71 72
3 70 72 73
3 72 74 75
3 72 75 73
3 75 67 66
3 75 66 73
3 66 65 70
3 66 70 73
3 76 46 45
3 76 45 77
3 45 40 78
3 45 78 77
3 78 67 75
3 78 75 77
3 75 74 76
3 75 76 77
3 38 37 79
3 38 79 80
3 79 69 68
3 79 68 80
3 68 67 78
3 68 78 80
3 78 40 38
3 78 38 80
3 81 82 83
3 81 83 84
3 83 85 86
3 83 86 84
3 86 87 88
3 86 88 84
3 88 89 81
3 88 81 84
3 90 91 92
3 90 92 93
3 92 94 95
3 92 95 93
3 95 87 86
3 95 86 93
3 86 85 90
3 86 90 93
3 96 71 70
3 96 70 97
3 70 65 98
3 70 98 97
3 98 87 95
3 98 95 97
3 95 94 96
3 95 96 97
3 63 62 99
3 63 99 100
3 99 89 88
3 99 88 100
3 88 87 98
3 88 98 100
3 98 65 63
3 98 63 100
3 101 58 57
3 101 57 102
3 57 55 103
3 57 103 102
3 103 104 105
3 103 105 102
3 105 106 101
3 105 101 102
3 53 52 107
3 53 107 108
3 107 109 110
3 107 110 108
3 110 104 103
3 110 103 108
3 103 55 53
3 103 53 108
3 111 91 90
3 111 90 112
3 90 85 113
3 90 113 112
3 113 104 110
3 113 110 112
3 110 109 111
3 110 111 112
3 83 82 114
3 83 114 115
3 114 106 105
3 114 105 115
3 105 104 113
3 105 113 115
3 113 85 83
3 113 83 115
3 47 46 116
3 47 116 117
3 116 118 117
3 118 119 120
3 118 120 117
3 120 49 47
3 120 47 117
3 121 122 123
3 121 123 124
3 123 125 126
3 123 126 124
3 126 119 118
3 126 118 124
3 118 121 124
3 127 128 129
3 127 129 130
3 129 131 132
3 129 132 130
3 132 119 126
3 132 126 130
3 126 125 127
3 126 127 130
3 133 52 51
3 133 51 134
3 51 49 120
3 51 120 134
3 120 119 132
3 120 132 134
3 132 131 133
3 132 133 134
3 72 71 135
3 72 135 136
3 135 137 138
3 135 138 136
3 138 139 140
3 138 140 136
3 140 74 72
3 140 72 136
3 141 142 143
3 141 143 144
3 143 145 146
3 143 146 144
3 146 139 138
3 146 138 144
3 138 137 141
3 138 141 144
3 147 122 121
3 121 118 148
3 148 139 146
3 148 146 121
3 146 145 147
3 146 147 121
3 116 46 76
3 116 76 149
3 76 74 140
3 76 140 149
3 140 139 148
3 140 148 149
3 148 118 116
3 148 116 149
3 92 91 150
3 92 150 151
3 150 152 153
3 150 153 151
3 153 154 155
3 153 155 151
3 155 94 92
3 155 92 151
3 156 157 158
3 156 158 159
3 158 160 161
3 158 161 159
3 161 154 153
3 161 153 159
3 153 152 156
3 153 156 159
3 162 142 141
3 162 141 163
3 141 137 164
3 141 164 163
3 164 154 161
3 164 161 163
3 161 160 162
3 161 162 163
3 135 71 96
3 135 96 165
3 96 94 155
3 96 155 165
3 155 154 164
3 155 164 165
3 164 137 135
3 164 135 165
3 107 52 133
3 107 133 166
3 133 131 167
3 133 167 166
3 167 168 169
3 167 169 166
3 169 109 107
3 169 107 166
3 129 128 170
3 129 170 171
3 170 172 173
3 170 173 171
3 173 168 167
3 173 167 171
3 167 131 129
3 167 129 171
3 174 157 156
3 174 156 175
3 156 152 176
3 156 176 175
3 176 168 173
3 176 173 175
3 173 172 174
3 173 174 175
3 150 91 111
3 150 111 177
3 111 109 169
3 111 169 177
3 169 168 176
3 169 176 177
3 176 152 150
3 176 150 177
3 123 122 178
3 123 178 179
3 178 180 181
3 178 181 179
3 181 182 183
3 181 183 179
3 183 125 123
3 183 123 179
3 184 185 186
3 184 186 187
3 186 188 189
3 186 189 187
3 189 182 181
3 189 181 187
3 181 180 184
3 181 184 187
3 190 191 192
3 190 192 193
3 192 194 195
3 192 195 193
3 195 182 189
3 195 189 193
3 189 188 190
3 189 190 193
3 196 128 127
3 196 127 197
3 127 125 183
3 127 183 197
3 183 182 195
3 183 195 197
3 195 194 196
3 195 196 197
3 143 142 198
3 143 198 199
3 198 200 201
3 198 201 199
3 201 202 203
3 201 203 199
3 203 145 143
3 203 143 199
3 204 205 206
3 204 206 207
3 206 208 209
3 206 209 207
3 209 202 201
3 209 201 207
3 201 200 204
3 201 204 207
3 210 185 184
3 210 184 211
3 184 180 212
3 184 212 211
3 212 202 209
3 212 209 211
3 209 208 210
3 209 210 211
3 178 122 147
3 178 147 213
3 147 145 203
3 147 203 213
3 203 202 212
3 203 212 213
3 212 180 178
3 212 178 213
3 158 157 214
3 158 214 215
3 214 216 217
3 214 217 215
3 217 218 219
3 217 219 215
3 219 160 158
3 219 158 215
3 220 221 222
3 220 222 223
3 222 224 225
3 222 225 223
3 225 218 217
3 225 217 223
3 217 216 220
3 217 220 223
3 226 205 204
3 226 204 227
3 204 200 228
3 204 228 227
3 228 218 225
3 228 225 227
3 225 224 226
3 225 226 227
3 198 142 162
3 198 162 229
3 162 160 219
3 162 219 229
3 219 218 228
3 219 228 229
3 228 200 198
3 228 198 229
3 170 128 196
3 170 196 230
3 196 194 231
3 196 231 230
3 231 232 233
3 231 233 230
3 233 172 170
3 233 170 230
3 192 191 234
3 192 234 235
3 234 236 237
3 234 237 235
3 237 232 231
3 237 231 235
3 231 194 192
3 231 192 235
3 238 221 220
3 238 220 239
3 220 216 240
3 220 240 239
3 240 232 237
3 240 237 239
3 237 236 238
3 237 238 239
3 214 157 174
3 214 174 241
3 174 172 233
3 174 233 241
3 233 232 240
3 233 240 241
3 240 216 214
3 240 214 241
3 185 242 243
3 185 243 186
3 243 244 245
3 243 245 186
3 245 188 186
3 242 246 247
3 242 247 243
3 247 248 244
3 247 244 243
3 249 250 251
3 249 251 252
3 244 248 249
3 244 249 252
3 253 191 190
3 253 190 254
3 190 188 245
3 190 245 254
3 245 244 252
3 245 252 254
3 252 251 253
3 252 253 254
3 206 205 255
3 206 255 256
3 255 257 258
3 255 258 256
3 258 259 260
3 258 260 256
3 260 208 206
3 260 206 256
3 257 261 262
3 257 262 258
3 262 263 259
3 262 259 258
3 264 246 242
3 264 242 265
3 259 263 264
3 259 264 265
3 210 208 260
3 260 259 265
3 260 265 210
3 265 242 185
3 265 185 210
3 222 221 266
3 222 266 267
3 266 268 269
3 266 269 267
3 269 270 271
3 269 271 267
3 271 224 222
3 271 222 267
3 268 272 273
3 268 273 269
3 273 274 270
3 273 270 269
3 275 261 257
3 275 257 276
3 270 274 275
3 270 275 276
3 255 205 226
3 255 226 277
3 226 224 271
3 226 271 277
3 271 270 276
3 271 276 277
3 276 257 255
3 276 255 277
3 234 191 253
3 234 253 278
3 253 251 279
3 253 279 278
3 279 280 281
3 279 281 278
3 281 236 234
3 281 234 278
3 251 250 282
3 251 282 279
3 282 283 280
3 282 280 279
3 284 272 268
3 284 268 285
3 280 283 284
3 280 284 285
3 266 221 238
3 266 238 286
3 238 236 281
3 238 281 286
3 281 280 285
3 281 285 286
3 285 268 266
3 285 266 286
3 247 246 287
3 247 287 288
3 287 289 290
3 287 290 288
3 290 291 292
3 290 292 288
3 292 248 247
3 292 247 288
3 1 0 293
3 0 8 294
3 0 294 293
3 294 291 290
3 294 290 293
3 290 289 1
3 290 1 293
3 21 295 296
3 295 297 298
3 295 298 296
3 298 291 294
3 298 294 296
3 294 8 21
3 294 21 296
3 299 250 249
3 299 249 300
3 249 248 292
3 249 292 300
3 292 291 298
3 292 298 300
3 298 297 299
3 298 299 300
3 262 261 301
3 262 301 302
3 301 303 304
3 301 304 302
3 304 305 306
3 304 306 302
3 306 263 262
3 306 262 302
3 307 9 308
3 9 4 309
3 9 309 308
3 309 305 304
3 309 304 308
3 304 303 307
3 304 307 308
3 2 1 310
3 1 289 311
3 1 311 310
3 311 305 309
3 311 309 310
3 309 4 2
3 309 2 310
3 287 246 264
3 287 264 312
3 264 263 306
3 264 306 312
3 306 305 311
3 306 311 312
3 311 289 287
3 311 287 312
3 273 272 313
3 273 313 314
3 313 315 316
3 313 316 314
3 316 317 318
3 316 318 314
3 318 274 273
3 318 273 314
3 15 14 319
3 14 12 320
3 14 320 319
3 320 317 316
3 320 316 319
3 316 315 15
3 316 15 319
3 10 9 307
3 10 307 321
3 307 303 322
3 307 322 321
3 322 317 320
3 322 320 321
3 320 12 10
3 320 10 321
3 301 261 275
3 301 275 323
3 275 274 318
3 275 318 323
3 318 317 322
3 318 322 323
3 322 303 301
3 322 301 323
3 282 250 299
3 282 299 324
3 299 297 325
3 299 325 324
3 325 326 327
3 325 327 324
3 327 283 282
3 327 282 324
3 295 21 20
3 295 20 328
3 20 18 329
3 20 329 328
3 329 326 325
3 329 325 328
3 325 297 295
3 325 295 328
3 16 15 330
3 15 315 331
3 15 331 330
3 331 326 329
3 331 329 330
3 329 18 16
3 329 16 330
3 313 272 284
3 313 284 332
3 284 283 327
3 284 327 332
3 327 326 331
3 327 331 332
3 331 315 313
3 331 313 332
3 25 24 333
3 25 333 334
3 335 23 25
3 335 25 334
3 37 36 336
3 36 44 337
3 36 337 336
3 337 335 334
3 337 334 336
3 334 333 37
3 334 37 336
3 59 58 338
3 59 338 339
3 338 340 27
3 338 27 339
3 27 335 337
3 27 337 339
3 337 44 59
3 337 59 339
3 340 26 27
3 27 23 335
3 341 26 340
3 341 340 342
3 343 341 342
3 338 58 101
3 338 101 344
3 101 106 345
3 101 345 344
3 345 343 342
3 345 342 344
3 342 340 338
3 342 338 344
3 114 82 346
3 114 346 347
3 346 348 347
3 347 343 345
3 345 106 114
3 345 114 347
3 348 33 349
3 349 341 343
3 343 347 349
3 347 348 349
3 34 33 348
3 350 32 34
3 346 82 81
3 346 81 351
3 81 89 352
3 81 352 351
3 352 350 34
3 352 34 351
3 34 348 346
3 34 346 351
3 99 62 353
3 99 353 354
3 353 355 356
3 353 356 354
3 356 350 352
3 356 352 354
3 352 89 99
3 352 99 354
3 355 29 35
3 355 35 356
3 35 32 350
3 35 350 356
3 30 29 355
3 355 357 30
3 357 358 30
3 358 28 30
3 353 62 61
3 353 61 357
3 61 69 357
3 69 358 357
3 357 355 353
3 37 333 31
3 37 31 79
3 31 358 69
3 31 69 79
3 333 24 31
3 31 28 358
