OFF
391 750 0
15.9769 -2.37265 -0.759849
15.3999 -2.08075 -1.41285
15.9769 -1.40635 -1.69555
17.0379 -1.48545 -0.836449
16.3449 -0.363745 -1.89885
17.4979 -0.383545 -0.957249
18.0449 -0.408245 0.188251
17.5539 -1.59985 0.230551
16.3889 -2.58095 0.249651
16.3089 0.797554 -1.95045
15.9539 1.81475 -1.91425
16.9979 1.81475 -1.04855
17.4509 0.797554 -1.01325
17.4309 1.83805 0.0300512
17.9619 0.813155 0.137951
17.3409 1.90795 1.18815
16.6629 2.08065 2.35045
17.7209 0.873455 2.36165
17.9759 0.859755 1.34215
17.9829 -0.393245 2.35975
18.1449 -0.403245 1.36615
17.5529 -1.60035 2.35905
16.3899 -2.58145 2.35905
16.4839 -2.62915 1.37415
17.6729 -1.62635 1.37415
7.70388 -3.28495 -0.995349
7.70388 -2.67165 -1.98505
9.71388 -2.66525 -1.97875
9.71388 -3.27665 -0.991949
12.0079 -2.58995 -1.90585
12.0469 -3.18215 -0.951949
12.0959 -3.46035 0.206151
9.68288 -3.54095 0.209751
7.65788 -3.52355 0.218551
14.0679 -2.37265 -1.69555
14.2239 -2.90955 -0.836449
14.4499 -3.17075 0.230551
14.4509 -3.17015 2.35905
14.5029 -3.23075 1.37415
12.0669 -3.40965 2.38625
12.0859 -3.50325 1.39225
9.56388 -3.34325 2.46765
7.17888 -2.93425 2.67665
7.51988 -3.42195 1.48495
9.59088 -3.51835 1.44655
7.61188 0.912055 -2.70805
7.47888 2.14275 -2.24985
9.75088 1.92685 -2.60135
9.65188 0.872355 -2.79125
12.0539 1.84275 -2.64875
12.0779 0.816254 -2.76985
12.0939 -0.408645 -2.74355
9.69788 -0.404945 -2.82335
7.68088 -0.395945 -2.80905
14.2139 1.81475 -2.43365
14.4079 0.797554 -2.51285
14.4269 -0.383545 -2.46485
14.2239 -1.48545 -2.21535
12.0469 -1.60475 -2.47935
7.70388 -1.64955 -2.57885
9.71388 -1.64605 -2.57085
9.34688 -1.13495 2.48995
9.75088 -1.62515 2.53795
10.7189 -1.82945 2.48995
10.6189 -1.18565 2.40195
12.1259 -1.92975 2.46635
12.1259 -1.23995 2.37225
12.1259 -0.423045 2.34075
10.5119 -0.423045 2.37225
9.14888 -0.423045 2.46635
13.5319 -1.82945 2.48995
14.4999 -1.62515 2.53795
14.9039 -1.13495 2.48995
13.6319 -1.18565 2.40195
15.1019 -0.423045 2.46635
13.7389 -0.423045 2.37225
14.9039 0.288755 2.48995
14.4999 0.778955 2.53795
13.5319 0.983355 2.48995
13.6319 0.339555 2.40195
12.1259 1.08355 2.46635
12.1259 0.393855 2.37225
10.7189 0.983355 2.48995
9.75088 0.778955 2.53795
9.34688 0.288755 2.48995
10.6189 0.339555 2.40195
6.36188 -1.72425 3.11765
7.78288 -2.62355 3.10855
6.74088 -1.63805 3.22245
8.15188 -2.43465 3.26845
7.10388 -1.52395 3.29695
6.76688 -0.420445 3.31255
6.43888 -0.412345 3.28495
6.13188 -0.407045 3.23645
8.41388 -2.30155 3.27725
8.60088 -2.20725 3.17705
7.63888 -1.39625 3.17705
7.40188 -1.44775 3.27725
7.31888 -0.423045 3.17705
7.06488 -0.423045 3.27725
7.63888 0.550155 3.17705
8.60088 1.36115 3.17705
8.41388 1.45545 3.27725
7.40188 0.601555 3.27725
8.14188 1.60455 3.27145
7.09788 0.688555 3.29555
7.74088 1.84145 3.12065
7.06788 2.29275 2.62875
6.32088 0.942155 3.10965
6.71288 0.834655 3.21705
16.2329 -2.50205 2.95005
14.3659 -3.06905 2.95005
16.0399 -2.40435 3.22885
14.2609 -2.94465 3.22885
12.1159 -3.12985 3.23335
12.0859 -3.27835 2.96815
15.8369 -2.30155 3.27725
15.6499 -2.20725 3.17705
14.0479 -2.69385 3.17705
14.1499 -2.81385 3.27725
12.1259 -2.85605 3.17705
12.1259 -2.98465 3.27725
10.2029 -2.69385 3.17705
10.1009 -2.81385 3.27725
9.95088 -2.96485 3.24695
9.72788 -3.15005 3.02235
16.3439 1.77515 2.98275
17.4269 0.790455 2.95845
16.0679 1.58795 3.23695
17.1259 0.677455 3.23095
17.4679 -0.418145 3.22935
17.7449 -0.403245 2.95215
15.8369 1.45545 3.27725
15.6499 1.36115 3.17705
16.6119 0.550155 3.17705
16.8489 0.601555 3.27725
16.9319 -0.423045 3.17705
17.1859 -0.423045 3.27725
16.6119 -1.39625 3.17705
16.8489 -1.44775 3.27725
17.1069 -1.50375 3.22885
17.3529 -1.55705 2.95005
9.65188 2.56045 2.71045
9.69988 2.34665 3.09735
9.94388 2.12945 3.26565
12.1189 2.29135 3.26365
12.0979 2.46275 3.08935
12.0839 2.62185 2.71345
10.2029 1.84775 3.17705
10.1009 1.96775 3.27725
12.1259 2.00995 3.17705
12.1259 2.13855 3.27725
14.0479 1.84775 3.17705
14.1499 1.96775 3.27725
14.2789 2.11835 3.25095
14.4329 2.49405 2.62255
14.4399 2.30245 3.03875
8.74388 -2.13485 3.01015
7.82088 -1.35675 3.01015
8.94588 -2.03225 2.81965
8.07888 -1.30075 2.81635
7.79088 -0.423045 2.81315
7.51388 -0.423045 3.01015
9.31088 -1.84755 2.64855
8.54388 -1.20005 2.63555
8.28888 -0.423045 2.62255
9.31088 1.00135 2.64855
8.54388 0.353955 2.63555
8.94588 1.18605 2.81965
8.07888 0.454655 2.81635
8.74388 1.28865 3.01015
7.82088 0.510655 3.01015
15.5069 -2.13485 3.01015
13.9699 -2.60165 3.01015
15.3049 -2.03225 2.81965
13.8599 -2.47105 2.81635
12.1259 -2.61725 2.81315
12.1259 -2.75725 3.01015
14.9399 -1.84755 2.64855
13.6609 -2.23575 2.63555
12.1259 -2.36515 2.62255
10.5899 -2.23575 2.63555
10.3909 -2.47105 2.81635
10.2809 -2.60165 3.01015
15.5069 1.28865 3.01015
16.4299 0.510655 3.01015
15.3049 1.18605 2.81965
16.1719 0.454655 2.81635
16.4599 -0.423045 2.81315
16.7369 -0.423045 3.01015
14.9399 1.00135 2.64855
15.7069 0.353955 2.63555
15.9619 -0.423045 2.62255
15.7069 -1.20005 2.63555
16.1719 -1.30075 2.81635
16.4299 -1.35675 3.01015
10.2809 1.75555 3.01015
10.3909 1.62485 2.81635
12.1259 1.77115 2.81315
12.1259 1.91115 3.01015
10.5899 1.38965 2.63555
12.1259 1.51895 2.62255
13.6609 1.38965 2.63555
13.8599 1.62485 2.81635
13.9699 1.75555 3.01015
6.73288 2.64565 1.27835
8.47088 2.68135 1.67745
7.72788 2.73805 0.848651
9.50088 2.79435 0.931751
8.84888 2.80845 0.308651
8.66088 2.81905 -0.450149
7.59588 2.78025 -0.190149
6.67788 2.73475 0.0225512
10.3299 2.83195 0.303151
10.9479 2.83195 -0.180649
10.6269 2.83195 -0.513349
9.84088 2.83195 -0.153849
10.5199 2.83195 -0.912649
9.67788 2.83195 -0.702149
10.6269 2.83195 -1.31185
10.9479 2.83195 -1.64455
10.3299 2.83195 -1.70745
9.84088 2.83195 -1.25045
9.53488 2.77115 -1.81055
8.87088 2.80055 -1.19815
8.60388 2.58885 -1.97155
6.86588 2.59825 -1.16845
7.81688 2.70635 -1.18595
15.6149 2.56335 1.58955
14.0589 2.66755 1.98435
14.7079 2.76485 0.909851
13.5419 2.79085 1.25805
12.1189 2.80845 1.36895
12.0979 2.73775 2.09535
13.9209 2.83195 0.303151
13.3029 2.83195 -0.180649
12.7679 2.83195 0.0190512
13.1049 2.83195 0.577351
12.1259 2.83195 0.0855512
12.1259 2.83195 0.668751
11.4829 2.83195 0.0190512
11.1459 2.83195 0.577351
10.6809 2.80195 1.27275
10.0809 2.71175 2.04305
15.3609 2.42505 -1.85395
16.2429 2.42505 -1.10745
14.6449 2.73025 -1.78115
15.3319 2.73025 -1.17855
15.5709 2.73415 -0.448949
16.5789 2.44065 -0.185249
13.9209 2.83195 -1.70745
13.3029 2.83195 -1.64455
13.6239 2.83195 -1.31185
14.4099 2.83195 -1.25045
13.7309 2.83195 -0.912649
14.5729 2.83195 -0.702149
13.6239 2.83195 -0.513349
14.4099 2.83195 -0.153849
15.3739 2.74575 0.294051
16.4119 2.48725 0.790051
10.1699 2.49985 -2.38025
10.7039 2.74895 -2.16225
12.1139 2.73495 -2.26805
12.0779 2.44375 -2.47075
11.4829 2.83195 -1.84425
11.1459 2.83195 -1.98165
12.1259 2.83195 -1.91075
12.1259 2.83195 -2.07305
12.7679 2.83195 -1.84425
13.1049 2.83195 -1.98165
13.4999 2.73025 -2.14265
13.8899 2.42505 -2.30185
11.6109 2.92775 -1.18515
11.5769 2.87985 -1.17665
11.6139 2.87985 -0.964449
11.7479 2.92775 -1.56315
11.7239 2.87985 -1.56575
11.6139 2.87985 -1.38885
11.6459 2.92775 -1.39135
11.9059 2.87985 -1.67185
11.9199 2.92775 -1.66625
12.1259 2.92775 -1.70065
12.1259 2.87985 -1.70715
12.3449 2.87985 -1.67185
12.9059 2.83195 -0.491649
12.5509 2.83195 -0.339949
12.6779 2.83675 -0.669849
12.4269 2.83675 -0.545549
12.1259 2.83675 -0.504149
12.1259 2.83195 -0.289349
12.5689 2.85115 -0.755149
12.3449 2.87985 -0.681549
12.3669 2.85115 -0.644049
12.1259 2.85115 -0.607049
11.9059 2.87985 -0.681549
11.7239 2.87985 -0.787649
11.6819 2.85115 -0.755149
11.8839 2.85115 -0.644049
11.5729 2.83675 -0.669849
11.8239 2.83675 -0.545549
11.3459 2.83195 -0.491649
11.6999 2.83195 -0.339949
11.1329 2.83195 -0.744449
11.4219 2.83675 -0.876949
11.3719 2.83675 -1.12545
11.0619 2.83195 -1.04795
11.5609 2.85115 -0.940349
11.5209 2.85115 -1.16255
11.6819 2.85115 -1.56995
11.5609 2.85115 -1.38475
11.5729 2.83675 -1.58105
11.4219 2.83675 -1.37395
11.3459 2.83195 -1.60415
11.1329 2.83195 -1.35135
11.6999 2.83195 -1.75585
11.8239 2.83675 -1.70525
12.1259 2.83675 -1.74665
12.1259 2.83195 -1.80645
11.8839 2.85115 -1.68105
12.1259 2.85115 -1.71805
12.5689 2.85115 -1.56995
12.3669 2.85115 -1.68105
12.6779 2.83675 -1.58105
12.4269 2.83675 -1.70525
12.9059 2.83195 -1.60415
12.5509 2.83195 -1.75585
13.1179 2.83195 -1.35135
12.8289 2.83675 -1.37395
12.8789 2.83675 -1.12545
13.1889 2.83195 -1.04795
12.6369 2.87985 -1.38885
12.6899 2.85115 -1.38475
12.6739 2.87985 -1.17665
12.7299 2.85115 -1.16255
12.6369 2.87985 -0.964449
12.6899 2.85115 -0.940349
12.8289 2.83675 -0.876949
13.1179 2.83195 -0.744449
5.69488 2.52235 1.41455
5.69488 1.86945 2.41195
5.69488 2.49465 1.40305
5.80288 1.89005 2.41595
5.80088 2.49725 1.39935
5.79588 2.68895 0.177451
5.69488 2.70305 0.192251
6.12588 1.99225 2.46695
6.11888 2.55645 1.40985
6.10088 2.70195 0.132951
6.34788 1.94485 -2.09455
6.20688 2.52485 -1.10075
5.85788 1.87815 -2.03445
5.82288 2.48925 -1.03375
5.69488 2.49465 -1.01855
5.69488 1.86945 -2.02755
5.87988 0.835455 -2.62505
5.69488 0.827354 -2.63295
5.89188 -0.418545 -2.81415
5.69488 -0.423045 -2.83475
6.43688 0.881655 -2.65135
6.48288 -0.404945 -2.80575
6.49888 -2.68245 -1.99545
6.49888 -1.65545 -2.59205
5.89588 -2.69715 -2.00965
5.89588 -1.66345 -2.61025
5.69488 -1.67355 -2.63295
5.69488 -2.71555 -2.02755
5.69488 -3.36855 -1.03005
5.69488 -3.34075 -1.01855
5.89588 -3.31735 -1.00885
5.88788 -3.52795 0.196651
5.69488 -3.54915 0.192251
6.49888 -3.29855 -1.00105
6.46788 -3.51935 0.209751
6.22488 -2.77435 2.48505
6.37588 -3.35985 1.45555
5.82688 -2.72015 2.42045
5.86488 -3.33265 1.41085
5.69488 -3.34075 1.40305
5.69488 -2.71555 2.41195
5.69488 -1.68545 3.04425
5.69488 -1.67355 3.01735
5.77588 -1.67875 3.01225
5.74488 -0.420445 3.20325
5.69488 -0.423045 3.21915
5.69488 -0.423045 3.24795
6.01888 -1.71675 3.04665
5.89588 -0.412345 3.20915
5.99188 0.913355 3.04135
5.76888 0.843355 3.01085
5.69488 0.839254 3.04425
5.69488 0.827354 3.01735
3 0 1 2
3 0 2 3
3 2 4 5
3 2 5 3
3 5 6 7
3 5 7 3
3 7 8 0
3 7 0 3
3 9 10 11
3 9 11 12
3 11 13 14
3 11 14 12
3 14 6 5
3 14 5 12
3 5 4 9
3 5 9 12
3 15 16 17
3 15 17 18
3 17 19 20
3 17 20 18
3 20 6 14
3 20 14 18
3 14 13 15
3 14 15 18
3 21 22 23
3 21 23 24
3 23 8 7
3 23 7 24
3 7 6 20
3 7 20 24
3 20 19 21
3 20 21 24
3 25 26 27
3 25 27 28
3 27 29 30
3 27 30 28
3 30 31 32
3 30 32 28
3 32 33 25
3 32 25 28
3 34 1 0
3 34 0 35
3 0 8 36
3 0 36 35
3 36 31 30
3 36 30 35
3 30 29 34
3 30 34 35
3 23 22 37
3 23 37 38
3 37 39 40
3 37 40 38
3 40 31 36
3 40 36 38
3 36 8 23
3 36 23 38
3 41 42 43
3 41 43 44
3 43 33 32
3 43 32 44
3 32 31 40
3 32 40 44
3 40 39 41
3 40 41 44
3 45 46 47
3 45 47 48
3 47 49 50
3 47 50 48
3 50 51 52
3 50 52 48
3 52 53 45
3 52 45 48
3 54 10 9
3 54 9 55
3 9 4 56
3 9 56 55
3 56 51 50
3 56 50 55
3 50 49 54
3 50 54 55
3 2 1 34
3 2 34 57
3 34 29 58
3 34 58 57
3 58 51 56
3 58 56 57
3 56 4 2
3 56 2 57
3 27 26 59
3 27 59 60
3 59 53 52
3 59 52 60
3 52 51 58
3 52 58 60
3 58 29 27
3 58 27 60
3 61 62 63
3 61 63 64
3 63 65 66
3 63 66 64
3 66 67 68
3 66 68 64
3 68 69 61
3 68 61 64
3 70 71 72
3 70 72 73
3 72 74 75
3 72 75 73
3 75 67 66
3 75 66 73
3 66 65 70
3 66 70 73
3 76 77 78
3 76 78 79
3 78 80 81
3 78 81 79
3 81 67 75
3 81 75 79
3 75 74 76
3 75 76 79
3 82 83 84
3 82 84 85
3 84 69 68
3 84 68 85
3 68 67 81
3 68 81 85
3 81 80 82
3 81 82 85
3 86 42 87
3 86 87 88
3 87 89 90
3 87 90 88
3 90 91 92
3 90 92 88
3 92 93 86
3 92 86 88
3 94 95 96
3 94 96 97
3 96 98 99
3 96 99 97
3 99 91 90
3 99 90 97
3 90 89 94
3 90 94 97
3 100 101 102
3 100 102 103
3 102 104 105
3 102 105 103
3 105 91 99
3 105 99 103
3 99 98 100
3 99 100 103
3 106 107 108
3 106 108 109
3 108 93 92
3 108 92 109
3 92 91 105
3 92 105 109
3 105 104 106
3 105 106 109
3 37 22 110
3 37 110 111
3 110 112 113
3 110 113 111
3 113 114 115
3 113 115 111
3 115 39 37
3 115 37 111
3 116 117 118
3 116 118 119
3 118 120 121
3 118 121 119
3 121 114 113
3 121 113 119
3 113 112 116
3 113 116 119
3 122 95 94
3 122 94 123
3 94 89 124
3 94 124 123
3 124 114 121
3 124 121 123
3 121 120 122
3 121 122 123
3 87 42 41
3 87 41 125
3 41 39 115
3 41 115 125
3 115 114 124
3 115 124 125
3 124 89 87
3 124 87 125
3 17 16 126
3 17 126 127
3 126 128 129
3 126 129 127
3 129 130 131
3 129 131 127
3 131 19 17
3 131 17 127
3 132 133 134
3 132 134 135
3 134 136 137
3 134 137 135
3 137 130 129
3 137 129 135
3 129 128 132
3 129 132 135
3 138 117 116
3 138 116 139
3 116 112 140
3 116 140 139
3 140 130 137
3 140 137 139
3 137 136 138
3 137 138 139
3 110 22 21
3 110 21 141
3 21 19 131
3 21 131 141
3 131 130 140
3 131 140 141
3 140 112 110
3 140 110 141
3 142 107 106
3 142 106 143
3 106 104 144
3 106 144 143
3 144 145 146
3 144 146 143
3 146 147 142
3 146 142 143
3 102 101 148
3 102 148 149
3 148 150 151
3 148 151 149
3 151 145 144
3 151 144 149
3 144 104 102
3 144 102 149
3 152 133 132
3 152 132 153
3 132 128 154
3 132 154 153
3 154 145 151
3 154 151 153
3 151 150 152
3 151 152 153
3 126 16 155
3 126 155 156
3 155 147 146
3 155 146 156
3 146 145 154
3 146 154 156
3 154 128 126
3 154 126 156
3 96 95 157
3 96 157 158
3 157 159 160
3 157 160 158
3 160 161 162
3 160 162 158
3 162 98 96
3 162 96 158
3 163 62 61
3 163 61 164
3 61 69 165
3 61 165 164
3 165 161 160
3 165 160 164
3 160 159 163
3 160 163 164
3 84 83 166
3 84 166 167
3 166 168 169
3 166 169 167
3 169 161 165
3 169 165 167
3 165 69 84
3 165 84 167
3 170 101 100
3 170 100 171
3 100 98 162
3 100 162 171
3 162 161 169
3 162 169 171
3 169 168 170
3 169 170 171
3 118 117 172
3 118 172 173
3 172 174 175
3 172 175 173
3 175 176 177
3 175 177 173
3 177 120 118
3 177 118 173
3 178 71 70
3 178 70 179
3 70 65 180
3 70 180 179
3 180 176 175
3 180 175 179
3 175 174 178
3 175 178 179
3 63 62 163
3 63 163 181
3 163 159 182
3 163 182 181
3 182 176 180
3 182 180 181
3 180 65 63
3 180 63 181
3 157 95 122
3 157 122 183
3 122 120 177
3 122 177 183
3 177 176 182
3 177 182 183
3 182 159 157
3 182 157 183
3 134 133 184
3 134 184 185
3 184 186 187
3 184 187 185
3 187 188 189
3 187 189 185
3 189 136 134
3 189 134 185
3 190 77 76
3 190 76 191
3 76 74 192
3 76 192 191
3 192 188 187
3 192 187 191
3 187 186 190
3 187 190 191
3 72 71 178
3 72 178 193
3 178 174 194
3 178 194 193
3 194 188 192
3 194 192 193
3 192 74 72
3 192 72 193
3 172 117 138
3 172 138 195
3 138 136 189
3 138 189 195
3 189 188 194
3 189 194 195
3 194 174 172
3 194 172 195
3 148 101 170
3 148 170 196
3 170 168 197
3 170 197 196
3 197 198 199
3 197 199 196
3 199 150 148
3 199 148 196
3 166 83 82
3 166 82 200
3 82 80 201
3 82 201 200
3 201 198 197
3 201 197 200
3 197 168 166
3 197 166 200
3 78 77 190
3 78 190 202
3 190 186 203
3 190 203 202
3 203 198 201
3 203 201 202
3 201 80 78
3 201 78 202
3 184 133 152
3 184 152 204
3 152 150 199
3 152 199 204
3 199 198 203
3 199 203 204
3 203 186 184
3 203 184 204
3 205 107 206
3 205 206 207
3 206 208 209
3 206 209 207
3 209 210 211
3 209 211 207
3 211 212 205
3 211 205 207
3 213 214 215
3 213 215 216
3 215 217 218
3 215 218 216
3 218 210 209
3 218 209 216
3 209 208 213
3 209 213 216
3 219 220 221
3 219 221 222
3 221 223 224
3 221 224 222
3 224 210 218
3 224 218 222
3 218 217 219
3 218 219 222
3 225 46 226
3 225 226 227
3 226 212 211
3 226 211 227
3 211 210 224
3 211 224 227
3 224 223 225
3 224 225 227
3 155 16 228
3 155 228 229
3 228 230 231
3 228 231 229
3 231 232 233
3 231 233 229
3 233 147 155
3 233 155 229
3 234 235 236
3 234 236 237
3 236 238 239
3 236 239 237
3 239 232 231
3 239 231 237
3 231 230 234
3 231 234 237
3 240 214 213
3 240 213 241
3 213 208 242
3 213 242 241
3 242 232 239
3 242 239 241
3 239 238 240
3 239 240 241
3 206 107 142
3 206 142 243
3 142 147 233
3 142 233 243
3 233 232 242
3 233 242 243
3 242 208 206
3 242 206 243
3 11 10 244
3 11 244 245
3 244 246 247
3 244 247 245
3 247 248 249
3 247 249 245
3 249 13 11
3 249 11 245
3 250 251 252
3 250 252 253
3 252 254 255
3 252 255 253
3 255 248 247
3 255 247 253
3 247 246 250
3 247 250 253
3 256 235 234
3 256 234 257
3 234 230 258
3 234 258 257
3 258 248 255
3 258 255 257
3 255 254 256
3 255 256 257
3 228 16 15
3 228 15 259
3 15 13 249
3 15 249 259
3 249 248 258
3 249 258 259
3 258 230 228
3 258 228 259
3 47 46 225
3 47 225 260
3 225 223 261
3 225 261 260
3 261 262 263
3 261 263 260
3 263 49 47
3 263 47 260
3 221 220 264
3 221 264 265
3 264 266 267
3 264 267 265
3 267 262 261
3 267 261 265
3 261 223 221
3 261 221 265
3 268 251 250
3 268 250 269
3 250 246 270
3 250 270 269
3 270 262 267
3 270 267 269
3 267 266 268
3 267 268 269
3 244 10 54
3 244 54 271
3 54 49 263
3 54 263 271
3 263 262 270
3 263 270 271
3 270 246 244
3 270 244 271
3 272 273 274
3 275 276 277
3 275 277 278
3 277 273 272
3 277 272 278
3 279 276 275
3 279 275 280
3 281 282 279
3 281 279 280
3 283 282 281
3 236 235 284
3 236 284 285
3 284 286 287
3 284 287 285
3 287 288 289
3 287 289 285
3 289 238 236
3 289 236 285
3 290 291 292
3 291 293 292
3 293 288 287
3 293 287 292
3 287 286 290
3 287 290 292
3 294 295 296
3 294 296 297
3 296 298 299
3 296 299 297
3 299 288 293
3 299 293 297
3 293 294 297
3 300 214 240
3 300 240 301
3 240 238 289
3 240 289 301
3 289 288 299
3 289 299 301
3 299 298 300
3 299 300 301
3 215 214 300
3 215 300 302
3 300 298 303
3 300 303 302
3 303 304 305
3 303 305 302
3 305 217 215
3 305 215 302
3 296 295 274
3 296 274 306
3 274 273 307
3 274 307 306
3 307 304 303
3 307 303 306
3 303 298 296
3 303 296 306
3 277 276 308
3 277 308 309
3 308 310 311
3 308 311 309
3 311 304 307
3 311 307 309
3 307 273 277
3 307 277 309
3 312 220 219
3 312 219 313
3 219 217 305
3 219 305 313
3 305 304 311
3 305 311 313
3 311 310 312
3 311 312 313
3 264 220 312
3 264 312 314
3 312 310 315
3 312 315 314
3 315 316 317
3 315 317 314
3 317 266 264
3 317 264 314
3 308 276 279
3 308 279 318
3 279 282 319
3 279 319 318
3 319 316 315
3 319 315 318
3 315 310 308
3 315 308 318
3 283 320 321
3 320 322 323
3 320 323 321
3 323 316 319
3 323 319 321
3 319 282 283
3 319 283 321
3 324 251 268
3 324 268 325
3 268 266 317
3 268 317 325
3 317 316 323
3 317 323 325
3 323 322 324
3 323 324 325
3 252 251 324
3 252 324 326
3 324 322 327
3 324 327 326
3 327 328 329
3 327 329 326
3 329 254 252
3 329 252 326
3 320 330 331
3 330 332 333
3 330 333 331
3 333 328 327
3 333 327 331
3 327 322 320
3 327 320 331
3 334 290 335
3 290 286 336
3 290 336 335
3 336 328 333
3 336 333 335
3 333 332 334
3 333 334 335
3 284 235 256
3 284 256 337
3 256 254 329
3 256 329 337
3 329 328 336
3 329 336 337
3 336 286 284
3 336 284 337
3 338 339 340
3 339 341 342
3 339 342 340
3 342 343 344
3 342 344 340
3 344 338 340
3 345 107 205
3 345 205 346
3 205 212 347
3 205 347 346
3 347 343 342
3 347 342 346
3 342 341 345
3 342 345 346
3 226 46 348
3 226 348 349
3 348 350 351
3 348 351 349
3 351 343 347
3 351 347 349
3 347 212 226
3 347 226 349
3 344 343 351
3 344 351 352
3 351 350 353
3 351 353 352
3 353 350 354
3 353 354 355
3 354 356 357
3 354 357 355
3 348 46 45
3 348 45 358
3 45 53 359
3 45 359 358
3 359 356 354
3 359 354 358
3 354 350 348
3 354 348 358
3 59 26 360
3 59 360 361
3 360 362 363
3 360 363 361
3 363 356 359
3 363 359 361
3 359 53 59
3 359 59 361
3 357 356 363
3 357 363 364
3 363 362 365
3 363 365 364
3 366 365 367
3 365 362 368
3 365 368 367
3 368 369 370
3 368 370 367
3 370 366 367
3 360 26 25
3 360 25 371
3 25 33 372
3 25 372 371
3 372 369 368
3 372 368 371
3 368 362 360
3 368 360 371
3 43 42 373
3 43 373 374
3 373 375 376
3 373 376 374
3 376 369 372
3 376 372 374
3 372 33 43
3 372 43 374
3 370 369 376
3 370 376 377
3 376 375 378
3 376 378 377
3 379 378 380
3 378 375 381
3 378 381 380
3 381 382 383
3 381 383 380
3 383 384 379
3 383 379 380
3 373 42 86
3 373 86 385
3 86 93 386
3 86 386 385
3 386 382 381
3 386 381 385
3 381 375 373
3 381 373 385
3 108 107 345
3 108 345 387
3 345 341 388
3 345 388 387
3 388 382 386
3 388 386 387
3 386 93 108
3 386 108 387
3 339 389 390
3 389 384 383
3 389 383 390
3 383 382 388
3 383 388 390
3 388 341 339
3 388 339 390
