OFF
463 908 0
-5.25448 -8.87578 -21.5429
-5.02848 -8.96618 -21.3349
-5.00348 -9.20398 -21.4629
-5.33547 -9.17698 -21.8069
-5.04448 -9.46158 -21.4719
-5.40648 -9.44738 -21.8329
-5.80548 -9.33588 -21.9539
-5.70048 -9.05938 -21.9269
-5.58648 -8.75098 -21.6459
-5.16348 -9.62708 -21.2999
-5.29648 -9.67808 -21.0609
-5.56848 -9.70638 -21.2199
-5.50748 -9.62888 -21.6309
-5.92148 -9.63398 -21.2989
-5.88448 -9.54028 -21.7379
-6.22948 -9.44788 -21.2199
-6.41148 -9.24548 -21.0609
-6.47548 -9.12118 -21.2999
-6.22248 -9.35158 -21.6309
-6.45748 -8.92588 -21.4719
-6.17648 -9.15308 -21.8329
-6.32247 -8.71438 -21.4629
-6.15248 -8.55758 -21.3349
-5.92148 -8.63358 -21.5429
-6.05247 -8.90798 -21.8069
-2.50148 -3.09838 0.746119
-2.53348 -3.05088 0.656119
-2.90748 -2.80528 0.656119
-2.88148 -2.84588 0.746119
-3.38048 -2.67538 0.656119
-3.36348 -2.71238 0.746119
-2.58048 -2.90458 0.461119
-2.66148 -2.63268 0.115119
-3.01448 -2.40808 0.115119
-2.94648 -2.66748 0.461119
-3.46048 -2.29198 0.115119
-3.40848 -2.54288 0.461119
-3.91948 -2.29088 0.115119
-4.31948 -2.41088 0.115119
-4.30348 -2.66008 0.461119
-3.88748 -2.53818 0.461119
-4.29848 -2.79248 0.656119
-3.87048 -2.66868 0.656119
-3.86348 -2.70548 0.746119
-4.29948 -2.83278 0.746119
-2.74248 -4.52278 0.746119
-2.76448 -4.43598 0.656119
-2.46848 -4.16408 0.656119
-2.43948 -4.24338 0.746119
-2.32248 -3.79798 0.656119
-2.28948 -3.86678 0.746119
-2.79848 -4.25048 0.461119
-2.85948 -3.92368 0.115119
-2.58548 -3.66728 0.115119
-2.51148 -3.98518 0.461119
-2.45348 -3.32508 0.115119
-2.37148 -3.62908 0.461119
-2.47648 -2.95928 0.115119
-2.39148 -3.24698 0.461119
-2.34148 -3.40428 0.656119
-2.27448 -3.45248 0.777119
-2.30748 -3.46188 0.746119
-4.16648 -4.47968 0.777119
-4.54448 -4.20738 0.777119
-4.52748 -4.18348 0.746119
-4.15747 -4.44698 0.746119
-4.51748 -4.10728 0.656119
-4.15348 -4.36328 0.656119
-3.68748 -4.51608 0.656119
-3.68348 -4.60448 0.746119
-4.51048 -3.93898 0.461119
-4.50748 -3.63978 0.115119
-4.16248 -3.87368 0.115119
-4.15348 -4.18608 0.461119
-3.72348 -4.00998 0.115119
-3.69848 -4.33248 0.461119
-3.26348 -4.03228 0.115119
-3.22048 -4.36008 0.461119
-3.19748 -4.54688 0.656119
-3.17348 -4.67418 0.777119
-3.18448 -4.63648 0.746119
-4.58348 -3.05408 0.656119
-4.59148 -3.10148 0.746119
-4.72148 -3.39758 0.656119
-4.73248 -3.45428 0.746119
-4.58448 -2.65808 0.115119
-4.58148 -2.91548 0.461119
-4.70848 -2.98018 0.115119
-4.71348 -3.24998 0.461119
-4.68648 -3.32468 0.115119
-4.69348 -3.60908 0.461119
-4.70248 -3.76698 0.656119
-4.73448 -3.84518 0.777119
-4.71548 -3.83378 0.746119
-3.44348 -1.26818 -3.21988
-3.19748 -1.40918 -3.21988
-3.23148 -1.75138 -4.52988
-3.44548 -1.62588 -4.52988
-3.22148 -2.40978 -5.94588
-3.40548 -2.29618 -5.94588
-3.63748 -2.23798 -5.94588
-3.71148 -1.56478 -4.52988
-3.74948 -1.20138 -3.21988
-3.19948 -3.30738 -7.38388
-3.19248 -4.36528 -8.76288
-3.33148 -4.26678 -8.76588
-3.35848 -3.20288 -7.38488
-3.51048 -4.20958 -8.76788
-3.56048 -3.14608 -7.38588
-3.69748 -4.19878 -8.76588
-3.86248 -4.23958 -8.76288
-3.95248 -3.19278 -7.38388
-3.76948 -3.14118 -7.38488
-4.08248 -2.30308 -5.94588
-3.87548 -2.23898 -5.94588
-4.22048 -1.64908 -4.52988
-4.32847 -1.30278 -3.21988
-4.06048 -1.21188 -3.22088
-3.98448 -1.57138 -4.52988
-3.11348 -2.09408 -3.21988
-3.29048 -2.27278 -3.21988
-3.31748 -2.50678 -4.52988
-3.16248 -2.35138 -4.52988
-3.30948 -3.06898 -5.94288
-3.17148 -2.93558 -5.94388
-3.10748 -2.76058 -5.94388
-3.09248 -2.14998 -4.52988
-3.03648 -1.86328 -3.21988
-3.29248 -3.88528 -7.37388
-3.29348 -4.88038 -8.73888
-3.17848 -4.78158 -8.74388
-3.16848 -3.77098 -7.37688
-3.12048 -4.64678 -8.75088
-3.10848 -3.61858 -7.37888
-3.12348 -4.49998 -8.75788
-3.11748 -3.45498 -7.38188
-3.12248 -2.57498 -5.94488
-3.06348 -1.62128 -3.22088
-3.11448 -1.93798 -4.52988
-4.17548 -2.28278 -3.21988
-4.41848 -2.13728 -3.21988
-4.30448 -2.38208 -4.52988
-4.09248 -2.51108 -4.52988
-4.16848 -2.94528 -5.94288
-3.98648 -3.06148 -5.94288
-3.75648 -3.12528 -5.94288
-3.82848 -2.57958 -4.52988
-3.87348 -2.35918 -3.21988
-4.04348 -3.75778 -7.37388
-3.96148 -4.74438 -8.73888
-3.82348 -4.84448 -8.73488
-3.88548 -3.86418 -7.37288
-3.64648 -4.90498 -8.73388
-3.68548 -3.92528 -7.37288
-3.45948 -4.91928 -8.73488
-3.47648 -3.93448 -7.37288
-3.51748 -3.13008 -5.94288
-3.56048 -2.35848 -3.22088
-3.55448 -2.58048 -4.52988
-4.50148 -1.47698 -3.21988
-4.37248 -1.80108 -4.52988
-4.21848 -2.43398 -5.94488
-4.28048 -2.60348 -5.94388
-4.43948 -1.99518 -4.52988
-4.57648 -1.69828 -3.21988
-3.97548 -4.33688 -8.75788
-4.07448 -3.30518 -7.38188
-4.03247 -4.46838 -8.75088
-4.13348 -3.45348 -7.37888
-4.02948 -4.61168 -8.74388
-4.12448 -3.61258 -7.37688
-4.26548 -2.78328 -5.94388
-4.55048 -1.93038 -3.22088
-4.41848 -2.19958 -4.52988
-3.22848 -5.50468 -9.99988
-3.35448 -5.40848 -10.0069
-3.32248 -6.60918 -11.1449
-3.44048 -6.51258 -11.1549
-3.59548 -6.44988 -11.1589
-3.51848 -5.34908 -10.0089
-3.48848 -7.56218 -12.2449
-3.71948 -8.24548 -13.3509
-3.83048 -8.14478 -13.3689
-3.60148 -7.46358 -12.2599
-3.98048 -8.07498 -13.3759
-3.75348 -7.39708 -12.2649
-4.14248 -8.04398 -13.3699
-4.29148 -8.05978 -13.3509
-4.06547 -7.38978 -12.2449
-3.91648 -7.36998 -12.2599
-3.91148 -6.45308 -11.1449
-3.76148 -6.42788 -11.1549
-3.84648 -5.36468 -9.99988
-3.69148 -5.33258 -10.0069
-3.33948 -5.97898 -9.95088
-3.22948 -5.89128 -9.96188
-3.44448 -7.05928 -11.0659
-3.33548 -6.97918 -11.0839
-3.27548 -6.86348 -11.1049
-3.17148 -5.76828 -9.97588
-3.62248 -7.99908 -12.1379
-3.86148 -8.67518 -13.2189
-3.75048 -8.60368 -13.2489
-3.51248 -7.92418 -12.1619
-3.68548 -8.49498 -13.2849
-3.44948 -7.81288 -12.1909
-3.67248 -8.36888 -13.3209
-3.43948 -7.68538 -12.2209
-3.26948 -6.73318 -11.1269
-3.16948 -5.63208 -9.98888
-3.95548 -5.83028 -9.95088
-3.83148 -5.92788 -9.94488
-4.03148 -6.89528 -11.0659
-3.91548 -6.99308 -11.0559
-3.76048 -7.05818 -11.0519
-3.66848 -5.98998 -9.94188
-4.19648 -7.81918 -12.1379
-4.43148 -8.48218 -13.2189
-4.32148 -8.58378 -13.2009
-4.08448 -7.91878 -12.1229
-4.17248 -8.65598 -13.1949
-3.93348 -7.98778 -12.1179
-4.01048 -8.68948 -13.2009
-3.77148 -8.01738 -12.1229
-3.59448 -7.08298 -11.0559
-3.49548 -6.00948 -9.94488
-3.95548 -5.45118 -9.98888
-4.01848 -6.53218 -11.1269
-4.07847 -6.64528 -11.1049
-4.01248 -5.57148 -9.97588
-4.40147 -8.13028 -13.3209
-4.17348 -7.46368 -12.2209
-4.46548 -8.23678 -13.2849
-4.23448 -7.57268 -12.1909
-4.47748 -8.36028 -13.2489
-4.24448 -7.69748 -12.1619
-4.08448 -6.77288 -11.0839
-4.01448 -5.70468 -9.96188
-4.00548 -8.54078 -14.5119
-4.11648 -8.43938 -14.5319
-4.30048 -8.56268 -15.6379
-4.41348 -8.45928 -15.6599
-4.56648 -8.38578 -15.6669
-4.26548 -8.36798 -14.5389
-4.55247 -8.42588 -16.6399
-4.72248 -8.24078 -17.4269
-4.86348 -8.11808 -17.4519
-4.67548 -8.31618 -16.6629
-5.05247 -8.03008 -17.4609
-4.84048 -8.23788 -16.6709
-5.25647 -7.98718 -17.4519
-5.44348 -7.99938 -17.4269
-5.18248 -8.21208 -16.6399
-5.01947 -8.20018 -16.6629
-4.88448 -8.36308 -15.6379
-4.73248 -8.35088 -15.6599
-4.57648 -8.34828 -14.5119
-4.42747 -8.33488 -14.5319
-4.15147 -8.96408 -14.3659
-4.04048 -8.89498 -14.3989
-4.44848 -8.98948 -15.4809
-4.33448 -8.92058 -15.5169
-4.26748 -8.81328 -15.5599
-3.97448 -8.78828 -14.4389
-4.70848 -8.87488 -16.4699
-4.89348 -8.73978 -17.2369
-4.75548 -8.66068 -17.2799
-4.58648 -8.80298 -16.5079
-4.67648 -8.53558 -17.3319
-4.51548 -8.69028 -16.5549
-4.66248 -8.38778 -17.3829
-4.50148 -8.55758 -16.6009
-4.25348 -8.68738 -15.6029
-3.96048 -8.66368 -14.4789
-4.71948 -8.76438 -14.3659
-4.61048 -8.86658 -14.3459
-5.03148 -8.78218 -15.4809
-4.91948 -8.88658 -15.4589
-4.76748 -8.96258 -15.4519
-4.46248 -8.94038 -14.3389
-5.33547 -8.65228 -16.4699
-5.61048 -8.48698 -17.2369
-5.47148 -8.61118 -17.2109
-5.21448 -8.76308 -16.4469
-5.28348 -8.70278 -17.2019
-5.05048 -8.84418 -16.4389
-5.08048 -8.74978 -17.2109
-4.87248 -8.88498 -16.4469
-4.60148 -9.00008 -15.4589
-4.30048 -8.97598 -14.3459
-4.68648 -8.41648 -14.4789
-4.99748 -8.43098 -15.6029
-5.06348 -8.53588 -15.5599
-4.75148 -8.52088 -14.4389
-5.57847 -8.07708 -17.3829
-5.30247 -8.28278 -16.6009
-5.65648 -8.19858 -17.3319
-5.37248 -8.39278 -16.5549
-5.66948 -8.34238 -17.2799
-5.38648 -8.52238 -16.5079
-5.07648 -8.65918 -15.5169
-4.76448 -8.64298 -14.3989
-4.76648 -8.11808 -17.9089
-4.93848 -7.97298 -17.9399
-4.73348 -8.06328 -18.2269
-4.94148 -7.89068 -18.2619
-5.21848 -7.76568 -18.2739
-5.16848 -7.86828 -17.9499
-4.66748 -8.08178 -18.5159
-4.61748 -8.18038 -18.9169
-4.89148 -7.95578 -18.9629
-4.91248 -7.88128 -18.5579
-5.25548 -7.79168 -18.9779
-5.23748 -7.73548 -18.5709
-5.64548 -7.70698 -18.9629
-5.99948 -7.72008 -18.9169
-5.90048 -7.67498 -18.5159
-5.58547 -7.66128 -18.5579
-5.78548 -7.71638 -18.2269
-5.51648 -7.70288 -18.2619
-5.63848 -7.82928 -17.9089
-5.41447 -7.81648 -17.9399
-4.96648 -8.70378 -17.6859
-4.80247 -8.61198 -17.7369
-4.96948 -8.75448 -17.9629
-4.77148 -8.64738 -18.0229
-4.65848 -8.47468 -18.0949
-4.70748 -8.46538 -17.7979
-4.94148 -8.87948 -18.2119
-4.92648 -9.06648 -18.5789
-4.66648 -8.93228 -18.6559
-4.71047 -8.75728 -18.2809
-4.51848 -8.71158 -18.7479
-4.57948 -8.55828 -18.3639
-4.49748 -8.44658 -18.8399
-4.56048 -8.32028 -18.4469
-4.64248 -8.26898 -18.1669
-4.69248 -8.29148 -17.8589
-5.83348 -8.39868 -17.6859
-5.66348 -8.54598 -17.6549
-6.01448 -8.38448 -17.9629
-5.80948 -8.56018 -17.9269
-5.53548 -8.69258 -17.9149
-5.43748 -8.65588 -17.6449
-6.16447 -8.44178 -18.2119
-6.29448 -8.56818 -18.5789
-6.02647 -8.79788 -18.5329
-5.92448 -8.64648 -18.1709
-5.66748 -8.97408 -18.5179
-5.60348 -8.80208 -18.1569
-5.28048 -9.07208 -18.5329
-5.25848 -8.88708 -18.1709
-5.23948 -8.76348 -17.9269
-5.19148 -8.71348 -17.6549
-5.80048 -7.91898 -17.8589
-5.97948 -7.82038 -18.1669
-6.08948 -7.98588 -18.0949
-5.89248 -8.06048 -17.7979
-6.25248 -7.84928 -18.8399
-6.12648 -7.79318 -18.4469
-6.39348 -8.05798 -18.7479
-6.25348 -7.98238 -18.3639
-6.41248 -8.30958 -18.6559
-6.26947 -8.20948 -18.2809
-6.10448 -8.18348 -18.0229
-5.90648 -8.22858 -17.7369
-4.62948 -8.36538 -19.5669
-4.92048 -8.12508 -19.6149
-4.70948 -8.59068 -20.2959
-4.99848 -8.35258 -20.3569
-5.38448 -8.17728 -20.3859
-5.30748 -7.94828 -19.6309
-4.86048 -8.80968 -20.9349
-5.12648 -8.60188 -21.0299
-5.47948 -8.45088 -21.0939
-6.18548 -8.33808 -20.9349
-5.84948 -8.34728 -21.0299
-6.17048 -8.08268 -20.2959
-5.79648 -8.07828 -20.3569
-6.09847 -7.86638 -19.5669
-5.72248 -7.85538 -19.6149
-4.96348 -9.30318 -19.2089
-4.68648 -9.16308 -19.2899
-5.04848 -9.52118 -19.9399
-4.77248 -9.38788 -20.0339
-4.61348 -9.16118 -20.1429
-4.52748 -8.93008 -19.3879
-5.17348 -9.65178 -20.6119
-4.92448 -9.54468 -20.7359
-4.78247 -9.35228 -20.8729
-4.75348 -9.08358 -20.9119
-4.58648 -8.87778 -20.2279
-4.50348 -8.64898 -19.4849
-6.41748 -8.76158 -19.2089
-6.13248 -9.00768 -19.1599
-6.49347 -8.97088 -19.9399
-6.21348 -9.22198 -19.9039
-5.83648 -9.41808 -19.8999
-5.75248 -9.19808 -19.1439
-6.48548 -9.14478 -20.6119
-6.23548 -9.38668 -20.6179
-5.89948 -9.57828 -20.6519
-5.52148 -9.66488 -20.6179
-5.42548 -9.52458 -19.9039
-5.34048 -9.30568 -19.1599
-6.36847 -8.00088 -19.4849
-6.44248 -8.21778 -20.2279
-6.59648 -8.43848 -20.1429
-6.52048 -8.22048 -19.3879
-6.43948 -8.46998 -20.9119
-6.58648 -8.68068 -20.8729
-6.60148 -8.90748 -20.7359
-6.61748 -8.69958 -20.0339
-6.54148 -8.48658 -19.2899
-2.79248 -2.20848 -0.427881
-3.12548 -2.00308 -0.427881
-2.94448 -1.77118 -1.16688
-3.25348 -1.58818 -1.16688
-3.63748 -1.49888 -1.16688
-3.54448 -1.89968 -0.427881
-3.09148 -1.46018 -2.09888
-3.36948 -1.29938 -2.09888
-3.71448 -1.22278 -2.09888
-4.37148 -1.33588 -2.09888
-4.06748 -1.23388 -2.09888
-4.37048 -1.61848 -1.16688
-4.03048 -1.50768 -1.16688
-4.34748 -2.02018 -0.427881
-3.97448 -1.90368 -0.427881
-4.59248 -2.25428 -0.427881
-4.59148 -1.83528 -1.16688
-4.69047 -2.11308 -1.16688
-4.70448 -2.55678 -0.427881
-4.56748 -1.53228 -2.09888
-4.65348 -1.78228 -2.09888
-4.47748 -2.27978 -2.09888
-4.62548 -2.04488 -2.09888
-4.50048 -2.67058 -1.16688
-4.66248 -2.40638 -1.16688
-4.50748 -3.17038 -0.427881
-4.67848 -2.87838 -0.427881
-4.18048 -3.38408 -0.427881
-4.19848 -2.86058 -1.16688
-3.81848 -2.96498 -1.16688
-3.76748 -3.50538 -0.427881
-4.20347 -2.44638 -2.09888
-3.86148 -2.53528 -2.09888
-3.20148 -2.44138 -2.09888
-3.50748 -2.53678 -2.09888
-3.08048 -2.86928 -1.16688
-3.42448 -2.97178 -1.16688
-2.95948 -3.41338 -0.427881
-3.33648 -3.51998 -0.427881
-2.70748 -3.17108 -0.427881
-2.85348 -2.64548 -1.16688
-2.74948 -2.35268 -1.16688
-2.58848 -2.85078 -0.427881
-2.99948 -2.23928 -2.09888
-2.91048 -1.97718 -2.09888
-2.93948 -1.70188 -2.09888
-2.77848 -2.04368 -1.16688
-2.61548 -2.51048 -0.427881
-4.57048 -4.21828 0.796118
3 0 1 2
3 0 2 3
3 2 4 5
3 2 5 3
3 5 6 7
3 5 7 3
3 7 8 0
3 7 0 3
3 9 10 11
3 9 11 12
3 11 13 14
3 11 14 12
3 14 6 5
3 14 5 12
3 5 4 9
3 5 9 12
3 15 16 17
3 15 17 18
3 17 19 20
3 17 20 18
3 20 6 14
3 20 14 18
3 14 13 15
3 14 15 18
3 21 22 23
3 21 23 24
3 23 8 7
3 23 7 24
3 7 6 20
3 7 20 24
3 20 19 21
3 20 21 24
3 25 26 27
3 25 27 28
3 27 29 30
3 27 30 28
3 31 32 33
3 31 33 34
3 33 35 36
3 33 36 34
3 36 29 27
3 36 27 34
3 27 26 31
3 27 31 34
3 37 38 39
3 37 39 40
3 39 41 42
3 39 42 40
3 42 29 36
3 42 36 40
3 36 35 37
3 36 37 40
3 30 29 42
3 30 42 43
3 42 41 44
3 42 44 43
3 45 46 47
3 45 47 48
3 47 49 50
3 47 50 48
3 51 52 53
3 51 53 54
3 53 55 56
3 53 56 54
3 56 49 47
3 56 47 54
3 47 46 51
3 47 51 54
3 57 32 31
3 57 31 58
3 31 26 59
3 31 59 58
3 59 49 56
3 59 56 58
3 56 55 57
3 56 57 58
3 25 60 61
3 60 50 61
3 50 49 59
3 50 59 61
3 59 26 25
3 59 25 61
3 62 63 64
3 62 64 65
3 64 66 67
3 64 67 65
3 67 68 69
3 67 69 65
3 69 62 65
3 70 71 72
3 70 72 73
3 72 74 75
3 72 75 73
3 75 68 67
3 75 67 73
3 67 66 70
3 67 70 73
3 76 52 51
3 76 51 77
3 51 46 78
3 51 78 77
3 78 68 75
3 78 75 77
3 75 74 76
3 75 76 77
3 45 79 80
3 79 69 80
3 69 68 78
3 69 78 80
3 78 46 45
3 78 45 80
3 44 41 81
3 44 81 82
3 81 83 84
3 81 84 82
3 39 38 85
3 39 85 86
3 85 87 88
3 85 88 86
3 88 83 81
3 88 81 86
3 81 41 39
3 81 39 86
3 89 71 70
3 89 70 90
3 70 66 91
3 70 91 90
3 91 83 88
3 91 88 90
3 88 87 89
3 88 89 90
3 64 63 92
3 64 92 93
3 92 84 93
3 84 83 91
3 84 91 93
3 91 66 64
3 91 64 93
3 94 95 96
3 94 96 97
3 96 98 99
3 96 99 97
3 99 100 101
3 99 101 97
3 101 102 94
3 101 94 97
3 103 104 105
3 103 105 106
3 105 107 108
3 105 108 106
3 108 100 99
3 108 99 106
3 99 98 103
3 99 103 106
3 109 110 111
3 109 111 112
3 111 113 114
3 111 114 112
3 114 100 108
3 114 108 112
3 108 107 109
3 108 109 112
3 115 116 117
3 115 117 118
3 117 102 101
3 117 101 118
3 101 100 114
3 101 114 118
3 114 113 115
3 114 115 118
3 119 120 121
3 119 121 122
3 121 123 124
3 121 124 122
3 124 125 126
3 124 126 122
3 126 127 119
3 126 119 122
3 128 129 130
3 128 130 131
3 130 132 133
3 130 133 131
3 133 125 124
3 133 124 131
3 124 123 128
3 124 128 131
3 134 104 103
3 134 103 135
3 103 98 136
3 103 136 135
3 136 125 133
3 136 133 135
3 133 132 134
3 133 134 135
3 96 95 137
3 96 137 138
3 137 127 126
3 137 126 138
3 126 125 136
3 126 136 138
3 136 98 96
3 136 96 138
3 139 140 141
3 139 141 142
3 141 143 144
3 141 144 142
3 144 145 146
3 144 146 142
3 146 147 139
3 146 139 142
3 148 149 150
3 148 150 151
3 150 152 153
3 150 153 151
3 153 145 144
3 153 144 151
3 144 143 148
3 144 148 151
3 154 129 128
3 154 128 155
3 128 123 156
3 128 156 155
3 156 145 153
3 156 153 155
3 153 152 154
3 153 154 155
3 121 120 157
3 121 157 158
3 157 147 146
3 157 146 158
3 146 145 156
3 146 156 158
3 156 123 121
3 156 121 158
3 159 116 115
3 159 115 160
3 115 113 161
3 115 161 160
3 161 162 163
3 161 163 160
3 163 164 159
3 163 159 160
3 111 110 165
3 111 165 166
3 165 167 168
3 165 168 166
3 168 162 161
3 168 161 166
3 161 113 111
3 161 111 166
3 169 149 148
3 169 148 170
3 148 143 171
3 148 171 170
3 171 162 168
3 171 168 170
3 168 167 169
3 168 169 170
3 141 140 172
3 141 172 173
3 172 164 163
3 172 163 173
3 163 162 171
3 163 171 173
3 171 143 141
3 171 141 173
3 105 104 174
3 105 174 175
3 174 176 177
3 174 177 175
3 177 178 179
3 177 179 175
3 179 107 105
3 179 105 175
3 180 181 182
3 180 182 183
3 182 184 185
3 182 185 183
3 185 178 177
3 185 177 183
3 177 176 180
3 177 180 183
3 186 187 188
3 186 188 189
3 188 190 191
3 188 191 189
3 191 178 185
3 191 185 189
3 185 184 186
3 185 186 189
3 192 110 109
3 192 109 193
3 109 107 179
3 109 179 193
3 179 178 191
3 179 191 193
3 191 190 192
3 191 192 193
3 130 129 194
3 130 194 195
3 194 196 197
3 194 197 195
3 197 198 199
3 197 199 195
3 199 132 130
3 199 130 195
3 200 201 202
3 200 202 203
3 202 204 205
3 202 205 203
3 205 198 197
3 205 197 203
3 197 196 200
3 197 200 203
3 206 181 180
3 206 180 207
3 180 176 208
3 180 208 207
3 208 198 205
3 208 205 207
3 205 204 206
3 205 206 207
3 174 104 134
3 174 134 209
3 134 132 199
3 134 199 209
3 199 198 208
3 199 208 209
3 208 176 174
3 208 174 209
3 150 149 210
3 150 210 211
3 210 212 213
3 210 213 211
3 213 214 215
3 213 215 211
3 215 152 150
3 215 150 211
3 216 217 218
3 216 218 219
3 218 220 221
3 218 221 219
3 221 214 213
3 221 213 219
3 213 212 216
3 213 216 219
3 222 201 200
3 222 200 223
3 200 196 224
3 200 224 223
3 224 214 221
3 224 221 223
3 221 220 222
3 221 222 223
3 194 129 154
3 194 154 225
3 154 152 215
3 154 215 225
3 215 214 224
3 215 224 225
3 224 196 194
3 224 194 225
3 165 110 192
3 165 192 226
3 192 190 227
3 192 227 226
3 227 228 229
3 227 229 226
3 229 167 165
3 229 165 226
3 188 187 230
3 188 230 231
3 230 232 233
3 230 233 231
3 233 228 227
3 233 227 231
3 227 190 188
3 227 188 231
3 234 217 216
3 234 216 235
3 216 212 236
3 216 236 235
3 236 228 233
3 236 233 235
3 233 232 234
3 233 234 235
3 210 149 169
3 210 169 237
3 169 167 229
3 169 229 237
3 229 228 236
3 229 236 237
3 236 212 210
3 236 210 237
3 182 181 238
3 182 238 239
3 238 240 241
3 238 241 239
3 241 242 243
3 241 243 239
3 243 184 182
3 243 182 239
3 244 245 246
3 244 246 247
3 246 248 249
3 246 249 247
3 249 242 241
3 249 241 247
3 241 240 244
3 241 244 247
3 250 251 252
3 250 252 253
3 252 254 255
3 252 255 253
3 255 242 249
3 255 249 253
3 249 248 250
3 249 250 253
3 256 187 186
3 256 186 257
3 186 184 243
3 186 243 257
3 243 242 255
3 243 255 257
3 255 254 256
3 255 256 257
3 202 201 258
3 202 258 259
3 258 260 261
3 258 261 259
3 261 262 263
3 261 263 259
3 263 204 202
3 263 202 259
3 264 265 266
3 264 266 267
3 266 268 269
3 266 269 267
3 269 262 261
3 269 261 267
3 261 260 264
3 261 264 267
3 270 245 244
3 270 244 271
3 244 240 272
3 244 272 271
3 272 262 269
3 272 269 271
3 269 268 270
3 269 270 271
3 238 181 206
3 238 206 273
3 206 204 263
3 206 263 273
3 263 262 272
3 263 272 273
3 272 240 238
3 272 238 273
3 218 217 274
3 218 274 275
3 274 276 277
3 274 277 275
3 277 278 279
3 277 279 275
3 279 220 218
3 279 218 275
3 280 281 282
3 280 282 283
3 282 284 285
3 282 285 283
3 285 278 277
3 285 277 283
3 277 276 280
3 277 280 283
3 286 265 264
3 286 264 287
3 264 260 288
3 264 288 287
3 288 278 285
3 288 285 287
3 285 284 286
3 285 286 287
3 258 201 222
3 258 222 289
3 222 220 279
3 222 279 289
3 279 278 288
3 279 288 289
3 288 260 258
3 288 258 289
3 230 187 256
3 230 256 290
3 256 254 291
3 256 291 290
3 291 292 293
3 291 293 290
3 293 232 230
3 293 230 290
3 252 251 294
3 252 294 295
3 294 296 297
3 294 297 295
3 297 292 291
3 297 291 295
3 291 254 252
3 291 252 295
3 298 281 280
3 298 280 299
3 280 276 300
3 280 300 299
3 300 292 297
3 300 297 299
3 297 296 298
3 297 298 299
3 274 217 234
3 274 234 301
3 234 232 293
3 234 293 301
3 293 292 300
3 293 300 301
3 300 276 274
3 300 274 301
3 246 245 302
3 246 302 303
3 302 304 305
3 302 305 303
3 305 306 307
3 305 307 303
3 307 248 246
3 307 246 303
3 308 309 310
3 308 310 311
3 310 312 313
3 310 313 311
3 313 306 305
3 313 305 311
3 305 304 308
3 305 308 311
3 314 315 316
3 314 316 317
3 316 318 319
3 316 319 317
3 319 306 313
3 319 313 317
3 313 312 314
3 313 314 317
3 320 251 250
3 320 250 321
3 250 248 307
3 250 307 321
3 307 306 319
3 307 319 321
3 319 318 320
3 319 320 321
3 266 265 322
3 266 322 323
3 322 324 325
3 322 325 323
3 325 326 327
3 325 327 323
3 327 268 266
3 327 266 323
3 328 329 330
3 328 330 331
3 330 332 333
3 330 333 331
3 333 326 325
3 333 325 331
3 325 324 328
3 325 328 331
3 334 309 308
3 334 308 335
3 308 304 336
3 308 336 335
3 336 326 333
3 336 333 335
3 333 332 334
3 333 334 335
3 302 245 270
3 302 270 337
3 270 268 327
3 270 327 337
3 327 326 336
3 327 336 337
3 336 304 302
3 336 302 337
3 282 281 338
3 282 338 339
3 338 340 341
3 338 341 339
3 341 342 343
3 341 343 339
3 343 284 282
3 343 282 339
3 344 345 346
3 344 346 347
3 346 348 349
3 346 349 347
3 349 342 341
3 349 341 347
3 341 340 344
3 341 344 347
3 350 329 328
3 350 328 351
3 328 324 352
3 328 352 351
3 352 342 349
3 352 349 351
3 349 348 350
3 349 350 351
3 322 265 286
3 322 286 353
3 286 284 343
3 286 343 353
3 343 342 352
3 343 352 353
3 352 324 322
3 352 322 353
3 294 251 320
3 294 320 354
3 320 318 355
3 320 355 354
3 355 356 357
3 355 357 354
3 357 296 294
3 357 294 354
3 316 315 358
3 316 358 359
3 358 360 361
3 358 361 359
3 361 356 355
3 361 355 359
3 355 318 316
3 355 316 359
3 362 345 344
3 362 344 363
3 344 340 364
3 344 364 363
3 364 356 361
3 364 361 363
3 361 360 362
3 361 362 363
3 338 281 298
3 338 298 365
3 298 296 357
3 298 357 365
3 357 356 364
3 357 364 365
3 364 340 338
3 364 338 365
3 310 309 366
3 310 366 367
3 366 368 369
3 366 369 367
3 369 370 371
3 369 371 367
3 371 312 310
3 371 310 367
3 372 1 0
3 372 0 373
3 0 8 374
3 0 374 373
3 374 370 369
3 374 369 373
3 369 368 372
3 369 372 373
3 23 22 375
3 23 375 376
3 375 377 378
3 375 378 376
3 378 370 374
3 378 374 376
3 374 8 23
3 374 23 376
3 379 315 314
3 379 314 380
3 314 312 371
3 314 371 380
3 371 370 378
3 371 378 380
3 378 377 379
3 378 379 380
3 330 329 381
3 330 381 382
3 381 383 384
3 381 384 382
3 384 385 386
3 384 386 382
3 386 332 330
3 386 330 382
3 387 10 9
3 387 9 388
3 9 4 389
3 9 389 388
3 389 385 384
3 389 384 388
3 384 383 387
3 384 387 388
3 2 1 372
3 2 372 390
3 372 368 391
3 372 391 390
3 391 385 389
3 391 389 390
3 389 4 2
3 389 2 390
3 366 309 334
3 366 334 392
3 334 332 386
3 334 386 392
3 386 385 391
3 386 391 392
3 391 368 366
3 391 366 392
3 346 345 393
3 346 393 394
3 393 395 396
3 393 396 394
3 396 397 398
3 396 398 394
3 398 348 346
3 398 346 394
3 399 16 15
3 399 15 400
3 15 13 401
3 15 401 400
3 401 397 396
3 401 396 400
3 396 395 399
3 396 399 400
3 11 10 387
3 11 387 402
3 387 383 403
3 387 403 402
3 403 397 401
3 403 401 402
3 401 13 11
3 401 11 402
3 381 329 350
3 381 350 404
3 350 348 398
3 350 398 404
3 398 397 403
3 398 403 404
3 403 383 381
3 403 381 404
3 358 315 379
3 358 379 405
3 379 377 406
3 379 406 405
3 406 407 408
3 406 408 405
3 408 360 358
3 408 358 405
3 375 22 21
3 375 21 409
3 21 19 410
3 21 410 409
3 410 407 406
3 410 406 409
3 406 377 375
3 406 375 409
3 17 16 399
3 17 399 411
3 399 395 412
3 399 412 411
3 412 407 410
3 412 410 411
3 410 19 17
3 410 17 411
3 393 345 362
3 393 362 413
3 362 360 408
3 362 408 413
3 408 407 412
3 408 412 413
3 412 395 393
3 412 393 413
3 33 32 414
3 33 414 415
3 414 416 417
3 414 417 415
3 417 418 419
3 417 419 415
3 419 35 33
3 419 33 415
3 420 95 94
3 420 94 421
3 94 102 422
3 94 422 421
3 422 418 417
3 422 417 421
3 417 416 420
3 417 420 421
3 117 116 423
3 117 423 424
3 423 425 426
3 423 426 424
3 426 418 422
3 426 422 424
3 422 102 117
3 422 117 424
3 427 38 37
3 427 37 428
3 37 35 419
3 37 419 428
3 419 418 426
3 419 426 428
3 426 425 427
3 426 427 428
3 85 38 427
3 85 427 429
3 427 425 430
3 427 430 429
3 430 431 432
3 430 432 429
3 432 87 85
3 432 85 429
3 423 116 159
3 423 159 433
3 159 164 434
3 159 434 433
3 434 431 430
3 434 430 433
3 430 425 423
3 430 423 433
3 172 140 435
3 172 435 436
3 435 437 438
3 435 438 436
3 438 431 434
3 438 434 436
3 434 164 172
3 434 172 436
3 439 71 89
3 439 89 440
3 89 87 432
3 89 432 440
3 432 431 438
3 432 438 440
3 438 437 439
3 438 439 440
3 72 71 439
3 72 439 441
3 439 437 442
3 439 442 441
3 442 443 444
3 442 444 441
3 444 74 72
3 444 72 441
3 435 140 139
3 435 139 445
3 139 147 446
3 139 446 445
3 446 443 442
3 446 442 445
3 442 437 435
3 442 435 445
3 157 120 447
3 157 447 448
3 447 449 450
3 447 450 448
3 450 443 446
3 450 446 448
3 446 147 157
3 446 157 448
3 451 52 76
3 451 76 452
3 76 74 444
3 76 444 452
3 444 443 450
3 444 450 452
3 450 449 451
3 450 451 452
3 53 52 451
3 53 451 453
3 451 449 454
3 451 454 453
3 454 455 456
3 454 456 453
3 456 55 53
3 456 53 453
3 447 120 119
3 447 119 457
3 119 127 458
3 119 458 457
3 458 455 454
3 458 454 457
3 454 449 447
3 454 447 457
3 137 95 420
3 137 420 459
3 420 416 460
3 420 460 459
3 460 455 458
3 460 458 459
3 458 127 137
3 458 137 459
3 414 32 57
3 414 57 461
3 57 55 456
3 57 456 461
3 456 455 460
3 456 460 461
3 460 416 414
3 460 414 461
3 92 63 462
3 462 63 62
