OFF
461 889 0
-13.0735 10.4043 9.90898
-11.9735 11.9367 10.21
-12.8605 11.7896 9.84798
-13.5625 10.4256 9.51298
-13.3935 11.7674 9.25698
-14.0495 10.4144 8.86998
-14.4445 8.7178 8.17498
-14.0315 8.7126 8.82298
-13.6335 8.7026 9.25198
-13.6935 11.8392 8.46498
-13.6935 12.0352 7.34398
-14.7305 10.479 6.98298
-14.4105 10.4672 8.03198
-15.1895 8.7541 6.32598
-14.8275 8.7409 7.33798
-15.1545 7.0432 5.47698
-14.5765 5.5766 4.53098
-14.2305 5.5065 5.47598
-14.7965 7.0049 6.45398
-13.8785 5.4804 6.28898
-14.4235 6.9861 7.28098
-13.5345 5.499 6.94498
-13.2125 5.5625 7.42198
-13.7025 7.0127 8.38798
-14.0535 6.9883 7.93298
-8.07546 8.8663 4.89898
-8.16746 9.6244 5.39198
-8.84346 10.0409 5.79898
-9.05446 9.0891 5.26598
-9.84246 10.3454 6.39198
-10.1495 9.3365 5.85198
-10.4275 8.1196 5.37298
-9.23946 7.9459 4.78998
-8.17946 7.8019 4.44398
-10.8505 10.3383 6.97898
-11.5465 10.1254 7.37198
-12.0375 9.4571 7.17698
-11.2135 9.4119 6.50398
-12.4165 8.4372 6.82198
-11.5505 8.2933 6.08598
-12.4545 7.3729 6.40098
-12.2555 6.6148 6.07298
-11.6865 6.1983 5.50198
-11.6655 7.1501 5.70198
-10.7545 5.8938 4.87398
-10.6405 6.9026 5.02398
-9.71446 5.9009 4.44898
-8.92846 6.1138 4.28798
-8.52646 6.7821 4.24998
-9.52346 6.8273 4.52598
-10.9685 6.7463 -1.01702
-11.2405 6.0047 -0.864016
-12.1175 5.8131 -0.776016
-12.1465 6.8321 -0.906016
-13.2595 5.8232 -0.369016
-13.3575 6.9214 -0.454016
-13.3195 8.1871 -0.210016
-12.0275 8.009 -0.736016
-10.7555 7.8527 -0.894016
-14.2835 6.1232 0.336984
-14.9145 6.5308 1.03698
-15.2335 7.3599 1.24598
-14.4335 7.1618 0.308984
-15.3235 8.5126 1.60898
-14.4715 8.3629 0.600984
-15.0285 9.6226 2.03398
-14.5555 10.3636 2.36098
-13.8795 10.5558 1.79198
-14.2315 9.5403 1.08198
-12.8185 10.5421 1.08398
-13.1415 9.4506 0.318984
-11.6655 10.2351 0.502984
-10.8075 9.8213 0.187984
-10.7155 8.9984 -0.406016
-11.9215 9.2054 -0.220016
-7.73946 3.5739 3.68698
-7.07946 4.2145 4.33398
-8.86246 3.8884 4.83398
-9.16246 3.6413 4.27498
-10.5735 4.0327 5.57298
-10.8385 3.895 5.05098
-11.1605 3.8418 4.38198
-9.53346 3.5304 3.58798
-8.15346 3.3951 2.98898
-12.0965 4.58 6.45998
-12.3795 4.4911 5.96198
-12.7005 4.4621 5.30198
-13.4035 4.5842 3.58398
-13.0455 4.4931 4.50198
-11.8575 4.0334 2.70098
-11.4925 3.895 3.58998
-10.1605 3.8914 1.94398
-8.44046 4.2273 1.38098
-8.39646 3.5776 2.23698
-9.82246 3.6425 2.80198
-4.98846 9.3743 5.62198
-5.11746 11.2601 6.18298
-5.65546 10.7124 6.56098
-5.29546 9.2606 5.80498
-6.01946 10.4355 6.69398
-5.63046 9.105 5.92898
-5.80146 7.5859 5.39098
-5.54746 7.5592 5.27898
-5.32646 7.535 5.13698
-6.31346 10.2735 6.67498
-6.57946 10.1906 6.50298
-6.20646 8.9949 5.79198
-5.92746 9.0264 5.93198
-6.32846 7.6423 5.28598
-6.06246 7.6164 5.40598
-6.88146 6.3526 5.02298
-7.80446 5.3452 5.04198
-7.62446 5.2208 5.15898
-6.65046 6.2717 5.13598
-7.45646 5.0155 5.09698
-6.42746 6.138 5.09298
-7.28846 4.7118 4.85198
-5.99246 5.7762 4.69998
-6.21046 5.9397 4.91298
-10.1865 12.256 9.59398
-11.6535 11.4806 10.146
-10.1485 11.9987 9.64098
-11.4545 11.1961 9.98598
-10.0545 11.7331 9.51598
-8.50946 11.7506 8.68198
-8.45446 11.9767 8.71998
-8.46746 12.1845 8.65098
-11.3665 11.0033 9.73998
-11.3905 10.8864 9.40798
-10.1415 11.3901 8.99298
-10.0525 11.5285 9.30098
-8.77346 11.4205 8.26298
-8.61346 11.559 8.52998
-7.51046 11.0099 7.37998
-7.28846 11.1291 7.59798
-7.07246 11.3177 7.67698
-6.78946 11.8589 7.51998
-6.83346 11.5828 7.61298
-12.9265 5.6714 7.69698
-13.3855 7.0606 8.62298
-12.6975 5.8017 7.78698
-13.1285 7.1203 8.66498
-13.0335 8.6225 9.41198
-13.2955 8.6651 9.43298
-12.5455 5.9294 7.71098
-12.4945 6.0304 7.48398
-12.8875 7.2279 8.27198
-12.9545 7.18 8.53898
-12.8055 8.584 8.93198
-12.8635 8.5971 9.23598
-12.2925 9.8773 9.34898
-12.3185 9.9488 9.67698
-12.4615 10.0702 9.90198
-12.7105 10.2539 10.009
-8.78746 4.1852 5.23698
-8.83846 4.4726 5.46798
-10.3305 4.4543 6.10398
-10.4105 4.2331 5.92398
-9.03246 4.8398 5.37998
-8.91646 4.692 5.51298
-10.3615 4.8059 5.95498
-10.3115 4.6545 6.11298
-11.5835 5.2129 6.68398
-11.5935 5.0773 6.87298
-11.6905 4.9052 6.90498
-11.8625 4.7287 6.77098
-6.85746 10.1511 6.17898
-6.48746 8.9803 5.48698
-7.20546 10.0751 5.81798
-6.84546 8.9484 5.14798
-6.94046 7.6745 4.66498
-6.59546 7.6556 4.99298
-7.68046 9.8825 5.53398
-7.35746 8.8649 4.90598
-7.44046 7.7173 4.44198
-8.59946 5.7697 4.27298
-7.86346 6.6249 4.23798
-8.26646 5.5116 4.43998
-7.43046 6.4601 4.42098
-8.00946 5.4061 4.74898
-7.12246 6.3924 4.73398
-11.5265 10.83 8.98998
-10.3195 11.3232 8.58798
-11.6575 10.7268 8.48598
-10.5145 11.2031 8.09898
-9.25546 11.2343 7.42498
-8.99346 11.3537 7.88398
-11.6625 10.4695 7.89798
-10.6545 10.9051 7.53698
-9.54146 10.9381 6.92198
-8.47946 10.5854 6.22998
-8.08046 10.8477 6.62098
-7.76646 10.9526 7.02898
-12.5635 6.0808 7.12598
-12.9535 7.2523 7.88998
-12.6125 6.1623 6.71598
-12.9965 7.2892 7.43798
-12.9435 8.5634 8.03798
-12.8835 8.5785 8.52898
-12.5015 6.3567 6.33598
-12.8645 7.3743 6.95998
-12.8345 8.5218 7.47098
-12.4115 9.6143 7.82998
-12.4815 9.7781 8.42598
-12.3945 9.8431 8.93298
-9.19746 4.9123 5.07798
-9.39746 5.0351 4.74798
-10.6285 5.0036 5.27798
-10.4855 4.8804 5.63798
-9.62146 5.3341 4.52998
-10.7345 5.3011 4.99098
-11.7425 5.6538 5.63598
-11.7615 5.3899 5.96498
-11.6745 5.28 6.34798
-5.94546 11.7878 4.09198
-6.85446 11.3687 3.21898
-7.36346 11.9686 4.51298
-6.50946 11.9497 4.66998
-7.82146 12.1618 5.31398
-7.12946 12.0951 5.33998
-6.73646 12.0728 5.65298
-6.02946 11.9775 5.19298
-5.42046 11.8889 4.79598
-8.22946 12.2387 5.87798
-8.55346 12.2545 6.25398
-8.18246 12.2056 6.25498
-7.70946 12.171 5.86898
-7.96546 12.1825 6.40798
-7.41046 12.1391 6.07198
-7.92546 12.1867 6.67598
-8.08246 12.2198 7.02398
-7.59146 12.1909 6.92198
-7.36146 12.145 6.43898
-6.93746 12.0969 6.76898
-6.64546 12.0595 6.13898
-6.13746 11.8835 6.55398
-5.12646 11.7323 5.47498
-5.83246 11.9024 5.80098
-12.2175 12.3753 6.24198
-12.5325 12.5511 7.74598
-11.5545 12.5378 6.80598
-11.6675 12.6892 7.78998
-10.9235 12.605 7.04698
-9.90846 12.4759 6.31198
-10.1765 12.4297 5.85498
-10.5755 12.3103 5.16698
-10.9895 12.6555 7.68098
-10.4955 12.5553 7.52498
-10.1195 12.4917 7.13098
-10.4505 12.5673 7.12898
-9.61046 12.4113 6.74898
-9.72746 12.4558 6.58998
-9.05946 12.3276 6.43798
-8.94446 12.34 6.14498
-8.81146 12.3084 5.68598
-8.81446 11.9813 4.13798
-8.68246 12.1843 4.99898
-11.2925 12.4689 9.75398
-12.1425 12.467 9.67798
-10.7645 12.6245 9.23598
-11.4585 12.6861 9.22998
-11.8595 12.7158 8.93598
-12.6335 12.4686 9.22898
-10.3355 12.6072 8.72398
-10.0165 12.5203 8.29498
-10.3895 12.5693 8.29298
-10.8595 12.675 8.73298
-10.6085 12.5925 8.14098
-11.1635 12.7071 8.52998
-10.6515 12.5884 7.87298
-11.2165 12.7013 8.16398
-11.9545 12.7215 8.43798
-12.8275 12.5124 8.56898
-7.15946 12.0801 7.50898
-7.69046 12.2267 7.51498
-8.70646 12.389 8.25598
-8.56646 12.3212 8.48298
-8.45746 12.2833 7.41798
-8.12746 12.279 7.47298
-8.96346 12.3637 7.79898
-8.84646 12.3903 8.01198
-9.51246 12.4472 8.11098
-9.62346 12.5061 8.45698
-9.78946 12.5235 8.87098
-10.0225 12.4356 9.29298
-8.63646 12.2277 6.81198
-8.62046 12.2287 6.80298
-8.73946 12.2422 6.70998
-8.67646 12.2494 7.14698
-8.66246 12.2503 7.14498
-8.59046 12.2311 6.95398
-8.60646 12.2302 6.96098
-8.60646 12.2868 6.98798
-8.67546 12.3069 7.17298
-9.83546 12.4537 7.78098
-9.64046 12.4253 7.79398
-9.63146 12.4228 7.78198
-9.94046 12.4642 7.67698
-9.95546 12.4672 7.68798
-9.98546 12.4648 7.53698
-8.84746 12.2873 7.35298
-8.85646 12.2861 7.35098
-8.85446 12.3441 7.37398
-9.10546 12.3325 7.54398
-9.10146 12.3341 7.55098
-9.38046 12.3827 7.70698
-9.37746 12.3807 7.69698
-4.38546 10.6922 5.31698
-4.45746 10.6931 5.36498
-4.65246 9.2404 5.30798
-4.59746 9.2372 5.28198
-5.05146 7.4982 4.97698
-5.00646 7.5015 4.97198
-4.63046 10.8171 5.56598
-4.77846 9.3268 5.43898
-5.15946 7.512 5.03398
-6.41946 4.3245 3.99198
-5.76246 5.7471 4.55498
-6.14446 4.3469 3.85398
-5.58546 5.772 4.47498
-6.05346 4.3301 3.80998
-5.51746 5.7561 4.46998
-5.52246 5.7707 4.45698
-6.51646 3.4179 3.09998
-6.50946 3.4652 3.10398
-6.61846 3.5077 3.16498
-6.97546 3.2365 2.49498
-6.85646 3.1786 2.43498
-6.95946 3.5367 3.33798
-7.35346 3.3029 2.65298
-7.56646 4.3427 1.54298
-7.57246 3.5426 1.99598
-7.20946 4.3675 1.59298
-7.18446 3.5152 1.93298
-7.09846 4.3518 1.59698
-7.11146 4.3172 1.57698
-7.07646 3.4261 1.88298
-7.06346 3.4732 1.89998
-6.93946 5.8034 1.60298
-6.92846 5.8173 1.62198
-7.01246 5.8172 1.59098
-6.66846 7.5693 1.87398
-6.60246 7.5736 1.91298
-7.74446 5.8177 1.13298
-7.28546 5.79 1.46498
-7.27746 7.6055 1.38698
-6.87846 7.5826 1.73398
-6.97046 9.4695 2.02298
-6.06546 10.908 3.06998
-6.49346 9.4183 2.31898
-5.78046 10.7782 3.04898
-6.25046 9.3285 2.38798
-6.17046 9.3252 2.40798
-5.68146 10.7762 3.04398
-5.27746 11.6013 3.77398
-5.18446 11.6308 3.76098
-4.83346 11.8436 4.46898
-4.75346 11.8966 4.44898
-5.53246 11.6627 3.83898
-5.03846 11.8427 4.56998
-4.72746 11.6082 5.21098
-4.53946 11.5509 5.04198
-4.44146 11.6489 5.02798
-4.46246 11.5812 5.00398
-7.12446 4.285 1.55698
-9.81546 12.467 8.02598
-10.0935 12.5044 8.01698
-9.70446 12.439 7.87798
-9.92946 12.4703 7.86598
-10.0665 12.4852 7.76298
-10.2595 12.5222 7.89698
-9.65546 12.4279 7.81298
-9.85746 12.4568 7.79998
-9.98046 12.4706 7.70498
-9.93746 12.4487 7.35298
-10.0115 12.4682 7.54898
-10.0125 12.4616 7.37498
-10.0985 12.4827 7.59198
-10.1845 12.4939 7.42798
-10.2955 12.5191 7.69098
-9.91046 12.4454 7.13298
-9.79546 12.421 7.13498
-9.49746 12.3697 6.90698
-9.53746 12.384 6.84998
-9.72846 12.4086 7.13798
-9.74446 12.4112 7.13698
-9.47946 12.3638 6.93198
-9.17146 12.3163 6.72398
-8.75746 12.2644 6.49098
-9.13146 12.3202 6.62198
-8.86946 12.2695 6.62098
-8.47946 12.227 6.49898
-8.64446 12.2382 6.63298
-8.50946 12.2233 6.73598
-8.31546 12.2093 6.61898
-8.91946 12.2712 6.67898
-8.71746 12.2423 6.69198
-8.59446 12.2285 6.78698
-8.63946 12.2504 7.13998
-8.56446 12.2309 6.94298
-8.56346 12.247 7.12398
-8.47746 12.2259 6.90698
-8.39246 12.2376 7.08898
-8.28146 12.2124 6.82498
-8.66546 12.2861 7.38298
-8.78046 12.2875 7.36398
-9.07746 12.3389 7.59198
-9.03746 12.3474 7.66598
-8.83146 12.2879 7.35598
-9.09546 12.3353 7.55998
-9.38546 12.3847 7.72298
-9.40246 12.3923 7.77498
-9.44146 12.4112 7.89398
-9.27246 4.7303 0.588984
-8.38346 5.982 0.485984
-9.99046 5.1164 -0.151016
-9.15146 6.232 -0.228016
-8.72546 7.6704 -0.00701612
-7.91146 7.6298 0.730984
-10.6835 5.5609 -0.667016
-9.99146 6.5165 -0.760016
-9.66346 7.7423 -0.600016
-10.1065 10.1495 0.565984
-9.66546 9.0231 -0.111016
-9.19646 10.4936 1.26498
-8.70146 9.1769 0.514984
-8.18246 10.8301 2.16498
-7.75546 9.3574 1.32398
-14.9015 5.6905 3.47498
-13.7615 4.7356 2.57298
-15.1095 5.8833 2.44698
-14.0465 5.0007 1.60398
-12.6935 4.5594 0.825984
-12.2805 4.2357 1.73798
-15.1015 6.1904 1.58498
-14.1875 5.433 0.813984
-13.0295 5.0622 0.0909839
-11.7785 5.0905 -0.393016
-11.2565 4.5784 0.220984
-10.6775 4.1911 1.04098
-14.1715 11.5946 5.80598
-15.0945 10.3449 5.71198
-14.5125 11.2352 4.44498
-15.3565 10.1164 4.37798
-15.7535 8.6785 3.91798
-15.5385 8.7295 5.15198
-14.6375 10.804 3.23498
-15.3695 9.8451 3.14198
-15.7165 8.6119 2.72498
-15.6195 7.3219 2.21398
-15.6745 7.1884 3.24598
-15.4835 7.0999 4.36998
-9.46446 11.7131 3.15398
-10.3265 11.3624 2.16498
-11.7805 11.7862 3.09698
-11.1495 12.1107 4.19398
-11.0975 10.9119 1.28998
-12.3515 11.292 2.03498
-13.5815 11.2711 2.77498
-13.2475 11.7678 3.93698
-12.7875 12.1272 5.18898
3 0 1 2
3 0 2 3
3 2 4 5
3 2 5 3
3 5 6 7
3 5 7 3
3 7 8 0
3 7 0 3
3 9 10 11
3 9 11 12
3 11 13 14
3 11 14 12
3 14 6 5
3 14 5 12
3 5 4 9
3 5 9 12
3 15 16 17
3 15 17 18
3 17 19 20
3 17 20 18
3 20 6 14
3 20 14 18
3 14 13 15
3 14 15 18
3 21 22 23
3 21 23 24
3 23 8 7
3 23 7 24
3 7 6 20
3 7 20 24
3 20 19 21
3 20 21 24
3 25 26 27
3 25 27 28
3 27 29 30
3 27 30 28
3 30 31 32
3 30 32 28
3 32 33 25
3 32 25 28
3 34 35 36
3 34 36 37
3 36 38 39
3 36 39 37
3 39 31 30
3 39 30 37
3 30 29 34
3 30 34 37
3 40 41 42
3 40 42 43
3 42 44 45
3 42 45 43
3 45 31 39
3 45 39 43
3 39 38 40
3 39 40 43
3 46 47 48
3 46 48 49
3 48 33 32
3 48 32 49
3 32 31 45
3 32 45 49
3 45 44 46
3 45 46 49
3 50 51 52
3 50 52 53
3 52 54 55
3 52 55 53
3 55 56 57
3 55 57 53
3 57 58 50
3 57 50 53
3 59 60 61
3 59 61 62
3 61 63 64
3 61 64 62
3 64 56 55
3 64 55 62
3 55 54 59
3 55 59 62
3 65 66 67
3 65 67 68
3 67 69 70
3 67 70 68
3 70 56 64
3 70 64 68
3 64 63 65
3 64 65 68
3 71 72 73
3 71 73 74
3 73 58 57
3 73 57 74
3 57 56 70
3 57 70 74
3 70 69 71
3 70 71 74
3 75 76 77
3 75 77 78
3 77 79 80
3 77 80 78
3 80 81 82
3 80 82 78
3 82 83 75
3 82 75 78
3 84 22 21
3 84 21 85
3 21 19 86
3 21 86 85
3 86 81 80
3 86 80 85
3 80 79 84
3 80 84 85
3 17 16 87
3 17 87 88
3 87 89 90
3 87 90 88
3 90 81 86
3 90 86 88
3 86 19 17
3 86 17 88
3 91 92 93
3 91 93 94
3 93 83 82
3 93 82 94
3 82 81 90
3 82 90 94
3 90 89 91
3 90 91 94
3 95 96 97
3 95 97 98
3 97 99 100
3 97 100 98
3 100 101 102
3 100 102 98
3 102 103 95
3 102 95 98
3 104 105 106
3 104 106 107
3 106 108 109
3 106 109 107
3 109 101 100
3 109 100 107
3 100 99 104
3 100 104 107
3 110 111 112
3 110 112 113
3 112 114 115
3 112 115 113
3 115 101 109
3 115 109 113
3 109 108 110
3 109 110 113
3 116 76 117
3 116 117 118
3 117 103 102
3 117 102 118
3 102 101 115
3 102 115 118
3 115 114 116
3 115 116 118
3 119 1 120
3 119 120 121
3 120 122 123
3 120 123 121
3 123 124 125
3 123 125 121
3 125 126 119
3 125 119 121
3 127 128 129
3 127 129 130
3 129 131 132
3 129 132 130
3 132 124 123
3 132 123 130
3 123 122 127
3 123 127 130
3 133 105 104
3 133 104 134
3 104 99 135
3 104 135 134
3 135 124 132
3 135 132 134
3 132 131 133
3 132 133 134
3 97 96 136
3 97 136 137
3 136 126 125
3 136 125 137
3 125 124 135
3 125 135 137
3 135 99 97
3 135 97 137
3 23 22 138
3 23 138 139
3 138 140 141
3 138 141 139
3 141 142 143
3 141 143 139
3 143 8 23
3 143 23 139
3 144 145 146
3 144 146 147
3 146 148 149
3 146 149 147
3 149 142 141
3 149 141 147
3 141 140 144
3 141 144 147
3 150 128 127
3 150 127 151
3 127 122 152
3 127 152 151
3 152 142 149
3 152 149 151
3 149 148 150
3 149 150 151
3 120 1 0
3 120 0 153
3 0 8 143
3 0 143 153
3 143 142 152
3 143 152 153
3 152 122 120
3 152 120 153
3 77 76 116
3 77 116 154
3 116 114 155
3 116 155 154
3 155 156 157
3 155 157 154
3 157 79 77
3 157 77 154
3 112 111 158
3 112 158 159
3 158 160 161
3 158 161 159
3 161 156 155
3 161 155 159
3 155 114 112
3 155 112 159
3 162 145 144
3 162 144 163
3 144 140 164
3 144 164 163
3 164 156 161
3 164 161 163
3 161 160 162
3 161 162 163
3 138 22 84
3 138 84 165
3 84 79 157
3 84 157 165
3 157 156 164
3 157 164 165
3 164 140 138
3 164 138 165
3 106 105 166
3 106 166 167
3 166 168 169
3 166 169 167
3 169 170 171
3 169 171 167
3 171 108 106
3 171 106 167
3 172 26 25
3 172 25 173
3 25 33 174
3 25 174 173
3 174 170 169
3 174 169 173
3 169 168 172
3 169 172 173
3 48 47 175
3 48 175 176
3 175 177 178
3 175 178 176
3 178 170 174
3 178 174 176
3 174 33 48
3 174 48 176
3 179 111 110
3 179 110 180
3 110 108 171
3 110 171 180
3 171 170 178
3 171 178 180
3 178 177 179
3 178 179 180
3 129 128 181
3 129 181 182
3 181 183 184
3 181 184 182
3 184 185 186
3 184 186 182
3 186 131 129
3 186 129 182
3 187 35 34
3 187 34 188
3 34 29 189
3 34 189 188
3 189 185 184
3 189 184 188
3 184 183 187
3 184 187 188
3 27 26 172
3 27 172 190
3 172 168 191
3 172 191 190
3 191 185 189
3 191 189 190
3 189 29 27
3 189 27 190
3 166 105 133
3 166 133 192
3 133 131 186
3 133 186 192
3 186 185 191
3 186 191 192
3 191 168 166
3 191 166 192
3 146 145 193
3 146 193 194
3 193 195 196
3 193 196 194
3 196 197 198
3 196 198 194
3 198 148 146
3 198 146 194
3 199 41 40
3 199 40 200
3 40 38 201
3 40 201 200
3 201 197 196
3 201 196 200
3 196 195 199
3 196 199 200
3 36 35 187
3 36 187 202
3 187 183 203
3 187 203 202
3 203 197 201
3 203 201 202
3 201 38 36
3 201 36 202
3 181 128 150
3 181 150 204
3 150 148 198
3 150 198 204
3 198 197 203
3 198 203 204
3 203 183 181
3 203 181 204
3 158 111 179
3 158 179 205
3 179 177 206
3 179 206 205
3 206 207 208
3 206 208 205
3 208 160 158
3 208 158 205
3 175 47 46
3 175 46 209
3 46 44 210
3 46 210 209
3 210 207 206
3 210 206 209
3 206 177 175
3 206 175 209
3 42 41 199
3 42 199 211
3 199 195 212
3 199 212 211
3 212 207 210
3 212 210 211
3 210 44 42
3 210 42 211
3 193 145 162
3 193 162 213
3 162 160 208
3 162 208 213
3 208 207 212
3 208 212 213
3 212 195 193
3 212 193 213
3 214 215 216
3 214 216 217
3 216 218 219
3 216 219 217
3 219 220 221
3 219 221 217
3 221 222 214
3 221 214 217
3 223 224 225
3 223 225 226
3 225 227 228
3 225 228 226
3 228 220 219
3 228 219 226
3 219 218 223
3 219 223 226
3 229 230 231
3 229 231 232
3 231 233 234
3 231 234 232
3 234 220 228
3 234 228 232
3 228 227 229
3 228 229 232
3 235 96 236
3 235 236 237
3 236 222 221
3 236 221 237
3 221 220 234
3 221 234 237
3 234 233 235
3 234 235 237
3 238 10 239
3 238 239 240
3 239 241 242
3 239 242 240
3 242 243 244
3 242 244 240
3 244 245 238
3 244 238 240
3 246 247 248
3 246 248 249
3 248 250 251
3 248 251 249
3 251 243 242
3 251 242 249
3 242 241 246
3 242 246 249
3 252 224 223
3 252 223 253
3 223 218 254
3 223 254 253
3 254 243 251
3 254 251 253
3 251 250 252
3 251 252 253
3 216 215 255
3 216 255 256
3 255 245 244
3 255 244 256
3 244 243 254
3 244 254 256
3 254 218 216
3 254 216 256
3 2 1 257
3 2 257 258
3 257 259 260
3 257 260 258
3 260 261 262
3 260 262 258
3 262 4 2
3 262 2 258
3 263 264 265
3 263 265 266
3 265 267 268
3 265 268 266
3 268 261 260
3 268 260 266
3 260 259 263
3 260 263 266
3 269 247 246
3 269 246 270
3 246 241 271
3 246 271 270
3 271 261 268
3 271 268 270
3 268 267 269
3 268 269 270
3 239 10 9
3 239 9 272
3 9 4 262
3 9 262 272
3 262 261 271
3 262 271 272
3 271 241 239
3 271 239 272
3 136 96 235
3 136 235 273
3 235 233 274
3 235 274 273
3 274 275 276
3 274 276 273
3 276 126 136
3 276 136 273
3 231 230 277
3 231 277 278
3 277 279 280
3 277 280 278
3 280 275 274
3 280 274 278
3 274 233 231
3 274 231 278
3 281 264 263
3 281 263 282
3 263 259 283
3 263 283 282
3 283 275 280
3 283 280 282
3 280 279 281
3 280 281 282
3 257 1 119
3 257 119 284
3 119 126 276
3 119 276 284
3 276 275 283
3 276 283 284
3 283 259 257
3 283 257 284
3 285 286 287
3 288 289 290
3 288 290 291
3 290 286 285
3 290 285 291
3 285 292 291
3 292 293 288
3 292 288 291
3 294 295 296
3 297 298 294
3 299 298 297
3 300 289 288
3 300 288 301
3 288 293 302
3 288 302 301
3 302 303 301
3 303 304 300
3 303 300 301
3 296 295 305
3 296 305 306
3 305 304 303
3 305 303 306
3 307 308 309
3 307 309 310
3 309 311 312
3 309 312 310
3 313 96 95
3 313 95 314
3 95 103 315
3 95 315 314
3 315 311 309
3 315 309 314
3 309 308 313
3 309 313 314
3 117 76 316
3 117 316 317
3 316 318 319
3 316 319 317
3 319 311 315
3 319 315 317
3 315 103 117
3 315 117 317
3 320 321 322
3 321 312 322
3 312 311 319
3 312 319 322
3 319 318 320
3 319 320 322
3 323 320 324
3 320 318 325
3 320 325 324
3 325 326 327
3 325 327 324
3 327 323 324
3 316 76 75
3 316 75 328
3 75 83 329
3 75 329 328
3 329 326 325
3 329 325 328
3 325 318 316
3 325 316 328
3 93 92 330
3 93 330 331
3 330 332 333
3 330 333 331
3 333 326 329
3 333 329 331
3 329 83 93
3 329 93 331
3 334 335 336
3 334 336 337
3 336 327 337
3 327 326 333
3 327 333 337
3 333 332 334
3 333 334 337
3 338 335 334
3 338 334 339
3 334 332 340
3 334 340 339
3 340 341 342
3 340 342 339
3 342 338 339
3 330 92 343
3 330 343 344
3 343 345 346
3 343 346 344
3 346 341 340
3 346 340 344
3 340 332 330
3 340 330 344
3 347 215 348
3 347 348 349
3 348 350 351
3 348 351 349
3 351 341 346
3 351 346 349
3 346 345 347
3 346 347 349
3 342 341 351
3 342 351 352
3 351 350 353
3 351 353 352
3 353 350 354
3 353 354 355
3 354 356 357
3 354 357 355
3 348 215 214
3 348 214 358
3 214 222 359
3 214 359 358
3 359 356 354
3 359 354 358
3 354 350 348
3 354 348 358
3 236 96 313
3 236 313 360
3 313 308 361
3 313 361 360
3 361 356 359
3 361 359 360
3 359 222 236
3 359 236 360
3 307 362 363
3 362 357 363
3 357 356 361
3 357 361 363
3 361 308 307
3 361 307 363
3 336 335 364
3 364 335 338
3 265 264 365
3 265 365 366
3 365 367 368
3 365 368 366
3 368 369 370
3 368 370 366
3 370 267 265
3 370 265 366
3 371 295 294
3 371 294 372
3 294 298 373
3 294 373 372
3 373 369 368
3 373 368 372
3 368 367 371
3 368 371 372
3 299 374 375
3 374 376 377
3 374 377 375
3 377 369 373
3 377 373 375
3 373 298 299
3 373 299 375
3 378 247 269
3 378 269 379
3 269 267 370
3 269 370 379
3 370 369 377
3 370 377 379
3 377 376 378
3 377 378 379
3 248 247 378
3 248 378 380
3 378 376 381
3 378 381 380
3 381 382 383
3 381 383 380
3 383 250 248
3 383 248 380
3 374 384 385
3 384 386 385
3 386 382 381
3 386 381 385
3 381 376 374
3 381 374 385
3 387 382 386
3 388 224 252
3 388 252 389
3 252 250 383
3 252 383 389
3 383 382 387
3 383 387 389
3 387 390 388
3 387 388 389
3 225 224 388
3 225 388 391
3 388 390 392
3 388 392 391
3 392 393 394
3 392 394 391
3 394 227 225
3 394 225 391
3 395 287 396
3 287 286 397
3 287 397 396
3 397 393 392
3 397 392 396
3 392 390 395
3 392 395 396
3 290 289 398
3 290 398 399
3 398 400 401
3 398 401 399
3 401 393 397
3 401 397 399
3 397 286 290
3 397 290 399
3 402 230 229
3 402 229 403
3 229 227 394
3 229 394 403
3 394 393 401
3 394 401 403
3 401 400 402
3 401 402 403
3 277 230 402
3 277 402 404
3 402 400 405
3 402 405 404
3 405 406 407
3 405 407 404
3 407 279 277
3 407 277 404
3 398 289 300
3 398 300 408
3 300 304 409
3 300 409 408
3 409 406 405
3 409 405 408
3 405 400 398
3 405 398 408
3 305 295 371
3 305 371 410
3 371 367 411
3 371 411 410
3 411 406 409
3 411 409 410
3 409 304 305
3 409 305 410
3 365 264 281
3 365 281 412
3 281 279 407
3 281 407 412
3 407 406 411
3 407 411 412
3 411 367 365
3 411 365 412
3 343 92 413
3 343 413 414
3 413 415 416
3 413 416 414
3 416 417 418
3 416 418 414
3 418 345 343
3 418 343 414
3 419 51 50
3 419 50 420
3 50 58 421
3 50 421 420
3 421 417 416
3 421 416 420
3 416 415 419
3 416 419 420
3 73 72 422
3 73 422 423
3 422 424 425
3 422 425 423
3 425 417 421
3 425 421 423
3 421 58 73
3 421 73 423
3 426 215 347
3 426 347 427
3 347 345 418
3 347 418 427
3 418 417 425
3 418 425 427
3 425 424 426
3 425 426 427
3 87 16 428
3 87 428 429
3 428 430 431
3 428 431 429
3 431 432 433
3 431 433 429
3 433 89 87
3 433 87 429
3 434 60 59
3 434 59 435
3 59 54 436
3 59 436 435
3 436 432 431
3 436 431 435
3 431 430 434
3 431 434 435
3 52 51 419
3 52 419 437
3 419 415 438
3 419 438 437
3 438 432 436
3 438 436 437
3 436 54 52
3 436 52 437
3 413 92 91
3 413 91 439
3 91 89 433
3 91 433 439
3 433 432 438
3 433 438 439
3 438 415 413
3 438 413 439
3 11 10 440
3 11 440 441
3 440 442 443
3 440 443 441
3 443 444 445
3 443 445 441
3 445 13 11
3 445 11 441
3 446 66 65
3 446 65 447
3 65 63 448
3 65 448 447
3 448 444 443
3 448 443 447
3 443 442 446
3 443 446 447
3 61 60 434
3 61 434 449
3 434 430 450
3 434 450 449
3 450 444 448
3 450 448 449
3 448 63 61
3 448 61 449
3 428 16 15
3 428 15 451
3 15 13 445
3 15 445 451
3 445 444 450
3 445 450 451
3 450 430 428
3 450 428 451
3 255 215 426
3 255 426 452
3 426 424 453
3 426 453 452
3 453 454 455
3 453 455 452
3 455 245 255
3 455 255 452
3 422 72 71
3 422 71 456
3 71 69 457
3 71 457 456
3 457 454 453
3 457 453 456
3 453 424 422
3 453 422 456
3 67 66 446
3 67 446 458
3 446 442 459
3 446 459 458
3 459 454 457
3 459 457 458
3 457 69 67
3 457 67 458
3 440 10 238
3 440 238 460
3 238 245 455
3 238 455 460
3 455 454 459
3 455 459 460
3 459 442 440
3 459 440 460
